,orgname,action,date1,minvalue,maxvalue
0,DTB Farms,Sold,2009-12-31,100001,250000
1,Latham Seed,Sold,2009-12-31,250001,500000
2,"Farm Buildings, Alexander, Iowa",Sold,2011-09-01,100001,250000
3,"Modderman Farm, Alexander, Iowa",Sold,2011-09-01,500001,1000000
