,orgname,action,date1,minvalue,maxvalue
0,Turner Effect,Sold,2000-08-12,1001.0,15000.0
1,American International Group,Sold,2008-05-16,1001.0,15000.0
2,Target Corp,Sold,2008-06-03,1001.0,15000.0
3,Apache Corp,Sold,2008-08-28,1001.0,15000.0
4,Dupont Co,Purchased,2008-08-28,1001.0,15000.0
5,Masco Corp,Sold,2008-08-28,1001.0,15000.0
6,Merck & Co,Sold,2008-08-28,1001.0,15000.0
7,Monsanto Co,Purchased,2008-08-28,1001.0,15000.0
8,Norfolk Southern,Purchased,2008-08-28,1001.0,15000.0
9,Omnicom Group,Purchased,2008-08-28,1001.0,15000.0
10,Oracle Corp,Sold,2008-08-28,1001.0,15000.0
11,Pitney Bowes Inc,Sold,2008-08-28,1001.0,15000.0
12,Transocean Inc,Purchased,2008-08-28,1001.0,15000.0
13,Waste Management Inc,Purchased,2008-08-28,1001.0,15000.0
14,iShares Russell 2000 Value Index,Sold,2008-08-28,1001.0,15000.0
15,iShares S&P Small Cap 600 Index,Purchased,2008-08-28,1001.0,15000.0
16,iShares S&P Small Cap 600 Index,Purchased,2008-08-28,1001.0,15000.0
17,Anheuser-Busch,Sold,2008-10-03,1001.0,15000.0
18,Electronic Arts,Sold,2008-10-15,1001.0,15000.0
19,Public Service Enterprise Group,Purchased,2008-10-15,1001.0,15000.0
20,iShares Msci Eafe Index,Sold,2008-10-29,1001.0,15000.0
21,Bank of America,Sold,2008-11-24,1001.0,15000.0
22,Telefonica SA,Purchased,2008-11-24,1001.0,15000.0
23,Apple Inc,Purchased,2008-12-08,1001.0,15000.0
24,Lab Corp of America,Purchased,2008-12-08,1001.0,15000.0
25,Devry Inc,Purchased,2009-01-23,1001.0,15000.0
26,Emerson Electric,Purchased,2009-01-23,1001.0,15000.0
27,Lockheed Martin,Sold,2009-01-23,1001.0,15000.0
28,United Technologies,Sold,2009-01-23,1001.0,15000.0
29,Exelon Corp,Purchased,2009-01-26,1001.0,15000.0
30,Exxon Mobil,Sold,2009-01-26,1001.0,15000.0
31,General Electric,Purchased,2009-01-26,1001.0,15000.0
32,Procter & Gamble,Sold,2009-01-26,1001.0,15000.0
33,Western Union,Purchased,2009-01-26,1001.0,15000.0
34,Advantage Age-Based Option Fund,Exchanged,2009-02-17,15001.0,50000.0
35,"Becton, Dickinson & Co",Purchased,2009-03-11,1001.0,15000.0
36,Wellpoint Inc,Sold,2009-03-11,1001.0,15000.0
37,Allstate Corp,Sold,2009-03-27,1001.0,15000.0
38,BHP Billiton,Purchased,2009-03-27,1001.0,15000.0
39,Jacobs Engineering Group,Purchased,2009-03-27,1001.0,15000.0
40,McGraw-Hill Companies,Sold,2009-03-27,1001.0,15000.0
41,Capital One Note,Sold,2009-06-12,1001.0,15000.0
42,Cerner Corp,Sold,2009-08-18,1001.0,15000.0
43,Colgate-Palmolive Co,Sold,2009-08-18,1001.0,15000.0
44,Goldman Sachs,Sold,2009-08-18,1001.0,15000.0
45,Cerner Corp,Sold,2009-10-12,1001.0,15000.0
46,Charles Schwab & Co,Purchased,2009-10-12,1001.0,15000.0
47,Coach Inc,Sold,2009-10-12,1001.0,15000.0
48,DuPont Co,Sold,2009-10-12,1001.0,15000.0
49,Ingersoll Rand,Sold,2009-10-12,1001.0,15000.0
50,Stericycle Inc,Purchased,2009-10-12,1001.0,15000.0
51,Texas Instruments,Sold,2009-10-12,1001.0,15000.0
52,US Bancorp,Sold,2009-10-12,1001.0,15000.0
53,Vanguard Emerging Markets ETF,Purchased,2009-10-12,1001.0,15000.0
54,Vanguard Total Stock Market Index,Purchased,2009-10-12,1001.0,15000.0
55,Western Union,Sold,2009-10-12,1001.0,15000.0
56,iShares MSCI EAFE Index,Sold,2009-10-12,1001.0,15000.0
57,iShares S&P Mid Cap 400 Index,Purchased,2009-10-12,1001.0,15000.0
58,Vanguard Total Stock Market Index,Purchased,2009-11-23,1001.0,15000.0
59,Walt Disney Co,Sold,2009-11-23,1001.0,15000.0
60,3M Co,Sold,2009-11-25,1001.0,15000.0
61,Abbott Laboratories,Sold,2009-11-25,1001.0,15000.0
62,Best Buy,Sold,2009-11-25,1001.0,15000.0
63,Caterpillar Inc,Sold,2009-11-25,1001.0,15000.0
64,Cisco Systems,Sold,2009-11-25,1001.0,15000.0
65,Colgate-Palmolive Co,Sold,2009-11-25,1001.0,15000.0
66,General Electric,Sold,2009-11-25,1001.0,15000.0
67,Occidental Petroleum,Sold,2009-11-25,1001.0,15000.0
68,Paychex Inc,Sold,2009-11-25,1001.0,15000.0
69,Schlumberger Ltd,Sold,2009-11-25,1001.0,15000.0
70,Stryker Corp,Sold,2009-11-25,1001.0,15000.0
71,US Bancorp,Sold,2009-11-25,1001.0,15000.0
72,Vanguard Total Stock Market Index,Sold,2009-11-25,1001.0,15000.0
73,"Hamilton County, OH Bond",Sold,2009-12-01,1001.0,15000.0
74,Nokia Corp,Sold,2009-12-22,1001.0,15000.0
75,Research In Motion,Purchased,2009-12-22,1001.0,15000.0
76,Windstream Corp,Sold,2010-04-01,1001.0,15000.0
77,Transocean Ltd,Sold,2010-05-03,1001.0,15000.0
78,Occidental Petroleum,Purchased,2010-05-04,1001.0,15000.0
79,Apple Inc,Sold,2010-06-03,1001.0,15000.0
80,Norfolk Southern,Sold,2010-06-03,1001.0,15000.0
81,Sysco Corp,Purchased,2010-06-03,1001.0,15000.0
82,iShares S&P Mid Cap 400 Index,Purchased,2010-06-03,1001.0,15000.0
83,Apple Inc,Sold,2010-07-14,1001.0,15000.0
84,Advantage Age-Based Option Fund,Sold,2010-08-05,1001.0,15000.0
85,Vanguard Emerging Markets ETF,Purchased,2010-08-12,1001.0,15000.0
86,Corning Inc,Purchased,2010-09-07,1001.0,15000.0
87,Research In Motion,Sold,2010-09-07,1001.0,15000.0
88,Devry,Sold,2010-10-27,1001.0,15000.0
89,Monsanto Co,Sold,2010-10-28,1001.0,15000.0
90,Schwab Emerging Market ETF,Purchased,2010-10-28,1001.0,15000.0
91,Schwab US Broad Market ETF,Purchased,2010-10-28,1001.0,15000.0
92,Schwab US Broad Market ETF,Purchased,2010-10-28,1001.0,15000.0
93,Zimmer Holdings,Sold,2010-10-28,1001.0,15000.0
94,Procter & Gamble,Sold,2011-02-11,1001.0,15000.0
95,Schwab Broad Market Exchange Traded Fund,Purchased,2011-02-11,1001.0,15000.0
96,Legg Mason American Leading Companies,Exchanged,2011-04-25,15001.0,50000.0
97,Blackrock Stock ,Purchased,2011-06-22,1001.0,15000.0
98,Federated,Sold,2011-06-22,1001.0,15000.0
99,Legg Mason Esemplia Emerging Markets Fun,Purchased,2011-07-05,1001.0,15000.0
100,Charles Schwab & Co,Sold,2011-10-31,,
101,Schwab Broad Market Exchange Traded Fund,Purchased,2011-11-01,1001.0,15000.0
102,Columbia Large Cap Core Fund,Sold,2011-12-28,1001.0,15000.0
103,Hewlett-Packard Co,Sold,2012-03-09,1001.0,15000.0
104,3M Co,Sold,2012-03-23,1001.0,15000.0
105,Amgen Inc,Sold,2012-03-23,1001.0,15000.0
106,BHP Billiton Ltd,Sold,2012-03-23,1001.0,15000.0
107,Blackrock Inc,Sold,2012-03-23,1001.0,15000.0
108,Chevron Corp,Sold,2012-03-23,1001.0,15000.0
109,Corning Inc,Sold,2012-03-23,1001.0,15000.0
110,Dreyfus Small Cap Fund,Purchased,2012-03-23,1001.0,15000.0
111,Driehaus Emerging Markets Growth Fund,Purchased,2012-03-23,1001.0,15000.0
112,Eli Lilly & Co,Sold,2012-03-23,1001.0,15000.0
113,Exelon Corp,Sold,2012-03-23,0.0,1000.0
114,Exxon Mobil,Sold,2012-03-23,1001.0,15000.0
115,General Electric,Sold,2012-03-23,1001.0,15000.0
116,Home Depot,Sold,2012-03-23,1001.0,15000.0
117,Jacobs Engineering Group Inc,Sold,2012-03-23,1001.0,15000.0
118,Laboratory Corp of America,Sold,2012-03-23,1001.0,15000.0
119,MFS International Value Fund,Purchased,2012-03-23,1001.0,15000.0
120,Microsoft Corp,Sold,2012-03-23,1001.0,15000.0
121,Nike Inc,Sold,2012-03-23,1001.0,15000.0
122,Novartis AG,Sold,2012-03-23,1001.0,15000.0
123,Public Service Enterprise Group,Sold,2012-03-23,1001.0,15000.0
124,Schwab Broad Market ETF,Sold,2012-03-23,1001.0,15000.0
125,Schwab Emerging Markets Equity ETF,Sold,2012-03-23,1001.0,15000.0
126,Scout Mid Cap Fund,Purchased,2012-03-23,1001.0,15000.0
127,Sysco Corp,Sold,2012-03-23,1001.0,15000.0
128,T Rowe Price Capital Opportunity Fund,Purchased,2012-03-23,50001.0,100000.0
129,Vanguard FTSE Emerging Markets ETF,Sold,2012-03-23,1001.0,15000.0
130,Verizon Communications,Sold,2012-03-23,1001.0,15000.0
131,Waste Management Inc,Sold,2012-03-23,1001.0,15000.0
132,Wells Fargo,Sold,2012-03-23,1001.0,15000.0
133,Western Union,Sold,2012-03-23,0.0,1000.0
134,iShares MSCI EAFE Index,Sold,2012-03-23,1001.0,15000.0
135,iShares S&P Midcap 400 Index,Sold,2012-03-23,1001.0,15000.0
136,iShares Smallcap 600 Index,Sold,2012-03-23,1001.0,15000.0
137,Advantage Age-Based Option Fund,Sold,2012-07-16,1001.0,15000.0
138,Columbia Dividend Income Fund,Purchased,2012-09-04,15001.0,50000.0
139,Dreyfus Small Cap Fund,Sold,2012-09-04,1001.0,15000.0
140,Driehaus Emerging Markets Growth Fund,Sold,2012-09-04,1001.0,15000.0
141,MFS International Value Fund,Sold,2012-09-04,1001.0,15000.0
142,Scout Mid Cap Fund,Sold,2012-09-04,1001.0,15000.0
143,T Rowe Price Capital Opportunity Fund,Sold,2012-09-04,1001.0,15000.0
144,Columbia Dividend Income Fund,Sold,2013-02-28,15001.0,50000.0
145,Driehaus Emerging Markets Growth Fund,Purchased,2013-02-28,1001.0,15000.0
146,MFS International Value Fund,Purchased,2013-02-28,1001.0,15000.0
147,Scout Mid Cap Fund,Purchased,2013-02-28,15001.0,50000.0
148,T Rowe Price Cap Opportunity Fund,Sold,2013-02-28,1001.0,15000.0
149,MFS International Value Fund,Purchased,2013-10-14,1001.0,15000.0
150,Scout Mid Cap Fund,Sold,2013-10-14,1001.0,15000.0
151,T Rowe Price Cap Opportunity Fund,Sold,2013-10-14,1001.0,15000.0
152,Driehaus Emerging Markets Growth Fund,Sold,2014-04-17,1001.0,15000.0
153,T Rowe Price Capital Opportunity Fund,Purchased,2014-04-17,1001.0,15000.0
154,Scout Mid Cap Fund,Sold,2014-10-17,15001.0,50000.0
155,Steward Capital Midcap Fund,Purchased,2014-10-17,15001.0,50000.0
156,T Rowe Price Capital Opportunity Fund,Sold,2014-10-17,1001.0,15000.0
157,Consumer Discretionary Select Sector SPDR,Sold,2017-01-23,1001.0,15000.0
158,Consumer Discretionary Select Sector SPDR,Sold,2017-01-23,1001.0,15000.0
159,SPDR Select Sector Fund Energy Select Sector,Sold,2017-01-23,1001.0,15000.0
160,SPDR Select Sector Fund Energy Select Sector,Sold,2017-01-23,1001.0,15000.0
161,Vanguard Industrials ETF (VIS),Sold,2017-01-23,1001.0,15000.0
162,Vanguard Industrials ETF (VIS),Sold,2017-01-23,1001.0,15000.0
163,Vanguard Information Tech ETF (VGT),Sold,2017-01-23,1001.0,15000.0
164,Vanguard Information Tech ETF (VGT),Sold,2017-01-23,1001.0,15000.0
165,Vanguard Short Term Bond ETF,Purchased,2017-01-23,1001.0,15000.0
166,Vanguard Short Term Bond ETF,Sold,2017-01-23,,
167,Vanguard Short Term Bond ETF,Purchased,2017-01-23,1001.0,15000.0
168,iShares Canada Index,Purchased,2017-01-23,1001.0,15000.0
169,iShares Canada Index,Sold,2017-01-23,,
170,iShares Canada Index,Purchased,2017-01-23,1001.0,15000.0
171,iShares MBS ETF,Purchased,2017-01-23,1001.0,15000.0
172,iShares MBS ETF,Sold,2017-01-23,,
173,iShares MBS ETF,Purchased,2017-01-23,1001.0,15000.0
174,iShares MSCI Emerging Markets ETF,Purchased,2017-01-23,1001.0,15000.0
175,iShares MSCI Emerging Markets ETF,Sold,2017-01-23,,
176,iShares MSCI Emerging Markets ETF,Purchased,2017-01-23,1001.0,15000.0
177,iShares MSCI Japan ETF,Purchased,2017-01-23,1001.0,15000.0
178,iShares MSCI Japan ETF,Sold,2017-01-23,,
179,iShares MSCI Japan ETF,Purchased,2017-01-23,1001.0,15000.0
180,iShares MSCI Pacific ex Japan ETF,Purchased,2017-01-23,1001.0,15000.0
181,iShares MSCI Pacific ex Japan ETF,Sold,2017-01-23,,
182,iShares MSCI Pacific ex Japan ETF,Purchased,2017-01-23,1001.0,15000.0
183,iShares MSCI United Kingdom ETF,Purchased,2017-01-23,1001.0,15000.0
184,iShares MSCI United Kingdom ETF,Sold,2017-01-23,,
185,iShares MSCI United Kingdom ETF,Purchased,2017-01-23,1001.0,15000.0
186,iShares MSCI Emerging Markets ETF,Purchased,2017-01-24,1001.0,15000.0
187,iShares MSCI Emerging Markets ETF,Sold,2017-01-24,,
188,iShares MSCI Emerging Markets ETF,Purchased,2017-01-24,1001.0,15000.0
189,iShares iBoxx High Yield Corporate Bond ETF,Purchased,2017-01-26,1001.0,15000.0
190,iShares iBoxx High Yield Corporate Bond ETF,Sold,2017-01-26,,
191,iShares iBoxx High Yield Corporate Bond ETF,Purchased,2017-01-26,1001.0,15000.0
192,Financial Select Sector SPDR Fund,Purchased,2017-02-21,1001.0,15000.0
193,Financial Select Sector SPDR Fund,Sold,2017-02-21,,
194,Financial Select Sector SPDR Fund,Purchased,2017-02-21,1001.0,15000.0
195,Vanguard Information Tech ETF (VGT),Sold,2017-05-17,1001.0,15000.0
196,Vanguard Information Tech ETF (VGT),Sold,2017-05-17,1001.0,15000.0
197,SPDR Select Sector Fund Energy Select Sector,Sold,2017-07-18,1001.0,15000.0
198,SPDR Select Sector Fund Energy Select Sector,Sold,2017-07-18,1001.0,15000.0
199,SPDR Select Sector Fund Energy Select Sector,Sold,2017-07-25,1001.0,15000.0
200,SPDR Select Sector Fund Energy Select Sector,Sold,2017-07-25,1001.0,15000.0
201,Health Care Select Sector SPDR Fund,Purchased,2017-08-11,1001.0,15000.0
202,Health Care Select Sector SPDR Fund,Sold,2017-08-11,,
203,Health Care Select Sector SPDR Fund,Purchased,2017-08-11,1001.0,15000.0
204,SPDR Select Sector Fund Energy Select Sector,Sold,2017-08-11,1001.0,15000.0
205,SPDR Select Sector Fund Energy Select Sector,Exchanged,2017-08-11,,
206,SPDR Select Sector Fund Energy Select Sector,Sold,2017-08-11,1001.0,15000.0
207,Consumer Discretionary Select Sector SPDR,Sold,2017-09-25,1001.0,15000.0
208,Consumer Discretionary Select Sector SPDR,Sold,2017-09-25,1001.0,15000.0
209,First Trust Cloud Computing ETF (SKYY),Purchased,2017-09-25,1001.0,15000.0
210,First Trust Cloud Computing ETF (SKYY),Sold,2017-09-25,,
211,First Trust Cloud Computing ETF (SKYY),Purchased,2017-09-25,1001.0,15000.0
212,First Trust DJ Internet Index Fund,Purchased,2017-09-25,1001.0,15000.0
213,First Trust DJ Internet Index Fund,Sold,2017-09-25,,
214,First Trust DJ Internet Index Fund,Purchased,2017-09-25,1001.0,15000.0
215,Health Care Select Sector SPDR Fund,Sold,2017-09-25,1001.0,15000.0
216,Health Care Select Sector SPDR Fund,Sold,2017-09-25,1001.0,15000.0
217,iShares NASDAQ Biotechnology ETF,Purchased,2017-09-25,1001.0,15000.0
218,iShares NASDAQ Biotechnology ETF,Sold,2017-09-25,,
219,iShares NASDAQ Biotechnology ETF,Purchased,2017-09-25,1001.0,15000.0
220,WisdomTree Europe Hedged Equity Fund (HEDJ),Sold,2017-10-24,1001.0,15000.0
221,WisdomTree Europe Hedged Equity Fund (HEDJ),Sold,2017-10-24,1001.0,15000.0
222,iShares MSCI Eurozone ETF,Purchased,2017-10-24,1001.0,15000.0
223,iShares MSCI Eurozone ETF,Sold,2017-10-24,,
224,iShares MSCI Eurozone ETF,Purchased,2017-10-24,1001.0,15000.0
225,Health Care Select Sector SPDR Fund,Sold,2017-12-05,1001.0,15000.0
226,Health Care Select Sector SPDR Fund,Sold,2017-12-05,1001.0,15000.0
227,Vanguard Information Tech ETF (VGT),Purchased,2017-12-05,1001.0,15000.0
228,Vanguard Information Tech ETF (VGT),Sold,2017-12-05,,
229,Vanguard Information Tech ETF (VGT),Purchased,2017-12-05,1001.0,15000.0
230,WisdomTree Europe Hedged Equity Fund (HEDJ),Sold,2017-12-05,1001.0,15000.0
231,WisdomTree Europe Hedged Equity Fund (HEDJ),Exchanged,2017-12-05,,
232,WisdomTree Europe Hedged Equity Fund (HEDJ),Sold,2017-12-05,1001.0,15000.0
233,iShares MSCI Eurozone ETF,Purchased,2017-12-05,1001.0,15000.0
234,iShares MSCI Eurozone ETF,Sold,2017-12-05,,
235,iShares MSCI Eurozone ETF,Purchased,2017-12-05,1001.0,15000.0
236,Consumer Discretionary Select Sector SPDR,Sold,2018-03-06,1001.0,15000.0
237,Consumer Discretionary Select Sector SPDR,Sold,2018-03-06,1001.0,15000.0
238,Financial Select Sector SPDR Fund,Purchased,2018-03-06,1001.0,15000.0
239,Financial Select Sector SPDR Fund,Purchased,2018-03-06,1001.0,15000.0
240,Financial Select Sector SPDR Fund,Sold,2018-03-06,,
241,First Trust Cloud Computing ETF (SKYY),Exchanged,2018-03-06,,
242,First Trust Cloud Computing ETF (SKYY),Sold,2018-03-06,1001.0,15000.0
243,First Trust Cloud Computing ETF (SKYY),Sold,2018-03-06,1001.0,15000.0
244,First Trust DJ Internet Index Fund,Sold,2018-03-06,1001.0,15000.0
245,First Trust DJ Internet Index Fund,Sold,2018-03-06,1001.0,15000.0
246,Real Estate Select Sector SPDR Fund (XLRE),Purchased,2018-03-06,1001.0,15000.0
247,Real Estate Select Sector SPDR Fund (XLRE),Purchased,2018-03-06,1001.0,15000.0
248,Real Estate Select Sector SPDR Fund (XLRE),Sold,2018-03-06,,
249,SPDR S&P Insurance ETF (KIE),Sold,2018-03-06,,
250,SPDR S&P Insurance ETF (KIE),Purchased,2018-03-06,1001.0,15000.0
251,SPDR S&P Insurance ETF (KIE),Purchased,2018-03-06,1001.0,15000.0
252,SPDR Select Sector Fund Energy Select Sector,Purchased,2018-03-06,1001.0,15000.0
253,SPDR Select Sector Fund Energy Select Sector,Purchased,2018-03-06,1001.0,15000.0
254,SPDR Select Sector Fund Energy Select Sector,Sold,2018-03-06,,
255,Utilities Select Sector SPDR,Purchased,2018-03-06,1001.0,15000.0
256,Utilities Select Sector SPDR,Purchased,2018-03-06,1001.0,15000.0
257,Utilities Select Sector SPDR,Sold,2018-03-06,,
258,Vanguard Industrials ETF (VIS),Sold,2018-03-06,1001.0,15000.0
259,Vanguard Industrials ETF (VIS),Sold,2018-03-06,1001.0,15000.0
260,Vanguard Information Tech ETF (VGT),Sold,2018-03-06,1001.0,15000.0
261,Vanguard Information Tech ETF (VGT),Sold,2018-03-06,1001.0,15000.0
262,Vanguard Materials ETF (VAW),Sold,2018-03-06,,
263,Vanguard Materials ETF (VAW),Purchased,2018-03-06,1001.0,15000.0
264,Vanguard Materials ETF (VAW),Purchased,2018-03-06,1001.0,15000.0
265,iShares Canada Index,Exchanged,2018-03-06,,
266,iShares Canada Index,Sold,2018-03-06,1001.0,15000.0
267,iShares Canada Index,Sold,2018-03-06,1001.0,15000.0
268,iShares Core MSCI EAFE ETF,Purchased,2018-03-06,15001.0,50000.0
269,iShares Core MSCI EAFE ETF,Purchased,2018-03-06,15001.0,50000.0
270,iShares Core MSCI EAFE ETF,Sold,2018-03-06,,
271,iShares Inc iShares MSCI Switzerland ETF,Sold,2018-03-06,1001.0,15000.0
272,iShares Inc iShares MSCI Switzerland ETF,Sold,2018-03-06,1001.0,15000.0
273,iShares Inc iShares MSCI Switzerland ETF,Exchanged,2018-03-06,,
274,iShares MSCI Eurozone ETF,Exchanged,2018-03-06,,
275,iShares MSCI Eurozone ETF,Sold,2018-03-06,1001.0,15000.0
276,iShares MSCI Eurozone ETF,Sold,2018-03-06,1001.0,15000.0
277,iShares MSCI Japan ETF,Sold,2018-03-06,1001.0,15000.0
278,iShares MSCI Japan ETF,Sold,2018-03-06,1001.0,15000.0
279,iShares MSCI Japan ETF,Exchanged,2018-03-06,,
280,iShares MSCI Pacific ex Japan ETF,Exchanged,2018-03-06,,
281,iShares MSCI Pacific ex Japan ETF,Sold,2018-03-06,1001.0,15000.0
282,iShares MSCI Pacific ex Japan ETF,Sold,2018-03-06,1001.0,15000.0
283,iShares MSCI United Kingdom ETF,Sold,2018-03-06,1001.0,15000.0
284,iShares MSCI United Kingdom ETF,Sold,2018-03-06,1001.0,15000.0
285,iShares MSCI United Kingdom ETF,Exchanged,2018-03-06,,
286,Consumer Discretionary Select Sector SPDR,Sold,2018-03-08,1001.0,15000.0
287,Consumer Discretionary Select Sector SPDR,Sold,2018-03-08,1001.0,15000.0
288,Financial Select Sector SPDR Fund,Sold,2018-03-08,1001.0,15000.0
289,Financial Select Sector SPDR Fund,Sold,2018-03-08,1001.0,15000.0
290,First Trust DJ Internet Index Fund,Sold,2018-03-08,1001.0,15000.0
291,First Trust DJ Internet Index Fund,Sold,2018-03-08,1001.0,15000.0
292,Health Care Select Sector SPDR Fund,Sold,2018-03-08,1001.0,15000.0
293,Health Care Select Sector SPDR Fund,Sold,2018-03-08,1001.0,15000.0
294,IRA 9527,Exchanged,2018-03-08,,
295,IRA 9527,Sold,2018-03-08,1001.0,15000.0
296,IRA 9527,Sold,2018-03-08,1001.0,15000.0
297,Invesco Emerging Markets Sovereign Debt ETF (PCY),Sold,2018-03-08,1001.0,15000.0
298,Invesco Emerging Markets Sovereign Debt ETF (PCY),Sold,2018-03-08,1001.0,15000.0
299,Real Estate Select Sector SPDR Fund (XLRE),Sold,2018-03-08,1001.0,15000.0
300,Real Estate Select Sector SPDR Fund (XLRE),Sold,2018-03-08,1001.0,15000.0
301,SPDR Select Sector Fund Energy Select Sector,Sold,2018-03-08,1001.0,15000.0
302,SPDR Select Sector Fund Energy Select Sector,Sold,2018-03-08,1001.0,15000.0
303,Vanguard Consumer Staples ETF (VDC),Sold,2018-03-08,1001.0,15000.0
304,Vanguard Consumer Staples ETF (VDC),Sold,2018-03-08,1001.0,15000.0
305,Vanguard Information Tech ETF (VGT),Sold,2018-03-08,1001.0,15000.0
306,Vanguard Information Tech ETF (VGT),Sold,2018-03-08,1001.0,15000.0
307,Vanguard Intermediate-Term Bond ETF (BIV),Sold,2018-03-08,1001.0,15000.0
308,Vanguard Intermediate-Term Bond ETF (BIV),Sold,2018-03-08,1001.0,15000.0
309,Vanguard Materials ETF (VAW),Sold,2018-03-08,1001.0,15000.0
310,Vanguard Materials ETF (VAW),Sold,2018-03-08,1001.0,15000.0
311,Vanguard Short Term Bond ETF,Sold,2018-03-08,1001.0,15000.0
312,Vanguard Short Term Bond ETF,Sold,2018-03-08,1001.0,15000.0
313,iShares 3-7 Year Treasury Bond ETF,Sold,2018-03-08,1001.0,15000.0
314,iShares 3-7 Year Treasury Bond ETF,Sold,2018-03-08,1001.0,15000.0
315,iShares Core MSCI EAFE ETF,Sold,2018-03-08,1001.0,15000.0
316,iShares Core MSCI EAFE ETF,Sold,2018-03-08,1001.0,15000.0
317,iShares MBS ETF,Sold,2018-03-08,1001.0,15000.0
318,iShares MBS ETF,Sold,2018-03-08,1001.0,15000.0
319,iShares MSCI Emerging Markets ETF,Sold,2018-03-08,1001.0,15000.0
320,iShares MSCI Emerging Markets ETF,Sold,2018-03-08,1001.0,15000.0
321,iShares NASDAQ Biotechnology ETF,Sold,2018-03-08,1001.0,15000.0
322,iShares NASDAQ Biotechnology ETF,Sold,2018-03-08,1001.0,15000.0
323,iShares Tips Bond ETF,Sold,2018-03-08,1001.0,15000.0
324,iShares Tips Bond ETF,Sold,2018-03-08,1001.0,15000.0
325,iShares iBoxx Investment Grade Corp Bond ETF,Sold,2018-03-08,1001.0,15000.0
326,iShares iBoxx Investment Grade Corp Bond ETF,Sold,2018-03-08,1001.0,15000.0
327,Consumer Discretionary Select Sector SPDR,Sold,2018-03-26,,
328,Consumer Discretionary Select Sector SPDR,Purchased,2018-03-26,1001.0,15000.0
329,Consumer Discretionary Select Sector SPDR,Purchased,2018-03-26,1001.0,15000.0
330,Financial Select Sector SPDR Fund,Purchased,2018-03-26,1001.0,15000.0
331,Financial Select Sector SPDR Fund,Purchased,2018-03-26,1001.0,15000.0
332,Financial Select Sector SPDR Fund,Sold,2018-03-26,,
333,First Trust DJ Internet Index Fund,Purchased,2018-03-26,1001.0,15000.0
334,First Trust DJ Internet Index Fund,Sold,2018-03-26,,
335,First Trust DJ Internet Index Fund,Purchased,2018-03-26,1001.0,15000.0
336,Health Care Select Sector SPDR Fund,Purchased,2018-03-26,1001.0,15000.0
337,Health Care Select Sector SPDR Fund,Sold,2018-03-26,,
338,Health Care Select Sector SPDR Fund,Purchased,2018-03-26,1001.0,15000.0
339,Invesco Emerging Markets Sovereign Debt ETF (PCY),Purchased,2018-03-26,1001.0,15000.0
340,Invesco Emerging Markets Sovereign Debt ETF (PCY),Sold,2018-03-26,,
341,Invesco Emerging Markets Sovereign Debt ETF (PCY),Purchased,2018-03-26,1001.0,15000.0
342,Real Estate Select Sector SPDR Fund (XLRE),Purchased,2018-03-26,1001.0,15000.0
343,Real Estate Select Sector SPDR Fund (XLRE),Purchased,2018-03-26,1001.0,15000.0
344,Real Estate Select Sector SPDR Fund (XLRE),Sold,2018-03-26,,
345,SPDR Select Sector Fund Energy Select Sector,Purchased,2018-03-26,1001.0,15000.0
346,SPDR Select Sector Fund Energy Select Sector,Purchased,2018-03-26,1001.0,15000.0
347,SPDR Select Sector Fund Energy Select Sector,Sold,2018-03-26,,
348,Utilities Select Sector SPDR,Purchased,2018-03-26,1001.0,15000.0
349,Utilities Select Sector SPDR,Purchased,2018-03-26,1001.0,15000.0
350,Utilities Select Sector SPDR,Sold,2018-03-26,,
351,Vanguard Consumer Staples ETF (VDC),Sold,2018-03-26,,
352,Vanguard Consumer Staples ETF (VDC),Purchased,2018-03-26,1001.0,15000.0
353,Vanguard Consumer Staples ETF (VDC),Purchased,2018-03-26,1001.0,15000.0
354,Vanguard Industrials ETF (VIS),Purchased,2018-03-26,1001.0,15000.0
355,Vanguard Industrials ETF (VIS),Purchased,2018-03-26,1001.0,15000.0
356,Vanguard Industrials ETF (VIS),Sold,2018-03-26,,
357,Vanguard Information Tech ETF (VGT),Sold,2018-03-26,,
358,Vanguard Information Tech ETF (VGT),Purchased,2018-03-26,1001.0,15000.0
359,Vanguard Information Tech ETF (VGT),Purchased,2018-03-26,1001.0,15000.0
360,Vanguard Intermediate-Term Bond ETF (BIV),Purchased,2018-03-26,1001.0,15000.0
361,Vanguard Intermediate-Term Bond ETF (BIV),Purchased,2018-03-26,1001.0,15000.0
362,Vanguard Intermediate-Term Bond ETF (BIV),Sold,2018-03-26,,
363,Vanguard Materials ETF (VAW),Sold,2018-03-26,,
364,Vanguard Materials ETF (VAW),Purchased,2018-03-26,1001.0,15000.0
365,Vanguard Materials ETF (VAW),Purchased,2018-03-26,1001.0,15000.0
366,Vanguard Short Term Bond ETF,Purchased,2018-03-26,1001.0,15000.0
367,Vanguard Short Term Bond ETF,Purchased,2018-03-26,1001.0,15000.0
368,Vanguard Short Term Bond ETF,Sold,2018-03-26,,
369,iShares 3-7 Year Treasury Bond ETF,Purchased,2018-03-26,1001.0,15000.0
370,iShares 3-7 Year Treasury Bond ETF,Purchased,2018-03-26,1001.0,15000.0
371,iShares 3-7 Year Treasury Bond ETF,Sold,2018-03-26,,
372,iShares Core MSCI EAFE ETF,Purchased,2018-03-26,1001.0,15000.0
373,iShares Core MSCI EAFE ETF,Purchased,2018-03-26,1001.0,15000.0
374,iShares Core MSCI EAFE ETF,Sold,2018-03-26,,
375,iShares MBS ETF,Sold,2018-03-26,,
376,iShares MBS ETF,Purchased,2018-03-26,1001.0,15000.0
377,iShares MBS ETF,Purchased,2018-03-26,1001.0,15000.0
378,iShares MSCI Emerging Markets ETF,Purchased,2018-03-26,1001.0,15000.0
379,iShares MSCI Emerging Markets ETF,Purchased,2018-03-26,1001.0,15000.0
380,iShares MSCI Emerging Markets ETF,Sold,2018-03-26,,
381,iShares NASDAQ Biotechnology ETF,Sold,2018-03-26,,
382,iShares NASDAQ Biotechnology ETF,Purchased,2018-03-26,1001.0,15000.0
383,iShares NASDAQ Biotechnology ETF,Purchased,2018-03-26,1001.0,15000.0
384,iShares iBoxx Investment Grade Corp Bond ETF,Sold,2018-03-26,,
385,iShares iBoxx Investment Grade Corp Bond ETF,Purchased,2018-03-26,1001.0,15000.0
386,iShares iBoxx Investment Grade Corp Bond ETF,Purchased,2018-03-26,1001.0,15000.0
387,Consumer Discretionary Select Sector SPDR,Sold,2018-03-28,1001.0,15000.0
388,Consumer Discretionary Select Sector SPDR,Sold,2018-03-28,1001.0,15000.0
389,Financial Select Sector SPDR Fund,Purchased,2018-03-28,1001.0,15000.0
390,Financial Select Sector SPDR Fund,Purchased,2018-03-28,1001.0,15000.0
391,Financial Select Sector SPDR Fund,Sold,2018-03-28,,
392,First Trust DJ Internet Index Fund,Purchased,2018-03-28,1001.0,15000.0
393,First Trust DJ Internet Index Fund,Sold,2018-03-28,,
394,First Trust DJ Internet Index Fund,Purchased,2018-03-28,1001.0,15000.0
395,Vanguard Materials ETF (VAW),Sold,2018-03-28,1001.0,15000.0
396,Vanguard Materials ETF (VAW),Sold,2018-03-28,1001.0,15000.0
397,iShares Core MSCI EAFE ETF,Sold,2018-06-20,1001.0,15000.0
398,iShares Core MSCI EAFE ETF,Sold,2018-06-20,1001.0,15000.0
399,Vanguard Intermediate-Term Bond ETF (BIV),Sold,2018-06-21,1001.0,15000.0
400,Vanguard Intermediate-Term Bond ETF (BIV),Sold,2018-06-21,1001.0,15000.0
401,Vanguard Short Term Bond ETF,Purchased,2018-06-21,1001.0,15000.0
402,Vanguard Short Term Bond ETF,Purchased,2018-06-21,1001.0,15000.0
403,Vanguard Short Term Bond ETF,Sold,2018-06-21,,
404,iShares MSCI Emerging Markets ETF,Purchased,2018-06-21,1001.0,15000.0
405,iShares MSCI Emerging Markets ETF,Purchased,2018-06-21,1001.0,15000.0
406,iShares MSCI Emerging Markets ETF,Sold,2018-06-21,,
407,iShares iBoxx Investment Grade Corp Bond ETF,Sold,2018-06-21,,
408,iShares iBoxx Investment Grade Corp Bond ETF,Purchased,2018-06-21,1001.0,15000.0
409,iShares iBoxx Investment Grade Corp Bond ETF,Purchased,2018-06-21,1001.0,15000.0
410,Consumer Discretionary Select Sector SPDR,Sold,2018-06-25,,
411,Consumer Discretionary Select Sector SPDR,Purchased,2018-06-25,1001.0,15000.0
412,Consumer Discretionary Select Sector SPDR,Purchased,2018-06-25,1001.0,15000.0
413,Vanguard Information Tech ETF (VGT),Sold,2018-08-29,1001.0,15000.0
414,Vanguard Information Tech ETF (VGT),Sold,2018-08-29,1001.0,15000.0
415,Consumer Discretionary Select Sector SPDR,Sold,2018-10-18,1001.0,15000.0
416,Consumer Discretionary Select Sector SPDR,Sold,2018-10-18,1001.0,15000.0
417,The Communication Services Select Sector SPDR Fund,Sold,2018-10-18,,
418,The Communication Services Select Sector SPDR Fund,Purchased,2018-10-18,1001.0,15000.0
419,The Communication Services Select Sector SPDR Fund,Purchased,2018-10-18,1001.0,15000.0
