,orgname,action,date1,minvalue,maxvalue
0,Custodial Trust/CD,Purchased,2008-01-03,1001.0,15000.0
1,Schwab Value Advantage - SWVXX,Sold,2008-01-03,15001.0,50000.0
2,Schwab Value Advantage - SWVXX,Sold,2008-01-08,50001.0,100000.0
3,Schwab Advantage Money Market,Sold,2008-02-06,15001.0,50000.0
4,Virginia Multi-Family Holdings,Purchased,2008-02-08,15001.0,50000.0
5,Alger Health Sciences,Purchased,2008-02-15,1001.0,15000.0
6,Ariel Fund,Sold,2008-02-15,15001.0,50000.0
7,Bankamerica Corp BAC,Sold,2008-02-15,1001.0,15000.0
8,CGM Focus Fund,Sold,2008-02-15,1001.0,15000.0
9,Calvert Large Cap Growth Fund,Purchased,2008-02-15,15001.0,50000.0
10,Calvert World Values Fund,Sold,2008-02-15,1001.0,15000.0
11,Calvert World Values Fund,Sold,2008-02-15,50001.0,100000.0
12,Chubb Corp,Sold,2008-02-15,1001.0,15000.0
13,Johnson & Johnson,Sold,2008-02-15,1001.0,15000.0
14,Lazard Emerging Markets Fund,Sold,2008-02-15,15001.0,50000.0
15,Mma Praxis International,Purchased,2008-02-15,1001.0,15000.0
16,Mma Praxis International,Purchased,2008-02-15,15001.0,50000.0
17,Morgan Stanley International Real Estate,Sold,2008-02-15,1001.0,15000.0
18,Neuberger Berman Socially Responsive Fnd,Purchased,2008-02-15,1001.0,15000.0
19,Neuberger Berman Socially Responsive Fnd,Purchased,2008-02-15,15001.0,50000.0
20,PIMCO Commodity RealReturn Fund,Sold,2008-02-15,1001.0,15000.0
21,PIMCO RealReturn Fund,Purchased,2008-02-15,1001.0,15000.0
22,Portolio 21,Purchased,2008-02-15,15001.0,50000.0
23,Schwab Value Advantage - SWVXX,Sold,2008-02-15,15001.0,50000.0
24,Schwab Value Advantage - SWVXX,Sold,2008-02-15,50001.0,100000.0
25,Spectra Green Fund,Purchased,2008-02-15,15001.0,50000.0
26,Tortoise Energy Infrastructure,Purchased,2008-02-15,15001.0,50000.0
27,Vanguard Emerging Markets ETF,Sold,2008-02-15,15001.0,50000.0
28,Vanguard Europe Pacific VEA,Purchased,2008-02-15,,
29,Vanguard Small Cap VB,Purchased,2008-02-15,15001.0,50000.0
30,Winslow Green Growth Fund,Purchased,2008-02-15,1001.0,15000.0
31,iShares TRUST S&P 500 - IVV,Sold,2008-02-15,50001.0,100000.0
32,Calvert International Oppty Fund,Purchased,2008-02-19,1001.0,15000.0
33,Calvert International Oppty Fund,Purchased,2008-02-19,1001.0,15000.0
34,Calvert International Oppty Fund,Purchased,2008-02-19,15001.0,50000.0
35,Bank of Nova Scotia BNS,Sold,2008-02-22,1001.0,15000.0
36,PepsiCo Inc,Sold,2008-02-22,1001.0,15000.0
37,iShares TRUST S&P 500 - IVV,Purchased,2008-02-22,15001.0,50000.0
38,Bank of Nova Scotia BNS,Sold,2008-02-27,1001.0,15000.0
39,HCP Inc,Sold,2008-02-27,1001.0,15000.0
40,HCP Inc,Sold,2008-02-27,1001.0,15000.0
41,Healthcare Realty Trust,Sold,2008-02-27,1001.0,15000.0
42,Healthcare Realty Trust,Sold,2008-02-27,1001.0,15000.0
43,National City Corp,Sold,2008-02-27,1001.0,15000.0
44,National Fuel Gas Co,Sold,2008-02-27,1001.0,15000.0
45,Novartis AG,Sold,2008-02-27,1001.0,15000.0
46,Southern Co,Sold,2008-02-27,1001.0,15000.0
47,Thornburg Mortgage Inc TMA,Sold,2008-02-27,1001.0,15000.0
48,Dodge & Cox Income Fund,Purchased,2008-02-29,100001.0,250000.0
49,Schwab Value Advantage - SWVXX,Purchased,2008-02-29,15001.0,50000.0
50,Vanguard GNMA Fund,Sold,2008-02-29,15001.0,50000.0
51,Vanguard High Yield Corp Fund,Sold,2008-02-29,1001.0,15000.0
52,Vanguard Interm Term Treasury,Sold,2008-02-29,1001.0,15000.0
53,Vanguard Short Term Treasury Fund,Sold,2008-02-29,1001.0,15000.0
54,Vanguard Short Term Treasury Fund,Sold,2008-02-29,15001.0,50000.0
55,Schwab Value Advantage - SWVXX,Sold,2008-03-25,1001.0,15000.0
56,Dodge & Cox Income Fund,Sold,2008-04-03,1001.0,15000.0
57,HSBC Foreign Currency/CD,Purchased,2008-04-03,1001.0,15000.0
58,HSBC Foreign Currency/CD,Purchased,2008-04-03,50001.0,100000.0
59,Schwab Amt Tax Free Money Market,Sold,2008-04-03,15001.0,50000.0
60,Schwab Amt Tax Free Money Market,Sold,2008-04-07,15001.0,50000.0
61,Dodge & Cox Income Fund,Sold,2008-04-08,1001.0,15000.0
62,Schwab Value Advantage - SWVXX,Sold,2008-04-08,1001.0,15000.0
63,Custodial Trust/CD,Sold,2008-04-09,1001.0,15000.0
64,Dodge & Cox Income Fund,Sold,2008-04-18,1001.0,15000.0
65,Dodge & Cox Income Fund,Sold,2008-04-22,1001.0,15000.0
66,Portolio 21,Exchanged,2008-04-25,15001.0,50000.0
67,Portolio 21,Exchanged,2008-04-25,15001.0,50000.0
68,Schwab Amt Tax Free Money Market,Sold,2008-06-23,15001.0,50000.0
69,Schwab Advantage Money Market,Sold,2008-07-09,1001.0,15000.0
70,Bankamerica Corp BAC,Sold,2008-07-10,1001.0,15000.0
71,CGM Focus Fund,Purchased,2008-07-10,1001.0,15000.0
72,Dodge & Cox Income Fund,Sold,2008-07-10,50001.0,100000.0
73,General Mills,Sold,2008-07-10,1001.0,15000.0
74,Goldman Sachs Satellite,Purchased,2008-07-10,1001.0,15000.0
75,Healthcare Realty Trust,Sold,2008-07-10,1001.0,15000.0
76,Johnson & Johnson,Sold,2008-07-10,1001.0,15000.0
77,Julius Baer International Equity Fund,Purchased,2008-07-10,1001.0,15000.0
78,PepsiCo Inc,Sold,2008-07-10,1001.0,15000.0
79,Procter & Gamble,Sold,2008-07-10,1001.0,15000.0
80,Schwab Inflation Protection,Purchased,2008-07-10,1001.0,15000.0
81,Schwab Select S&P 500,Purchased,2008-07-10,1001.0,15000.0
82,Schwab Small Cap Index,Purchased,2008-07-10,1001.0,15000.0
83,Vanguard Energy VDE,Purchased,2008-07-10,1001.0,15000.0
84,iPath DJ AIG Agriculture ETN - JJA,Purchased,2008-07-10,1001.0,15000.0
85,iShares Barclays Aggregate Bond Fund,Purchased,2008-07-10,50001.0,100000.0
86,Mma Praxis International,Sold,2008-08-11,1001.0,15000.0
87,Mma Praxis International,Sold,2008-08-11,1001.0,15000.0
88,PIMCO Commodity RealReturn Fund,Sold,2008-08-11,1001.0,15000.0
89,Portolio 21,Sold,2008-08-11,1001.0,15000.0
90,Powershares ETF PBW,Purchased,2008-08-11,15001.0,50000.0
91,Schwab Advantage Money Market,Purchased,2008-08-11,1001.0,15000.0
92,Schwab Amt Tax Free Money Market,Sold,2008-08-11,50001.0,100000.0
93,Vanguard Europe Pacific VEA,Purchased,2008-08-11,1001.0,15000.0
94,Vanguard Small Cap VB,Purchased,2008-08-11,1001.0,15000.0
95,iPath DJ AIG Agriculture ETN - JJA,Purchased,2008-08-11,1001.0,15000.0
96,iShares TRUST S&P 500 - IVV,Purchased,2008-08-11,15001.0,50000.0
97,CGM Focus Fund,Purchased,2008-08-12,1001.0,15000.0
98,Neuberger Berman Socially Responsive Fnd,Purchased,2008-08-12,1001.0,15000.0
99,Schwab Advantage Money Market,Sold,2008-08-15,50001.0,100000.0
100,HG Norfolk Holdings,Purchased,2008-08-28,15001.0,50000.0
101,Vanguard GNMA Fund,Exchanged,2008-08-28,1001.0,15000.0
102,Vanguard Inflation Protected Fund,Exchanged,2008-08-29,1001.0,15000.0
103,Calvert International Oppty Fund,Sold,2008-09-17,1001.0,15000.0
104,Calvert International Oppty Fund,Sold,2008-09-17,1001.0,15000.0
105,Calvert International Oppty Fund,Sold,2008-09-17,1001.0,15000.0
106,Julius Baer International Equity Fund,Sold,2008-09-18,1001.0,15000.0
107,Mma Praxis International,Sold,2008-09-18,15001.0,50000.0
108,Portolio 21,Sold,2008-09-18,15001.0,50000.0
109,Schwab Value Advantage - SWVXX,Sold,2008-09-18,15001.0,50000.0
110,Morgan Stanley International Real Estate,Sold,2008-09-19,15001.0,50000.0
111,Calvert Large Cap Growth Fund,Sold,2008-09-23,15001.0,50000.0
112,PowerShares WilderHill Clean Energy,Sold,2008-09-25,15001.0,50000.0
113,PowerShares WilderHill Clean Energy,Sold,2008-09-25,1001.0,15000.0
114,Powershares ETF PBW,Sold,2008-09-25,1001.0,15000.0
115,Vanguard Energy VDE,Sold,2008-09-25,1001.0,15000.0
116,CGM Focus Fund,Purchased,2008-09-30,1001.0,15000.0
117,ELEMENTS Rogers International Commodity,Purchased,2008-09-30,1001.0,15000.0
118,Schwab International Index,Purchased,2008-09-30,1001.0,15000.0
119,Schwab Select S&P 500,Sold,2008-09-30,1001.0,15000.0
120,iPath DJ AIG Agriculture ETN - JJA,Sold,2008-09-30,1001.0,15000.0
121,iPath DJ AIG Agriculture ETN - JJA,Sold,2008-10-09,15001.0,50000.0
122,S&P Depository Receipts,Purchased,2008-11-25,15001.0,50000.0
123,Vanguard Small Cap VB,Sold,2008-11-25,1001.0,15000.0
124,iShares TRUST S&P 500 - IVV,Sold,2008-11-25,15001.0,50000.0
125,SPDR Barclays Capital TIPS,Purchased,2008-11-26,15001.0,50000.0
126,Vanguard Europe Pacific VEA,Sold,2008-11-26,1001.0,15000.0
127,iShares Barclays TIPS Bond Fund,Sold,2008-11-26,15001.0,50000.0
128,iShares MSCI EAFE Growth Index,Purchased,2008-11-26,1001.0,15000.0
129,iShares Russell 2000 Index,Purchased,2008-11-26,1001.0,15000.0
130,Morgan Stanley International Real Estate,Sold,2008-12-01,1001.0,15000.0
131,PIMCO RealReturn Fund,Sold,2008-12-01,1001.0,15000.0
132,iShares Barclays TIPS Bond Fund,Purchased,2008-12-02,1001.0,15000.0
133,iShares Cohen & Steers Realty Majors,Purchased,2008-12-02,1001.0,15000.0
134,Schwab Select S&P 500,Sold,2008-12-03,1001.0,15000.0
135,PIMCO Commodity RealReturn Fund,Sold,2008-12-04,15001.0,50000.0
136,S&P Depository Receipts,Purchased,2008-12-04,1001.0,15000.0
137,Schwab Inflation Protection,Sold,2008-12-04,1001.0,15000.0
138,Schwab International Index,Sold,2008-12-04,1001.0,15000.0
139,Schwab Small Cap Index,Sold,2008-12-04,1001.0,15000.0
140,Spectra Green Fund,Sold,2008-12-04,1001.0,15000.0
141,Powershares DB Commodity Index,Purchased,2008-12-05,15001.0,50000.0
142,S&P Depository Receipts,Purchased,2008-12-05,1001.0,15000.0
143,iShares Barclays TIPS Bond Fund,Purchased,2008-12-05,1001.0,15000.0
144,iShares MSCI EAFE Growth Index,Purchased,2008-12-05,1001.0,15000.0
145,iShares Russell 2000 Index,Purchased,2008-12-05,1001.0,15000.0
146,Calvert International Oppty Fund,Sold,2008-12-09,1001.0,15000.0
147,Goldman Sachs Satellite,Sold,2008-12-09,1001.0,15000.0
148,Portolio 21,Sold,2008-12-09,1001.0,15000.0
149,Vanguard International Equity Index VEU,Purchased,2008-12-10,1001.0,15000.0
150,iShares MSCI EAFE Growth Index,Purchased,2008-12-10,1001.0,15000.0
151,iShares S&P Glbl Index,Purchased,2008-12-10,1001.0,15000.0
152,CGM Focus Fund,Sold,2008-12-11,1001.0,15000.0
153,Vanguard Inflation Protected Fund,Exchanged,2008-12-11,1001.0,15000.0
154,American Century Inflation Prot Bond,Exchanged,2008-12-12,1001.0,15000.0
155,iShares Russell Mid Cap Growth Index,Purchased,2008-12-12,1001.0,15000.0
156,ELEMENTS Rogers International Commodity,Sold,2008-12-15,1001.0,15000.0
157,Powershares DB Commodity Index,Purchased,2008-12-15,1001.0,15000.0
158,Tortoise Energy Infrastructure,Sold,2008-12-23,1001.0,15000.0
159,PowerShares DB Commodity Index,Sold,2009-01-07,1001.0,15000.0
160,SPDR Trust Series 1,Sold,2009-01-07,1001.0,15000.0
161,Vanguard International Equity Index,Sold,2009-01-07,1001.0,15000.0
162,iShares Barclays Aggregate Bond Fund,Sold,2009-01-07,1001.0,15000.0
163,iShares MSCI EAFE Growth Index,Sold,2009-01-07,1001.0,15000.0
164,iShares Russell 2000 Index,Sold,2009-01-07,1001.0,15000.0
165,iShares Russell Mid Cap Growth Index,Sold,2009-01-07,1001.0,15000.0
166,Alger Health Sciences,Sold,2009-02-23,15001.0,50000.0
167,N&B Socially Responsible Fund,Sold,2009-02-23,1001.0,15000.0
168,N&B Socially Responsible Fund,Sold,2009-02-23,1001.0,15000.0
169,Winslow Green Growth Fund,Sold,2009-02-24,1001.0,15000.0
170,American Century Diversified Bond Fund,Purchased,2009-03-04,1001.0,15000.0
171,CGM Focus fund,Purchased,2009-03-04,1001.0,15000.0
172,Calvert International Oppty Fund,Sold,2009-03-04,1001.0,15000.0
173,Calvert International Oppty Fund,Sold,2009-03-04,1001.0,15000.0
174,Hussman Strategic Growth Fund,Purchased,2009-03-04,15001.0,50000.0
175,Oppenheimer International Bond Fund,Purchased,2009-03-04,15001.0,50000.0
176,Portfolio 21,Purchased,2009-03-04,15001.0,50000.0
177,PowerShares DB Commodity Index,Purchased,2009-03-04,1001.0,15000.0
178,Rydex Managed Futures,Purchased,2009-03-04,15001.0,50000.0
179,SPDR Trust Series 1,Sold,2009-03-04,15001.0,50000.0
180,Streettracks Gold Trust ETF,Purchased,2009-03-04,15001.0,50000.0
181,Vanguard Emerging Markets ETF,Purchased,2009-03-04,1001.0,15000.0
182,Vanguard Emerging Markets ETF,Purchased,2009-03-04,15001.0,50000.0
183,Vanguard EuroPacific Fund,Sold,2009-03-04,15001.0,50000.0
184,Vanguard Muni Bond Limited Fund,Purchased,2009-03-04,15001.0,50000.0
185,Vanguard Small Cap VB,Sold,2009-03-04,1001.0,15000.0
186,iShares Barclays TIPS Bond Fund,Purchased,2009-03-04,1001.0,15000.0
187,iShares Cohen & Steer ICF,Purchased,2009-03-04,1001.0,15000.0
188,iShares MSCI EAFE Growth Index,Sold,2009-03-04,1001.0,15000.0
189,iShares MSCI EAFE Growth Index,Sold,2009-03-04,1001.0,15000.0
190,iShares MSCI EAFE Growth Index,Sold,2009-03-04,1001.0,15000.0
191,iShares Russell IWM,Sold,2009-03-04,1001.0,15000.0
192,iShares S&P Global Index,Sold,2009-03-04,1001.0,15000.0
193,iShares Trust DSI,Purchased,2009-03-04,15001.0,50000.0
194,American Century Diversified Bond Fund,Purchased,2009-03-09,15001.0,50000.0
195,Calvert Small Cap Value Fund,Purchased,2009-03-11,15001.0,50000.0
196,Schwab Advantage Money Market,Purchased,2009-03-27,15001.0,50000.0
197,Schwab Advantage Money Market,Sold,2009-03-30,15001.0,50000.0
198,Vanguard Muni Bond Limited Fund,Sold,2009-04-13,1001.0,15000.0
199,American Century Diversified Bond Fund,Sold,2009-04-15,15001.0,50000.0
200,American Century Diversified Bond Fund,Sold,2009-04-15,1001.0,15000.0
201,Vanguard Muni Bond Limited Fund,Sold,2009-04-15,15001.0,50000.0
202,iShares MSCI Emerging Markets Index,Purchased,2009-04-16,15001.0,50000.0
203,PowerShares Global Clean Energy PBD,Purchased,2009-04-20,1001.0,15000.0
204,PowerShares Global Clean Energy PBD,Purchased,2009-04-20,1001.0,15000.0
205,iShares Trust DSI,Purchased,2009-04-20,15001.0,50000.0
206,Schwab Inflation,Purchased,2009-05-05,1001.0,15000.0
207,Schwab Inflation,Purchased,2009-05-05,1001.0,15000.0
208,Woodshire Gardens Assoc,Purchased,2009-06-07,15001.0,50000.0
209,CGM Focus fund,Sold,2009-06-19,1001.0,15000.0
210,Calvert Small Cap Value Fund,Purchased,2009-06-19,1001.0,15000.0
211,Calvert Small Cap Value Fund,Sold,2009-06-19,1001.0,15000.0
212,Hussman Strategic Growth Fund,Sold,2009-06-19,15001.0,50000.0
213,Portfolio 21,Purchased,2009-06-19,1001.0,15000.0
214,Portfolio 21,Sold,2009-06-19,1001.0,15000.0
215,PowerShares DB Commodity Index,Purchased,2009-06-19,1001.0,15000.0
216,PowerShares Global Clean Energy PBD,Sold,2009-06-19,1001.0,15000.0
217,Rydex Managed Futures,Purchased,2009-06-19,1001.0,15000.0
218,Streettracks Gold Trust ETF,Purchased,2009-06-19,1001.0,15000.0
219,Vanguard Emerging Markets ETF,Sold,2009-06-19,1001.0,15000.0
220,iShares Barclays TIPS Bond Fund,Purchased,2009-06-19,1001.0,15000.0
221,iShares Cohen & Steer ICF,Purchased,2009-06-19,1001.0,15000.0
222,iShares Trust DSI,Sold,2009-06-19,1001.0,15000.0
223,Schwab Investor Money Fund,Purchased,2009-06-26,1001.0,15000.0
224,iShares Barclays Aggregate Bond Fund,Sold,2009-07-02,15001.0,50000.0
225,American Century Inflation Prot Bond Fnd,Sold,2009-07-29,1001.0,15000.0
226,Vanguard Short Term Treasury Fund,Sold,2009-07-29,1001.0,15000.0
227,iShares Cohen & Steer ICF,Sold,2009-09-10,1001.0,15000.0
228,Vanguard Emerging Markets ETF,Sold,2009-09-15,1001.0,15000.0
229,Vanguard Emerging Markets ETF,Sold,2009-09-15,1001.0,15000.0
230,Schwab Investor Money Fund,Purchased,2009-09-22,1001.0,15000.0
231,Schwab Investor Money Fund,Purchased,2009-09-22,1001.0,15000.0
232,Schwab Investor Money Fund,Purchased,2009-09-22,1001.0,15000.0
233,Schwab Investor Money Fund,Sold,2009-09-23,1001.0,15000.0
234,Schwab Investor Money Fund,Sold,2009-09-23,1001.0,15000.0
235,Schwab Investor Money Fund,Sold,2009-09-23,15001.0,50000.0
236,Permanent Portfolio Fund,Purchased,2009-09-24,1001.0,15000.0
237,Permanent Portfolio Fund,Purchased,2009-09-24,1001.0,15000.0
238,Permanent Portfolio Fund,Purchased,2009-09-24,15001.0,50000.0
239,HG Shadowbriar Holdings,Sold,2009-10-16,1001.0,15000.0
240,Oppenheimer International Bond Fund,Sold,2009-10-27,15001.0,50000.0
241,Schwab Investor Money Fund,Purchased,2009-10-28,15001.0,50000.0
242,Schwab Investor Money Fund,Sold,2009-11-06,15001.0,50000.0
243,Lacerte Guardian Fund,Purchased,2009-11-09,15001.0,50000.0
244,PowerShares Global Clean Energy PBD,Sold,2009-11-10,1001.0,15000.0
245,PowerShares Global Clean Energy PBD,Sold,2009-11-10,1001.0,15000.0
246,Calvert International Oppty Fund,Purchased,2009-11-12,1001.0,15000.0
247,Calvert International Oppty Fund,Purchased,2009-11-12,1001.0,15000.0
248,Portfolio 21,Purchased,2009-11-12,1001.0,15000.0
249,Portfolio 21,Purchased,2009-11-12,1001.0,15000.0
250,Db Commodity Index Fund,Purchased,2009-12-03,1001.0,15000.0
251,Streettracks Gold Trust ETF,Sold,2009-12-03,1001.0,15000.0
252,Vanguard Emerging Markets ETF,Sold,2009-12-03,1001.0,15000.0
253,iShares Trust DSI,Sold,2009-12-03,1001.0,15000.0
254,iShares Barclays Aggregate Bond Fund,Exchanged,2010-02-22,1001.0,15000.0
255,CGM Focus Fund,Exchanged,2010-03-16,1001.0,15000.0
256,CGM Focus Fund,Exchanged,2010-03-16,15001.0,50000.0
257,American Century Inflation-Adjusted Bond,Purchased,2010-03-25,1001.0,15000.0
258,Calvert International Oppty Fund,Exchanged,2010-03-25,1001.0,15000.0
259,Calvert International Oppty Fund,Exchanged,2010-03-25,1001.0,15000.0
260,Calvert Small Cap Value Fund,Exchanged,2010-03-25,15001.0,50000.0
261,Clavert Small Cap Value - CCVAX,Exchanged,2010-03-25,15001.0,50000.0
262,Db Commodity Index,Exchanged,2010-03-25,1001.0,15000.0
263,Lacerte Guardian Fund,Purchased,2010-03-25,1001.0,15000.0
264,Matthews Asia Pacific Equity Fund,Purchased,2010-03-25,15001.0,50000.0
265,Parnassus Small Cap Fund,Purchased,2010-03-25,1001.0,15000.0
266,Permanent Portfolio Fund,Exchanged,2010-03-25,1001.0,15000.0
267,Permanent Portfolio Fund,Exchanged,2010-03-25,1001.0,15000.0
268,Permanent Portfolio Fund,Exchanged,2010-03-25,15001.0,50000.0
269,Rydex Managed Futures Strategy,Purchased,2010-03-25,1001.0,15000.0
270,SPDR Barclays Capital TIPS,Exchanged,2010-03-25,15001.0,50000.0
271,Schwab Inflation,Exchanged,2010-03-25,1001.0,15000.0
272,Schwab Inflation,Exchanged,2010-03-25,1001.0,15000.0
273,Sector SPDR Consumer Staple ETF,Purchased,2010-03-25,15001.0,50000.0
274,Streettracks Gold Trust ETF,Purchased,2010-03-25,1001.0,15000.0
275,Vanguard Emerging Markets ETF,Exchanged,2010-03-25,1001.0,15000.0
276,iShares Barclays TIPS Bond Fund,Exchanged,2010-03-25,1001.0,15000.0
277,iShares Barclays TIPS Bond Fund,Exchanged,2010-03-25,1001.0,15000.0
278,iShares Cohen & Steers ICF,Exchanged,2010-03-25,1001.0,15000.0
279,iShares DSI,Exchanged,2010-03-25,15001.0,50000.0
280,iShares MSCI Australia Index,Purchased,2010-03-25,1001.0,15000.0
281,iShares MSCI Canada Index,Purchased,2010-03-25,1001.0,15000.0
282,iShares MSCI Canada Index,Purchased,2010-03-25,1001.0,15000.0
283,iShares MSCI Germany Index,Purchased,2010-03-25,15001.0,50000.0
284,Matthews Asia Pacific Equity Fund,Purchased,2010-03-30,15001.0,50000.0
285,Parnassus Mid Cap Fund,Purchased,2010-03-30,1001.0,15000.0
286,Parnassus Mid Cap Fund,Purchased,2010-03-30,15001.0,50000.0
287,Portfolio 21,Purchased,2010-03-30,15001.0,50000.0
288,HSBC Bank Foreign Currency Linked CD,Exchanged,2010-05-10,1001.0,15000.0
289,HSBC Bank Foreign Currency Linked CD,Exchanged,2010-05-10,50001.0,100000.0
290,American Century Inflation-Adjusted Bond,Purchased,2010-05-24,15001.0,50000.0
291,Db Commodity Index,Purchased,2010-05-24,1001.0,15000.0
292,Lacerte Guardian Fund,Purchased,2010-05-24,1001.0,15000.0
293,Matthews Asia Pacific Equity Fund,Purchased,2010-05-24,1001.0,15000.0
294,Parnassus Mid Cap Fund,Purchased,2010-05-24,1001.0,15000.0
295,Parnassus Small Cap Fund,Purchased,2010-05-24,1001.0,15000.0
296,Portfolio 21,Purchased,2010-05-24,15001.0,50000.0
297,Rydex Managed Futures Strategy,Purchased,2010-05-24,1001.0,15000.0
298,Schwab Inst Advantage Money Market,Purchased,2010-05-24,15001.0,50000.0
299,Sector SPDR Consumer Staple ETF,Purchased,2010-05-24,1001.0,15000.0
300,Streettracks Gold Trust ETF,Purchased,2010-05-24,1001.0,15000.0
301,iShares Cohen & Steers ICF,Purchased,2010-05-24,1001.0,15000.0
302,iShares DSI,Purchased,2010-05-24,1001.0,15000.0
303,iShares MSCI Australia Index,Purchased,2010-05-24,1001.0,15000.0
304,iShares MSCI Canada Index,Purchased,2010-05-24,1001.0,15000.0
305,iShares MSCI Emerging Markets Index,Purchased,2010-05-24,15001.0,50000.0
306,iShares MSCI Germany Index,Purchased,2010-05-24,1001.0,15000.0
307,Ally Bank/CD,Purchased,2010-06-09,1001.0,15000.0
308,GE Money Bank/CD,Purchased,2010-06-09,1001.0,15000.0
309,Plainscapital Bank/CD,Purchased,2010-06-14,1001.0,15000.0
310,American Century Inflation-Adjusted Bond,Purchased,2010-06-16,1001.0,15000.0
311,Bank of America CD - 06051VSW7,Purchased,2010-06-16,1001.0,15000.0
312,Schwab Inst Advantage Money Market,Exchanged,2010-06-22,15001.0,50000.0
313,HG Value Add Multi-Family Holdings LLC,Purchased,2010-07-06,15001.0,50000.0
314,Schwab Value Advantage Fund,Purchased,2010-07-06,15001.0,50000.0
315,Schwab Value Advantage Fund,Exchanged,2010-07-06,15001.0,50000.0
316,Portfolio 21,Exchanged,2010-07-21,1001.0,15000.0
317,Portfolio 21,Exchanged,2010-07-21,1001.0,15000.0
318,Portfolio 21,Exchanged,2010-07-21,1001.0,15000.0
319,Proshares UltraShort Yen,Purchased,2010-07-21,1001.0,15000.0
320,Proshares UltraShort Yen,Purchased,2010-07-21,1001.0,15000.0
321,Proshares UltraShort Yen,Purchased,2010-07-21,1001.0,15000.0
322,iShares MSCI Emerging Markets Index,Exchanged,2010-07-27,15001.0,50000.0
323,Matthews Asia Pacific Equity Fund,Purchased,2010-07-29,15001.0,50000.0
324,Schwab Value Advantage Fund,Exchanged,2010-08-16,15001.0,50000.0
325,iShares Barclays Aggregate Bond Fund,Exchanged,2010-08-17,15001.0,50000.0
326,iShares Barclays TIPS Bond Fund,Exchanged,2010-08-17,1001.0,15000.0
327,Schwab Value Advantage Fund,Exchanged,2010-08-31,1001.0,15000.0
328,Rydex Managed Futures Strategy,Exchanged,2010-09-16,1001.0,15000.0
329,Rydex Managed Futures Strategy,Exchanged,2010-09-16,15001.0,50000.0
330,AQR Managed Futures Fund,Purchased,2010-09-17,1001.0,15000.0
331,AQR Managed Futures Fund,Purchased,2010-09-17,15001.0,50000.0
332,Db Commodity Index,Exchanged,2010-10-08,15001.0,50000.0
333,Db Commodity Index,Exchanged,2010-10-08,1001.0,15000.0
334,JPMorgan Highbridge Stat Mkt Neut Fund,Purchased,2010-10-12,1001.0,15000.0
335,JPMorgan Highbridge Stat Mkt Neut Fund,Purchased,2010-10-12,15001.0,50000.0
336,Proshares UltraShort Yen,Exchanged,2010-10-15,1001.0,15000.0
337,Proshares UltraShort Yen,Exchanged,2010-10-15,1001.0,15000.0
338,Proshares UltraShort Yen,Exchanged,2010-10-15,1001.0,15000.0
339,Schwab Investor Money Fund,Purchased,2010-10-19,1001.0,15000.0
340,Schwab Investor Money Fund,Purchased,2010-10-19,1001.0,15000.0
341,Schwab Investor Money Fund,Purchased,2010-10-19,1001.0,15000.0
342,Streettracks Gold Trust ETF,Exchanged,2010-11-02,1001.0,15000.0
343,Streettracks Gold Trust ETF,Exchanged,2010-11-02,1001.0,15000.0
344,Schwab Investor Money Fund,Purchased,2010-11-05,1001.0,15000.0
345,Schwab Investor Money Fund,Purchased,2010-11-05,1001.0,15000.0
346,Schwab Value Advantage Fund,Exchanged,2010-12-01,1001.0,15000.0
347,JPMorgan Highbridge Stat Mkt Neut Fund,Exchanged,2010-12-14,1001.0,15000.0
348,Lacerte Guardian Fund,Exchanged,2010-12-14,1001.0,15000.0
349,Parnassus Small Cap Fund,Exchanged,2010-12-14,1001.0,15000.0
350,Portfolio 21,Exchanged,2010-12-14,15001.0,50000.0
351,Schwab Investor Money Fund,Exchanged,2010-12-14,1001.0,15000.0
352,Schwab Investor Money Fund,Exchanged,2010-12-14,1001.0,15000.0
353,Schwab Investor Money Fund,Exchanged,2010-12-14,1001.0,15000.0
354,Streettracks Gold Trust ETF,Exchanged,2010-12-14,1001.0,15000.0
355,Vanguard Emerging Markets ETF,Exchanged,2010-12-14,1001.0,15000.0
356,iShares Cohen & Steers ICF,Exchanged,2010-12-14,1001.0,15000.0
357,iShares Cohen & Steers ICF,Exchanged,2010-12-14,1001.0,15000.0
358,iShares DSI,Exchanged,2010-12-14,1001.0,15000.0
359,iShares MSCI Australia Index,Exchanged,2010-12-14,1001.0,15000.0
360,iShares MSCI Canada Index,Exchanged,2010-12-14,1001.0,15000.0
361,iShares MSCI Emerging Markets Index,Exchanged,2010-12-14,15001.0,50000.0
362,iShares MSCI Germany Index,Exchanged,2010-12-14,1001.0,15000.0
363,Matthews Asia Pacific Equity Fund,Purchased,2010-12-17,1001.0,15000.0
364,Parnassus Mid Cap Fund,Purchased,2010-12-17,1001.0,15000.0
365,Schwab Investor Money Fund,Purchased,2010-12-17,15001.0,50000.0
366,Schwab Investor Money Fund,Exchanged,2010-12-22,15001.0,50000.0
367,Vanguard Health Care Fund,Purchased,2010-12-22,15001.0,50000.0
368,iShares Tech-Software,Purchased,2010-12-22,15001.0,50000.0
369,Lacerte Guardian Fund,Exchanged,2011-01-06,1001.0,15000.0
370,Lacerte Guardian Fund,Exchanged,2011-01-06,15001.0,50000.0
371,Vanguard Health Care,Purchased,2011-01-06,15001.0,50000.0
372,iShares Tech-Software,Purchased,2011-01-06,15001.0,50000.0
373,JPMorgan High Yield Bond,Purchased,2011-01-07,1001.0,15000.0
374,Portfolio 21,Exchanged,2011-01-11,15001.0,50000.0
375,Portfolio 21,Purchased,2011-01-11,15001.0,50000.0
376,iShares Trust - DSI,Exchanged,2011-01-14,15001.0,50000.0
377,iShares Trust - DSI,Exchanged,2011-01-14,15001.0,50000.0
378,iShares Trust - DSI,Exchanged,2011-01-14,1001.0,15000.0
379,Parnassus Fund - PARNX,Purchased,2011-01-19,1001.0,15000.0
380,Parnassus Fund - PARNX,Purchased,2011-01-19,15001.0,50000.0
381,Parnassus Fund - PARNX,Purchased,2011-01-19,15001.0,50000.0
382,Parnassus Fund - PARNX,Purchased,2011-01-19,1001.0,15000.0
383,iShares Cohen & Steers,Exchanged,2011-02-02,15001.0,50000.0
384,iShares MSCI Emerging Markets Index,Exchanged,2011-02-02,15001.0,50000.0
385,iShares MSCI Emerging Markets Index,Exchanged,2011-02-02,1001.0,15000.0
386,iShares TRUST S&P - IVV,Purchased,2011-02-08,1001.0,15000.0
387,Parnassus Fund - PARNX,Purchased,2011-02-16,1001.0,15000.0
388,Parnassus Fund - PARNX,Purchased,2011-02-16,50001.0,100000.0
389,Matthews Asia - MAPIX,Sold,2011-02-17,50001.0,100000.0
390,Matthews Asia - MIPIX,Sold,2011-02-17,50001.0,100000.0
391,Schwab Value Advantage - SWVXX,Exchanged,2011-03-08,1001.0,15000.0
392,Matthews Asia Dividend - MIPIX,Purchased,2011-03-29,1001.0,15000.0
393,Parnassus Fund - PARNX,Purchased,2011-03-29,1001.0,15000.0
394,Woodshire Gardens Assoc,Exchanged,2011-04-28,15001.0,50000.0
395,Schwab Inst Advantage,Purchased,2011-05-10,15001.0,50000.0
396,AQR Managed Futures Fund,Purchased,2011-06-15,1001.0,15000.0
397,Matthews Asia Dividend - MIPIX,Exchanged,2011-06-15,1001.0,15000.0
398,Parnassus Fund - PARNX,Purchased,2011-06-15,1001.0,15000.0
399,Parnassus Fund - PARNX,Purchased,2011-06-15,1001.0,15000.0
400,Parnassus Mid Cap Fund,Exchanged,2011-06-15,1001.0,15000.0
401,Portfolio 21,Exchanged,2011-06-15,15001.0,50000.0
402,Sector Spdr Tr Consumer Staples,Purchased,2011-06-15,1001.0,15000.0
403,Streettracks Gold Trust ETF,Exchanged,2011-06-15,1001.0,15000.0
404,Vanguard Health Care,Purchased,2011-06-15,15001.0,50000.0
405,iShares MSCI Emerging Markets Index,Purchased,2011-06-15,1001.0,15000.0
406,iShares MSCI Sweden,Purchased,2011-06-15,15001.0,50000.0
407,iShares Msci Australia,Exchanged,2011-06-15,1001.0,15000.0
408,iShares Msci Australia,Exchanged,2011-06-15,1001.0,15000.0
409,iShares Msci Germany,Purchased,2011-06-15,1001.0,15000.0
410,iShares Tech-Software,Exchanged,2011-06-15,15001.0,50000.0
411,iShares Tech-Software,Exchanged,2011-06-15,1001.0,15000.0
412,Schwab Investor Money Fund,Purchased,2011-06-21,50001.0,100000.0
413,Pueblo Colo Urban BOND,Purchased,2011-06-22,15001.0,50000.0
414,Plainscapital Bank/CD,Exchanged,2011-06-23,1001.0,15000.0
415,American Century ShDur Infl Prot Bd Intl,Purchased,2011-06-24,1001.0,15000.0
416,Belvedere Holdings,Purchased,2011-06-24,15001.0,50000.0
417,Schwab Inst Advantage,Exchanged,2011-06-24,15001.0,50000.0
418,GE Money Bank/CD,Purchased,2011-06-27,1001.0,15000.0
419,Sector Spdr Tr Consumer Staples,Exchanged,2011-07-07,50001.0,100000.0
420,Sector Spdr Tr Consumer Staples,Exchanged,2011-07-07,1001.0,15000.0
421,Parnassus Equity - PRILX,Purchased,2011-07-11,1001.0,15000.0
422,Parnassus Equity - PRILX,Purchased,2011-07-11,50001.0,100000.0
423,Schwab Inst Advantage,Exchanged,2011-07-29,15001.0,50000.0
424,Schwab Investor Money Fund,Exchanged,2011-07-29,50001.0,100000.0
425,Matthews Japan Fund - MIJFX,Purchased,2011-08-03,50001.0,100000.0
426,Powershares ETF,Purchased,2011-10-05,1001.0,15000.0
427,Powershares ETF,Purchased,2011-10-05,15001.0,50000.0
428,Powershares ETF,Purchased,2011-10-05,15001.0,50000.0
429,Powershares ETF,Purchased,2011-10-05,1001.0,15000.0
430,iShares MSCI Sweden,Exchanged,2011-10-05,1001.0,15000.0
431,iShares Msci Canada,Exchanged,2011-10-05,1001.0,15000.0
432,iShares Msci Canada,Exchanged,2011-10-05,1001.0,15000.0
433,iShares Msci Germany,Exchanged,2011-10-05,15001.0,50000.0
434,iShares Msci Germany,Exchanged,2011-10-05,1001.0,15000.0
435,iShares Msci Germany,Exchanged,2011-10-05,1001.0,15000.0
436,iShares Tech-Software,Exchanged,2011-10-05,15001.0,50000.0
437,JPMorgan High Yield Bond,Purchased,2011-10-07,1001.0,15000.0
438,JPMorgan High Yield Bond,Purchased,2011-10-07,1001.0,15000.0
439,Parnassus Fund - PARNX,Exchanged,2011-10-07,15001.0,50000.0
440,Parnassus Fund - PARNX,Exchanged,2011-10-07,1001.0,15000.0
441,Parnassus Fund - PARNX,Exchanged,2011-10-07,1001.0,15000.0
442,Parnassus Fund - PARNX,Exchanged,2011-10-07,1001.0,15000.0
443,Parnassus Fund - PARNX,Exchanged,2011-10-07,1001.0,15000.0
444,Wells Fargo Advtg Growth,Purchased,2011-10-11,1001.0,15000.0
445,Wells Fargo Advtg Growth,Purchased,2011-10-11,15001.0,50000.0
446,Wells Fargo Advtg Growth,Purchased,2011-10-11,1001.0,15000.0
447,Wells Fargo Advtg Growth,Purchased,2011-10-11,1001.0,15000.0
448,Wells Fargo Advtg Growth,Purchased,2011-10-11,1001.0,15000.0
449,Parnassus Fund - PARNX,Exchanged,2011-12-08,1001.0,15000.0
450,Parnassus Fund - PARNX,Exchanged,2011-12-08,1001.0,15000.0
451,iShares TRUST S&P - IVV,Purchased,2011-12-08,1001.0,15000.0
452,Knollwood Apt Complex,Purchased,2012-01-13,15001.0,50000.0
453,AQR Managed Futures Fund,Exchanged,2012-02-09,15001.0,50000.0
454,AQR Managed Futures Fund,Exchanged,2012-02-09,1001.0,15000.0
455,American Century Inflation Prot Bond Fnd,Exchanged,2012-02-09,15001.0,50000.0
456,JPMorgan High Yield Fund,Exchanged,2012-02-09,1001.0,15000.0
457,JPMorgan Highbridge,Exchanged,2012-02-09,1001.0,15000.0
458,Matthews Asia Dividend Fund,Purchased,2012-02-09,1001.0,15000.0
459,Matthews Japan Fund,Exchanged,2012-02-09,15001.0,50000.0
460,Parnassus Equity Income Fund,Exchanged,2012-02-09,15001.0,50000.0
461,Parnassus Mid Cap Fund,Exchanged,2012-02-09,1001.0,15000.0
462,Portfolio 21,Purchased,2012-02-09,1001.0,15000.0
463,Portfolio 21,Purchased,2012-02-09,15001.0,50000.0
464,Portfolio 21 Global Equity,Purchased,2012-02-09,1001.0,15000.0
465,PowerShares International Dividend,Exchanged,2012-02-09,1001.0,15000.0
466,Streettracks Gold Trust,Purchased,2012-02-09,1001.0,15000.0
467,Vanguard Health Care Fund,Exchanged,2012-02-09,1001.0,15000.0
468,Wells Fargo Advantage Growth Fund,Purchased,2012-02-09,15001.0,50000.0
469,Wells Fargo Advantage Growth Fund,Purchased,2012-02-09,1001.0,15000.0
470,iShares Cohen & Steer ICF,Purchased,2012-02-09,1001.0,15000.0
471,iShares MSCI ACWI Index,Purchased,2012-02-09,15001.0,50000.0
472,iShares MSCI Emerging Markets Index,Purchased,2012-02-09,15001.0,50000.0
473,iShares S&P 500 Index,Exchanged,2012-02-09,1001.0,15000.0
474,iShares S&P 500 Index,Exchanged,2012-02-09,1001.0,15000.0
475,Holding Eastland Apt complex & Crown P,Purchased,2012-02-22,15001.0,50000.0
476,Parnassus Fund,Purchased,2012-05-02,1001.0,15000.0
477,Parnassus Fund,Purchased,2012-05-02,1001.0,15000.0
478,Parnassus Fund,Purchased,2012-05-02,1001.0,15000.0
479,Vanguard Health Care Fund,Exchanged,2012-05-02,15001.0,50000.0
480,Vanguard Health Care Fund,Exchanged,2012-05-02,15001.0,50000.0
481,Vanguard Health Care Fund,Exchanged,2012-05-02,15001.0,50000.0
482,Wells Fargo Advantage Growth Fund,Purchased,2012-05-02,1001.0,15000.0
483,Wells Fargo Advantage Growth Fund,Purchased,2012-05-02,1001.0,15000.0
484,Wells Fargo Advantage Growth Fund,Purchased,2012-05-02,1001.0,15000.0
485,Parnassus Fund,Purchased,2012-06-14,1001.0,15000.0
486,Parnassus Small Cap Fund,Purchased,2012-06-14,1001.0,15000.0
487,Portfolio 21 Global Equity,Purchased,2012-06-14,1001.0,15000.0
488,PowerShares International Dividend,Purchased,2012-06-14,1001.0,15000.0
489,Wells Fargo Advantage Growth Fund,Purchased,2012-06-14,1001.0,15000.0
490,iShares MSCI Emerging Markets Index,Purchased,2012-06-14,1001.0,15000.0
491,Bank of America/CD - 06051VSW7,Exchanged,2012-06-25,1001.0,15000.0
492,Portfolio 21,Purchased,2012-07-26,1001.0,15000.0
493,Wells Fargo Advantage Growth Fund,Purchased,2012-07-26,1001.0,15000.0
494,iShares Cohen & Steer,Exchanged,2012-07-26,1001.0,15000.0
495,iShares Cohen & Steer ICF,Exchanged,2012-07-26,1001.0,15000.0
496,iShares MSCI Emerging Markets Index,Purchased,2012-07-26,1001.0,15000.0
497,JPMorgan High Yield Fund,Purchased,2012-07-30,1001.0,15000.0
498,JPMorgan High Yield Fund,Purchased,2012-07-30,1001.0,15000.0
499,HG Shadowbriar Holdings,Exchanged,2012-08-14,15001.0,50000.0
500,JPMorgan Highbridge,Purchased,2012-09-13,1001.0,15000.0
501,Parnassus Equity Income Fund,Exchanged,2012-09-13,1001.0,15000.0
502,Parnassus Equity Income Fund,Exchanged,2012-09-13,15001.0,50000.0
503,Parnassus Mid Cap Fund,Exchanged,2012-09-13,1001.0,15000.0
504,Portfolio 21,Purchased,2012-09-13,15001.0,50000.0
505,Wells Fargo Advantage Growth Fund,Exchanged,2012-09-13,15001.0,50000.0
506,Discover Bank CD - 254671GA2,Purchased,2012-10-03,1001.0,15000.0
507,Apple Inc,Purchased,2012-10-26,15001.0,50000.0
508,iShares MSCI ACWI Index,Exchanged,2012-10-26,15001.0,50000.0
509,Apple Inc,Exchanged,2012-12-14,15001.0,50000.0
510,iShares MSCI ACWI Index,Purchased,2012-12-14,15001.0,50000.0
511,American Century ShDur Infl Prot Bond Intl,Sold,2013-01-18,15001.0,50000.0
512,Highbridge Dync Cmdts Strat Sel Fund,Purchased,2013-01-18,1001.0,15000.0
513,JPMorgan High Yield Select Fund,Purchased,2013-01-18,1001.0,15000.0
514,Matthews Asia Dividend Institutional,Purchased,2013-01-18,1001.0,15000.0
515,Parnassus Fund,Purchased,2013-01-18,1001.0,15000.0
516,Parnassus Mid-Cap Fund,Purchased,2013-01-18,1001.0,15000.0
517,Parnassus Small-Cap Fund,Purchased,2013-01-18,1001.0,15000.0
518,Portfolio 21 Global Equity Institutional,Purchased,2013-01-18,1001.0,15000.0
519,PowerShares Intl Dividend Achievers,Purchased,2013-01-18,1001.0,15000.0
520,SPDR Gold Trust ETF,Purchased,2013-01-18,1001.0,15000.0
521,Wells Fargo Advantage Growth Fund,Purchased,2013-01-18,15001.0,50000.0
522,iShares MSCI Emerging Markets Index,Purchased,2013-01-18,1001.0,15000.0
523,iShares Trust MSCI ACWI Index,Purchased,2013-01-18,1001.0,15000.0
524,HGI BSW Fund II,Purchased,2013-02-15,15001.0,50000.0
525,El Paso County Colo Bond,Purchased,2013-02-21,1001.0,15000.0
526,Rangely Colo Sch - 752804BF0,Purchased,2013-02-21,1001.0,15000.0
527,Fairfield County Ohio Bond,Purchased,2013-02-22,1001.0,15000.0
528,Delaware County Pa Bond,Purchased,2013-02-25,1001.0,15000.0
529,Iowa Hosp Revenue - 46256QFK7,Purchased,2013-02-25,1001.0,15000.0
530,Atlantic City NJ Bond,Purchased,2013-02-26,1001.0,15000.0
531,State Pub Sch Bl - 85732GPV6,Purchased,2013-02-26,1001.0,15000.0
532,Colorado Ctfs - 196711NW1,Purchased,2013-02-28,1001.0,15000.0
533,Terra Cmnty,Purchased,2013-02-28,1001.0,15000.0
534,Harris County Tex Muni Bond,Purchased,2013-03-01,1001.0,15000.0
535,Matthews Asia Dividend Institutional,Purchased,2013-03-06,1001.0,15000.0
536,Parnassus Fund,Purchased,2013-03-06,1001.0,15000.0
537,Parnassus Mid-Cap Fund,Purchased,2013-03-06,1001.0,15000.0
538,Portfolio 21 Global Equity Institutional,Purchased,2013-03-06,1001.0,15000.0
539,PowerShares Intl Dividend Achievers,Purchased,2013-03-06,1001.0,15000.0
540,iShares Gold Trust ETF,Purchased,2013-03-06,1001.0,15000.0
541,iShares MSCI Emerging Markets Index,Purchased,2013-03-06,1001.0,15000.0
542,iShares Trust MSCI ACWI Index,Purchased,2013-03-06,1001.0,15000.0
543,Colorado Water Res Bond,Purchased,2013-03-07,1001.0,15000.0
544,Taylor Mich Tax Inc,Purchased,2013-03-14,1001.0,15000.0
545,Boston Common International Fund,Purchased,2013-05-06,100001.0,250000.0
546,Highbridge Dync Cmdts Strat Sel Fund,Sold,2013-05-06,1001.0,15000.0
547,Highbridge Dync Cmdts Strat Sel Fund,Sold,2013-05-06,1001.0,15000.0
548,JPMorgan High Yield Select Fund,Sold,2013-05-06,15001.0,50000.0
549,JPMorgan High Yield Select Fund,Sold,2013-05-06,15001.0,50000.0
550,Matthews Asia Dividend Institutional,Sold,2013-05-06,1001.0,15000.0
551,Parnassus Equity Income Institutional,Purchased,2013-05-06,15001.0,50000.0
552,Parnassus Equity Income Institutional,Purchased,2013-05-06,100001.0,250000.0
553,Parnassus Fund,Sold,2013-05-06,100001.0,250000.0
554,Parnassus Fund,Sold,2013-05-06,50001.0,100000.0
555,Parnassus Mid-Cap Fund,Purchased,2013-05-06,1001.0,15000.0
556,Parnassus Small-Cap Fund,Purchased,2013-05-06,1001.0,15000.0
557,Portfolio 21 Global Equity Institutional,Sold,2013-05-06,1001.0,15000.0
558,PowerShares Intl Dividend Achievers,Sold,2013-05-06,15001.0,50000.0
559,PowerShares Intl Dividend Achievers,Sold,2013-05-06,15001.0,50000.0
560,Wells Fargo Advantage Growth Fund,Sold,2013-05-06,50001.0,100000.0
561,Wells Fargo Advantage Growth Fund,Sold,2013-05-06,50001.0,100000.0
562,iShares Gold Trust ETF,Purchased,2013-05-06,1001.0,15000.0
563,iShares Trust MSCI ACWI Index,Sold,2013-05-06,15001.0,50000.0
564,iShares Trust MSCI ACWI Index,Sold,2013-05-06,15001.0,50000.0
565,Calvert International Opportunities Fund,Purchased,2013-05-07,50001.0,100000.0
566,Neuberger Berman Socially Rspns Fund,Purchased,2013-05-07,100001.0,250000.0
567,Colorado Water Res Bond,Sold,2013-05-09,1001.0,15000.0
568,HG Value Add Multi-Family Holdings LLC,Sold,2013-05-15,15001.0,50000.0
569,MIMG BSW Fund I,Purchased,2013-05-23,15001.0,50000.0
570,Ally Bank CD - 7599514,Sold,2013-06-11,1001.0,15000.0
571,iShares MSCI Emerging Markets Index,Sold,2013-06-17,15001.0,50000.0
572,iShares MSCI Emerging Markets Index,Sold,2013-06-17,15001.0,50000.0
573,Calvert Emerging Markets Equity Fund,Purchased,2013-06-19,15001.0,50000.0
574,Calvert Emerging Markets Equity Fund,Purchased,2013-06-19,15001.0,50000.0
575,Calvert Emerging Markets Equity Fund,Purchased,2013-06-20,1001.0,15000.0
576,Matthews Asia Dividend Institutional,Purchased,2013-06-20,1001.0,15000.0
577,Schwab Retirement Advantage Mon Fund,Purchased,2013-06-20,15001.0,50000.0
578,SPDR Gold Trust ETF,Sold,2013-06-28,15001.0,50000.0
579,iShares Gold Trust ETF,Sold,2013-06-28,1001.0,15000.0
580,iShares Gold Trust ETF,Sold,2013-06-28,1001.0,15000.0
581,Calvert International Opportunities Fund,Purchased,2013-07-02,1001.0,15000.0
582,Calvert International Opportunities Fund,Purchased,2013-07-02,15001.0,50000.0
583,American Century ShDur Infl Prot Bond Intl,Sold,2013-07-30,1001.0,15000.0
584,CRA Qualified Investment Institutional Fund,Purchased,2013-08-13,1001.0,15000.0
585,Cook County Ill Sch Bond,Purchased,2013-09-19,1001.0,15000.0
586,Boston Common International Fund,Purchased,2013-10-04,15001.0,50000.0
587,Boston Common International Fund,Purchased,2013-10-04,15001.0,50000.0
588,Calvert Emerging Markets Equity Fund,Sold,2013-10-04,1001.0,15000.0
589,Matthews Asia Dividend Institutional,Sold,2013-10-04,1001.0,15000.0
590,Neuberger Berman Socially Rspns Fund,Sold,2013-10-04,1001.0,15000.0
591,Parnassus Equity Income Institutional,Sold,2013-10-04,1001.0,15000.0
592,Parnassus Equity Income Institutional,Sold,2013-10-04,15001.0,50000.0
593,Parnassus Mid-Cap Fund,Sold,2013-10-04,1001.0,15000.0
594,Parnassus Small-Cap Fund,Sold,2013-10-04,1001.0,15000.0
595,Portfolio 21 Global Equity Institutional,Sold,2013-10-04,15001.0,50000.0
596,Portfolio 21 Global Equity Institutional,Sold,2013-10-04,15001.0,50000.0
597,Schwab Retirement Advantage Mon Fund,Purchased,2013-10-04,1001.0,15000.0
598,Conn Hsg Fin - 20775BM45,Purchased,2013-10-11,1001.0,15000.0
599,Nassau County - 63165TKQ7,Purchased,2013-10-11,1001.0,15000.0
600,Rockland County NY Bond,Purchased,2013-10-17,1001.0,15000.0
601,Taylor Mich Tax Inc,Sold,2013-10-17,1001.0,15000.0
602,Cook County Ill Sch Bond,Sold,2013-10-18,1001.0,15000.0
603,El Paso County Colo Bond,Purchased,2013-10-21,1001.0,15000.0
604,Oyster Bay NY - 692160JU9,Purchased,2013-10-30,1001.0,15000.0
605,Delaware County Pa Bond,Sold,2013-11-06,15001.0,50000.0
606,Brazoria County TX Bond,Purchased,2013-11-07,1001.0,15000.0
607,Rockland County NY Bond,Sold,2013-12-05,1001.0,15000.0
608,Moline Ill - 608557XT6,Purchased,2013-12-11,15001.0,50000.0
609,New York State Tw - 650010AC5,Purchased,2013-12-12,1001.0,15000.0
610,Iowa Hosp Revenue - 46256QFK7,Sold,2013-12-31,1001.0,15000.0
