,orgname,action,date1,minvalue,maxvalue
0,IVA Worldwide Fund,Purchased,2001-09-22,15001,50000
1,Hillenbrand Industries,Sold,2008-01-06,1001,15000
2,Sheid Vineyards Inc,Purchased,2008-01-06,15001,50000
3,American Eagle Outfitters,Purchased,2008-01-29,1001,15000
4,BNSF Railway,Purchased,2008-01-29,1001,15000
5,Citigroup Inc,Purchased,2008-01-29,1001,15000
6,Metropolitan Life Insurance,Sold,2008-01-29,1001,15000
7,Toyota Motor Corp,Sold,2008-01-29,15001,50000
8,Altria Group,Sold,2008-03-19,1001,15000
9,Apache Corp,Purchased,2008-03-19,1001,15000
10,Blackrock Global Allocation Fund,Purchased,2008-03-19,15001,50000
11,Caterpillar Inc,Purchased,2008-03-19,1001,15000
12,Chevron Corp,Sold,2008-03-19,50001,100000
13,Constellation Brands,Purchased,2008-03-19,1001,15000
14,Coventry Health Care,Purchased,2008-03-19,1001,15000
15,Julius Baer International Equity Fund,Sold,2008-03-19,50001,100000
16,Microsoft Corp,Sold,2008-03-19,1001,15000
17,Morgan Stanley Mid Cap Growth Fund,Sold,2008-03-19,15001,50000
18,Novartis AG,Sold,2008-03-19,1001,15000
19,PIMCO Total Return Fund,Sold,2008-03-19,1001,15000
20,Procter & Gamble,Sold,2008-03-19,1001,15000
21,Toyota Motor Corp,Sold,2008-03-19,15001,50000
22,Unit Corp,Purchased,2008-03-19,1001,15000
23,United Technologies,Sold,2008-03-19,1001,15000
24,Vanguard Bond Index,Sold,2008-03-19,15001,50000
25,Vanguard Index Growth Viper,Purchased,2008-03-19,15001,50000
26,WisdomTree Intl Small Cap Dividend Fund,Purchased,2008-03-19,50001,100000
27,iShares MSCI EAFE Value Index,Purchased,2008-03-19,15001,50000
28,iShares Russell 2000 Index,Purchased,2008-03-19,1001,15000
29,iShares Russell Mid Cap Index,Purchased,2008-03-19,15001,50000
30,Citigroup Inc,Sold,2008-03-20,1001,15000
31,Hartford Financial Services,Purchased,2008-03-25,1001,15000
32,Microsoft Corp,Sold,2008-03-25,1001,15000
33,Vanguard Sector Index Financial Vipers,Purchased,2008-03-25,1001,15000
34,Altria Group,Sold,2008-05-22,1001,15000
35,Philip Morris International,Purchased,2008-05-22,1001,15000
36,Amdocs Ltd,Purchased,2008-05-23,1001,15000
37,Toyota Motor Corp,Sold,2008-05-23,1001,15000
38,AT&T Inc,Purchased,2008-07-24,1001,15000
39,Applied Industrial Technologies,Purchased,2008-07-24,1001,15000
40,Autodesk Inc,Purchased,2008-07-24,1001,15000
41,Bank of America,Purchased,2008-07-24,1001,15000
42,Best Buy,Purchased,2008-07-24,1001,15000
43,Harbor International Fund,Sold,2008-07-24,50001,100000
44,Johnson & Johnson,Sold,2008-07-24,1001,15000
45,Metropolitan Life Insurance,Sold,2008-07-24,1001,15000
46,Microsoft Corp,Sold,2008-07-24,1001,15000
47,PNC Financial Services,Sold,2008-07-24,1001,15000
48,Spartan International Index,Purchased,2008-07-24,15001,50000
49,T Rowe Price Group,Purchased,2008-07-24,1001,15000
50,Vanguard Bond Index,Sold,2008-07-24,15001,50000
51,Vanguard Emerging Markets Vipers,Purchased,2008-07-24,50001,100000
52,Walt Disney Co,Sold,2008-07-24,1001,15000
53,Western Union,Sold,2008-07-24,1001,15000
54,iShares Russell 2000 Index,Sold,2008-07-24,1001,15000
55,Autodesk Inc,Purchased,2008-09-08,1001,15000
56,Bank of America,Purchased,2008-09-08,1001,15000
57,Huntington Bancshares,Sold,2008-09-08,15001,50000
58,Vanguard Bond Index,Purchased,2008-09-08,15001,50000
59,Vanguard Emerging Markets Vipers,Purchased,2008-09-08,50001,100000
60,Vanguard Index Growth Viper,Purchased,2008-09-08,15001,50000
61,WisdomTree Intl Small Cap Dividend Fund,Purchased,2008-09-08,50001,100000
62,Wyeth,Sold,2008-09-08,250001,500000
63,iShares MSCI EAFE Value Index,Purchased,2008-09-08,15001,50000
64,iShares Russell 2000 Index,Purchased,2008-09-08,1001,15000
65,Monsanto Co,Sold,2008-09-09,1001,15000
66,T Rowe Price Group,Sold,2008-09-17,1001,15000
67,AT&T Inc,Purchased,2008-09-25,1001,15000
68,Apache Corp,Purchased,2008-09-25,1001,15000
69,Autodesk Inc,Sold,2008-09-25,1001,15000
70,BNSF Railway,Sold,2008-09-25,1001,15000
71,Bank of America,Sold,2008-09-25,1001,15000
72,Best Buy,Purchased,2008-09-25,1001,15000
73,Blackrock Global Allocation Fund,Sold,2008-09-25,1001,15000
74,Hartford Financial Services,Purchased,2008-09-25,1001,15000
75,Hussman Strategic Total Return,Purchased,2008-09-25,15001,50000
76,Ivy Asset Strategy Fund ,Purchased,2008-09-25,15001,50000
77,Leuthold Asset Allocation Fund,Purchased,2008-09-25,15001,50000
78,Procter & Gamble,Sold,2008-09-25,1001,15000
79,Spartan International Index,Purchased,2008-09-25,1001,15000
80,Spartan International Index,Purchased,2008-09-25,1001,15000
81,Vanguard Bond Index,Sold,2008-09-25,15001,50000
82,Vanguard Sector Index Financial Vipers,Purchased,2008-09-25,1001,15000
83,Walt Disney Co,Purchased,2008-09-25,1001,15000
84,iShares Russell Mid Cap Index,Sold,2008-09-25,1001,15000
85,Hartford Financial Services,Sold,2008-09-30,1001,15000
86,Vanguard Emerging Markets Vipers,Sold,2008-10-23,15001,50000
87,WisdomTree Intl Small Cap Dividend Fund,Sold,2008-10-23,15001,50000
88,Apple Inc,Purchased,2008-10-28,1001,15000
89,Archer Daniels Midland,Purchased,2008-10-28,1001,15000
90,CVS/Caremark Corp,Purchased,2008-10-28,1001,15000
91,Gateway Fund,Purchased,2008-10-28,15001,50000
92,Johnson & Johnson,Purchased,2008-10-28,1001,15000
93,Monsanto Co,Purchased,2008-10-28,1001,15000
94,Nucor Corp,Purchased,2008-10-28,1001,15000
95,iShares Russell Value Index,Purchased,2008-10-28,1001,15000
96,Applied Industrial Technologies,Sold,2008-11-11,1001,15000
97,Astrazeneca Plc,Purchased,2008-11-11,1001,15000
98,BB&T Corp,Purchased,2008-11-11,1001,15000
99,Corning Inc,Sold,2008-11-11,1001,15000
100,Monsanto Co,Purchased,2008-11-11,1001,15000
101,Peabody Energy,Purchased,2008-11-11,1001,15000
102,Sector Spdr SBI Industrial Fund,Sold,2008-11-11,1001,15000
103,Spartan International Index,Purchased,2008-11-11,1001,15000
104,Vanguard Index Growth Viper,Sold,2008-11-11,15001,50000
105,Constellation Brands,Purchased,2008-11-14,1001,15000
106,Gateway Fund,Purchased,2008-11-14,1001,15000
107,Huntington Bancshares,Sold,2008-11-14,15001,50000
108,Ivy Asset Strategy Fund ,Purchased,2008-11-14,1001,15000
109,Leuthold Asset Allocation Fund,Purchased,2008-11-14,1001,15000
110,Nucor Corp,Purchased,2008-11-14,1001,15000
111,PIMCO Total Return Fund,Purchased,2008-11-14,15001,50000
112,Procter & Gamble,Purchased,2008-11-14,1001,15000
113,S&P 500 Depository Receipts,Purchased,2008-11-14,50001,100000
114,United Technologies,Sold,2008-11-14,1001,15000
115,Western Union,Purchased,2008-11-14,1001,15000
116,Wyeth,Sold,2008-11-14,250001,500000
117,AT&T Inc,Purchased,2008-12-23,1001,15000
118,Amdocs Ltd,Purchased,2008-12-23,1001,15000
119,Apple Inc,Purchased,2008-12-23,1001,15000
120,Astrazeneca Plc,Purchased,2008-12-23,1001,15000
121,BNSF Railway,Purchased,2008-12-23,1001,15000
122,Best Buy,Purchased,2008-12-23,1001,15000
123,Blackrock Global Allocation Fund,Purchased,2008-12-23,1001,15000
124,Hewlett-Packard,Purchased,2008-12-23,1001,15000
125,Hussman Strategic Total Return,Purchased,2008-12-23,15001,50000
126,ITT Corp,Purchased,2008-12-23,1001,15000
127,Ivy Asset Strategy Fund ,Purchased,2008-12-23,1001,15000
128,Johnson & Johnson,Purchased,2008-12-23,1001,15000
129,Leuthold Asset Allocation Fund,Purchased,2008-12-23,1001,15000
130,Monsanto Co,Purchased,2008-12-23,1001,15000
131,Novartis AG,Purchased,2008-12-23,1001,15000
132,Peabody Energy,Purchased,2008-12-23,1001,15000
133,S&P 500 Depository Receipts,Purchased,2008-12-23,50001,100000
134,Spartan International Index,Purchased,2008-12-23,15001,50000
135,St Jude Medical,Purchased,2008-12-23,1001,15000
136,Texas Instruments,Sold,2008-12-23,1001,15000
137,Unit Corp,Sold,2008-12-23,1001,15000
138,Vanguard Index Growth Viper,Purchased,2008-12-23,1001,15000
139,Vanguard Sector Utilities Fund,Purchased,2008-12-23,1001,15000
140,Wyeth,Sold,2008-12-23,250001,500000
141,iShares Russell 2000 Index,Purchased,2008-12-23,1001,15000
142,iShares Russell Value Index,Purchased,2008-12-23,1001,15000
143,Apache Corp,Purchased,2009-01-30,1001,15000
144,Archer Daniels Midland,Purchased,2009-01-30,1001,15000
145,Autodesk Inc,Purchased,2009-01-30,1001,15000
146,BNSF Railway,Purchased,2009-01-30,1001,15000
147,CVS/Caremark Corp,Purchased,2009-01-30,15001,50000
148,Caterpillar Inc,Purchased,2009-01-30,1001,15000
149,Chevron Corp,Purchased,2009-01-30,1001,15000
150,Cisco Systems,Purchased,2009-01-30,15001,50000
151,Coventry Healthcare,Purchased,2009-01-30,15001,50000
152,Fidelity Spartan International Index,Purchased,2009-01-30,1001,15000
153,ITT Corp,Purchased,2009-01-30,1001,15000
154,ITT Corp,Purchased,2009-01-30,1001,15000
155,Monsanto Co,Purchased,2009-01-30,1001,15000
156,PIMCO Total Return Fund,Sold,2009-01-30,15001,50000
157,Peabody Energy,Purchased,2009-01-30,1001,15000
158,Philip Morris International,Purchased,2009-01-30,1001,15000
159,Vanguard Bond Index Fund Total Market,Purchased,2009-01-30,1001,15000
160,Vanguard Total Bond Fund,Purchased,2009-01-30,1001,15000
161,Walt Disney Co,Purchased,2009-01-30,1001,15000
162,iShares Iboxx Investop,Purchased,2009-01-30,15001,50000
163,BB&T Bank,Sold,2009-02-20,1001,15000
164,PNC Financial Services,Sold,2009-02-20,1001,15000
165,Vanguard Sector Utilities Fund,Purchased,2009-02-20,15001,50000
166,AT&T Inc,Sold,2009-03-11,1001,15000
167,Direxion Commodity Trends Strtgy Inv,Purchased,2009-03-11,15001,50000
168,First Trust AMEX Biotechnology,Purchased,2009-03-11,1001,15000
169,Jacob Engineering Group,Purchased,2009-03-11,1001,15000
170,Novartis AG,Sold,2009-03-11,1001,15000
171,United Technologies,Sold,2009-03-11,1001,15000
172,Astrazeneca LLC,Sold,2009-03-26,1001,15000
173,Constellation Brands,Sold,2009-03-26,1001,15000
174,Vanguard Index Growth Viper,Purchased,2009-03-26,1001,15000
175,iShares MSCI Emerging Markets Index,Purchased,2009-03-26,15001,50000
176,Bank of America,Sold,2009-04-28,1001,15000
177,Vanguard Index Growth Viper,Purchased,2009-05-04,1001,15000
178,Caterpillar Inc,Sold,2009-06-05,1001,15000
179,Gateway Fund,Sold,2009-06-05,15001,50000
180,General Electric,Purchased,2009-06-05,1001,15000
181,Hewlett-Packard,Purchased,2009-06-05,1001,15000
182,Hussman Strategic Total Return,Sold,2009-06-05,15001,50000
183,IBM Corp,Purchased,2009-06-05,15001,50000
184,Jacob Engineering Group,Purchased,2009-06-05,1001,15000
185,PepsiCo Inc,Purchased,2009-06-05,1001,15000
186,Pfizer Inc,Purchased,2009-06-05,15001,50000
187,Spartan International Index,Sold,2009-06-05,50001,100000
188,Vanguard Bond Index Fund Total Market,Sold,2009-06-05,15001,50000
189,Verizon Communications,Purchased,2009-06-05,1001,15000
190,Xerox Corp,Purchased,2009-06-05,15001,50000
191,iShares MSCI EAFE Index,Purchased,2009-06-05,15001,50000
192,iShares MSCI EAFE Value Index,Sold,2009-06-05,15001,50000
193,iShares MSCI Emerging Markets Index,Purchased,2009-06-05,15001,50000
194,iShares Russell MSCI EAFE Value Index,Sold,2009-06-05,15001,50000
195,American Eagle Outfitters,Sold,2009-07-13,1001,15000
196,Archer Daniels Midland,Sold,2009-07-13,1001,15000
197,Autodesk Inc,Sold,2009-07-13,15001,50000
198,JPMorgan Chase & Co,Purchased,2009-07-13,15001,50000
199,McDonald's Corp,Purchased,2009-07-13,15001,50000
200,Vanguard Index Growth Viper,Sold,2009-07-13,15001,50000
201,Xerox Corp,Sold,2009-07-13,15001,50000
202,Hewlett-Packard,Sold,2009-08-05,15001,50000
203,Huntington Bankshares,Sold,2009-08-12,15001,50000
204,JPMorgan Chase & Co,Sold,2009-08-12,15001,50000
205,Rydex S&P Equal Weight Financial,Purchased,2009-08-12,15001,50000
206,Coventry Healthcare,Sold,2009-08-21,1001,15000
207,Microsoft Corp,Sold,2009-08-21,1001,15000
208,Vanguard Sector Utilities Fund,Purchased,2009-08-21,1001,15000
209,Bristol-Myers Squibb,Sold,2009-09-29,15001,50000
210,McDonald's Corp,Purchased,2009-09-29,1001,15000
211,Scheid Vineyards Inc,Sold,2009-09-29,1001,15000
212,Sector SPDR Trust SHS,Purchased,2009-09-29,1001,15000
213,Verizon Communications,Purchased,2009-09-29,1001,15000
214,Artisan International Value Fund,Purchased,2009-10-21,100001,250000
215,Chevron Corp,Sold,2009-10-21,1001,15000
216,Citigroup Inc,Sold,2009-10-21,1001,15000
217,IBM Corp,Sold,2009-10-21,15001,50000
218,Ivy Asset Strategy Fund ,Sold,2009-10-21,15001,50000
219,iShares MSCI EAFE Index,Sold,2009-10-21,15001,50000
220,Hewlett-Packard,Sold,2009-11-19,1001,15000
221,Jacob Engineering Group,Sold,2009-11-19,1001,15000
222,St Jude Medical,Sold,2009-11-19,15001,50000
223,BNSF Railway,Sold,2009-11-23,15001,50000
224,Direxion Commodity Trends Strtgy Inv,Sold,2009-12-11,15001,50000
225,Morgan Stanley Mid Cap Growth Fund,Purchased,2009-12-11,15001,50000
226,iShares MSCI Emerging Markets Index,Sold,2009-12-11,50001,100000
227,iShares Russell 2000 Index,Sold,2009-12-11,15001,50000
228,American Europacific Growth Fund,Purchased,2009-12-14,50001,100000
229,General Electric,Purchased,2010-02-03,1001,15000
230,PIMCO RealReturn Fund,Sold,2010-02-03,1001,15000
231,Vanguard Sector Utilities Fund,Purchased,2010-02-03,15001,50000
232,Walt Disney Co,Sold,2010-02-03,15001,50000
233,iShares Iboxx Investop Investment Grade,Sold,2010-02-03,15001,50000
234,Western Digital,Purchased,2010-03-08,15001,50000
235,Apple Inc,Sold,2010-04-19,1001,15000
236,IVA Worldwide Fund,Purchased,2010-05-11,15001,50000
237,PIMCO RealReturn Fund,Sold,2010-05-11,50001,100000
238,Sector SPDR Industrial,Sold,2010-05-11,1001,15000
239,Wasatch 1st Source Long/Short Fund,Purchased,2010-05-11,50001,100000
240,Hewlett-Packard,Purchased,2010-07-21,15001,50000
241,Blackrock Global Allocation Fund,Sold,2010-09-22,15001,50000
242,Chevron Corp,Sold,2010-09-22,1001,15000
243,Exxon Mobil,Sold,2010-09-22,1001,15000
244,Fidelity New Markets Income Fund,Purchased,2010-09-22,1001,15000
245,Hewlett-Packard,Sold,2010-09-22,15001,50000
246,Vanguard Sector Index Financial Vipers,Sold,2010-09-22,15001,50000
247,Western Digital,Sold,2010-09-22,15001,50000
248,Leuthold Asset Allocation Fund,Sold,2010-09-23,15001,50000
249,Blackrock Global Allocation Fund,Sold,2010-12-22,15001,50000
