,orgname,action,date1,minvalue,maxvalue
0,"Condo/Visalia, CA",Sold,2013-03-01,100001.0,250000.0
1,Perinet,Sold,2018-04-01,,
2,Perinet,Purchased,2018-04-01,15001.0,50000.0
3,Perinet,Purchased,2018-04-01,15001.0,50000.0
