,orgname,action,date1,minvalue,maxvalue
0,ING Direct,Purchased,2010-02-23,10000,10000
1,ING Direct,Sold,2010-06-01,17000,17000
2,SPDR Gold Trust ETF,Purchased,2010-08-17,5998,5998
3,ING Direct,Sold,2010-09-07,90000,90000
4,Vanguard Money Market,Sold,2010-09-07,2500,2500
5,SPDR Gold Trust ETF,Sold,2010-12-29,6861,6861
6,Vanguard Money Market,Sold,2011-04-25,2500,2500
7,Vanguard Money Market,Sold,2012-12-05,2000,2000
8,Vanguard Money Market Fund IRA,Sold,2013-12-06,1800,1800
9,Vanguard Money Market IRA,Sold,2014-11-17,1730,1730
10,Vanguard Money Market (Inherited IRA),Sold,2017-11-07,1750,1750
11,Vanguard Money Market (Inherited IRA),Sold,2017-11-07,1750,1750
12,Vanguard Money Market (Inherited IRA),Sold,2017-11-07,1800,1800
13,Vanguard Money Market (Inherited IRA),Sold,2017-11-07,1800,1800
