,orgname,action,date1,minvalue,maxvalue
0,America Fund Tax Exempt Bond,Purchased,2007-12-17,15001,50000
1,Loomis Sayles Investment Grade Bond Fund,Purchased,2008-02-04,15001,50000
2,Davis New York Venture Fund,Purchased,2008-07-01,1001,15000
3,Hartford Capital Appreciation Fund,Purchased,2008-07-01,1001,15000
4,Loomis Sayles Investment Grade Bond Fund,Purchased,2008-07-01,1001,15000
5,Calamos Convertible Fund,Purchased,2009-02-06,50001,100000
6,Franklin Balanced Fund,Sold,2009-02-06,50001,100000
7,Loomis Sayles Bond Fund,Purchased,2009-02-06,1001,15000
8,Virginia St Pub Sch Auth SPL Ob Prince Willia,Purchased,2009-03-17,50001,100000
9,PIMCO Total Return Fund,Purchased,2009-10-19,50001,100000
10,Virginia CMWLTH Univ HLTH SYS AUTH REV G,Purchased,2012-01-03,50001,100000
11,Virginia CMWLTH Univ HLTH SYS AUTH REV G,Purchased,2012-01-03,50001,100000
12,Delaware Value Fund,Purchased,2012-08-01,1001,15000
13,Delaware Value Fund,Purchased,2012-08-01,50001,100000
14,Hartford Capital Appreciation Fund,Sold,2012-08-01,50001,100000
15,Hartford Capital Appreciation Fund,Sold,2012-08-01,0,1000
16,Hartford Capital Appreciation Fund,Sold,2012-08-01,50001,100000
17,Hartford Capital Appreciation Fund,Sold,2012-08-01,0,1000
18,PIMCO Total Return Fund,Sold,2012-08-01,50001,100000
19,PIMCO Total Return Fund,Sold,2012-08-01,50001,100000
20,Templeton Global Bond Fund,Purchased,2012-08-01,50001,100000
21,Templeton Global Bond Fund,Purchased,2012-08-01,50001,100000
22,Wells Fargo Adv Emerging Markets Equity,Purchased,2012-08-01,50001,100000
23,Wells Fargo Adv Emerging Markets Equity,Purchased,2012-08-01,50001,100000
24,Black Rock Large Cap Value Investment,Purchased,2013-01-31,50001,100000
25,"Harrisonburg, VA Indl Dev Auth Hosp Revenue Amb",Purchased,2013-09-23,15001,50000
26,Bitcoin cash,Exchanged,2013-12-17,1001,15000
27,"Suffolk, VA RFDG BV Bond",Purchased,2014-09-22,15001,50000
28,Calamos Convertible Fund,Sold,2014-11-20,50001,100000
29,Loomis Sayles Investment Grade Bond Fund,Sold,2014-11-20,50001,100000
30,Loomis Sayles Strategic Income Fund,Sold,2014-11-20,100001,250000
31,Pioneer Global High Yield Y,Sold,2014-11-20,50001,100000
32,Columbia Convertible Securities Fund,Purchased,2014-11-21,50001,100000
33,Loomis Sayles Investment Grade Bond Fund,Purchased,2014-11-21,50001,100000
34,Loomis Sayles Strategic Income Fund,Purchased,2014-11-21,100001,250000
35,Prudential Global Real Estate Fund,Purchased,2014-11-25,50001,100000
36,Prudential Jennison Natural Resources Fund,Purchased,2014-11-25,50001,100000
37,Putnam Equity Spectrum Fund,Purchased,2014-11-25,50001,100000
38,America Fund Tax Exempt Bond,Purchased,2020-11-17,15001,50000
