,orgname,action,date1,minvalue,maxvalue
0,Kraft Foods,Sold,2008-09-15,50001,100000
1,Abigail P Blunt Revocable Trust Lot 16,Purchased,2008-11-25,1000001,5000000
2,PMI Group,Sold,2009-10-08,15001,50000
3,Altria Group,Sold,2009-12-23,50001,100000
4,PMI Group,Sold,2010-03-05,1001,15000
5,PMI Group,Sold,2010-10-25,1001,15000
6,Abigail P Blunt Revocable Trust Lot 16,Exchanged,2011-02-08,1000001,1000001
7,Altria Group,Exchanged,2011-04-27,1001,15000
8,Altria Group,Exchanged,2011-07-19,15001,50000
9,Kraft Foods,Exchanged,2011-08-04,15001,50000
10,Altria Group,Exchanged,2011-08-31,15001,50000
11,Philip Morris Int Inc,Exchanged,2011-10-28,50001,100000
12,Philip Morris International,Exchanged,2012-03-26,15001,50000
13,Altria Group,Exchanged,2012-05-18,1001,15000
14,Philip Morris International,Exchanged,2012-12-13,15001,50000
15,Kraft Foods,Purchased,2013-03-31,1001,15000
16,Mondelez Int Inc stock options included as part of,Sold,2013-04-12,15001,50000
17,Kraft Foods,Purchased,2013-06-30,1001,15000
18,Mondelez Int Inc stock options included as part of,Sold,2013-07-31,50001,100000
19,Kraft Foods,Purchased,2013-09-30,1001,15000
20,Kraft Foods,Purchased,2013-12-31,1001,15000
21,401-K International Equity Fund,Purchased,2015-03-31,1001,15000
22,Interest Income Fund,Purchased,2015-03-31,1001,15000
23,US Large Cap Equity Index Fund,Purchased,2015-03-31,1001,15000
