,orgname,action,date1,minvalue,maxvalue
0,First Eagle Overseas Fund,Purchased,2012-01-23,-10544,-10544
1,Ivy Asset Strategy Fund,Purchased,2012-01-23,-10438,-10438
2,PIMCO Total Return Fund,Purchased,2012-01-23,-3850,-3850
3,Permanent Portfolio Fund,Purchased,2012-01-23,-10475,-10475
4,Templeton Global Bond Fund,Purchased,2012-01-23,-3973,-3973
5,Yacktman Focused Fund,Purchased,2012-01-23,-9425,-9425
6,Schwab Advantage Cash Reserve,Sold,2012-01-24,48704,48704
7,First Eagle Overseas Fund,Sold,2012-03-19,10039,10039
8,Ivy Asset Strategy Fund,Sold,2012-03-19,10970,10970
9,PIMCO Total Return Fund,Sold,2012-03-19,3975,3975
10,Permanent Portfolio Fund,Sold,2012-03-19,10384,10384
11,Templeton Global Bond Fund,Sold,2012-03-19,3975,3975
12,Yacktman Focused Fund,Sold,2012-03-19,10904,10904
13,Schwab Advantage Cash Reserve,Purchased,2012-03-21,-50246,-50246
14,First Eagle Overseas Fund,Sold,2012-03-22,11437,11437
15,Ivy Asset Strategy Fund,Sold,2012-03-22,11039,11039
16,PIMCO Total Return Fund,Sold,2012-03-22,3841,3841
17,Permanent Portfolio Fund,Sold,2012-03-22,10580,10580
18,Templeton Global Bond Fund,Sold,2012-03-22,3982,3982
19,Yacktman Focused Fund,Sold,2012-03-22,10220,10220
20,Schwab Advantage Cash Reserve,Sold,2012-03-26,50901,50901
21,Schwab Advantage Cash Reserve,Purchased,2012-05-15,-75460,-75460
22,Schwab Advantage Cash Reserve,Purchased,2012-05-23,-102000,-102000
23,First Eagle Overseas Fund,Purchased,2012-06-04,-30000,-30000
24,Ivy Asset Strategy Fund,Purchased,2012-06-04,-30000,-30000
25,PIMCO Total Return Fund,Purchased,2012-06-04,-11250,-11250
26,Permanent Portfolio Fund,Purchased,2012-06-04,-30000,-30000
27,Templeton Global Bond Fund,Purchased,2012-06-04,-11250,-11250
28,Yacktman Focused Fund,Purchased,2012-06-04,-30000,-30000
29,Schwab Advantage Cash Reserve,Sold,2012-06-05,142500,142500
30,First Eagle Overseas Fund,Purchased,2012-12-13,-1197,-1197
31,First Eagle Overseas Fund,Sold,2012-12-13,1197,1197
32,First Eagle Overseas Fund,Purchased,2012-12-13,-1197,-1197
33,First Eagle Overseas Fund,Sold,2012-12-20,4920,4920
34,First Eagle Overseas Fund,Purchased,2012-12-20,-4920,-4920
35,Ivy Asset Strategy Fund,Sold,2012-12-20,14896,14896
36,PIMCO Total Return Fund,Purchased,2012-12-20,-3069,-3069
37,Permanent Portfolio Fund,Purchased,2012-12-20,-7411,-7411
38,Permanent Portfolio Fund,Sold,2012-12-20,7411,7411
39,Pimco All Asset All Authority Fund,Purchased,2012-12-20,-9832,-9832
40,Pimco All Asset All Authority Fund,Sold,2012-12-20,19735,19735
41,Pimco All Asset All Authority Fund,Purchased,2012-12-20,-19735,-19735
42,Templeton Global Bond Fund,Sold,2012-12-20,1995,1995
43,Templeton Global Bond Fund,Purchased,2012-12-20,-1995,-1995
44,Templeton Global Bond Fund,Purchased,2012-12-20,-1995,-1995
45,Yacktman Focused Service,Purchased,2012-12-20,-6012,-6012
46,Yacktman Focused Service,Sold,2012-12-20,6012,6012
47,First Eagle Overseas Fund,Sold,2012-12-21,4919,4919
48,First Eagle Overseas Fund,Purchased,2012-12-21,-4919,-4919
49,Permanent Portfolio Fund,Purchased,2012-12-21,-7411,-7411
50,Permanent Portfolio Fund,Sold,2012-12-21,7411,7411
51,Pimco All Asset All Authority Fund,Purchased,2012-12-21,-9902,-9902
52,Pimco All Asset All Authority Fund,Sold,2012-12-21,9902,9902
53,Schwab Advantage Cash Reserve,Sold,2012-12-21,28245,28245
54,Yacktman Focused Service,Sold,2012-12-21,6011,6011
55,Yacktman Focused Service,Purchased,2012-12-21,-6011,-6011
56,Schwab Advantage Cash Reserve,Sold,2012-12-24,4014,4014
57,Schwab Advantage Cash Reserve,Purchased,2012-12-31,-32260,-32260
58,Richard Hudson Transactions for account Primary IR,Sold,2013-08-29,14450,14450
59,Richard Hudson Transactions for account Primary IR,Sold,2013-08-29,31267,31267
60,Richard Hudson Transactions for account Primary IR,Sold,2013-08-29,11000,11000
61,Richard Hudson Transactions for account Primary IR,Sold,2013-08-29,9480,9480
62,Richard Hudson Transactions for account Primary IR,Sold,2013-08-29,14294,14294
63,Richard Hudson Transactions for account Primary IR,Purchased,2013-09-03,-80518,-80518
64,Richard Hudson Transactions for account Primary IR,Sold,2013-09-06,100025,100025
65,Richard Hudson Transactions for account Primary IR,Purchased,2013-11-01,-60000,-60000
66,Richard Hudson Transactions for account Primary IR,Purchased,2013-12-10,-7368,-7368
67,Richard Hudson Transactions for account Primary IR,Purchased,2013-12-10,-6403,-6403
68,Richard Hudson Transactions for account Primary IR,Purchased,2013-12-10,-8441,-8441
69,Richard Hudson Transactions for account Primary IR,Purchased,2013-12-10,-16882,-16882
70,Richard Hudson Transactions for account Primary IR,Purchased,2013-12-10,-3847,-3847
71,Richard Hudson Transactions for account Primary IR,Purchased,2013-12-10,-20258,-20258
72,Richard Hudson Transactions for account Primary IR,Purchased,2013-12-10,-8441,-8441
73,Richard Hudson Transactions for account Primary IR,Sold,2013-12-11,71639,71639
