,orgname,action,date1,minvalue,maxvalue
0,NETAPP Inc,Sold,2009-10-15,1001.0,15000.0
1,NETAPP Inc,Sold,2009-10-15,1001.0,15000.0
2,NETAPP Inc,Sold,2009-11-23,1001.0,15000.0
3,Research In Motion,Sold,2009-11-24,1001.0,15000.0
4,Research In Motion,Sold,2009-11-24,1001.0,15000.0
5,Research In Motion,Sold,2009-12-21,1001.0,15000.0
6,Netapp,Purchased,2010-01-08,1001.0,15000.0
7,Netapp,Sold,2010-02-22,,
8,Netapp,Purchased,2010-03-10,1001.0,15000.0
9,Netapp,Sold,2010-04-16,1001.0,15000.0
10,Netapp,Sold,2010-04-16,1001.0,15000.0
11,Netapp,Sold,2010-04-19,,
12,Netapp,Purchased,2010-05-12,1001.0,15000.0
13,Netapp,Sold,2010-05-24,,
14,Netapp,Sold,2010-06-18,1001.0,15000.0
15,Netapp,Sold,2010-06-21,,
16,Research In Motion,Purchased,2010-06-23,1001.0,15000.0
17,Research In Motion,Sold,2010-07-19,,
18,Netapp,Purchased,2010-10-18,1001.0,15000.0
19,Netapp,Purchased,2010-10-27,1001.0,15000.0
20,Netapp,Purchased,2010-11-08,1001.0,15000.0
21,Netapp,Purchased,2010-11-11,1001.0,15000.0
22,Netapp,Sold,2010-11-19,1001.0,15000.0
23,Research In Motion,Sold,2010-11-19,1001.0,15000.0
24,Netapp,Sold,2010-11-22,,
25,Research In Motion,Purchased,2010-11-22,1001.0,15000.0
26,Research In Motion,Sold,2010-11-22,,
27,Research In Motion,Purchased,2010-11-28,1001.0,15000.0
28,Research In Motion,Purchased,2010-12-03,1001.0,15000.0
29,Research In Motion,Sold,2010-12-17,1001.0,15000.0
30,Research In Motion,Sold,2010-12-17,1001.0,15000.0
31,Netapp,Sold,2010-12-20,,
32,Research In Motion,Sold,2010-12-20,,
33,Netapp,Purchased,2010-12-21,1001.0,15000.0
34,Research In Motion,Purchased,2010-12-21,1001.0,15000.0
35,NetApp,Sold,2011-01-21,1001.0,15000.0
36,NetApp,Sold,2011-01-21,1001.0,15000.0
37,NetApp,Sold,2011-01-21,15001.0,50000.0
38,Research In Motion,Sold,2011-01-21,1001.0,15000.0
39,"Net App, Inc option - Feb call at 55",Sold,2011-01-26,,
40,"Net App, Inc option - Feb call at 55",Sold,2011-01-26,,
41,NetApp,Purchased,2011-01-26,1001.0,15000.0
42,NetApp,Purchased,2011-01-26,1001.0,15000.0
43,NetApp,Purchased,2011-01-26,15001.0,50000.0
44,NetApp,Sold,2011-01-26,1001.0,15000.0
45,NVIDIA Corp,Sold,2011-02-03,,
46,Nuidia,Purchased,2011-02-03,1001.0,15000.0
47,Nuidia,Purchased,2011-02-07,1001.0,15000.0
48,Nuidia,Purchased,2011-02-07,1001.0,15000.0
49,NVIDIA Corp,Sold,2011-02-15,,
50,Nuidia,Purchased,2011-02-15,1001.0,15000.0
51,Nuidia,Sold,2011-02-18,1001.0,15000.0
52,Nuidia,Sold,2011-02-18,1001.0,15000.0
53,Nuidia option - March call at 25,Sold,2011-02-18,,
54,Nuidia option - March call at 25,Sold,2011-02-18,,
55,Nuidia,Purchased,2011-02-22,1001.0,15000.0
56,Nuidia options - March calls at 25,Sold,2011-02-22,,
57,Nuidia,Sold,2011-04-06,1001.0,15000.0
58,NetApp,Sold,2011-05-06,,
59,NetApp,Sold,2011-05-06,,
60,NetApp,Sold,2011-05-06,,
61,Nuidia,Sold,2011-08-10,1001.0,15000.0
62,NVIDIA Corp,Sold,2011-08-15,,
63,NVIDIA Corp,Sold,2011-08-15,,
64,Nuidia,Purchased,2011-08-15,1001.0,15000.0
65,Nuidia,Purchased,2011-08-15,1001.0,15000.0
66,Nuidia,Sold,2011-09-16,1001.0,15000.0
67,Nuidia,Sold,2011-09-16,1001.0,15000.0
68,NetApp,Purchased,2011-11-17,1001.0,15000.0
69,NetApp,Purchased,2011-11-17,1001.0,15000.0
70,NetApp Inc,Purchased,2012-04-19,1001.0,15000.0
71,NetApp Inc,Purchased,2012-04-19,1001.0,15000.0
72,Scottrade margin account,Purchased,2012-04-19,1001.0,15000.0
73,NetApp Inc,Sold,2012-05-18,1001.0,15000.0
74,NetApp Inc,Sold,2012-05-24,1001.0,15000.0
75,Net App Inc,Purchased,2013-01-28,1001.0,15000.0
76,Net App Inc,Purchased,2013-01-28,1001.0,15000.0
77,Net App Inc,Purchased,2013-02-15,1001.0,15000.0
78,Net App Inc,Sold,2013-05-17,1001.0,15000.0
79,Net App Inc,Sold,2013-05-17,1001.0,15000.0
80,Net App Inc,Sold,2013-05-17,15001.0,50000.0
81,Net App Inc,Purchased,2013-05-20,1001.0,15000.0
82,Net App Inc,Purchased,2013-05-20,1001.0,15000.0
83,Net App Inc,Purchased,2013-05-20,15001.0,50000.0
84,Net App Inc,Sold,2013-05-20,1001.0,15000.0
85,Net App Inc,Purchased,2013-06-04,1001.0,15000.0
86,Net App Inc,Purchased,2013-06-04,1001.0,15000.0
87,Net App Inc,Sold,2013-06-21,1001.0,15000.0
88,Net App Inc,Sold,2013-06-21,1001.0,15000.0
89,Net App Inc,Sold,2013-06-21,15001.0,50000.0
90,Net App Inc,Purchased,2013-06-24,1001.0,15000.0
91,Net App Inc,Purchased,2013-06-24,1001.0,15000.0
92,Net App Inc,Purchased,2013-06-24,15001.0,50000.0
93,Net App Inc,Sold,2013-07-19,15001.0,50000.0
94,Net App Inc,Sold,2013-07-19,15001.0,50000.0
95,Net App Inc,Sold,2013-07-19,15001.0,50000.0
96,Net App Inc,Purchased,2013-07-22,15001.0,50000.0
97,Net App Inc,Purchased,2013-07-23,1001.0,15000.0
98,Net App Inc,Sold,2013-07-23,1001.0,15000.0
99,Net App Inc,Purchased,2013-07-27,1001.0,15000.0
100,Net App Inc,Sold,2013-08-16,1001.0,15000.0
101,Net App Inc,Sold,2013-08-16,1001.0,15000.0
102,Net App Inc,Sold,2013-08-16,15001.0,50000.0
103,Net App Inc,Purchased,2013-08-20,15001.0,50000.0
104,Net App Inc,Purchased,2013-08-20,15001.0,50000.0
105,Net App Inc,Purchased,2013-08-20,15001.0,50000.0
106,Net App Inc,Purchased,2013-09-11,15001.0,50000.0
107,Net App Inc,Sold,2013-09-20,15001.0,50000.0
108,Net App Inc,Sold,2013-09-20,15001.0,50000.0
109,Net App Inc,Sold/Exchanged,2013-09-20,15001.0,50000.0
110,Net App Inc,Purchased,2013-09-26,15001.0,50000.0
111,Net App Inc,Purchased,2013-09-26,15001.0,50000.0
112,Net App Inc,Purchased,2013-09-26,15001.0,50000.0
113,Net App Inc,Sold,2013-09-26,1001.0,15000.0
114,Net App Inc,Sold,2013-10-18,1001.0,15000.0
115,Netapp Inc,Sold,2014-01-17,15001.0,50000.0
116,Netapp Inc,Sold,2014-01-17,15001.0,50000.0
117,Netapp Inc,Sold,2014-01-17,15001.0,50000.0
118,Netapp Inc,Purchased,2014-02-04,15001.0,50000.0
119,Netapp Inc,Purchased,2014-02-04,15001.0,50000.0
120,Netapp Inc,Purchased,2014-02-04,50001.0,100000.0
121,Netapp Inc,Sold,2014-02-04,1001.0,15000.0
122,Netapp Inc,Purchased,2014-03-25,1001.0,15000.0
123,Netapp Inc,Purchased,2014-03-25,1001.0,15000.0
124,Netapp Inc,Purchased,2014-07-28,1001.0,15000.0
125,Netapp Inc,Sold,2014-08-15,15001.0,50000.0
126,Netapp Inc,Sold,2014-08-15,15001.0,50000.0
127,Netapp Inc,Sold,2014-08-15,15001.0,50000.0
128,Netapp Inc,Sold,2014-08-15,1001.0,15000.0
129,Netapp Inc,Purchased,2014-08-21,15001.0,50000.0
130,Netapp Inc,Purchased,2014-08-21,15001.0,50000.0
131,Netapp Inc,Purchased,2014-08-21,50001.0,100000.0
132,Netapp Inc,Sold,2014-08-21,1001.0,15000.0
133,Netapp Inc,Sold,2014-09-18,1001.0,15000.0
134,Netapp Inc,Sold,2014-09-18,1001.0,15000.0
135,Netapp Inc,Sold,2014-09-18,1001.0,15000.0
136,Netapp Inc,Sold,2014-09-19,15001.0,50000.0
137,Netapp Inc,Sold,2014-09-19,15001.0,50000.0
138,Netapp Inc,Sold,2014-09-19,50001.0,100000.0
139,Netapp Inc,Purchased,2014-09-26,15001.0,50000.0
140,Netapp Inc,Purchased,2014-09-26,15001.0,50000.0
141,Netapp Inc,Purchased,2014-10-01,15001.0,50000.0
142,Netapp Inc,Sold,2014-10-27,1001.0,15000.0
143,Netapp Inc,Sold,2014-11-21,15001.0,50000.0
144,Netapp Inc,Sold,2014-11-21,15001.0,50000.0
145,Netapp Inc,Sold,2014-11-21,15001.0,50000.0
146,Netapp Inc,Purchased,2014-12-01,15001.0,50000.0
147,Netapp Inc,Purchased,2014-12-01,15001.0,50000.0
148,Netapp Inc,Purchased,2014-12-01,50001.0,100000.0
149,Netapp Inc,Sold,2014-12-02,1001.0,15000.0
150,Netapp Inc,Sold,2014-12-19,15001.0,50000.0
151,Netapp Inc,Sold,2014-12-19,15001.0,50000.0
152,Netapp Inc,Sold,2014-12-19,50001.0,100000.0
153,Netapp Inc,Purchased,2014-12-29,15001.0,50000.0
154,Netapp Inc,Purchased,2014-12-29,15001.0,50000.0
155,Netapp Inc,Purchased,2014-12-29,50001.0,100000.0
156,Netapp Inc,Sold,2014-12-29,1001.0,15000.0
