,orgname,action,date1,minvalue,maxvalue
0,Old Mutual Focused Fund,Sold,2012-04-13,1001,15000
1,Touchstone Focused Fund,Sold,2012-04-13,1001,15000
2,American Century Ultra Fund,Purchased,2012-04-17,1001,15000
3,T Rowe Price Health Sciences Fund,Purchased,2012-04-17,1001,15000
4,American Century Ultra Fund,Purchased,2013-04-16,1001,15000
5,T Rowe Price Health Sciences,Purchased,2013-04-16,1001,15000
6,T Rowe Price Health Sciences,Purchased,2013-12-16,1001,15000
7,American Century Ultra Fund,Purchased,2013-12-17,1001,15000
8,Federated Kaufmann R Fund,Purchased,2013-12-27,1001,15000
9,American Century Ultra Fund,Purchased,2014-04-16,1001,15000
10,T Rowe Price Health Sciences,Purchased,2014-04-16,1001,15000
11,T Rowe Price Health Sciences,Purchased,2014-12-15,15001,50000
12,American Century Ultra Fund,Purchased,2014-12-16,1001,15000
13,Federated Kaufmann R (NASDAQ),Purchased,2014-12-27,1001,15000
