,orgname,action,date1,minvalue,maxvalue
0,Outreach Media Solutions - loan,Purchased,2011-01-01,15001,50000
1,Solazyme,Purchased,2011-05-26,100001,250000
2,Solazyme,Sold,2011-08-05,100001,250000
3,Facebook Inc,Purchased,2012-05-18,1001,15000
4,House/7400 Gwin St Valley Springs CA,Purchased,2012-08-26,100001,250000
5,Granite Construction Inc,Purchased,2013-11-08,1001,15000
6,Twitter Inc,Purchased,2013-11-08,1001,15000
7,Davis House,Purchased,2014-08-15,250001,500000
8,Rental Property,Sold,2014-10-10,250001,500000
9,Rental Property 2,Sold,2014-11-07,250001,500000
10,Miwok Ridge Ranch,Purchased,2014-12-02,50001,100000
11,Solazyme Inc,Sold,2015-08-14,1001,15000
