,orgname,action,date1,minvalue,maxvalue
0,Goldman Sachs & Co Brokerage,Purchased,2017-01-09,50001.0,100000.0
1,Goldman Sachs & Co Brokerage,Sold,2017-01-09,,
2,Revocable Trust (100% interest)/Goldman Sachs & Co,Sold,2017-01-09,,
3,Revocable Trust (100% interest)/Goldman Sachs & Co,Purchased,2017-01-09,15001.0,50000.0
4,Revocable Trust UTA/Goldman Sachs & Co. Brokerag,Purchased,2017-01-09,15001.0,50000.0
5,Revocable Trust/Goldman Sachs & Co. Brokerage,Purchased,2017-01-09,50001.0,100000.0
6,Appendix A - NOTE:/INCLUDED IN THE SCHEDULE A VALU,Purchased,2017-01-11,1001.0,15000.0
7,Appendix A - NOTE:/INCLUDED IN THE SCHEDULE A VALU,Sold,2017-01-11,,
8,Appendix A - NOTE:/INCLUDED IN THE SCHEDULE A VALU,Purchased,2017-01-11,1001.0,15000.0
9,Appendix A - NOTE:/INCLUDED IN THE SCHEDULE A VALU,Exchanged,2017-01-12,,
10,Appendix A - NOTE:/INCLUDED IN THE SCHEDULE A VALU,Sold,2017-01-12,1001.0,15000.0
11,Appendix A - NOTE:/INCLUDED IN THE SCHEDULE A VALU,Sold,2017-01-12,1001.0,15000.0
12,Goldman Sachs & Co Brokerage,Purchased,2017-01-12,50001.0,100000.0
13,Goldman Sachs & Co Brokerage,Sold,2017-01-12,,
14,Revocable Trust/Goldman Sachs & Co. Brokerage,Purchased,2017-01-12,50001.0,100000.0
15,Goldman Sachs & Co Brokerage,Purchased,2017-01-13,50001.0,100000.0
16,Goldman Sachs & Co Brokerage,Sold,2017-01-13,,
17,Revocable Trust/Goldman Sachs & Co. Brokerage,Purchased,2017-01-13,50001.0,100000.0
18,Goldman Sachs & Co Brokerage,Purchased,2017-01-18,50001.0,100000.0
19,Goldman Sachs & Co Brokerage,Sold,2017-01-18,,
20,Revocable Trust /Goldman Sachs & Co Brokerag,Purchased,2017-01-18,50001.0,100000.0
21,Goldman Sachs & Co Brokerage,Purchased,2017-01-19,50001.0,100000.0
22,Goldman Sachs & Co Brokerage,Sold,2017-01-19,,
23,Revocable Trust (100% interest)/Goldman Sachs & Co,Sold,2017-01-19,,
24,Revocable Trust (100% interest)/Goldman Sachs & Co,Purchased,2017-01-19,15001.0,50000.0
25,Revocable Trust /Goldman Sachs & Co Brokerag,Purchased,2017-01-19,50001.0,100000.0
26,Revocable Trust UTA/Goldman Sachs & Co. Brokerag,Purchased,2017-01-19,15001.0,50000.0
27,Goldman Sachs & Co Brokerage,Purchased,2017-01-20,100001.0,250000.0
28,Goldman Sachs & Co Brokerage,Purchased,2017-01-20,50001.0,100000.0
29,Goldman Sachs & Co Brokerage,Sold,2017-01-20,,
30,Goldman Sachs & Co Brokerage,Sold,2017-01-20,,
31,Revocable Trust UTA (100% interest)/Goldman Sachs,Sold,2017-01-20,,
32,Revocable Trust UTA/Goldman Sachs & Co. Brokerag,Purchased,2017-01-20,100001.0,250000.0
33,Revocable Trust UTA/Goldman Sachs & Co. Brokerag,Purchased,2017-01-20,50001.0,100000.0
34,Revocable Trust/Goldman Sachs & Co. Brokerage,Purchased,2017-01-20,50001.0,100000.0
35,Revocable Trust/Goldman Sachs & Co. Brokerage,Purchased,2017-01-20,50001.0,100000.0
36,Goldman Sachs & Co Brokerage,Purchased,2017-01-23,50001.0,100000.0
37,Goldman Sachs & Co Brokerage,Sold,2017-01-23,,
38,Revocable Trust/Goldman Sachs & Co. Brokerage,Purchased,2017-01-23,50001.0,100000.0
39,Goldman Sachs & Co Brokerage,Purchased,2017-01-25,50001.0,100000.0
40,Goldman Sachs & Co Brokerage,Purchased,2017-01-25,50001.0,100000.0
41,Goldman Sachs & Co Brokerage,Sold,2017-01-25,,
42,Goldman Sachs & Co Brokerage,Sold,2017-01-25,,
43,Revocable Trust/Goldman Sachs & Co. Brokerage,Purchased,2017-01-25,50001.0,100000.0
44,Revocable Trust/Goldman Sachs & Co. Brokerage,Purchased,2017-01-25,50001.0,100000.0
45,Goldman Sachs & Co Brokerage,Purchased,2017-01-26,50001.0,100000.0
46,Goldman Sachs & Co Brokerage,Sold,2017-01-26,,
47,Revocable Trust/Goldman Sachs & Co. Brokerage,Purchased,2017-01-26,50001.0,100000.0
48,Appendix A - NOTE:/INCLUDED IN THE SCHEDULE A VALU,Exchanged,2017-01-27,,
49,Appendix A - NOTE:/INCLUDED IN THE SCHEDULE A VALU,Sold,2017-01-27,1001.0,15000.0
50,Appendix A - NOTE:/INCLUDED IN THE SCHEDULE A VALU,Sold,2017-01-27,1001.0,15000.0
51,Brokerage (CASH) Account/FEDERATED GOV,Purchased,2017-01-31,1001.0,15000.0
52,Brokerage (CASH) Account/FEDERATED GOV,Purchased,2017-01-31,1001.0,15000.0
53,PIMCO INCOME F,Sold,2017-01-31,,
54,Trust Brokerage Account/PIMCO INCOME F,Purchased,2017-01-31,1001.0,15000.0
55,Trust UTA DTD (100% interest)/Brokerage (CASH) Acc,Sold,2017-01-31,,
56,Trust UTA DTD 6/11/93 (100% interest)/& Co. Broker,Purchased,2017-01-31,1001.0,15000.0
57,Goldman Sachs & Co Brokerage,Purchased,2017-02-01,50001.0,100000.0
58,Goldman Sachs & Co Brokerage,Purchased,2017-02-01,50001.0,100000.0
59,Goldman Sachs & Co Brokerage,Sold,2017-02-01,,
60,Goldman Sachs & Co Brokerage,Sold,2017-02-01,,
61,Goldman Sachs & Co Brokerage,Sold,2017-02-01,,
62,Revocable Trust UTA/Goldman Sachs & Co. Brokerag,Purchased,2017-02-01,50001.0,100000.0
63,Revocable Trust/Goldman Sachs & Co. Brokerage,Purchased,2017-02-01,50001.0,100000.0
64,Revocable Trust/Goldman Sachs & Co. Brokerage,Purchased,2017-02-01,50001.0,100000.0
65,Revocable Trust/Goldman Sachs & Co. Brokerage,Purchased,2017-02-01,50001.0,100000.0
66,Revocable Trust (100% interest)/Goldman Sachs & Co,Sold,2017-02-02,,
67,Revocable Trust (100% interest)/Goldman Sachs & Co,Purchased,2017-02-02,15001.0,50000.0
68,Revocable Trust UTA/Goldman Sachs & Co. Brokerag,Purchased,2017-02-02,15001.0,50000.0
69,Credit Suisse AG Linked to S&P 500 Index Buffered,Sold,2017-02-03,250001.0,500000.0
70,Goldman Sachs & Co Brokerage,Purchased,2017-02-03,50001.0,100000.0
71,Goldman Sachs & Co Brokerage,Sold,2017-02-03,,
72,Revocable Trust/Goldman Sachs & Co. Brokerage,Purchased,2017-02-03,50001.0,100000.0
73,JPMorgan Chase & Co,Purchased,2017-02-06,250001.0,500000.0
74,Revocable Trust (100% interest)/Goldman Sachs & Co,Sold,2017-02-09,,
75,Revocable Trust (100% interest)/Goldman Sachs & Co,Purchased,2017-02-09,15001.0,50000.0
76,Revocable Trust UTA/Goldman Sachs & Co. Brokerag,Purchased,2017-02-09,15001.0,50000.0
77,Appendix A - NOTE:/INCLUDED IN THE SCHEDULE A VALU,Purchased,2017-02-13,15001.0,50000.0
78,Appendix A - NOTE:/INCLUDED IN THE SCHEDULE A VALU,Sold,2017-02-13,,
79,Appendix A - NOTE:/INCLUDED IN THE SCHEDULE A VALU,Purchased,2017-02-13,15001.0,50000.0
80,Appendix A - NOTE:/INCLUDED IN THE SCHEDULE A VALU,Exchanged,2017-02-14,,
81,Appendix A - NOTE:/INCLUDED IN THE SCHEDULE A VALU,Sold,2017-02-14,1001.0,15000.0
82,Appendix A - NOTE:/INCLUDED IN THE SCHEDULE A VALU,Sold,2017-02-14,1001.0,15000.0
83,Brokerage (CASH) Account/FEDERATED GOV,Sold,2017-02-28,,
84,PIMCO INCOME F,Sold,2017-02-28,,
85,Trust Brokerage (CASH) Account/FEDERATED GOV,Purchased,2017-02-28,1001.0,15000.0
86,Trust Brokerage Account/PIMCO INCOME F,Purchased,2017-02-28,1001.0,15000.0
87,Trust UTA DTD 6/11/93 (100% interest)/& Co. Broker,Purchased,2017-02-28,1001.0,15000.0
88,Trust UTA DTD 6/11/93 (100% interest)/Brokerage (C,Purchased,2017-02-28,1001.0,15000.0
89,Appendix A - NOTE:/INCLUDED IN THE SCHEDULE A VALU,Exchanged,2017-03-02,,
90,Appendix A - NOTE:/INCLUDED IN THE SCHEDULE A VALU,Sold,2017-03-02,1001.0,15000.0
91,Appendix A - NOTE:/INCLUDED IN THE SCHEDULE A VALU,Sold,2017-03-02,1001.0,15000.0
92,Appendix A - NOTE:/INCLUDED IN THE SCHEDULE A VALU,Sold,2017-03-22,,
93,Appendix A - NOTE:/INCLUDED IN THE SCHEDULE A VALU,Exchanged,2017-03-22,,
94,Appendix A - NOTE:/INCLUDED IN THE SCHEDULE A VALU,Purchased,2017-03-22,500001.0,1000000.0
95,Appendix A - NOTE:/INCLUDED IN THE SCHEDULE A VALU,Sold,2017-03-22,250001.0,500000.0
96,Appendix A - NOTE:/INCLUDED IN THE SCHEDULE A VALU,Purchased,2017-03-22,500001.0,1000000.0
97,Appendix A - NOTE:/INCLUDED IN THE SCHEDULE A VALU,Sold,2017-03-22,250001.0,500000.0
98,Appendix A - NOTE:/INCLUDED IN THE SCHEDULE A VALU,Exchanged,2017-03-23,,
99,Appendix A - NOTE:/INCLUDED IN THE SCHEDULE A VALU,Sold,2017-03-23,1001.0,15000.0
100,Appendix A - NOTE:/INCLUDED IN THE SCHEDULE A VALU,Sold,2017-03-23,1001.0,15000.0
101,Royal Bank of Canada,Sold,2017-03-28,100001.0,250000.0
102,CITIGROUP INC,Purchased,2017-03-30,100001.0,250000.0
103,GS ENHANCED DI,Sold,2017-03-30,,
104,GS ENHANCED DIVIDEND GLOBAL,Purchased,2017-03-30,1001.0,15000.0
105,Grantor Trust fbo Courtney E Trott,Sold,2017-03-30,,
106,Grantor Trust fbo Courtney E Trott,Purchased,2017-03-30,1001.0,15000.0
107,Trust Brokerage Account/GS ENHANCED DI,Purchased,2017-03-30,1001.0,15000.0
108,Trust UTA DTD 6/11/93 (100% interest)/& Co. Broker,Purchased,2017-03-30,1001.0,15000.0
109,Brokerage (CASH) Account/FEDERATED GOV,Sold,2017-03-31,,
110,PIMCO INCOME F,Sold,2017-03-31,,
111,Trust Brokerage (CASH) Account/FEDERATED GOV,Purchased,2017-03-31,1001.0,15000.0
112,Trust Brokerage Account/PIMCO INCOME F,Purchased,2017-03-31,1001.0,15000.0
113,Trust UTA DTD 6/11/93 (100% interest)/& Co. Broker,Purchased,2017-03-31,1001.0,15000.0
114,Trust UTA DTD 6/11/93 (100% interest)/Brokerage (C,Purchased,2017-03-31,1001.0,15000.0
115,Appendix A - NOTE:/INCLUDED IN THE SCHEDULE A VALU,Exchanged,2017-04-07,,
116,Appendix A - NOTE:/INCLUDED IN THE SCHEDULE A VALU,Sold,2017-04-07,,
117,Appendix A - NOTE:/INCLUDED IN THE SCHEDULE A VALU,Purchased,2017-04-07,250001.0,500000.0
118,Appendix A - NOTE:/INCLUDED IN THE SCHEDULE A VALU,Sold,2017-04-07,1001.0,15000.0
119,Appendix A - NOTE:/INCLUDED IN THE SCHEDULE A VALU,Sold,2017-04-07,1001.0,15000.0
120,Appendix A - NOTE:/INCLUDED IN THE SCHEDULE A VALU,Purchased,2017-04-07,250001.0,500000.0
121,Goldman Sachs & Co Brokerage,Purchased,2017-04-07,50001.0,100000.0
122,Goldman Sachs & Co Brokerage,Sold,2017-04-07,,
123,Revocable Trust/Goldman Sachs & Co. Brokerage,Purchased,2017-04-07,50001.0,100000.0
124,Appendix A - NOTE:/INCLUDED IN THE SCHEDULE A VALU,Sold,2017-04-11,,
125,Appendix A - NOTE:/INCLUDED IN THE SCHEDULE A VALU,Purchased,2017-04-11,100001.0,250000.0
126,Appendix A - NOTE:/INCLUDED IN THE SCHEDULE A VALU,Purchased,2017-04-11,100001.0,250000.0
127,Appendix A - NOTE:/INCLUDED IN THE SCHEDULE A VALU,Exchanged,2017-04-12,,
128,Appendix A - NOTE:/INCLUDED IN THE SCHEDULE A VALU,Sold,2017-04-12,1001.0,15000.0
129,Appendix A - NOTE:/INCLUDED IN THE SCHEDULE A VALU,Sold,2017-04-12,1001.0,15000.0
130,Appendix A - NOTE:/INCLUDED IN THE SCHEDULE A VALU,Exchanged,2017-04-20,,
131,Appendix A - NOTE:/INCLUDED IN THE SCHEDULE A VALU,Sold,2017-04-20,100001.0,250000.0
132,Appendix A - NOTE:/INCLUDED IN THE SCHEDULE A VALU,Sold,2017-04-20,100001.0,250000.0
133,Appendix A - NOTE:/INCLUDED IN THE SCHEDULE A VALU,Sold,2017-04-24,,
134,Appendix A - NOTE:/INCLUDED IN THE SCHEDULE A VALU,Purchased,2017-04-24,250001.0,500000.0
135,Appendix A - NOTE:/INCLUDED IN THE SCHEDULE A VALU,Purchased,2017-04-24,250001.0,500000.0
136,"Energy Transfer Partners,",Exchanged,2017-04-28,100001.0,250000.0
137,PIMCO INCOME F,Sold,2017-04-28,,
138,Trust (100% interest) & Co Brokerage Account/Ener,Exchanged,2017-04-28,100001.0,250000.0
139,Trust Brokerage Account/PIMCO INCOME F,Purchased,2017-04-28,1001.0,15000.0
140,Trust UTA DTD /& Co. Brokerage Account/Energy Tran,Exchanged,2017-04-28,100001.0,250000.0
141,Trust UTA DTD 6/11/93 (100% interest)/& Co. Broker,Purchased,2017-04-28,1001.0,15000.0
142,Appendix A - NOTE:/INCLUDED IN THE SCHEDULE A VALU,Sold,2017-05-02,,
143,Appendix A - NOTE:/INCLUDED IN THE SCHEDULE A VALU,Purchased,2017-05-02,1000001.0,5000000.0
144,Appendix A - NOTE:/INCLUDED IN THE SCHEDULE A VALU,Purchased,2017-05-02,1000001.0,5000000.0
145,Appendix A - NOTE:/INCLUDED IN THE SCHEDULE A VALU,Sold,2017-05-04,,
146,Appendix A - NOTE:/INCLUDED IN THE SCHEDULE A VALU,Sold,2017-05-04,,
147,Appendix A - NOTE:/INCLUDED IN THE SCHEDULE A VALU,Purchased,2017-05-04,250001.0,500000.0
148,Appendix A - NOTE:/INCLUDED IN THE SCHEDULE A VALU,Purchased,2017-05-04,1000001.0,5000000.0
149,Appendix A - NOTE:/INCLUDED IN THE SCHEDULE A VALU,Purchased,2017-05-04,1000001.0,5000000.0
150,Appendix A - NOTE:/INCLUDED IN THE SCHEDULE A VALU,Purchased,2017-05-04,250001.0,500000.0
151,Appendix B - NOTE:/INCLUDED IN THE SCHEDULE A VALU,Purchased,2017-05-04,100001.0,250000.0
152,Appendix B - NOTE:/INCLUDED IN THE SCHEDULE A VALU,Purchased,2017-05-04,100001.0,250000.0
153,Appendix B - NOTE:/INCLUDED IN THE SCHEDULE A VALU,Sold,2017-05-04,,
154,Revocable Trust (100% interest)/Goldman Sachs & Co,Sold,2017-05-08,,
155,Revocable Trust (100% interest)/Goldman Sachs & Co,Purchased,2017-05-08,15001.0,50000.0
156,Revocable Trust UTA/Goldman Sachs & Co. Brokerag,Purchased,2017-05-08,15001.0,50000.0
157,Appendix A - NOTE:/INCLUDED IN THE SCHEDULE A VALU,Sold,2017-05-09,,
158,Appendix A - NOTE:/INCLUDED IN THE SCHEDULE A VALU,Purchased,2017-05-09,250001.0,500000.0
159,Appendix A - NOTE:/INCLUDED IN THE SCHEDULE A VALU,Purchased,2017-05-09,250001.0,500000.0
160,Brokerage Account/SPARTA MICH AR,Purchased,2017-05-09,100001.0,250000.0
161,Trust UTA /& Co. Brokerage Account/SPARTA MICH AR,Sold,2017-05-09,,
162,Trust UTA/& Co. Brokerage Account/SPARTA MICH AR,Purchased,2017-05-09,100001.0,250000.0
163,GOLDMAN SACHS GROUP Inc LINKED TO S&P 500 IN,Sold,2017-05-10,500001.0,1000000.0
164,Appendix A - NOTE:/INCLUDED IN THE SCHEDULE A VALU,Exchanged,2017-05-11,,
165,Appendix A - NOTE:/INCLUDED IN THE SCHEDULE A VALU,Sold,2017-05-11,1001.0,15000.0
166,Appendix A - NOTE:/INCLUDED IN THE SCHEDULE A VALU,Sold,2017-05-11,1001.0,15000.0
167,Brokerage Account/WATERFORD MICH,Purchased,2017-05-16,50001.0,100000.0
168,Trust Brokerage Account/WATERFORD MICH,Purchased,2017-05-16,1001.0,15000.0
169,Trust UTA DTD 6/11/93 (100% interest)/& Co. Broker,Purchased,2017-05-16,1001.0,15000.0
170,Trust UTA DTD/& Co. Brokerage Account/WATERFORD MI,Purchased,2017-05-16,50001.0,100000.0
171,WATERFORD MICH,Sold,2017-05-16,,
172,WATERFORD MICH,Sold,2017-05-16,,
173,Appendix A - NOTE:/INCLUDED IN THE SCHEDULE A VALU,Exchanged,2017-05-18,,
174,Appendix A - NOTE:/INCLUDED IN THE SCHEDULE A VALU,Sold,2017-05-18,,
175,Appendix A - NOTE:/INCLUDED IN THE SCHEDULE A VALU,Purchased,2017-05-18,250001.0,500000.0
176,Appendix A - NOTE:/INCLUDED IN THE SCHEDULE A VALU,Sold,2017-05-18,1001.0,15000.0
177,Appendix A - NOTE:/INCLUDED IN THE SCHEDULE A VALU,Sold,2017-05-18,1001.0,15000.0
178,Appendix A - NOTE:/INCLUDED IN THE SCHEDULE A VALU,Purchased,2017-05-18,250001.0,500000.0
179,Appendix A - NOTE:/INCLUDED IN THE SCHEDULE A VALU,Sold,2017-05-23,,
180,Appendix A - NOTE:/INCLUDED IN THE SCHEDULE A VALU,Purchased,2017-05-23,100001.0,250000.0
181,Appendix A - NOTE:/INCLUDED IN THE SCHEDULE A VALU,Purchased,2017-05-23,100001.0,250000.0
182,Appendix A - NOTE:/INCLUDED IN THE SCHEDULE A VALU,Sold,2017-05-26,,
183,Appendix A - NOTE:/INCLUDED IN THE SCHEDULE A VALU,Purchased,2017-05-26,15001.0,50000.0
184,Appendix A - NOTE:/INCLUDED IN THE SCHEDULE A VALU,Purchased,2017-05-26,15001.0,50000.0
185,PIMCO INCOME F,Sold,2017-05-31,,
186,Trust Brokerage Account/PIMCO INCOME F,Purchased,2017-05-31,1001.0,15000.0
187,Trust UTA DTD 6/11/93 (100% interest)/& Co. Broker,Purchased,2017-05-31,1001.0,15000.0
188,SOCIETE GENERALE LINKED TO S&P 500 INDEX BUFFERED,Sold,2017-06-02,100001.0,250000.0
189,HAWAII ST FOR ISSUES DTD PRIOR GO,Exchanged,2017-06-06,100001.0,250000.0
190,HAWAII ST FOR ISSUES DTD PRIOR GO,Exchanged,2017-06-06,100001.0,250000.0
191,HAWAII ST FOR ISSUES DTD PRIOR GO,Exchanged,2017-06-06,250001.0,500000.0
192,HAWAII ST FOR ISSUES DTD PRIOR GO,Exchanged,2017-06-06,250001.0,500000.0
193,HAWAII ST FOR ISSUES DTD PRIOR GO,Exchanged,2017-06-06,100001.0,250000.0
194,Hawaii ST for Issues Dated Prior GO Bond,Exchanged,2017-06-06,100001.0,250000.0
195,SOCIETE GENERALE LINKED TO S&P 500 INDEX,Purchased,2017-06-06,100001.0,250000.0
196,Appendix A - NOTE:/INCLUDED IN THE SCHEDULE A VALU,Exchanged,2017-06-13,,
197,Appendix A - NOTE:/INCLUDED IN THE SCHEDULE A VALU,Sold,2017-06-13,1001.0,15000.0
198,Appendix A - NOTE:/INCLUDED IN THE SCHEDULE A VALU,Sold,2017-06-13,1001.0,15000.0
199,Appendix A - NOTE:/INCLUDED IN THE SCHEDULE A VALU,Exchanged,2017-06-28,,
200,Appendix A - NOTE:/INCLUDED IN THE SCHEDULE A VALU,Sold,2017-06-28,1001.0,15000.0
201,Appendix A - NOTE:/INCLUDED IN THE SCHEDULE A VALU,Sold,2017-06-28,1001.0,15000.0
202,Appendix A - NOTE:/INCLUDED IN THE SCHEDULE A VALU,Purchased,2017-06-29,15001.0,50000.0
203,Appendix A - NOTE:/INCLUDED IN THE SCHEDULE A VALU,Sold,2017-06-29,,
204,Appendix A - NOTE:/INCLUDED IN THE SCHEDULE A VALU,Purchased,2017-06-29,15001.0,50000.0
205,GS ENHANCED DIVIDEND GLOBAL,Purchased,2017-06-29,1001.0,15000.0
206,GS ENHANCED DIVIDEND GLOBAL EQUITY PORTFOLIO/[MF],Sold,2017-06-29,,
207,GS ENHANCED DIVIDEND GLOBAL EQUITY PORTFOLIO/[MF],Purchased,2017-06-29,1001.0,15000.0
208,GS Enhanced Dividend Global Equity Portfolio,Sold,2017-06-29,,
209,Grantor Trust fbo Courtney E Trott,Sold,2017-06-29,,
210,Grantor Trust fbo Courtney E Trott,Purchased,2017-06-29,1001.0,15000.0
211,Irrevocable Trust/GS ENHANCED DIVIDEND GLOBAL EQUI,Purchased,2017-06-29,1001.0,15000.0
212,Rollover IRA/GS ENHANCED DIVIDEND GLOBAL EQUITY PO,Purchased,2017-06-29,1001.0,15000.0
213,Rollover IRA/GS ENHANCED DIVIDEND GLOBAL EQUITY PO,Purchased,2017-06-29,1001.0,15000.0
214,ONEOK Partners LP,Exchanged,2017-06-30,100001.0,250000.0
215,ONEOK Partners LP,Exchanged,2017-06-30,100001.0,250000.0
216,Oneok Inc,Exchanged,2017-06-30,100001.0,250000.0
217,Oneok Inc,Exchanged,2017-06-30,100001.0,250000.0
218,Appendix A - NOTE:/INCLUDED IN THE SCHEDULE A VALU,Exchanged,2017-07-06,,
219,Appendix A - NOTE:/INCLUDED IN THE SCHEDULE A VALU,Sold,2017-07-06,1001.0,15000.0
220,Appendix A - NOTE:/INCLUDED IN THE SCHEDULE A VALU,Sold,2017-07-06,1001.0,15000.0
221,Appendix A - NOTE:/INCLUDED IN THE SCHEDULE A VALU,Sold,2017-07-07,,
222,Appendix A - NOTE:/INCLUDED IN THE SCHEDULE A VALU,Purchased,2017-07-07,500001.0,1000000.0
223,Appendix A - NOTE:/INCLUDED IN THE SCHEDULE A VALU,Purchased,2017-07-07,500001.0,1000000.0
224,Appendix A - NOTE:/INCLUDED IN THE SCHEDULE A VALU,Purchased,2017-07-10,15001.0,50000.0
225,Appendix A - NOTE:/INCLUDED IN THE SCHEDULE A VALU,Sold,2017-07-10,,
226,Appendix A - NOTE:/INCLUDED IN THE SCHEDULE A VALU,Purchased,2017-07-10,15001.0,50000.0
227,Appendix A - NOTE:/INCLUDED IN THE SCHEDULE A VALU,Exchanged,2017-07-17,,
228,Appendix A - NOTE:/INCLUDED IN THE SCHEDULE A VALU,Sold,2017-07-17,1001.0,15000.0
229,Appendix A - NOTE:/INCLUDED IN THE SCHEDULE A VALU,Sold,2017-07-17,1001.0,15000.0
230,Appendix A - NOTE:/INCLUDED IN THE SCHEDULE A VALU,Sold,2017-07-27,,
231,Appendix A - NOTE:/INCLUDED IN THE SCHEDULE A VALU,Purchased,2017-07-27,100001.0,250000.0
232,Appendix A - NOTE:/INCLUDED IN THE SCHEDULE A VALU,Purchased,2017-07-27,100001.0,250000.0
233,Brokerage (CASH) Account/FEDERATED GOV,Purchased,2017-07-31,50001.0,100000.0
234,Brokerage (CASH) Account/FEDERATED GOV,Sold,2017-07-31,,
235,Irrevocable Trust/PIMCO INCOME FUND,Purchased,2017-07-31,1001.0,15000.0
236,Pimco Income Fund,Sold,2017-07-31,,
237,Pimco Income Fund,Purchased,2017-07-31,1001.0,15000.0
238,Trust UTA DTD/Brokerage (CASH) Account/FEDERATED G,Purchased,2017-07-31,50001.0,100000.0
239,Appendix A - NOTE:/INCLUDED IN THE SCHEDULE A VALU,Exchanged,2017-08-03,,
240,Appendix A - NOTE:/INCLUDED IN THE SCHEDULE A VALU,Sold,2017-08-03,1001.0,15000.0
241,Appendix A - NOTE:/INCLUDED IN THE SCHEDULE A VALU,Sold,2017-08-03,1001.0,15000.0
242,Appendix B - NOTE:/INCLUDED IN THE SCHEDULE A VALU,Purchased,2017-08-03,100001.0,250000.0
243,Appendix B - NOTE:/INCLUDED IN THE SCHEDULE A VALU,Purchased,2017-08-03,100001.0,250000.0
244,Appendix B - NOTE:/INCLUDED IN THE SCHEDULE A VALU,Sold,2017-08-03,,
245,Andeavor Logistics LP,Sold,2017-08-09,15001.0,50000.0
246,Andeavor Logistics LP,Sold,2017-08-09,15001.0,50000.0
247,Appendix A - NOTE:/INCLUDED IN THE SCHEDULE A VALU,Exchanged,2017-08-09,,
248,Appendix A - NOTE:/INCLUDED IN THE SCHEDULE A VALU,Sold,2017-08-09,1001.0,15000.0
249,Appendix A - NOTE:/INCLUDED IN THE SCHEDULE A VALU,Sold,2017-08-09,1001.0,15000.0
250,Appendix A - NOTE:/INCLUDED IN THE SCHEDULE A VALU,Purchased,2017-08-21,15001.0,50000.0
251,Appendix A - NOTE:/INCLUDED IN THE SCHEDULE A VALU,Sold,2017-08-21,,
252,Appendix A - NOTE:/INCLUDED IN THE SCHEDULE A VALU,Purchased,2017-08-21,15001.0,50000.0
253,Appendix A - NOTE:/INCLUDED IN THE SCHEDULE A VALU,Exchanged,2017-08-22,,
254,Appendix A - NOTE:/INCLUDED IN THE SCHEDULE A VALU,Sold,2017-08-22,1001.0,15000.0
255,Appendix A - NOTE:/INCLUDED IN THE SCHEDULE A VALU,Sold,2017-08-22,1001.0,15000.0
256,Appendix A - NOTE:/INCLUDED IN THE SCHEDULE A VALU,Exchanged,2017-08-29,,
257,Appendix A - NOTE:/INCLUDED IN THE SCHEDULE A VALU,Sold,2017-08-29,1001.0,15000.0
258,Appendix A - NOTE:/INCLUDED IN THE SCHEDULE A VALU,Sold,2017-08-29,1001.0,15000.0
259,Brokerage (CASH) Account/FEDERATED GOV,Purchased,2017-08-31,50001.0,100000.0
260,Brokerage (CASH) Account/FEDERATED GOV,Sold,2017-08-31,,
261,Irrevocable Trust/PIMCO INCOME FUND,Purchased,2017-08-31,1001.0,15000.0
262,Pimco Income Fund,Sold,2017-08-31,,
263,Pimco Income Fund,Purchased,2017-08-31,1001.0,15000.0
264,Trust UTA DTD/Brokerage (CASH) Account/FEDERATED G,Purchased,2017-08-31,50001.0,100000.0
265,TEXAS ST FOR PREVIOUS ISSUES REV,Purchased,2017-09-01,15001.0,50000.0
266,TEXAS ST FOR PREVIOUS ISSUES REV,Sold,2017-09-01,,
267,TEXAS ST FOR PREVIOUS ISSUES REV,Purchased,2017-09-01,15001.0,50000.0
268,Appendix A - NOTE:/INCLUDED IN THE SCHEDULE A VALU,Exchanged,2017-09-21,,
269,Appendix A - NOTE:/INCLUDED IN THE SCHEDULE A VALU,Sold,2017-09-21,1001.0,15000.0
270,Appendix A - NOTE:/INCLUDED IN THE SCHEDULE A VALU,Sold,2017-09-21,1001.0,15000.0
271,Appendix A - NOTE:/INCLUDED IN THE SCHEDULE A VALU,Purchased,2017-09-28,15001.0,50000.0
272,Appendix A - NOTE:/INCLUDED IN THE SCHEDULE A VALU,Sold,2017-09-28,,
273,Appendix A - NOTE:/INCLUDED IN THE SCHEDULE A VALU,Sold,2017-09-28,,
274,Appendix A - NOTE:/INCLUDED IN THE SCHEDULE A VALU,Purchased,2017-09-28,15001.0,50000.0
275,Appendix A - NOTE:/INCLUDED IN THE SCHEDULE A VALU,Purchased,2017-09-28,50001.0,100000.0
276,Appendix A - NOTE:/INCLUDED IN THE SCHEDULE A VALU,Purchased,2017-09-28,50001.0,100000.0
277,GS ENHANCED DIVIDEND GLOBAL,Purchased,2017-09-28,1001.0,15000.0
278,GS ENHANCED DIVIDEND GLOBAL EQUITY PORTFOLIO/[MF],Sold,2017-09-28,,
279,GS ENHANCED DIVIDEND GLOBAL EQUITY PORTFOLIO/[MF],Purchased,2017-09-28,1001.0,15000.0
280,GS Enhanced Dividend Global Equity Portfolio,Sold,2017-09-28,,
281,Grantor Trust fbo Courtney E Trott,Sold,2017-09-28,,
282,Grantor Trust fbo Courtney E Trott,Purchased,2017-09-28,1001.0,15000.0
283,Irrevocable Trust/GS ENHANCED DIVIDEND GLOBAL EQUI,Purchased,2017-09-28,1001.0,15000.0
284,Rollover IRA/GS ENHANCED DIVIDEND GLOBAL EQUITY PO,Purchased,2017-09-28,1001.0,15000.0
285,Rollover IRA/GS ENHANCED DIVIDEND GLOBAL EQUITY PO,Purchased,2017-09-28,1001.0,15000.0
286,Brokerage (CASH) Account/FEDERATED GOV,Sold,2017-09-29,,
287,Irrevocable Trust/PIMCO INCOME FUND,Purchased,2017-09-29,1001.0,15000.0
288,Pimco Income Fund,Sold,2017-09-29,,
289,Pimco Income Fund,Purchased,2017-09-29,1001.0,15000.0
290,Trust Brokerage (CASH) Account/FEDERATED GOV,Purchased,2017-09-29,1001.0,15000.0
291,Trust UTA DTD 6/11/93 (100% interest)/Brokerage (C,Purchased,2017-09-29,1001.0,15000.0
292,SOCIETE GENERALE LINKED TO S&P 500 INDEX BUFFERED,Sold,2017-10-02,250001.0,500000.0
293,Barclays Bank Plc Linked to S&P 500 Index Buffered,Sold,2017-10-03,100001.0,250000.0
294,PLYMOUTH-CANTON MICH CMNTY SCH GO,Exchanged,2017-10-03,100001.0,250000.0
295,PLYMOUTH-CANTON MICH CMNTY SCH GO,Exchanged,2017-10-03,100001.0,250000.0
296,Plymouth-Canton MI School Bond,Exchanged,2017-10-03,100001.0,250000.0
297,Plymouth-Canton MI School Bond,Exchanged,2017-10-03,100001.0,250000.0
298,Plymouth-Canton MI School Bond,Exchanged,2017-10-03,50001.0,100000.0
299,Plymouth-Canton MI School Bond,Exchanged,2017-10-03,50001.0,100000.0
300,SOCIETE GENERALE LINKED TO S&P 500 INDEX BUFFERED,Purchased,2017-10-03,250001.0,500000.0
301,Appendix B - NOTE:/INCLUDED IN THE SCHEDULE A VALU,Purchased,2017-10-05,100001.0,250000.0
302,Appendix B - NOTE:/INCLUDED IN THE SCHEDULE A VALU,Purchased,2017-10-05,100001.0,250000.0
303,Appendix B - NOTE:/INCLUDED IN THE SCHEDULE A VALU,Sold,2017-10-05,,
304,Appendix A - NOTE:/INCLUDED IN THE SCHEDULE A VALU,Exchanged,2017-10-06,,
305,Appendix A - NOTE:/INCLUDED IN THE SCHEDULE A VALU,Sold,2017-10-06,1001.0,15000.0
306,Appendix A - NOTE:/INCLUDED IN THE SCHEDULE A VALU,Sold,2017-10-06,1001.0,15000.0
307,Appendix A - NOTE:/INCLUDED IN THE SCHEDULE A VALU,Exchanged,2017-10-12,,
308,Appendix A - NOTE:/INCLUDED IN THE SCHEDULE A VALU,Sold,2017-10-12,1001.0,15000.0
309,Appendix A - NOTE:/INCLUDED IN THE SCHEDULE A VALU,Sold,2017-10-12,1001.0,15000.0
310,BNP PARIBAS LINKED TO S&P 500 INDEX,Purchased,2017-10-13,100001.0,250000.0
311,Appendix A - NOTE:/INCLUDED IN THE SCHEDULE A VALU,Exchanged,2017-10-19,,
312,Appendix A - NOTE:/INCLUDED IN THE SCHEDULE A VALU,Sold,2017-10-19,1001.0,15000.0
313,Appendix A - NOTE:/INCLUDED IN THE SCHEDULE A VALU,Sold,2017-10-19,1001.0,15000.0
314,Appendix A - NOTE:/INCLUDED IN THE SCHEDULE A VALU,Sold,2017-10-30,,
315,Appendix A - NOTE:/INCLUDED IN THE SCHEDULE A VALU,Purchased,2017-10-30,50001.0,100000.0
316,Appendix A - NOTE:/INCLUDED IN THE SCHEDULE A VALU,Purchased,2017-10-30,50001.0,100000.0
317,Brokerage (CASH) Account/FEDERATED GOV,Sold,2017-10-31,,
318,Irrevocable Trust/PIMCO INCOME FUND,Purchased,2017-10-31,1001.0,15000.0
319,Pimco Income Fund,Sold,2017-10-31,,
320,Pimco Income Fund,Purchased,2017-10-31,1001.0,15000.0
321,Trust Brokerage (CASH) Account/FEDERATED GOV,Purchased,2017-10-31,1001.0,15000.0
322,Trust UTA DTD 6/11/93 (100% interest)/Brokerage (C,Purchased,2017-10-31,1001.0,15000.0
323,Appendix A - NOTE:/INCLUDED IN THE SCHEDULE A VALU,Sold,2017-11-01,,
324,Appendix A - NOTE:/INCLUDED IN THE SCHEDULE A VALU,Purchased,2017-11-01,100001.0,250000.0
325,Appendix A - NOTE:/INCLUDED IN THE SCHEDULE A VALU,Purchased,2017-11-01,100001.0,250000.0
326,Appendix A - NOTE:/INCLUDED IN THE SCHEDULE A VALU,Sold,2017-11-03,1001.0,15000.0
327,Appendix A - NOTE:/INCLUDED IN THE SCHEDULE A VALU,Sold,2017-11-03,1001.0,15000.0
328,MN Commonwealth GO Bonds,Sold,2017-11-03,,
329,MN Commonwealth GO Bonds,Purchased,2017-11-03,15001.0,50000.0
330,Massachusetts State GO Bond,Purchased,2017-11-03,15001.0,50000.0
331,Grand Ledge MI Public Schools Dist GO Bond,Purchased,2017-11-07,15001.0,50000.0
332,Grand Ledge MI Public Schools Dist GO Bond,Sold,2017-11-07,,
333,MN GO Ref Bonds 2015,Purchased,2017-11-07,15001.0,50000.0
334,Appendix A - NOTE:/INCLUDED IN THE SCHEDULE A VALU,Sold,2017-11-09,1001.0,15000.0
335,Appendix A - NOTE:/INCLUDED IN THE SCHEDULE A VALU,Sold,2017-11-09,1001.0,15000.0
336,SOCIETE GENERALE LINKED TO BASKET OF INDICES UPSID,Sold,2017-11-09,100001.0,250000.0
337,Mansfield Indpt School Dist G/O Bond,Sold,2017-11-14,50001.0,100000.0
338,Mansfield Indpt School Dist G/O Bond,Sold,2017-11-14,50001.0,100000.0
339,THE BANK OF NOVA SCOTIA LINKED TO BASKET OF INDICE,Purchased,2017-11-14,100001.0,250000.0
340,01/23 JD GEN BDS 2017 BEO - MUNI BOND,Purchased,2017-11-16,15001.0,50000.0
341,GRAND VALLEY MICH ST UNIV REV REV 5% 12/01/23 JD G,Sold,2017-11-16,,
342,GRAND VALLEY MICH ST UNIV REV REV 5% 12/01/23 JD G,Purchased,2017-11-16,15001.0,50000.0
343,GS STRATEGIC INCOME FUND INSTITUTIONAL,Sold,2017-11-20,15001.0,50000.0
344,GS STRATEGIC INCOME FUND INSTITUTIONAL,Sold,2017-11-20,15001.0,50000.0
345,Appendix A - NOTE:/INCLUDED IN THE SCHEDULE A VALU,Exchanged,2017-11-21,,
346,Appendix A - NOTE:/INCLUDED IN THE SCHEDULE A VALU,Sold,2017-11-21,1001.0,15000.0
347,Appendix A - NOTE:/INCLUDED IN THE SCHEDULE A VALU,Sold,2017-11-21,1001.0,15000.0
348,WARREN WOODS MICH PUB SCHS GO,Purchased,2017-11-21,50001.0,100000.0
349,WARREN WOODS MICH PUB SCHS GO,Purchased,2017-11-21,50001.0,100000.0
350,WARREN WOODS MICH PUB SCHS GO,Sold,2017-11-21,,
351,Appendix A - NOTE:/INCLUDED IN THE SCHEDULE A VALU,Purchased,2017-11-22,15001.0,50000.0
352,Appendix A - NOTE:/INCLUDED IN THE SCHEDULE A VALU,Sold,2017-11-22,,
353,Appendix A - NOTE:/INCLUDED IN THE SCHEDULE A VALU,Purchased,2017-11-22,15001.0,50000.0
354,Andeavor Logistics LP,Sold,2017-11-29,15001.0,50000.0
355,Andeavor Logistics LP,Sold,2017-11-29,15001.0,50000.0
356,BAY CITY MICH SCH DIST GO,Sold,2017-11-30,,
357,BAY CITY MICH SCH DIST GO,Purchased,2017-11-30,15001.0,50000.0
358,BAY CITY MICH SCH DIST GO,Purchased,2017-11-30,15001.0,50000.0
359,Irrevocable Trust/PIMCO INCOME FUND,Purchased,2017-11-30,1001.0,15000.0
360,MORGAN STANLEY LINKED TO S&P 500 INDEX BUFFERED CA,Sold,2017-11-30,100001.0,250000.0
361,Pimco Income Fund,Sold,2017-11-30,,
362,Pimco Income Fund,Purchased,2017-11-30,1001.0,15000.0
363,Appendix A - NOTE:/INCLUDED IN THE SCHEDULE A VALU,Sold,2017-12-01,,
364,Appendix A - NOTE:/INCLUDED IN THE SCHEDULE A VALU,Purchased,2017-12-01,100001.0,250000.0
365,Appendix A - NOTE:/INCLUDED IN THE SCHEDULE A VALU,Sold,2017-12-01,1001.0,15000.0
366,Appendix A - NOTE:/INCLUDED IN THE SCHEDULE A VALU,Sold,2017-12-01,1001.0,15000.0
367,Appendix A - NOTE:/INCLUDED IN THE SCHEDULE A VALU,Purchased,2017-12-01,100001.0,250000.0
368,Transcanada Corp,Purchased,2017-12-04,15001.0,50000.0
369,Transcanada Corp,Sold,2017-12-04,,
370,Transcanada Corp,Purchased,2017-12-04,15001.0,50000.0
371,Appendix A - NOTE:/INCLUDED IN THE SCHEDULE A VALU,Exchanged,2017-12-12,,
372,Appendix A - NOTE:/INCLUDED IN THE SCHEDULE A VALU,Exchanged,2017-12-12,,
373,Appendix A - NOTE:/INCLUDED IN THE SCHEDULE A VALU,Sold,2017-12-12,,
374,Appendix A - NOTE:/INCLUDED IN THE SCHEDULE A VALU,Purchased,2017-12-12,100001.0,250000.0
375,Appendix A - NOTE:/INCLUDED IN THE SCHEDULE A VALU,Sold,2017-12-12,100001.0,250000.0
376,Appendix A - NOTE:/INCLUDED IN THE SCHEDULE A VALU,Sold,2017-12-12,500001.0,1000000.0
377,Appendix A - NOTE:/INCLUDED IN THE SCHEDULE A VALU,Sold,2017-12-12,1001.0,15000.0
378,Appendix A - NOTE:/INCLUDED IN THE SCHEDULE A VALU,Sold,2017-12-12,100001.0,250000.0
379,Appendix A - NOTE:/INCLUDED IN THE SCHEDULE A VALU,Sold,2017-12-12,500001.0,1000000.0
380,Appendix A - NOTE:/INCLUDED IN THE SCHEDULE A VALU,Sold,2017-12-12,1001.0,15000.0
381,Appendix A - NOTE:/INCLUDED IN THE SCHEDULE A VALU,Purchased,2017-12-12,100001.0,250000.0
382,GS ENHANCED DIVIDEND GLOBAL,Purchased,2017-12-14,1001.0,15000.0
383,GS Enhanced Dividend Global Equity Portfolio,Sold,2017-12-14,,
384,Grantor Trust Courtney E Trott,Sold,2017-12-14,,
385,Grantor Trust fbo Courtney E Trott,Purchased,2017-12-14,1001.0,15000.0
386,Irrevocable Trust/GS ENHANCED DIVIDEND GLOBAL EQUI,Purchased,2017-12-14,15001.0,50000.0
387,Irrevocable Trust/GS ENHANCED DIVIDEND GLOBAL EQUI,Purchased,2017-12-14,15001.0,50000.0
388,Irrevocable Trust/GS ENHANCED DIVIDEND GLOBAL EQUI,Sold,2017-12-14,,
389,Rollover IRA/GS ENHANCED DIVIDEND GLOBAL EQUITY PO,Purchased,2017-12-14,1001.0,15000.0
390,Rollover IRA/GS ENHANCED DIVIDEND GLOBAL EQUITY PO,Purchased,2017-12-14,1001.0,15000.0
391,Appendix A - NOTE:/INCLUDED IN THE SCHEDULE A VALU,Sold,2017-12-18,,
392,Appendix A - NOTE:/INCLUDED IN THE SCHEDULE A VALU,Purchased,2017-12-18,50001.0,100000.0
393,Appendix A - NOTE:/INCLUDED IN THE SCHEDULE A VALU,Purchased,2017-12-18,50001.0,100000.0
394,Appendix A - NOTE:/INCLUDED IN THE SCHEDULE A VALU,Sold,2017-12-20,1001.0,15000.0
395,Appendix A - NOTE:/INCLUDED IN THE SCHEDULE A VALU,Sold,2017-12-20,1001.0,15000.0
396,Oneok Inc,Sold,2017-12-20,15001.0,50000.0
397,Oneok Inc,Sold,2017-12-20,15001.0,50000.0
398,Antero Midstream,Purchased,2017-12-21,15001.0,50000.0
399,Antero Midstream,Sold,2017-12-21,,
400,Antero Midstream,Purchased,2017-12-21,15001.0,50000.0
401,Appendix A - NOTE:/INCLUDED IN THE SCHEDULE A VALU,Sold,2017-12-27,,
402,Appendix A - NOTE:/INCLUDED IN THE SCHEDULE A VALU,Purchased,2017-12-27,50001.0,100000.0
403,Appendix A - NOTE:/INCLUDED IN THE SCHEDULE A VALU,Purchased,2017-12-27,50001.0,100000.0
404,GS ENHANCED DIVIDEND GLOBAL,Purchased,2017-12-28,1001.0,15000.0
405,GS Enhanced Dividend Global Equity Portfolio,Sold,2017-12-28,,
406,Grantor Trust fbo Courtney E Trott,Sold,2017-12-28,,
407,Grantor Trust fbo Courtney E Trott,Purchased,2017-12-28,1001.0,15000.0
408,Irrevocable Trust/GS ENHANCED DIVIDEND GLOBAL EQUI,Purchased,2017-12-28,15001.0,50000.0
409,Irrevocable Trust/GS ENHANCED DIVIDEND GLOBAL EQUI,Purchased,2017-12-28,15001.0,50000.0
410,Irrevocable Trust/GS ENHANCED DIVIDEND GLOBAL EQUI,Sold,2017-12-28,,
411,Rollover IRA/GS ENHANCED DIVIDEND GLOBAL EQUITY PO,Purchased,2017-12-28,1001.0,15000.0
412,Rollover IRA/GS ENHANCED DIVIDEND GLOBAL EQUITY PO,Purchased,2017-12-28,1001.0,15000.0
413,Irrevocable Trust/PIMCO INCOME FUND,Purchased,2017-12-29,1001.0,15000.0
414,Pimco Income Fund,Sold,2017-12-29,,
415,Pimco Income Fund,Purchased,2017-12-29,1001.0,15000.0
416,Revocable Trust UTA (100% interest)/interest in Tr,Sold,2017-12-31,,
417,Revocable Trust UTA DTD/interest in Trott Northwes,Purchased,2017-12-31,250001.0,500000.0
418,Trott Northwestern LLC,Purchased,2017-12-31,250001.0,500000.0
419,Trust UTA  (100% interest)/Trott Northwestern LLC,Sold,2017-12-31,,
420,Trust UTA DTD/Trott Northwestern LLC,Purchased,2017-12-31,250001.0,500000.0
421,interest in Trott Northweste,Purchased,2017-12-31,250001.0,500000.0
