,orgname,action,date1,minvalue,maxvalue
0,SunAmerica Cash Account,Purchased,2008-04-10,1001,15000
1,California Hffa Bond,Sold,2008-07-01,1001,15000
2,"Long Beach, CA Bond",Sold,2009-05-01,15001,50000
3,"Robla, CA School District Bond",Sold,2010-08-02,15001,50000
4,California Hffa Bond,Sold,2010-12-01,15001,50000
