,orgname,action,date1,minvalue,maxvalue
0,Legg Mason Partners,Sold,2008-08-22,15001.0,50000.0
1,First Eagle Global Fund,Purchased,2008-08-25,15001.0,50000.0
2,First Eagle Global Fund,Purchased,2008-12-18,1001.0,15000.0
3,Calamos Growth Fund,Sold,2011-05-09,15001.0,50000.0
4,Federated Kaufmann,Sold,2011-05-09,15001.0,50000.0
5,First Eagle Global Fund,Exchanged,2011-05-09,15001.0,50000.0
6,Invesco Van Kampen Equity & Income Fund,Sold,2011-05-09,15001.0,50000.0
7,Invesco Van Kampen Equity & Income Fund,Sold,2011-05-09,1001.0,15000.0
8,Cambiar Small Cap Fund,Purchased,2011-05-11,1001.0,15000.0
9,Eaton Vance Commodity Strategy Fund,Purchased,2011-05-11,1001.0,15000.0
10,Goldman Sachs Abs Return Track I,Purchased,2011-05-11,1001.0,15000.0
11,Goldman Sachs TR Growth Opp Instl,Purchased,2011-05-11,1001.0,15000.0
12,ING Global Real Estate Fund,Purchased,2011-05-11,1001.0,15000.0
13,JP Morgan Dynamic Small Cap I,Purchased,2011-05-11,1001.0,15000.0
14,Mainstay Large Cap Growth Fund,Purchased,2011-05-11,15001.0,50000.0
15,Metropolitan West Total Return Fund,Purchased,2011-05-11,1001.0,15000.0
16,Pimco Emerging Local Bond Fund,Purchased,2011-05-11,1001.0,15000.0
17,Rydex SGI Managed Futures H,Purchased,2011-05-11,1001.0,15000.0
18,TCW Value Opportunities Fund I,Purchased,2011-05-11,1001.0,15000.0
19,Thornburg International Value I,Purchased,2011-05-11,1001.0,15000.0
20,Virtus Emerging Markets I,Purchased,2011-05-11,1001.0,15000.0
21,Goldman Sachs TR Growth Opp Inst,Sold,2011-06-03,1001.0,15000.0
22,Ivy Mid Cap Growth Fund,Purchased,2011-06-03,1001.0,15000.0
23,Managers AMG Systematic Mid Cap Instl,Purchased,2011-06-03,1001.0,15000.0
24,TCW Value Opportunities Fund I,Sold,2011-06-03,1001.0,15000.0
25,Cambiar Small Cap Fund,Sold,2011-08-22,,
26,Eaton Vance Commodity Strategy Fund,Sold,2011-08-22,,
27,Goldman Sachs Abs Return Track I,Sold,2011-08-22,1001.0,15000.0
28,ING Global Real Estate Fund,Sold,2011-08-22,1001.0,15000.0
29,Ivy Mid Cap Growth Fund,Sold,2011-08-22,1001.0,15000.0
30,JP Morgan Dynamic Small Cap I,Sold,2011-08-22,1001.0,15000.0
31,Mainstay Large Cap Growth Fund,Sold,2011-08-22,15001.0,50000.0
32,Managers AMG Systematic Mid Cap Instl,Sold,2011-08-22,1001.0,15000.0
33,Metropolitan West Total Return Fund,Sold,2011-08-22,1001.0,15000.0
34,Pimco Emerging Local Bond Fund,Sold,2011-08-22,1001.0,15000.0
35,Rydex SGI Managed Futures H,Sold,2011-08-22,1001.0,15000.0
36,Thornburg International Value I,Sold,2011-08-22,1001.0,15000.0
37,Virtus Emerging Markets I,Sold,2011-08-22,1001.0,15000.0
38,DreamAhead College Investment Plan #1,Sold,2018-10-01,,
39,DreamAhead College Investment Plan #1,Purchased,2018-10-01,50001.0,100000.0
40,DreamAhead College Investment Plan #1,Purchased,2018-10-01,50001.0,100000.0
41,DreamAhead College Investment Plan #2,Purchased,2018-10-01,50001.0,100000.0
42,DreamAhead College Investment Plan #2,Purchased,2018-10-01,50001.0,100000.0
43,DreamAhead College Investment Plan #2,Sold,2018-10-01,,
44,Washington State GET Fund,Exchanged,2018-10-01,,
45,Washington State GET Fund,Exchanged,2018-10-01,,
46,Washington State GET Fund,Sold,2018-10-01,50001.0,100000.0
47,Washington State GET Fund,Sold,2018-10-01,50001.0,100000.0
48,Washington State GET Fund,Sold,2018-10-01,50001.0,100000.0
49,Washington State GET Fund,Sold,2018-10-01,50001.0,100000.0
50,DreamAhead College Investment Plan #1,Exchanged,2018-10-04,,
51,DreamAhead College Investment Plan #1,Sold,2018-10-04,1001.0,15000.0
52,DreamAhead College Investment Plan #1,Sold,2018-10-04,1001.0,15000.0
