,orgname,action,date1,minvalue,maxvalue
0,Absolute Strategies Fund,Purchased,2008-01-04,50001.0,100000.0
1,Leuthold Asset Allocation Fund,Purchased,2008-01-04,15001.0,50000.0
2,MedCo Health Solutions,Sold,2008-01-16,15001.0,50000.0
3,Port Authority of NY & NJ Cons,Sold,2008-01-16,100001.0,250000.0
4,Fedex Corp,Sold,2008-01-18,50001.0,100000.0
5,General Dynamics,Sold,2008-01-23,15001.0,50000.0
6,Honeywell International,Sold,2008-01-23,100001.0,250000.0
7,Federal Home Loan Bank Securities,Purchased,2008-01-31,100001.0,250000.0
8,US Treasury Bill,Purchased,2008-02-14,250001.0,500000.0
9,Sun Tech Power Holdings,Purchased,2008-03-13,15001.0,50000.0
10,US Treasury Bill,Purchased,2008-03-17,50001.0,100000.0
11,Sallie Mae,Sold,2008-03-25,15001.0,50000.0
12,Citigroup Inc,Sold,2008-03-31,1001.0,15000.0
13,Abbott Laboratories,Sold,2008-04-09,15001.0,50000.0
14,General Mills,Sold,2008-04-09,100001.0,250000.0
15,Intel Corp,Sold,2008-04-09,15001.0,50000.0
16,Kraft Foods,Sold,2008-04-09,50001.0,100000.0
17,Novartis AG,Sold,2008-04-09,1001.0,15000.0
18,Public Storage Inc,Sold,2008-04-09,15001.0,50000.0
19,Regency Centers,Sold,2008-04-09,1001.0,15000.0
20,Royal Dutch Petroleum,Sold,2008-04-09,15001.0,50000.0
21,WisdomTree International Small Cap Fund,Purchased,2008-04-09,50001.0,100000.0
22,Kinetics Small Cap Opportunities Intl,Purchased,2008-04-14,15001.0,50000.0
23,Oakmark International Fund,Purchased,2008-04-14,15001.0,50000.0
24,Comcast Corp,Sold,2008-04-18,50001.0,100000.0
25,Brookfield Infrastructure Partners,Sold,2008-04-28,1001.0,15000.0
26,Eli Lilly & Co,Sold,2008-04-28,100001.0,250000.0
27,Pfizer Inc,Sold,2008-04-28,15001.0,50000.0
28,US Treasury Bill,Purchased,2008-04-30,15001.0,50000.0
29,Bank of America,Sold,2008-05-14,50001.0,100000.0
30,Hewlett-Packard,Sold,2008-05-14,100001.0,250000.0
31,IBM Corp,Purchased,2008-05-14,50001.0,100000.0
32,Plum Creek Timber,Purchased,2008-05-14,15001.0,50000.0
33,WisdomTree Intl Real Estate Sector Fund,Purchased,2008-05-14,15001.0,50000.0
34,WisdomTree Intl Small Cap Dividend Fund,Purchased,2008-05-14,15001.0,50000.0
35,Berkshire Hathaway,Purchased,2008-05-15,50001.0,100000.0
36,UnitedHealth Group,Sold,2008-06-11,15001.0,50000.0
37,Federal Home Loan Bank Securities,Sold,2008-07-07,100001.0,250000.0
38,US Treasury Bill,Sold,2008-07-31,250001.0,500000.0
39,Aqua America,Sold,2008-08-08,50001.0,100000.0
40,Veolia Environnement,Purchased,2008-08-08,50001.0,100000.0
41,EDS Corp,Sold,2008-08-27,1001.0,15000.0
42,US Treasury Bill,Purchased,2008-09-03,50001.0,100000.0
43,US Treasury Bill,Sold,2008-09-04,50001.0,100000.0
44,American International Group,Sold,2008-09-15,1001.0,15000.0
45,Manpower Inc,Sold,2008-09-16,50001.0,100000.0
46,Walt Disney Co,Sold,2008-09-18,50001.0,100000.0
47,General Electric,Sold,2008-09-19,50001.0,100000.0
48,General Electric,Sold,2008-09-19,100001.0,250000.0
49,Johnson & Johnson,Sold,2008-09-24,15001.0,50000.0
50,National Oilwell Varco,Purchased,2008-09-24,50001.0,100000.0
51,PepsiCo Inc,Sold,2008-09-24,15001.0,50000.0
52,Royal Dutch Shell,Purchased,2008-09-24,15001.0,50000.0
53,Stericycle Inc,Sold,2008-09-24,15001.0,50000.0
54,Vanguard GNMA Fund,Purchased,2008-09-24,50001.0,100000.0
55,WisdomTree Intl Small Cap Dividend Fund,Sold,2008-09-24,15001.0,50000.0
56,WisdomTree Intl Small Cap Dividend Fund,Sold,2008-09-24,15001.0,50000.0
57,WisdomTree Real Estate Index,Sold,2008-09-24,15001.0,50000.0
58,Sun Tech Power Holdings,Sold,2008-09-25,15001.0,50000.0
59,US Treasury Bill,Sold,2008-10-23,15001.0,50000.0
60,VIMAC IT III Annex Fund,Purchased,2008-10-24,15001.0,50000.0
61,Microsoft Corp,Sold,2008-11-03,50001.0,100000.0
62,Encore Acquisition,Purchased,2008-11-10,50001.0,100000.0
63,Hussman Strategic Growth Fund,Sold,2008-11-12,100001.0,250000.0
64,Hussman Strategic Growth Fund,Sold,2008-11-12,100001.0,250000.0
65,Veolia Environnement,Sold,2008-11-13,15001.0,50000.0
66,General Electric,Purchased,2008-11-14,50001.0,100000.0
67,Medtronic Inc,Purchased,2008-11-17,1001.0,15000.0
68,Siemens AG,Sold,2008-11-18,50001.0,100000.0
69,US Treasury Note,Sold,2008-11-18,15001.0,50000.0
70,Brookfield Asset Management,Sold,2008-11-20,15001.0,50000.0
71,Kraft Foods,Sold,2008-11-28,15001.0,50000.0
72,National Oilwell Varco,Purchased,2008-11-28,15001.0,50000.0
73,iShares Lehman 1-3 year Credit Bond,Purchased,2008-11-28,100001.0,250000.0
74,Kinetics Small Cap Opportunities Intl,Sold,2008-12-01,50001.0,100000.0
75,American Superconductor,Sold,2008-12-08,50001.0,100000.0
76,Encore Energy Partners,Sold,2008-12-09,15001.0,50000.0
77,Plains Exploration & Production,Sold,2008-12-10,1001.0,15000.0
78,Exelon Corp,Sold,2008-12-15,15001.0,50000.0
79,General Electric,Sold,2008-12-15,50001.0,100000.0
80,Medtronic Inc,Sold,2008-12-18,1001.0,15000.0
81,Google Inc,Sold,2008-12-19,1001.0,15000.0
82,Oakmark International Fund,Purchased,2008-12-19,1001.0,15000.0
83,3M Co,Sold,2008-12-30,50001.0,100000.0
84,Allianz NFJ International Value Fund,Purchased,2008-12-30,100001.0,250000.0
85,Apache Corp,Purchased,2008-12-30,15001.0,50000.0
86,Costco Wholesale,Purchased,2008-12-30,50001.0,100000.0
87,Diamond Hill Long/Short Fund,Purchased,2008-12-30,15001.0,50000.0
88,Equity Residential,Sold,2008-12-30,15001.0,50000.0
89,JPMorgan Chase & Co,Sold,2008-12-30,15001.0,50000.0
90,National Oilwell Varco,Sold,2008-12-30,15001.0,50000.0
91,SPDR Gold Trust ETF,Purchased,2008-12-30,50001.0,100000.0
92,SPDR Gold Trust ETF,Purchased,2008-12-30,50001.0,100000.0
93,Schlumberger Ltd,Purchased,2008-12-30,15001.0,50000.0
94,Staples Inc,Sold,2008-12-30,15001.0,50000.0
95,Stryker Corp,Sold,2008-12-30,50001.0,100000.0
96,Stryker Corp,Sold,2008-12-30,50001.0,100000.0
97,Total SA,Sold,2008-12-30,50001.0,100000.0
98,Zimmer Holdings,Sold,2008-12-30,50001.0,100000.0
99,iShares Lehman 1-3 year Credit Bond,Purchased,2008-12-30,100001.0,250000.0
100,iShares Lehman Treasury Inflation Protec,Purchased,2008-12-30,100001.0,250000.0
101,iShares Lehman Treasury Inflation Protec,Purchased,2008-12-30,100001.0,250000.0
102,Absolute Strategies Fund,Sold,2008-12-31,100001.0,250000.0
103,Artio International Equity Fund II,Sold,2008-12-31,100001.0,250000.0
104,Leuthold Asset Allocation Fund,Sold,2008-12-31,100001.0,250000.0
105,Leuthold Asset Allocation Fund,Sold,2008-12-31,100001.0,250000.0
106,Oakmark International Fund,Sold,2008-12-31,100001.0,250000.0
107,Ilussman Strategic Growth Fund,Purchased,2009-01-06,100001.0,250000.0
108,Thomas White International,Purchased,2009-01-06,100001.0,250000.0
109,Emerson Electric,Purchased,2009-02-04,15001.0,50000.0
110,US Treasury Note,Purchased,2009-02-13,250001.0,500000.0
111,US Treasury Note,Sold,2009-02-15,100001.0,250000.0
112,Fannie Mae Bond,Sold,2009-02-17,15001.0,50000.0
113,US Treasury Bill,Sold,2009-03-05,50001.0,100000.0
114,US Treasury Note,Purchased,2009-03-20,100001.0,250000.0
115,Coca-Cola Co,Purchased,2009-04-02,50001.0,100000.0
116,Encore Energy Partners,Sold,2009-04-03,15001.0,50000.0
117,US Treasury Note,Sold,2009-04-03,50001.0,100000.0
118,Encore Energy Partners,Sold,2009-04-06,15001.0,50000.0
119,Rohm & Haas,Sold,2009-04-06,15001.0,50000.0
120,Abbott Laboratories,Purchased,2009-04-15,50001.0,100000.0
121,American Express,Sold,2009-04-20,1001.0,15000.0
122,American International Group,Sold,2009-04-20,,
123,Citigroup Inc,Sold,2009-04-20,,
124,Comcast Corp,Sold,2009-04-20,1001.0,15000.0
125,Home Depot,Sold,2009-04-20,1001.0,15000.0
126,McClatchy Newspapers,Sold,2009-04-20,,
127,Texas Instruments,Sold,2009-04-20,1001.0,15000.0
128,Apache Corp,Purchased,2009-04-28,1001.0,15000.0
129,Apple Inc,Purchased,2009-04-28,15001.0,50000.0
130,Coca-Cola Co,Sold,2009-04-28,1001.0,15000.0
131,Costco Wholesale,Sold,2009-04-28,1001.0,15000.0
132,Emerson Electric,Sold,2009-04-28,15001.0,50000.0
133,Exxon Mobil,Sold,2009-04-28,50001.0,100000.0
134,Google Inc,Purchased,2009-04-28,15001.0,50000.0
135,Johnson & Johnson,Sold,2009-04-28,15001.0,50000.0
136,Leuthold Asset Allocation Fund,Sold,2009-04-28,1001.0,15000.0
137,Microsoft Corp,Sold,2009-04-28,100001.0,250000.0
138,Parker-Hannifin,Sold,2009-04-28,15001.0,50000.0
139,Philip Morris International,Sold,2009-04-28,15001.0,50000.0
140,Plum Creek Timber,Sold,2009-04-28,15001.0,50000.0
141,Royal Dutch Shell,Sold,2009-04-28,15001.0,50000.0
142,S&P North American Tech Software Index,Purchased,2009-04-28,15001.0,50000.0
143,iShares MSCI Emerging Markets Index,Purchased,2009-04-28,50001.0,100000.0
144,iShares Russell 2000 Value Index,Purchased,2009-04-28,50001.0,100000.0
145,Absolute Strategies Fund,Sold,2009-04-29,15001.0,50000.0
146,Allianz NFJ International Value Fund,Sold,2009-04-29,15001.0,50000.0
147,Diamond Hill Long Short Fund,Purchased,2009-05-04,1001.0,15000.0
148,Leuthold Care Investment Fund Intl,Purchased,2009-05-04,15001.0,50000.0
149,Oakmark International Fund,Purchased,2009-05-04,15001.0,50000.0
150,Vanguard High Yield Corporate Bond Fund,Purchased,2009-05-04,100001.0,250000.0
151,VIMAC IT Fund III LP,Purchased,2009-05-11,1001.0,15000.0
152,Berkshire Hathaway,Purchased,2009-06-01,15001.0,50000.0
153,Chicago Bridge & Iron,Purchased,2009-06-01,15001.0,50000.0
154,Emerson Electric,Purchased,2009-06-01,15001.0,50000.0
155,Exelon Corp,Purchased,2009-06-01,15001.0,50000.0
156,Hugoton Royalty,Purchased,2009-06-01,1001.0,15000.0
157,Medtronic Inc,Purchased,2009-06-01,15001.0,50000.0
158,US Treasury Note,Sold,2009-06-02,100001.0,250000.0
159,Berkshire Hathaway,Purchased,2009-06-15,15001.0,50000.0
160,Chicago Bridge & Iron,Purchased,2009-06-15,15001.0,50000.0
161,ConocoPhillips,Purchased,2009-06-15,1001.0,15000.0
162,Hugoton Royalty,Purchased,2009-06-15,1001.0,15000.0
163,Medtronic Inc,Purchased,2009-06-15,15001.0,50000.0
164,Varian Medical Systems,Purchased,2009-06-15,15001.0,50000.0
165,US Treasury Note,Sold,2009-06-16,50001.0,100000.0
166,US Treasury Note,Sold,2009-06-25,50001.0,100000.0
167,Wells Fargo,Purchased,2009-06-25,15001.0,50000.0
168,ConocoPhillips,Purchased,2009-06-29,1001.0,15000.0
169,Encore Energy Partners,Purchased,2009-06-29,50001.0,100000.0
170,Exelon Corp,Sold,2009-06-30,100001.0,250000.0
171,Plains Exploration & Production,Sold,2009-06-30,15001.0,50000.0
172,Royal Dutch Shell,Purchased,2009-06-30,100001.0,250000.0
173,US Treasury Note,Sold,2009-06-30,50001.0,100000.0
174,Encore Energy Partners,Purchased,2009-07-01,15001.0,50000.0
175,New Jersey Educ Facs Auth Rev Bond,Sold,2009-07-01,50001.0,100000.0
176,Noble Corp,Sold,2009-07-01,15001.0,50000.0
177,Plains Exploration & Production,Sold,2009-07-01,15001.0,50000.0
178,US Treasury Note,Sold,2009-07-01,15001.0,50000.0
179,Devon Energy,Purchased,2009-07-02,100001.0,250000.0
180,US Treasury Note,Sold,2009-07-06,100001.0,250000.0
181,Aetna Inc,Sold,2009-07-10,50001.0,100000.0
182,Colgate-Palmolive Co,Sold,2009-07-10,1001.0,15000.0
183,Costco Wholesale,Sold,2009-07-10,15001.0,50000.0
184,Express Scripts,Purchased,2009-07-10,50001.0,100000.0
185,Exxon Mobil,Sold,2009-07-10,15001.0,50000.0
186,Johnson & Johnson,Sold,2009-07-10,1001.0,15000.0
187,Microsoft Corp,Sold,2009-07-10,15001.0,50000.0
188,Parker-Hannifin,Sold,2009-07-10,1001.0,15000.0
189,PepsiCo Inc,Sold,2009-07-10,1001.0,15000.0
190,Regency Centers,Sold,2009-07-10,15001.0,50000.0
191,Simon Property Group,Sold,2009-07-10,15001.0,50000.0
192,State Street Corp,Purchased,2009-07-10,15001.0,50000.0
193,Stericycle Inc,Sold,2009-07-10,15001.0,50000.0
194,US Bancorp,Purchased,2009-07-10,15001.0,50000.0
195,US Bancorp,Purchased,2009-07-10,1001.0,15000.0
196,Wells Fargo,Sold,2009-07-10,15001.0,50000.0
197,Wells Fargo,Sold,2009-07-10,1001.0,15000.0
198,Wisdomtree Intl Real Estate Index ETF,Purchased,2009-07-10,15001.0,50000.0
199,Wisdomtree Intl Real Estate Index ETF,Purchased,2009-07-10,15001.0,50000.0
200,iShares Barclays 1-3 yr Credit Bond ETF,Purchased,2009-07-10,50001.0,100000.0
201,iShares MSCI Emerging Markets Index,Purchased,2009-07-10,15001.0,50000.0
202,Parker-Hannifin,Sold,2009-07-13,15001.0,50000.0
203,Artio International Equity Fund II,Sold,2009-07-14,,
204,Hugoton Royalty,Sold,2009-07-17,1001.0,15000.0
205,Oakmont International Fund,Purchased,2009-07-17,15001.0,50000.0
206,Vanguard High Yield Corporate Bond Fund,Purchased,2009-07-17,50001.0,100000.0
207,iShares MSCI Emerging Markets Index,Purchased,2009-07-31,15001.0,50000.0
208,"Bergen County, NJ Ref Gen Impvt Bond",Sold,2009-08-03,50001.0,100000.0
209,"East Orange, NJ Bond",Sold,2009-08-03,15001.0,50000.0
210,"Park Ridge, NJ Bond",Purchased,2009-08-04,100001.0,250000.0
211,iShares MSCI Emerging Markets Index,Purchased,2009-08-04,50001.0,100000.0
212,US Treasury Note,Sold,2009-08-05,100001.0,250000.0
213,Berkshire Hathaway,Purchased,2009-08-14,15001.0,50000.0
214,US Treasury Note,Sold,2009-08-17,15001.0,50000.0
215,Aetna Inc,Sold,2009-08-19,15001.0,50000.0
216,Vanguard High Yield Corporate Bond Fund,Sold,2009-08-24,50001.0,100000.0
217,Nestle Sa,Purchased,2009-08-26,15001.0,50000.0
218,Third Avenue Focused Fund,Purchased,2009-09-02,15001.0,50000.0
219,American Superconductor,Sold,2009-09-11,15001.0,50000.0
220,John Wiley & Sons,Purchased,2009-09-24,50001.0,100000.0
221,Third Avenue Focused Fund,Purchased,2009-09-28,50001.0,100000.0
222,US Treasury Note,Sold,2009-09-28,100001.0,250000.0
223,Aetna Inc,Sold,2009-09-29,1001.0,15000.0
224,Coca-Cola Co,Sold,2009-09-29,15001.0,50000.0
225,PepsiCo Inc,Sold,2009-09-29,50001.0,100000.0
226,Plum Creek Timber,Sold,2009-09-29,15001.0,50000.0
227,Plum Creek Timber,Sold,2009-09-29,15001.0,50000.0
228,Wisdomtree Intl Real Estate Index ETF,Purchased,2009-09-29,15001.0,50000.0
229,Wisdomtree Intl Real Estate Index ETF,Purchased,2009-09-29,1001.0,15000.0
230,iShares Barclays Treasury Inflation Prot,Purchased,2009-09-29,15001.0,50000.0
231,iShares MSCI Emerging Markets Index,Purchased,2009-09-29,15001.0,50000.0
232,Absolute Strategies Fund,Purchased,2009-09-30,100001.0,250000.0
233,Allianz NFJ International Value Fund,Sold,2009-09-30,50001.0,100000.0
234,Allianz NFJ International Value Fund,Sold,2009-09-30,15001.0,50000.0
235,Leuthold Asset Allocation Fund,Sold,2009-09-30,1001.0,15000.0
236,Templeton Global Bond Fund,Purchased,2009-09-30,50001.0,100000.0
237,Templeton Global Bond Fund,Purchased,2009-09-30,50001.0,100000.0
238,Thomas White International,Sold,2009-09-30,15001.0,50000.0
239,Thomas White International,Sold,2009-09-30,50001.0,100000.0
240,Thornburg International Value Fund,Purchased,2009-09-30,100001.0,250000.0
241,Thornburg International Value Fund,Purchased,2009-09-30,100001.0,250000.0
242,Vanguard GNMA Fund,Sold,2009-09-30,100001.0,250000.0
243,Vanguard GNMA Fund,Sold,2009-09-30,50001.0,100000.0
244,Vanguard Short Term Tax Exempt Fund,Purchased,2009-09-30,50001.0,100000.0
245,US Treasury Note,Sold,2009-10-01,50001.0,100000.0
246,American Superconductor,Purchased,2009-10-02,1001.0,15000.0
247,iShares MSCI Emerging Markets Index,Purchased,2009-10-05,15001.0,50000.0
248,American Superconductor,Purchased,2009-10-13,1001.0,15000.0
249,US Treasury Note,Sold,2009-10-14,1001.0,15000.0
250,US Treasury Note,Purchased,2009-10-26,100001.0,250000.0
251,Bank of New York Mellon,Purchased,2009-11-13,50001.0,100000.0
252,Sysco Corp,Purchased,2009-11-13,50001.0,100000.0
253,US Treasury Note,Sold,2009-11-15,250001.0,500000.0
254,US Treasury Note,Purchased,2009-11-16,100001.0,250000.0
255,US Treasury Note,Sold,2009-11-17,100001.0,250000.0
256,"Galloway Township, NJ Bond",Sold,2009-12-15,50001.0,100000.0
257,Encana Corp,Purchased,2009-12-18,50001.0,100000.0
258,US Treasury Note,Sold,2009-12-21,50001.0,100000.0
259,US Treasury Note,Purchased,2009-12-29,50001.0,100000.0
260,Montclair NJ G/O Bond,Sold,2010-01-04,15001.0,50000.0
261,White Mountains Insurance,Purchased,2010-02-02,50001.0,100000.0
262,"Park Ridge, NJ Bond",Sold,2010-02-03,100001.0,250000.0
263,US Treasury Note,Sold,2010-02-03,50001.0,100000.0
264,ABB Ltd,Purchased,2010-02-05,50001.0,100000.0
265,IMS Health,Exchanged,2010-02-26,15001.0,50000.0
266,iShares Barclays TIPS Bond Fund,Sold,2010-03-04,100001.0,250000.0
267,iShares Barclays TIPS Bond Fund,Sold,2010-03-04,100001.0,250000.0
268,Pimco 1-5 Year US TIPS Index ETF,Purchased,2010-03-10,100001.0,250000.0
269,Pimco 1-5 Year US TIPS Index ETF,Purchased,2010-03-10,100001.0,250000.0
270,White Mountains Insurance,Sold,2010-03-15,50001.0,100000.0
271,AT&T Inc,Sold,2010-03-23,50001.0,100000.0
272,Aetna Inc,Sold,2010-03-23,50001.0,100000.0
273,Colgate-Palmolive Co,Sold,2010-03-23,15001.0,50000.0
274,Diageo Plc,Sold,2010-03-23,15001.0,50000.0
275,Exxon Mobil,Sold,2010-03-23,1001.0,15000.0
276,Google Inc,Sold,2010-03-23,1001.0,15000.0
277,Hussman Strategic Growth Fund,Purchased,2010-03-23,15001.0,50000.0
278,Hussman Strategic Growth Fund,Purchased,2010-03-23,15001.0,50000.0
279,Leuthold Core Investment Fund,Sold,2010-03-23,1001.0,15000.0
280,Microsoft Corp,Sold,2010-03-23,15001.0,50000.0
281,Parker-Hannifin,Sold,2010-03-23,15001.0,50000.0
282,PepsiCo Inc,Sold,2010-03-23,15001.0,50000.0
283,S&P North American Tech Software Index,Sold,2010-03-23,1001.0,15000.0
284,Stericycle Inc,Sold,2010-03-23,15001.0,50000.0
285,Tortoise Energy Infrastructure,Purchased,2010-03-23,50001.0,100000.0
286,Tortoise Energy Infrastructure,Purchased,2010-03-23,50001.0,100000.0
287,Union Pacific Corp,Sold,2010-03-23,15001.0,50000.0
288,Walthausen Small Cap Value Fund,Purchased,2010-03-23,15001.0,50000.0
289,iShares Russell 2000 Value Index,Sold,2010-03-23,100001.0,250000.0
290,Diamond Hill Long Short Fund,Sold,2010-03-24,15001.0,50000.0
291,Vanguard High Yield Corporate Bond Fund,Sold,2010-03-24,15001.0,50000.0
292,Vanguard High Yield Corporate Bond Fund,Sold,2010-03-24,15001.0,50000.0
293,Absolute Strategies Fund,Purchased,2010-03-26,15001.0,50000.0
294,Franklin International Small Cap Growth,Purchased,2010-03-26,15001.0,50000.0
295,Frontegra Netols Small Cap Value,Purchased,2010-03-26,15001.0,50000.0
296,Absolute Strategies Fund,Purchased,2010-03-29,50001.0,100000.0
297,Franklin International Small Cap Growth,Purchased,2010-03-29,15001.0,50000.0
298,Templeton Global Bond Fund,Purchased,2010-03-29,50001.0,100000.0
299,BP,Sold,2010-06-11,1001.0,15000.0
300,White Mountains Insurance,Sold,2010-06-17,50001.0,100000.0
301,BP,Sold,2010-07-08,15001.0,50000.0
302,Colgate-Palmolive Co,Sold,2010-07-08,1001.0,15000.0
303,Diageo Plc,Sold,2010-07-08,15001.0,50000.0
304,Exxon Mobil,Sold,2010-07-08,1001.0,15000.0
305,Home Depot,Sold,2010-07-08,1001.0,15000.0
306,IBM Corp,Sold,2010-07-08,1001.0,15000.0
307,Johnson & Johnson,Sold,2010-07-08,15001.0,50000.0
308,Microsoft Corp,Sold,2010-07-08,1001.0,15000.0
309,National Oilwell Varco,Sold,2010-07-08,1001.0,15000.0
310,PepsiCo Inc,Sold,2010-07-08,1001.0,15000.0
311,Philip Morris International,Sold,2010-07-08,1001.0,15000.0
312,State Street Corp,Sold,2010-07-08,1001.0,15000.0
313,Stericycle Inc,Sold,2010-07-08,1001.0,15000.0
314,US Bancorp,Sold,2010-07-08,1001.0,15000.0
315,"Burlington County, NJ OID Bond",Sold,2010-07-15,50001.0,100000.0
316,MedCo Health Solutions,Purchased,2010-08-10,50001.0,100000.0
317,Plains Explorations & Production,Sold,2010-08-10,50001.0,100000.0
318,Google Inc,Purchased,2010-08-24,15001.0,50000.0
319,Royal Dutch Shell,Purchased,2010-09-01,15001.0,50000.0
320,US Treasury Note,Sold,2010-09-02,100001.0,250000.0
321,Procter & Gamble,Sold,2010-09-09,250001.0,500000.0
322,US Treasury Note,Purchased,2010-09-20,250001.0,500000.0
323,AT&T Inc,Sold,2010-09-21,15001.0,50000.0
324,Abbott Laboratories,Sold,2010-09-21,1001.0,15000.0
325,Aetna Inc,Sold,2010-09-21,15001.0,50000.0
326,Altria Group,Sold,2010-09-21,1001.0,15000.0
327,Altria Group,Sold,2010-09-21,1001.0,15000.0
328,Analog Devices Inc,Purchased,2010-09-21,1001.0,15000.0
329,Analog Devices Inc,Purchased,2010-09-21,15001.0,50000.0
330,Apache Corp,Sold,2010-09-21,1001.0,15000.0
331,Apple Inc,Sold,2010-09-21,1001.0,15000.0
332,Chevron Corp,Purchased,2010-09-21,1001.0,15000.0
333,Chubb Corp,Purchased,2010-09-21,1001.0,15000.0
334,Chubb Corp,Purchased,2010-09-21,1001.0,15000.0
335,Coca-Cola Co,Sold,2010-09-21,1001.0,15000.0
336,Colgate-Palmolive Co,Sold,2010-09-21,15001.0,50000.0
337,Diageo Plc,Sold,2010-09-21,1001.0,15000.0
338,Emerson Electric,Sold,2010-09-21,1001.0,15000.0
339,Exelon Corp,Purchased,2010-09-21,1001.0,15000.0
340,Exelon Corp,Purchased,2010-09-21,15001.0,50000.0
341,Expeditors Intl of Washington Inc,Purchased,2010-09-21,1001.0,15000.0
342,Express Scripts,Sold,2010-09-21,1001.0,15000.0
343,Exxon Mobil,Sold,2010-09-21,15001.0,50000.0
344,Exxon Mobil,Sold,2010-09-21,1001.0,15000.0
345,Frontegra Netols Small Cap Value,Purchased,2010-09-21,1001.0,15000.0
346,General Electric,Sold,2010-09-21,1001.0,15000.0
347,Hewlett-Packard,Sold,2010-09-21,1001.0,15000.0
348,Home Depot,Sold,2010-09-21,15001.0,50000.0
349,Johnson & Johnson,Sold,2010-09-21,1001.0,15000.0
350,Johnson & Johnson,Sold,2010-09-21,15001.0,50000.0
351,Leuthold Core Investment Fund,Sold,2010-09-21,15001.0,50000.0
352,Microsoft Corp,Sold,2010-09-21,1001.0,15000.0
353,Novartis AG,Sold,2010-09-21,1001.0,15000.0
354,Parker-Hannifin,Sold,2010-09-21,15001.0,50000.0
355,PepsiCo Inc,Sold,2010-09-21,1001.0,15000.0
356,Philip Morris International,Sold,2010-09-21,1001.0,15000.0
357,Philip Morris International,Sold,2010-09-21,1001.0,15000.0
358,Procter & Gamble,Sold,2010-09-21,1001.0,15000.0
359,Procter & Gamble,Sold,2010-09-21,1001.0,15000.0
360,Royal Dutch Shell,Sold,2010-09-21,1001.0,15000.0
361,S&P North American Tech Software Index,Sold,2010-09-21,1001.0,15000.0
362,Schlumberger Ltd,Sold,2010-09-21,1001.0,15000.0
363,Stericycle Inc,Sold,2010-09-21,1001.0,15000.0
364,Templeton Global Bond Fund,Purchased,2010-09-21,1001.0,15000.0
365,Tortoise Energy Infrastructure,Purchased,2010-09-21,15001.0,50000.0
366,Tortoise Energy Infrastructure,Purchased,2010-09-21,1001.0,15000.0
367,Union Pacific Corp,Sold,2010-09-21,15001.0,50000.0
368,Walthausen Small Cap Value Fund,Purchased,2010-09-21,1001.0,15000.0
369,Wisdomtree Intl Real Estate Index ETF,Purchased,2010-09-21,15001.0,50000.0
370,Wisdomtree Intl Real Estate Index ETF,Purchased,2010-09-21,15001.0,50000.0
371,YUM! Brands,Sold,2010-09-21,1001.0,15000.0
372,iShares MSCI Emerging Markets Index,Sold,2010-09-21,1001.0,15000.0
373,iShares MSCI Emerging Markets Index,Purchased,2010-09-21,15001.0,50000.0
374,Absolute Strategies Fund,Purchased,2010-09-22,50001.0,100000.0
375,Franklin International Small Cap Growth,Purchased,2010-09-22,50001.0,100000.0
376,Hussman Strategic Growth Fund,Purchased,2010-09-22,50001.0,100000.0
377,Absolute Strategies Fund,Purchased,2010-09-24,50001.0,100000.0
378,Franklin International Small Cap Growth,Purchased,2010-09-24,50001.0,100000.0
379,Hussman Strategic Growth Fund,Purchased,2010-09-24,50001.0,100000.0
380,First Eagle Gold Fund,Purchased,2010-09-29,100001.0,250000.0
381,US Treasury Note,Sold,2010-09-29,50001.0,100000.0
382,US Treasury Note,Sold,2010-10-01,15001.0,50000.0
383,3M Co,Purchased,2010-10-07,1001.0,15000.0
384,Abbott Laboratories,Sold,2010-10-07,1001.0,15000.0
385,Apache Corp,Sold,2010-10-07,1001.0,15000.0
386,Apple Inc,Sold,2010-10-07,1001.0,15000.0
387,Coca-Cola Co,Sold,2010-10-07,1001.0,15000.0
388,Emerson Electric,Sold,2010-10-07,1001.0,15000.0
389,Express Scripts,Sold,2010-10-07,1001.0,15000.0
390,Exxon Mobil,Sold,2010-10-07,1001.0,15000.0
391,General Electric,Sold,2010-10-07,1001.0,15000.0
392,Google Inc,Sold,2010-10-07,1001.0,15000.0
393,Hewlett-Packard,Sold,2010-10-07,1001.0,15000.0
394,Novartis AG,Sold,2010-10-07,1001.0,15000.0
395,Occidental Petroleum,Purchased,2010-10-07,1001.0,15000.0
396,Philip Morris International,Sold,2010-10-07,1001.0,15000.0
397,Procter & Gamble,Sold,2010-10-07,1001.0,15000.0
398,Royal Dutch Shell,Sold,2010-10-07,1001.0,15000.0
399,S&P North American Tech Software Index,Sold,2010-10-07,1001.0,15000.0
400,Schlumberger Ltd,Sold,2010-10-07,1001.0,15000.0
401,Vanguard Emerging Markets ETF,Purchased,2010-10-07,15001.0,50000.0
402,Wal-Mart Stores,Purchased,2010-10-07,1001.0,15000.0
403,Templeton Global Bond Fund,Purchased,2010-10-08,1001.0,15000.0
404,US Treasury Note,Sold,2010-11-01,50001.0,100000.0
405,TJX Companies,Purchased,2010-11-05,50001.0,100000.0
406,US Treasury Note,Sold,2010-11-09,50001.0,100000.0
407,Cisco Systems,Purchased,2010-11-11,50001.0,100000.0
408,US Treasury Note,Sold,2010-11-12,50001.0,100000.0
409,US Treasury Note,Sold,2010-11-15,50001.0,100000.0
410,Chevron Corp,Purchased,2010-11-29,50001.0,100000.0
411,Encana Corp,Sold,2010-11-29,50001.0,100000.0
412,Medtronic Inc,Sold,2010-12-16,100001.0,250000.0
413,Celgene Corp,Purchased,2010-12-17,50001.0,100000.0
414,Chicago Bridge & Iron,Sold,2011-01-20,15001.0,50000.0
415,Sysco Corp,Sold,2011-01-20,15001.0,50000.0
416,Varian Medical Systems,Sold,2011-01-20,1001.0,15000.0
417,Halliburton Hldg Co,Purchased,2011-02-25,15001.0,50000.0
418,McGraw-Hill Companies,Sold,2011-02-25,0.0,1000.0
419,Del Monte Foods,Exchanged,2011-03-09,0.0,1000.0
420,American Superconductor,Sold,2011-04-08,0.0,1000.0
421,General Electric,Sold,2011-04-25,15001.0,50000.0
422,US Treasury Note,Purchased,2011-04-26,50001.0,100000.0
423,Celgene Corp,Purchased,2011-07-21,1001.0,15000.0
424,Illinois Tool Works,Purchased,2011-07-26,15001.0,50000.0
425,Altria Group,Sold,2011-09-20,,
426,Analog Devices Inc,Purchased,2011-09-20,,
427,Exelon Corp,Sold,2011-09-20,,
428,Hewlett-Packard,Sold,2011-09-20,1001.0,15000.0
429,Philip Morris International,Sold,2011-09-20,,
430,Royal Dutch Shell,Sold,2011-09-20,,
431,Union Pacific Corp,Purchased,2011-09-20,1001.0,15000.0
432,Franklin Templeton Global Bond Fund,Purchased,2011-09-21,1001.0,15000.0
433,Princeton Futures Strategies Fund,Purchased,2011-09-21,50001.0,100000.0
434,Vanguard High Yield Corporate Bond Fund,Sold,2011-09-21,1001.0,15000.0
435,Halliburton Hldg Co,Sold,2011-10-17,15001.0,50000.0
436,Schlumberger Ltd,Purchased,2011-10-17,15001.0,50000.0
437,Pimco 1-5 year US TIPS Index ETF,Sold,2011-10-19,50001.0,100000.0
438,Pimco 1-5 year US TIPS Index ETF,Sold,2011-10-19,50001.0,100000.0
439,iShares Barclays 1-3 Yr Treasury Fund,Purchased,2011-10-20,50001.0,100000.0
440,iShares Barclays 1-3 Yr Treasury Fund,Purchased,2011-10-20,50001.0,100000.0
441,Illinois Tool Works,Purchased,2011-10-24,1001.0,15000.0
442,US Treasury Note,Sold,2011-10-25,1001.0,15000.0
443,AT&T Inc,Sold,2011-11-17,,
444,Colgate-Palmolive Co,Sold,2011-11-17,1001.0,15000.0
445,Diageo Plc,Sold,2011-11-17,,
446,Exxon Mobil,Sold,2011-11-17,,
447,JPMorgan Chase & Co,Sold,2011-11-17,,
448,JPMorgan Chase & Co,Sold,2011-11-17,,
449,Microsoft Corp,Sold,2011-11-17,,
450,Royal Dutch Shell,Sold,2011-11-17,,
451,Royal Dutch Shell,Sold,2011-11-17,1001.0,15000.0
452,S&P North American Tech Software Index,Sold,2011-11-17,,
453,Stericycle Inc,Sold,2011-11-17,1001.0,15000.0
454,US Bancorp,Sold,2011-11-17,,
455,US Bancorp,Sold,2011-11-17,1001.0,15000.0
456,iShares Barclays 1-3 Yr Treasury Fund,Sold,2011-11-17,15001.0,50000.0
457,iShares Barclays 1-3 yr Credit Bond ETF,Sold,2011-11-17,1001.0,15000.0
458,Franklin Templeton Global Bond Fund,Purchased,2011-11-18,1001.0,15000.0
459,Frontegra Netols Small Cap Value,Sold,2011-11-18,1001.0,15000.0
460,Vanguard High- Yield Corp Fund,Sold,2011-11-18,1001.0,15000.0
461,Walthausen Small Cap Value Fund,Sold,2011-11-18,1001.0,15000.0
462,Aspen Managed Futures Strategy Fund,Purchased,2011-11-23,50001.0,100000.0
463,Princeton Futures Strategies Fund,Purchased,2011-11-23,,
464,Aspen Managed Futures Strategy Fund,Purchased,2011-11-25,15001.0,50000.0
465,Princeton Futures Strategies Fund,Purchased,2011-11-25,15001.0,50000.0
466,US Treasury Note,Purchased,2011-11-29,50001.0,100000.0
467,Hospira Inc,Sold,2011-11-30,15001.0,50000.0
468,US Treasury Note,Sold,2011-11-30,50001.0,100000.0
469,Bank of New York Mellon,Sold,2011-12-08,15001.0,50000.0
470,Absolute Strategies Fund,Purchased,2011-12-14,,
471,Absolute Strategies Fund International,Purchased,2011-12-14,,
472,Franklin Intl Small Cap Growth ADV,Purchased,2011-12-19,,
473,Franklin Intl Small Cap Growth ADV,Purchased,2011-12-19,,
474,Franklin Templeton Global Bond Fund,Purchased,2011-12-20,,
475,Franklin Templeton Global Bond Fund,Purchased,2011-12-20,,
476,Bank of America,Sold,2011-12-28,0.0,1000.0
477,US Treasury Note,Purchased,2011-12-28,50001.0,100000.0
478,Walthausen Small Cap Value Fund,Purchased,2011-12-29,,
479,First Eagle Gold Fund,Purchased,2011-12-31,0.0,1000.0
480,Third Avenue Focused Fund,Purchased,2011-12-31,0.0,1000.0
481,Apple Inc,Purchased,2012-01-09,0.0,1000.0
482,Cisco Systems,Sold,2012-01-09,0.0,1000.0
483,Procter & Gamble,Sold,2012-01-09,1001.0,15000.0
484,Vanguard High Dividend Yield Index,Purchased,2012-01-09,0.0,1000.0
485,iShares Barclays 1-3 Yr Credit Bond Fund,Sold,2012-01-13,1001.0,15000.0
486,Prime Money Market Fund,Sold,2012-01-17,0.0,1000.0
487,Schwab Govt Money Market Fund,Purchased,2012-01-17,0.0,1000.0
488,Brocade Communications Systems,Sold,2012-01-23,0.0,1000.0
489,Medco Health Solutions,Sold,2012-01-23,50001.0,100000.0
490,First Eagle Gold Fund,Sold,2012-02-01,50001.0,100000.0
491,Newmont Mining,Purchased,2012-02-01,15001.0,50000.0
492,Spdr MSCI ACWI EX-US,Purchased,2012-02-14,0.0,1000.0
493,Treasury Note,Purchased,2012-02-29,50001.0,100000.0
494,Brookfield Asset Management Fund,Purchased,2012-03-21,15001.0,50000.0
495,Treasury Note,Sold,2012-03-21,50001.0,100000.0
496,Express Scripts,Exchanged,2012-04-03,,
497,Express Scripts,Sold,2012-04-03,0.0,1000.0
498,MedCo Health Solutions,Exchanged,2012-04-03,1001.0,15000.0
499,Motorola Mobility,Exchanged,2012-05-22,0.0,1000.0
500,VIMAC Ventures NKS7,Purchased,2012-06-19,0.0,1000.0
501,Procter & Gamble,Sold,2012-06-26,1001.0,15000.0
502,Vanguard High Dividend Yield Index,Purchased,2012-06-26,1001.0,15000.0
503,Allianz NFJ International Value Fund,Sold,2012-08-27,0.0,1000.0
504,Allianz NFJ International Value Fund,Sold,2012-08-27,1001.0,15000.0
505,Altria Group,Sold,2012-08-27,0.0,1000.0
506,Altria Group,Sold,2012-08-27,0.0,1000.0
507,Analog Devices Inc,Sold,2012-08-27,0.0,1000.0
508,Apple Inc,Sold,2012-08-27,1001.0,15000.0
509,Dreyfus International Bond,Purchased,2012-08-27,50001.0,100000.0
510,Expeditors International of Washington,Sold,2012-08-27,0.0,1000.0
511,Franklin International Small Cap Growth,Purchased,2012-08-27,0.0,1000.0
512,General Electric,Sold,2012-08-27,0.0,1000.0
513,Google Inc,Purchased,2012-08-27,1001.0,15000.0
514,Hewlett-Packard Co,Sold,2012-08-27,1001.0,15000.0
515,Home Depot,Sold,2012-08-27,1001.0,15000.0
516,Hussman Strategic Growth Fund,Sold,2012-08-27,50001.0,100000.0
517,Hussman Strategic Growth Fund,Sold,2012-08-27,50001.0,100000.0
518,Johnson & Johnson,Sold,2012-08-27,0.0,1000.0
519,Johnson & Johnson,Sold,2012-08-27,0.0,1000.0
520,Matthews Asia Growth & Income Fund,Purchased,2012-08-27,0.0,1000.0
521,Matthews Pacific Tiger Fund,Purchased,2012-08-27,0.0,1000.0
522,Merger Fund,Purchased,2012-08-27,1001.0,15000.0
523,Microsoft Corp,Sold,2012-08-27,1001.0,15000.0
524,Novartis AG,Sold,2012-08-27,0.0,1000.0
525,Oakmark International Fund,Sold,2012-08-27,0.0,1000.0
526,Oakmark International Fund,Sold,2012-08-27,0.0,1000.0
527,PepsiCo Inc,Sold,2012-08-27,1001.0,15000.0
528,Philip Morris International,Sold,2012-08-27,1001.0,15000.0
529,Philip Morris International,Sold,2012-08-27,0.0,1000.0
530,Procter & Gamble,Sold,2012-08-27,0.0,1000.0
531,Public Storage Inc,Sold,2012-08-27,1001.0,15000.0
532,Pyxis Long-Short Equity Fund,Purchased,2012-08-27,15001.0,50000.0
533,Pyxis Long-Short Equity Fund,Purchased,2012-08-27,15001.0,50000.0
534,Royal Dutch Shell,Sold,2012-08-27,0.0,1000.0
535,Royal Dutch Shell,Sold,2012-08-27,1001.0,15000.0
536,SPDR Gold Trust ETF,Purchased,2012-08-27,1001.0,15000.0
537,SPDR Gold Trust ETF,Purchased,2012-08-27,15001.0,50000.0
538,State Street Corp,Sold,2012-08-27,0.0,1000.0
539,Stericycle Inc,Sold,2012-08-27,0.0,1000.0
540,Thomas White International Fund,Sold,2012-08-27,0.0,1000.0
541,Thomas White International Fund,Sold,2012-08-27,1001.0,15000.0
542,Thornburg International Value Fund,Sold,2012-08-27,0.0,1000.0
543,Vanguard FTSE Emerging Markets ETF,Sold,2012-08-27,0.0,1000.0
544,Vanguard REIT Index,Purchased,2012-08-27,1001.0,15000.0
545,Vanguard REIT Index,Purchased,2012-08-27,1001.0,15000.0
546,Wal-Mart Stores,Sold,2012-08-27,0.0,1000.0
547,YUM! Brands,Sold,2012-08-27,0.0,1000.0
548,iShares Barclays 1-3 Yr Credit Bond Fund,Sold,2012-08-27,1001.0,15000.0
549,iShares MSCI Emerging Markets Index,Sold,2012-08-27,0.0,1000.0
550,Treasury Note,Purchased,2012-08-30,50001.0,100000.0
551,Dreyfus International Bond,Purchased,2012-08-31,50001.0,100000.0
552,Treasury Note,Sold,2012-08-31,50001.0,100000.0
553,iShares Barclays 1-3 Yr Credit Bond Fund,Sold,2012-09-25,50001.0,100000.0
554,iShares Barclays 1-3 Yr Credit Bond Fund,Sold,2012-09-25,50001.0,100000.0
555,Pimco Enhanced Short Term Maturity ETF,Purchased,2012-09-26,0.0,1000.0
556,Pimco Enhanced Short Term Maturity ETF,Purchased,2012-09-26,50001.0,100000.0
557,Procter & Gamble,Sold,2012-10-01,250001.0,500000.0
558,Apple Inc,Sold,2012-10-02,0.0,1000.0
559,Express Scripts,Sold,2012-10-02,1001.0,15000.0
560,Intel Corp,Sold,2012-10-02,0.0,1000.0
561,Merck & Co,Sold,2012-10-02,50001.0,100000.0
562,Microsoft Corp,Sold,2012-10-02,0.0,1000.0
563,Noble Corp,Sold,2012-10-02,0.0,1000.0
564,Pfizer Inc,Sold,2012-10-02,1001.0,15000.0
565,Procter & Gamble,Sold,2012-10-02,250001.0,500000.0
566,Treasury Note,Sold,2012-10-09,100001.0,250000.0
567,ABB Ltd,Sold,2012-10-23,50001.0,100000.0
568,FedEx Corp,Purchased,2012-12-05,15001.0,50000.0
569,Newmont Mining,Sold,2012-12-07,15001.0,50000.0
570,Matthews Pacific Tiger Fund,Purchased,2012-12-14,0.0,1000.0
571,Pyxis Long-Short Equity Fund,Purchased,2012-12-18,0.0,1000.0
572,Pyxis Long-Short Equity Fund,Purchased,2012-12-18,0.0,1000.0
573,Treasury Note,Sold,2012-12-18,100001.0,250000.0
574,Franklin International Small Cap Growth,Purchased,2012-12-19,0.0,1000.0
575,Franklin International Small Cap Growth,Purchased,2012-12-19,0.0,1000.0
576,Templeton Global Bond Fund,Purchased,2012-12-19,0.0,1000.0
577,Templeton Global Bond Fund,Purchased,2012-12-19,0.0,1000.0
578,Frontegra Netols Small Cap Value,Purchased,2012-12-21,0.0,1000.0
579,Walthausen Small Cap Value Fund,Purchased,2012-12-26,0.0,1000.0
580,Princeton Futures Strategy Fund I,Purchased,2012-12-27,0.0,1000.0
581,Princeton Futures Strategy Fund I,Purchased,2012-12-27,,
582,Abbott Laboratories,Sold,2012-12-28,0.0,1000.0
583,Allianz NFJ International Value Fund,Purchased,2012-12-28,0.0,1000.0
584,Altria Group,Sold,2012-12-28,0.0,1000.0
585,Dreyfus International Bond,Purchased,2012-12-28,0.0,1000.0
586,Dreyfus International Bond,Purchased,2012-12-28,0.0,1000.0
587,Express Scripts,Sold,2012-12-28,0.0,1000.0
588,Franklin International Small Cap Growth,Purchased,2012-12-28,1001.0,15000.0
589,Matthews Asia Growth & Income Fund,Purchased,2012-12-28,0.0,1000.0
590,Matthews Pacific Tiger Fund,Purchased,2012-12-28,0.0,1000.0
591,Novartis AG,Sold,2012-12-28,0.0,1000.0
592,Philip Morris International,Sold,2012-12-28,0.0,1000.0
593,Procter & Gamble,Sold,2012-12-28,0.0,1000.0
594,Royal Dutch Shell,Sold,2012-12-28,0.0,1000.0
595,Templeton Global Bond Fund,Purchased,2012-12-28,1001.0,15000.0
596,Thomas White International Fund,Purchased,2012-12-28,0.0,1000.0
597,Thornburg International Value Fund,Sold,2012-12-28,1001.0,15000.0
598,Tortoise MLP Fund,Purchased,2012-12-28,15001.0,50000.0
599,Vanguard REIT Index,Purchased,2012-12-28,1001.0,15000.0
600,Walthausen Small Cap Value Fund,Sold,2012-12-28,0.0,1000.0
601,iShares MSCI Emerging Markets Index,Sold,2012-12-28,1001.0,15000.0
602,Hussman Strategic Growth Fund,Sold,2012-12-31,15001.0,50000.0
603,Merger Fund,Purchased,2012-12-31,,
604,Abbvie Inc,Exchanged,2013-01-03,1001.0,15000.0
605,Abbvie Inc,Exchanged,2013-01-04,1001.0,15000.0
606,Abbvie Inc,Exchanged,2013-01-04,1001.0,15000.0
607,Apple Inc,Purchased,2013-01-09,15001.0,50000.0
608,Cisco Systems,Sold,2013-01-09,15001.0,50000.0
609,Apple Inc,Purchased,2013-02-12,1001.0,15000.0
610,HJ Heinz Co,Sold,2013-02-15,1001.0,15000.0
611,McGraw-Hill Companies,Sold,2013-02-21,15001.0,50000.0
612,Absolute Strategies Fund,Sold,2013-04-08,1001.0,15000.0
613,Altria Group,Sold,2013-04-08,1001.0,15000.0
614,Apache Corp,Sold,2013-04-08,1001.0,15000.0
615,Apple Inc,Purchased,2013-04-08,1001.0,15000.0
616,Coca-Cola Co,Sold,2013-04-08,1001.0,15000.0
617,Dollar Tree Inc,Purchased,2013-04-08,1001.0,15000.0
618,Dover Corp,Purchased,2013-04-08,1001.0,15000.0
619,Emerson Electric,Sold,2013-04-08,1001.0,15000.0
620,Exelon Corp,Sold,2013-04-08,1001.0,15000.0
621,Guggenheim S&P Global Water Index,Purchased,2013-04-08,1001.0,15000.0
622,Home Depot,Sold,2013-04-08,1001.0,15000.0
623,Johnson & Johnson,Sold,2013-04-08,1001.0,15000.0
624,Microsoft Corp,Sold,2013-04-08,1001.0,15000.0
625,Phillip Morris International Inc,Sold,2013-04-08,1001.0,15000.0
626,State Street Corp,Sold,2013-04-08,1001.0,15000.0
627,Allianz NFJ International Value Fund,Purchased,2013-04-09,1001.0,15000.0
628,Franklin Int'l Small Cap Growth ADV,Purchased,2013-04-09,15001.0,50000.0
629,Highland Long Short Equity Fund,Purchased,2013-04-09,1001.0,15000.0
630,Hussman Strategic Growth Fund,Sold,2013-04-09,15001.0,50000.0
631,Mainstay Marketfield Fund,Purchased,2013-04-09,50001.0,100000.0
632,Matthews Pacific Tiger Fund,Purchased,2013-04-09,1001.0,15000.0
633,Merger Fund,Purchased,2013-04-09,1001.0,15000.0
634,Thomas White International Fund,Purchased,2013-04-09,1001.0,15000.0
635,Thornburg International Value Fund,Sold,2013-04-09,50001.0,100000.0
636,Brookfield Property Partners LP,Exchanged,2013-04-15,15001.0,50000.0
637,US T-Notes,Purchased,2013-04-29,50001.0,100000.0
638,Qualcomm Inc,Purchased,2013-04-30,15001.0,50000.0
639,US T-Notes,Sold,2013-05-01,15001.0,50000.0
640,Brookfield Property Partners LP,Sold,2013-05-28,1001.0,15000.0
641,US T-Notes,Purchased,2013-06-21,15001.0,50000.0
642,iShares MSCI Emerging Markets Index,Sold,2013-06-21,15001.0,50000.0
643,Aberdeen Global High Income Fund,Purchased,2013-07-12,1001.0,15000.0
644,DWS Floating Rate Fund,Purchased,2013-07-12,1001.0,15000.0
645,Procter & Gamble,Sold,2013-07-12,1001.0,15000.0
646,Deere & Co,Purchased,2013-07-31,50001.0,100000.0
647,US T-Notes,Sold,2013-07-31,50001.0,100000.0
648,Allianz NFJ International Value Fund,Sold,2013-08-07,1001.0,15000.0
649,Allianz NFJ International Value Fund,Sold,2013-08-07,1001.0,15000.0
650,Apple Inc,Sold,2013-08-07,1001.0,15000.0
651,Aspen Managed Futures Strategy Fund,Sold,2013-08-07,1001.0,15000.0
652,Aspen Managed Futures Strategy Fund,Sold,2013-08-07,1001.0,15000.0
653,Buffalo International Fund,Purchased,2013-08-07,50001.0,100000.0
654,Buffalo International Fund,Purchased,2013-08-07,50001.0,100000.0
655,CVS/Caremark Corp,Purchased,2013-08-07,1001.0,15000.0
656,Diamond Hill Large Cap Fund,Purchased,2013-08-07,1001.0,15000.0
657,Dreyfus International Bond Fund,Sold,2013-08-07,15001.0,50000.0
658,Dreyfus International Bond Fund,Sold,2013-08-07,15001.0,50000.0
659,Franklin Int'l Small Cap Growth ADV,Purchased,2013-08-07,1001.0,15000.0
660,Frontegra Netols Small Cap Value,Sold,2013-08-07,1001.0,15000.0
661,Lateef Fund,Purchased,2013-08-07,1001.0,15000.0
662,Mainstay Marketfield Fund,Purchased,2013-08-07,50001.0,100000.0
663,Mainstay Marketfield Fund,Purchased,2013-08-07,1001.0,15000.0
664,Mt Lucas US Focused Equity Fund I,Purchased,2013-08-07,1001.0,15000.0
665,Princeton Futures Strategy Fund,Sold,2013-08-07,15001.0,50000.0
666,Princeton Futures Strategy Fund,Sold,2013-08-07,1001.0,15000.0
667,Roper Industries,Purchased,2013-08-07,0.0,1000.0
668,Royal Dutch Shell,Sold,2013-08-07,1001.0,15000.0
669,Royal Dutch Shell,Sold,2013-08-07,1001.0,15000.0
670,State Street Corp,Sold,2013-08-07,1001.0,15000.0
671,Templeton Global Bond Fund,Purchased,2013-08-07,15001.0,50000.0
672,Templeton Global Bond Fund,Purchased,2013-08-07,1001.0,15000.0
673,Thomas White International Fund,Sold,2013-08-07,1001.0,15000.0
674,Thomas White International Fund,Sold,2013-08-07,1001.0,15000.0
675,Vanguard Short Term Tax Exempt Fund,Sold,2013-08-07,1001.0,15000.0
676,Vulcan Value Partners Small Cap,Purchased,2013-08-07,1001.0,15000.0
677,Wal-Mart Stores,Sold,2013-08-07,1001.0,15000.0
678,Thornburg International Value Fund,Sold,2013-08-08,15001.0,50000.0
679,Sussex Cty NJ-Cty College Bond,Sold,2013-09-03,15001.0,50000.0
680,Aberdeen Global High Income Fund,Sold,2013-11-15,1001.0,15000.0
681,Apple Inc,Sold,2013-11-15,1001.0,15000.0
682,DWS Floating Rate Fund,Sold,2013-11-15,1001.0,15000.0
683,Express Scripts,Sold,2013-11-15,1001.0,15000.0
684,General Electric,Sold,2013-11-15,1001.0,15000.0
685,Intel Corp,Sold,2013-11-15,1001.0,15000.0
686,Merck & Co,Sold,2013-11-15,1001.0,15000.0
687,Microsoft Corp,Sold,2013-11-15,1001.0,15000.0
688,Noble Corp,Sold,2013-11-15,1001.0,15000.0
689,Pfizer Inc,Sold,2013-11-15,1001.0,15000.0
690,Procter & Gamble,Sold,2013-11-15,15001.0,50000.0
691,S&P SPDR Trust Shares,Sold,2013-11-15,50001.0,100000.0
692,Vanguard High Dividend Yield Index,Sold,2013-11-15,15001.0,50000.0
693,iShares MSCI EAFE Fund,Sold,2013-11-15,1001.0,15000.0
694,Leuthold Asset Allocation Fund,Purchased,2013-11-29,1001.0,15000.0
695,Deutsche Bank Trust Co Tax Free Income,Sold,2013-11-30,50001.0,100000.0
696,US T-Notes,Sold,2013-12-02,1001.0,15000.0
697,Vulcan Value Partners Small Cap,Purchased,2013-12-03,1001.0,15000.0
698,Absolute Strategies Fund,Sold,2013-12-05,15001.0,50000.0
699,Allianz NFJ International Value Fund,Purchased,2013-12-05,1001.0,15000.0
700,Allianz NFJ International Value Fund,Purchased,2013-12-05,1001.0,15000.0
701,Buffalo International Fund,Purchased,2013-12-05,1001.0,15000.0
702,Buffalo International Fund,Purchased,2013-12-05,1001.0,15000.0
703,Franklin Int'l Small Cap Growth ADV,Purchased,2013-12-05,1001.0,15000.0
704,Franklin Int'l Small Cap Growth ADV,Purchased,2013-12-05,1001.0,15000.0
705,Matthews Asian Growth & Income,Purchased,2013-12-05,15001.0,50000.0
706,Matthews Pacific Tiger Fund,Purchased,2013-12-05,15001.0,50000.0
707,Pimco Enhanced Short Term Maturity ETF,Sold,2013-12-05,1001.0,15000.0
708,SPDR Gold Trust ETF,Sold,2013-12-05,1001.0,15000.0
709,Absolute Strategies Fund,Sold,2013-12-06,15001.0,50000.0
710,Leuthold Asset Allocation Fund,Sold,2013-12-06,1001.0,15000.0
711,Princeton Futures Strategy Fund,Sold,2013-12-06,1001.0,15000.0
712,Princeton Futures Strategy Fund,Sold,2013-12-06,1001.0,15000.0
713,Lateef Fund,Purchased,2013-12-11,1001.0,15000.0
714,Matthews Asian Growth & Income,Purchased,2013-12-13,0.0,1000.0
715,Matthews Pacific Tiger Fund,Purchased,2013-12-13,0.0,1000.0
716,Templeton Global Bond Fund,Purchased,2013-12-17,1001.0,15000.0
717,Templeton Global Bond Fund,Purchased,2013-12-17,15001.0,50000.0
718,Diamond Hill Large Cap Fund,Purchased,2013-12-18,1001.0,15000.0
719,Dreyfus International Bond Fund,Sold,2013-12-18,1001.0,15000.0
720,Dreyfus International Bond Fund,Sold,2013-12-18,15001.0,50000.0
721,Templeton Global Bond Fund,Purchased,2013-12-18,0.0,1000.0
722,Franklin Int'l Small Cap Growth ADV,Purchased,2013-12-19,1001.0,15000.0
723,Franklin Int'l Small Cap Growth ADV,Purchased,2013-12-19,1001.0,15000.0
724,Oakmark International Fund,Purchased,2013-12-20,0.0,1000.0
725,SPDR Gold Trust ETF,Sold,2013-12-20,50001.0,100000.0
726,SPDR Gold Trust ETF,Sold,2013-12-20,1001.0,15000.0
727,Aspen Managed Futures Strategy Fund,Purchased,2013-12-23,1001.0,15000.0
728,Aspen Managed Futures Strategy Fund,Purchased,2013-12-23,0.0,1000.0
729,Frontegra Netols Small Cap Value,Purchased,2013-12-23,1001.0,15000.0
730,Highland Long Short Equity Fund,Purchased,2013-12-26,1001.0,15000.0
731,Highland Long Short Equity Fund,Purchased,2013-12-26,1001.0,15000.0
732,Walthausen Small Cap Value Fund,Purchased,2013-12-26,1001.0,15000.0
733,Mt Lucas US Focused Equity Fund I,Purchased,2013-12-31,1001.0,15000.0
734,Google Inc,Sold,2014-01-03,1001.0,15000.0
735,US Treasury Note,Sold,2014-01-03,15001.0,50000.0
736,XPO Logistics,Purchased,2014-01-03,50001.0,100000.0
737,Knowles Corp (spin-off from Dover Corp),Exchanged,2014-03-06,0.0,1000.0
738,Google Inc,Exchanged,2014-04-03,1001.0,15000.0
739,Google Inc,Exchanged,2014-04-03,0.0,1000.0
740,Google Inc,Exchanged,2014-04-03,1001.0,15000.0
741,Prime Cap Odyssey Aggressive Fund,Purchased,2014-04-03,0.0,1000.0
742,Spdr MSCI ACWI EX-US,Sold,2014-04-03,0.0,1000.0
743,NOW Inc,Exchanged,2014-06-06,0.0,1000.0
744,Deere & Co,Sold,2014-06-27,50001.0,100000.0
745,Carmax Inc,Purchased,2014-07-08,50001.0,100000.0
746,Qualcomm Inc,Sold,2014-07-28,50001.0,100000.0
747,Altria Group,Sold,2014-08-05,0.0,1000.0
748,Coca-Cola Co,Sold,2014-08-05,0.0,1000.0
749,Coca-Cola Co,Sold,2014-08-05,0.0,1000.0
750,Emerson Electric,Sold,2014-08-05,0.0,1000.0
751,IBM Corp,Sold,2014-08-05,15001.0,50000.0
752,Knowles Corp,Sold,2014-08-05,0.0,1000.0
753,Parker-Hannifin,Sold,2014-08-05,0.0,1000.0
754,Philip Morris International,Sold,2014-08-05,0.0,1000.0
755,Procter & Gamble,Sold,2014-08-05,0.0,1000.0
756,Roper Industries,Sold,2014-08-05,1001.0,15000.0
757,State Street Corp,Sold,2014-08-05,0.0,1000.0
758,Vanguard MSCI Emerg Markets Index ETF,Sold,2014-08-05,0.0,1000.0
759,iShares MSCI Emerg Market Index Fund,Sold,2014-08-05,50001.0,100000.0
760,iShares MSCI Emerg Market Index Fund,Sold,2014-08-05,15001.0,50000.0
761,Acadian Emerging Markets Portfolio,Purchased,2014-08-06,50001.0,100000.0
762,Acadian Emerging Markets Portfolio,Purchased,2014-08-06,50001.0,100000.0
763,Driehaus Emerging Markets Small Cap,Purchased,2014-08-06,50001.0,100000.0
764,Matthews Asian Growth & Income,Sold,2014-08-06,15001.0,50000.0
765,Templeton Global Bond Fund,Sold,2014-08-06,1001.0,15000.0
766,Templeton Global Bond Fund,Sold,2014-08-06,1001.0,15000.0
767,Walthausen Small Cap Value Fund,Sold,2014-08-06,0.0,1000.0
768,Driehaus Emerging Markets Small Cap,Purchased,2014-08-11,50001.0,100000.0
769,Matthews Pacific Tiger Fund,Purchased,2014-08-11,15001.0,50000.0
770,Brookfield Asset Management,Sold,2014-08-13,50001.0,100000.0
771,Apple Inc,Sold,2014-09-09,1001.0,15000.0
772,Carmax Inc,Purchased,2014-10-02,50001.0,100000.0
773,Denbury Resources,Sold,2014-10-02,50001.0,100000.0
774,Vanguard Natural Resources,Sold,2014-10-02,50001.0,100000.0
775,Thomas White International Fund,Purchased,2014-10-28,0.0,1000.0
776,Thomas White International Fund,Purchased,2014-10-28,0.0,1000.0
777,Cbs Corp,Purchased,2014-11-18,50001.0,100000.0
778,Cognizant Technology Solutions,Purchased,2014-11-18,50001.0,100000.0
779,Highland Long Short Equity Fund,Purchased,2014-12-03,0.0,1000.0
780,Highland Long Short Equity Fund,Purchased,2014-12-03,0.0,1000.0
781,Vulcan Value Partners Small Cap,Purchased,2014-12-03,0.0,1000.0
782,California Resources Corp,Exchanged,2014-12-05,1001.0,15000.0
783,LATEEF Fund,Purchased,2014-12-10,0.0,1000.0
784,Mt Lucas US Focused Equity Fund I,Purchased,2014-12-10,0.0,1000.0
785,Matthews Pacific Fund,Purchased,2014-12-12,0.0,1000.0
786,Matthews Pacific Tiger Fund,Purchased,2014-12-12,0.0,1000.0
787,Franklin Int'l Small Cap Growth ADV,Purchased,2014-12-17,1001.0,15000.0
788,Franklin Int'l Small Cap Growth ADV,Purchased,2014-12-17,1001.0,15000.0
789,Templeton Global Bond Fund,Purchased,2014-12-17,0.0,1000.0
790,Templeton Global Bond Fund,Purchased,2014-12-17,1001.0,15000.0
791,Diamond Hill Large Cap Fund,Purchased,2014-12-18,0.0,1000.0
792,Oakmark International Fund,Purchased,2014-12-19,0.0,1000.0
793,Oakmark International Fund,Purchased,2014-12-19,0.0,1000.0
794,Aspen Managed Futures Strategy Fund,Purchased,2014-12-22,0.0,1000.0
795,Aspen Managed Futures Strategy Fund,Purchased,2014-12-22,0.0,1000.0
796,Frontier Netols Small Cap Value Fund,Purchased,2014-12-24,0.0,1000.0
797,Walthausen Small Cap Value Fund,Purchased,2014-12-24,0.0,1000.0
