,orgname,action,date1,minvalue,maxvalue
0,Columbia Acorn Z Illinois Deferred Compensation,Sold,2014-11-11,15001.0,50000.0
1,Fidelity Puritan Fund Illinois Deferred Compensati,Sold,2014-11-11,15001.0,50000.0
2,Illinois Deferred Compensation Plan,Purchased,2014-11-11,50001.0,100000.0
3,Invesco International Growth Fund Illinois Deferre,Sold,2014-11-11,1001.0,15000.0
4,Lord Abbot LGCP Core Strategy illinois Deferred Co,Sold,2014-11-11,1001.0,15000.0
5,T Rowe Price Retirement Fund 2035,Exchanged,2017-04-03,,
6,T Rowe Price Retirement Fund 2035,Sold,2017-04-03,50001.0,100000.0
7,T Rowe Price Retirement Fund 2035,Sold,2017-04-03,50001.0,100000.0
8,Vanguard Target Retirement 2035 Fund,Sold,2017-04-03,,
9,Vanguard Target Retirement 2035 Fund,Purchased,2017-04-03,50001.0,100000.0
10,Vanguard Target Retirement 2035 Fund,Purchased,2017-04-03,50001.0,100000.0
11,MONY Life Insurance,Exchanged,2018-01-10,,
12,MONY Life Insurance,Sold,2018-01-10,1001.0,15000.0
13,MONY Life Insurance,Sold,2018-01-10,1001.0,15000.0
14,MONY Life Insurance,Exchanged,2018-03-09,,
15,MONY Life Insurance,Sold,2018-03-09,15001.0,50000.0
16,MONY Life Insurance,Sold,2018-03-09,15001.0,50000.0
