,orgname,action,date1,minvalue,maxvalue
0,MFS Utilities Fund,Sold,2017-04-03,1001.0,15000.0
1,MFS Utilities Fund,Exchanged,2017-04-03,,
2,MFS Utilities Fund,Sold,2017-04-03,1001.0,15000.0
3,Metro West Unconstr Bd Fund,Purchased,2017-04-03,1001.0,15000.0
4,Metro West Unconstr Bd Fund,Sold,2017-04-03,,
5,Metro West Unconstr Bd Fund,Sold,2017-04-03,,
6,Metro West Unconstr Bd Fund,Purchased,2017-04-03,1001.0,15000.0
7,Metro West Unconstr Bd Fund,Purchased,2017-04-03,1001.0,15000.0
8,Metro West Unconstr Bd Fund,Purchased,2017-04-03,1001.0,15000.0
9,Vanguard Short Term Inv Gr Fund,Purchased,2017-04-03,1001.0,15000.0
10,Vanguard Short Term Inv Gr Fund,Sold,2017-04-03,,
11,Vanguard Short Term Inv Gr Fund,Sold,2017-04-03,,
12,Vanguard Short Term Inv Gr Fund,Purchased,2017-04-03,1001.0,15000.0
13,Vanguard Short Term Inv Gr Fund,Purchased,2017-04-03,1001.0,15000.0
14,Vanguard Short Term Inv Gr Fund,Purchased,2017-04-03,1001.0,15000.0
15,Clearbridge Aggressive Growth Fund,Exchanged,2017-05-23,,
16,Clearbridge Aggressive Growth Fund,Sold,2017-05-23,1001.0,15000.0
17,Clearbridge Aggressive Growth Fund,Sold,2017-05-23,1001.0,15000.0
18,Clearbridge Appreciation Fund,Sold,2017-09-07,1001.0,15000.0
19,Clearbridge Appreciation Fund,Sold,2017-09-07,1001.0,15000.0
20,Clearbridge Appreciation Fund,Exchanged,2017-09-07,,
