,orgname,action,date1,minvalue,maxvalue
0,American Beacon Sim High Yld Opps Inst,Exchanged,2017-01-03,,
1,American Beacon Sim High Yld Opps Inst,Sold,2017-01-03,1001.0,15000.0
2,American Beacon Sim High Yld Opps Inst,Exchanged,2017-01-03,,
3,American Beacon Sim High Yld Opps Inst,Sold,2017-01-03,1001.0,15000.0
4,American Beacon Sim High Yld Opps Inst,Sold,2017-01-03,1001.0,15000.0
5,American Beacon Sim High Yld Opps Inst,Sold,2017-01-03,1001.0,15000.0
6,Angel Oak Multi-Strategy Inc Inst,Sold,2017-01-03,1001.0,15000.0
7,Angel Oak Multi-Strategy Inc Inst,Sold,2017-01-03,1001.0,15000.0
8,Angel Oak Multi-Strategy Inc Inst,Sold,2017-01-03,1001.0,15000.0
9,Angel Oak Multi-Strategy Inc Inst,Exchanged,2017-01-03,,
10,Angel Oak Multi-Strategy Inc Inst,Sold,2017-01-03,1001.0,15000.0
11,Angel Oak Multi-Strategy Inc Inst,Exchanged,2017-01-03,,
12,Aqr Multi Strgy Alt Cl I,Exchanged,2017-01-03,,
13,Aqr Multi Strgy Alt Cl I,Exchanged,2017-01-03,,
14,Aqr Multi Strgy Alt Cl I,Sold,2017-01-03,15001.0,50000.0
15,Aqr Multi Strgy Alt Cl I,Sold,2017-01-03,15001.0,50000.0
16,Aqr Multi Strgy Alt Cl I,Sold,2017-01-03,15001.0,50000.0
17,Aqr Multi Strgy Alt Cl I,Sold,2017-01-03,15001.0,50000.0
18,Aqr Multi Strgy Alternative CL I,Sold,2017-01-03,1001.0,15000.0
19,Aqr Multi Strgy Alternative CL I,Sold,2017-01-03,1001.0,15000.0
20,Aqr Multi Strgy Alternative CL I,Sold,2017-01-03,1001.0,15000.0
21,Aqr Multi Strgy Alternative CL I,Sold,2017-01-03,1001.0,15000.0
22,Aqr Multi Strgy Alternative CL I,Exchanged,2017-01-03,,
23,Aqr Multi Strgy Alternative CL I,Exchanged,2017-01-03,,
24,Baird FundS Inc Short Trm Bd I,Exchanged,2017-01-03,,
25,Baird FundS Inc Short Trm Bd I,Exchanged,2017-01-03,,
26,Baird FundS Inc Short Trm Bd I,Sold,2017-01-03,15001.0,50000.0
27,Baird FundS Inc Short Trm Bd I,Sold,2017-01-03,15001.0,50000.0
28,Baird FundS Inc Short Trm Bd I,Sold,2017-01-03,15001.0,50000.0
29,Baird FundS Inc Short Trm Bd I,Sold,2017-01-03,15001.0,50000.0
30,Baird FundS Inc Shrt Trm Bd I,Sold,2017-01-03,1001.0,15000.0
31,Baird FundS Inc Shrt Trm Bd I,Sold,2017-01-03,1001.0,15000.0
32,Baird FundS Inc Shrt Trm Bd I,Sold,2017-01-03,1001.0,15000.0
33,Baird FundS Inc Shrt Trm Bd I,Sold,2017-01-03,1001.0,15000.0
34,Baird FundS Inc Shrt Trm Bd I,Exchanged,2017-01-03,,
35,Baird FundS Inc Shrt Trm Bd I,Exchanged,2017-01-03,,
36,Baird Intermediate Muni Bond Cl I,Exchanged,2017-01-03,,
37,Baird Intermediate Muni Bond Cl I,Exchanged,2017-01-03,,
38,Baird Intermediate Muni Bond Cl I,Exchanged,2017-01-03,,
39,Baird Intermediate Muni Bond Cl I,Sold,2017-01-03,1001.0,15000.0
40,Baird Intermediate Muni Bond Cl I,Exchanged,2017-01-03,,
41,Baird Intermediate Muni Bond Cl I,Sold,2017-01-03,15001.0,50000.0
42,Baird Intermediate Muni Bond Cl I,Sold,2017-01-03,15001.0,50000.0
43,Baird Intermediate Muni Bond Cl I,Sold,2017-01-03,1001.0,15000.0
44,Baird Intermediate Muni Bond Cl I,Sold,2017-01-03,1001.0,15000.0
45,Baird Intermediate Muni Bond Cl I,Sold,2017-01-03,15001.0,50000.0
46,Baird Intermediate Muni Bond Cl I,Sold,2017-01-03,15001.0,50000.0
47,Baird Intermediate Muni Bond Cl I,Sold,2017-01-03,1001.0,15000.0
48,DFA Emerg Markets Core Equity Portfolio,Exchanged,2017-01-03,,
49,DFA Emerg Markets Core Equity Portfolio,Exchanged,2017-01-03,,
50,DFA Emerg Markets Core Equity Portfolio,Exchanged,2017-01-03,,
51,DFA Emerg Markets Core Equity Portfolio,Exchanged,2017-01-03,,
52,DFA Emerg Markets Core Equity Portfolio,Sold,2017-01-03,1001.0,15000.0
53,DFA Emerg Markets Core Equity Portfolio,Sold,2017-01-03,1001.0,15000.0
54,DFA Emerg Markets Core Equity Portfolio,Sold,2017-01-03,1001.0,15000.0
55,DFA Emerg Markets Core Equity Portfolio,Sold,2017-01-03,1001.0,15000.0
56,DFA Emerg Markets Core Equity Portfolio,Sold,2017-01-03,1001.0,15000.0
57,DFA Emerg Markets Core Equity Portfolio,Sold,2017-01-03,1001.0,15000.0
58,DFA Emerg Markets Core Equity Portfolio,Sold,2017-01-03,1001.0,15000.0
59,DFA Emerg Markets Core Equity Portfolio,Sold,2017-01-03,1001.0,15000.0
60,DFA Emerging Markets Core Equity Portfolio,Sold,2017-01-03,1001.0,15000.0
61,DFA Emerging Markets Core Equity Portfolio,Sold,2017-01-03,1001.0,15000.0
62,DFA Emerging Markets Core Equity Portfolio,Sold,2017-01-03,1001.0,15000.0
63,DFA Emerging Markets Core Equity Portfolio,Sold,2017-01-03,1001.0,15000.0
64,DFA Emerging Markets Core Equity Portfolio,Exchanged,2017-01-03,,
65,DFA Emerging Markets Core Equity Portfolio,Exchanged,2017-01-03,,
66,DFA Emerging Mkts Core Equity Portfolio,Exchanged,2017-01-03,,
67,DFA Emerging Mkts Core Equity Portfolio,Exchanged,2017-01-03,,
68,DFA Emerging Mkts Core Equity Portfolio,Sold,2017-01-03,1001.0,15000.0
69,DFA Emerging Mkts Core Equity Portfolio,Sold,2017-01-03,1001.0,15000.0
70,DFA Emerging Mkts Core Equity Portfolio,Sold,2017-01-03,1001.0,15000.0
71,DFA Emerging Mkts Core Equity Portfolio,Sold,2017-01-03,1001.0,15000.0
72,DFA International Small Co Portfolio,Exchanged,2017-01-03,,
73,DFA International Small Co Portfolio,Exchanged,2017-01-03,,
74,DFA International Small Co Portfolio,Exchanged,2017-01-03,,
75,DFA International Small Co Portfolio,Exchanged,2017-01-03,,
76,DFA International Small Co Portfolio,Exchanged,2017-01-03,,
77,DFA International Small Co Portfolio,Exchanged,2017-01-03,,
78,DFA International Small Co Portfolio,Exchanged,2017-01-03,,
79,DFA International Small Co Portfolio,Exchanged,2017-01-03,,
80,DFA International Small Co Portfolio,Sold,2017-01-03,1001.0,15000.0
81,DFA International Small Co Portfolio,Sold,2017-01-03,1001.0,15000.0
82,DFA International Small Co Portfolio,Sold,2017-01-03,1001.0,15000.0
83,DFA International Small Co Portfolio,Sold,2017-01-03,1001.0,15000.0
84,DFA International Small Co Portfolio,Sold,2017-01-03,1001.0,15000.0
85,DFA International Small Co Portfolio,Sold,2017-01-03,1001.0,15000.0
86,DFA International Small Co Portfolio,Sold,2017-01-03,15001.0,50000.0
87,DFA International Small Co Portfolio,Sold,2017-01-03,15001.0,50000.0
88,DFA International Small Co Portfolio,Sold,2017-01-03,1001.0,15000.0
89,DFA International Small Co Portfolio,Sold,2017-01-03,15001.0,50000.0
90,DFA International Small Co Portfolio,Sold,2017-01-03,1001.0,15000.0
91,DFA International Small Co Portfolio,Sold,2017-01-03,1001.0,15000.0
92,DFA International Small Co Portfolio,Sold,2017-01-03,1001.0,15000.0
93,DFA International Small Co Portfolio,Sold,2017-01-03,1001.0,15000.0
94,DFA International Small Co Portfolio,Sold,2017-01-03,1001.0,15000.0
95,DFA International Small Co Portfolio,Sold,2017-01-03,15001.0,50000.0
96,DFA International Small Company Portfolio Bond,Sold,2017-01-03,15001.0,50000.0
97,DFA International Small Company Portfolio Bond,Sold,2017-01-03,1001.0,15000.0
98,DFA International Small Company Portfolio Bond,Sold,2017-01-03,1001.0,15000.0
99,DFA International Small Company Portfolio Bond,Sold,2017-01-03,15001.0,50000.0
100,DFA International Small Company Portfolio Bond,Sold,2017-01-03,15001.0,50000.0
101,DFA International Small Company Portfolio Bond,Sold,2017-01-03,15001.0,50000.0
102,DFA International Small Company Portfolio Bond,Sold,2017-01-03,1001.0,15000.0
103,DFA International Small Company Portfolio Bond,Sold,2017-01-03,1001.0,15000.0
104,DFA International Small Company Portfolio Bond,Exchanged,2017-01-03,,
105,DFA International Small Company Portfolio Bond,Exchanged,2017-01-03,,
106,DFA International Small Company Portfolio Bond,Exchanged,2017-01-03,,
107,DFA International Small Company Portfolio Bond,Exchanged,2017-01-03,,
108,DFA Japanese Small Co Fund,Exchanged,2017-01-03,,
109,DFA Japanese Small Co Fund,Exchanged,2017-01-03,,
110,DFA Japanese Small Co Fund,Exchanged,2017-01-03,,
111,DFA Japanese Small Co Fund,Exchanged,2017-01-03,,
112,DFA Japanese Small Co Fund,Exchanged,2017-01-03,,
113,DFA Japanese Small Co Fund,Exchanged,2017-01-03,,
114,DFA Japanese Small Co Fund,Exchanged,2017-01-03,,
115,DFA Japanese Small Co Fund,Exchanged,2017-01-03,,
116,DFA Japanese Small Co Fund,Sold,2017-01-03,1001.0,15000.0
117,DFA Japanese Small Co Fund,Sold,2017-01-03,1001.0,15000.0
118,DFA Japanese Small Co Fund,Sold,2017-01-03,1001.0,15000.0
119,DFA Japanese Small Co Fund,Sold,2017-01-03,1001.0,15000.0
120,DFA Japanese Small Co Fund,Sold,2017-01-03,1001.0,15000.0
121,DFA Japanese Small Co Fund,Sold,2017-01-03,1001.0,15000.0
122,DFA Japanese Small Co Fund,Sold,2017-01-03,1001.0,15000.0
123,DFA Japanese Small Co Fund,Sold,2017-01-03,1001.0,15000.0
124,DFA Japanese Small Co Fund,Sold,2017-01-03,1001.0,15000.0
125,DFA Japanese Small Co Fund,Sold,2017-01-03,1001.0,15000.0
126,DFA Japanese Small Co Fund,Sold,2017-01-03,1001.0,15000.0
127,DFA Japanese Small Co Fund,Sold,2017-01-03,1001.0,15000.0
128,DFA Japanese Small Co Fund,Sold,2017-01-03,1001.0,15000.0
129,DFA Japanese Small Co Fund,Sold,2017-01-03,1001.0,15000.0
130,DFA Japanese Small Co Fund,Sold,2017-01-03,1001.0,15000.0
131,DFA Japanese Small Co Fund,Sold,2017-01-03,1001.0,15000.0
132,DFA US Core Equity 1 Portfolio,Sold,2017-01-03,1001.0,15000.0
133,DFA US Core Equity 1 Portfolio,Sold,2017-01-03,50001.0,100000.0
134,DFA US Core Equity 1 Portfolio,Sold,2017-01-03,50001.0,100000.0
135,DFA US Core Equity 1 Portfolio,Sold,2017-01-03,1001.0,15000.0
136,DFA US Core Equity 1 Portfolio,Sold,2017-01-03,1001.0,15000.0
137,DFA US Core Equity 1 Portfolio,Sold,2017-01-03,1001.0,15000.0
138,DFA US Core Equity 1 Portfolio,Sold,2017-01-03,1001.0,15000.0
139,DFA US Core Equity 1 Portfolio,Sold,2017-01-03,1001.0,15000.0
140,DFA US Core Equity 1 Portfolio,Sold,2017-01-03,1001.0,15000.0
141,DFA US Core Equity 1 Portfolio,Sold,2017-01-03,15001.0,50000.0
142,DFA US Core Equity 1 Portfolio,Sold,2017-01-03,1001.0,15000.0
143,DFA US Core Equity 1 Portfolio,Sold,2017-01-03,15001.0,50000.0
144,DFA US Core Equity 1 Portfolio,Sold,2017-01-03,50001.0,100000.0
145,DFA US Core Equity 1 Portfolio,Sold,2017-01-03,50001.0,100000.0
146,DFA US Core Equity 1 Portfolio,Sold,2017-01-03,1001.0,15000.0
147,DFA US Core Equity 1 Portfolio,Sold,2017-01-03,50001.0,100000.0
148,DFA US Core Equity 1 Portfolio,Sold,2017-01-03,50001.0,100000.0
149,DFA US Core Equity 1 Portfolio,Sold,2017-01-03,15001.0,50000.0
150,DFA US Core Equity 1 Portfolio,Sold,2017-01-03,1001.0,15000.0
151,DFA US Core Equity 1 Portfolio,Sold,2017-01-03,1001.0,15000.0
152,DFA US Core Equity 1 Portfolio,Sold,2017-01-03,1001.0,15000.0
153,DFA US Core Equity 1 Portfolio,Sold,2017-01-03,15001.0,50000.0
154,DFA US Core Equity 1 Portfolio,Sold,2017-01-03,50001.0,100000.0
155,DFA US Core Equity 1 Portfolio,Sold,2017-01-03,50001.0,100000.0
156,DFA US Core Equity 1 Portfolio,Sold,2017-01-03,1001.0,15000.0
157,DFA US Core Equity 1 Portfolio,Sold,2017-01-03,1001.0,15000.0
158,DFA US Core Equity 1 Portfolio,Sold,2017-01-03,1001.0,15000.0
159,DFA US Core Equity 1 Portfolio,Sold,2017-01-03,1001.0,15000.0
160,DFA US Core Equity 1 Portfolio,Exchanged,2017-01-03,,
161,DFA US Core Equity 1 Portfolio,Exchanged,2017-01-03,,
162,DFA US Core Equity 1 Portfolio,Exchanged,2017-01-03,,
163,DFA US Core Equity 1 Portfolio,Exchanged,2017-01-03,,
164,DFA US Core Equity 1 Portfolio,Exchanged,2017-01-03,,
165,DFA US Core Equity 1 Portfolio,Exchanged,2017-01-03,,
166,DFA US Core Equity 1 Portfolio,Exchanged,2017-01-03,,
167,DFA US Core Equity 1 Portfolio,Exchanged,2017-01-03,,
168,DFA US Core Equity 1 Portfolio,Exchanged,2017-01-03,,
169,DFA US Core Equity 1 Portfolio,Exchanged,2017-01-03,,
170,DFA US Core Equity 1 Portfolio,Exchanged,2017-01-03,,
171,DFA US Core Equity 1 Portfolio,Exchanged,2017-01-03,,
172,DFA US Core Equity 1 Portfolio,Exchanged,2017-01-03,,
173,DFA US Core Equity 1 Portfolio,Exchanged,2017-01-03,,
174,Hartford Floating Rate High Inc Fund Cla,Sold,2017-01-03,1001.0,15000.0
175,Hartford Floating Rate High Inc Fund Cla,Sold,2017-01-03,1001.0,15000.0
176,Hartford Floating Rate High Inc Fund Cla,Sold,2017-01-03,1001.0,15000.0
177,Hartford Floating Rate High Inc Fund Cla,Sold,2017-01-03,1001.0,15000.0
178,Hartford Floating Rate High Inc Fund Cla,Exchanged,2017-01-03,,
179,Hartford Floating Rate High Inc Fund Cla,Exchanged,2017-01-03,,
180,JPMorgan Mortgage-Backed Securities See,Sold,2017-01-03,1001.0,15000.0
181,JPMorgan Mortgage-Backed Securities See,Sold,2017-01-03,1001.0,15000.0
182,JPMorgan Mortgage-Backed Securities See,Sold,2017-01-03,1001.0,15000.0
183,JPMorgan Mortgage-Backed Securities See,Sold,2017-01-03,1001.0,15000.0
184,JPMorgan Mortgage-Backed Securities See,Exchanged,2017-01-03,,
185,JPMorgan Mortgage-Backed Securities See,Exchanged,2017-01-03,,
186,Lord Abbett Info Focused Bond Fund !,Sold,2017-01-03,1001.0,15000.0
187,Lord Abbett Info Focused Bond Fund !,Sold,2017-01-03,1001.0,15000.0
188,Lord Abbett Info Focused Bond Fund !,Sold,2017-01-03,1001.0,15000.0
189,Lord Abbett Info Focused Bond Fund !,Exchanged,2017-01-03,,
190,Lord Abbett Info Focused Bond Fund !,Sold,2017-01-03,1001.0,15000.0
191,Lord Abbett Info Focused Bond Fund !,Exchanged,2017-01-03,,
192,Pimco Comm Real Return I,Exchanged,2017-01-03,,
193,Pimco Comm Real Return I,Sold,2017-01-03,1001.0,15000.0
194,Pimco Comm Real Return I,Exchanged,2017-01-03,,
195,Pimco Comm Real Return I,Sold,2017-01-03,1001.0,15000.0
196,Pimco Comm Real Return I,Sold,2017-01-03,1001.0,15000.0
197,Pimco Comm Real Return I,Sold,2017-01-03,1001.0,15000.0
198,Sptn Real Es IDX Adv,Sold,2017-01-03,1001.0,15000.0
199,Sptn Real Es IDX Adv,Sold,2017-01-03,1001.0,15000.0
200,Sptn Real Es IDX Adv,Sold,2017-01-03,1001.0,15000.0
201,Sptn Real Es IDX Adv,Exchanged,2017-01-03,,
202,Sptn Real Es IDX Adv,Sold,2017-01-03,1001.0,15000.0
203,Sptn Real Es IDX Adv,Exchanged,2017-01-03,,
204,Tortoise MLP & Pipe Fund,Exchanged,2017-01-03,,
205,Tortoise MLP & Pipe Fund,Sold,2017-01-03,1001.0,15000.0
206,Tortoise MLP & Pipe Fund,Exchanged,2017-01-03,,
207,Tortoise MLP & Pipe Fund,Sold,2017-01-03,1001.0,15000.0
208,Tortoise MLP & Pipe Fund,Sold,2017-01-03,1001.0,15000.0
209,Tortoise MLP & Pipe Fund,Sold,2017-01-03,1001.0,15000.0
210,DFA Int'l Small Co Portfolio,Sold,2017-01-04,1001.0,15000.0
211,DFA Int'l Small Co Portfolio,Sold,2017-01-04,1001.0,15000.0
212,DFA Int'l Small Co Portfolio,Sold,2017-01-04,1001.0,15000.0
213,DFA Int'l Small Co Portfolio,Sold,2017-01-04,1001.0,15000.0
214,DFA Int'l Small Co Portfolio,Exchanged,2017-01-04,,
215,DFA Int'l Small Co Portfolio,Exchanged,2017-01-04,,
216,DFA US Core Equity Fund,Exchanged,2017-01-04,,
217,DFA US Core Equity Fund,Exchanged,2017-01-04,,
218,DFA US Core Equity Fund,Sold,2017-01-04,1001.0,15000.0
219,DFA US Core Equity Fund,Sold,2017-01-04,1001.0,15000.0
220,DFA US Core Equity Fund,Sold,2017-01-04,1001.0,15000.0
221,DFA US Core Equity Fund,Sold,2017-01-04,1001.0,15000.0
222,Vanguard Target Ret 2040 FD Investor Cl,Purchased,2017-01-13,1001.0,15000.0
223,Vanguard Target Ret 2040 FD Investor Cl,Purchased,2017-01-13,1001.0,15000.0
224,Vanguard Target Ret 2040 FD Investor Cl,Sold,2017-01-13,,
225,Vanguard Target Ret 2040 FD Investor Cl,Sold,2017-01-13,,
226,Vanguard Target Ret 2040 FD Investor Cl,Purchased,2017-01-13,1001.0,15000.0
227,Vanguard Target Ret 2040 FD Investor Cl,Purchased,2017-01-13,1001.0,15000.0
228,Vanguard Target Ret 2040 Fd Investor Cl,Purchased,2017-01-13,1001.0,15000.0
229,Vanguard Target Ret 2040 Fd Investor Cl,Purchased,2017-01-13,15001.0,50000.0
230,Vanguard Target Ret 2040 Fd Investor Cl,Purchased,2017-01-13,15001.0,50000.0
231,Vanguard Target Ret 2040 Fd Investor Cl,Purchased,2017-01-13,100001.0,250000.0
232,Vanguard Target Ret 2040 Fd Investor Cl,Purchased,2017-01-13,15001.0,50000.0
233,Vanguard Target Ret 2040 Fd Investor Cl,Purchased,2017-01-13,15001.0,50000.0
234,Vanguard Target Ret 2040 Fd Investor Cl,Purchased,2017-01-13,100001.0,250000.0
235,Vanguard Target Ret 2040 Fd Investor Cl,Purchased,2017-01-13,1001.0,15000.0
236,Vanguard Target Ret 2040 Fd Investor Cl,Sold,2017-01-13,,
237,Vanguard Target Ret 2040 Fd Investor Cl,Sold,2017-01-13,,
238,Vanguard Target Ret 2040 Fd Investor Cl,Sold,2017-01-13,,
239,Vanguard Target Ret 2040 Fd Investor Cl,Sold,2017-01-13,,
240,Vanguard Target Ret 2040 Fd Investor Cl,Sold,2017-01-13,,
241,Vanguard Target Ret 2040 Fd Investor Cl,Sold,2017-01-13,,
242,Vanguard Target Ret 2040 Fd Investor Cl,Sold,2017-01-13,,
243,Vanguard Target Ret 2040 Fd Investor Cl,Sold,2017-01-13,,
244,Vanguard Target Ret 2040 Fd Investor Cl,Purchased,2017-01-13,15001.0,50000.0
245,Vanguard Target Ret 2040 Fd Investor Cl,Purchased,2017-01-13,15001.0,50000.0
246,Vanguard Target Ret 2040 Fd Investor Cl,Purchased,2017-01-13,100001.0,250000.0
247,Vanguard Target Ret 2040 Fd Investor Cl,Purchased,2017-01-13,1001.0,15000.0
248,Vanguard Target Ret 2040 Fd Investor Cl,Purchased,2017-01-13,15001.0,50000.0
249,Vanguard Target Ret 2040 Fd Investor Cl,Purchased,2017-01-13,15001.0,50000.0
250,Vanguard Target Ret 2040 Fd Investor Cl,Purchased,2017-01-13,100001.0,250000.0
251,Vanguard Target Ret 2040 Fd Investor Cl,Purchased,2017-01-13,1001.0,15000.0
252,Vanguard Target Retirement 2040 Inv,Purchased,2017-01-17,1001.0,15000.0
253,Vanguard Target Retirement 2040 Inv,Purchased,2017-01-17,1001.0,15000.0
254,Vanguard Target Retirement 2040 Inv,Sold,2017-01-17,,
255,Vanguard Target Retirement 2040 Inv,Sold,2017-01-17,,
256,Vanguard Target Retirement 2040 Inv,Purchased,2017-01-17,1001.0,15000.0
257,Vanguard Target Retirement 2040 Inv,Purchased,2017-01-17,1001.0,15000.0
258,Vanguard Target Ret 2040 Fd Investor Cl,Purchased,2017-01-18,100001.0,250000.0
259,Vanguard Target Ret 2040 Fd Investor Cl,Purchased,2017-01-18,100001.0,250000.0
260,Vanguard Target Ret 2040 Fd Investor Cl,Sold,2017-01-18,,
261,Vanguard Target Ret 2040 Fd Investor Cl,Sold,2017-01-18,,
262,Vanguard Target Ret 2040 Fd Investor Cl,Purchased,2017-01-18,100001.0,250000.0
263,Vanguard Target Ret 2040 Fd Investor Cl,Purchased,2017-01-18,100001.0,250000.0
264,Vanguard Target Ret 2040 Fd Investor Cl,Purchased,2017-01-27,1001.0,15000.0
265,Vanguard Target Ret 2040 Fd Investor Cl,Purchased,2017-01-27,1001.0,15000.0
266,Vanguard Target Ret 2040 Fd Investor Cl,Sold,2017-01-27,,
267,Vanguard Target Ret 2040 Fd Investor Cl,Sold,2017-01-27,,
268,Vanguard Target Ret 2040 Fd Investor Cl,Purchased,2017-01-27,1001.0,15000.0
269,Vanguard Target Ret 2040 Fd Investor Cl,Purchased,2017-01-27,1001.0,15000.0
270,Am Century Mid Cap Value,Sold,2017-03-01,1001.0,15000.0
271,Am Century Mid Cap Value,Sold,2017-03-01,1001.0,15000.0
272,Am Century Mid Cap Value,Sold,2017-03-01,1001.0,15000.0
273,Am Century Mid Cap Value,Sold,2017-03-01,1001.0,15000.0
274,Am Century Mid Cap Value,Exchanged,2017-03-01,,
275,Am Century Mid Cap Value,Exchanged,2017-03-01,,
276,Am Funds Cap World Growth & Income R4,Exchanged,2017-03-01,,
277,Am Funds Cap World Growth & Income R4,Exchanged,2017-03-01,,
278,Am Funds Cap World Growth & Income R4,Sold,2017-03-01,1001.0,15000.0
279,Am Funds Cap World Growth & Income R4,Sold,2017-03-01,1001.0,15000.0
280,Am Funds Cap World Growth & Income R4,Sold,2017-03-01,1001.0,15000.0
281,Am Funds Cap World Growth & Income R4,Sold,2017-03-01,1001.0,15000.0
282,Am Funds Europacific Gr R4,Sold,2017-03-01,1001.0,15000.0
283,Am Funds Europacific Gr R4,Sold,2017-03-01,1001.0,15000.0
284,Am Funds Europacific Gr R4,Sold,2017-03-01,1001.0,15000.0
285,Am Funds Europacific Gr R4,Sold,2017-03-01,1001.0,15000.0
286,Am Funds Europacific Gr R4,Exchanged,2017-03-01,,
287,Am Funds Europacific Gr R4,Exchanged,2017-03-01,,
288,Franklin Growth Fund,Exchanged,2017-03-01,,
289,Franklin Growth Fund,Exchanged,2017-03-01,,
290,Franklin Growth Fund,Sold,2017-03-01,1001.0,15000.0
291,Franklin Growth Fund,Sold,2017-03-01,1001.0,15000.0
292,Franklin Growth Fund,Sold,2017-03-01,1001.0,15000.0
293,Franklin Growth Fund,Sold,2017-03-01,1001.0,15000.0
294,JPM Core Bond R6,Sold,2017-03-01,,
295,JPM Core Bond R6,Sold,2017-03-01,,
296,JPM Core Bond R6,Purchased,2017-03-01,1001.0,15000.0
297,JPM Core Bond R6,Purchased,2017-03-01,1001.0,15000.0
298,JPM Core Bond R6,Purchased,2017-03-01,1001.0,15000.0
299,JPM Core Bond R6,Purchased,2017-03-01,1001.0,15000.0
300,Lincoln Stable Value Account -J83,Exchanged,2017-03-01,,
301,Lincoln Stable Value Account -J83,Exchanged,2017-03-01,,
302,Lincoln Stable Value Account -J83,Sold,2017-03-01,1001.0,15000.0
303,Lincoln Stable Value Account -J83,Sold,2017-03-01,1001.0,15000.0
304,Lincoln Stable Value Account -J83,Sold,2017-03-01,1001.0,15000.0
305,Lincoln Stable Value Account -J83,Sold,2017-03-01,1001.0,15000.0
306,Lincoln Stable Value Z116,Sold,2017-03-01,,
307,Lincoln Stable Value Z116,Sold,2017-03-01,,
308,Lincoln Stable Value Z116,Purchased,2017-03-01,1001.0,15000.0
309,Lincoln Stable Value Z116,Purchased,2017-03-01,1001.0,15000.0
310,Lincoln Stable Value Z116,Purchased,2017-03-01,1001.0,15000.0
311,Lincoln Stable Value Z116,Purchased,2017-03-01,1001.0,15000.0
312,MFS Growth,Purchased,2017-03-01,1001.0,15000.0
313,MFS Growth,Purchased,2017-03-01,1001.0,15000.0
314,MFS Growth,Sold,2017-03-01,,
315,MFS Growth,Sold,2017-03-01,,
316,MFS Growth,Purchased,2017-03-01,1001.0,15000.0
317,MFS Growth,Purchased,2017-03-01,1001.0,15000.0
318,MFS International Diversification R4,Purchased,2017-03-01,1001.0,15000.0
319,MFS International Diversification R4,Purchased,2017-03-01,1001.0,15000.0
320,MFS International Diversification R4,Sold,2017-03-01,,
321,MFS International Diversification R4,Sold,2017-03-01,,
322,MFS International Diversification R4,Purchased,2017-03-01,1001.0,15000.0
323,MFS International Diversification R4,Purchased,2017-03-01,1001.0,15000.0
324,Pgim Ttl Return,Purchased,2017-03-01,1001.0,15000.0
325,Pgim Ttl Return,Purchased,2017-03-01,1001.0,15000.0
326,Pgim Ttl Return,Sold,2017-03-01,,
327,Pgim Ttl Return,Sold,2017-03-01,,
328,Pgim Ttl Return,Purchased,2017-03-01,1001.0,15000.0
329,Pgim Ttl Return,Purchased,2017-03-01,1001.0,15000.0
330,Prudential Total Return,Sold,2017-03-01,1001.0,15000.0
331,Prudential Total Return,Exchanged,2017-03-01,,
332,Prudential Total Return,Exchanged,2017-03-01,,
333,Prudential Total Return,Sold,2017-03-01,1001.0,15000.0
334,Prudential Total Return,Sold,2017-03-01,1001.0,15000.0
335,Prudential Total Return,Sold,2017-03-01,1001.0,15000.0
336,T Rowe Value,Purchased,2017-03-01,1001.0,15000.0
337,T Rowe Value,Purchased,2017-03-01,1001.0,15000.0
338,T Rowe Value,Sold,2017-03-01,,
339,T Rowe Value,Sold,2017-03-01,,
340,T Rowe Value,Purchased,2017-03-01,1001.0,15000.0
341,T Rowe Value,Purchased,2017-03-01,1001.0,15000.0
342,Vanguard 500 Index,Purchased,2017-03-01,1001.0,15000.0
343,Vanguard 500 Index,Purchased,2017-03-01,1001.0,15000.0
344,Vanguard 500 Index,Sold,2017-03-01,,
345,Vanguard 500 Index,Sold,2017-03-01,,
346,Vanguard 500 Index,Purchased,2017-03-01,1001.0,15000.0
347,Vanguard 500 Index,Purchased,2017-03-01,1001.0,15000.0
348,Vanguard Value Index ETF,Sold,2017-03-01,1001.0,15000.0
349,Vanguard Value Index ETF,Sold,2017-03-01,1001.0,15000.0
350,Vanguard Value Index ETF,Sold,2017-03-01,1001.0,15000.0
351,Vanguard Value Index ETF,Exchanged,2017-03-01,,
352,Vanguard Value Index ETF,Exchanged,2017-03-01,,
353,Vanguard Value Index ETF,Sold,2017-03-01,1001.0,15000.0
354,JPM Core Bond R6,Exchanged,2017-03-02,,
355,JPM Core Bond R6,Exchanged,2017-03-02,,
356,JPM Core Bond R6,Sold,2017-03-02,1001.0,15000.0
357,JPM Core Bond R6,Sold,2017-03-02,1001.0,15000.0
358,JPM Core Bond R6,Sold,2017-03-02,1001.0,15000.0
359,JPM Core Bond R6,Sold,2017-03-02,1001.0,15000.0
360,Lincoln Stable Value Account-Z116,Sold,2017-03-02,1001.0,15000.0
361,Lincoln Stable Value Account-Z116,Sold,2017-03-02,1001.0,15000.0
362,Lincoln Stable Value Account-Z116,Sold,2017-03-02,1001.0,15000.0
363,Lincoln Stable Value Account-Z116,Sold,2017-03-02,1001.0,15000.0
364,Lincoln Stable Value Account-Z116,Exchanged,2017-03-02,,
365,Lincoln Stable Value Account-Z116,Exchanged,2017-03-02,,
366,MFS Growth,Sold,2017-03-02,1001.0,15000.0
367,MFS Growth,Sold,2017-03-02,1001.0,15000.0
368,MFS Growth,Sold,2017-03-02,1001.0,15000.0
369,MFS Growth,Exchanged,2017-03-02,,
370,MFS Growth,Exchanged,2017-03-02,,
371,MFS Growth,Sold,2017-03-02,1001.0,15000.0
372,MFS International Diversification R4,Sold,2017-03-02,1001.0,15000.0
373,MFS International Diversification R4,Exchanged,2017-03-02,,
374,MFS International Diversification R4,Exchanged,2017-03-02,,
375,MFS International Diversification R4,Sold,2017-03-02,1001.0,15000.0
376,MFS International Diversification R4,Sold,2017-03-02,1001.0,15000.0
377,MFS International Diversification R4,Sold,2017-03-02,1001.0,15000.0
378,T Rowe Value,Sold,2017-03-02,1001.0,15000.0
379,T Rowe Value,Exchanged,2017-03-02,,
380,T Rowe Value,Exchanged,2017-03-02,,
381,T Rowe Value,Sold,2017-03-02,1001.0,15000.0
382,T Rowe Value,Sold,2017-03-02,1001.0,15000.0
383,T Rowe Value,Sold,2017-03-02,1001.0,15000.0
384,Vanguard 500 Index,Sold,2017-03-02,1001.0,15000.0
385,Vanguard 500 Index,Sold,2017-03-02,1001.0,15000.0
386,Vanguard 500 Index,Sold,2017-03-02,1001.0,15000.0
387,Vanguard 500 Index,Exchanged,2017-03-02,,
388,Vanguard 500 Index,Exchanged,2017-03-02,,
389,Vanguard 500 Index,Sold,2017-03-02,1001.0,15000.0
390,Vanguard Target Retirement 2040 Inv,Purchased,2017-03-02,15001.0,50000.0
391,Vanguard Target Retirement 2040 Inv,Purchased,2017-03-02,15001.0,50000.0
392,Vanguard Target Retirement 2040 Inv,Sold,2017-03-02,,
393,Vanguard Target Retirement 2040 Inv,Sold,2017-03-02,,
394,Vanguard Target Retirement 2040 Inv,Purchased,2017-03-02,15001.0,50000.0
395,Vanguard Target Retirement 2040 Inv,Purchased,2017-03-02,15001.0,50000.0
396,Vanguard Target Ret 2040 Fd Investor Cl,Sold,2017-03-27,1001.0,15000.0
397,Vanguard Target Ret 2040 Fd Investor Cl,Exchanged,2017-03-27,,
398,Vanguard Target Ret 2040 Fd Investor Cl,Exchanged,2017-03-27,,
399,Vanguard Target Ret 2040 Fd Investor Cl,Sold,2017-03-27,1001.0,15000.0
400,Vanguard Target Ret 2040 Fd Investor Cl,Sold,2017-03-27,1001.0,15000.0
401,Vanguard Target Ret 2040 Fd Investor Cl,Sold,2017-03-27,1001.0,15000.0
402,Alger Small Cap Growth Fund,Exchanged,2017-04-04,,
403,Alger Small Cap Growth Fund,Exchanged,2017-04-04,,
404,Alger Small Cap Growth Fund,Sold,2017-04-04,15001.0,50000.0
405,Alger Small Cap Growth Fund,Sold,2017-04-04,15001.0,50000.0
406,Alger Small Cap Growth Fund,Sold,2017-04-04,15001.0,50000.0
407,Alger Small Cap Growth Fund,Sold,2017-04-04,15001.0,50000.0
408,Delafield Fund,Sold,2017-04-04,15001.0,50000.0
409,Delafield Fund,Sold,2017-04-04,15001.0,50000.0
410,Delafield Fund,Sold,2017-04-04,15001.0,50000.0
411,Delafield Fund,Exchanged,2017-04-04,,
412,Delafield Fund,Sold,2017-04-04,15001.0,50000.0
413,Delafield Fund,Exchanged,2017-04-04,,
414,Janus Forty Fund,Sold,2017-04-04,15001.0,50000.0
415,Janus Forty Fund,Sold,2017-04-04,15001.0,50000.0
416,Janus Forty Fund,Sold,2017-04-04,15001.0,50000.0
417,Janus Forty Fund,Sold,2017-04-04,15001.0,50000.0
418,Janus Forty Fund,Exchanged,2017-04-04,,
419,Janus Forty Fund,Exchanged,2017-04-04,,
420,Oppenheimer Global Fund,Exchanged,2017-04-04,,
421,Oppenheimer Global Fund,Sold,2017-04-04,15001.0,50000.0
422,Oppenheimer Global Fund,Exchanged,2017-04-04,,
423,Oppenheimer Global Fund,Sold,2017-04-04,15001.0,50000.0
424,Oppenheimer Global Fund,Sold,2017-04-04,15001.0,50000.0
425,Oppenheimer Global Fund,Sold,2017-04-04,15001.0,50000.0
426,Pimco Real Return Fund,Sold,2017-04-04,15001.0,50000.0
427,Pimco Real Return Fund,Sold,2017-04-04,15001.0,50000.0
428,Pimco Real Return Fund,Sold,2017-04-04,15001.0,50000.0
429,Pimco Real Return Fund,Exchanged,2017-04-04,,
430,Pimco Real Return Fund,Sold,2017-04-04,15001.0,50000.0
431,Pimco Real Return Fund,Exchanged,2017-04-04,,
432,Thornburg Value Fund,Sold,2017-04-04,15001.0,50000.0
433,Thornburg Value Fund,Sold,2017-04-04,15001.0,50000.0
434,Thornburg Value Fund,Sold,2017-04-04,15001.0,50000.0
435,Thornburg Value Fund,Exchanged,2017-04-04,,
436,Thornburg Value Fund,Sold,2017-04-04,15001.0,50000.0
437,Thornburg Value Fund,Exchanged,2017-04-04,,
438,Money Market,Purchased,2017-04-13,100001.0,250000.0
439,Money Market,Purchased,2017-04-13,100001.0,250000.0
440,Money Market,Sold,2017-04-13,,
441,Money Market,Sold,2017-04-13,,
442,Money Market,Purchased,2017-04-13,100001.0,250000.0
443,Money Market,Purchased,2017-04-13,100001.0,250000.0
444,Vanguard Target Retirement 2045 Fund,Purchased,2017-04-17,100001.0,250000.0
445,Vanguard Target Retirement 2045 Fund,Purchased,2017-04-17,100001.0,250000.0
446,Vanguard Target Retirement 2045 Fund,Sold,2017-04-17,,
447,Vanguard Target Retirement 2045 Fund,Sold,2017-04-17,,
448,Vanguard Target Retirement 2045 Fund,Purchased,2017-04-17,100001.0,250000.0
449,Vanguard Target Retirement 2045 Fund,Purchased,2017-04-17,100001.0,250000.0
450,Money Market,Sold,2017-04-18,100001.0,250000.0
451,Money Market,Sold,2017-04-18,100001.0,250000.0
452,Money Market,Sold,2017-04-18,100001.0,250000.0
453,Money Market,Sold,2017-04-18,100001.0,250000.0
454,Money Market,Exchanged,2017-04-18,,
455,Money Market,Exchanged,2017-04-18,,
456,Money Market,Purchased,2017-05-11,1001.0,15000.0
457,Money Market,Purchased,2017-05-11,1001.0,15000.0
458,Money Market,Sold,2017-05-11,,
459,Money Market,Sold,2017-05-11,,
460,Money Market,Purchased,2017-05-11,1001.0,15000.0
461,Money Market,Purchased,2017-05-11,1001.0,15000.0
462,Equity Portfolio,Sold,2017-06-30,1001.0,15000.0
463,Equity Portfolio,Sold,2017-06-30,1001.0,15000.0
464,Equity Portfolio,Sold,2017-06-30,1001.0,15000.0
465,Equity Portfolio,Sold,2017-06-30,1001.0,15000.0
466,Equity Portfolio,Exchanged,2017-06-30,,
467,Equity Portfolio,Exchanged,2017-06-30,,
468,Index Moderate Age Based 0-02,Exchanged,2017-06-30,,
469,Index Moderate Age Based 0-02,Exchanged,2017-06-30,,
470,Index Moderate Age Based 0-02,Sold,2017-06-30,1001.0,15000.0
471,Index Moderate Age Based 0-02,Sold,2017-06-30,1001.0,15000.0
472,Index Moderate Age Based 0-02,Sold,2017-06-30,1001.0,15000.0
473,Index Moderate Age Based 0-02,Sold,2017-06-30,1001.0,15000.0
474,Index Moderate Age Based 06-08,Sold,2017-06-30,15001.0,50000.0
475,Index Moderate Age Based 06-08,Sold,2017-06-30,15001.0,50000.0
476,Index Moderate Age Based 06-08,Sold,2017-06-30,15001.0,50000.0
477,Index Moderate Age Based 06-08,Sold,2017-06-30,15001.0,50000.0
478,Index Moderate Age Based 06-08,Exchanged,2017-06-30,,
479,Index Moderate Age Based 06-08,Exchanged,2017-06-30,,
480,Index Moderate Age Based 19+,Exchanged,2017-06-30,,
481,Index Moderate Age Based 19+,Exchanged,2017-06-30,,
482,Index Moderate Age Based 19+,Sold,2017-06-30,15001.0,50000.0
483,Index Moderate Age Based 19+,Sold,2017-06-30,15001.0,50000.0
484,Index Moderate Age Based 19+,Sold,2017-06-30,15001.0,50000.0
485,Index Moderate Age Based 19+,Sold,2017-06-30,15001.0,50000.0
486,Equity Portfolio,Purchased,2017-07-14,1001.0,15000.0
487,Equity Portfolio,Purchased,2017-07-14,1001.0,15000.0
488,Equity Portfolio,Purchased,2017-07-14,1001.0,15000.0
489,Equity Portfolio,Purchased,2017-07-14,1001.0,15000.0
490,Equity Portfolio,Sold,2017-07-14,,
491,Equity Portfolio,Sold,2017-07-14,,
492,Index Moderate Age Based 0-02,Sold,2017-07-14,,
493,Index Moderate Age Based 0-02,Sold,2017-07-14,,
494,Index Moderate Age Based 0-02,Purchased,2017-07-14,1001.0,15000.0
495,Index Moderate Age Based 0-02,Purchased,2017-07-14,1001.0,15000.0
496,Index Moderate Age Based 0-02,Purchased,2017-07-14,1001.0,15000.0
497,Index Moderate Age Based 0-02,Purchased,2017-07-14,1001.0,15000.0
498,Index Moderate Age Based 06-08,Purchased,2017-07-14,15001.0,50000.0
499,Index Moderate Age Based 06-08,Purchased,2017-07-14,15001.0,50000.0
500,Index Moderate Age Based 06-08,Purchased,2017-07-14,15001.0,50000.0
501,Index Moderate Age Based 06-08,Purchased,2017-07-14,15001.0,50000.0
502,Index Moderate Age Based 06-08,Sold,2017-07-14,,
503,Index Moderate Age Based 06-08,Sold,2017-07-14,,
504,Index Moderate Age Based 19+,Sold,2017-07-14,,
505,Index Moderate Age Based 19+,Sold,2017-07-14,,
506,Index Moderate Age Based 19+,Purchased,2017-07-14,15001.0,50000.0
507,Index Moderate Age Based 19+,Purchased,2017-07-14,15001.0,50000.0
508,Index Moderate Age Based 19+,Purchased,2017-07-14,15001.0,50000.0
509,Index Moderate Age Based 19+,Purchased,2017-07-14,15001.0,50000.0
510,Vanguard Target Retirement 2045 Fund,Purchased,2017-08-14,1001.0,15000.0
511,Vanguard Target Retirement 2045 Fund,Purchased,2017-08-14,1001.0,15000.0
512,Vanguard Target Retirement 2045 Fund,Sold,2017-08-14,,
513,Vanguard Target Retirement 2045 Fund,Sold,2017-08-14,,
514,Vanguard Target Retirement 2045 Fund,Purchased,2017-08-14,1001.0,15000.0
515,Vanguard Target Retirement 2045 Fund,Purchased,2017-08-14,1001.0,15000.0
516,Money Market,Sold,2017-08-15,1001.0,15000.0
517,Money Market,Sold,2017-08-15,1001.0,15000.0
518,Money Market,Sold,2017-08-15,1001.0,15000.0
519,Money Market,Exchanged,2017-08-15,,
520,Money Market,Sold,2017-08-15,1001.0,15000.0
521,Money Market,Exchanged,2017-08-15,,
522,Index Moderate Age Based 06-08,Purchased,2017-08-17,1001.0,15000.0
523,Index Moderate Age Based 06-08,Purchased,2017-08-17,1001.0,15000.0
524,Index Moderate Age Based 06-08,Purchased,2017-08-17,1001.0,15000.0
525,Index Moderate Age Based 06-08,Purchased,2017-08-17,1001.0,15000.0
526,Index Moderate Age Based 06-08,Sold,2017-08-17,,
527,Index Moderate Age Based 06-08,Sold,2017-08-17,,
528,Index Moderate Age Based 19+,Sold,2017-08-17,,
529,Index Moderate Age Based 19+,Sold,2017-08-17,,
530,Index Moderate Age Based 19+,Purchased,2017-08-17,1001.0,15000.0
531,Index Moderate Age Based 19+,Purchased,2017-08-17,1001.0,15000.0
532,Index Moderate Age Based 19+,Purchased,2017-08-17,1001.0,15000.0
533,Index Moderate Age Based 19+,Purchased,2017-08-17,1001.0,15000.0
534,Money Market,Purchased,2017-08-18,1001.0,15000.0
535,Money Market,Purchased,2017-08-18,1001.0,15000.0
536,Money Market,Sold,2017-08-18,,
537,Money Market,Sold,2017-08-18,,
538,Money Market,Purchased,2017-08-18,1001.0,15000.0
539,Money Market,Purchased,2017-08-18,1001.0,15000.0
540,Money Market,Purchased,2017-11-27,1001.0,15000.0
541,Money Market,Purchased,2017-11-27,1001.0,15000.0
542,Money Market,Sold,2017-11-27,,
543,Money Market,Sold,2017-11-27,,
544,Money Market,Purchased,2017-11-27,1001.0,15000.0
545,Money Market,Purchased,2017-11-27,1001.0,15000.0
546,Vanguard Target Retirement 2040 Inv,Purchased,2017-12-28,1001.0,15000.0
547,Vanguard Target Retirement 2040 Inv,Purchased,2017-12-28,1001.0,15000.0
548,Vanguard Target Retirement 2040 Inv,Sold,2017-12-28,,
549,Vanguard Target Retirement 2040 Inv,Sold,2017-12-28,,
550,Vanguard Target Retirement 2040 Inv,Purchased,2017-12-28,1001.0,15000.0
551,Vanguard Target Retirement 2040 Inv,Purchased,2017-12-28,1001.0,15000.0
552,M Priyasri Bala Vanguard Retirement 2040/Vanguard,Purchased,2017-12-29,1001.0,15000.0
553,Vanguard Target Ret 2040 Fd Investor Cl,Purchased,2017-12-29,1001.0,15000.0
554,Vanguard Target Ret 2040 Fd Investor Cl,Purchased,2017-12-29,1001.0,15000.0
555,Vanguard Target Ret 2040 Fd Investor Cl,Purchased,2017-12-29,1001.0,15000.0
556,Vanguard Target Ret 2040 Fd Investor Cl,Purchased,2017-12-29,1001.0,15000.0
557,Vanguard Target Ret 2040 Fd Investor Cl,Sold,2017-12-29,,
558,Vanguard Target Ret 2040 Fd Investor Cl,Sold,2017-12-29,,
559,Vanguard Target Ret 2040 Fd Investor Cl,Sold,2017-12-29,,
560,Vanguard Target Ret 2040 Fd Investor Cl,Sold,2017-12-29,,
561,Vanguard Target Ret 2040 Fd Investor Cl,Purchased,2017-12-29,1001.0,15000.0
562,Vanguard Target Ret 2040 Fd Investor Cl,Purchased,2017-12-29,1001.0,15000.0
563,Vanguard Target Ret 2040 Fd Investor Cl,Purchased,2017-12-29,1001.0,15000.0
564,Vanguard Target Retirement 2045 Fund,Purchased,2017-12-29,1001.0,15000.0
565,Vanguard Target Retirement 2045 Fund,Purchased,2017-12-29,1001.0,15000.0
566,Vanguard Target Retirement 2045 Fund,Purchased,2017-12-29,1001.0,15000.0
567,Vanguard Target Retirement 2045 Fund,Purchased,2017-12-29,1001.0,15000.0
568,Vanguard Target Retirement 2045 Fund,Sold,2017-12-29,,
569,Vanguard Target Retirement 2045 Fund,Sold,2017-12-29,,
570,Vanguard Target Retirement 2045 Fund,Sold,2017-12-29,,
571,Vanguard Target Retirement 2045 Fund,Sold,2017-12-29,,
572,Vanguard Target Retirement 2045 Fund,Purchased,2017-12-29,1001.0,15000.0
573,Vanguard Target Retirement 2045 Fund,Purchased,2017-12-29,1001.0,15000.0
574,Vanguard Target Retirement 2045 Fund,Purchased,2017-12-29,1001.0,15000.0
575,Vanguard Target Retirement 2045 Fund,Purchased,2017-12-29,1001.0,15000.0
576,Index Moderate Age Based 6-8,Sold,2018-01-02,,
577,Index Moderate Age Based 6-8,Purchased,2018-01-02,1001.0,15000.0
578,Index Moderate Age Based 6-8,Purchased,2018-01-02,1001.0,15000.0
579,Index Moderate Age Based 13-14,Purchased,2018-01-10,1001.0,15000.0
580,Index Moderate Age Based 13-14,Purchased,2018-01-10,1001.0,15000.0
581,Index Moderate Age Based 13-14,Sold,2018-01-10,,
582,Vanguard Target Retirement 2050 (VFIFX),Purchased,2018-08-24,1001.0,15000.0
583,Vanguard Target Retirement 2050 (VFIFX),Purchased,2018-08-24,1001.0,15000.0
584,Vanguard Target Retirement 2050 (VFIFX),Purchased,2018-08-24,1001.0,15000.0
585,Vanguard Target Retirement 2050 (VFIFX),Purchased,2018-08-24,1001.0,15000.0
586,Vanguard Target Retirement 2050 (VFIFX),Sold,2018-08-24,,
587,Vanguard Target Retirement 2050 (VFIFX),Sold,2018-08-24,,
588,Vanguard Target Retirement 2050 (VFIFX),Purchased,2018-08-31,1001.0,15000.0
589,Vanguard Target Retirement 2050 (VFIFX),Purchased,2018-08-31,1001.0,15000.0
590,Vanguard Target Retirement 2050 (VFIFX),Sold,2018-08-31,,
591,Vanguard Target Retirement 2040 (VFORX),Sold,2018-09-01,50001.0,100000.0
592,Vanguard Target Retirement 2040 (VFORX),Exchanged,2018-09-01,,
593,Vanguard Target Retirement 2040 (VFORX),Sold,2018-09-01,50001.0,100000.0
594,Vanguard Target Retirement 2050 (VFIFX),Purchased,2018-09-05,50001.0,100000.0
595,Vanguard Target Retirement 2050 (VFIFX),Purchased,2018-09-05,50001.0,100000.0
596,Vanguard Target Retirement 2050 (VFIFX),Sold,2018-09-05,,
597,Schwab Target 2050 Index Fund (SWYMX),Sold,2018-11-15,,
598,Schwab Target 2050 Index Fund (SWYMX),Purchased,2018-11-15,1001.0,15000.0
599,Schwab Target 2050 Index Fund (SWYMX),Purchased,2018-11-15,1001.0,15000.0
600,Vanguard Target Retirement 2045 (VTIVX),Sold,2018-12-27,,
601,Vanguard Target Retirement 2045 (VTIVX),Sold,2018-12-27,,
602,Vanguard Target Retirement 2045 (VTIVX),Purchased,2018-12-27,1001.0,15000.0
603,Vanguard Target Retirement 2045 (VTIVX),Purchased,2018-12-27,1001.0,15000.0
604,Vanguard Target Retirement 2045 (VTIVX),Purchased,2018-12-27,1001.0,15000.0
605,Vanguard Target Retirement 2045 (VTIVX),Purchased,2018-12-27,1001.0,15000.0
606,Index Moderate Age Based 0-2,Sold,2018-12-31,,
607,Index Moderate Age Based 0-2,Purchased,2018-12-31,1001.0,15000.0
608,Index Moderate Age Based 0-2,Purchased,2018-12-31,1001.0,15000.0
609,Index Moderate Age Based 13-14,Purchased,2018-12-31,1001.0,15000.0
610,Index Moderate Age Based 13-14,Purchased,2018-12-31,1001.0,15000.0
611,Index Moderate Age Based 13-14,Sold,2018-12-31,,
612,Index Moderate Age Based 9-10,Purchased,2018-12-31,1001.0,15000.0
613,Index Moderate Age Based 9-10,Purchased,2018-12-31,1001.0,15000.0
614,Index Moderate Age Based 9-10,Sold,2018-12-31,,
615,Vanguard Target Retirement 2040 (VFORX),Purchased,2018-12-31,1001.0,15000.0
616,Vanguard Target Retirement 2040 (VFORX),Purchased,2018-12-31,1001.0,15000.0
617,Vanguard Target Retirement 2040 (VFORX),Purchased,2018-12-31,1001.0,15000.0
618,Vanguard Target Retirement 2040 (VFORX),Purchased,2018-12-31,1001.0,15000.0
619,Vanguard Target Retirement 2040 (VFORX),Sold,2018-12-31,,
620,Vanguard Target Retirement 2040 (VFORX),Sold,2018-12-31,,
621,Vanguard Target Retirement 2045 (VTIVX),Sold,2018-12-31,,
622,Vanguard Target Retirement 2045 (VTIVX),Sold,2018-12-31,,
623,Vanguard Target Retirement 2045 (VTIVX),Purchased,2018-12-31,1001.0,15000.0
624,Vanguard Target Retirement 2045 (VTIVX),Purchased,2018-12-31,1001.0,15000.0
625,Vanguard Target Retirement 2045 (VTIVX),Purchased,2018-12-31,1001.0,15000.0
626,Vanguard Target Retirement 2045 (VTIVX),Purchased,2018-12-31,1001.0,15000.0
627,Vanguard Target Retirement 2050 (VFIFX),Purchased,2018-12-31,1001.0,15000.0
628,Vanguard Target Retirement 2050 (VFIFX),Purchased,2018-12-31,1001.0,15000.0
629,Vanguard Target Retirement 2050 (VFIFX),Sold,2018-12-31,,
