,orgname,action,date1,minvalue,maxvalue
0,JPMorgan US Govt Money Market,Purchased,2009-10-19,50001.0,100000.0
1,Premier Money Market,Sold,2009-10-19,50001.0,100000.0
2,"Residence/Falls Church, VA",Sold,2010-09-16,500001.0,1000000.0
3,Piedmont Shopping Center,Purchased,2013-06-10,500001.0,1000000.0
4,Ivy High Income Fund,Purchased,2014-09-15,15001.0,50000.0
5,John Hancock Core High Yield Fund,Purchased,2014-09-15,15001.0,50000.0
6,Pioneer Global High Yield Fund,Purchased,2014-09-15,15001.0,50000.0
7,IVY High Income Fund,Exchanged,2017-12-08,,
8,IVY High Income Fund,Sold,2017-12-08,15001.0,50000.0
9,IVY High Income Fund,Sold,2017-12-08,15001.0,50000.0
10,John Hancock Core High Yield Fund,Sold,2017-12-08,15001.0,50000.0
11,John Hancock Core High Yield Fund,Sold,2017-12-08,15001.0,50000.0
12,John Hancock Core High Yield Fund,Exchanged,2017-12-08,,
13,Pershing Government Market Account,Sold,2017-12-08,1001.0,15000.0
14,Pershing Government Market Account,Sold,2017-12-08,1001.0,15000.0
15,Pershing Government Market Account,Exchanged,2017-12-08,,
16,Pioneer Global High Yield Fund,Exchanged,2017-12-08,,
17,Pioneer Global High Yield Fund,Sold,2017-12-08,15001.0,50000.0
18,Pioneer Global High Yield Fund,Sold,2017-12-08,15001.0,50000.0
19,Mainstar Trust Cash Account,Sold,2017-12-28,,
20,Mainstar Trust Cash Account,Purchased,2017-12-28,50001.0,100000.0
21,Mainstar Trust Cash Account,Purchased,2017-12-28,50001.0,100000.0
22,Practice Management of America,Sold,2018-01-22,,
23,Practice Management of America,Purchased,2018-01-22,15001.0,50000.0
24,Practice Management of America,Purchased,2018-01-22,15001.0,50000.0
