,orgname,action,date1,minvalue,maxvalue
0,TIAA-CREF T Rowe Price Science & Technology Fund,Exchanged,2013-03-20,15001,50000
1,American Funds The Income Fund of America,Purchased,2018-01-08,1001,15000
2,American Funds Washington Mutual Investors Fund Cl,Purchased,2018-01-08,1001,15000
