,orgname,action,date1,minvalue,maxvalue
0,American Century Strat Allc: Agrsv Inv,Exchanged,2018-02-06,,
1,American Century Strat Allc: Agrsv Inv,Exchanged,2018-02-06,,
2,American Century Strat Allc: Agrsv Inv,Sold,2018-02-06,1001.0,15000.0
3,American Century Strat Allc: Agrsv Inv,Sold,2018-02-06,1001.0,15000.0
4,American Century Strat Allc: Agrsv Inv,Sold,2018-02-06,1001.0,15000.0
5,American Century Strat Allc: Agrsv Inv,Sold,2018-02-06,1001.0,15000.0
6,Neuberger Berman Socially Resp TR,Sold,2018-02-06,1001.0,15000.0
7,Neuberger Berman Socially Resp TR,Sold,2018-02-06,1001.0,15000.0
8,Neuberger Berman Socially Resp TR,Sold,2018-02-06,1001.0,15000.0
9,Neuberger Berman Socially Resp TR,Sold,2018-02-06,1001.0,15000.0
10,Neuberger Berman Socially Resp TR,Exchanged,2018-02-06,,
11,Neuberger Berman Socially Resp TR,Exchanged,2018-02-06,,
12,Vanguard Inflation-Protected Secs Adm Fund,Sold,2018-02-06,928.0,928.0
13,Vanguard Inflation-Protected Secs Adm Fund,Sold,2018-02-06,928.0,928.0
14,Vanguard Inflation-Protected Secs Adm Fund,Sold,2018-02-06,928.0,928.0
15,Vanguard Inflation-Protected Secs Adm Fund,Sold,2018-02-06,928.0,928.0
16,Vanguard Institutional Index,Sold,2018-02-06,15001.0,50000.0
17,Vanguard Institutional Index,Sold,2018-02-06,15001.0,50000.0
18,Vanguard Institutional Index,Sold,2018-02-06,15001.0,50000.0
19,Vanguard Institutional Index,Sold,2018-02-06,15001.0,50000.0
20,Vanguard Institutional Index,Exchanged,2018-02-06,,
21,Vanguard Institutional Index,Exchanged,2018-02-06,,
22,Vanguard Mid Cap Index Fund - Admiral,Sold,2018-02-06,1001.0,15000.0
23,Vanguard Mid Cap Index Fund - Admiral,Exchanged,2018-02-06,,
24,Vanguard Mid Cap Index Fund - Admiral,Exchanged,2018-02-06,,
25,Vanguard Mid Cap Index Fund - Admiral,Sold,2018-02-06,1001.0,15000.0
26,Vanguard Mid Cap Index Fund - Admiral,Sold,2018-02-06,1001.0,15000.0
27,Vanguard Mid Cap Index Fund - Admiral,Sold,2018-02-06,1001.0,15000.0
28,Vanguard Small Cap Index Adm,Sold,2018-02-06,1001.0,15000.0
29,Vanguard Small Cap Index Adm,Sold,2018-02-06,1001.0,15000.0
30,Vanguard Small Cap Index Adm,Sold,2018-02-06,1001.0,15000.0
31,Vanguard Small Cap Index Adm,Exchanged,2018-02-06,,
32,Vanguard Small Cap Index Adm,Exchanged,2018-02-06,,
33,Vanguard Small Cap Index Adm,Sold,2018-02-06,1001.0,15000.0
34,Vanguard Total Bond Market Index,Sold,2018-02-06,1001.0,15000.0
35,Vanguard Total Bond Market Index,Exchanged,2018-02-06,,
36,Vanguard Total Bond Market Index,Exchanged,2018-02-06,,
37,Vanguard Total Bond Market Index,Sold,2018-02-06,1001.0,15000.0
38,Vanguard Total Bond Market Index,Sold,2018-02-06,1001.0,15000.0
39,Vanguard Total Bond Market Index,Sold,2018-02-06,1001.0,15000.0
40,Vanguard Total Intl Stock Index Admiral,Sold,2018-02-06,1001.0,15000.0
41,Vanguard Total Intl Stock Index Admiral,Sold,2018-02-06,1001.0,15000.0
42,Vanguard Total Intl Stock Index Admiral,Sold,2018-02-06,1001.0,15000.0
43,Vanguard Total Intl Stock Index Admiral,Exchanged,2018-02-06,,
44,Vanguard Total Intl Stock Index Admiral,Exchanged,2018-02-06,,
45,Vanguard Total Intl Stock Index Admiral,Sold,2018-02-06,1001.0,15000.0
