,orgname,action,date1,minvalue,maxvalue
0,Verenium Corp,Sold,2010-05-03,1001,15000
1,American International Group,Sold,2012-12-12,1001,15000
2,Exxon Mobil,Sold,2012-12-12,1001,15000
3,Pfizer Inc,Sold,2012-12-12,1001,15000
4,Procter & Gamble,Sold,2012-12-12,1001,15000
5,Exxon Mobil,Sold,2012-12-24,15001,50000
