,orgname,action,date1,minvalue,maxvalue
0,"Columbus, OH Csd Sch Facs Constr & Impt",Purchased,2008-03-04,,
1,Income Fund of America Fund,Sold,2008-03-05,,
2,Income Fund of America Fund,Sold,2008-03-05,,
3,Ivy Asset Strategy Fund ,Purchased,2008-03-05,,
4,PIMCO All Asset Fund,Purchased,2008-03-05,,
5,Dodge & Cox Stock Fund,Purchased,2008-03-10,,
6,Thornburg Mortgage Inc REIT,Sold,2008-03-11,,
7,Thornburg Mortgage Inc REIT,Sold,2008-03-11,,
8,Excel Maritime Carriers Ltd,Sold,2008-04-17,,
9,Quintana Maritime,Sold,2008-04-17,,
10,"Detroit, MI Sew Disp Rev Rfdg-Sr Lien Bd",Purchased,2008-06-06,,
11,Dodge & Cox International Stock Fund,Purchased,2008-06-06,,
12,Ivy Asset Strategy Fund ,Purchased,2008-06-06,,
13,Michigan State Dept of Tsptn Grant Anti,Purchased,2008-10-02,,
14,American International Group,Sold,2008-12-05,,
15,Citigroup Inc,Sold,2008-12-05,,
16,Citigroup Inc,Sold,2008-12-05,,
17,Excel Maritime Carriers Ltd,Sold,2008-12-05,,
18,Washington Mutual,Sold,2008-12-05,,
19,Washington Mutual,Sold,2008-12-05,,
20,iStar Financial,Sold,2008-12-05,,
21,Legg Mason Value Trust,Sold,2008-12-23,,
22,Evergreen Asset Allocation Fund,Purchased,2008-12-29,,
23,Income Fund of America Fund,Sold,2008-12-29,,
24,Legg Mason Value Trust,Purchased,2008-12-29,,
25,Eaton Vance Michigan Muni Income Trust,Purchased,2009-02-12,1001.0,15000.0
26,Energy Transfer Partners,Purchased,2009-02-12,1001.0,15000.0
27,Enterprise Products Partners,Purchased,2009-02-12,1001.0,15000.0
28,Evergreen Asset Allocation Fund,Purchased,2009-02-12,1001.0,15000.0
29,Legg Mason Value Trust,Sold,2009-02-12,1001.0,15000.0
30,Legg Mason Value Trust,Sold,2009-02-12,1001.0,15000.0
31,UTS Uncommon Values Trust,Sold,2009-02-12,15001.0,50000.0
32,Evergreen Asset Allocation Fund,Purchased,2009-02-13,1001.0,15000.0
33,Energy Transfer Partners,Purchased,2009-03-17,1001.0,15000.0
34,Evergreen Asset Allocation Fund,Sold,2009-03-17,15001.0,50000.0
35,Legg Mason Western Asset Intermediate,Purchased,2009-03-17,15001.0,50000.0
36,"Detroit, MI Capital Improvement Bond",Sold,2009-04-01,15001.0,50000.0
37,Enterprise Products Partners,Purchased,2009-04-01,1001.0,15000.0
38,"Genesee County, MI RFDG-SEW DISP SYS Bnd",Purchased,2009-04-01,1001.0,15000.0
39,Coca-Cola Co,Purchased,2009-04-28,1001.0,15000.0
40,ConocoPhillips,Purchased,2009-04-28,1001.0,15000.0
41,Exelon Corp,Purchased,2009-04-28,1001.0,15000.0
42,Kraft Foods,Purchased,2009-04-28,1001.0,15000.0
43,Williams Companies,Purchased,2009-04-28,1001.0,15000.0
44,General Motors,Exchanged,2009-05-13,1001.0,15000.0
45,Industrial DEV Auth Fairfax HLGH Bond,Purchased,2009-05-13,1001.0,15000.0
46,General Motors,Sold,2009-05-14,1001.0,15000.0
47,Comcast Corp,Purchased,2009-06-16,1001.0,15000.0
48,ConocoPhillips,Purchased,2009-06-16,1001.0,15000.0
49,Comcast Corp,Purchased,2009-09-09,1001.0,15000.0
50,Enterprise Products Partners,Purchased,2009-09-09,1001.0,15000.0
51,Legg Mason Western Asset Intermediate,Purchased,2009-11-03,1001.0,15000.0
52,Mutual Global Discovery Fund,Purchased,2009-11-03,1001.0,15000.0
53,"Detroit, MI Sew Disp System Bond",Sold,2009-12-08,1001.0,15000.0
54,Verizon Communications,Purchased,2009-12-08,1001.0,15000.0
55,Van Kampen Global Equity Dividend Port,Purchased,2010-01-20,15001.0,50000.0
56,Nuveen Virginia Premium Income,Purchased,2010-01-21,1001.0,15000.0
57,Mutual Beacon Fund,Sold,2010-02-16,15001.0,50000.0
58,BCE Inc,Purchased,2010-03-08,1001.0,15000.0
59,Bank of America,Sold,2010-03-08,1001.0,15000.0
60,DIRECTV Group,Sold,2010-03-19,15001.0,50000.0
61,Kimberly-Clark Corp,Purchased,2010-03-19,15001.0,50000.0
62,Davis New York Venture Fund,Purchased,2010-05-07,1001.0,15000.0
63,Cohen & Steers Infrastructure Fund Inc,Purchased,2010-05-12,1001.0,15000.0
64,Enterprise Products Partners,Purchased,2010-05-12,1001.0,15000.0
65,Becton Dickenson & Co,Purchased,2010-06-25,1001.0,15000.0
66,Wells Fargo,Sold,2010-06-25,1001.0,15000.0
67,Microsoft Corp,Purchased,2010-06-28,1001.0,15000.0
68,Mutual Quest Fund,Sold,2010-11-10,15001.0,50000.0
69,Mutual SER Fund INC Beacon Fund,Sold,2010-11-10,15001.0,50000.0
70,Mutual SER Fund Inc SHS Fund,Sold,2010-11-10,1001.0,15000.0
71,Enterprise Products Partners,Purchased,2010-11-16,1001.0,15000.0
72,Mutual Quest Fund,Sold,2010-11-16,1001.0,15000.0
73,Novartis AG,Purchased,2010-11-16,1001.0,15000.0
74,ACAP Strategic Fund,Purchased,2010-11-30,15001.0,50000.0
75,IRA Enterprise Prods Partners LP,Purchased,2010-12-01,1001.0,15000.0
76,Bank of America,Sold,2010-12-08,1001.0,15000.0
77,"Metro Washington, DC Arpts Auth Gen Bond",Purchased,2010-12-13,15001.0,50000.0
78,Citigroup CAP XII TRUPS,Purchased,2010-12-14,1001.0,15000.0
79,Enterprise Products Partners,Purchased,2010-12-14,1001.0,15000.0
80,Enterprise Products Partners,Purchased,2010-12-14,1001.0,15000.0
81,Microsoft Corp,Purchased,2010-12-14,1001.0,15000.0
82,Unilever,Purchased,2010-12-14,15001.0,50000.0
83,Verizon Communications,Purchased,2010-12-14,1001.0,15000.0
84,Blackstone/GSO SR Floating Rate Term Fnd,Purchased,2010-12-15,15001.0,50000.0
85,Unilever,Purchased,2010-12-16,1001.0,15000.0
86,Western Asset Managed Munis Fund,Purchased,2010-12-20,15001.0,50000.0
87,ConocoPhillips,Sold,2011-01-21,15001.0,50000.0
88,Chevron Corp,Purchased,2011-01-25,1001.0,15000.0
89,Schlumberger Ltd,Purchased,2011-01-25,15001.0,50000.0
90,Gamco Global Gold & Natural Resources,Purchased,2011-01-26,1001.0,15000.0
91,Brandywine Fund,Sold,2011-01-31,15001.0,50000.0
92,Legg Mason Value Trust Fund,Sold,2011-01-31,15001.0,50000.0
93,Legg Mason Value Trust Fund,Sold,2011-01-31,1001.0,15000.0
94,Wells Fargo Advantage Asset Allocation,Sold,2011-01-31,15001.0,50000.0
95,Wells Fargo Advantage Asset Allocation,Sold,2011-01-31,15001.0,50000.0
96,CVS/Caremark Corp,Purchased,2011-02-07,1001.0,15000.0
97,Chevron Corp,Purchased,2011-02-07,1001.0,15000.0
98,Citigroup Cap XII TRUPS 8.5% FIX To FLT ,Purchased,2011-02-07,1001.0,15000.0
99,Columbia Acorn International Fund,Purchased,2011-02-07,15001.0,50000.0
100,Columbia Acorn International Fund,Purchased,2011-02-07,15001.0,50000.0
101,Johnson & Johnson,Purchased,2011-02-07,1001.0,15000.0
102,Microsoft Corp,Purchased,2011-02-07,15001.0,50000.0
103,National Fuel Gas Co,Purchased,2011-02-07,1001.0,15000.0
104,Novartis AG,Purchased,2011-02-07,1001.0,15000.0
105,PepsiCo Inc,Purchased,2011-02-07,15001.0,50000.0
106,Unilever,Purchased,2011-02-07,1001.0,15000.0
107,Columbia Acorn International Fund,Purchased,2011-02-11,1001.0,15000.0
108,Apollo Senior Foating Rate Fund Inc,Purchased,2011-02-23,15001.0,50000.0
109,Abbott Labs,Purchased,2011-04-08,1001.0,15000.0
110,Honeywell International,Purchased,2011-04-08,1001.0,15000.0
111,Merck & Co,Sold,2011-04-08,1001.0,15000.0
112,Fidelity Reserves,Purchased,2011-04-15,15001.0,50000.0
113,Dow Chemical,Purchased,2011-06-03,1001.0,15000.0
114,Chevron Corp,Purchased,2011-07-12,1001.0,15000.0
115,Dow Chemical,Purchased,2011-07-12,1001.0,15000.0
116,Legg Mason Western Asset Intermediate,Sold,2011-09-16,15001.0,50000.0
117,Sandridge Permian Trust,Purchased,2011-09-16,15001.0,50000.0
118,Unilever,Purchased,2011-09-16,1001.0,15000.0
119,Williams Companies,Purchased,2011-09-16,1001.0,15000.0
120,Kimberly-Clark Corp,Sold,2011-09-28,15001.0,50000.0
121,Exxon Mobil,Purchased,2011-10-04,15001.0,50000.0
122,Stryker Corp,Sold,2011-11-28,1001.0,15000.0
123,Stryker Corp,Sold,2011-11-28,1001.0,15000.0
124,Atlas Pipeline Partners LP,Purchased,2011-12-07,15001.0,50000.0
125,Computer Sciences Corp,Purchased,2011-12-20,1001.0,15000.0
126,IBM Corp,Purchased,2011-12-21,15001.0,50000.0
127,Mutual Quest Fund,Sold,2011-12-21,1001.0,15000.0
128,CVS/Caremark Corp,Sold,2012-01-11,15001.0,50000.0
129,Honeywell International,Purchased,2012-01-11,15001.0,50000.0
130,Cohen & Steers Infrastructure Fund,Purchased,2012-01-18,1001.0,15000.0
131,Caterpillar Inc,Purchased,2012-01-31,1001.0,15000.0
132,Vodofone Group,Purchased,2012-01-31,1001.0,15000.0
133,Units VK Global Equity Dividend Portfol,Sold,2012-02-03,15001.0,50000.0
134,Unit AAM High 50 Dividend 12,Purchased,2012-02-07,1001.0,15000.0
135,Unit AAM Int'l High 30 Dividend 114,Purchased,2012-02-07,1001.0,15000.0
136,National Fuel Gas Co,Purchased,2012-03-12,1001.0,15000.0
137,Sandridge Permian Trust,Sold,2012-03-12,15001.0,50000.0
138,Verizon Communications,Sold,2012-03-26,15001.0,50000.0
139,Vodofone Group,Purchased,2012-03-27,15001.0,50000.0
140,Sandridge Mississippian Trust II Unit,Purchased,2012-04-26,15001.0,50000.0
141,3M Co,Purchased,2012-06-19,1001.0,15000.0
142,Apple Inc,Purchased,2012-06-19,15001.0,50000.0
143,Caterpillar Inc,Purchased,2012-06-19,1001.0,15000.0
144,Computer Sciences Corp,Sold,2012-06-19,1001.0,15000.0
145,Microsoft Corp,Purchased,2012-06-19,1001.0,15000.0
146,Williams Companies,Purchased,2012-06-19,1001.0,15000.0
147,Citigroup CAP XII TRUPS,Sold,2012-07-18,1001.0,15000.0
148,Citigroup CAP XII TRUPS,Sold,2012-07-18,1001.0,15000.0
149,Cohen & Steers Limited Dur PFD & Income,Purchased,2012-07-26,1001.0,15000.0
150,Davis New York Venture Fund,Purchased,2012-11-01,1001.0,15000.0
151,Nestle Sa,Purchased,2012-11-01,15001.0,50000.0
152,Schlumberger Ltd,Purchased,2012-11-01,1001.0,15000.0
153,Unilever,Sold,2012-11-01,15001.0,50000.0
154,Vodofone Group,Purchased,2012-11-01,1001.0,15000.0
155,Apple Inc,Purchased,2012-12-05,1001.0,15000.0
156,Aircastle Ltd,Purchased,2013-01-16,1001.0,15000.0
157,CVS Caremark,Sold,2013-01-16,15001.0,50000.0
158,Coca-Cola Co,Purchased,2013-01-16,1001.0,15000.0
159,Comcast Corp,Sold,2013-01-16,15001.0,50000.0
160,Enterprise Products Partners,Purchased,2013-01-16,1001.0,15000.0
161,Exelon Corp,Sold,2013-01-16,1001.0,15000.0
162,Nextera Energy,Purchased,2013-01-16,15001.0,50000.0
163,Seadrill Ltd,Purchased,2013-01-16,1001.0,15000.0
164,Davis New York Venture Fund,Purchased,2013-02-14,1001.0,15000.0
165,Davis New York Venture Fund,Purchased,2013-02-14,1001.0,15000.0
166,Davis New York Venture Fund,Purchased,2013-02-14,1001.0,15000.0
167,Aircastle Ltd,Purchased,2013-02-15,1001.0,15000.0
168,Freeport-McMoran Copper & Gold,Purchased,2013-02-15,1001.0,15000.0
169,Seadrill Ltd,Purchased,2013-02-15,1001.0,15000.0
170,Unit AAM High 50 Dividend Fund,Sold,2013-02-19,1001.0,15000.0
171,Unit AAM High 50 Dividend Fund,Purchased,2013-02-19,1001.0,15000.0
172,Unit AAM Intl High 30 Div 2011-4Q,Sold,2013-02-26,1001.0,15000.0
173,Unit Advisors International High 30 Dividend Fund,Purchased,2013-02-26,1001.0,15000.0
174,Apple Inc,Purchased,2013-03-20,1001.0,15000.0
175,CVS Caremark,Sold,2013-03-21,15001.0,50000.0
176,UnitedHealth Group,Purchased,2013-03-21,15001.0,50000.0
177,Stanley Black & Decker,Purchased,2013-04-26,1001.0,15000.0
178,Eaton Vance Tax-Managed Global Diversified Equity,Purchased,2013-05-16,15001.0,50000.0
179,Seadrill Ltd,Purchased,2013-05-16,1001.0,15000.0
180,Seadrill Ltd,Purchased,2013-05-16,1001.0,15000.0
181,Thornburg International Value Fund,Sold,2013-05-16,1001.0,15000.0
182,Williams Cos,Purchased,2013-06-24,1001.0,15000.0
183,Hess Corp,Purchased,2013-07-22,1001.0,15000.0
184,Comcast Corp,Purchased,2013-09-17,1001.0,15000.0
185,Eaton Vance Tax-Managed Global Diversified Equity,Purchased,2013-09-17,1001.0,15000.0
186,General Electric,Purchased,2013-09-17,1001.0,15000.0
187,Vodafone Group,Sold,2013-09-26,15001.0,50000.0
188,Vodafone Group,Sold,2013-09-26,15001.0,50000.0
189,Apple Inc,Purchased,2013-10-01,15001.0,50000.0
190,Microsoft Corp,Purchased,2013-10-01,15001.0,50000.0
191,AT&T Inc,Purchased,2013-10-21,1001.0,15000.0
192,GAMCO Natural Resources Gold & Income Trust,Sold,2013-10-21,1001.0,15000.0
193,Spirit Realty Capital Inc,Purchased,2013-10-21,15001.0,50000.0
194,EMC Corp,Purchased,2013-11-06,1001.0,15000.0
195,First Trust MLP & Energy Income Fund,Purchased,2013-11-12,1001.0,15000.0
196,SandRidge Mississippian Trust II,Sold,2013-11-12,1001.0,15000.0
197,Covanta Holding Corp,Purchased,2013-11-13,1001.0,15000.0
198,Cisco Systems,Purchased,2013-12-23,1001.0,15000.0
199,Walgreen Co,Purchased,2013-12-23,1001.0,15000.0
200,Cohen & Steers LTD DUR PFD & INC,Purchased,2013-12-27,1001.0,15000.0
201,Cohen & Steers Ltd Duration PFD & Income Fund,Purchased,2013-12-27,1001.0,15000.0
202,Enterprise Products Partners,Sold,2013-12-30,15001.0,50000.0
