,orgname,action,date1,minvalue,maxvalue
0,American Funds Washington Mutual Investors Fund,Purchased,2018-06-18,1001,15000
1,American Funds Washington Mutual Investors Fund Cl,Purchased,2018-06-18,1001,15000
2,Capital Strength Oppor,Purchased,2018-09-25,50001,100000
3,FT 7549: Capital Strength Oppor,Purchased,2018-09-25,50001,100000
4,First Trust Capital Strength Opportunity 1,Sold,2018-09-26,50001,100000
5,First Trust Capital Strength Opportunity 1 (FQLMPX,Sold,2018-09-26,50001,100000
6,Dividend Strength Oppo,Purchased,2018-09-28,50001,100000
7,FT 7583: Dividend Strength Oppo,Purchased,2018-09-28,50001,100000
8,First Trust Dividend Strength Opportunity Series,Sold,2018-10-01,50001,100000
9,First Trust Dividend Strength Opportunity Series C,Sold,2018-10-01,50001,100000
10,JPMorgan U.S. Large Cap Core Plus Fund Class I Sha,Purchased,2018-12-03,1001,15000
11,JPMorgan US Large Cap Core Plus Fund,Purchased,2018-12-03,1001,15000
12,MainStay Large Cap Growth Fund Class I,Purchased,2018-12-04,1001,15000
13,Mainstay Funds Large Cap Growth Fund,Purchased,2018-12-04,1001,15000
14,First Trust Capital Strength Portfolio Series 35,Sold,2018-12-14,50001,100000
15,First Trust Capital Strength Portfolio Series 35 C,Sold,2018-12-14,50001,100000
16,Lake Wedowee Lot,Sold,2018-12-18,100001,250000
17,Lake Wedowee Lot,Sold,2018-12-18,100001,250000
18,Principal MidCap Fund Institutional Class,Purchased,2018-12-20,1001,15000
19,Principal MidCap Fund Institutional Class,Purchased,2018-12-20,1001,15000
20,American Funds Fundamental Investors Class A,Purchased,2018-12-24,1001,15000
21,American Funds Fundamental Investors Fund,Purchased,2018-12-24,1001,15000
22,American Funds Washington Mutual Investors Fund,Purchased,2018-12-24,1001,15000
23,American Funds Washington Mutual Investors Fund Cl,Purchased,2018-12-24,1001,15000
