,orgname,action,date1,minvalue,maxvalue
0,AXA Advisors/LPL Financial IRA,Sold,2010-05-01,15001,50000
1,AXA Advisors/LPL Financial Invest,Sold,2011-04-01,15001,50000
2,American Funds Growth Fund of America,Purchased,2013-12-19,1502,1502
3,American Funds Growth Fund of America,Purchased,2013-12-19,133,133
4,AllianceBernstein International Value,Purchased,2013-12-26,240,240
