,orgname,action,date1,minvalue,maxvalue
0,American Funds New Economy Fund,Purchased,2008-01-03,1001.0,15000.0
1,International Game Technology,Purchased,2008-01-03,1001.0,15000.0
2,New Perspective Fund,Purchased,2008-01-03,1001.0,15000.0
3,New Perspective Fund,Purchased,2008-12-26,1001.0,15000.0
4,Growth Fund of America,Purchased,2009-09-04,1001.0,15000.0
5,OCM Gold Fund,Exchanged,2009-11-05,1001.0,15000.0
6,Alexander & Baldwin,Sold,2011-01-05,1001.0,15000.0
7,Alliance Growth & Income Fund,Sold,2011-01-05,15001.0,50000.0
8,Calamos Growth Fund,Sold,2011-01-05,1001.0,15000.0
9,Diageo Plc,Sold,2011-01-05,1001.0,15000.0
10,Duke Energy,Sold,2011-01-05,1001.0,15000.0
11,International Game Technology,Sold,2011-01-05,1001.0,15000.0
12,OCM Gold Fund,Sold,2011-01-05,15001.0,50000.0
13,Charles Schwab Money Market,Purchased,2011-02-15,1001.0,15000.0
14,Powershares Fundamental High Yield Corp,Purchased,2011-02-15,1001.0,15000.0
15,Powershares Fundamental High Yield Corp,Purchased,2011-02-15,559.0,559.0
16,Schwab Emerging Markets Equity ETF,Purchased,2011-02-15,252.0,252.0
17,Schwab Emerging Markets Equity ETF,Purchased,2011-02-15,1001.0,15000.0
18,Schwab International Equity,Purchased,2011-02-15,1001.0,15000.0
19,Schwab International Equity,Purchased,2011-02-15,239.0,239.0
20,Schwab US Large-Cap Growth ETF,Purchased,2011-02-15,15001.0,50000.0
21,Schwab US Large-Cap Growth ETF,Purchased,2011-02-15,860.0,860.0
22,Schwab US Small-Cap Growth ETF,Purchased,2011-02-15,1001.0,15000.0
23,Schwab US Small-Cap Growth ETF,Purchased,2011-02-15,188.0,188.0
24,Vanguard REIT Index,Purchased,2011-02-15,118.0,118.0
25,Vanguard REIT Index,Purchased,2011-02-15,1001.0,15000.0
26,Schwab International Equity,Sold,2011-03-11,239.0,239.0
27,Schwab Emerging Markets Equity ETF,Sold,2011-03-14,252.0,252.0
28,Schwab Emerging Markets Equity ETF,Sold,2011-03-14,1001.0,15000.0
29,Schwab International Equity,Sold,2011-03-14,1001.0,15000.0
30,Schwab US Large-Cap Growth ETF,Sold,2011-03-14,15001.0,50000.0
31,Schwab US Large-Cap Growth ETF,Sold,2011-03-14,860.0,860.0
32,Schwab US Small-Cap Growth ETF,Sold,2011-03-15,1001.0,15000.0
33,Schwab US Small-Cap Growth ETF,Sold,2011-03-15,188.0,188.0
34,Schwab Emerging Markets Equity ETF,Purchased,2011-03-24,241.0,241.0
35,Schwab Emerging Markets Equity ETF,Purchased,2011-03-24,1001.0,15000.0
36,Schwab International Equity,Purchased,2011-03-24,1001.0,15000.0
37,Schwab International Equity,Purchased,2011-03-24,476.0,476.0
38,Schwab US Large-Cap Growth ETF,Purchased,2011-03-24,15001.0,50000.0
39,Schwab US Large-Cap Growth ETF,Purchased,2011-03-24,648.0,648.0
40,Schwab US Small-Cap Growth ETF,Purchased,2011-03-24,1001.0,15000.0
41,Schwab US Small-Cap Growth ETF,Purchased,2011-03-24,189.0,189.0
42,Schwab Emerging Markets Equity ETF,Sold,2011-04-13,10.0,10.0
43,Powershares Fundamental High Yield Corp,Sold,2011-06-16,15.0,15.0
44,Schwab US Large-Cap Growth ETF,Sold,2011-06-16,15001.0,50000.0
45,Schwab US Large-Cap Growth ETF,Sold,2011-06-16,648.0,648.0
46,Schwab US Large-Cap Growth ETF,Purchased,2011-07-07,15001.0,50000.0
47,Schwab US Large-Cap Growth ETF,Purchased,2011-07-07,609.0,609.0
48,Schwab Emerging Markets Equity ETF,Sold,2011-08-22,231.0,231.0
49,Schwab Emerging Markets Equity ETF,Sold,2011-08-22,1001.0,15000.0
50,Schwab International Equity,Sold,2011-08-22,1001.0,15000.0
51,Schwab International Equity,Sold,2011-08-22,476.0,476.0
52,Schwab US Large-Cap Growth ETF,Sold,2011-08-22,15001.0,50000.0
53,Schwab US Large-Cap Growth ETF,Sold,2011-08-22,609.0,609.0
54,Schwab US Small-Cap Growth ETF,Sold,2011-08-22,1001.0,15000.0
55,Schwab US Small-Cap Growth ETF,Sold,2011-08-22,189.0,189.0
56,Vanguard REIT Index,Sold,2011-08-22,118.0,118.0
57,Vanguard REIT Index,Sold,2011-08-22,1001.0,15000.0
58,Blackrock Global Opportunities Equtiy Tr,Purchased,2011-09-15,558.0,558.0
59,Blackrock Global Opportunities Fund,Purchased,2011-09-15,1001.0,15000.0
60,Schwab Emerging Markets Equity ETF,Purchased,2011-09-15,116.0,116.0
61,Schwab Emerging Markets Equity ETF,Purchased,2011-09-15,1001.0,15000.0
62,Schwab International Equity,Purchased,2011-09-15,1001.0,15000.0
63,Schwab International Equity,Purchased,2011-09-15,349.0,349.0
64,Schwab US Large-Cap Growth ETF,Purchased,2011-09-15,15001.0,50000.0
65,Schwab US Large-Cap Growth ETF,Purchased,2011-09-15,687.0,687.0
66,Schwab US REIT ETF,Purchased,2011-09-15,221.0,221.0
67,Schwab US REIT ETF,Purchased,2011-09-15,1001.0,15000.0
68,American Funds,Purchased,2012-04-10,15001.0,50000.0
69,American Funds Growth Fund of America,Sold,2012-04-10,1001.0,15000.0
70,American Funds Growth Fund of America,Sold,2012-04-10,1001.0,15000.0
71,Short-Term Bond Fund of America,Purchased,2012-04-10,1001.0,15000.0
72,Schwab Emerging Markets Equity ETF,Sold,2012-05-17,1001.0,15000.0
73,Schwab International Equity ETF,Sold,2012-05-17,1001.0,15000.0
74,Schwab US Large Cap Growth ETF,Sold,2012-05-17,15001.0,50000.0
75,Charles Schwab/Money Market,Purchased,2012-05-23,15001.0,50000.0
76,Blackrock Global Opportunities Fund,Purchased,2012-07-13,1001.0,15000.0
77,PowerShares Fundamental High Yield Corp,Sold,2012-07-13,1001.0,15000.0
78,Apple Inc,Purchased,2012-07-27,1001.0,15000.0
79,Apple Inc,Sold,2012-07-30,1001.0,15000.0
80,Blackrock Global Opportunities Fund,Sold,2012-07-30,1001.0,15000.0
81,PowerShares Fundamental High Yield Corp,Sold,2012-07-30,1001.0,15000.0
82,Schwab US REIT ETF,Sold,2012-07-30,1001.0,15000.0
83,Charles Schwab/Money Market,Sold,2012-08-01,1001.0,15000.0
84,Charles Schwab/Money Market,Purchased,2012-08-03,15001.0,50000.0
85,Charles Schwab/Money Market,Sold,2012-08-29,50001.0,100000.0
86,American Funds Growth Fund of America,Purchased,2012-09-05,15001.0,50000.0
87,American Funds New Economy Fund,Purchased,2012-09-05,1001.0,15000.0
88,American Funds New Perspective Fund,Purchased,2012-09-05,1001.0,15000.0
89,American Funds New World Fund,Purchased,2012-09-05,1001.0,15000.0
90,American Funds,Sold,2012-09-09,1001.0,15000.0
91,American Funds,Purchased,2012-10-15,1001.0,15000.0
92,American Funds,Sold,2012-10-15,1001.0,15000.0
93,American Funds,Sold,2012-10-16,1001.0,15000.0
94,American Funds New Economy Fund,Purchased,2012-12-28,1001.0,15000.0
95,Short-Term Bond Fund of America,Sold,2013-01-11,1001.0,15000.0
96,Short-Term Bond Fund of America,Sold,2013-02-11,1001.0,15000.0
97,Short-Term Bond Fund of America,Sold,2013-03-19,1001.0,15000.0
98,Karpe Mortgage,Sold,2013-04-26,1001.0,15000.0
99,Growth Fund of America,Purchased,2013-12-19,1001.0,15000.0
100,Growth Fund of America,Purchased,2013-12-19,1001.0,15000.0
101,American Funds New Economy Fund,Purchased,2013-12-27,1001.0,15000.0
102,New Perspective Fund,Purchased,2013-12-27,1001.0,15000.0
103,American Funds New Economy Fund,Purchased,2014-02-14,1001.0,15000.0
104,Growth Fund of America Fund,Purchased,2014-02-14,1001.0,15000.0
105,New World Fund,Sold,2014-02-14,15001.0,50000.0
106,Growth Fund of America Fund,Sold,2014-06-11,15001.0,50000.0
107,Growth Fund of America Fund,Purchased,2014-06-11,15001.0,50000.0
108,Growth Fund of America Fund,Purchased,2014-12-18,1001.0,15000.0
109,Growth Fund of America Fund,Purchased,2014-12-18,1001.0,15000.0
110,American Funds New Economy Fund,Purchased,2014-12-29,1001.0,15000.0
111,New Perspective Fund,Purchased,2014-12-29,1001.0,15000.0
112,American Funds Mutual Fund,Sold,2017-12-19,,
113,American Funds Mutual Fund,Purchased,2017-12-19,1001.0,15000.0
114,American Funds Mutual Fund,Purchased,2017-12-19,1001.0,15000.0
115,Growth Fund of America,Purchased,2017-12-21,1001.0,15000.0
116,Growth Fund of America,Purchased,2017-12-21,1001.0,15000.0
117,Growth Fund of America,Purchased,2017-12-21,1001.0,15000.0
118,Growth Fund of America,Purchased,2017-12-21,1001.0,15000.0
119,Growth Fund of America,Sold,2017-12-21,,
120,Growth Fund of America,Sold,2017-12-21,,
121,American Funds New Economy Fund,Sold,2017-12-26,,
122,American Funds New Economy Fund,Purchased,2017-12-26,1001.0,15000.0
123,American Funds New Economy Fund,Purchased,2017-12-26,1001.0,15000.0
124,American Funds Mutual Fund,Sold,2018-12-20,,
125,American Funds Mutual Fund,Purchased,2018-12-20,1001.0,15000.0
126,American Funds Mutual Fund,Purchased,2018-12-20,1001.0,15000.0
127,American Funds New Economy Fund,Sold,2018-12-20,,
128,American Funds New Economy Fund,Purchased,2018-12-20,1001.0,15000.0
129,American Funds New Economy Fund,Purchased,2018-12-20,1001.0,15000.0
130,Growth Fund of America,Purchased,2018-12-24,1001.0,15000.0
131,Growth Fund of America,Purchased,2018-12-24,1001.0,15000.0
132,Growth Fund of America,Purchased,2018-12-24,1001.0,15000.0
133,Growth Fund of America,Purchased,2018-12-24,1001.0,15000.0
134,Growth Fund of America,Sold,2018-12-24,,
135,Growth Fund of America,Sold,2018-12-24,,
