,orgname,action,date1,minvalue,maxvalue
0,"1214 10th Avenue,/Neptune, NJ",Sold,2012-04-04,100001.0,250000.0
1,Doubleline Emerging Markets Fixed Income,Sold,2013-01-13,1001.0,15000.0
2,Doubleline Total Return Bond Fund,Sold,2013-01-13,1001.0,15000.0
3,Invesco Equal Weight S&P 500 Index,Sold,2013-01-13,1001.0,15000.0
4,"Orrick, Herrington & Sutcliffe",Sold,2013-01-13,50001.0,100000.0
5,"Orrick, Herrington & Sutcliffe 401K Plan",Sold,2013-01-13,1001.0,15000.0
6,PIMCO Emerging Local Bonds,Sold,2013-01-13,1001.0,15000.0
7,PIMCO Total Return Fund,Sold,2013-01-13,1001.0,15000.0
8,Schwab S&P 500 Select Fund,Sold,2013-01-13,1001.0,15000.0
9,Vanguard Emerging Markets Stock Index,Sold,2013-01-13,1001.0,15000.0
10,Vanguard Mid Cap Index Fund,Sold,2013-01-13,1001.0,15000.0
11,Vanguard Total Bond,Sold,2013-01-13,1001.0,15000.0
12,Western Asset Core Plus Bond Fund,Sold,2013-01-13,1001.0,15000.0
13,"Orrick, Herrington & Sutcliffe",Sold,2013-01-25,100001.0,250000.0
14,1441 Lincoln Road,Sold,2013-04-19,100001.0,250000.0
15,East Hill Road (Land),Sold,2013-05-14,15001.0,50000.0
16,283 E Hill Road,Sold,2013-11-25,100001.0,250000.0
17,35 Lake Shore Road,Sold,2017-05-15,,
18,35 Lake Shore Road,Purchased,2017-05-15,250001.0,500000.0
19,35 Lake Shore Road,Purchased,2017-05-15,250001.0,500000.0
20,46 Corkscrew,Exchanged,2018-03-22,,
21,46 Corkscrew,Sold,2018-03-22,250001.0,500000.0
22,46 Corkscrew,Sold,2018-03-22,250001.0,500000.0
23,57 Old Taylor,Exchanged,2018-05-30,,
24,57 Old Taylor,Sold,2018-05-30,100001.0,250000.0
25,57 Old Taylor,Sold,2018-05-30,100001.0,250000.0
