,orgname,action,date1,minvalue,maxvalue
0,Highland Cd Str Rts,Purchased,2008-01-17,1001,15000
1,Highland Cd Str Rts,Purchased,2008-01-17,1001,15000
2,Linear Technology,Sold,2008-04-11,15001,50000
3,Linear Technology,Sold,2008-04-11,15001,50000
4,Steel Dynamics,Purchased,2008-04-11,15001,50000
5,Steel Dynamics,Purchased,2008-04-11,15001,50000
6,Wells Fargo,Sold,2008-04-11,15001,50000
7,Wells Fargo,Sold,2008-04-11,15001,50000
8,Skywest Inc,Sold,2008-04-22,1001,15000
9,Skywest Inc,Sold,2008-04-22,1001,15000
10,Deere & Co,Purchased,2008-05-12,1001,15000
11,Deere & Co,Purchased,2008-05-12,1001,15000
12,Eaton Vance Tax Managed Growth Fund,Sold,2008-05-12,1001,15000
13,Eaton Vance Tax Managed Growth Fund,Sold,2008-05-12,1001,15000
14,MI S&P 500/CD,Purchased,2008-05-20,15001,50000
15,MI S&P 500/CD,Purchased,2008-05-20,15001,50000
16,Morgan Stanley,Purchased,2008-07-23,15001,50000
17,Morgan Stanley,Purchased,2008-07-23,15001,50000
18,Skywest Inc,Purchased,2008-07-23,15001,50000
19,Skywest Inc,Purchased,2008-07-23,15001,50000
20,Absolute Return Note Linked to SPX,Sold,2008-09-22,15001,50000
21,Absolute Return Note Linked to SPX,Sold,2008-09-22,15001,50000
22,Unit Clay Zacks Income Advantage,Sold,2008-12-02,1001,15000
23,Unit Clay Zacks Income Advantage,Sold,2008-12-02,1001,15000
24,American Europacific Growth Fund,Purchased,2008-12-23,1001,15000
25,American Europacific Growth Fund,Purchased,2008-12-23,1001,15000
26,Creston Resources,Purchased,2009-03-10,1001,15000
27,Creston Resources,Purchased,2009-03-10,1001,15000
28,Zyto Corp,Purchased,2009-03-10,1001,15000
29,Zyto Corp,Purchased,2009-03-10,1001,15000
30,AT&T Inc,Purchased,2009-03-17,15001,50000
31,AT&T Inc,Purchased,2009-03-17,15001,50000
32,Celgene Corp,Purchased,2009-03-17,1001,15000
33,Celgene Corp,Purchased,2009-03-17,1001,15000
34,Cisco Systems,Purchased,2009-03-17,15001,50000
35,Cisco Systems,Purchased,2009-03-17,15001,50000
36,Devon Energy,Purchased,2009-03-17,15001,50000
37,Devon Energy,Purchased,2009-03-17,15001,50000
38,General Electric,Purchased,2009-03-17,1001,15000
39,General Electric,Purchased,2009-03-17,1001,15000
40,Tenaris SA,Purchased,2009-03-17,15001,50000
41,Tenaris SA,Purchased,2009-03-17,15001,50000
42,Proshares UltraShort S&P 500 Fund,Purchased,2009-04-23,15001,50000
43,Proshares UltraShort S&P 500 Fund,Purchased,2009-04-23,15001,50000
44,Tenaris SA,Sold,2009-04-23,15001,50000
45,Tenaris SA,Sold,2009-04-23,15001,50000
46,Market Vectors Gold Miners ETF,Purchased,2009-06-16,15001,50000
47,Market Vectors Gold Miners ETF,Purchased,2009-06-16,15001,50000
48,Cisco Systems,Sold,2009-07-21,15001,50000
49,Cisco Systems,Sold,2009-07-21,15001,50000
50,Celgene Corp,Sold,2009-08-05,15001,50000
51,Celgene Corp,Sold,2009-08-05,15001,50000
52,Proshares UltraShort S&P 500 Fund,Sold,2009-08-07,15001,50000
53,Proshares UltraShort S&P 500 Fund,Sold,2009-08-07,15001,50000
54,Cushing MLP total Return Fund,Sold,2009-11-11,1001,15000
55,Cushing MLP total Return Fund,Sold,2009-11-11,1001,15000
56,IBM Corp,Sold,2009-11-11,15001,50000
57,IBM Corp,Sold,2009-11-11,15001,50000
58,Market Vectors Gold Miners ETF,Sold,2009-11-11,15001,50000
59,Market Vectors Gold Miners ETF,Sold,2009-11-11,15001,50000
60,MI S&P 500 Cert of Deposit IDX,Sold,2009-11-30,15001,50000
61,MI S&P 500 Cert of Deposit IDX,Sold,2009-11-30,15001,50000
62,American Europacific Growth Fund,Purchased,2009-12-24,1001,15000
63,American Europacific Growth Fund,Purchased,2009-12-24,1001,15000
64,Devon Energy,Exchanged,2010-01-20,15001,50000
65,Devon Energy,Exchanged,2010-01-20,15001,50000
66,Nuveen Mtg Opp Term,Purchased,2010-02-23,15001,50000
67,Nuveen Mtg Opp Term,Purchased,2010-02-23,15001,50000
68,Abbott Laboratories,Purchased,2010-08-25,1001,15000
69,Abbott Laboratories,Purchased,2010-08-25,1001,15000
70,CVS/Caremark Corp,Exchanged,2010-08-25,1001,15000
71,CVS/Caremark Corp,Exchanged,2010-08-25,1001,15000
72,Deere & Co,Purchased,2010-08-25,1001,15000
73,Deere & Co,Purchased,2010-08-25,1001,15000
74,PIMCO RealReturn Fund,Purchased,2010-08-25,50001,100000
75,PIMCO RealReturn Fund,Purchased,2010-08-25,50001,100000
76,Ford Motor Co,Purchased,2010-10-06,1001,15000
77,Ford Motor Co,Purchased,2010-10-06,1001,15000
78,Deere & Co,Exchanged,2010-10-11,15001,50000
79,Deere & Co,Exchanged,2010-10-11,15001,50000
80,Highland Credit Strategies,Exchanged,2010-10-11,1001,15000
81,Highland Credit Strategies,Exchanged,2010-10-11,1001,15000
82,Zyto Corp,Exchanged,2010-11-18,1001,15000
83,Zyto Corp,Exchanged,2010-11-18,1001,15000
84,Zyto Corp,Exchanged,2010-11-19,1001,15000
85,Zyto Corp,Exchanged,2010-11-19,1001,15000
86,Zyto Corp,Exchanged,2010-11-22,1001,15000
87,Zyto Corp,Exchanged,2010-11-22,1001,15000
88,American Europacific Growth Fund,Purchased,2010-12-27,1001,15000
89,American Europacific Growth Fund,Purchased,2010-12-27,1001,15000
