,orgname,action,date1,minvalue,maxvalue
0,AFIS Growth Retirement annuity,Sold,2009-01-23,15001,50000
1,AFIS International Retirement annuity,Sold,2009-01-23,15001,50000
2,Del Small Cap Value Retirement Annuity,Sold,2009-01-23,15001,50000
3,LVIP Delaware Bond Retirement Annuity,Purchased,2009-01-23,50001,100000
4,NB Mid Cap Value Retirement annuity,Sold,2009-01-23,15001,50000
5,Mass Mutual Life Panorama Premier,Sold,2009-02-06,15001,50000
6,Mass Mutual Life Mass Mutual Odyssey,Purchased,2009-02-09,15001,50000
7,American Funds Growth Fund of America,Exchanged,2010-01-20,50001,100000
8,American Funds Growth Fund of America,Exchanged,2010-01-20,50001,100000
9,Lincoln Life - Fixed Account,Purchased,2011-01-20,50001,100000
