,orgname,action,date1,minvalue,maxvalue
0,William Wrigley Jr Co,Sold,2008-10-07,1000001,5000000
1,Corning Inc,Sold,2008-12-15,1001,15000
2,MFS Total Return Fund,Exchanged,2008-12-15,15001,50000
3,RTI Biologies,Sold,2008-12-15,1001,15000
4,Senbanc Fund,Sold,2008-12-15,1001,15000
5,Stryker Corp,Sold,2008-12-15,50001,100000
6,Under Armour Inc,Sold,2008-12-15,1001,15000
7,Chesapeake Energy,Purchased,2008-12-19,15001,50000
8,Stryker Corp,Purchased,2008-12-19,15001,50000
9,Nationwide Financial Services,Sold,2009-01-05,1001,15000
10,Wright Patman Credit Union/CD,Purchased,2009-02-23,100001,250000
11,Fifth Third Bank/CD,Purchased,2009-03-07,100001,250000
12,Hartford Mutual Funds,Purchased,2009-11-23,250001,500000
13,"Cumberland, IN Bond",Purchased,2009-12-15,15001,50000
14,Edgewater Bank/CD,Purchased,2010-06-18,100001,250000
15,Edgewater Bank/CD,Purchased,2010-06-18,50001,100000
16,Chemical Financial,Sold,2011-06-21,100001,250000
17,XPO Logistics,Purchased,2011-06-21,50001,100000
18,Chemical Financial,Sold,2011-07-01,15001,50000
19,W Patman Credit Union CD,Purchased,2011-12-20,50001,100000
20,"Cumberland, IN B/Q",Exchanged,2014-01-15,15001,50000
21,"Cumberland, IN B/Q",Exchanged,2014-07-15,15001,50000
