,orgname,action,date1,minvalue,maxvalue
0,"Fond Du Lac, WI G/O FGIC Prom Bond",Purchased,2008-01-07,50001,100000
1,"Mounds View, MN G/O Bond",Sold,2008-02-01,50001,100000
2,Streettracks Gold Trust ETF,Purchased,2008-03-17,1000001,5000000
3,Wisconsin G/O Bonds,Sold,2008-05-01,1001,15000
4,"Kane County, IL School District G/O Bond",Sold,2008-06-02,100001,250000
5,Wisconsin G/O Refunding MBIA B/E Bond,Sold,2008-06-17,250001,500000
6,Puerto Rico Commonwealth G/O Bond,Sold,2008-07-01,100001,250000
7,"Wayne Township, IN Marion Rev Bond",Sold,2008-07-15,15001,50000
8,"Green Bay, WI G/O Corp Purp Bonds",Purchased,2008-08-04,100001,250000
9,Pine Grove PA Area Sch Dist GO School Bd,Purchased,2008-08-04,100001,250000
10,Elkhart IN Cmnty Schs Bonds,Sold,2008-08-15,15001,50000
11,Greater Clark Cnty Sch Bldg Corp Ind Jef,Purchased,2008-08-26,100001,250000
12,"Green Bay, WI Met Sewer Dist G/O Sew Sys",Purchased,2008-08-27,100001,250000
13,"Eau Claire, WI Waterworks Bond",Sold,2008-10-01,50001,100000
14,"Appleton, WI Area Sch Dist Ref G/O Bonds",Purchased,2008-10-14,15001,50000
15,Cook & DuPage Counties Bond,Sold,2008-12-01,50001,100000
16,Ela Area IL Public Library G/O Bonds,Sold,2008-12-30,15001,50000
17,Capital One FSB Falls Church,Sold,2009-03-13,100001,250000
18,3M Co,Purchased,2009-03-16,1001,15000
19,General Electric,Purchased,2009-03-16,1001,15000
20,Procter & Gamble,Purchased,2009-03-16,1001,15000
21,"Waupun, WI Sch Dist G/O Bonds",Sold,2009-04-01,50001,100000
22,Wisconsin Health & Educ Facs Bond,Purchased,2009-04-09,100001,250000
23,Puerto Rico Commonwealth Highway Bond,Purchased,2009-04-24,50001,100000
24,Suntrust Bank/CD,Purchased,2009-05-15,100001,250000
25,Puerto Rico Commonwealth Bond,Sold,2009-07-10,50001,100000
26,"Grafton, WI Corp RFDG Purp Bond",Purchased,2009-08-25,100001,250000
27,"Chicago, IL Water Rev Bond",Sold,2009-11-02,50001,100000
28,"New Richmond, WI School Dist G/O Bond",Purchased,2009-11-03,100001,250000
29,Streettracks Gold Trust ETF,Sold,2009-12-22,1000001,5000000
30,"Appleton, WI Storm Water System Bond",Purchased,2010-01-22,100001,250000
31,"Racine, Wis Waterworks Rev Wtr",Purchased,2010-01-22,100001,250000
32,Madison-Water Util Rev Bond,Purchased,2010-01-26,100001,250000
33,Chicago Ill G/O Bonds 2006A,Purchased,2010-02-23,100001,250000
34,"Bolingbrook, IL G/O ref Bonds",Purchased,2010-03-04,100001,250000
35,Illinois St G/O Bonds,Purchased,2010-03-10,100001,250000
36,Oak Creek Wis Ref G/O Bonds 2010,Purchased,2010-04-05,100001,250000
37,Olathe Kans Ser 215 G/O bond,Purchased,2010-05-12,100001,250000
38,Wisconsin St Health & Edl Facs,Purchased,2010-05-18,100001,250000
39,"Milwaukee, WI Redev Auth Bond",Sold,2010-08-02,50001,100000
40,"New York, NY G/O Bond",Sold,2010-08-02,100001,250000
41,"Milwaukee County, WI Arpt Rev Bond",Purchased,2010-10-04,100001,250000
42,Dane County Wis G/O Ref Bonds 2010,Purchased,2010-11-09,15001,50000
43,Ginnie Mae Securities,Sold,2010-12-15,1001,15000
