,orgname,action,date1,minvalue,maxvalue
0,BMO Intermediate Tax Free Fund,Purchased,2012-06-04,1001.0,15000.0
1,Principal Mid Cap Blend,Purchased,2012-06-04,1001.0,15000.0
2,Schwab S&P 500 Index,Purchased,2012-06-04,1001.0,15000.0
3,American Century Equity Growth Inv Fund,Purchased,2012-06-05,1001.0,15000.0
4,Baird Core Plus Bond,Purchased,2012-06-19,1001.0,15000.0
5,Metropolitan West Total Return Bond Fund,Purchased,2012-06-19,15001.0,50000.0
6,PIMCO Total Return Fund,Purchased,2012-06-19,1001.0,15000.0
7,Principal Mid Cap Blend,Purchased,2012-06-29,1001.0,15000.0
8,Fidelity Low Priced Stock Fund,Purchased,2012-07-06,1001.0,15000.0
9,Gain On Maloof Trust,Sold,2012-09-01,1001.0,15000.0
10,Schwab Health Care Fund,Purchased,2013-03-20,1001.0,15000.0
11,Schwab S&P 500 Fund,Purchased,2013-07-31,15001.0,50000.0
12,Charles Schwab 401K Cash & MM Fund,Exchanged,2014-04-29,15001.0,50000.0
13,Fidelity Low Priced Stock Fund,Exchanged,2014-04-29,1001.0,15000.0
14,First Eagle Fund of America,Exchanged,2014-04-29,1001.0,15000.0
15,Harding Loevner International Sm,Exchanged,2014-04-29,1001.0,15000.0
16,Schwab Health Care Fund,Exchanged,2014-04-29,1001.0,15000.0
17,Schwab Health Care Fund,Purchased,2014-12-09,1001.0,15000.0
18,American Century Equity Index,Purchased,2014-12-12,1001.0,15000.0
19,American Century Equity Index,Sold,2017-12-01,1001.0,15000.0
20,American Century Equity Index,Sold,2017-12-01,1001.0,15000.0
21,First Eagle Fund of America,Sold,2017-12-01,15001.0,50000.0
22,First Eagle Fund of America,Sold,2017-12-01,15001.0,50000.0
23,T Rowe Price Retire 2020 Fund,Purchased,2017-12-01,15001.0,50000.0
24,T Rowe Price Retire 2020 Fund,Purchased,2017-12-01,15001.0,50000.0
25,T Rowe Price Retire 2020 Fund,Sold,2017-12-01,,
26,Export & Multinational,Sold,2017-12-04,1001.0,15000.0
27,Export & Multinational,Sold,2017-12-04,1001.0,15000.0
28,Export & Multinational,Exchanged,2017-12-04,,
29,Family Value,Sold,2017-12-04,1001.0,15000.0
30,Family Value,Sold,2017-12-04,1001.0,15000.0
31,Fidelity Balanced Fund,Purchased,2017-12-04,1001.0,15000.0
32,Fidelity Balanced Fund,Purchased,2017-12-04,1001.0,15000.0
33,Fidelity Balanced Fund,Sold,2017-12-04,,
34,Fidelity Contrafund Fund,Sold,2017-12-04,1001.0,15000.0
35,Fidelity Contrafund Fund,Sold,2017-12-04,1001.0,15000.0
36,Fidelity Export & Multinational Fund,Sold,2017-12-04,1001.0,15000.0
37,Fidelity Export & Multinational Fund,Sold,2017-12-04,1001.0,15000.0
38,Fidelity Int'l Discovery,Sold,2017-12-04,1001.0,15000.0
39,Fidelity Int'l Discovery,Sold,2017-12-04,1001.0,15000.0
40,Fidelity Select Biotechnology Fund,Exchanged,2017-12-04,,
41,Fidelity Select Biotechnology Fund,Sold,2017-12-04,1001.0,15000.0
42,Fidelity Select Biotechnology Fund,Sold,2017-12-04,1001.0,15000.0
43,Fidelity Select Nat'l Gas,Sold,2017-12-04,1001.0,15000.0
44,Fidelity Select Nat'l Gas,Sold,2017-12-04,1001.0,15000.0
45,Fidelity Select Nat'l Gas,Exchanged,2017-12-04,,
46,Insured Deposit Account,Sold,2017-12-04,,
47,Insured Deposit Account,Purchased,2017-12-04,15001.0,50000.0
48,Insured Deposit Account,Purchased,2017-12-04,15001.0,50000.0
49,Pax World Small Cap Fund,Sold,2017-12-04,15001.0,50000.0
50,Pax World Small Cap Fund,Exchanged,2017-12-04,,
51,Pax World Small Cap Fund,Sold,2017-12-04,15001.0,50000.0
52,Schwab Health Care Fund,Sold,2017-12-04,1001.0,15000.0
53,Schwab Health Care Fund,Sold,2017-12-04,1001.0,15000.0
54,Vanguard Target Retire 2020 Fund,Sold,2017-12-15,,
55,Vanguard Target Retire 2020 Fund,Purchased,2017-12-15,15001.0,50000.0
56,Vanguard Target Retire 2020 Fund,Purchased,2017-12-15,15001.0,50000.0
57,Fidelity Asset Manager Fund,Sold,2017-12-18,,
58,Fidelity Asset Manager Fund,Purchased,2017-12-18,15001.0,50000.0
59,Fidelity Asset Manager Fund,Purchased,2017-12-18,15001.0,50000.0
60,Fidelity Puritan Fund,Purchased,2017-12-18,1001.0,15000.0
61,Fidelity Puritan Fund,Purchased,2017-12-18,15001.0,50000.0
62,Fidelity Puritan Fund,Sold,2017-12-18,,
63,Fidelity Puritan Fund,Sold,2017-12-18,,
64,Fidelity Puritan Fund,Purchased,2017-12-18,1001.0,15000.0
65,Fidelity Puritan Fund,Purchased,2017-12-18,15001.0,50000.0
66,Fidelity American Balanced,Purchased,2017-12-19,15001.0,50000.0
67,Fidelity American Balanced,Purchased,2017-12-19,15001.0,50000.0
68,Fidelity American Balanced,Sold,2017-12-19,,
