,orgname,action,date1,minvalue,maxvalue
0,Riversource Dynamic Equity,Exchanged,2009-04-01,1001.0,15000.0
1,Riversource Dynamic Equity,Exchanged,2009-04-01,1001.0,15000.0
2,Riversource Large Cap Equity,Exchanged,2009-04-01,1001.0,15000.0
3,Riversource Large Cap Equity,Exchanged,2009-04-01,1001.0,15000.0
4,Large Cap Equity Fund,Exchanged,2009-09-11,1001.0,15000.0
5,Large Cap Equity Fund,Exchanged,2009-09-11,1001.0,15000.0
6,Riversource Diversified Equity Income Fd,Exchanged,2010-03-29,1001.0,15000.0
7,Riversource Dividend Opportunity Fund,Exchanged,2010-03-29,15001.0,50000.0
8,Riversource Small Cap Value Fund,Exchanged,2010-03-29,15001.0,50000.0
9,Wells Wealthbuilder Growth Balanced,Exchanged,2010-03-29,50001.0,100000.0
10,Columbia Large Core Quantitative Fund,Exchanged,2010-04-06,1001.0,15000.0
11,Columbia Large Core Quantitative Fund,Exchanged,2010-04-06,1001.0,15000.0
12,WellsWealthbuilder Growth Allocation,Exchanged,2010-04-06,1001.0,15000.0
13,Fundamental Value,Exchanged,2010-04-13,1001.0,15000.0
14,Riversource Diversified Equity Income Fd,Exchanged,2010-04-13,1001.0,15000.0
15,Small Cap Value Fund,Exchanged,2010-04-13,1001.0,15000.0
16,Small Cap Value Fund,Exchanged,2010-04-13,,
17,Wells Fargo Wealthbuilder Equity,Exchanged,2010-04-13,1001.0,15000.0
18,Wells Fargo Wealthbuilder Growth Allocat,Exchanged,2010-04-13,15001.0,50000.0
19,Dynamic Equity,Exchanged,2010-04-15,1001.0,15000.0
20,Riversource Core Equity,Exchanged,2010-04-15,15001.0,50000.0
21,VP Moderate Aggressive Cl4,Exchanged,2010-04-15,15001.0,50000.0
22,Columbia Contrarian Core Fund T,Exchanged,2011-04-08,1001.0,15000.0
23,RVS Fundamental Value Fund,Exchanged,2011-04-08,1001.0,15000.0
24,John Hancock Freedom Fund 529,Purchased,2011-11-03,1001.0,15000.0
25,John Hancock Freedom Fund 529,Purchased,2011-11-03,1001.0,15000.0
26,Dynamic Equity,Sold,2012-01-31,1001.0,15000.0
27,VP Balanced Fund,Sold,2012-01-31,1001.0,15000.0
28,VP Moderate Portfolio,Purchased,2012-02-01,1001.0,15000.0
29,Corporate Property Assoc 17 Global,Purchased,2012-02-06,1001.0,15000.0
30,Industrial Income Trust,Purchased,2012-02-06,15001.0,50000.0
31,Wells Fargo Wealthbuilder Equity,Sold,2012-02-06,1001.0,15000.0
32,Wells Fargo/Wealthbuilder Growth Allocat,Sold,2012-02-06,15001.0,50000.0
33,Wells Fargo/Wealthbuilder Growth Balanc,Exchanged,2012-08-24,15001.0,50000.0
34,AFI Cash Reserve Certificate,Exchanged,2012-12-27,15001.0,50000.0
35,Ameriprise One Account/Savings,Exchanged,2012-12-27,15001.0,50000.0
36,Legg Mason Western Asset Immediate,Sold,2013-11-19,1001.0,15000.0
37,WF Wealthbuilder Growth Allocation,Sold,2013-11-19,1001.0,15000.0
38,Wells Fargo Adv Wealthbuilder Growth Balanced,Sold,2013-11-19,1001.0,15000.0
39,Wells Fargo Wealthbuilder Growth Allocation,Sold,2013-11-19,1001.0,15000.0
40,CNL Healthcare Inc,Purchased,2013-12-30,1001.0,15000.0
41,Corporate Property Assoc 18 Global Inc,Purchased,2013-12-30,1001.0,15000.0
42,Ameriprise Money Market,Sold,2014-01-02,1001.0,15000.0
43,Ameriprise Money Market,Sold,2014-01-02,1001.0,15000.0
44,Franklin Square Investment Corp,Purchased,2014-01-02,1001.0,15000.0
45,Franklin Square Investment Corp,Purchased,2014-01-02,1001.0,15000.0
46,Legg Mason Western Asset Intermediate Term Municip,Purchased,2014-05-30,15001.0,50000.0
47,AK Freedom ADV 529,Exchanged,2017-01-18,,
48,AK Freedom ADV 529,Sold,2017-01-18,1001.0,15000.0
49,AK Freedom ADV 529,Sold,2017-01-18,1001.0,15000.0
50,AK Freedom ADV 529,Sold,2017-01-18,1001.0,15000.0
51,AK Freedom ADV 529,Sold,2017-01-18,1001.0,15000.0
52,Wells Fargo Wealth Builder Growth Allocation Class,Exchanged,2017-02-10,1001.0,15000.0
53,Wells Fargo Wealth Builder Growth Allocation Class,Exchanged,2017-02-10,1001.0,15000.0
54,Wells Fargo Wealth Builder Growth Allocation Class,Exchanged,2017-02-10,1001.0,15000.0
55,Wells Fargo Wealth Builder Growth Allocation Class,Exchanged,2017-02-10,1001.0,15000.0
56,Wells Fargo WealthBuilder Growth Allocation Class,Exchanged,2017-02-10,1001.0,15000.0
57,Wells Fargo WealthBuilder Growth Allocation Class,Exchanged,2017-02-10,1001.0,15000.0
58,Wells Fargo WealthBuilder Growth Allocation Class,Exchanged,2017-02-10,1001.0,15000.0
59,Wells Fargo WealthBuilder Growth Allocation Class,Exchanged,2017-02-10,1001.0,15000.0
60,Wells Fargo Wealthbuilder Equity,Exchanged,2017-02-10,1001.0,15000.0
61,Wells Fargo Wealthbuilder Equity,Exchanged,2017-02-10,1001.0,15000.0
62,Wells Fargo Wealthbuilder Equity,Exchanged,2017-02-10,1001.0,15000.0
63,Wells Fargo Wealthbuilder Equity,Exchanged,2017-02-10,1001.0,15000.0
64,Wells Fargo Wealthbuilder Equity Fund,Exchanged,2017-02-10,1001.0,15000.0
65,Wells Fargo Wealthbuilder Equity Fund,Exchanged,2017-02-10,1001.0,15000.0
66,Wells Fargo Wealthbuilder Equity Fund,Exchanged,2017-02-10,1001.0,15000.0
67,Wells Fargo Wealthbuilder Equity Fund,Exchanged,2017-02-10,1001.0,15000.0
68,Wells Fargo/Wealthbuilder Growth Alloc,Exchanged,2017-02-10,1001.0,15000.0
69,Wells Fargo/Wealthbuilder Growth Alloc,Exchanged,2017-02-10,1001.0,15000.0
70,Wells Fargo/Wealthbuilder Growth Alloc,Exchanged,2017-02-10,1001.0,15000.0
71,Wells Fargo/Wealthbuilder Growth Alloc,Exchanged,2017-02-10,1001.0,15000.0
72,Wells Fargo/Wealthbuilder Growth Alloc,Exchanged,2017-02-10,1001.0,15000.0
73,Wells Fargo/Wealthbuilder Growth Alloc,Exchanged,2017-02-10,1001.0,15000.0
74,Wells Fargo/Wealthbuilder Growth Alloc,Exchanged,2017-02-10,1001.0,15000.0
75,Wells Fargo/Wealthbuilder Growth Alloc,Exchanged,2017-02-10,1001.0,15000.0
76,Columbia Contrarian Core Fund,Exchanged,2017-06-23,15001.0,50000.0
77,Columbia Contrarian Core Fund,Exchanged,2017-06-23,15001.0,50000.0
78,Columbia Contrarian Core Fund,Exchanged,2017-06-23,15001.0,50000.0
79,Columbia Contrarian Core Fund,Exchanged,2017-06-23,15001.0,50000.0
80,Columbia Contrarian Core Fund,Exchanged,2017-06-23,15001.0,50000.0
81,Columbia Contrarian Core Fund,Exchanged,2017-06-23,15001.0,50000.0
82,Columbia Contrarian Core Fund,Exchanged,2017-06-23,15001.0,50000.0
83,Columbia Contrarian Core Fund,Exchanged,2017-06-23,15001.0,50000.0
84,AK Freedom ADV 529,Exchanged,2017-07-24,,
85,AK Freedom ADV 529,Sold,2017-07-24,1001.0,15000.0
86,AK Freedom ADV 529,Sold,2017-07-24,1001.0,15000.0
87,AK Freedom ADV 529,Sold,2017-07-24,1001.0,15000.0
88,AK Freedom ADV 529,Sold,2017-07-24,1001.0,15000.0
89,"Condo Property, Everett WA",Sold,2018-03-27,250001.0,500000.0
90,"Condo Property, Everett WA",Sold,2018-03-27,250001.0,500000.0
91,"Condo Property, Everett WA",Exchanged,2018-03-27,,
92,AK Freedom ADV 529,Exchanged,2018-08-02,,
93,AK Freedom ADV 529,Sold,2018-08-02,1001.0,15000.0
94,AK Freedom ADV 529,Sold,2018-08-02,1001.0,15000.0
95,Corporate Property Assoc 17 Global,Exchanged,2018-11-11,1001.0,15000.0
96,Corporate Property Assoc 17 Global,Exchanged,2018-11-11,1001.0,15000.0
97,WP Carey Inc REIT,Exchanged,2018-11-11,1001.0,15000.0
98,WP Carey Inc REIT,Exchanged,2018-11-11,1001.0,15000.0
