,orgname,action,date1,minvalue,maxvalue
0,iShare Russell 2000,Sold,2017-03-07,15001.0,50000.0
1,iShare Russell 2000,Exchanged,2017-03-07,,
2,iShare Russell 2000,Sold,2017-03-07,15001.0,50000.0
3,iShares Core S&P Small Cap ETF,Purchased,2017-03-16,1001.0,15000.0
4,iShares Core S&P Small Cap ETF,Sold,2017-03-16,,
5,iShares Core S&P Small Cap ETF,Purchased,2017-03-16,1001.0,15000.0
6,iShares Russell S&P Small Cap ETF,Sold,2017-03-16,,
7,iShares Russell S&P Small Cap ETF,Purchased,2017-03-16,15001.0,50000.0
8,iShares Russell S&P Small Cap ETF,Purchased,2017-03-16,15001.0,50000.0
9,COL VP Intmd Bnd Cl3,Purchased,2017-09-21,1001.0,15000.0
10,COL VP Intmd Bnd Cl3,Purchased,2017-09-21,1001.0,15000.0
11,COL VP Intmd Bnd Cl3,Sold,2017-09-21,,
12,Columbia High Yield Bond Fund,Exchanged,2017-09-21,,
13,Columbia High Yield Bond Fund,Sold,2017-09-21,15001.0,50000.0
14,Columbia High Yield Bond Fund,Sold,2017-09-21,15001.0,50000.0
15,Columbia Strategic Income Fund,Purchased,2017-09-21,15001.0,50000.0
16,Columbia Strategic Income Fund,Sold,2017-09-21,,
17,Columbia Strategic Income Fund,Purchased,2017-09-21,15001.0,50000.0
18,Templeton Global Bond Fund,Purchased,2017-09-21,1001.0,15000.0
19,Templeton Global Bond Fund,Sold,2017-09-21,,
20,Templeton Global Bond Fund,Purchased,2017-09-21,1001.0,15000.0
21,American Express Bank,Exchanged,2017-10-30,216.0,216.0
22,American Express Bank,Exchanged,2017-10-30,216.0,216.0
23,American Express Bank,Exchanged,2017-10-30,216.0,216.0
24,American Express Bank,Exchanged,2017-10-30,216.0,216.0
25,KBS Real Estate Investment Trust Inc,Sold,2017-12-27,1001.0,15000.0
26,KBS Real Estate Investment Trust Inc,Exchanged,2017-12-27,1001.0,15000.0
27,KBS Real Estate Investment Trust Inc,Exchanged,2017-12-27,,
28,KBS Real Estate Investment Trust Inc,Exchanged,2017-12-27,1001.0,15000.0
29,KBS Real Estate Investment Trust Inc,Sold,2017-12-27,1001.0,15000.0
