,orgname,action,date1,minvalue,maxvalue
0,Goldman Sachs Asia Equity Fund,Sold,2008-03-28,15001,50000
1,"Hampton River Marina/St Simons Isle, GA",Purchased,2008-10-15,1000001,5000000
2,"Hampton River Marina/St Simons Isle, GA",Purchased,2008-10-15,1000001,1000001
