Date,ACC
2007-12-31,15.492573738098145
2008-01-02,15.180996894836426
2008-01-03,14.82325553894043
2008-01-04,14.725160598754883
2008-01-07,14.89249324798584
2008-01-08,14.955965042114258
2008-01-09,15.359869003295898
2008-01-10,15.417567253112793
2008-01-11,15.3483247756958
2008-01-14,15.538743019104004
2008-01-15,15.400252342224121
2008-01-16,15.902251243591309
2008-01-17,15.550277709960938
2008-01-18,15.336786270141602
2008-01-22,15.654135704040527
2008-01-23,16.44463539123535
2008-01-24,16.48502540588379
2008-01-25,16.44463539123535
2008-01-28,16.940858840942383
2008-01-29,16.704286575317383
2008-01-30,15.93687915802002
2008-01-31,16.646587371826172
2008-02-01,16.640819549560547
2008-02-04,16.727365493774414
2008-02-05,16.819684982299805
2008-02-06,16.594654083251953
2008-02-07,16.91201400756836
2008-02-08,16.675443649291992
2008-02-11,16.40424919128418
2008-02-12,16.184980392456055
2008-02-13,15.611172676086426
2008-02-14,15.249074935913086
2008-02-15,15.20235538482666
2008-02-19,15.009622573852539
2008-02-20,15.178988456726074
2008-02-21,15.021299362182617
2008-02-22,15.15562915802002
2008-02-25,15.30163860321045
2008-02-26,15.447644233703613
2008-02-27,15.30163860321045
2008-02-28,15.126420021057129
2008-02-29,15.2432279586792
2008-03-03,15.488531112670898
2008-03-04,15.412601470947266
2008-03-05,15.138107299804688
2008-03-06,14.694241523742676
2008-03-07,15.2432279586792
2008-03-10,15.091383934020996
2008-03-11,16.060882568359375
2008-03-12,15.879825592041016
2008-03-13,15.973273277282715
2008-03-14,15.897344589233398
2008-03-17,15.838947296142578
2008-03-18,16.720836639404297
2008-03-19,16.382097244262695
2008-03-20,16.35289192199707
2008-03-24,16.62738609313965
2008-03-25,16.621551513671875
2008-03-26,16.761716842651367
2008-03-27,16.56898307800293
2008-03-28,16.055038452148438
2008-03-31,15.979110717773438
2008-04-01,16.411300659179688
2008-04-02,16.35289192199707
2008-04-03,16.452178955078125
2008-04-04,16.411300659179688
2008-04-07,16.312009811401367
2008-04-08,16.230249404907227
2008-04-09,15.879825592041016
2008-04-10,16.1601619720459
2008-04-11,15.809741973876953
2008-04-14,15.722142219543457
2008-04-15,15.885669708251953
2008-04-16,16.4989013671875
2008-04-17,16.995330810546875
2008-04-18,17.520963668823242
2008-04-21,17.386634826660156
2008-04-22,17.421676635742188
2008-04-23,17.626081466674805
2008-04-24,18.040748596191406
2008-04-25,18.13418960571289
2008-04-28,18.16339111328125
2008-04-29,17.812976837158203
2008-04-30,17.830490112304688
2008-05-01,17.666963577270508
2008-05-02,17.608562469482422
2008-05-05,17.614404678344727
2008-05-06,17.690326690673828
2008-05-07,17.579360961914062
2008-05-08,17.6961669921875
2008-05-09,17.66112518310547
2008-05-12,17.97066879272461
2008-05-13,17.70200538635254
2008-05-14,17.80684471130371
2008-05-15,18.013559341430664
2008-05-16,18.072608947753906
2008-05-19,18.17892074584961
2008-05-20,17.948583602905273
2008-05-21,17.830461502075195
2008-05-22,17.65918731689453
2008-05-23,17.688711166381836
2008-05-27,18.096237182617188
2008-05-28,17.877714157104492
2008-05-29,18.17892074584961
2008-05-30,17.96630096435547
2008-06-02,17.97811508178711
2008-06-03,18.29704475402832
2008-06-04,18.409257888793945
2008-06-05,18.852216720581055
2008-06-06,18.23798370361328
2008-06-09,18.084423065185547
2008-06-10,18.12576675415039
2008-06-11,18.06670379638672
2008-06-12,17.883617401123047
2008-06-13,17.830461502075195
2008-06-16,17.68281364440918
2008-06-17,17.417036056518555
2008-06-18,17.163076400756836
2008-06-19,17.23985481262207
2008-06-20,17.17488670349121
2008-06-23,16.737842559814453
2008-06-24,16.578372955322266
2008-06-25,16.79099464416504
2008-06-26,16.395286560058594
2008-06-27,16.631526947021484
2008-06-30,16.44253158569336
2008-07-01,16.737842559814453
2008-07-02,16.643346786499023
2008-07-03,16.436626434326172
2008-07-07,16.353944778442383
2008-07-08,17.310728073120117
2008-07-09,16.33622169494629
2008-07-10,16.720123291015625
2008-07-11,16.903207778930664
2008-07-14,16.861867904663086
2008-07-15,16.708311080932617
2008-07-16,17.464282989501953
2008-07-17,17.641469955444336
2008-07-18,17.66509246826172
2008-07-21,17.883617401123047
2008-07-22,17.954490661621094
2008-07-23,17.877714157104492
2008-07-24,16.991806030273438
2008-07-25,17.387502670288086
2008-07-28,17.15716552734375
2008-07-29,17.570600509643555
2008-07-30,17.517444610595703
2008-07-31,17.29300880432129
2008-08-01,17.19260597229004
2008-08-04,16.655155181884766
2008-08-05,17.310728073120117
2008-08-06,17.287111282348633
2008-08-07,17.127635955810547
2008-08-08,17.61784553527832
2008-08-11,18.202550888061523
2008-08-12,18.037179946899414
2008-08-13,17.844575881958008
2008-08-14,17.9879093170166
2008-08-15,18.184980392456055
2008-08-18,17.766944885253906
2008-08-19,17.43250274658203
2008-08-20,17.372785568237305
2008-08-21,17.330974578857422
2008-08-22,17.695274353027344
2008-08-25,17.42652702331543
2008-08-26,17.689300537109375
2008-08-27,17.820690155029297
2008-08-28,18.167070388793945
2008-08-29,18.107345581054688
2008-09-02,18.591087341308594
2008-09-03,18.56719207763672
2008-09-04,18.328311920166016
2008-09-05,18.579139709472656
2008-09-08,18.955379486083984
2008-09-09,18.21485137939453
2008-09-10,18.256649017333984
2008-09-11,18.35220718383789
2008-09-12,18.256649017333984
2008-09-15,17.43250274658203
2008-09-16,18.28651237487793
2008-09-17,17.85651969909668
2008-09-18,18.686643600463867
2008-09-19,19.200244903564453
2008-09-22,18.549283981323242
2008-09-23,18.6806697845459
2008-09-24,18.417898178100586
2008-09-25,18.782197952270508
2008-09-26,19.498842239379883
2008-09-29,19.259960174560547
2008-09-30,20.23341178894043
2008-10-01,19.89897346496582
2008-10-02,19.6182804107666
2008-10-03,19.289823532104492
2008-10-06,19.27787208557129
2008-10-07,17.450420379638672
2008-10-08,17.17569923400879
2008-10-09,15.760321617126465
2008-10-10,17.211530685424805
2008-10-13,17.766944885253906
2008-10-14,16.966672897338867
2008-10-15,15.121305465698242
2008-10-16,15.282551765441895
2008-10-17,15.342277526855469
2008-10-20,15.646851539611816
2008-10-21,15.390055656433105
2008-10-22,14.942147254943848
2008-10-23,15.378108024597168
2008-10-24,14.685347557067871
2008-10-27,13.293851852416992
2008-10-28,14.685347557067871
2008-10-29,14.416598320007324
2008-10-30,14.78687572479248
2008-10-31,15.51546573638916
2008-11-03,15.276578903198242
2008-11-04,15.354220390319824
2008-11-05,14.291186332702637
2008-11-06,13.801478385925293
2008-11-07,14.470355987548828
2008-11-10,13.043023109436035
2008-11-11,13.228161811828613
2008-11-12,13.054967880249023
2008-11-13,14.005772590637207
2008-11-14,12.96853256225586
2008-11-17,12.944270133972168
2008-11-18,12.616717338562012
2008-11-19,11.567342758178711
2008-11-20,10.608960151672363
2008-11-21,10.075179100036621
2008-11-24,11.64013385772705
2008-11-25,12.368021965026855
2008-11-26,13.30215072631836
2008-11-28,13.581169128417969
2008-12-01,11.937355041503906
2008-12-02,12.84114933013916
2008-12-03,13.575103759765625
2008-12-04,12.85934829711914
2008-12-05,13.672154426574707
2008-12-08,14.2180757522583
2008-12-09,13.441657066345215
2008-12-10,14.333321571350098
2008-12-11,12.38621997833252
2008-12-12,12.883611679077148
2008-12-15,12.39228630065918
2008-12-16,13.077709197998047
2008-12-17,13.478053092956543
2008-12-18,13.350672721862793
2008-12-19,13.24148941040039
2008-12-22,12.701641082763672
2008-12-23,12.434748649597168
2008-12-24,12.647045135498047
2008-12-26,12.519671440124512
2008-12-29,11.797846794128418
2008-12-30,12.095067977905273
2008-12-31,12.422613143920898
2009-01-02,11.894895553588867
2009-01-05,11.664398193359375
2009-01-06,12.477210998535156
2009-01-07,12.374089241027832
2009-01-08,12.556062698364258
2009-01-09,11.991950988769531
2009-01-12,11.342913627624512
2009-01-13,11.682599067687988
2009-01-14,11.816044807434082
2009-01-15,12.119329452514648
2009-01-16,12.829020500183105
2009-01-20,11.712924003601074
2009-01-21,12.54999828338623
2009-01-22,12.38621997833252
2009-01-23,12.73803424835205
2009-01-26,12.816890716552734
2009-01-27,12.956399917602539
2009-01-28,14.187747955322266
2009-01-29,13.235420227050781
2009-01-30,12.962468147277832
2009-02-02,13.04738712310791
2009-02-03,13.004924774169922
2009-02-04,12.677374839782715
2009-02-05,12.228517532348633
2009-02-06,13.350672721862793
2009-02-09,13.635763168334961
2009-02-10,12.556062698364258
2009-02-11,12.721013069152832
2009-02-12,12.246203422546387
2009-02-13,11.555585861206055
2009-02-17,10.55665111541748
2009-02-18,11.05611801147461
2009-02-19,10.79096508026123
2009-02-20,11.722078323364258
2009-02-23,10.90812873840332
2009-02-24,11.752907752990723
2009-02-25,11.30276870727539
2009-02-26,10.723138809204102
2009-02-27,10.55665111541748
2009-03-02,9.98935317993164
2009-03-03,10.273000717163086
2009-03-04,10.303831100463867
2009-03-05,9.773530960083008
2009-03-06,9.625544548034668
2009-03-09,9.829030990600586
2009-03-10,11.167112350463867
2009-03-11,10.90812873840332
2009-03-12,11.78990650177002
2009-03-13,11.65424919128418
2009-03-16,10.519654273986816
2009-03-17,11.352097511291504
2009-03-18,11.88239860534668
2009-03-19,11.105448722839355
2009-03-20,10.531983375549316
2009-03-23,11.894729614257812
2009-03-24,11.185606956481934
2009-03-25,11.13627815246582
2009-03-26,11.561749458312988
2009-03-27,10.698473930358887
2009-03-30,9.927687644958496
2009-03-31,10.704636573791504
2009-04-01,10.593645095825195
2009-04-02,11.6295804977417
2009-04-03,12.684015274047852
2009-04-06,11.974892616271973
2009-04-07,11.068452835083008
2009-04-08,11.247273445129395
2009-04-09,12.492854118347168
2009-04-13,12.425025939941406
2009-04-14,11.463090896606445
2009-04-15,11.765238761901855
2009-04-16,12.116718292236328
2009-04-17,12.782672882080078
2009-04-20,11.685073852539062
2009-04-21,12.764175415039062
2009-04-22,12.875166893005371
2009-04-23,13.602783203125
2009-04-24,14.392070770263672
2009-04-27,12.949163436889648
2009-04-28,13.467127799987793
2009-04-29,13.615875244140625
2009-04-30,13.578296661376953
2009-05-01,12.958257675170898
2009-05-04,14.173288345336914
2009-05-05,13.753661155700684
2009-05-06,14.273500442504883
2009-05-07,13.665975570678711
2009-05-08,14.536542892456055
2009-05-11,13.92276668548584
2009-05-12,13.75992488861084
2009-05-13,13.308987617492676
2009-05-14,13.960339546203613
2009-05-15,13.597086906433105
2009-05-18,14.574118614196777
2009-05-19,14.160761833190918
2009-05-20,14.004185676574707
2009-05-21,13.8350830078125
2009-05-22,13.327775001525879
2009-05-26,14.329862594604492
2009-05-27,13.540721893310547
2009-05-28,13.92276668548584
2009-05-29,14.398756980895996
2009-06-01,14.580384254455566
2009-06-02,14.298547744750977
2009-06-03,14.235917091369629
2009-06-04,14.686859130859375
2009-06-05,14.855963706970215
2009-06-08,14.592911720275879
2009-06-09,14.317339897155762
2009-06-10,13.960339546203613
2009-06-11,13.58455753326416
2009-06-12,13.916504859924316
2009-06-15,13.377880096435547
2009-06-16,13.227564811706543
2009-06-17,13.227564811706543
2009-06-18,13.440505981445312
2009-06-19,13.753661155700684
2009-06-22,13.258880615234375
2009-06-23,13.515668869018555
2009-06-24,13.44677448272705
2009-06-25,13.471826553344727
2009-06-26,13.615875244140625
2009-06-29,13.665975570678711
2009-06-30,13.89145565032959
2009-07-01,14.02297306060791
2009-07-02,13.50940990447998
2009-07-06,13.653450965881348
2009-07-07,13.064725875854492
2009-07-08,12.901890754699707
2009-07-09,12.526105880737305
2009-07-10,12.582473754882812
2009-07-13,13.089780807495117
2009-07-14,13.365354537963867
2009-07-15,14.298547744750977
2009-07-16,14.555331230163574
2009-07-17,14.398756980895996
2009-07-20,14.849695205688477
2009-07-21,14.699382781982422
2009-07-22,14.542803764343262
2009-07-23,14.71817398071289
2009-07-24,14.874746322631836
2009-07-27,14.711909294128418
2009-07-28,14.617965698242188
2009-07-29,14.273500442504883
2009-07-30,14.592911720275879
2009-07-31,14.361184120178223
2009-08-03,14.599174499511719
2009-08-04,15.357008934020996
2009-08-05,15.90189266204834
2009-08-06,15.889360427856445
2009-08-07,16.5094051361084
2009-08-10,16.352832794189453
2009-08-11,15.776631355285645
2009-08-12,15.745317459106445
2009-08-13,15.984963417053223
2009-08-14,16.054792404174805
2009-08-17,15.356480598449707
2009-08-18,15.400920867919922
2009-08-19,15.127945899963379
2009-08-20,15.984963417053223
2009-08-21,16.150012969970703
2009-08-24,16.14366912841797
2009-08-25,16.537261962890625
2009-08-26,16.63884162902832
2009-08-27,16.79119110107422
2009-08-28,17.114953994750977
2009-08-31,16.511871337890625
2009-09-01,15.731029510498047
2009-09-02,15.35013484954834
2009-09-03,15.35013484954834
2009-09-04,15.28664493560791
2009-09-08,15.680245399475098
2009-09-09,15.915125846862793
2009-09-10,16.029396057128906
2009-09-11,15.819905281066895
2009-09-14,16.169065475463867
2009-09-15,16.829282760620117
2009-09-16,17.70534896850586
2009-09-17,17.692646026611328
2009-09-18,17.692646026611328
2009-09-21,17.457761764526367
2009-09-22,18.20685386657715
2009-09-23,17.337142944335938
2009-09-24,16.626134872436523
2009-09-25,16.435693740844727
2009-09-28,17.10226058959961
2009-09-29,16.63884162902832
2009-09-30,17.04512596130371
2009-10-01,16.575353622436523
2009-10-02,16.499174118041992
2009-10-05,16.848331451416016
2009-10-06,16.79753875732422
2009-10-07,16.651527404785156
2009-10-08,16.79753875732422
2009-10-09,17.222881317138672
2009-10-12,17.356185913085938
2009-10-13,16.994333267211914
2009-10-14,17.4514102935791
2009-10-15,17.165739059448242
2009-10-16,16.93085479736328
2009-10-19,17.337142944335938
2009-10-20,16.740402221679688
2009-10-21,16.442035675048828
2009-10-22,16.98798179626465
2009-10-23,16.79119110107422
2009-10-26,16.956247329711914
2009-10-27,16.97529411315918
2009-10-28,16.83563232421875
2009-10-29,17.24827003479004
2009-10-30,17.153043746948242
2009-11-02,17.318099975585938
2009-11-03,17.146697998046875
2009-11-04,16.64518165588379
2009-11-05,16.905452728271484
2009-11-06,16.575353622436523
2009-11-09,17.064163208007812
2009-11-10,16.97529411315918
2009-11-11,17.235576629638672
2009-11-12,17.02825927734375
2009-11-13,17.304672241210938
2009-11-16,17.921777725219727
2009-11-17,17.446094512939453
2009-11-18,17.908924102783203
2009-11-19,17.626087188720703
2009-11-20,17.55537223815918
2009-11-23,17.626087188720703
2009-11-24,17.169679641723633
2009-11-25,17.176109313964844
2009-11-27,16.726144790649414
2009-11-30,17.323963165283203
2009-12-01,17.35610008239746
2009-12-02,17.55537223815918
2009-12-03,17.253253936767578
2009-12-04,17.53609275817871
2009-12-07,17.015403747558594
2009-12-08,17.08611488342285
2009-12-09,17.169679641723633
2009-12-10,17.278959274291992
2009-12-11,17.497526168823242
2009-12-14,17.91535186767578
2009-12-15,17.671079635620117
2009-12-16,17.979637145996094
2009-12-17,17.838220596313477
2009-12-18,17.992490768432617
2009-12-21,18.069623947143555
2009-12-22,18.30104637145996
2009-12-23,18.307477951049805
2009-12-24,18.307477951049805
2009-12-28,18.37818145751953
2009-12-29,18.1531982421875
2009-12-30,18.288190841674805
2009-12-31,18.06319808959961
2010-01-04,17.60680389404297
2010-01-05,17.323963165283203
2010-01-06,17.00255012512207
2010-01-07,17.285385131835938
2010-01-08,17.12468910217285
2010-01-11,17.208251953125
2010-01-12,17.021833419799805
2010-01-13,17.163259506225586
2010-01-14,17.35610008239746
2010-01-15,17.446094512939453
2010-01-19,17.883211135864258
2010-01-20,17.844648361206055
2010-01-21,17.388240814208984
2010-01-22,16.861127853393555
2010-01-25,16.687564849853516
2010-01-26,16.571863174438477
2010-01-27,16.76470375061035
2010-01-28,16.552574157714844
2010-01-29,16.494722366333008
2010-02-01,16.623287200927734
2010-02-02,16.97041130065918
2010-02-03,16.97041130065918
2010-02-04,16.308303833007812
2010-02-05,16.604005813598633
2010-02-08,16.26973533630371
2010-02-09,15.967611312866211
2010-02-10,16.207103729248047
2010-02-11,16.637208938598633
2010-02-12,16.92394256591797
2010-02-16,17.347530364990234
2010-02-17,17.62774658203125
2010-02-18,18.012231826782227
2010-02-19,17.99920654296875
2010-02-22,18.16863441467285
2010-02-23,18.129535675048828
2010-02-24,18.129535675048828
2010-02-25,18.07740020751953
2010-02-26,18.012231826782227
2010-03-01,18.175159454345703
2010-03-02,18.23380470275879
2010-03-03,18.0578556060791
2010-03-04,18.064369201660156
2010-03-05,18.52054214477539
2010-03-08,18.670425415039062
2010-03-09,18.47492027282715
2010-03-10,18.35761833190918
2010-03-11,17.823253631591797
2010-03-12,17.92099952697754
2010-03-15,17.855836868286133
2010-03-16,17.953590393066406
2010-03-17,18.012231826782227
2010-03-18,17.99920654296875
2010-03-19,17.94706916809082
2010-03-22,18.155603408813477
2010-03-23,18.044818878173828
2010-03-24,17.901453018188477
2010-03-25,17.88190460205078
2010-03-26,17.712465286254883
2010-03-29,17.96661949157715
2010-03-30,18.20121955871582
2010-03-31,18.025272369384766
2010-04-01,17.92751693725586
2010-04-05,18.2794189453125
2010-04-06,19.185239791870117
2010-04-07,18.800764083862305
2010-04-08,18.768173217773438
2010-04-09,18.676942825317383
2010-04-12,18.435821533203125
2010-04-13,19.159177780151367
2010-04-14,18.872446060180664
2010-04-15,18.846376419067383
2010-04-16,18.533571243286133
2010-04-19,18.435821533203125
2010-04-20,18.683456420898438
2010-04-21,18.944128036499023
2010-04-22,19.13311767578125
2010-04-23,19.152664184570312
2010-04-26,19.62838363647461
2010-04-27,19.23086166381836
2010-04-28,18.768173217773438
2010-04-29,18.963680267333984
2010-04-30,18.35761833190918
2010-05-03,18.898509979248047
2010-05-04,18.442338943481445
2010-05-05,18.188186645507812
2010-05-06,17.445280075073242
2010-05-07,17.11292839050293
2010-05-10,18.018749237060547
2010-05-11,17.73202133178711
2010-05-12,17.91448402404785
2010-05-13,17.562583923339844
2010-05-14,17.052780151367188
2010-05-17,16.999984741210938
2010-05-18,17.171573638916016
2010-05-19,17.15177345275879
2010-05-20,16.247655868530273
2010-05-21,17.17816925048828
2010-05-24,16.854799270629883
2010-05-25,17.039588928222656
2010-05-26,17.171573638916016
2010-05-27,18.03608512878418
2010-05-28,17.666519165039062
2010-06-01,16.947195053100586
2010-06-02,17.237558364868164
2010-06-03,17.560928344726562
2010-06-04,16.788801193237305
2010-06-07,17.092374801635742
2010-06-08,17.6467227935791
2010-06-09,17.7523136138916
2010-06-10,18.22747230529785
2010-06-11,18.253868103027344
2010-06-14,18.689420700073242
2010-06-15,19.032596588134766
2010-06-16,18.808212280273438
2010-06-17,18.920400619506836
2010-06-18,18.854413986206055
2010-06-21,18.762020111083984
2010-06-22,18.44524383544922
2010-06-23,18.38585090637207
2010-06-24,18.121875762939453
2010-06-25,18.4980411529541
2010-06-28,18.38585090637207
2010-06-29,18.088878631591797
2010-06-30,18.009689331054688
2010-07-01,17.996490478515625
2010-07-02,17.679719924926758
2010-07-06,17.28375816345215
2010-07-07,18.07568359375
2010-07-08,18.108678817749023
2010-07-09,18.207666397094727
2010-07-12,18.214269638061523
2010-07-13,18.346254348754883
2010-07-14,18.121875762939453
2010-07-15,18.247262954711914
2010-07-16,17.626920700073242
2010-07-19,17.71272087097168
2010-07-20,18.062488555908203
2010-07-21,17.607128143310547
2010-07-22,18.247262954711914
2010-07-23,18.544235229492188
2010-07-26,19.138179779052734
2010-07-27,19.09858512878418
2010-07-28,19.237173080444336
2010-07-29,18.913801193237305
2010-07-30,19.10518455505371
2010-08-02,19.600139617919922
2010-08-03,19.771718978881836
2010-08-04,19.520946502685547
2010-08-05,19.15138053894043
2010-08-06,19.342761993408203
2010-08-09,19.593542098999023
2010-08-10,19.461549758911133
2010-08-11,19.15138053894043
2010-08-12,19.056232452392578
2010-08-13,19.049558639526367
2010-08-16,18.328441619873047
2010-08-17,19.243188858032227
2010-08-18,19.049558639526367
2010-08-19,18.769115447998047
2010-08-20,18.762441635131836
2010-08-23,18.8492488861084
2010-08-24,18.949398040771484
2010-08-25,19.303281784057617
2010-08-26,19.45017433166504
2010-08-27,20.04443359375
2010-08-30,20.024402618408203
2010-08-31,19.904212951660156
2010-09-01,20.42502212524414
2010-09-02,20.48511505126953
2010-09-03,20.672073364257812
2010-09-07,20.50514793395996
2010-09-08,20.531856536865234
2010-09-09,20.33154296875
2010-09-10,20.33154296875
2010-09-13,20.565237045288086
2010-09-14,20.59194564819336
2010-09-15,20.59862518310547
2010-09-16,20.251419067382812
2010-09-17,20.498476028442383
2010-09-20,20.70545768737793
2010-09-21,20.445058822631836
2010-09-22,20.20467758178711
2010-09-23,19.677196502685547
2010-09-24,20.43170166015625
2010-09-27,20.15793800354004
2010-09-28,20.21135902404785
2010-09-29,20.144588470458984
2010-09-30,20.32486915588379
2010-10-01,20.465087890625
2010-10-04,20.61197853088379
2010-10-05,20.972536087036133
2010-10-06,20.879064559936523
2010-10-07,20.96586036682129
2010-10-08,21.066011428833008
2010-10-11,21.092727661132812
2010-10-12,21.025955200195312
2010-10-13,21.246292114257812
2010-10-14,21.106077194213867
2010-10-15,21.179527282714844
2010-10-18,21.693655014038086
2010-10-19,21.526731491088867
2010-10-20,21.753751754760742
2010-10-21,21.73371696472168
2010-10-22,21.61353874206543
2010-10-25,21.807167053222656
2010-10-26,21.43325424194336
2010-10-27,21.29303550720215
2010-10-28,21.112754821777344
2010-10-29,21.11943244934082
2010-11-01,21.40654754638672
2010-11-02,21.1728515625
2010-11-03,21.35312843322754
2010-11-04,21.98076820373535
2010-11-05,22.29458236694336
2010-11-08,22.14769744873047
2010-11-09,21.6602783203125
2010-11-10,21.940704345703125
2010-11-11,21.813840866088867
2010-11-12,21.697465896606445
2010-11-15,21.549030303955078
2010-11-16,20.908096313476562
2010-11-17,21.110498428344727
2010-11-18,21.353378295898438
2010-11-19,21.44783592224121
2010-11-22,21.441089630126953
2010-11-23,21.14423370361328
2010-11-24,21.52204704284668
2010-11-26,21.67047882080078
2010-11-29,21.52204704284668
2010-11-30,21.21169662475586
2010-12-01,21.245431900024414
2010-12-02,21.245431900024414
2010-12-03,21.10375213623047
2010-12-06,20.995803833007812
2010-12-07,21.076765060424805
2010-12-08,20.827133178710938
2010-12-09,20.435829162597656
2010-12-10,20.705692291259766
2010-12-13,20.61124038696289
2010-12-14,20.53702735900879
2010-12-15,20.30763816833496
2010-12-16,20.300893783569336
2010-12-17,20.422332763671875
2010-12-20,20.624738693237305
2010-12-21,20.948575973510742
2010-12-22,20.982311248779297
2010-12-23,21.063268661499023
2010-12-27,21.150978088378906
2010-12-28,21.299406051635742
2010-12-29,21.420848846435547
2010-12-30,21.434345245361328
2010-12-31,21.427597045898438
2011-01-03,21.832399368286133
2011-01-04,21.53554916381836
2011-01-05,21.488311767578125
2011-01-06,21.204952239990234
2011-01-07,21.177967071533203
2011-01-10,21.029537200927734
2011-01-11,20.995803833007812
2011-01-12,21.076765060424805
2011-01-13,21.150978088378906
2011-01-14,21.272422790527344
2011-01-18,21.312898635864258
2011-01-19,20.874359130859375
2011-01-20,20.76641845703125
2011-01-21,20.806894302368164
2011-01-24,20.96207046508789
2011-01-25,21.285905838012695
2011-01-26,21.515302658081055
2011-01-27,21.71095848083496
2011-01-28,21.441089630126953
2011-01-31,21.818904876708984
2011-02-01,22.088777542114258
2011-02-02,22.0078125
2011-02-03,21.690715789794922
2011-02-04,21.60975456237793
2011-02-07,21.92685890197754
2011-02-08,22.02805519104004
2011-02-09,21.940349578857422
2011-02-10,21.918188095092773
2011-02-11,22.143157958984375
2011-02-14,22.190885543823242
2011-02-15,22.07499122619629
2011-02-16,22.48404312133789
2011-02-17,22.361326217651367
2011-02-18,22.184064865112305
2011-02-22,22.07499122619629
2011-02-23,21.870466232299805
2011-02-24,21.897737503051758
2011-02-25,22.32723617553711
2011-02-28,22.784008026123047
2011-03-01,22.238611221313477
2011-03-02,21.9522705078125
2011-03-03,22.19770622253418
2011-03-04,22.10225486755371
2011-03-07,21.843196868896484
2011-03-08,22.040904998779297
2011-03-09,21.9522705078125
2011-03-10,21.495508193969727
2011-03-11,21.529592514038086
2011-03-14,21.434146881103516
2011-03-15,21.35233497619629
2011-03-16,20.99101448059082
2011-03-17,21.256898880004883
2011-03-18,21.543224334716797
2011-03-21,21.809106826782227
2011-03-22,21.611398696899414
2011-03-23,21.37961196899414
2011-03-24,21.481870651245117
2011-03-25,22.09544563293457
2011-03-28,21.986360549926758
2011-03-29,21.897737503051758
2011-03-30,22.190885543823242
2011-03-31,22.497676849365234
2011-04-01,22.463586807250977
2011-04-04,22.456769943237305
2011-04-05,22.422677993774414
2011-04-06,22.354507446289062
2011-04-07,22.054536819458008
2011-04-08,22.061359405517578
2011-04-11,22.245426177978516
2011-04-12,22.224973678588867
2011-04-13,22.020448684692383
2011-04-14,22.265878677368164
2011-04-15,22.490854263305664
2011-04-18,22.415868759155273
2011-04-19,22.695383071899414
2011-04-20,23.070343017578125
2011-04-21,23.131702423095703
2011-04-25,23.233963012695312
2011-04-26,23.45893669128418
2011-04-27,23.547563552856445
2011-04-28,23.970243453979492
2011-04-29,23.96343231201172
2011-05-02,23.86798095703125
2011-05-03,23.73164176940918
2011-05-04,23.588470458984375
2011-05-05,23.874797821044922
2011-05-06,23.595293045043945
2011-05-09,23.6634578704834
2011-05-10,23.949792861938477
2011-05-11,23.608924865722656
2011-05-12,23.71800422668457
2011-05-13,23.447795867919922
2011-05-16,23.406492233276367
2011-05-17,23.461566925048828
2011-05-18,23.798892974853516
2011-05-19,23.88839340209961
2011-05-20,23.633670806884766
2011-05-23,23.39961051940918
2011-05-24,23.447795867919922
2011-05-25,23.537290573120117
2011-05-26,23.84019660949707
2011-05-27,23.874618530273438
2011-05-31,24.328983306884766
2011-06-01,23.736936569213867
2011-06-02,23.730052947998047
2011-06-03,23.736936569213867
2011-06-06,23.613014221191406
2011-06-07,23.853967666625977
2011-06-08,23.93657684326172
2011-06-09,23.88839340209961
2011-06-10,23.54417610168457
2011-06-13,23.482219696044922
2011-06-14,23.853967666625977
2011-06-15,23.475330352783203
2011-06-16,23.468448638916016
2011-06-17,23.516637802124023
2011-06-20,23.88839340209961
2011-06-21,24.22571563720703
2011-06-22,24.21883201599121
2011-06-23,23.826433181762695
2011-06-24,23.826433181762695
2011-06-27,24.005420684814453
2011-06-28,24.205062866210938
2011-06-29,24.452892303466797
2011-06-30,24.452892303466797
2011-07-01,24.817760467529297
2011-07-05,25.01052474975586
2011-07-06,25.313425064086914
2011-07-07,25.568147659301758
2011-07-08,25.65764808654785
2011-07-11,25.313425064086914
2011-07-12,25.437345504760742
2011-07-13,24.98987579345703
2011-07-14,24.845300674438477
2011-07-15,25.203285217285156
2011-07-18,24.98987579345703
2011-07-19,25.561267852783203
2011-07-20,25.939897537231445
2011-07-21,25.974323272705078
2011-07-22,26.11200523376465
2011-07-25,25.877944946289062
2011-07-26,25.815982818603516
2011-07-27,25.368501663208008
2011-07-28,25.51995849609375
2011-07-29,25.62322425842285
2011-08-01,25.458003997802734
2011-08-02,25.155092239379883
2011-08-03,24.872840881347656
2011-08-04,24.046733856201172
2011-08-05,23.7025146484375
2011-08-08,22.47711181640625
2011-08-09,24.501089096069336
2011-08-10,24.149991989135742
2011-08-11,25.69835090637207
2011-08-12,25.21872329711914
2011-08-15,25.879079818725586
2011-08-16,25.802627563476562
2011-08-17,25.920793533325195
2011-08-18,24.822509765625
2011-08-19,24.44019889831543
2011-08-22,24.56532096862793
2011-08-23,25.197877883911133
2011-08-24,26.06676483154297
2011-08-25,25.83042335510254
2011-08-26,26.497737884521484
2011-08-29,26.782732009887695
2011-08-30,26.859193801879883
2011-08-31,27.11638641357422
2011-09-01,26.754926681518555
2011-09-02,26.289203643798828
2011-09-06,26.497737884521484
2011-09-07,27.206754684448242
2011-09-08,27.450044631958008
2011-09-09,26.685409545898438
2011-09-12,26.900897979736328
2011-09-13,27.067729949951172
2011-09-14,27.130292892456055
2011-09-15,27.387481689453125
2011-09-16,27.700281143188477
2011-09-19,27.276262283325195
2011-09-20,27.081626892089844
2011-09-21,25.89298439025879
2011-09-22,25.413360595703125
2011-09-23,25.84433937072754
2011-09-26,26.04591941833496
2011-09-27,26.53249168395996
2011-09-28,25.899940490722656
2011-09-29,26.435178756713867
2011-09-30,25.865184783935547
2011-10-03,25.12836265563965
2011-10-04,26.20578956604004
2011-10-05,25.322996139526367
2011-10-06,25.976398468017578
2011-10-07,25.49677276611328
2011-10-10,26.984315872192383
2011-10-11,26.685409545898438
2011-10-12,26.907848358154297
2011-10-13,26.699312210083008
2011-10-14,27.123332977294922
2011-10-17,26.46993064880371
2011-10-18,27.11638641357422
2011-10-19,26.64371109008789
2011-10-20,26.880054473876953
2011-10-21,27.255409240722656
2011-10-24,27.721139907836914
2011-10-25,27.26930809020996
2011-10-26,26.761886596679688
2011-10-27,27.35272216796875
2011-10-28,27.234554290771484
2011-10-31,27.06078338623047
2011-11-01,26.337862014770508
2011-11-02,27.443096160888672
2011-11-03,27.526506423950195
2011-11-04,27.450044631958008
2011-11-07,27.630767822265625
2011-11-08,27.936620712280273
2011-11-09,26.629804611206055
2011-11-10,26.403644561767578
2011-11-11,27.104936599731445
2011-11-14,26.908571243286133
2011-11-15,27.406490325927734
2011-11-16,27.504671096801758
2011-11-17,27.301292419433594
2011-11-18,27.44155502319336
2011-11-21,26.880525588989258
2011-11-22,26.57195472717285
2011-11-23,26.045978546142578
2011-11-25,26.10208511352539
2011-11-28,26.642074584960938
2011-11-29,26.466764450073242
2011-11-30,27.588825225830078
2011-12-01,27.37843894958496
2011-12-02,27.616880416870117
2011-12-05,27.820249557495117
2011-12-06,27.66596794128418
2011-12-07,28.009593963623047
2011-12-08,27.37843894958496
2011-12-09,27.904420852661133
2011-12-12,27.29427719116211
2011-12-13,27.076881408691406
2011-12-14,27.54674530029297
2011-12-15,27.95348358154297
2011-12-16,28.416351318359375
2011-12-19,28.030637741088867
2011-12-20,28.72492218017578
2011-12-21,28.752967834472656
2011-12-22,28.9984130859375
2011-12-23,29.313997268676758
2011-12-27,29.727760314941406
2011-12-28,29.271926879882812
2011-12-29,29.559450149536133
2011-12-30,29.42621421813965
2012-01-03,29.405168533325195
2012-01-04,29.103612899780273
2012-01-05,29.306991577148438
2012-01-06,29.187767028808594
2012-01-09,29.0615291595459
2012-01-10,29.454265594482422
2012-01-11,29.46126937866211
2012-01-12,28.99140739440918
2012-01-13,28.75998306274414
2012-01-17,28.752967834472656
2012-01-18,28.70388412475586
2012-01-19,29.019458770751953
2012-01-20,29.089588165283203
2012-01-23,29.23685073852539
2012-01-24,28.956344604492188
2012-01-25,29.384130477905273
2012-01-26,29.748809814453125
2012-01-27,30.050355911254883
2012-01-30,29.931140899658203
2012-01-31,30.015289306640625
2012-02-01,30.295820236206055
2012-02-02,30.38697624206543
2012-02-03,30.72359848022461
2012-02-06,30.632431030273438
2012-02-07,30.877883911132812
2012-02-08,30.919954299926758
2012-02-09,30.720327377319336
2012-02-10,30.20442008972168
2012-02-13,30.39522933959961
2012-02-14,30.28215217590332
2012-02-15,29.497718811035156
2012-02-16,29.54719352722168
2012-02-17,29.26450538635254
2012-02-21,28.49420738220215
2012-02-22,28.473011016845703
2012-02-23,28.875822067260742
2012-02-24,29.116107940673828
2012-02-27,29.06664276123047
2012-02-28,28.95355796813965
2012-02-29,29.080768585205078
2012-03-01,29.2574462890625
2012-03-02,29.06664276123047
2012-03-05,29.54719352722168
2012-03-06,29.441192626953125
2012-03-07,29.688533782958984
2012-03-08,29.928802490234375
2012-03-09,30.154956817626953
2012-03-12,30.268028259277344
2012-03-13,31.038330078125
2012-03-14,30.81925392150879
2012-03-15,30.748584747314453
2012-03-16,30.925262451171875
2012-03-19,31.052465438842773
2012-03-20,31.20088005065918
2012-03-21,30.96766471862793
2012-03-22,30.621362686157227
2012-03-23,30.635520935058594
2012-03-26,31.2362117767334
2012-03-27,31.215009689331055
2012-03-28,31.13020133972168
2012-03-29,31.45528793334961
2012-03-30,31.603689193725586
2012-04-02,31.92170524597168
2012-04-03,32.310394287109375
2012-04-04,31.617828369140625
2012-04-05,31.723825454711914
2012-04-09,31.356332778930664
2012-04-10,30.677902221679688
2012-04-11,31.045406341552734
2012-04-12,31.313947677612305
2012-04-13,31.024200439453125
2012-04-16,31.2362117767334
2012-04-17,31.384613037109375
2012-04-18,31.13727569580078
2012-04-19,31.031269073486328
2012-04-20,31.568363189697266
2012-04-23,31.39874839782715
2012-04-24,31.716758728027344
2012-04-25,31.215009689331055
2012-04-26,31.292739868164062
2012-04-27,31.540098190307617
2012-04-30,31.412878036499023
2012-05-01,31.681432723999023
2012-05-02,31.886367797851562
2012-05-03,31.829851150512695
2012-05-04,31.610755920410156
2012-05-07,32.0418586730957
2012-05-08,32.112525939941406
2012-05-09,32.18320083618164
2012-05-10,32.098384857177734
2012-05-11,32.11084747314453
2012-05-14,31.77620506286621
2012-05-15,31.904369354248047
2012-05-16,31.562618255615234
2012-05-17,30.957412719726562
2012-05-18,30.85774040222168
2012-05-21,31.256458282470703
2012-05-22,31.121173858642578
2012-05-23,31.199493408203125
2012-05-24,31.370372772216797
2012-05-25,31.306291580200195
2012-05-29,31.44869041442871
2012-05-30,30.75093650817871
2012-05-31,31.256458282470703
2012-06-01,30.473262786865234
2012-06-04,30.337984085083008
2012-06-05,30.864864349365234
2012-06-06,31.306291580200195
2012-06-07,31.035730361938477
2012-06-08,31.519887924194336
2012-06-11,30.736696243286133
2012-06-12,30.900463104248047
2012-06-13,30.8221435546875
2012-06-14,31.32765769958496
2012-06-15,31.47716522216797
2012-06-18,31.56973648071289
2012-06-19,31.562618255615234
2012-06-20,31.356143951416016
2012-06-21,30.701099395751953
2012-06-22,30.622785568237305
2012-06-25,30.758060455322266
2012-06-26,30.786544799804688
2012-06-27,30.80077362060547
2012-06-28,31.31340980529785
2012-06-29,32.02540588378906
2012-07-02,32.438358306884766
2012-07-03,32.516685485839844
2012-07-05,32.40275192260742
2012-07-06,32.509559631347656
2012-07-09,32.545166015625
2012-07-10,32.039649963378906
2012-07-11,31.39885711669922
2012-07-12,32.409873962402344
2012-07-13,33.05067443847656
2012-07-16,33.00795364379883
2012-07-17,33.52770233154297
2012-07-18,33.54195022583008
2012-07-19,33.299869537353516
2012-07-20,33.55619812011719
2012-07-23,33.48499298095703
2012-07-24,33.27851867675781
2012-07-25,33.413787841796875
2012-07-26,33.47074508666992
2012-07-27,33.591800689697266
2012-07-30,33.776912689208984
2012-07-31,33.93354034423828
2012-08-01,33.72705841064453
2012-08-02,33.95490264892578
2012-08-03,33.89082717895508
2012-08-06,33.60602569580078
2012-08-07,33.25004196166992
2012-08-08,33.04356002807617
2012-08-09,32.75163650512695
2012-08-10,33.11564254760742
2012-08-13,33.130001068115234
2012-08-14,32.84309387207031
2012-08-15,32.81440353393555
2012-08-16,32.75703048706055
2012-08-17,32.69247055053711
2012-08-20,32.66377639770508
2012-08-21,32.764198303222656
2012-08-22,33.000885009765625
2012-08-23,32.90764236450195
2012-08-24,33.137168884277344
2012-08-27,33.15150833129883
2012-08-28,33.266265869140625
2012-08-29,33.337989807128906
2012-08-30,33.180198669433594
2012-08-31,33.438411712646484
2012-09-04,33.89745330810547
2012-09-05,33.6033821105957
2012-09-06,33.38819885253906
2012-09-07,33.45276641845703
2012-09-10,32.96501922607422
2012-09-11,32.785709381103516
2012-09-12,32.69247055053711
2012-09-13,32.75703048706055
2012-09-14,33.000885009765625
2012-09-17,32.93632507324219
2012-09-18,32.6852912902832
2012-09-19,32.40556335449219
2012-09-20,31.673973083496094
2012-09-21,31.66679573059082
2012-09-24,31.580724716186523
2012-09-25,31.07146644592285
2012-09-26,31.114500045776367
2012-09-27,31.336864471435547
2012-09-28,31.473134994506836
2012-10-01,31.049955368041992
2012-10-02,31.193405151367188
2012-10-03,31.17188262939453
2012-10-04,30.870635986328125
2012-10-05,30.691329956054688
2012-10-08,30.64828109741211
2012-10-09,30.49048614501953
2012-10-10,30.705669403076172
2012-10-11,30.720016479492188
2012-10-12,30.999746322631836
2012-10-15,31.186227798461914
2012-10-16,31.250789642333984
2012-10-17,31.17188262939453
2012-10-18,31.623754501342773
2012-10-19,31.695478439331055
2012-10-22,31.595060348510742
2012-10-23,31.32969093322754
2012-10-24,31.93218231201172
2012-10-25,31.738510131835938
2012-10-26,32.28363037109375
2012-10-31,32.498809814453125
2012-11-01,33.11564254760742
2012-11-02,33.51014709472656
2012-11-05,33.244747161865234
2012-11-06,33.05109786987305
2012-11-07,32.77853775024414
2012-11-08,32.509376525878906
2012-11-09,32.34317398071289
2012-11-12,32.24923324584961
2012-11-13,32.256465911865234
2012-11-14,31.642253875732422
2012-11-15,31.266511917114258
2012-11-16,31.801219940185547
2012-11-19,32.1408576965332
2012-11-20,32.28537368774414
2012-11-21,32.04691696166992
2012-11-23,32.191429138183594
2012-11-26,32.083045959472656
2012-11-27,31.909629821777344
2012-11-28,31.649494171142578
2012-11-29,31.548322677612305
2012-11-30,31.649494171142578
2012-12-03,31.649494171142578
2012-12-04,31.96019744873047
2012-12-05,31.642253875732422
2012-12-06,32.242008209228516
2012-12-07,32.46601104736328
2012-12-10,32.617759704589844
2012-12-11,32.53827667236328
2012-12-12,32.60329818725586
2012-12-13,32.314266204833984
2012-12-14,32.54550552368164
2012-12-17,32.87789535522461
2012-12-18,32.87789535522461
2012-12-19,32.86343765258789
2012-12-20,33.50654602050781
2012-12-21,33.59326171875
2012-12-24,33.52100372314453
2012-12-26,33.30421829223633
2012-12-27,33.253639221191406
2012-12-28,33.13802719116211
2012-12-31,33.33311080932617
2013-01-02,33.708885192871094
2013-01-03,33.75222396850586
2013-01-04,33.86784744262695
2013-01-07,34.07016372680664
2013-01-08,33.90396499633789
2013-01-09,34.17855453491211
2013-01-10,33.91843032836914
2013-01-11,33.96177673339844
2013-01-14,34.14242172241211
2013-01-15,34.59765625
2013-01-16,34.58320999145508
2013-01-17,34.49650192260742
2013-01-18,34.36643981933594
2013-01-22,34.35920333862305
2013-01-23,34.23637008666992
2013-01-24,34.26527404785156
2013-01-25,34.4820442199707
2013-01-28,34.395328521728516
2013-01-29,34.51094055175781
2013-01-30,34.041259765625
2013-01-31,33.651065826416016
2013-02-01,33.925655364990234
2013-02-04,33.860618591308594
2013-02-05,33.651065826416016
2013-02-06,33.96223068237305
2013-02-07,33.91128158569336
2013-02-08,34.093238830566406
2013-02-11,33.92583465576172
2013-02-12,34.166038513183594
2013-02-13,34.14418411254883
2013-02-14,33.71474838256836
2013-02-15,33.445438385009766
2013-02-19,33.71474838256836
2013-02-20,33.882164001464844
2013-02-21,33.64924621582031
2013-02-22,33.831207275390625
2013-02-25,33.278038024902344
2013-02-26,33.37266159057617
2013-02-27,33.19796371459961
2013-02-28,32.8995475769043
2013-03-01,32.99416732788086
2013-03-04,33.33625411987305
2013-03-05,33.525516510009766
2013-03-06,33.2343635559082
2013-03-07,32.914100646972656
2013-03-08,32.622962951660156
2013-03-11,32.39731979370117
2013-03-12,32.23719024658203
2013-03-13,32.14984130859375
2013-03-14,32.39002990722656
2013-03-15,32.39002990722656
2013-03-18,32.404598236083984
2013-03-19,32.419151306152344
2013-03-20,32.404598236083984
2013-03-21,32.426429748535156
2013-03-22,32.47738265991211
2013-03-25,32.6083984375
2013-03-26,32.7030143737793
2013-03-27,32.914100646972656
2013-03-28,33.00143814086914
2013-04-01,33.5619010925293
2013-04-02,33.70018768310547
2013-04-03,33.26348876953125
2013-04-04,33.5837287902832
2013-04-05,34.17331314086914
2013-04-08,34.646419525146484
2013-04-09,34.347991943359375
2013-04-10,33.85304260253906
2013-04-11,33.227073669433594
2013-04-12,32.94321823120117
2013-04-15,32.353641510009766
2013-04-16,32.914100646972656
2013-04-17,32.47738265991211
2013-04-18,31.953323364257812
2013-04-19,31.873241424560547
2013-04-22,31.7713623046875
2013-04-23,31.902366638183594
2013-04-24,31.516603469848633
2013-04-25,31.11627197265625
2013-04-26,31.385581970214844
2013-04-29,31.83686065673828
2013-04-30,32.491939544677734
2013-05-01,32.13528060913086
2013-05-02,32.091609954833984
2013-05-03,31.83686065673828
2013-05-06,31.80046844482422
2013-05-07,32.36819839477539
2013-05-08,32.280853271484375
2013-05-09,32.33180618286133
2013-05-10,32.75397491455078
2013-05-13,33.015995025634766
2013-05-14,32.91328811645508
2013-05-15,32.70051956176758
2013-05-16,32.81057357788086
2013-05-17,32.649166107177734
2013-05-20,32.854591369628906
2013-05-21,33.02333450317383
2013-05-22,31.937482833862305
2013-05-23,31.313844680786133
2013-05-24,31.614654541015625
2013-05-28,31.203777313232422
2013-05-29,30.631519317626953
2013-05-30,30.088590621948242
2013-05-31,29.956518173217773
2013-06-03,30.756237030029297
2013-06-04,29.619028091430664
2013-06-05,29.384248733520508
2013-06-06,29.516300201416016
2013-06-07,29.384248733520508
2013-06-10,29.23016357421875
2013-06-11,28.723922729492188
2013-06-12,28.42310905456543
2013-06-13,28.93670082092285
2013-06-14,29.0467472076416
2013-06-17,28.797292709350586
2013-06-18,28.93670082092285
2013-06-19,28.35707664489746
2013-06-20,27.557363510131836
2013-06-21,27.62339973449707
2013-06-24,27.4986572265625
2013-06-25,28.26169776916504
2013-06-26,29.09810447692871
2013-06-27,29.92717742919922
2013-06-28,29.8317928314209
2013-07-01,29.736408233642578
2013-07-02,30.09592628479004
2013-07-03,30.066574096679688
2013-07-05,29.69239616394043
2013-07-08,30.13994598388672
2013-07-09,30.792922973632812
2013-07-10,30.54347801208496
2013-07-11,31.181781768798828
2013-07-12,30.91031837463379
2013-07-15,30.770915985107422
2013-07-16,30.726898193359375
2013-07-17,30.807605743408203
2013-07-18,30.77824592590332
2013-07-19,30.7488956451416
2013-07-22,31.07906150817871
2013-07-23,31.159765243530273
2013-07-24,29.641036987304688
2013-07-25,29.63370132446289
2013-07-26,29.494293212890625
2013-07-29,29.0467472076416
2013-07-30,28.797292709350586
2013-07-31,28.180992126464844
2013-08-01,28.14431381225586
2013-08-02,28.01958465576172
2013-08-05,27.968223571777344
2013-08-06,27.689424514770508
2013-08-07,27.439964294433594
2013-08-08,27.263877868652344
2013-08-09,27.256547927856445
2013-08-12,27.04377555847168
2013-08-13,26.473262786865234
2013-08-14,26.5918025970459
2013-08-15,26.369531631469727
2013-08-16,25.532289505004883
2013-08-19,25.065505981445312
2013-08-20,25.576740264892578
2013-08-21,25.71751594543457
2013-08-22,25.702699661254883
2013-08-23,25.776792526245117
2013-08-26,25.85829734802246
2013-08-27,25.880531311035156
2013-08-28,25.487834930419922
2013-08-29,25.19145965576172
2013-08-30,24.680227279663086
2013-09-03,24.354217529296875
2013-09-04,24.79876708984375
2013-09-05,24.739500045776367
2013-09-06,25.006235122680664
2013-09-09,25.51005744934082
2013-09-10,26.028709411621094
2013-09-11,26.584392547607422
2013-09-12,26.310260772705078
2013-09-13,26.517715454101562
2013-09-16,26.443620681762695
2013-09-17,26.45103645324707
2013-09-18,27.177139282226562
2013-09-19,27.177139282226562
2013-09-20,26.19170570373535
2013-09-23,25.895341873168945
2013-09-24,25.406335830688477
2013-09-25,25.71011734008789
2013-09-26,25.836063385009766
2013-09-27,25.732341766357422
2013-09-30,25.302602767944336
2013-10-01,25.732341766357422
2013-10-02,25.421146392822266
2013-10-03,24.84322738647461
2013-10-04,24.57649040222168
2013-10-07,24.695043563842773
2013-10-08,24.635766983032227
2013-10-09,24.776546478271484
2013-10-10,25.561922073364258
2013-10-11,25.97684669494629
2013-10-14,26.132434844970703
2013-10-15,26.132434844970703
2013-10-16,26.576997756958008
2013-10-17,27.058597564697266
2013-10-18,27.221599578857422
2013-10-21,27.02895736694336
2013-10-22,26.636266708374023
2013-10-23,26.428802490234375
2013-10-24,26.132434844970703
2013-10-25,26.19170570373535
2013-10-28,25.76197624206543
2013-10-29,25.55451774597168
2013-10-30,25.650836944580078
2013-10-31,25.606386184692383
2013-11-01,25.8138370513916
2013-11-04,25.82866096496582
2013-11-05,25.280378341674805
2013-11-06,25.480424880981445
2013-11-07,25.361873626708984
2013-11-08,25.06984519958496
2013-11-11,25.002456665039062
2013-11-12,24.85268783569336
2013-11-13,25.017427444458008
2013-11-14,24.85268783569336
2013-11-15,24.890134811401367
2013-11-18,24.59809684753418
2013-11-19,24.59809684753418
2013-11-20,24.65800666809082
2013-11-21,24.77781105041504
2013-11-22,24.78529930114746
2013-11-25,24.455827713012695
2013-11-26,24.306066513061523
2013-11-27,24.53070068359375
2013-11-29,24.283607482910156
2013-12-02,24.006549835205078
2013-12-03,23.916688919067383
2013-12-04,24.23867416381836
2013-12-05,24.2985782623291
2013-12-06,24.702930450439453
2013-12-09,24.695444107055664
2013-12-10,24.545679092407227
2013-12-11,24.20123863220215
2013-12-12,23.811861038208008
2013-12-13,23.85678482055664
2013-12-16,24.051475524902344
2013-12-17,24.31355857849121
2013-12-18,24.68045997619629
2013-12-19,24.171281814575195
2013-12-20,24.24616241455078
2013-12-23,24.0364990234375
2013-12-24,24.13384246826172
2013-12-26,24.283607482910156
2013-12-27,24.2985782623291
2013-12-30,24.508241653442383
2013-12-31,24.118867874145508
2014-01-02,24.470802307128906
2014-01-03,24.77781105041504
2014-01-06,24.994966506958008
2014-01-07,24.85268783569336
2014-01-08,24.822736740112305
2014-01-09,24.822736740112305
2014-01-10,25.34689712524414
2014-01-13,25.32443618774414
2014-01-14,25.33193016052246
2014-01-15,25.339414596557617
2014-01-16,25.08481788635254
2014-01-17,25.46670913696289
2014-01-21,25.983383178710938
2014-01-22,26.245460510253906
2014-01-23,26.320341110229492
2014-01-24,25.908504486083984
2014-01-27,25.698833465576172
2014-01-28,25.84859275817871
2014-01-29,25.841106414794922
2014-01-30,26.252946853637695
2014-01-31,26.028308868408203
2014-02-03,25.339414596557617
2014-02-04,25.219600677490234
2014-02-05,24.987476348876953
2014-02-06,24.97233772277832
2014-02-07,25.16158103942871
2014-02-10,25.97909927368164
2014-02-11,26.524118423461914
2014-02-12,25.948829650878906
2014-02-13,27.212961196899414
2014-02-14,27.424911499023438
2014-02-18,27.432476043701172
2014-02-19,27.500606536865234
2014-02-20,27.205387115478516
2014-02-21,27.341646194458008
2014-02-24,27.40220069885254
2014-02-25,27.803386688232422
2014-02-26,27.848806381225586
2014-02-27,27.636857986450195
2014-02-28,27.962358474731445
2014-03-03,27.95478630065918
2014-03-04,28.446815490722656
2014-03-05,28.439247131347656
2014-03-06,28.09861183166504
2014-03-07,27.651994705200195
2014-03-10,27.45518684387207
2014-03-11,27.720125198364258
2014-03-12,27.841236114501953
2014-03-13,28.02291488647461
2014-03-14,28.091049194335938
2014-03-17,28.075891494750977
2014-03-18,27.924503326416016
2014-03-19,27.273515701293945
2014-03-20,27.5384521484375
2014-03-21,27.88666343688965
2014-03-24,27.916942596435547
2014-03-25,28.355974197387695
2014-03-26,27.95478630065918
2014-03-27,27.95478630065918
2014-03-28,28.121322631835938
2014-03-31,28.272720336914062
2014-04-01,28.2121524810791
2014-04-02,28.227298736572266
2014-04-03,28.1894474029541
2014-04-04,28.545217514038086
2014-04-07,28.530080795288086
2014-04-08,28.575502395629883
2014-04-09,28.537654876708984
2014-04-10,28.469524383544922
2014-04-11,28.121322631835938
2014-04-14,28.32569694519043
2014-04-15,28.446815490722656
2014-04-16,28.560352325439453
2014-04-17,28.280284881591797
2014-04-21,28.628490447998047
2014-04-22,28.726892471313477
2014-04-23,28.681472778320312
2014-04-24,28.575502395629883
2014-04-25,28.50737190246582
2014-04-28,28.825298309326172
2014-04-29,28.870718002319336
2014-04-30,28.916133880615234
2014-05-01,29.173505783081055
2014-05-02,29.43844223022461
2014-05-05,29.63525390625
2014-05-06,29.483858108520508
2014-05-07,29.718521118164062
2014-05-08,29.68067169189453
2014-05-09,29.498998641967773
2014-05-12,29.476293563842773
2014-05-13,29.158361434936523
2014-05-14,29.494749069213867
2014-05-15,29.464168548583984
2014-05-16,29.861719131469727
2014-05-19,29.869356155395508
2014-05-20,29.594131469726562
2014-05-21,29.120140075683594
2014-05-22,29.13543128967285
2014-05-23,29.425941467285156
2014-05-27,29.555906295776367
2014-05-28,29.41065788269043
2014-05-29,29.494749069213867
2014-05-30,29.693517684936523
2014-06-02,29.907575607299805
2014-06-03,29.716455459594727
2014-06-04,29.831132888793945
2014-06-05,30.282203674316406
2014-06-06,29.892290115356445
2014-06-09,29.50239372253418
2014-06-10,29.24245834350586
2014-06-11,29.089555740356445
2014-06-12,29.2271671295166
2014-06-13,29.311269760131836
2014-06-16,29.036035537719727
2014-06-17,28.967233657836914
2014-06-18,29.120140075683594
2014-06-19,28.99781608581543
2014-06-20,29.104846954345703
2014-06-23,29.28068733215332
2014-06-24,29.2653865814209
2014-06-25,29.35713005065918
2014-06-26,29.38007354736328
2014-06-27,29.555906295776367
2014-06-30,29.234817504882812
2014-07-01,29.922870635986328
2014-07-02,29.6400089263916
2014-07-03,29.35713005065918
2014-07-07,29.41065788269043
2014-07-08,29.792905807495117
2014-07-09,29.938167572021484
2014-07-10,29.899934768676758
2014-07-11,30.106351852416992
2014-07-14,30.190458297729492
2014-07-15,30.305118560791016
2014-07-16,30.519189834594727
2014-07-17,30.404508590698242
2014-07-18,30.503894805908203
2014-07-21,30.580354690551758
2014-07-22,30.656795501708984
2014-07-23,30.809701919555664
2014-07-24,30.77911949157715
2014-07-25,30.595638275146484
2014-07-28,30.626224517822266
2014-07-29,30.54212760925293
2014-07-30,30.297475814819336
2014-07-31,29.754669189453125
2014-08-01,29.38007354736328
2014-08-04,29.464168548583984
2014-08-05,29.11249351501465
2014-08-06,28.967233657836914
2014-08-07,29.05898094177246
2014-08-08,29.273040771484375
2014-08-11,29.273040771484375
2014-08-12,29.097200393676758
2014-08-13,29.73042106628418
2014-08-14,29.575979232788086
2014-08-15,29.521915435791016
2014-08-18,30.139698028564453
2014-08-19,30.22464370727539
2014-08-20,30.456314086914062
2014-08-21,30.348203659057617
2014-08-22,30.186031341552734
2014-08-25,30.2169132232666
2014-08-26,30.32503318786621
2014-08-27,30.448585510253906
2014-08-28,30.518089294433594
2014-08-29,30.510366439819336
2014-09-02,30.402252197265625
2014-09-03,30.587589263916016
2014-09-04,30.664812088012695
2014-09-05,30.95824432373047
2014-09-08,30.98141860961914
2014-09-09,30.76519203186035
2014-09-10,30.247817993164062
2014-09-11,30.270971298217773
2014-09-12,29.16669464111328
2014-09-15,28.9118709564209
2014-09-16,28.9118709564209
2014-09-17,28.9118709564209
2014-09-18,28.463979721069336
2014-09-19,28.525758743286133
2014-09-22,28.232318878173828
2014-09-23,27.946590423583984
2014-09-24,27.70721435546875
2014-09-25,27.753538131713867
2014-09-26,28.108760833740234
2014-09-29,28.324989318847656
2014-09-30,28.147369384765625
2014-10-01,28.155094146728516
2014-10-02,28.023822784423828
2014-10-03,28.12421226501465
2014-10-06,28.30181884765625
2014-10-07,28.193710327148438
2014-10-08,28.548933029174805
2014-10-09,28.84237289428711
2014-10-10,28.95049285888672
2014-10-13,29.467863082885742
2014-10-14,29.908039093017578
2014-10-15,29.938922882080078
2014-10-16,29.84625816345215
2014-10-17,29.81536102294922
2014-10-20,30.270971298217773
2014-10-21,30.57213592529297
2014-10-22,30.147417068481445
2014-10-23,29.969812393188477
2014-10-24,29.776758193969727
2014-10-27,30.039308547973633
2014-10-28,30.116533279418945
2014-10-29,30.02386474609375
2014-10-30,30.209199905395508
2014-10-31,30.32503318786621
2014-11-03,30.57986068725586
2014-11-04,30.78835678100586
2014-11-05,30.456314086914062
2014-11-06,30.355924606323242
2014-11-07,30.471744537353516
2014-11-10,30.90839958190918
2014-11-11,30.84601593017578
2014-11-12,30.588708877563477
2014-11-13,30.697874069213867
2014-11-14,30.385995864868164
2014-11-17,30.222244262695312
2014-11-18,30.175464630126953
2014-11-19,30.12867546081543
2014-11-20,30.136472702026367
2014-11-21,30.690078735351562
2014-11-24,31.056554794311523
2014-11-25,30.877208709716797
2014-11-26,31.16571044921875
2014-11-28,31.189102172851562
2014-12-01,31.033153533935547
2014-12-02,30.97077751159668
2014-12-03,31.056554794311523
2014-12-04,31.16571044921875
2014-12-05,31.17350959777832
2014-12-08,31.462011337280273
2014-12-09,31.508785247802734
2014-12-10,31.469802856445312
2014-12-11,31.578954696655273
2014-12-12,31.384033203125
2014-12-15,31.087732315063477
2014-12-16,30.869409561157227
2014-12-17,31.345046997070312
2014-12-18,31.6959285736084
2014-12-19,31.77389907836914
2014-12-22,32.47565460205078
2014-12-23,32.3898811340332
2014-12-24,32.335304260253906
2014-12-26,32.3898811340332
2014-12-29,32.623802185058594
2014-12-30,32.654991149902344
2014-12-31,32.24953842163086
2015-01-02,32.8187255859375
2015-01-05,33.013668060302734
2015-01-06,33.35675048828125
2015-01-07,33.41132736206055
2015-01-08,33.60624694824219
2015-01-09,33.55947494506836
2015-01-12,33.871360778808594
2015-01-13,33.855770111083984
2015-01-14,34.0662956237793
2015-01-15,33.964927673339844
2015-01-16,34.183258056640625
2015-01-20,34.058509826660156
2015-01-21,34.11308288574219
2015-01-22,34.697879791259766
2015-01-23,34.64329528808594
2015-01-26,34.760250091552734
2015-01-27,34.77584457397461
2015-01-28,34.962989807128906
2015-01-29,34.752464294433594
2015-01-30,34.27682876586914
2015-02-02,34.432769775390625
2015-02-03,34.87721252441406
2015-02-04,34.86162185668945
2015-02-05,35.16831970214844
2015-02-06,34.56278610229492
2015-02-09,34.028018951416016
2015-02-10,33.77637481689453
2015-02-11,33.78423309326172
2015-02-12,34.24821853637695
2015-02-13,34.05160903930664
2015-02-17,33.64268493652344
2015-02-18,34.012298583984375
2015-02-19,33.09218978881836
2015-02-20,33.22587966918945
2015-02-23,33.398895263671875
2015-02-24,32.785491943359375
2015-02-25,32.66752624511719
2015-02-26,32.250732421875
2015-02-27,32.455196380615234
2015-03-02,32.588890075683594
2015-03-03,32.56529998779297
2015-03-04,32.179954528808594
2015-03-05,32.29006576538086
2015-03-06,31.55082893371582
2015-03-09,31.975492477416992
2015-03-10,32.046268463134766
2015-03-11,32.19567108154297
2015-03-12,32.51025390625
2015-03-13,32.376556396484375
2015-03-16,32.87200164794922
2015-03-17,32.85626220703125
2015-03-18,33.63481521606445
2015-03-19,33.233741760253906
2015-03-20,34.41336441040039
2015-03-23,34.2010383605957
2015-03-24,33.48539733886719
2015-03-25,33.021419525146484
2015-03-26,32.8641357421875
2015-03-27,33.09218978881836
2015-03-30,33.63481521606445
2015-03-31,33.713462829589844
2015-04-01,33.68986892700195
2015-04-02,34.098793029785156
2015-04-06,34.34259033203125
2015-04-07,33.91005325317383
2015-04-08,33.68199920654297
2015-04-09,32.92704391479492
2015-04-10,32.895591735839844
2015-04-13,32.64393997192383
2015-04-14,32.66752624511719
2015-04-15,32.384429931640625
2015-04-16,32.54956817626953
2015-04-17,32.31364440917969
2015-04-20,32.36868667602539
2015-04-21,32.455196380615234
2015-04-22,32.8248176574707
2015-04-23,33.09218978881836
2015-04-24,33.194419860839844
2015-04-27,33.30452346801758
2015-04-28,33.2573356628418
2015-04-29,32.46305465698242
2015-04-30,31.566551208496094
2015-05-01,31.731704711914062
2015-05-04,31.857526779174805
2015-05-05,30.945281982421875
2015-05-06,31.039661407470703
2015-05-07,31.59014892578125
2015-05-08,31.731704711914062
2015-05-11,31.12616539001465
2015-05-12,31.07111930847168
2015-05-13,30.607131958007812
2015-05-14,31.35403823852539
2015-05-15,31.4176025390625
2015-05-18,31.22690200805664
2015-05-19,31.16333770751953
2015-05-20,31.14745330810547
2015-05-21,31.08387565612793
2015-05-22,31.123607635498047
2015-05-26,30.80577850341797
2015-05-27,31.250741958618164
2015-05-28,31.17128562927246
2015-05-29,30.996479034423828
2015-06-01,31.648033142089844
2015-06-02,31.457326889038086
2015-06-03,30.86934471130371
2015-06-04,30.837568283081055
2015-06-05,30.7263126373291
2015-06-08,30.71837043762207
2015-06-09,30.487943649291992
2015-06-10,30.781940460205078
2015-06-11,31.179229736328125
2015-06-12,30.86934471130371
2015-06-15,30.678640365600586
2015-06-16,30.87727928161621
2015-06-17,31.08387565612793
2015-06-18,31.552684783935547
2015-06-19,31.4176025390625
2015-06-22,31.052093505859375
2015-06-23,30.79783058166504
2015-06-24,30.71837043762207
2015-06-25,30.480005264282227
2015-06-26,30.646865844726562
2015-06-29,30.18600845336914
2015-06-30,29.94763946533203
2015-07-01,30.702484130859375
2015-07-02,30.575347900390625
2015-07-06,30.82961654663086
2015-07-07,30.480005264282227
2015-07-08,30.376707077026367
2015-07-09,30.233684539794922
2015-07-10,30.487943649291992
2015-07-13,30.5594539642334
2015-07-14,31.0679874420166
2015-07-15,30.972633361816406
2015-07-16,30.95673942565918
2015-07-17,30.964702606201172
2015-07-20,31.32225227355957
2015-07-21,31.115671157836914
2015-07-22,31.203065872192383
2015-07-23,30.87727928161621
2015-07-24,30.773990631103516
2015-07-27,30.7263126373291
2015-07-28,29.955577850341797
2015-07-29,30.042984008789062
2015-07-30,29.470888137817383
2015-07-31,29.653635025024414
2015-08-03,29.80460548400879
2015-08-04,29.47883415222168
2015-08-05,29.105384826660156
2015-08-06,29.20073699951172
2015-08-07,29.510618209838867
2015-08-10,29.256345748901367
2015-08-11,29.52651023864746
2015-08-12,29.590072631835938
2015-08-13,29.782840728759766
2015-08-14,30.047903060913086
2015-08-17,30.264766693115234
2015-08-18,30.20853614807129
2015-08-19,30.160356521606445
2015-08-20,30.128217697143555
2015-08-21,29.68645668029785
2015-08-24,28.256750106811523
2015-08-25,27.100135803222656
2015-08-26,27.46158218383789
2015-08-27,28.152334213256836
2015-08-28,28.1121768951416
2015-08-31,27.509767532348633
2015-09-01,26.947521209716797
2015-09-02,26.971630096435547
2015-09-03,26.899333953857422
2015-09-04,26.18448257446289
2015-09-08,26.256771087646484
2015-09-09,25.911392211914062
2015-09-10,25.943523406982422
2015-09-11,26.521827697753906
2015-09-14,26.31299591064453
2015-09-15,27.027854919433594
2015-09-16,27.46158218383789
2015-09-17,27.710573196411133
2015-09-18,27.943506240844727
2015-09-21,28.409366607666016
2015-09-22,28.192495346069336
2015-09-23,28.92341423034668
2015-09-24,29.381237030029297
2015-09-25,29.284854888916016
2015-09-28,29.092090606689453
2015-09-29,29.53384780883789
2015-09-30,29.108152389526367
2015-10-01,29.172407150268555
2015-10-02,29.365169525146484
2015-10-05,29.855125427246094
2015-10-06,29.8631591796875
2015-10-07,30.24066925048828
2015-10-08,30.52178955078125
2015-10-09,30.320985794067383
2015-10-12,30.37721061706543
2015-10-13,30.136249542236328
2015-10-14,29.999710083007812
2015-10-15,30.433435440063477
2015-10-16,30.762746810913086
2015-10-19,31.42137336730957
2015-10-20,31.638246536254883
2015-10-21,31.678409576416016
2015-10-22,31.87117576599121
2015-10-23,31.814958572387695
2015-10-26,31.97559356689453
2015-10-27,32.83502197265625
2015-10-28,32.85911560058594
2015-10-29,33.06795883178711
2015-10-30,32.586021423339844
2015-11-02,32.77880096435547
2015-11-03,32.28883743286133
2015-11-04,32.37718963623047
2015-11-05,32.84305953979492
2015-11-06,31.895275115966797
2015-11-09,31.27679443359375
2015-11-10,31.983612060546875
2015-11-11,31.95149803161621
2015-11-12,31.64318084716797
2015-11-13,31.367313385009766
2015-11-16,31.772994995117188
2015-11-17,31.805452346801758
2015-11-18,32.14622497558594
2015-11-19,32.357181549072266
2015-11-20,32.843990325927734
2015-11-23,32.81966018676758
2015-11-24,32.649269104003906
2015-11-25,32.787200927734375
2015-11-27,32.90079879760742
2015-11-30,32.779083251953125
2015-12-01,33.08739471435547
2015-12-02,32.44642639160156
2015-12-03,31.34296989440918
2015-12-04,31.618844985961914
2015-12-07,31.424110412597656
2015-12-08,31.35919952392578
2015-12-09,31.05087661743164
2015-12-10,30.872379302978516
2015-12-11,31.06711196899414
2015-12-14,31.570148468017578
2015-12-15,32.2192497253418
2015-12-16,33.01438522338867
2015-12-17,33.18476867675781
2015-12-18,32.73851776123047
2015-12-21,32.18679428100586
2015-12-22,32.300384521484375
2015-12-23,32.714176177978516
2015-12-24,32.76286697387695
2015-12-28,32.779083251953125
2015-12-29,33.72837829589844
2015-12-30,33.631019592285156
2015-12-31,33.541770935058594
2016-01-04,33.006263732910156
2016-01-05,33.760833740234375
2016-01-06,33.947452545166016
2016-01-07,33.35515213012695
2016-01-08,32.86833572387695
2016-01-11,33.0711784362793
2016-01-12,32.5843620300293
2016-01-13,32.19490432739258
2016-01-14,31.992074966430664
2016-01-15,31.91092872619629
2016-01-19,32.90079879760742
2016-01-20,32.267921447753906
2016-01-21,31.959613800048828
2016-01-22,32.81154251098633
2016-01-25,32.649269104003906
2016-01-26,33.53365707397461
2016-01-27,32.99003219604492
2016-01-28,32.9656982421875
2016-01-29,34.23954391479492
2016-02-01,34.418033599853516
2016-02-02,35.02656173706055
2016-02-03,35.010337829589844
2016-02-04,35.35429382324219
2016-02-05,35.23146438598633
2016-02-08,35.190513610839844
2016-02-09,35.45257568359375
2016-02-10,35.4935188293457
2016-02-11,34.461639404296875
2016-02-12,35.067657470703125
2016-02-16,35.640933990478516
2016-02-17,35.256019592285156
2016-02-18,35.3952522277832
2016-02-19,35.731014251708984
2016-02-22,35.59998321533203
2016-02-23,35.05947494506836
2016-02-24,35.12498474121094
2016-02-25,36.13230514526367
2016-02-26,35.98489761352539
2016-02-29,35.845672607421875
2016-03-01,36.24696350097656
2016-03-02,36.75471496582031
2016-03-03,36.29609298706055
2016-03-04,35.81290817260742
2016-03-07,35.788333892822266
2016-03-08,35.51808547973633
2016-03-09,36.0586051940918
2016-03-10,35.935752868652344
2016-03-11,36.9676399230957
2016-03-14,36.8857421875
2016-03-15,37.319793701171875
2016-03-16,38.220638275146484
2016-03-17,38.46632385253906
2016-03-18,38.13055419921875
2016-03-21,37.459007263183594
2016-03-22,37.59004592895508
2016-03-23,37.15599822998047
2016-03-24,36.9676399230957
2016-03-28,37.42625427246094
2016-03-29,37.876678466796875
2016-03-30,38.04866409301758
2016-03-31,38.564605712890625
2016-04-01,38.179691314697266
2016-04-04,37.82753372192383
2016-04-05,37.57366943359375
2016-04-06,37.76203155517578
2016-04-07,37.88486862182617
2016-04-08,38.19607162475586
2016-04-11,37.84392547607422
2016-04-12,37.8930549621582
2016-04-13,37.049530029296875
2016-04-14,37.05772018432617
2016-04-15,37.02497482299805
2016-04-18,37.03316116333008
2016-04-19,37.311607360839844
2016-04-20,36.43531799316406
2016-04-21,35.902992248535156
2016-04-22,36.11592102050781
2016-04-25,36.869361877441406
2016-04-26,37.2460823059082
2016-04-27,37.09866714477539
2016-04-28,36.8857421875
2016-04-29,36.64825439453125
2016-05-02,37.311607360839844
2016-05-03,37.36893081665039
2016-05-04,37.835731506347656
2016-05-05,38.12236785888672
2016-05-06,38.69563293457031
2016-05-09,39.301666259765625
2016-05-10,39.35078811645508
2016-05-11,38.703826904296875
2016-05-12,39.05913543701172
2016-05-13,38.836036682128906
2016-05-16,39.32354736328125
2016-05-17,38.79471969604492
2016-05-18,39.03434371948242
2016-05-19,38.0840950012207
2016-05-20,38.241092681884766
2016-05-23,38.1915168762207
2016-05-24,38.431148529052734
2016-05-25,38.46420669555664
2016-05-26,38.356781005859375
2016-05-27,38.505516052246094
2016-05-31,38.85255432128906
2016-06-01,38.47245788574219
2016-06-02,38.455936431884766
2016-06-03,38.869083404541016
2016-06-06,38.232826232910156
2016-06-07,38.30719757080078
2016-06-08,38.55509567260742
2016-06-09,39.30702209472656
2016-06-10,39.373130798339844
2016-06-13,39.7366943359375
2016-06-14,39.76148223876953
2016-06-15,40.07548141479492
2016-06-16,40.364681243896484
2016-06-17,40.11679458618164
2016-06-20,39.91021728515625
2016-06-21,40.5629997253418
2016-06-22,40.59605026245117
2016-06-23,40.910037994384766
2016-06-24,41.050506591796875
2016-06-27,41.59587478637695
2016-06-28,42.65353012084961
2016-06-29,42.78573989868164
2016-06-30,43.6864128112793
2016-07-01,42.711368560791016
2016-07-05,43.59550857543945
2016-07-06,43.36414337158203
2016-07-07,43.04188537597656
2016-07-08,43.32283401489258
2016-07-11,43.446773529052734
2016-07-12,43.32283401489258
2016-07-13,43.53766632080078
2016-07-14,42.818790435791016
2016-07-15,42.794002532958984
2016-07-18,42.63700866699219
2016-07-19,43.0997314453125
2016-07-20,42.87662887573242
2016-07-21,43.066680908203125
2016-07-22,43.49635696411133
2016-07-25,43.33109664916992
2016-07-26,43.438514709472656
2016-07-27,43.074947357177734
2016-07-28,44.08302688598633
2016-07-29,44.67795944213867
2016-08-01,45.0745849609375
2016-08-02,44.52922439575195
2016-08-03,44.47965621948242
2016-08-04,44.43833541870117
2016-08-05,43.83513641357422
2016-08-08,43.42198944091797
2016-08-09,43.80208206176758
2016-08-10,43.66162109375
2016-08-11,42.695430755615234
2016-08-12,43.0535888671875
2016-08-15,42.812042236328125
2016-08-16,41.937469482421875
2016-08-17,42.45389175415039
2016-08-18,42.11238479614258
2016-08-19,41.962459564208984
2016-08-22,42.054080963134766
2016-08-23,41.89582443237305
2016-08-24,41.77922439575195
2016-08-25,42.07073211669922
2016-08-26,41.38774490356445
2016-08-29,41.854183197021484
2016-08-30,41.704254150390625
2016-08-31,41.73757553100586
2016-09-01,42.062408447265625
2016-09-02,42.462215423583984
2016-09-06,42.887001037597656
2016-09-07,43.0535888671875
2016-09-08,42.24565887451172
2016-09-09,40.45487976074219
2016-09-12,40.72974395751953
2016-09-13,39.73023986816406
2016-09-14,39.84685134887695
2016-09-15,39.9384651184082
2016-09-16,40.07172775268555
2016-09-19,40.69643020629883
2016-09-20,41.00460433959961
2016-09-21,41.704254150390625
2016-09-22,42.820369720458984
2016-09-23,42.553829193115234
2016-09-26,42.87034606933594
2016-09-27,42.72041702270508
2016-09-28,43.02859115600586
2016-09-29,42.49552917480469
2016-09-30,42.37058639526367
2016-10-03,41.25447463989258
2016-10-04,40.371578216552734
2016-10-05,39.48868942260742
2016-10-06,40.07172775268555
2016-10-07,39.97178649902344
2016-10-10,40.17168426513672
2016-10-11,39.19717025756836
2016-10-12,40.21333312988281
2016-10-13,41.05458068847656
2016-10-14,41.037925720214844
2016-10-17,41.471038818359375
2016-10-18,41.77089309692383
2016-10-19,42.162353515625
2016-10-20,42.403907775878906
2016-10-21,42.462215423583984
2016-10-24,42.57881164550781
2016-10-25,43.31178283691406
2016-10-26,42.82869338989258
2016-10-27,42.17068862915039
2016-10-28,42.32061767578125
2016-10-31,43.40340805053711
2016-11-01,42.07073211669922
2016-11-02,40.946292877197266
2016-11-03,40.91298294067383
2016-11-04,40.78804016113281
2016-11-07,40.72974395751953
2016-11-08,41.32944107055664
2016-11-09,40.47261428833008
2016-11-10,39.2797737121582
2016-11-11,39.162166595458984
2016-11-14,39.83418655395508
2016-11-15,38.66655349731445
2016-11-16,38.42293930053711
2016-11-17,37.82651901245117
2016-11-18,37.910518646240234
2016-11-21,38.296939849853516
2016-11-22,38.66655349731445
2016-11-23,38.51534652709961
2016-11-25,39.04456329345703
2016-11-28,39.19576644897461
2016-11-29,39.86779022216797
2016-11-30,39.57378005981445
2016-12-01,38.46494674682617
2016-12-02,38.85976028442383
2016-12-05,38.607749938964844
2016-12-06,38.50693893432617
2016-12-07,38.784149169921875
2016-12-08,39.66618347167969
2016-12-09,39.934993743896484
2016-12-12,40.38861083984375
2016-12-13,40.41380310058594
2016-12-14,39.993797302246094
2016-12-15,39.88459396362305
2016-12-16,40.73302459716797
2016-12-19,41.102630615234375
2016-12-20,41.24543762207031
2016-12-21,40.38861083984375
2016-12-22,40.581817626953125
2016-12-23,40.63222122192383
2016-12-27,40.64061737060547
2016-12-28,40.57341003417969
2016-12-29,41.2706413269043
2016-12-30,41.80826950073242
2017-01-03,40.99343490600586
2017-01-04,42.11067581176758
2017-01-05,42.320674896240234
2017-01-06,42.52227783203125
2017-01-09,42.06026840209961
2017-01-10,41.631858825683594
2017-01-11,41.30424118041992
2017-01-12,41.37145233154297
2017-01-13,41.573055267333984
2017-01-17,42.0938720703125
2017-01-18,41.95106506347656
2017-01-19,41.65705490112305
2017-01-20,42.0434684753418
2017-01-23,42.65668487548828
2017-01-24,42.75748825073242
2017-01-25,41.48064422607422
2017-01-26,41.48064422607422
2017-01-27,40.79182434082031
2017-01-30,40.581817626953125
2017-01-31,40.842220306396484
2017-02-01,40.010597229003906
2017-02-02,40.86656951904297
2017-02-03,40.9682731628418
2017-02-06,40.976749420166016
2017-02-07,41.010650634765625
2017-02-08,41.6632194519043
2017-02-09,41.46829605102539
2017-02-10,41.739505767822266
2017-02-13,41.59542465209961
2017-02-14,41.680179595947266
2017-02-15,41.790348052978516
2017-02-16,42.01918029785156
2017-02-17,42.04460525512695
2017-02-21,42.56158447265625
2017-02-22,42.36665344238281
2017-02-23,42.993797302246094
2017-02-24,43.58705139160156
2017-02-27,43.51078414916992
2017-02-28,43.30738830566406
2017-03-01,42.79888153076172
2017-03-02,42.3751335144043
2017-03-03,41.78187942504883
2017-03-06,41.264892578125
2017-03-07,40.951324462890625
2017-03-08,40.07839584350586
2017-03-09,39.34954071044922
2017-03-10,38.756290435791016
2017-03-13,39.01901626586914
2017-03-14,38.95121765136719
2017-03-15,40.11229705810547
2017-03-16,39.891944885253906
2017-03-17,40.13771438598633
2017-03-20,40.09534454345703
2017-03-21,40.00211715698242
2017-03-22,40.40044021606445
2017-03-23,40.64622116088867
2017-03-24,40.73945236206055
2017-03-27,40.044490814208984
2017-03-28,40.29875183105469
2017-03-29,40.15467071533203
2017-03-30,40.222469329833984
2017-03-31,40.3326530456543
2017-04-03,40.5106201171875
2017-04-04,40.70554733276367
2017-04-05,40.61232376098633
2017-04-06,40.764869689941406
2017-04-07,40.48519515991211
2017-04-10,40.4682502746582
2017-04-11,40.64622116088867
2017-04-12,40.84114456176758
2017-04-13,40.68012619018555
2017-04-17,41.60389709472656
2017-04-18,41.807308197021484
2017-04-19,41.95138168334961
2017-04-20,42.061553955078125
2017-04-21,42.03611755371094
2017-04-24,41.78187942504883
2017-04-25,41.09540557861328
2017-04-26,40.044490814208984
2017-04-27,40.40892028808594
2017-04-28,40.163143157958984
2017-05-01,40.247901916503906
2017-05-02,39.87499237060547
2017-05-03,39.40886306762695
2017-05-04,39.502098083496094
2017-05-05,39.663124084472656
2017-05-08,39.0444450378418
2017-05-09,38.493568420410156
2017-05-10,38.73934555053711
2017-05-11,38.69654846191406
2017-05-12,38.76500701904297
2017-05-15,38.89337921142578
2017-05-16,38.88481903076172
2017-05-17,39.42393493652344
2017-05-18,40.04862594604492
2017-05-19,40.296783447265625
2017-05-22,40.39947509765625
2017-05-23,40.51927947998047
2017-05-24,41.0327262878418
2017-05-25,40.84446334838867
2017-05-26,40.45937728881836
2017-05-30,40.3652458190918
2017-05-31,40.6134147644043
2017-06-01,40.553504943847656
2017-06-02,40.81878662109375
2017-06-05,40.972816467285156
2017-06-06,39.88603973388672
2017-06-07,40.26255798339844
2017-06-08,40.34812927246094
2017-06-09,40.53639602661133
2017-06-12,40.90436553955078
2017-06-13,40.96426773071289
2017-06-14,41.15252685546875
2017-06-15,41.21242904663086
2017-06-16,41.34934616088867
2017-06-19,41.220985412597656
2017-06-20,41.195316314697266
2017-06-21,41.357906341552734
2017-06-22,41.08406448364258
2017-06-23,41.47771072387695
2017-06-26,41.674537658691406
2017-06-27,41.357906341552734
2017-06-28,41.135414123535156
2017-06-29,40.835906982421875
2017-06-30,40.476497650146484
2017-07-03,40.93003845214844
2017-07-05,40.296783447265625
2017-07-06,39.08163833618164
2017-07-07,39.304134368896484
2017-07-10,39.389705657958984
2017-07-11,39.500953674316406
2017-07-12,39.86891174316406
2017-07-13,39.97160720825195
2017-07-14,40.39947509765625
2017-07-17,41.05839920043945
2017-07-18,40.96426773071289
2017-07-19,41.717315673828125
2017-07-20,41.837120056152344
2017-07-21,41.93125534057617
2017-07-24,41.87990951538086
2017-07-25,40.34812927246094
2017-07-26,40.63052749633789
2017-07-27,40.72465896606445
2017-07-28,40.92147445678711
2017-07-31,41.024173736572266
2017-08-01,41.049842834472656
2017-08-02,40.49360656738281
2017-08-03,40.58774185180664
2017-08-04,40.27967071533203
2017-08-07,40.356685638427734
2017-08-08,40.39091873168945
2017-08-09,40.25400924682617
2017-08-10,40.15898132324219
2017-08-11,39.917118072509766
2017-08-14,40.694549560546875
2017-08-15,40.75501251220703
2017-08-16,40.96233367919922
2017-08-17,41.29922103881836
2017-08-18,40.81548309326172
2017-08-21,41.23011779785156
2017-08-22,41.204200744628906
2017-08-23,41.19556427001953
2017-08-24,40.97959899902344
2017-08-25,40.953697204589844
2017-08-28,40.62544250488281
2017-08-29,40.685909271240234
2017-08-30,41.22148132324219
2017-08-31,41.10918426513672
2017-09-01,41.39424133300781
2017-09-05,41.81752014160156
2017-09-06,41.62747573852539
2017-09-07,41.81752014160156
2017-09-08,41.65338897705078
2017-09-11,42.02483367919922
2017-09-12,41.100547790527344
2017-09-13,41.24740219116211
2017-09-14,41.80887985229492
2017-09-15,41.65338897705078
2017-09-18,41.98164749145508
2017-09-19,41.264671325683594
2017-09-20,41.428802490234375
2017-09-21,40.85867691040039
2017-09-22,40.875953674316406
2017-09-25,39.49384689331055
2017-09-26,38.94963836669922
2017-09-27,38.12900924682617
2017-09-28,38.40542984008789
2017-09-29,38.13764190673828
2017-10-02,38.54364013671875
2017-10-03,38.37950897216797
2017-10-04,38.664573669433594
2017-10-05,38.94963836669922
2017-10-06,38.73367691040039
2017-10-09,38.94099807739258
2017-10-10,38.65593719482422
2017-10-11,38.97555160522461
2017-10-12,38.837337493896484
2017-10-13,38.87188720703125
2017-10-16,38.103092193603516
2017-10-17,38.353599548339844
2017-10-18,37.895774841308594
2017-10-19,37.80939483642578
2017-10-20,37.67981719970703
2017-10-23,37.54159927368164
2017-10-24,36.4704704284668
2017-10-25,36.548213958740234
2017-10-26,36.00400161743164
2017-10-27,36.34954071044922
2017-10-30,35.796688079833984
2017-10-31,35.917625427246094
2017-11-01,36.453189849853516
2017-11-02,36.047203063964844
2017-11-03,36.16813659667969
2017-11-06,36.29770278930664
2017-11-07,36.44456100463867
2017-11-08,36.79872512817383
2017-11-09,36.60004806518555
2017-11-10,36.486572265625
2017-11-13,37.28962326049805
2017-11-14,37.263431549072266
2017-11-15,36.512760162353516
2017-11-16,36.96665573120117
2017-11-17,36.56513595581055
2017-11-20,36.58259582519531
2017-11-21,37.10631561279297
2017-11-22,37.11504364013672
2017-11-24,37.1761474609375
2017-11-27,36.774620056152344
2017-11-28,36.765892028808594
2017-11-29,37.071407318115234
2017-11-30,36.99284362792969
2017-12-01,37.359458923339844
2017-12-04,37.31581115722656
2017-12-05,37.42055892944336
2017-12-06,37.47292709350586
2017-12-07,37.525299072265625
2017-12-08,37.778438568115234
2017-12-11,37.90937423706055
2017-12-12,38.01411437988281
2017-12-13,37.586402893066406
2017-12-14,37.499114990234375
2017-12-15,37.16741943359375
2017-12-18,37.09758758544922
2017-12-19,36.128684997558594
2017-12-20,35.50894546508789
2017-12-21,35.11614227294922
2017-12-22,35.185970306396484
2017-12-26,35.61368179321289
2017-12-27,35.570037841796875
2017-12-28,35.68351364135742
2017-12-29,35.814449310302734
2018-01-02,35.77953338623047
2018-01-03,35.185970306396484
2018-01-04,34.557491302490234
2018-01-05,34.601131439208984
2018-01-08,35.23834228515625
2018-01-09,34.6622314453125
2018-01-10,34.269439697265625
2018-01-11,34.225791931152344
2018-01-12,33.99885177612305
2018-01-16,34.04249572753906
2018-01-17,34.01631164550781
2018-01-18,33.66715621948242
2018-01-19,33.632240295410156
2018-01-22,33.972660064697266
2018-01-23,34.7146110534668
2018-01-24,34.65351104736328
2018-01-25,34.40037155151367
2018-01-26,34.31308364868164
2018-01-29,33.7282600402832
2018-01-30,33.33544921875
2018-01-31,33.571136474609375
2018-02-01,32.97953796386719
2018-02-02,32.88240432739258
2018-02-05,31.95526695251465
2018-02-06,31.73451805114746
2018-02-07,31.504947662353516
2018-02-08,30.72791862487793
2018-02-09,31.328351974487305
2018-02-12,31.690380096435547
2018-02-13,31.75218963623047
2018-02-14,31.47846221923828
2018-02-15,32.11420822143555
2018-02-16,32.467403411865234
2018-02-20,31.40781593322754
2018-02-21,31.681547164916992
2018-02-22,32.40559387207031
2018-02-23,33.25326156616211
2018-02-26,33.023681640625
2018-02-27,32.00824737548828
2018-02-28,32.211334228515625
2018-03-01,32.493892669677734
2018-03-02,32.30846405029297
2018-03-05,32.90006637573242
2018-03-06,33.0501708984375
2018-03-07,33.09431838989258
2018-03-08,33.412200927734375
2018-03-09,33.50933074951172
2018-03-12,33.491668701171875
2018-03-13,33.668270111083984
2018-03-14,33.72124099731445
2018-03-15,33.385711669921875
2018-03-16,33.32390594482422
2018-03-19,32.997188568115234
2018-03-20,32.59102249145508
2018-03-21,32.36144256591797
2018-03-22,32.09654998779297
2018-03-23,31.796327590942383
2018-03-26,32.04356384277344
2018-03-27,32.661659240722656
2018-03-28,34.05677795410156
2018-03-29,34.100929260253906
2018-04-02,33.58879470825195
2018-04-03,33.90666961669922
2018-04-04,34.21571731567383
2018-04-05,34.268699645996094
2018-04-06,34.18923568725586
2018-04-09,34.27751922607422
2018-04-10,34.71018600463867
2018-04-11,34.63072204589844
2018-04-12,33.81836700439453
2018-04-13,34.03912353515625
2018-04-16,34.374656677246094
2018-04-17,34.701351165771484
2018-04-18,34.904441833496094
2018-04-19,34.180397033691406
2018-04-20,33.6064567565918
2018-04-23,33.526981353759766
2018-04-24,33.421024322509766
2018-04-25,33.341556549072266
2018-04-26,33.968482971191406
2018-04-27,34.77199935913086
2018-04-30,34.533592224121094
2018-05-01,34.78082275390625
2018-05-02,34.860286712646484
2018-05-03,34.76316452026367
2018-05-04,34.86912536621094
2018-05-07,35.231143951416016
2018-05-08,35.17816925048828
2018-05-09,35.12519073486328
2018-05-10,35.60199737548828
2018-05-11,35.57521057128906
2018-05-14,35.155418395996094
2018-05-15,34.101470947265625
2018-05-16,33.58342361450195
2018-05-17,33.235084533691406
2018-05-18,32.913543701171875
2018-05-21,33.235084533691406
2018-05-22,33.47624206542969
2018-05-23,34.208648681640625
2018-05-24,34.22651672363281
2018-05-25,34.208648681640625
2018-05-29,34.74456024169922
2018-05-30,35.968204498291016
2018-05-31,35.81636428833008
2018-06-01,36.6202278137207
2018-06-04,37.191856384277344
2018-06-05,36.98642349243164
2018-06-06,37.06681442260742
2018-06-07,37.12041091918945
2018-06-08,37.84387969970703
2018-06-11,37.71883773803711
2018-06-12,37.95998764038086
2018-06-13,38.25474166870117
2018-06-14,38.19221878051758
2018-06-15,38.15648651123047
2018-06-18,38.478031158447266
2018-06-19,38.022518157958984
2018-06-20,38.19221878051758
2018-06-21,38.25474166870117
2018-06-22,38.478031158447266
2018-06-25,38.674522399902344
2018-06-26,38.397647857666016
2018-06-27,38.022518157958984
2018-06-28,38.35298156738281
2018-06-29,38.29939651489258
2018-07-02,38.06717300415039
2018-07-03,38.20115280151367
2018-07-05,38.51375198364258
2018-07-06,38.55841827392578
2018-07-09,38.183284759521484
2018-07-10,38.32618713378906
2018-07-11,38.36191177368164
2018-07-12,38.21901321411133
2018-07-13,38.13862609863281
2018-07-16,38.24580383300781
2018-07-17,37.99571228027344
2018-07-18,37.790283203125
2018-07-19,38.12968826293945
2018-07-20,37.55805969238281
2018-07-23,37.30796813964844
2018-07-24,36.26295852661133
2018-07-25,36.468387603759766
2018-07-26,36.6202278137207
2018-07-27,36.334407806396484
2018-07-30,36.3612060546875
2018-07-31,36.8435173034668
2018-08-01,36.56663513183594
2018-08-02,36.504112243652344
2018-08-03,36.87030792236328
2018-08-06,36.92390823364258
2018-08-07,37.102542877197266
2018-08-08,37.03108596801758
2018-08-09,36.92390823364258
2018-08-10,36.6077766418457
2018-08-13,36.824554443359375
2018-08-14,37.24906921386719
2018-08-15,37.456809997558594
2018-08-16,37.420677185058594
2018-08-17,37.998748779296875
2018-08-20,38.00777816772461
2018-08-21,37.58325958251953
2018-08-22,37.5651969909668
2018-08-23,37.49293518066406
2018-08-24,37.872291564941406
2018-08-27,37.908424377441406
2018-08-28,38.37810134887695
2018-08-29,38.12519454956055
2018-08-30,37.80002975463867
2018-08-31,37.872291564941406
2018-09-04,37.52003860473633
2018-09-05,37.83616638183594
2018-09-06,38.10713195800781
2018-09-07,37.62842559814453
2018-09-10,38.034873962402344
2018-09-11,38.56777572631836
2018-09-12,38.42325973510742
2018-09-13,38.351009368896484
2018-09-14,38.170352935791016
2018-09-17,38.32390594482422
2018-09-18,38.260684967041016
2018-09-19,37.38454818725586
2018-09-20,37.88132095336914
2018-09-21,37.962615966796875
2018-09-24,37.02326202392578
2018-09-25,37.113582611083984
2018-09-26,36.90583419799805
2018-09-27,36.815521240234375
2018-09-28,37.17681121826172
2018-10-01,37.02326202392578
2018-10-02,37.258094787597656
2018-10-03,36.98712921142578
2018-10-04,36.72519302368164
2018-10-05,37.032291412353516
2018-10-08,37.402610778808594
2018-10-09,37.37552261352539
2018-10-10,36.89680862426758
2018-10-11,35.695518493652344
2018-10-12,35.4064826965332
2018-10-15,35.605194091796875
2018-10-16,36.25551223754883
2018-10-17,36.3639030456543
2018-10-18,36.30971145629883
2018-10-19,36.400028228759766
2018-10-22,35.849056243896484
2018-10-23,35.343265533447266
2018-10-24,36.5806770324707
2018-10-25,36.878746032714844
2018-10-26,36.32777404785156
2018-10-29,36.59873962402344
2018-10-30,36.400028228759766
2018-10-31,35.68648147583008
2018-11-01,35.58713150024414
2018-11-02,35.695518493652344
2018-11-05,36.01163864135742
2018-11-06,36.4903564453125
2018-11-07,37.28519058227539
2018-11-08,37.495277404785156
2018-11-09,37.76016616821289
2018-11-12,37.74189758300781
2018-11-13,37.76016616821289
2018-11-14,37.80583190917969
2018-11-15,37.41307067871094
2018-11-16,38.088993072509766
2018-11-19,38.518287658691406
2018-11-20,39.22161102294922
2018-11-21,39.54130935668945
2018-11-23,39.495635986328125
2018-11-26,39.66918182373047
2018-11-27,39.44996643066406
2018-11-28,39.60524368286133
2018-11-29,39.69657897949219
2018-11-30,40.03453826904297
2018-12-03,39.532169342041016
2018-12-04,38.92932891845703
2018-12-06,39.970603942871094
2018-12-07,39.943199157714844
2018-12-10,39.85186767578125
2018-12-11,40.007137298583984
2018-12-12,39.532169342041016
2018-12-13,39.58697509765625
2018-12-14,39.63264083862305
2018-12-17,38.363014221191406
2018-12-18,38.810585021972656
2018-12-19,38.97499084472656
2018-12-20,38.68270492553711
2018-12-21,38.518287658691406
2018-12-24,36.3078498840332
2018-12-26,37.349124908447266
2018-12-27,37.58662033081055
2018-12-28,37.55921173095703
2018-12-31,37.80583190917969
2019-01-02,36.709747314453125
2019-01-03,37.39480209350586
2019-01-04,37.6231575012207
2019-01-07,37.68709182739258
2019-01-08,38.52742004394531
2019-01-09,38.70097351074219
2019-01-10,39.112003326416016
2019-01-11,39.05720138549805
2019-01-14,38.536556243896484
2019-01-15,38.97499084472656
2019-01-16,39.230743408203125
2019-01-17,39.322086334228516
2019-01-18,39.65091323852539
2019-01-22,39.952335357666016
2019-01-23,40.28116226196289
2019-01-24,40.23548889160156
2019-01-25,40.80180358886719
2019-01-28,41.32244873046875
2019-01-29,41.82482147216797
2019-01-30,42.190185546875
2019-01-31,42.457733154296875
2019-02-01,41.710426330566406
2019-02-04,42.06101608276367
2019-02-05,42.22708511352539
2019-02-06,42.07024002075195
2019-02-07,42.46696090698242
2019-02-08,42.3008918762207
2019-02-11,42.41160583496094
2019-02-12,41.9041748046875
2019-02-13,41.8857307434082
2019-02-14,41.793460845947266
2019-02-15,42.097923278808594
2019-02-19,42.051788330078125
2019-02-20,41.138423919677734
2019-02-21,41.489009857177734
2019-02-22,41.65508270263672
2019-02-25,41.36906814575195
2019-02-26,41.28603744506836
2019-02-27,40.963130950927734
2019-02-28,41.572044372558594
2019-03-01,41.54436111450195
2019-03-04,42.014888763427734
2019-03-05,42.33779525756836
2019-03-06,42.46696090698242
2019-03-07,42.08869171142578
2019-03-08,42.07024002075195
2019-03-11,42.41160583496094
2019-03-12,42.808319091796875
2019-03-13,43.05741500854492
2019-03-14,43.39877700805664
2019-03-15,42.9559326171875
2019-03-18,42.61457824707031
2019-03-19,42.51308822631836
2019-03-20,42.43928146362305
2019-03-21,43.24193572998047
2019-03-22,43.1773567199707
2019-03-25,43.094322204589844
2019-03-26,43.74935531616211
2019-03-27,43.76780700683594
2019-03-28,44.39517593383789
2019-03-29,43.896976470947266
2019-04-01,44.007686614990234
2019-04-02,44.46897888183594
2019-04-03,43.98000717163086
2019-04-04,44.1183967590332
2019-04-05,44.51511764526367
2019-04-08,44.15530014038086
2019-04-09,43.76780700683594
2019-04-10,44.36750411987305
2019-04-11,44.358272552490234
2019-04-12,44.67195129394531
2019-04-15,44.358272552490234
2019-04-16,43.29728698730469
2019-04-17,42.89134979248047
2019-04-18,43.66633224487305
2019-04-22,42.9098014831543
2019-04-23,43.12199783325195
2019-04-24,43.81394958496094
2019-04-25,43.777034759521484
2019-04-26,44.007686614990234
2019-04-29,43.14967346191406
2019-04-30,43.546390533447266
2019-05-01,43.46335983276367
2019-05-02,43.50025939941406
2019-05-03,43.64787292480469
2019-05-06,43.46335983276367
2019-05-07,42.66992950439453
2019-05-08,42.35624694824219
2019-05-09,42.36547088623047
2019-05-10,42.794254302978516
2019-05-13,42.9620361328125
2019-05-14,43.05525207519531
2019-05-15,43.5306396484375
2019-05-16,43.69842529296875
2019-05-17,43.5026741027832
2019-05-20,42.83154296875
2019-05-21,43.306922912597656
2019-05-22,43.232357025146484
2019-05-23,43.47471618652344
2019-05-24,44.127197265625
2019-05-28,44.0712776184082
2019-05-29,42.73832321166992
2019-05-30,42.74764633178711
2019-05-31,43.176429748535156
2019-06-03,43.26032257080078
2019-06-04,43.0366096496582
2019-06-05,43.78231430053711
2019-06-06,43.828922271728516
2019-06-07,43.96874237060547
2019-06-10,43.633174896240234
2019-06-11,43.763671875
2019-06-12,43.95942306518555
2019-06-13,44.229736328125
2019-06-14,43.810279846191406
2019-06-17,44.192447662353516
2019-06-18,43.84756851196289
2019-06-19,44.11788558959961
2019-06-20,44.127197265625
2019-06-21,43.6052131652832
2019-06-24,43.35353088378906
2019-06-25,43.00864028930664
2019-06-26,42.141754150390625
2019-06-27,42.859500885009766
2019-06-28,43.027278900146484
2019-07-01,43.46539306640625
2019-07-02,44.00603103637695
2019-07-03,44.51869583129883
2019-07-05,44.36956024169922
2019-07-08,45.04069900512695
2019-07-09,45.51608657836914
2019-07-10,45.77708435058594
2019-07-11,45.44151306152344
2019-07-12,45.51608657836914
2019-07-15,45.50676727294922
2019-07-16,45.37626647949219
2019-07-17,45.3389778137207
2019-07-18,45.16187286376953
2019-07-19,44.5373420715332
2019-07-22,44.816986083984375
2019-07-23,44.22041320800781
2019-07-24,43.77299118041992
2019-07-25,43.20439147949219
2019-07-26,43.567928314208984
2019-07-29,43.62384796142578
2019-07-30,43.484031677246094
2019-07-31,43.57724380493164
2019-08-01,43.250999450683594
2019-08-02,43.633174896240234
2019-08-05,42.878143310546875
2019-08-06,43.04593276977539
2019-08-07,43.39081573486328
2019-08-08,44.211097717285156
2019-08-09,44.01338577270508
2019-08-12,44.032222747802734
2019-08-13,44.06987762451172
2019-08-14,43.76860809326172
2019-08-15,44.14519500732422
2019-08-16,44.42763137817383
2019-08-19,44.4841194152832
2019-08-20,44.003971099853516
2019-08-21,44.14519500732422
2019-08-22,44.63475036621094
2019-08-23,43.834510803222656
2019-08-26,43.900413513183594
2019-08-27,43.34495162963867
2019-08-28,43.45792770385742
2019-08-29,43.80626678466797
2019-08-30,43.759193420410156
2019-09-03,43.96631622314453
2019-09-04,44.606510162353516
2019-09-05,44.41822052001953
2019-09-06,44.58768081665039
2019-09-09,44.69124221801758
2019-09-10,43.74978256225586
2019-09-11,44.18285369873047
2019-09-12,44.52177810668945
2019-09-13,44.531192779541016
2019-09-16,44.16402053833008
2019-09-17,44.493534088134766
2019-09-18,44.15460968017578
2019-09-19,44.19226837158203
2019-09-20,44.38056182861328
2019-09-23,44.44646072387695
2019-09-24,44.757144927978516
2019-09-25,45.0113410949707
2019-09-26,45.21846008300781
2019-09-27,45.12431335449219
2019-09-30,45.265533447265625
2019-10-01,44.80421447753906
2019-10-02,44.983097076416016
2019-10-03,45.63270568847656
2019-10-04,45.99045944213867
2019-10-07,45.91514205932617
2019-10-08,45.80216979980469
2019-10-09,45.81158447265625
2019-10-10,45.943389892578125
2019-10-11,45.76450729370117
2019-10-14,45.43499755859375
2019-10-15,45.03016662597656
2019-10-16,45.416168212890625
2019-10-17,45.905723571777344
2019-10-18,46.29172897338867
2019-10-21,46.668312072753906
2019-10-22,47.76041030883789
2019-10-23,47.308509826660156
2019-10-24,47.261436462402344
2019-10-25,47.34616470336914
2019-10-28,46.96017074584961
2019-10-29,46.60240936279297
2019-10-30,46.88484573364258
2019-10-31,47.05431365966797
2019-11-01,47.07314682006836
2019-11-04,46.781288146972656
2019-11-05,45.80216979980469
2019-11-06,45.4632453918457
2019-11-07,44.89281463623047
2019-11-08,44.78823471069336
2019-11-11,44.645626068115234
2019-11-12,44.04667282104492
2019-11-13,44.24632263183594
2019-11-14,44.50301742553711
2019-11-15,44.750205993652344
2019-11-18,45.1209831237793
2019-11-19,45.10196304321289
2019-11-20,44.6361198425293
2019-11-21,43.894561767578125
2019-11-22,44.379425048828125
2019-11-25,44.721683502197266
2019-11-26,45.66288757324219
2019-11-27,45.63437271118164
2019-11-29,45.67239761352539
2019-12-02,45.168514251708984
2019-12-03,45.66288757324219
2019-12-04,45.68190383911133
2019-12-05,45.78648376464844
2019-12-06,45.834022521972656
2019-12-09,45.92909622192383
2019-12-10,45.6153564453125
2019-12-11,44.42695999145508
2019-12-12,43.52377700805664
2019-12-13,43.7424430847168
2019-12-16,43.96111297607422
2019-12-17,43.26708221435547
2019-12-18,43.83751678466797
2019-12-19,43.80899429321289
2019-12-20,43.92308044433594
2019-12-23,43.6758918762207
2019-12-24,43.78047561645508
2019-12-26,44.018150329589844
2019-12-27,44.303367614746094
2019-12-30,44.341392517089844
2019-12-31,44.71217346191406
