Date,ALB
2007-12-31,33.66439437866211
2008-01-02,33.28082275390625
2008-01-03,32.89727020263672
2008-01-04,32.35045623779297
2008-01-07,32.44023132324219
2008-01-08,31.509862899780273
2008-01-09,30.52237892150879
2008-01-10,31.044692993164062
2008-01-11,30.481576919555664
2008-01-14,30.79986000061035
2008-01-15,30.212251663208008
2008-01-16,29.347187042236328
2008-01-17,28.155670166015625
2008-01-18,27.845556259155273
2008-01-22,27.92716407775879
2008-01-23,27.600719451904297
2008-01-24,27.870031356811523
2008-01-25,30.440773010253906
2008-01-28,31.901594161987305
2008-01-29,28.857521057128906
2008-01-30,29.053380966186523
2008-01-31,29.5838565826416
2008-02-01,30.506065368652344
2008-02-04,31.256874084472656
2008-02-05,30.277538299560547
2008-02-06,30.612154006958008
2008-02-07,31.044692993164062
2008-02-08,31.061025619506836
2008-02-11,31.15077781677246
2008-02-12,32.432071685791016
2008-02-13,32.546321868896484
2008-02-14,32.13011169433594
2008-02-15,32.28518295288086
2008-02-19,32.58712387084961
2008-02-20,32.76668167114258
2008-02-21,32.03218078613281
2008-02-22,31.17526626586914
2008-02-25,32.81564712524414
2008-02-26,32.84828567504883
2008-02-27,32.489200592041016
2008-02-28,32.072994232177734
2008-02-29,30.96308135986328
2008-03-03,30.603986740112305
2008-03-04,30.228586196899414
2008-03-05,30.45709991455078
2008-03-06,29.820526123046875
2008-03-07,29.0207462310791
2008-03-10,28.784074783325195
2008-03-11,30.2530574798584
2008-03-12,30.375873565673828
2008-03-13,30.277626037597656
2008-03-14,28.93487548828125
2008-03-17,28.525489807128906
2008-03-18,29.794565200805664
2008-03-19,28.361738204956055
2008-03-20,28.099740982055664
2008-03-24,28.640121459960938
2008-03-25,29.29511833190918
2008-03-26,29.319690704345703
2008-03-27,29.49980354309082
2008-03-28,28.943056106567383
2008-03-31,29.9009952545166
2008-04-01,30.28581428527832
2008-04-02,30.294002532958984
2008-04-03,29.729063034057617
2008-04-04,29.30331802368164
2008-04-07,29.229623794555664
2008-04-08,29.6799373626709
2008-04-09,29.139558792114258
2008-04-10,28.861175537109375
2008-04-11,28.599178314208984
2008-04-14,28.7711181640625
2008-04-15,29.18868637084961
2008-04-16,30.318574905395508
2008-04-17,30.212133407592773
2008-04-18,30.908071517944336
2008-04-21,31.9315242767334
2008-04-22,30.8098201751709
2008-04-23,31.415699005126953
2008-04-24,31.284696578979492
2008-04-25,31.407512664794922
2008-04-28,31.202823638916016
2008-04-29,30.621505737304688
2008-04-30,30.62970542907715
2008-05-01,30.916263580322266
2008-05-02,30.908071517944336
2008-05-05,31.382946014404297
2008-05-06,31.317447662353516
2008-05-07,31.505760192871094
2008-05-08,32.47188949584961
2008-05-09,32.611087799072266
2008-05-12,34.06028747558594
2008-05-13,34.870872497558594
2008-05-14,35.94343948364258
2008-05-15,36.27092742919922
2008-05-16,35.632301330566406
2008-05-19,35.1983642578125
2008-05-20,34.99366760253906
2008-05-21,34.98548889160156
2008-05-22,35.77149200439453
2008-05-23,35.132850646972656
2008-05-27,35.20655822753906
2008-05-28,35.86155700683594
2008-05-29,36.352813720703125
2008-05-30,36.41012954711914
2008-06-02,35.6650505065918
2008-06-03,35.67323303222656
2008-06-04,36.50018310546875
2008-06-05,37.490875244140625
2008-06-06,36.303688049316406
2008-06-09,35.86155700683594
2008-06-10,35.18199920654297
2008-06-11,34.96031188964844
2008-06-12,35.617149353027344
2008-06-13,36.5120964050293
2008-06-16,36.454620361328125
2008-06-17,36.528507232666016
2008-06-18,36.224700927734375
2008-06-19,36.43818664550781
2008-06-20,35.60893249511719
2008-06-23,36.40534591674805
2008-06-24,35.16556930541992
2008-06-25,36.21650695800781
2008-06-26,34.254207611083984
2008-06-27,33.64663314819336
2008-06-30,32.768104553222656
2008-07-01,32.800941467285156
2008-07-02,31.881372451782227
2008-07-03,31.791048049926758
2008-07-07,31.429790496826172
2008-07-08,31.7828369140625
2008-07-09,31.733583450317383
2008-07-10,31.99631690979004
2008-07-11,31.873153686523438
2008-07-14,31.7828369140625
2008-07-15,32.35757064819336
2008-07-16,31.979902267456055
2008-07-17,32.185142517089844
2008-07-18,31.856735229492188
2008-07-21,31.51188850402832
2008-07-22,30.255678176879883
2008-07-23,30.1735782623291
2008-07-24,29.598844528198242
2008-07-25,30.0504150390625
2008-07-28,30.042207717895508
2008-07-29,30.86326026916504
2008-07-30,31.873153686523438
2008-07-31,31.963476181030273
2008-08-01,31.536529541015625
2008-08-04,30.953580856323242
2008-08-05,32.587459564208984
2008-08-06,32.74345779418945
2008-08-07,32.20158386230469
2008-08-08,33.05546188354492
2008-08-11,33.539894104003906
2008-08-12,33.318199157714844
2008-08-13,33.49884033203125
2008-08-14,33.60558319091797
2008-08-15,33.301788330078125
2008-08-18,33.178627014160156
2008-08-19,31.914209365844727
2008-08-20,32.053775787353516
2008-08-21,32.03736877441406
2008-08-22,32.84199905395508
2008-08-25,32.11127471923828
2008-08-26,32.38220977783203
2008-08-27,32.628517150878906
2008-08-28,33.49884033203125
2008-08-29,32.628517150878906
2008-09-02,32.10305404663086
2008-09-03,31.585790634155273
2008-09-04,30.534841537475586
2008-09-05,30.38704490661621
2008-09-08,30.658004760742188
2008-09-09,27.973167419433594
2008-09-10,28.227697372436523
2008-09-11,29.199926376342773
2008-09-12,29.68604278564453
2008-09-15,28.417207717895508
2008-09-16,29.58717155456543
2008-09-17,27.469684600830078
2008-09-18,27.107160568237305
2008-09-19,29.784910202026367
2008-09-22,28.392473220825195
2008-09-23,28.087631225585938
2008-09-24,28.68084716796875
2008-09-25,29.002185821533203
2008-09-26,28.260650634765625
2008-09-29,24.651859283447266
2008-09-30,25.409870147705078
2008-10-01,24.7177677154541
2008-10-02,23.284137725830078
2008-10-03,23.160551071166992
2008-10-06,21.776355743408203
2008-10-07,19.733016967773438
2008-10-08,20.6310977935791
2008-10-09,19.279863357543945
2008-10-10,18.54656410217285
2008-10-13,21.273752212524414
2008-10-14,20.993629455566406
2008-10-15,18.760791778564453
2008-10-16,19.947242736816406
2008-10-17,19.337533950805664
2008-10-20,20.36743927001953
2008-10-21,19.15627098083496
2008-10-22,18.043973922729492
2008-10-23,17.837987899780273
2008-10-24,17.236530303955078
2008-10-27,15.704024314880371
2008-10-28,17.047021865844727
2008-10-29,18.043973922729492
2008-10-30,19.428163528442383
2008-10-31,20.06258773803711
2008-11-03,20.5322265625
2008-11-04,21.529172897338867
2008-11-05,20.120262145996094
2008-11-06,19.708303451538086
2008-11-07,20.38391876220703
2008-11-10,20.169706344604492
2008-11-11,19.461122512817383
2008-11-12,17.862712860107422
2008-11-13,20.07082748413086
2008-11-14,18.6207218170166
2008-11-17,18.5548095703125
2008-11-18,17.33539390563965
2008-11-19,15.555713653564453
2008-11-20,13.56181526184082
2008-11-21,15.069598197937012
2008-11-24,15.835843086242676
2008-11-25,15.143752098083496
2008-11-26,16.264291763305664
2008-11-28,16.750410079956055
2008-12-01,14.377504348754883
2008-12-02,15.25086498260498
2008-12-03,15.802895545959473
2008-12-04,14.731790542602539
2008-12-05,15.168473243713379
2008-12-08,16.643301010131836
2008-12-09,16.478515625
2008-12-10,17.27772331237793
2008-12-11,16.101015090942383
2008-12-12,16.805377960205078
2008-12-15,15.694963455200195
2008-12-16,16.31646728515625
2008-12-17,16.02643394470215
2008-12-18,15.206056594848633
2008-12-19,15.976713180541992
2008-12-22,16.266742706298828
2008-12-23,16.117582321166992
2008-12-24,15.951849937438965
2008-12-26,16.324752807617188
2008-12-29,16.05129051208496
2008-12-30,17.12856674194336
2008-12-31,18.479291915893555
2009-01-02,19.142223358154297
2009-01-05,19.05936050415039
2009-01-06,19.99574851989746
2009-01-07,19.382530212402344
2009-01-08,19.879735946655273
2009-01-09,19.175371170043945
2009-01-12,18.48758316040039
2009-01-13,18.56215476989746
2009-01-14,18.222400665283203
2009-01-15,18.84391212463379
2009-01-16,18.75275230407715
2009-01-20,17.51803207397461
2009-01-21,18.520715713500977
2009-01-22,18.280410766601562
2009-01-23,18.570446014404297
2009-01-26,18.645023345947266
2009-01-27,17.617475509643555
2009-01-28,19.05936050415039
2009-01-29,18.645023345947266
2009-01-30,18.4378604888916
2009-02-02,18.21411895751953
2009-02-03,18.868762969970703
2009-02-04,19.2168025970459
2009-02-05,19.805158615112305
2009-02-06,20.26921272277832
2009-02-09,20.19463348388672
2009-02-10,19.16707992553711
2009-02-11,19.283090591430664
2009-02-12,19.506839752197266
2009-02-13,19.017929077148438
2009-02-17,17.841217041015625
2009-02-18,17.402023315429688
2009-02-19,17.14513397216797
2009-02-20,16.739084243774414
2009-02-23,15.554089546203613
2009-02-24,16.507055282592773
2009-02-25,15.84412670135498
2009-02-26,15.529229164123535
2009-02-27,16.03472328186035
2009-03-02,15.172904014587402
2009-03-03,14.460248947143555
2009-03-04,14.253085136413574
2009-03-05,13.101237297058105
2009-03-06,13.399559020996094
2009-03-09,13.333263397216797
2009-03-10,14.203364372253418
2009-03-11,14.700044631958008
2009-03-12,15.02559757232666
2009-03-13,15.20090103149414
2009-03-16,15.234281539916992
2009-03-17,16.244342803955078
2009-03-18,17.020666122436523
2009-03-19,17.04570198059082
2009-03-20,16.76189613342285
2009-03-23,18.34792709350586
2009-03-24,18.331228256225586
2009-03-25,18.31453514099121
2009-03-26,18.907211303710938
2009-03-27,18.214366912841797
2009-03-30,17.81368064880371
2009-03-31,18.172630310058594
2009-04-01,18.74026107788086
2009-04-02,19.992389678955078
2009-04-03,20.76036834716797
2009-04-06,20.651851654052734
2009-04-07,19.83378791809082
2009-04-08,20.568376541137695
2009-04-09,21.545040130615234
2009-04-13,21.65355682373047
2009-04-14,21.945716857910156
2009-04-15,21.177745819091797
2009-04-16,22.162755966186523
2009-04-17,22.137710571289062
2009-04-20,20.643495559692383
2009-04-21,21.244529724121094
2009-04-22,21.2862606048584
2009-04-23,21.494953155517578
2009-04-24,22.705350875854492
2009-04-27,22.538389205932617
2009-04-28,21.545040130615234
2009-04-29,21.987462997436523
2009-04-30,22.388139724731445
2009-05-01,22.471614837646484
2009-05-04,23.732091903686523
2009-05-05,23.348106384277344
2009-05-06,23.08933448791504
2009-05-07,22.171104431152344
2009-05-08,23.20619773864746
2009-05-11,22.363094329833984
2009-05-12,22.338054656982422
2009-05-13,21.161048889160156
2009-05-14,21.862241744995117
2009-05-15,22.254581451416016
2009-05-18,22.805526733398438
2009-05-19,22.58847999572754
2009-05-20,23.84061622619629
2009-05-21,22.99751091003418
2009-05-22,22.788820266723633
2009-05-26,23.40654182434082
2009-05-27,22.880647659301758
2009-05-28,23.26463508605957
2009-05-29,23.556798934936523
2009-06-01,24.800588607788086
2009-06-02,24.60858917236328
2009-06-03,23.93243980407715
2009-06-04,24.257991790771484
2009-06-05,24.20790672302246
2009-06-08,23.29802894592285
2009-06-09,23.40654182434082
2009-06-10,23.20619773864746
2009-06-11,24.040536880493164
2009-06-12,23.562570571899414
2009-06-15,22.573110580444336
2009-06-16,21.9190673828125
2009-06-17,21.910673141479492
2009-06-18,22.10353660583496
2009-06-19,22.03645896911621
2009-06-22,20.669658660888672
2009-06-23,20.669658660888672
2009-06-24,20.62773323059082
2009-06-25,21.088918685913086
2009-06-26,21.231470108032227
2009-06-29,21.66750717163086
2009-06-30,21.441102981567383
2009-07-01,21.566877365112305
2009-07-02,20.812210083007812
2009-07-06,20.862516403198242
2009-07-07,19.956918716430664
2009-07-08,19.755666732788086
2009-07-09,19.85629653930664
2009-07-10,19.914989471435547
2009-07-13,20.46841812133789
2009-07-14,20.602577209472656
2009-07-15,21.72620391845703
2009-07-16,22.288007736206055
2009-07-17,21.977760314941406
2009-07-20,22.12030792236328
2009-07-21,22.09515380859375
2009-07-22,22.79951286315918
2009-07-23,25.281553268432617
2009-07-24,25.491180419921875
2009-07-27,25.08869171142578
2009-07-28,25.130619049072266
2009-07-29,24.845516204833984
2009-07-30,25.14738655090332
2009-07-31,24.912607192993164
2009-08-03,25.70081901550293
2009-08-04,25.94399070739746
2009-08-05,25.860136032104492
2009-08-06,26.748971939086914
2009-08-07,26.874744415283203
2009-08-10,26.58126449584961
2009-08-11,26.539337158203125
2009-08-12,27.201778411865234
2009-08-13,27.042457580566406
2009-08-14,26.489028930664062
2009-08-17,25.541492462158203
2009-08-18,25.902055740356445
2009-08-19,25.96076011657715
2009-08-20,26.120075225830078
2009-08-21,26.958602905273438
2009-08-24,27.184999465942383
2009-08-25,27.134693145751953
2009-08-26,27.109535217285156
2009-08-27,27.008914947509766
2009-08-28,27.184999465942383
2009-08-31,27.025684356689453
2009-09-01,25.927215576171875
2009-09-02,26.32132339477539
2009-09-03,26.690277099609375
2009-09-04,27.101152420043945
2009-09-08,27.96483039855957
2009-09-09,28.702733993530273
2009-09-10,28.66919708251953
2009-09-11,28.429338455200195
2009-09-14,28.732315063476562
2009-09-15,29.22044563293457
2009-09-16,29.565502166748047
2009-09-17,29.13628387451172
2009-09-18,29.052127838134766
2009-09-21,29.262527465820312
2009-09-22,29.45610809326172
2009-09-23,28.85856056213379
2009-09-24,28.37885284423828
2009-09-25,27.831798553466797
2009-09-28,28.63973617553711
2009-09-29,28.622907638549805
2009-09-30,29.11944007873535
2009-10-01,27.402591705322266
2009-10-02,26.729299545288086
2009-10-05,27.781301498413086
2009-10-06,28.235769271850586
2009-10-07,28.07586097717285
2009-10-08,28.193693161010742
2009-10-09,28.10953140258789
2009-10-12,28.45458984375
2009-10-13,28.479839324951172
2009-10-14,29.45610809326172
2009-10-15,29.616003036499023
2009-10-16,28.96796417236328
2009-10-19,29.29618263244629
2009-10-20,28.92588996887207
2009-10-21,28.53875160217285
2009-10-22,29.0437068939209
2009-10-23,29.085792541503906
2009-10-26,28.54715347290039
2009-10-27,27.78972625732422
2009-10-28,26.813459396362305
2009-10-29,27.924381256103516
2009-10-30,26.57781982421875
2009-11-02,26.67880630493164
2009-11-03,27.049110412597656
2009-11-04,26.6367244720459
2009-11-05,27.756059646606445
2009-11-06,28.050630569458008
2009-11-09,29.052127838134766
2009-11-10,29.33827018737793
2009-11-11,29.506580352783203
2009-11-12,28.841724395751953
2009-11-13,29.010047912597656
2009-11-16,29.548673629760742
2009-11-17,29.186786651611328
2009-11-18,29.018463134765625
2009-11-19,28.68182373046875
2009-11-20,28.698650360107422
2009-11-23,28.951135635375977
2009-11-24,28.72390365600586
2009-11-25,29.12786865234375
2009-11-27,28.479839324951172
2009-11-30,28.404083251953125
2009-12-01,28.791231155395508
2009-12-02,29.498165130615234
2009-12-03,28.412506103515625
2009-12-04,28.69023323059082
2009-12-07,29.632827758789062
2009-12-08,29.548673629760742
2009-12-09,29.716995239257812
2009-12-10,30.27243995666504
2009-12-11,30.4877986907959
2009-12-14,30.94386100769043
2009-12-15,30.77494239807129
2009-12-16,30.682050704956055
2009-12-17,29.981082916259766
2009-12-18,30.099321365356445
2009-12-21,30.20066261291504
2009-12-22,30.32735252380371
2009-12-23,31.036754608154297
2009-12-24,31.45057487487793
2009-12-28,31.475910186767578
2009-12-29,31.399906158447266
2009-12-30,31.273237228393555
2009-12-31,30.715839385986328
2010-01-04,32.16843795776367
2010-01-05,32.10931396484375
2010-01-06,32.16843795776367
2010-01-07,31.940425872802734
2010-01-08,32.42179489135742
2010-01-11,32.27822494506836
2010-01-12,31.830617904663086
2010-01-13,32.151546478271484
2010-01-14,32.02485275268555
2010-01-15,31.99952507019043
2010-01-19,32.4048957824707
2010-01-20,32.05864715576172
2010-01-21,31.3492374420166
2010-01-22,30.479358673095703
2010-01-25,30.82563018798828
2010-01-26,31.56037139892578
2010-01-27,31.129655838012695
2010-01-28,30.77494239807129
2010-01-29,30.166894912719727
2010-02-01,30.6144962310791
2010-02-02,31.16343116760254
2010-02-03,30.935407638549805
2010-02-04,29.888179779052734
2010-02-05,29.693933486938477
2010-02-08,29.440580368041992
2010-02-09,29.82906723022461
2010-02-10,29.879737854003906
2010-02-11,30.293563842773438
2010-02-12,30.910070419311523
2010-02-16,31.847518920898438
2010-02-17,31.898181915283203
2010-02-18,31.98263168334961
2010-02-19,32.20221710205078
2010-02-22,32.21064758300781
2010-02-23,31.22256088256836
2010-02-24,31.146547317504883
2010-02-25,31.171890258789062
2010-02-26,31.661714553833008
2010-03-01,33.308563232421875
2010-03-02,34.06020736694336
2010-03-03,34.07709503173828
2010-03-04,34.02641677856445
2010-03-05,34.76961898803711
2010-03-08,34.8371696472168
2010-03-09,34.626033782958984
2010-03-10,34.90473937988281
2010-03-11,35.08269119262695
2010-03-12,35.54030227661133
2010-03-15,35.7606315612793
2010-03-16,36.099586486816406
2010-03-17,36.29449462890625
2010-03-18,36.31143569946289
2010-03-19,35.79452133178711
2010-03-22,36.480926513671875
2010-03-23,36.60803985595703
2010-03-24,36.0233154296875
2010-03-25,35.447086334228516
2010-03-26,35.14200973510742
2010-03-29,35.71825408935547
2010-03-30,36.0402717590332
2010-03-31,36.12501525878906
2010-04-01,36.32838439941406
2010-04-05,36.574119567871094
2010-04-06,36.963951110839844
2010-04-07,36.95547103881836
2010-04-08,37.01478576660156
2010-04-09,37.548641204833984
2010-04-12,36.8707275390625
2010-04-13,36.557186126708984
2010-04-14,37.72660827636719
2010-04-15,37.718135833740234
2010-04-16,37.20121383666992
2010-04-19,37.057151794433594
2010-04-20,37.455440521240234
2010-04-21,37.133419036865234
2010-04-22,37.21816635131836
2010-04-23,37.84524154663086
2010-04-26,37.95541000366211
2010-04-27,37.49781799316406
2010-04-28,38.33674621582031
2010-04-29,39.39601135253906
2010-04-30,38.69266128540039
2010-05-03,38.98076629638672
2010-05-04,37.65033721923828
2010-05-05,36.54871368408203
2010-05-06,34.565773010253906
2010-05-07,33.24381637573242
2010-05-10,36.141963958740234
2010-05-11,35.81145095825195
2010-05-12,36.836830139160156
2010-05-13,36.54023742675781
2010-05-14,35.582672119140625
2010-05-17,35.345394134521484
2010-05-18,35.56572723388672
2010-05-19,35.22676086425781
2010-05-20,33.828521728515625
2010-05-21,34.591209411621094
2010-05-24,34.3454475402832
2010-05-25,34.26070785522461
2010-05-26,35.125064849853516
2010-05-27,36.667354583740234
2010-05-28,36.48939514160156
2010-06-01,35.20132827758789
2010-06-02,36.31143569946289
2010-06-03,36.43855285644531
2010-06-04,34.78610610961914
2010-06-07,33.78616714477539
2010-06-08,33.32856750488281
2010-06-09,33.79463195800781
2010-06-10,35.447086334228516
2010-06-11,35.855201721191406
2010-06-14,35.74467086791992
2010-06-15,36.74797058105469
2010-06-16,36.4418830871582
2010-06-17,36.1697998046875
2010-06-18,36.33134460449219
2010-06-21,36.53541564941406
2010-06-22,35.42156982421875
2010-06-23,35.20901107788086
2010-06-24,34.45228958129883
2010-06-25,34.49479293823242
2010-06-28,34.996437072753906
2010-06-29,34.01015090942383
2010-06-30,33.76356887817383
2010-07-01,33.65304183959961
2010-07-02,33.32993698120117
2010-07-06,33.24491882324219
2010-07-07,34.74986267089844
2010-07-08,35.251522064208984
2010-07-09,35.311038970947266
2010-07-12,34.63933563232422
2010-07-13,35.92323303222656
2010-07-14,35.532100677490234
2010-07-15,35.65964889526367
2010-07-16,34.27375030517578
2010-07-19,34.66484832763672
2010-07-20,35.41306686401367
2010-07-21,35.1154899597168
2010-07-22,36.7819709777832
2010-07-23,37.598228454589844
2010-07-26,38.47398376464844
2010-07-27,37.836299896240234
2010-07-28,36.81599044799805
2010-07-29,36.90101623535156
2010-07-30,37.088069915771484
2010-08-02,37.96384048461914
2010-08-03,37.657745361328125
2010-08-04,38.59302520751953
2010-08-05,38.49099349975586
2010-08-06,38.61001968383789
2010-08-09,39.00115203857422
2010-08-10,38.2529182434082
2010-08-11,36.79899597167969
2010-08-12,35.84669876098633
2010-08-13,35.48109436035156
2010-08-16,35.549110412597656
2010-08-17,36.4418830871582
2010-08-18,36.501407623291016
2010-08-19,35.60013198852539
2010-08-20,35.05595397949219
2010-08-23,34.69886016845703
2010-08-24,34.0356559753418
2010-08-25,33.94212341308594
2010-08-26,33.74657440185547
2010-08-27,34.5543212890625
2010-08-30,33.9166259765625
2010-08-31,34.08667755126953
2010-09-01,35.65964889526367
2010-09-02,36.042259216308594
2010-09-03,36.8329963684082
2010-09-07,36.008243560791016
2010-09-08,36.101768493652344
2010-09-09,35.42156982421875
2010-09-10,34.894412994384766
2010-09-13,35.94381332397461
2010-09-14,36.10591506958008
2010-09-15,36.89936065673828
2010-09-16,36.81403732299805
2010-09-17,37.01025390625
2010-09-20,37.69279861450195
2010-09-21,37.50510025024414
2010-09-22,37.22355651855469
2010-09-23,36.933475494384766
2010-09-24,38.00846862792969
2010-09-27,38.25588607788086
2010-09-28,38.67393493652344
2010-09-29,39.35646438598633
2010-09-30,39.93661880493164
2010-10-01,40.32053756713867
2010-10-04,39.842769622802734
2010-10-05,41.07132339477539
2010-10-06,40.88361740112305
2010-10-07,40.73858642578125
2010-10-08,40.7897834777832
2010-10-11,40.986000061035156
2010-10-12,40.968955993652344
2010-10-13,41.65147399902344
2010-10-14,41.39553451538086
2010-10-15,41.36992645263672
2010-10-18,41.276084899902344
2010-10-19,40.39732360839844
2010-10-20,41.25901794433594
2010-10-21,41.53203582763672
2010-10-22,41.82210159301758
2010-10-25,42.71792984008789
2010-10-26,42.80325698852539
2010-10-27,42.52170181274414
2010-10-28,42.20603561401367
2010-10-29,42.76911926269531
2010-11-01,42.82030487060547
2010-11-02,43.29808044433594
2010-11-03,43.50285339355469
2010-11-04,45.02998352050781
2010-11-05,45.30302047729492
2010-11-08,45.11532211303711
2010-11-09,44.791114807128906
2010-11-10,45.21769714355469
2010-11-11,45.18357467651367
2010-11-12,44.330406188964844
2010-11-15,44.48398208618164
2010-11-16,43.66493225097656
2010-11-17,43.71613693237305
2010-11-18,45.047054290771484
2010-11-19,45.62721633911133
2010-11-22,46.011146545410156
2010-11-23,45.132389068603516
2010-11-24,46.540096282958984
2010-11-26,46.164710998535156
2010-11-29,46.326812744140625
2010-11-30,46.14765167236328
2010-12-01,47.23970031738281
2010-12-02,46.92402648925781
2010-12-03,47.12025451660156
2010-12-06,47.231178283691406
2010-12-07,47.41033935546875
2010-12-08,46.4291877746582
2010-12-09,46.9837532043457
2010-12-10,47.25676345825195
2010-12-13,47.085693359375
2010-12-14,47.59033966064453
2010-12-15,46.88042449951172
2010-12-16,47.4363899230957
2010-12-17,48.15486526489258
2010-12-20,47.710079193115234
2010-12-21,48.52265167236328
2010-12-22,48.03510665893555
2010-12-23,48.026554107666016
2010-12-27,47.9410285949707
2010-12-28,47.83837890625
2010-12-29,48.206172943115234
2010-12-30,48.00944900512695
2010-12-31,47.710079193115234
2011-01-03,47.77851104736328
2011-01-04,47.3337516784668
2011-01-05,47.17978286743164
2011-01-06,46.88042449951172
2011-01-07,46.76922607421875
2011-01-10,47.085693359375
2011-01-11,47.72719955444336
2011-01-12,50.301719665527344
2011-01-13,49.9852409362793
2011-01-14,51.1998291015625
2011-01-18,51.88408660888672
2011-01-19,48.96742248535156
2011-01-20,48.64238739013672
2011-01-21,49.3437614440918
2011-01-24,49.35231018066406
2011-01-25,48.75358581542969
2011-01-26,48.84767150878906
2011-01-27,48.65095520019531
2011-01-28,47.53901290893555
2011-01-31,48.03510665893555
2011-02-01,49.38651657104492
2011-02-02,49.300994873046875
2011-02-03,49.189788818359375
2011-02-04,49.47206115722656
2011-02-07,49.12138366699219
2011-02-08,49.241127014160156
2011-02-09,48.94175720214844
2011-02-10,48.90753173828125
2011-02-11,49.06150436401367
2011-02-14,49.28388595581055
2011-02-15,49.41218185424805
2011-02-16,50.087894439697266
2011-02-17,50.50701141357422
2011-02-18,50.76358413696289
2011-02-22,48.864776611328125
2011-02-23,48.52265167236328
2011-02-24,47.91537857055664
2011-02-25,48.958866119384766
2011-02-28,49.232566833496094
2011-03-01,48.18907165527344
2011-03-02,47.91537857055664
2011-03-03,49.87405776977539
2011-03-04,49.84839630126953
2011-03-07,48.53120422363281
2011-03-08,48.56541061401367
2011-03-09,48.25749588012695
2011-03-10,46.940303802490234
2011-03-11,47.0990104675293
2011-03-14,48.145660400390625
2011-03-15,46.87596130371094
2011-03-16,45.54619598388672
2011-03-17,46.189632415771484
2011-03-18,46.386940002441406
2011-03-21,47.63090133666992
2011-03-22,47.41642379760742
2011-03-23,47.78533172607422
2011-03-24,48.531707763671875
2011-03-25,49.09793472290039
2011-03-28,49.54403305053711
2011-03-29,50.14457702636719
2011-03-30,50.93384552001953
2011-03-31,51.277008056640625
2011-04-01,51.56010818481445
2011-04-04,51.31130599975586
2011-04-05,51.35423278808594
2011-04-06,51.74885559082031
2011-04-07,51.62875747680664
2011-04-08,51.51722717285156
2011-04-11,50.72794723510742
2011-04-12,49.65556335449219
2011-04-13,49.612674713134766
2011-04-14,49.612674713134766
2011-04-15,49.88719940185547
2011-04-18,48.82339859008789
2011-04-19,49.60409164428711
2011-04-20,55.65233612060547
2011-04-21,55.755279541015625
2011-04-25,59.67589569091797
2011-04-26,58.775108337402344
2011-04-27,58.42336654663086
2011-04-28,58.963836669921875
2011-04-29,60.52521896362305
2011-05-02,60.01905822753906
2011-05-03,58.57777786254883
2011-05-04,56.7075309753418
2011-05-05,58.294677734375
2011-05-06,59.19547653198242
2011-05-09,59.4356803894043
2011-05-10,61.005638122558594
2011-05-11,59.95042419433594
2011-05-12,59.16114044189453
2011-05-13,58.56061935424805
2011-05-16,58.13168716430664
2011-05-17,57.719879150390625
2011-05-18,59.52147674560547
2011-05-19,59.246944427490234
2011-05-20,58.80942916870117
2011-05-23,57.65983200073242
2011-05-24,58.26035690307617
2011-05-25,59.11827850341797
2011-05-26,59.39279556274414
2011-05-27,60.52521896362305
2011-05-31,60.774009704589844
2011-06-01,58.74078369140625
2011-06-02,58.12309265136719
2011-06-03,57.64265823364258
2011-06-06,56.501651763916016
2011-06-07,56.656070709228516
2011-06-08,56.14989471435547
2011-06-09,57.145076751708984
2011-06-10,56.2099494934082
2011-06-13,55.93904113769531
2011-06-14,56.910911560058594
2011-06-15,56.386268615722656
2011-06-16,55.775634765625
2011-06-17,55.6466064453125
2011-06-20,56.4894905090332
2011-06-21,58.209632873535156
2011-06-22,57.865596771240234
2011-06-23,57.607574462890625
2011-06-24,56.88511657714844
2011-06-27,56.89371871948242
2011-06-28,57.90000915527344
2011-06-29,58.93206787109375
2011-06-30,59.516910552978516
2011-07-01,60.617835998535156
2011-07-05,60.256591796875
2011-07-06,60.37699890136719
2011-07-07,60.67802429199219
2011-07-08,60.686641693115234
2011-07-11,59.430931091308594
2011-07-12,59.0525016784668
2011-07-13,58.86328887939453
2011-07-14,58.41603469848633
2011-07-15,58.61385726928711
2011-07-18,57.960201263427734
2011-07-19,59.24171829223633
2011-07-20,58.57946014404297
2011-07-21,60.12758255004883
2011-07-22,57.5301628112793
2011-07-25,59.086883544921875
2011-07-26,58.77727127075195
2011-07-27,58.45045852661133
2011-07-28,57.985992431640625
2011-07-29,57.2635383605957
2011-08-01,57.220550537109375
2011-08-02,54.33930206298828
2011-08-03,54.46831512451172
2011-08-04,49.37668991088867
2011-08-05,48.40482711791992
2011-08-08,44.25926208496094
2011-08-09,48.18979263305664
2011-08-10,45.37736511230469
2011-08-11,49.0240592956543
2011-08-12,49.987342834472656
2011-08-15,51.1312370300293
2011-08-16,47.527530670166016
2011-08-17,46.43524169921875
2011-08-18,41.610252380371094
2011-08-19,39.82990264892578
2011-08-22,39.22783660888672
2011-08-23,40.50075912475586
2011-08-24,41.696266174316406
2011-08-25,40.947994232177734
2011-08-26,42.53911590576172
2011-08-29,44.62910842895508
2011-08-30,43.72602844238281
2011-08-31,43.614219665527344
2011-09-01,42.95195007324219
2011-09-02,40.97379684448242
2011-09-06,40.35454177856445
2011-09-07,42.00587463378906
2011-09-08,41.051204681396484
2011-09-09,39.43427276611328
2011-09-12,38.43659210205078
2011-09-13,39.37321472167969
2011-09-14,39.8480110168457
2011-09-15,40.42640686035156
2011-09-16,39.9688606262207
2011-09-19,39.58903121948242
2011-09-20,38.838008880615234
2011-09-21,37.49132537841797
2011-09-22,34.72025680541992
2011-09-23,35.32453536987305
2011-09-26,36.63669204711914
2011-09-27,37.99201202392578
2011-09-28,35.4022331237793
2011-09-29,36.550376892089844
2011-09-30,34.87564468383789
2011-10-03,33.66708755493164
2011-10-04,34.76342010498047
2011-10-05,36.67987060546875
2011-10-06,37.120121002197266
2011-10-07,37.46541976928711
2011-10-10,39.67536544799805
2011-10-11,39.83074188232422
2011-10-12,40.9529914855957
2011-10-13,41.00477600097656
2011-10-14,41.980262756347656
2011-10-17,40.9443359375
2011-10-18,42.2651252746582
2011-10-19,38.69988250732422
2011-10-20,39.226470947265625
2011-10-21,40.16741943359375
2011-10-24,41.96300506591797
2011-10-25,43.99165344238281
2011-10-26,45.510990142822266
2011-10-27,47.703670501708984
2011-10-28,47.5914421081543
2011-10-31,46.00304412841797
2011-11-01,44.00028991699219
2011-11-02,45.68363952636719
2011-11-03,46.96126937866211
2011-11-04,46.935367584228516
2011-11-07,47.133914947509766
2011-11-08,47.07349395751953
2011-11-09,44.78585433959961
2011-11-10,45.32106018066406
2011-11-11,46.477848052978516
2011-11-14,46.00304412841797
2011-11-15,45.15705108642578
2011-11-16,45.027557373046875
2011-11-17,43.46506118774414
2011-11-18,43.42190170288086
2011-11-21,42.94712448120117
2011-11-22,42.342830657958984
2011-11-23,40.57315444946289
2011-11-25,40.771697998046875
2011-11-28,42.843528747558594
2011-11-29,43.180198669433594
2011-11-30,47.07349395751953
2011-12-01,46.1843376159668
2011-12-02,46.00304412841797
2011-12-05,46.40013885498047
2011-12-06,46.39152526855469
2011-12-07,47.11665344238281
2011-12-08,45.82176208496094
2011-12-09,45.83039093017578
2011-12-12,43.9484977722168
2011-12-13,43.736270904541016
2011-12-14,41.63998794555664
2011-12-15,42.289649963378906
2011-12-16,43.450408935546875
2011-12-19,41.587989807128906
2011-12-20,43.35512161254883
2011-12-21,43.155879974365234
2011-12-22,43.97014617919922
2011-12-23,44.299312591552734
2011-12-27,44.60250473022461
2011-12-28,43.459075927734375
2011-12-29,44.60250473022461
2011-12-30,44.61981964111328
2012-01-03,45.676631927490234
2012-01-04,46.34363555908203
2012-01-05,46.412925720214844
2012-01-06,46.317649841308594
2012-01-09,46.28299331665039
2012-01-10,47.7209587097168
2012-01-11,47.963497161865234
2012-01-12,49.79991149902344
2012-01-13,49.20221710205078
2012-01-17,49.669986724853516
2012-01-18,50.6834831237793
2012-01-19,52.05213928222656
2012-01-20,51.66232681274414
2012-01-23,52.05213928222656
2012-01-24,54.278358459472656
2012-01-25,53.78461837768555
2012-01-26,54.5901985168457
2012-01-27,54.7894401550293
2012-01-30,54.93668746948242
2012-01-31,55.70764923095703
2012-02-01,57.51808547973633
2012-02-02,56.88572311401367
2012-02-03,58.0291633605957
2012-02-06,58.47092819213867
2012-02-07,57.95118713378906
2012-02-08,57.80393981933594
2012-02-09,57.61338424682617
2012-02-10,56.50459289550781
2012-02-13,57.2928581237793
2012-02-14,56.52192306518555
2012-02-15,56.054141998291016
2012-02-16,57.50075149536133
2012-02-17,57.41413497924805
2012-02-21,56.97235107421875
2012-02-22,57.33618927001953
2012-02-23,57.674007415771484
2012-02-24,57.2928581237793
2012-02-27,57.94253921508789
2012-02-28,57.80393981933594
2012-02-29,57.622032165527344
2012-03-01,58.64418411254883
2012-03-02,57.1022834777832
2012-03-05,54.053138732910156
2012-03-06,52.017486572265625
2012-03-07,53.27351760864258
2012-03-08,54.512245178222656
2012-03-09,54.61619567871094
2012-03-12,54.3563117980957
2012-03-13,55.3209228515625
2012-03-14,55.538169860839844
2012-03-15,56.13778305053711
2012-03-16,55.93791961669922
2012-03-19,55.94659423828125
2012-03-20,55.63375473022461
2012-03-21,55.85969543457031
2012-03-22,55.12104034423828
2012-03-23,54.46060562133789
2012-03-26,55.955299377441406
2012-03-27,56.16385269165039
2012-03-28,54.886409759521484
2012-03-29,55.346988677978516
2012-03-30,55.5468635559082
2012-04-02,56.64179992675781
2012-04-03,55.981361389160156
2012-04-04,55.303531646728516
2012-04-05,54.76475143432617
2012-04-09,54.7734375
2012-04-10,53.27875900268555
2012-04-11,53.86098861694336
2012-04-12,55.3730583190918
2012-04-13,54.61702346801758
2012-04-16,55.06890869140625
2012-04-17,55.72064971923828
2012-04-18,56.702632904052734
2012-04-19,55.381736755371094
2012-04-20,56.86774826049805
2012-04-23,55.9726676940918
2012-04-24,54.94723892211914
2012-04-25,56.1030158996582
2012-04-26,56.598350524902344
2012-04-27,57.55427169799805
2012-04-30,56.74608612060547
2012-05-01,57.415218353271484
2012-05-02,57.406532287597656
2012-05-03,56.919891357421875
2012-05-04,55.3209228515625
2012-05-07,55.83363342285156
2012-05-08,54.96462631225586
2012-05-09,54.40846252441406
2012-05-10,54.66046905517578
2012-05-11,54.99069595336914
2012-05-14,52.983306884765625
2012-05-15,53.748016357421875
2012-05-16,54.58226776123047
2012-05-17,52.122982025146484
2012-05-18,51.53205871582031
2012-05-21,53.60898208618164
2012-05-22,51.76668167114258
2012-05-23,52.227256774902344
2012-05-24,52.5661735534668
2012-05-25,53.383033752441406
2012-05-29,55.33829116821289
2012-05-30,52.818172454833984
2012-05-31,52.7486457824707
2012-06-01,49.44644546508789
2012-06-04,49.759281158447266
2012-06-05,51.6015739440918
2012-06-06,52.58354568481445
2012-06-07,52.435813903808594
2012-06-08,52.86163330078125
2012-06-11,50.98457336425781
2012-06-12,51.87964630126953
2012-06-13,50.345069885253906
2012-06-14,50.51072311401367
2012-06-15,51.687828063964844
2012-06-18,52.59463882446289
2012-06-19,53.841487884521484
2012-06-20,53.90252685546875
2012-06-21,51.48728561401367
2012-06-22,51.21698760986328
2012-06-25,50.310184478759766
2012-06-26,50.981571197509766
2012-06-27,50.353782653808594
2012-06-28,50.47584915161133
2012-06-29,52.001731872558594
2012-07-02,52.48128128051758
2012-07-03,53.97227478027344
2012-07-05,53.684547424316406
2012-07-06,52.30690002441406
2012-07-09,51.836063385009766
2012-07-10,51.33906555175781
2012-07-11,49.96141815185547
2012-07-12,49.2900276184082
2012-07-13,50.519447326660156
2012-07-16,49.97885513305664
2012-07-17,49.90037155151367
2012-07-18,48.487857818603516
2012-07-19,50.16195297241211
2012-07-20,49.7608642578125
2012-07-23,49.43826675415039
2012-07-24,47.81646728515625
2012-07-25,48.07804489135742
2012-07-26,49.1505241394043
2012-07-27,50.676395416259766
2012-07-30,50.763587951660156
2012-07-31,50.763587951660156
2012-08-01,50.353782653808594
2012-08-02,49.2900276184082
2012-08-03,51.03387451171875
2012-08-06,51.53960037231445
2012-08-07,52.51616287231445
2012-08-08,52.472564697265625
2012-08-09,53.07419204711914
2012-08-10,53.178829193115234
2012-08-13,53.24856948852539
2012-08-14,52.699275970458984
2012-08-15,53.07419204711914
2012-08-16,53.361934661865234
2012-08-17,53.45784378051758
2012-08-20,53.327049255371094
2012-08-21,51.321617126464844
2012-08-22,50.528167724609375
2012-08-23,49.43826675415039
2012-08-24,49.17668533325195
2012-08-27,48.22628402709961
2012-08-28,47.53745651245117
2012-08-29,47.720550537109375
2012-08-30,47.43281936645508
2012-08-31,47.720550537109375
2012-09-04,47.153804779052734
2012-09-05,47.1363639831543
2012-09-06,48.60991668701172
2012-09-07,49.63008499145508
2012-09-10,49.48185729980469
2012-09-11,49.50802230834961
2012-09-12,47.845489501953125
2012-09-13,46.79547882080078
2012-09-14,47.15422821044922
2012-09-17,46.7779655456543
2012-09-18,46.09547424316406
2012-09-19,47.48674392700195
2012-09-20,46.88298416137695
2012-09-21,46.55922317504883
2012-09-24,46.261722564697266
2012-09-25,45.194217681884766
2012-09-26,45.115482330322266
2012-09-27,45.859230041503906
2012-09-28,46.09547424316406
2012-10-01,46.112979888916016
2012-10-02,46.37548065185547
2012-10-03,46.38422775268555
2012-10-04,47.031742095947266
2012-10-05,47.556739807128906
2012-10-08,46.8917350769043
2012-10-09,46.09547424316406
2012-10-10,45.360469818115234
2012-10-11,45.789222717285156
2012-10-12,45.50921630859375
2012-10-15,45.80672073364258
2012-10-16,47.07548522949219
2012-10-17,47.495479583740234
2012-10-18,48.75550079345703
2012-10-19,48.41425323486328
2012-10-22,49.158016204833984
2012-10-23,48.50175857543945
2012-10-24,48.134239196777344
2012-10-25,48.204254150390625
2012-10-26,48.37925338745117
2012-10-31,48.22175216674805
2012-11-01,49.691776275634766
2012-11-02,49.20176315307617
2012-11-05,49.70928955078125
2012-11-06,49.89300537109375
2012-11-07,48.571754455566406
2012-11-08,47.679256439208984
2012-11-09,47.43423080444336
2012-11-12,48.22175216674805
2012-11-13,48.69425964355469
2012-11-14,47.54799270629883
2012-11-15,47.32048797607422
2012-11-16,47.52174758911133
2012-11-19,49.333011627197266
2012-11-20,49.35926818847656
2012-11-21,49.35926818847656
2012-11-23,50.348018646240234
2012-11-26,50.30427932739258
2012-11-27,50.671783447265625
2012-11-28,51.791778564453125
2012-11-29,52.64929962158203
2012-11-30,52.31679153442383
2012-12-03,51.47678756713867
2012-12-04,51.590538024902344
2012-12-05,51.74803161621094
2012-12-06,51.78303146362305
2012-12-07,51.80054473876953
2012-12-10,52.29054641723633
2012-12-11,52.41304016113281
2012-12-12,52.14086151123047
2012-12-13,52.03553771972656
2012-12-14,52.12331771850586
2012-12-17,52.84323501586914
2012-12-18,54.2479362487793
2012-12-19,54.449859619140625
2012-12-20,54.47621154785156
2012-12-21,54.133792877197266
2012-12-24,54.370845794677734
2012-12-26,54.14259338378906
2012-12-27,54.16891860961914
2012-12-28,53.457786560058594
2012-12-31,54.537654876708984
2013-01-02,56.451576232910156
2013-01-03,56.08283615112305
2013-01-04,56.74128723144531
2013-01-07,57.0222282409668
2013-01-08,55.98625564575195
2013-01-09,56.293540954589844
2013-01-10,56.337425231933594
2013-01-11,56.1618537902832
2013-01-14,56.74128723144531
2013-01-15,57.1539192199707
2013-01-16,56.72372817993164
2013-01-17,57.29438781738281
2013-01-18,56.5744743347168
2013-01-22,56.47792053222656
2013-01-23,56.776405334472656
2013-01-24,54.52888107299805
2013-01-25,54.8098258972168
2013-01-28,55.450706481933594
2013-01-29,55.47705841064453
2013-01-30,54.86249923706055
2013-01-31,53.82653045654297
2013-02-01,54.21282196044922
2013-02-04,54.08113098144531
2013-02-05,54.66935348510742
2013-02-06,54.45864486694336
2013-02-07,54.06357192993164
2013-02-08,55.01175308227539
2013-02-11,55.099544525146484
2013-02-12,55.04686737060547
2013-02-13,58.075748443603516
2013-02-14,57.426090240478516
2013-02-15,57.43486022949219
2013-02-19,57.8035888671875
2013-02-20,56.24085998535156
2013-02-21,56.30232238769531
2013-02-22,57.06612014770508
2013-02-25,55.66142272949219
2013-02-26,56.06527328491211
2013-02-27,57.25928497314453
2013-02-28,57.13636016845703
2013-03-01,56.44279479980469
2013-03-04,55.82823944091797
2013-03-05,55.801883697509766
2013-03-06,56.74128723144531
2013-03-07,56.37255859375
2013-03-08,57.601680755615234
2013-03-11,57.43486022949219
2013-03-12,56.97833251953125
2013-03-13,57.260318756103516
2013-03-14,57.77140808105469
2013-03-15,55.700599670410156
2013-03-18,55.02206802368164
2013-03-19,55.17189025878906
2013-03-20,54.81058120727539
2013-03-21,54.8017578125
2013-03-22,53.90294647216797
2013-03-25,54.47572326660156
2013-03-26,54.643150329589844
2013-03-27,54.41404724121094
2013-03-28,55.09256362915039
2013-04-01,54.01750946044922
2013-04-02,53.89413070678711
2013-04-03,53.1010627746582
2013-04-04,53.79720687866211
2013-04-05,54.431663513183594
2013-04-08,54.8017578125
2013-04-09,54.563846588134766
2013-04-10,54.845821380615234
2013-04-11,54.57265853881836
2013-04-12,53.638580322265625
2013-04-15,52.20222854614258
2013-04-16,54.29067611694336
2013-04-17,53.08342742919922
2013-04-18,50.88924789428711
2013-04-19,51.832130432128906
2013-04-22,51.98194122314453
2013-04-23,52.096492767333984
2013-04-24,51.99074172973633
2013-04-25,52.237491607666016
2013-04-26,51.86737823486328
2013-04-29,52.40489959716797
2013-04-30,53.973445892333984
2013-05-01,52.10531234741211
2013-05-02,52.76620101928711
2013-05-03,53.99106216430664
2013-05-06,54.23780059814453
2013-05-07,54.7929573059082
2013-05-08,55.982582092285156
2013-05-09,55.84158706665039
2013-05-10,56.52892303466797
2013-05-13,56.370296478271484
2013-05-14,57.154579162597656
2013-05-15,58.00935363769531
2013-05-16,58.39706039428711
2013-05-17,59.3399543762207
2013-05-20,58.44111633300781
2013-05-21,58.987464904785156
2013-05-22,58.53805923461914
2013-05-23,58.6966552734375
2013-05-24,58.54686737060547
2013-05-28,59.70124816894531
2013-05-29,59.47212600708008
2013-05-30,60.802730560302734
2013-05-31,58.9698486328125
2013-06-03,57.930015563964844
2013-06-04,58.02695846557617
2013-06-05,57.0928840637207
2013-06-06,56.72278594970703
2013-06-07,56.52009963989258
2013-06-10,55.956138610839844
2013-06-11,55.37454605102539
2013-06-12,54.737648010253906
2013-06-13,56.04682922363281
2013-06-14,55.710693359375
2013-06-17,55.99375534057617
2013-06-18,56.60411071777344
2013-06-19,56.08220672607422
2013-06-20,55.06495666503906
2013-06-21,54.817264556884766
2013-06-24,54.16267776489258
2013-06-25,55.02957534790039
2013-06-26,55.4276237487793
2013-06-27,55.507240295410156
2013-06-28,55.10033416748047
2013-07-01,55.75491714477539
2013-07-02,55.763755798339844
2013-07-03,55.5956916809082
2013-07-05,56.321044921875
2013-07-08,56.05567932128906
2013-07-09,57.223323822021484
2013-07-10,57.68330001831055
2013-07-11,57.550594329833984
2013-07-12,57.320621490478516
2013-07-15,57.17908477783203
2013-07-16,57.23216247558594
2013-07-17,57.31178283691406
2013-07-18,55.524925231933594
2013-07-19,55.56915283203125
2013-07-22,55.339176177978516
2013-07-23,55.560306549072266
2013-07-24,55.40993118286133
2013-07-25,55.268402099609375
2013-07-26,54.61381149291992
2013-07-29,54.62266159057617
2013-07-30,54.737648010253906
2013-07-31,54.85264587402344
2013-08-01,55.17993927001953
2013-08-02,55.12686538696289
2013-08-05,55.9583740234375
2013-08-06,55.85222625732422
2013-08-07,55.83452224731445
2013-08-08,55.878761291503906
2013-08-09,55.648773193359375
2013-08-12,56.08220672607422
2013-08-13,55.967220306396484
2013-08-14,55.657615661621094
2013-08-15,55.25070571899414
2013-08-16,55.10918426513672
2013-08-19,55.19763946533203
2013-08-20,55.215328216552734
2013-08-21,54.87033462524414
2013-08-22,55.40993118286133
2013-08-23,55.586856842041016
2013-08-26,55.657615661621094
2013-08-27,55.36570358276367
2013-08-28,55.330322265625
2013-08-29,55.51607894897461
2013-08-30,55.17109680175781
2013-09-03,54.95880126953125
2013-09-04,55.07379150390625
2013-09-05,55.14455795288086
2013-09-06,54.808414459228516
2013-09-09,55.02071762084961
2013-09-10,56.692562103271484
2013-09-11,56.4084358215332
2013-09-12,56.097679138183594
2013-09-13,56.02664566040039
2013-09-16,56.39957046508789
2013-09-17,56.24861526489258
2013-09-18,56.15982437133789
2013-09-19,56.452842712402344
2013-09-20,56.08879470825195
2013-09-23,55.95560836791992
2013-09-24,55.467262268066406
2013-09-25,55.28969955444336
2013-09-26,55.89345169067383
2013-09-27,55.7336311340332
2013-09-30,55.884578704833984
2013-10-01,56.55050277709961
2013-10-02,56.62154769897461
2013-10-03,56.781349182128906
2013-10-04,57.40289306640625
2013-10-07,56.95005798339844
2013-10-08,56.23086929321289
2013-10-09,55.973365783691406
2013-10-10,56.61265563964844
2013-10-11,56.4084358215332
2013-10-14,56.81686782836914
2013-10-15,57.038841247558594
2013-10-16,57.19867706298828
2013-10-17,59.889015197753906
2013-10-18,59.75583267211914
2013-10-21,59.3029899597168
2013-10-22,59.65818405151367
2013-10-23,59.835758209228516
2013-10-24,60.022193908691406
2013-10-25,60.022193908691406
2013-10-28,59.59601593017578
2013-10-29,59.347412109375
2013-10-30,58.83240509033203
2013-10-31,58.770263671875
2013-11-01,59.285240173339844
2013-11-04,59.63152313232422
2013-11-05,59.2142333984375
2013-11-06,59.56049728393555
2013-11-07,59.116546630859375
2013-11-08,59.791351318359375
2013-11-11,59.80022048950195
2013-11-12,59.70256805419922
2013-11-13,59.85350799560547
2013-11-14,59.97780990600586
2013-11-15,60.004451751708984
2013-11-18,59.960060119628906
2013-11-19,59.70256805419922
2013-11-20,59.73807144165039
2013-11-21,60.4927978515625
2013-11-22,60.63484573364258
2013-11-25,60.821327209472656
2013-11-26,60.36847686767578
2013-11-27,61.2652587890625
2013-11-29,61.007774353027344
2013-12-02,61.16758728027344
2013-12-03,60.60822296142578
2013-12-04,60.30630111694336
2013-12-05,60.64375686645508
2013-12-06,61.72697830200195
2013-12-09,61.75361251831055
2013-12-10,61.70033264160156
2013-12-11,60.72916793823242
2013-12-12,60.1767578125
2013-12-13,60.52425003051758
2013-12-16,60.640071868896484
2013-12-17,61.27266311645508
2013-12-18,56.85340881347656
2013-12-19,56.2475471496582
2013-12-20,56.65739822387695
2013-12-23,55.65058517456055
2013-12-24,55.82878494262695
2013-12-26,56.46138381958008
2013-12-27,56.63066482543945
2013-12-30,56.36336898803711
2013-12-31,56.47920227050781
2014-01-02,56.25646209716797
2014-01-03,56.35446548461914
2014-01-06,56.2297248840332
2014-01-07,56.61284637451172
2014-01-08,57.797855377197266
2014-01-09,58.653202056884766
2014-01-10,59.24122619628906
2014-01-13,58.5819091796875
2014-01-14,59.348148345947266
2014-01-15,59.4639892578125
2014-01-16,59.13432693481445
2014-01-17,58.80465316772461
2014-01-21,58.93828582763672
2014-01-22,59.07194137573242
2014-01-23,58.376983642578125
2014-01-24,56.407920837402344
2014-01-27,56.65739822387695
2014-01-28,56.30990982055664
2014-01-29,58.13642501831055
2014-01-30,57.575103759765625
2014-01-31,57.183074951171875
2014-02-03,55.445655822753906
2014-02-04,55.42784881591797
2014-02-05,55.67731475830078
2014-02-06,56.02480697631836
2014-02-07,56.55938720703125
2014-02-10,56.764312744140625
2014-02-11,57.111793518066406
2014-02-12,57.44145965576172
2014-02-13,57.744384765625
2014-02-14,58.14533233642578
2014-02-18,57.45036697387695
2014-02-19,57.388004302978516
2014-02-20,57.41472244262695
2014-02-21,56.94252014160156
2014-02-24,56.88014221191406
2014-02-25,57.27216720581055
2014-02-26,58.412620544433594
2014-02-27,58.43044662475586
2014-02-28,58.79574203491211
2014-03-03,58.57299041748047
2014-03-04,58.840293884277344
2014-03-05,58.840293884277344
2014-03-06,59.3214225769043
2014-03-07,59.2946891784668
2014-03-10,58.777931213378906
2014-03-11,58.39480209350586
2014-03-12,58.166648864746094
2014-03-13,57.4419059753418
2014-03-14,56.842437744140625
2014-03-17,57.57611846923828
2014-03-18,57.942955017089844
2014-03-19,57.5313835144043
2014-03-20,57.33454895019531
2014-03-21,57.85350036621094
2014-03-24,57.63874435424805
2014-03-25,58.02348327636719
2014-03-26,57.5850715637207
2014-03-27,58.05928421020508
2014-03-28,58.24717330932617
2014-03-31,59.4282112121582
2014-04-01,59.455055236816406
2014-04-02,59.875587463378906
2014-04-03,59.76820755004883
2014-04-04,59.1508674621582
2014-04-07,58.184539794921875
2014-04-08,58.488765716552734
2014-04-09,59.11506271362305
2014-04-10,58.274009704589844
2014-04-11,58.03243637084961
2014-04-14,58.68559265136719
2014-04-15,58.71243667602539
2014-04-16,59.302955627441406
2014-04-17,59.660850524902344
2014-04-21,60.126136779785156
2014-04-22,60.6092529296875
2014-04-23,60.009796142578125
2014-04-24,59.80399703979492
2014-04-25,58.918235778808594
2014-04-28,59.07032012939453
2014-04-29,59.580326080322266
2014-04-30,59.98295593261719
2014-05-01,60.6092529296875
2014-05-02,60.93137741088867
2014-05-05,61.35190963745117
2014-05-06,61.056636810302734
2014-05-07,61.289249420166016
2014-05-08,60.967159271240234
2014-05-09,61.0834846496582
2014-05-12,62.05875015258789
2014-05-13,61.799278259277344
2014-05-14,61.71874237060547
2014-05-15,60.54664993286133
2014-05-16,60.591365814208984
2014-05-19,60.74348831176758
2014-05-20,60.36769104003906
2014-05-21,60.90452575683594
2014-05-22,60.90452575683594
2014-05-23,61.43242645263672
2014-05-27,61.360843658447266
2014-05-28,61.2355842590332
2014-05-29,62.03188705444336
2014-05-30,61.906646728515625
2014-06-02,62.32716369628906
2014-06-03,62.64926528930664
2014-06-04,63.391883850097656
2014-06-05,63.94664764404297
2014-06-06,64.58189392089844
2014-06-09,64.62663269042969
2014-06-10,64.61766052246094
2014-06-11,64.3078384399414
2014-06-12,63.616241455078125
2014-06-13,63.768917083740234
2014-06-16,63.265953063964844
2014-06-17,64.07429504394531
2014-06-18,63.84077453613281
2014-06-19,64.05635070800781
2014-06-20,64.23596954345703
2014-06-23,63.93956756591797
2014-06-24,63.36474609375
2014-06-25,63.96651840209961
2014-06-26,63.831787109375
2014-06-27,64.53236389160156
2014-06-30,64.218017578125
2014-07-01,64.77485656738281
2014-07-02,64.60420989990234
2014-07-03,65.08023071289062
2014-07-07,64.86466217041016
2014-07-08,64.9006118774414
2014-07-09,64.73893737792969
2014-07-10,64.3078384399414
2014-07-11,64.6670913696289
2014-07-14,65.22395324707031
2014-07-15,62.89769744873047
2014-07-16,62.035491943359375
2014-07-17,62.35881805419922
2014-07-18,63.050376892089844
2014-07-21,62.08937072753906
2014-07-22,61.514556884765625
2014-07-23,61.42473220825195
2014-07-24,60.661312103271484
2014-07-25,62.035491943359375
2014-07-28,61.86482620239258
2014-07-29,60.40084457397461
2014-07-30,59.91584777832031
2014-07-31,55.092769622802734
2014-08-01,55.460994720458984
2014-08-04,55.65860366821289
2014-08-05,55.20053482055664
2014-08-06,55.038875579833984
2014-08-07,54.42812728881836
2014-08-08,54.71553039550781
2014-08-11,54.68858337402344
2014-08-12,54.35627365112305
2014-08-13,55.13767623901367
2014-08-14,54.490989685058594
2014-08-15,54.931095123291016
2014-08-18,55.380165100097656
2014-08-19,55.65860366821289
2014-08-20,55.62266540527344
2014-08-21,55.613677978515625
2014-08-22,55.51488494873047
2014-08-25,55.95498275756836
2014-08-26,55.990909576416016
2014-08-27,56.0448112487793
2014-08-28,56.772300720214844
2014-08-29,57.104618072509766
2014-09-02,57.40998840332031
2014-09-03,57.08665466308594
2014-09-04,57.06869125366211
2014-09-05,57.230369567871094
2014-09-08,57.34711837768555
2014-09-09,56.96091842651367
2014-09-10,58.11054229736328
2014-09-11,58.04290771484375
2014-09-12,57.53778839111328
2014-09-15,57.98879623413086
2014-09-16,58.61116027832031
2014-09-17,58.5750846862793
2014-09-18,58.66527557373047
2014-09-19,57.77231216430664
2014-09-22,57.05973434448242
2014-09-23,56.87933349609375
2014-09-24,56.978553771972656
2014-09-25,54.687522888183594
2014-09-26,54.91301345825195
2014-09-29,54.14632034301758
2014-09-30,53.127071380615234
2014-10-01,52.1258659362793
2014-10-02,53.109031677246094
2014-10-03,53.19922637939453
2014-10-06,53.67728042602539
2014-10-07,52.73019027709961
2014-10-08,52.937652587890625
2014-10-09,50.78190612792969
2014-10-10,49.63637924194336
2014-10-13,47.94965362548828
2014-10-14,48.26536178588867
2014-10-15,48.45478057861328
2014-10-16,48.60811233520508
2014-10-17,49.239501953125
2014-10-20,49.934043884277344
2014-10-21,50.989356994628906
2014-10-22,49.8257942199707
2014-10-23,51.23289489746094
2014-10-24,51.59369659423828
2014-10-27,50.989356994628906
2014-10-28,52.3062629699707
2014-10-29,51.58467483520508
2014-10-30,51.72898483276367
2014-10-31,52.65803909301758
2014-11-03,52.97372817993164
2014-11-04,53.036865234375
2014-11-05,54.795753479003906
2014-11-06,54.89496612548828
2014-11-07,55.18360137939453
2014-11-10,55.42713928222656
2014-11-11,55.959320068359375
2014-11-12,55.5263557434082
2014-11-13,55.81500244140625
2014-11-14,55.688716888427734
2014-11-17,55.562435150146484
2014-11-18,55.64360809326172
2014-11-19,55.517337799072266
2014-11-20,55.517337799072266
2014-11-21,55.72479248046875
2014-11-24,55.78793716430664
2014-11-25,55.30988693237305
2014-11-26,55.625579833984375
2014-11-28,53.253353118896484
2014-12-01,52.62195587158203
2014-12-02,53.109031677246094
2014-12-03,55.38203811645508
2014-12-04,55.74283218383789
2014-12-05,56.265995025634766
2014-12-08,55.769893646240234
2014-12-09,56.22991180419922
2014-12-10,53.21726608276367
2014-12-11,52.442466735839844
2014-12-12,50.38536071777344
2014-12-15,49.624141693115234
2014-12-16,49.814449310302734
2014-12-17,51.83530044555664
2014-12-18,53.32148361206055
2014-12-19,53.185550689697266
2014-12-22,54.372684478759766
2014-12-23,55.115779876708984
2014-12-24,54.80766296386719
2014-12-26,55.17921447753906
2014-12-29,55.22453689575195
2014-12-30,55.09765625
2014-12-31,54.490501403808594
2015-01-02,54.65361022949219
2015-01-05,52.84119415283203
2015-01-06,51.8081169128418
2015-01-07,51.59968185424805
2015-01-08,53.2218017578125
2015-01-09,53.48460006713867
2015-01-12,54.100830078125
2015-01-13,55.26984786987305
2015-01-14,53.93771743774414
2015-01-15,52.63276290893555
2015-01-16,53.031494140625
2015-01-20,52.37903594970703
2015-01-21,53.113059997558594
2015-01-22,53.96489334106445
2015-01-23,51.509063720703125
2015-01-26,51.780921936035156
2015-01-27,51.0831413269043
2015-01-28,50.17693328857422
2015-01-29,43.289730072021484
2015-01-30,43.7337646484375
2015-02-02,43.425655364990234
2015-02-03,44.74872970581055
2015-02-04,44.268428802490234
2015-02-05,45.08402633666992
2015-02-06,46.28928756713867
2015-02-09,47.2498664855957
2015-02-10,47.27705764770508
2015-02-11,48.19232177734375
2015-02-12,48.89917755126953
2015-02-13,49.470088958740234
2015-02-17,49.65133285522461
2015-02-18,49.714759826660156
2015-02-19,49.32509231567383
2015-02-20,50.267555236816406
2015-02-23,50.34911346435547
2015-02-24,50.82034683227539
2015-02-25,51.04689025878906
2015-02-26,51.01971435546875
2015-02-27,51.26438522338867
2015-03-02,51.364070892333984
2015-03-03,51.41844940185547
2015-03-04,50.20412063598633
2015-03-05,50.09537124633789
2015-03-06,49.68758010864258
2015-03-09,49.751014709472656
2015-03-10,49.2435302734375
2015-03-11,48.518577575683594
2015-03-12,48.883033752441406
2015-03-13,48.23610305786133
2015-03-16,48.09944152832031
2015-03-17,47.82609176635742
2015-03-18,48.062984466552734
2015-03-19,47.07895278930664
2015-03-20,47.607421875
2015-03-23,47.29761505126953
2015-03-24,47.3796272277832
2015-03-25,46.63248825073242
2015-03-26,46.4684944152832
2015-03-27,46.96962356567383
2015-03-30,47.771427154541016
2015-03-31,48.144996643066406
2015-04-01,47.898983001708984
2015-04-02,48.1905517578125
2015-04-06,50.11306381225586
2015-04-07,50.34085464477539
2015-04-08,50.91488265991211
2015-04-09,53.76676940917969
2015-04-10,53.52988052368164
2015-04-13,53.192745208740234
2015-04-14,53.73031997680664
2015-04-15,54.04011535644531
2015-04-16,53.52075958251953
2015-04-17,53.80321502685547
2015-04-20,53.93077087402344
2015-04-21,53.52988052368164
2015-04-22,53.70298385620117
2015-04-23,53.71210479736328
2015-04-24,53.757652282714844
2015-04-27,53.3203010559082
2015-04-28,54.16767120361328
2015-04-29,54.896583557128906
2015-04-30,54.39546585083008
2015-05-01,55.069705963134766
2015-05-04,54.77814865112305
2015-05-05,54.668800354003906
2015-05-06,54.668800354003906
2015-05-07,57.247352600097656
2015-05-08,57.548030853271484
2015-05-11,57.63003158569336
2015-05-12,57.110679626464844
2015-05-13,56.98311233520508
2015-05-14,57.97626876831055
2015-05-15,58.65962219238281
2015-05-18,57.63914108276367
2015-05-19,57.128902435302734
2015-05-20,56.98311233520508
2015-05-21,57.13801956176758
2015-05-22,56.372642517089844
2015-05-26,55.725746154785156
2015-05-27,55.871524810791016
2015-05-28,55.206382751464844
2015-05-29,54.80547332763672
2015-06-01,54.532127380371094
2015-06-02,55.27016067504883
2015-06-03,55.98997116088867
2015-06-04,55.825958251953125
2015-06-05,55.69840621948242
2015-06-08,55.2974967956543
2015-06-09,55.215492248535156
2015-06-10,55.734840393066406
2015-06-11,55.99907684326172
2015-06-12,54.726585388183594
2015-06-15,53.023807525634766
2015-06-16,53.078739166259766
2015-06-17,53.5090217590332
2015-06-18,54.598419189453125
2015-06-19,53.64633560180664
2015-06-22,54.021671295166016
2015-06-23,53.975894927978516
2015-06-24,52.767486572265625
2015-06-25,53.34423065185547
2015-06-26,54.104061126708984
2015-06-29,51.4858283996582
2015-06-30,50.59782791137695
2015-07-01,49.85629653930664
2015-07-02,50.378116607666016
2015-07-06,49.664058685302734
2015-07-07,49.664058685302734
2015-07-08,48.583805084228516
2015-07-09,48.92252731323242
2015-07-10,49.4351921081543
2015-07-13,50.69853591918945
2015-07-14,50.65276336669922
2015-07-15,49.682369232177734
2015-07-16,49.81968307495117
2015-07-17,48.528873443603516
2015-07-20,48.290855407714844
2015-07-21,47.6866455078125
2015-07-22,47.33876419067383
2015-07-23,46.98172378540039
2015-07-24,45.59938430786133
2015-07-27,45.59938430786133
2015-07-28,46.48739242553711
2015-07-29,47.521854400634766
2015-07-30,48.88591003417969
2015-07-31,49.618289947509766
2015-08-03,48.785213470458984
2015-08-04,49.09646987915039
2015-08-05,48.757747650146484
2015-08-06,47.39369201660156
2015-08-07,46.908504486083984
2015-08-10,48.23591995239258
2015-08-11,47.604251861572266
2015-08-12,46.798641204833984
2015-08-13,46.15782165527344
2015-08-14,46.789485931396484
2015-08-17,47.39369201660156
2015-08-18,46.789485931396484
2015-08-19,45.66345977783203
2015-08-20,45.15080261230469
2015-08-21,42.85298538208008
2015-08-24,40.591773986816406
2015-08-25,39.18195724487305
2015-08-26,39.42913055419922
2015-08-27,41.314998626708984
2015-08-28,41.47062683105469
2015-08-31,41.38822937011719
2015-09-01,39.22773361206055
2015-09-02,39.11787414550781
2015-09-03,39.24604415893555
2015-09-04,38.843238830566406
2015-09-08,39.38336181640625
2015-09-09,39.39251708984375
2015-09-10,39.18195724487305
2015-09-11,38.449588775634766
2015-09-14,38.60630416870117
2015-09-15,40.80948257446289
2015-09-16,41.242740631103516
2015-09-17,41.528507232666016
2015-09-18,42.13692092895508
2015-09-21,42.772987365722656
2015-09-22,42.13692092895508
2015-09-23,41.7681884765625
2015-09-24,41.68522644042969
2015-09-25,41.60226058959961
2015-09-28,38.51411437988281
2015-09-29,39.20549392700195
2015-09-30,40.652767181396484
2015-10-01,41.63912582397461
2015-10-02,42.54252243041992
2015-10-05,43.72247314453125
2015-10-06,43.888397216796875
2015-10-07,45.08677291870117
2015-10-08,46.61701583862305
2015-10-09,46.75529861450195
2015-10-12,46.561702728271484
2015-10-13,46.33124542236328
2015-10-14,47.41901397705078
2015-10-15,47.44667053222656
2015-10-16,48.35006332397461
2015-10-19,48.1749153137207
2015-10-20,48.02741241455078
2015-10-21,47.179325103759766
2015-10-22,48.29475021362305
2015-10-23,48.46989822387695
2015-10-26,48.56208801269531
2015-10-27,47.87070846557617
2015-10-28,49.39173889160156
2015-10-29,50.04623794555664
2015-10-30,49.336421966552734
2015-11-02,50.00014114379883
2015-11-03,50.396522521972656
2015-11-04,49.98169708251953
2015-11-05,45.56612777709961
2015-11-06,46.718414306640625
2015-11-09,46.017826080322266
2015-11-10,45.704402923583984
2015-11-11,45.07756042480469
2015-11-12,43.25233459472656
2015-11-13,43.89761734008789
2015-11-16,44.22946548461914
2015-11-17,44.72726058959961
2015-11-18,46.838260650634766
2015-11-19,46.72763442993164
2015-11-20,47.63103103637695
2015-11-23,48.03663635253906
2015-11-24,48.86628341674805
2015-11-25,48.76488494873047
2015-11-27,48.958473205566406
2015-11-30,49.373291015625
2015-12-01,48.810977935791016
2015-12-02,48.19335174560547
2015-12-03,48.70036315917969
2015-12-04,48.84785079956055
2015-12-07,47.10558319091797
2015-12-08,45.88875961303711
2015-12-09,46.11001205444336
2015-12-10,45.363319396972656
2015-12-11,44.46384811401367
2015-12-14,44.28765869140625
2015-12-15,45.140777587890625
2015-12-16,48.061763763427734
2015-12-17,48.608863830566406
2015-12-18,47.45901870727539
2015-12-21,47.718658447265625
2015-12-22,50.3614501953125
2015-12-23,52.19749450683594
2015-12-24,51.88221740722656
2015-12-28,52.624053955078125
2015-12-29,52.605506896972656
2015-12-30,52.24386215209961
2015-12-31,51.93785858154297
2016-01-04,51.511295318603516
2016-01-05,50.72309875488281
2016-01-06,48.506858825683594
2016-01-07,46.31843948364258
2016-01-08,45.4467887878418
2016-01-11,44.54731369018555
2016-01-12,45.391151428222656
2016-01-13,44.24129867553711
2016-01-14,45.34477996826172
2016-01-15,44.4267578125
2016-01-19,44.899681091308594
2016-01-20,44.51948547363281
2016-01-21,45.836246490478516
2016-01-22,47.56100845336914
2016-01-25,46.346256256103516
2016-01-26,48.108123779296875
2016-01-27,47.227195739746094
2016-01-28,47.996849060058594
2016-01-29,48.81287384033203
2016-02-01,48.97977828979492
2016-02-02,48.0895881652832
2016-02-03,49.62889099121094
2016-02-04,48.173030853271484
2016-02-05,47.792842864990234
2016-02-08,45.242774963378906
2016-02-09,46.2628059387207
2016-02-10,46.44826126098633
2016-02-11,46.44826126098633
2016-02-12,47.64448165893555
2016-02-16,48.51612854003906
2016-02-17,48.933414459228516
2016-02-18,50.565460205078125
2016-02-19,50.51908493041992
2016-02-22,50.843650817871094
2016-02-23,48.8314094543457
2016-02-24,49.43415451049805
2016-02-25,51.40929412841797
2016-02-26,52.4478645324707
2016-02-29,52.13258743286133
2016-03-01,54.39518737792969
2016-03-02,53.514259338378906
2016-03-03,53.05988693237305
2016-03-04,54.86811065673828
2016-03-07,54.5250129699707
2016-03-08,54.22827911376953
2016-03-09,55.860313415527344
2016-03-10,55.06285095214844
2016-03-11,56.78761291503906
2016-03-14,55.93488693237305
2016-03-15,55.161380767822266
2016-03-16,57.42599868774414
2016-03-17,58.18086242675781
2016-03-18,57.20233154296875
2016-03-21,57.44463348388672
2016-03-22,57.92923355102539
2016-03-23,57.21164321899414
2016-03-24,57.70558166503906
2016-03-28,57.89196014404297
2016-03-29,58.6747932434082
2016-03-30,59.63467788696289
2016-03-31,59.578765869140625
2016-04-01,60.76232147216797
2016-04-04,60.88347625732422
2016-04-05,60.10997009277344
2016-04-06,61.53584289550781
2016-04-07,60.28704071044922
2016-04-08,60.4361457824707
2016-04-11,60.80892562866211
2016-04-12,60.85551834106445
2016-04-13,60.57594299316406
2016-04-14,60.99531173706055
2016-04-15,60.9207649230957
2016-04-18,61.032596588134766
2016-04-19,60.89280319213867
2016-04-20,61.181705474853516
2016-04-21,61.1723747253418
2016-04-22,61.73154830932617
2016-04-25,62.05772399902344
2016-04-26,63.14809036254883
2016-04-27,63.24129867553711
2016-04-28,61.89929962158203
2016-04-29,61.657005310058594
2016-05-02,63.278560638427734
2016-05-03,62.74736022949219
2016-05-04,62.05772399902344
2016-05-05,62.53301239013672
2016-05-06,63.95886993408203
2016-05-09,62.70075225830078
2016-05-10,63.24129867553711
2016-05-11,69.56913757324219
2016-05-12,70.70610809326172
2016-05-13,70.97637176513672
2016-05-16,72.51404571533203
2016-05-17,70.98567962646484
2016-05-18,70.98567962646484
2016-05-19,70.6128921508789
2016-05-20,71.16275024414062
2016-05-23,71.17207336425781
2016-05-24,71.14411926269531
2016-05-25,73.5019302368164
2016-05-26,73.66035461425781
2016-05-27,74.63887023925781
2016-05-31,73.15711212158203
2016-06-01,74.25679016113281
2016-06-02,74.40589904785156
2016-06-03,74.55500793457031
2016-06-06,75.44966125488281
2016-06-07,75.75720977783203
2016-06-08,75.68265533447266
2016-06-09,74.79732513427734
2016-06-10,74.39656829833984
2016-06-13,73.11024475097656
2016-06-14,73.3441390991211
2016-06-15,74.56964111328125
2016-06-16,74.83158874511719
2016-06-17,77.46037292480469
2016-06-20,77.65682983398438
2016-06-21,78.22750854492188
2016-06-22,77.94684600830078
2016-06-23,78.95718383789062
2016-06-24,73.88671875
2016-06-27,70.4814453125
2016-06-28,73.24121856689453
2016-06-29,74.01768493652344
2016-06-30,74.19542694091797
2016-07-01,76.0758056640625
2016-07-05,74.74738311767578
2016-07-06,75.6454849243164
2016-07-07,76.0758056640625
2016-07-08,78.19007110595703
2016-07-11,78.2368392944336
2016-07-12,79.72430419921875
2016-07-13,80.03304290771484
2016-07-14,80.49143981933594
2016-07-15,80.78144836425781
2016-07-18,80.65047454833984
2016-07-19,80.37916564941406
2016-07-20,81.03402709960938
2016-07-21,78.8355712890625
2016-07-22,79.52786254882812
2016-07-25,80.64111328125
2016-07-26,80.00496673583984
2016-07-27,79.35009765625
2016-07-28,79.62139129638672
2016-07-29,78.74201965332031
2016-08-01,78.49878692626953
2016-08-02,78.92913055419922
2016-08-03,78.57362365722656
2016-08-04,76.82422637939453
2016-08-05,77.02067565917969
2016-08-08,76.87098693847656
2016-08-09,76.72132110595703
2016-08-10,76.79615020751953
2016-08-11,77.25457000732422
2016-08-12,77.65682983398438
2016-08-15,78.65782928466797
2016-08-16,76.45938110351562
2016-08-17,75.35547637939453
2016-08-18,76.03839111328125
2016-08-19,77.40423583984375
2016-08-22,78.44266510009766
2016-08-23,78.74201965332031
2016-08-24,76.88970947265625
2016-08-25,77.24520874023438
2016-08-26,76.5155029296875
2016-08-29,77.41358947753906
2016-08-30,76.45938110351562
2016-08-31,74.81287384033203
2016-09-01,76.05711364746094
2016-09-02,76.67453002929688
2016-09-06,77.68490600585938
2016-09-07,77.60070037841797
2016-09-08,75.70162963867188
2016-09-09,71.86601257324219
2016-09-12,72.446044921875
2016-09-13,71.46453094482422
2016-09-14,71.11705017089844
2016-09-15,72.55404663085938
2016-09-16,72.0656509399414
2016-09-19,72.92034912109375
2016-09-20,72.12201690673828
2016-09-21,75.31532287597656
2016-09-22,76.26393127441406
2016-09-23,75.84127807617188
2016-09-26,76.73353576660156
2016-09-27,77.71969604492188
2016-09-28,79.7108383178711
2016-09-29,78.09538269042969
2016-09-30,80.29313659667969
2016-10-03,79.67325592041016
2016-10-04,77.59761047363281
2016-10-05,78.36775970458984
2016-10-06,78.55559539794922
2016-10-07,77.36280822753906
2016-10-10,78.40531921386719
2016-10-11,76.75231170654297
2016-10-12,76.21696472167969
2016-10-13,75.55014038085938
2016-10-14,75.94458770751953
2016-10-17,76.32029724121094
2016-10-18,76.69596099853516
2016-10-19,77.56942749023438
2016-10-20,77.9732666015625
2016-10-21,77.20313262939453
2016-10-24,78.2926254272461
2016-10-25,77.10922241210938
2016-10-26,76.16059875488281
2016-10-27,77.06226348876953
2016-10-28,77.86998748779297
2016-10-31,78.47107696533203
2016-11-01,77.86058044433594
2016-11-02,77.2500991821289
2016-11-03,78.70588684082031
2016-11-04,78.40531921386719
2016-11-07,81.03511047363281
2016-11-08,77.71969604492188
2016-11-09,75.53134155273438
2016-11-10,76.56446075439453
2016-11-11,75.5407485961914
2016-11-14,72.39437103271484
2016-11-15,75.24959564208984
2016-11-16,76.59265899658203
2016-11-17,77.92633819580078
2016-11-18,77.44731903076172
2016-11-21,78.7528305053711
2016-11-22,79.17549133300781
2016-11-23,78.781005859375
2016-11-25,78.89372253417969
2016-11-28,78.85614013671875
2016-11-29,80.72518157958984
2016-11-30,82.44393157958984
2016-12-01,80.44343566894531
2016-12-02,79.70143127441406
2016-12-05,81.03511047363281
2016-12-06,81.07268524169922
2016-12-07,83.40193939208984
2016-12-08,86.21955108642578
2016-12-09,85.17703247070312
2016-12-12,85.76873779296875
2016-12-13,85.8676986694336
2016-12-14,84.75570678710938
2016-12-15,84.64263153076172
2016-12-16,84.08663177490234
2016-12-19,83.86988830566406
2016-12-20,84.1902847290039
2016-12-21,84.13375091552734
2016-12-22,83.32331085205078
2016-12-23,83.70025634765625
2016-12-27,83.87931823730469
2016-12-28,81.58937072753906
2016-12-29,82.05113220214844
2016-12-30,81.11820220947266
2017-01-03,82.97466278076172
2017-01-04,85.47187805175781
2017-01-05,85.17976379394531
2017-01-06,85.57555389404297
2017-01-09,85.26456451416016
2017-01-10,84.69916534423828
2017-01-11,87.92203521728516
2017-01-12,88.3460922241211
2017-01-13,88.58168029785156
2017-01-17,88.9114990234375
2017-01-18,87.26237487792969
2017-01-19,87.68643951416016
2017-01-20,87.97857666015625
2017-01-23,88.2989730834961
2017-01-24,90.0423355102539
2017-01-25,88.58168029785156
2017-01-26,89.97636413574219
2017-01-27,89.91983032226562
2017-01-30,89.11882781982422
2017-01-31,87.3000717163086
2017-02-01,88.02569580078125
2017-02-02,87.55451965332031
2017-02-03,88.83609771728516
2017-02-06,88.85497283935547
2017-02-07,87.45083618164062
2017-02-08,88.9114990234375
2017-02-09,88.49687194824219
2017-02-10,88.2989730834961
2017-02-13,89.2884292602539
2017-02-14,85.93364715576172
2017-02-15,87.41314697265625
2017-02-16,87.08333587646484
2017-02-17,86.62157440185547
2017-02-21,88.37435913085938
2017-02-22,87.11160278320312
2017-02-23,87.08333587646484
2017-02-24,87.57334899902344
2017-02-27,87.13044738769531
2017-02-28,95.65879821777344
2017-03-01,96.74249267578125
2017-03-02,97.11942291259766
2017-03-03,98.73087310791016
2017-03-06,96.22418975830078
2017-03-07,97.807373046875
2017-03-08,96.81788635253906
2017-03-09,96.59173583984375
2017-03-10,97.11002349853516
2017-03-13,98.78319549560547
2017-03-14,98.26327514648438
2017-03-15,99.46379852294922
2017-03-16,98.31999969482422
2017-03-17,100.39965057373047
2017-03-20,100.2673110961914
2017-03-21,98.54686737060547
2017-03-22,99.46379852294922
2017-03-23,99.39764404296875
2017-03-24,98.73591613769531
2017-03-27,98.87772369384766
2017-03-28,99.14240264892578
2017-03-29,99.29363250732422
2017-03-30,99.38817596435547
2017-03-31,99.8608169555664
2017-04-03,99.28418731689453
2017-04-04,99.72848510742188
2017-04-05,99.454345703125
2017-04-06,100.22947692871094
2017-04-07,100.14441680908203
2017-04-10,99.12348937988281
2017-04-11,99.83245849609375
2017-04-12,98.42399597167969
2017-04-13,97.95134735107422
2017-04-17,98.90606689453125
2017-04-18,99.98371887207031
2017-04-19,100.04987335205078
2017-04-20,99.74739074707031
2017-04-21,99.3503646850586
2017-04-24,100.98573303222656
2017-04-25,102.17678833007812
2017-04-26,102.37530517578125
2017-04-27,102.2618637084961
2017-04-28,102.95194244384766
2017-05-01,103.40567779541016
2017-05-02,102.450927734375
2017-05-03,101.76087188720703
2017-05-04,102.76287841796875
2017-05-05,103.99176025390625
2017-05-08,103.56636810302734
2017-05-09,103.34895324707031
2017-05-10,104.5211181640625
2017-05-11,104.68181610107422
2017-05-12,104.34149932861328
2017-05-15,105.920166015625
2017-05-16,106.2226333618164
2017-05-17,104.49275207519531
2017-05-18,103.9823226928711
2017-05-19,104.28477478027344
2017-05-22,104.53056335449219
2017-05-23,105.59876251220703
2017-05-24,105.920166015625
2017-05-25,106.43059539794922
2017-05-26,106.68582916259766
2017-05-30,106.30773162841797
2017-05-31,107.38534545898438
2017-06-01,107.15849304199219
2017-06-02,107.84854888916016
2017-06-05,107.39482116699219
2017-06-06,106.51570129394531
2017-06-07,106.62913513183594
2017-06-08,108.0186996459961
2017-06-09,109.08689880371094
2017-06-12,105.10718536376953
2017-06-13,106.80415344238281
2017-06-14,103.5903549194336
2017-06-15,100.5377426147461
2017-06-16,102.47169494628906
2017-06-19,102.69923400878906
2017-06-20,102.13990020751953
2017-06-21,100.67044067382812
2017-06-22,99.7319107055664
2017-06-23,99.40010070800781
2017-06-26,99.56128692626953
2017-06-27,99.03985595703125
2017-06-28,101.36251068115234
2017-06-29,99.2294692993164
2017-06-30,100.05426788330078
2017-07-03,100.5187759399414
2017-07-05,102.40533447265625
2017-07-06,102.43379974365234
2017-07-07,104.27293395996094
2017-07-10,105.55277252197266
2017-07-11,107.07909393310547
2017-07-12,110.48249053955078
2017-07-13,111.563232421875
2017-07-14,111.45895385742188
2017-07-17,110.78585815429688
2017-07-18,111.61064147949219
2017-07-19,112.96630859375
2017-07-20,111.78126525878906
2017-07-21,112.18891906738281
2017-07-24,112.4354019165039
2017-07-25,112.6250228881836
2017-07-26,111.10819244384766
2017-07-27,110.3213119506836
2017-07-28,110.4445571899414
2017-07-31,109.78095245361328
2017-08-01,111.32624053955078
2017-08-02,113.2412109375
2017-08-03,112.6250228881836
2017-08-04,113.3834228515625
2017-08-07,116.68254852294922
2017-08-08,109.4112319946289
2017-08-09,107.27816772460938
2017-08-10,105.18303680419922
2017-08-11,103.6756820678711
2017-08-14,105.06926727294922
2017-08-15,106.06470489501953
2017-08-16,107.524658203125
2017-08-17,106.28275299072266
2017-08-18,106.73779296875
2017-08-21,107.58153533935547
2017-08-22,109.79991149902344
2017-08-23,109.39225769042969
2017-08-24,108.88980865478516
2017-08-25,108.97512817382812
2017-08-28,109.43016815185547
2017-08-29,108.5105972290039
2017-08-30,109.1836929321289
2017-08-31,110.21704864501953
2017-09-01,112.46385192871094
2017-09-05,110.6057357788086
2017-09-06,112.49229431152344
2017-09-07,111.95191192626953
2017-09-08,112.13204956054688
2017-09-11,117.41253662109375
2017-09-12,118.16146850585938
2017-09-13,119.07157135009766
2017-09-14,119.7558822631836
2017-09-15,120.98196411132812
2017-09-18,124.52710723876953
2017-09-19,127.97720336914062
2017-09-20,129.3363800048828
2017-09-21,128.20530700683594
2017-09-22,127.63502502441406
2017-09-25,122.502685546875
2017-09-26,122.05593872070312
2017-09-27,123.57666778564453
2017-09-28,125.76270294189453
2017-09-29,129.55494689941406
2017-10-02,129.84959411621094
2017-10-03,130.60995483398438
2017-10-04,131.37030029296875
2017-10-05,132.73895263671875
2017-10-06,130.39132690429688
2017-10-09,129.78305053710938
2017-10-10,130.942626953125
2017-10-11,130.60995483398438
2017-10-12,130.4958953857422
2017-10-13,132.05462646484375
2017-10-16,133.21417236328125
2017-10-17,132.5013427734375
2017-10-18,132.73895263671875
2017-10-19,132.57737731933594
2017-10-20,133.80345153808594
2017-10-23,131.66494750976562
2017-10-24,131.8455352783203
2017-10-25,131.66494750976562
2017-10-26,132.149658203125
2017-10-27,132.1876678466797
2017-10-30,132.5963897705078
2017-10-31,133.90798950195312
2017-11-01,135.276611328125
2017-11-02,130.12522888183594
2017-11-03,133.10012817382812
2017-11-06,134.9344482421875
2017-11-07,136.03695678710938
2017-11-08,137.4151153564453
2017-11-09,133.8604736328125
2017-11-10,133.6513671875
2017-11-13,136.2650909423828
2017-11-14,130.82852172851562
2017-11-15,127.8726577758789
2017-11-16,128.62350463867188
2017-11-17,129.45989990234375
2017-11-20,128.69007873535156
2017-11-21,129.92562866210938
2017-11-22,128.54747009277344
2017-11-24,130.2677764892578
2017-11-27,129.4789276123047
2017-11-28,130.106201171875
2017-11-29,125.41099548339844
2017-11-30,127.66357421875
2017-12-01,125.60108184814453
2017-12-04,122.93987274169922
2017-12-05,121.64725494384766
2017-12-06,121.16254425048828
2017-12-07,122.6832504272461
2017-12-08,124.1279296875
2017-12-11,124.64116668701172
2017-12-12,123.8998031616211
2017-12-13,123.65270233154297
2017-12-14,121.55656433105469
2017-12-15,123.45262145996094
2017-12-18,125.8441162109375
2017-12-19,125.78694152832031
2017-12-20,125.1295166015625
2017-12-21,122.57603454589844
2017-12-22,123.18583679199219
2017-12-26,122.94762420654297
2017-12-27,122.36642456054688
2017-12-28,122.38549041748047
2017-12-29,121.85193634033203
2018-01-02,125.320068359375
2018-01-03,125.56779479980469
2018-01-04,124.07190704345703
2018-01-05,125.50109100341797
2018-01-08,130.9605712890625
2018-01-09,129.0454864501953
2018-01-10,126.68257141113281
2018-01-11,128.33090209960938
2018-01-12,127.21612548828125
2018-01-16,121.95672607421875
2018-01-17,120.95631408691406
2018-01-18,112.34312438964844
2018-01-19,110.53282928466797
2018-01-22,108.16990661621094
2018-01-23,107.6649398803711
2018-01-24,107.09326171875
2018-01-25,111.38081359863281
2018-01-26,109.00837707519531
2018-01-29,106.40725708007812
2018-01-30,106.11190032958984
2018-01-31,106.32149505615234
2018-02-01,104.0443344116211
2018-02-02,100.528564453125
2018-02-05,100.185546875
2018-02-06,102.46273040771484
2018-02-07,101.5956802368164
2018-02-08,100.2141342163086
2018-02-09,102.63421630859375
2018-02-12,106.32149505615234
2018-02-13,103.32974243164062
2018-02-14,106.44536590576172
2018-02-15,109.19891357421875
2018-02-16,106.9408187866211
2018-02-20,109.17034912109375
2018-02-21,107.67446899414062
2018-02-22,108.31282043457031
2018-02-23,113.1434555053711
2018-02-26,104.90185546875
2018-02-27,106.30245208740234
2018-02-28,95.68840026855469
2018-03-01,91.47708892822266
2018-03-02,90.53382873535156
2018-03-05,91.88677978515625
2018-03-06,95.41209411621094
2018-03-07,95.32634735107422
2018-03-08,94.59268951416016
2018-03-09,96.95561218261719
2018-03-12,98.12753295898438
2018-03-13,98.26093292236328
2018-03-14,95.90465545654297
2018-03-15,93.74433898925781
2018-03-16,94.0311050415039
2018-03-19,92.635498046875
2018-03-20,91.11563110351562
2018-03-21,93.17079162597656
2018-03-22,89.95899963378906
2018-03-23,89.12737274169922
2018-03-26,90.1979751586914
2018-03-27,89.30900573730469
2018-03-28,85.60968780517578
2018-03-29,88.64942932128906
2018-04-02,85.0361557006836
2018-04-03,86.43177032470703
2018-04-04,87.55970764160156
2018-04-05,91.54578399658203
2018-04-06,87.7508773803711
2018-04-09,87.19647216796875
2018-04-10,88.25751495361328
2018-04-11,89.19428253173828
2018-04-12,89.27076721191406
2018-04-13,91.28768920898438
2018-04-16,92.59727478027344
2018-04-17,92.36783599853516
2018-04-18,94.43257904052734
2018-04-19,94.24140167236328
2018-04-20,93.43844604492188
2018-04-23,93.0465316772461
2018-04-24,91.55533599853516
2018-04-25,91.24946594238281
2018-04-26,92.2913818359375
2018-04-27,92.67375183105469
2018-04-30,92.68328094482422
2018-05-01,93.3141860961914
2018-05-02,93.52447509765625
2018-05-03,93.57227325439453
2018-05-04,95.64656066894531
2018-05-07,95.6943588256836
2018-05-08,96.2774429321289
2018-05-09,97.26202392578125
2018-05-10,94.05021667480469
2018-05-11,94.19361114501953
2018-05-14,94.86272430419922
2018-05-15,96.36347961425781
2018-05-16,97.83555603027344
2018-05-17,100.177490234375
2018-05-18,100.29219055175781
2018-05-21,99.47969055175781
2018-05-22,97.82598876953125
2018-05-23,97.3480453491211
2018-05-24,90.82887268066406
2018-05-25,90.63768768310547
2018-05-29,88.9266357421875
2018-05-30,89.4619369506836
2018-05-31,89.34723663330078
2018-06-01,90.1023941040039
2018-06-04,90.27445220947266
2018-06-05,90.47517395019531
2018-06-06,91.45018768310547
2018-06-07,91.02005767822266
2018-06-08,91.16342163085938
2018-06-11,91.16342163085938
2018-06-12,91.5171127319336
2018-06-13,90.02592468261719
2018-06-14,89.84844970703125
2018-06-15,89.53187561035156
2018-06-18,89.0905990600586
2018-06-19,87.680419921875
2018-06-20,87.88186645507812
2018-06-21,88.22721862792969
2018-06-22,89.65657806396484
2018-06-25,88.21764373779297
2018-06-26,88.75484466552734
2018-06-27,89.60863494873047
2018-06-28,89.82926940917969
2018-06-29,90.4911880493164
2018-07-02,89.67577362060547
2018-07-03,92.68799591064453
2018-07-05,90.92285919189453
2018-07-06,91.65193939208984
2018-07-09,92.07404327392578
2018-07-10,91.91094207763672
2018-07-11,90.82693481445312
2018-07-12,91.46965789794922
2018-07-13,91.68071746826172
2018-07-16,91.09555053710938
2018-07-17,93.02375793457031
2018-07-18,92.80311584472656
2018-07-19,92.29467010498047
2018-07-20,90.07867431640625
2018-07-23,87.2199478149414
2018-07-24,87.20077514648438
2018-07-25,88.0545425415039
2018-07-26,89.27285766601562
2018-07-27,89.46472930908203
2018-07-30,88.6589126586914
2018-07-31,90.36647033691406
2018-08-01,87.30628967285156
2018-08-02,88.27518463134766
2018-08-03,88.84117126464844
2018-08-06,88.8891372680664
2018-08-07,89.03303527832031
2018-08-08,94.75048828125
2018-08-09,96.65950775146484
2018-08-10,94.4914779663086
2018-08-13,91.73828125
2018-08-14,93.36909484863281
2018-08-15,91.65193939208984
2018-08-16,93.11006927490234
2018-08-17,91.5560073852539
2018-08-20,91.65193939208984
2018-08-21,90.98040771484375
2018-08-22,90.68304443359375
2018-08-23,89.9539566040039
2018-08-24,92.09321594238281
2018-08-27,92.94699096679688
2018-08-28,92.99495697021484
2018-08-29,92.7839126586914
2018-08-30,91.18187713623047
2018-08-31,91.63275909423828
2018-09-04,92.64002227783203
2018-09-05,92.52490234375
2018-09-06,93.68566131591797
2018-09-07,93.23479461669922
2018-09-10,93.42664337158203
2018-09-11,94.81763458251953
2018-09-12,95.41241455078125
2018-09-13,96.841796875
2018-09-14,97.12094116210938
2018-09-17,98.61287689208984
2018-09-18,99.20003509521484
2018-09-19,101.53902435302734
2018-09-20,102.60745239257812
2018-09-21,101.47164154052734
2018-09-24,101.00961303710938
2018-09-25,98.68988037109375
2018-09-26,97.52520751953125
2018-09-27,97.16905975341797
2018-09-28,96.04287719726562
2018-10-01,97.06317901611328
2018-10-02,98.03534698486328
2018-10-03,100.1433334350586
2018-10-04,100.31658172607422
2018-10-05,99.20003509521484
2018-10-08,98.42037200927734
2018-10-09,93.63652038574219
2018-10-10,92.0868148803711
2018-10-11,90.82588958740234
2018-10-12,91.52853393554688
2018-10-15,92.45258331298828
2018-10-16,93.50176239013672
2018-10-17,92.71247100830078
2018-10-18,92.0868148803711
2018-10-19,92.04830932617188
2018-10-22,93.61727142333984
2018-10-23,92.55846405029297
2018-10-24,90.13284301757812
2018-10-25,91.83656311035156
2018-10-26,91.67292022705078
2018-10-29,91.5959243774414
2018-10-30,93.48250579833984
2018-10-31,95.50386047363281
2018-11-01,101.47164154052734
2018-11-02,102.45344543457031
2018-11-05,102.23204803466797
2018-11-06,103.75287628173828
2018-11-07,103.94538879394531
2018-11-08,101.90478515625
2018-11-09,98.54549407958984
2018-11-12,94.39692687988281
2018-11-13,95.4845962524414
2018-11-14,96.19689178466797
2018-11-15,98.85350036621094
2018-11-16,97.19794464111328
2018-11-19,95.87923431396484
2018-11-20,92.15419006347656
2018-11-21,91.94242858886719
2018-11-23,93.1456069946289
2018-11-26,92.99160766601562
2018-11-27,91.85579681396484
2018-11-28,93.00123596191406
2018-11-29,92.80872344970703
2018-11-30,92.71247100830078
2018-12-03,94.7723159790039
2018-12-04,89.69969940185547
2018-12-06,87.77460479736328
2018-12-07,85.32974243164062
2018-12-10,85.70511627197266
2018-12-11,85.74363708496094
2018-12-12,85.45487976074219
2018-12-13,84.9669418334961
2018-12-14,82.09735107421875
2018-12-17,77.78813934326172
2018-12-18,78.29054260253906
2018-12-19,77.10214233398438
2018-12-20,73.585205078125
2018-12-21,72.309814453125
2018-12-24,70.65763092041016
2018-12-26,73.70113372802734
2018-12-27,74.60935974121094
2018-12-28,74.14558410644531
2018-12-31,74.46444702148438
2019-01-02,75.46926879882812
2019-01-03,70.23251342773438
2019-01-04,73.66248321533203
2019-01-07,73.99100494384766
2019-01-08,74.71565246582031
2019-01-09,74.24220275878906
2019-01-10,74.65766143798828
2019-01-11,74.79293823242188
2019-01-14,74.36780548095703
2019-01-15,71.150390625
2019-01-16,71.43059539794922
2019-01-17,72.7446060180664
2019-01-18,74.03931427001953
2019-01-22,72.8219223022461
2019-01-23,71.4209213256836
2019-01-24,71.51753234863281
2019-01-25,73.99100494384766
2019-01-28,74.48375701904297
2019-01-29,75.67217254638672
2019-01-30,77.49828338623047
2019-01-31,78.00069427490234
2019-02-01,78.55142211914062
2019-02-04,79.16979217529297
2019-02-05,78.57074737548828
2019-02-06,79.41134643554688
2019-02-07,77.91374969482422
2019-02-08,78.27122497558594
2019-02-11,78.12629699707031
2019-02-12,77.73016357421875
2019-02-13,78.9668960571289
2019-02-14,77.701171875
2019-02-15,78.61905670166016
2019-02-19,80.3195571899414
2019-02-20,80.01036834716797
2019-02-21,86.24231719970703
2019-02-22,86.16502380371094
2019-02-25,88.4742202758789
2019-02-26,87.92350006103516
2019-02-27,89.16021728515625
2019-02-28,88.20368194580078
2019-03-01,87.7205810546875
2019-03-04,85.49834442138672
2019-03-05,84.95728302001953
2019-03-06,83.45002746582031
2019-03-07,81.73986053466797
2019-03-08,80.16496276855469
2019-03-11,82.61908721923828
2019-03-12,82.58043670654297
2019-03-13,83.29544067382812
2019-03-14,82.21641540527344
2019-03-15,82.88594818115234
2019-03-18,83.86598205566406
2019-03-19,82.70159149169922
2019-03-20,81.93502044677734
2019-03-21,82.97327423095703
2019-03-22,80.26603698730469
2019-03-25,79.15986633300781
2019-03-26,78.63587951660156
2019-03-27,77.77228546142578
2019-03-28,78.76202392578125
2019-03-29,79.54800415039062
2019-04-01,81.7021484375
2019-04-02,80.44071197509766
2019-04-03,81.71184539794922
2019-04-04,83.01209259033203
2019-04-05,83.58458709716797
2019-04-08,84.3608627319336
2019-04-09,82.26493835449219
2019-04-10,83.01209259033203
2019-04-11,80.25634765625
2019-04-12,81.17816162109375
2019-04-15,79.8197021484375
2019-04-16,80.74150848388672
2019-04-17,79.66444396972656
2019-04-18,80.12049865722656
2019-04-22,79.73236846923828
2019-04-23,76.70491790771484
2019-04-24,74.52166748046875
2019-04-25,72.64892578125
2019-04-26,73.3184585571289
2019-04-29,73.46399688720703
2019-04-30,72.83328247070312
2019-05-01,71.87266540527344
2019-05-02,73.83273315429688
2019-05-03,74.76425170898438
2019-05-06,74.76425170898438
2019-05-07,73.59984588623047
2019-05-08,70.4268569946289
2019-05-09,70.45597839355469
2019-05-10,70.47537994384766
2019-05-13,66.51641845703125
2019-05-14,68.13687133789062
2019-05-15,67.51585388183594
2019-05-16,67.35089874267578
2019-05-17,65.7498550415039
2019-05-20,65.76924896240234
2019-05-21,66.4678955078125
2019-05-22,65.94391632080078
2019-05-23,64.3719711303711
2019-05-24,64.8183364868164
2019-05-28,65.42964172363281
2019-05-29,63.847999572753906
2019-05-30,63.624813079833984
2019-05-31,61.422157287597656
2019-06-03,63.12024688720703
2019-06-04,65.53638458251953
2019-06-05,65.37142181396484
2019-06-06,66.4290771484375
2019-06-07,67.03068542480469
2019-06-10,68.8258056640625
2019-06-11,71.25164031982422
2019-06-12,70.0387191772461
2019-06-13,70.96331024169922
2019-06-14,69.1297378540039
2019-06-17,69.48084259033203
2019-06-18,69.02244567871094
2019-06-19,67.2376480102539
2019-06-20,67.77406311035156
2019-06-21,66.65245819091797
2019-06-24,66.33060455322266
2019-06-25,66.11604309082031
2019-06-26,67.45220947265625
2019-06-27,67.8033218383789
2019-06-28,68.67134094238281
2019-07-01,68.59332275390625
2019-07-02,68.14468383789062
2019-07-03,69.77345275878906
2019-07-05,68.76886749267578
2019-07-08,68.45677947998047
2019-07-09,68.87616729736328
2019-07-10,68.7493667602539
2019-07-11,68.83714294433594
2019-07-12,70.8365249633789
2019-07-15,70.6317138671875
2019-07-16,71.24615478515625
2019-07-17,70.84627532958984
2019-07-18,71.1973876953125
2019-07-19,72.6310806274414
2019-07-22,71.37294006347656
2019-07-23,72.73837280273438
2019-07-24,73.6649169921875
2019-07-25,72.76763916015625
2019-07-26,72.73837280273438
2019-07-29,71.28516387939453
2019-07-30,71.78257751464844
2019-07-31,71.15837097167969
2019-08-01,67.87158203125
2019-08-02,66.98406219482422
2019-08-05,63.79480743408203
2019-08-06,63.83381271362305
2019-08-07,65.92097473144531
2019-08-08,71.67528533935547
2019-08-09,68.51529693603516
2019-08-12,65.74542236328125
2019-08-13,66.75973510742188
2019-08-14,62.70246887207031
2019-08-15,60.137413024902344
2019-08-16,61.532100677490234
2019-08-19,63.3169059753418
2019-08-20,62.585426330566406
2019-08-21,64.282470703125
2019-08-22,61.65888595581055
2019-08-23,58.469635009765625
2019-08-26,59.30840301513672
2019-08-27,57.83568572998047
2019-08-28,57.855194091796875
2019-08-29,58.996299743652344
2019-08-30,60.205684661865234
2019-09-03,58.742713928222656
2019-09-04,59.79605484008789
2019-09-05,61.415061950683594
2019-09-06,61.668643951416016
2019-09-09,63.74604797363281
2019-09-10,66.59394073486328
2019-09-11,67.53998565673828
2019-09-12,67.93022918701172
2019-09-13,67.93022918701172
2019-09-16,67.4988021850586
2019-09-17,66.43984985351562
2019-09-18,66.08686065673828
2019-09-19,66.95951843261719
2019-09-20,67.5184097290039
2019-09-23,66.89088439941406
2019-09-24,66.56730651855469
2019-09-25,66.96932983398438
2019-09-26,65.88095092773438
2019-09-27,66.81243896484375
2019-09-30,68.16555786132812
2019-10-01,66.97913360595703
2019-10-02,65.27302551269531
2019-10-03,65.92017364501953
2019-10-04,65.02790069580078
2019-10-07,64.4003677368164
2019-10-08,62.45895004272461
2019-10-09,62.36089324951172
2019-10-10,64.18465423583984
2019-10-11,67.56744384765625
2019-10-14,66.2437515258789
2019-10-15,66.5477066040039
2019-10-16,66.26335144042969
2019-10-17,66.89088439941406
2019-10-18,65.82211303710938
2019-10-21,65.92997741699219
2019-10-22,65.4887466430664
2019-10-23,66.14569091796875
2019-10-24,68.09691619873047
2019-10-25,62.35108947753906
2019-10-28,62.4981689453125
2019-10-29,61.80199432373047
2019-10-30,61.44900894165039
2019-10-31,59.55661392211914
2019-11-01,63.23355484008789
2019-11-04,66.3810043334961
2019-11-05,66.05744934082031
2019-11-06,65.42010498046875
2019-11-07,69.99911499023438
2019-11-08,66.65555572509766
2019-11-11,66.41043090820312
2019-11-12,64.03758239746094
2019-11-13,63.91011428833008
2019-11-14,64.26309967041016
2019-11-15,64.85140228271484
2019-11-18,65.7927017211914
2019-11-19,65.16516876220703
2019-11-20,63.782649993896484
2019-11-21,63.86107635498047
2019-11-22,63.63557052612305
2019-11-25,63.870887756347656
2019-11-26,64.31211853027344
2019-11-27,64.22388458251953
2019-11-29,64.106201171875
2019-12-02,63.77284240722656
2019-12-03,62.40991973876953
2019-12-04,61.69414138793945
2019-12-05,62.439334869384766
2019-12-06,63.047264099121094
2019-12-09,63.45907211303711
2019-12-10,64.02777862548828
2019-12-11,64.39056396484375
2019-12-12,67.07062530517578
2019-12-13,65.70001983642578
2019-12-16,65.2760238647461
2019-12-17,67.8101577758789
2019-12-18,67.93834686279297
2019-12-19,68.48066711425781
2019-12-20,69.37797546386719
2019-12-23,71.41908264160156
2019-12-24,71.31061553955078
2019-12-26,71.47824096679688
2019-12-27,71.00495147705078
2019-12-30,70.92606353759766
2019-12-31,72.02056121826172
