Date,AMBA
2012-10-10,6.059999942779541
2012-10-11,6.079999923706055
2012-10-12,6.230000019073486
2012-10-15,6.150000095367432
2012-10-16,6.010000228881836
2012-10-17,6.0
2012-10-18,6.0
2012-10-19,6.0
2012-10-22,6.110000133514404
2012-10-23,6.0
2012-10-24,6.019999980926514
2012-10-25,6.239999771118164
2012-10-26,6.579999923706055
2012-10-31,7.21999979019165
2012-11-01,7.650000095367432
2012-11-02,7.699999809265137
2012-11-05,8.229999542236328
2012-11-06,8.59000015258789
2012-11-07,8.1899995803833
2012-11-08,7.820000171661377
2012-11-09,8.0
2012-11-12,7.730000019073486
2012-11-13,8.0
2012-11-14,7.880000114440918
2012-11-15,8.359999656677246
2012-11-16,8.710000038146973
2012-11-19,9.220000267028809
2012-11-20,9.3100004196167
2012-11-21,9.149999618530273
2012-11-23,9.300000190734863
2012-11-26,8.920000076293945
2012-11-27,8.880000114440918
2012-11-28,8.729999542236328
2012-11-29,8.699999809265137
2012-11-30,8.710000038146973
2012-12-03,8.670000076293945
2012-12-04,8.630000114440918
2012-12-05,8.979999542236328
2012-12-06,9.079999923706055
2012-12-07,9.020000457763672
2012-12-10,8.720000267028809
2012-12-11,8.920000076293945
2012-12-12,9.289999961853027
2012-12-13,9.350000381469727
2012-12-14,9.100000381469727
2012-12-17,10.0
2012-12-18,10.359999656677246
2012-12-19,10.180000305175781
2012-12-20,10.0
2012-12-21,9.760000228881836
2012-12-24,9.59000015258789
2012-12-26,10.0
2012-12-27,10.430000305175781
2012-12-28,11.0
2012-12-31,11.149999618530273
2013-01-02,11.949999809265137
2013-01-03,11.729999542236328
2013-01-04,11.880000114440918
2013-01-07,11.930000305175781
2013-01-08,12.0600004196167
2013-01-09,12.9399995803833
2013-01-10,13.050000190734863
2013-01-11,12.779999732971191
2013-01-14,12.8100004196167
2013-01-15,12.75
2013-01-16,12.600000381469727
2013-01-17,11.449999809265137
2013-01-18,11.670000076293945
2013-01-22,12.1899995803833
2013-01-23,11.989999771118164
2013-01-24,11.630000114440918
2013-01-25,11.84000015258789
2013-01-28,11.569999694824219
2013-01-29,11.520000457763672
2013-01-30,10.15999984741211
2013-01-31,9.960000038146973
2013-02-01,10.479999542236328
2013-02-04,10.239999771118164
2013-02-05,9.979999542236328
2013-02-06,9.989999771118164
2013-02-07,9.979999542236328
2013-02-08,9.729999542236328
2013-02-11,9.420000076293945
2013-02-12,9.699999809265137
2013-02-13,9.680000305175781
2013-02-14,9.510000228881836
2013-02-15,9.800000190734863
2013-02-19,9.869999885559082
2013-02-20,9.489999771118164
2013-02-21,9.3100004196167
2013-02-22,9.489999771118164
2013-02-25,9.59000015258789
2013-02-26,9.739999771118164
2013-02-27,9.75
2013-02-28,9.960000038146973
2013-03-01,10.579999923706055
2013-03-04,10.149999618530273
2013-03-05,10.579999923706055
2013-03-06,11.539999961853027
2013-03-07,11.970000267028809
2013-03-08,13.579999923706055
2013-03-11,13.739999771118164
2013-03-12,12.789999961853027
2013-03-13,13.3100004196167
2013-03-14,13.899999618530273
2013-03-15,13.489999771118164
2013-03-18,12.350000381469727
2013-03-19,12.619999885559082
2013-03-20,12.9399995803833
2013-03-21,12.949999809265137
2013-03-22,12.899999618530273
2013-03-25,14.130000114440918
2013-03-26,15.039999961853027
2013-03-27,14.789999961853027
2013-03-28,15.65999984741211
2013-04-01,14.869999885559082
2013-04-02,14.9399995803833
2013-04-03,13.699999809265137
2013-04-04,14.550000190734863
2013-04-05,14.0
2013-04-08,14.359999656677246
2013-04-09,14.170000076293945
2013-04-10,13.979999542236328
2013-04-11,13.300000190734863
2013-04-12,13.989999771118164
2013-04-15,12.90999984741211
2013-04-16,13.739999771118164
2013-04-17,13.0
2013-04-18,12.420000076293945
2013-04-19,13.3100004196167
2013-04-22,12.960000038146973
2013-04-23,12.989999771118164
2013-04-24,12.989999771118164
2013-04-25,13.90999984741211
2013-04-26,13.739999771118164
2013-04-29,14.1899995803833
2013-04-30,13.699999809265137
2013-05-01,13.4399995803833
2013-05-02,13.899999618530273
2013-05-03,13.960000038146973
2013-05-06,14.699999809265137
2013-05-07,13.770000457763672
2013-05-08,13.789999961853027
2013-05-09,13.8100004196167
2013-05-10,14.329999923706055
2013-05-13,15.119999885559082
2013-05-14,14.149999618530273
2013-05-15,15.210000038146973
2013-05-16,15.1899995803833
2013-05-17,15.239999771118164
2013-05-20,16.790000915527344
2013-05-21,16.899999618530273
2013-05-22,15.720000267028809
2013-05-23,16.190000534057617
2013-05-24,15.489999771118164
2013-05-28,15.670000076293945
2013-05-29,16.290000915527344
2013-05-30,16.170000076293945
2013-05-31,16.170000076293945
2013-06-03,15.710000038146973
2013-06-04,16.190000534057617
2013-06-05,16.649999618530273
2013-06-06,16.350000381469727
2013-06-07,16.530000686645508
2013-06-10,17.399999618530273
2013-06-11,17.440000534057617
2013-06-12,17.040000915527344
2013-06-13,17.040000915527344
2013-06-14,17.469999313354492
2013-06-17,18.139999389648438
2013-06-18,17.90999984741211
2013-06-19,18.15999984741211
2013-06-20,16.93000030517578
2013-06-21,17.06999969482422
2013-06-24,15.949999809265137
2013-06-25,16.469999313354492
2013-06-26,16.40999984741211
2013-06-27,16.18000030517578
2013-06-28,16.829999923706055
2013-07-01,16.969999313354492
2013-07-02,16.889999389648438
2013-07-03,17.06999969482422
2013-07-05,17.229999542236328
2013-07-08,16.979999542236328
2013-07-09,16.899999618530273
2013-07-10,16.889999389648438
2013-07-11,17.799999237060547
2013-07-12,17.790000915527344
2013-07-15,17.8700008392334
2013-07-16,17.649999618530273
2013-07-17,19.239999771118164
2013-07-18,18.59000015258789
2013-07-19,18.959999084472656
2013-07-22,19.239999771118164
2013-07-23,18.719999313354492
2013-07-24,18.239999771118164
2013-07-25,18.459999084472656
2013-07-26,18.360000610351562
2013-07-29,17.520000457763672
2013-07-30,16.139999389648438
2013-07-31,16.600000381469727
2013-08-01,16.030000686645508
2013-08-02,16.75
2013-08-05,16.829999923706055
2013-08-06,16.049999237060547
2013-08-07,15.949999809265137
2013-08-08,16.600000381469727
2013-08-09,16.81999969482422
2013-08-12,16.979999542236328
2013-08-13,16.850000381469727
2013-08-14,16.889999389648438
2013-08-15,16.020000457763672
2013-08-16,16.010000228881836
2013-08-19,15.579999923706055
2013-08-20,16.1200008392334
2013-08-21,15.109999656677246
2013-08-22,14.880000114440918
2013-08-23,15.050000190734863
2013-08-26,13.420000076293945
2013-08-27,14.5600004196167
2013-08-28,14.380000114440918
2013-08-29,14.8100004196167
2013-08-30,14.34000015258789
2013-09-03,14.8100004196167
2013-09-04,15.199999809265137
2013-09-05,15.34000015258789
2013-09-06,16.65999984741211
2013-09-09,17.65999984741211
2013-09-10,17.8700008392334
2013-09-11,17.719999313354492
2013-09-12,17.440000534057617
2013-09-13,17.829999923706055
2013-09-16,17.799999237060547
2013-09-17,17.989999771118164
2013-09-18,17.889999389648438
2013-09-19,17.719999313354492
2013-09-20,17.8799991607666
2013-09-23,17.799999237060547
2013-09-24,17.6200008392334
2013-09-25,19.110000610351562
2013-09-26,19.520000457763672
2013-09-27,19.209999084472656
2013-09-30,19.520000457763672
2013-10-01,20.56999969482422
2013-10-02,19.989999771118164
2013-10-03,19.549999237060547
2013-10-04,19.979999542236328
2013-10-07,19.68000030517578
2013-10-08,19.110000610351562
2013-10-09,18.09000015258789
2013-10-10,19.450000762939453
2013-10-11,19.760000228881836
2013-10-14,19.75
2013-10-15,20.260000228881836
2013-10-16,21.030000686645508
2013-10-17,21.860000610351562
2013-10-18,21.6299991607666
2013-10-21,22.260000228881836
2013-10-22,21.68000030517578
2013-10-23,21.229999542236328
2013-10-24,21.600000381469727
2013-10-25,20.739999771118164
2013-10-28,21.06999969482422
2013-10-29,21.5
2013-10-30,19.90999984741211
2013-10-31,20.549999237060547
2013-11-01,20.1200008392334
2013-11-04,20.969999313354492
2013-11-05,20.579999923706055
2013-11-06,20.610000610351562
2013-11-07,19.700000762939453
2013-11-08,20.540000915527344
2013-11-11,21.850000381469727
2013-11-12,21.510000228881836
2013-11-13,22.31999969482422
2013-11-14,21.780000686645508
2013-11-15,22.290000915527344
2013-11-18,21.969999313354492
2013-11-19,21.549999237060547
2013-11-20,21.540000915527344
2013-11-21,22.940000534057617
2013-11-22,22.450000762939453
2013-11-25,23.790000915527344
2013-11-26,24.420000076293945
2013-11-27,24.790000915527344
2013-11-29,24.799999237060547
2013-12-02,23.690000534057617
2013-12-03,23.56999969482422
2013-12-04,24.020000457763672
2013-12-05,23.979999542236328
2013-12-06,24.719999313354492
2013-12-09,24.940000534057617
2013-12-10,24.959999084472656
2013-12-11,23.719999313354492
2013-12-12,24.5
2013-12-13,24.809999465942383
2013-12-16,24.729999542236328
2013-12-17,24.84000015258789
2013-12-18,24.989999771118164
2013-12-19,25.06999969482422
2013-12-20,27.940000534057617
2013-12-23,28.959999084472656
2013-12-24,28.790000915527344
2013-12-26,30.649999618530273
2013-12-27,31.889999389648438
2013-12-30,32.08000183105469
2013-12-31,33.88999938964844
2014-01-02,33.06999969482422
2014-01-03,34.209999084472656
2014-01-06,34.060001373291016
2014-01-07,35.61000061035156
2014-01-08,32.459999084472656
2014-01-09,32.16999816894531
2014-01-10,29.309999465942383
2014-01-13,28.989999771118164
2014-01-14,31.709999084472656
2014-01-15,32.029998779296875
2014-01-16,32.41999816894531
2014-01-17,31.899999618530273
2014-01-21,32.25
2014-01-22,32.0099983215332
2014-01-23,31.059999465942383
2014-01-24,29.790000915527344
2014-01-27,31.200000762939453
2014-01-28,31.3700008392334
2014-01-29,31.8700008392334
2014-01-30,32.40999984741211
2014-01-31,32.029998779296875
2014-02-03,30.3799991607666
2014-02-04,29.540000915527344
2014-02-05,27.09000015258789
2014-02-06,25.950000762939453
2014-02-07,27.270000457763672
2014-02-10,28.110000610351562
2014-02-11,29.459999084472656
2014-02-12,28.90999984741211
2014-02-13,29.899999618530273
2014-02-14,29.969999313354492
2014-02-18,31.260000228881836
2014-02-19,30.8799991607666
2014-02-20,31.649999618530273
2014-02-21,31.84000015258789
2014-02-24,31.56999969482422
2014-02-25,31.09000015258789
2014-02-26,32.52000045776367
2014-02-27,33.90999984741211
2014-02-28,33.45000076293945
2014-03-03,33.099998474121094
2014-03-04,34.849998474121094
2014-03-05,34.68000030517578
2014-03-06,34.029998779296875
2014-03-07,31.5
2014-03-10,31.25
2014-03-11,29.290000915527344
2014-03-12,29.670000076293945
2014-03-13,28.68000030517578
2014-03-14,27.90999984741211
2014-03-17,28.170000076293945
2014-03-18,29.649999618530273
2014-03-19,28.690000534057617
2014-03-20,29.040000915527344
2014-03-21,27.8799991607666
2014-03-24,27.770000457763672
2014-03-25,28.709999084472656
2014-03-26,26.84000015258789
2014-03-27,26.239999771118164
2014-03-28,26.3700008392334
2014-03-31,26.709999084472656
2014-04-01,26.84000015258789
2014-04-02,26.559999465942383
2014-04-03,27.229999542236328
2014-04-04,27.040000915527344
2014-04-07,26.40999984741211
2014-04-08,26.809999465942383
2014-04-09,27.389999389648438
2014-04-10,27.139999389648438
2014-04-11,26.389999389648438
2014-04-14,26.389999389648438
2014-04-15,26.850000381469727
2014-04-16,26.65999984741211
2014-04-17,27.239999771118164
2014-04-21,27.420000076293945
2014-04-22,27.899999618530273
2014-04-23,27.799999237060547
2014-04-24,27.649999618530273
2014-04-25,26.34000015258789
2014-04-28,25.280000686645508
2014-04-29,25.459999084472656
2014-04-30,24.850000381469727
2014-05-01,24.829999923706055
2014-05-02,24.739999771118164
2014-05-05,23.809999465942383
2014-05-06,23.010000228881836
2014-05-07,22.8700008392334
2014-05-08,22.270000457763672
2014-05-09,22.489999771118164
2014-05-12,23.34000015258789
2014-05-13,23.809999465942383
2014-05-14,23.510000228881836
2014-05-15,23.68000030517578
2014-05-16,24.049999237060547
2014-05-19,24.780000686645508
2014-05-20,23.239999771118164
2014-05-21,24.170000076293945
2014-05-22,25.1200008392334
2014-05-23,25.899999618530273
2014-05-27,26.510000228881836
2014-05-28,26.68000030517578
2014-05-29,26.579999923706055
2014-05-30,25.940000534057617
2014-06-02,24.90999984741211
2014-06-03,24.649999618530273
2014-06-04,24.8700008392334
2014-06-05,25.799999237060547
2014-06-06,26.610000610351562
2014-06-09,26.719999313354492
2014-06-10,26.450000762939453
2014-06-11,26.790000915527344
2014-06-12,26.940000534057617
2014-06-13,26.799999237060547
2014-06-16,27.559999465942383
2014-06-17,28.90999984741211
2014-06-18,28.93000030517578
2014-06-19,29.209999084472656
2014-06-20,29.739999771118164
2014-06-23,30.440000534057617
2014-06-24,31.270000457763672
2014-06-25,32.29999923706055
2014-06-26,31.040000915527344
2014-06-27,31.110000610351562
2014-06-30,31.18000030517578
2014-07-01,31.530000686645508
2014-07-02,32.970001220703125
2014-07-03,32.63999938964844
2014-07-07,31.93000030517578
2014-07-08,30.549999237060547
2014-07-09,31.31999969482422
2014-07-10,30.829999923706055
2014-07-11,30.700000762939453
2014-07-14,31.200000762939453
2014-07-15,30.540000915527344
2014-07-16,30.229999542236328
2014-07-17,29.56999969482422
2014-07-18,30.010000228881836
2014-07-21,29.610000610351562
2014-07-22,29.950000762939453
2014-07-23,29.639999389648438
2014-07-24,30.270000457763672
2014-07-25,29.489999771118164
2014-07-28,28.5
2014-07-29,28.610000610351562
2014-07-30,29.649999618530273
2014-07-31,28.610000610351562
2014-08-01,28.670000076293945
2014-08-04,28.139999389648438
2014-08-05,28.309999465942383
2014-08-06,28.18000030517578
2014-08-07,28.649999618530273
2014-08-08,28.729999542236328
2014-08-11,29.399999618530273
2014-08-12,29.09000015258789
2014-08-13,29.670000076293945
2014-08-14,29.969999313354492
2014-08-15,29.139999389648438
2014-08-18,30.110000610351562
2014-08-19,30.770000457763672
2014-08-20,31.260000228881836
2014-08-21,30.979999542236328
2014-08-22,31.829999923706055
2014-08-25,33.06999969482422
2014-08-26,33.06999969482422
2014-08-27,33.119998931884766
2014-08-28,32.81999969482422
2014-08-29,34.25
2014-09-02,35.25
2014-09-03,35.720001220703125
2014-09-04,35.77000045776367
2014-09-05,36.900001525878906
2014-09-08,38.91999816894531
2014-09-09,37.689998626708984
2014-09-10,37.43000030517578
2014-09-11,37.5
2014-09-12,36.869998931884766
2014-09-15,34.41999816894531
2014-09-16,37.02000045776367
2014-09-17,37.54999923706055
2014-09-18,40.2599983215332
2014-09-19,38.75
2014-09-22,39.59000015258789
2014-09-23,40.97999954223633
2014-09-24,41.099998474121094
2014-09-25,39.72999954223633
2014-09-26,41.790000915527344
2014-09-29,44.470001220703125
2014-09-30,43.66999816894531
2014-10-01,41.5099983215332
2014-10-02,42.099998474121094
2014-10-03,42.04999923706055
2014-10-06,43.75
2014-10-07,41.790000915527344
2014-10-08,43.779998779296875
2014-10-09,41.880001068115234
2014-10-10,36.41999816894531
2014-10-13,35.2400016784668
2014-10-14,35.65999984741211
2014-10-15,38.599998474121094
2014-10-16,38.7599983215332
2014-10-17,38.439998626708984
2014-10-20,39.18000030517578
2014-10-21,41.459999084472656
2014-10-22,40.59000015258789
2014-10-23,41.380001068115234
2014-10-24,41.20000076293945
2014-10-27,39.529998779296875
2014-10-28,41.439998626708984
2014-10-29,42.349998474121094
2014-10-30,41.79999923706055
2014-10-31,44.290000915527344
2014-11-03,47.560001373291016
2014-11-04,45.47999954223633
2014-11-05,44.709999084472656
2014-11-06,46.0099983215332
2014-11-07,47.13999938964844
2014-11-10,49.209999084472656
2014-11-11,49.189998626708984
2014-11-12,49.38999938964844
2014-11-13,47.7400016784668
2014-11-14,47.84000015258789
2014-11-17,48.779998779296875
2014-11-18,49.66999816894531
2014-11-19,49.709999084472656
2014-11-20,50.599998474121094
2014-11-21,49.630001068115234
2014-11-24,51.5099983215332
2014-11-25,51.189998626708984
2014-11-26,54.849998474121094
2014-11-28,55.0
2014-12-01,50.689998626708984
2014-12-02,53.099998474121094
2014-12-03,56.22999954223633
2014-12-04,55.630001068115234
2014-12-05,54.689998626708984
2014-12-08,51.040000915527344
2014-12-09,52.5099983215332
2014-12-10,51.119998931884766
2014-12-11,47.970001220703125
2014-12-12,46.33000183105469
2014-12-15,46.130001068115234
2014-12-16,45.779998779296875
2014-12-17,46.720001220703125
2014-12-18,48.560001373291016
2014-12-19,47.849998474121094
2014-12-22,50.790000915527344
2014-12-23,51.33000183105469
2014-12-24,52.04999923706055
2014-12-26,55.939998626708984
2014-12-29,54.040000915527344
2014-12-30,52.400001525878906
2014-12-31,50.720001220703125
2015-01-02,51.02000045776367
2015-01-05,50.66999816894531
2015-01-06,52.880001068115234
2015-01-07,60.0
2015-01-08,60.0
2015-01-09,61.83000183105469
2015-01-12,61.900001525878906
2015-01-13,60.27000045776367
2015-01-14,57.95000076293945
2015-01-15,53.61000061035156
2015-01-16,56.459999084472656
2015-01-20,59.220001220703125
2015-01-21,59.11000061035156
2015-01-22,58.400001525878906
2015-01-23,56.47999954223633
2015-01-26,57.84000015258789
2015-01-27,57.81999969482422
2015-01-28,57.0
2015-01-29,56.68000030517578
2015-01-30,55.310001373291016
2015-02-02,56.61000061035156
2015-02-03,56.720001220703125
2015-02-04,56.52000045776367
2015-02-05,59.209999084472656
2015-02-06,56.02000045776367
2015-02-09,55.58000183105469
2015-02-10,56.25
2015-02-11,54.84000015258789
2015-02-12,55.16999816894531
2015-02-13,50.709999084472656
2015-02-17,52.650001525878906
2015-02-18,51.68000030517578
2015-02-19,51.369998931884766
2015-02-20,51.75
2015-02-23,54.90999984741211
2015-02-24,57.70000076293945
2015-02-25,56.63999938964844
2015-02-26,58.0099983215332
2015-02-27,57.38999938964844
2015-03-02,61.650001525878906
2015-03-03,63.04999923706055
2015-03-04,67.48999786376953
2015-03-05,64.38999938964844
2015-03-06,64.22000122070312
2015-03-09,66.30999755859375
2015-03-10,66.66000366210938
2015-03-11,67.62000274658203
2015-03-12,67.5199966430664
2015-03-13,68.44000244140625
2015-03-16,69.2699966430664
2015-03-17,67.80999755859375
2015-03-18,68.4800033569336
2015-03-19,69.25
2015-03-20,72.38999938964844
2015-03-23,72.25
2015-03-24,72.72000122070312
2015-03-25,69.55999755859375
2015-03-26,68.51000213623047
2015-03-27,70.3499984741211
2015-03-30,74.61000061035156
2015-03-31,75.70999908447266
2015-04-01,73.97000122070312
2015-04-02,74.0
2015-04-06,73.66000366210938
2015-04-07,72.80999755859375
2015-04-08,74.37999725341797
2015-04-09,75.20999908447266
2015-04-10,75.80000305175781
2015-04-13,75.26000213623047
2015-04-14,74.87000274658203
2015-04-15,74.66999816894531
2015-04-16,74.5999984741211
2015-04-17,72.83999633789062
2015-04-20,74.55999755859375
2015-04-21,74.38999938964844
2015-04-22,74.56999969482422
2015-04-23,73.44999694824219
2015-04-24,72.12999725341797
2015-04-27,70.62999725341797
2015-04-28,72.01000213623047
2015-04-29,75.37000274658203
2015-04-30,73.1500015258789
2015-05-01,76.05000305175781
2015-05-04,75.4000015258789
2015-05-05,72.5199966430664
2015-05-06,73.47000122070312
2015-05-07,73.27999877929688
2015-05-08,72.06999969482422
2015-05-11,71.83000183105469
2015-05-12,72.9000015258789
2015-05-13,73.11000061035156
2015-05-14,75.9000015258789
2015-05-15,79.86000061035156
2015-05-18,81.43000030517578
2015-05-19,83.58000183105469
2015-05-20,86.25
2015-05-21,83.29000091552734
2015-05-22,83.68000030517578
2015-05-26,87.19999694824219
2015-05-27,89.87999725341797
2015-05-28,88.95999908447266
2015-05-29,90.20999908447266
2015-06-01,94.5199966430664
2015-06-02,92.20999908447266
2015-06-03,95.66000366210938
2015-06-04,100.37000274658203
2015-06-05,103.33000183105469
2015-06-08,108.75
2015-06-09,114.04000091552734
2015-06-10,112.94000244140625
2015-06-11,111.5
2015-06-12,118.16000366210938
2015-06-15,117.48999786376953
2015-06-16,117.8499984741211
2015-06-17,122.2300033569336
2015-06-18,126.69999694824219
2015-06-19,119.3499984741211
2015-06-22,94.36000061035156
2015-06-23,102.30000305175781
2015-06-24,101.5999984741211
2015-06-25,104.7300033569336
2015-06-26,101.56999969482422
2015-06-29,100.80999755859375
2015-06-30,102.69000244140625
2015-07-01,101.87999725341797
2015-07-02,101.20999908447266
2015-07-06,101.91000366210938
2015-07-07,100.86000061035156
2015-07-08,97.44999694824219
2015-07-09,96.75
2015-07-10,99.61000061035156
2015-07-13,99.1500015258789
2015-07-14,107.4800033569336
2015-07-15,106.20999908447266
2015-07-16,108.16999816894531
2015-07-17,111.12000274658203
2015-07-20,117.72000122070312
2015-07-21,118.18000030517578
2015-07-22,122.5
2015-07-23,122.98999786376953
2015-07-24,124.2300033569336
2015-07-27,119.44999694824219
2015-07-28,119.26000213623047
2015-07-29,117.72000122070312
2015-07-30,115.80000305175781
2015-07-31,115.87000274658203
2015-08-03,113.0999984741211
2015-08-04,114.6500015258789
2015-08-05,115.05000305175781
2015-08-06,113.27999877929688
2015-08-07,114.9800033569336
2015-08-10,118.20999908447266
2015-08-11,112.94000244140625
2015-08-12,110.05000305175781
2015-08-13,109.16000366210938
2015-08-14,108.62000274658203
2015-08-17,108.72000122070312
2015-08-18,105.31999969482422
2015-08-19,104.63999938964844
2015-08-20,97.04000091552734
2015-08-21,89.76000213623047
2015-08-24,87.58000183105469
2015-08-25,87.0
2015-08-26,89.45999908447266
2015-08-27,90.81999969482422
2015-08-28,96.30999755859375
2015-08-31,95.62999725341797
2015-09-01,89.61000061035156
2015-09-02,81.9800033569336
2015-09-03,73.1500015258789
2015-09-04,73.23999786376953
2015-09-08,72.87000274658203
2015-09-09,68.47000122070312
2015-09-10,70.19000244140625
2015-09-11,64.41000366210938
2015-09-14,66.83000183105469
2015-09-15,71.36000061035156
2015-09-16,70.81999969482422
2015-09-17,73.68000030517578
2015-09-18,71.45999908447266
2015-09-21,66.94000244140625
2015-09-22,66.80000305175781
2015-09-23,62.59000015258789
2015-09-24,63.900001525878906
2015-09-25,58.36000061035156
2015-09-28,55.040000915527344
2015-09-29,55.630001068115234
2015-09-30,57.790000915527344
2015-10-01,57.93000030517578
2015-10-02,58.91999816894531
2015-10-05,60.2599983215332
2015-10-06,61.689998626708984
2015-10-07,61.810001373291016
2015-10-08,56.15999984741211
2015-10-09,57.16999816894531
2015-10-12,57.47999954223633
2015-10-13,56.369998931884766
2015-10-14,55.59000015258789
2015-10-15,57.2400016784668
2015-10-16,56.38999938964844
2015-10-19,57.27000045776367
2015-10-20,56.81999969482422
2015-10-21,53.619998931884766
2015-10-22,52.0
2015-10-23,53.2400016784668
2015-10-26,52.16999816894531
2015-10-27,54.209999084472656
2015-10-28,56.5
2015-10-29,50.380001068115234
2015-10-30,49.439998626708984
2015-11-02,51.84000015258789
2015-11-03,56.959999084472656
2015-11-04,57.02000045776367
2015-11-05,54.779998779296875
2015-11-06,54.310001373291016
2015-11-09,56.90999984741211
2015-11-10,56.630001068115234
2015-11-11,55.349998474121094
2015-11-12,52.38999938964844
2015-11-13,50.349998474121094
2015-11-16,50.849998474121094
2015-11-17,52.7599983215332
2015-11-18,53.41999816894531
2015-11-19,54.97999954223633
2015-11-20,58.470001220703125
2015-11-23,54.849998474121094
2015-11-24,56.31999969482422
2015-11-25,58.27000045776367
2015-11-27,58.470001220703125
2015-11-30,62.810001373291016
2015-12-01,59.709999084472656
2015-12-02,60.459999084472656
2015-12-03,57.880001068115234
2015-12-04,56.93000030517578
2015-12-07,54.54999923706055
2015-12-08,56.470001220703125
2015-12-09,55.9900016784668
2015-12-10,59.0
2015-12-11,57.630001068115234
2015-12-14,56.33000183105469
2015-12-15,57.540000915527344
2015-12-16,56.849998474121094
2015-12-17,56.59000015258789
2015-12-18,57.56999969482422
2015-12-21,58.52000045776367
2015-12-22,57.689998626708984
2015-12-23,59.630001068115234
2015-12-24,58.58000183105469
2015-12-28,58.38999938964844
2015-12-29,57.7599983215332
2015-12-30,56.630001068115234
2015-12-31,55.7400016784668
2016-01-04,54.13999938964844
2016-01-05,54.56999969482422
2016-01-06,55.40999984741211
2016-01-07,50.34000015258789
2016-01-08,45.0
2016-01-11,42.56999969482422
2016-01-12,44.5
2016-01-13,44.59000015258789
2016-01-14,41.93000030517578
2016-01-15,39.54999923706055
2016-01-19,37.06999969482422
2016-01-20,39.33000183105469
2016-01-21,37.33000183105469
2016-01-22,38.209999084472656
2016-01-25,37.08000183105469
2016-01-26,37.220001220703125
2016-01-27,36.43000030517578
2016-01-28,37.40999984741211
2016-01-29,39.68000030517578
2016-02-01,38.20000076293945
2016-02-02,36.86000061035156
2016-02-03,37.43000030517578
2016-02-04,39.349998474121094
2016-02-05,37.43000030517578
2016-02-08,35.040000915527344
2016-02-09,34.63999938964844
2016-02-10,36.45000076293945
2016-02-11,36.29999923706055
2016-02-12,39.06999969482422
2016-02-16,41.72999954223633
2016-02-17,42.84000015258789
2016-02-18,42.439998626708984
2016-02-19,42.59000015258789
2016-02-22,44.310001373291016
2016-02-23,43.41999816894531
2016-02-24,45.060001373291016
2016-02-25,43.58000183105469
2016-02-26,44.08000183105469
2016-02-29,46.400001525878906
2016-03-01,45.939998626708984
2016-03-02,45.2599983215332
2016-03-03,46.2400016784668
2016-03-04,42.11000061035156
2016-03-07,41.36000061035156
2016-03-08,37.88999938964844
2016-03-09,39.38999938964844
2016-03-10,38.43000030517578
2016-03-11,39.20000076293945
2016-03-14,40.2599983215332
2016-03-15,37.66999816894531
2016-03-16,37.61000061035156
2016-03-17,38.9900016784668
2016-03-18,39.91999816894531
2016-03-21,39.150001525878906
2016-03-22,40.75
2016-03-23,39.939998626708984
2016-03-24,40.790000915527344
2016-03-28,40.709999084472656
2016-03-29,44.5
2016-03-30,44.279998779296875
2016-03-31,44.70000076293945
2016-04-01,44.41999816894531
2016-04-04,44.2400016784668
2016-04-05,44.310001373291016
2016-04-06,44.58000183105469
2016-04-07,44.61000061035156
2016-04-08,44.02000045776367
2016-04-11,43.63999938964844
2016-04-12,41.970001220703125
2016-04-13,44.88999938964844
2016-04-14,45.02000045776367
2016-04-15,44.38999938964844
2016-04-18,44.369998931884766
2016-04-19,43.63999938964844
2016-04-20,43.849998474121094
2016-04-21,43.54999923706055
2016-04-22,44.56999969482422
2016-04-25,41.959999084472656
2016-04-26,42.279998779296875
2016-04-27,42.43000030517578
2016-04-28,41.91999816894531
2016-04-29,41.099998474121094
2016-05-02,40.400001525878906
2016-05-03,38.209999084472656
2016-05-04,37.52000045776367
2016-05-05,38.0099983215332
2016-05-06,38.27000045776367
2016-05-09,38.2599983215332
2016-05-10,38.41999816894531
2016-05-11,38.220001220703125
2016-05-12,35.380001068115234
2016-05-13,36.380001068115234
2016-05-16,37.15999984741211
2016-05-17,37.029998779296875
2016-05-18,37.779998779296875
2016-05-19,37.66999816894531
2016-05-20,38.650001525878906
2016-05-23,39.599998474121094
2016-05-24,40.7599983215332
2016-05-25,40.77000045776367
2016-05-26,40.91999816894531
2016-05-27,41.130001068115234
2016-05-31,41.34000015258789
2016-06-01,41.540000915527344
2016-06-02,42.47999954223633
2016-06-03,46.470001220703125
2016-06-06,46.54999923706055
2016-06-07,48.470001220703125
2016-06-08,51.939998626708984
2016-06-09,52.290000915527344
2016-06-10,51.40999984741211
2016-06-13,50.83000183105469
2016-06-14,51.72999954223633
2016-06-15,52.41999816894531
2016-06-16,52.77000045776367
2016-06-17,52.63999938964844
2016-06-20,52.93000030517578
2016-06-21,51.900001525878906
2016-06-22,51.400001525878906
2016-06-23,52.310001373291016
2016-06-24,49.540000915527344
2016-06-27,49.33000183105469
2016-06-28,50.25
2016-06-29,50.130001068115234
2016-06-30,50.810001373291016
2016-07-01,50.68000030517578
2016-07-05,49.43000030517578
2016-07-06,51.029998779296875
2016-07-07,52.22999954223633
2016-07-08,53.790000915527344
2016-07-11,54.59000015258789
2016-07-12,54.869998931884766
2016-07-13,54.66999816894531
2016-07-14,54.38999938964844
2016-07-15,55.02000045776367
2016-07-18,57.439998626708984
2016-07-19,57.5
2016-07-20,57.380001068115234
2016-07-21,56.310001373291016
2016-07-22,56.04999923706055
2016-07-25,57.38999938964844
2016-07-26,58.65999984741211
2016-07-27,58.0
2016-07-28,57.72999954223633
2016-07-29,57.97999954223633
2016-08-01,58.849998474121094
2016-08-02,56.560001373291016
2016-08-03,56.7599983215332
2016-08-04,57.75
2016-08-05,58.59000015258789
2016-08-08,59.25
2016-08-09,61.08000183105469
2016-08-10,60.099998474121094
2016-08-11,61.79999923706055
2016-08-12,64.08999633789062
2016-08-15,66.08999633789062
2016-08-16,65.8499984741211
2016-08-17,66.0999984741211
2016-08-18,63.63999938964844
2016-08-19,65.01000213623047
2016-08-22,65.83999633789062
2016-08-23,67.86000061035156
2016-08-24,68.51000213623047
2016-08-25,68.55999755859375
2016-08-26,68.9800033569336
2016-08-29,70.54000091552734
2016-08-30,72.18000030517578
2016-08-31,72.04000091552734
2016-09-01,71.77999877929688
2016-09-02,66.98999786376953
2016-09-06,68.87999725341797
2016-09-07,67.11000061035156
2016-09-08,67.6500015258789
2016-09-09,63.5099983215332
2016-09-12,66.30999755859375
2016-09-13,65.83000183105469
2016-09-14,67.11000061035156
2016-09-15,68.8499984741211
2016-09-16,68.19999694824219
2016-09-19,68.4000015258789
2016-09-20,66.20999908447266
2016-09-21,67.45999908447266
2016-09-22,68.1500015258789
2016-09-23,67.05000305175781
2016-09-26,66.31999969482422
2016-09-27,68.63999938964844
2016-09-28,68.7699966430664
2016-09-29,70.87000274658203
2016-09-30,73.61000061035156
2016-10-03,73.91000366210938
2016-10-04,73.05000305175781
2016-10-05,72.54000091552734
2016-10-06,71.4800033569336
2016-10-07,69.83999633789062
2016-10-10,69.08999633789062
2016-10-11,63.90999984741211
2016-10-12,63.0099983215332
2016-10-13,63.20000076293945
2016-10-14,62.689998626708984
2016-10-17,62.7400016784668
2016-10-18,64.36000061035156
2016-10-19,63.59000015258789
2016-10-20,62.86000061035156
2016-10-21,62.439998626708984
2016-10-24,63.040000915527344
2016-10-25,62.7400016784668
2016-10-26,62.5
2016-10-27,61.38999938964844
2016-10-28,61.279998779296875
2016-10-31,61.369998931884766
2016-11-01,61.349998474121094
2016-11-02,56.79999923706055
2016-11-03,56.27000045776367
2016-11-04,57.90999984741211
2016-11-07,58.630001068115234
2016-11-08,56.939998626708984
2016-11-09,57.27000045776367
2016-11-10,57.5099983215332
2016-11-11,59.65999984741211
2016-11-14,60.040000915527344
2016-11-15,62.20000076293945
2016-11-16,61.75
2016-11-17,62.220001220703125
2016-11-18,61.880001068115234
2016-11-21,62.15999984741211
2016-11-22,62.279998779296875
2016-11-23,65.36000061035156
2016-11-25,63.310001373291016
2016-11-28,63.619998931884766
2016-11-29,62.59000015258789
2016-11-30,61.52000045776367
2016-12-01,61.38999938964844
2016-12-02,54.470001220703125
2016-12-05,57.060001373291016
2016-12-06,57.209999084472656
2016-12-07,56.66999816894531
2016-12-08,55.58000183105469
2016-12-09,54.459999084472656
2016-12-12,53.04999923706055
2016-12-13,53.72999954223633
2016-12-14,54.09000015258789
2016-12-15,54.689998626708984
2016-12-16,54.0099983215332
2016-12-19,54.529998779296875
2016-12-20,54.83000183105469
2016-12-21,54.599998474121094
2016-12-22,54.34000015258789
2016-12-23,55.459999084472656
2016-12-27,54.619998931884766
2016-12-28,54.11000061035156
2016-12-29,54.27000045776367
2016-12-30,54.130001068115234
2017-01-03,52.540000915527344
2017-01-04,53.619998931884766
2017-01-05,56.34000015258789
2017-01-06,54.619998931884766
2017-01-09,53.77000045776367
2017-01-10,53.709999084472656
2017-01-11,51.0
2017-01-12,50.810001373291016
2017-01-13,51.63999938964844
2017-01-17,49.56999969482422
2017-01-18,49.41999816894531
2017-01-19,48.650001525878906
2017-01-20,48.86000061035156
2017-01-23,48.59000015258789
2017-01-24,50.9900016784668
2017-01-25,52.04999923706055
2017-01-26,51.0
2017-01-27,50.06999969482422
2017-01-30,49.779998779296875
2017-01-31,49.61000061035156
2017-02-01,50.040000915527344
2017-02-02,50.54999923706055
2017-02-03,51.58000183105469
2017-02-06,52.04999923706055
2017-02-07,53.630001068115234
2017-02-08,53.7599983215332
2017-02-09,54.810001373291016
2017-02-10,54.52000045776367
2017-02-13,54.29999923706055
2017-02-14,55.04999923706055
2017-02-15,55.779998779296875
2017-02-16,55.2400016784668
2017-02-17,55.470001220703125
2017-02-21,57.709999084472656
2017-02-22,57.63999938964844
2017-02-23,57.029998779296875
2017-02-24,58.72999954223633
2017-02-27,59.779998779296875
2017-02-28,58.95000076293945
2017-03-01,56.34000015258789
2017-03-02,56.720001220703125
2017-03-03,55.599998474121094
2017-03-06,55.619998931884766
2017-03-07,53.91999816894531
2017-03-08,53.97999954223633
2017-03-09,53.029998779296875
2017-03-10,52.79999923706055
2017-03-13,56.66999816894531
2017-03-14,55.95000076293945
2017-03-15,55.709999084472656
2017-03-16,55.97999954223633
2017-03-17,56.34000015258789
2017-03-20,57.63999938964844
2017-03-21,55.130001068115234
2017-03-22,54.58000183105469
2017-03-23,54.38999938964844
2017-03-24,54.689998626708984
2017-03-27,56.060001373291016
2017-03-28,55.79999923706055
2017-03-29,55.400001525878906
2017-03-30,55.540000915527344
2017-03-31,54.709999084472656
2017-04-03,55.13999938964844
2017-04-04,54.209999084472656
2017-04-05,54.72999954223633
2017-04-06,54.900001525878906
2017-04-07,54.529998779296875
2017-04-10,53.86000061035156
2017-04-11,53.04999923706055
2017-04-12,51.63999938964844
2017-04-13,50.709999084472656
2017-04-17,50.45000076293945
2017-04-18,50.369998931884766
2017-04-19,52.02000045776367
2017-04-20,52.79999923706055
2017-04-21,53.349998474121094
2017-04-24,54.849998474121094
2017-04-25,55.84000015258789
2017-04-26,55.439998626708984
2017-04-27,56.95000076293945
2017-04-28,56.220001220703125
2017-05-01,57.45000076293945
2017-05-02,57.45000076293945
2017-05-03,56.86000061035156
2017-05-04,57.060001373291016
2017-05-05,58.2400016784668
2017-05-08,57.43000030517578
2017-05-09,57.97999954223633
2017-05-10,59.560001373291016
2017-05-11,59.72999954223633
2017-05-12,59.91999816894531
2017-05-15,61.619998931884766
2017-05-16,63.59000015258789
2017-05-17,60.0099983215332
2017-05-18,61.09000015258789
2017-05-19,63.029998779296875
2017-05-22,64.05000305175781
2017-05-23,63.13999938964844
2017-05-24,64.3499984741211
2017-05-25,64.93000030517578
2017-05-26,65.05000305175781
2017-05-30,60.2599983215332
2017-05-31,58.540000915527344
2017-06-01,58.4900016784668
2017-06-02,59.220001220703125
2017-06-05,58.95000076293945
2017-06-06,59.720001220703125
2017-06-07,53.599998474121094
2017-06-08,54.36000061035156
2017-06-09,51.72999954223633
2017-06-12,50.779998779296875
2017-06-13,50.970001220703125
2017-06-14,49.470001220703125
2017-06-15,48.91999816894531
2017-06-16,48.81999969482422
2017-06-19,49.470001220703125
2017-06-20,48.97999954223633
2017-06-21,48.79999923706055
2017-06-22,49.290000915527344
2017-06-23,49.220001220703125
2017-06-26,49.709999084472656
2017-06-27,48.54999923706055
2017-06-28,50.029998779296875
2017-06-29,49.20000076293945
2017-06-30,48.54999923706055
2017-07-03,47.959999084472656
2017-07-05,48.81999969482422
2017-07-06,48.650001525878906
2017-07-07,48.61000061035156
2017-07-10,50.040000915527344
2017-07-11,50.63999938964844
2017-07-12,50.790000915527344
2017-07-13,51.7599983215332
2017-07-14,51.599998474121094
2017-07-17,51.02000045776367
2017-07-18,51.150001525878906
2017-07-19,51.369998931884766
2017-07-20,51.349998474121094
2017-07-21,50.720001220703125
2017-07-24,50.09000015258789
2017-07-25,50.65999984741211
2017-07-26,50.61000061035156
2017-07-27,49.529998779296875
2017-07-28,50.04999923706055
2017-07-31,50.04999923706055
2017-08-01,51.400001525878906
2017-08-02,50.650001525878906
2017-08-03,50.459999084472656
2017-08-04,50.900001525878906
2017-08-07,51.279998779296875
2017-08-08,52.2599983215332
2017-08-09,51.65999984741211
2017-08-10,50.529998779296875
2017-08-11,50.70000076293945
2017-08-14,51.959999084472656
2017-08-15,51.43000030517578
2017-08-16,50.810001373291016
2017-08-17,50.599998474121094
2017-08-18,50.63999938964844
2017-08-21,49.38999938964844
2017-08-22,51.66999816894531
2017-08-23,53.29999923706055
2017-08-24,52.439998626708984
2017-08-25,52.97999954223633
2017-08-28,54.79999923706055
2017-08-29,54.22999954223633
2017-08-30,54.08000183105469
2017-08-31,54.400001525878906
2017-09-01,42.2400016784668
2017-09-05,40.599998474121094
2017-09-06,41.58000183105469
2017-09-07,42.939998626708984
2017-09-08,43.439998626708984
2017-09-11,44.59000015258789
2017-09-12,46.33000183105469
2017-09-13,46.18000030517578
2017-09-14,45.459999084472656
2017-09-15,46.43000030517578
2017-09-18,46.560001373291016
2017-09-19,46.439998626708984
2017-09-20,46.150001525878906
2017-09-21,45.83000183105469
2017-09-22,46.959999084472656
2017-09-25,46.27000045776367
2017-09-26,45.599998474121094
2017-09-27,48.56999969482422
2017-09-28,48.470001220703125
2017-09-29,49.0099983215332
2017-10-02,48.70000076293945
2017-10-03,49.29999923706055
2017-10-04,49.5
2017-10-05,48.65999984741211
2017-10-06,49.72999954223633
2017-10-09,50.349998474121094
2017-10-10,50.93000030517578
2017-10-11,51.5099983215332
2017-10-12,51.459999084472656
2017-10-13,54.70000076293945
2017-10-16,54.08000183105469
2017-10-17,53.83000183105469
2017-10-18,53.029998779296875
2017-10-19,52.7400016784668
2017-10-20,52.849998474121094
2017-10-23,54.25
2017-10-24,54.08000183105469
2017-10-25,53.709999084472656
2017-10-26,54.400001525878906
2017-10-27,54.939998626708984
2017-10-30,54.7400016784668
2017-10-31,56.439998626708984
2017-11-01,56.380001068115234
2017-11-02,55.08000183105469
2017-11-03,55.849998474121094
2017-11-06,58.0099983215332
2017-11-07,56.02000045776367
2017-11-08,57.349998474121094
2017-11-09,56.41999816894531
2017-11-10,56.45000076293945
2017-11-13,55.310001373291016
2017-11-14,54.68000030517578
2017-11-15,53.599998474121094
2017-11-16,54.29999923706055
2017-11-17,53.709999084472656
2017-11-20,56.27000045776367
2017-11-21,56.97999954223633
2017-11-22,57.709999084472656
2017-11-24,58.439998626708984
2017-11-27,57.5099983215332
2017-11-28,55.619998931884766
2017-11-29,54.459999084472656
2017-11-30,54.27000045776367
2017-12-01,62.029998779296875
2017-12-04,59.33000183105469
2017-12-05,57.56999969482422
2017-12-06,57.09000015258789
2017-12-07,58.13999938964844
2017-12-08,59.0
2017-12-11,58.810001373291016
2017-12-12,57.849998474121094
2017-12-13,58.41999816894531
2017-12-14,57.560001373291016
2017-12-15,56.5099983215332
2017-12-18,58.16999816894531
2017-12-19,58.099998474121094
2017-12-20,58.5099983215332
2017-12-21,59.060001373291016
2017-12-22,58.9900016784668
2017-12-26,59.88999938964844
2017-12-27,59.029998779296875
2017-12-28,59.5
2017-12-29,58.75
2018-01-02,62.33000183105469
2018-01-03,64.47000122070312
2018-01-04,63.29999923706055
2018-01-05,63.619998931884766
2018-01-08,62.65999984741211
2018-01-09,60.209999084472656
2018-01-10,54.91999816894531
2018-01-11,54.66999816894531
2018-01-12,54.91999816894531
2018-01-16,53.689998626708984
2018-01-17,53.79999923706055
2018-01-18,52.599998474121094
2018-01-19,51.380001068115234
2018-01-22,51.7400016784668
2018-01-23,52.52000045776367
2018-01-24,49.959999084472656
2018-01-25,50.099998474121094
2018-01-26,50.25
2018-01-29,48.189998626708984
2018-01-30,50.79999923706055
2018-01-31,50.400001525878906
2018-02-01,49.7400016784668
2018-02-02,48.150001525878906
2018-02-05,47.38999938964844
2018-02-06,47.79999923706055
2018-02-07,47.599998474121094
2018-02-08,46.20000076293945
2018-02-09,48.18000030517578
2018-02-12,47.5
2018-02-13,47.380001068115234
2018-02-14,48.72999954223633
2018-02-15,49.040000915527344
2018-02-16,48.27000045776367
2018-02-20,49.22999954223633
2018-02-21,48.52000045776367
2018-02-22,48.38999938964844
2018-02-23,48.88999938964844
2018-02-26,49.54999923706055
2018-02-27,48.540000915527344
2018-02-28,48.08000183105469
2018-03-01,45.66999816894531
2018-03-02,51.81999969482422
2018-03-05,49.90999984741211
2018-03-06,51.599998474121094
2018-03-07,52.380001068115234
2018-03-08,53.36000061035156
2018-03-09,54.310001373291016
2018-03-12,55.0
2018-03-13,53.11000061035156
2018-03-14,54.13999938964844
2018-03-15,53.369998931884766
2018-03-16,54.2400016784668
2018-03-19,52.86000061035156
2018-03-20,53.970001220703125
2018-03-21,54.25
2018-03-22,51.31999969482422
2018-03-23,50.0
2018-03-26,51.130001068115234
2018-03-27,49.36000061035156
2018-03-28,49.97999954223633
2018-03-29,48.9900016784668
2018-04-02,46.939998626708984
2018-04-03,47.0
2018-04-04,46.93000030517578
2018-04-05,46.47999954223633
2018-04-06,44.45000076293945
2018-04-09,44.40999984741211
2018-04-10,46.150001525878906
2018-04-11,50.84000015258789
2018-04-12,51.689998626708984
2018-04-13,52.099998474121094
2018-04-16,51.65999984741211
2018-04-17,51.33000183105469
2018-04-18,49.56999969482422
2018-04-19,48.52000045776367
2018-04-20,50.59000015258789
2018-04-23,47.4900016784668
2018-04-24,46.5099983215332
2018-04-25,46.04999923706055
2018-04-26,47.75
2018-04-27,46.75
2018-04-30,46.59000015258789
2018-05-01,47.36000061035156
2018-05-02,48.45000076293945
2018-05-03,48.470001220703125
2018-05-04,48.95000076293945
2018-05-07,49.83000183105469
2018-05-08,50.560001373291016
2018-05-09,52.09000015258789
2018-05-10,52.470001220703125
2018-05-11,51.75
2018-05-14,51.7599983215332
2018-05-15,50.72999954223633
2018-05-16,54.40999984741211
2018-05-17,49.68000030517578
2018-05-18,50.459999084472656
2018-05-21,49.77000045776367
2018-05-22,50.849998474121094
2018-05-23,50.779998779296875
2018-05-24,50.400001525878906
2018-05-25,50.29999923706055
2018-05-29,49.79999923706055
2018-05-30,49.810001373291016
2018-05-31,48.86000061035156
2018-06-01,49.150001525878906
2018-06-04,49.560001373291016
2018-06-05,49.38999938964844
2018-06-06,43.0
2018-06-07,43.349998474121094
2018-06-08,42.65999984741211
2018-06-11,43.38999938964844
2018-06-12,43.15999984741211
2018-06-13,43.220001220703125
2018-06-14,42.65999984741211
2018-06-15,43.630001068115234
2018-06-18,43.58000183105469
2018-06-19,43.119998931884766
2018-06-20,44.31999969482422
2018-06-21,43.68000030517578
2018-06-22,43.2400016784668
2018-06-25,41.88999938964844
2018-06-26,41.970001220703125
2018-06-27,40.09000015258789
2018-06-28,38.790000915527344
2018-06-29,38.61000061035156
2018-07-02,38.09000015258789
2018-07-03,37.97999954223633
2018-07-05,39.040000915527344
2018-07-06,39.7599983215332
2018-07-09,40.540000915527344
2018-07-10,40.43000030517578
2018-07-11,38.709999084472656
2018-07-12,39.029998779296875
2018-07-13,37.90999984741211
2018-07-16,37.619998931884766
2018-07-17,38.5099983215332
2018-07-18,39.11000061035156
2018-07-19,39.7599983215332
2018-07-20,38.790000915527344
2018-07-23,39.25
2018-07-24,38.540000915527344
2018-07-25,39.349998474121094
2018-07-26,39.58000183105469
2018-07-27,38.75
2018-07-30,38.310001373291016
2018-07-31,39.18000030517578
2018-08-01,39.029998779296875
2018-08-02,39.5099983215332
2018-08-03,38.619998931884766
2018-08-06,39.16999816894531
2018-08-07,39.75
2018-08-08,39.45000076293945
2018-08-09,39.56999969482422
2018-08-10,38.720001220703125
2018-08-13,37.849998474121094
2018-08-14,37.939998626708984
2018-08-15,37.7400016784668
2018-08-16,37.97999954223633
2018-08-17,38.029998779296875
2018-08-20,38.2599983215332
2018-08-21,38.349998474121094
2018-08-22,38.84000015258789
2018-08-23,38.7599983215332
2018-08-24,39.25
2018-08-27,39.650001525878906
2018-08-28,39.439998626708984
2018-08-29,40.06999969482422
2018-08-30,39.75
2018-08-31,38.310001373291016
2018-09-04,38.11000061035156
2018-09-05,38.90999984741211
2018-09-06,40.63999938964844
2018-09-07,38.869998931884766
2018-09-10,38.689998626708984
2018-09-11,40.220001220703125
2018-09-12,40.099998474121094
2018-09-13,39.0
2018-09-14,38.0
2018-09-17,36.130001068115234
2018-09-18,35.54999923706055
2018-09-19,36.47999954223633
2018-09-20,37.72999954223633
2018-09-21,38.47999954223633
2018-09-24,38.54999923706055
2018-09-25,37.869998931884766
2018-09-26,38.029998779296875
2018-09-27,38.5099983215332
2018-09-28,38.68000030517578
2018-10-01,38.68000030517578
2018-10-02,38.029998779296875
2018-10-03,37.31999969482422
2018-10-04,36.380001068115234
2018-10-05,35.08000183105469
2018-10-08,34.689998626708984
2018-10-09,33.900001525878906
2018-10-10,31.84000015258789
2018-10-11,32.86000061035156
2018-10-12,33.65999984741211
2018-10-15,34.20000076293945
2018-10-16,35.63999938964844
2018-10-17,35.56999969482422
2018-10-18,33.86000061035156
2018-10-19,32.810001373291016
2018-10-22,33.4900016784668
2018-10-23,34.779998779296875
2018-10-24,33.11000061035156
2018-10-25,34.09000015258789
2018-10-26,33.29999923706055
2018-10-29,33.29999923706055
2018-10-30,34.29999923706055
2018-10-31,34.779998779296875
2018-11-01,36.31999969482422
2018-11-02,36.34000015258789
2018-11-05,35.650001525878906
2018-11-06,36.029998779296875
2018-11-07,36.2400016784668
2018-11-08,36.630001068115234
2018-11-09,35.0
2018-11-12,33.869998931884766
2018-11-13,34.709999084472656
2018-11-14,33.65999984741211
2018-11-15,34.70000076293945
2018-11-16,33.27000045776367
2018-11-19,31.850000381469727
2018-11-20,32.22999954223633
2018-11-21,32.650001525878906
2018-11-23,33.560001373291016
2018-11-26,33.93000030517578
2018-11-27,33.34000015258789
2018-11-28,34.650001525878906
2018-11-29,33.75
2018-11-30,39.9900016784668
2018-12-03,42.349998474121094
2018-12-04,40.20000076293945
2018-12-06,39.400001525878906
2018-12-07,38.09000015258789
2018-12-10,38.68000030517578
2018-12-11,39.04999923706055
2018-12-12,39.02000045776367
2018-12-13,38.08000183105469
2018-12-14,37.61000061035156
2018-12-17,37.08000183105469
2018-12-18,37.650001525878906
2018-12-19,36.5099983215332
2018-12-20,35.470001220703125
2018-12-21,34.33000183105469
2018-12-24,33.310001373291016
2018-12-26,34.7400016784668
2018-12-27,35.20000076293945
2018-12-28,35.18000030517578
2018-12-31,34.97999954223633
2019-01-02,36.029998779296875
2019-01-03,34.369998931884766
2019-01-04,36.11000061035156
2019-01-07,36.77000045776367
2019-01-08,36.58000183105469
2019-01-09,36.9900016784668
2019-01-10,37.66999816894531
2019-01-11,37.849998474121094
2019-01-14,36.220001220703125
2019-01-15,35.880001068115234
2019-01-16,35.20000076293945
2019-01-17,35.70000076293945
2019-01-18,36.33000183105469
2019-01-22,35.709999084472656
2019-01-23,36.0
2019-01-24,37.220001220703125
2019-01-25,38.41999816894531
2019-01-28,38.02000045776367
2019-01-29,37.130001068115234
2019-01-30,38.08000183105469
2019-01-31,38.0
2019-02-01,38.16999816894531
2019-02-04,38.20000076293945
2019-02-05,38.58000183105469
2019-02-06,39.529998779296875
2019-02-07,37.849998474121094
2019-02-08,37.470001220703125
2019-02-11,38.38999938964844
2019-02-12,39.31999969482422
2019-02-13,39.2400016784668
2019-02-14,39.40999984741211
2019-02-15,39.529998779296875
2019-02-19,39.279998779296875
2019-02-20,39.83000183105469
2019-02-21,39.70000076293945
2019-02-22,40.7400016784668
2019-02-25,41.380001068115234
2019-02-26,40.93000030517578
2019-02-27,40.439998626708984
2019-02-28,40.369998931884766
2019-03-01,40.02000045776367
2019-03-04,40.119998931884766
2019-03-05,40.540000915527344
2019-03-06,42.060001373291016
2019-03-07,42.130001068115234
2019-03-08,40.619998931884766
2019-03-11,43.65999984741211
2019-03-12,43.880001068115234
2019-03-13,43.77000045776367
2019-03-14,43.470001220703125
2019-03-15,43.75
2019-03-18,42.9900016784668
2019-03-19,43.65999984741211
2019-03-20,43.04999923706055
2019-03-21,44.38999938964844
2019-03-22,42.54999923706055
2019-03-25,42.34000015258789
2019-03-26,42.810001373291016
2019-03-27,42.70000076293945
2019-03-28,42.709999084472656
2019-03-29,43.20000076293945
2019-04-01,43.65999984741211
2019-04-02,43.279998779296875
2019-04-03,44.84000015258789
2019-04-04,44.5
2019-04-05,44.880001068115234
2019-04-08,45.47999954223633
2019-04-09,45.27000045776367
2019-04-10,45.880001068115234
2019-04-11,46.540000915527344
2019-04-12,47.689998626708984
2019-04-15,46.7400016784668
2019-04-16,49.31999969482422
2019-04-17,49.22999954223633
2019-04-18,48.63999938964844
2019-04-22,49.810001373291016
2019-04-23,50.47999954223633
2019-04-24,51.27000045776367
2019-04-25,50.439998626708984
2019-04-26,49.52000045776367
2019-04-29,49.16999816894531
2019-04-30,50.119998931884766
2019-05-01,49.90999984741211
2019-05-02,50.72999954223633
2019-05-03,51.130001068115234
2019-05-06,49.849998474121094
2019-05-07,48.65999984741211
2019-05-08,48.560001373291016
2019-05-09,47.70000076293945
2019-05-10,48.310001373291016
2019-05-13,45.13999938964844
2019-05-14,47.650001525878906
2019-05-15,48.56999969482422
2019-05-16,47.15999984741211
2019-05-17,45.41999816894531
2019-05-20,44.56999969482422
2019-05-21,44.25
2019-05-22,39.20000076293945
2019-05-23,37.209999084472656
2019-05-24,38.2400016784668
2019-05-28,37.540000915527344
2019-05-29,37.43000030517578
2019-05-30,38.439998626708984
2019-05-31,37.90999984741211
2019-06-03,38.11000061035156
2019-06-04,39.75
2019-06-05,39.779998779296875
2019-06-06,38.970001220703125
2019-06-07,38.959999084472656
2019-06-10,41.470001220703125
2019-06-11,42.29999923706055
2019-06-12,42.150001525878906
2019-06-13,42.09000015258789
2019-06-14,41.380001068115234
2019-06-17,41.70000076293945
2019-06-18,43.380001068115234
2019-06-19,43.720001220703125
2019-06-20,43.970001220703125
2019-06-21,44.45000076293945
2019-06-24,43.869998931884766
2019-06-25,44.0
2019-06-26,44.27000045776367
2019-06-27,44.310001373291016
2019-06-28,44.130001068115234
2019-07-01,44.970001220703125
2019-07-02,44.459999084472656
2019-07-03,44.45000076293945
2019-07-05,44.5
2019-07-08,44.880001068115234
2019-07-09,45.22999954223633
2019-07-10,45.189998626708984
2019-07-11,44.79999923706055
2019-07-12,46.27000045776367
2019-07-15,46.279998779296875
2019-07-16,46.560001373291016
2019-07-17,46.900001525878906
2019-07-18,47.529998779296875
2019-07-19,48.220001220703125
2019-07-22,48.41999816894531
2019-07-23,48.720001220703125
2019-07-24,50.06999969482422
2019-07-25,49.75
2019-07-26,49.59000015258789
2019-07-29,49.75
2019-07-30,50.43000030517578
2019-07-31,49.95000076293945
2019-08-01,47.560001373291016
2019-08-02,46.630001068115234
2019-08-05,44.59000015258789
2019-08-06,45.560001373291016
2019-08-07,45.79999923706055
2019-08-08,46.790000915527344
2019-08-09,45.31999969482422
2019-08-12,44.58000183105469
2019-08-13,45.75
2019-08-14,44.56999969482422
2019-08-15,44.599998474121094
2019-08-16,45.630001068115234
2019-08-19,46.470001220703125
2019-08-20,46.400001525878906
2019-08-21,47.209999084472656
2019-08-22,46.70000076293945
2019-08-23,44.650001525878906
2019-08-26,45.45000076293945
2019-08-27,43.72999954223633
2019-08-28,45.119998931884766
2019-08-29,47.369998931884766
2019-08-30,55.869998931884766
2019-09-03,58.290000915527344
2019-09-04,59.099998474121094
2019-09-05,60.22999954223633
2019-09-06,62.52000045776367
2019-09-09,64.94999694824219
2019-09-10,63.7599983215332
2019-09-11,66.30000305175781
2019-09-12,65.29000091552734
2019-09-13,64.91000366210938
2019-09-16,64.69000244140625
2019-09-17,64.4800033569336
2019-09-18,64.51000213623047
2019-09-19,64.66000366210938
2019-09-20,63.7599983215332
2019-09-23,64.66000366210938
2019-09-24,63.65999984741211
2019-09-25,63.56999969482422
2019-09-26,62.47999954223633
2019-09-27,62.11000061035156
2019-09-30,62.84000015258789
2019-10-01,59.529998779296875
2019-10-02,56.880001068115234
2019-10-03,57.599998474121094
2019-10-04,58.09000015258789
2019-10-07,57.220001220703125
2019-10-08,51.790000915527344
2019-10-09,51.880001068115234
2019-10-10,52.380001068115234
2019-10-11,53.599998474121094
2019-10-14,53.060001373291016
2019-10-15,54.70000076293945
2019-10-16,53.599998474121094
2019-10-17,54.36000061035156
2019-10-18,53.65999984741211
2019-10-21,54.11000061035156
2019-10-22,53.75
2019-10-23,53.119998931884766
2019-10-24,53.16999816894531
2019-10-25,52.970001220703125
2019-10-28,53.599998474121094
2019-10-29,52.869998931884766
2019-10-30,53.220001220703125
2019-10-31,52.630001068115234
2019-11-01,53.099998474121094
2019-11-04,53.36000061035156
2019-11-05,56.27000045776367
2019-11-06,55.189998626708984
2019-11-07,55.619998931884766
2019-11-08,56.099998474121094
2019-11-11,57.529998779296875
2019-11-12,58.45000076293945
2019-11-13,57.630001068115234
2019-11-14,57.72999954223633
2019-11-15,58.38999938964844
2019-11-18,57.529998779296875
2019-11-19,56.709999084472656
2019-11-20,55.619998931884766
2019-11-21,54.45000076293945
2019-11-22,54.720001220703125
2019-11-25,58.029998779296875
2019-11-26,53.790000915527344
2019-11-27,55.209999084472656
2019-11-29,54.7400016784668
2019-12-02,52.630001068115234
2019-12-03,51.5
2019-12-04,52.58000183105469
2019-12-05,52.619998931884766
2019-12-06,53.720001220703125
2019-12-09,51.290000915527344
2019-12-10,52.52000045776367
2019-12-11,54.619998931884766
2019-12-12,55.09000015258789
2019-12-13,54.970001220703125
2019-12-16,56.56999969482422
2019-12-17,56.470001220703125
2019-12-18,56.86000061035156
2019-12-19,57.439998626708984
2019-12-20,57.970001220703125
2019-12-23,58.43000030517578
2019-12-24,59.130001068115234
2019-12-26,60.849998474121094
2019-12-27,59.90999984741211
2019-12-30,60.54999923706055
2019-12-31,60.560001373291016
