Date,AMKR
2007-12-31,8.529999732971191
2008-01-02,8.279999732971191
2008-01-03,8.029999732971191
2008-01-04,7.559999942779541
2008-01-07,7.210000038146973
2008-01-08,7.139999866485596
2008-01-09,7.059999942779541
2008-01-10,6.980000019073486
2008-01-11,6.570000171661377
2008-01-14,6.880000114440918
2008-01-15,6.820000171661377
2008-01-16,6.659999847412109
2008-01-17,6.570000171661377
2008-01-18,6.659999847412109
2008-01-22,6.550000190734863
2008-01-23,6.690000057220459
2008-01-24,7.010000228881836
2008-01-25,6.980000019073486
2008-01-28,7.230000019073486
2008-01-29,7.360000133514404
2008-01-30,7.309999942779541
2008-01-31,7.639999866485596
2008-02-01,7.909999847412109
2008-02-04,8.140000343322754
2008-02-05,8.039999961853027
2008-02-06,7.71999979019165
2008-02-07,7.940000057220459
2008-02-08,8.229999542236328
2008-02-11,8.140000343322754
2008-02-12,8.520000457763672
2008-02-13,9.399999618530273
2008-02-14,10.670000076293945
2008-02-15,11.260000228881836
2008-02-19,11.289999961853027
2008-02-20,11.960000038146973
2008-02-21,11.710000038146973
2008-02-22,11.890000343322754
2008-02-25,11.890000343322754
2008-02-26,12.010000228881836
2008-02-27,12.380000114440918
2008-02-28,12.270000457763672
2008-02-29,11.710000038146973
2008-03-03,11.40999984741211
2008-03-04,11.420000076293945
2008-03-05,11.829999923706055
2008-03-06,11.430000305175781
2008-03-07,11.510000228881836
2008-03-10,11.460000038146973
2008-03-11,11.649999618530273
2008-03-12,11.329999923706055
2008-03-13,11.84000015258789
2008-03-14,11.600000381469727
2008-03-17,11.369999885559082
2008-03-18,12.0600004196167
2008-03-19,11.239999771118164
2008-03-20,11.010000228881836
2008-03-24,11.640000343322754
2008-03-25,11.460000038146973
2008-03-26,11.289999961853027
2008-03-27,10.850000381469727
2008-03-28,10.8100004196167
2008-03-31,10.699999809265137
2008-04-01,10.9399995803833
2008-04-02,11.020000457763672
2008-04-03,11.039999961853027
2008-04-04,10.40999984741211
2008-04-07,10.25
2008-04-08,10.010000228881836
2008-04-09,9.710000038146973
2008-04-10,9.5
2008-04-11,9.15999984741211
2008-04-14,9.350000381469727
2008-04-15,9.079999923706055
2008-04-16,9.3100004196167
2008-04-17,8.819999694824219
2008-04-18,8.760000228881836
2008-04-21,8.75
2008-04-22,8.680000305175781
2008-04-23,8.779999732971191
2008-04-24,9.229999542236328
2008-04-25,9.789999961853027
2008-04-28,9.449999809265137
2008-04-29,9.600000381469727
2008-04-30,9.550000190734863
2008-05-01,12.329999923706055
2008-05-02,11.65999984741211
2008-05-05,11.880000114440918
2008-05-06,11.880000114440918
2008-05-07,11.619999885559082
2008-05-08,11.619999885559082
2008-05-09,11.380000114440918
2008-05-12,11.760000228881836
2008-05-13,11.8100004196167
2008-05-14,12.100000381469727
2008-05-15,12.180000305175781
2008-05-16,12.359999656677246
2008-05-19,12.3100004196167
2008-05-20,11.279999732971191
2008-05-21,11.15999984741211
2008-05-22,11.239999771118164
2008-05-23,10.880000114440918
2008-05-27,11.289999961853027
2008-05-28,10.930000305175781
2008-05-29,10.859999656677246
2008-05-30,10.65999984741211
2008-06-02,10.300000190734863
2008-06-03,10.779999732971191
2008-06-04,11.050000190734863
2008-06-05,11.130000114440918
2008-06-06,10.699999809265137
2008-06-09,10.59000015258789
2008-06-10,10.5600004196167
2008-06-11,10.289999961853027
2008-06-12,10.229999542236328
2008-06-13,10.640000343322754
2008-06-16,11.6899995803833
2008-06-17,11.5600004196167
2008-06-18,11.489999771118164
2008-06-19,11.800000190734863
2008-06-20,11.270000457763672
2008-06-23,10.949999809265137
2008-06-24,10.869999885559082
2008-06-25,11.170000076293945
2008-06-26,10.600000381469727
2008-06-27,10.859999656677246
2008-06-30,10.40999984741211
2008-07-01,10.65999984741211
2008-07-02,10.25
2008-07-03,10.109999656677246
2008-07-07,10.100000381469727
2008-07-08,9.420000076293945
2008-07-09,8.960000038146973
2008-07-10,9.520000457763672
2008-07-11,8.520000457763672
2008-07-14,8.5600004196167
2008-07-15,8.4399995803833
2008-07-16,8.899999618530273
2008-07-17,9.289999961853027
2008-07-18,9.239999771118164
2008-07-21,9.170000076293945
2008-07-22,8.739999771118164
2008-07-23,9.0
2008-07-24,8.619999885559082
2008-07-25,8.8100004196167
2008-07-28,8.739999771118164
2008-07-29,9.119999885559082
2008-07-30,9.100000381469727
2008-07-31,8.760000228881836
2008-08-01,8.359999656677246
2008-08-04,8.09000015258789
2008-08-05,8.229999542236328
2008-08-06,9.140000343322754
2008-08-07,8.789999961853027
2008-08-08,9.0
2008-08-11,9.1899995803833
2008-08-12,8.90999984741211
2008-08-13,8.84000015258789
2008-08-14,8.800000190734863
2008-08-15,8.770000457763672
2008-08-18,8.539999961853027
2008-08-19,8.350000381469727
2008-08-20,8.1899995803833
2008-08-21,7.909999847412109
2008-08-22,7.880000114440918
2008-08-25,7.75
2008-08-26,7.599999904632568
2008-08-27,7.699999809265137
2008-08-28,7.619999885559082
2008-08-29,7.510000228881836
2008-09-02,7.46999979019165
2008-09-03,7.329999923706055
2008-09-04,7.090000152587891
2008-09-05,7.210000038146973
2008-09-08,7.139999866485596
2008-09-09,6.75
2008-09-10,6.920000076293945
2008-09-11,6.940000057220459
2008-09-12,6.940000057220459
2008-09-15,6.519999980926514
2008-09-16,6.670000076293945
2008-09-17,6.389999866485596
2008-09-18,6.639999866485596
2008-09-19,6.960000038146973
2008-09-22,6.619999885559082
2008-09-23,6.53000020980835
2008-09-24,6.75
2008-09-25,6.980000019073486
2008-09-26,7.070000171661377
2008-09-29,6.309999942779541
2008-09-30,6.369999885559082
2008-10-01,6.21999979019165
2008-10-02,5.880000114440918
2008-10-03,5.71999979019165
2008-10-06,5.489999771118164
2008-10-07,4.869999885559082
2008-10-08,4.619999885559082
2008-10-09,4.460000038146973
2008-10-10,4.269999980926514
2008-10-13,4.739999771118164
2008-10-14,4.539999961853027
2008-10-15,4.039999961853027
2008-10-16,4.21999979019165
2008-10-17,4.110000133514404
2008-10-20,4.230000019073486
2008-10-21,4.239999771118164
2008-10-22,3.990000009536743
2008-10-23,3.6500000953674316
2008-10-24,3.4800000190734863
2008-10-27,3.359999895095825
2008-10-28,3.5
2008-10-29,3.25
2008-10-30,3.569999933242798
2008-10-31,4.059999942779541
2008-11-03,4.03000020980835
2008-11-04,4.03000020980835
2008-11-05,4.139999866485596
2008-11-06,3.950000047683716
2008-11-07,4.159999847412109
2008-11-10,3.7200000286102295
2008-11-11,3.5399999618530273
2008-11-12,3.1600000858306885
2008-11-13,3.309999942779541
2008-11-14,3.0199999809265137
2008-11-17,2.7799999713897705
2008-11-18,2.549999952316284
2008-11-19,2.119999885559082
2008-11-20,1.7400000095367432
2008-11-21,1.5499999523162842
2008-11-24,1.9900000095367432
2008-11-25,2.069999933242798
2008-11-26,2.190000057220459
2008-11-28,2.200000047683716
2008-12-01,1.8899999856948853
2008-12-02,1.9500000476837158
2008-12-03,1.9600000381469727
2008-12-04,1.8799999952316284
2008-12-05,1.9600000381469727
2008-12-08,2.0
2008-12-09,2.1500000953674316
2008-12-10,2.240000009536743
2008-12-11,2.25
2008-12-12,2.509999990463257
2008-12-15,2.450000047683716
2008-12-16,2.4100000858306885
2008-12-17,2.1500000953674316
2008-12-18,2.049999952316284
2008-12-19,2.0399999618530273
2008-12-22,2.0199999809265137
2008-12-23,1.9299999475479126
2008-12-24,1.850000023841858
2008-12-26,1.840000033378601
2008-12-29,1.850000023841858
2008-12-30,2.0799999237060547
2008-12-31,2.180000066757202
2009-01-02,2.3399999141693115
2009-01-05,2.569999933242798
2009-01-06,3.109999895095825
2009-01-07,2.9100000858306885
2009-01-08,3.069999933242798
2009-01-09,2.819999933242798
2009-01-12,2.8499999046325684
2009-01-13,2.799999952316284
2009-01-14,2.559999942779541
2009-01-15,2.759999990463257
2009-01-16,2.700000047683716
2009-01-20,2.380000114440918
2009-01-21,2.369999885559082
2009-01-22,2.299999952316284
2009-01-23,2.490000009536743
2009-01-26,2.450000047683716
2009-01-27,2.5199999809265137
2009-01-28,2.5399999618530273
2009-01-29,2.450000047683716
2009-01-30,2.319999933242798
2009-02-02,2.430000066757202
2009-02-03,2.4800000190734863
2009-02-04,2.5899999141693115
2009-02-05,2.7300000190734863
2009-02-06,2.890000104904175
2009-02-09,2.880000114440918
2009-02-10,2.6500000953674316
2009-02-11,2.5999999046325684
2009-02-12,2.7699999809265137
2009-02-13,2.7899999618530273
2009-02-17,2.640000104904175
2009-02-18,2.5799999237060547
2009-02-19,2.240000009536743
2009-02-20,2.2200000286102295
2009-02-23,1.940000057220459
2009-02-24,2.0
2009-02-25,1.9199999570846558
2009-02-26,1.899999976158142
2009-02-27,1.7100000381469727
2009-03-02,1.6200000047683716
2009-03-03,1.600000023841858
2009-03-04,1.8300000429153442
2009-03-05,1.809999942779541
2009-03-06,1.7799999713897705
2009-03-09,1.7400000095367432
2009-03-10,2.0
2009-03-11,1.899999976158142
2009-03-12,2.0799999237060547
2009-03-13,2.2699999809265137
2009-03-16,2.140000104904175
2009-03-17,2.2699999809265137
2009-03-18,2.259999990463257
2009-03-19,2.5299999713897705
2009-03-20,2.2899999618530273
2009-03-23,2.740000009536743
2009-03-24,2.559999942779541
2009-03-25,2.5899999141693115
2009-03-26,2.630000114440918
2009-03-27,2.819999933242798
2009-03-30,2.490000009536743
2009-03-31,2.690000057220459
2009-04-01,2.819999933242798
2009-04-02,2.990000009536743
2009-04-03,3.200000047683716
2009-04-06,3.190000057220459
2009-04-07,3.190000057220459
2009-04-08,3.3499999046325684
2009-04-09,3.640000104904175
2009-04-13,3.609999895095825
2009-04-14,3.7699999809265137
2009-04-15,3.630000114440918
2009-04-16,3.930000066757202
2009-04-17,4.119999885559082
2009-04-20,3.700000047683716
2009-04-21,4.0
2009-04-22,3.940000057220459
2009-04-23,3.859999895095825
2009-04-24,3.9200000762939453
2009-04-27,3.8299999237060547
2009-04-28,3.799999952316284
2009-04-29,4.059999942779541
2009-04-30,4.309999942779541
2009-05-01,4.25
2009-05-04,4.5
2009-05-05,4.380000114440918
2009-05-06,4.230000019073486
2009-05-07,3.950000047683716
2009-05-08,3.950000047683716
2009-05-11,3.8399999141693115
2009-05-12,3.5999999046325684
2009-05-13,3.3299999237060547
2009-05-14,3.6500000953674316
2009-05-15,3.6500000953674316
2009-05-18,3.890000104904175
2009-05-19,4.090000152587891
2009-05-20,4.199999809265137
2009-05-21,4.230000019073486
2009-05-22,4.28000020980835
2009-05-26,4.369999885559082
2009-05-27,4.409999847412109
2009-05-28,4.420000076293945
2009-05-29,4.53000020980835
2009-06-01,4.820000171661377
2009-06-02,4.570000171661377
2009-06-03,4.53000020980835
2009-06-04,4.559999942779541
2009-06-05,4.550000190734863
2009-06-08,4.460000038146973
2009-06-09,4.860000133514404
2009-06-10,4.840000152587891
2009-06-11,4.96999979019165
2009-06-12,4.869999885559082
2009-06-15,4.690000057220459
2009-06-16,4.75
2009-06-17,4.840000152587891
2009-06-18,4.659999847412109
2009-06-19,4.710000038146973
2009-06-22,4.340000152587891
2009-06-23,4.28000020980835
2009-06-24,4.409999847412109
2009-06-25,4.519999980926514
2009-06-26,4.510000228881836
2009-06-29,4.699999809265137
2009-06-30,4.71999979019165
2009-07-01,4.730000019073486
2009-07-02,4.659999847412109
2009-07-06,4.440000057220459
2009-07-07,4.28000020980835
2009-07-08,4.269999980926514
2009-07-09,4.610000133514404
2009-07-10,4.889999866485596
2009-07-13,4.929999828338623
2009-07-14,5.0
2009-07-15,5.349999904632568
2009-07-16,5.53000020980835
2009-07-17,5.699999809265137
2009-07-20,5.690000057220459
2009-07-21,5.670000076293945
2009-07-22,5.820000171661377
2009-07-23,5.920000076293945
2009-07-24,5.869999885559082
2009-07-27,5.989999771118164
2009-07-28,5.78000020980835
2009-07-29,5.599999904632568
2009-07-30,6.260000228881836
2009-07-31,6.260000228881836
2009-08-03,6.489999771118164
2009-08-04,6.460000038146973
2009-08-05,6.420000076293945
2009-08-06,6.079999923706055
2009-08-07,6.079999923706055
2009-08-10,6.059999942779541
2009-08-11,5.679999828338623
2009-08-12,6.0
2009-08-13,5.989999771118164
2009-08-14,5.710000038146973
2009-08-17,5.349999904632568
2009-08-18,5.639999866485596
2009-08-19,5.650000095367432
2009-08-20,5.820000171661377
2009-08-21,5.869999885559082
2009-08-24,5.710000038146973
2009-08-25,5.650000095367432
2009-08-26,5.71999979019165
2009-08-27,5.679999828338623
2009-08-28,5.639999866485596
2009-08-31,5.539999961853027
2009-09-01,5.630000114440918
2009-09-02,6.260000228881836
2009-09-03,6.5
2009-09-04,6.679999828338623
2009-09-08,6.710000038146973
2009-09-09,7.0
2009-09-10,7.400000095367432
2009-09-11,7.239999771118164
2009-09-14,7.360000133514404
2009-09-15,7.46999979019165
2009-09-16,7.449999809265137
2009-09-17,7.150000095367432
2009-09-18,7.110000133514404
2009-09-21,6.989999771118164
2009-09-22,7.159999847412109
2009-09-23,7.239999771118164
2009-09-24,7.059999942779541
2009-09-25,6.869999885559082
2009-09-28,7.119999885559082
2009-09-29,6.96999979019165
2009-09-30,6.880000114440918
2009-10-01,6.360000133514404
2009-10-02,6.320000171661377
2009-10-05,6.710000038146973
2009-10-06,6.849999904632568
2009-10-07,6.789999961853027
2009-10-08,6.909999847412109
2009-10-09,7.389999866485596
2009-10-12,7.519999980926514
2009-10-13,7.420000076293945
2009-10-14,7.619999885559082
2009-10-15,7.369999885559082
2009-10-16,7.119999885559082
2009-10-19,7.130000114440918
2009-10-20,7.139999866485596
2009-10-21,7.090000152587891
2009-10-22,7.110000133514404
2009-10-23,6.880000114440918
2009-10-26,6.829999923706055
2009-10-27,6.739999771118164
2009-10-28,5.869999885559082
2009-10-29,5.849999904632568
2009-10-30,5.510000228881836
2009-11-02,5.619999885559082
2009-11-03,5.519999980926514
2009-11-04,5.480000019073486
2009-11-05,5.849999904632568
2009-11-06,5.71999979019165
2009-11-09,5.980000019073486
2009-11-10,5.929999828338623
2009-11-11,6.21999979019165
2009-11-12,6.099999904632568
2009-11-13,6.110000133514404
2009-11-16,6.199999809265137
2009-11-17,6.21999979019165
2009-11-18,6.130000114440918
2009-11-19,5.860000133514404
2009-11-20,5.739999771118164
2009-11-23,5.760000228881836
2009-11-24,5.730000019073486
2009-11-25,5.730000019073486
2009-11-27,5.630000114440918
2009-11-30,5.550000190734863
2009-12-01,5.739999771118164
2009-12-02,6.230000019073486
2009-12-03,6.570000171661377
2009-12-04,6.679999828338623
2009-12-07,6.699999809265137
2009-12-08,6.590000152587891
2009-12-09,6.420000076293945
2009-12-10,6.289999961853027
2009-12-11,6.28000020980835
2009-12-14,6.380000114440918
2009-12-15,6.400000095367432
2009-12-16,6.400000095367432
2009-12-17,6.449999809265137
2009-12-18,6.480000019073486
2009-12-21,6.510000228881836
2009-12-22,7.320000171661377
2009-12-23,7.389999866485596
2009-12-24,7.400000095367432
2009-12-28,7.28000020980835
2009-12-29,7.199999809265137
2009-12-30,7.260000228881836
2009-12-31,7.159999847412109
2010-01-04,7.380000114440918
2010-01-05,7.309999942779541
2010-01-06,7.210000038146973
2010-01-07,7.409999847412109
2010-01-08,7.329999923706055
2010-01-11,7.199999809265137
2010-01-12,6.949999809265137
2010-01-13,7.059999942779541
2010-01-14,7.019999980926514
2010-01-15,6.619999885559082
2010-01-19,6.769999980926514
2010-01-20,6.619999885559082
2010-01-21,6.440000057220459
2010-01-22,6.110000133514404
2010-01-25,6.119999885559082
2010-01-26,6.090000152587891
2010-01-27,6.130000114440918
2010-01-28,5.860000133514404
2010-01-29,5.690000057220459
2010-02-01,6.179999828338623
2010-02-02,6.150000095367432
2010-02-03,5.960000038146973
2010-02-04,5.599999904632568
2010-02-05,5.710000038146973
2010-02-08,5.769999980926514
2010-02-09,5.929999828338623
2010-02-10,6.340000152587891
2010-02-11,5.920000076293945
2010-02-12,6.079999923706055
2010-02-16,6.369999885559082
2010-02-17,6.369999885559082
2010-02-18,6.360000133514404
2010-02-19,6.369999885559082
2010-02-22,6.21999979019165
2010-02-23,6.010000228881836
2010-02-24,6.059999942779541
2010-02-25,6.059999942779541
2010-02-26,6.019999980926514
2010-03-01,6.309999942779541
2010-03-02,6.210000038146973
2010-03-03,6.369999885559082
2010-03-04,6.380000114440918
2010-03-05,6.599999904632568
2010-03-08,6.519999980926514
2010-03-09,6.570000171661377
2010-03-10,6.860000133514404
2010-03-11,6.75
2010-03-12,6.710000038146973
2010-03-15,6.630000114440918
2010-03-16,6.840000152587891
2010-03-17,6.900000095367432
2010-03-18,6.820000171661377
2010-03-19,6.619999885559082
2010-03-22,6.840000152587891
2010-03-23,6.909999847412109
2010-03-24,6.820000171661377
2010-03-25,6.889999866485596
2010-03-26,6.929999828338623
2010-03-29,7.110000133514404
2010-03-30,7.190000057220459
2010-03-31,7.079999923706055
2010-04-01,7.019999980926514
2010-04-05,7.210000038146973
2010-04-06,7.300000190734863
2010-04-07,7.300000190734863
2010-04-08,7.260000228881836
2010-04-09,7.449999809265137
2010-04-12,7.53000020980835
2010-04-13,7.550000190734863
2010-04-14,8.199999809265137
2010-04-15,8.390000343322754
2010-04-16,8.109999656677246
2010-04-19,8.020000457763672
2010-04-20,8.170000076293945
2010-04-21,8.220000267028809
2010-04-22,8.350000381469727
2010-04-23,8.510000228881836
2010-04-26,8.5600004196167
2010-04-27,8.25
2010-04-28,7.889999866485596
2010-04-29,7.889999866485596
2010-04-30,7.539999961853027
2010-05-03,7.710000038146973
2010-05-04,7.179999828338623
2010-05-05,6.96999979019165
2010-05-06,6.570000171661377
2010-05-07,6.519999980926514
2010-05-10,6.809999942779541
2010-05-11,6.869999885559082
2010-05-12,7.150000095367432
2010-05-13,6.900000095367432
2010-05-14,6.71999979019165
2010-05-17,6.869999885559082
2010-05-18,6.550000190734863
2010-05-19,6.599999904632568
2010-05-20,6.400000095367432
2010-05-21,6.539999961853027
2010-05-24,6.400000095367432
2010-05-25,6.349999904632568
2010-05-26,6.289999961853027
2010-05-27,6.900000095367432
2010-05-28,6.809999942779541
2010-06-01,6.449999809265137
2010-06-02,6.78000020980835
2010-06-03,6.789999961853027
2010-06-04,6.420000076293945
2010-06-07,6.0
2010-06-08,6.050000190734863
2010-06-09,5.940000057220459
2010-06-10,6.260000228881836
2010-06-11,6.360000133514404
2010-06-14,6.340000152587891
2010-06-15,6.889999866485596
2010-06-16,6.769999980926514
2010-06-17,6.710000038146973
2010-06-18,6.710000038146973
2010-06-21,6.650000095367432
2010-06-22,6.429999828338623
2010-06-23,6.340000152587891
2010-06-24,6.139999866485596
2010-06-25,6.070000171661377
2010-06-28,6.090000152587891
2010-06-29,5.710000038146973
2010-06-30,5.510000228881836
2010-07-01,5.449999809265137
2010-07-02,5.260000228881836
2010-07-06,5.190000057220459
2010-07-07,5.449999809265137
2010-07-08,5.53000020980835
2010-07-09,5.650000095367432
2010-07-12,5.690000057220459
2010-07-13,5.889999866485596
2010-07-14,5.960000038146973
2010-07-15,5.840000152587891
2010-07-16,5.460000038146973
2010-07-19,5.480000019073486
2010-07-20,5.519999980926514
2010-07-21,5.360000133514404
2010-07-22,5.760000228881836
2010-07-23,5.900000095367432
2010-07-26,6.079999923706055
2010-07-27,6.019999980926514
2010-07-28,5.820000171661377
2010-07-29,5.800000190734863
2010-07-30,5.769999980926514
2010-08-02,5.809999942779541
2010-08-03,5.800000190734863
2010-08-04,5.820000171661377
2010-08-05,6.119999885559082
2010-08-06,6.03000020980835
2010-08-09,6.010000228881836
2010-08-10,5.71999979019165
2010-08-11,5.369999885559082
2010-08-12,5.420000076293945
2010-08-13,5.409999847412109
2010-08-16,5.329999923706055
2010-08-17,5.400000095367432
2010-08-18,5.599999904632568
2010-08-19,5.46999979019165
2010-08-20,5.590000152587891
2010-08-23,5.610000133514404
2010-08-24,5.409999847412109
2010-08-25,5.480000019073486
2010-08-26,5.25
2010-08-27,5.539999961853027
2010-08-30,5.210000038146973
2010-08-31,5.079999923706055
2010-09-01,5.239999771118164
2010-09-02,5.409999847412109
2010-09-03,5.820000171661377
2010-09-07,5.400000095367432
2010-09-08,5.449999809265137
2010-09-09,5.460000038146973
2010-09-10,5.389999866485596
2010-09-13,5.960000038146973
2010-09-14,5.929999828338623
2010-09-15,5.989999771118164
2010-09-16,6.070000171661377
2010-09-17,6.090000152587891
2010-09-20,6.25
2010-09-21,6.159999847412109
2010-09-22,6.0
2010-09-23,5.96999979019165
2010-09-24,6.519999980926514
2010-09-27,6.420000076293945
2010-09-28,6.460000038146973
2010-09-29,6.739999771118164
2010-09-30,6.570000171661377
2010-10-01,6.670000076293945
2010-10-04,6.510000228881836
2010-10-05,6.920000076293945
2010-10-06,6.829999923706055
2010-10-07,6.960000038146973
2010-10-08,6.71999979019165
2010-10-11,6.75
2010-10-12,6.679999828338623
2010-10-13,6.869999885559082
2010-10-14,6.840000152587891
2010-10-15,6.909999847412109
2010-10-18,6.860000133514404
2010-10-19,6.679999828338623
2010-10-20,6.710000038146973
2010-10-21,6.659999847412109
2010-10-22,6.769999980926514
2010-10-25,6.949999809265137
2010-10-26,7.03000020980835
2010-10-27,7.119999885559082
2010-10-28,7.150000095367432
2010-10-29,7.230000019073486
2010-11-01,7.03000020980835
2010-11-02,7.110000133514404
2010-11-03,7.199999809265137
2010-11-04,7.380000114440918
2010-11-05,6.789999961853027
2010-11-08,6.840000152587891
2010-11-09,6.869999885559082
2010-11-10,6.900000095367432
2010-11-11,6.579999923706055
2010-11-12,6.340000152587891
2010-11-15,6.230000019073486
2010-11-16,6.159999847412109
2010-11-17,6.329999923706055
2010-11-18,6.409999847412109
2010-11-19,6.46999979019165
2010-11-22,6.860000133514404
2010-11-23,6.800000190734863
2010-11-24,7.119999885559082
2010-11-26,7.139999866485596
2010-11-29,7.099999904632568
2010-11-30,6.960000038146973
2010-12-01,7.03000020980835
2010-12-02,7.230000019073486
2010-12-03,7.449999809265137
2010-12-06,7.389999866485596
2010-12-07,7.409999847412109
2010-12-08,7.480000019073486
2010-12-09,7.619999885559082
2010-12-10,7.739999771118164
2010-12-13,7.570000171661377
2010-12-14,7.369999885559082
2010-12-15,7.289999961853027
2010-12-16,7.480000019073486
2010-12-17,7.510000228881836
2010-12-20,7.480000019073486
2010-12-21,7.480000019073486
2010-12-22,7.409999847412109
2010-12-23,7.389999866485596
2010-12-27,7.550000190734863
2010-12-28,7.440000057220459
2010-12-29,7.389999866485596
2010-12-30,7.349999904632568
2010-12-31,7.409999847412109
2011-01-03,7.449999809265137
2011-01-04,7.300000190734863
2011-01-05,7.360000133514404
2011-01-06,7.590000152587891
2011-01-07,7.630000114440918
2011-01-10,7.71999979019165
2011-01-11,7.78000020980835
2011-01-12,7.909999847412109
2011-01-13,7.909999847412109
2011-01-14,8.0
2011-01-18,8.020000457763672
2011-01-19,7.739999771118164
2011-01-20,7.78000020980835
2011-01-21,7.579999923706055
2011-01-24,7.809999942779541
2011-01-25,7.800000190734863
2011-01-26,8.039999961853027
2011-01-27,8.220000267028809
2011-01-28,8.0
2011-01-31,8.140000343322754
2011-02-01,8.239999771118164
2011-02-02,8.199999809265137
2011-02-03,8.0600004196167
2011-02-04,8.15999984741211
2011-02-07,8.34000015258789
2011-02-08,8.369999885559082
2011-02-09,8.1899995803833
2011-02-10,7.269999980926514
2011-02-11,7.5
2011-02-14,7.710000038146973
2011-02-15,7.730000019073486
2011-02-16,7.730000019073486
2011-02-17,7.650000095367432
2011-02-18,7.679999828338623
2011-02-22,7.239999771118164
2011-02-23,7.210000038146973
2011-02-24,7.289999961853027
2011-02-25,7.489999771118164
2011-02-28,7.369999885559082
2011-03-01,7.179999828338623
2011-03-02,7.340000152587891
2011-03-03,7.579999923706055
2011-03-04,7.420000076293945
2011-03-07,7.239999771118164
2011-03-08,7.239999771118164
2011-03-09,6.96999979019165
2011-03-10,6.71999979019165
2011-03-11,6.760000228881836
2011-03-14,6.75
2011-03-15,6.619999885559082
2011-03-16,6.389999866485596
2011-03-17,6.489999771118164
2011-03-18,6.559999942779541
2011-03-21,6.860000133514404
2011-03-22,6.920000076293945
2011-03-23,6.909999847412109
2011-03-24,7.03000020980835
2011-03-25,6.909999847412109
2011-03-28,6.820000171661377
2011-03-29,6.920000076293945
2011-03-30,6.800000190734863
2011-03-31,6.739999771118164
2011-04-01,6.760000228881836
2011-04-04,6.619999885559082
2011-04-05,6.809999942779541
2011-04-06,6.880000114440918
2011-04-07,6.760000228881836
2011-04-08,6.710000038146973
2011-04-11,6.619999885559082
2011-04-12,6.420000076293945
2011-04-13,6.360000133514404
2011-04-14,6.400000095367432
2011-04-15,6.449999809265137
2011-04-18,6.260000228881836
2011-04-19,6.320000171661377
2011-04-20,6.610000133514404
2011-04-21,6.510000228881836
2011-04-25,6.489999771118164
2011-04-26,6.730000019073486
2011-04-27,6.730000019073486
2011-04-28,6.739999771118164
2011-04-29,6.699999809265137
2011-05-02,6.610000133514404
2011-05-03,6.460000038146973
2011-05-04,6.489999771118164
2011-05-05,6.5
2011-05-06,6.619999885559082
2011-05-09,6.75
2011-05-10,6.800000190734863
2011-05-11,6.829999923706055
2011-05-12,6.909999847412109
2011-05-13,6.789999961853027
2011-05-16,6.739999771118164
2011-05-17,6.630000114440918
2011-05-18,6.699999809265137
2011-05-19,6.630000114440918
2011-05-20,6.46999979019165
2011-05-23,6.289999961853027
2011-05-24,6.300000190734863
2011-05-25,6.320000171661377
2011-05-26,6.28000020980835
2011-05-27,6.360000133514404
2011-05-31,6.389999866485596
2011-06-01,6.159999847412109
2011-06-02,6.170000076293945
2011-06-03,6.050000190734863
2011-06-06,5.989999771118164
2011-06-07,5.96999979019165
2011-06-08,5.849999904632568
2011-06-09,5.949999809265137
2011-06-10,5.849999904632568
2011-06-13,5.820000171661377
2011-06-14,6.03000020980835
2011-06-15,5.820000171661377
2011-06-16,5.730000019073486
2011-06-17,5.690000057220459
2011-06-20,5.71999979019165
2011-06-21,5.900000095367432
2011-06-22,5.829999923706055
2011-06-23,6.019999980926514
2011-06-24,5.96999979019165
2011-06-27,5.980000019073486
2011-06-28,6.090000152587891
2011-06-29,6.099999904632568
2011-06-30,6.170000076293945
2011-07-01,6.21999979019165
2011-07-05,6.090000152587891
2011-07-06,5.909999847412109
2011-07-07,6.53000020980835
2011-07-08,6.309999942779541
2011-07-11,6.079999923706055
2011-07-12,5.78000020980835
2011-07-13,5.690000057220459
2011-07-14,5.550000190734863
2011-07-15,5.599999904632568
2011-07-18,5.360000133514404
2011-07-19,5.510000228881836
2011-07-20,5.429999828338623
2011-07-21,5.670000076293945
2011-07-22,5.869999885559082
2011-07-25,5.75
2011-07-26,5.769999980926514
2011-07-27,5.480000019073486
2011-07-28,5.320000171661377
2011-07-29,5.340000152587891
2011-08-01,5.300000190734863
2011-08-02,5.150000095367432
2011-08-03,5.139999866485596
2011-08-04,4.699999809265137
2011-08-05,4.650000095367432
2011-08-08,4.28000020980835
2011-08-09,4.46999979019165
2011-08-10,4.260000228881836
2011-08-11,4.269999980926514
2011-08-12,4.179999828338623
2011-08-15,4.300000190734863
2011-08-16,4.210000038146973
2011-08-17,4.170000076293945
2011-08-18,3.940000057220459
2011-08-19,3.9600000381469727
2011-08-22,3.880000114440918
2011-08-23,4.03000020980835
2011-08-24,4.039999961853027
2011-08-25,3.930000066757202
2011-08-26,3.9800000190734863
2011-08-29,4.199999809265137
2011-08-30,4.28000020980835
2011-08-31,4.349999904632568
2011-09-01,4.230000019073486
2011-09-02,4.159999847412109
2011-09-06,4.090000152587891
2011-09-07,4.380000114440918
2011-09-08,4.320000171661377
2011-09-09,4.300000190734863
2011-09-12,4.489999771118164
2011-09-13,4.659999847412109
2011-09-14,4.75
2011-09-15,4.710000038146973
2011-09-16,4.71999979019165
2011-09-19,4.699999809265137
2011-09-20,4.699999809265137
2011-09-21,4.630000114440918
2011-09-22,4.570000171661377
2011-09-23,4.820000171661377
2011-09-26,4.840000152587891
2011-09-27,5.019999980926514
2011-09-28,4.630000114440918
2011-09-29,4.690000057220459
2011-09-30,4.360000133514404
2011-10-03,4.269999980926514
2011-10-04,4.53000020980835
2011-10-05,4.570000171661377
2011-10-06,4.769999980926514
2011-10-07,4.599999904632568
2011-10-10,4.75
2011-10-11,4.820000171661377
2011-10-12,4.829999923706055
2011-10-13,4.849999904632568
2011-10-14,4.860000133514404
2011-10-17,4.730000019073486
2011-10-18,4.800000190734863
2011-10-19,4.769999980926514
2011-10-20,4.71999979019165
2011-10-21,4.710000038146973
2011-10-24,4.889999866485596
2011-10-25,4.78000020980835
2011-10-26,4.880000114440918
2011-10-27,5.059999942779541
2011-10-28,4.769999980926514
2011-10-31,4.840000152587891
2011-11-01,4.699999809265137
2011-11-02,4.78000020980835
2011-11-03,4.96999979019165
2011-11-04,5.070000171661377
2011-11-07,4.949999809265137
2011-11-08,4.980000019073486
2011-11-09,4.690000057220459
2011-11-10,4.849999904632568
2011-11-11,5.010000228881836
2011-11-14,4.78000020980835
2011-11-15,4.829999923706055
2011-11-16,4.75
2011-11-17,4.619999885559082
2011-11-18,4.630000114440918
2011-11-21,4.489999771118164
2011-11-22,4.389999866485596
2011-11-23,4.190000057220459
2011-11-25,4.150000095367432
2011-11-28,4.329999923706055
2011-11-29,4.099999904632568
2011-11-30,4.440000057220459
2011-12-01,4.46999979019165
2011-12-02,4.590000152587891
2011-12-05,4.590000152587891
2011-12-06,4.670000076293945
2011-12-07,4.739999771118164
2011-12-08,4.550000190734863
2011-12-09,4.590000152587891
2011-12-12,4.260000228881836
2011-12-13,4.159999847412109
2011-12-14,4.090000152587891
2011-12-15,4.139999866485596
2011-12-16,4.150000095367432
2011-12-19,4.079999923706055
2011-12-20,4.329999923706055
2011-12-21,4.25
2011-12-22,4.460000038146973
2011-12-23,4.519999980926514
2011-12-27,4.5
2011-12-28,4.400000095367432
2011-12-29,4.360000133514404
2011-12-30,4.360000133514404
2012-01-03,4.619999885559082
2012-01-04,4.570000171661377
2012-01-05,4.610000133514404
2012-01-06,4.639999866485596
2012-01-09,4.809999942779541
2012-01-10,4.900000095367432
2012-01-11,4.840000152587891
2012-01-12,4.900000095367432
2012-01-13,4.869999885559082
2012-01-17,4.980000019073486
2012-01-18,5.159999847412109
2012-01-19,5.199999809265137
2012-01-20,5.389999866485596
2012-01-23,5.46999979019165
2012-01-24,5.659999847412109
2012-01-25,5.610000133514404
2012-01-26,5.639999866485596
2012-01-27,5.730000019073486
2012-01-30,5.739999771118164
2012-01-31,5.730000019073486
2012-02-01,5.960000038146973
2012-02-02,5.989999771118164
2012-02-03,6.070000171661377
2012-02-06,5.980000019073486
2012-02-07,5.989999771118164
2012-02-08,6.159999847412109
2012-02-09,6.210000038146973
2012-02-10,6.260000228881836
2012-02-13,6.300000190734863
2012-02-14,6.5
2012-02-15,6.440000057220459
2012-02-16,6.710000038146973
2012-02-17,6.539999961853027
2012-02-21,6.440000057220459
2012-02-22,6.230000019073486
2012-02-23,6.429999828338623
2012-02-24,6.309999942779541
2012-02-27,6.579999923706055
2012-02-28,6.639999866485596
2012-02-29,6.389999866485596
2012-03-01,6.360000133514404
2012-03-02,6.25
2012-03-05,6.110000133514404
2012-03-06,6.070000171661377
2012-03-07,6.179999828338623
2012-03-08,6.289999961853027
2012-03-09,6.369999885559082
2012-03-12,6.300000190734863
2012-03-13,6.329999923706055
2012-03-14,6.260000228881836
2012-03-15,6.329999923706055
2012-03-16,6.360000133514404
2012-03-19,6.409999847412109
2012-03-20,6.389999866485596
2012-03-21,6.389999866485596
2012-03-22,6.260000228881836
2012-03-23,6.239999771118164
2012-03-26,6.389999866485596
2012-03-27,6.400000095367432
2012-03-28,6.309999942779541
2012-03-29,6.199999809265137
2012-03-30,6.150000095367432
2012-04-02,6.159999847412109
2012-04-03,6.0
2012-04-04,5.880000114440918
2012-04-05,5.920000076293945
2012-04-09,5.75
2012-04-10,5.610000133514404
2012-04-11,5.71999979019165
2012-04-12,5.909999847412109
2012-04-13,5.690000057220459
2012-04-16,5.639999866485596
2012-04-17,5.690000057220459
2012-04-18,5.739999771118164
2012-04-19,5.690000057220459
2012-04-20,5.71999979019165
2012-04-23,5.659999847412109
2012-04-24,5.670000076293945
2012-04-25,5.71999979019165
2012-04-26,5.909999847412109
2012-04-27,5.53000020980835
2012-04-30,5.170000076293945
2012-05-01,5.130000114440918
2012-05-02,5.159999847412109
2012-05-03,4.900000095367432
2012-05-04,4.630000114440918
2012-05-07,4.579999923706055
2012-05-08,4.579999923706055
2012-05-09,4.639999866485596
2012-05-10,4.730000019073486
2012-05-11,4.739999771118164
2012-05-14,4.619999885559082
2012-05-15,4.590000152587891
2012-05-16,4.489999771118164
2012-05-17,4.400000095367432
2012-05-18,4.329999923706055
2012-05-21,4.420000076293945
2012-05-22,4.440000057220459
2012-05-23,4.53000020980835
2012-05-24,4.579999923706055
2012-05-25,4.650000095367432
2012-05-29,4.71999979019165
2012-05-30,4.679999828338623
2012-05-31,4.730000019073486
2012-06-01,4.639999866485596
2012-06-04,4.559999942779541
2012-06-05,4.46999979019165
2012-06-06,4.630000114440918
2012-06-07,4.599999904632568
2012-06-08,4.710000038146973
2012-06-11,4.429999828338623
2012-06-12,4.5
2012-06-13,4.460000038146973
2012-06-14,4.489999771118164
2012-06-15,4.579999923706055
2012-06-18,4.710000038146973
2012-06-19,4.849999904632568
2012-06-20,4.900000095367432
2012-06-21,4.730000019073486
2012-06-22,4.889999866485596
2012-06-25,4.710000038146973
2012-06-26,4.690000057220459
2012-06-27,4.820000171661377
2012-06-28,4.800000190734863
2012-06-29,4.880000114440918
2012-07-02,4.789999961853027
2012-07-03,4.78000020980835
2012-07-05,5.039999961853027
2012-07-06,5.019999980926514
2012-07-09,4.880000114440918
2012-07-10,4.789999961853027
2012-07-11,4.730000019073486
2012-07-12,4.53000020980835
2012-07-13,4.71999979019165
2012-07-16,4.670000076293945
2012-07-17,4.71999979019165
2012-07-18,4.869999885559082
2012-07-19,4.940000057220459
2012-07-20,4.909999847412109
2012-07-23,4.809999942779541
2012-07-24,4.690000057220459
2012-07-25,4.75
2012-07-26,4.909999847412109
2012-07-27,5.179999828338623
2012-07-30,5.130000114440918
2012-07-31,5.329999923706055
2012-08-01,5.130000114440918
2012-08-02,5.179999828338623
2012-08-03,5.28000020980835
2012-08-06,5.269999980926514
2012-08-07,5.420000076293945
2012-08-08,5.389999866485596
2012-08-09,5.53000020980835
2012-08-10,5.519999980926514
2012-08-13,5.440000057220459
2012-08-14,5.349999904632568
2012-08-15,5.349999904632568
2012-08-16,5.340000152587891
2012-08-17,5.349999904632568
2012-08-20,5.159999847412109
2012-08-21,5.139999866485596
2012-08-22,4.869999885559082
2012-08-23,4.800000190734863
2012-08-24,4.710000038146973
2012-08-27,4.619999885559082
2012-08-28,4.690000057220459
2012-08-29,4.679999828338623
2012-08-30,4.610000133514404
2012-08-31,4.690000057220459
2012-09-04,4.559999942779541
2012-09-05,4.5
2012-09-06,4.550000190734863
2012-09-07,4.650000095367432
2012-09-10,4.619999885559082
2012-09-11,4.650000095367432
2012-09-12,4.679999828338623
2012-09-13,4.71999979019165
2012-09-14,4.840000152587891
2012-09-17,4.840000152587891
2012-09-18,4.840000152587891
2012-09-19,4.730000019073486
2012-09-20,4.599999904632568
2012-09-21,4.539999961853027
2012-09-24,4.519999980926514
2012-09-25,4.480000019073486
2012-09-26,4.460000038146973
2012-09-27,4.460000038146973
2012-09-28,4.420000076293945
2012-10-01,4.420000076293945
2012-10-02,4.539999961853027
2012-10-03,4.5
2012-10-04,4.480000019073486
2012-10-05,4.440000057220459
2012-10-08,4.420000076293945
2012-10-09,4.360000133514404
2012-10-10,4.28000020980835
2012-10-11,4.269999980926514
2012-10-12,4.210000038146973
2012-10-15,4.239999771118164
2012-10-16,4.440000057220459
2012-10-17,4.389999866485596
2012-10-18,4.389999866485596
2012-10-19,4.260000228881836
2012-10-22,4.230000019073486
2012-10-23,4.239999771118164
2012-10-24,4.260000228881836
2012-10-25,4.150000095367432
2012-10-26,4.050000190734863
2012-10-31,4.320000171661377
2012-11-01,4.429999828338623
2012-11-02,4.340000152587891
2012-11-05,4.329999923706055
2012-11-06,4.420000076293945
2012-11-07,4.199999809265137
2012-11-08,4.110000133514404
2012-11-09,4.130000114440918
2012-11-12,4.119999885559082
2012-11-13,4.059999942779541
2012-11-14,3.9800000190734863
2012-11-15,3.9100000858306885
2012-11-16,3.809999942779541
2012-11-19,3.8299999237060547
2012-11-20,3.9000000953674316
2012-11-21,4.019999980926514
2012-11-23,4.110000133514404
2012-11-26,4.119999885559082
2012-11-27,4.090000152587891
2012-11-28,4.039999961853027
2012-11-29,4.130000114440918
2012-11-30,4.230000019073486
2012-12-03,4.320000171661377
2012-12-04,4.320000171661377
2012-12-05,4.360000133514404
2012-12-06,4.360000133514404
2012-12-07,4.289999961853027
2012-12-10,4.320000171661377
2012-12-11,4.25
2012-12-12,4.25
2012-12-13,4.199999809265137
2012-12-14,4.170000076293945
2012-12-17,4.110000133514404
2012-12-18,4.300000190734863
2012-12-19,4.380000114440918
2012-12-20,4.369999885559082
2012-12-21,4.28000020980835
2012-12-24,4.190000057220459
2012-12-26,4.130000114440918
2012-12-27,4.130000114440918
2012-12-28,4.099999904632568
2012-12-31,4.239999771118164
2013-01-02,4.440000057220459
2013-01-03,4.440000057220459
2013-01-04,4.699999809265137
2013-01-07,4.699999809265137
2013-01-08,4.559999942779541
2013-01-09,4.579999923706055
2013-01-10,4.659999847412109
2013-01-11,4.690000057220459
2013-01-14,4.670000076293945
2013-01-15,4.650000095367432
2013-01-16,4.650000095367432
2013-01-17,4.699999809265137
2013-01-18,4.599999904632568
2013-01-22,4.570000171661377
2013-01-23,4.650000095367432
2013-01-24,4.769999980926514
2013-01-25,4.78000020980835
2013-01-28,4.75
2013-01-29,4.690000057220459
2013-01-30,4.559999942779541
2013-01-31,4.630000114440918
2013-02-01,4.840000152587891
2013-02-04,4.650000095367432
2013-02-05,4.730000019073486
2013-02-06,4.679999828338623
2013-02-07,4.670000076293945
2013-02-08,4.670000076293945
2013-02-11,4.670000076293945
2013-02-12,4.829999923706055
2013-02-13,4.989999771118164
2013-02-14,4.949999809265137
2013-02-15,4.860000133514404
2013-02-19,4.800000190734863
2013-02-20,4.619999885559082
2013-02-21,4.389999866485596
2013-02-22,4.389999866485596
2013-02-25,4.170000076293945
2013-02-26,4.190000057220459
2013-02-27,4.099999904632568
2013-02-28,4.059999942779541
2013-03-01,4.059999942779541
2013-03-04,3.990000009536743
2013-03-05,4.099999904632568
2013-03-06,4.150000095367432
2013-03-07,4.199999809265137
2013-03-08,4.210000038146973
2013-03-11,4.21999979019165
2013-03-12,4.159999847412109
2013-03-13,4.159999847412109
2013-03-14,4.21999979019165
2013-03-15,4.170000076293945
2013-03-18,4.059999942779541
2013-03-19,4.019999980926514
2013-03-20,4.130000114440918
2013-03-21,4.139999866485596
2013-03-22,4.110000133514404
2013-03-25,4.059999942779541
2013-03-26,4.059999942779541
2013-03-27,4.0
2013-03-28,4.0
2013-04-01,3.9000000953674316
2013-04-02,3.880000114440918
2013-04-03,3.799999952316284
2013-04-04,3.799999952316284
2013-04-05,3.819999933242798
2013-04-08,3.890000104904175
2013-04-09,3.7799999713897705
2013-04-10,3.9100000858306885
2013-04-11,3.930000066757202
2013-04-12,3.9000000953674316
2013-04-15,3.75
2013-04-16,3.7699999809265137
2013-04-17,3.630000114440918
2013-04-18,3.5999999046325684
2013-04-19,3.6700000762939453
2013-04-22,3.6600000858306885
2013-04-23,3.740000009536743
2013-04-24,3.7799999713897705
2013-04-25,3.859999895095825
2013-04-26,4.21999979019165
2013-04-29,4.230000019073486
2013-04-30,4.239999771118164
2013-05-01,4.170000076293945
2013-05-02,4.25
2013-05-03,4.409999847412109
2013-05-06,4.449999809265137
2013-05-07,4.409999847412109
2013-05-08,4.5
2013-05-09,4.53000020980835
2013-05-10,4.590000152587891
2013-05-13,4.53000020980835
2013-05-14,4.579999923706055
2013-05-15,4.519999980926514
2013-05-16,4.46999979019165
2013-05-17,4.5
2013-05-20,4.579999923706055
2013-05-21,4.630000114440918
2013-05-22,4.599999904632568
2013-05-23,4.579999923706055
2013-05-24,4.599999904632568
2013-05-28,4.630000114440918
2013-05-29,4.550000190734863
2013-05-30,4.610000133514404
2013-05-31,4.539999961853027
2013-06-03,4.579999923706055
2013-06-04,4.480000019073486
2013-06-05,4.340000152587891
2013-06-06,4.369999885559082
2013-06-07,4.420000076293945
2013-06-10,4.440000057220459
2013-06-11,4.380000114440918
2013-06-12,4.360000133514404
2013-06-13,4.440000057220459
2013-06-14,4.380000114440918
2013-06-17,4.329999923706055
2013-06-18,4.409999847412109
2013-06-19,4.300000190734863
2013-06-20,4.150000095367432
2013-06-21,4.059999942779541
2013-06-24,4.03000020980835
2013-06-25,4.139999866485596
2013-06-26,4.110000133514404
2013-06-27,4.179999828338623
2013-06-28,4.210000038146973
2013-07-01,4.289999961853027
2013-07-02,4.329999923706055
2013-07-03,4.289999961853027
2013-07-05,4.28000020980835
2013-07-08,4.269999980926514
2013-07-09,4.429999828338623
2013-07-10,4.420000076293945
2013-07-11,4.510000228881836
2013-07-12,4.510000228881836
2013-07-15,4.550000190734863
2013-07-16,4.610000133514404
2013-07-17,4.610000133514404
2013-07-18,4.550000190734863
2013-07-19,4.480000019073486
2013-07-22,4.460000038146973
2013-07-23,4.360000133514404
2013-07-24,4.420000076293945
2013-07-25,4.440000057220459
2013-07-26,4.340000152587891
2013-07-29,4.409999847412109
2013-07-30,4.28000020980835
2013-07-31,4.21999979019165
2013-08-01,4.260000228881836
2013-08-02,4.21999979019165
2013-08-05,4.21999979019165
2013-08-06,4.210000038146973
2013-08-07,4.199999809265137
2013-08-08,4.199999809265137
2013-08-09,4.119999885559082
2013-08-12,4.190000057220459
2013-08-13,4.239999771118164
2013-08-14,4.25
2013-08-15,4.21999979019165
2013-08-16,4.119999885559082
2013-08-19,4.059999942779541
2013-08-20,4.230000019073486
2013-08-21,4.190000057220459
2013-08-22,4.239999771118164
2013-08-23,4.230000019073486
2013-08-26,4.239999771118164
2013-08-27,4.079999923706055
2013-08-28,4.110000133514404
2013-08-29,4.139999866485596
2013-08-30,4.010000228881836
2013-09-03,4.099999904632568
2013-09-04,4.190000057220459
2013-09-05,4.190000057220459
2013-09-06,4.199999809265137
2013-09-09,4.28000020980835
2013-09-10,4.300000190734863
2013-09-11,4.239999771118164
2013-09-12,4.239999771118164
2013-09-13,4.21999979019165
2013-09-16,4.25
2013-09-17,4.28000020980835
2013-09-18,4.320000171661377
2013-09-19,4.320000171661377
2013-09-20,4.289999961853027
2013-09-23,4.320000171661377
2013-09-24,4.389999866485596
2013-09-25,4.389999866485596
2013-09-26,4.380000114440918
2013-09-27,4.329999923706055
2013-09-30,4.28000020980835
2013-10-01,4.349999904632568
2013-10-02,4.389999866485596
2013-10-03,4.420000076293945
2013-10-04,4.449999809265137
2013-10-07,4.449999809265137
2013-10-08,4.460000038146973
2013-10-09,4.369999885559082
2013-10-10,4.440000057220459
2013-10-11,4.460000038146973
2013-10-14,4.550000190734863
2013-10-15,4.440000057220459
2013-10-16,4.619999885559082
2013-10-17,4.639999866485596
2013-10-18,4.679999828338623
2013-10-21,4.789999961853027
2013-10-22,4.829999923706055
2013-10-23,4.739999771118164
2013-10-24,4.739999771118164
2013-10-25,4.769999980926514
2013-10-28,4.829999923706055
2013-10-29,5.159999847412109
2013-10-30,5.289999961853027
2013-10-31,5.309999942779541
2013-11-01,5.320000171661377
2013-11-04,5.599999904632568
2013-11-05,5.699999809265137
2013-11-06,5.78000020980835
2013-11-07,5.619999885559082
2013-11-08,5.610000133514404
2013-11-11,5.460000038146973
2013-11-12,5.460000038146973
2013-11-13,5.5
2013-11-14,5.449999809265137
2013-11-15,5.46999979019165
2013-11-18,5.599999904632568
2013-11-19,5.650000095367432
2013-11-20,5.670000076293945
2013-11-21,5.760000228881836
2013-11-22,5.769999980926514
2013-11-25,5.860000133514404
2013-11-26,5.920000076293945
2013-11-27,5.980000019073486
2013-11-29,6.0
2013-12-02,5.96999979019165
2013-12-03,5.860000133514404
2013-12-04,5.840000152587891
2013-12-05,5.800000190734863
2013-12-06,5.849999904632568
2013-12-09,5.789999961853027
2013-12-10,5.650000095367432
2013-12-11,5.510000228881836
2013-12-12,5.460000038146973
2013-12-13,5.46999979019165
2013-12-16,5.599999904632568
2013-12-17,5.579999923706055
2013-12-18,5.559999942779541
2013-12-19,5.630000114440918
2013-12-20,5.75
2013-12-23,5.860000133514404
2013-12-24,5.860000133514404
2013-12-26,5.849999904632568
2013-12-27,5.840000152587891
2013-12-30,6.099999904632568
2013-12-31,6.130000114440918
2014-01-02,6.130000114440918
2014-01-03,6.119999885559082
2014-01-06,6.03000020980835
2014-01-07,5.980000019073486
2014-01-08,5.909999847412109
2014-01-09,5.889999866485596
2014-01-10,5.940000057220459
2014-01-13,5.809999942779541
2014-01-14,5.949999809265137
2014-01-15,5.96999979019165
2014-01-16,5.960000038146973
2014-01-17,5.929999828338623
2014-01-21,5.800000190734863
2014-01-22,5.78000020980835
2014-01-23,5.659999847412109
2014-01-24,5.360000133514404
2014-01-27,5.449999809265137
2014-01-28,5.5
2014-01-29,5.420000076293945
2014-01-30,5.389999866485596
2014-01-31,5.300000190734863
2014-02-03,5.239999771118164
2014-02-04,5.21999979019165
2014-02-05,5.130000114440918
2014-02-06,5.21999979019165
2014-02-07,5.190000057220459
2014-02-10,5.320000171661377
2014-02-11,5.150000095367432
2014-02-12,5.119999885559082
2014-02-13,5.179999828338623
2014-02-14,5.269999980926514
2014-02-18,5.300000190734863
2014-02-19,5.389999866485596
2014-02-20,5.53000020980835
2014-02-21,5.679999828338623
2014-02-24,5.699999809265137
2014-02-25,5.730000019073486
2014-02-26,5.789999961853027
2014-02-27,5.849999904632568
2014-02-28,5.920000076293945
2014-03-03,5.900000095367432
2014-03-04,6.019999980926514
2014-03-05,6.039999961853027
2014-03-06,6.079999923706055
2014-03-07,6.090000152587891
2014-03-10,6.099999904632568
2014-03-11,6.119999885559082
2014-03-12,6.119999885559082
2014-03-13,6.050000190734863
2014-03-14,6.119999885559082
2014-03-17,6.179999828338623
2014-03-18,6.429999828338623
2014-03-19,6.440000057220459
2014-03-20,6.480000019073486
2014-03-21,6.489999771118164
2014-03-24,6.420000076293945
2014-03-25,6.539999961853027
2014-03-26,6.489999771118164
2014-03-27,6.519999980926514
2014-03-28,6.639999866485596
2014-03-31,6.860000133514404
2014-04-01,7.119999885559082
2014-04-02,7.179999828338623
2014-04-03,7.199999809265137
2014-04-04,7.110000133514404
2014-04-07,7.119999885559082
2014-04-08,7.230000019073486
2014-04-09,7.340000152587891
2014-04-10,7.159999847412109
2014-04-11,6.949999809265137
2014-04-14,6.909999847412109
2014-04-15,6.880000114440918
2014-04-16,6.940000057220459
2014-04-17,7.019999980926514
2014-04-21,7.03000020980835
2014-04-22,7.380000114440918
2014-04-23,7.440000057220459
2014-04-24,7.480000019073486
2014-04-25,7.159999847412109
2014-04-28,7.070000171661377
2014-04-29,7.800000190734863
2014-04-30,7.949999809265137
2014-05-01,8.109999656677246
2014-05-02,8.479999542236328
2014-05-05,8.579999923706055
2014-05-06,8.579999923706055
2014-05-07,8.640000343322754
2014-05-08,8.84000015258789
2014-05-09,8.869999885559082
2014-05-12,9.180000305175781
2014-05-13,9.170000076293945
2014-05-14,9.130000114440918
2014-05-15,9.220000267028809
2014-05-16,9.369999885559082
2014-05-19,9.489999771118164
2014-05-20,9.350000381469727
2014-05-21,9.399999618530273
2014-05-22,9.430000305175781
2014-05-23,9.529999732971191
2014-05-27,9.899999618530273
2014-05-28,9.949999809265137
2014-05-29,10.119999885559082
2014-05-30,10.109999656677246
2014-06-02,10.319999694824219
2014-06-03,10.609999656677246
2014-06-04,10.8100004196167
2014-06-05,11.039999961853027
2014-06-06,10.75
2014-06-09,11.300000190734863
2014-06-10,11.359999656677246
2014-06-11,11.619999885559082
2014-06-12,11.680000305175781
2014-06-13,11.699999809265137
2014-06-16,11.859999656677246
2014-06-17,12.210000038146973
2014-06-18,12.180000305175781
2014-06-19,11.65999984741211
2014-06-20,10.850000381469727
2014-06-23,11.109999656677246
2014-06-24,11.0
2014-06-25,11.119999885559082
2014-06-26,11.010000228881836
2014-06-27,10.880000114440918
2014-06-30,11.180000305175781
2014-07-01,11.0
2014-07-02,11.119999885559082
2014-07-03,11.170000076293945
2014-07-07,11.149999618530273
2014-07-08,10.899999618530273
2014-07-09,11.170000076293945
2014-07-10,11.130000114440918
2014-07-11,11.109999656677246
2014-07-14,11.4399995803833
2014-07-15,11.15999984741211
2014-07-16,10.970000267028809
2014-07-17,10.75
2014-07-18,10.8100004196167
2014-07-21,10.829999923706055
2014-07-22,10.800000190734863
2014-07-23,10.350000381469727
2014-07-24,10.199999809265137
2014-07-25,9.789999961853027
2014-07-28,9.800000190734863
2014-07-29,9.430000305175781
2014-07-30,9.5600004196167
2014-07-31,8.850000381469727
2014-08-01,9.069999694824219
2014-08-04,9.069999694824219
2014-08-05,8.850000381469727
2014-08-06,9.100000381469727
2014-08-07,8.680000305175781
2014-08-08,8.9399995803833
2014-08-11,9.180000305175781
2014-08-12,9.130000114440918
2014-08-13,9.319999694824219
2014-08-14,9.319999694824219
2014-08-15,9.369999885559082
2014-08-18,9.640000343322754
2014-08-19,9.6899995803833
2014-08-20,9.869999885559082
2014-08-21,9.960000038146973
2014-08-22,10.100000381469727
2014-08-25,10.140000343322754
2014-08-26,10.399999618530273
2014-08-27,10.329999923706055
2014-08-28,10.25
2014-08-29,10.399999618530273
2014-09-02,10.619999885559082
2014-09-03,10.25
2014-09-04,9.920000076293945
2014-09-05,10.140000343322754
2014-09-08,10.140000343322754
2014-09-09,9.800000190734863
2014-09-10,9.510000228881836
2014-09-11,9.699999809265137
2014-09-12,9.420000076293945
2014-09-15,9.15999984741211
2014-09-16,9.399999618530273
2014-09-17,9.1899995803833
2014-09-18,9.399999618530273
2014-09-19,9.270000457763672
2014-09-22,9.0600004196167
2014-09-23,8.9399995803833
2014-09-24,9.0600004196167
2014-09-25,8.770000457763672
2014-09-26,9.029999732971191
2014-09-29,8.899999618530273
2014-09-30,8.40999984741211
2014-10-01,8.260000228881836
2014-10-02,8.369999885559082
2014-10-03,8.609999656677246
2014-10-06,8.4399995803833
2014-10-07,8.350000381469727
2014-10-08,8.520000457763672
2014-10-09,8.180000305175781
2014-10-10,7.179999828338623
2014-10-13,6.75
2014-10-14,6.579999923706055
2014-10-15,6.769999980926514
2014-10-16,6.960000038146973
2014-10-17,6.840000152587891
2014-10-20,7.0
2014-10-21,7.400000095367432
2014-10-22,7.230000019073486
2014-10-23,7.550000190734863
2014-10-24,7.559999942779541
2014-10-27,7.489999771118164
2014-10-28,6.329999923706055
2014-10-29,6.110000133514404
2014-10-30,5.96999979019165
2014-10-31,6.78000020980835
2014-11-03,6.53000020980835
2014-11-04,6.320000171661377
2014-11-05,6.460000038146973
2014-11-06,6.53000020980835
2014-11-07,6.389999866485596
2014-11-10,6.349999904632568
2014-11-11,6.519999980926514
2014-11-12,6.440000057220459
2014-11-13,6.389999866485596
2014-11-14,6.389999866485596
2014-11-17,6.739999771118164
2014-11-18,7.070000171661377
2014-11-19,6.929999828338623
2014-11-20,6.769999980926514
2014-11-21,6.809999942779541
2014-11-24,6.820000171661377
2014-11-25,6.96999979019165
2014-11-26,7.019999980926514
2014-11-28,6.690000057220459
2014-12-01,6.53000020980835
2014-12-02,6.340000152587891
2014-12-03,6.650000095367432
2014-12-04,6.840000152587891
2014-12-05,6.940000057220459
2014-12-08,6.619999885559082
2014-12-09,6.599999904632568
2014-12-10,6.380000114440918
2014-12-11,6.449999809265137
2014-12-12,6.309999942779541
2014-12-15,6.260000228881836
2014-12-16,6.329999923706055
2014-12-17,6.599999904632568
2014-12-18,6.71999979019165
2014-12-19,6.940000057220459
2014-12-22,6.820000171661377
2014-12-23,6.949999809265137
2014-12-24,7.159999847412109
2014-12-26,7.190000057220459
2014-12-29,7.099999904632568
2014-12-30,7.139999866485596
2014-12-31,7.099999904632568
2015-01-02,7.119999885559082
2015-01-05,6.730000019073486
2015-01-06,6.46999979019165
2015-01-07,6.510000228881836
2015-01-08,6.670000076293945
2015-01-09,6.650000095367432
2015-01-12,6.480000019073486
2015-01-13,6.420000076293945
2015-01-14,6.429999828338623
2015-01-15,6.480000019073486
2015-01-16,6.659999847412109
2015-01-20,6.639999866485596
2015-01-21,6.78000020980835
2015-01-22,6.769999980926514
2015-01-23,6.760000228881836
2015-01-26,6.940000057220459
2015-01-27,6.730000019073486
2015-01-28,6.670000076293945
2015-01-29,6.599999904632568
2015-01-30,6.349999904632568
2015-02-02,6.519999980926514
2015-02-03,6.760000228881836
2015-02-04,6.75
2015-02-05,7.079999923706055
2015-02-06,7.099999904632568
2015-02-09,7.050000190734863
2015-02-10,8.800000190734863
2015-02-11,8.6899995803833
2015-02-12,8.920000076293945
2015-02-13,8.899999618530273
2015-02-17,9.300000190734863
2015-02-18,9.020000457763672
2015-02-19,9.140000343322754
2015-02-20,9.15999984741211
2015-02-23,9.1899995803833
2015-02-24,9.420000076293945
2015-02-25,9.239999771118164
2015-02-26,9.279999732971191
2015-02-27,9.729999542236328
2015-03-02,9.90999984741211
2015-03-03,9.819999694824219
2015-03-04,9.670000076293945
2015-03-05,9.850000381469727
2015-03-06,9.569999694824219
2015-03-09,9.34000015258789
2015-03-10,9.279999732971191
2015-03-11,9.270000457763672
2015-03-12,9.229999542236328
2015-03-13,9.180000305175781
2015-03-16,9.350000381469727
2015-03-17,9.229999542236328
2015-03-18,9.140000343322754
2015-03-19,9.149999618530273
2015-03-20,9.300000190734863
2015-03-23,9.210000038146973
2015-03-24,9.180000305175781
2015-03-25,8.470000267028809
2015-03-26,8.430000305175781
2015-03-27,8.630000114440918
2015-03-30,8.890000343322754
2015-03-31,8.84000015258789
2015-04-01,8.729999542236328
2015-04-02,8.75
2015-04-06,8.630000114440918
2015-04-07,8.449999809265137
2015-04-08,8.640000343322754
2015-04-09,8.649999618530273
2015-04-10,8.789999961853027
2015-04-13,8.789999961853027
2015-04-14,8.619999885559082
2015-04-15,8.770000457763672
2015-04-16,8.510000228881836
2015-04-17,8.34000015258789
2015-04-20,8.350000381469727
2015-04-21,8.300000190734863
2015-04-22,8.470000267028809
2015-04-23,8.529999732971191
2015-04-24,8.130000114440918
2015-04-27,7.940000057220459
2015-04-28,7.460000038146973
2015-04-29,7.110000133514404
2015-04-30,7.03000020980835
2015-05-01,7.159999847412109
2015-05-04,7.119999885559082
2015-05-05,6.809999942779541
2015-05-06,6.610000133514404
2015-05-07,6.929999828338623
2015-05-08,7.019999980926514
2015-05-11,6.96999979019165
2015-05-12,6.900000095367432
2015-05-13,6.960000038146973
2015-05-14,6.980000019073486
2015-05-15,7.110000133514404
2015-05-18,6.980000019073486
2015-05-19,6.869999885559082
2015-05-20,6.829999923706055
2015-05-21,6.760000228881836
2015-05-22,6.800000190734863
2015-05-26,6.650000095367432
2015-05-27,6.929999828338623
2015-05-28,7.059999942779541
2015-05-29,6.760000228881836
2015-06-01,6.849999904632568
2015-06-02,6.670000076293945
2015-06-03,6.650000095367432
2015-06-04,6.590000152587891
2015-06-05,6.639999866485596
2015-06-08,6.389999866485596
2015-06-09,6.349999904632568
2015-06-10,6.480000019073486
2015-06-11,6.360000133514404
2015-06-12,6.329999923706055
2015-06-15,6.329999923706055
2015-06-16,6.389999866485596
2015-06-17,6.320000171661377
2015-06-18,6.409999847412109
2015-06-19,6.329999923706055
2015-06-22,6.489999771118164
2015-06-23,6.429999828338623
2015-06-24,6.369999885559082
2015-06-25,6.389999866485596
2015-06-26,6.139999866485596
2015-06-29,5.900000095367432
2015-06-30,5.980000019073486
2015-07-01,5.929999828338623
2015-07-02,5.840000152587891
2015-07-06,5.630000114440918
2015-07-07,5.809999942779541
2015-07-08,5.840000152587891
2015-07-09,5.5
2015-07-10,5.650000095367432
2015-07-13,5.730000019073486
2015-07-14,5.889999866485596
2015-07-15,5.650000095367432
2015-07-16,5.599999904632568
2015-07-17,5.460000038146973
2015-07-20,5.329999923706055
2015-07-21,5.369999885559082
2015-07-22,5.190000057220459
2015-07-23,5.130000114440918
2015-07-24,5.039999961853027
2015-07-27,4.920000076293945
2015-07-28,4.199999809265137
2015-07-29,4.260000228881836
2015-07-30,4.25
2015-07-31,4.409999847412109
2015-08-03,4.289999961853027
2015-08-04,4.159999847412109
2015-08-05,4.139999866485596
2015-08-06,4.289999961853027
2015-08-07,4.210000038146973
2015-08-10,4.480000019073486
2015-08-11,4.289999961853027
2015-08-12,4.449999809265137
2015-08-13,4.429999828338623
2015-08-14,4.449999809265137
2015-08-17,4.480000019073486
2015-08-18,4.28000020980835
2015-08-19,4.440000057220459
2015-08-20,4.210000038146973
2015-08-21,4.389999866485596
2015-08-24,4.760000228881836
2015-08-25,4.619999885559082
2015-08-26,4.619999885559082
2015-08-27,5.050000190734863
2015-08-28,5.070000171661377
2015-08-31,5.400000095367432
2015-09-01,5.059999942779541
2015-09-02,5.170000076293945
2015-09-03,5.409999847412109
2015-09-04,5.309999942779541
2015-09-08,5.519999980926514
2015-09-09,5.369999885559082
2015-09-10,5.369999885559082
2015-09-11,5.28000020980835
2015-09-14,5.289999961853027
2015-09-15,5.309999942779541
2015-09-16,5.110000133514404
2015-09-17,5.070000171661377
2015-09-18,4.880000114440918
2015-09-21,4.789999961853027
2015-09-22,4.550000190734863
2015-09-23,4.360000133514404
2015-09-24,4.409999847412109
2015-09-25,4.400000095367432
2015-09-28,4.199999809265137
2015-09-29,4.289999961853027
2015-09-30,4.489999771118164
2015-10-01,4.440000057220459
2015-10-02,4.579999923706055
2015-10-05,4.739999771118164
2015-10-06,4.860000133514404
2015-10-07,4.949999809265137
2015-10-08,5.010000228881836
2015-10-09,5.119999885559082
2015-10-12,4.909999847412109
2015-10-13,4.78000020980835
2015-10-14,5.110000133514404
2015-10-15,5.340000152587891
2015-10-16,5.289999961853027
2015-10-19,5.210000038146973
2015-10-20,5.329999923706055
2015-10-21,5.420000076293945
2015-10-22,5.550000190734863
2015-10-23,5.75
2015-10-26,5.650000095367432
2015-10-27,6.260000228881836
2015-10-28,6.409999847412109
2015-10-29,6.190000057220459
2015-10-30,6.21999979019165
2015-11-02,6.329999923706055
2015-11-03,6.510000228881836
2015-11-04,6.46999979019165
2015-11-05,6.489999771118164
2015-11-06,6.670000076293945
2015-11-09,6.5
2015-11-10,6.21999979019165
2015-11-11,6.230000019073486
2015-11-12,6.090000152587891
2015-11-13,6.21999979019165
2015-11-16,6.349999904632568
2015-11-17,6.03000020980835
2015-11-18,6.329999923706055
2015-11-19,6.349999904632568
2015-11-20,6.239999771118164
2015-11-23,6.340000152587891
2015-11-24,6.539999961853027
2015-11-25,6.630000114440918
2015-11-27,6.659999847412109
2015-11-30,6.800000190734863
2015-12-01,6.869999885559082
2015-12-02,6.920000076293945
2015-12-03,6.849999904632568
2015-12-04,6.929999828338623
2015-12-07,6.730000019073486
2015-12-08,6.630000114440918
2015-12-09,6.409999847412109
2015-12-10,6.440000057220459
2015-12-11,6.199999809265137
2015-12-14,6.010000228881836
2015-12-15,6.210000038146973
2015-12-16,6.440000057220459
2015-12-17,6.300000190734863
2015-12-18,6.090000152587891
2015-12-21,6.329999923706055
2015-12-22,6.570000171661377
2015-12-23,6.679999828338623
2015-12-24,6.619999885559082
2015-12-28,6.400000095367432
2015-12-29,6.400000095367432
2015-12-30,6.260000228881836
2015-12-31,6.079999923706055
2016-01-04,6.039999961853027
2016-01-05,6.130000114440918
2016-01-06,5.880000114440918
2016-01-07,5.639999866485596
2016-01-08,5.619999885559082
2016-01-11,5.659999847412109
2016-01-12,5.659999847412109
2016-01-13,5.650000095367432
2016-01-14,5.670000076293945
2016-01-15,5.559999942779541
2016-01-19,5.429999828338623
2016-01-20,5.53000020980835
2016-01-21,5.809999942779541
2016-01-22,6.070000171661377
2016-01-25,5.75
2016-01-26,5.940000057220459
2016-01-27,5.849999904632568
2016-01-28,5.789999961853027
2016-01-29,6.139999866485596
2016-02-01,5.929999828338623
2016-02-02,5.590000152587891
2016-02-03,5.610000133514404
2016-02-04,5.579999923706055
2016-02-05,5.360000133514404
2016-02-08,5.309999942779541
2016-02-09,5.239999771118164
2016-02-10,5.25
2016-02-11,5.190000057220459
2016-02-12,4.130000114440918
2016-02-16,4.360000133514404
2016-02-17,4.599999904632568
2016-02-18,4.610000133514404
2016-02-19,4.539999961853027
2016-02-22,4.960000038146973
2016-02-23,4.949999809265137
2016-02-24,4.980000019073486
2016-02-25,5.050000190734863
2016-02-26,5.119999885559082
2016-02-29,5.059999942779541
2016-03-01,5.210000038146973
2016-03-02,5.380000114440918
2016-03-03,5.489999771118164
2016-03-04,5.269999980926514
2016-03-07,5.269999980926514
2016-03-08,5.099999904632568
2016-03-09,5.119999885559082
2016-03-10,5.199999809265137
2016-03-11,5.360000133514404
2016-03-14,5.349999904632568
2016-03-15,5.190000057220459
2016-03-16,5.309999942779541
2016-03-17,5.389999866485596
2016-03-18,5.610000133514404
2016-03-21,5.71999979019165
2016-03-22,5.789999961853027
2016-03-23,5.639999866485596
2016-03-24,5.630000114440918
2016-03-28,5.539999961853027
2016-03-29,5.610000133514404
2016-03-30,5.800000190734863
2016-03-31,5.889999866485596
2016-04-01,5.699999809265137
2016-04-04,5.659999847412109
2016-04-05,5.550000190734863
2016-04-06,5.489999771118164
2016-04-07,5.449999809265137
2016-04-08,5.420000076293945
2016-04-11,5.460000038146973
2016-04-12,5.409999847412109
2016-04-13,5.659999847412109
2016-04-14,5.579999923706055
2016-04-15,5.570000171661377
2016-04-18,5.460000038146973
2016-04-19,5.46999979019165
2016-04-20,5.550000190734863
2016-04-21,5.46999979019165
2016-04-22,5.75
2016-04-25,5.699999809265137
2016-04-26,5.78000020980835
2016-04-27,5.840000152587891
2016-04-28,5.880000114440918
2016-04-29,5.710000038146973
2016-05-02,5.78000020980835
2016-05-03,5.800000190734863
2016-05-04,5.659999847412109
2016-05-05,5.579999923706055
2016-05-06,5.639999866485596
2016-05-09,5.610000133514404
2016-05-10,5.739999771118164
2016-05-11,5.690000057220459
2016-05-12,5.5
2016-05-13,5.570000171661377
2016-05-16,5.670000076293945
2016-05-17,5.670000076293945
2016-05-18,5.730000019073486
2016-05-19,5.579999923706055
2016-05-20,5.820000171661377
2016-05-23,6.090000152587891
2016-05-24,6.260000228881836
2016-05-25,6.179999828338623
2016-05-26,6.199999809265137
2016-05-27,6.360000133514404
2016-05-31,6.309999942779541
2016-06-01,6.369999885559082
2016-06-02,6.380000114440918
2016-06-03,6.389999866485596
2016-06-06,6.420000076293945
2016-06-07,6.440000057220459
2016-06-08,6.420000076293945
2016-06-09,6.320000171661377
2016-06-10,6.110000133514404
2016-06-13,6.110000133514404
2016-06-14,6.099999904632568
2016-06-15,6.039999961853027
2016-06-16,5.929999828338623
2016-06-17,5.920000076293945
2016-06-20,6.019999980926514
2016-06-21,6.050000190734863
2016-06-22,6.0
2016-06-23,6.190000057220459
2016-06-24,5.800000190734863
2016-06-27,5.369999885559082
2016-06-28,5.630000114440918
2016-06-29,5.659999847412109
2016-06-30,5.75
2016-07-01,5.710000038146973
2016-07-05,5.630000114440918
2016-07-06,5.599999904632568
2016-07-07,5.599999904632568
2016-07-08,5.960000038146973
2016-07-11,6.0
2016-07-12,6.150000095367432
2016-07-13,6.130000114440918
2016-07-14,6.159999847412109
2016-07-15,6.179999828338623
2016-07-18,6.21999979019165
2016-07-19,6.170000076293945
2016-07-20,6.289999961853027
2016-07-21,6.269999980926514
2016-07-22,6.269999980926514
2016-07-25,6.239999771118164
2016-07-26,6.260000228881836
2016-07-27,6.46999979019165
2016-07-28,6.329999923706055
2016-07-29,6.289999961853027
2016-08-01,6.449999809265137
2016-08-02,7.300000190734863
2016-08-03,7.519999980926514
2016-08-04,7.550000190734863
2016-08-05,8.0600004196167
2016-08-08,8.239999771118164
2016-08-09,8.34000015258789
2016-08-10,8.289999961853027
2016-08-11,8.539999961853027
2016-08-12,8.960000038146973
2016-08-15,9.199999809265137
2016-08-16,8.9399995803833
2016-08-17,9.390000343322754
2016-08-18,9.220000267028809
2016-08-19,9.260000228881836
2016-08-22,9.25
2016-08-23,9.260000228881836
2016-08-24,9.15999984741211
2016-08-25,9.130000114440918
2016-08-26,9.1899995803833
2016-08-29,9.270000457763672
2016-08-30,9.229999542236328
2016-08-31,9.100000381469727
2016-09-01,9.239999771118164
2016-09-02,9.25
2016-09-06,9.1899995803833
2016-09-07,9.25
2016-09-08,9.260000228881836
2016-09-09,8.720000267028809
2016-09-12,8.880000114440918
2016-09-13,8.600000381469727
2016-09-14,8.649999618530273
2016-09-15,8.899999618530273
2016-09-16,8.800000190734863
2016-09-19,8.880000114440918
2016-09-20,8.890000343322754
2016-09-21,9.220000267028809
2016-09-22,9.390000343322754
2016-09-23,9.130000114440918
2016-09-26,9.34000015258789
2016-09-27,9.399999618530273
2016-09-28,9.59000015258789
2016-09-29,9.539999961853027
2016-09-30,9.720000267028809
2016-10-03,9.729999542236328
2016-10-04,9.779999732971191
2016-10-05,9.899999618530273
2016-10-06,9.960000038146973
2016-10-07,9.920000076293945
2016-10-10,9.800000190734863
2016-10-11,9.430000305175781
2016-10-12,9.470000267028809
2016-10-13,9.350000381469727
2016-10-14,9.319999694824219
2016-10-17,9.329999923706055
2016-10-18,9.390000343322754
2016-10-19,9.489999771118164
2016-10-20,9.710000038146973
2016-10-21,9.619999885559082
2016-10-24,9.770000457763672
2016-10-25,9.65999984741211
2016-10-26,9.479999542236328
2016-10-27,9.319999694824219
2016-10-28,9.1899995803833
2016-10-31,9.270000457763672
2016-11-01,10.229999542236328
2016-11-02,10.59000015258789
2016-11-03,10.210000038146973
2016-11-04,10.430000305175781
2016-11-07,10.920000076293945
2016-11-08,11.239999771118164
2016-11-09,11.1899995803833
2016-11-10,11.15999984741211
2016-11-11,11.5
2016-11-14,11.369999885559082
2016-11-15,11.300000190734863
2016-11-16,11.390000343322754
2016-11-17,11.800000190734863
2016-11-18,12.100000381469727
2016-11-21,12.319999694824219
2016-11-22,12.100000381469727
2016-11-23,12.229999542236328
2016-11-25,11.989999771118164
2016-11-28,12.09000015258789
2016-11-29,12.029999732971191
2016-11-30,11.819999694824219
2016-12-01,10.699999809265137
2016-12-02,10.869999885559082
2016-12-05,11.239999771118164
2016-12-06,11.260000228881836
2016-12-07,11.4399995803833
2016-12-08,11.369999885559082
2016-12-09,10.859999656677246
2016-12-12,10.699999809265137
2016-12-13,10.789999961853027
2016-12-14,10.850000381469727
2016-12-15,11.010000228881836
2016-12-16,10.729999542236328
2016-12-19,10.850000381469727
2016-12-20,10.979999542236328
2016-12-21,11.0600004196167
2016-12-22,10.960000038146973
2016-12-23,11.020000457763672
2016-12-27,11.229999542236328
2016-12-28,10.930000305175781
2016-12-29,10.819999694824219
2016-12-30,10.550000190734863
2017-01-03,10.649999618530273
2017-01-04,10.609999656677246
2017-01-05,10.350000381469727
2017-01-06,10.270000457763672
2017-01-09,10.390000343322754
2017-01-10,10.6899995803833
2017-01-11,10.75
2017-01-12,10.489999771118164
2017-01-13,10.460000038146973
2017-01-17,9.789999961853027
2017-01-18,9.859999656677246
2017-01-19,9.680000305175781
2017-01-20,9.6899995803833
2017-01-23,9.550000190734863
2017-01-24,9.770000457763672
2017-01-25,9.859999656677246
2017-01-26,9.729999542236328
2017-01-27,9.699999809265137
2017-01-30,9.529999732971191
2017-01-31,9.40999984741211
2017-02-01,9.630000114440918
2017-02-02,9.920000076293945
2017-02-03,10.069999694824219
2017-02-06,9.979999542236328
2017-02-07,9.600000381469727
2017-02-08,9.65999984741211
2017-02-09,9.930000305175781
2017-02-10,9.970000267028809
2017-02-13,10.4399995803833
2017-02-14,9.609999656677246
2017-02-15,9.600000381469727
2017-02-16,10.010000228881836
2017-02-17,10.050000190734863
2017-02-21,10.34000015258789
2017-02-22,10.100000381469727
2017-02-23,10.149999618530273
2017-02-24,10.130000114440918
2017-02-27,9.859999656677246
2017-02-28,9.819999694824219
2017-03-01,10.149999618530273
2017-03-02,10.25
2017-03-03,10.25
2017-03-06,10.489999771118164
2017-03-07,10.640000343322754
2017-03-08,10.739999771118164
2017-03-09,10.550000190734863
2017-03-10,10.890000343322754
2017-03-13,11.0600004196167
2017-03-14,10.899999618530273
2017-03-15,10.890000343322754
2017-03-16,10.949999809265137
2017-03-17,11.09000015258789
2017-03-20,11.229999542236328
2017-03-21,10.59000015258789
2017-03-22,10.779999732971191
2017-03-23,10.859999656677246
2017-03-24,10.949999809265137
2017-03-27,11.15999984741211
2017-03-28,11.149999618530273
2017-03-29,11.09000015258789
2017-03-30,11.279999732971191
2017-03-31,11.59000015258789
2017-04-03,11.5600004196167
2017-04-04,11.460000038146973
2017-04-05,11.239999771118164
2017-04-06,11.449999809265137
2017-04-07,11.510000228881836
2017-04-10,11.390000343322754
2017-04-11,11.199999809265137
2017-04-12,11.210000038146973
2017-04-13,10.899999618530273
2017-04-17,11.199999809265137
2017-04-18,11.220000267028809
2017-04-19,11.369999885559082
2017-04-20,11.880000114440918
2017-04-21,11.729999542236328
2017-04-24,11.880000114440918
2017-04-25,12.100000381469727
2017-04-26,11.979999542236328
2017-04-27,12.329999923706055
2017-04-28,11.779999732971191
2017-05-01,12.09000015258789
2017-05-02,11.710000038146973
2017-05-03,11.729999542236328
2017-05-04,11.960000038146973
2017-05-05,11.850000381469727
2017-05-08,11.729999542236328
2017-05-09,11.979999542236328
2017-05-10,11.960000038146973
2017-05-11,11.899999618530273
2017-05-12,11.670000076293945
2017-05-15,11.6899995803833
2017-05-16,11.670000076293945
2017-05-17,10.890000343322754
2017-05-18,10.84000015258789
2017-05-19,10.960000038146973
2017-05-22,11.119999885559082
2017-05-23,11.1899995803833
2017-05-24,11.399999618530273
2017-05-25,11.430000305175781
2017-05-26,11.739999771118164
2017-05-30,11.640000343322754
2017-05-31,11.34000015258789
2017-06-01,11.359999656677246
2017-06-02,11.34000015258789
2017-06-05,11.550000190734863
2017-06-06,11.729999542236328
2017-06-07,11.9399995803833
2017-06-08,12.239999771118164
2017-06-09,11.40999984741211
2017-06-12,11.100000381469727
2017-06-13,11.09000015258789
2017-06-14,10.729999542236328
2017-06-15,10.420000076293945
2017-06-16,10.5600004196167
2017-06-19,10.800000190734863
2017-06-20,10.670000076293945
2017-06-21,10.680000305175781
2017-06-22,10.649999618530273
2017-06-23,10.630000114440918
2017-06-26,10.369999885559082
2017-06-27,10.130000114440918
2017-06-28,10.449999809265137
2017-06-29,9.8100004196167
2017-06-30,9.770000457763672
2017-07-03,9.65999984741211
2017-07-05,9.819999694824219
2017-07-06,9.729999542236328
2017-07-07,9.829999923706055
2017-07-10,9.920000076293945
2017-07-11,10.039999961853027
2017-07-12,10.199999809265137
2017-07-13,10.170000076293945
2017-07-14,10.369999885559082
2017-07-17,10.449999809265137
2017-07-18,10.5600004196167
2017-07-19,10.890000343322754
2017-07-20,10.850000381469727
2017-07-21,10.960000038146973
2017-07-24,11.010000228881836
2017-07-25,11.010000228881836
2017-07-26,11.0600004196167
2017-07-27,10.8100004196167
2017-07-28,10.489999771118164
2017-07-31,10.369999885559082
2017-08-01,9.489999771118164
2017-08-02,9.170000076293945
2017-08-03,8.859999656677246
2017-08-04,8.770000457763672
2017-08-07,9.109999656677246
2017-08-08,9.119999885559082
2017-08-09,8.899999618530273
2017-08-10,8.529999732971191
2017-08-11,8.729999542236328
2017-08-14,8.800000190734863
2017-08-15,8.6899995803833
2017-08-16,8.84000015258789
2017-08-17,8.380000114440918
2017-08-18,8.460000038146973
2017-08-21,8.59000015258789
2017-08-22,8.680000305175781
2017-08-23,8.65999984741211
2017-08-24,8.710000038146973
2017-08-25,8.539999961853027
2017-08-28,8.630000114440918
2017-08-29,8.829999923706055
2017-08-30,8.960000038146973
2017-08-31,8.779999732971191
2017-09-01,9.079999923706055
2017-09-05,8.90999984741211
2017-09-06,8.930000305175781
2017-09-07,8.899999618530273
2017-09-08,8.949999809265137
2017-09-11,9.140000343322754
2017-09-12,9.229999542236328
2017-09-13,9.449999809265137
2017-09-14,9.449999809265137
2017-09-15,9.649999618530273
2017-09-18,9.979999542236328
2017-09-19,9.899999618530273
2017-09-20,9.8100004196167
2017-09-21,9.869999885559082
2017-09-22,10.0600004196167
2017-09-25,9.9399995803833
2017-09-26,10.079999923706055
2017-09-27,10.300000190734863
2017-09-28,10.550000190734863
2017-09-29,10.550000190734863
2017-10-02,10.649999618530273
2017-10-03,10.579999923706055
2017-10-04,10.5
2017-10-05,10.539999961853027
2017-10-06,10.5
2017-10-09,10.5
2017-10-10,10.550000190734863
2017-10-11,10.710000038146973
2017-10-12,10.869999885559082
2017-10-13,10.880000114440918
2017-10-16,10.8100004196167
2017-10-17,10.649999618530273
2017-10-18,10.6899995803833
2017-10-19,10.59000015258789
2017-10-20,10.6899995803833
2017-10-23,10.529999732971191
2017-10-24,10.630000114440918
2017-10-25,10.8100004196167
2017-10-26,10.890000343322754
2017-10-27,10.949999809265137
2017-10-30,11.09000015258789
2017-10-31,11.569999694824219
2017-11-01,10.800000190734863
2017-11-02,11.130000114440918
2017-11-03,11.15999984741211
2017-11-06,11.40999984741211
2017-11-07,11.359999656677246
2017-11-08,11.479999542236328
2017-11-09,11.050000190734863
2017-11-10,10.989999771118164
2017-11-13,11.0
2017-11-14,10.899999618530273
2017-11-15,10.699999809265137
2017-11-16,10.859999656677246
2017-11-17,10.890000343322754
2017-11-20,11.050000190734863
2017-11-21,11.279999732971191
2017-11-22,11.210000038146973
2017-11-24,11.5
2017-11-27,11.390000343322754
2017-11-28,11.420000076293945
2017-11-29,10.710000038146973
2017-11-30,10.569999694824219
2017-12-01,10.449999809265137
2017-12-04,10.130000114440918
2017-12-05,10.25
2017-12-06,10.100000381469727
2017-12-07,10.260000228881836
2017-12-08,10.050000190734863
2017-12-11,10.279999732971191
2017-12-12,10.220000267028809
2017-12-13,10.170000076293945
2017-12-14,10.1899995803833
2017-12-15,10.539999961853027
2017-12-18,10.460000038146973
2017-12-19,10.449999809265137
2017-12-20,10.550000190734863
2017-12-21,10.329999923706055
2017-12-22,10.319999694824219
2017-12-26,10.109999656677246
2017-12-27,10.130000114440918
2017-12-28,10.1899995803833
2017-12-29,10.050000190734863
2018-01-02,10.319999694824219
2018-01-03,10.289999961853027
2018-01-04,10.949999809265137
2018-01-05,10.800000190734863
2018-01-08,10.6899995803833
2018-01-09,10.479999542236328
2018-01-10,10.399999618530273
2018-01-11,10.510000228881836
2018-01-12,10.470000267028809
2018-01-16,10.529999732971191
2018-01-17,10.859999656677246
2018-01-18,10.84000015258789
2018-01-19,10.90999984741211
2018-01-22,10.729999542236328
2018-01-23,10.829999923706055
2018-01-24,10.390000343322754
2018-01-25,10.039999961853027
2018-01-26,10.350000381469727
2018-01-29,10.34000015258789
2018-01-30,10.100000381469727
2018-01-31,10.0600004196167
2018-02-01,10.039999961853027
2018-02-02,9.720000267028809
2018-02-05,9.119999885559082
2018-02-06,9.449999809265137
2018-02-07,9.350000381469727
2018-02-08,8.819999694824219
2018-02-09,9.270000457763672
2018-02-12,9.5
2018-02-13,10.029999732971191
2018-02-14,10.3100004196167
2018-02-15,10.109999656677246
2018-02-16,10.130000114440918
2018-02-20,10.1899995803833
2018-02-21,9.989999771118164
2018-02-22,9.930000305175781
2018-02-23,10.220000267028809
2018-02-26,10.420000076293945
2018-02-27,10.199999809265137
2018-02-28,10.050000190734863
2018-03-01,10.279999732971191
2018-03-02,10.420000076293945
2018-03-05,10.430000305175781
2018-03-06,10.829999923706055
2018-03-07,10.949999809265137
2018-03-08,10.989999771118164
2018-03-09,11.40999984741211
2018-03-12,11.510000228881836
2018-03-13,11.149999618530273
2018-03-14,11.130000114440918
2018-03-15,11.25
2018-03-16,11.289999961853027
2018-03-19,11.079999923706055
2018-03-20,11.140000343322754
2018-03-21,11.260000228881836
2018-03-22,10.890000343322754
2018-03-23,10.279999732971191
2018-03-26,10.760000228881836
2018-03-27,10.130000114440918
2018-03-28,9.90999984741211
2018-03-29,10.130000114440918
2018-04-02,9.640000343322754
2018-04-03,9.760000228881836
2018-04-04,9.899999618530273
2018-04-05,9.819999694824219
2018-04-06,9.520000457763672
2018-04-09,9.489999771118164
2018-04-10,9.9399995803833
2018-04-11,9.90999984741211
2018-04-12,10.210000038146973
2018-04-13,10.119999885559082
2018-04-16,10.239999771118164
2018-04-17,10.380000114440918
2018-04-18,10.1899995803833
2018-04-19,9.75
2018-04-20,9.729999542236328
2018-04-23,9.550000190734863
2018-04-24,9.140000343322754
2018-04-25,8.819999694824219
2018-04-26,9.119999885559082
2018-04-27,8.449999809265137
2018-04-30,8.279999732971191
2018-05-01,8.510000228881836
2018-05-02,8.510000228881836
2018-05-03,8.420000076293945
2018-05-04,8.59000015258789
2018-05-07,8.390000343322754
2018-05-08,8.5
2018-05-09,8.569999694824219
2018-05-10,8.680000305175781
2018-05-11,8.630000114440918
2018-05-14,8.75
2018-05-15,8.619999885559082
2018-05-16,8.8100004196167
2018-05-17,8.859999656677246
2018-05-18,8.699999809265137
2018-05-21,8.789999961853027
2018-05-22,8.770000457763672
2018-05-23,8.789999961853027
2018-05-24,8.760000228881836
2018-05-25,9.180000305175781
2018-05-29,9.180000305175781
2018-05-30,9.229999542236328
2018-05-31,9.100000381469727
2018-06-01,9.319999694824219
2018-06-04,9.34000015258789
2018-06-05,9.380000114440918
2018-06-06,9.40999984741211
2018-06-07,9.279999732971191
2018-06-08,9.09000015258789
2018-06-11,9.0
2018-06-12,9.0
2018-06-13,8.960000038146973
2018-06-14,8.949999809265137
2018-06-15,9.170000076293945
2018-06-18,9.069999694824219
2018-06-19,9.039999961853027
2018-06-20,9.149999618530273
2018-06-21,9.0600004196167
2018-06-22,8.930000305175781
2018-06-25,8.670000076293945
2018-06-26,8.84000015258789
2018-06-27,8.609999656677246
2018-06-28,8.59000015258789
2018-06-29,8.59000015258789
2018-07-02,8.649999618530273
2018-07-03,8.449999809265137
2018-07-05,8.640000343322754
2018-07-06,8.789999961853027
2018-07-09,8.880000114440918
2018-07-10,8.949999809265137
2018-07-11,8.5
2018-07-12,8.600000381469727
2018-07-13,8.600000381469727
2018-07-16,8.5
2018-07-17,8.5
2018-07-18,8.930000305175781
2018-07-19,8.920000076293945
2018-07-20,8.739999771118164
2018-07-23,8.680000305175781
2018-07-24,8.760000228881836
2018-07-25,8.630000114440918
2018-07-26,8.899999618530273
2018-07-27,8.9399995803833
2018-07-30,8.989999771118164
2018-07-31,8.680000305175781
2018-08-01,8.630000114440918
2018-08-02,8.899999618530273
2018-08-03,9.050000190734863
2018-08-06,9.170000076293945
2018-08-07,9.220000267028809
2018-08-08,9.279999732971191
2018-08-09,9.229999542236328
2018-08-10,9.289999961853027
2018-08-13,9.34000015258789
2018-08-14,9.239999771118164
2018-08-15,8.829999923706055
2018-08-16,8.829999923706055
2018-08-17,8.739999771118164
2018-08-20,8.729999542236328
2018-08-21,8.789999961853027
2018-08-22,8.6899995803833
2018-08-23,8.59000015258789
2018-08-24,8.640000343322754
2018-08-27,8.779999732971191
2018-08-28,8.779999732971191
2018-08-29,8.640000343322754
2018-08-30,8.819999694824219
2018-08-31,8.729999542236328
2018-09-04,8.369999885559082
2018-09-05,8.260000228881836
2018-09-06,7.849999904632568
2018-09-07,7.809999942779541
2018-09-10,7.829999923706055
2018-09-11,7.619999885559082
2018-09-12,7.329999923706055
2018-09-13,7.659999847412109
2018-09-14,7.71999979019165
2018-09-17,7.800000190734863
2018-09-18,7.739999771118164
2018-09-19,7.71999979019165
2018-09-20,7.840000152587891
2018-09-21,7.78000020980835
2018-09-24,7.809999942779541
2018-09-25,7.599999904632568
2018-09-26,7.519999980926514
2018-09-27,7.409999847412109
2018-09-28,7.389999866485596
2018-10-01,7.300000190734863
2018-10-02,7.309999942779541
2018-10-03,7.480000019073486
2018-10-04,7.320000171661377
2018-10-05,7.059999942779541
2018-10-08,6.889999866485596
2018-10-09,6.849999904632568
2018-10-10,6.659999847412109
2018-10-11,6.730000019073486
2018-10-12,6.820000171661377
2018-10-15,6.96999979019165
2018-10-16,7.150000095367432
2018-10-17,6.71999979019165
2018-10-18,6.28000020980835
2018-10-19,6.090000152587891
2018-10-22,6.150000095367432
2018-10-23,6.179999828338623
2018-10-24,5.739999771118164
2018-10-25,6.03000020980835
2018-10-26,5.980000019073486
2018-10-29,6.03000020980835
2018-10-30,7.170000076293945
2018-10-31,7.150000095367432
2018-11-01,7.28000020980835
2018-11-02,7.139999866485596
2018-11-05,6.989999771118164
2018-11-06,7.059999942779541
2018-11-07,7.050000190734863
2018-11-08,7.03000020980835
2018-11-09,6.71999979019165
2018-11-12,6.510000228881836
2018-11-13,6.539999961853027
2018-11-14,6.449999809265137
2018-11-15,6.670000076293945
2018-11-16,6.639999866485596
2018-11-19,6.28000020980835
2018-11-20,6.300000190734863
2018-11-21,6.340000152587891
2018-11-23,6.349999904632568
2018-11-26,6.440000057220459
2018-11-27,6.610000133514404
2018-11-28,6.840000152587891
2018-11-29,6.71999979019165
2018-11-30,6.849999904632568
2018-12-03,6.96999979019165
2018-12-04,6.579999923706055
2018-12-06,6.369999885559082
2018-12-07,6.170000076293945
2018-12-10,6.309999942779541
2018-12-11,6.289999961853027
2018-12-12,6.53000020980835
2018-12-13,6.5
2018-12-14,6.369999885559082
2018-12-17,6.309999942779541
2018-12-18,6.440000057220459
2018-12-19,6.179999828338623
2018-12-20,6.230000019073486
2018-12-21,5.989999771118164
2018-12-24,5.75
2018-12-26,6.210000038146973
2018-12-27,6.389999866485596
2018-12-28,6.5
2018-12-31,6.559999942779541
2019-01-02,6.670000076293945
2019-01-03,6.329999923706055
2019-01-04,6.599999904632568
2019-01-07,7.010000228881836
2019-01-08,7.03000020980835
2019-01-09,7.130000114440918
2019-01-10,7.369999885559082
2019-01-11,7.449999809265137
2019-01-14,7.369999885559082
2019-01-15,7.369999885559082
2019-01-16,7.269999980926514
2019-01-17,7.21999979019165
2019-01-18,7.489999771118164
2019-01-22,7.28000020980835
2019-01-23,7.090000152587891
2019-01-24,7.380000114440918
2019-01-25,7.75
2019-01-28,7.829999923706055
2019-01-29,7.78000020980835
2019-01-30,7.929999828338623
2019-01-31,8.0
2019-02-01,8.140000343322754
2019-02-04,8.220000267028809
2019-02-05,8.279999732971191
2019-02-06,8.630000114440918
2019-02-07,8.40999984741211
2019-02-08,8.380000114440918
2019-02-11,8.479999542236328
2019-02-12,8.920000076293945
2019-02-13,9.239999771118164
2019-02-14,9.40999984741211
2019-02-15,9.479999542236328
2019-02-19,9.399999618530273
2019-02-20,9.470000267028809
2019-02-21,9.34000015258789
2019-02-22,9.34000015258789
2019-02-25,9.289999961853027
2019-02-26,9.09000015258789
2019-02-27,8.84000015258789
2019-02-28,8.779999732971191
2019-03-01,8.899999618530273
2019-03-04,9.029999732971191
2019-03-05,8.850000381469727
2019-03-06,8.649999618530273
2019-03-07,8.59000015258789
2019-03-08,8.470000267028809
2019-03-11,8.640000343322754
2019-03-12,8.729999542236328
2019-03-13,8.59000015258789
2019-03-14,8.600000381469727
2019-03-15,8.770000457763672
2019-03-18,8.6899995803833
2019-03-19,8.710000038146973
2019-03-20,8.600000381469727
2019-03-21,8.930000305175781
2019-03-22,8.65999984741211
2019-03-25,8.630000114440918
2019-03-26,8.640000343322754
2019-03-27,8.479999542236328
2019-03-28,8.460000038146973
2019-03-29,8.539999961853027
2019-04-01,8.770000457763672
2019-04-02,8.739999771118164
2019-04-03,8.880000114440918
2019-04-04,8.880000114440918
2019-04-05,8.949999809265137
2019-04-08,8.960000038146973
2019-04-09,8.880000114440918
2019-04-10,8.960000038146973
2019-04-11,8.979999542236328
2019-04-12,9.109999656677246
2019-04-15,9.039999961853027
2019-04-16,9.020000457763672
2019-04-17,9.029999732971191
2019-04-18,9.029999732971191
2019-04-22,8.899999618530273
2019-04-23,9.029999732971191
2019-04-24,9.5
2019-04-25,9.399999618530273
2019-04-26,9.170000076293945
2019-04-29,9.119999885559082
2019-04-30,9.0600004196167
2019-05-01,8.979999542236328
2019-05-02,8.960000038146973
2019-05-03,8.40999984741211
2019-05-06,8.010000228881836
2019-05-07,7.800000190734863
2019-05-08,7.760000228881836
2019-05-09,7.610000133514404
2019-05-10,7.539999961853027
2019-05-13,7.130000114440918
2019-05-14,7.199999809265137
2019-05-15,7.309999942779541
2019-05-16,7.25
2019-05-17,7.159999847412109
2019-05-20,7.050000190734863
2019-05-21,7.010000228881836
2019-05-22,6.889999866485596
2019-05-23,6.630000114440918
2019-05-24,6.550000190734863
2019-05-28,6.5
2019-05-29,6.550000190734863
2019-05-30,6.679999828338623
2019-05-31,6.480000019073486
2019-06-03,6.579999923706055
2019-06-04,7.099999904632568
2019-06-05,7.0
2019-06-06,7.099999904632568
2019-06-07,7.070000171661377
2019-06-10,7.400000095367432
2019-06-11,7.369999885559082
2019-06-12,7.210000038146973
2019-06-13,7.260000228881836
2019-06-14,6.860000133514404
2019-06-17,6.860000133514404
2019-06-18,7.119999885559082
2019-06-19,7.059999942779541
2019-06-20,7.190000057220459
2019-06-21,7.070000171661377
2019-06-24,7.059999942779541
2019-06-25,6.909999847412109
2019-06-26,7.199999809265137
2019-06-27,7.380000114440918
2019-06-28,7.460000038146973
2019-07-01,7.679999828338623
2019-07-02,7.539999961853027
2019-07-03,7.480000019073486
2019-07-05,7.400000095367432
2019-07-08,7.349999904632568
2019-07-09,7.389999866485596
2019-07-10,7.440000057220459
2019-07-11,7.400000095367432
2019-07-12,7.559999942779541
2019-07-15,7.570000171661377
2019-07-16,7.570000171661377
2019-07-17,7.599999904632568
2019-07-18,7.650000095367432
2019-07-19,7.619999885559082
2019-07-22,7.75
2019-07-23,7.929999828338623
2019-07-24,8.319999694824219
2019-07-25,8.039999961853027
2019-07-26,8.199999809265137
2019-07-29,8.180000305175781
2019-07-30,9.779999732971191
2019-07-31,9.229999542236328
2019-08-01,9.239999771118164
2019-08-02,9.15999984741211
2019-08-05,8.859999656677246
2019-08-06,8.65999984741211
2019-08-07,8.770000457763672
2019-08-08,9.020000457763672
2019-08-09,8.9399995803833
2019-08-12,8.829999923706055
2019-08-13,8.949999809265137
2019-08-14,8.640000343322754
2019-08-15,8.640000343322754
2019-08-16,8.930000305175781
2019-08-19,9.039999961853027
2019-08-20,8.920000076293945
2019-08-21,9.020000457763672
2019-08-22,9.09000015258789
2019-08-23,8.800000190734863
2019-08-26,8.609999656677246
2019-08-27,8.510000228881836
2019-08-28,8.65999984741211
2019-08-29,8.84000015258789
2019-08-30,8.75
2019-09-03,8.600000381469727
2019-09-04,8.829999923706055
2019-09-05,9.069999694824219
2019-09-06,9.0600004196167
2019-09-09,9.149999618530273
2019-09-10,9.109999656677246
2019-09-11,9.239999771118164
2019-09-12,9.229999542236328
2019-09-13,9.119999885559082
2019-09-16,9.069999694824219
2019-09-17,9.130000114440918
2019-09-18,9.149999618530273
2019-09-19,9.329999923706055
2019-09-20,9.039999961853027
2019-09-23,9.170000076293945
2019-09-24,8.949999809265137
2019-09-25,9.170000076293945
2019-09-26,9.0600004196167
2019-09-27,8.899999618530273
2019-09-30,9.100000381469727
2019-10-01,9.199999809265137
2019-10-02,9.239999771118164
2019-10-03,9.529999732971191
2019-10-04,9.880000114440918
2019-10-07,9.760000228881836
2019-10-08,9.5600004196167
2019-10-09,9.65999984741211
2019-10-10,9.65999984741211
2019-10-11,9.760000228881836
2019-10-14,9.739999771118164
2019-10-15,9.869999885559082
2019-10-16,9.779999732971191
2019-10-17,9.850000381469727
2019-10-18,9.890000343322754
2019-10-21,10.1899995803833
2019-10-22,10.100000381469727
2019-10-23,9.890000343322754
2019-10-24,10.359999656677246
2019-10-25,10.829999923706055
2019-10-28,11.079999923706055
2019-10-29,14.920000076293945
2019-10-30,13.600000381469727
2019-10-31,12.430000305175781
2019-11-01,12.960000038146973
2019-11-04,13.329999923706055
2019-11-05,13.210000038146973
2019-11-06,13.069999694824219
2019-11-07,12.760000228881836
2019-11-08,12.789999961853027
2019-11-11,12.710000038146973
2019-11-12,12.90999984741211
2019-11-13,12.960000038146973
2019-11-14,12.880000114440918
2019-11-15,13.0
2019-11-18,12.899999618530273
2019-11-19,13.0
2019-11-20,13.329999923706055
2019-11-21,12.319999694824219
2019-11-22,12.130000114440918
2019-11-25,12.5
2019-11-26,12.319999694824219
2019-11-27,12.329999923706055
2019-11-29,12.09000015258789
2019-12-02,11.789999961853027
2019-12-03,11.739999771118164
2019-12-04,12.149999618530273
2019-12-05,12.449999809265137
2019-12-06,12.600000381469727
2019-12-09,12.550000190734863
2019-12-10,12.430000305175781
2019-12-11,12.75
2019-12-12,12.739999771118164
2019-12-13,12.789999961853027
2019-12-16,12.90999984741211
2019-12-17,12.9399995803833
2019-12-18,12.979999542236328
2019-12-19,12.960000038146973
2019-12-20,13.180000305175781
2019-12-23,13.449999809265137
2019-12-24,13.359999656677246
2019-12-26,13.890000343322754
2019-12-27,13.279999732971191
2019-12-30,13.270000457763672
2019-12-31,13.0
