Date,ANSS
2007-12-31,41.459999084472656
2008-01-02,40.369998931884766
2008-01-03,40.25
2008-01-04,38.58000183105469
2008-01-07,38.0
2008-01-08,37.52000045776367
2008-01-09,37.83000183105469
2008-01-10,36.54999923706055
2008-01-11,35.75
2008-01-14,36.279998779296875
2008-01-15,35.56999969482422
2008-01-16,35.439998626708984
2008-01-17,34.0
2008-01-18,33.25
2008-01-22,33.060001373291016
2008-01-23,33.86000061035156
2008-01-24,36.18000030517578
2008-01-25,35.310001373291016
2008-01-28,35.68000030517578
2008-01-29,36.09000015258789
2008-01-30,35.349998474121094
2008-01-31,34.90999984741211
2008-02-01,36.11000061035156
2008-02-04,36.650001525878906
2008-02-05,35.7400016784668
2008-02-06,34.7400016784668
2008-02-07,33.959999084472656
2008-02-08,33.880001068115234
2008-02-11,35.20000076293945
2008-02-12,35.27000045776367
2008-02-13,36.650001525878906
2008-02-14,34.79999923706055
2008-02-15,34.619998931884766
2008-02-19,34.529998779296875
2008-02-20,35.5
2008-02-21,37.560001373291016
2008-02-22,36.689998626708984
2008-02-25,36.849998474121094
2008-02-26,38.86000061035156
2008-02-27,38.560001373291016
2008-02-28,38.41999816894531
2008-02-29,37.369998931884766
2008-03-03,37.18000030517578
2008-03-04,37.189998626708984
2008-03-05,36.83000183105469
2008-03-06,36.119998931884766
2008-03-07,35.11000061035156
2008-03-10,33.90999984741211
2008-03-11,35.2599983215332
2008-03-12,35.810001373291016
2008-03-13,36.63999938964844
2008-03-14,35.54999923706055
2008-03-17,34.91999816894531
2008-03-18,37.810001373291016
2008-03-19,36.369998931884766
2008-03-20,37.29999923706055
2008-03-24,38.790000915527344
2008-03-25,39.61000061035156
2008-03-26,39.880001068115234
2008-03-27,38.11000061035156
2008-03-28,37.91999816894531
2008-03-31,34.52000045776367
2008-04-01,37.31999969482422
2008-04-02,37.33000183105469
2008-04-03,36.88999938964844
2008-04-04,36.5
2008-04-07,36.43000030517578
2008-04-08,36.38999938964844
2008-04-09,36.130001068115234
2008-04-10,36.869998931884766
2008-04-11,35.470001220703125
2008-04-14,36.119998931884766
2008-04-15,37.97999954223633
2008-04-16,39.150001525878906
2008-04-17,38.90999984741211
2008-04-18,40.2400016784668
2008-04-21,39.84000015258789
2008-04-22,38.54999923706055
2008-04-23,39.95000076293945
2008-04-24,40.5
2008-04-25,40.029998779296875
2008-04-28,39.91999816894531
2008-04-29,39.5
2008-04-30,40.22999954223633
2008-05-01,41.7599983215332
2008-05-02,43.470001220703125
2008-05-05,43.7400016784668
2008-05-06,43.34000015258789
2008-05-07,42.849998474121094
2008-05-08,42.900001525878906
2008-05-09,43.38999938964844
2008-05-12,44.88999938964844
2008-05-13,45.459999084472656
2008-05-14,45.13999938964844
2008-05-15,45.650001525878906
2008-05-16,44.959999084472656
2008-05-19,43.9900016784668
2008-05-20,44.02000045776367
2008-05-21,42.79999923706055
2008-05-22,42.4900016784668
2008-05-23,41.7599983215332
2008-05-27,43.45000076293945
2008-05-28,43.779998779296875
2008-05-29,46.2599983215332
2008-05-30,47.29999923706055
2008-06-02,47.59000015258789
2008-06-03,47.33000183105469
2008-06-04,48.56999969482422
2008-06-05,48.650001525878906
2008-06-06,46.189998626708984
2008-06-09,47.2400016784668
2008-06-10,47.13999938964844
2008-06-11,45.040000915527344
2008-06-12,44.83000183105469
2008-06-13,46.40999984741211
2008-06-16,47.029998779296875
2008-06-17,47.439998626708984
2008-06-18,47.72999954223633
2008-06-19,49.150001525878906
2008-06-20,46.939998626708984
2008-06-23,47.0
2008-06-24,45.45000076293945
2008-06-25,46.279998779296875
2008-06-26,45.91999816894531
2008-06-27,46.630001068115234
2008-06-30,47.119998931884766
2008-07-01,45.0
2008-07-02,42.310001373291016
2008-07-03,41.65999984741211
2008-07-07,41.54999923706055
2008-07-08,42.470001220703125
2008-07-09,42.65999984741211
2008-07-10,43.0
2008-07-11,42.83000183105469
2008-07-14,42.08000183105469
2008-07-15,43.150001525878906
2008-07-16,43.4900016784668
2008-07-17,45.0099983215332
2008-07-18,44.970001220703125
2008-07-21,44.27000045776367
2008-07-22,44.95000076293945
2008-07-23,45.119998931884766
2008-07-24,43.34000015258789
2008-07-25,43.849998474121094
2008-07-28,43.41999816894531
2008-07-29,44.33000183105469
2008-07-30,45.0
2008-07-31,45.880001068115234
2008-08-01,45.400001525878906
2008-08-04,45.369998931884766
2008-08-05,45.43000030517578
2008-08-06,44.75
2008-08-07,46.06999969482422
2008-08-08,48.459999084472656
2008-08-11,47.90999984741211
2008-08-12,46.9900016784668
2008-08-13,46.70000076293945
2008-08-14,47.209999084472656
2008-08-15,46.68000030517578
2008-08-18,45.15999984741211
2008-08-19,44.45000076293945
2008-08-20,44.11000061035156
2008-08-21,43.630001068115234
2008-08-22,43.849998474121094
2008-08-25,43.849998474121094
2008-08-26,43.810001373291016
2008-08-27,44.380001068115234
2008-08-28,45.02000045776367
2008-08-29,44.349998474121094
2008-09-02,44.810001373291016
2008-09-03,43.31999969482422
2008-09-04,42.4900016784668
2008-09-05,42.099998474121094
2008-09-08,42.15999984741211
2008-09-09,42.630001068115234
2008-09-10,43.119998931884766
2008-09-11,43.15999984741211
2008-09-12,43.619998931884766
2008-09-15,41.2400016784668
2008-09-16,41.5
2008-09-17,38.58000183105469
2008-09-18,40.20000076293945
2008-09-19,41.41999816894531
2008-09-22,39.81999969482422
2008-09-23,39.97999954223633
2008-09-24,38.939998626708984
2008-09-25,39.81999969482422
2008-09-26,38.56999969482422
2008-09-29,34.599998474121094
2008-09-30,37.869998931884766
2008-10-01,36.61000061035156
2008-10-02,33.380001068115234
2008-10-03,31.989999771118164
2008-10-06,29.889999389648438
2008-10-07,27.719999313354492
2008-10-08,28.170000076293945
2008-10-09,27.31999969482422
2008-10-10,28.610000610351562
2008-10-13,32.650001525878906
2008-10-14,30.239999771118164
2008-10-15,27.360000610351562
2008-10-16,29.0
2008-10-17,28.979999542236328
2008-10-20,29.809999465942383
2008-10-21,29.06999969482422
2008-10-22,26.8700008392334
2008-10-23,24.389999389648438
2008-10-24,24.31999969482422
2008-10-27,24.100000381469727
2008-10-28,25.65999984741211
2008-10-29,26.15999984741211
2008-10-30,26.989999771118164
2008-10-31,28.6299991607666
2008-11-03,28.489999771118164
2008-11-04,28.84000015258789
2008-11-05,26.520000457763672
2008-11-06,28.860000610351562
2008-11-07,29.670000076293945
2008-11-10,30.270000457763672
2008-11-11,29.5
2008-11-12,27.209999084472656
2008-11-13,28.84000015258789
2008-11-14,28.399999618530273
2008-11-17,27.81999969482422
2008-11-18,28.989999771118164
2008-11-19,27.010000228881836
2008-11-20,25.309999465942383
2008-11-21,25.6299991607666
2008-11-24,27.920000076293945
2008-11-25,27.760000228881836
2008-11-26,29.489999771118164
2008-11-28,28.860000610351562
2008-12-01,26.18000030517578
2008-12-02,27.239999771118164
2008-12-03,27.899999618530273
2008-12-04,26.389999389648438
2008-12-05,28.959999084472656
2008-12-08,29.780000686645508
2008-12-09,29.149999618530273
2008-12-10,29.920000076293945
2008-12-11,28.1200008392334
2008-12-12,28.809999465942383
2008-12-15,27.860000610351562
2008-12-16,29.670000076293945
2008-12-17,29.579999923706055
2008-12-18,29.739999771118164
2008-12-19,29.649999618530273
2008-12-22,28.75
2008-12-23,27.860000610351562
2008-12-24,28.280000686645508
2008-12-26,28.360000610351562
2008-12-29,27.649999618530273
2008-12-30,28.3799991607666
2008-12-31,27.889999389648438
2009-01-02,28.739999771118164
2009-01-05,28.809999465942383
2009-01-06,29.079999923706055
2009-01-07,27.540000915527344
2009-01-08,26.479999542236328
2009-01-09,25.989999771118164
2009-01-12,25.530000686645508
2009-01-13,25.690000534057617
2009-01-14,24.420000076293945
2009-01-15,24.68000030517578
2009-01-16,24.639999389648438
2009-01-20,23.979999542236328
2009-01-21,25.81999969482422
2009-01-22,25.299999237060547
2009-01-23,25.389999389648438
2009-01-26,25.670000076293945
2009-01-27,25.260000228881836
2009-01-28,26.239999771118164
2009-01-29,25.59000015258789
2009-01-30,24.860000610351562
2009-02-02,24.790000915527344
2009-02-03,24.850000381469727
2009-02-04,24.739999771118164
2009-02-05,25.389999389648438
2009-02-06,26.030000686645508
2009-02-09,25.90999984741211
2009-02-10,25.110000610351562
2009-02-11,25.1299991607666
2009-02-12,25.399999618530273
2009-02-13,25.229999542236328
2009-02-17,24.670000076293945
2009-02-18,24.270000457763672
2009-02-19,24.0
2009-02-20,24.219999313354492
2009-02-23,23.200000762939453
2009-02-24,23.579999923706055
2009-02-25,23.149999618530273
2009-02-26,20.690000534057617
2009-02-27,20.170000076293945
2009-03-02,19.209999084472656
2009-03-03,18.8799991607666
2009-03-04,19.170000076293945
2009-03-05,18.329999923706055
2009-03-06,18.40999984741211
2009-03-09,18.059999465942383
2009-03-10,19.600000381469727
2009-03-11,20.969999313354492
2009-03-12,21.530000686645508
2009-03-13,21.979999542236328
2009-03-16,22.350000381469727
2009-03-17,22.540000915527344
2009-03-18,24.329999923706055
2009-03-19,24.350000381469727
2009-03-20,23.329999923706055
2009-03-23,25.15999984741211
2009-03-24,24.469999313354492
2009-03-25,24.489999771118164
2009-03-26,26.260000228881836
2009-03-27,25.510000228881836
2009-03-30,24.899999618530273
2009-03-31,25.100000381469727
2009-04-01,25.350000381469727
2009-04-02,26.450000762939453
2009-04-03,27.399999618530273
2009-04-06,27.530000686645508
2009-04-07,26.68000030517578
2009-04-08,26.649999618530273
2009-04-09,27.149999618530273
2009-04-13,27.049999237060547
2009-04-14,26.729999542236328
2009-04-15,26.559999465942383
2009-04-16,26.969999313354492
2009-04-17,26.6200008392334
2009-04-20,25.790000915527344
2009-04-21,26.09000015258789
2009-04-22,26.280000686645508
2009-04-23,26.59000015258789
2009-04-24,27.1200008392334
2009-04-27,27.200000762939453
2009-04-28,26.799999237060547
2009-04-29,27.059999465942383
2009-04-30,27.6200008392334
2009-05-01,27.360000610351562
2009-05-04,27.329999923706055
2009-05-05,26.90999984741211
2009-05-06,27.5
2009-05-07,26.709999084472656
2009-05-08,26.649999618530273
2009-05-11,27.040000915527344
2009-05-12,26.940000534057617
2009-05-13,26.059999465942383
2009-05-14,26.200000762939453
2009-05-15,26.950000762939453
2009-05-18,27.530000686645508
2009-05-19,28.399999618530273
2009-05-20,28.850000381469727
2009-05-21,28.110000610351562
2009-05-22,28.0
2009-05-26,28.709999084472656
2009-05-27,28.700000762939453
2009-05-28,29.399999618530273
2009-05-29,29.81999969482422
2009-06-01,31.979999542236328
2009-06-02,32.68000030517578
2009-06-03,32.040000915527344
2009-06-04,32.34000015258789
2009-06-05,33.2599983215332
2009-06-08,32.709999084472656
2009-06-09,33.150001525878906
2009-06-10,32.66999816894531
2009-06-11,33.08000183105469
2009-06-12,33.06999969482422
2009-06-15,31.809999465942383
2009-06-16,31.420000076293945
2009-06-17,32.029998779296875
2009-06-18,32.33000183105469
2009-06-19,32.29999923706055
2009-06-22,31.059999465942383
2009-06-23,30.329999923706055
2009-06-24,31.549999237060547
2009-06-25,32.09000015258789
2009-06-26,31.010000228881836
2009-06-29,30.989999771118164
2009-06-30,31.15999984741211
2009-07-01,31.260000228881836
2009-07-02,30.43000030517578
2009-07-06,30.079999923706055
2009-07-07,29.1299991607666
2009-07-08,28.75
2009-07-09,29.25
2009-07-10,29.65999984741211
2009-07-13,29.979999542236328
2009-07-14,29.56999969482422
2009-07-15,30.5
2009-07-16,30.8799991607666
2009-07-17,31.420000076293945
2009-07-20,31.030000686645508
2009-07-21,30.59000015258789
2009-07-22,30.0
2009-07-23,30.93000030517578
2009-07-24,31.290000915527344
2009-07-27,31.190000534057617
2009-07-28,31.520000457763672
2009-07-29,31.049999237060547
2009-07-30,31.389999389648438
2009-07-31,31.260000228881836
2009-08-03,31.729999542236328
2009-08-04,31.68000030517578
2009-08-05,31.350000381469727
2009-08-06,36.25
2009-08-07,36.4900016784668
2009-08-10,36.13999938964844
2009-08-11,35.59000015258789
2009-08-12,36.91999816894531
2009-08-13,37.16999816894531
2009-08-14,36.68000030517578
2009-08-17,35.45000076293945
2009-08-18,35.779998779296875
2009-08-19,35.52000045776367
2009-08-20,35.400001525878906
2009-08-21,35.90999984741211
2009-08-24,36.15999984741211
2009-08-25,36.04999923706055
2009-08-26,36.22999954223633
2009-08-27,36.31999969482422
2009-08-28,36.369998931884766
2009-08-31,35.13999938964844
2009-09-01,34.59000015258789
2009-09-02,34.77000045776367
2009-09-03,34.93000030517578
2009-09-04,35.68000030517578
2009-09-08,35.779998779296875
2009-09-09,36.20000076293945
2009-09-10,37.06999969482422
2009-09-11,37.63999938964844
2009-09-14,38.08000183105469
2009-09-15,37.75
2009-09-16,38.34000015258789
2009-09-17,38.45000076293945
2009-09-18,38.540000915527344
2009-09-21,38.209999084472656
2009-09-22,38.40999984741211
2009-09-23,37.86000061035156
2009-09-24,37.29999923706055
2009-09-25,36.630001068115234
2009-09-28,37.75
2009-09-29,37.939998626708984
2009-09-30,37.41999816894531
2009-10-01,37.0
2009-10-02,37.58000183105469
2009-10-05,38.04999923706055
2009-10-06,39.029998779296875
2009-10-07,39.060001373291016
2009-10-08,41.560001373291016
2009-10-09,42.029998779296875
2009-10-12,41.529998779296875
2009-10-13,41.59000015258789
2009-10-14,42.33000183105469
2009-10-15,42.099998474121094
2009-10-16,42.0
2009-10-19,42.029998779296875
2009-10-20,41.5
2009-10-21,41.72999954223633
2009-10-22,41.79999923706055
2009-10-23,42.63999938964844
2009-10-26,43.119998931884766
2009-10-27,42.75
2009-10-28,40.93000030517578
2009-10-29,41.720001220703125
2009-10-30,40.58000183105469
2009-11-02,40.68000030517578
2009-11-03,41.619998931884766
2009-11-04,41.470001220703125
2009-11-05,39.779998779296875
2009-11-06,41.20000076293945
2009-11-09,41.869998931884766
2009-11-10,41.560001373291016
2009-11-11,40.72999954223633
2009-11-12,40.119998931884766
2009-11-13,40.290000915527344
2009-11-16,40.88999938964844
2009-11-17,41.11000061035156
2009-11-18,40.349998474121094
2009-11-19,39.849998474121094
2009-11-20,39.810001373291016
2009-11-23,40.459999084472656
2009-11-24,40.060001373291016
2009-11-25,39.880001068115234
2009-11-27,38.65999984741211
2009-11-30,38.939998626708984
2009-12-01,39.84000015258789
2009-12-02,40.040000915527344
2009-12-03,39.9900016784668
2009-12-04,41.06999969482422
2009-12-07,40.959999084472656
2009-12-08,40.599998474121094
2009-12-09,40.5099983215332
2009-12-10,40.58000183105469
2009-12-11,40.470001220703125
2009-12-14,40.97999954223633
2009-12-15,40.9900016784668
2009-12-16,41.0
2009-12-17,40.779998779296875
2009-12-18,41.59000015258789
2009-12-21,42.15999984741211
2009-12-22,43.0
2009-12-23,43.31999969482422
2009-12-24,43.77000045776367
2009-12-28,43.54999923706055
2009-12-29,43.66999816894531
2009-12-30,43.779998779296875
2009-12-31,43.459999084472656
2010-01-04,44.63999938964844
2010-01-05,43.63999938964844
2010-01-06,43.349998474121094
2010-01-07,43.459999084472656
2010-01-08,43.7599983215332
2010-01-11,43.93000030517578
2010-01-12,42.7400016784668
2010-01-13,43.040000915527344
2010-01-14,43.4900016784668
2010-01-15,43.34000015258789
2010-01-19,44.09000015258789
2010-01-20,42.790000915527344
2010-01-21,41.84000015258789
2010-01-22,40.79999923706055
2010-01-25,40.77000045776367
2010-01-26,40.560001373291016
2010-01-27,42.189998626708984
2010-01-28,41.970001220703125
2010-01-29,41.86000061035156
2010-02-01,42.189998626708984
2010-02-02,42.349998474121094
2010-02-03,42.56999969482422
2010-02-04,40.970001220703125
2010-02-05,41.189998626708984
2010-02-08,40.68000030517578
2010-02-09,41.04999923706055
2010-02-10,41.27000045776367
2010-02-11,41.349998474121094
2010-02-12,41.59000015258789
2010-02-16,42.029998779296875
2010-02-17,42.83000183105469
2010-02-18,43.36000061035156
2010-02-19,43.16999816894531
2010-02-22,43.18000030517578
2010-02-23,42.9900016784668
2010-02-24,44.040000915527344
2010-02-25,43.619998931884766
2010-02-26,43.86000061035156
2010-03-01,44.29999923706055
2010-03-02,44.619998931884766
2010-03-03,44.459999084472656
2010-03-04,44.22999954223633
2010-03-05,44.869998931884766
2010-03-08,44.93000030517578
2010-03-09,44.65999984741211
2010-03-10,45.130001068115234
2010-03-11,45.13999938964844
2010-03-12,45.16999816894531
2010-03-15,45.209999084472656
2010-03-16,45.029998779296875
2010-03-17,45.79999923706055
2010-03-18,46.290000915527344
2010-03-19,44.88999938964844
2010-03-22,44.849998474121094
2010-03-23,44.7599983215332
2010-03-24,44.40999984741211
2010-03-25,43.65999984741211
2010-03-26,43.400001525878906
2010-03-29,43.79999923706055
2010-03-30,43.540000915527344
2010-03-31,43.189998626708984
2010-04-01,43.02000045776367
2010-04-05,44.209999084472656
2010-04-06,44.279998779296875
2010-04-07,43.72999954223633
2010-04-08,43.880001068115234
2010-04-09,44.029998779296875
2010-04-12,44.150001525878906
2010-04-13,43.959999084472656
2010-04-14,43.52000045776367
2010-04-15,43.81999969482422
2010-04-16,43.560001373291016
2010-04-19,43.77000045776367
2010-04-20,44.68000030517578
2010-04-21,44.650001525878906
2010-04-22,45.38999938964844
2010-04-23,45.66999816894531
2010-04-26,45.540000915527344
2010-04-27,44.95000076293945
2010-04-28,44.93000030517578
2010-04-29,46.040000915527344
2010-04-30,44.959999084472656
2010-05-03,45.41999816894531
2010-05-04,44.34000015258789
2010-05-05,43.810001373291016
2010-05-06,44.40999984741211
2010-05-07,42.86000061035156
2010-05-10,44.97999954223633
2010-05-11,45.029998779296875
2010-05-12,46.2599983215332
2010-05-13,45.95000076293945
2010-05-14,44.790000915527344
2010-05-17,45.38999938964844
2010-05-18,44.400001525878906
2010-05-19,44.15999984741211
2010-05-20,42.56999969482422
2010-05-21,43.52000045776367
2010-05-24,42.84000015258789
2010-05-25,43.04999923706055
2010-05-26,43.369998931884766
2010-05-27,44.65999984741211
2010-05-28,43.72999954223633
2010-06-01,43.40999984741211
2010-06-02,44.15999984741211
2010-06-03,44.08000183105469
2010-06-04,42.810001373291016
2010-06-07,41.84000015258789
2010-06-08,41.459999084472656
2010-06-09,41.93000030517578
2010-06-10,43.0099983215332
2010-06-11,43.34000015258789
2010-06-14,43.119998931884766
2010-06-15,43.599998474121094
2010-06-16,43.84000015258789
2010-06-17,43.93000030517578
2010-06-18,43.83000183105469
2010-06-21,43.63999938964844
2010-06-22,43.38999938964844
2010-06-23,43.15999984741211
2010-06-24,42.720001220703125
2010-06-25,43.20000076293945
2010-06-28,43.47999954223633
2010-06-29,41.220001220703125
2010-06-30,40.56999969482422
2010-07-01,40.099998474121094
2010-07-02,40.31999969482422
2010-07-06,40.810001373291016
2010-07-07,41.54999923706055
2010-07-08,41.95000076293945
2010-07-09,42.150001525878906
2010-07-12,42.310001373291016
2010-07-13,43.650001525878906
2010-07-14,43.900001525878906
2010-07-15,43.5099983215332
2010-07-16,42.08000183105469
2010-07-19,42.34000015258789
2010-07-20,42.470001220703125
2010-07-21,42.29999923706055
2010-07-22,43.7400016784668
2010-07-23,45.040000915527344
2010-07-26,45.54999923706055
2010-07-27,45.560001373291016
2010-07-28,45.02000045776367
2010-07-29,44.2599983215332
2010-07-30,44.95000076293945
2010-08-02,45.91999816894531
2010-08-03,45.599998474121094
2010-08-04,46.58000183105469
2010-08-05,43.959999084472656
2010-08-06,44.209999084472656
2010-08-09,44.099998474121094
2010-08-10,43.68000030517578
2010-08-11,42.650001525878906
2010-08-12,41.66999816894531
2010-08-13,40.90999984741211
2010-08-16,40.869998931884766
2010-08-17,41.84000015258789
2010-08-18,42.189998626708984
2010-08-19,41.599998474121094
2010-08-20,41.97999954223633
2010-08-23,40.47999954223633
2010-08-24,40.040000915527344
2010-08-25,40.189998626708984
2010-08-26,39.7599983215332
2010-08-27,40.13999938964844
2010-08-30,39.369998931884766
2010-08-31,38.779998779296875
2010-09-01,40.31999969482422
2010-09-02,40.0099983215332
2010-09-03,40.65999984741211
2010-09-07,40.58000183105469
2010-09-08,40.56999969482422
2010-09-09,40.5
2010-09-10,40.869998931884766
2010-09-13,42.2400016784668
2010-09-14,41.810001373291016
2010-09-15,42.13999938964844
2010-09-16,42.2400016784668
2010-09-17,42.83000183105469
2010-09-20,43.54999923706055
2010-09-21,42.779998779296875
2010-09-22,42.33000183105469
2010-09-23,42.029998779296875
2010-09-24,42.68000030517578
2010-09-27,43.2599983215332
2010-09-28,42.5
2010-09-29,42.400001525878906
2010-09-30,42.25
2010-10-01,41.75
2010-10-04,41.290000915527344
2010-10-05,42.560001373291016
2010-10-06,41.38999938964844
2010-10-07,41.209999084472656
2010-10-08,41.61000061035156
2010-10-11,42.7400016784668
2010-10-12,44.38999938964844
2010-10-13,45.5
2010-10-14,45.09000015258789
2010-10-15,45.59000015258789
2010-10-18,46.09000015258789
2010-10-19,44.869998931884766
2010-10-20,45.04999923706055
2010-10-21,45.20000076293945
2010-10-22,45.33000183105469
2010-10-25,45.439998626708984
2010-10-26,45.369998931884766
2010-10-27,45.08000183105469
2010-10-28,45.099998474121094
2010-10-29,45.25
2010-11-01,44.86000061035156
2010-11-02,45.310001373291016
2010-11-03,45.40999984741211
2010-11-04,45.75
2010-11-05,46.060001373291016
2010-11-08,47.66999816894531
2010-11-09,48.16999816894531
2010-11-10,49.27000045776367
2010-11-11,49.09000015258789
2010-11-12,48.97999954223633
2010-11-15,48.970001220703125
2010-11-16,47.560001373291016
2010-11-17,47.689998626708984
2010-11-18,48.470001220703125
2010-11-19,48.29999923706055
2010-11-22,48.630001068115234
2010-11-23,47.709999084472656
2010-11-24,48.9900016784668
2010-11-26,48.880001068115234
2010-11-29,48.04999923706055
2010-11-30,48.5
2010-12-01,50.790000915527344
2010-12-02,51.09000015258789
2010-12-03,51.36000061035156
2010-12-06,50.91999816894531
2010-12-07,51.04999923706055
2010-12-08,51.06999969482422
2010-12-09,51.130001068115234
2010-12-10,52.36000061035156
2010-12-13,51.869998931884766
2010-12-14,52.02000045776367
2010-12-15,51.77000045776367
2010-12-16,52.150001525878906
2010-12-17,53.11000061035156
2010-12-20,52.97999954223633
2010-12-21,52.939998626708984
2010-12-22,53.25
2010-12-23,52.97999954223633
2010-12-27,52.97999954223633
2010-12-28,52.81999969482422
2010-12-29,52.7599983215332
2010-12-30,52.540000915527344
2010-12-31,52.06999969482422
2011-01-03,52.56999969482422
2011-01-04,52.34000015258789
2011-01-05,53.20000076293945
2011-01-06,53.27000045776367
2011-01-07,52.45000076293945
2011-01-10,53.61000061035156
2011-01-11,53.970001220703125
2011-01-12,53.81999969482422
2011-01-13,53.959999084472656
2011-01-14,54.959999084472656
2011-01-18,55.9900016784668
2011-01-19,54.93000030517578
2011-01-20,52.150001525878906
2011-01-21,52.5099983215332
2011-01-24,53.310001373291016
2011-01-25,51.81999969482422
2011-01-26,52.970001220703125
2011-01-27,52.54999923706055
2011-01-28,51.849998474121094
2011-01-31,52.45000076293945
2011-02-01,53.529998779296875
2011-02-02,54.11000061035156
2011-02-03,53.88999938964844
2011-02-04,54.2599983215332
2011-02-07,55.040000915527344
2011-02-08,54.43000030517578
2011-02-09,53.650001525878906
2011-02-10,54.400001525878906
2011-02-11,54.369998931884766
2011-02-14,54.2400016784668
2011-02-15,54.119998931884766
2011-02-16,54.5099983215332
2011-02-17,54.77000045776367
2011-02-18,55.09000015258789
2011-02-22,54.02000045776367
2011-02-23,53.31999969482422
2011-02-24,54.11000061035156
2011-02-25,55.83000183105469
2011-02-28,56.31999969482422
2011-03-01,54.93000030517578
2011-03-02,55.06999969482422
2011-03-03,55.279998779296875
2011-03-04,55.0
2011-03-07,53.93000030517578
2011-03-08,54.72999954223633
2011-03-09,54.380001068115234
2011-03-10,53.04999923706055
2011-03-11,53.08000183105469
2011-03-14,51.900001525878906
2011-03-15,51.790000915527344
2011-03-16,51.34000015258789
2011-03-17,51.02000045776367
2011-03-18,51.310001373291016
2011-03-21,52.7400016784668
2011-03-22,53.54999923706055
2011-03-23,53.689998626708984
2011-03-24,54.47999954223633
2011-03-25,54.20000076293945
2011-03-28,53.66999816894531
2011-03-29,53.97999954223633
2011-03-30,53.970001220703125
2011-03-31,54.189998626708984
2011-04-01,53.689998626708984
2011-04-04,53.77000045776367
2011-04-05,53.810001373291016
2011-04-06,53.779998779296875
2011-04-07,53.27000045776367
2011-04-08,53.18000030517578
2011-04-11,53.36000061035156
2011-04-12,53.02000045776367
2011-04-13,53.189998626708984
2011-04-14,52.83000183105469
2011-04-15,52.900001525878906
2011-04-18,51.68000030517578
2011-04-19,51.959999084472656
2011-04-20,52.97999954223633
2011-04-21,53.279998779296875
2011-04-25,53.470001220703125
2011-04-26,54.0
2011-04-27,54.939998626708984
2011-04-28,54.560001373291016
2011-04-29,55.290000915527344
2011-05-02,54.66999816894531
2011-05-03,54.72999954223633
2011-05-04,54.189998626708984
2011-05-05,53.63999938964844
2011-05-06,53.83000183105469
2011-05-09,54.25
2011-05-10,54.869998931884766
2011-05-11,54.040000915527344
2011-05-12,55.470001220703125
2011-05-13,55.529998779296875
2011-05-16,55.29999923706055
2011-05-17,55.150001525878906
2011-05-18,56.06999969482422
2011-05-19,57.209999084472656
2011-05-20,57.0099983215332
2011-05-23,55.66999816894531
2011-05-24,55.97999954223633
2011-05-25,56.52000045776367
2011-05-26,57.06999969482422
2011-05-27,57.060001373291016
2011-05-31,57.369998931884766
2011-06-01,55.560001373291016
2011-06-02,55.86000061035156
2011-06-03,54.689998626708984
2011-06-06,53.84000015258789
2011-06-07,53.47999954223633
2011-06-08,52.540000915527344
2011-06-09,52.08000183105469
2011-06-10,52.0099983215332
2011-06-13,52.58000183105469
2011-06-14,53.31999969482422
2011-06-15,52.84000015258789
2011-06-16,52.720001220703125
2011-06-17,52.9900016784668
2011-06-20,52.97999954223633
2011-06-21,54.560001373291016
2011-06-22,53.7599983215332
2011-06-23,54.029998779296875
2011-06-24,53.04999923706055
2011-06-27,53.54999923706055
2011-06-28,54.439998626708984
2011-06-29,54.97999954223633
2011-06-30,54.66999816894531
2011-07-01,55.540000915527344
2011-07-05,55.43000030517578
2011-07-06,56.41999816894531
2011-07-07,56.7599983215332
2011-07-08,56.52000045776367
2011-07-11,55.45000076293945
2011-07-12,54.72999954223633
2011-07-13,54.41999816894531
2011-07-14,53.380001068115234
2011-07-15,53.81999969482422
2011-07-18,52.560001373291016
2011-07-19,53.7400016784668
2011-07-20,52.54999923706055
2011-07-21,52.869998931884766
2011-07-22,53.130001068115234
2011-07-25,52.470001220703125
2011-07-26,52.79999923706055
2011-07-27,51.439998626708984
2011-07-28,50.9900016784668
2011-07-29,50.599998474121094
2011-08-01,50.29999923706055
2011-08-02,49.11000061035156
2011-08-03,49.939998626708984
2011-08-04,51.040000915527344
2011-08-05,49.47999954223633
2011-08-08,46.029998779296875
2011-08-09,49.36000061035156
2011-08-10,47.36000061035156
2011-08-11,49.650001525878906
2011-08-12,50.52000045776367
2011-08-15,51.52000045776367
2011-08-16,50.939998626708984
2011-08-17,49.91999816894531
2011-08-18,47.2599983215332
2011-08-19,45.97999954223633
2011-08-22,46.189998626708984
2011-08-23,48.16999816894531
2011-08-24,48.45000076293945
2011-08-25,47.84000015258789
2011-08-26,48.88999938964844
2011-08-29,51.47999954223633
2011-08-30,52.630001068115234
2011-08-31,53.97999954223633
2011-09-01,53.0099983215332
2011-09-02,51.209999084472656
2011-09-06,51.33000183105469
2011-09-07,53.0
2011-09-08,51.810001373291016
2011-09-09,50.4900016784668
2011-09-12,51.209999084472656
2011-09-13,51.47999954223633
2011-09-14,53.06999969482422
2011-09-15,53.970001220703125
2011-09-16,54.04999923706055
2011-09-19,53.72999954223633
2011-09-20,52.459999084472656
2011-09-21,51.04999923706055
2011-09-22,49.310001373291016
2011-09-23,49.81999969482422
2011-09-26,50.83000183105469
2011-09-27,52.189998626708984
2011-09-28,50.54999923706055
2011-09-29,50.95000076293945
2011-09-30,49.040000915527344
2011-10-03,46.52000045776367
2011-10-04,47.599998474121094
2011-10-05,48.650001525878906
2011-10-06,48.630001068115234
2011-10-07,47.97999954223633
2011-10-10,49.13999938964844
2011-10-11,49.779998779296875
2011-10-12,50.52000045776367
2011-10-13,50.869998931884766
2011-10-14,51.900001525878906
2011-10-17,50.560001373291016
2011-10-18,51.56999969482422
2011-10-19,50.5099983215332
2011-10-20,50.650001525878906
2011-10-21,50.959999084472656
2011-10-24,51.75
2011-10-25,51.33000183105469
2011-10-26,51.650001525878906
2011-10-27,55.060001373291016
2011-10-28,54.93000030517578
2011-10-31,54.36000061035156
2011-11-01,52.939998626708984
2011-11-02,54.310001373291016
2011-11-03,57.970001220703125
2011-11-04,57.939998626708984
2011-11-07,59.880001068115234
2011-11-08,59.599998474121094
2011-11-09,56.93000030517578
2011-11-10,57.70000076293945
2011-11-11,58.81999969482422
2011-11-14,58.66999816894531
2011-11-15,59.150001525878906
2011-11-16,58.939998626708984
2011-11-17,58.25
2011-11-18,58.709999084472656
2011-11-21,58.61000061035156
2011-11-22,57.849998474121094
2011-11-23,56.849998474121094
2011-11-25,56.93000030517578
2011-11-28,58.36000061035156
2011-11-29,58.88999938964844
2011-11-30,61.970001220703125
2011-12-01,61.459999084472656
2011-12-02,60.33000183105469
2011-12-05,61.40999984741211
2011-12-06,61.47999954223633
2011-12-07,61.290000915527344
2011-12-08,60.209999084472656
2011-12-09,61.97999954223633
2011-12-12,60.5099983215332
2011-12-13,59.400001525878906
2011-12-14,58.130001068115234
2011-12-15,58.900001525878906
2011-12-16,59.5099983215332
2011-12-19,58.0099983215332
2011-12-20,59.529998779296875
2011-12-21,57.38999938964844
2011-12-22,57.34000015258789
2011-12-23,57.95000076293945
2011-12-27,57.849998474121094
2011-12-28,56.61000061035156
2011-12-29,57.2400016784668
2011-12-30,57.279998779296875
2012-01-03,57.38999938964844
2012-01-04,56.400001525878906
2012-01-05,57.29999923706055
2012-01-06,56.939998626708984
2012-01-09,56.68000030517578
2012-01-10,56.72999954223633
2012-01-11,56.83000183105469
2012-01-12,57.439998626708984
2012-01-13,57.349998474121094
2012-01-17,57.22999954223633
2012-01-18,58.880001068115234
2012-01-19,60.560001373291016
2012-01-20,60.810001373291016
2012-01-23,60.56999969482422
2012-01-24,61.34000015258789
2012-01-25,61.2599983215332
2012-01-26,61.5099983215332
2012-01-27,61.459999084472656
2012-01-30,60.459999084472656
2012-01-31,60.4900016784668
2012-02-01,63.0
2012-02-02,62.880001068115234
2012-02-03,63.75
2012-02-06,63.47999954223633
2012-02-07,63.7599983215332
2012-02-08,63.61000061035156
2012-02-09,64.2699966430664
2012-02-10,63.650001525878906
2012-02-13,64.19999694824219
2012-02-14,64.30999755859375
2012-02-15,64.05000305175781
2012-02-16,65.0999984741211
2012-02-17,64.88999938964844
2012-02-21,64.98999786376953
2012-02-22,66.01000213623047
2012-02-23,63.08000183105469
2012-02-24,63.83000183105469
2012-02-27,63.66999816894531
2012-02-28,63.97999954223633
2012-02-29,63.18000030517578
2012-03-01,63.619998931884766
2012-03-02,63.56999969482422
2012-03-05,63.279998779296875
2012-03-06,61.619998931884766
2012-03-07,62.34000015258789
2012-03-08,62.66999816894531
2012-03-09,63.41999816894531
2012-03-12,63.209999084472656
2012-03-13,64.7699966430664
2012-03-14,64.69999694824219
2012-03-15,65.5199966430664
2012-03-16,65.55000305175781
2012-03-19,65.41000366210938
2012-03-20,64.66000366210938
2012-03-21,65.13999938964844
2012-03-22,64.83000183105469
2012-03-23,64.83000183105469
2012-03-26,66.02999877929688
2012-03-27,66.12999725341797
2012-03-28,65.30000305175781
2012-03-29,65.20999908447266
2012-03-30,65.0199966430664
2012-04-02,65.75
2012-04-03,66.26000213623047
2012-04-04,64.41000366210938
2012-04-05,64.27999877929688
2012-04-09,63.56999969482422
2012-04-10,62.2400016784668
2012-04-11,62.88999938964844
2012-04-12,63.540000915527344
2012-04-13,64.26000213623047
2012-04-16,64.1500015258789
2012-04-17,65.08000183105469
2012-04-18,66.08000183105469
2012-04-19,66.0999984741211
2012-04-20,66.12000274658203
2012-04-23,65.0
2012-04-24,63.970001220703125
2012-04-25,65.62000274658203
2012-04-26,67.0
2012-04-27,67.33000183105469
2012-04-30,67.06999969482422
2012-05-01,67.94999694824219
2012-05-02,68.54000091552734
2012-05-03,62.220001220703125
2012-05-04,62.40999984741211
2012-05-07,61.90999984741211
2012-05-08,61.15999984741211
2012-05-09,61.5099983215332
2012-05-10,60.93000030517578
2012-05-11,61.790000915527344
2012-05-14,62.5
2012-05-15,61.68000030517578
2012-05-16,62.36000061035156
2012-05-17,61.11000061035156
2012-05-18,59.79999923706055
2012-05-21,61.0
2012-05-22,61.75
2012-05-23,62.119998931884766
2012-05-24,61.689998626708984
2012-05-25,62.09000015258789
2012-05-29,63.060001373291016
2012-05-30,61.650001525878906
2012-05-31,61.880001068115234
2012-06-01,59.93000030517578
2012-06-04,61.79999923706055
2012-06-05,62.939998626708984
2012-06-06,65.0999984741211
2012-06-07,64.44999694824219
2012-06-08,64.58999633789062
2012-06-11,63.029998779296875
2012-06-12,63.58000183105469
2012-06-13,62.95000076293945
2012-06-14,62.529998779296875
2012-06-15,64.19000244140625
2012-06-18,65.51000213623047
2012-06-19,66.08999633789062
2012-06-20,65.38999938964844
2012-06-21,63.060001373291016
2012-06-22,63.61000061035156
2012-06-25,62.16999816894531
2012-06-26,62.470001220703125
2012-06-27,62.619998931884766
2012-06-28,60.970001220703125
2012-06-29,63.11000061035156
2012-07-02,63.16999816894531
2012-07-03,64.22000122070312
2012-07-05,64.47000122070312
2012-07-06,60.31999969482422
2012-07-09,58.220001220703125
2012-07-10,57.31999969482422
2012-07-11,56.220001220703125
2012-07-12,56.619998931884766
2012-07-13,57.2400016784668
2012-07-16,56.5099983215332
2012-07-17,56.189998626708984
2012-07-18,56.779998779296875
2012-07-19,58.150001525878906
2012-07-20,57.41999816894531
2012-07-23,57.25
2012-07-24,57.29999923706055
2012-07-25,57.720001220703125
2012-07-26,59.27000045776367
2012-07-27,60.349998474121094
2012-07-30,60.560001373291016
2012-07-31,59.959999084472656
2012-08-01,59.91999816894531
2012-08-02,66.55999755859375
2012-08-03,67.70999908447266
2012-08-06,67.54000091552734
2012-08-07,67.22000122070312
2012-08-08,66.43000030517578
2012-08-09,66.87999725341797
2012-08-10,66.80000305175781
2012-08-13,66.08000183105469
2012-08-14,65.72000122070312
2012-08-15,65.69999694824219
2012-08-16,66.36000061035156
2012-08-17,66.16000366210938
2012-08-20,65.87999725341797
2012-08-21,67.20999908447266
2012-08-22,67.51000213623047
2012-08-23,68.04000091552734
2012-08-24,67.51000213623047
2012-08-27,67.94999694824219
2012-08-28,69.48999786376953
2012-08-29,69.70999908447266
2012-08-30,69.45999908447266
2012-08-31,69.69999694824219
2012-09-04,70.7699966430664
2012-09-05,71.01000213623047
2012-09-06,72.45999908447266
2012-09-07,71.88999938964844
2012-09-10,72.56999969482422
2012-09-11,71.94000244140625
2012-09-12,72.37000274658203
2012-09-13,72.38999938964844
2012-09-14,73.02999877929688
2012-09-17,73.37000274658203
2012-09-18,73.29000091552734
2012-09-19,73.37999725341797
2012-09-20,73.83999633789062
2012-09-21,73.3499984741211
2012-09-24,73.37999725341797
2012-09-25,72.33999633789062
2012-09-26,71.86000061035156
2012-09-27,72.87999725341797
2012-09-28,73.4000015258789
2012-10-01,72.0999984741211
2012-10-02,72.0999984741211
2012-10-03,72.02999877929688
2012-10-04,72.33999633789062
2012-10-05,71.94000244140625
2012-10-08,71.02999877929688
2012-10-09,69.62000274658203
2012-10-10,69.18000030517578
2012-10-11,69.12999725341797
2012-10-12,69.55000305175781
2012-10-15,70.30999755859375
2012-10-16,71.33000183105469
2012-10-17,71.4800033569336
2012-10-18,70.75
2012-10-19,68.8499984741211
2012-10-22,68.4000015258789
2012-10-23,69.06999969482422
2012-10-24,69.36000061035156
2012-10-25,69.04000091552734
2012-10-26,68.98999786376953
2012-10-31,70.25
2012-11-01,67.48999786376953
2012-11-02,67.7300033569336
2012-11-05,68.62000274658203
2012-11-06,69.80000305175781
2012-11-07,68.22000122070312
2012-11-08,67.4800033569336
2012-11-09,67.55999755859375
2012-11-12,67.62000274658203
2012-11-13,68.19000244140625
2012-11-14,67.44000244140625
2012-11-15,67.25
2012-11-16,67.29000091552734
2012-11-19,67.79000091552734
2012-11-20,67.29000091552734
2012-11-21,66.94999694824219
2012-11-23,67.22000122070312
2012-11-26,66.88999938964844
2012-11-27,65.81999969482422
2012-11-28,65.70999908447266
2012-11-29,66.26000213623047
2012-11-30,66.33000183105469
2012-12-03,65.91000366210938
2012-12-04,65.9800033569336
2012-12-05,66.0199966430664
2012-12-06,66.26000213623047
2012-12-07,66.29000091552734
2012-12-10,66.4000015258789
2012-12-11,67.95999908447266
2012-12-12,67.94000244140625
2012-12-13,66.70999908447266
2012-12-14,67.12000274658203
2012-12-17,67.98999786376953
2012-12-18,69.2699966430664
2012-12-19,68.58000183105469
2012-12-20,68.86000061035156
2012-12-21,68.69000244140625
2012-12-24,68.94000244140625
2012-12-26,67.7699966430664
2012-12-27,67.62000274658203
2012-12-28,67.0
2012-12-31,67.33999633789062
2013-01-02,70.05000305175781
2013-01-03,69.7699966430664
2013-01-04,70.5
2013-01-07,70.48999786376953
2013-01-08,71.08000183105469
2013-01-09,72.12999725341797
2013-01-10,72.26000213623047
2013-01-11,72.83000183105469
2013-01-14,72.95999908447266
2013-01-15,73.05999755859375
2013-01-16,72.63999938964844
2013-01-17,73.55999755859375
2013-01-18,73.08000183105469
2013-01-22,72.70999908447266
2013-01-23,72.62000274658203
2013-01-24,72.73999786376953
2013-01-25,73.5199966430664
2013-01-28,73.94000244140625
2013-01-29,74.12000274658203
2013-01-30,73.7300033569336
2013-01-31,73.5999984741211
2013-02-01,74.41999816894531
2013-02-04,73.98999786376953
2013-02-05,74.62999725341797
2013-02-06,74.2699966430664
2013-02-07,74.58999633789062
2013-02-08,74.69000244140625
2013-02-11,74.70999908447266
2013-02-12,75.73999786376953
2013-02-13,75.88999938964844
2013-02-14,75.51000213623047
2013-02-15,75.62000274658203
2013-02-19,76.27999877929688
2013-02-20,76.08999633789062
2013-02-21,75.69000244140625
2013-02-22,76.37999725341797
2013-02-25,75.47000122070312
2013-02-26,74.52999877929688
2013-02-27,75.16000366210938
2013-02-28,75.80000305175781
2013-03-01,76.68000030517578
2013-03-04,77.2300033569336
2013-03-05,78.47000122070312
2013-03-06,78.81999969482422
2013-03-07,78.9800033569336
2013-03-08,79.73999786376953
2013-03-11,80.08999633789062
2013-03-12,79.5
2013-03-13,79.95999908447266
2013-03-14,80.55999755859375
2013-03-15,80.12000274658203
2013-03-18,80.06999969482422
2013-03-19,79.20999908447266
2013-03-20,79.61000061035156
2013-03-21,79.33000183105469
2013-03-22,79.43000030517578
2013-03-25,78.94999694824219
2013-03-26,79.23999786376953
2013-03-27,79.88999938964844
2013-03-28,81.41999816894531
2013-04-01,79.5
2013-04-02,79.37999725341797
2013-04-03,77.81999969482422
2013-04-04,77.33000183105469
2013-04-05,76.4800033569336
2013-04-08,76.55000305175781
2013-04-09,76.51000213623047
2013-04-10,79.30000305175781
2013-04-11,77.98999786376953
2013-04-12,78.30999755859375
2013-04-15,76.48999786376953
2013-04-16,78.02999877929688
2013-04-17,76.91999816894531
2013-04-18,75.06999969482422
2013-04-19,74.87999725341797
2013-04-22,75.0199966430664
2013-04-23,76.7300033569336
2013-04-24,77.58000183105469
2013-04-25,78.30000305175781
2013-04-26,78.01000213623047
2013-04-29,78.87000274658203
2013-04-30,80.86000061035156
2013-05-01,79.94999694824219
2013-05-02,73.93000030517578
2013-05-03,74.58999633789062
2013-05-06,74.37000274658203
2013-05-07,74.81999969482422
2013-05-08,75.45999908447266
2013-05-09,75.0999984741211
2013-05-10,75.88999938964844
2013-05-13,75.16000366210938
2013-05-14,76.36000061035156
2013-05-15,75.91000366210938
2013-05-16,76.06999969482422
2013-05-17,76.44000244140625
2013-05-20,75.7300033569336
2013-05-21,75.3499984741211
2013-05-22,72.58000183105469
2013-05-23,73.44000244140625
2013-05-24,73.8499984741211
2013-05-28,74.87000274658203
2013-05-29,74.55000305175781
2013-05-30,75.05999755859375
2013-05-31,74.5
2013-06-03,73.61000061035156
2013-06-04,72.91000366210938
2013-06-05,72.5
2013-06-06,74.30999755859375
2013-06-07,74.43000030517578
2013-06-10,73.87000274658203
2013-06-11,72.8499984741211
2013-06-12,72.33999633789062
2013-06-13,73.95999908447266
2013-06-14,73.52999877929688
2013-06-17,75.8499984741211
2013-06-18,76.51000213623047
2013-06-19,75.16999816894531
2013-06-20,72.88999938964844
2013-06-21,72.25
2013-06-24,71.16999816894531
2013-06-25,71.68000030517578
2013-06-26,72.13999938964844
2013-06-27,74.04000091552734
2013-06-28,73.0999984741211
2013-07-01,73.66999816894531
2013-07-02,72.55999755859375
2013-07-03,72.95999908447266
2013-07-05,74.5
2013-07-08,74.94999694824219
2013-07-09,75.97000122070312
2013-07-10,76.63999938964844
2013-07-11,78.3499984741211
2013-07-12,78.86000061035156
2013-07-15,79.12999725341797
2013-07-16,79.04000091552734
2013-07-17,79.11000061035156
2013-07-18,79.13999938964844
2013-07-19,79.0999984741211
2013-07-22,79.55000305175781
2013-07-23,79.58000183105469
2013-07-24,79.97000122070312
2013-07-25,79.22000122070312
2013-07-26,78.12999725341797
2013-07-29,77.86000061035156
2013-07-30,77.80000305175781
2013-07-31,79.83999633789062
2013-08-01,88.93000030517578
2013-08-02,89.38999938964844
2013-08-05,89.55000305175781
2013-08-06,87.5999984741211
2013-08-07,87.02999877929688
2013-08-08,87.98999786376953
2013-08-09,88.25
2013-08-12,88.3499984741211
2013-08-13,88.55999755859375
2013-08-14,88.3499984741211
2013-08-15,86.52999877929688
2013-08-16,86.19000244140625
2013-08-19,85.45999908447266
2013-08-20,85.62000274658203
2013-08-21,85.05000305175781
2013-08-22,86.30999755859375
2013-08-23,86.05000305175781
2013-08-26,86.29000091552734
2013-08-27,83.68000030517578
2013-08-28,84.22000122070312
2013-08-29,84.37999725341797
2013-08-30,83.9800033569336
2013-09-03,83.26000213623047
2013-09-04,84.22000122070312
2013-09-05,85.0999984741211
2013-09-06,85.04000091552734
2013-09-09,85.9000015258789
2013-09-10,87.7699966430664
2013-09-11,88.12000274658203
2013-09-12,88.30999755859375
2013-09-13,87.5999984741211
2013-09-16,88.02999877929688
2013-09-17,87.83999633789062
2013-09-18,87.3499984741211
2013-09-19,86.6500015258789
2013-09-20,86.05999755859375
2013-09-23,85.94000244140625
2013-09-24,86.0
2013-09-25,86.69999694824219
2013-09-26,87.72000122070312
2013-09-27,86.48999786376953
2013-09-30,86.5199966430664
2013-10-01,87.76000213623047
2013-10-02,87.1500015258789
2013-10-03,85.2300033569336
2013-10-04,85.94000244140625
2013-10-07,84.6500015258789
2013-10-08,83.61000061035156
2013-10-09,83.54000091552734
2013-10-10,85.62999725341797
2013-10-11,86.16000366210938
2013-10-14,85.91000366210938
2013-10-15,84.41000366210938
2013-10-16,85.36000061035156
2013-10-17,84.56999969482422
2013-10-18,86.37999725341797
2013-10-21,87.68000030517578
2013-10-22,87.56999969482422
2013-10-23,86.5999984741211
2013-10-24,86.98999786376953
2013-10-25,87.41000366210938
2013-10-28,87.80000305175781
2013-10-29,87.91000366210938
2013-10-30,87.63999938964844
2013-10-31,87.44999694824219
2013-11-01,87.41999816894531
2013-11-04,88.31999969482422
2013-11-05,87.48999786376953
2013-11-06,89.02999877929688
2013-11-07,84.18000030517578
2013-11-08,84.4000015258789
2013-11-11,83.94999694824219
2013-11-12,83.91999816894531
2013-11-13,84.58000183105469
2013-11-14,84.13999938964844
2013-11-15,84.48999786376953
2013-11-18,84.52999877929688
2013-11-19,83.58999633789062
2013-11-20,83.43000030517578
2013-11-21,85.05000305175781
2013-11-22,85.83000183105469
2013-11-25,85.55000305175781
2013-11-26,86.05000305175781
2013-11-27,86.56999969482422
2013-11-29,85.66999816894531
2013-12-02,85.93000030517578
2013-12-03,85.58000183105469
2013-12-04,85.95999908447266
2013-12-05,85.20999908447266
2013-12-06,86.19000244140625
2013-12-09,85.93000030517578
2013-12-10,86.33000183105469
2013-12-11,83.80999755859375
2013-12-12,83.13999938964844
2013-12-13,84.1500015258789
2013-12-16,85.51000213623047
2013-12-17,84.66000366210938
2013-12-18,86.5199966430664
2013-12-19,85.83999633789062
2013-12-20,87.33000183105469
2013-12-23,87.4800033569336
2013-12-24,87.29000091552734
2013-12-26,86.97000122070312
2013-12-27,86.30000305175781
2013-12-30,86.62000274658203
2013-12-31,87.19999694824219
2014-01-02,86.01000213623047
2014-01-03,85.5999984741211
2014-01-06,85.0199966430664
2014-01-07,85.58000183105469
2014-01-08,85.27999877929688
2014-01-09,84.51000213623047
2014-01-10,84.7699966430664
2014-01-13,83.4000015258789
2014-01-14,84.69999694824219
2014-01-15,85.27999877929688
2014-01-16,85.4000015258789
2014-01-17,84.63999938964844
2014-01-21,84.5
2014-01-22,84.30999755859375
2014-01-23,83.33000183105469
2014-01-24,79.73999786376953
2014-01-27,77.95999908447266
2014-01-28,79.33000183105469
2014-01-29,78.44999694824219
2014-01-30,78.77999877929688
2014-01-31,78.52999877929688
2014-02-03,77.22000122070312
2014-02-04,77.30999755859375
2014-02-05,77.66000366210938
2014-02-06,79.62000274658203
2014-02-07,81.0
2014-02-10,80.41999816894531
2014-02-11,80.81999969482422
2014-02-12,80.94000244140625
2014-02-13,82.05999755859375
2014-02-14,81.94000244140625
2014-02-18,83.06999969482422
2014-02-19,82.45999908447266
2014-02-20,83.11000061035156
2014-02-21,82.37000274658203
2014-02-24,84.06999969482422
2014-02-25,83.69999694824219
2014-02-26,84.47000122070312
2014-02-27,83.19999694824219
2014-02-28,83.5199966430664
2014-03-03,82.38999938964844
2014-03-04,83.62999725341797
2014-03-05,83.4000015258789
2014-03-06,83.37999725341797
2014-03-07,83.30000305175781
2014-03-10,82.98999786376953
2014-03-11,81.86000061035156
2014-03-12,81.19000244140625
2014-03-13,78.30000305175781
2014-03-14,75.8499984741211
2014-03-17,75.69000244140625
2014-03-18,75.83000183105469
2014-03-19,73.6500015258789
2014-03-20,73.88999938964844
2014-03-21,73.45999908447266
2014-03-24,73.91999816894531
2014-03-25,74.33000183105469
2014-03-26,74.0
2014-03-27,75.69000244140625
2014-03-28,76.12999725341797
2014-03-31,77.0199966430664
2014-04-01,77.73999786376953
2014-04-02,77.66000366210938
2014-04-03,77.44999694824219
2014-04-04,75.62999725341797
2014-04-07,74.41000366210938
2014-04-08,74.62000274658203
2014-04-09,76.11000061035156
2014-04-10,75.0199966430664
2014-04-11,73.69999694824219
2014-04-14,73.83999633789062
2014-04-15,73.94000244140625
2014-04-16,75.06999969482422
2014-04-17,75.80999755859375
2014-04-21,74.72000122070312
2014-04-22,74.76000213623047
2014-04-23,75.61000061035156
2014-04-24,76.66000366210938
2014-04-25,76.63999938964844
2014-04-28,76.5
2014-04-29,76.23999786376953
2014-04-30,76.30999755859375
2014-05-01,72.48999786376953
2014-05-02,74.0
2014-05-05,74.80000305175781
2014-05-06,74.6500015258789
2014-05-07,75.48999786376953
2014-05-08,74.51000213623047
2014-05-09,75.13999938964844
2014-05-12,75.87999725341797
2014-05-13,74.5999984741211
2014-05-14,74.31999969482422
2014-05-15,73.70999908447266
2014-05-16,74.22000122070312
2014-05-19,74.80000305175781
2014-05-20,73.56999969482422
2014-05-21,73.83000183105469
2014-05-22,74.2699966430664
2014-05-23,74.87999725341797
2014-05-27,74.47000122070312
2014-05-28,74.05000305175781
2014-05-29,73.91999816894531
2014-05-30,73.44999694824219
2014-06-02,73.80000305175781
2014-06-03,74.2300033569336
2014-06-04,74.63999938964844
2014-06-05,74.95999908447266
2014-06-06,75.83000183105469
2014-06-09,76.51000213623047
2014-06-10,75.95999908447266
2014-06-11,75.52999877929688
2014-06-12,75.5999984741211
2014-06-13,75.66000366210938
2014-06-16,75.2699966430664
2014-06-17,75.43000030517578
2014-06-18,75.93000030517578
2014-06-19,75.0999984741211
2014-06-20,74.58999633789062
2014-06-23,74.41000366210938
2014-06-24,74.44999694824219
2014-06-25,73.69999694824219
2014-06-26,74.05000305175781
2014-06-27,75.30999755859375
2014-06-30,75.81999969482422
2014-07-01,77.19000244140625
2014-07-02,76.58000183105469
2014-07-03,77.75
2014-07-07,76.66000366210938
2014-07-08,75.72000122070312
2014-07-09,75.58000183105469
2014-07-10,74.73999786376953
2014-07-11,74.18000030517578
2014-07-14,74.95999908447266
2014-07-15,75.30000305175781
2014-07-16,75.54000091552734
2014-07-17,74.70999908447266
2014-07-18,75.2699966430664
2014-07-21,75.2300033569336
2014-07-22,76.25
2014-07-23,76.7699966430664
2014-07-24,77.22000122070312
2014-07-25,77.2699966430664
2014-07-28,77.38999938964844
2014-07-29,77.5999984741211
2014-07-30,78.29000091552734
2014-07-31,76.94000244140625
2014-08-01,76.0
2014-08-04,76.58999633789062
2014-08-05,77.95999908447266
2014-08-06,78.66000366210938
2014-08-07,78.8499984741211
2014-08-08,79.37000274658203
2014-08-11,79.08999633789062
2014-08-12,79.12000274658203
2014-08-13,79.51000213623047
2014-08-14,79.77999877929688
2014-08-15,79.79000091552734
2014-08-18,81.12000274658203
2014-08-19,81.19999694824219
2014-08-20,81.83999633789062
2014-08-21,82.70999908447266
2014-08-22,81.98999786376953
2014-08-25,80.91999816894531
2014-08-26,81.43000030517578
2014-08-27,81.62000274658203
2014-08-28,80.62999725341797
2014-08-29,81.30000305175781
2014-09-02,81.9000015258789
2014-09-03,81.5999984741211
2014-09-04,81.22000122070312
2014-09-05,81.1500015258789
2014-09-08,81.55000305175781
2014-09-09,80.38999938964844
2014-09-10,80.47000122070312
2014-09-11,80.94999694824219
2014-09-12,80.19000244140625
2014-09-15,79.79000091552734
2014-09-16,79.73999786376953
2014-09-17,79.62999725341797
2014-09-18,80.2300033569336
2014-09-19,79.56999969482422
2014-09-22,77.63999938964844
2014-09-23,76.77999877929688
2014-09-24,76.94999694824219
2014-09-25,75.43000030517578
2014-09-26,75.80000305175781
2014-09-29,75.72000122070312
2014-09-30,75.66999816894531
2014-10-01,75.16999816894531
2014-10-02,76.37000274658203
2014-10-03,76.72000122070312
2014-10-06,76.19000244140625
2014-10-07,75.80000305175781
2014-10-08,76.8499984741211
2014-10-09,75.94999694824219
2014-10-10,74.95999908447266
2014-10-13,73.37000274658203
2014-10-14,72.68000030517578
2014-10-15,72.20999908447266
2014-10-16,72.41999816894531
2014-10-17,72.98999786376953
2014-10-20,74.12000274658203
2014-10-21,75.87000274658203
2014-10-22,74.5
2014-10-23,75.0
2014-10-24,75.37000274658203
2014-10-27,75.80999755859375
2014-10-28,77.12000274658203
2014-10-29,76.62999725341797
2014-10-30,77.26000213623047
2014-10-31,78.55999755859375
2014-11-03,78.05000305175781
2014-11-04,77.44999694824219
2014-11-05,77.05999755859375
2014-11-06,78.41000366210938
2014-11-07,79.55000305175781
2014-11-10,79.30000305175781
2014-11-11,80.05999755859375
2014-11-12,79.9000015258789
2014-11-13,79.29000091552734
2014-11-14,79.79000091552734
2014-11-17,79.7300033569336
2014-11-18,79.93000030517578
2014-11-19,79.76000213623047
2014-11-20,79.79000091552734
2014-11-21,81.8499984741211
2014-11-24,81.87999725341797
2014-11-25,82.19999694824219
2014-11-26,83.05000305175781
2014-11-28,83.5199966430664
2014-12-01,83.05999755859375
2014-12-02,83.2699966430664
2014-12-03,83.12999725341797
2014-12-04,83.11000061035156
2014-12-05,83.6500015258789
2014-12-08,83.27999877929688
2014-12-09,83.20999908447266
2014-12-10,81.97000122070312
2014-12-11,81.6500015258789
2014-12-12,80.31999969482422
2014-12-15,80.11000061035156
2014-12-16,80.4000015258789
2014-12-17,81.66000366210938
2014-12-18,83.33999633789062
2014-12-19,83.23999786376953
2014-12-22,83.16000366210938
2014-12-23,83.94999694824219
2014-12-24,84.30999755859375
2014-12-26,84.2699966430664
2014-12-29,83.7300033569336
2014-12-30,82.79000091552734
2014-12-31,82.0
2015-01-02,81.63999938964844
2015-01-05,80.86000061035156
2015-01-06,79.26000213623047
2015-01-07,79.70999908447266
2015-01-08,81.66000366210938
2015-01-09,80.76000213623047
2015-01-12,79.91999816894531
2015-01-13,80.62999725341797
2015-01-14,80.72000122070312
2015-01-15,80.83000183105469
2015-01-16,82.69000244140625
2015-01-20,82.5
2015-01-21,82.94999694824219
2015-01-22,84.63999938964844
2015-01-23,84.70999908447266
2015-01-26,85.11000061035156
2015-01-27,83.30000305175781
2015-01-28,81.5999984741211
2015-01-29,82.16999816894531
2015-01-30,80.66999816894531
2015-02-02,81.26000213623047
2015-02-03,83.27999877929688
2015-02-04,82.52999877929688
2015-02-05,83.73999786376953
2015-02-06,84.02999877929688
2015-02-09,83.79000091552734
2015-02-10,85.63999938964844
2015-02-11,85.23999786376953
2015-02-12,85.9000015258789
2015-02-13,86.26000213623047
2015-02-17,86.54000091552734
2015-02-18,85.91000366210938
2015-02-19,86.62999725341797
2015-02-20,87.25
2015-02-23,86.19999694824219
2015-02-24,85.62000274658203
2015-02-25,86.31999969482422
2015-02-26,85.58999633789062
2015-02-27,85.97000122070312
2015-03-02,86.44000244140625
2015-03-03,86.2300033569336
2015-03-04,86.08000183105469
2015-03-05,86.37999725341797
2015-03-06,85.36000061035156
2015-03-09,85.94999694824219
2015-03-10,84.58999633789062
2015-03-11,84.80999755859375
2015-03-12,84.9000015258789
2015-03-13,84.98999786376953
2015-03-16,86.44000244140625
2015-03-17,86.83999633789062
2015-03-18,87.70999908447266
2015-03-19,87.8499984741211
2015-03-20,88.56999969482422
2015-03-23,87.77999877929688
2015-03-24,87.83999633789062
2015-03-25,86.41999816894531
2015-03-26,86.7300033569336
2015-03-27,86.79000091552734
2015-03-30,88.12000274658203
2015-03-31,88.19000244140625
2015-04-01,88.12999725341797
2015-04-02,86.98999786376953
2015-04-06,89.30000305175781
2015-04-07,88.87999725341797
2015-04-08,88.66000366210938
2015-04-09,88.27999877929688
2015-04-10,88.55999755859375
2015-04-13,87.52999877929688
2015-04-14,86.94999694824219
2015-04-15,87.4000015258789
2015-04-16,87.77999877929688
2015-04-17,86.33000183105469
2015-04-20,86.51000213623047
2015-04-21,86.68000030517578
2015-04-22,87.0199966430664
2015-04-23,88.06999969482422
2015-04-24,87.45999908447266
2015-04-27,86.91000366210938
2015-04-28,86.69000244140625
2015-04-29,86.8499984741211
2015-04-30,85.83999633789062
2015-05-01,86.48999786376953
2015-05-04,87.48999786376953
2015-05-05,87.23999786376953
2015-05-06,84.31999969482422
2015-05-07,86.22000122070312
2015-05-08,86.69000244140625
2015-05-11,86.37999725341797
2015-05-12,86.91000366210938
2015-05-13,88.19999694824219
2015-05-14,90.4800033569336
2015-05-15,89.69999694824219
2015-05-18,90.31999969482422
2015-05-19,90.11000061035156
2015-05-20,90.51000213623047
2015-05-21,90.22000122070312
2015-05-22,90.02999877929688
2015-05-26,89.12000274658203
2015-05-27,89.83000183105469
2015-05-28,89.70999908447266
2015-05-29,89.0
2015-06-01,89.41000366210938
2015-06-02,89.52999877929688
2015-06-03,91.0199966430664
2015-06-04,89.63999938964844
2015-06-05,90.12000274658203
2015-06-08,88.81999969482422
2015-06-09,88.80000305175781
2015-06-10,90.51000213623047
2015-06-11,91.80000305175781
2015-06-12,90.87999725341797
2015-06-15,88.7699966430664
2015-06-16,89.87000274658203
2015-06-17,89.87000274658203
2015-06-18,90.72000122070312
2015-06-19,90.91999816894531
2015-06-22,91.80000305175781
2015-06-23,91.94999694824219
2015-06-24,91.08999633789062
2015-06-25,91.87000274658203
2015-06-26,92.19000244140625
2015-06-29,91.0
2015-06-30,91.23999786376953
2015-07-01,91.51000213623047
2015-07-02,91.41000366210938
2015-07-06,90.87000274658203
2015-07-07,91.51000213623047
2015-07-08,90.72000122070312
2015-07-09,91.4000015258789
2015-07-10,92.43000030517578
2015-07-13,93.05000305175781
2015-07-14,92.80999755859375
2015-07-15,92.70999908447266
2015-07-16,93.72000122070312
2015-07-17,92.95999908447266
2015-07-20,93.01000213623047
2015-07-21,91.52999877929688
2015-07-22,93.36000061035156
2015-07-23,93.48999786376953
2015-07-24,92.94000244140625
2015-07-27,91.30999755859375
2015-07-28,92.0
2015-07-29,92.98999786376953
2015-07-30,93.70999908447266
2015-07-31,94.1500015258789
2015-08-03,94.54000091552734
2015-08-04,95.2300033569336
2015-08-05,94.0199966430664
2015-08-06,92.95999908447266
2015-08-07,93.76000213623047
2015-08-10,95.30999755859375
2015-08-11,94.2699966430664
2015-08-12,94.38999938964844
2015-08-13,94.33000183105469
2015-08-14,94.26000213623047
2015-08-17,96.51000213623047
2015-08-18,97.05999755859375
2015-08-19,96.1500015258789
2015-08-20,93.23999786376953
2015-08-21,90.91999816894531
2015-08-24,85.62999725341797
2015-08-25,85.75
2015-08-26,87.75
2015-08-27,89.79000091552734
2015-08-28,89.73999786376953
2015-08-31,88.5999984741211
2015-09-01,86.56999969482422
2015-09-02,88.87000274658203
2015-09-03,90.08999633789062
2015-09-04,89.72000122070312
2015-09-08,92.47000122070312
2015-09-09,90.87999725341797
2015-09-10,91.6500015258789
2015-09-11,92.2300033569336
2015-09-14,91.38999938964844
2015-09-15,92.37000274658203
2015-09-16,92.79000091552734
2015-09-17,92.36000061035156
2015-09-18,90.94999694824219
2015-09-21,92.2300033569336
2015-09-22,90.87000274658203
2015-09-23,90.86000061035156
2015-09-24,90.68000030517578
2015-09-25,89.94000244140625
2015-09-28,88.29000091552734
2015-09-29,86.91999816894531
2015-09-30,88.13999938964844
2015-10-01,87.33999633789062
2015-10-02,88.23999786376953
2015-10-05,89.73999786376953
2015-10-06,88.88999938964844
2015-10-07,89.66000366210938
2015-10-08,90.25
2015-10-09,91.80999755859375
2015-10-12,91.87000274658203
2015-10-13,91.37000274658203
2015-10-14,90.26000213623047
2015-10-15,90.81999969482422
2015-10-16,92.1500015258789
2015-10-19,93.29000091552734
2015-10-20,92.06999969482422
2015-10-21,91.56999969482422
2015-10-22,93.08000183105469
2015-10-23,93.58000183105469
2015-10-26,94.3499984741211
2015-10-27,94.0
2015-10-28,97.06999969482422
2015-10-29,95.5199966430664
2015-10-30,95.30999755859375
2015-11-02,97.43000030517578
2015-11-03,97.20999908447266
2015-11-04,97.7699966430664
2015-11-05,93.38999938964844
2015-11-06,93.5199966430664
2015-11-09,92.19999694824219
2015-11-10,92.16000366210938
2015-11-11,91.44999694824219
2015-11-12,90.58999633789062
2015-11-13,89.58000183105469
2015-11-16,90.16999816894531
2015-11-17,90.26000213623047
2015-11-18,90.7300033569336
2015-11-19,91.5
2015-11-20,91.62999725341797
2015-11-23,92.33000183105469
2015-11-24,92.52999877929688
2015-11-25,92.86000061035156
2015-11-27,93.66000366210938
2015-11-30,93.20999908447266
2015-12-01,94.18000030517578
2015-12-02,93.43000030517578
2015-12-03,92.36000061035156
2015-12-04,93.6500015258789
2015-12-07,92.83000183105469
2015-12-08,92.9000015258789
2015-12-09,90.58000183105469
2015-12-10,91.02999877929688
2015-12-11,89.76000213623047
2015-12-14,90.11000061035156
2015-12-15,90.97000122070312
2015-12-16,91.7300033569336
2015-12-17,91.36000061035156
2015-12-18,90.5999984741211
2015-12-21,91.08999633789062
2015-12-22,91.8499984741211
2015-12-23,93.30000305175781
2015-12-24,93.3499984741211
2015-12-28,93.83000183105469
2015-12-29,94.36000061035156
2015-12-30,93.72000122070312
2015-12-31,92.5
2016-01-04,90.0999984741211
2016-01-05,89.41999816894531
2016-01-06,88.29000091552734
2016-01-07,87.2300033569336
2016-01-08,85.4000015258789
2016-01-11,85.2699966430664
2016-01-12,86.41000366210938
2016-01-13,84.44999694824219
2016-01-14,84.9000015258789
2016-01-15,84.97000122070312
2016-01-19,84.98999786376953
2016-01-20,84.70999908447266
2016-01-21,85.06999969482422
2016-01-22,86.80000305175781
2016-01-25,84.80000305175781
2016-01-26,86.56999969482422
2016-01-27,84.5999984741211
2016-01-28,85.0999984741211
2016-01-29,88.19000244140625
2016-02-01,88.23999786376953
2016-02-02,86.81999969482422
2016-02-03,87.38999938964844
2016-02-04,88.18000030517578
2016-02-05,84.69999694824219
2016-02-08,81.91999816894531
2016-02-09,83.0999984741211
2016-02-10,83.94000244140625
2016-02-11,83.5
2016-02-12,84.05999755859375
2016-02-16,84.05000305175781
2016-02-17,86.18000030517578
2016-02-18,85.56999969482422
2016-02-19,87.58999633789062
2016-02-22,88.5199966430664
2016-02-23,86.48999786376953
2016-02-24,86.54000091552734
2016-02-25,84.22000122070312
2016-02-26,84.05999755859375
2016-02-29,83.0199966430664
2016-03-01,86.05000305175781
2016-03-02,86.06999969482422
2016-03-03,86.26000213623047
2016-03-04,87.06999969482422
2016-03-07,87.69000244140625
2016-03-08,86.18000030517578
2016-03-09,86.83999633789062
2016-03-10,86.08000183105469
2016-03-11,86.52999877929688
2016-03-14,85.91000366210938
2016-03-15,86.2300033569336
2016-03-16,87.08000183105469
2016-03-17,87.9800033569336
2016-03-18,87.66999816894531
2016-03-21,87.5199966430664
2016-03-22,87.4800033569336
2016-03-23,87.11000061035156
2016-03-24,87.30000305175781
2016-03-28,87.16000366210938
2016-03-29,88.73999786376953
2016-03-30,88.56999969482422
2016-03-31,89.45999908447266
2016-04-01,90.0999984741211
2016-04-04,89.2300033569336
2016-04-05,88.01000213623047
2016-04-06,89.12000274658203
2016-04-07,87.26000213623047
2016-04-08,87.66999816894531
2016-04-11,87.48999786376953
2016-04-12,86.56999969482422
2016-04-13,89.16999816894531
2016-04-14,88.5199966430664
2016-04-15,89.80999755859375
2016-04-18,90.1500015258789
2016-04-19,90.94000244140625
2016-04-20,90.87000274658203
2016-04-21,90.6500015258789
2016-04-22,91.0
2016-04-25,91.48999786376953
2016-04-26,91.37000274658203
2016-04-27,91.62000274658203
2016-04-28,90.55999755859375
2016-04-29,90.7699966430664
2016-05-02,92.23999786376953
2016-05-03,91.30000305175781
2016-05-04,89.95999908447266
2016-05-05,83.76000213623047
2016-05-06,84.61000061035156
2016-05-09,85.69999694824219
2016-05-10,86.48999786376953
2016-05-11,86.1500015258789
2016-05-12,86.5
2016-05-13,85.83000183105469
2016-05-16,86.48999786376953
2016-05-17,85.19000244140625
2016-05-18,85.22000122070312
2016-05-19,85.01000213623047
2016-05-20,86.25
2016-05-23,86.77999877929688
2016-05-24,88.62999725341797
2016-05-25,87.9800033569336
2016-05-26,88.27999877929688
2016-05-27,89.05999755859375
2016-05-31,89.0999984741211
2016-06-01,88.37000274658203
2016-06-02,88.94999694824219
2016-06-03,88.19999694824219
2016-06-06,88.44000244140625
2016-06-07,88.48999786376953
2016-06-08,88.81999969482422
2016-06-09,88.98999786376953
2016-06-10,87.47000122070312
2016-06-13,87.0
2016-06-14,87.19000244140625
2016-06-15,87.58999633789062
2016-06-16,87.97000122070312
2016-06-17,87.95999908447266
2016-06-20,88.9800033569336
2016-06-21,89.62999725341797
2016-06-22,89.44000244140625
2016-06-23,92.41000366210938
2016-06-24,87.66999816894531
2016-06-27,85.08999633789062
2016-06-28,86.58000183105469
2016-06-29,88.12000274658203
2016-06-30,90.75
2016-07-01,90.6500015258789
2016-07-05,89.08999633789062
2016-07-06,89.26000213623047
2016-07-07,89.68000030517578
2016-07-08,91.41999816894531
2016-07-11,91.2699966430664
2016-07-12,91.8499984741211
2016-07-13,90.91000366210938
2016-07-14,91.08000183105469
2016-07-15,91.13999938964844
2016-07-18,91.04000091552734
2016-07-19,90.5
2016-07-20,90.45999908447266
2016-07-21,89.38999938964844
2016-07-22,90.0
2016-07-25,89.98999786376953
2016-07-26,90.33999633789062
2016-07-27,89.72000122070312
2016-07-28,90.06999969482422
2016-07-29,89.36000061035156
2016-08-01,90.37999725341797
2016-08-02,89.30000305175781
2016-08-03,90.31999969482422
2016-08-04,92.80000305175781
2016-08-05,94.83999633789062
2016-08-08,94.80999755859375
2016-08-09,95.13999938964844
2016-08-10,95.93000030517578
2016-08-11,96.70999908447266
2016-08-12,96.69000244140625
2016-08-15,97.47000122070312
2016-08-16,96.72000122070312
2016-08-17,97.48999786376953
2016-08-18,97.43000030517578
2016-08-19,97.69000244140625
2016-08-22,97.55000305175781
2016-08-23,98.29000091552734
2016-08-24,98.12999725341797
2016-08-25,98.38999938964844
2016-08-26,98.51000213623047
2016-08-29,98.5
2016-08-30,95.3499984741211
2016-08-31,95.08999633789062
2016-09-01,94.58000183105469
2016-09-02,95.66000366210938
2016-09-06,95.30000305175781
2016-09-07,95.20999908447266
2016-09-08,94.62000274658203
2016-09-09,92.61000061035156
2016-09-12,93.52999877929688
2016-09-13,92.33999633789062
2016-09-14,92.4000015258789
2016-09-15,93.58000183105469
2016-09-16,91.91999816894531
2016-09-19,92.12000274658203
2016-09-20,92.05999755859375
2016-09-21,93.22000122070312
2016-09-22,93.20999908447266
2016-09-23,92.30000305175781
2016-09-26,91.41999816894531
2016-09-27,91.83999633789062
2016-09-28,91.94000244140625
2016-09-29,91.0
2016-09-30,92.61000061035156
2016-10-03,91.87000274658203
2016-10-04,91.73999786376953
2016-10-05,92.37999725341797
2016-10-06,92.11000061035156
2016-10-07,91.4000015258789
2016-10-10,91.56999969482422
2016-10-11,91.1500015258789
2016-10-12,91.86000061035156
2016-10-13,91.75
2016-10-14,91.1500015258789
2016-10-17,90.97000122070312
2016-10-18,91.38999938964844
2016-10-19,91.5
2016-10-20,91.19000244140625
2016-10-21,91.11000061035156
2016-10-24,92.37999725341797
2016-10-25,91.12000274658203
2016-10-26,91.0999984741211
2016-10-27,90.79000091552734
2016-10-28,91.4000015258789
2016-10-31,91.3499984741211
2016-11-01,89.95999908447266
2016-11-02,89.5199966430664
2016-11-03,83.48999786376953
2016-11-04,83.62000274658203
2016-11-07,85.7699966430664
2016-11-08,86.94000244140625
2016-11-09,88.33000183105469
2016-11-10,87.54000091552734
2016-11-11,88.9000015258789
2016-11-14,90.61000061035156
2016-11-15,91.26000213623047
2016-11-16,92.87999725341797
2016-11-17,93.52999877929688
2016-11-18,93.36000061035156
2016-11-21,93.7699966430664
2016-11-22,93.87999725341797
2016-11-23,94.01000213623047
2016-11-25,94.4800033569336
2016-11-28,93.75
2016-11-29,94.52999877929688
2016-11-30,94.02999877929688
2016-12-01,93.61000061035156
2016-12-02,93.2699966430664
2016-12-05,93.83999633789062
2016-12-06,94.08999633789062
2016-12-07,95.30999755859375
2016-12-08,95.69000244140625
2016-12-09,95.36000061035156
2016-12-12,94.70999908447266
2016-12-13,94.91999816894531
2016-12-14,94.45999908447266
2016-12-15,94.55000305175781
2016-12-16,95.11000061035156
2016-12-19,95.30999755859375
2016-12-20,95.9000015258789
2016-12-21,94.6500015258789
2016-12-22,92.47000122070312
2016-12-23,92.80000305175781
2016-12-27,93.13999938964844
2016-12-28,92.56999969482422
2016-12-29,92.66000366210938
2016-12-30,92.48999786376953
2017-01-03,93.3499984741211
2017-01-04,94.44000244140625
2017-01-05,94.70999908447266
2017-01-06,93.94999694824219
2017-01-09,94.29000091552734
2017-01-10,94.19000244140625
2017-01-11,93.69999694824219
2017-01-12,93.88999938964844
2017-01-13,94.02999877929688
2017-01-17,93.5
2017-01-18,93.56999969482422
2017-01-19,93.48999786376953
2017-01-20,93.30000305175781
2017-01-23,93.51000213623047
2017-01-24,94.4800033569336
2017-01-25,94.94999694824219
2017-01-26,94.8499984741211
2017-01-27,93.94999694824219
2017-01-30,93.4800033569336
2017-01-31,93.26000213623047
2017-02-01,93.23999786376953
2017-02-02,93.8499984741211
2017-02-03,95.16999816894531
2017-02-06,95.05000305175781
2017-02-07,95.26000213623047
2017-02-08,95.2300033569336
2017-02-09,96.31999969482422
2017-02-10,96.86000061035156
2017-02-13,97.16999816894531
2017-02-14,98.36000061035156
2017-02-15,99.45999908447266
2017-02-16,100.43000030517578
2017-02-17,100.2699966430664
2017-02-21,101.62000274658203
2017-02-22,101.08000183105469
2017-02-23,104.1500015258789
2017-02-24,104.5
2017-02-27,107.25
2017-02-28,106.76000213623047
2017-03-01,108.36000061035156
2017-03-02,106.05999755859375
2017-03-03,106.30000305175781
2017-03-06,105.54000091552734
2017-03-07,105.7699966430664
2017-03-08,105.98999786376953
2017-03-09,105.93000030517578
2017-03-10,106.47000122070312
2017-03-13,106.83000183105469
2017-03-14,106.27999877929688
2017-03-15,107.05999755859375
2017-03-16,107.22000122070312
2017-03-17,107.29000091552734
2017-03-20,107.52999877929688
2017-03-21,106.41999816894531
2017-03-22,106.63999938964844
2017-03-23,106.58999633789062
2017-03-24,105.69999694824219
2017-03-27,105.6500015258789
2017-03-28,106.19000244140625
2017-03-29,106.55000305175781
2017-03-30,106.7699966430664
2017-03-31,106.87000274658203
2017-04-03,106.79000091552734
2017-04-04,105.56999969482422
2017-04-05,105.16999816894531
2017-04-06,106.13999938964844
2017-04-07,105.58999633789062
2017-04-10,105.86000061035156
2017-04-11,105.94000244140625
2017-04-12,105.55999755859375
2017-04-13,105.37000274658203
2017-04-17,106.4000015258789
2017-04-18,107.16999816894531
2017-04-19,107.77999877929688
2017-04-20,108.01000213623047
2017-04-21,108.0
2017-04-24,109.5999984741211
2017-04-25,109.7699966430664
2017-04-26,110.0
2017-04-27,110.1500015258789
2017-04-28,110.16000366210938
2017-05-01,110.9000015258789
2017-05-02,110.8499984741211
2017-05-03,111.0
2017-05-04,119.48999786376953
2017-05-05,121.19999694824219
2017-05-08,121.12999725341797
2017-05-09,121.29000091552734
2017-05-10,120.54000091552734
2017-05-11,119.88999938964844
2017-05-12,119.9000015258789
2017-05-15,120.45999908447266
2017-05-16,121.30000305175781
2017-05-17,119.83999633789062
2017-05-18,120.33999633789062
2017-05-19,122.19999694824219
2017-05-22,124.12000274658203
2017-05-23,124.66000366210938
2017-05-24,124.01000213623047
2017-05-25,126.20999908447266
2017-05-26,125.72000122070312
2017-05-30,126.77999877929688
2017-05-31,126.33000183105469
2017-06-01,127.86000061035156
2017-06-02,129.49000549316406
2017-06-05,129.5399932861328
2017-06-06,128.39999389648438
2017-06-07,128.33999633789062
2017-06-08,126.95999908447266
2017-06-09,124.5199966430664
2017-06-12,122.4000015258789
2017-06-13,122.47000122070312
2017-06-14,122.73999786376953
2017-06-15,121.08000183105469
2017-06-16,121.75
2017-06-19,122.6500015258789
2017-06-20,120.93000030517578
2017-06-21,122.41000366210938
2017-06-22,122.6500015258789
2017-06-23,122.5199966430664
2017-06-26,122.77999877929688
2017-06-27,121.2699966430664
2017-06-28,122.02999877929688
2017-06-29,120.43000030517578
2017-06-30,121.68000030517578
2017-07-03,120.47000122070312
2017-07-05,120.87000274658203
2017-07-06,120.94000244140625
2017-07-07,122.38999938964844
2017-07-10,122.23999786376953
2017-07-11,122.86000061035156
2017-07-12,124.58999633789062
2017-07-13,124.51000213623047
2017-07-14,124.58999633789062
2017-07-17,124.66999816894531
2017-07-18,125.02999877929688
2017-07-19,126.18000030517578
2017-07-20,126.01000213623047
2017-07-21,126.66999816894531
2017-07-24,127.38999938964844
2017-07-25,127.91000366210938
2017-07-26,127.87999725341797
2017-07-27,127.58000183105469
2017-07-28,128.42999267578125
2017-07-31,129.5500030517578
2017-08-01,130.22999572753906
2017-08-02,127.4800033569336
2017-08-03,123.38999938964844
2017-08-04,124.31999969482422
2017-08-07,124.9800033569336
2017-08-08,124.43000030517578
2017-08-09,124.76000213623047
2017-08-10,122.70999908447266
2017-08-11,122.94999694824219
2017-08-14,125.23999786376953
2017-08-15,126.08999633789062
2017-08-16,128.50999450683594
2017-08-17,125.5199966430664
2017-08-18,125.61000061035156
2017-08-21,126.58000183105469
2017-08-22,129.0
2017-08-23,127.26000213623047
2017-08-24,127.12999725341797
2017-08-25,127.7699966430664
2017-08-28,127.63999938964844
2017-08-29,126.56999969482422
2017-08-30,127.91000366210938
2017-08-31,128.82000732421875
2017-09-01,128.11000061035156
2017-09-05,128.49000549316406
2017-09-06,127.68000030517578
2017-09-07,128.4600067138672
2017-09-08,128.44000244140625
2017-09-11,129.80999755859375
2017-09-12,132.00999450683594
2017-09-13,131.50999450683594
2017-09-14,129.14999389648438
2017-09-15,121.81999969482422
2017-09-18,123.58999633789062
2017-09-19,123.44000244140625
2017-09-20,122.98999786376953
2017-09-21,120.81999969482422
2017-09-22,122.05000305175781
2017-09-25,120.73999786376953
2017-09-26,120.66999816894531
2017-09-27,120.94000244140625
2017-09-28,121.62999725341797
2017-09-29,122.7300033569336
2017-10-02,123.77999877929688
2017-10-03,124.6500015258789
2017-10-04,124.55000305175781
2017-10-05,125.23999786376953
2017-10-06,126.05999755859375
2017-10-09,126.11000061035156
2017-10-10,126.18000030517578
2017-10-11,127.13999938964844
2017-10-12,129.24000549316406
2017-10-13,129.94000244140625
2017-10-16,131.30999755859375
2017-10-17,129.69000244140625
2017-10-18,129.55999755859375
2017-10-19,129.88999938964844
2017-10-20,130.94000244140625
2017-10-23,131.22000122070312
2017-10-24,132.11000061035156
2017-10-25,132.85000610351562
2017-10-26,133.83999633789062
2017-10-27,135.77999877929688
2017-10-30,135.8000030517578
2017-10-31,136.7100067138672
2017-11-01,135.60000610351562
2017-11-02,148.67999267578125
2017-11-03,149.10000610351562
2017-11-06,151.1999969482422
2017-11-07,151.92999267578125
2017-11-08,151.47999572753906
2017-11-09,150.47000122070312
2017-11-10,150.27999877929688
2017-11-13,150.8699951171875
2017-11-14,149.42999267578125
2017-11-15,149.32000732421875
2017-11-16,151.4600067138672
2017-11-17,150.57000732421875
2017-11-20,151.2100067138672
2017-11-21,153.39999389648438
2017-11-22,150.47999572753906
2017-11-24,151.91000366210938
2017-11-27,150.8800048828125
2017-11-28,150.27000427246094
2017-11-29,146.5800018310547
2017-11-30,148.19000244140625
2017-12-01,146.5399932861328
2017-12-04,142.00999450683594
2017-12-05,143.44000244140625
2017-12-06,144.72000122070312
2017-12-07,146.30999755859375
2017-12-08,146.1300048828125
2017-12-11,146.38999938964844
2017-12-12,145.3300018310547
2017-12-13,144.75999450683594
2017-12-14,144.50999450683594
2017-12-15,148.02999877929688
2017-12-18,147.58999633789062
2017-12-19,147.6300048828125
2017-12-20,147.35000610351562
2017-12-21,147.22999572753906
2017-12-22,146.66000366210938
2017-12-26,146.38999938964844
2017-12-27,146.66000366210938
2017-12-28,147.64999389648438
2017-12-29,147.58999633789062
2018-01-02,148.5500030517578
2018-01-03,151.4199981689453
2018-01-04,151.82000732421875
2018-01-05,152.4499969482422
2018-01-08,153.7100067138672
2018-01-09,155.13999938964844
2018-01-10,152.11000061035156
2018-01-11,152.2100067138672
2018-01-12,154.22000122070312
2018-01-16,153.38999938964844
2018-01-17,155.75
2018-01-18,158.33999633789062
2018-01-19,161.5399932861328
2018-01-22,163.1300048828125
2018-01-23,161.85000610351562
2018-01-24,161.5399932861328
2018-01-25,159.92999267578125
2018-01-26,163.9600067138672
2018-01-29,162.75
2018-01-30,161.67999267578125
2018-01-31,161.64999389648438
2018-02-01,163.39999389648438
2018-02-02,160.2899932861328
2018-02-05,156.02000427246094
2018-02-06,157.10000610351562
2018-02-07,155.02999877929688
2018-02-08,148.83999633789062
2018-02-09,150.41000366210938
2018-02-12,153.74000549316406
2018-02-13,154.1999969482422
2018-02-14,157.6999969482422
2018-02-15,162.41000366210938
2018-02-16,164.13999938964844
2018-02-20,167.80999755859375
2018-02-21,163.5399932861328
2018-02-22,160.94000244140625
2018-02-23,160.88999938964844
2018-02-26,161.6699981689453
2018-02-27,161.33999633789062
2018-02-28,159.94000244140625
2018-03-01,158.74000549316406
2018-03-02,162.6300048828125
2018-03-05,163.2100067138672
2018-03-06,163.77000427246094
2018-03-07,165.3699951171875
2018-03-08,168.0
2018-03-09,171.17999267578125
2018-03-12,169.94000244140625
2018-03-13,167.75
2018-03-14,166.9499969482422
2018-03-15,167.36000061035156
2018-03-16,166.30999755859375
2018-03-19,164.9600067138672
2018-03-20,165.49000549316406
2018-03-21,166.41000366210938
2018-03-22,162.41000366210938
2018-03-23,157.74000549316406
2018-03-26,161.00999450683594
2018-03-27,157.0500030517578
2018-03-28,154.8699951171875
2018-03-29,156.69000244140625
2018-04-02,153.8699951171875
2018-04-03,156.07000732421875
2018-04-04,157.9199981689453
2018-04-05,157.7899932861328
2018-04-06,153.50999450683594
2018-04-09,154.35000610351562
2018-04-10,157.9199981689453
2018-04-11,157.00999450683594
2018-04-12,159.0399932861328
2018-04-13,156.97999572753906
2018-04-16,159.99000549316406
2018-04-17,164.5800018310547
2018-04-18,166.5
2018-04-19,165.47999572753906
2018-04-20,163.77999877929688
2018-04-23,162.5800018310547
2018-04-24,160.9499969482422
2018-04-25,159.86000061035156
2018-04-26,162.60000610351562
2018-04-27,162.8000030517578
2018-04-30,161.66000366210938
2018-05-01,161.11000061035156
2018-05-02,160.61000061035156
2018-05-03,161.02000427246094
2018-05-04,164.14999389648438
2018-05-07,165.72999572753906
2018-05-08,167.47999572753906
2018-05-09,171.5
2018-05-10,172.30999755859375
2018-05-11,172.1300048828125
2018-05-14,166.97000122070312
2018-05-15,165.47999572753906
2018-05-16,165.27999877929688
2018-05-17,164.5800018310547
2018-05-18,164.92999267578125
2018-05-21,164.52000427246094
2018-05-22,163.4499969482422
2018-05-23,164.16000366210938
2018-05-24,163.22000122070312
2018-05-25,162.32000732421875
2018-05-29,161.58999633789062
2018-05-30,162.88999938964844
2018-05-31,162.8000030517578
2018-06-01,165.8000030517578
2018-06-04,168.08999633789062
2018-06-05,170.02000427246094
2018-06-06,171.5399932861328
2018-06-07,170.8699951171875
2018-06-08,172.22999572753906
2018-06-11,172.99000549316406
2018-06-12,175.9600067138672
2018-06-13,175.7899932861328
2018-06-14,176.9199981689453
2018-06-15,177.77999877929688
2018-06-18,177.9199981689453
2018-06-19,176.75999450683594
2018-06-20,182.72999572753906
2018-06-21,181.89999389648438
2018-06-22,179.32000732421875
2018-06-25,177.14999389648438
2018-06-26,177.27000427246094
2018-06-27,171.69000244140625
2018-06-28,172.92999267578125
2018-06-29,174.17999267578125
2018-07-02,176.0
2018-07-03,173.33999633789062
2018-07-05,175.3800048828125
2018-07-06,177.7100067138672
2018-07-09,177.14999389648438
2018-07-10,176.4600067138672
2018-07-11,176.69000244140625
2018-07-12,180.14999389648438
2018-07-13,179.72000122070312
2018-07-16,178.7899932861328
2018-07-17,180.63999938964844
2018-07-18,180.8800048828125
2018-07-19,180.35000610351562
2018-07-20,178.9199981689453
2018-07-23,177.6300048828125
2018-07-24,175.25999450683594
2018-07-25,177.50999450683594
2018-07-26,176.99000549316406
2018-07-27,174.16000366210938
2018-07-30,168.5
2018-07-31,168.8800048828125
2018-08-01,170.35000610351562
2018-08-02,173.14999389648438
2018-08-03,173.27000427246094
2018-08-06,175.66000366210938
2018-08-07,172.77999877929688
2018-08-08,172.8699951171875
2018-08-09,172.00999450683594
2018-08-10,171.52999877929688
2018-08-13,171.02999877929688
2018-08-14,173.52000427246094
2018-08-15,171.38999938964844
2018-08-16,172.11000061035156
2018-08-17,172.25
2018-08-20,172.52999877929688
2018-08-21,173.9499969482422
2018-08-22,175.0800018310547
2018-08-23,175.67999267578125
2018-08-24,178.10000610351562
2018-08-27,180.27000427246094
2018-08-28,184.10000610351562
2018-08-29,185.6199951171875
2018-08-30,185.3699951171875
2018-08-31,185.97999572753906
2018-09-04,187.32000732421875
2018-09-05,184.30999755859375
2018-09-06,185.1699981689453
2018-09-07,185.4499969482422
2018-09-10,185.57000732421875
2018-09-11,186.7899932861328
2018-09-12,187.5
2018-09-13,188.5
2018-09-14,189.50999450683594
2018-09-17,183.85000610351562
2018-09-18,184.8300018310547
2018-09-19,184.27000427246094
2018-09-20,183.75
2018-09-21,182.47999572753906
2018-09-24,183.3699951171875
2018-09-25,184.99000549316406
2018-09-26,184.97999572753906
2018-09-27,186.39999389648438
2018-09-28,186.67999267578125
2018-10-01,186.0
2018-10-02,182.2100067138672
2018-10-03,182.22000122070312
2018-10-04,175.3800048828125
2018-10-05,173.75
2018-10-08,168.27000427246094
2018-10-09,165.83999633789062
2018-10-10,155.7100067138672
2018-10-11,153.50999450683594
2018-10-12,158.89999389648438
2018-10-15,156.50999450683594
2018-10-16,159.0
2018-10-17,158.85000610351562
2018-10-18,153.80999755859375
2018-10-19,150.5800018310547
2018-10-22,152.88999938964844
2018-10-23,150.72999572753906
2018-10-24,144.0
2018-10-25,146.8300018310547
2018-10-26,143.50999450683594
2018-10-29,143.80999755859375
2018-10-30,146.1999969482422
2018-10-31,149.5500030517578
2018-11-01,153.13999938964844
2018-11-02,155.27999877929688
2018-11-05,153.2100067138672
2018-11-06,152.91000366210938
2018-11-07,159.8000030517578
2018-11-08,169.67999267578125
2018-11-09,165.86000061035156
2018-11-12,159.08999633789062
2018-11-13,159.27000427246094
2018-11-14,155.75
2018-11-15,160.24000549316406
2018-11-16,158.25
2018-11-19,149.7100067138672
2018-11-20,149.4499969482422
2018-11-21,152.00999450683594
2018-11-23,150.44000244140625
2018-11-26,154.2100067138672
2018-11-27,151.75
2018-11-28,160.49000549316406
2018-11-29,159.39999389648438
2018-11-30,162.02000427246094
2018-12-03,163.4199981689453
2018-12-04,156.63999938964844
2018-12-06,158.19000244140625
2018-12-07,152.3699951171875
2018-12-10,154.3800048828125
2018-12-11,153.7899932861328
2018-12-12,156.9600067138672
2018-12-13,154.66000366210938
2018-12-14,149.7100067138672
2018-12-17,146.4199981689453
2018-12-18,150.08999633789062
2018-12-19,146.22000122070312
2018-12-20,143.8000030517578
2018-12-21,140.19000244140625
2018-12-24,136.80999755859375
2018-12-26,142.85000610351562
2018-12-27,144.16000366210938
2018-12-28,142.99000549316406
2018-12-31,142.94000244140625
2019-01-02,143.00999450683594
2019-01-03,137.63999938964844
2019-01-04,143.66000366210938
2019-01-07,147.32000732421875
2019-01-08,148.0500030517578
2019-01-09,150.63999938964844
2019-01-10,152.60000610351562
2019-01-11,154.75
2019-01-14,153.60000610351562
2019-01-15,156.16000366210938
2019-01-16,157.1300048828125
2019-01-17,158.30999755859375
2019-01-18,161.7100067138672
2019-01-22,161.02999877929688
2019-01-23,158.6300048828125
2019-01-24,158.10000610351562
2019-01-25,161.64999389648438
2019-01-28,160.6999969482422
2019-01-29,158.86000061035156
2019-01-30,162.99000549316406
2019-01-31,164.35000610351562
2019-02-01,167.5500030517578
2019-02-04,169.0500030517578
2019-02-05,170.22000122070312
2019-02-06,170.77999877929688
2019-02-07,169.5500030517578
2019-02-08,171.72999572753906
2019-02-11,171.22999572753906
2019-02-12,175.00999450683594
2019-02-13,173.11000061035156
2019-02-14,173.1999969482422
2019-02-15,174.49000549316406
2019-02-19,174.4600067138672
2019-02-20,174.66000366210938
2019-02-21,174.49000549316406
2019-02-22,175.47999572753906
2019-02-25,175.00999450683594
2019-02-26,174.8300018310547
2019-02-27,176.8300018310547
2019-02-28,177.25999450683594
2019-03-01,182.22999572753906
2019-03-04,180.1300048828125
2019-03-05,178.75
2019-03-06,178.67999267578125
2019-03-07,178.7899932861328
2019-03-08,177.42999267578125
2019-03-11,178.72999572753906
2019-03-12,180.9600067138672
2019-03-13,180.80999755859375
2019-03-14,180.6199951171875
2019-03-15,180.3800048828125
2019-03-18,180.89999389648438
2019-03-19,181.1199951171875
2019-03-20,180.22999572753906
2019-03-21,182.3300018310547
2019-03-22,177.17999267578125
2019-03-25,177.44000244140625
2019-03-26,179.69000244140625
2019-03-27,178.5500030517578
2019-03-28,180.2899932861328
2019-03-29,182.7100067138672
2019-04-01,187.4499969482422
2019-04-02,187.61000061035156
2019-04-03,188.5399932861328
2019-04-04,184.97999572753906
2019-04-05,185.8300018310547
2019-04-08,186.41000366210938
2019-04-09,186.66000366210938
2019-04-10,187.9199981689453
2019-04-11,188.58999633789062
2019-04-12,189.5500030517578
2019-04-15,189.9600067138672
2019-04-16,189.39999389648438
2019-04-17,187.08999633789062
2019-04-18,186.58999633789062
2019-04-22,189.0399932861328
2019-04-23,192.1999969482422
2019-04-24,192.91000366210938
2019-04-25,191.92999267578125
2019-04-26,194.66000366210938
2019-04-29,193.58999633789062
2019-04-30,195.8000030517578
2019-05-01,192.50999450683594
2019-05-02,191.3800048828125
2019-05-03,192.49000549316406
2019-05-06,192.60000610351562
2019-05-07,188.9199981689453
2019-05-08,190.92999267578125
2019-05-09,190.50999450683594
2019-05-10,191.8800048828125
2019-05-13,183.97000122070312
2019-05-14,186.02999877929688
2019-05-15,186.9499969482422
2019-05-16,191.44000244140625
2019-05-17,187.52999877929688
2019-05-20,184.6699981689453
2019-05-21,185.86000061035156
2019-05-22,185.52999877929688
2019-05-23,180.11000061035156
2019-05-24,182.14999389648438
2019-05-28,180.39999389648438
2019-05-29,179.36000061035156
2019-05-30,180.69000244140625
2019-05-31,179.5
2019-06-03,175.24000549316406
2019-06-04,182.36000061035156
2019-06-05,185.85000610351562
2019-06-06,189.1999969482422
2019-06-07,193.2899932861328
2019-06-10,195.0800018310547
2019-06-11,194.80999755859375
2019-06-12,197.77000427246094
2019-06-13,198.47000122070312
2019-06-14,197.1300048828125
2019-06-17,198.72000122070312
2019-06-18,201.88999938964844
2019-06-19,204.0500030517578
2019-06-20,203.6999969482422
2019-06-21,200.9600067138672
2019-06-24,201.38999938964844
2019-06-25,196.4499969482422
2019-06-26,198.67999267578125
2019-06-27,200.8699951171875
2019-06-28,204.82000732421875
2019-07-01,208.11000061035156
2019-07-02,206.58999633789062
2019-07-03,209.3300018310547
2019-07-05,209.50999450683594
2019-07-08,207.92999267578125
2019-07-09,206.72000122070312
2019-07-10,209.5500030517578
2019-07-11,211.3000030517578
2019-07-12,212.27999877929688
2019-07-15,210.9199981689453
2019-07-16,209.74000549316406
2019-07-17,209.6999969482422
2019-07-18,207.55999755859375
2019-07-19,208.10000610351562
2019-07-22,211.5
2019-07-23,213.24000549316406
2019-07-24,214.9499969482422
2019-07-25,213.24000549316406
2019-07-26,213.14999389648438
2019-07-29,210.66000366210938
2019-07-30,207.8000030517578
2019-07-31,203.1199951171875
2019-08-01,201.2100067138672
2019-08-02,195.35000610351562
2019-08-05,190.14999389648438
2019-08-06,198.33999633789062
2019-08-07,201.88999938964844
2019-08-08,211.3300018310547
2019-08-09,208.27000427246094
2019-08-12,207.0399932861328
2019-08-13,213.4199981689453
2019-08-14,205.05999755859375
2019-08-15,204.1199951171875
2019-08-16,209.57000732421875
2019-08-19,212.99000549316406
2019-08-20,213.17999267578125
2019-08-21,218.0399932861328
2019-08-22,217.10000610351562
2019-08-23,210.7100067138672
2019-08-26,211.8000030517578
2019-08-27,211.0399932861328
2019-08-28,204.13999938964844
2019-08-29,209.17999267578125
2019-08-30,206.55999755859375
2019-09-03,206.00999450683594
2019-09-04,212.49000549316406
2019-09-05,218.08999633789062
2019-09-06,217.58999633789062
2019-09-09,214.5800018310547
2019-09-10,210.3800048828125
2019-09-11,214.58999633789062
2019-09-12,211.0800018310547
2019-09-13,212.1300048828125
2019-09-16,212.1300048828125
2019-09-17,216.1300048828125
2019-09-18,217.58999633789062
2019-09-19,219.0500030517578
2019-09-20,216.57000732421875
2019-09-23,216.72999572753906
2019-09-24,213.86000061035156
2019-09-25,215.63999938964844
2019-09-26,220.0800018310547
2019-09-27,217.08999633789062
2019-09-30,221.36000061035156
2019-10-01,216.72999572753906
2019-10-02,216.0399932861328
2019-10-03,220.24000549316406
2019-10-04,224.6300048828125
2019-10-07,223.1199951171875
2019-10-08,216.6300048828125
2019-10-09,220.49000549316406
2019-10-10,220.6699981689453
2019-10-11,224.16000366210938
2019-10-14,225.25999450683594
2019-10-15,226.82000732421875
2019-10-16,222.17999267578125
2019-10-17,220.8699951171875
2019-10-18,218.42999267578125
2019-10-21,218.77999877929688
2019-10-22,214.32000732421875
2019-10-23,216.0800018310547
2019-10-24,221.52000427246094
2019-10-25,220.25
2019-10-28,223.6300048828125
2019-10-29,222.3000030517578
2019-10-30,225.19000244140625
2019-10-31,220.14999389648438
2019-11-01,220.0
2019-11-04,217.47000122070312
2019-11-05,217.9600067138672
2019-11-06,218.72999572753906
2019-11-07,225.22000122070312
2019-11-08,224.30999755859375
2019-11-11,227.35000610351562
2019-11-12,230.2100067138672
2019-11-13,229.0
2019-11-14,229.3699951171875
2019-11-15,235.14999389648438
2019-11-18,238.6699981689453
2019-11-19,242.4199981689453
2019-11-20,245.49000549316406
2019-11-21,246.3800048828125
2019-11-22,246.3800048828125
2019-11-25,249.4199981689453
2019-11-26,252.47999572753906
2019-11-27,255.4499969482422
2019-11-29,254.69000244140625
2019-12-02,250.6999969482422
2019-12-03,250.3699951171875
2019-12-04,252.13999938964844
2019-12-05,252.99000549316406
2019-12-06,256.6300048828125
2019-12-09,255.0800018310547
2019-12-10,252.57000732421875
2019-12-11,251.6300048828125
2019-12-12,251.02000427246094
2019-12-13,253.92999267578125
2019-12-16,257.94000244140625
2019-12-17,257.07000732421875
2019-12-18,254.6699981689453
2019-12-19,255.75
2019-12-20,258.8900146484375
2019-12-23,255.72999572753906
2019-12-24,256.489990234375
2019-12-26,258.3299865722656
2019-12-27,258.67999267578125
2019-12-30,256.79998779296875
2019-12-31,257.4100036621094
