Date,AQNA
2018-10-23,22.1122989654541
2018-10-24,22.08597183227539
2018-10-25,22.12984848022461
2018-10-26,22.156169891357422
2018-10-29,22.200044631958008
2018-10-30,22.138620376586914
2018-10-31,22.39308738708496
2018-11-01,22.226367950439453
2018-11-02,22.296567916870117
2018-11-05,22.24391746520996
2018-11-06,22.279016494750977
2018-11-07,22.4106388092041
2018-11-08,22.28778839111328
2018-11-09,22.28778839111328
2018-11-12,22.340438842773438
2018-11-13,22.489608764648438
2018-11-14,22.3316650390625
2018-11-15,22.138620376586914
2018-11-16,22.094749450683594
2018-11-19,22.1122989654541
2018-11-20,22.156169891357422
2018-11-21,22.191268920898438
2018-11-23,22.41941261291504
2018-11-26,22.296567916870117
2018-11-27,22.472061157226562
2018-11-28,22.375539779663086
2018-11-29,22.17371940612793
2018-11-30,22.3316650390625
2018-12-03,22.1122989654541
2018-12-04,22.024551391601562
2018-12-06,21.989452362060547
2018-12-07,21.93680191040039
2018-12-10,21.98067283630371
2018-12-11,21.93680191040039
2018-12-12,22.1122989654541
2018-12-13,22.1122989654541
2018-12-14,21.93680191040039
2018-12-17,21.831504821777344
2018-12-18,21.717435836791992
2018-12-19,21.454195022583008
2018-12-20,21.36644744873047
2018-12-21,21.36644744873047
2018-12-24,21.454195022583008
2018-12-26,21.42786979675293
2018-12-27,21.199726104736328
2018-12-28,21.340120315551758
2018-12-31,21.91047477722168
2019-01-02,22.490829467773438
2019-01-03,22.472972869873047
2019-01-04,22.678325653076172
2019-01-07,22.499757766723633
2019-01-08,22.77654266357422
2019-01-09,22.740825653076172
2019-01-10,22.812253952026367
2019-01-11,22.705114364624023
2019-01-14,22.901538848876953
2019-01-15,22.731897354125977
2019-01-16,22.678325653076172
2019-01-17,22.84796905517578
2019-01-18,23.071182250976562
2019-01-22,22.812253952026367
2019-01-23,23.03546714782715
2019-01-24,22.901538848876953
2019-01-25,23.133678436279297
2019-01-28,23.142610549926758
2019-01-29,23.21403694152832
2019-01-30,23.303319931030273
2019-01-31,23.87474250793457
2019-02-01,23.1247501373291
2019-02-04,23.526535034179688
2019-02-05,23.481891632080078
2019-02-06,23.16939353942871
2019-02-07,23.17832374572754
2019-02-08,23.1247501373291
2019-02-11,23.0622501373291
2019-02-12,23.04439353942871
2019-02-13,23.1247501373291
2019-02-14,23.29439353942871
2019-02-15,23.33010482788086
2019-02-19,23.303319931030273
2019-02-20,23.276535034179688
2019-02-21,23.258678436279297
2019-02-22,23.303319931030273
2019-02-25,23.276535034179688
2019-02-26,23.28546714782715
2019-02-27,23.28546714782715
2019-02-28,23.553316116333008
2019-03-01,23.61581802368164
2019-03-04,23.34796142578125
2019-03-05,23.57117462158203
2019-03-06,23.51760482788086
2019-03-07,23.481891632080078
2019-03-08,23.589031219482422
2019-03-11,23.794387817382812
2019-03-12,23.8836727142334
2019-03-13,23.91938591003418
2019-03-14,23.964027404785156
2019-03-15,23.972957611083984
2019-03-18,24.008670806884766
2019-03-19,24.053312301635742
2019-03-20,24.01759910583496
2019-03-21,24.18724250793457
2019-03-22,24.0711669921875
2019-03-25,24.026527404785156
2019-03-26,24.008670806884766
2019-03-27,24.008670806884766
2019-03-28,24.124740600585938
2019-03-29,24.10688591003418
2019-04-01,24.10688591003418
2019-04-02,24.252050399780273
2019-04-03,24.20668601989746
2019-04-04,24.097810745239258
2019-04-05,24.233905792236328
2019-04-08,24.106882095336914
2019-04-09,23.9798641204834
2019-04-10,24.097810745239258
2019-04-11,24.079668045043945
2019-04-12,24.242979049682617
2019-04-15,24.261125564575195
2019-04-16,24.324634552001953
2019-04-17,24.097810745239258
2019-04-18,23.93449592590332
2019-04-22,23.95264434814453
2019-04-23,24.13410186767578
2019-04-24,24.20668601989746
2019-04-25,24.22483253479004
2019-04-26,24.170394897460938
2019-04-29,24.20668601989746
2019-04-30,24.297414779663086
2019-05-01,24.16132354736328
2019-05-02,24.21575927734375
2019-05-03,24.233905792236328
2019-05-06,24.16132354736328
2019-05-07,24.097810745239258
2019-05-08,24.115955352783203
2019-05-09,24.097810745239258
2019-05-10,24.125028610229492
2019-05-13,24.106882095336914
2019-05-14,24.097810745239258
2019-05-15,24.170394897460938
2019-05-16,24.052446365356445
2019-05-17,24.052446365356445
2019-05-20,23.861913681030273
2019-05-21,23.961715698242188
2019-05-22,23.90728187561035
2019-05-23,23.925426483154297
2019-05-24,23.9798641204834
2019-05-28,23.970788955688477
2019-05-29,23.916353225708008
2019-05-30,23.998008728027344
2019-05-31,23.988935470581055
2019-06-03,23.943571090698242
2019-06-04,24.007078170776367
2019-06-05,24.034299850463867
2019-06-06,23.998008728027344
2019-06-07,24.097810745239258
2019-06-10,24.143177032470703
2019-06-11,24.08873748779297
2019-06-12,24.079668045043945
2019-06-13,24.106882095336914
2019-06-14,24.152250289916992
2019-06-17,24.13410186767578
2019-06-18,24.143177032470703
2019-06-19,24.13410186767578
2019-06-20,24.270198822021484
2019-06-21,24.179468154907227
2019-06-24,24.20668601989746
2019-06-25,24.179468154907227
2019-06-26,24.261125564575195
2019-06-27,24.297414779663086
2019-06-28,24.415363311767578
2019-07-01,24.34278106689453
2019-07-02,24.49953269958496
2019-07-03,24.54564094543457
2019-07-05,24.444210052490234
2019-07-08,24.49953269958496
2019-07-09,24.69316864013672
2019-07-10,24.739276885986328
2019-07-11,24.61940574645996
2019-07-12,24.63784408569336
2019-07-15,24.656286239624023
2019-07-16,24.785377502441406
2019-07-17,24.859142303466797
2019-07-18,24.94213104248047
2019-07-19,25.034337997436523
2019-07-22,25.126544952392578
2019-07-23,24.988235473632812
2019-07-24,25.108104705810547
2019-07-25,25.04355812072754
2019-07-26,25.126544952392578
2019-07-29,25.2003116607666
2019-07-30,25.320180892944336
2019-07-31,25.504594802856445
2019-08-01,25.58758544921875
2019-08-02,25.76277732849121
2019-08-05,25.532258987426758
2019-08-06,25.725893020629883
2019-08-07,25.790437698364258
2019-08-08,25.66135025024414
2019-08-09,25.68901252746582
2019-08-12,25.458492279052734
2019-08-13,25.347843170166016
2019-08-14,25.38472557067871
2019-08-15,25.347843170166016
2019-08-16,25.32940101623535
2019-08-19,25.32940101623535
2019-08-20,25.32940101623535
2019-08-21,25.366287231445312
2019-08-22,25.347843170166016
2019-08-23,25.357065200805664
2019-08-26,25.357065200805664
2019-08-27,25.357065200805664
2019-08-28,25.38472557067871
2019-08-29,25.38472557067871
2019-08-30,25.42160987854004
2019-09-03,25.44005012512207
2019-09-04,25.44005012512207
2019-09-05,25.504594802856445
2019-09-06,25.624469757080078
2019-09-09,25.642908096313477
2019-09-10,25.486154556274414
2019-09-11,25.532258987426758
2019-09-12,25.513816833496094
2019-09-13,25.338621139526367
2019-09-16,25.42160987854004
2019-09-17,25.357065200805664
2019-09-18,25.652128219604492
2019-09-19,25.559921264648438
2019-09-20,25.66135025024414
2019-09-23,25.73511505126953
2019-09-24,25.70745086669922
2019-09-25,25.818099975585938
2019-09-26,25.725893020629883
2019-09-27,25.716672897338867
2019-09-30,25.486154556274414
2019-10-01,25.559921264648438
2019-10-02,25.57865333557129
2019-10-03,25.569286346435547
2019-10-04,25.60675048828125
2019-10-07,25.569286346435547
2019-10-08,25.522457122802734
2019-10-09,25.662948608398438
2019-10-10,26.03759002685547
2019-10-11,26.22490882873535
2019-10-14,26.79623794555664
2019-10-15,26.524621963500977
2019-10-16,26.646381378173828
2019-10-17,26.243642807006836
2019-10-18,26.327938079833984
2019-10-21,26.03759002685547
2019-10-22,26.03759002685547
2019-10-23,26.149982452392578
2019-10-24,26.215543746948242
2019-10-25,26.253007888793945
2019-10-28,26.131248474121094
2019-10-29,25.859634399414062
2019-10-30,25.775341033935547
2019-10-31,26.17807960510254
2019-11-01,26.03759002685547
2019-11-04,26.149982452392578
2019-11-05,26.084421157836914
2019-11-06,25.953292846679688
2019-11-07,25.94392967224121
2019-11-08,26.103151321411133
2019-11-11,25.972028732299805
2019-11-12,25.972028732299805
2019-11-13,26.103151321411133
2019-11-14,26.253007888793945
2019-11-15,26.206178665161133
2019-11-18,26.17807960510254
2019-11-19,25.915830612182617
2019-11-20,25.94392967224121
2019-11-21,25.81280517578125
2019-11-22,25.71914291381836
2019-11-25,25.70977783203125
2019-11-26,25.662948608398438
2019-11-27,25.81280517578125
2019-11-29,25.747241973876953
2019-12-02,25.616119384765625
2019-12-03,25.60675048828125
2019-12-04,25.513090133666992
2019-12-05,25.428796768188477
2019-12-06,25.24147605895996
2019-12-09,25.23210906982422
2019-12-10,25.23210906982422
2019-12-11,25.447528839111328
2019-12-12,25.410062789916992
2019-12-13,25.672313690185547
2019-12-16,25.803436279296875
2019-12-17,25.953292846679688
2019-12-18,26.262374877929688
2019-12-19,26.196809768676758
2019-12-20,26.3092041015625
2019-12-23,26.39349937438965
2019-12-24,26.39349937438965
2019-12-26,26.459062576293945
2019-12-27,26.711946487426758
2019-12-30,26.75877571105957
2019-12-31,26.40286636352539
