Date,AVAV
2007-12-31,24.200000762939453
2008-01-02,24.020000457763672
2008-01-03,24.799999237060547
2008-01-04,23.079999923706055
2008-01-07,23.290000915527344
2008-01-08,23.030000686645508
2008-01-09,22.1299991607666
2008-01-10,23.489999771118164
2008-01-11,23.420000076293945
2008-01-14,23.690000534057617
2008-01-15,23.34000015258789
2008-01-16,24.700000762939453
2008-01-17,24.489999771118164
2008-01-18,22.950000762939453
2008-01-22,22.799999237060547
2008-01-23,23.59000015258789
2008-01-24,23.049999237060547
2008-01-25,23.299999237060547
2008-01-28,23.790000915527344
2008-01-29,23.260000228881836
2008-01-30,23.0
2008-01-31,23.010000228881836
2008-02-01,23.469999313354492
2008-02-04,23.0
2008-02-05,23.299999237060547
2008-02-06,22.920000076293945
2008-02-07,23.09000015258789
2008-02-08,23.1200008392334
2008-02-11,23.329999923706055
2008-02-12,23.469999313354492
2008-02-13,23.65999984741211
2008-02-14,23.209999084472656
2008-02-15,23.100000381469727
2008-02-19,23.34000015258789
2008-02-20,23.940000534057617
2008-02-21,23.760000228881836
2008-02-22,23.459999084472656
2008-02-25,23.239999771118164
2008-02-26,22.6200008392334
2008-02-27,22.149999618530273
2008-02-28,21.90999984741211
2008-02-29,21.239999771118164
2008-03-03,21.139999389648438
2008-03-04,20.020000457763672
2008-03-05,19.93000030517578
2008-03-06,19.84000015258789
2008-03-07,20.0
2008-03-10,19.979999542236328
2008-03-11,20.299999237060547
2008-03-12,20.360000610351562
2008-03-13,20.479999542236328
2008-03-14,20.219999313354492
2008-03-17,20.0
2008-03-18,20.43000030517578
2008-03-19,19.959999084472656
2008-03-20,20.040000915527344
2008-03-24,20.1299991607666
2008-03-25,21.420000076293945
2008-03-26,21.18000030517578
2008-03-27,20.709999084472656
2008-03-28,20.420000076293945
2008-03-31,20.450000762939453
2008-04-01,20.030000686645508
2008-04-02,20.440000534057617
2008-04-03,21.1200008392334
2008-04-04,21.709999084472656
2008-04-07,21.6200008392334
2008-04-08,21.399999618530273
2008-04-09,20.889999389648438
2008-04-10,21.040000915527344
2008-04-11,20.690000534057617
2008-04-14,20.59000015258789
2008-04-15,20.260000228881836
2008-04-16,20.850000381469727
2008-04-17,20.709999084472656
2008-04-18,21.350000381469727
2008-04-21,21.780000686645508
2008-04-22,22.200000762939453
2008-04-23,23.010000228881836
2008-04-24,23.889999389648438
2008-04-25,24.25
2008-04-28,24.229999542236328
2008-04-29,24.139999389648438
2008-04-30,23.90999984741211
2008-05-01,24.389999389648438
2008-05-02,24.360000610351562
2008-05-05,23.989999771118164
2008-05-06,23.90999984741211
2008-05-07,23.200000762939453
2008-05-08,23.270000457763672
2008-05-09,23.530000686645508
2008-05-12,24.049999237060547
2008-05-13,23.969999313354492
2008-05-14,24.079999923706055
2008-05-15,24.530000686645508
2008-05-16,24.40999984741211
2008-05-19,24.260000228881836
2008-05-20,23.850000381469727
2008-05-21,23.459999084472656
2008-05-22,24.030000686645508
2008-05-23,25.239999771118164
2008-05-27,25.639999389648438
2008-05-28,25.59000015258789
2008-05-29,25.670000076293945
2008-05-30,26.579999923706055
2008-06-02,26.25
2008-06-03,26.329999923706055
2008-06-04,25.989999771118164
2008-06-05,26.5
2008-06-06,25.850000381469727
2008-06-09,25.65999984741211
2008-06-10,25.850000381469727
2008-06-11,25.610000610351562
2008-06-12,25.520000457763672
2008-06-13,25.600000381469727
2008-06-16,25.510000228881836
2008-06-17,25.06999969482422
2008-06-18,24.770000457763672
2008-06-19,24.959999084472656
2008-06-20,25.0
2008-06-23,24.770000457763672
2008-06-24,24.950000762939453
2008-06-25,28.639999389648438
2008-06-26,27.709999084472656
2008-06-27,28.3799991607666
2008-06-30,27.18000030517578
2008-07-01,27.84000015258789
2008-07-02,29.020000457763672
2008-07-03,28.31999969482422
2008-07-07,30.5
2008-07-08,30.719999313354492
2008-07-09,30.18000030517578
2008-07-10,30.079999923706055
2008-07-11,30.0
2008-07-14,29.459999084472656
2008-07-15,30.3799991607666
2008-07-16,31.3700008392334
2008-07-17,30.690000534057617
2008-07-18,30.260000228881836
2008-07-21,30.969999313354492
2008-07-22,31.489999771118164
2008-07-23,32.400001525878906
2008-07-24,30.020000457763672
2008-07-25,30.209999084472656
2008-07-28,31.56999969482422
2008-07-29,32.189998626708984
2008-07-30,32.52000045776367
2008-07-31,32.630001068115234
2008-08-01,32.66999816894531
2008-08-04,31.459999084472656
2008-08-05,31.299999237060547
2008-08-06,31.010000228881836
2008-08-07,31.059999465942383
2008-08-08,31.90999984741211
2008-08-11,32.88999938964844
2008-08-12,32.0
2008-08-13,32.2400016784668
2008-08-14,33.2400016784668
2008-08-15,32.68000030517578
2008-08-18,32.040000915527344
2008-08-19,31.920000076293945
2008-08-20,32.95000076293945
2008-08-21,33.88999938964844
2008-08-22,33.0099983215332
2008-08-25,33.310001373291016
2008-08-26,33.38999938964844
2008-08-27,33.849998474121094
2008-08-28,33.79999923706055
2008-08-29,33.459999084472656
2008-09-02,32.849998474121094
2008-09-03,34.5
2008-09-04,31.6200008392334
2008-09-05,31.149999618530273
2008-09-08,31.520000457763672
2008-09-09,29.389999389648438
2008-09-10,34.72999954223633
2008-09-11,35.04999923706055
2008-09-12,34.54999923706055
2008-09-15,33.95000076293945
2008-09-16,32.400001525878906
2008-09-17,30.1299991607666
2008-09-18,31.65999984741211
2008-09-19,32.38999938964844
2008-09-22,32.9900016784668
2008-09-23,32.849998474121094
2008-09-24,31.56999969482422
2008-09-25,32.7400016784668
2008-09-26,30.989999771118164
2008-09-29,30.170000076293945
2008-09-30,31.950000762939453
2008-10-01,30.899999618530273
2008-10-02,30.469999313354492
2008-10-03,31.25
2008-10-06,31.829999923706055
2008-10-07,30.43000030517578
2008-10-08,30.579999923706055
2008-10-09,28.440000534057617
2008-10-10,30.239999771118164
2008-10-13,34.02000045776367
2008-10-14,33.33000183105469
2008-10-15,31.989999771118164
2008-10-16,31.200000762939453
2008-10-17,30.920000076293945
2008-10-20,30.299999237060547
2008-10-21,29.829999923706055
2008-10-22,28.25
2008-10-23,29.09000015258789
2008-10-24,27.979999542236328
2008-10-27,27.8799991607666
2008-10-28,30.579999923706055
2008-10-29,33.7599983215332
2008-10-30,36.189998626708984
2008-10-31,35.91999816894531
2008-11-03,37.380001068115234
2008-11-04,35.0
2008-11-05,33.56999969482422
2008-11-06,32.150001525878906
2008-11-07,32.31999969482422
2008-11-10,32.95000076293945
2008-11-11,33.06999969482422
2008-11-12,31.600000381469727
2008-11-13,31.8799991607666
2008-11-14,29.84000015258789
2008-11-17,29.610000610351562
2008-11-18,31.270000457763672
2008-11-19,29.59000015258789
2008-11-20,29.079999923706055
2008-11-21,32.40999984741211
2008-11-24,31.420000076293945
2008-11-25,30.25
2008-11-26,31.530000686645508
2008-11-28,32.22999954223633
2008-12-01,30.8799991607666
2008-12-02,31.239999771118164
2008-12-03,30.90999984741211
2008-12-04,30.209999084472656
2008-12-05,32.2400016784668
2008-12-08,33.06999969482422
2008-12-09,33.5
2008-12-10,34.779998779296875
2008-12-11,33.0
2008-12-12,34.279998779296875
2008-12-15,33.58000183105469
2008-12-16,34.04999923706055
2008-12-17,34.810001373291016
2008-12-18,36.0
2008-12-19,34.0
2008-12-22,33.709999084472656
2008-12-23,33.779998779296875
2008-12-24,32.81999969482422
2008-12-26,32.88999938964844
2008-12-29,34.400001525878906
2008-12-30,35.40999984741211
2008-12-31,36.810001373291016
2009-01-02,38.2599983215332
2009-01-05,39.380001068115234
2009-01-06,37.779998779296875
2009-01-07,36.75
2009-01-08,36.88999938964844
2009-01-09,35.650001525878906
2009-01-12,35.61000061035156
2009-01-13,35.95000076293945
2009-01-14,34.2400016784668
2009-01-15,38.20000076293945
2009-01-16,39.2400016784668
2009-01-20,38.310001373291016
2009-01-21,39.849998474121094
2009-01-22,39.349998474121094
2009-01-23,39.369998931884766
2009-01-26,38.45000076293945
2009-01-27,38.220001220703125
2009-01-28,38.20000076293945
2009-01-29,37.36000061035156
2009-01-30,37.060001373291016
2009-02-02,37.18000030517578
2009-02-03,36.09000015258789
2009-02-04,36.25
2009-02-05,38.84000015258789
2009-02-06,39.20000076293945
2009-02-09,38.709999084472656
2009-02-10,37.68000030517578
2009-02-11,38.11000061035156
2009-02-12,39.130001068115234
2009-02-13,40.029998779296875
2009-02-17,38.56999969482422
2009-02-18,38.88999938964844
2009-02-19,37.59000015258789
2009-02-20,37.25
2009-02-23,35.25
2009-02-24,35.34000015258789
2009-02-25,35.119998931884766
2009-02-26,33.900001525878906
2009-02-27,31.219999313354492
2009-03-02,30.3799991607666
2009-03-03,30.520000457763672
2009-03-04,33.34000015258789
2009-03-05,32.209999084472656
2009-03-06,31.780000686645508
2009-03-09,30.579999923706055
2009-03-10,20.299999237060547
2009-03-11,19.6200008392334
2009-03-12,21.139999389648438
2009-03-13,20.56999969482422
2009-03-16,19.520000457763672
2009-03-17,19.559999465942383
2009-03-18,19.270000457763672
2009-03-19,19.639999389648438
2009-03-20,19.799999237060547
2009-03-23,20.389999389648438
2009-03-24,19.59000015258789
2009-03-25,19.700000762939453
2009-03-26,21.450000762939453
2009-03-27,22.510000228881836
2009-03-30,21.280000686645508
2009-03-31,20.899999618530273
2009-04-01,21.780000686645508
2009-04-02,23.309999465942383
2009-04-03,22.690000534057617
2009-04-06,24.149999618530273
2009-04-07,25.219999313354492
2009-04-08,23.829999923706055
2009-04-09,24.65999984741211
2009-04-13,23.899999618530273
2009-04-14,23.25
2009-04-15,23.3799991607666
2009-04-16,23.670000076293945
2009-04-17,23.299999237060547
2009-04-20,23.0
2009-04-21,22.639999389648438
2009-04-22,22.56999969482422
2009-04-23,22.31999969482422
2009-04-24,23.56999969482422
2009-04-27,24.25
2009-04-28,24.3700008392334
2009-04-29,22.56999969482422
2009-04-30,23.65999984741211
2009-05-01,24.020000457763672
2009-05-04,24.209999084472656
2009-05-05,24.56999969482422
2009-05-06,24.610000610351562
2009-05-07,28.989999771118164
2009-05-08,28.09000015258789
2009-05-11,28.43000030517578
2009-05-12,28.600000381469727
2009-05-13,27.729999542236328
2009-05-14,27.6299991607666
2009-05-15,26.940000534057617
2009-05-18,27.479999542236328
2009-05-19,27.100000381469727
2009-05-20,26.809999465942383
2009-05-21,26.690000534057617
2009-05-22,26.639999389648438
2009-05-26,27.450000762939453
2009-05-27,27.15999984741211
2009-05-28,27.8799991607666
2009-05-29,27.920000076293945
2009-06-01,28.540000915527344
2009-06-02,27.270000457763672
2009-06-03,26.65999984741211
2009-06-04,27.200000762939453
2009-06-05,27.729999542236328
2009-06-08,27.75
2009-06-09,27.3799991607666
2009-06-10,27.209999084472656
2009-06-11,27.09000015258789
2009-06-12,27.280000686645508
2009-06-15,26.81999969482422
2009-06-16,26.719999313354492
2009-06-17,27.229999542236328
2009-06-18,27.600000381469727
2009-06-19,28.100000381469727
2009-06-22,27.850000381469727
2009-06-23,27.360000610351562
2009-06-24,28.43000030517578
2009-06-25,28.5
2009-06-26,30.049999237060547
2009-06-29,31.25
2009-06-30,30.860000610351562
2009-07-01,32.099998474121094
2009-07-02,31.68000030517578
2009-07-06,30.139999389648438
2009-07-07,30.1299991607666
2009-07-08,30.06999969482422
2009-07-09,29.959999084472656
2009-07-10,30.229999542236328
2009-07-13,30.790000915527344
2009-07-14,31.200000762939453
2009-07-15,31.520000457763672
2009-07-16,31.600000381469727
2009-07-17,31.25
2009-07-20,31.200000762939453
2009-07-21,31.149999618530273
2009-07-22,30.600000381469727
2009-07-23,30.299999237060547
2009-07-24,30.329999923706055
2009-07-27,29.520000457763672
2009-07-28,28.450000762939453
2009-07-29,28.270000457763672
2009-07-30,29.18000030517578
2009-07-31,28.440000534057617
2009-08-03,28.06999969482422
2009-08-04,28.0
2009-08-05,27.850000381469727
2009-08-06,28.479999542236328
2009-08-07,29.530000686645508
2009-08-10,29.420000076293945
2009-08-11,29.729999542236328
2009-08-12,29.510000228881836
2009-08-13,29.649999618530273
2009-08-14,29.100000381469727
2009-08-17,28.200000762939453
2009-08-18,28.06999969482422
2009-08-19,27.8799991607666
2009-08-20,27.8799991607666
2009-08-21,28.5
2009-08-24,28.8799991607666
2009-08-25,28.549999237060547
2009-08-26,27.979999542236328
2009-08-27,28.5
2009-08-28,28.520000457763672
2009-08-31,28.1299991607666
2009-09-01,28.459999084472656
2009-09-02,28.6200008392334
2009-09-03,28.989999771118164
2009-09-04,29.540000915527344
2009-09-08,30.420000076293945
2009-09-09,28.040000915527344
2009-09-10,26.8799991607666
2009-09-11,26.790000915527344
2009-09-14,27.190000534057617
2009-09-15,27.450000762939453
2009-09-16,27.809999465942383
2009-09-17,28.5
2009-09-18,29.399999618530273
2009-09-21,29.049999237060547
2009-09-22,28.670000076293945
2009-09-23,29.25
2009-09-24,28.860000610351562
2009-09-25,28.229999542236328
2009-09-28,28.43000030517578
2009-09-29,28.200000762939453
2009-09-30,28.09000015258789
2009-10-01,27.56999969482422
2009-10-02,27.399999618530273
2009-10-05,27.030000686645508
2009-10-06,28.15999984741211
2009-10-07,28.030000686645508
2009-10-08,28.459999084472656
2009-10-09,28.579999923706055
2009-10-12,28.229999542236328
2009-10-13,28.18000030517578
2009-10-14,28.729999542236328
2009-10-15,28.760000228881836
2009-10-16,28.520000457763672
2009-10-19,30.190000534057617
2009-10-20,30.950000762939453
2009-10-21,30.260000228881836
2009-10-22,29.6200008392334
2009-10-23,28.979999542236328
2009-10-26,28.360000610351562
2009-10-27,27.950000762939453
2009-10-28,26.809999465942383
2009-10-29,27.459999084472656
2009-10-30,26.65999984741211
2009-11-02,26.540000915527344
2009-11-03,25.969999313354492
2009-11-04,27.219999313354492
2009-11-05,27.959999084472656
2009-11-06,27.940000534057617
2009-11-09,28.549999237060547
2009-11-10,27.989999771118164
2009-11-11,28.239999771118164
2009-11-12,27.81999969482422
2009-11-13,28.15999984741211
2009-11-16,29.700000762939453
2009-11-17,29.3799991607666
2009-11-18,29.040000915527344
2009-11-19,28.049999237060547
2009-11-20,28.149999618530273
2009-11-23,28.690000534057617
2009-11-24,28.920000076293945
2009-11-25,29.059999465942383
2009-11-27,28.950000762939453
2009-11-30,28.739999771118164
2009-12-01,29.260000228881836
2009-12-02,30.190000534057617
2009-12-03,29.729999542236328
2009-12-04,29.100000381469727
2009-12-07,28.8799991607666
2009-12-08,28.93000030517578
2009-12-09,30.15999984741211
2009-12-10,29.670000076293945
2009-12-11,29.520000457763672
2009-12-14,29.979999542236328
2009-12-15,29.84000015258789
2009-12-16,29.510000228881836
2009-12-17,29.1299991607666
2009-12-18,28.399999618530273
2009-12-21,29.06999969482422
2009-12-22,28.959999084472656
2009-12-23,28.979999542236328
2009-12-24,29.020000457763672
2009-12-28,28.770000457763672
2009-12-29,29.959999084472656
2009-12-30,29.65999984741211
2009-12-31,29.079999923706055
2010-01-04,29.610000610351562
2010-01-05,29.0
2010-01-06,28.59000015258789
2010-01-07,28.719999313354492
2010-01-08,29.079999923706055
2010-01-11,30.850000381469727
2010-01-12,31.709999084472656
2010-01-13,31.649999618530273
2010-01-14,34.810001373291016
2010-01-15,33.31999969482422
2010-01-19,33.75
2010-01-20,33.70000076293945
2010-01-21,33.75
2010-01-22,33.790000915527344
2010-01-25,33.7599983215332
2010-01-26,33.75
2010-01-27,34.810001373291016
2010-01-28,34.5
2010-01-29,34.06999969482422
2010-02-01,31.65999984741211
2010-02-02,30.1200008392334
2010-02-03,28.670000076293945
2010-02-04,25.200000762939453
2010-02-05,24.149999618530273
2010-02-08,23.06999969482422
2010-02-09,23.100000381469727
2010-02-10,22.950000762939453
2010-02-11,23.690000534057617
2010-02-12,24.3700008392334
2010-02-16,24.469999313354492
2010-02-17,24.709999084472656
2010-02-18,25.260000228881836
2010-02-19,25.350000381469727
2010-02-22,24.90999984741211
2010-02-23,26.34000015258789
2010-02-24,25.190000534057617
2010-02-25,24.479999542236328
2010-02-26,24.25
2010-03-01,24.469999313354492
2010-03-02,23.75
2010-03-03,24.34000015258789
2010-03-04,24.450000762939453
2010-03-05,24.959999084472656
2010-03-08,24.770000457763672
2010-03-09,23.799999237060547
2010-03-10,23.059999465942383
2010-03-11,24.670000076293945
2010-03-12,24.270000457763672
2010-03-15,24.049999237060547
2010-03-16,23.920000076293945
2010-03-17,23.600000381469727
2010-03-18,24.75
2010-03-19,24.239999771118164
2010-03-22,24.520000457763672
2010-03-23,24.399999618530273
2010-03-24,24.239999771118164
2010-03-25,24.719999313354492
2010-03-26,24.479999542236328
2010-03-29,24.649999618530273
2010-03-30,26.969999313354492
2010-03-31,26.110000610351562
2010-04-01,25.989999771118164
2010-04-05,25.350000381469727
2010-04-06,25.18000030517578
2010-04-07,24.56999969482422
2010-04-08,24.15999984741211
2010-04-09,24.639999389648438
2010-04-12,25.079999923706055
2010-04-13,24.56999969482422
2010-04-14,25.68000030517578
2010-04-15,25.510000228881836
2010-04-16,25.110000610351562
2010-04-19,26.059999465942383
2010-04-20,27.040000915527344
2010-04-21,27.959999084472656
2010-04-22,27.690000534057617
2010-04-23,27.34000015258789
2010-04-26,26.579999923706055
2010-04-27,26.200000762939453
2010-04-28,26.760000228881836
2010-04-29,26.709999084472656
2010-04-30,26.18000030517578
2010-05-03,26.899999618530273
2010-05-04,26.260000228881836
2010-05-05,25.950000762939453
2010-05-06,25.270000457763672
2010-05-07,24.520000457763672
2010-05-10,25.09000015258789
2010-05-11,25.479999542236328
2010-05-12,26.690000534057617
2010-05-13,26.989999771118164
2010-05-14,26.760000228881836
2010-05-17,27.510000228881836
2010-05-18,26.690000534057617
2010-05-19,26.329999923706055
2010-05-20,24.969999313354492
2010-05-21,25.350000381469727
2010-05-24,24.84000015258789
2010-05-25,24.709999084472656
2010-05-26,24.860000610351562
2010-05-27,25.209999084472656
2010-05-28,25.040000915527344
2010-06-01,24.6200008392334
2010-06-02,25.520000457763672
2010-06-03,25.600000381469727
2010-06-04,25.479999542236328
2010-06-07,24.81999969482422
2010-06-08,24.719999313354492
2010-06-09,24.530000686645508
2010-06-10,24.68000030517578
2010-06-11,25.020000457763672
2010-06-14,25.260000228881836
2010-06-15,25.290000915527344
2010-06-16,25.15999984741211
2010-06-17,25.0
2010-06-18,24.770000457763672
2010-06-21,24.649999618530273
2010-06-22,24.56999969482422
2010-06-23,23.420000076293945
2010-06-24,23.260000228881836
2010-06-25,21.43000030517578
2010-06-28,22.579999923706055
2010-06-29,21.299999237060547
2010-06-30,21.729999542236328
2010-07-01,21.959999084472656
2010-07-02,21.3799991607666
2010-07-06,22.229999542236328
2010-07-07,22.469999313354492
2010-07-08,22.65999984741211
2010-07-09,22.959999084472656
2010-07-12,23.190000534057617
2010-07-13,24.0
2010-07-14,25.299999237060547
2010-07-15,24.510000228881836
2010-07-16,23.299999237060547
2010-07-19,23.399999618530273
2010-07-20,23.809999465942383
2010-07-21,23.65999984741211
2010-07-22,23.899999618530273
2010-07-23,24.489999771118164
2010-07-26,24.850000381469727
2010-07-27,24.139999389648438
2010-07-28,24.049999237060547
2010-07-29,24.229999542236328
2010-07-30,23.90999984741211
2010-08-02,23.739999771118164
2010-08-03,23.75
2010-08-04,23.860000610351562
2010-08-05,23.709999084472656
2010-08-06,23.739999771118164
2010-08-09,24.110000610351562
2010-08-10,23.639999389648438
2010-08-11,23.030000686645508
2010-08-12,22.8700008392334
2010-08-13,22.56999969482422
2010-08-16,22.920000076293945
2010-08-17,23.420000076293945
2010-08-18,23.670000076293945
2010-08-19,23.399999618530273
2010-08-20,23.209999084472656
2010-08-23,22.8799991607666
2010-08-24,22.850000381469727
2010-08-25,23.200000762939453
2010-08-26,22.93000030517578
2010-08-27,23.110000610351562
2010-08-30,22.68000030517578
2010-08-31,22.600000381469727
2010-09-01,24.110000610351562
2010-09-02,23.969999313354492
2010-09-03,23.989999771118164
2010-09-07,23.100000381469727
2010-09-08,23.350000381469727
2010-09-09,22.520000457763672
2010-09-10,22.09000015258789
2010-09-13,22.0
2010-09-14,21.639999389648438
2010-09-15,21.6299991607666
2010-09-16,21.489999771118164
2010-09-17,21.90999984741211
2010-09-20,22.510000228881836
2010-09-21,22.540000915527344
2010-09-22,21.899999618530273
2010-09-23,21.350000381469727
2010-09-24,22.260000228881836
2010-09-27,22.309999465942383
2010-09-28,22.270000457763672
2010-09-29,22.399999618530273
2010-09-30,22.25
2010-10-01,22.59000015258789
2010-10-04,22.149999618530273
2010-10-05,22.81999969482422
2010-10-06,22.979999542236328
2010-10-07,22.84000015258789
2010-10-08,23.389999389648438
2010-10-11,23.360000610351562
2010-10-12,22.920000076293945
2010-10-13,23.510000228881836
2010-10-14,22.8799991607666
2010-10-15,22.510000228881836
2010-10-18,22.690000534057617
2010-10-19,21.979999542236328
2010-10-20,22.290000915527344
2010-10-21,22.770000457763672
2010-10-22,22.799999237060547
2010-10-25,23.579999923706055
2010-10-26,23.81999969482422
2010-10-27,23.420000076293945
2010-10-28,23.299999237060547
2010-10-29,23.459999084472656
2010-11-01,24.010000228881836
2010-11-02,24.290000915527344
2010-11-03,23.5
2010-11-04,23.329999923706055
2010-11-05,23.6200008392334
2010-11-08,23.68000030517578
2010-11-09,23.6299991607666
2010-11-10,23.600000381469727
2010-11-11,23.219999313354492
2010-11-12,22.809999465942383
2010-11-15,22.889999389648438
2010-11-16,22.489999771118164
2010-11-17,22.510000228881836
2010-11-18,23.56999969482422
2010-11-19,24.079999923706055
2010-11-22,24.200000762939453
2010-11-23,24.079999923706055
2010-11-24,25.170000076293945
2010-11-26,25.010000228881836
2010-11-29,25.209999084472656
2010-11-30,24.700000762939453
2010-12-01,24.68000030517578
2010-12-02,24.420000076293945
2010-12-03,23.40999984741211
2010-12-06,23.270000457763672
2010-12-07,23.3700008392334
2010-12-08,26.93000030517578
2010-12-09,26.579999923706055
2010-12-10,26.3700008392334
2010-12-13,26.40999984741211
2010-12-14,26.399999618530273
2010-12-15,26.489999771118164
2010-12-16,25.18000030517578
2010-12-17,25.3799991607666
2010-12-20,25.65999984741211
2010-12-21,26.309999465942383
2010-12-22,26.889999389648438
2010-12-23,27.1299991607666
2010-12-27,27.040000915527344
2010-12-28,27.280000686645508
2010-12-29,27.329999923706055
2010-12-30,27.5
2010-12-31,26.829999923706055
2011-01-03,27.729999542236328
2011-01-04,29.149999618530273
2011-01-05,29.43000030517578
2011-01-06,29.040000915527344
2011-01-07,27.989999771118164
2011-01-10,26.979999542236328
2011-01-11,26.920000076293945
2011-01-12,27.079999923706055
2011-01-13,27.889999389648438
2011-01-14,28.479999542236328
2011-01-18,28.829999923706055
2011-01-19,28.360000610351562
2011-01-20,28.84000015258789
2011-01-21,28.25
2011-01-24,28.559999465942383
2011-01-25,28.34000015258789
2011-01-26,28.299999237060547
2011-01-27,28.229999542236328
2011-01-28,27.700000762939453
2011-01-31,28.200000762939453
2011-02-01,28.6200008392334
2011-02-02,29.270000457763672
2011-02-03,28.350000381469727
2011-02-04,27.829999923706055
2011-02-07,28.18000030517578
2011-02-08,29.649999618530273
2011-02-09,29.280000686645508
2011-02-10,28.799999237060547
2011-02-11,28.389999389648438
2011-02-14,28.09000015258789
2011-02-15,28.770000457763672
2011-02-16,29.139999389648438
2011-02-17,29.700000762939453
2011-02-18,29.43000030517578
2011-02-22,28.920000076293945
2011-02-23,28.31999969482422
2011-02-24,28.56999969482422
2011-02-25,29.389999389648438
2011-02-28,29.010000228881836
2011-03-01,28.360000610351562
2011-03-02,28.959999084472656
2011-03-03,29.110000610351562
2011-03-04,29.020000457763672
2011-03-07,28.25
2011-03-08,28.610000610351562
2011-03-09,32.47999954223633
2011-03-10,33.79999923706055
2011-03-11,33.59000015258789
2011-03-14,34.2599983215332
2011-03-15,33.869998931884766
2011-03-16,32.400001525878906
2011-03-17,33.189998626708984
2011-03-18,33.029998779296875
2011-03-21,34.06999969482422
2011-03-22,33.95000076293945
2011-03-23,33.97999954223633
2011-03-24,34.29999923706055
2011-03-25,34.529998779296875
2011-03-28,34.400001525878906
2011-03-29,34.439998626708984
2011-03-30,34.7599983215332
2011-03-31,34.970001220703125
2011-04-01,30.81999969482422
2011-04-04,30.200000762939453
2011-04-05,30.139999389648438
2011-04-06,30.110000610351562
2011-04-07,29.979999542236328
2011-04-08,29.170000076293945
2011-04-11,28.309999465942383
2011-04-12,28.530000686645508
2011-04-13,28.65999984741211
2011-04-14,28.700000762939453
2011-04-15,28.510000228881836
2011-04-18,27.850000381469727
2011-04-19,27.8700008392334
2011-04-20,27.489999771118164
2011-04-21,27.610000610351562
2011-04-25,28.020000457763672
2011-04-26,28.639999389648438
2011-04-27,28.530000686645508
2011-04-28,28.549999237060547
2011-04-29,28.649999618530273
2011-05-02,29.149999618530273
2011-05-03,29.209999084472656
2011-05-04,28.899999618530273
2011-05-05,28.639999389648438
2011-05-06,28.850000381469727
2011-05-09,29.670000076293945
2011-05-10,29.790000915527344
2011-05-11,29.06999969482422
2011-05-12,28.989999771118164
2011-05-13,28.639999389648438
2011-05-16,28.59000015258789
2011-05-17,28.90999984741211
2011-05-18,29.360000610351562
2011-05-19,29.809999465942383
2011-05-20,30.049999237060547
2011-05-23,29.020000457763672
2011-05-24,28.90999984741211
2011-05-25,29.18000030517578
2011-05-26,29.290000915527344
2011-05-27,29.700000762939453
2011-05-31,30.190000534057617
2011-06-01,29.700000762939453
2011-06-02,30.190000534057617
2011-06-03,29.350000381469727
2011-06-06,28.969999313354492
2011-06-07,29.260000228881836
2011-06-08,28.770000457763672
2011-06-09,29.219999313354492
2011-06-10,28.969999313354492
2011-06-13,28.860000610351562
2011-06-14,29.350000381469727
2011-06-15,28.790000915527344
2011-06-16,27.309999465942383
2011-06-17,27.049999237060547
2011-06-20,28.6200008392334
2011-06-21,28.610000610351562
2011-06-22,34.5099983215332
2011-06-23,33.47999954223633
2011-06-24,34.400001525878906
2011-06-27,34.40999984741211
2011-06-28,35.45000076293945
2011-06-29,34.79999923706055
2011-06-30,35.349998474121094
2011-07-01,35.52000045776367
2011-07-05,34.939998626708984
2011-07-06,35.220001220703125
2011-07-07,36.279998779296875
2011-07-08,36.2400016784668
2011-07-11,35.16999816894531
2011-07-12,34.70000076293945
2011-07-13,35.290000915527344
2011-07-14,32.58000183105469
2011-07-15,31.520000457763672
2011-07-18,31.260000228881836
2011-07-19,31.600000381469727
2011-07-20,31.34000015258789
2011-07-21,32.060001373291016
2011-07-22,31.149999618530273
2011-07-25,30.649999618530273
2011-07-26,30.489999771118164
2011-07-27,28.8799991607666
2011-07-28,28.690000534057617
2011-07-29,28.829999923706055
2011-08-01,28.780000686645508
2011-08-02,28.100000381469727
2011-08-03,29.8700008392334
2011-08-04,28.219999313354492
2011-08-05,27.549999237060547
2011-08-08,24.200000762939453
2011-08-09,26.610000610351562
2011-08-10,24.799999237060547
2011-08-11,26.100000381469727
2011-08-12,26.15999984741211
2011-08-15,27.030000686645508
2011-08-16,27.059999465942383
2011-08-17,26.8700008392334
2011-08-18,25.049999237060547
2011-08-19,25.079999923706055
2011-08-22,25.639999389648438
2011-08-23,27.079999923706055
2011-08-24,28.280000686645508
2011-08-25,27.18000030517578
2011-08-26,27.729999542236328
2011-08-29,28.940000534057617
2011-08-30,28.81999969482422
2011-08-31,28.65999984741211
2011-09-01,29.5
2011-09-02,28.43000030517578
2011-09-06,28.239999771118164
2011-09-07,29.989999771118164
2011-09-08,28.110000610351562
2011-09-09,27.90999984741211
2011-09-12,28.520000457763672
2011-09-13,28.760000228881836
2011-09-14,29.100000381469727
2011-09-15,29.950000762939453
2011-09-16,29.989999771118164
2011-09-19,29.68000030517578
2011-09-20,29.239999771118164
2011-09-21,27.84000015258789
2011-09-22,26.90999984741211
2011-09-23,26.93000030517578
2011-09-26,28.760000228881836
2011-09-27,29.40999984741211
2011-09-28,27.799999237060547
2011-09-29,28.690000534057617
2011-09-30,28.149999618530273
2011-10-03,27.729999542236328
2011-10-04,28.59000015258789
2011-10-05,29.170000076293945
2011-10-06,29.540000915527344
2011-10-07,30.010000228881836
2011-10-10,30.299999237060547
2011-10-11,30.31999969482422
2011-10-12,30.350000381469727
2011-10-13,29.889999389648438
2011-10-14,30.110000610351562
2011-10-17,29.049999237060547
2011-10-18,29.75
2011-10-19,30.479999542236328
2011-10-20,31.1299991607666
2011-10-21,31.979999542236328
2011-10-24,32.68000030517578
2011-10-25,32.619998931884766
2011-10-26,32.59000015258789
2011-10-27,33.939998626708984
2011-10-28,34.040000915527344
2011-10-31,33.029998779296875
2011-11-01,31.459999084472656
2011-11-02,32.25
2011-11-03,32.68000030517578
2011-11-04,32.36000061035156
2011-11-07,32.63999938964844
2011-11-08,32.95000076293945
2011-11-09,31.34000015258789
2011-11-10,31.600000381469727
2011-11-11,31.950000762939453
2011-11-14,32.02000045776367
2011-11-15,33.06999969482422
2011-11-16,32.25
2011-11-17,31.299999237060547
2011-11-18,31.219999313354492
2011-11-21,30.75
2011-11-22,30.43000030517578
2011-11-23,29.190000534057617
2011-11-25,28.780000686645508
2011-11-28,29.709999084472656
2011-11-29,29.690000534057617
2011-11-30,30.510000228881836
2011-12-01,30.639999389648438
2011-12-02,31.239999771118164
2011-12-05,31.950000762939453
2011-12-06,31.8799991607666
2011-12-07,31.530000686645508
2011-12-08,31.110000610351562
2011-12-09,32.040000915527344
2011-12-12,31.440000534057617
2011-12-13,30.829999923706055
2011-12-14,30.649999618530273
2011-12-15,31.06999969482422
2011-12-16,31.56999969482422
2011-12-19,30.670000076293945
2011-12-20,31.290000915527344
2011-12-21,31.84000015258789
2011-12-22,31.959999084472656
2011-12-23,31.65999984741211
2011-12-27,31.950000762939453
2011-12-28,31.469999313354492
2011-12-29,31.959999084472656
2011-12-30,31.469999313354492
2012-01-03,30.360000610351562
2012-01-04,30.139999389648438
2012-01-05,28.989999771118164
2012-01-06,29.950000762939453
2012-01-09,30.229999542236328
2012-01-10,30.43000030517578
2012-01-11,30.25
2012-01-12,30.010000228881836
2012-01-13,29.290000915527344
2012-01-17,29.68000030517578
2012-01-18,29.520000457763672
2012-01-19,29.670000076293945
2012-01-20,29.59000015258789
2012-01-23,29.020000457763672
2012-01-24,29.0
2012-01-25,28.809999465942383
2012-01-26,28.979999542236328
2012-01-27,28.479999542236328
2012-01-30,27.799999237060547
2012-01-31,27.8700008392334
2012-02-01,28.110000610351562
2012-02-02,28.020000457763672
2012-02-03,28.760000228881836
2012-02-06,30.299999237060547
2012-02-07,30.770000457763672
2012-02-08,31.600000381469727
2012-02-09,31.1200008392334
2012-02-10,30.639999389648438
2012-02-13,29.040000915527344
2012-02-14,28.219999313354492
2012-02-15,28.09000015258789
2012-02-16,28.31999969482422
2012-02-17,28.700000762939453
2012-02-21,29.0
2012-02-22,28.440000534057617
2012-02-23,28.600000381469727
2012-02-24,28.719999313354492
2012-02-27,28.440000534057617
2012-02-28,28.18000030517578
2012-02-29,28.479999542236328
2012-03-01,28.719999313354492
2012-03-02,27.860000610351562
2012-03-05,27.670000076293945
2012-03-06,27.100000381469727
2012-03-07,25.989999771118164
2012-03-08,26.31999969482422
2012-03-09,26.139999389648438
2012-03-12,26.610000610351562
2012-03-13,27.239999771118164
2012-03-14,27.299999237060547
2012-03-15,27.489999771118164
2012-03-16,27.420000076293945
2012-03-19,27.440000534057617
2012-03-20,26.690000534057617
2012-03-21,26.799999237060547
2012-03-22,26.709999084472656
2012-03-23,27.139999389648438
2012-03-26,26.90999984741211
2012-03-27,26.860000610351562
2012-03-28,26.5
2012-03-29,27.0
2012-03-30,26.809999465942383
2012-04-02,26.709999084472656
2012-04-03,26.5
2012-04-04,26.030000686645508
2012-04-05,26.15999984741211
2012-04-09,25.709999084472656
2012-04-10,25.520000457763672
2012-04-11,25.68000030517578
2012-04-12,26.1299991607666
2012-04-13,26.110000610351562
2012-04-16,25.75
2012-04-17,25.690000534057617
2012-04-18,25.079999923706055
2012-04-19,24.549999237060547
2012-04-20,24.739999771118164
2012-04-23,24.020000457763672
2012-04-24,24.15999984741211
2012-04-25,24.1200008392334
2012-04-26,23.760000228881836
2012-04-27,24.399999618530273
2012-04-30,24.31999969482422
2012-05-01,24.690000534057617
2012-05-02,24.209999084472656
2012-05-03,23.780000686645508
2012-05-04,23.360000610351562
2012-05-07,23.559999465942383
2012-05-08,23.059999465942383
2012-05-09,22.950000762939453
2012-05-10,23.049999237060547
2012-05-11,23.1299991607666
2012-05-14,23.3700008392334
2012-05-15,23.639999389648438
2012-05-16,23.049999237060547
2012-05-17,22.40999984741211
2012-05-18,22.06999969482422
2012-05-21,22.31999969482422
2012-05-22,22.010000228881836
2012-05-23,22.059999465942383
2012-05-24,21.639999389648438
2012-05-25,21.530000686645508
2012-05-29,22.040000915527344
2012-05-30,22.09000015258789
2012-05-31,22.280000686645508
2012-06-01,22.200000762939453
2012-06-04,22.209999084472656
2012-06-05,22.84000015258789
2012-06-06,23.350000381469727
2012-06-07,23.770000457763672
2012-06-08,23.579999923706055
2012-06-11,23.299999237060547
2012-06-12,23.59000015258789
2012-06-13,23.219999313354492
2012-06-14,23.489999771118164
2012-06-15,23.540000915527344
2012-06-18,23.93000030517578
2012-06-19,24.540000915527344
2012-06-20,25.100000381469727
2012-06-21,25.770000457763672
2012-06-22,26.06999969482422
2012-06-25,25.459999084472656
2012-06-26,25.440000534057617
2012-06-27,26.110000610351562
2012-06-28,25.950000762939453
2012-06-29,26.309999465942383
2012-07-02,25.989999771118164
2012-07-03,26.100000381469727
2012-07-05,25.850000381469727
2012-07-06,25.360000610351562
2012-07-09,25.350000381469727
2012-07-10,24.920000076293945
2012-07-11,24.350000381469727
2012-07-12,23.729999542236328
2012-07-13,25.100000381469727
2012-07-16,24.899999618530273
2012-07-17,24.6299991607666
2012-07-18,24.690000534057617
2012-07-19,24.8700008392334
2012-07-20,24.739999771118164
2012-07-23,23.850000381469727
2012-07-24,22.969999313354492
2012-07-25,23.299999237060547
2012-07-26,23.290000915527344
2012-07-27,23.770000457763672
2012-07-30,23.559999465942383
2012-07-31,23.360000610351562
2012-08-01,22.579999923706055
2012-08-02,22.229999542236328
2012-08-03,22.889999389648438
2012-08-06,23.18000030517578
2012-08-07,23.670000076293945
2012-08-08,24.149999618530273
2012-08-09,24.690000534057617
2012-08-10,24.579999923706055
2012-08-13,23.860000610351562
2012-08-14,23.469999313354492
2012-08-15,23.309999465942383
2012-08-16,23.780000686645508
2012-08-17,23.84000015258789
2012-08-20,24.149999618530273
2012-08-21,24.459999084472656
2012-08-22,23.75
2012-08-23,23.3700008392334
2012-08-24,23.739999771118164
2012-08-27,23.65999984741211
2012-08-28,23.889999389648438
2012-08-29,23.989999771118164
2012-08-30,23.3799991607666
2012-08-31,23.860000610351562
2012-09-04,24.020000457763672
2012-09-05,24.219999313354492
2012-09-06,22.68000030517578
2012-09-07,23.3700008392334
2012-09-10,22.799999237060547
2012-09-11,22.450000762939453
2012-09-12,22.200000762939453
2012-09-13,22.65999984741211
2012-09-14,23.020000457763672
2012-09-17,22.93000030517578
2012-09-18,22.790000915527344
2012-09-19,23.049999237060547
2012-09-20,23.020000457763672
2012-09-21,22.969999313354492
2012-09-24,23.729999542236328
2012-09-25,23.510000228881836
2012-09-26,23.40999984741211
2012-09-27,23.489999771118164
2012-09-28,23.459999084472656
2012-10-01,23.940000534057617
2012-10-02,23.84000015258789
2012-10-03,24.059999465942383
2012-10-04,24.299999237060547
2012-10-05,24.299999237060547
2012-10-08,24.020000457763672
2012-10-09,23.969999313354492
2012-10-10,24.020000457763672
2012-10-11,23.760000228881836
2012-10-12,23.399999618530273
2012-10-15,23.610000610351562
2012-10-16,23.639999389648438
2012-10-17,23.8799991607666
2012-10-18,23.530000686645508
2012-10-19,22.780000686645508
2012-10-22,22.889999389648438
2012-10-23,22.700000762939453
2012-10-24,22.399999618530273
2012-10-25,22.149999618530273
2012-10-26,21.950000762939453
2012-10-31,21.989999771118164
2012-11-01,22.299999237060547
2012-11-02,21.969999313354492
2012-11-05,22.6299991607666
2012-11-06,22.600000381469727
2012-11-07,21.799999237060547
2012-11-08,21.15999984741211
2012-11-09,21.260000228881836
2012-11-12,21.84000015258789
2012-11-13,21.229999542236328
2012-11-14,20.09000015258789
2012-11-15,19.969999313354492
2012-11-16,19.81999969482422
2012-11-19,20.030000686645508
2012-11-20,20.049999237060547
2012-11-21,20.059999465942383
2012-11-23,20.469999313354492
2012-11-26,20.420000076293945
2012-11-27,20.459999084472656
2012-11-28,20.549999237060547
2012-11-29,20.979999542236328
2012-11-30,20.40999984741211
2012-12-03,20.079999923706055
2012-12-04,20.260000228881836
2012-12-05,22.940000534057617
2012-12-06,22.850000381469727
2012-12-07,22.3700008392334
2012-12-10,22.68000030517578
2012-12-11,23.040000915527344
2012-12-12,22.809999465942383
2012-12-13,22.56999969482422
2012-12-14,22.219999313354492
2012-12-17,22.06999969482422
2012-12-18,22.100000381469727
2012-12-19,22.049999237060547
2012-12-20,22.06999969482422
2012-12-21,21.6299991607666
2012-12-24,21.610000610351562
2012-12-26,21.639999389648438
2012-12-27,21.709999084472656
2012-12-28,21.639999389648438
2012-12-31,21.739999771118164
2013-01-02,22.280000686645508
2013-01-03,22.440000534057617
2013-01-04,22.6299991607666
2013-01-07,21.969999313354492
2013-01-08,21.56999969482422
2013-01-09,21.780000686645508
2013-01-10,22.299999237060547
2013-01-11,21.739999771118164
2013-01-14,21.920000076293945
2013-01-15,22.09000015258789
2013-01-16,21.719999313354492
2013-01-17,21.81999969482422
2013-01-18,22.020000457763672
2013-01-22,22.209999084472656
2013-01-23,22.6299991607666
2013-01-24,22.860000610351562
2013-01-25,22.93000030517578
2013-01-28,22.690000534057617
2013-01-29,22.479999542236328
2013-01-30,21.690000534057617
2013-01-31,21.649999618530273
2013-02-01,21.65999984741211
2013-02-04,21.239999771118164
2013-02-05,21.56999969482422
2013-02-06,21.440000534057617
2013-02-07,22.1299991607666
2013-02-08,22.34000015258789
2013-02-11,22.739999771118164
2013-02-12,22.75
2013-02-13,22.829999923706055
2013-02-14,22.3799991607666
2013-02-15,22.43000030517578
2013-02-19,22.969999313354492
2013-02-20,22.510000228881836
2013-02-21,22.1299991607666
2013-02-22,22.479999542236328
2013-02-25,22.010000228881836
2013-02-26,22.030000686645508
2013-02-27,22.079999923706055
2013-02-28,22.1200008392334
2013-03-01,22.030000686645508
2013-03-04,21.850000381469727
2013-03-05,21.690000534057617
2013-03-06,19.56999969482422
2013-03-07,18.889999389648438
2013-03-08,19.010000228881836
2013-03-11,19.299999237060547
2013-03-12,19.100000381469727
2013-03-13,19.139999389648438
2013-03-14,19.31999969482422
2013-03-15,19.459999084472656
2013-03-18,19.170000076293945
2013-03-19,19.1299991607666
2013-03-20,19.15999984741211
2013-03-21,18.90999984741211
2013-03-22,18.530000686645508
2013-03-25,18.43000030517578
2013-03-26,18.190000534057617
2013-03-27,18.100000381469727
2013-03-28,18.1299991607666
2013-04-01,18.06999969482422
2013-04-02,17.979999542236328
2013-04-03,18.020000457763672
2013-04-04,18.040000915527344
2013-04-05,18.1200008392334
2013-04-08,18.1200008392334
2013-04-09,18.450000762939453
2013-04-10,18.280000686645508
2013-04-11,18.219999313354492
2013-04-12,18.18000030517578
2013-04-15,18.1299991607666
2013-04-16,18.040000915527344
2013-04-17,18.079999923706055
2013-04-18,18.020000457763672
2013-04-19,18.049999237060547
2013-04-22,18.06999969482422
2013-04-23,18.399999618530273
2013-04-24,18.56999969482422
2013-04-25,18.889999389648438
2013-04-26,18.969999313354492
2013-04-29,19.010000228881836
2013-04-30,19.360000610351562
2013-05-01,19.309999465942383
2013-05-02,19.729999542236328
2013-05-03,19.8799991607666
2013-05-06,20.440000534057617
2013-05-07,20.079999923706055
2013-05-08,19.969999313354492
2013-05-09,20.15999984741211
2013-05-10,19.8799991607666
2013-05-13,19.8799991607666
2013-05-14,20.010000228881836
2013-05-15,20.079999923706055
2013-05-16,20.100000381469727
2013-05-17,20.1299991607666
2013-05-20,20.579999923706055
2013-05-21,20.299999237060547
2013-05-22,19.860000610351562
2013-05-23,20.100000381469727
2013-05-24,20.420000076293945
2013-05-28,20.8700008392334
2013-05-29,20.829999923706055
2013-05-30,20.979999542236328
2013-05-31,20.06999969482422
2013-06-03,20.229999542236328
2013-06-04,20.329999923706055
2013-06-05,20.239999771118164
2013-06-06,19.81999969482422
2013-06-07,19.809999465942383
2013-06-10,19.959999084472656
2013-06-11,19.81999969482422
2013-06-12,19.739999771118164
2013-06-13,19.68000030517578
2013-06-14,19.610000610351562
2013-06-17,19.700000762939453
2013-06-18,19.75
2013-06-19,19.670000076293945
2013-06-20,19.420000076293945
2013-06-21,19.610000610351562
2013-06-24,19.360000610351562
2013-06-25,19.579999923706055
2013-06-26,20.059999465942383
2013-06-27,20.139999389648438
2013-06-28,20.18000030517578
2013-07-01,20.209999084472656
2013-07-02,19.899999618530273
2013-07-03,19.90999984741211
2013-07-05,20.0
2013-07-08,20.25
2013-07-09,20.43000030517578
2013-07-10,20.709999084472656
2013-07-11,20.989999771118164
2013-07-12,20.579999923706055
2013-07-15,20.889999389648438
2013-07-16,20.649999618530273
2013-07-17,23.56999969482422
2013-07-18,22.940000534057617
2013-07-19,22.799999237060547
2013-07-22,23.1200008392334
2013-07-23,22.889999389648438
2013-07-24,22.8799991607666
2013-07-25,22.860000610351562
2013-07-26,22.65999984741211
2013-07-29,22.3799991607666
2013-07-30,22.440000534057617
2013-07-31,22.610000610351562
2013-08-01,22.8799991607666
2013-08-02,22.899999618530273
2013-08-05,23.450000762939453
2013-08-06,23.219999313354492
2013-08-07,22.989999771118164
2013-08-08,22.979999542236328
2013-08-09,22.75
2013-08-12,22.690000534057617
2013-08-13,23.030000686645508
2013-08-14,23.079999923706055
2013-08-15,22.450000762939453
2013-08-16,22.559999465942383
2013-08-19,22.100000381469727
2013-08-20,22.969999313354492
2013-08-21,22.299999237060547
2013-08-22,22.65999984741211
2013-08-23,22.649999618530273
2013-08-26,22.709999084472656
2013-08-27,22.170000076293945
2013-08-28,22.020000457763672
2013-08-29,22.010000228881836
2013-08-30,21.90999984741211
2013-09-03,22.09000015258789
2013-09-04,22.1200008392334
2013-09-05,21.989999771118164
2013-09-06,22.31999969482422
2013-09-09,22.459999084472656
2013-09-10,22.739999771118164
2013-09-11,23.170000076293945
2013-09-12,23.219999313354492
2013-09-13,23.260000228881836
2013-09-16,23.1200008392334
2013-09-17,23.100000381469727
2013-09-18,22.940000534057617
2013-09-19,23.3799991607666
2013-09-20,22.860000610351562
2013-09-23,22.489999771118164
2013-09-24,22.709999084472656
2013-09-25,22.59000015258789
2013-09-26,22.940000534057617
2013-09-27,22.940000534057617
2013-09-30,23.100000381469727
2013-10-01,23.149999618530273
2013-10-02,22.940000534057617
2013-10-03,22.420000076293945
2013-10-04,22.600000381469727
2013-10-07,22.450000762939453
2013-10-08,21.950000762939453
2013-10-09,21.920000076293945
2013-10-10,22.959999084472656
2013-10-11,23.68000030517578
2013-10-14,23.75
2013-10-15,23.649999618530273
2013-10-16,23.790000915527344
2013-10-17,24.56999969482422
2013-10-18,24.979999542236328
2013-10-21,24.739999771118164
2013-10-22,24.75
2013-10-23,25.889999389648438
2013-10-24,26.440000534057617
2013-10-25,26.420000076293945
2013-10-28,26.729999542236328
2013-10-29,26.959999084472656
2013-10-30,27.360000610351562
2013-10-31,27.110000610351562
2013-11-01,27.149999618530273
2013-11-04,27.479999542236328
2013-11-05,27.989999771118164
2013-11-06,28.25
2013-11-07,27.739999771118164
2013-11-08,27.829999923706055
2013-11-11,27.860000610351562
2013-11-12,27.510000228881836
2013-11-13,27.280000686645508
2013-11-14,27.239999771118164
2013-11-15,27.329999923706055
2013-11-18,27.489999771118164
2013-11-19,27.510000228881836
2013-11-20,27.219999313354492
2013-11-21,27.270000457763672
2013-11-22,27.489999771118164
2013-11-25,27.450000762939453
2013-11-26,26.920000076293945
2013-11-27,29.760000228881836
2013-11-29,30.170000076293945
2013-12-02,29.90999984741211
2013-12-03,29.559999465942383
2013-12-04,29.75
2013-12-05,29.81999969482422
2013-12-06,29.549999237060547
2013-12-09,29.56999969482422
2013-12-10,28.700000762939453
2013-12-11,28.1299991607666
2013-12-12,27.450000762939453
2013-12-13,28.030000686645508
2013-12-16,28.799999237060547
2013-12-17,28.479999542236328
2013-12-18,28.489999771118164
2013-12-19,28.360000610351562
2013-12-20,28.350000381469727
2013-12-23,28.350000381469727
2013-12-24,28.729999542236328
2013-12-26,28.40999984741211
2013-12-27,28.5
2013-12-30,28.770000457763672
2013-12-31,29.139999389648438
2014-01-02,28.170000076293945
2014-01-03,28.5
2014-01-06,28.09000015258789
2014-01-07,28.0
2014-01-08,28.0
2014-01-09,27.969999313354492
2014-01-10,27.989999771118164
2014-01-13,29.489999771118164
2014-01-14,29.489999771118164
2014-01-15,30.110000610351562
2014-01-16,30.059999465942383
2014-01-17,29.90999984741211
2014-01-21,30.3799991607666
2014-01-22,30.979999542236328
2014-01-23,30.520000457763672
2014-01-24,29.229999542236328
2014-01-27,28.360000610351562
2014-01-28,28.8799991607666
2014-01-29,28.549999237060547
2014-01-30,29.020000457763672
2014-01-31,29.81999969482422
2014-02-03,28.219999313354492
2014-02-04,28.219999313354492
2014-02-05,27.510000228881836
2014-02-06,27.920000076293945
2014-02-07,29.719999313354492
2014-02-10,29.81999969482422
2014-02-11,30.030000686645508
2014-02-12,30.010000228881836
2014-02-13,31.209999084472656
2014-02-14,31.5
2014-02-18,32.540000915527344
2014-02-19,31.40999984741211
2014-02-20,32.939998626708984
2014-02-21,32.97999954223633
2014-02-24,33.25
2014-02-25,32.9900016784668
2014-02-26,32.709999084472656
2014-02-27,31.8799991607666
2014-02-28,31.239999771118164
2014-03-03,30.719999313354492
2014-03-04,31.739999771118164
2014-03-05,38.5099983215332
2014-03-06,36.779998779296875
2014-03-07,36.0
2014-03-10,36.279998779296875
2014-03-11,35.75
2014-03-12,37.029998779296875
2014-03-13,36.790000915527344
2014-03-14,37.220001220703125
2014-03-17,36.970001220703125
2014-03-18,38.70000076293945
2014-03-19,38.709999084472656
2014-03-20,38.779998779296875
2014-03-21,39.25
2014-03-24,40.220001220703125
2014-03-25,41.09000015258789
2014-03-26,40.7400016784668
2014-03-27,38.88999938964844
2014-03-28,39.189998626708984
2014-03-31,40.25
2014-04-01,40.9900016784668
2014-04-02,41.38999938964844
2014-04-03,39.5
2014-04-04,37.369998931884766
2014-04-07,36.16999816894531
2014-04-08,36.15999984741211
2014-04-09,37.43000030517578
2014-04-10,35.59000015258789
2014-04-11,34.88999938964844
2014-04-14,35.119998931884766
2014-04-15,35.459999084472656
2014-04-16,35.77000045776367
2014-04-17,36.279998779296875
2014-04-21,36.77000045776367
2014-04-22,35.849998474121094
2014-04-23,35.900001525878906
2014-04-24,35.310001373291016
2014-04-25,33.790000915527344
2014-04-28,33.2599983215332
2014-04-29,33.4900016784668
2014-04-30,33.77000045776367
2014-05-01,33.84000015258789
2014-05-02,33.66999816894531
2014-05-05,34.0
2014-05-06,33.29999923706055
2014-05-07,33.029998779296875
2014-05-08,32.209999084472656
2014-05-09,33.11000061035156
2014-05-12,34.83000183105469
2014-05-13,34.18000030517578
2014-05-14,33.209999084472656
2014-05-15,32.43000030517578
2014-05-16,31.530000686645508
2014-05-19,31.790000915527344
2014-05-20,30.850000381469727
2014-05-21,30.68000030517578
2014-05-22,31.540000915527344
2014-05-23,32.529998779296875
2014-05-27,32.279998779296875
2014-05-28,32.439998626708984
2014-05-29,32.09000015258789
2014-05-30,32.119998931884766
2014-06-02,32.06999969482422
2014-06-03,31.940000534057617
2014-06-04,32.2599983215332
2014-06-05,33.189998626708984
2014-06-06,33.41999816894531
2014-06-09,33.84000015258789
2014-06-10,35.43000030517578
2014-06-11,34.7599983215332
2014-06-12,34.20000076293945
2014-06-13,34.63999938964844
2014-06-16,34.75
2014-06-17,32.93000030517578
2014-06-18,32.209999084472656
2014-06-19,31.5
2014-06-20,31.420000076293945
2014-06-23,31.81999969482422
2014-06-24,31.559999465942383
2014-06-25,31.8799991607666
2014-06-26,31.3799991607666
2014-06-27,31.389999389648438
2014-06-30,31.799999237060547
2014-07-01,33.189998626708984
2014-07-02,32.06999969482422
2014-07-03,31.989999771118164
2014-07-07,31.540000915527344
2014-07-08,30.959999084472656
2014-07-09,35.04999923706055
2014-07-10,34.150001525878906
2014-07-11,33.43000030517578
2014-07-14,35.33000183105469
2014-07-15,34.400001525878906
2014-07-16,34.38999938964844
2014-07-17,33.06999969482422
2014-07-18,33.79999923706055
2014-07-21,33.81999969482422
2014-07-22,34.06999969482422
2014-07-23,33.77000045776367
2014-07-24,33.150001525878906
2014-07-25,32.58000183105469
2014-07-28,32.400001525878906
2014-07-29,32.599998474121094
2014-07-30,32.709999084472656
2014-07-31,31.489999771118164
2014-08-01,31.270000457763672
2014-08-04,30.90999984741211
2014-08-05,30.690000534057617
2014-08-06,30.260000228881836
2014-08-07,30.110000610351562
2014-08-08,30.889999389648438
2014-08-11,31.350000381469727
2014-08-12,30.719999313354492
2014-08-13,31.1299991607666
2014-08-14,31.190000534057617
2014-08-15,31.100000381469727
2014-08-18,32.13999938964844
2014-08-19,31.690000534057617
2014-08-20,31.690000534057617
2014-08-21,31.760000228881836
2014-08-22,31.68000030517578
2014-08-25,31.729999542236328
2014-08-26,31.979999542236328
2014-08-27,31.600000381469727
2014-08-28,31.350000381469727
2014-08-29,31.540000915527344
2014-09-02,33.290000915527344
2014-09-03,33.650001525878906
2014-09-04,30.559999465942383
2014-09-05,30.09000015258789
2014-09-08,30.610000610351562
2014-09-09,30.809999465942383
2014-09-10,31.389999389648438
2014-09-11,31.81999969482422
2014-09-12,31.299999237060547
2014-09-15,31.799999237060547
2014-09-16,31.350000381469727
2014-09-17,31.440000534057617
2014-09-18,31.3700008392334
2014-09-19,30.440000534057617
2014-09-22,30.020000457763672
2014-09-23,29.489999771118164
2014-09-24,30.399999618530273
2014-09-25,30.3700008392334
2014-09-26,31.229999542236328
2014-09-29,30.469999313354492
2014-09-30,30.06999969482422
2014-10-01,29.260000228881836
2014-10-02,29.260000228881836
2014-10-03,30.079999923706055
2014-10-06,29.610000610351562
2014-10-07,28.25
2014-10-08,28.850000381469727
2014-10-09,28.200000762939453
2014-10-10,27.75
2014-10-13,27.290000915527344
2014-10-14,28.299999237060547
2014-10-15,28.739999771118164
2014-10-16,29.299999237060547
2014-10-17,28.200000762939453
2014-10-20,28.450000762939453
2014-10-21,28.770000457763672
2014-10-22,28.149999618530273
2014-10-23,28.989999771118164
2014-10-24,29.25
2014-10-27,28.719999313354492
2014-10-28,29.979999542236328
2014-10-29,29.90999984741211
2014-10-30,30.270000457763672
2014-10-31,30.649999618530273
2014-11-03,30.280000686645508
2014-11-04,30.190000534057617
2014-11-05,30.360000610351562
2014-11-06,30.459999084472656
2014-11-07,29.809999465942383
2014-11-10,29.299999237060547
2014-11-11,29.459999084472656
2014-11-12,29.770000457763672
2014-11-13,29.809999465942383
2014-11-14,29.18000030517578
2014-11-17,29.030000686645508
2014-11-18,29.780000686645508
2014-11-19,29.170000076293945
2014-11-20,29.670000076293945
2014-11-21,29.6200008392334
2014-11-24,29.969999313354492
2014-11-25,30.68000030517578
2014-11-26,28.239999771118164
2014-11-28,27.709999084472656
2014-12-01,26.31999969482422
2014-12-02,26.649999618530273
2014-12-03,26.989999771118164
2014-12-04,27.06999969482422
2014-12-05,27.739999771118164
2014-12-08,27.229999542236328
2014-12-09,27.899999618530273
2014-12-10,27.1200008392334
2014-12-11,27.030000686645508
2014-12-12,26.760000228881836
2014-12-15,26.670000076293945
2014-12-16,26.790000915527344
2014-12-17,27.489999771118164
2014-12-18,27.899999618530273
2014-12-19,28.260000228881836
2014-12-22,27.579999923706055
2014-12-23,27.5
2014-12-24,27.389999389648438
2014-12-26,27.81999969482422
2014-12-29,28.1200008392334
2014-12-30,27.940000534057617
2014-12-31,27.25
2015-01-02,26.950000762939453
2015-01-05,26.200000762939453
2015-01-06,25.459999084472656
2015-01-07,25.489999771118164
2015-01-08,25.84000015258789
2015-01-09,26.139999389648438
2015-01-12,25.350000381469727
2015-01-13,25.68000030517578
2015-01-14,25.760000228881836
2015-01-15,25.260000228881836
2015-01-16,25.170000076293945
2015-01-20,25.459999084472656
2015-01-21,25.100000381469727
2015-01-22,25.860000610351562
2015-01-23,25.700000762939453
2015-01-26,25.690000534057617
2015-01-27,25.530000686645508
2015-01-28,25.399999618530273
2015-01-29,25.959999084472656
2015-01-30,25.59000015258789
2015-02-02,25.959999084472656
2015-02-03,26.969999313354492
2015-02-04,26.709999084472656
2015-02-05,27.040000915527344
2015-02-06,27.209999084472656
2015-02-09,26.709999084472656
2015-02-10,26.329999923706055
2015-02-11,26.299999237060547
2015-02-12,26.489999771118164
2015-02-13,26.860000610351562
2015-02-17,27.469999313354492
2015-02-18,27.690000534057617
2015-02-19,27.93000030517578
2015-02-20,27.8799991607666
2015-02-23,28.1299991607666
2015-02-24,28.25
2015-02-25,27.93000030517578
2015-02-26,27.530000686645508
2015-02-27,27.40999984741211
2015-03-02,28.110000610351562
2015-03-03,28.059999465942383
2015-03-04,25.649999618530273
2015-03-05,25.799999237060547
2015-03-06,25.510000228881836
2015-03-09,25.639999389648438
2015-03-10,25.440000534057617
2015-03-11,25.6200008392334
2015-03-12,25.729999542236328
2015-03-13,25.579999923706055
2015-03-16,25.65999984741211
2015-03-17,25.809999465942383
2015-03-18,26.31999969482422
2015-03-19,26.440000534057617
2015-03-20,26.850000381469727
2015-03-23,26.920000076293945
2015-03-24,27.170000076293945
2015-03-25,26.940000534057617
2015-03-26,26.600000381469727
2015-03-27,26.530000686645508
2015-03-30,26.639999389648438
2015-03-31,26.510000228881836
2015-04-01,26.34000015258789
2015-04-02,26.450000762939453
2015-04-06,26.84000015258789
2015-04-07,26.479999542236328
2015-04-08,26.790000915527344
2015-04-09,26.510000228881836
2015-04-10,26.510000228881836
2015-04-13,26.209999084472656
2015-04-14,26.309999465942383
2015-04-15,26.360000610351562
2015-04-16,26.260000228881836
2015-04-17,25.979999542236328
2015-04-20,26.040000915527344
2015-04-21,26.219999313354492
2015-04-22,26.360000610351562
2015-04-23,26.31999969482422
2015-04-24,26.260000228881836
2015-04-27,26.59000015258789
2015-04-28,26.59000015258789
2015-04-29,26.350000381469727
2015-04-30,25.600000381469727
2015-05-01,25.459999084472656
2015-05-04,25.559999465942383
2015-05-05,25.350000381469727
2015-05-06,25.350000381469727
2015-05-07,25.84000015258789
2015-05-08,26.200000762939453
2015-05-11,26.350000381469727
2015-05-12,26.360000610351562
2015-05-13,26.399999618530273
2015-05-14,26.8799991607666
2015-05-15,26.610000610351562
2015-05-18,26.579999923706055
2015-05-19,26.3799991607666
2015-05-20,26.309999465942383
2015-05-21,26.450000762939453
2015-05-22,26.239999771118164
2015-05-26,25.959999084472656
2015-05-27,26.1200008392334
2015-05-28,26.299999237060547
2015-05-29,25.850000381469727
2015-06-01,25.649999618530273
2015-06-02,26.170000076293945
2015-06-03,27.049999237060547
2015-06-04,26.309999465942383
2015-06-05,26.549999237060547
2015-06-08,26.270000457763672
2015-06-09,26.15999984741211
2015-06-10,26.760000228881836
2015-06-11,27.079999923706055
2015-06-12,27.09000015258789
2015-06-15,26.75
2015-06-16,26.829999923706055
2015-06-17,26.719999313354492
2015-06-18,27.049999237060547
2015-06-19,27.229999542236328
2015-06-22,27.40999984741211
2015-06-23,27.329999923706055
2015-06-24,26.700000762939453
2015-06-25,26.59000015258789
2015-06-26,26.459999084472656
2015-06-29,26.030000686645508
2015-06-30,26.079999923706055
2015-07-01,29.059999465942383
2015-07-02,27.559999465942383
2015-07-06,27.889999389648438
2015-07-07,27.25
2015-07-08,26.59000015258789
2015-07-09,26.690000534057617
2015-07-10,27.15999984741211
2015-07-13,27.75
2015-07-14,27.760000228881836
2015-07-15,27.700000762939453
2015-07-16,28.309999465942383
2015-07-17,28.280000686645508
2015-07-20,28.18000030517578
2015-07-21,27.360000610351562
2015-07-22,26.649999618530273
2015-07-23,26.670000076293945
2015-07-24,26.239999771118164
2015-07-27,25.950000762939453
2015-07-28,26.0
2015-07-29,26.239999771118164
2015-07-30,26.06999969482422
2015-07-31,26.059999465942383
2015-08-03,25.93000030517578
2015-08-04,25.959999084472656
2015-08-05,26.239999771118164
2015-08-06,26.469999313354492
2015-08-07,26.040000915527344
2015-08-10,26.770000457763672
2015-08-11,26.56999969482422
2015-08-12,26.040000915527344
2015-08-13,25.979999542236328
2015-08-14,26.280000686645508
2015-08-17,26.270000457763672
2015-08-18,25.670000076293945
2015-08-19,25.450000762939453
2015-08-20,24.520000457763672
2015-08-21,24.3799991607666
2015-08-24,23.229999542236328
2015-08-25,22.899999618530273
2015-08-26,23.40999984741211
2015-08-27,24.0
2015-08-28,24.079999923706055
2015-08-31,24.049999237060547
2015-09-01,23.3799991607666
2015-09-02,21.260000228881836
2015-09-03,20.559999465942383
2015-09-04,20.3700008392334
2015-09-08,20.56999969482422
2015-09-09,20.299999237060547
2015-09-10,20.290000915527344
2015-09-11,20.440000534057617
2015-09-14,20.719999313354492
2015-09-15,20.889999389648438
2015-09-16,20.889999389648438
2015-09-17,20.600000381469727
2015-09-18,20.170000076293945
2015-09-21,20.190000534057617
2015-09-22,19.25
2015-09-23,19.739999771118164
2015-09-24,20.34000015258789
2015-09-25,20.979999542236328
2015-09-28,19.799999237060547
2015-09-29,19.809999465942383
2015-09-30,20.040000915527344
2015-10-01,20.18000030517578
2015-10-02,20.68000030517578
2015-10-05,21.200000762939453
2015-10-06,20.889999389648438
2015-10-07,21.520000457763672
2015-10-08,21.389999389648438
2015-10-09,21.75
2015-10-12,21.719999313354492
2015-10-13,21.639999389648438
2015-10-14,20.90999984741211
2015-10-15,21.389999389648438
2015-10-16,21.34000015258789
2015-10-19,21.5
2015-10-20,22.079999923706055
2015-10-21,21.950000762939453
2015-10-22,22.389999389648438
2015-10-23,22.579999923706055
2015-10-26,22.34000015258789
2015-10-27,22.229999542236328
2015-10-28,22.950000762939453
2015-10-29,22.899999618530273
2015-10-30,23.06999969482422
2015-11-02,23.09000015258789
2015-11-03,23.59000015258789
2015-11-04,23.40999984741211
2015-11-05,23.510000228881836
2015-11-06,23.719999313354492
2015-11-09,22.950000762939453
2015-11-10,23.170000076293945
2015-11-11,23.020000457763672
2015-11-12,22.149999618530273
2015-11-13,22.010000228881836
2015-11-16,23.280000686645508
2015-11-17,23.530000686645508
2015-11-18,23.329999923706055
2015-11-19,23.530000686645508
2015-11-20,24.010000228881836
2015-11-23,24.18000030517578
2015-11-24,25.290000915527344
2015-11-25,25.3700008392334
2015-11-27,25.530000686645508
2015-11-30,25.579999923706055
2015-12-01,25.469999313354492
2015-12-02,25.40999984741211
2015-12-03,25.030000686645508
2015-12-04,25.030000686645508
2015-12-07,24.860000610351562
2015-12-08,24.469999313354492
2015-12-09,28.1299991607666
2015-12-10,29.040000915527344
2015-12-11,28.639999389648438
2015-12-14,28.200000762939453
2015-12-15,28.3700008392334
2015-12-16,29.510000228881836
2015-12-17,29.3799991607666
2015-12-18,29.059999465942383
2015-12-21,29.420000076293945
2015-12-22,29.639999389648438
2015-12-23,29.700000762939453
2015-12-24,29.770000457763672
2015-12-28,29.43000030517578
2015-12-29,29.81999969482422
2015-12-30,29.59000015258789
2015-12-31,29.469999313354492
2016-01-04,28.549999237060547
2016-01-05,28.940000534057617
2016-01-06,28.489999771118164
2016-01-07,27.360000610351562
2016-01-08,26.729999542236328
2016-01-11,26.899999618530273
2016-01-12,26.950000762939453
2016-01-13,26.0
2016-01-14,26.100000381469727
2016-01-15,26.040000915527344
2016-01-19,24.65999984741211
2016-01-20,24.739999771118164
2016-01-21,24.639999389648438
2016-01-22,24.670000076293945
2016-01-25,24.190000534057617
2016-01-26,25.450000762939453
2016-01-27,24.8700008392334
2016-01-28,24.3799991607666
2016-01-29,25.510000228881836
2016-02-01,25.520000457763672
2016-02-02,25.030000686645508
2016-02-03,24.8700008392334
2016-02-04,24.8700008392334
2016-02-05,24.18000030517578
2016-02-08,24.549999237060547
2016-02-09,24.059999465942383
2016-02-10,24.18000030517578
2016-02-11,23.81999969482422
2016-02-12,24.0
2016-02-16,24.649999618530273
2016-02-17,25.389999389648438
2016-02-18,25.3700008392334
2016-02-19,26.09000015258789
2016-02-22,25.520000457763672
2016-02-23,25.09000015258789
2016-02-24,24.940000534057617
2016-02-25,25.09000015258789
2016-02-26,25.209999084472656
2016-02-29,24.8799991607666
2016-03-01,25.1299991607666
2016-03-02,25.649999618530273
2016-03-03,25.729999542236328
2016-03-04,26.290000915527344
2016-03-07,26.65999984741211
2016-03-08,26.579999923706055
2016-03-09,28.200000762939453
2016-03-10,26.940000534057617
2016-03-11,26.8799991607666
2016-03-14,27.010000228881836
2016-03-15,26.809999465942383
2016-03-16,27.399999618530273
2016-03-17,27.90999984741211
2016-03-18,28.18000030517578
2016-03-21,28.049999237060547
2016-03-22,28.079999923706055
2016-03-23,27.3700008392334
2016-03-24,27.6299991607666
2016-03-28,27.540000915527344
2016-03-29,28.219999313354492
2016-03-30,28.459999084472656
2016-03-31,28.31999969482422
2016-04-01,28.06999969482422
2016-04-04,27.440000534057617
2016-04-05,27.579999923706055
2016-04-06,27.790000915527344
2016-04-07,27.170000076293945
2016-04-08,28.020000457763672
2016-04-11,27.8700008392334
2016-04-12,27.84000015258789
2016-04-13,28.360000610351562
2016-04-14,28.420000076293945
2016-04-15,28.18000030517578
2016-04-18,28.3700008392334
2016-04-19,28.3700008392334
2016-04-20,28.350000381469727
2016-04-21,28.510000228881836
2016-04-22,28.90999984741211
2016-04-25,28.719999313354492
2016-04-26,29.299999237060547
2016-04-27,29.729999542236328
2016-04-28,29.309999465942383
2016-04-29,28.8799991607666
2016-05-02,29.399999618530273
2016-05-03,28.469999313354492
2016-05-04,28.209999084472656
2016-05-05,28.040000915527344
2016-05-06,28.489999771118164
2016-05-09,28.110000610351562
2016-05-10,28.700000762939453
2016-05-11,28.510000228881836
2016-05-12,28.6299991607666
2016-05-13,27.84000015258789
2016-05-16,28.110000610351562
2016-05-17,27.639999389648438
2016-05-18,27.84000015258789
2016-05-19,27.6200008392334
2016-05-20,28.0
2016-05-23,27.81999969482422
2016-05-24,28.190000534057617
2016-05-25,28.329999923706055
2016-05-26,28.670000076293945
2016-05-27,29.389999389648438
2016-05-31,28.809999465942383
2016-06-01,30.079999923706055
2016-06-02,30.06999969482422
2016-06-03,29.579999923706055
2016-06-06,30.020000457763672
2016-06-07,30.389999389648438
2016-06-08,31.700000762939453
2016-06-09,32.220001220703125
2016-06-10,32.0099983215332
2016-06-13,31.25
2016-06-14,31.31999969482422
2016-06-15,30.93000030517578
2016-06-16,30.68000030517578
2016-06-17,30.5
2016-06-20,30.8700008392334
2016-06-21,30.229999542236328
2016-06-22,30.100000381469727
2016-06-23,30.25
2016-06-24,29.5
2016-06-27,28.40999984741211
2016-06-28,28.5
2016-06-29,26.690000534057617
2016-06-30,27.799999237060547
2016-07-01,27.969999313354492
2016-07-05,26.93000030517578
2016-07-06,27.059999465942383
2016-07-07,26.700000762939453
2016-07-08,27.1299991607666
2016-07-11,27.25
2016-07-12,27.350000381469727
2016-07-13,27.600000381469727
2016-07-14,27.489999771118164
2016-07-15,27.6299991607666
2016-07-18,27.56999969482422
2016-07-19,27.3799991607666
2016-07-20,27.790000915527344
2016-07-21,27.559999465942383
2016-07-22,27.489999771118164
2016-07-25,27.6299991607666
2016-07-26,27.940000534057617
2016-07-27,28.649999618530273
2016-07-28,28.420000076293945
2016-07-29,28.350000381469727
2016-08-01,28.329999923706055
2016-08-02,28.020000457763672
2016-08-03,28.260000228881836
2016-08-04,28.229999542236328
2016-08-05,28.649999618530273
2016-08-08,28.959999084472656
2016-08-09,28.579999923706055
2016-08-10,28.18000030517578
2016-08-11,28.780000686645508
2016-08-12,28.43000030517578
2016-08-15,29.15999984741211
2016-08-16,28.68000030517578
2016-08-17,28.59000015258789
2016-08-18,29.09000015258789
2016-08-19,29.309999465942383
2016-08-22,29.18000030517578
2016-08-23,29.329999923706055
2016-08-24,29.469999313354492
2016-08-25,29.56999969482422
2016-08-26,29.5
2016-08-29,29.84000015258789
2016-08-30,29.790000915527344
2016-08-31,24.739999771118164
2016-09-01,24.309999465942383
2016-09-02,24.829999923706055
2016-09-06,24.079999923706055
2016-09-07,24.149999618530273
2016-09-08,24.440000534057617
2016-09-09,23.709999084472656
2016-09-12,24.059999465942383
2016-09-13,23.530000686645508
2016-09-14,23.190000534057617
2016-09-15,23.530000686645508
2016-09-16,23.479999542236328
2016-09-19,23.770000457763672
2016-09-20,23.670000076293945
2016-09-21,25.239999771118164
2016-09-22,25.09000015258789
2016-09-23,24.65999984741211
2016-09-26,24.420000076293945
2016-09-27,24.489999771118164
2016-09-28,24.510000228881836
2016-09-29,24.209999084472656
2016-09-30,24.40999984741211
2016-10-03,24.540000915527344
2016-10-04,24.34000015258789
2016-10-05,24.549999237060547
2016-10-06,24.139999389648438
2016-10-07,23.420000076293945
2016-10-10,23.559999465942383
2016-10-11,23.15999984741211
2016-10-12,22.8799991607666
2016-10-13,22.530000686645508
2016-10-14,22.440000534057617
2016-10-17,22.290000915527344
2016-10-18,22.510000228881836
2016-10-19,22.469999313354492
2016-10-20,22.360000610351562
2016-10-21,22.280000686645508
2016-10-24,22.799999237060547
2016-10-25,22.969999313354492
2016-10-26,23.729999542236328
2016-10-27,23.549999237060547
2016-10-28,23.690000534057617
2016-10-31,23.989999771118164
2016-11-01,23.899999618530273
2016-11-02,23.700000762939453
2016-11-03,23.799999237060547
2016-11-04,24.0
2016-11-07,24.600000381469727
2016-11-08,24.5
2016-11-09,26.5
2016-11-10,26.889999389648438
2016-11-11,27.950000762939453
2016-11-14,28.739999771118164
2016-11-15,27.700000762939453
2016-11-16,27.549999237060547
2016-11-17,27.530000686645508
2016-11-18,27.549999237060547
2016-11-21,27.540000915527344
2016-11-22,28.530000686645508
2016-11-23,28.59000015258789
2016-11-25,28.540000915527344
2016-11-28,28.139999389648438
2016-11-29,28.18000030517578
2016-11-30,28.299999237060547
2016-12-01,27.84000015258789
2016-12-02,28.0
2016-12-05,28.579999923706055
2016-12-06,29.34000015258789
2016-12-07,27.6200008392334
2016-12-08,29.020000457763672
2016-12-09,28.8799991607666
2016-12-12,28.110000610351562
2016-12-13,27.93000030517578
2016-12-14,27.3700008392334
2016-12-15,27.350000381469727
2016-12-16,27.260000228881836
2016-12-19,27.959999084472656
2016-12-20,27.979999542236328
2016-12-21,27.450000762939453
2016-12-22,27.06999969482422
2016-12-23,26.84000015258789
2016-12-27,27.360000610351562
2016-12-28,26.799999237060547
2016-12-29,27.06999969482422
2016-12-30,26.829999923706055
2017-01-03,26.93000030517578
2017-01-04,27.329999923706055
2017-01-05,26.229999542236328
2017-01-06,26.3799991607666
2017-01-09,25.979999542236328
2017-01-10,26.040000915527344
2017-01-11,26.100000381469727
2017-01-12,25.760000228881836
2017-01-13,25.860000610351562
2017-01-17,25.3700008392334
2017-01-18,25.290000915527344
2017-01-19,25.600000381469727
2017-01-20,25.229999542236328
2017-01-23,25.0
2017-01-24,25.399999618530273
2017-01-25,26.09000015258789
2017-01-26,25.920000076293945
2017-01-27,25.959999084472656
2017-01-30,25.719999313354492
2017-01-31,26.190000534057617
2017-02-01,25.8700008392334
2017-02-02,25.670000076293945
2017-02-03,26.40999984741211
2017-02-06,26.329999923706055
2017-02-07,26.440000534057617
2017-02-08,25.989999771118164
2017-02-09,26.079999923706055
2017-02-10,26.399999618530273
2017-02-13,26.739999771118164
2017-02-14,26.8700008392334
2017-02-15,26.899999618530273
2017-02-16,26.989999771118164
2017-02-17,26.969999313354492
2017-02-21,27.0
2017-02-22,26.950000762939453
2017-02-23,26.780000686645508
2017-02-24,26.579999923706055
2017-02-27,27.350000381469727
2017-02-28,27.020000457763672
2017-03-01,27.43000030517578
2017-03-02,27.1299991607666
2017-03-03,26.93000030517578
2017-03-06,26.020000457763672
2017-03-07,26.149999618530273
2017-03-08,27.540000915527344
2017-03-09,27.110000610351562
2017-03-10,27.260000228881836
2017-03-13,27.59000015258789
2017-03-14,27.299999237060547
2017-03-15,27.559999465942383
2017-03-16,28.030000686645508
2017-03-17,29.790000915527344
2017-03-20,28.84000015258789
2017-03-21,27.56999969482422
2017-03-22,27.239999771118164
2017-03-23,27.350000381469727
2017-03-24,26.969999313354492
2017-03-27,27.06999969482422
2017-03-28,27.549999237060547
2017-03-29,27.540000915527344
2017-03-30,27.760000228881836
2017-03-31,28.030000686645508
2017-04-03,27.5
2017-04-04,27.610000610351562
2017-04-05,27.280000686645508
2017-04-06,27.729999542236328
2017-04-07,27.959999084472656
2017-04-10,27.600000381469727
2017-04-11,28.329999923706055
2017-04-12,27.670000076293945
2017-04-13,27.40999984741211
2017-04-17,27.860000610351562
2017-04-18,28.549999237060547
2017-04-19,28.59000015258789
2017-04-20,28.850000381469727
2017-04-21,28.729999542236328
2017-04-24,29.280000686645508
2017-04-25,29.579999923706055
2017-04-26,29.479999542236328
2017-04-27,29.200000762939453
2017-04-28,28.56999969482422
2017-05-01,28.540000915527344
2017-05-02,28.520000457763672
2017-05-03,28.549999237060547
2017-05-04,28.65999984741211
2017-05-05,28.959999084472656
2017-05-08,29.18000030517578
2017-05-09,29.489999771118164
2017-05-10,29.65999984741211
2017-05-11,29.770000457763672
2017-05-12,30.399999618530273
2017-05-15,31.3700008392334
2017-05-16,31.200000762939453
2017-05-17,30.459999084472656
2017-05-18,30.690000534057617
2017-05-19,30.850000381469727
2017-05-22,31.459999084472656
2017-05-23,31.34000015258789
2017-05-24,31.260000228881836
2017-05-25,31.3799991607666
2017-05-26,31.209999084472656
2017-05-30,31.049999237060547
2017-05-31,31.040000915527344
2017-06-01,31.68000030517578
2017-06-02,32.400001525878906
2017-06-05,31.950000762939453
2017-06-06,30.780000686645508
2017-06-07,30.989999771118164
2017-06-08,31.530000686645508
2017-06-09,31.09000015258789
2017-06-12,30.639999389648438
2017-06-13,31.0
2017-06-14,31.049999237060547
2017-06-15,31.399999618530273
2017-06-16,31.0
2017-06-19,31.450000762939453
2017-06-20,31.110000610351562
2017-06-21,30.709999084472656
2017-06-22,30.850000381469727
2017-06-23,30.770000457763672
2017-06-26,30.969999313354492
2017-06-27,32.4900016784668
2017-06-28,35.11000061035156
2017-06-29,36.5
2017-06-30,38.20000076293945
2017-07-03,39.060001373291016
2017-07-05,39.5099983215332
2017-07-06,38.11000061035156
2017-07-07,38.66999816894531
2017-07-10,39.380001068115234
2017-07-11,39.41999816894531
2017-07-12,39.72999954223633
2017-07-13,39.36000061035156
2017-07-14,39.470001220703125
2017-07-17,39.290000915527344
2017-07-18,38.45000076293945
2017-07-19,38.2400016784668
2017-07-20,38.11000061035156
2017-07-21,38.29999923706055
2017-07-24,38.2400016784668
2017-07-25,38.150001525878906
2017-07-26,37.7400016784668
2017-07-27,37.65999984741211
2017-07-28,37.75
2017-07-31,37.790000915527344
2017-08-01,37.25
2017-08-02,37.150001525878906
2017-08-03,37.0
2017-08-04,37.2599983215332
2017-08-07,38.06999969482422
2017-08-08,38.29999923706055
2017-08-09,38.58000183105469
2017-08-10,38.31999969482422
2017-08-11,38.310001373291016
2017-08-14,38.349998474121094
2017-08-15,37.77000045776367
2017-08-16,38.0
2017-08-17,37.36000061035156
2017-08-18,37.470001220703125
2017-08-21,37.400001525878906
2017-08-22,39.29999923706055
2017-08-23,38.56999969482422
2017-08-24,38.959999084472656
2017-08-25,38.83000183105469
2017-08-28,39.060001373291016
2017-08-29,39.349998474121094
2017-08-30,46.52000045776367
2017-08-31,49.02000045776367
2017-09-01,49.150001525878906
2017-09-05,50.16999816894531
2017-09-06,49.11000061035156
2017-09-07,49.15999984741211
2017-09-08,48.709999084472656
2017-09-11,48.65999984741211
2017-09-12,48.95000076293945
2017-09-13,48.959999084472656
2017-09-14,48.650001525878906
2017-09-15,48.4900016784668
2017-09-18,49.130001068115234
2017-09-19,51.349998474121094
2017-09-20,51.88999938964844
2017-09-21,51.529998779296875
2017-09-22,51.689998626708984
2017-09-25,53.279998779296875
2017-09-26,53.400001525878906
2017-09-27,53.5099983215332
2017-09-28,53.63999938964844
2017-09-29,54.119998931884766
2017-10-02,54.95000076293945
2017-10-03,55.41999816894531
2017-10-04,53.84000015258789
2017-10-05,53.63999938964844
2017-10-06,53.29999923706055
2017-10-09,54.540000915527344
2017-10-10,54.689998626708984
2017-10-11,54.08000183105469
2017-10-12,53.939998626708984
2017-10-13,53.209999084472656
2017-10-16,52.939998626708984
2017-10-17,51.88999938964844
2017-10-18,51.7400016784668
2017-10-19,50.63999938964844
2017-10-20,52.650001525878906
2017-10-23,52.290000915527344
2017-10-24,53.0099983215332
2017-10-25,52.470001220703125
2017-10-26,51.650001525878906
2017-10-27,51.380001068115234
2017-10-30,50.7400016784668
2017-10-31,51.15999984741211
2017-11-01,50.86000061035156
2017-11-02,51.29999923706055
2017-11-03,50.349998474121094
2017-11-06,50.630001068115234
2017-11-07,48.290000915527344
2017-11-08,44.90999984741211
2017-11-09,43.33000183105469
2017-11-10,43.77000045776367
2017-11-13,43.52000045776367
2017-11-14,42.9900016784668
2017-11-15,42.15999984741211
2017-11-16,42.77000045776367
2017-11-17,42.72999954223633
2017-11-20,43.70000076293945
2017-11-21,45.08000183105469
2017-11-22,45.029998779296875
2017-11-24,45.0
2017-11-27,44.459999084472656
2017-11-28,45.75
2017-11-29,44.9900016784668
2017-11-30,45.58000183105469
2017-12-01,44.720001220703125
2017-12-04,44.0
2017-12-05,43.25
2017-12-06,54.470001220703125
2017-12-07,55.56999969482422
2017-12-08,55.65999984741211
2017-12-11,53.72999954223633
2017-12-12,54.060001373291016
2017-12-13,54.88999938964844
2017-12-14,54.5
2017-12-15,55.75
2017-12-18,58.63999938964844
2017-12-19,58.0
2017-12-20,57.34000015258789
2017-12-21,57.27000045776367
2017-12-22,56.66999816894531
2017-12-26,56.290000915527344
2017-12-27,56.939998626708984
2017-12-28,57.380001068115234
2017-12-29,56.15999984741211
2018-01-02,54.849998474121094
2018-01-03,54.66999816894531
2018-01-04,53.63999938964844
2018-01-05,53.400001525878906
2018-01-08,53.5
2018-01-09,53.779998779296875
2018-01-10,52.86000061035156
2018-01-11,52.900001525878906
2018-01-12,54.06999969482422
2018-01-16,52.40999984741211
2018-01-17,53.41999816894531
2018-01-18,52.709999084472656
2018-01-19,53.599998474121094
2018-01-22,53.06999969482422
2018-01-23,52.939998626708984
2018-01-24,53.31999969482422
2018-01-25,53.47999954223633
2018-01-26,53.16999816894531
2018-01-29,52.810001373291016
2018-01-30,51.810001373291016
2018-01-31,51.36000061035156
2018-02-01,52.45000076293945
2018-02-02,49.779998779296875
2018-02-05,47.43000030517578
2018-02-06,47.959999084472656
2018-02-07,48.11000061035156
2018-02-08,46.0099983215332
2018-02-09,47.97999954223633
2018-02-12,49.25
2018-02-13,48.939998626708984
2018-02-14,51.09000015258789
2018-02-15,52.279998779296875
2018-02-16,51.7400016784668
2018-02-20,49.849998474121094
2018-02-21,50.130001068115234
2018-02-22,50.0
2018-02-23,50.189998626708984
2018-02-26,50.810001373291016
2018-02-27,50.18000030517578
2018-02-28,49.720001220703125
2018-03-01,48.70000076293945
2018-03-02,49.97999954223633
2018-03-05,50.13999938964844
2018-03-06,50.529998779296875
2018-03-07,43.0099983215332
2018-03-08,45.52000045776367
2018-03-09,47.279998779296875
2018-03-12,48.349998474121094
2018-03-13,47.650001525878906
2018-03-14,47.869998931884766
2018-03-15,48.58000183105469
2018-03-16,46.91999816894531
2018-03-19,48.09000015258789
2018-03-20,47.369998931884766
2018-03-21,47.11000061035156
2018-03-22,45.06999969482422
2018-03-23,45.04999923706055
2018-03-26,46.59000015258789
2018-03-27,44.93000030517578
2018-03-28,45.040000915527344
2018-03-29,45.5099983215332
2018-04-02,45.22999954223633
2018-04-03,45.88999938964844
2018-04-04,46.310001373291016
2018-04-05,46.209999084472656
2018-04-06,45.08000183105469
2018-04-09,45.77000045776367
2018-04-10,46.369998931884766
2018-04-11,54.279998779296875
2018-04-12,55.7599983215332
2018-04-13,56.2400016784668
2018-04-16,56.72999954223633
2018-04-17,57.22999954223633
2018-04-18,56.709999084472656
2018-04-19,56.72999954223633
2018-04-20,56.689998626708984
2018-04-23,56.209999084472656
2018-04-24,54.709999084472656
2018-04-25,54.4900016784668
2018-04-26,54.75
2018-04-27,54.58000183105469
2018-04-30,54.5
2018-05-01,53.91999816894531
2018-05-02,54.84000015258789
2018-05-03,55.22999954223633
2018-05-04,56.47999954223633
2018-05-07,58.459999084472656
2018-05-08,60.970001220703125
2018-05-09,61.27000045776367
2018-05-10,60.959999084472656
2018-05-11,59.86000061035156
2018-05-14,57.959999084472656
2018-05-15,54.150001525878906
2018-05-16,52.81999969482422
2018-05-17,55.79999923706055
2018-05-18,56.09000015258789
2018-05-21,57.20000076293945
2018-05-22,56.15999984741211
2018-05-23,56.61000061035156
2018-05-24,58.060001373291016
2018-05-25,57.939998626708984
2018-05-29,58.029998779296875
2018-05-30,57.970001220703125
2018-05-31,57.86000061035156
2018-06-01,58.5
2018-06-04,59.86000061035156
2018-06-05,60.349998474121094
2018-06-06,60.310001373291016
2018-06-07,60.130001068115234
2018-06-08,61.02000045776367
2018-06-11,60.11000061035156
2018-06-12,58.75
2018-06-13,60.0
2018-06-14,59.25
2018-06-15,59.33000183105469
2018-06-18,60.2599983215332
2018-06-19,57.779998779296875
2018-06-20,59.77000045776367
2018-06-21,59.22999954223633
2018-06-22,59.41999816894531
2018-06-25,58.25
2018-06-26,62.22999954223633
2018-06-27,66.62999725341797
2018-06-28,68.79000091552734
2018-06-29,71.43000030517578
2018-07-02,71.29000091552734
2018-07-03,70.22000122070312
2018-07-05,72.05999755859375
2018-07-06,72.06999969482422
2018-07-09,72.97000122070312
2018-07-10,73.19000244140625
2018-07-11,72.08000183105469
2018-07-12,73.0999984741211
2018-07-13,73.37000274658203
2018-07-16,71.95999908447266
2018-07-17,74.69999694824219
2018-07-18,74.4800033569336
2018-07-19,74.94000244140625
2018-07-20,75.23999786376953
2018-07-23,74.58000183105469
2018-07-24,73.33999633789062
2018-07-25,73.63999938964844
2018-07-26,75.19999694824219
2018-07-27,72.08999633789062
2018-07-30,72.66000366210938
2018-07-31,73.61000061035156
2018-08-01,74.83000183105469
2018-08-02,75.81999969482422
2018-08-03,75.0199966430664
2018-08-06,76.05999755859375
2018-08-07,76.79000091552734
2018-08-08,77.7300033569336
2018-08-09,79.01000213623047
2018-08-10,79.79000091552734
2018-08-13,80.55999755859375
2018-08-14,82.47000122070312
2018-08-15,81.41999816894531
2018-08-16,83.55000305175781
2018-08-17,84.47000122070312
2018-08-20,85.12000274658203
2018-08-21,86.18000030517578
2018-08-22,85.55000305175781
2018-08-23,84.45999908447266
2018-08-24,85.31999969482422
2018-08-27,85.73999786376953
2018-08-28,85.69999694824219
2018-08-29,86.20999908447266
2018-08-30,85.98999786376953
2018-08-31,87.95999908447266
2018-09-04,87.91000366210938
2018-09-05,87.5
2018-09-06,99.97000122070312
2018-09-07,100.43000030517578
2018-09-10,106.11000061035156
2018-09-11,107.33999633789062
2018-09-12,108.12999725341797
2018-09-13,111.44000244140625
2018-09-14,116.51000213623047
2018-09-17,116.81999969482422
2018-09-18,119.83000183105469
2018-09-19,114.47000122070312
2018-09-20,108.23999786376953
2018-09-21,107.16000366210938
2018-09-24,106.9800033569336
2018-09-25,109.18000030517578
2018-09-26,108.8499984741211
2018-09-27,110.48999786376953
2018-09-28,112.16999816894531
2018-10-01,109.69000244140625
2018-10-02,109.11000061035156
2018-10-03,108.23999786376953
2018-10-04,104.29000091552734
2018-10-05,102.06999969482422
2018-10-08,102.63999938964844
2018-10-09,98.37999725341797
2018-10-10,94.41000366210938
2018-10-11,91.04000091552734
2018-10-12,92.69000244140625
2018-10-15,93.77999877929688
2018-10-16,97.18000030517578
2018-10-17,95.51000213623047
2018-10-18,93.29000091552734
2018-10-19,92.83999633789062
2018-10-22,93.27999877929688
2018-10-23,93.9800033569336
2018-10-24,91.0199966430664
2018-10-25,88.95999908447266
2018-10-26,89.94999694824219
2018-10-29,85.6500015258789
2018-10-30,87.7699966430664
2018-10-31,89.97000122070312
2018-11-01,93.38999938964844
2018-11-02,93.87999725341797
2018-11-05,95.12000274658203
2018-11-06,98.80999755859375
2018-11-07,103.25
2018-11-08,103.2300033569336
2018-11-09,102.41999816894531
2018-11-12,99.0999984741211
2018-11-13,95.69999694824219
2018-11-14,94.5
2018-11-15,98.1500015258789
2018-11-16,100.02999877929688
2018-11-19,93.76000213623047
2018-11-20,88.9800033569336
2018-11-21,89.94999694824219
2018-11-23,90.37000274658203
2018-11-26,89.30999755859375
2018-11-27,88.66000366210938
2018-11-28,91.87999725341797
2018-11-29,91.68000030517578
2018-11-30,76.5999984741211
2018-12-03,73.30999755859375
2018-12-04,71.08000183105469
2018-12-06,71.8499984741211
2018-12-07,69.80999755859375
2018-12-10,72.0
2018-12-11,72.56999969482422
2018-12-12,73.79000091552734
2018-12-13,73.41999816894531
2018-12-14,75.41000366210938
2018-12-17,69.86000061035156
2018-12-18,72.2300033569336
2018-12-19,70.12999725341797
2018-12-20,67.37000274658203
2018-12-21,64.81999969482422
2018-12-24,64.86000061035156
2018-12-26,66.44000244140625
2018-12-27,69.0
2018-12-28,67.56999969482422
2018-12-31,67.94999694824219
2019-01-02,68.5
2019-01-03,66.97000122070312
2019-01-04,68.37000274658203
2019-01-07,69.58999633789062
2019-01-08,72.94999694824219
2019-01-09,74.80999755859375
2019-01-10,73.5999984741211
2019-01-11,73.75
2019-01-14,73.61000061035156
2019-01-15,73.80000305175781
2019-01-16,73.0999984741211
2019-01-17,74.9800033569336
2019-01-18,76.75
2019-01-22,73.12000274658203
2019-01-23,73.5999984741211
2019-01-24,76.19000244140625
2019-01-25,78.69999694824219
2019-01-28,76.16000366210938
2019-01-29,76.25
2019-01-30,74.66000366210938
2019-01-31,77.66000366210938
2019-02-01,74.76000213623047
2019-02-04,76.47000122070312
2019-02-05,77.37000274658203
2019-02-06,78.22000122070312
2019-02-07,75.0999984741211
2019-02-08,75.87000274658203
2019-02-11,77.08000183105469
2019-02-12,79.23999786376953
2019-02-13,78.75
2019-02-14,80.36000061035156
2019-02-15,82.0
2019-02-19,81.36000061035156
2019-02-20,82.7300033569336
2019-02-21,81.83000183105469
2019-02-22,82.45999908447266
2019-02-25,81.4000015258789
2019-02-26,78.05999755859375
2019-02-27,80.43000030517578
2019-02-28,79.66999816894531
2019-03-01,79.44000244140625
2019-03-04,76.97000122070312
2019-03-05,76.73999786376953
2019-03-06,83.94999694824219
2019-03-07,78.80999755859375
2019-03-08,78.69000244140625
2019-03-11,78.37999725341797
2019-03-12,80.62000274658203
2019-03-13,78.88999938964844
2019-03-14,75.1500015258789
2019-03-15,71.04000091552734
2019-03-18,71.69999694824219
2019-03-19,70.91999816894531
2019-03-20,69.54000091552734
2019-03-21,70.43000030517578
2019-03-22,67.69000244140625
2019-03-25,69.22000122070312
2019-03-26,67.5
2019-03-27,66.88999938964844
2019-03-28,68.45999908447266
2019-03-29,68.41000366210938
2019-04-01,69.66999816894531
2019-04-02,69.06999969482422
2019-04-03,68.33000183105469
2019-04-04,68.1500015258789
2019-04-05,68.5999984741211
2019-04-08,67.93000030517578
2019-04-09,65.98999786376953
2019-04-10,66.30999755859375
2019-04-11,67.94000244140625
2019-04-12,67.81999969482422
2019-04-15,66.62999725341797
2019-04-16,66.75
2019-04-17,65.18000030517578
2019-04-18,67.13999938964844
2019-04-22,66.97000122070312
2019-04-23,68.6500015258789
2019-04-24,68.0199966430664
2019-04-25,68.83999633789062
2019-04-26,69.52999877929688
2019-04-29,70.8499984741211
2019-04-30,68.55999755859375
2019-05-01,68.29000091552734
2019-05-02,67.44000244140625
2019-05-03,68.95999908447266
2019-05-06,68.08000183105469
2019-05-07,65.27999877929688
2019-05-08,65.75
2019-05-09,65.58999633789062
2019-05-10,65.83999633789062
2019-05-13,63.470001220703125
2019-05-14,69.61000061035156
2019-05-15,67.94000244140625
2019-05-16,70.08999633789062
2019-05-17,66.76000213623047
2019-05-20,68.22000122070312
2019-05-21,69.80000305175781
2019-05-22,68.55999755859375
2019-05-23,65.66000366210938
2019-05-24,66.19999694824219
2019-05-28,67.19999694824219
2019-05-29,66.8499984741211
2019-05-30,66.44000244140625
2019-05-31,64.75
2019-06-03,65.77999877929688
2019-06-04,64.16000366210938
2019-06-05,65.5
2019-06-06,64.31999969482422
2019-06-07,64.0199966430664
2019-06-10,63.43000030517578
2019-06-11,62.97999954223633
2019-06-12,62.43000030517578
2019-06-13,63.619998931884766
2019-06-14,62.54999923706055
2019-06-17,61.4900016784668
2019-06-18,61.45000076293945
2019-06-19,61.900001525878906
2019-06-20,65.23999786376953
2019-06-21,63.9900016784668
2019-06-24,61.81999969482422
2019-06-25,61.310001373291016
2019-06-26,55.88999938964844
2019-06-27,55.47999954223633
2019-06-28,56.77000045776367
2019-07-01,55.119998931884766
2019-07-02,55.33000183105469
2019-07-03,55.72999954223633
2019-07-05,56.310001373291016
2019-07-08,57.689998626708984
2019-07-09,56.779998779296875
2019-07-10,55.04999923706055
2019-07-11,55.369998931884766
2019-07-12,55.849998474121094
2019-07-15,55.38999938964844
2019-07-16,55.45000076293945
2019-07-17,54.369998931884766
2019-07-18,53.95000076293945
2019-07-19,54.27000045776367
2019-07-22,53.959999084472656
2019-07-23,53.849998474121094
2019-07-24,55.04999923706055
2019-07-25,54.27000045776367
2019-07-26,54.220001220703125
2019-07-29,54.630001068115234
2019-07-30,56.0099983215332
2019-07-31,54.849998474121094
2019-08-01,52.90999984741211
2019-08-02,52.540000915527344
2019-08-05,50.970001220703125
2019-08-06,51.34000015258789
2019-08-07,50.939998626708984
2019-08-08,53.29999923706055
2019-08-09,52.439998626708984
2019-08-12,50.9900016784668
2019-08-13,51.7400016784668
2019-08-14,50.630001068115234
2019-08-15,51.29999923706055
2019-08-16,52.52000045776367
2019-08-19,52.470001220703125
2019-08-20,51.939998626708984
2019-08-21,53.04999923706055
2019-08-22,52.779998779296875
2019-08-23,50.779998779296875
2019-08-26,49.7400016784668
2019-08-27,49.540000915527344
2019-08-28,51.5
2019-08-29,51.52000045776367
2019-08-30,51.529998779296875
2019-09-03,51.5099983215332
2019-09-04,52.7599983215332
2019-09-05,55.33000183105469
2019-09-06,56.939998626708984
2019-09-09,57.119998931884766
2019-09-10,59.650001525878906
2019-09-11,60.16999816894531
2019-09-12,61.630001068115234
2019-09-13,60.880001068115234
2019-09-16,63.59000015258789
2019-09-17,62.279998779296875
2019-09-18,62.15999984741211
2019-09-19,61.150001525878906
2019-09-20,61.27000045776367
2019-09-23,61.31999969482422
2019-09-24,59.459999084472656
2019-09-25,55.5099983215332
2019-09-26,52.560001373291016
2019-09-27,53.279998779296875
2019-09-30,53.560001373291016
2019-10-01,52.0
2019-10-02,52.650001525878906
2019-10-03,53.2599983215332
2019-10-04,54.41999816894531
2019-10-07,54.380001068115234
2019-10-08,54.529998779296875
2019-10-09,54.599998474121094
2019-10-10,54.90999984741211
2019-10-11,56.380001068115234
2019-10-14,57.15999984741211
2019-10-15,57.060001373291016
2019-10-16,59.15999984741211
2019-10-17,58.619998931884766
2019-10-18,57.84000015258789
2019-10-21,57.970001220703125
2019-10-22,57.279998779296875
2019-10-23,57.66999816894531
2019-10-24,58.7599983215332
2019-10-25,56.790000915527344
2019-10-28,60.0099983215332
2019-10-29,58.849998474121094
2019-10-30,59.52000045776367
2019-10-31,57.97999954223633
2019-11-01,60.41999816894531
2019-11-04,58.95000076293945
2019-11-05,59.599998474121094
2019-11-06,59.939998626708984
2019-11-07,60.400001525878906
2019-11-08,61.779998779296875
2019-11-11,62.040000915527344
2019-11-12,60.869998931884766
2019-11-13,61.5
2019-11-14,62.099998474121094
2019-11-15,62.68000030517578
2019-11-18,61.7599983215332
2019-11-19,60.84000015258789
2019-11-20,60.119998931884766
2019-11-21,59.16999816894531
2019-11-22,58.400001525878906
2019-11-25,60.439998626708984
2019-11-26,61.720001220703125
2019-11-27,61.88999938964844
2019-11-29,61.34000015258789
2019-12-02,63.75
2019-12-03,64.61000061035156
2019-12-04,61.279998779296875
2019-12-05,61.59000015258789
2019-12-06,62.5
2019-12-09,61.29999923706055
2019-12-10,60.630001068115234
2019-12-11,61.97999954223633
2019-12-12,62.91999816894531
2019-12-13,61.810001373291016
2019-12-16,62.66999816894531
2019-12-17,63.369998931884766
2019-12-18,62.90999984741211
2019-12-19,64.02999877929688
2019-12-20,63.400001525878906
2019-12-23,64.3499984741211
2019-12-24,64.27999877929688
2019-12-26,63.45000076293945
2019-12-27,62.04999923706055
2019-12-30,62.779998779296875
2019-12-31,61.7400016784668
