Date,AXTA
2014-11-12,20.75
2014-11-13,21.5
2014-11-14,21.979999542236328
2014-11-17,22.329999923706055
2014-11-18,21.8799991607666
2014-11-19,22.239999771118164
2014-11-20,22.290000915527344
2014-11-21,22.559999465942383
2014-11-24,22.40999984741211
2014-11-25,22.989999771118164
2014-11-26,22.979999542236328
2014-11-28,23.799999237060547
2014-12-01,23.729999542236328
2014-12-02,24.40999984741211
2014-12-03,25.15999984741211
2014-12-04,25.030000686645508
2014-12-05,25.030000686645508
2014-12-08,24.719999313354492
2014-12-09,25.010000228881836
2014-12-10,24.700000762939453
2014-12-11,26.3799991607666
2014-12-12,26.030000686645508
2014-12-15,26.06999969482422
2014-12-16,26.270000457763672
2014-12-17,26.65999984741211
2014-12-18,26.75
2014-12-19,26.940000534057617
2014-12-22,27.450000762939453
2014-12-23,27.010000228881836
2014-12-24,26.739999771118164
2014-12-26,26.6299991607666
2014-12-29,26.75
2014-12-30,26.18000030517578
2014-12-31,26.020000457763672
2015-01-02,26.239999771118164
2015-01-05,26.68000030517578
2015-01-06,27.709999084472656
2015-01-07,26.860000610351562
2015-01-08,27.440000534057617
2015-01-09,26.920000076293945
2015-01-12,26.989999771118164
2015-01-13,27.65999984741211
2015-01-14,27.100000381469727
2015-01-15,26.43000030517578
2015-01-16,26.889999389648438
2015-01-20,26.649999618530273
2015-01-21,26.940000534057617
2015-01-22,27.1299991607666
2015-01-23,26.920000076293945
2015-01-26,26.350000381469727
2015-01-27,25.81999969482422
2015-01-28,25.489999771118164
2015-01-29,26.0
2015-01-30,25.670000076293945
2015-02-02,25.280000686645508
2015-02-03,25.15999984741211
2015-02-04,25.15999984741211
2015-02-05,25.059999465942383
2015-02-06,25.200000762939453
2015-02-09,24.979999542236328
2015-02-10,24.989999771118164
2015-02-11,25.459999084472656
2015-02-12,25.639999389648438
2015-02-13,25.260000228881836
2015-02-17,25.489999771118164
2015-02-18,25.950000762939453
2015-02-19,26.780000686645508
2015-02-20,26.93000030517578
2015-02-23,28.200000762939453
2015-02-24,28.040000915527344
2015-02-25,28.190000534057617
2015-02-26,27.889999389648438
2015-02-27,28.399999618530273
2015-03-02,28.1299991607666
2015-03-03,27.459999084472656
2015-03-04,27.280000686645508
2015-03-05,27.389999389648438
2015-03-06,27.299999237060547
2015-03-09,27.790000915527344
2015-03-10,27.549999237060547
2015-03-11,28.25
2015-03-12,28.56999969482422
2015-03-13,28.479999542236328
2015-03-16,29.25
2015-03-17,27.850000381469727
2015-03-18,28.520000457763672
2015-03-19,28.209999084472656
2015-03-20,28.139999389648438
2015-03-23,27.860000610351562
2015-03-24,27.8799991607666
2015-03-25,27.549999237060547
2015-03-26,27.25
2015-03-27,27.350000381469727
2015-03-30,27.31999969482422
2015-03-31,27.6200008392334
2015-04-01,28.639999389648438
2015-04-02,27.93000030517578
2015-04-06,28.329999923706055
2015-04-07,31.110000610351562
2015-04-08,31.209999084472656
2015-04-09,31.270000457763672
2015-04-10,31.899999618530273
2015-04-13,32.0
2015-04-14,31.3799991607666
2015-04-15,30.780000686645508
2015-04-16,30.690000534057617
2015-04-17,31.360000610351562
2015-04-20,31.329999923706055
2015-04-21,31.559999465942383
2015-04-22,30.989999771118164
2015-04-23,31.450000762939453
2015-04-24,31.15999984741211
2015-04-27,30.530000686645508
2015-04-28,30.579999923706055
2015-04-29,31.0
2015-04-30,30.68000030517578
2015-05-01,31.459999084472656
2015-05-04,31.59000015258789
2015-05-05,30.889999389648438
2015-05-06,32.29999923706055
2015-05-07,32.20000076293945
2015-05-08,32.79999923706055
2015-05-11,32.2599983215332
2015-05-12,32.5
2015-05-13,33.29999923706055
2015-05-14,33.779998779296875
2015-05-15,34.38999938964844
2015-05-18,34.5
2015-05-19,34.400001525878906
2015-05-20,34.65999984741211
2015-05-21,34.15999984741211
2015-05-22,33.72999954223633
2015-05-26,33.79999923706055
2015-05-27,33.68000030517578
2015-05-28,33.65999984741211
2015-05-29,34.25
2015-06-01,34.79999923706055
2015-06-02,34.31999969482422
2015-06-03,34.900001525878906
2015-06-04,34.5
2015-06-05,34.880001068115234
2015-06-08,34.720001220703125
2015-06-09,35.18000030517578
2015-06-10,35.09000015258789
2015-06-11,34.959999084472656
2015-06-12,35.45000076293945
2015-06-15,35.08000183105469
2015-06-16,35.38999938964844
2015-06-17,35.70000076293945
2015-06-18,35.90999984741211
2015-06-19,36.22999954223633
2015-06-22,36.369998931884766
2015-06-23,35.619998931884766
2015-06-24,34.9900016784668
2015-06-25,35.0
2015-06-26,34.349998474121094
2015-06-29,33.45000076293945
2015-06-30,33.08000183105469
2015-07-01,32.63999938964844
2015-07-02,32.5
2015-07-06,32.7400016784668
2015-07-07,33.52000045776367
2015-07-08,32.16999816894531
2015-07-09,32.25
2015-07-10,32.54999923706055
2015-07-13,33.130001068115234
2015-07-14,33.2599983215332
2015-07-15,33.02000045776367
2015-07-16,32.2400016784668
2015-07-17,31.15999984741211
2015-07-20,30.829999923706055
2015-07-21,31.0
2015-07-22,30.600000381469727
2015-07-23,30.43000030517578
2015-07-24,30.15999984741211
2015-07-27,29.450000762939453
2015-07-28,30.34000015258789
2015-07-29,30.790000915527344
2015-07-30,31.09000015258789
2015-07-31,31.809999465942383
2015-08-03,32.09000015258789
2015-08-04,31.1200008392334
2015-08-05,31.020000457763672
2015-08-06,30.139999389648438
2015-08-07,30.34000015258789
2015-08-10,30.649999618530273
2015-08-11,30.0
2015-08-12,29.969999313354492
2015-08-13,30.110000610351562
2015-08-14,30.3799991607666
2015-08-17,30.68000030517578
2015-08-18,30.75
2015-08-19,30.510000228881836
2015-08-20,29.420000076293945
2015-08-21,28.450000762939453
2015-08-24,27.75
2015-08-25,27.6200008392334
2015-08-26,28.200000762939453
2015-08-27,28.850000381469727
2015-08-28,28.360000610351562
2015-08-31,29.190000534057617
2015-09-01,28.34000015258789
2015-09-02,28.780000686645508
2015-09-03,28.719999313354492
2015-09-04,28.479999542236328
2015-09-08,28.780000686645508
2015-09-09,28.579999923706055
2015-09-10,28.530000686645508
2015-09-11,28.25
2015-09-14,28.030000686645508
2015-09-15,28.0
2015-09-16,28.0
2015-09-17,28.56999969482422
2015-09-18,28.440000534057617
2015-09-21,27.799999237060547
2015-09-22,26.739999771118164
2015-09-23,27.010000228881836
2015-09-24,26.420000076293945
2015-09-25,26.1299991607666
2015-09-28,24.489999771118164
2015-09-29,25.0
2015-09-30,25.34000015258789
2015-10-01,25.68000030517578
2015-10-02,26.049999237060547
2015-10-05,27.1200008392334
2015-10-06,26.950000762939453
2015-10-07,27.440000534057617
2015-10-08,27.399999618530273
2015-10-09,27.079999923706055
2015-10-12,26.950000762939453
2015-10-13,26.65999984741211
2015-10-14,26.8799991607666
2015-10-15,28.610000610351562
2015-10-16,29.260000228881836
2015-10-19,29.280000686645508
2015-10-20,29.270000457763672
2015-10-21,29.200000762939453
2015-10-22,29.540000915527344
2015-10-23,29.729999542236328
2015-10-26,29.760000228881836
2015-10-27,29.549999237060547
2015-10-28,28.770000457763672
2015-10-29,28.170000076293945
2015-10-30,27.6299991607666
2015-11-02,28.100000381469727
2015-11-03,28.600000381469727
2015-11-04,28.770000457763672
2015-11-05,28.610000610351562
2015-11-06,28.649999618530273
2015-11-09,28.510000228881836
2015-11-10,28.229999542236328
2015-11-11,28.100000381469727
2015-11-12,27.579999923706055
2015-11-13,27.950000762939453
2015-11-16,28.969999313354492
2015-11-17,28.440000534057617
2015-11-18,29.260000228881836
2015-11-19,29.5
2015-11-20,28.950000762939453
2015-11-23,29.34000015258789
2015-11-24,29.209999084472656
2015-11-25,29.200000762939453
2015-11-27,29.5
2015-11-30,29.020000457763672
2015-12-01,28.719999313354492
2015-12-02,28.40999984741211
2015-12-03,28.079999923706055
2015-12-04,27.81999969482422
2015-12-07,27.520000457763672
2015-12-08,27.799999237060547
2015-12-09,27.420000076293945
2015-12-10,27.209999084472656
2015-12-11,27.09000015258789
2015-12-14,26.690000534057617
2015-12-15,26.65999984741211
2015-12-16,27.049999237060547
2015-12-17,26.329999923706055
2015-12-18,25.809999465942383
2015-12-21,25.8700008392334
2015-12-22,26.450000762939453
2015-12-23,26.93000030517578
2015-12-24,27.139999389648438
2015-12-28,26.639999389648438
2015-12-29,27.059999465942383
2015-12-30,26.649999618530273
2015-12-31,26.649999618530273
2016-01-04,25.84000015258789
2016-01-05,26.010000228881836
2016-01-06,25.639999389648438
2016-01-07,25.0
2016-01-08,24.93000030517578
2016-01-11,25.1299991607666
2016-01-12,25.700000762939453
2016-01-13,25.059999465942383
2016-01-14,24.81999969482422
2016-01-15,23.75
2016-01-19,22.690000534057617
2016-01-20,23.1299991607666
2016-01-21,23.15999984741211
2016-01-22,23.56999969482422
2016-01-25,23.510000228881836
2016-01-26,24.030000686645508
2016-01-27,23.420000076293945
2016-01-28,23.1299991607666
2016-01-29,23.809999465942383
2016-02-01,24.6200008392334
2016-02-02,23.239999771118164
2016-02-03,23.440000534057617
2016-02-04,23.399999618530273
2016-02-05,22.940000534057617
2016-02-08,21.049999237060547
2016-02-09,21.760000228881836
2016-02-10,23.579999923706055
2016-02-11,23.450000762939453
2016-02-12,23.3799991607666
2016-02-16,24.549999237060547
2016-02-17,25.030000686645508
2016-02-18,24.850000381469727
2016-02-19,24.760000228881836
2016-02-22,25.209999084472656
2016-02-23,24.81999969482422
2016-02-24,24.940000534057617
2016-02-25,25.260000228881836
2016-02-26,25.8700008392334
2016-02-29,25.959999084472656
2016-03-01,26.290000915527344
2016-03-02,26.239999771118164
2016-03-03,26.280000686645508
2016-03-04,26.18000030517578
2016-03-07,27.0
2016-03-08,25.989999771118164
2016-03-09,26.670000076293945
2016-03-10,26.670000076293945
2016-03-11,27.110000610351562
2016-03-14,26.959999084472656
2016-03-15,27.040000915527344
2016-03-16,27.3700008392334
2016-03-17,28.020000457763672
2016-03-18,28.31999969482422
2016-03-21,28.610000610351562
2016-03-22,28.8799991607666
2016-03-23,28.549999237060547
2016-03-24,28.600000381469727
2016-03-28,28.709999084472656
2016-03-29,29.030000686645508
2016-03-30,28.90999984741211
2016-03-31,29.200000762939453
2016-04-01,29.09000015258789
2016-04-04,28.889999389648438
2016-04-05,29.049999237060547
2016-04-06,29.219999313354492
2016-04-07,28.729999542236328
2016-04-08,28.799999237060547
2016-04-11,29.309999465942383
2016-04-12,29.829999923706055
2016-04-13,30.0
2016-04-14,29.760000228881836
2016-04-15,29.700000762939453
2016-04-18,29.770000457763672
2016-04-19,30.329999923706055
2016-04-20,30.1299991607666
2016-04-21,29.530000686645508
2016-04-22,29.84000015258789
2016-04-25,29.690000534057617
2016-04-26,29.950000762939453
2016-04-27,29.729999542236328
2016-04-28,28.8799991607666
2016-04-29,28.469999313354492
2016-05-02,28.979999542236328
2016-05-03,28.459999084472656
2016-05-04,28.309999465942383
2016-05-05,28.219999313354492
2016-05-06,28.229999542236328
2016-05-09,28.299999237060547
2016-05-10,28.329999923706055
2016-05-11,28.209999084472656
2016-05-12,28.059999465942383
2016-05-13,28.030000686645508
2016-05-16,28.68000030517578
2016-05-17,28.0
2016-05-18,27.719999313354492
2016-05-19,27.520000457763672
2016-05-20,27.489999771118164
2016-05-23,27.719999313354492
2016-05-24,28.110000610351562
2016-05-25,27.8700008392334
2016-05-26,27.8700008392334
2016-05-27,28.239999771118164
2016-05-31,28.149999618530273
2016-06-01,27.989999771118164
2016-06-02,27.93000030517578
2016-06-03,27.770000457763672
2016-06-06,28.010000228881836
2016-06-07,28.0
2016-06-08,28.190000534057617
2016-06-09,27.8799991607666
2016-06-10,27.899999618530273
2016-06-13,27.350000381469727
2016-06-14,27.079999923706055
2016-06-15,27.209999084472656
2016-06-16,27.709999084472656
2016-06-17,27.989999771118164
2016-06-20,28.3700008392334
2016-06-21,28.06999969482422
2016-06-22,27.959999084472656
2016-06-23,28.020000457763672
2016-06-24,26.09000015258789
2016-06-27,25.3799991607666
2016-06-28,25.600000381469727
2016-06-29,26.309999465942383
2016-06-30,26.530000686645508
2016-07-01,26.25
2016-07-05,26.049999237060547
2016-07-06,26.190000534057617
2016-07-07,26.68000030517578
2016-07-08,27.170000076293945
2016-07-11,27.1299991607666
2016-07-12,27.489999771118164
2016-07-13,27.760000228881836
2016-07-14,27.84000015258789
2016-07-15,27.889999389648438
2016-07-18,28.010000228881836
2016-07-19,27.729999542236328
2016-07-20,28.239999771118164
2016-07-21,28.270000457763672
2016-07-22,28.34000015258789
2016-07-25,28.56999969482422
2016-07-26,28.739999771118164
2016-07-27,28.969999313354492
2016-07-28,28.299999237060547
2016-07-29,28.549999237060547
2016-08-01,28.520000457763672
2016-08-02,28.030000686645508
2016-08-03,28.18000030517578
2016-08-04,28.040000915527344
2016-08-05,28.34000015258789
2016-08-08,28.270000457763672
2016-08-09,28.190000534057617
2016-08-10,28.270000457763672
2016-08-11,28.260000228881836
2016-08-12,28.0
2016-08-15,28.299999237060547
2016-08-16,27.739999771118164
2016-08-17,27.809999465942383
2016-08-18,28.040000915527344
2016-08-19,27.969999313354492
2016-08-22,28.1200008392334
2016-08-23,28.350000381469727
2016-08-24,28.200000762939453
2016-08-25,28.239999771118164
2016-08-26,28.31999969482422
2016-08-29,28.43000030517578
2016-08-30,28.6200008392334
2016-08-31,28.6200008392334
2016-09-01,28.950000762939453
2016-09-02,28.969999313354492
2016-09-06,28.889999389648438
2016-09-07,28.940000534057617
2016-09-08,28.639999389648438
2016-09-09,28.15999984741211
2016-09-12,27.979999542236328
2016-09-13,27.360000610351562
2016-09-14,27.1299991607666
2016-09-15,27.329999923706055
2016-09-16,27.350000381469727
2016-09-19,27.719999313354492
2016-09-20,27.3799991607666
2016-09-21,27.649999618530273
2016-09-22,28.059999465942383
2016-09-23,28.010000228881836
2016-09-26,27.899999618530273
2016-09-27,28.010000228881836
2016-09-28,28.290000915527344
2016-09-29,27.93000030517578
2016-09-30,28.270000457763672
2016-10-03,28.09000015258789
2016-10-04,28.06999969482422
2016-10-05,28.049999237060547
2016-10-06,28.110000610351562
2016-10-07,26.760000228881836
2016-10-10,26.6299991607666
2016-10-11,26.149999618530273
2016-10-12,26.0
2016-10-13,26.40999984741211
2016-10-14,26.209999084472656
2016-10-17,26.399999618530273
2016-10-18,26.280000686645508
2016-10-19,25.989999771118164
2016-10-20,26.360000610351562
2016-10-21,26.149999618530273
2016-10-24,26.31999969482422
2016-10-25,25.889999389648438
2016-10-26,25.3700008392334
2016-10-27,25.079999923706055
2016-10-28,25.040000915527344
2016-10-31,25.1200008392334
2016-11-01,25.110000610351562
2016-11-02,25.0
2016-11-03,24.540000915527344
2016-11-04,24.530000686645508
2016-11-07,25.049999237060547
2016-11-08,25.079999923706055
2016-11-09,25.639999389648438
2016-11-10,26.059999465942383
2016-11-11,26.190000534057617
2016-11-14,25.850000381469727
2016-11-15,26.209999084472656
2016-11-16,26.149999618530273
2016-11-17,26.40999984741211
2016-11-18,26.139999389648438
2016-11-21,26.270000457763672
2016-11-22,26.40999984741211
2016-11-23,26.40999984741211
2016-11-25,26.559999465942383
2016-11-28,26.3700008392334
2016-11-29,26.510000228881836
2016-11-30,26.420000076293945
2016-12-01,25.84000015258789
2016-12-02,25.040000915527344
2016-12-05,25.6200008392334
2016-12-06,26.520000457763672
2016-12-07,26.770000457763672
2016-12-08,27.200000762939453
2016-12-09,27.1299991607666
2016-12-12,26.469999313354492
2016-12-13,26.31999969482422
2016-12-14,25.889999389648438
2016-12-15,26.280000686645508
2016-12-16,27.100000381469727
2016-12-19,27.40999984741211
2016-12-20,27.25
2016-12-21,27.270000457763672
2016-12-22,27.049999237060547
2016-12-23,27.049999237060547
2016-12-27,27.100000381469727
2016-12-28,27.010000228881836
2016-12-29,27.290000915527344
2016-12-30,27.200000762939453
2017-01-03,27.649999618530273
2017-01-04,27.93000030517578
2017-01-05,27.809999465942383
2017-01-06,27.600000381469727
2017-01-09,27.610000610351562
2017-01-10,27.280000686645508
2017-01-11,27.90999984741211
2017-01-12,28.040000915527344
2017-01-13,28.18000030517578
2017-01-17,28.059999465942383
2017-01-18,28.469999313354492
2017-01-19,28.600000381469727
2017-01-20,28.75
2017-01-23,28.75
2017-01-24,29.1299991607666
2017-01-25,29.31999969482422
2017-01-26,29.219999313354492
2017-01-27,29.229999542236328
2017-01-30,29.149999618530273
2017-01-31,29.0
2017-02-01,29.40999984741211
2017-02-02,29.510000228881836
2017-02-03,29.65999984741211
2017-02-06,29.479999542236328
2017-02-07,29.350000381469727
2017-02-08,29.440000534057617
2017-02-09,29.43000030517578
2017-02-10,29.229999542236328
2017-02-13,29.649999618530273
2017-02-14,29.65999984741211
2017-02-15,29.979999542236328
2017-02-16,29.65999984741211
2017-02-17,29.649999618530273
2017-02-21,29.829999923706055
2017-02-22,29.59000015258789
2017-02-23,29.469999313354492
2017-02-24,29.3799991607666
2017-02-27,29.239999771118164
2017-02-28,29.110000610351562
2017-03-01,29.739999771118164
2017-03-02,29.209999084472656
2017-03-03,29.530000686645508
2017-03-06,29.239999771118164
2017-03-07,29.049999237060547
2017-03-08,29.889999389648438
2017-03-09,30.790000915527344
2017-03-10,31.219999313354492
2017-03-13,31.350000381469727
2017-03-14,31.1299991607666
2017-03-15,31.079999923706055
2017-03-16,32.279998779296875
2017-03-17,32.61000061035156
2017-03-20,32.099998474121094
2017-03-21,31.579999923706055
2017-03-22,31.209999084472656
2017-03-23,31.309999465942383
2017-03-24,30.860000610351562
2017-03-27,31.15999984741211
2017-03-28,31.5
2017-03-29,31.899999618530273
2017-03-30,32.119998931884766
2017-03-31,32.20000076293945
2017-04-03,31.920000076293945
2017-04-04,32.08000183105469
2017-04-05,31.579999923706055
2017-04-06,31.489999771118164
2017-04-07,31.280000686645508
2017-04-10,31.520000457763672
2017-04-11,31.65999984741211
2017-04-12,31.290000915527344
2017-04-13,31.0
2017-04-17,31.329999923706055
2017-04-18,31.510000228881836
2017-04-19,30.989999771118164
2017-04-20,31.68000030517578
2017-04-21,31.3700008392334
2017-04-24,31.920000076293945
2017-04-25,32.20000076293945
2017-04-26,31.829999923706055
2017-04-27,31.989999771118164
2017-04-28,31.3700008392334
2017-05-01,31.6200008392334
2017-05-02,31.190000534057617
2017-05-03,30.920000076293945
2017-05-04,31.059999465942383
2017-05-05,31.209999084472656
2017-05-08,31.09000015258789
2017-05-09,31.299999237060547
2017-05-10,31.520000457763672
2017-05-11,31.420000076293945
2017-05-12,31.18000030517578
2017-05-15,31.290000915527344
2017-05-16,31.6299991607666
2017-05-17,31.15999984741211
2017-05-18,30.93000030517578
2017-05-19,31.299999237060547
2017-05-22,31.40999984741211
2017-05-23,31.43000030517578
2017-05-24,31.209999084472656
2017-05-25,31.530000686645508
2017-05-26,31.739999771118164
2017-05-30,31.5
2017-05-31,31.299999237060547
2017-06-01,32.68000030517578
2017-06-02,33.0
2017-06-05,32.9900016784668
2017-06-06,33.56999969482422
2017-06-07,33.36000061035156
2017-06-08,33.33000183105469
2017-06-09,33.59000015258789
2017-06-12,32.90999984741211
2017-06-13,33.220001220703125
2017-06-14,33.349998474121094
2017-06-15,33.41999816894531
2017-06-16,33.7599983215332
2017-06-19,33.61000061035156
2017-06-20,33.43000030517578
2017-06-21,32.40999984741211
2017-06-22,32.349998474121094
2017-06-23,31.940000534057617
2017-06-26,31.989999771118164
2017-06-27,31.969999313354492
2017-06-28,32.209999084472656
2017-06-29,32.04999923706055
2017-06-30,32.040000915527344
2017-07-03,32.130001068115234
2017-07-05,32.06999969482422
2017-07-06,32.0
2017-07-07,32.560001373291016
2017-07-10,32.43000030517578
2017-07-11,32.709999084472656
2017-07-12,33.119998931884766
2017-07-13,33.09000015258789
2017-07-14,33.400001525878906
2017-07-17,33.36000061035156
2017-07-18,33.209999084472656
2017-07-19,33.540000915527344
2017-07-20,33.0
2017-07-21,32.5
2017-07-24,32.16999816894531
2017-07-25,32.290000915527344
2017-07-26,32.02000045776367
2017-07-27,31.850000381469727
2017-07-28,31.979999542236328
2017-07-31,31.5
2017-08-01,31.729999542236328
2017-08-02,31.760000228881836
2017-08-03,29.25
2017-08-04,28.239999771118164
2017-08-07,28.079999923706055
2017-08-08,28.440000534057617
2017-08-09,28.309999465942383
2017-08-10,28.18000030517578
2017-08-11,28.729999542236328
2017-08-14,29.040000915527344
2017-08-15,28.969999313354492
2017-08-16,29.399999618530273
2017-08-17,29.049999237060547
2017-08-18,29.200000762939453
2017-08-21,29.209999084472656
2017-08-22,29.43000030517578
2017-08-23,29.469999313354492
2017-08-24,29.530000686645508
2017-08-25,29.139999389648438
2017-08-28,29.280000686645508
2017-08-29,29.270000457763672
2017-08-30,29.350000381469727
2017-08-31,29.520000457763672
2017-09-01,29.469999313354492
2017-09-05,29.1299991607666
2017-09-06,29.020000457763672
2017-09-07,28.719999313354492
2017-09-08,28.450000762939453
2017-09-11,28.860000610351562
2017-09-12,29.06999969482422
2017-09-13,28.829999923706055
2017-09-14,29.170000076293945
2017-09-15,29.25
2017-09-18,29.229999542236328
2017-09-19,29.280000686645508
2017-09-20,29.40999984741211
2017-09-21,29.229999542236328
2017-09-22,29.030000686645508
2017-09-25,28.899999618530273
2017-09-26,28.979999542236328
2017-09-27,29.010000228881836
2017-09-28,28.93000030517578
2017-09-29,28.920000076293945
2017-10-02,29.020000457763672
2017-10-03,29.530000686645508
2017-10-04,29.56999969482422
2017-10-05,30.020000457763672
2017-10-06,30.530000686645508
2017-10-09,29.68000030517578
2017-10-10,28.760000228881836
2017-10-11,28.56999969482422
2017-10-12,28.290000915527344
2017-10-13,28.270000457763672
2017-10-16,28.350000381469727
2017-10-17,28.389999389648438
2017-10-18,28.760000228881836
2017-10-19,29.200000762939453
2017-10-20,29.309999465942383
2017-10-23,29.3799991607666
2017-10-24,29.049999237060547
2017-10-25,29.059999465942383
2017-10-26,28.34000015258789
2017-10-27,33.150001525878906
2017-10-30,32.43000030517578
2017-10-31,33.25
2017-11-01,33.41999816894531
2017-11-02,32.77000045776367
2017-11-03,32.84000015258789
2017-11-06,32.79999923706055
2017-11-07,33.060001373291016
2017-11-08,32.79999923706055
2017-11-09,32.08000183105469
2017-11-10,31.979999542236328
2017-11-13,31.920000076293945
2017-11-14,31.790000915527344
2017-11-15,32.349998474121094
2017-11-16,33.18000030517578
2017-11-17,33.31999969482422
2017-11-20,33.540000915527344
2017-11-21,33.869998931884766
2017-11-22,35.5
2017-11-24,36.209999084472656
2017-11-27,35.58000183105469
2017-11-28,36.34000015258789
2017-11-29,37.54999923706055
2017-11-30,31.65999984741211
2017-12-01,31.030000686645508
2017-12-04,32.33000183105469
2017-12-05,32.79999923706055
2017-12-06,32.349998474121094
2017-12-07,32.310001373291016
2017-12-08,32.40999984741211
2017-12-11,32.56999969482422
2017-12-12,32.060001373291016
2017-12-13,31.75
2017-12-14,31.5
2017-12-15,31.0
2017-12-18,31.549999237060547
2017-12-19,31.389999389648438
2017-12-20,31.950000762939453
2017-12-21,31.950000762939453
2017-12-22,31.989999771118164
2017-12-26,32.11000061035156
2017-12-27,32.099998474121094
2017-12-28,32.33000183105469
2017-12-29,32.36000061035156
2018-01-02,32.040000915527344
2018-01-03,32.290000915527344
2018-01-04,32.220001220703125
2018-01-05,32.77000045776367
2018-01-08,32.849998474121094
2018-01-09,32.90999984741211
2018-01-10,32.54999923706055
2018-01-11,32.720001220703125
2018-01-12,32.439998626708984
2018-01-16,31.459999084472656
2018-01-17,31.079999923706055
2018-01-18,31.149999618530273
2018-01-19,31.65999984741211
2018-01-22,31.010000228881836
2018-01-23,30.959999084472656
2018-01-24,31.059999465942383
2018-01-25,31.989999771118164
2018-01-26,31.399999618530273
2018-01-29,31.59000015258789
2018-01-30,31.229999542236328
2018-01-31,31.5
2018-02-01,31.309999465942383
2018-02-02,30.84000015258789
2018-02-05,29.809999465942383
2018-02-06,30.270000457763672
2018-02-07,30.25
2018-02-08,30.0
2018-02-09,30.56999969482422
2018-02-12,30.600000381469727
2018-02-13,31.0
2018-02-14,30.84000015258789
2018-02-15,30.469999313354492
2018-02-16,30.559999465942383
2018-02-20,30.989999771118164
2018-02-21,31.290000915527344
2018-02-22,30.899999618530273
2018-02-23,31.809999465942383
2018-02-26,31.920000076293945
2018-02-27,31.350000381469727
2018-02-28,30.799999237060547
2018-03-01,30.739999771118164
2018-03-02,31.110000610351562
2018-03-05,31.520000457763672
2018-03-06,31.899999618530273
2018-03-07,32.099998474121094
2018-03-08,32.5
2018-03-09,32.81999969482422
2018-03-12,31.93000030517578
2018-03-13,31.510000228881836
2018-03-14,31.15999984741211
2018-03-15,30.549999237060547
2018-03-16,30.989999771118164
2018-03-19,30.540000915527344
2018-03-20,30.81999969482422
2018-03-21,30.5
2018-03-22,30.209999084472656
2018-03-23,30.040000915527344
2018-03-26,30.18000030517578
2018-03-27,30.6200008392334
2018-03-28,30.15999984741211
2018-03-29,30.190000534057617
2018-04-02,30.030000686645508
2018-04-03,30.34000015258789
2018-04-04,30.84000015258789
2018-04-05,31.729999542236328
2018-04-06,32.470001220703125
2018-04-09,32.15999984741211
2018-04-10,32.150001525878906
2018-04-11,32.279998779296875
2018-04-12,32.349998474121094
2018-04-13,32.290000915527344
2018-04-16,32.650001525878906
2018-04-17,32.45000076293945
2018-04-18,32.16999816894531
2018-04-19,31.469999313354492
2018-04-20,30.959999084472656
2018-04-23,30.3700008392334
2018-04-24,29.700000762939453
2018-04-25,30.739999771118164
2018-04-26,30.75
2018-04-27,31.020000457763672
2018-04-30,30.899999618530273
2018-05-01,31.649999618530273
2018-05-02,31.09000015258789
2018-05-03,30.739999771118164
2018-05-04,31.520000457763672
2018-05-07,31.6299991607666
2018-05-08,31.670000076293945
2018-05-09,32.08000183105469
2018-05-10,31.709999084472656
2018-05-11,31.559999465942383
2018-05-14,31.290000915527344
2018-05-15,31.299999237060547
2018-05-16,31.950000762939453
2018-05-17,32.209999084472656
2018-05-18,32.209999084472656
2018-05-21,32.29999923706055
2018-05-22,32.099998474121094
2018-05-23,32.0
2018-05-24,31.799999237060547
2018-05-25,32.38999938964844
2018-05-29,31.6299991607666
2018-05-30,31.190000534057617
2018-05-31,31.110000610351562
2018-06-01,31.479999542236328
2018-06-04,31.25
2018-06-05,31.40999984741211
2018-06-06,31.829999923706055
2018-06-07,31.790000915527344
2018-06-08,31.850000381469727
2018-06-11,31.639999389648438
2018-06-12,31.530000686645508
2018-06-13,31.170000076293945
2018-06-14,31.200000762939453
2018-06-15,31.0
2018-06-18,30.479999542236328
2018-06-19,30.510000228881836
2018-06-20,30.479999542236328
2018-06-21,30.440000534057617
2018-06-22,30.420000076293945
2018-06-25,30.149999618530273
2018-06-26,30.5
2018-06-27,30.170000076293945
2018-06-28,30.440000534057617
2018-06-29,30.309999465942383
2018-07-02,30.219999313354492
2018-07-03,30.06999969482422
2018-07-05,30.350000381469727
2018-07-06,30.68000030517578
2018-07-09,30.3799991607666
2018-07-10,30.459999084472656
2018-07-11,29.989999771118164
2018-07-12,30.030000686645508
2018-07-13,30.09000015258789
2018-07-16,29.65999984741211
2018-07-17,30.030000686645508
2018-07-18,30.31999969482422
2018-07-19,30.299999237060547
2018-07-20,30.270000457763672
2018-07-23,30.010000228881836
2018-07-24,29.860000610351562
2018-07-25,29.850000381469727
2018-07-26,30.360000610351562
2018-07-27,30.229999542236328
2018-07-30,30.18000030517578
2018-07-31,30.25
2018-08-01,30.190000534057617
2018-08-02,30.170000076293945
2018-08-03,30.350000381469727
2018-08-06,30.389999389648438
2018-08-07,30.3700008392334
2018-08-08,30.25
2018-08-09,30.200000762939453
2018-08-10,30.030000686645508
2018-08-13,29.889999389648438
2018-08-14,30.25
2018-08-15,29.979999542236328
2018-08-16,29.940000534057617
2018-08-17,30.030000686645508
2018-08-20,30.200000762939453
2018-08-21,30.139999389648438
2018-08-22,29.739999771118164
2018-08-23,29.850000381469727
2018-08-24,30.049999237060547
2018-08-27,30.190000534057617
2018-08-28,30.149999618530273
2018-08-29,30.850000381469727
2018-08-30,30.59000015258789
2018-08-31,30.5
2018-09-04,29.90999984741211
2018-09-05,30.0
2018-09-06,29.549999237060547
2018-09-07,29.399999618530273
2018-09-10,29.139999389648438
2018-09-11,29.309999465942383
2018-09-12,29.15999984741211
2018-09-13,29.229999542236328
2018-09-14,29.229999542236328
2018-09-17,29.329999923706055
2018-09-18,29.270000457763672
2018-09-19,29.920000076293945
2018-09-20,30.350000381469727
2018-09-21,30.700000762939453
2018-09-24,30.0
2018-09-25,29.670000076293945
2018-09-26,29.290000915527344
2018-09-27,29.239999771118164
2018-09-28,29.15999984741211
2018-10-01,29.25
2018-10-02,29.149999618530273
2018-10-03,28.84000015258789
2018-10-04,28.1200008392334
2018-10-05,28.09000015258789
2018-10-08,28.600000381469727
2018-10-09,26.579999923706055
2018-10-10,26.760000228881836
2018-10-11,25.860000610351562
2018-10-12,25.56999969482422
2018-10-15,25.770000457763672
2018-10-16,26.329999923706055
2018-10-17,25.75
2018-10-18,25.600000381469727
2018-10-19,25.5
2018-10-22,25.200000762939453
2018-10-23,25.0
2018-10-24,24.149999618530273
2018-10-25,24.860000610351562
2018-10-26,24.25
2018-10-29,23.989999771118164
2018-10-30,24.600000381469727
2018-10-31,24.68000030517578
2018-11-01,25.459999084472656
2018-11-02,25.280000686645508
2018-11-05,25.399999618530273
2018-11-06,25.360000610351562
2018-11-07,25.920000076293945
2018-11-08,25.729999542236328
2018-11-09,25.34000015258789
2018-11-12,24.920000076293945
2018-11-13,24.920000076293945
2018-11-14,25.010000228881836
2018-11-15,24.979999542236328
2018-11-16,24.59000015258789
2018-11-19,24.389999389648438
2018-11-20,24.549999237060547
2018-11-21,24.799999237060547
2018-11-23,24.719999313354492
2018-11-26,24.639999389648438
2018-11-27,24.469999313354492
2018-11-28,24.780000686645508
2018-11-29,24.639999389648438
2018-11-30,25.030000686645508
2018-12-03,25.700000762939453
2018-12-04,24.489999771118164
2018-12-06,24.610000610351562
2018-12-07,23.790000915527344
2018-12-10,23.25
2018-12-11,22.59000015258789
2018-12-12,22.799999237060547
2018-12-13,22.639999389648438
2018-12-14,22.229999542236328
2018-12-17,21.780000686645508
2018-12-18,21.920000076293945
2018-12-19,22.799999237060547
2018-12-20,22.549999237060547
2018-12-21,22.350000381469727
2018-12-24,22.06999969482422
2018-12-26,22.790000915527344
2018-12-27,22.950000762939453
2018-12-28,22.8700008392334
2018-12-31,23.420000076293945
2019-01-02,23.6200008392334
2019-01-03,22.93000030517578
2019-01-04,23.809999465942383
2019-01-07,23.920000076293945
2019-01-08,24.579999923706055
2019-01-09,24.979999542236328
2019-01-10,25.020000457763672
2019-01-11,24.959999084472656
2019-01-14,24.790000915527344
2019-01-15,24.209999084472656
2019-01-16,24.8700008392334
2019-01-17,25.209999084472656
2019-01-18,25.56999969482422
2019-01-22,25.239999771118164
2019-01-23,24.979999542236328
2019-01-24,25.3799991607666
2019-01-25,25.549999237060547
2019-01-28,25.600000381469727
2019-01-29,25.540000915527344
2019-01-30,25.65999984741211
2019-01-31,25.6200008392334
2019-02-01,25.84000015258789
2019-02-04,25.799999237060547
2019-02-05,26.260000228881836
2019-02-06,26.239999771118164
2019-02-07,25.899999618530273
2019-02-08,26.040000915527344
2019-02-11,26.420000076293945
2019-02-12,27.040000915527344
2019-02-13,26.799999237060547
2019-02-14,26.469999313354492
2019-02-15,26.68000030517578
2019-02-19,26.760000228881836
2019-02-20,26.920000076293945
2019-02-21,26.989999771118164
2019-02-22,27.049999237060547
2019-02-25,27.010000228881836
2019-02-26,26.8799991607666
2019-02-27,27.1200008392334
2019-02-28,26.729999542236328
2019-03-01,26.979999542236328
2019-03-04,26.93000030517578
2019-03-05,26.479999542236328
2019-03-06,26.440000534057617
2019-03-07,25.8700008392334
2019-03-08,25.93000030517578
2019-03-11,26.389999389648438
2019-03-12,26.25
2019-03-13,26.479999542236328
2019-03-14,26.09000015258789
2019-03-15,25.959999084472656
2019-03-18,26.110000610351562
2019-03-19,25.790000915527344
2019-03-20,25.6200008392334
2019-03-21,25.84000015258789
2019-03-22,24.8799991607666
2019-03-25,24.799999237060547
2019-03-26,25.09000015258789
2019-03-27,25.190000534057617
2019-03-28,25.149999618530273
2019-03-29,25.209999084472656
2019-04-01,25.700000762939453
2019-04-02,25.809999465942383
2019-04-03,25.93000030517578
2019-04-04,26.110000610351562
2019-04-05,26.68000030517578
2019-04-08,27.100000381469727
2019-04-09,26.799999237060547
2019-04-10,26.899999618530273
2019-04-11,26.989999771118164
2019-04-12,27.1299991607666
2019-04-15,27.520000457763672
2019-04-16,27.5
2019-04-17,27.510000228881836
2019-04-18,28.010000228881836
2019-04-22,27.610000610351562
2019-04-23,27.670000076293945
2019-04-24,26.5
2019-04-25,26.75
2019-04-26,27.149999618530273
2019-04-29,27.149999618530273
2019-04-30,26.979999542236328
2019-05-01,26.639999389648438
2019-05-02,26.450000762939453
2019-05-03,26.889999389648438
2019-05-06,26.709999084472656
2019-05-07,26.040000915527344
2019-05-08,25.920000076293945
2019-05-09,25.979999542236328
2019-05-10,25.950000762939453
2019-05-13,25.399999618530273
2019-05-14,25.440000534057617
2019-05-15,25.520000457763672
2019-05-16,25.6200008392334
2019-05-17,25.670000076293945
2019-05-20,24.75
2019-05-21,25.079999923706055
2019-05-22,24.979999542236328
2019-05-23,24.6200008392334
2019-05-24,24.479999542236328
2019-05-28,24.3700008392334
2019-05-29,24.190000534057617
2019-05-30,24.149999618530273
2019-05-31,23.510000228881836
2019-06-03,24.15999984741211
2019-06-04,25.360000610351562
2019-06-05,25.459999084472656
2019-06-06,25.5
2019-06-07,25.40999984741211
2019-06-10,25.389999389648438
2019-06-11,25.690000534057617
2019-06-12,25.68000030517578
2019-06-13,26.18000030517578
2019-06-14,26.079999923706055
2019-06-17,25.799999237060547
2019-06-18,25.81999969482422
2019-06-19,29.329999923706055
2019-06-20,29.790000915527344
2019-06-21,29.989999771118164
2019-06-24,30.15999984741211
2019-06-25,30.639999389648438
2019-06-26,29.90999984741211
2019-06-27,29.940000534057617
2019-06-28,29.770000457763672
2019-07-01,30.350000381469727
2019-07-02,30.299999237060547
2019-07-03,30.43000030517578
2019-07-05,30.290000915527344
2019-07-08,30.049999237060547
2019-07-09,29.809999465942383
2019-07-10,29.399999618530273
2019-07-11,29.3799991607666
2019-07-12,29.559999465942383
2019-07-15,29.520000457763672
2019-07-16,30.670000076293945
2019-07-17,30.219999313354492
2019-07-18,30.399999618530273
2019-07-19,30.149999618530273
2019-07-22,29.639999389648438
2019-07-23,30.360000610351562
2019-07-24,30.190000534057617
2019-07-25,30.729999542236328
2019-07-26,30.8700008392334
2019-07-29,30.290000915527344
2019-07-30,30.309999465942383
2019-07-31,29.6299991607666
2019-08-01,28.84000015258789
2019-08-02,28.649999618530273
2019-08-05,28.219999313354492
2019-08-06,28.280000686645508
2019-08-07,28.520000457763672
2019-08-08,29.09000015258789
2019-08-09,28.469999313354492
2019-08-12,27.950000762939453
2019-08-13,28.100000381469727
2019-08-14,27.549999237060547
2019-08-15,27.520000457763672
2019-08-16,27.729999542236328
2019-08-19,27.790000915527344
2019-08-20,27.670000076293945
2019-08-21,27.639999389648438
2019-08-22,27.5
2019-08-23,26.75
2019-08-26,27.079999923706055
2019-08-27,26.920000076293945
2019-08-28,28.579999923706055
2019-08-29,28.920000076293945
2019-08-30,28.8799991607666
2019-09-03,28.739999771118164
2019-09-04,29.010000228881836
2019-09-05,29.639999389648438
2019-09-06,30.3799991607666
2019-09-09,30.670000076293945
2019-09-10,30.56999969482422
2019-09-11,30.290000915527344
2019-09-12,30.530000686645508
2019-09-13,31.389999389648438
2019-09-16,31.309999465942383
2019-09-17,31.729999542236328
2019-09-18,31.469999313354492
2019-09-19,31.1200008392334
2019-09-20,30.440000534057617
2019-09-23,30.440000534057617
2019-09-24,30.25
2019-09-25,30.600000381469727
2019-09-26,30.209999084472656
2019-09-27,30.219999313354492
2019-09-30,30.149999618530273
2019-10-01,29.729999542236328
2019-10-02,29.719999313354492
2019-10-03,29.790000915527344
2019-10-04,30.0
2019-10-07,29.84000015258789
2019-10-08,28.31999969482422
2019-10-09,28.700000762939453
2019-10-10,28.81999969482422
2019-10-11,29.040000915527344
2019-10-14,28.969999313354492
2019-10-15,28.799999237060547
2019-10-16,28.719999313354492
2019-10-17,28.799999237060547
2019-10-18,28.790000915527344
2019-10-21,28.649999618530273
2019-10-22,28.899999618530273
2019-10-23,28.530000686645508
2019-10-24,28.809999465942383
2019-10-25,29.389999389648438
2019-10-28,29.770000457763672
2019-10-29,29.6299991607666
2019-10-30,29.59000015258789
2019-10-31,29.489999771118164
2019-11-01,29.700000762939453
2019-11-04,29.65999984741211
2019-11-05,29.809999465942383
2019-11-06,29.899999618530273
2019-11-07,29.950000762939453
2019-11-08,30.229999542236328
2019-11-11,30.049999237060547
2019-11-12,30.06999969482422
2019-11-13,29.649999618530273
2019-11-14,29.290000915527344
2019-11-15,29.34000015258789
2019-11-18,29.0
2019-11-19,29.200000762939453
2019-11-20,28.860000610351562
2019-11-21,28.18000030517578
2019-11-22,28.0
2019-11-25,28.31999969482422
2019-11-26,28.510000228881836
2019-11-27,28.670000076293945
2019-11-29,28.469999313354492
2019-12-02,28.420000076293945
2019-12-03,29.600000381469727
2019-12-04,29.56999969482422
2019-12-05,30.049999237060547
2019-12-06,30.34000015258789
2019-12-09,30.219999313354492
2019-12-10,29.649999618530273
2019-12-11,29.790000915527344
2019-12-12,29.940000534057617
2019-12-13,30.239999771118164
2019-12-16,30.360000610351562
2019-12-17,30.450000762939453
2019-12-18,30.459999084472656
2019-12-19,30.200000762939453
2019-12-20,30.010000228881836
2019-12-23,30.260000228881836
2019-12-24,30.31999969482422
2019-12-26,30.139999389648438
2019-12-27,30.270000457763672
2019-12-30,30.360000610351562
2019-12-31,30.399999618530273
