Date,BCE
2007-12-31,20.73106575012207
2008-01-02,20.720640182495117
2008-01-03,20.63195037841797
2008-01-04,20.32416534423828
2008-01-07,20.230268478393555
2008-01-08,19.912046432495117
2008-01-09,19.818153381347656
2008-01-10,19.948564529418945
2008-01-11,19.83380889892578
2008-01-14,19.73468780517578
2008-01-15,19.515583038330078
2008-01-16,18.847850799560547
2008-01-17,18.49311637878418
2008-01-18,18.487897872924805
2008-01-22,17.773216247558594
2008-01-23,18.007966995239258
2008-01-24,19.134769439697266
2008-01-25,18.795684814453125
2008-01-28,18.180112838745117
2008-01-29,17.97144889831543
2008-01-30,17.861900329589844
2008-01-31,18.174896240234375
2008-02-01,18.900020599365234
2008-02-04,18.727867126464844
2008-02-05,17.934934616088867
2008-02-06,18.028833389282227
2008-02-07,17.903636932373047
2008-02-08,18.618314743041992
2008-02-11,18.571367263793945
2008-02-12,18.7017822265625
2008-02-13,18.999128341674805
2008-02-14,18.680919647216797
2008-02-15,18.2688045501709
2008-02-19,18.33139991760254
2008-02-20,18.37834930419922
2008-02-21,18.383567810058594
2008-02-22,18.613100051879883
2008-02-25,19.108694076538086
2008-02-26,19.64600372314453
2008-02-27,19.520801544189453
2008-02-28,19.48428726196289
2008-02-29,18.88437843322754
2008-03-03,18.7017822265625
2008-03-04,18.790468215942383
2008-03-05,19.385164260864258
2008-03-06,19.061742782592773
2008-03-07,18.816547393798828
2008-03-10,19.828584671020508
2008-03-11,20.32416534423828
2008-03-12,20.383676528930664
2008-03-13,20.257295608520508
2008-03-14,19.814971923828125
2008-03-17,19.18308448791504
2008-03-18,19.983478546142578
2008-03-19,18.724964141845703
2008-03-20,19.004045486450195
2008-03-24,19.241010665893555
2008-03-25,18.988250732421875
2008-03-26,18.445878982543945
2008-03-27,19.098833084106445
2008-03-28,18.098342895507812
2008-03-31,17.761333465576172
2008-04-01,18.061479568481445
2008-04-02,18.12993812561035
2008-04-03,18.52486801147461
2008-04-04,18.767087936401367
2008-04-07,18.71442985534668
2008-04-08,18.69337272644043
2008-04-09,18.940860748291016
2008-04-10,19.21994400024414
2008-04-11,18.914533615112305
2008-04-14,18.86713981628418
2008-04-15,19.098833084106445
2008-04-16,19.39371681213379
2008-04-17,19.298931121826172
2008-04-18,19.867637634277344
2008-04-21,19.888690948486328
2008-04-22,20.009803771972656
2008-04-23,19.509557723999023
2008-04-24,19.441097259521484
2008-04-25,19.35158920288086
2008-04-28,19.08830451965332
2008-04-29,18.83027458190918
2008-04-30,19.20941734313965
2008-05-01,19.03564453125
2008-05-02,19.272598266601562
2008-05-05,19.135692596435547
2008-05-06,19.193614959716797
2008-05-07,19.262067794799805
2008-05-08,19.40424346923828
2008-05-09,19.467435836791992
2008-05-12,19.93608856201172
2008-05-13,20.541641235351562
2008-05-14,20.441600799560547
2008-05-15,20.546913146972656
2008-05-16,20.43632698059082
2008-05-19,19.28313446044922
2008-05-20,19.878162384033203
2008-05-21,19.920299530029297
2008-05-22,17.429595947265625
2008-05-23,17.903507232666016
2008-05-27,18.519596099853516
2008-05-28,18.366893768310547
2008-05-29,18.677570343017578
2008-05-30,18.503799438476562
2008-06-02,18.182592391967773
2008-06-03,18.11940574645996
2008-06-04,17.929838180541992
2008-06-05,17.929838180541992
2008-06-06,17.908775329589844
2008-06-09,17.756071090698242
2008-06-10,17.740276336669922
2008-06-11,17.898237228393555
2008-06-12,17.392736434936523
2008-06-13,17.224227905273438
2008-06-16,17.245290756225586
2008-06-17,18.1141414642334
2008-06-18,18.04041862487793
2008-06-19,17.85085105895996
2008-06-20,17.956165313720703
2008-06-23,18.977720260620117
2008-06-24,19.34632682800293
2008-06-25,19.54115104675293
2008-06-26,19.28313446044922
2008-06-27,19.15675926208496
2008-06-30,18.330034255981445
2008-07-01,18.409015655517578
2008-07-02,18.545930862426758
2008-07-03,18.298444747924805
2008-07-07,20.352075576782227
2008-07-08,20.33628273010254
2008-07-09,20.367876052856445
2008-07-10,20.257295608520508
2008-07-11,20.441600799560547
2008-07-14,20.39420509338379
2008-07-15,20.157241821289062
2008-07-16,20.2309627532959
2008-07-17,20.415267944335938
2008-07-18,20.215167999267578
2008-07-21,20.341548919677734
2008-07-22,20.257295608520508
2008-07-23,20.288881301879883
2008-07-24,20.162513732910156
2008-07-25,20.06245994567871
2008-07-28,20.041404724121094
2008-07-29,20.009803771972656
2008-07-30,20.09406280517578
2008-07-31,19.978212356567383
2008-08-01,20.004535675048828
2008-08-04,19.76758575439453
2008-08-05,19.79916763305664
2008-08-06,19.915019989013672
2008-08-07,19.941347122192383
2008-08-08,19.73598289489746
2008-08-11,19.77811050415039
2008-08-12,19.915019989013672
2008-08-13,19.79916763305664
2008-08-14,19.74125099182129
2008-08-15,19.88343048095703
2008-08-18,19.904489517211914
2008-08-19,19.836034774780273
2008-08-20,19.836034774780273
2008-08-21,20.109853744506836
2008-08-22,20.01506805419922
2008-08-25,19.972946166992188
2008-08-26,20.041404724121094
2008-08-27,20.120380401611328
2008-08-28,20.12565040588379
2008-08-29,19.920299530029297
2008-09-02,19.82023811340332
2008-09-03,19.915019989013672
2008-09-04,19.614877700805664
2008-09-05,19.7307186126709
2008-09-08,19.693862915039062
2008-09-09,19.37265396118164
2008-09-10,19.262067794799805
2008-09-11,19.11989402770996
2008-09-12,19.693862915039062
2008-09-15,18.724964141845703
2008-09-16,18.208921432495117
2008-09-17,16.734514236450195
2008-09-18,17.30847930908203
2008-09-19,18.846084594726562
2008-09-22,18.461681365966797
2008-09-23,18.698637008666992
2008-09-24,18.94612693786621
2008-09-25,18.814481735229492
2008-09-26,18.97245216369629
2008-09-29,17.492782592773438
2008-09-30,18.277381896972656
2008-10-01,17.861377716064453
2008-10-02,16.982006072998047
2008-10-03,17.008338928222656
2008-10-06,16.323781967163086
2008-10-07,15.797212600708008
2008-10-08,15.686635971069336
2008-10-09,15.760356903076172
2008-10-10,14.638751983642578
2008-10-13,15.655035972595215
2008-10-14,15.407546043395996
2008-10-15,14.212226867675781
2008-10-16,14.401796340942383
2008-10-17,15.439143180847168
2008-10-20,15.565526008605957
2008-10-21,15.602380752563477
2008-10-22,14.991557121276855
2008-10-23,14.680877685546875
2008-10-24,14.459716796875
2008-10-27,13.980534553527832
2008-10-28,14.354395866394043
2008-10-29,14.744071006774902
2008-10-30,15.554991722106934
2008-10-31,15.275906562805176
2008-11-03,15.734024047851562
2008-11-04,16.323781967163086
2008-11-05,15.97098445892334
2008-11-06,16.155284881591797
2008-11-07,16.660795211791992
2008-11-10,16.692394256591797
2008-11-11,16.56075668334961
2008-11-12,15.902524948120117
2008-11-13,16.260595321655273
2008-11-14,15.913064956665039
2008-11-17,16.065771102905273
2008-11-18,16.413307189941406
2008-11-19,15.30749797821045
2008-11-20,14.507104873657227
2008-11-21,14.191162109375
2008-11-24,16.18161392211914
2008-11-25,16.471227645874023
2008-11-26,10.8632173538208
2008-11-28,10.420899391174316
2008-12-01,9.731084823608398
2008-12-02,9.351953506469727
2008-12-03,9.230840682983398
2008-12-04,9.441471099853516
2008-12-05,9.378279685974121
2008-12-08,10.347173690795898
2008-12-09,9.378279685974121
2008-12-10,9.631033897399902
2008-12-11,9.430935859680176
2008-12-12,8.983349800109863
2008-12-15,9.141324043273926
2008-12-16,9.351953506469727
2008-12-17,9.652092933654785
2008-12-18,9.904852867126465
2008-12-19,9.902715682983398
2008-12-22,9.806412696838379
2008-12-23,10.041813850402832
2008-12-24,10.27720832824707
2008-12-26,10.2290620803833
2008-12-29,10.1648588180542
2008-12-30,10.58215618133545
2008-12-31,10.96199893951416
2009-01-02,10.999446868896484
2009-01-05,10.887099266052246
2009-01-06,10.89780044555664
2009-01-07,10.865700721740723
2009-01-08,11.202742576599121
2009-01-09,10.929901123046875
2009-01-12,10.812199592590332
2009-01-13,10.812199592590332
2009-01-14,10.437707901000977
2009-01-15,10.357460975646973
2009-01-16,10.630303382873535
2009-01-20,10.560755729675293
2009-01-21,10.699851036071777
2009-01-22,10.619603157043457
2009-01-23,10.849653244018555
2009-01-26,11.031550407409668
2009-01-27,11.111799240112305
2009-01-28,11.256250381469727
2009-01-29,11.004802703857422
2009-01-30,10.945945739746094
2009-02-02,10.646347999572754
2009-02-03,10.8443021774292
2009-02-04,10.796152114868164
2009-02-05,10.753355026245117
2009-02-06,10.876399040222168
2009-02-09,11.03689956665039
2009-02-10,10.753355026245117
2009-02-11,10.999446868896484
2009-02-12,11.165297508239746
2009-02-13,11.320444107055664
2009-02-17,10.887099266052246
2009-02-18,10.699851036071777
2009-02-19,10.764052391052246
2009-02-20,10.737299919128418
2009-02-23,10.491209030151367
2009-02-24,10.838951110839844
2009-02-25,10.715902328491211
2009-02-26,10.667755126953125
2009-02-27,10.469806671142578
2009-03-02,9.988313674926758
2009-03-03,9.902715682983398
2009-03-04,10.373505592346191
2009-03-05,10.004361152648926
2009-03-06,10.036462783813477
2009-03-09,9.934813499450684
2009-03-10,10.368156433105469
2009-03-11,10.357460975646973
2009-03-12,10.335169792175293
2009-03-13,10.563509941101074
2009-03-16,10.666807174682617
2009-03-17,10.770100593566895
2009-03-18,10.623312950134277
2009-03-19,10.5961275100708
2009-03-20,10.530884742736816
2009-03-23,10.373224258422852
2009-03-24,10.558070182800293
2009-03-25,10.862525939941406
2009-03-26,11.036499977111816
2009-03-27,11.04737663269043
2009-03-30,10.835345268249512
2009-03-31,10.819029808044434
2009-04-01,11.253969192504883
2009-04-02,11.69977855682373
2009-04-03,11.406200408935547
2009-04-06,11.55298900604248
2009-04-07,11.232223510742188
2009-04-08,11.330081939697266
2009-04-09,11.362701416015625
2009-04-13,11.471437454223633
2009-04-14,11.487749099731445
2009-04-15,11.852005958557129
2009-04-16,11.775891304016113
2009-04-17,11.667156219482422
2009-04-20,11.123490333557129
2009-04-21,11.259407043457031
2009-04-22,11.514934539794922
2009-04-23,11.710655212402344
2009-04-24,11.93355941772461
2009-04-27,11.629103660583496
2009-04-28,11.661726951599121
2009-04-29,11.73239803314209
2009-04-30,11.634540557861328
2009-05-01,11.824819564819336
2009-05-04,12.16189956665039
2009-05-05,11.982486724853516
2009-05-06,12.085783958435059
2009-05-07,11.58560848236084
2009-05-08,11.678033828735352
2009-05-11,11.39532470703125
2009-05-12,11.389891624450684
2009-05-13,11.036499977111816
2009-05-14,11.24853515625
2009-05-15,11.058249473571777
2009-05-18,11.351826667785645
2009-05-19,11.259407043457031
2009-05-20,11.379013061523438
2009-05-21,11.43881607055664
2009-05-22,11.601916313171387
2009-05-26,12.134716987609863
2009-05-27,11.982486724853516
2009-05-28,12.167336463928223
2009-05-29,12.450043678283691
2009-06-01,12.40110969543457
2009-06-02,12.531593322753906
2009-06-03,12.194519996643066
2009-06-04,12.34130573272705
2009-06-05,12.091222763061523
2009-06-08,12.19995403289795
2009-06-09,12.314126968383789
2009-06-10,12.270630836486816
2009-06-11,12.231980323791504
2009-06-12,11.922722816467285
2009-06-15,11.674220085144043
2009-06-16,11.663172721862793
2009-06-17,11.6576566696167
2009-06-18,11.602429389953613
2009-06-19,11.51407527923584
2009-06-22,11.28765869140625
2009-06-23,11.387060165405273
2009-06-24,11.53063678741455
2009-06-25,11.53063678741455
2009-06-26,11.491986274719238
2009-06-29,11.497506141662598
2009-06-30,11.409149169921875
2009-07-01,11.596907615661621
2009-07-02,11.39810562133789
2009-07-06,11.370491981506348
2009-07-07,11.177210807800293
2009-07-08,11.094377517700195
2009-07-09,11.271089553833008
2009-07-10,11.392582893371582
2009-07-13,11.53063678741455
2009-07-14,11.762575149536133
2009-07-15,11.955855369567871
2009-07-16,12.116007804870605
2009-07-17,11.983474731445312
2009-07-20,12.01660442352295
2009-07-21,12.104963302612305
2009-07-22,12.060782432556152
2009-07-23,12.447348594665527
2009-07-24,12.546749114990234
2009-07-27,12.568840980529785
2009-07-28,12.513619422912598
2009-07-29,12.447348594665527
2009-07-30,12.640628814697266
2009-07-31,12.723465919494629
2009-08-03,12.850476264953613
2009-08-04,12.646151542663574
2009-08-05,12.751075744628906
2009-08-06,12.795251846313477
2009-08-07,12.99958324432373
2009-08-10,12.922266006469727
2009-08-11,12.59644603729248
2009-08-12,12.966449737548828
2009-08-13,13.308833122253418
2009-08-14,13.220473289489746
2009-08-17,12.94987964630127
2009-08-18,13.121073722839355
2009-08-19,13.242566108703613
2009-08-20,13.308833122253418
2009-08-21,13.480023384094238
2009-08-24,13.673308372497559
2009-08-25,13.662261009216309
2009-08-26,13.408233642578125
2009-08-27,13.402715682983398
2009-08-28,13.612560272216797
2009-08-31,13.568382263183594
2009-09-01,13.457934379577637
2009-09-02,13.353010177612305
2009-09-03,13.441368103027344
2009-09-04,13.756141662597656
2009-09-08,13.932857513427734
2009-09-09,13.816889762878418
2009-09-10,13.98807430267334
2009-09-11,13.939316749572754
2009-09-14,13.872058868408203
2009-09-15,13.88326644897461
2009-09-16,14.085041046142578
2009-09-17,14.10185718536377
2009-09-18,14.017786026000977
2009-09-21,13.709514617919922
2009-09-22,13.888874053955078
2009-09-23,13.71512222290039
2009-09-24,13.518949508666992
2009-09-25,13.40685749053955
2009-09-28,13.468506813049316
2009-09-29,13.619843482971191
2009-09-30,13.827219009399414
2009-10-01,13.5021333694458
2009-10-02,13.485321998596191
2009-10-05,13.737539291381836
2009-10-06,13.939316749572754
2009-10-07,13.956131935119629
2009-10-08,14.017786026000977
2009-10-09,13.961737632751465
2009-10-12,13.894474983215332
2009-10-13,13.984163284301758
2009-10-14,13.84963607788086
2009-10-15,13.804800033569336
2009-10-16,13.748751640319824
2009-10-19,13.97294807434082
2009-10-20,13.821613311767578
2009-10-21,13.703911781311035
2009-10-22,13.659073829650879
2009-10-23,13.569395065307617
2009-10-26,13.333992004394531
2009-10-27,13.485321998596191
2009-10-28,13.26113224029541
2009-10-29,13.451692581176758
2009-10-30,13.440485954284668
2009-11-02,13.37883186340332
2009-11-03,13.737539291381836
2009-11-04,13.60862922668457
2009-11-05,13.916897773742676
2009-11-06,13.88326644897461
2009-11-09,14.270000457763672
2009-11-10,14.454965591430664
2009-11-11,14.505409240722656
2009-11-12,14.415733337402344
2009-11-13,14.471776962280273
2009-11-16,14.555855751037598
2009-11-17,14.522224426269531
2009-11-18,14.695974349975586
2009-11-19,14.533431053161621
2009-11-20,14.421335220336914
2009-11-23,14.712785720825195
2009-11-24,14.701582908630371
2009-11-25,14.903358459472656
2009-11-27,14.623109817504883
2009-11-30,14.852914810180664
2009-12-01,15.133158683776855
2009-12-02,15.10512924194336
2009-12-03,14.897751808166504
2009-12-04,14.869729995727539
2009-12-07,15.032273292541504
2009-12-08,14.936988830566406
2009-12-09,15.138754844665527
2009-12-10,15.161179542541504
2009-12-11,14.6755952835083
2009-12-14,14.232088088989258
2009-12-15,14.12973690032959
2009-12-16,14.12973690032959
2009-12-17,14.539131164550781
2009-12-18,14.755202293395996
2009-12-21,15.067933082580566
2009-12-22,15.096356391906738
2009-12-23,15.357912063598633
2009-12-24,15.357912063598633
2009-12-28,15.329485893249512
2009-12-29,15.44888973236084
2009-12-30,15.488696098327637
2009-12-31,15.699081420898438
2010-01-04,15.841222763061523
2010-01-05,15.721818923950195
2010-01-06,15.738880157470703
2010-01-07,15.289690017700195
2010-01-08,15.363602638244629
2010-01-11,15.227136611938477
2010-01-12,15.437515258789062
2010-01-13,15.556927680969238
2010-01-14,15.545552253723145
2010-01-15,15.374979019165039
2010-01-19,15.340858459472656
2010-01-20,15.170282363891602
2010-01-21,14.920090675354004
2010-01-22,14.74951457977295
2010-01-25,14.857548713684082
2010-01-26,14.726768493652344
2010-01-27,14.795002937316895
2010-01-28,14.823424339294434
2010-01-29,14.641472816467285
2010-02-01,14.664222717285156
2010-02-02,14.903036117553711
2010-02-03,14.806370735168457
2010-02-04,15.005382537841797
2010-02-05,15.232826232910156
2010-02-08,14.925774574279785
2010-02-09,15.19301986694336
2010-02-10,15.420464515686035
2010-02-11,15.761619567871094
2010-02-12,15.755936622619629
2010-02-16,15.778682708740234
2010-02-17,15.772991180419922
2010-02-18,15.960631370544434
2010-02-19,15.960631370544434
2010-02-22,15.932201385498047
2010-02-23,15.750251770019531
2010-02-24,15.72750473022461
2010-02-25,15.721818923950195
2010-02-26,15.784367561340332
2010-03-01,16.35296630859375
2010-03-02,16.495119094848633
2010-03-03,16.625896453857422
2010-03-04,16.50649070739746
2010-03-05,16.7794189453125
2010-03-08,16.898828506469727
2010-03-09,17.194494247436523
2010-03-10,17.410568237304688
2010-03-11,17.22260284423828
2010-03-12,17.458993911743164
2010-03-15,17.539724349975586
2010-03-16,17.59161376953125
2010-03-17,17.637737274169922
2010-03-18,17.562793731689453
2010-03-19,17.239892959594727
2010-03-22,17.291790008544922
2010-03-23,17.395578384399414
2010-03-24,17.199535369873047
2010-03-25,17.314851760864258
2010-03-26,16.928544998168945
2010-03-29,17.09575080871582
2010-03-30,17.032331466674805
2010-03-31,16.92277717590332
2010-04-01,17.360980987548828
2010-04-05,17.447471618652344
2010-04-06,17.522417068481445
2010-04-07,17.280256271362305
2010-04-08,17.234127044677734
2010-04-09,17.216835021972656
2010-04-12,17.13034439086914
2010-04-13,17.015031814575195
2010-04-14,17.07269287109375
2010-04-15,17.12458038330078
2010-04-16,17.038089752197266
2010-04-19,17.13034439086914
2010-04-20,17.447471618652344
2010-04-21,17.447471618652344
2010-04-22,17.695404052734375
2010-04-23,17.776119232177734
2010-04-26,17.793424606323242
2010-04-27,17.505125045776367
2010-04-28,17.482059478759766
2010-04-29,17.678102493286133
2010-04-30,17.355215072631836
2010-05-03,17.48782730102539
2010-05-04,17.101520538330078
2010-05-05,16.96890640258789
2010-05-06,16.795928955078125
2010-05-07,16.87664794921875
2010-05-10,17.360980987548828
2010-05-11,17.482059478759766
2010-05-12,17.603151321411133
2010-05-13,17.7991886138916
2010-05-14,17.776119232177734
2010-05-17,17.608909606933594
2010-05-18,17.62044334411621
2010-05-19,17.395578384399414
2010-05-20,16.5941219329834
2010-05-21,16.870880126953125
2010-05-24,17.003498077392578
2010-05-25,16.697906494140625
2010-05-26,16.340425491333008
2010-05-27,16.905473709106445
2010-05-28,16.842052459716797
2010-06-01,17.118816375732422
2010-06-02,17.5800838470459
2010-06-03,17.59161376953125
2010-06-04,17.182233810424805
2010-06-07,17.216835021972656
2010-06-08,17.435935974121094
2010-06-09,17.61467933654785
2010-06-10,17.879907608032227
2010-06-11,17.70397186279297
2010-06-14,17.715665817260742
2010-06-15,18.002059936523438
2010-06-16,18.07220458984375
2010-06-17,18.031286239624023
2010-06-18,17.838407516479492
2010-06-21,17.785810470581055
2010-06-22,17.76827621459961
2010-06-23,17.54032325744629
2010-06-24,17.347444534301758
2010-06-25,17.657217025756836
2010-06-28,17.68060302734375
2010-06-29,16.89154624938965
2010-06-30,17.107803344726562
2010-07-01,17.213010787963867
2010-07-02,17.04935646057129
2010-07-06,16.97922134399414
2010-07-07,17.248085021972656
2010-07-08,17.446800231933594
2010-07-09,17.6046142578125
2010-07-12,17.73904800415039
2010-07-13,17.937774658203125
2010-07-14,17.87932014465332
2010-07-15,17.867633819580078
2010-07-16,17.4058837890625
2010-07-19,17.446800231933594
2010-07-20,17.61046028137207
2010-07-21,17.470186233520508
2010-07-22,17.87932014465332
2010-07-23,18.01959800720215
2010-07-26,18.253393173217773
2010-07-27,18.06051254272461
2010-07-28,17.72735595703125
2010-07-29,17.815031051635742
2010-07-30,17.89101219177246
2010-08-02,17.89101219177246
2010-08-03,17.785810470581055
2010-08-04,18.13064956665039
2010-08-05,18.50472068786621
2010-08-06,18.352758407592773
2010-08-09,18.4871826171875
2010-08-10,18.376127243041992
2010-08-11,17.949460983276367
2010-08-12,17.9962215423584
2010-08-13,17.990373611450195
2010-08-16,17.972843170166016
2010-08-17,18.16571617126465
2010-08-18,18.475496292114258
2010-08-19,18.422889709472656
2010-08-20,18.24169921875
2010-08-23,18.60408592224121
2010-08-24,18.346912384033203
2010-08-25,18.083892822265625
2010-08-26,18.083892822265625
2010-08-27,18.551477432250977
2010-08-30,18.335224151611328
2010-08-31,18.25923728942871
2010-09-01,18.224172592163086
2010-09-02,18.29429817199707
2010-09-03,18.557321548461914
2010-09-07,18.4871826171875
2010-09-08,18.45796012878418
2010-09-09,18.56316375732422
2010-09-10,18.615772247314453
2010-09-13,18.873022079467773
2010-09-14,19.056777954101562
2010-09-15,19.13975715637207
2010-09-16,19.222742080688477
2010-09-17,19.228666305541992
2010-09-20,19.359071731567383
2010-09-21,19.376855850219727
2010-09-22,19.4598388671875
2010-09-23,19.341291427612305
2010-09-24,19.525039672851562
2010-09-27,19.525039672851562
2010-09-28,19.382780075073242
2010-09-29,19.3531436920166
2010-09-30,19.264230728149414
2010-10-01,19.228666305541992
2010-10-04,19.394634246826172
2010-10-05,19.382780075073242
2010-10-06,19.631738662719727
2010-10-07,19.548751831054688
2010-10-08,19.679153442382812
2010-10-11,19.809558868408203
2010-10-12,20.01702308654785
2010-10-13,20.028879165649414
2010-10-14,19.96367073059082
2010-10-15,19.898475646972656
2010-10-18,20.159278869628906
2010-10-19,19.856975555419922
2010-10-20,19.934040069580078
2010-10-21,19.91032600402832
2010-10-22,19.809558868408203
2010-10-25,20.25411605834961
2010-10-26,19.92218017578125
2010-10-27,19.750280380249023
2010-10-28,19.649518966674805
2010-10-29,19.862903594970703
2010-11-01,19.82733917236328
2010-11-02,19.96367073059082
2010-11-03,19.916248321533203
2010-11-04,19.999237060546875
2010-11-05,19.797706604003906
2010-11-08,19.702865600585938
2010-11-09,19.489479064941406
2010-11-10,19.803627014160156
2010-11-11,19.625812530517578
2010-11-12,19.364999771118164
2010-11-15,19.43612289428711
2010-11-16,19.30572509765625
2010-11-17,19.47762680053711
2010-11-18,19.69101333618164
2010-11-19,19.957744598388672
2010-11-22,20.123720169067383
2010-11-23,19.934040069580078
2010-11-24,20.301544189453125
2010-11-26,20.27190589904785
2010-11-29,20.295610427856445
2010-11-30,20.082223892211914
2010-12-01,20.53863525390625
2010-12-02,20.894283294677734
2010-12-03,20.77573585510254
2010-12-06,20.799440383911133
2010-12-07,20.58012580871582
2010-12-08,20.562349319458008
2010-12-09,20.597917556762695
2010-12-10,21.178804397583008
2010-12-13,21.216625213623047
2010-12-14,21.3967342376709
2010-12-15,21.38472557067871
2010-12-16,21.126569747924805
2010-12-17,21.096555709838867
2010-12-20,20.832395553588867
2010-12-21,20.748350143432617
2010-12-22,21.270654678344727
2010-12-23,21.234634399414062
2010-12-27,21.258651733398438
2010-12-28,21.276662826538086
2010-12-29,21.450763702392578
2010-12-30,21.41474151611328
2010-12-31,21.288673400878906
2011-01-03,21.576841354370117
2011-01-04,21.222623825073242
2011-01-05,21.43875503540039
2011-01-06,21.522808074951172
2011-01-07,21.55882453918457
2011-01-10,21.390729904174805
2011-01-11,21.66689109802246
2011-01-12,21.648881912231445
2011-01-13,21.408740997314453
2011-01-14,21.468774795532227
2011-01-18,21.31869125366211
2011-01-19,21.354707717895508
2011-01-20,21.288673400878906
2011-01-21,21.38472557067871
2011-01-24,21.516803741455078
2011-01-25,21.450763702392578
2011-01-26,21.80497932434082
2011-01-27,22.00909423828125
2011-01-28,21.672897338867188
2011-01-31,21.810985565185547
2011-02-01,22.09314727783203
2011-02-02,22.00909423828125
2011-02-03,22.09314727783203
2011-02-04,22.171188354492188
2011-02-07,22.153181076049805
2011-02-08,22.129165649414062
2011-02-09,22.087146759033203
2011-02-10,21.80497932434082
2011-02-11,21.84699821472168
2011-02-14,21.630868911743164
2011-02-15,21.516803741455078
2011-02-16,21.744943618774414
2011-02-17,21.798969268798828
2011-02-18,21.859004974365234
2011-02-22,21.606855392456055
2011-02-23,21.54681968688965
2011-02-24,21.618865966796875
2011-02-25,21.88902473449707
2011-02-28,22.285259246826172
2011-03-01,21.89503288269043
2011-03-02,21.840993881225586
2011-03-03,21.913040161132812
2011-03-04,21.871009826660156
2011-03-07,21.582843780517578
2011-03-08,21.780961990356445
2011-03-09,21.90102767944336
2011-03-10,21.80497932434082
2011-03-11,21.754438400268555
2011-03-14,21.60222816467285
2011-03-15,21.218643188476562
2011-03-16,21.407394409179688
2011-03-17,21.888389587402344
2011-03-18,21.845767974853516
2011-03-21,22.046693801879883
2011-03-22,22.089313507080078
2011-03-23,21.845767974853516
2011-03-24,21.93100929260254
2011-03-25,21.742259979248047
2011-03-28,21.815324783325195
2011-03-29,22.071041107177734
2011-03-30,22.156282424926758
2011-03-31,22.1258487701416
2011-04-01,22.357202529907227
2011-04-04,22.180633544921875
2011-04-05,22.430269241333008
2011-04-06,22.56421661376953
2011-04-07,22.412002563476562
2011-04-08,22.588573455810547
2011-04-11,22.582490921020508
2011-04-12,22.515512466430664
2011-04-13,22.448537826538086
2011-04-14,22.588573455810547
2011-04-15,22.466800689697266
2011-04-18,22.39373207092285
2011-04-19,22.399829864501953
2011-04-20,22.752965927124023
2011-04-21,22.704252243041992
2011-04-25,22.667720794677734
2011-04-26,22.7164306640625
2011-04-27,22.631196975708008
2011-04-28,22.53986930847168
2011-04-29,22.78949737548828
2011-05-02,22.893003463745117
2011-05-03,22.77122688293457
2011-05-04,22.765140533447266
2011-05-05,22.576391220092773
2011-05-06,22.89908218383789
2011-05-09,23.30093765258789
2011-05-10,23.495769500732422
2011-05-11,23.355737686157227
2011-05-12,23.98285484313965
2011-05-13,23.806293487548828
2011-05-16,23.702777862548828
2011-05-17,23.769760131835938
2011-05-18,24.220306396484375
2011-05-19,24.47603416442871
2011-05-20,24.29945945739746
2011-05-23,24.220306396484375
2011-05-24,24.09244728088379
2011-05-25,24.068098068237305
2011-05-26,24.11071014404297
2011-05-27,24.323814392089844
2011-05-31,24.50038719177246
2011-06-01,24.031566619873047
2011-06-02,24.01938819885254
2011-06-03,23.93414306640625
2011-06-06,23.800201416015625
2011-06-07,23.897615432739258
2011-06-08,23.818466186523438
2011-06-09,23.976768493652344
2011-06-10,23.842824935913086
2011-06-13,23.905771255493164
2011-06-14,23.84404754638672
2011-06-15,23.44901466369629
2011-06-16,23.22063446044922
2011-06-17,23.368778228759766
2011-06-20,24.023046493530273
2011-06-21,24.121810913085938
2011-06-22,24.134157180786133
2011-06-23,23.862567901611328
2011-06-24,23.658878326416016
2011-06-27,23.75146484375
2011-06-28,23.862567901611328
2011-06-29,24.07859992980957
2011-06-30,24.251428604125977
2011-07-01,24.498332977294922
2011-07-05,24.467466354370117
2011-07-06,24.504493713378906
2011-07-07,24.356359481811523
2011-07-08,24.337841033935547
2011-07-11,24.047740936279297
2011-07-12,24.337841033935547
2011-07-13,24.485986709594727
2011-07-14,24.442771911621094
2011-07-15,24.68350601196289
2011-07-18,24.337841033935547
2011-07-19,24.62795066833496
2011-07-20,24.485986709594727
2011-07-21,24.603256225585938
2011-07-22,24.597084045410156
2011-07-25,24.560054779052734
2011-07-26,24.387218475341797
2011-07-27,23.918123245239258
2011-07-28,23.794673919677734
2011-07-29,23.560110092163086
2011-08-01,23.76997947692871
2011-08-02,23.18360137939453
2011-08-03,23.510730743408203
2011-08-04,22.73919105529785
2011-08-05,22.794740676879883
2011-08-08,22.189842224121094
2011-08-09,23.399635314941406
2011-08-10,22.856460571289062
2011-08-11,23.54159927368164
2011-08-12,23.628013610839844
2011-08-15,23.918123245239258
2011-08-16,23.948984146118164
2011-08-17,24.189699172973633
2011-08-18,23.76997947692871
2011-08-19,23.837879180908203
2011-08-22,24.208227157592773
2011-08-23,24.59090805053711
2011-08-24,24.461292266845703
2011-08-25,24.306982040405273
2011-08-26,24.109472274780273
2011-08-29,24.621776580810547
2011-08-30,24.541532516479492
2011-08-31,24.769916534423828
2011-09-01,24.671157836914062
2011-09-02,24.41808319091797
2011-09-06,23.911954879760742
2011-09-07,24.202045440673828
2011-09-08,24.195884704589844
2011-09-09,23.948984146118164
2011-09-12,24.01070785522461
2011-09-13,24.184614181518555
2011-09-14,24.466123580932617
2011-09-15,24.76013946533203
2011-09-16,24.559965133666992
2011-09-19,24.0970401763916
2011-09-20,23.990690231323242
2011-09-21,23.64037322998047
2011-09-22,23.265026092529297
2011-09-23,23.465213775634766
2011-09-26,23.47146224975586
2011-09-27,23.659133911132812
2011-09-28,23.214977264404297
2011-09-29,23.458948135375977
2011-09-30,23.433923721313477
2011-10-03,23.139907836914062
2011-10-04,22.78959083557129
2011-10-05,23.014801025390625
2011-10-06,23.321331024169922
2011-10-07,23.37762451171875
2011-10-10,23.878074645996094
2011-10-11,23.85306739807129
2011-10-12,24.37854766845703
2011-10-13,24.090782165527344
2011-10-14,24.0970401763916
2011-10-17,23.871826171875
2011-10-18,24.459869384765625
2011-10-19,24.247173309326172
2011-10-20,24.31597900390625
2011-10-21,24.453615188598633
2011-10-24,24.272193908691406
2011-10-25,24.12205696105957
2011-10-26,24.31597900390625
2011-10-27,24.803930282592773
2011-10-28,24.716354370117188
2011-10-31,24.77890968322754
2011-11-01,24.05324363708496
2011-11-02,24.428592681884766
2011-11-03,24.491146087646484
2011-11-04,24.234663009643555
2011-11-07,24.491146087646484
2011-11-08,24.766399383544922
2011-11-09,24.184614181518555
2011-11-10,24.203380584716797
2011-11-11,24.597482681274414
2011-11-14,24.422332763671875
2011-11-15,24.303478240966797
2011-11-16,24.240917205810547
2011-11-17,24.090782165527344
2011-11-18,24.103288650512695
2011-11-21,23.727947235107422
2011-11-22,23.990690231323242
2011-11-23,23.659133911132812
2011-11-25,23.477720260620117
2011-11-28,23.821786880493164
2011-11-29,23.890594482421875
2011-11-30,24.516164779663086
2011-12-01,24.522428512573242
2011-12-02,24.772653579711914
2011-12-05,24.703845977783203
2011-12-06,24.76013946533203
2011-12-07,24.866485595703125
2011-12-08,24.82895278930664
2011-12-09,25.022884368896484
2011-12-12,25.129230499267578
2011-12-13,25.050668716430664
2011-12-14,24.63253402709961
2011-12-15,24.77190589904785
2011-12-16,24.72123146057129
2011-12-19,24.78457260131836
2011-12-20,25.050668716430664
2011-12-21,25.456138610839844
2011-12-22,25.71589469909668
2011-12-23,25.81726837158203
2011-12-27,26.007328033447266
2011-12-28,25.71589469909668
2011-12-29,26.051679611206055
2011-12-30,26.400135040283203
2012-01-03,26.45081901550293
2012-01-04,26.45081901550293
2012-01-05,26.400135040283203
2012-01-06,25.798267364501953
2012-01-09,25.97566032409668
2012-01-10,26.0706844329834
2012-01-11,26.146713256835938
2012-01-12,26.374799728393555
2012-01-13,26.254425048828125
2012-01-17,26.368459701538086
2012-01-18,26.495168685913086
2012-01-19,26.349454879760742
2012-01-20,26.362123489379883
2012-01-23,26.286094665527344
2012-01-24,26.108705520629883
2012-01-25,25.84894561767578
2012-01-26,25.44980239868164
2012-01-27,25.601863861083984
2012-01-30,25.646209716796875
2012-01-31,25.84894561767578
2012-02-01,25.791921615600586
2012-02-02,25.798267364501953
2012-02-03,25.722230911254883
2012-02-06,25.810941696166992
2012-02-07,25.84894561767578
2012-02-08,25.97566032409668
2012-02-09,25.20271873474121
2012-02-10,24.86693572998047
2012-02-13,25.018997192382812
2012-02-14,24.987316131591797
2012-02-15,24.96196937561035
2012-02-16,25.33577537536621
2012-02-17,25.285083770751953
2012-02-21,25.285083770751953
2012-02-22,25.475154876708984
2012-02-23,25.38645362854004
2012-02-24,25.39278793334961
2012-02-27,25.51315689086914
2012-02-28,25.646209716796875
2012-02-29,25.924970626831055
2012-03-01,26.102365493774414
2012-03-02,26.058021545410156
2012-03-05,26.127710342407227
2012-03-06,25.931304931640625
2012-03-07,26.102365493774414
2012-03-08,26.444486618041992
2012-03-09,26.564865112304688
2012-03-12,26.5838623046875
2012-03-13,26.485660552978516
2012-03-14,25.98495864868164
2012-03-15,25.92076301574707
2012-03-16,25.71534538269043
2012-03-19,25.708932876586914
2012-03-20,25.57412338256836
2012-03-21,25.856569290161133
2012-03-22,25.68324851989746
2012-03-23,25.728187561035156
2012-03-26,25.888668060302734
2012-03-27,25.631895065307617
2012-03-28,25.67683219909668
2012-03-29,25.747451782226562
2012-03-30,25.71534538269043
2012-04-02,26.029897689819336
2012-04-03,25.99137306213379
2012-04-04,25.89508628845215
2012-04-05,25.997798919677734
2012-04-09,25.805227279663086
2012-04-10,25.214649200439453
2012-04-11,25.47783660888672
2012-04-12,25.702512741088867
2012-04-13,25.46500015258789
2012-04-16,25.554872512817383
2012-04-17,25.856569290161133
2012-04-18,25.830894470214844
2012-04-19,25.734603881835938
2012-04-20,25.875837326049805
2012-04-23,25.689668655395508
2012-04-24,25.824474334716797
2012-04-25,25.779539108276367
2012-04-26,25.74102210998535
2012-04-27,26.132596969604492
2012-04-30,26.017045974731445
2012-05-01,26.0427303314209
2012-05-02,26.196786880493164
2012-05-03,26.183948516845703
2012-05-04,26.049150466918945
2012-05-07,26.408618927001953
2012-05-08,26.0427303314209
2012-05-09,25.837316513061523
2012-05-10,26.017045974731445
2012-05-11,26.023466110229492
2012-05-14,25.862979888916016
2012-05-15,25.978534698486328
2012-05-16,25.965702056884766
2012-05-17,25.81805419921875
2012-05-18,25.529186248779297
2012-05-21,25.875837326049805
2012-05-22,25.888668060302734
2012-05-23,25.651155471801758
2012-05-24,25.266008377075195
2012-05-25,25.246746063232422
2012-05-29,25.497100830078125
2012-05-30,25.253158569335938
2012-05-31,25.606225967407227
2012-06-01,25.240327835083008
2012-06-04,25.394384384155273
2012-06-05,25.497100830078125
2012-06-06,25.92717933654785
2012-06-07,26.190370559692383
2012-06-08,26.183948516845703
2012-06-11,25.99137306213379
2012-06-12,26.299495697021484
2012-06-13,26.389236450195312
2012-06-14,26.350215911865234
2012-06-15,26.194150924682617
2012-06-18,26.057586669921875
2012-06-19,26.45427131652832
2012-06-20,26.506298065185547
2012-06-21,25.927528381347656
2012-06-22,26.103103637695312
2012-06-25,26.08360481262207
2012-06-26,26.512788772583008
2012-06-27,26.395742416381836
2012-06-28,26.2786922454834
2012-06-29,26.792428970336914
2012-07-02,27.033039093017578
2012-07-03,27.117572784423828
2012-07-05,27.150089263916016
2012-07-06,27.059049606323242
2012-07-09,27.163095474243164
2012-07-10,27.20211410522461
2012-07-11,27.10457420349121
2012-07-12,27.059049606323242
2012-07-13,27.286657333374023
2012-07-16,27.280147552490234
2012-07-17,27.306167602539062
2012-07-18,27.3516902923584
2012-07-19,27.247642517089844
2012-07-20,26.981016159057617
2012-07-23,26.42825698852539
2012-07-24,26.629850387573242
2012-07-25,26.681873321533203
2012-07-26,27.00052261352539
2012-07-27,27.45572280883789
2012-07-30,27.58579444885254
2012-07-31,27.663829803466797
2012-08-01,27.553272247314453
2012-08-02,27.488252639770508
2012-08-03,27.68334197998047
2012-08-06,27.7808780670166
2012-08-07,28.177568435668945
2012-08-08,28.977434158325195
2012-08-09,29.40663719177246
2012-08-10,29.575712203979492
2012-08-13,29.51718521118164
2012-08-14,29.510684967041016
2012-08-15,29.452157974243164
2012-08-16,29.4261531829834
2012-08-17,29.40663719177246
2012-08-20,29.562702178955078
2012-08-21,29.33510398864746
2012-08-22,29.166027069091797
2012-08-23,29.09449577331543
2012-08-24,29.276580810546875
2012-08-27,29.3090877532959
2012-08-28,29.289587020874023
2012-08-29,29.361116409301758
2012-08-30,29.140012741088867
2012-08-31,28.931921005249023
2012-09-04,29.068483352661133
2012-09-05,28.957931518554688
2012-09-06,29.413143157958984
2012-09-07,29.322099685668945
2012-09-10,29.439157485961914
2012-09-11,29.575712203979492
2012-09-12,29.6501522064209
2012-09-13,29.511816024780273
2012-09-14,28.866239547729492
2012-09-17,28.846485137939453
2012-09-18,29.129749298095703
2012-09-19,28.958473205566406
2012-09-20,29.017759323120117
2012-09-21,28.734498977661133
2012-09-24,28.866239547729492
2012-09-25,28.958473205566406
2012-09-26,29.090221405029297
2012-09-27,29.169269561767578
2012-09-28,28.94529151916504
2012-10-01,29.116567611694336
2012-10-02,29.09680938720703
2012-10-03,28.958473205566406
2012-10-04,29.505229949951172
2012-10-05,29.419591903686523
2012-10-08,29.327367782592773
2012-10-09,28.99139976501465
2012-10-10,28.932125091552734
2012-10-11,28.965055465698242
2012-10-12,28.85965347290039
2012-10-15,28.918956756591797
2012-10-16,29.050703048706055
2012-10-17,29.2944278717041
2012-10-18,29.208789825439453
2012-10-19,28.451236724853516
2012-10-22,28.359006881713867
2012-10-23,28.108694076538086
2012-10-24,27.97694206237793
2012-10-25,28.339250564575195
2012-10-26,28.32607650756836
2012-10-31,28.760852813720703
2012-11-01,28.503931045532227
2012-11-02,28.385364532470703
2012-11-05,28.31290054321289
2012-11-06,28.431476593017578
2012-11-07,28.154800415039062
2012-11-08,27.970348358154297
2012-11-09,28.02964210510254
2012-11-12,28.141626358032227
2012-11-13,27.95058250427246
2012-11-14,27.48287582397461
2012-11-15,27.232559204101562
2012-11-16,27.63438606262207
2012-11-19,27.792495727539062
2012-11-20,27.588287353515625
2012-11-21,27.680511474609375
2012-11-23,27.911056518554688
2012-11-26,28.016464233398438
2012-11-27,27.83859634399414
2012-11-28,27.891300201416016
2012-11-29,28.06256866455078
2012-11-30,27.864948272705078
2012-12-03,27.963773727416992
2012-12-04,27.990116119384766
2012-12-05,28.220684051513672
2012-12-06,28.187734603881836
2012-12-07,28.359006881713867
2012-12-10,28.582984924316406
2012-12-11,28.708148956298828
2012-12-12,28.681453704833984
2012-12-13,28.948442459106445
2012-12-14,28.794921875
2012-12-17,28.981809616088867
2012-12-18,29.035200119018555
2012-12-19,28.88168716430664
2012-12-20,28.721498489379883
2012-12-21,28.78156852722168
2012-12-24,28.808271408081055
2012-12-26,28.721498489379883
2012-12-27,28.708145141601562
2012-12-28,28.487878799438477
2012-12-31,28.661426544189453
2013-01-02,29.095285415649414
2013-01-03,29.05524444580078
2013-01-04,29.18206024169922
2013-01-07,29.06191062927246
2013-01-08,28.768220901489258
2013-01-09,28.45450782775879
2013-01-10,28.5012264251709
2013-01-11,28.43447494506836
2013-01-14,28.567983627319336
2013-01-15,28.861665725708008
2013-01-16,28.87501335144043
2013-01-17,28.968463897705078
2013-01-18,28.988492965698242
2013-01-22,29.295520782470703
2013-01-23,29.348922729492188
2013-01-24,29.475746154785156
2013-01-25,29.429018020629883
2013-01-28,29.54248809814453
2013-01-29,29.869550704956055
2013-01-30,29.6492919921875
2013-01-31,29.6492919921875
2013-02-01,29.816162109375
2013-02-04,29.63593864440918
2013-02-05,29.6693115234375
2013-02-06,29.88291358947754
2013-02-07,29.729379653930664
2013-02-08,29.495769500732422
2013-02-11,29.429018020629883
2013-02-12,29.529146194458008
2013-02-13,29.67598533630371
2013-02-14,29.575862884521484
2013-02-15,29.549165725708008
2013-02-19,29.6693115234375
2013-02-20,29.475746154785156
2013-02-21,29.549165725708008
2013-02-22,29.716035842895508
2013-02-25,29.509119033813477
2013-02-26,29.702688217163086
2013-02-27,30.196617126464844
2013-02-28,30.083147048950195
2013-03-01,30.25670051574707
2013-03-04,30.343454360961914
2013-03-05,30.41689682006836
2013-03-06,30.530363082885742
2013-03-07,30.51700210571289
2013-03-08,30.476966857910156
2013-03-11,30.683879852294922
2013-03-12,30.830718994140625
2013-03-13,30.679988861083984
2013-03-14,30.89628791809082
2013-03-15,31.00443458557129
2013-03-18,30.77461814880371
2013-03-19,30.75433921813965
2013-03-20,31.031465530395508
2013-03-21,30.747587203979492
2013-03-22,30.875999450683594
2013-03-25,30.788143157958984
2013-03-26,31.443782806396484
2013-03-27,31.301834106445312
2013-03-28,31.558687210083008
2013-04-01,31.457300186157227
2013-04-02,31.396465301513672
2013-04-03,31.051746368408203
2013-04-04,31.13961410522461
2013-04-05,30.700265884399414
2013-04-08,30.889528274536133
2013-04-09,30.950366973876953
2013-04-10,31.355918884277344
2013-04-11,31.40999412536621
2013-04-12,31.234241485595703
2013-04-15,30.950366973876953
2013-04-16,31.11258316040039
2013-04-17,30.977397918701172
2013-04-18,30.875999450683594
2013-04-19,31.065271377563477
2013-04-22,31.0179500579834
2013-04-23,31.051746368408203
2013-04-24,30.882770538330078
2013-04-25,30.950366973876953
2013-04-26,30.909809112548828
2013-04-29,31.227493286132812
2013-04-30,31.673585891723633
2013-05-01,31.734426498413086
2013-05-02,31.673585891723633
2013-05-03,31.910175323486328
2013-05-06,31.79525375366211
2013-05-07,32.09266662597656
2013-05-08,32.308963775634766
2013-05-09,31.970993041992188
2013-05-10,31.99127769470215
2013-05-13,32.11293411254883
2013-05-14,32.13997268676758
2013-05-15,31.81553077697754
2013-05-16,31.666824340820312
2013-05-17,31.423500061035156
2013-05-20,31.349151611328125
2013-05-21,31.829044342041016
2013-05-22,31.545169830322266
2013-05-23,31.53841209411621
2013-05-24,31.376184463500977
2013-05-28,31.03822135925293
2013-05-29,30.990917205810547
2013-05-30,30.686752319335938
2013-05-31,30.20008659362793
2013-06-03,30.30824089050293
2013-06-04,30.20008659362793
2013-06-05,29.753982543945312
2013-06-06,29.92972183227539
2013-06-07,30.152780532836914
2013-06-10,30.132495880126953
2013-06-11,29.91620635986328
2013-06-12,29.478647232055664
2013-06-13,30.074386596679688
2013-06-14,29.745702743530273
2013-06-17,29.766244888305664
2013-06-18,29.827877044677734
2013-06-19,29.417016983032227
2013-06-20,28.478904724121094
2013-06-21,28.59531593322754
2013-06-24,28.047508239746094
2013-06-25,28.239238739013672
2013-06-26,27.225801467895508
2013-06-27,27.444931030273438
2013-06-28,28.08859634399414
2013-07-01,27.944801330566406
2013-07-02,27.910564422607422
2013-07-03,27.90371322631836
2013-07-05,27.821548461914062
2013-07-08,28.02696418762207
2013-07-09,28.191307067871094
2013-07-10,28.29401969909668
2013-07-11,28.691181182861328
2013-07-12,28.876060485839844
2013-07-15,28.992477416992188
2013-07-16,28.93768882751465
2013-07-17,28.711729049682617
2013-07-18,28.725419998168945
2013-07-19,28.602161407470703
2013-07-22,28.01327133178711
2013-07-23,28.08859634399414
2013-07-24,28.25294303894043
2013-07-25,28.25294303894043
2013-07-26,28.383041381835938
2013-07-29,28.43781852722168
2013-07-30,28.56107521057129
2013-07-31,28.27347755432129
2013-08-01,28.09543228149414
2013-08-02,28.047508239746094
2013-08-05,28.424123764038086
2013-08-06,28.054353713989258
2013-08-07,27.9653377532959
2013-08-08,27.794151306152344
2013-08-09,27.787302017211914
2013-08-12,27.64351463317871
2013-08-13,27.664037704467773
2013-08-14,27.72567367553711
2013-08-15,28.239238739013672
2013-08-16,28.109132766723633
2013-08-19,28.102291107177734
2013-08-20,27.979034423828125
2013-08-21,27.698287963867188
2013-08-22,27.52024269104004
2013-08-23,27.828388214111328
2013-08-26,27.910564422607422
2013-08-27,27.698287963867188
2013-08-28,27.73253059387207
2013-08-29,28.239238739013672
2013-08-30,28.047508239746094
2013-09-03,29.14312171936035
2013-09-04,29.088333129882812
2013-09-05,29.136262893676758
2013-09-06,29.22528648376465
2013-09-09,29.478647232055664
2013-09-10,29.670381546020508
2013-09-11,29.7593936920166
2013-09-12,29.240589141845703
2013-09-13,29.101783752441406
2013-09-16,29.19893455505371
2013-09-17,29.330814361572266
2013-09-18,29.657024383544922
2013-09-19,29.53903579711914
2013-09-20,29.63620376586914
2013-09-23,30.038747787475586
2013-09-24,30.045700073242188
2013-09-25,29.684783935546875
2013-09-26,29.816654205322266
2013-09-27,29.775007247924805
2013-09-30,29.63620376586914
2013-10-01,29.73337173461914
2013-10-02,29.51127815246582
2013-10-03,29.233652114868164
2013-10-04,29.323877334594727
2013-10-07,29.37939453125
2013-10-08,29.309986114501953
2013-10-09,29.83747673034668
2013-10-10,29.91382598876953
2013-10-11,29.941585540771484
2013-10-14,30.05957794189453
2013-10-15,29.844411849975586
2013-10-16,29.96240997314453
2013-10-17,30.087339401245117
2013-10-18,30.344133377075195
2013-10-21,30.538475036621094
2013-10-22,30.628698348999023
2013-10-23,30.392723083496094
2013-10-24,30.108158111572266
2013-10-25,30.03180694580078
2013-10-28,30.191438674926758
2013-10-29,30.240034103393555
2013-10-30,30.115095138549805
2013-10-31,30.212265014648438
2013-11-01,30.37189483642578
2013-11-04,30.24696159362793
2013-11-05,30.128978729248047
2013-11-06,30.302501678466797
2013-11-07,30.455190658569336
2013-11-08,30.718923568725586
2013-11-11,30.434358596801758
2013-11-12,30.420486450195312
2013-11-13,30.56622314453125
2013-11-14,30.72586441040039
2013-11-15,31.05901336669922
2013-11-18,31.142305374145508
2013-11-19,30.857744216918945
2013-11-20,30.899381637573242
2013-11-21,30.80915641784668
2013-11-22,30.75362777709961
2013-11-25,30.781391143798828
2013-11-26,30.663410186767578
2013-11-27,30.580116271972656
2013-11-29,30.67034912109375
2013-12-02,30.517648696899414
2013-12-03,30.420486450195312
2013-12-04,30.330259323120117
2013-12-05,30.212265014648438
2013-12-06,30.330259323120117
2013-12-09,30.54541015625
2013-12-10,30.531532287597656
2013-12-11,30.37189483642578
2013-12-12,30.132909774780273
2013-12-13,30.01342010498047
2013-12-16,29.922042846679688
2013-12-17,29.809585571289062
2013-12-18,29.795528411865234
2013-12-19,29.978286743164062
2013-12-20,29.985307693481445
2013-12-23,30.22429656982422
2013-12-24,30.30863380432129
2013-12-26,30.40703773498535
2013-12-27,30.280521392822266
2013-12-30,30.442184448242188
2013-12-31,30.428133010864258
2014-01-02,30.132909774780273
2014-01-03,30.14697265625
2014-01-06,29.893938064575195
2014-01-07,29.704151153564453
2014-01-08,29.521404266357422
2014-01-09,29.324594497680664
2014-01-10,29.746322631835938
2014-01-13,30.048566818237305
2014-01-14,30.00639533996582
2014-01-15,29.95016098022461
2014-01-16,29.922042846679688
2014-01-17,29.816612243652344
2014-01-21,29.886913299560547
2014-01-22,29.63386344909668
2014-01-23,29.612781524658203
2014-01-24,29.219160079956055
2014-01-27,29.085603713989258
2014-01-28,28.86069107055664
2014-01-29,29.14183807373047
2014-01-30,29.3597412109375
2014-01-31,29.500316619873047
2014-02-03,29.148868560791016
2014-02-04,28.8747501373291
2014-02-05,28.776330947875977
2014-02-06,29.40894317626953
2014-02-07,29.66899871826172
2014-02-10,29.7603759765625
2014-02-11,29.851757049560547
2014-02-12,29.971256256103516
2014-02-13,30.104808807373047
2014-02-14,30.111827850341797
2014-02-18,30.252410888671875
2014-02-19,30.083709716796875
2014-02-20,30.139942169189453
2014-02-21,30.210233688354492
2014-02-24,30.456249237060547
2014-02-25,30.37189483642578
2014-02-26,30.22429656982422
2014-02-27,30.414079666137695
2014-02-28,30.646024703979492
2014-03-03,30.52653694152832
2014-03-04,30.519498825073242
2014-03-05,30.76551055908203
2014-03-06,30.906095504760742
2014-03-07,30.667104721069336
2014-03-10,30.674144744873047
2014-03-11,30.582765579223633
2014-03-12,30.409046173095703
2014-03-13,30.316484451293945
2014-03-14,30.060161590576172
2014-03-17,30.323606491088867
2014-03-18,30.544321060180664
2014-03-19,30.359207153320312
2014-03-20,30.40192222595215
2014-03-21,30.29511833190918
2014-03-24,30.152727127075195
2014-03-25,30.088642120361328
2014-03-26,30.145601272583008
2014-03-27,30.37343406677246
2014-03-28,30.565677642822266
2014-03-31,30.715200424194336
2014-04-01,30.89319610595703
2014-04-02,31.021358489990234
2014-04-03,30.74367332458496
2014-04-04,31.007110595703125
2014-04-07,31.156625747680664
2014-04-08,31.41295051574707
2014-04-09,31.562467575073242
2014-04-10,31.32037925720215
2014-04-11,31.234941482543945
2014-04-14,31.341739654541016
2014-04-15,31.420059204101562
2014-04-16,31.49126625061035
2014-04-17,31.6550235748291
2014-04-21,31.52687644958496
2014-04-22,31.420059204101562
2014-04-23,31.355985641479492
2014-04-24,31.32037925720215
2014-04-25,31.277666091918945
2014-04-28,31.20646858215332
2014-04-29,31.313268661499023
2014-04-30,31.711986541748047
2014-05-01,31.7902889251709
2014-05-02,31.683504104614258
2014-05-05,31.7902889251709
2014-05-06,31.74045753479004
2014-05-07,31.99676513671875
2014-05-08,32.224609375
2014-05-09,32.02526092529297
2014-05-12,32.28868865966797
2014-05-13,32.367000579833984
2014-05-14,32.48093032836914
2014-05-15,32.63755798339844
2014-05-16,32.65180969238281
2014-05-19,32.60908126831055
2014-05-20,32.50229263305664
2014-05-21,32.63755798339844
2014-05-22,32.90813064575195
2014-05-23,32.82979965209961
2014-05-27,32.65180969238281
2014-05-28,32.573490142822266
2014-05-29,32.48093032836914
2014-05-30,32.70164489746094
2014-06-02,32.86540222167969
2014-06-03,32.96508026123047
2014-06-04,33.178672790527344
2014-06-05,33.050514221191406
2014-06-06,32.84404373168945
2014-06-09,32.943721771240234
2014-06-10,32.95796203613281
2014-06-11,32.92948913574219
2014-06-12,32.791080474853516
2014-06-13,32.848751068115234
2014-06-16,32.9713020324707
2014-06-17,32.89200210571289
2014-06-18,33.0001220703125
2014-06-19,32.89200210571289
2014-06-20,32.827117919921875
2014-06-23,32.62527847290039
2014-06-24,32.42345428466797
2014-06-25,32.42345428466797
2014-06-26,32.473907470703125
2014-06-27,32.819915771484375
2014-06-30,32.6973762512207
2014-07-01,32.87757873535156
2014-07-02,32.582035064697266
2014-07-03,32.87036895751953
2014-07-07,32.545989990234375
2014-07-08,32.35136795043945
2014-07-09,32.646907806396484
2014-07-10,32.776668548583984
2014-07-11,32.78386306762695
2014-07-14,32.93524932861328
2014-07-15,32.42345428466797
2014-07-16,32.791080474853516
2014-07-17,32.6973762512207
2014-07-18,32.80548858642578
2014-07-21,32.690162658691406
2014-07-22,32.928043365478516
2014-07-23,33.454261779785156
2014-07-24,33.27404022216797
2014-07-25,32.87757873535156
2014-07-28,33.01453399658203
2014-07-29,32.956871032714844
2014-07-30,32.89200210571289
2014-07-31,32.639705657958984
2014-08-01,32.38740539550781
2014-08-04,32.4378662109375
2014-08-05,32.42345428466797
2014-08-06,32.27207565307617
2014-08-07,32.048614501953125
2014-08-08,31.680984497070312
2014-08-11,31.962106704711914
2014-08-12,31.911659240722656
2014-08-13,31.832347869873047
2014-08-14,32.091861724853516
2014-08-15,31.95490837097168
2014-08-18,31.918872833251953
2014-08-19,31.904449462890625
2014-08-20,31.93328094482422
2014-08-21,32.01978302001953
2014-08-22,32.005367279052734
2014-08-25,31.99095344543457
2014-08-26,32.120697021484375
2014-08-27,32.45228576660156
2014-08-28,32.48112106323242
2014-08-29,32.45228576660156
2014-09-02,32.45228576660156
2014-09-03,32.63248825073242
2014-09-04,32.66133117675781
2014-09-05,32.618072509765625
2014-09-08,32.30812072753906
2014-09-09,32.37299346923828
2014-09-10,32.517154693603516
2014-09-11,32.053619384765625
2014-09-12,31.827320098876953
2014-09-15,31.885726928710938
2014-09-16,32.01712417602539
2014-09-17,31.79082489013672
2014-09-18,32.06092071533203
2014-09-19,31.637535095214844
2014-09-22,31.5499324798584
2014-09-23,31.528038024902344
2014-09-24,31.710521697998047
2014-09-25,31.111940383911133
2014-09-26,31.257932662963867
2014-09-29,31.411230087280273
2014-09-30,31.214134216308594
2014-10-01,31.25063705444336
2014-10-02,31.491535186767578
2014-10-03,31.287134170532227
2014-10-06,31.68863296508789
2014-10-07,31.345539093017578
2014-10-08,31.644832611083984
2014-10-09,31.491535186767578
2014-10-10,31.038938522338867
2014-10-13,30.987842559814453
2014-10-14,30.834545135498047
2014-10-15,30.586349487304688
2014-10-16,30.60824966430664
2014-10-17,30.637453079223633
2014-10-20,31.00244140625
2014-10-21,31.360132217407227
2014-10-22,31.228731155395508
2014-10-23,31.374736785888672
2014-10-24,31.59372329711914
2014-10-27,31.885726928710938
2014-10-28,32.214210510253906
2014-10-29,32.14121627807617
2014-10-30,32.4259147644043
2014-10-31,32.46242141723633
2014-11-03,32.243412017822266
2014-11-04,32.659507751464844
2014-11-05,32.754398345947266
2014-11-06,32.535423278808594
2014-11-07,32.83470916748047
2014-11-10,33.19968795776367
2014-11-11,33.42599105834961
2014-11-12,33.68878936767578
2014-11-13,33.84938049316406
2014-11-14,34.214378356933594
2014-11-17,34.557464599609375
2014-11-18,35.024658203125
2014-11-19,34.769161224365234
2014-11-20,34.338470458984375
2014-11-21,34.6231689453125
2014-11-24,34.236270904541016
2014-11-25,34.192481994628906
2014-11-26,34.338470458984375
2014-11-28,34.25087356567383
2014-12-01,34.27276611328125
2014-12-02,33.7836799621582
2014-12-03,33.87858963012695
2014-12-04,33.396793365478516
2014-12-05,33.32379913330078
2014-12-08,33.10479736328125
2014-12-09,33.28729248046875
2014-12-10,32.74710464477539
2014-12-11,33.45492172241211
2014-12-12,32.95989227294922
2014-12-15,32.797340393066406
2014-12-16,33.25542449951172
2014-12-17,33.3736457824707
2014-12-18,33.72829818725586
2014-12-19,33.85388946533203
2014-12-22,33.83172607421875
2014-12-23,33.93516540527344
2014-12-24,33.949947357177734
2014-12-26,34.19376754760742
2014-12-29,34.12727355957031
2014-12-30,34.023826599121094
2014-12-31,33.883453369140625
2015-01-02,33.779998779296875
2015-01-05,33.36626052856445
2015-01-06,33.43275451660156
2015-01-07,33.99427795410156
2015-01-08,34.22331619262695
2015-01-09,33.824337005615234
2015-01-12,33.85388946533203
2015-01-13,34.17160415649414
2015-01-14,34.097713470458984
2015-01-15,34.06816482543945
2015-01-16,35.11731719970703
2015-01-20,35.03605270385742
2015-01-21,34.474525451660156
2015-01-22,34.940006256103516
2015-01-23,34.83656692504883
2015-01-26,34.30459976196289
2015-01-27,34.385868072509766
2015-01-28,34.17160415649414
2015-01-29,34.17160415649414
2015-01-30,33.949947357177734
2015-02-02,34.34892654418945
2015-02-03,34.49669647216797
2015-02-04,34.585357666015625
2015-02-05,35.03605270385742
2015-02-06,33.469696044921875
2015-02-09,32.50181198120117
2015-02-10,32.745628356933594
2015-02-11,32.78995132446289
2015-02-12,32.95249938964844
2015-02-13,33.05595016479492
2015-02-17,33.196319580078125
2015-02-18,33.07810974121094
2015-02-19,32.708683013916016
2015-02-20,32.945125579833984
2015-02-23,32.819515228271484
2015-02-24,32.65696334838867
2015-02-25,32.65696334838867
2015-02-26,32.479644775390625
2015-02-27,32.36881637573242
2015-03-02,32.2506103515625
2015-03-03,32.265377044677734
2015-03-04,32.8121223449707
2015-03-05,32.56830596923828
2015-03-06,31.792516708374023
2015-03-09,31.51175880432129
2015-03-10,31.03888511657715
2015-03-11,30.891128540039062
2015-03-12,31.257627487182617
2015-03-13,31.04819679260254
2015-03-16,31.265104293823242
2015-03-17,31.504457473754883
2015-03-18,31.85601043701172
2015-03-19,31.45210075378418
2015-03-20,31.54185676574707
2015-03-23,31.826087951660156
2015-03-24,32.379581451416016
2015-03-25,32.043006896972656
2015-03-26,31.975677490234375
2015-03-27,31.960718154907227
2015-03-30,31.863489151000977
2015-03-31,31.683963775634766
2015-04-01,31.654050827026367
2015-04-02,32.0878791809082
2015-04-06,32.17762756347656
2015-04-07,32.29730987548828
2015-04-08,32.54413986206055
2015-04-09,32.46186065673828
2015-04-10,32.66381072998047
2015-04-13,32.85080337524414
2015-04-14,33.239749908447266
2015-04-15,33.26219940185547
2015-04-16,33.13502883911133
2015-04-17,33.00040054321289
2015-04-20,33.01536178588867
2015-04-21,33.067718505859375
2015-04-22,33.29209518432617
2015-04-23,33.62120819091797
2015-04-24,33.59877395629883
2015-04-27,33.71844482421875
2015-04-28,33.80821228027344
2015-04-29,33.710968017578125
2015-04-30,32.992919921875
2015-05-01,33.157474517822266
2015-05-04,33.27714538574219
2015-05-05,33.03779220581055
2015-05-06,33.120086669921875
2015-05-07,32.918121337890625
2015-05-08,33.120086669921875
2015-05-11,33.082664489746094
2015-05-12,32.992919921875
2015-05-13,33.05274963378906
2015-05-14,33.187381744384766
2015-05-15,33.28463363647461
2015-05-18,33.10512161254883
2015-05-19,32.63389205932617
2015-05-20,32.7760124206543
2015-05-21,32.8283576965332
2015-05-22,32.67129135131836
2015-05-26,32.55162048339844
2015-05-27,32.70120620727539
2015-05-28,32.88820266723633
2015-05-29,32.75357437133789
2015-06-01,32.59649658203125
2015-06-02,32.95552062988281
2015-06-03,33.232276916503906
2015-06-04,33.01536178588867
2015-06-05,32.96300506591797
2015-06-08,32.82088851928711
2015-06-09,32.933082580566406
2015-06-10,33.239749908447266
2015-06-11,32.99750518798828
2015-06-12,32.78555679321289
2015-06-15,32.80826187133789
2015-06-16,32.74012756347656
2015-06-17,32.78555679321289
2015-06-18,32.823402404785156
2015-06-19,32.49032211303711
2015-06-22,32.853675842285156
2015-06-23,32.95965576171875
2015-06-24,32.967227935791016
2015-06-25,33.45927810668945
2015-06-26,33.32301712036133
2015-06-29,32.361629486083984
2015-06-30,32.1723747253418
2015-07-01,32.513038635253906
2015-07-02,32.39190673828125
2015-07-06,32.19509506225586
2015-07-07,31.869586944580078
2015-07-08,31.44566535949707
2015-07-09,31.29426383972168
2015-07-10,31.84687042236328
2015-07-13,32.08911895751953
2015-07-14,32.21023178100586
2015-07-15,32.043697357177734
2015-07-16,32.17995071411133
2015-07-17,32.24808883666992
2015-07-20,31.74089241027832
2015-07-21,31.28669548034668
2015-07-22,30.67352867126465
2015-07-23,30.302602767944336
2015-07-24,30.953615188598633
2015-07-27,30.726518630981445
2015-07-28,30.8930606842041
2015-07-29,31.044456481933594
2015-07-30,31.082300186157227
2015-07-31,31.142864227294922
2015-08-03,31.097450256347656
2015-08-04,30.923336029052734
2015-08-05,31.089868545532227
2015-08-06,31.316970825195312
2015-08-07,31.210988998413086
2015-08-10,31.44566535949707
2015-08-11,30.946043014526367
2015-08-12,31.158002853393555
2015-08-13,31.006607055664062
2015-08-14,31.082300186157227
2015-08-17,31.226139068603516
2015-08-18,31.362394332885742
2015-08-19,31.422950744628906
2015-08-20,31.173141479492188
2015-08-21,31.400239944458008
2015-08-24,29.83325958251953
2015-08-25,29.65915298461914
2015-08-26,29.893823623657227
2015-08-27,30.68866729736328
2015-08-28,30.55997657775879
2015-08-31,30.612964630126953
2015-09-01,29.765127182006836
2015-09-02,30.166339874267578
2015-09-03,30.8930606842041
2015-09-04,30.567550659179688
2015-09-08,31.29426383972168
2015-09-09,31.067171096801758
2015-09-10,30.968759536743164
2015-09-11,30.769546508789062
2015-09-14,30.65462875366211
2015-09-15,30.899799346923828
2015-09-16,31.313526153564453
2015-09-17,31.305871963500977
2015-09-18,31.32886505126953
2015-09-21,31.750253677368164
2015-09-22,31.05303192138672
2015-09-23,30.961091995239258
2015-09-24,30.991741180419922
2015-09-25,31.22159194946289
2015-09-28,30.89214324951172
2015-09-29,31.045373916625977
2015-09-30,31.382490158081055
2015-10-01,31.566381454467773
2015-10-02,32.102691650390625
2015-10-05,32.78459167480469
2015-10-06,32.46278381347656
2015-10-07,32.43216323852539
2015-10-08,32.830570220947266
2015-10-09,32.89185333251953
2015-10-12,32.95314407348633
2015-10-13,32.92250442504883
2015-10-14,33.20598220825195
2015-10-15,33.58906936645508
2015-10-16,33.8036003112793
2015-10-19,33.61205291748047
2015-10-20,33.96449661254883
2015-10-21,33.93385314941406
2015-10-22,34.51613998413086
2015-10-23,34.19435119628906
2015-10-26,34.02579116821289
2015-10-27,33.32857131958008
2015-10-28,33.48946762084961
2015-10-29,33.43584060668945
2015-10-30,33.106380462646484
2015-11-02,33.160011291503906
2015-11-03,33.098716735839844
2015-11-04,32.75394821166992
2015-11-05,32.87653350830078
2015-11-06,32.723297119140625
2015-11-09,32.92250442504883
2015-11-10,32.95314407348633
2015-11-11,33.07573318481445
2015-11-12,32.69264602661133
2015-11-13,32.29423522949219
2015-11-16,32.98379135131836
2015-11-17,33.04509353637695
2015-11-18,33.26727294921875
2015-11-19,33.65037155151367
2015-11-20,33.60439682006836
2015-11-23,33.236629486083984
2015-11-24,32.52409362792969
2015-11-25,32.80757141113281
2015-11-27,32.769264221191406
2015-11-30,32.991451263427734
2015-12-01,33.083396911621094
2015-12-02,32.999122619628906
2015-12-03,32.69264602661133
2015-12-04,32.63901138305664
2015-12-07,32.11035919189453
2015-12-08,31.44377899169922
2015-12-09,31.45144271850586
2015-12-10,31.190940856933594
2015-12-11,30.45987892150879
2015-12-14,30.808748245239258
2015-12-15,30.832008361816406
2015-12-16,30.863014221191406
2015-12-17,29.72338104248047
2015-12-18,29.653608322143555
2015-12-21,29.738889694213867
2015-12-22,29.955963134765625
2015-12-23,30.304821014404297
2015-12-24,30.204044342041016
2015-12-28,30.04898452758789
2015-12-29,30.73121452331543
2015-12-30,30.297077178955078
2015-12-31,29.940460205078125
2016-01-04,29.80866050720215
2016-01-05,30.025733947753906
2016-01-06,30.12652015686035
2016-01-07,29.614849090576172
2016-01-08,29.71562957763672
2016-01-11,29.746633529663086
2016-01-12,30.26606559753418
2016-01-13,29.653608322143555
2016-01-14,29.72338104248047
2016-01-15,29.24272346496582
2016-01-19,29.010141372680664
2016-01-20,28.64577865600586
2016-01-21,29.304737091064453
2016-01-22,30.335840225219727
2016-01-25,29.955963134765625
2016-01-26,30.5916748046875
2016-01-27,30.235055923461914
2016-01-28,30.75446891784668
2016-01-29,31.24288558959961
2016-02-01,31.599515914916992
2016-02-02,31.165367126464844
2016-02-03,31.9328670501709
2016-02-04,32.475555419921875
2016-02-05,32.44453811645508
2016-02-08,32.44453811645508
2016-02-09,32.46780014038086
2016-02-10,32.064659118652344
2016-02-11,31.894115447998047
2016-02-12,32.28173828125
2016-02-16,32.475555419921875
2016-02-17,32.84766387939453
2016-02-18,33.08799743652344
2016-02-19,33.24305725097656
2016-02-22,33.01047134399414
2016-02-23,33.05698776245117
2016-02-24,33.08799743652344
2016-02-25,33.36709976196289
2016-02-26,33.26630783081055
2016-02-29,33.42911148071289
2016-03-01,33.840003967285156
2016-03-02,33.36709976196289
2016-03-03,32.994972229003906
2016-03-04,33.47562789916992
2016-03-07,33.63843536376953
2016-03-08,33.770233154296875
2016-03-09,34.75481033325195
2016-03-10,34.14235305786133
2016-03-11,34.15098571777344
2016-03-14,34.26079177856445
2016-03-15,34.35491943359375
2016-03-16,34.911808013916016
2016-03-17,35.437320709228516
2016-03-18,34.809844970703125
2016-03-21,34.990234375
2016-03-22,34.990234375
2016-03-23,35.02947235107422
2016-03-24,35.15496063232422
2016-03-28,35.256935119628906
2016-03-29,35.633419036865234
2016-03-30,35.970699310302734
2016-03-31,35.719703674316406
2016-04-01,35.82950973510742
2016-04-04,35.96285629272461
2016-04-05,35.53145217895508
2016-04-06,35.578514099121094
2016-04-07,35.594200134277344
2016-04-08,36.088340759277344
2016-04-11,36.04128646850586
2016-04-12,36.582496643066406
2016-04-13,36.527587890625
2016-04-14,36.56680679321289
2016-04-15,36.49622344970703
2016-04-18,36.582496643066406
2016-04-19,37.00605010986328
2016-04-20,36.94329833984375
2016-04-21,36.20600128173828
2016-04-22,36.182472229003906
2016-04-25,36.09619140625
2016-04-26,35.98638153076172
2016-04-27,36.182472229003906
2016-04-28,36.76289367675781
2016-04-29,36.79426956176758
2016-05-02,36.69230270385742
2016-05-03,36.07266616821289
2016-05-04,36.02560043334961
2016-05-05,35.99422073364258
2016-05-06,36.01774978637695
2016-05-09,35.782440185546875
2016-05-10,36.22953796386719
2016-05-11,36.35503387451172
2016-05-12,36.511898040771484
2016-05-13,36.213844299316406
2016-05-16,36.50405502319336
2016-05-17,36.613868713378906
2016-05-18,36.213844299316406
2016-05-19,35.90794372558594
2016-05-20,36.088340759277344
2016-05-23,36.24522399902344
2016-05-24,36.3079719543457
2016-05-25,36.480533599853516
2016-05-26,36.7393684387207
2016-05-27,36.39424133300781
2016-05-31,36.11188888549805
2016-06-01,36.29227828979492
2016-06-02,36.22168731689453
2016-06-03,36.825645446777344
2016-06-06,37.07664108276367
2016-06-07,37.108009338378906
2016-06-08,37.22566223144531
2016-06-09,37.15507507324219
2016-06-10,36.802101135253906
2016-06-13,36.24991226196289
2016-06-14,36.503787994384766
2016-06-15,36.24991226196289
2016-06-16,36.24991226196289
2016-06-17,36.43239974975586
2016-06-20,36.718013763427734
2016-06-21,37.011573791503906
2016-06-22,36.90049743652344
2016-06-23,37.42412567138672
2016-06-24,36.5593376159668
2016-06-27,36.5514030456543
2016-06-28,36.7021369934082
2016-06-29,37.21784591674805
2016-06-30,37.53520202636719
2016-07-01,37.77322769165039
2016-07-05,37.66214370727539
2016-07-06,37.749427795410156
2016-07-07,37.58280944824219
2016-07-08,37.24959182739258
2016-07-11,37.42412567138672
2016-07-12,38.090576171875
2016-07-13,38.30479049682617
2016-07-14,38.550743103027344
2016-07-15,38.32065963745117
2016-07-18,38.2175178527832
2016-07-19,37.98744201660156
2016-07-20,37.91604232788086
2016-07-21,38.02710723876953
2016-07-22,38.07470703125
2016-07-25,37.80496597290039
2016-07-26,37.85255813598633
2016-07-27,37.646278381347656
2016-07-28,37.71768569946289
2016-07-29,37.99537658691406
2016-08-01,38.098514556884766
2016-08-02,37.65420913696289
2016-08-03,37.49553680419922
2016-08-04,38.03504180908203
2016-08-05,37.82082748413086
2016-08-08,37.876365661621094
2016-08-09,38.16991424560547
2016-08-10,38.32859802246094
2016-08-11,38.63801193237305
2016-08-12,38.685611724853516
2016-08-15,38.64594268798828
2016-08-16,38.43172836303711
2016-08-17,38.36826705932617
2016-08-18,38.33652114868164
2016-08-19,38.02710723876953
2016-08-22,38.06678009033203
2016-08-23,38.082645416259766
2016-08-24,38.04296875
2016-08-25,37.99537658691406
2016-08-26,37.56694030761719
2016-08-29,37.93983459472656
2016-08-30,37.59074783325195
2016-08-31,37.05124282836914
2016-09-01,37.20198059082031
2016-09-02,37.77322769165039
2016-09-06,38.13818359375
2016-09-07,37.876365661621094
2016-09-08,37.86842727661133
2016-09-09,37.059173583984375
2016-09-12,37.27338790893555
2016-09-13,36.481502532958984
2016-09-14,36.56975173950195
2016-09-15,36.866615295410156
2016-09-16,36.425331115722656
2016-09-19,36.473472595214844
2016-09-20,36.63393783569336
2016-09-21,37.05113983154297
2016-09-22,37.49241638183594
2016-09-23,36.946842193603516
2016-09-26,36.794403076171875
2016-09-27,36.80242156982422
2016-09-28,37.05916976928711
2016-09-29,37.17951583862305
2016-09-30,37.05113983154297
2016-10-03,37.02707290649414
2016-10-04,36.60184097290039
2016-10-05,36.4654541015625
2016-10-06,36.40928649902344
2016-10-07,35.91987228393555
2016-10-10,36.26487731933594
2016-10-11,36.20870590209961
2016-10-12,36.51359558105469
2016-10-13,36.690093994140625
2016-10-14,36.81044387817383
2016-10-17,36.77033615112305
2016-10-18,37.043121337890625
2016-10-19,37.043121337890625
2016-10-20,36.76231002807617
2016-10-21,36.63393783569336
2016-10-24,36.641963958740234
2016-10-25,36.385215759277344
2016-10-26,36.28091812133789
2016-10-27,36.24882125854492
2016-10-28,36.2889404296875
2016-10-31,36.45742416381836
2016-11-01,36.09638595581055
2016-11-02,35.88779067993164
2016-11-03,35.72731018066406
2016-11-04,35.45452880859375
2016-11-07,35.81557083129883
2016-11-08,35.9359245300293
2016-11-09,35.49464797973633
2016-11-10,34.31523513793945
2016-11-11,34.04244613647461
2016-11-14,33.72150802612305
2016-11-15,34.523834228515625
2016-11-16,34.596046447753906
2016-11-17,34.71638870239258
2016-11-18,34.732444763183594
2016-11-21,34.66825866699219
2016-11-22,34.41953659057617
2016-11-23,34.387447357177734
2016-11-25,34.604068756103516
2016-11-28,34.74046325683594
2016-11-29,34.933013916015625
2016-11-30,34.5639533996582
2016-12-01,34.363380432128906
2016-12-02,34.66023254394531
2016-12-05,34.852783203125
2016-12-06,34.852783203125
2016-12-07,35.32615280151367
2016-12-08,35.45452880859375
2016-12-09,35.54278564453125
2016-12-12,35.951961517333984
2016-12-13,35.887020111083984
2016-12-14,34.985992431640625
2016-12-15,34.90481948852539
2016-12-16,34.83988571166992
2016-12-19,34.758705139160156
2016-12-20,34.856117248535156
2016-12-21,34.79928970336914
2016-12-22,34.969757080078125
2016-12-23,34.92917251586914
2016-12-27,34.80740737915039
2016-12-28,34.74247360229492
2016-12-29,35.05905532836914
2016-12-30,35.09964370727539
2017-01-03,35.286338806152344
2017-01-04,35.78150177001953
2017-01-05,36.122432708740234
2017-01-06,35.927616119384766
2017-01-09,35.54609680175781
2017-01-10,35.57856369018555
2017-01-11,35.70844650268555
2017-01-12,35.94385528564453
2017-01-13,35.98444366455078
2017-01-17,36.3821907043457
2017-01-18,35.5379753112793
2017-01-19,35.61103439331055
2017-01-20,35.887020111083984
2017-01-23,35.911380767822266
2017-01-24,36.24419403076172
2017-01-25,36.24419403076172
2017-01-26,36.317256927490234
2017-01-27,36.36595153808594
2017-01-30,36.40653991699219
2017-01-31,36.625709533691406
2017-02-01,36.317256927490234
2017-02-02,35.83832550048828
2017-02-03,35.7652702331543
2017-02-06,35.61914825439453
2017-02-07,35.5866813659668
2017-02-08,35.887020111083984
2017-02-09,35.96820068359375
2017-02-10,36.138671875
2017-02-13,36.09807586669922
2017-02-14,36.041259765625
2017-02-15,36.39842224121094
2017-02-16,36.36595153808594
2017-02-17,36.42277526855469
2017-02-21,36.30101776123047
2017-02-22,36.4308967590332
2017-02-23,36.40653991699219
2017-02-24,36.041259765625
2017-02-27,36.073726654052734
2017-02-28,35.42433547973633
2017-03-01,35.213287353515625
2017-03-02,35.123985290527344
2017-03-03,35.18893051147461
2017-03-06,35.24575424194336
2017-03-07,35.107757568359375
2017-03-08,34.79928970336914
2017-03-09,35.09151840209961
2017-03-10,35.33504867553711
2017-03-13,35.30464172363281
2017-03-14,34.91016387939453
2017-03-15,35.55939483642578
2017-03-16,35.4443473815918
2017-03-17,35.96208190917969
2017-03-20,35.42790985107422
2017-03-21,35.69089126586914
2017-03-22,36.21683120727539
2017-03-23,36.225059509277344
2017-03-24,36.17574691772461
2017-03-27,36.2332763671875
2017-03-28,36.16753005981445
2017-03-29,36.30723571777344
2017-03-30,36.208621978759766
2017-03-31,36.381195068359375
2017-04-03,36.34832763671875
2017-04-04,36.578426361083984
2017-04-05,36.51268768310547
2017-04-06,36.611305236816406
2017-04-07,37.030426025390625
2017-04-10,37.235870361328125
2017-04-11,37.3838005065918
2017-04-12,37.69607925415039
2017-04-13,37.53993606567383
2017-04-17,37.835792541503906
2017-04-18,37.41666793823242
2017-04-19,37.145477294921875
2017-04-20,37.350929260253906
2017-04-21,37.3344841003418
2017-04-24,37.35913848876953
2017-04-25,37.35913848876953
2017-04-26,38.00836181640625
2017-04-27,37.47419738769531
2017-04-28,37.449546813964844
2017-05-01,36.89894104003906
2017-05-02,37.21121597290039
2017-05-03,37.02220153808594
2017-05-04,36.82497024536133
2017-05-05,37.39201354980469
2017-05-08,37.3838005065918
2017-05-09,37.04685974121094
2017-05-10,37.12082290649414
2017-05-11,36.81675338745117
2017-05-12,36.75923156738281
2017-05-15,36.80854034423828
2017-05-16,36.718135833740234
2017-05-17,36.38941955566406
2017-05-18,36.372982025146484
2017-05-19,36.73457336425781
2017-05-22,37.07972717285156
2017-05-23,36.75923156738281
2017-05-24,37.10438919067383
2017-05-25,37.11259841918945
2017-05-26,37.11259841918945
2017-05-30,37.145477294921875
2017-05-31,37.260528564453125
2017-06-01,37.1290397644043
2017-06-02,37.202999114990234
2017-06-05,37.21121597290039
2017-06-06,37.318050384521484
2017-06-07,36.742794036865234
2017-06-08,36.92359161376953
2017-06-09,36.997554779052734
2017-06-12,37.367366790771484
2017-06-13,37.35821533203125
2017-06-14,37.308326721191406
2017-06-15,37.17525100708008
2017-06-16,37.41643524169922
2017-06-19,37.566131591796875
2017-06-20,37.25010299682617
2017-06-21,36.842586517333984
2017-06-22,37.025550842285156
2017-06-23,37.10040283203125
2017-06-26,37.208518981933594
2017-06-27,37.24177169799805
2017-06-28,37.66592788696289
2017-06-29,37.507911682128906
2017-06-30,37.458011627197266
2017-07-03,37.51622772216797
2017-07-05,37.55781555175781
2017-07-06,37.41643524169922
2017-07-07,37.49959945678711
2017-07-10,37.408119201660156
2017-07-11,37.25010299682617
2017-07-12,37.82394790649414
2017-07-13,37.740779876708984
2017-07-14,38.22313690185547
2017-07-17,38.18156051635742
2017-07-18,38.28968048095703
2017-07-19,38.4892692565918
2017-07-20,38.796993255615234
2017-07-21,38.81361770629883
2017-07-24,38.73877716064453
2017-07-25,38.68886947631836
2017-07-26,38.93006134033203
2017-07-27,39.15460205078125
2017-07-28,39.046485900878906
2017-07-31,39.02984619140625
2017-08-01,39.1296501159668
2017-08-02,39.262718200683594
2017-08-03,38.880149841308594
2017-08-04,38.846885681152344
2017-08-07,39.088069915771484
2017-08-08,38.96331787109375
2017-08-09,38.68055725097656
2017-08-10,38.37284469604492
2017-08-11,38.45601272583008
2017-08-14,38.69718933105469
2017-08-15,38.73877716064453
2017-08-16,39.113014221191406
2017-08-17,38.796993255615234
2017-08-18,38.89678192138672
2017-08-21,38.98827362060547
2017-08-22,38.97994613647461
2017-08-23,39.17955780029297
2017-08-24,39.271034240722656
2017-08-25,39.52884292602539
2017-08-28,39.56211853027344
2017-08-29,39.51221466064453
2017-08-30,39.379150390625
2017-08-31,39.55379867553711
2017-09-01,39.711814880371094
2017-09-05,39.495582580566406
2017-09-06,39.861507415771484
2017-09-07,39.8947868347168
2017-09-08,39.844879150390625
2017-09-11,39.944679260253906
2017-09-12,39.8947868347168
2017-09-13,39.77003479003906
2017-09-14,39.88706970214844
2017-09-15,40.14810562133789
2017-09-18,39.962852478027344
2017-09-19,40.392295837402344
2017-09-20,40.20705032348633
2017-09-21,40.20705032348633
2017-09-22,40.02179718017578
2017-09-25,39.558685302734375
2017-09-26,39.50815200805664
2017-09-27,39.17976760864258
2017-09-28,39.50815200805664
2017-09-29,39.432373046875
2017-10-02,39.4239616394043
2017-10-03,39.49974060058594
2017-10-04,39.61762619018555
2017-10-05,39.331329345703125
2017-10-06,39.33974838256836
2017-10-09,39.23028564453125
2017-10-10,39.57551956176758
2017-10-11,39.76918411254883
2017-10-12,39.63446044921875
2017-10-13,39.87023162841797
2017-10-16,39.558685302734375
2017-10-17,39.92917251586914
2017-10-18,39.89549255371094
2017-10-19,39.87023162841797
2017-10-20,39.53342056274414
2017-10-23,39.457637786865234
2017-10-24,39.24713134765625
2017-10-25,39.01978302001953
2017-10-26,38.910316467285156
2017-10-27,39.09556579589844
2017-10-30,39.129241943359375
2017-10-31,38.86820983886719
2017-11-01,38.94398880004883
2017-11-02,39.69340133666992
2017-11-03,39.954437255859375
2017-11-06,40.19020462036133
2017-11-07,40.198631286621094
2017-11-08,40.13968276977539
2017-11-09,40.392295837402344
2017-11-10,40.60280227661133
2017-11-13,40.50175094604492
2017-11-14,40.7122688293457
2017-11-15,40.59437561035156
2017-11-16,40.58595657348633
2017-11-17,40.737525939941406
2017-11-20,40.628055572509766
2017-11-21,40.61963653564453
2017-11-22,40.82172393798828
2017-11-24,40.863826751708984
2017-11-27,41.10801696777344
2017-11-28,40.745948791503906
2017-11-29,40.40913009643555
2017-11-30,40.257564544677734
2017-12-01,40.754364013671875
2017-12-04,40.77120590209961
2017-12-05,40.83014678955078
2017-12-06,40.69542694091797
2017-12-07,40.59437561035156
2017-12-08,40.737525939941406
2017-12-11,40.96487808227539
2017-12-12,40.922767639160156
2017-12-13,41.18380355834961
2017-12-14,41.1752815246582
2017-12-15,40.57903289794922
2017-12-18,40.49386215209961
2017-12-19,40.570518493652344
2017-12-20,40.127586364746094
2017-12-21,40.3234977722168
2017-12-22,40.434226989746094
2017-12-26,40.55348205566406
2017-12-27,40.434226989746094
2017-12-28,40.7067985534668
2017-12-29,40.89419174194336
2018-01-02,40.71532440185547
2018-01-03,40.434226989746094
2018-01-04,40.52793502807617
2018-01-05,40.519405364990234
2018-01-08,40.34053039550781
2018-01-09,39.95723342895508
2018-01-10,39.56541061401367
2018-01-11,39.761322021484375
2018-01-12,39.56541061401367
2018-01-16,39.57392120361328
2018-01-17,39.599483489990234
2018-01-18,39.616519927978516
2018-01-19,39.56541061401367
2018-01-22,39.72725296020508
2018-01-23,39.56541061401367
2018-01-24,39.531341552734375
2018-01-25,39.86353302001953
2018-01-26,40.11907196044922
2018-01-29,39.6761474609375
2018-01-30,39.50578689575195
2018-01-31,39.82094192504883
2018-02-01,39.65058517456055
2018-02-02,38.63697052001953
2018-02-05,38.108856201171875
2018-02-06,38.015159606933594
2018-02-07,38.34736251831055
2018-02-08,37.827762603759766
2018-02-09,37.81073760986328
2018-02-12,38.27069854736328
2018-02-13,37.887393951416016
2018-02-14,37.887393951416016
2018-02-15,37.91294479370117
2018-02-16,37.89591979980469
2018-02-20,37.58926773071289
2018-02-21,37.657413482666016
2018-02-22,37.45298385620117
2018-02-23,37.870365142822266
2018-02-26,38.09182357788086
2018-02-27,38.015159606933594
2018-02-28,37.16337966918945
2018-03-01,37.0270881652832
2018-03-02,37.069679260253906
2018-03-05,37.103755950927734
2018-03-06,37.42742919921875
2018-03-07,37.39335250854492
2018-03-08,37.64037322998047
2018-03-09,37.83628845214844
2018-03-12,37.92146682739258
2018-03-13,37.67444610595703
2018-03-14,37.520809173583984
2018-03-15,37.24460983276367
2018-03-16,37.210079193115234
2018-03-19,37.201438903808594
2018-03-20,37.028812408447266
2018-03-21,37.201438903808594
2018-03-22,36.86482238769531
2018-03-23,36.562721252441406
2018-03-26,36.4418830871582
2018-03-27,36.70945358276367
2018-03-28,36.899349212646484
2018-03-29,37.14965057373047
2018-04-02,36.76124954223633
2018-04-03,36.67493438720703
2018-04-04,37.03744888305664
2018-04-05,37.21870803833008
2018-04-06,36.88208770751953
2018-04-09,37.09786605834961
2018-04-10,37.261863708496094
2018-04-11,37.417232513427734
2018-04-12,37.25323486328125
2018-04-13,36.899349212646484
2018-04-16,37.210079193115234
2018-04-17,37.02018737792969
2018-04-18,36.85618591308594
2018-04-19,36.165679931640625
2018-04-20,36.17430114746094
2018-04-23,36.044830322265625
2018-04-24,36.15704345703125
2018-04-25,36.38146209716797
2018-04-26,36.60588073730469
2018-04-27,36.79576873779297
2018-04-30,36.640403747558594
2018-05-01,36.562721252441406
2018-05-02,36.19157028198242
2018-05-03,35.725467681884766
2018-05-04,35.811790466308594
2018-05-07,35.811790466308594
2018-05-08,35.69957733154297
2018-05-09,35.742733001708984
2018-05-10,36.0275764465332
2018-05-11,36.29513931274414
2018-05-14,36.415985107421875
2018-05-15,36.355567932128906
2018-05-16,36.571346282958984
2018-05-17,36.49366760253906
2018-05-18,36.39009094238281
2018-05-21,36.48503875732422
2018-05-22,36.61450958251953
2018-05-23,36.67493438720703
2018-05-24,36.57998275756836
2018-05-25,36.338294982910156
2018-05-29,36.044830322265625
2018-05-30,36.329673767089844
2018-05-31,35.96714782714844
2018-06-01,35.99304962158203
2018-06-04,36.18293762207031
2018-06-05,36.312400817871094
2018-06-06,36.260616302490234
2018-06-07,36.338294982910156
2018-06-08,36.54545974731445
2018-06-11,36.631771087646484
2018-06-12,36.70945358276367
2018-06-13,36.57998275756836
2018-06-14,36.30081558227539
2018-06-15,36.11703109741211
2018-06-18,35.819480895996094
2018-06-19,35.478179931640625
2018-06-20,35.54819107055664
2018-06-21,35.50444030761719
2018-06-22,35.845741271972656
2018-06-25,35.39066696166992
2018-06-26,35.443172454833984
2018-06-27,35.31190872192383
2018-06-28,35.30315017700195
2018-06-29,35.43442916870117
2018-07-02,35.35566329956055
2018-07-03,35.64445877075195
2018-07-05,35.7669792175293
2018-07-06,36.44083786010742
2018-07-09,36.32706069946289
2018-07-10,36.685874938964844
2018-07-11,36.572105407714844
2018-07-12,37.23721694946289
2018-07-13,37.210960388183594
2018-07-16,37.28972625732422
2018-07-17,37.18471145629883
2018-07-18,37.07093811035156
2018-07-19,36.73838806152344
2018-07-20,36.904659271240234
2018-07-23,36.73838806152344
2018-07-24,36.755889892578125
2018-07-25,36.7908935546875
2018-07-26,36.85215759277344
2018-07-27,36.88715744018555
2018-07-30,36.97467041015625
2018-07-31,37.132198333740234
2018-08-01,37.14970016479492
2018-08-02,36.4495849609375
2018-08-03,36.493343353271484
2018-08-06,36.335819244384766
2018-08-07,35.784481048583984
2018-08-08,35.845741271972656
2018-08-09,35.889495849609375
2018-08-10,35.45193099975586
2018-08-13,35.49568557739258
2018-08-14,35.95075988769531
2018-08-15,35.67071533203125
2018-08-16,35.91575622558594
2018-08-17,36.35332107543945
2018-08-20,36.370826721191406
2018-08-21,36.23955154418945
2018-08-22,36.230804443359375
2018-08-23,35.863243103027344
2018-08-24,35.898250579833984
2018-08-27,36.125789642333984
2018-08-28,36.090782165527344
2018-08-29,36.26580810546875
2018-08-30,36.160789489746094
2018-08-31,35.67945861816406
2018-09-04,34.91809844970703
2018-09-05,35.32065200805664
2018-09-06,35.373165130615234
2018-09-07,35.119380950927734
2018-09-10,35.07561492919922
2018-09-11,35.521942138671875
2018-09-12,35.57444763183594
2018-09-13,35.557579040527344
2018-09-14,35.43327713012695
2018-09-17,35.85055923461914
2018-09-18,36.010372161865234
2018-09-19,35.628604888916016
2018-09-20,36.05475997924805
2018-09-21,36.03700256347656
2018-09-24,35.530941009521484
2018-09-25,35.6463623046875
2018-09-26,36.09027862548828
2018-09-27,35.974857330322266
2018-09-28,35.974857330322266
2018-10-01,36.321109771728516
2018-10-02,36.21457290649414
2018-10-03,36.019248962402344
2018-10-04,35.788414001464844
2018-10-05,35.548702239990234
2018-10-08,35.655235290527344
2018-10-09,35.033756256103516
2018-10-10,34.980491638183594
2018-10-11,34.64311599731445
2018-10-12,34.66974639892578
2018-10-15,35.15805435180664
2018-10-16,35.504310607910156
2018-10-17,35.388893127441406
2018-10-18,35.71738815307617
2018-10-19,36.17905807495117
2018-10-22,35.95710372924805
2018-10-23,35.93934631347656
2018-10-24,35.85055923461914
2018-10-25,35.6108512878418
2018-10-26,34.99824523925781
2018-10-29,34.687496185302734
2018-10-30,34.87395095825195
2018-10-31,34.51881790161133
2018-11-01,36.22344970703125
2018-11-02,35.877193450927734
2018-11-05,36.019248962402344
2018-11-06,35.815040588378906
2018-11-07,36.3033561706543
2018-11-08,36.39213943481445
2018-11-09,36.39213943481445
2018-11-12,36.321109771728516
2018-11-13,36.676246643066406
2018-11-14,36.889320373535156
2018-11-15,37.02249526977539
2018-11-16,37.27996826171875
2018-11-19,37.519683837890625
2018-11-20,36.88044738769531
2018-11-21,37.38650894165039
2018-11-23,37.484169006347656
2018-11-26,38.09677505493164
2018-11-27,38.07901382446289
2018-11-28,38.0257453918457
2018-11-29,38.16779708862305
2018-11-30,38.070133209228516
2018-12-03,38.12340545654297
2018-12-04,38.33648681640625
2018-12-06,38.16779708862305
2018-12-07,37.999107360839844
2018-12-10,37.56407165527344
2018-12-11,37.47528839111328
2018-12-12,37.78602981567383
2018-12-13,37.917091369628906
2018-12-14,37.971317291259766
2018-12-17,37.60074234008789
2018-12-18,37.26631164550781
2018-12-19,37.139766693115234
2018-12-20,36.931880950927734
2018-12-21,36.11840057373047
2018-12-24,35.5399284362793
2018-12-26,35.97378158569336
2018-12-27,35.7026252746582
2018-12-28,35.71166229248047
2018-12-31,35.729740142822266
2019-01-02,35.919551849365234
2019-01-03,36.19070816040039
2019-01-04,36.037052154541016
2019-01-07,36.488983154296875
2019-01-08,37.1668815612793
2019-01-09,37.157840728759766
2019-01-10,37.60977554321289
2019-01-11,37.781517028808594
2019-01-14,37.582664489746094
2019-01-15,37.89901351928711
2019-01-16,37.85382080078125
2019-01-17,37.85382080078125
2019-01-18,37.998435974121094
2019-01-22,37.709205627441406
2019-01-23,37.79055404663086
2019-01-24,37.83574295043945
2019-01-25,38.27863311767578
2019-01-28,38.45037078857422
2019-01-29,38.775760650634766
2019-01-30,39.001731872558594
2019-01-31,39.31808090209961
2019-02-01,39.417503356933594
2019-02-04,39.28192138671875
2019-02-05,39.516929626464844
2019-02-06,39.345191955566406
2019-02-07,39.11019515991211
2019-02-08,39.07403564453125
2019-02-11,38.73056411743164
2019-02-12,39.05596160888672
2019-02-13,38.91134262084961
2019-02-14,38.88422393798828
2019-02-15,39.1553840637207
2019-02-19,39.417503356933594
2019-02-20,39.5621223449707
2019-02-21,39.598270416259766
2019-02-22,39.90559005737305
2019-02-25,39.97789764404297
2019-02-26,40.12252426147461
2019-02-27,40.15867233276367
2019-02-28,40.22195053100586
2019-03-01,39.36327362060547
2019-03-04,39.580196380615234
2019-03-05,39.54404067993164
2019-03-06,39.60731506347656
2019-03-07,39.598270416259766
2019-03-08,39.923667907714844
2019-03-11,40.19483184814453
2019-03-12,40.32136535644531
2019-03-13,40.52021789550781
2019-03-14,40.292484283447266
2019-03-15,40.64213562011719
2019-03-18,40.83536148071289
2019-03-19,40.76175308227539
2019-03-20,40.69734573364258
2019-03-21,40.66054153442383
2019-03-22,40.55012512207031
2019-03-25,40.66973876953125
2019-03-26,40.86296844482422
2019-03-27,40.91817855834961
2019-03-28,40.688148498535156
2019-03-29,40.844566345214844
2019-04-01,40.87216567993164
2019-04-02,41.14821243286133
2019-04-03,41.092994689941406
2019-04-04,41.157405853271484
2019-04-05,41.0745964050293
2019-04-08,41.286224365234375
2019-04-09,41.08380126953125
2019-04-10,41.323028564453125
2019-04-11,41.47945785522461
2019-04-12,41.74629211425781
2019-04-15,41.737091064453125
2019-04-16,41.755489349365234
2019-04-17,41.718692779541016
2019-04-18,41.810699462890625
2019-04-22,41.405845642089844
2019-04-23,41.27702331542969
2019-04-24,40.94578170776367
2019-04-25,40.96417999267578
2019-04-26,41.12980651855469
2019-04-29,41.05619430541992
2019-04-30,41.16661071777344
2019-05-01,41.08380126953125
2019-05-02,40.844566345214844
2019-05-03,40.87216567993164
2019-05-06,40.86296844482422
2019-05-07,40.78936004638672
2019-05-08,40.80775833129883
2019-05-09,40.927371978759766
2019-05-10,41.019386291503906
2019-05-13,40.88136672973633
2019-05-14,41.157405853271484
2019-05-15,41.2218132019043
2019-05-16,41.553062438964844
2019-05-17,41.442649841308594
2019-05-20,41.46105194091797
2019-05-21,41.847503662109375
2019-05-22,41.7830924987793
2019-05-23,41.553062438964844
2019-05-24,41.69108200073242
2019-05-28,41.76469802856445
2019-05-29,41.65427780151367
2019-05-30,41.54386520385742
2019-05-31,41.43344497680664
2019-06-03,41.79229736328125
2019-06-04,42.11434555053711
2019-06-05,42.4639892578125
2019-06-06,42.93326187133789
2019-06-07,43.10808181762695
2019-06-10,43.08047866821289
2019-06-11,42.97926330566406
2019-06-12,43.13568878173828
2019-06-13,41.85334396362305
2019-06-14,41.601722717285156
2019-06-17,41.28485870361328
2019-06-18,41.96516799926758
2019-06-19,42.40318298339844
2019-06-20,42.496376037597656
2019-06-21,42.27271270751953
2019-06-24,42.468421936035156
2019-06-25,42.42182159423828
2019-06-26,42.207481384277344
2019-06-27,42.496376037597656
2019-06-28,42.384544372558594
2019-07-01,42.32862854003906
2019-07-02,42.92507553100586
2019-07-03,43.1394157409668
2019-07-05,43.074180603027344
2019-07-08,42.69208526611328
2019-07-09,42.98098373413086
2019-07-10,42.95302963256836
2019-07-11,43.15805435180664
2019-07-12,43.1394157409668
2019-07-15,43.18600845336914
2019-07-16,42.766639709472656
2019-07-17,42.738685607910156
2019-07-18,42.98098373413086
2019-07-19,42.5150146484375
2019-07-22,42.55229187011719
2019-07-23,42.83187484741211
2019-07-24,42.64548873901367
2019-07-25,42.42182159423828
2019-07-26,42.468421936035156
2019-07-29,42.710723876953125
2019-07-30,42.5150146484375
2019-07-31,42.03972625732422
2019-08-01,42.79459762573242
2019-08-02,42.99962615966797
2019-08-05,42.85051345825195
2019-08-06,42.67344665527344
2019-08-07,43.14873123168945
2019-08-08,43.204654693603516
2019-08-09,43.260562896728516
2019-08-12,43.03689956665039
2019-08-13,43.428314208984375
2019-08-14,43.14873123168945
2019-08-15,43.260562896728516
2019-08-16,43.55879211425781
2019-08-19,43.651981353759766
2019-08-20,43.29784393310547
2019-08-21,43.44695281982422
2019-08-22,43.4096794128418
2019-08-23,43.04621887207031
2019-08-26,43.18600845336914
2019-08-27,43.111454010009766
2019-08-28,43.72653579711914
2019-08-29,44.024757385253906
2019-08-30,44.099308013916016
2019-09-03,43.996795654296875
2019-09-04,44.54663848876953
2019-09-05,44.593231201171875
2019-09-06,44.900779724121094
2019-09-09,45.07784652709961
2019-09-10,44.9753303527832
2019-09-11,45.13376235961914
2019-09-12,45.357425689697266
2019-09-13,45.187583923339844
2019-09-16,44.79128646850586
2019-09-17,45.2913818359375
2019-09-18,45.47065353393555
2019-09-19,45.338558197021484
2019-09-20,45.64049530029297
2019-09-23,45.56501388549805
2019-09-24,45.87638854980469
2019-09-25,45.68767166137695
2019-09-26,45.64049530029297
2019-09-27,45.67824172973633
2019-09-30,45.67824172973633
2019-10-01,45.78202819824219
2019-10-02,45.357425689697266
2019-10-03,45.546142578125
2019-10-04,45.885826110839844
2019-10-07,45.75373077392578
2019-10-08,45.71598815917969
2019-10-09,45.81977844238281
2019-10-10,46.16889572143555
2019-10-11,46.12171936035156
2019-10-14,46.05567169189453
2019-10-15,46.253814697265625
2019-10-16,46.1500244140625
2019-10-17,46.112281799316406
2019-10-18,46.112281799316406
2019-10-21,46.31986999511719
2019-10-22,46.04623031616211
2019-10-23,44.0836067199707
2019-10-24,44.01755905151367
2019-10-25,44.01755905151367
2019-10-28,44.498775482177734
2019-10-29,44.66862106323242
2019-10-30,44.989437103271484
2019-10-31,44.77241516113281
2019-11-01,44.838462829589844
2019-11-04,44.7535400390625
2019-11-05,44.92338562011719
2019-11-06,44.961124420166016
2019-11-07,45.338558197021484
2019-11-08,45.1026611328125
2019-11-11,45.52726745605469
2019-11-12,45.64049530029297
2019-11-13,45.64993667602539
2019-11-14,45.68767166137695
2019-11-15,45.76316452026367
2019-11-18,46.01792526245117
2019-11-19,45.64049530029297
2019-11-20,45.338558197021484
2019-11-21,45.338558197021484
2019-11-22,45.140403747558594
2019-11-25,45.197021484375
2019-11-26,45.22532653808594
2019-11-27,45.2630729675293
2019-11-29,45.357425689697266
2019-12-02,45.1026611328125
2019-12-03,45.1026611328125
2019-12-04,45.697113037109375
2019-12-05,45.84808349609375
2019-12-06,45.93301010131836
2019-12-09,45.98961639404297
2019-12-10,45.91413116455078
2019-12-11,46.23495101928711
2019-12-12,46.01792526245117
2019-12-13,45.37879943847656
2019-12-16,45.76093673706055
2019-12-17,44.63363265991211
2019-12-18,44.175071716308594
2019-12-19,44.3183708190918
2019-12-20,44.18461990356445
2019-12-23,44.23238754272461
2019-12-24,44.07953643798828
2019-12-26,44.05087661743164
2019-12-27,44.261051177978516
2019-12-30,44.175071716308594
2019-12-31,44.280155181884766
