Date,BZH
2007-12-31,37.150001525878906
2008-01-02,35.349998474121094
2008-01-03,34.29999923706055
2008-01-04,31.450000762939453
2008-01-07,28.799999237060547
2008-01-08,26.25
2008-01-09,24.950000762939453
2008-01-10,27.950000762939453
2008-01-11,29.399999618530273
2008-01-14,30.299999237060547
2008-01-15,28.5
2008-01-16,30.399999618530273
2008-01-17,29.450000762939453
2008-01-18,28.549999237060547
2008-01-22,28.5
2008-01-23,34.29999923706055
2008-01-24,33.75
2008-01-25,36.04999923706055
2008-01-28,44.04999923706055
2008-01-29,41.400001525878906
2008-01-30,38.650001525878906
2008-01-31,43.54999923706055
2008-02-01,46.54999923706055
2008-02-04,46.0
2008-02-05,43.70000076293945
2008-02-06,44.25
2008-02-07,39.54999923706055
2008-02-08,38.70000076293945
2008-02-11,39.5
2008-02-12,37.29999923706055
2008-02-13,39.849998474121094
2008-02-14,38.79999923706055
2008-02-15,37.650001525878906
2008-02-19,37.5
2008-02-20,39.04999923706055
2008-02-21,37.45000076293945
2008-02-22,37.349998474121094
2008-02-25,38.849998474121094
2008-02-26,41.79999923706055
2008-02-27,42.5
2008-02-28,40.45000076293945
2008-02-29,35.5
2008-03-03,34.5
2008-03-04,35.45000076293945
2008-03-05,35.5
2008-03-06,33.45000076293945
2008-03-07,35.150001525878906
2008-03-10,34.0
2008-03-11,35.70000076293945
2008-03-12,35.95000076293945
2008-03-13,40.849998474121094
2008-03-14,40.04999923706055
2008-03-17,38.45000076293945
2008-03-18,42.75
2008-03-19,43.25
2008-03-20,49.849998474121094
2008-03-24,52.849998474121094
2008-03-25,50.75
2008-03-26,43.75
2008-03-27,45.0
2008-03-28,43.849998474121094
2008-03-31,47.25
2008-04-01,51.79999923706055
2008-04-02,54.150001525878906
2008-04-03,56.95000076293945
2008-04-04,52.70000076293945
2008-04-07,54.45000076293945
2008-04-08,51.099998474121094
2008-04-09,46.45000076293945
2008-04-10,48.849998474121094
2008-04-11,49.599998474121094
2008-04-14,48.79999923706055
2008-04-15,52.5
2008-04-16,54.5
2008-04-17,53.25
2008-04-18,52.25
2008-04-21,51.0
2008-04-22,50.849998474121094
2008-04-23,49.95000076293945
2008-04-24,52.0
2008-04-25,52.5
2008-04-28,55.0
2008-04-29,55.0
2008-04-30,55.349998474121094
2008-05-01,58.650001525878906
2008-05-02,59.25
2008-05-05,57.849998474121094
2008-05-06,60.5
2008-05-07,58.0
2008-05-08,52.75
2008-05-09,49.599998474121094
2008-05-12,47.29999923706055
2008-05-13,45.75
2008-05-14,47.70000076293945
2008-05-15,48.0
2008-05-16,45.79999923706055
2008-05-19,40.70000076293945
2008-05-20,40.75
2008-05-21,36.900001525878906
2008-05-22,36.099998474121094
2008-05-23,35.099998474121094
2008-05-27,35.95000076293945
2008-05-28,35.849998474121094
2008-05-29,36.0
2008-05-30,34.75
2008-06-02,33.349998474121094
2008-06-03,34.45000076293945
2008-06-04,33.79999923706055
2008-06-05,33.0
2008-06-06,30.700000762939453
2008-06-09,30.049999237060547
2008-06-10,29.850000381469727
2008-06-11,26.75
2008-06-12,26.75
2008-06-13,27.450000762939453
2008-06-16,27.0
2008-06-17,26.5
2008-06-18,28.049999237060547
2008-06-19,29.0
2008-06-20,27.299999237060547
2008-06-23,26.899999618530273
2008-06-24,27.299999237060547
2008-06-25,28.399999618530273
2008-06-26,28.299999237060547
2008-06-27,29.5
2008-06-30,27.850000381469727
2008-07-01,26.950000762939453
2008-07-02,26.049999237060547
2008-07-03,24.700000762939453
2008-07-07,22.25
2008-07-08,22.399999618530273
2008-07-09,20.850000381469727
2008-07-10,19.350000381469727
2008-07-11,19.549999237060547
2008-07-14,19.600000381469727
2008-07-15,17.75
2008-07-16,21.0
2008-07-17,24.0
2008-07-18,23.5
2008-07-21,22.299999237060547
2008-07-22,23.700000762939453
2008-07-23,28.299999237060547
2008-07-24,24.850000381469727
2008-07-25,25.799999237060547
2008-07-28,26.5
2008-07-29,28.299999237060547
2008-07-30,29.049999237060547
2008-07-31,31.149999618530273
2008-08-01,29.450000762939453
2008-08-04,29.049999237060547
2008-08-05,30.299999237060547
2008-08-06,29.350000381469727
2008-08-07,29.649999618530273
2008-08-08,30.5
2008-08-11,35.349998474121094
2008-08-12,36.400001525878906
2008-08-13,36.150001525878906
2008-08-14,37.150001525878906
2008-08-15,37.79999923706055
2008-08-18,35.150001525878906
2008-08-19,31.649999618530273
2008-08-20,32.79999923706055
2008-08-21,32.75
2008-08-22,33.900001525878906
2008-08-25,32.20000076293945
2008-08-26,30.350000381469727
2008-08-27,32.70000076293945
2008-08-28,35.45000076293945
2008-08-29,34.79999923706055
2008-09-02,36.900001525878906
2008-09-03,38.099998474121094
2008-09-04,36.5
2008-09-05,39.349998474121094
2008-09-08,44.599998474121094
2008-09-09,41.150001525878906
2008-09-10,43.900001525878906
2008-09-11,45.54999923706055
2008-09-12,42.099998474121094
2008-09-15,37.54999923706055
2008-09-16,36.5
2008-09-17,32.75
2008-09-18,37.25
2008-09-19,34.650001525878906
2008-09-22,30.0
2008-09-23,29.299999237060547
2008-09-24,29.549999237060547
2008-09-25,30.700000762939453
2008-09-26,30.899999618530273
2008-09-29,28.100000381469727
2008-09-30,29.899999618530273
2008-10-01,31.049999237060547
2008-10-02,29.549999237060547
2008-10-03,28.600000381469727
2008-10-06,26.450000762939453
2008-10-07,23.899999618530273
2008-10-08,23.549999237060547
2008-10-09,22.549999237060547
2008-10-10,20.450000762939453
2008-10-13,21.399999618530273
2008-10-14,20.549999237060547
2008-10-15,18.149999618530273
2008-10-16,19.350000381469727
2008-10-17,18.299999237060547
2008-10-20,18.200000762939453
2008-10-21,16.75
2008-10-22,15.600000381469727
2008-10-23,12.350000381469727
2008-10-24,11.149999618530273
2008-10-27,11.300000190734863
2008-10-28,11.649999618530273
2008-10-29,11.399999618530273
2008-10-30,12.25
2008-10-31,15.850000381469727
2008-11-03,15.600000381469727
2008-11-04,19.700000762939453
2008-11-05,16.149999618530273
2008-11-06,15.149999618530273
2008-11-07,14.399999618530273
2008-11-10,11.850000381469727
2008-11-11,11.050000190734863
2008-11-12,9.100000381469727
2008-11-13,10.600000381469727
2008-11-14,10.649999618530273
2008-11-17,10.199999809265137
2008-11-18,11.0
2008-11-19,8.899999618530273
2008-11-20,6.650000095367432
2008-11-21,6.449999809265137
2008-11-24,7.349999904632568
2008-11-25,8.949999809265137
2008-11-26,10.399999618530273
2008-11-28,9.050000190734863
2008-12-01,7.5
2008-12-02,6.900000095367432
2008-12-03,8.850000381469727
2008-12-04,10.25
2008-12-05,10.75
2008-12-08,10.699999809265137
2008-12-09,9.600000381469727
2008-12-10,10.5
2008-12-11,8.149999618530273
2008-12-12,8.5
2008-12-15,8.399999618530273
2008-12-16,10.0
2008-12-17,9.949999809265137
2008-12-18,9.0
2008-12-19,8.25
2008-12-22,7.25
2008-12-23,6.900000095367432
2008-12-24,6.449999809265137
2008-12-26,6.550000190734863
2008-12-29,6.349999904632568
2008-12-30,6.900000095367432
2008-12-31,7.900000095367432
2009-01-02,7.599999904632568
2009-01-05,7.800000190734863
2009-01-06,8.300000190734863
2009-01-07,7.949999809265137
2009-01-08,7.800000190734863
2009-01-09,7.699999809265137
2009-01-12,7.050000190734863
2009-01-13,7.050000190734863
2009-01-14,6.5
2009-01-15,6.150000095367432
2009-01-16,6.449999809265137
2009-01-20,5.800000190734863
2009-01-21,6.150000095367432
2009-01-22,5.599999904632568
2009-01-23,5.449999809265137
2009-01-26,5.599999904632568
2009-01-27,5.349999904632568
2009-01-28,5.599999904632568
2009-01-29,5.199999809265137
2009-01-30,5.150000095367432
2009-02-02,4.900000095367432
2009-02-03,4.650000095367432
2009-02-04,4.150000095367432
2009-02-05,4.400000095367432
2009-02-06,5.0
2009-02-09,5.949999809265137
2009-02-10,5.5
2009-02-11,5.199999809265137
2009-02-12,4.650000095367432
2009-02-13,4.550000190734863
2009-02-17,3.950000047683716
2009-02-18,3.700000047683716
2009-02-19,3.0999999046325684
2009-02-20,2.75
2009-02-23,2.75
2009-02-24,3.200000047683716
2009-02-25,2.799999952316284
2009-02-26,2.700000047683716
2009-02-27,2.4000000953674316
2009-03-02,2.1500000953674316
2009-03-03,2.200000047683716
2009-03-04,2.049999952316284
2009-03-05,1.649999976158142
2009-03-06,1.4500000476837158
2009-03-09,1.25
2009-03-10,1.350000023841858
2009-03-11,1.4500000476837158
2009-03-12,2.4000000953674316
2009-03-13,2.700000047683716
2009-03-16,2.5
2009-03-17,3.75
2009-03-18,4.599999904632568
2009-03-19,5.050000190734863
2009-03-20,3.75
2009-03-23,5.150000095367432
2009-03-24,5.25
2009-03-25,5.349999904632568
2009-03-26,6.25
2009-03-27,5.900000095367432
2009-03-30,5.349999904632568
2009-03-31,5.050000190734863
2009-04-01,4.949999809265137
2009-04-02,5.300000190734863
2009-04-03,5.050000190734863
2009-04-06,4.75
2009-04-07,4.400000095367432
2009-04-08,5.050000190734863
2009-04-09,5.699999809265137
2009-04-13,5.949999809265137
2009-04-14,6.25
2009-04-15,7.5
2009-04-16,7.900000095367432
2009-04-17,8.550000190734863
2009-04-20,7.150000095367432
2009-04-21,8.300000190734863
2009-04-22,8.5
2009-04-23,8.800000190734863
2009-04-24,10.899999618530273
2009-04-27,13.850000381469727
2009-04-28,13.899999618530273
2009-04-29,14.149999618530273
2009-04-30,12.600000381469727
2009-05-01,12.800000190734863
2009-05-04,15.300000190734863
2009-05-05,17.850000381469727
2009-05-06,17.5
2009-05-07,15.350000381469727
2009-05-08,15.300000190734863
2009-05-11,15.949999809265137
2009-05-12,14.449999809265137
2009-05-13,11.300000190734863
2009-05-14,12.050000190734863
2009-05-15,11.699999809265137
2009-05-18,14.050000190734863
2009-05-19,13.699999809265137
2009-05-20,12.75
2009-05-21,11.800000190734863
2009-05-22,11.300000190734863
2009-05-26,12.699999809265137
2009-05-27,12.850000381469727
2009-05-28,11.949999809265137
2009-05-29,12.75
2009-06-01,13.149999618530273
2009-06-02,14.350000381469727
2009-06-03,13.699999809265137
2009-06-04,13.350000381469727
2009-06-05,13.5
2009-06-08,12.800000190734863
2009-06-09,13.300000190734863
2009-06-10,12.800000190734863
2009-06-11,12.550000190734863
2009-06-12,12.5
2009-06-15,11.899999618530273
2009-06-16,11.800000190734863
2009-06-17,9.800000190734863
2009-06-18,8.800000190734863
2009-06-19,9.25
2009-06-22,8.25
2009-06-23,8.649999618530273
2009-06-24,8.800000190734863
2009-06-25,9.350000381469727
2009-06-26,8.75
2009-06-29,9.050000190734863
2009-06-30,9.149999618530273
2009-07-01,9.149999618530273
2009-07-02,9.0
2009-07-06,8.550000190734863
2009-07-07,7.800000190734863
2009-07-08,7.25
2009-07-09,8.199999809265137
2009-07-10,8.5
2009-07-13,9.25
2009-07-14,9.5
2009-07-15,10.25
2009-07-16,10.5
2009-07-17,10.949999809265137
2009-07-20,11.949999809265137
2009-07-21,12.0
2009-07-22,12.050000190734863
2009-07-23,12.850000381469727
2009-07-24,12.949999809265137
2009-07-27,14.75
2009-07-28,14.699999809265137
2009-07-29,14.100000381469727
2009-07-30,15.850000381469727
2009-07-31,16.100000381469727
2009-08-03,16.75
2009-08-04,17.549999237060547
2009-08-05,17.950000762939453
2009-08-06,16.549999237060547
2009-08-07,19.100000381469727
2009-08-10,19.700000762939453
2009-08-11,18.25
2009-08-12,19.950000762939453
2009-08-13,21.0
2009-08-14,21.149999618530273
2009-08-17,19.200000762939453
2009-08-18,20.200000762939453
2009-08-19,19.399999618530273
2009-08-20,19.899999618530273
2009-08-21,19.950000762939453
2009-08-24,19.5
2009-08-25,20.149999618530273
2009-08-26,21.149999618530273
2009-08-27,21.299999237060547
2009-08-28,21.600000381469727
2009-08-31,21.549999237060547
2009-09-01,20.0
2009-09-02,20.149999618530273
2009-09-03,20.399999618530273
2009-09-04,20.450000762939453
2009-09-08,20.950000762939453
2009-09-09,20.75
2009-09-10,21.200000762939453
2009-09-11,21.0
2009-09-14,20.799999237060547
2009-09-15,21.149999618530273
2009-09-16,24.149999618530273
2009-09-17,25.649999618530273
2009-09-18,27.600000381469727
2009-09-21,29.850000381469727
2009-09-22,33.20000076293945
2009-09-23,30.100000381469727
2009-09-24,28.899999618530273
2009-09-25,27.450000762939453
2009-09-28,29.450000762939453
2009-09-29,29.049999237060547
2009-09-30,27.950000762939453
2009-10-01,24.950000762939453
2009-10-02,25.0
2009-10-05,26.0
2009-10-06,26.600000381469727
2009-10-07,26.299999237060547
2009-10-08,28.25
2009-10-09,28.5
2009-10-12,28.049999237060547
2009-10-13,29.5
2009-10-14,29.399999618530273
2009-10-15,29.600000381469727
2009-10-16,28.100000381469727
2009-10-19,27.399999618530273
2009-10-20,26.600000381469727
2009-10-21,24.799999237060547
2009-10-22,26.549999237060547
2009-10-23,25.25
2009-10-26,24.149999618530273
2009-10-27,24.100000381469727
2009-10-28,21.299999237060547
2009-10-29,23.399999618530273
2009-10-30,21.950000762939453
2009-11-02,20.950000762939453
2009-11-03,22.5
2009-11-04,21.700000762939453
2009-11-05,22.799999237060547
2009-11-06,22.350000381469727
2009-11-09,23.450000762939453
2009-11-10,25.5
2009-11-11,28.649999618530273
2009-11-12,27.299999237060547
2009-11-13,27.450000762939453
2009-11-16,25.700000762939453
2009-11-17,25.799999237060547
2009-11-18,25.0
2009-11-19,24.450000762939453
2009-11-20,23.600000381469727
2009-11-23,23.75
2009-11-24,23.600000381469727
2009-11-25,23.649999618530273
2009-11-27,22.600000381469727
2009-11-30,21.5
2009-12-01,22.299999237060547
2009-12-02,21.950000762939453
2009-12-03,21.299999237060547
2009-12-04,21.600000381469727
2009-12-07,21.149999618530273
2009-12-08,20.700000762939453
2009-12-09,20.450000762939453
2009-12-10,20.5
2009-12-11,20.350000381469727
2009-12-14,20.25
2009-12-15,22.450000762939453
2009-12-16,25.450000762939453
2009-12-17,23.399999618530273
2009-12-18,24.399999618530273
2009-12-21,24.799999237060547
2009-12-22,25.25
2009-12-23,24.950000762939453
2009-12-24,25.0
2009-12-28,25.049999237060547
2009-12-29,24.799999237060547
2009-12-30,24.450000762939453
2009-12-31,24.200000762939453
2010-01-04,26.299999237060547
2010-01-05,27.100000381469727
2010-01-06,23.850000381469727
2010-01-07,25.649999618530273
2010-01-08,25.75
2010-01-11,26.200000762939453
2010-01-12,25.600000381469727
2010-01-13,25.399999618530273
2010-01-14,25.549999237060547
2010-01-15,25.100000381469727
2010-01-19,24.399999618530273
2010-01-20,23.200000762939453
2010-01-21,21.899999618530273
2010-01-22,20.5
2010-01-25,20.399999618530273
2010-01-26,20.399999618530273
2010-01-27,20.200000762939453
2010-01-28,20.200000762939453
2010-01-29,19.5
2010-02-01,19.950000762939453
2010-02-02,22.450000762939453
2010-02-03,22.0
2010-02-04,20.549999237060547
2010-02-05,20.799999237060547
2010-02-08,21.600000381469727
2010-02-09,21.649999618530273
2010-02-10,21.149999618530273
2010-02-11,21.950000762939453
2010-02-12,21.600000381469727
2010-02-16,22.25
2010-02-17,21.850000381469727
2010-02-18,21.850000381469727
2010-02-19,21.649999618530273
2010-02-22,21.5
2010-02-23,21.149999618530273
2010-02-24,21.049999237060547
2010-02-25,20.700000762939453
2010-02-26,20.799999237060547
2010-03-01,21.149999618530273
2010-03-02,21.149999618530273
2010-03-03,21.100000381469727
2010-03-04,21.0
2010-03-05,21.049999237060547
2010-03-08,21.25
2010-03-09,21.899999618530273
2010-03-10,22.700000762939453
2010-03-11,22.5
2010-03-12,22.75
2010-03-15,23.649999618530273
2010-03-16,24.950000762939453
2010-03-17,24.75
2010-03-18,24.75
2010-03-19,23.350000381469727
2010-03-22,22.950000762939453
2010-03-23,24.0
2010-03-24,24.25
2010-03-25,23.899999618530273
2010-03-26,24.0
2010-03-29,23.649999618530273
2010-03-30,22.549999237060547
2010-03-31,22.700000762939453
2010-04-01,22.850000381469727
2010-04-05,24.399999618530273
2010-04-06,24.350000381469727
2010-04-07,24.049999237060547
2010-04-08,23.950000762939453
2010-04-09,24.049999237060547
2010-04-12,25.649999618530273
2010-04-13,25.25
2010-04-14,28.149999618530273
2010-04-15,28.549999237060547
2010-04-16,27.399999618530273
2010-04-19,26.899999618530273
2010-04-20,28.399999618530273
2010-04-21,29.700000762939453
2010-04-22,31.75
2010-04-23,33.0
2010-04-26,32.75
2010-04-27,30.0
2010-04-28,30.649999618530273
2010-04-29,32.95000076293945
2010-04-30,32.849998474121094
2010-05-03,34.400001525878906
2010-05-04,29.049999237060547
2010-05-05,28.0
2010-05-06,26.25
2010-05-07,24.75
2010-05-10,28.049999237060547
2010-05-11,28.450000762939453
2010-05-12,28.5
2010-05-13,27.100000381469727
2010-05-14,26.149999618530273
2010-05-17,26.200000762939453
2010-05-18,27.5
2010-05-19,26.950000762939453
2010-05-20,24.799999237060547
2010-05-21,25.350000381469727
2010-05-24,24.600000381469727
2010-05-25,24.950000762939453
2010-05-26,24.450000762939453
2010-05-27,25.549999237060547
2010-05-28,24.850000381469727
2010-06-01,23.799999237060547
2010-06-02,24.049999237060547
2010-06-03,24.049999237060547
2010-06-04,22.899999618530273
2010-06-07,20.399999618530273
2010-06-08,20.25
2010-06-09,19.950000762939453
2010-06-10,21.350000381469727
2010-06-11,21.149999618530273
2010-06-14,20.600000381469727
2010-06-15,22.75
2010-06-16,23.049999237060547
2010-06-17,21.600000381469727
2010-06-18,20.25
2010-06-21,20.049999237060547
2010-06-22,19.399999618530273
2010-06-23,20.200000762939453
2010-06-24,20.549999237060547
2010-06-25,20.600000381469727
2010-06-28,19.950000762939453
2010-06-29,18.549999237060547
2010-06-30,18.149999618530273
2010-07-01,17.450000762939453
2010-07-02,16.899999618530273
2010-07-06,16.049999237060547
2010-07-07,17.049999237060547
2010-07-08,17.100000381469727
2010-07-09,17.899999618530273
2010-07-12,17.450000762939453
2010-07-13,18.549999237060547
2010-07-14,19.100000381469727
2010-07-15,19.799999237060547
2010-07-16,18.5
2010-07-19,17.950000762939453
2010-07-20,19.149999618530273
2010-07-21,18.75
2010-07-22,19.5
2010-07-23,20.200000762939453
2010-07-26,21.450000762939453
2010-07-27,21.350000381469727
2010-07-28,20.200000762939453
2010-07-29,21.299999237060547
2010-07-30,21.149999618530273
2010-08-02,22.200000762939453
2010-08-03,21.5
2010-08-04,21.25
2010-08-05,20.600000381469727
2010-08-06,20.299999237060547
2010-08-09,21.350000381469727
2010-08-10,20.450000762939453
2010-08-11,18.850000381469727
2010-08-12,17.899999618530273
2010-08-13,18.0
2010-08-16,18.100000381469727
2010-08-17,18.850000381469727
2010-08-18,20.049999237060547
2010-08-19,19.049999237060547
2010-08-20,18.5
2010-08-23,17.75
2010-08-24,17.350000381469727
2010-08-25,18.200000762939453
2010-08-26,17.600000381469727
2010-08-27,18.399999618530273
2010-08-30,17.75
2010-08-31,17.299999237060547
2010-09-01,18.950000762939453
2010-09-02,20.299999237060547
2010-09-03,21.799999237060547
2010-09-07,21.25
2010-09-08,20.799999237060547
2010-09-09,21.950000762939453
2010-09-10,22.100000381469727
2010-09-13,23.149999618530273
2010-09-14,22.700000762939453
2010-09-15,21.049999237060547
2010-09-16,20.450000762939453
2010-09-17,20.0
2010-09-20,21.350000381469727
2010-09-21,21.25
2010-09-22,20.600000381469727
2010-09-23,19.899999618530273
2010-09-24,20.899999618530273
2010-09-27,20.850000381469727
2010-09-28,21.100000381469727
2010-09-29,20.600000381469727
2010-09-30,20.649999618530273
2010-10-01,20.950000762939453
2010-10-04,20.799999237060547
2010-10-05,21.049999237060547
2010-10-06,20.700000762939453
2010-10-07,20.899999618530273
2010-10-08,21.049999237060547
2010-10-11,20.75
2010-10-12,21.600000381469727
2010-10-13,21.850000381469727
2010-10-14,21.950000762939453
2010-10-15,20.5
2010-10-18,20.899999618530273
2010-10-19,20.549999237060547
2010-10-20,20.25
2010-10-21,20.75
2010-10-22,20.75
2010-10-25,21.200000762939453
2010-10-26,20.700000762939453
2010-10-27,20.549999237060547
2010-10-28,20.200000762939453
2010-10-29,20.299999237060547
2010-11-01,19.75
2010-11-02,20.899999618530273
2010-11-03,20.899999618530273
2010-11-04,21.649999618530273
2010-11-05,22.549999237060547
2010-11-08,23.25
2010-11-09,22.850000381469727
2010-11-10,23.450000762939453
2010-11-11,23.649999618530273
2010-11-12,23.200000762939453
2010-11-15,21.25
2010-11-16,20.75
2010-11-17,20.399999618530273
2010-11-18,20.600000381469727
2010-11-19,20.549999237060547
2010-11-22,20.600000381469727
2010-11-23,19.950000762939453
2010-11-24,20.399999618530273
2010-11-26,20.149999618530273
2010-11-29,20.450000762939453
2010-11-30,20.799999237060547
2010-12-01,22.25
2010-12-02,23.350000381469727
2010-12-03,22.649999618530273
2010-12-06,23.549999237060547
2010-12-07,23.350000381469727
2010-12-08,23.75
2010-12-09,24.5
2010-12-10,24.200000762939453
2010-12-13,24.0
2010-12-14,23.700000762939453
2010-12-15,23.950000762939453
2010-12-16,24.25
2010-12-17,24.700000762939453
2010-12-20,25.950000762939453
2010-12-21,27.100000381469727
2010-12-22,27.399999618530273
2010-12-23,26.649999618530273
2010-12-27,28.100000381469727
2010-12-28,26.850000381469727
2010-12-29,26.5
2010-12-30,27.100000381469727
2010-12-31,26.950000762939453
2011-01-03,27.850000381469727
2011-01-04,26.950000762939453
2011-01-05,27.899999618530273
2011-01-06,29.450000762939453
2011-01-07,28.950000762939453
2011-01-10,29.200000762939453
2011-01-11,29.5
2011-01-12,29.950000762939453
2011-01-13,29.600000381469727
2011-01-14,30.75
2011-01-18,29.5
2011-01-19,27.899999618530273
2011-01-20,28.0
2011-01-21,27.100000381469727
2011-01-24,28.149999618530273
2011-01-25,27.5
2011-01-26,28.25
2011-01-27,27.850000381469727
2011-01-28,26.649999618530273
2011-01-31,26.75
2011-02-01,28.149999618530273
2011-02-02,27.200000762939453
2011-02-03,27.200000762939453
2011-02-04,26.799999237060547
2011-02-07,27.25
2011-02-08,27.950000762939453
2011-02-09,26.649999618530273
2011-02-10,26.149999618530273
2011-02-11,26.049999237060547
2011-02-14,25.5
2011-02-15,24.600000381469727
2011-02-16,25.600000381469727
2011-02-17,26.350000381469727
2011-02-18,25.899999618530273
2011-02-22,24.0
2011-02-23,23.100000381469727
2011-02-24,23.549999237060547
2011-02-25,24.100000381469727
2011-02-28,23.25
2011-03-01,22.5
2011-03-02,23.049999237060547
2011-03-03,23.600000381469727
2011-03-04,22.850000381469727
2011-03-07,22.399999618530273
2011-03-08,24.0
2011-03-09,23.850000381469727
2011-03-10,23.049999237060547
2011-03-11,23.649999618530273
2011-03-14,22.799999237060547
2011-03-15,22.100000381469727
2011-03-16,21.700000762939453
2011-03-17,21.799999237060547
2011-03-18,22.350000381469727
2011-03-21,22.649999618530273
2011-03-22,22.350000381469727
2011-03-23,22.549999237060547
2011-03-24,22.75
2011-03-25,22.899999618530273
2011-03-28,23.450000762939453
2011-03-29,23.299999237060547
2011-03-30,23.25
2011-03-31,22.850000381469727
2011-04-01,23.100000381469727
2011-04-04,23.149999618530273
2011-04-05,22.549999237060547
2011-04-06,22.399999618530273
2011-04-07,22.600000381469727
2011-04-08,22.299999237060547
2011-04-11,22.5
2011-04-12,22.25
2011-04-13,22.549999237060547
2011-04-14,21.950000762939453
2011-04-15,22.25
2011-04-18,22.700000762939453
2011-04-19,22.600000381469727
2011-04-20,23.5
2011-04-21,23.5
2011-04-25,23.25
2011-04-26,23.600000381469727
2011-04-27,23.299999237060547
2011-04-28,23.399999618530273
2011-04-29,23.299999237060547
2011-05-02,22.799999237060547
2011-05-03,21.649999618530273
2011-05-04,21.25
2011-05-05,21.0
2011-05-06,20.950000762939453
2011-05-09,20.700000762939453
2011-05-10,20.350000381469727
2011-05-11,20.350000381469727
2011-05-12,19.649999618530273
2011-05-13,18.850000381469727
2011-05-16,18.149999618530273
2011-05-17,18.5
2011-05-18,18.850000381469727
2011-05-19,18.649999618530273
2011-05-20,18.700000762939453
2011-05-23,18.350000381469727
2011-05-24,18.0
2011-05-25,18.5
2011-05-26,18.950000762939453
2011-05-27,20.600000381469727
2011-05-31,21.049999237060547
2011-06-01,19.649999618530273
2011-06-02,19.549999237060547
2011-06-03,19.299999237060547
2011-06-06,18.450000762939453
2011-06-07,18.200000762939453
2011-06-08,17.149999618530273
2011-06-09,16.850000381469727
2011-06-10,15.75
2011-06-13,15.899999618530273
2011-06-14,17.0
2011-06-15,16.5
2011-06-16,16.299999237060547
2011-06-17,16.25
2011-06-20,16.299999237060547
2011-06-21,16.700000762939453
2011-06-22,17.149999618530273
2011-06-23,16.950000762939453
2011-06-24,16.600000381469727
2011-06-27,16.75
2011-06-28,16.700000762939453
2011-06-29,16.549999237060547
2011-06-30,16.950000762939453
2011-07-01,17.350000381469727
2011-07-05,17.049999237060547
2011-07-06,17.200000762939453
2011-07-07,18.200000762939453
2011-07-08,17.600000381469727
2011-07-11,16.350000381469727
2011-07-12,16.25
2011-07-13,16.549999237060547
2011-07-14,16.100000381469727
2011-07-15,15.949999809265137
2011-07-18,15.550000190734863
2011-07-19,15.75
2011-07-20,15.899999618530273
2011-07-21,16.200000762939453
2011-07-22,16.5
2011-07-25,16.25
2011-07-26,16.0
2011-07-27,14.899999618530273
2011-07-28,14.75
2011-07-29,14.5
2011-08-01,14.149999618530273
2011-08-02,13.149999618530273
2011-08-03,12.899999618530273
2011-08-04,12.149999618530273
2011-08-05,10.75
2011-08-08,9.699999809265137
2011-08-09,9.149999618530273
2011-08-10,8.100000381469727
2011-08-11,7.849999904632568
2011-08-12,7.900000095367432
2011-08-15,9.350000381469727
2011-08-16,9.199999809265137
2011-08-17,9.050000190734863
2011-08-18,7.900000095367432
2011-08-19,7.900000095367432
2011-08-22,7.5
2011-08-23,7.900000095367432
2011-08-24,8.149999618530273
2011-08-25,8.649999618530273
2011-08-26,9.149999618530273
2011-08-29,9.850000381469727
2011-08-30,10.949999809265137
2011-08-31,10.550000190734863
2011-09-01,10.149999618530273
2011-09-02,9.550000190734863
2011-09-06,9.100000381469727
2011-09-07,10.199999809265137
2011-09-08,9.25
2011-09-09,8.149999618530273
2011-09-12,7.949999809265137
2011-09-13,8.25
2011-09-14,9.0
2011-09-15,9.100000381469727
2011-09-16,9.199999809265137
2011-09-19,9.0
2011-09-20,8.649999618530273
2011-09-21,8.550000190734863
2011-09-22,8.0
2011-09-23,8.199999809265137
2011-09-26,8.5
2011-09-27,8.550000190734863
2011-09-28,8.050000190734863
2011-09-29,7.849999904632568
2011-09-30,7.550000190734863
2011-10-03,7.25
2011-10-04,6.900000095367432
2011-10-05,7.050000190734863
2011-10-06,7.599999904632568
2011-10-07,7.349999904632568
2011-10-10,7.650000095367432
2011-10-11,7.849999904632568
2011-10-12,8.449999809265137
2011-10-13,8.949999809265137
2011-10-14,9.25
2011-10-17,8.850000381469727
2011-10-18,9.350000381469727
2011-10-19,9.350000381469727
2011-10-20,9.449999809265137
2011-10-21,9.850000381469727
2011-10-24,10.100000381469727
2011-10-25,9.550000190734863
2011-10-26,9.699999809265137
2011-10-27,11.0
2011-10-28,11.0
2011-10-31,10.75
2011-11-01,10.199999809265137
2011-11-02,10.300000190734863
2011-11-03,10.300000190734863
2011-11-04,10.199999809265137
2011-11-07,10.149999618530273
2011-11-08,11.800000190734863
2011-11-09,11.0
2011-11-10,11.100000381469727
2011-11-11,12.0
2011-11-14,11.100000381469727
2011-11-15,11.100000381469727
2011-11-16,10.800000190734863
2011-11-17,10.449999809265137
2011-11-18,10.600000381469727
2011-11-21,9.949999809265137
2011-11-22,9.75
2011-11-23,9.699999809265137
2011-11-25,9.399999618530273
2011-11-28,9.899999618530273
2011-11-29,9.800000190734863
2011-11-30,10.75
2011-12-01,11.5
2011-12-02,12.100000381469727
2011-12-05,12.050000190734863
2011-12-06,12.350000381469727
2011-12-07,12.5
2011-12-08,11.850000381469727
2011-12-09,12.350000381469727
2011-12-12,11.899999618530273
2011-12-13,11.300000190734863
2011-12-14,10.75
2011-12-15,10.600000381469727
2011-12-16,11.199999809265137
2011-12-19,10.600000381469727
2011-12-20,12.199999809265137
2011-12-21,12.399999618530273
2011-12-22,12.25
2011-12-23,12.199999809265137
2011-12-27,11.949999809265137
2011-12-28,11.449999809265137
2011-12-29,12.25
2011-12-30,12.399999618530273
2012-01-03,12.699999809265137
2012-01-04,13.0
2012-01-05,13.699999809265137
2012-01-06,14.300000190734863
2012-01-09,14.550000190734863
2012-01-10,15.100000381469727
2012-01-11,15.949999809265137
2012-01-12,15.350000381469727
2012-01-13,15.100000381469727
2012-01-17,14.75
2012-01-18,15.699999809265137
2012-01-19,15.25
2012-01-20,15.0
2012-01-23,14.850000381469727
2012-01-24,15.449999809265137
2012-01-25,16.299999237060547
2012-01-26,16.149999618530273
2012-01-27,16.25
2012-01-30,15.699999809265137
2012-01-31,15.25
2012-02-01,15.850000381469727
2012-02-02,16.25
2012-02-03,18.0
2012-02-06,18.200000762939453
2012-02-07,19.649999618530273
2012-02-08,18.850000381469727
2012-02-09,19.299999237060547
2012-02-10,18.149999618530273
2012-02-13,17.25
2012-02-14,17.75
2012-02-15,18.299999237060547
2012-02-16,17.399999618530273
2012-02-17,17.450000762939453
2012-02-21,16.75
2012-02-22,16.0
2012-02-23,16.549999237060547
2012-02-24,16.149999618530273
2012-02-27,16.149999618530273
2012-02-28,15.75
2012-02-29,15.600000381469727
2012-03-01,16.350000381469727
2012-03-02,16.100000381469727
2012-03-05,15.899999618530273
2012-03-06,14.75
2012-03-07,15.699999809265137
2012-03-08,17.0
2012-03-09,17.399999618530273
2012-03-12,17.5
2012-03-13,17.600000381469727
2012-03-14,17.450000762939453
2012-03-15,18.399999618530273
2012-03-16,18.299999237060547
2012-03-19,18.399999618530273
2012-03-20,17.850000381469727
2012-03-21,18.049999237060547
2012-03-22,17.700000762939453
2012-03-23,16.850000381469727
2012-03-26,16.5
2012-03-27,17.049999237060547
2012-03-28,16.950000762939453
2012-03-29,16.600000381469727
2012-03-30,16.25
2012-04-02,16.350000381469727
2012-04-03,15.5
2012-04-04,15.050000190734863
2012-04-05,14.649999618530273
2012-04-09,14.149999618530273
2012-04-10,13.399999618530273
2012-04-11,14.350000381469727
2012-04-12,15.149999618530273
2012-04-13,14.5
2012-04-16,14.25
2012-04-17,14.649999618530273
2012-04-18,14.199999809265137
2012-04-19,13.649999618530273
2012-04-20,13.75
2012-04-23,13.649999618530273
2012-04-24,13.699999809265137
2012-04-25,14.149999618530273
2012-04-26,15.449999809265137
2012-04-27,16.049999237060547
2012-04-30,15.5
2012-05-01,15.5
2012-05-02,14.649999618530273
2012-05-03,13.550000190734863
2012-05-04,13.449999809265137
2012-05-07,13.449999809265137
2012-05-08,13.550000190734863
2012-05-09,14.199999809265137
2012-05-10,14.050000190734863
2012-05-11,14.449999809265137
2012-05-14,13.800000190734863
2012-05-15,13.449999809265137
2012-05-16,12.800000190734863
2012-05-17,12.0
2012-05-18,12.800000190734863
2012-05-21,12.800000190734863
2012-05-22,12.899999618530273
2012-05-23,13.0
2012-05-24,13.199999809265137
2012-05-25,13.199999809265137
2012-05-29,13.600000381469727
2012-05-30,13.149999618530273
2012-05-31,13.050000190734863
2012-06-01,12.300000190734863
2012-06-04,11.600000381469727
2012-06-05,11.800000190734863
2012-06-06,12.550000190734863
2012-06-07,12.850000381469727
2012-06-08,13.0
2012-06-11,12.25
2012-06-12,12.350000381469727
2012-06-13,12.25
2012-06-14,12.649999618530273
2012-06-15,13.300000190734863
2012-06-18,13.550000190734863
2012-06-19,14.25
2012-06-20,14.699999809265137
2012-06-21,14.149999618530273
2012-06-22,14.5
2012-06-25,14.399999618530273
2012-06-26,14.75
2012-06-27,15.399999618530273
2012-06-28,15.100000381469727
2012-06-29,16.25
2012-07-02,16.649999618530273
2012-07-03,16.600000381469727
2012-07-05,17.0
2012-07-06,16.950000762939453
2012-07-09,16.899999618530273
2012-07-10,14.899999618530273
2012-07-11,14.399999618530273
2012-07-12,14.300000190734863
2012-07-13,14.100000381469727
2012-07-16,14.25
2012-07-17,14.050000190734863
2012-07-18,13.399999618530273
2012-07-19,12.949999809265137
2012-07-20,13.399999618530273
2012-07-23,12.949999809265137
2012-07-24,12.399999618530273
2012-07-25,11.75
2012-07-26,12.300000190734863
2012-07-27,12.300000190734863
2012-07-30,11.850000381469727
2012-07-31,11.600000381469727
2012-08-01,11.25
2012-08-02,11.550000190734863
2012-08-03,11.649999618530273
2012-08-06,12.199999809265137
2012-08-07,12.75
2012-08-08,13.350000381469727
2012-08-09,13.949999809265137
2012-08-10,13.899999618530273
2012-08-13,13.649999618530273
2012-08-14,13.699999809265137
2012-08-15,13.550000190734863
2012-08-16,14.550000190734863
2012-08-17,15.050000190734863
2012-08-20,14.5
2012-08-21,14.449999809265137
2012-08-22,14.800000190734863
2012-08-23,14.699999809265137
2012-08-24,15.149999618530273
2012-08-27,14.600000381469727
2012-08-28,14.600000381469727
2012-08-29,14.649999618530273
2012-08-30,14.399999618530273
2012-08-31,14.699999809265137
2012-09-04,15.050000190734863
2012-09-05,14.699999809265137
2012-09-06,15.5
2012-09-07,15.550000190734863
2012-09-10,15.800000190734863
2012-09-11,16.149999618530273
2012-09-12,16.399999618530273
2012-09-13,17.549999237060547
2012-09-14,18.850000381469727
2012-09-17,18.299999237060547
2012-09-18,17.649999618530273
2012-09-19,18.75
2012-09-20,18.649999618530273
2012-09-21,19.950000762939453
2012-09-24,19.25
2012-09-25,18.200000762939453
2012-09-26,17.5
2012-09-27,18.299999237060547
2012-09-28,17.75
2012-10-01,17.649999618530273
2012-10-02,17.700000762939453
2012-10-03,18.350000381469727
2012-10-04,18.799999237060547
2012-10-05,18.649999618530273
2012-10-08,18.100000381469727
2012-10-09,17.799999237060547
2012-10-10,17.950000762939453
2012-10-11,17.649999618530273
2012-10-12,16.899999618530273
2012-10-15,17.280000686645508
2012-10-16,17.170000076293945
2012-10-17,18.100000381469727
2012-10-18,18.1200008392334
2012-10-19,18.40999984741211
2012-10-22,18.469999313354492
2012-10-23,17.760000228881836
2012-10-24,17.600000381469727
2012-10-25,17.450000762939453
2012-10-26,16.479999542236328
2012-10-31,16.489999771118164
2012-11-01,16.889999389648438
2012-11-02,16.520000457763672
2012-11-05,17.270000457763672
2012-11-06,18.110000610351562
2012-11-07,17.56999969482422
2012-11-08,17.0
2012-11-09,16.639999389648438
2012-11-12,13.770000457763672
2012-11-13,13.869999885559082
2012-11-14,13.329999923706055
2012-11-15,13.149999618530273
2012-11-16,14.399999618530273
2012-11-19,14.819999694824219
2012-11-20,14.859999656677246
2012-11-21,14.699999809265137
2012-11-23,14.479999542236328
2012-11-26,14.699999809265137
2012-11-27,14.5
2012-11-28,14.899999618530273
2012-11-29,14.979999542236328
2012-11-30,14.930000305175781
2012-12-03,14.90999984741211
2012-12-04,14.739999771118164
2012-12-05,14.229999542236328
2012-12-06,14.5
2012-12-07,14.550000190734863
2012-12-10,14.460000038146973
2012-12-11,14.479999542236328
2012-12-12,14.770000457763672
2012-12-13,14.8100004196167
2012-12-14,14.470000267028809
2012-12-17,15.59000015258789
2012-12-18,16.420000076293945
2012-12-19,16.350000381469727
2012-12-20,16.5
2012-12-21,16.260000228881836
2012-12-24,16.760000228881836
2012-12-26,16.549999237060547
2012-12-27,16.59000015258789
2012-12-28,16.260000228881836
2012-12-31,16.889999389648438
2013-01-02,17.920000076293945
2013-01-03,18.049999237060547
2013-01-04,18.59000015258789
2013-01-07,18.93000030517578
2013-01-08,18.59000015258789
2013-01-09,18.75
2013-01-10,18.610000610351562
2013-01-11,18.209999084472656
2013-01-14,17.59000015258789
2013-01-15,17.350000381469727
2013-01-16,17.219999313354492
2013-01-17,17.209999084472656
2013-01-18,17.239999771118164
2013-01-22,17.719999313354492
2013-01-23,18.309999465942383
2013-01-24,18.540000915527344
2013-01-25,18.700000762939453
2013-01-28,18.18000030517578
2013-01-29,19.200000762939453
2013-01-30,18.610000610351562
2013-01-31,18.81999969482422
2013-02-01,18.0
2013-02-04,17.280000686645508
2013-02-05,16.979999542236328
2013-02-06,17.049999237060547
2013-02-07,16.829999923706055
2013-02-08,16.81999969482422
2013-02-11,16.829999923706055
2013-02-12,17.350000381469727
2013-02-13,17.209999084472656
2013-02-14,17.280000686645508
2013-02-15,17.290000915527344
2013-02-19,17.15999984741211
2013-02-20,16.049999237060547
2013-02-21,15.9399995803833
2013-02-22,15.770000457763672
2013-02-25,15.0
2013-02-26,15.640000343322754
2013-02-27,15.800000190734863
2013-02-28,15.569999694824219
2013-03-01,15.470000267028809
2013-03-04,15.510000228881836
2013-03-05,15.960000038146973
2013-03-06,16.299999237060547
2013-03-07,16.3700008392334
2013-03-08,16.520000457763672
2013-03-11,16.420000076293945
2013-03-12,16.200000762939453
2013-03-13,16.350000381469727
2013-03-14,16.889999389648438
2013-03-15,16.989999771118164
2013-03-18,16.5
2013-03-19,16.670000076293945
2013-03-20,16.860000610351562
2013-03-21,16.549999237060547
2013-03-22,16.649999618530273
2013-03-25,16.229999542236328
2013-03-26,15.640000343322754
2013-03-27,16.3799991607666
2013-03-28,15.84000015258789
2013-04-01,15.640000343322754
2013-04-02,15.260000228881836
2013-04-03,14.9399995803833
2013-04-04,14.680000305175781
2013-04-05,14.90999984741211
2013-04-08,14.84000015258789
2013-04-09,14.890000343322754
2013-04-10,14.800000190734863
2013-04-11,14.8100004196167
2013-04-12,15.65999984741211
2013-04-15,14.649999618530273
2013-04-16,14.739999771118164
2013-04-17,14.369999885559082
2013-04-18,14.010000228881836
2013-04-19,14.819999694824219
2013-04-22,15.100000381469727
2013-04-23,15.59000015258789
2013-04-24,15.880000114440918
2013-04-25,16.170000076293945
2013-04-26,16.329999923706055
2013-04-29,16.3799991607666
2013-04-30,16.15999984741211
2013-05-01,16.790000915527344
2013-05-02,18.520000457763672
2013-05-03,19.34000015258789
2013-05-06,19.670000076293945
2013-05-07,19.889999389648438
2013-05-08,19.860000610351562
2013-05-09,20.170000076293945
2013-05-10,20.739999771118164
2013-05-13,20.959999084472656
2013-05-14,21.84000015258789
2013-05-15,21.530000686645508
2013-05-16,21.469999313354492
2013-05-17,22.25
2013-05-20,22.729999542236328
2013-05-21,21.75
2013-05-22,21.530000686645508
2013-05-23,21.56999969482422
2013-05-24,21.350000381469727
2013-05-28,21.790000915527344
2013-05-29,20.850000381469727
2013-05-30,21.049999237060547
2013-05-31,20.700000762939453
2013-06-03,20.0
2013-06-04,19.3799991607666
2013-06-05,18.780000686645508
2013-06-06,19.329999923706055
2013-06-07,19.459999084472656
2013-06-10,19.190000534057617
2013-06-11,18.93000030517578
2013-06-12,18.770000457763672
2013-06-13,19.270000457763672
2013-06-14,19.81999969482422
2013-06-17,19.90999984741211
2013-06-18,19.959999084472656
2013-06-19,19.719999313354492
2013-06-20,18.510000228881836
2013-06-21,17.829999923706055
2013-06-24,16.799999237060547
2013-06-25,17.110000610351562
2013-06-26,17.139999389648438
2013-06-27,17.760000228881836
2013-06-28,17.520000457763672
2013-07-01,17.709999084472656
2013-07-02,17.649999618530273
2013-07-03,17.399999618530273
2013-07-05,17.219999313354492
2013-07-08,16.920000076293945
2013-07-09,17.65999984741211
2013-07-10,17.350000381469727
2013-07-11,18.969999313354492
2013-07-12,18.780000686645508
2013-07-15,18.440000534057617
2013-07-16,18.459999084472656
2013-07-17,18.829999923706055
2013-07-18,18.450000762939453
2013-07-19,18.469999313354492
2013-07-22,18.25
2013-07-23,18.549999237060547
2013-07-24,17.8700008392334
2013-07-25,17.280000686645508
2013-07-26,17.559999465942383
2013-07-29,17.190000534057617
2013-07-30,16.93000030517578
2013-07-31,17.190000534057617
2013-08-01,17.010000228881836
2013-08-02,17.010000228881836
2013-08-05,16.780000686645508
2013-08-06,16.25
2013-08-07,16.09000015258789
2013-08-08,15.920000076293945
2013-08-09,16.15999984741211
2013-08-12,16.719999313354492
2013-08-13,16.239999771118164
2013-08-14,16.079999923706055
2013-08-15,16.5
2013-08-16,17.3799991607666
2013-08-19,16.469999313354492
2013-08-20,17.200000762939453
2013-08-21,17.270000457763672
2013-08-22,17.809999465942383
2013-08-23,17.270000457763672
2013-08-26,17.889999389648438
2013-08-27,17.520000457763672
2013-08-28,17.149999618530273
2013-08-29,17.5
2013-08-30,16.940000534057617
2013-09-03,17.1200008392334
2013-09-04,16.940000534057617
2013-09-05,16.889999389648438
2013-09-06,17.020000457763672
2013-09-09,17.6299991607666
2013-09-10,17.860000610351562
2013-09-11,18.329999923706055
2013-09-12,18.190000534057617
2013-09-13,18.020000457763672
2013-09-16,18.350000381469727
2013-09-17,18.75
2013-09-18,19.579999923706055
2013-09-19,19.34000015258789
2013-09-20,18.31999969482422
2013-09-23,17.90999984741211
2013-09-24,18.200000762939453
2013-09-25,18.18000030517578
2013-09-26,18.299999237060547
2013-09-27,17.860000610351562
2013-09-30,18.0
2013-10-01,18.450000762939453
2013-10-02,18.90999984741211
2013-10-03,17.969999313354492
2013-10-04,17.579999923706055
2013-10-07,17.420000076293945
2013-10-08,17.030000686645508
2013-10-09,16.989999771118164
2013-10-10,17.40999984741211
2013-10-11,18.100000381469727
2013-10-14,17.940000534057617
2013-10-15,17.389999389648438
2013-10-16,17.809999465942383
2013-10-17,18.639999389648438
2013-10-18,18.790000915527344
2013-10-21,18.43000030517578
2013-10-22,19.09000015258789
2013-10-23,19.1299991607666
2013-10-24,19.40999984741211
2013-10-25,19.540000915527344
2013-10-28,18.780000686645508
2013-10-29,18.920000076293945
2013-10-30,18.40999984741211
2013-10-31,18.170000076293945
2013-11-01,17.8799991607666
2013-11-04,18.0
2013-11-05,18.100000381469727
2013-11-06,18.049999237060547
2013-11-07,19.139999389648438
2013-11-08,19.110000610351562
2013-11-11,18.860000610351562
2013-11-12,19.010000228881836
2013-11-13,19.100000381469727
2013-11-14,19.790000915527344
2013-11-15,20.34000015258789
2013-11-18,19.829999923706055
2013-11-19,20.059999465942383
2013-11-20,19.489999771118164
2013-11-21,19.860000610351562
2013-11-22,19.75
2013-11-25,19.950000762939453
2013-11-26,20.709999084472656
2013-11-27,20.770000457763672
2013-11-29,20.809999465942383
2013-12-02,20.639999389648438
2013-12-03,20.420000076293945
2013-12-04,20.520000457763672
2013-12-05,20.030000686645508
2013-12-06,20.309999465942383
2013-12-09,20.790000915527344
2013-12-10,20.6200008392334
2013-12-11,20.280000686645508
2013-12-12,20.59000015258789
2013-12-13,20.56999969482422
2013-12-16,21.239999771118164
2013-12-17,21.75
2013-12-18,22.209999084472656
2013-12-19,22.010000228881836
2013-12-20,22.950000762939453
2013-12-23,23.40999984741211
2013-12-24,24.030000686645508
2013-12-26,23.780000686645508
2013-12-27,23.93000030517578
2013-12-30,23.850000381469727
2013-12-31,24.420000076293945
2014-01-02,24.709999084472656
2014-01-03,24.31999969482422
2014-01-06,23.760000228881836
2014-01-07,22.84000015258789
2014-01-08,22.959999084472656
2014-01-09,22.860000610351562
2014-01-10,23.1200008392334
2014-01-13,22.270000457763672
2014-01-14,22.5
2014-01-15,22.6200008392334
2014-01-16,22.520000457763672
2014-01-17,22.479999542236328
2014-01-21,22.940000534057617
2014-01-22,23.670000076293945
2014-01-23,23.489999771118164
2014-01-24,21.700000762939453
2014-01-27,21.469999313354492
2014-01-28,22.56999969482422
2014-01-29,22.760000228881836
2014-01-30,21.959999084472656
2014-01-31,22.510000228881836
2014-02-03,21.530000686645508
2014-02-04,21.34000015258789
2014-02-05,20.770000457763672
2014-02-06,21.25
2014-02-07,21.200000762939453
2014-02-10,21.3700008392334
2014-02-11,21.239999771118164
2014-02-12,20.65999984741211
2014-02-13,20.950000762939453
2014-02-14,21.260000228881836
2014-02-18,20.780000686645508
2014-02-19,20.56999969482422
2014-02-20,20.780000686645508
2014-02-21,21.489999771118164
2014-02-24,21.950000762939453
2014-02-25,22.299999237060547
2014-02-26,23.489999771118164
2014-02-27,23.5
2014-02-28,23.190000534057617
2014-03-03,23.100000381469727
2014-03-04,23.399999618530273
2014-03-05,23.209999084472656
2014-03-06,22.989999771118164
2014-03-07,22.350000381469727
2014-03-10,21.360000610351562
2014-03-11,21.25
2014-03-12,20.979999542236328
2014-03-13,20.450000762939453
2014-03-14,20.329999923706055
2014-03-17,20.049999237060547
2014-03-18,20.56999969482422
2014-03-19,20.559999465942383
2014-03-20,20.5
2014-03-21,20.649999618530273
2014-03-24,20.31999969482422
2014-03-25,20.059999465942383
2014-03-26,19.780000686645508
2014-03-27,19.639999389648438
2014-03-28,19.670000076293945
2014-03-31,20.079999923706055
2014-04-01,20.450000762939453
2014-04-02,20.799999237060547
2014-04-03,20.780000686645508
2014-04-04,21.100000381469727
2014-04-07,19.6200008392334
2014-04-08,19.799999237060547
2014-04-09,20.1200008392334
2014-04-10,19.649999618530273
2014-04-11,18.969999313354492
2014-04-14,18.549999237060547
2014-04-15,18.56999969482422
2014-04-16,18.989999771118164
2014-04-17,18.520000457763672
2014-04-21,18.729999542236328
2014-04-22,18.899999618530273
2014-04-23,18.729999542236328
2014-04-24,19.09000015258789
2014-04-25,18.809999465942383
2014-04-28,18.719999313354492
2014-04-29,18.739999771118164
2014-04-30,18.959999084472656
2014-05-01,19.799999237060547
2014-05-02,19.940000534057617
2014-05-05,20.010000228881836
2014-05-06,20.049999237060547
2014-05-07,19.920000076293945
2014-05-08,19.579999923706055
2014-05-09,19.600000381469727
2014-05-12,19.700000762939453
2014-05-13,19.510000228881836
2014-05-14,19.34000015258789
2014-05-15,18.739999771118164
2014-05-16,18.649999618530273
2014-05-19,18.81999969482422
2014-05-20,18.25
2014-05-21,18.18000030517578
2014-05-22,19.079999923706055
2014-05-23,19.479999542236328
2014-05-27,19.479999542236328
2014-05-28,19.68000030517578
2014-05-29,19.809999465942383
2014-05-30,19.56999969482422
2014-06-02,19.3700008392334
2014-06-03,19.25
2014-06-04,18.8700008392334
2014-06-05,18.809999465942383
2014-06-06,19.139999389648438
2014-06-09,19.270000457763672
2014-06-10,18.950000762939453
2014-06-11,18.829999923706055
2014-06-12,18.860000610351562
2014-06-13,19.260000228881836
2014-06-16,19.459999084472656
2014-06-17,19.510000228881836
2014-06-18,19.75
2014-06-19,19.399999618530273
2014-06-20,19.290000915527344
2014-06-23,19.8700008392334
2014-06-24,20.25
2014-06-25,20.75
2014-06-26,20.350000381469727
2014-06-27,20.8799991607666
2014-06-30,20.979999542236328
2014-07-01,21.209999084472656
2014-07-02,20.6299991607666
2014-07-03,20.559999465942383
2014-07-07,20.020000457763672
2014-07-08,19.760000228881836
2014-07-09,19.729999542236328
2014-07-10,19.610000610351562
2014-07-11,19.290000915527344
2014-07-14,19.389999389648438
2014-07-15,19.229999542236328
2014-07-16,19.56999969482422
2014-07-17,19.100000381469727
2014-07-18,18.979999542236328
2014-07-21,18.829999923706055
2014-07-22,19.209999084472656
2014-07-23,19.299999237060547
2014-07-24,18.709999084472656
2014-07-25,18.309999465942383
2014-07-28,17.790000915527344
2014-07-29,17.700000762939453
2014-07-30,17.299999237060547
2014-07-31,15.350000381469727
2014-08-01,16.260000228881836
2014-08-04,16.790000915527344
2014-08-05,16.3799991607666
2014-08-06,16.350000381469727
2014-08-07,16.209999084472656
2014-08-08,16.84000015258789
2014-08-11,17.3700008392334
2014-08-12,16.989999771118164
2014-08-13,17.030000686645508
2014-08-14,17.5
2014-08-15,17.309999465942383
2014-08-18,18.010000228881836
2014-08-19,18.3700008392334
2014-08-20,18.700000762939453
2014-08-21,18.75
2014-08-22,18.860000610351562
2014-08-25,18.809999465942383
2014-08-26,19.049999237060547
2014-08-27,18.969999313354492
2014-08-28,18.780000686645508
2014-08-29,18.850000381469727
2014-09-02,18.780000686645508
2014-09-03,18.25
2014-09-04,18.530000686645508
2014-09-05,18.700000762939453
2014-09-08,18.81999969482422
2014-09-09,18.43000030517578
2014-09-10,18.809999465942383
2014-09-11,18.81999969482422
2014-09-12,18.540000915527344
2014-09-15,18.34000015258789
2014-09-16,18.399999618530273
2014-09-17,18.93000030517578
2014-09-18,18.90999984741211
2014-09-19,18.610000610351562
2014-09-22,18.09000015258789
2014-09-23,17.90999984741211
2014-09-24,17.700000762939453
2014-09-25,17.399999618530273
2014-09-26,17.360000610351562
2014-09-29,17.219999313354492
2014-09-30,16.780000686645508
2014-10-01,16.420000076293945
2014-10-02,17.06999969482422
2014-10-03,17.389999389648438
2014-10-06,17.31999969482422
2014-10-07,16.780000686645508
2014-10-08,17.18000030517578
2014-10-09,16.420000076293945
2014-10-10,15.850000381469727
2014-10-13,15.760000228881836
2014-10-14,16.34000015258789
2014-10-15,16.90999984741211
2014-10-16,16.989999771118164
2014-10-17,17.709999084472656
2014-10-20,17.670000076293945
2014-10-21,18.200000762939453
2014-10-22,18.010000228881836
2014-10-23,18.09000015258789
2014-10-24,18.09000015258789
2014-10-27,18.09000015258789
2014-10-28,18.1299991607666
2014-10-29,17.950000762939453
2014-10-30,17.8799991607666
2014-10-31,17.93000030517578
2014-11-03,18.3700008392334
2014-11-04,17.8700008392334
2014-11-05,18.010000228881836
2014-11-06,18.170000076293945
2014-11-07,18.559999465942383
2014-11-10,18.989999771118164
2014-11-11,19.25
2014-11-12,18.6200008392334
2014-11-13,18.670000076293945
2014-11-14,19.06999969482422
2014-11-17,19.309999465942383
2014-11-18,19.700000762939453
2014-11-19,19.540000915527344
2014-11-20,19.950000762939453
2014-11-21,19.989999771118164
2014-11-24,20.030000686645508
2014-11-25,20.270000457763672
2014-11-26,20.209999084472656
2014-11-28,19.940000534057617
2014-12-01,19.1299991607666
2014-12-02,19.190000534057617
2014-12-03,19.200000762939453
2014-12-04,18.81999969482422
2014-12-05,18.93000030517578
2014-12-08,19.06999969482422
2014-12-09,19.139999389648438
2014-12-10,18.110000610351562
2014-12-11,18.219999313354492
2014-12-12,18.149999618530273
2014-12-15,17.3799991607666
2014-12-16,17.020000457763672
2014-12-17,17.510000228881836
2014-12-18,18.040000915527344
2014-12-19,18.719999313354492
2014-12-22,18.75
2014-12-23,18.559999465942383
2014-12-24,18.59000015258789
2014-12-26,18.6299991607666
2014-12-29,18.610000610351562
2014-12-30,18.790000915527344
2014-12-31,19.360000610351562
2015-01-02,19.440000534057617
2015-01-05,19.09000015258789
2015-01-06,18.610000610351562
2015-01-07,19.399999618530273
2015-01-08,19.43000030517578
2015-01-09,19.40999984741211
2015-01-12,19.889999389648438
2015-01-13,18.920000076293945
2015-01-14,18.489999771118164
2015-01-15,16.770000457763672
2015-01-16,17.040000915527344
2015-01-20,16.479999542236328
2015-01-21,16.670000076293945
2015-01-22,16.829999923706055
2015-01-23,16.6299991607666
2015-01-26,16.969999313354492
2015-01-27,17.010000228881836
2015-01-28,16.59000015258789
2015-01-29,17.25
2015-01-30,15.800000190734863
2015-02-02,14.369999885559082
2015-02-03,14.850000381469727
2015-02-04,15.619999885559082
2015-02-05,15.479999542236328
2015-02-06,15.890000343322754
2015-02-09,16.5
2015-02-10,16.93000030517578
2015-02-11,16.889999389648438
2015-02-12,17.170000076293945
2015-02-13,17.1299991607666
2015-02-17,17.280000686645508
2015-02-18,17.110000610351562
2015-02-19,17.229999542236328
2015-02-20,17.059999465942383
2015-02-23,16.690000534057617
2015-02-24,17.229999542236328
2015-02-25,17.170000076293945
2015-02-26,17.0
2015-02-27,17.040000915527344
2015-03-02,16.989999771118164
2015-03-03,16.510000228881836
2015-03-04,16.6200008392334
2015-03-05,16.639999389648438
2015-03-06,16.270000457763672
2015-03-09,16.030000686645508
2015-03-10,15.739999771118164
2015-03-11,16.190000534057617
2015-03-12,16.329999923706055
2015-03-13,16.18000030517578
2015-03-16,16.09000015258789
2015-03-17,15.869999885559082
2015-03-18,16.34000015258789
2015-03-19,16.280000686645508
2015-03-20,17.18000030517578
2015-03-23,17.209999084472656
2015-03-24,17.56999969482422
2015-03-25,17.329999923706055
2015-03-26,17.209999084472656
2015-03-27,17.479999542236328
2015-03-30,17.719999313354492
2015-03-31,17.719999313354492
2015-04-01,17.739999771118164
2015-04-02,18.100000381469727
2015-04-06,18.100000381469727
2015-04-07,17.850000381469727
2015-04-08,18.06999969482422
2015-04-09,18.209999084472656
2015-04-10,18.34000015258789
2015-04-13,18.40999984741211
2015-04-14,18.920000076293945
2015-04-15,18.979999542236328
2015-04-16,18.649999618530273
2015-04-17,18.219999313354492
2015-04-20,18.139999389648438
2015-04-21,18.489999771118164
2015-04-22,18.149999618530273
2015-04-23,17.34000015258789
2015-04-24,17.690000534057617
2015-04-27,17.56999969482422
2015-04-28,17.850000381469727
2015-04-29,17.549999237060547
2015-04-30,17.510000228881836
2015-05-01,18.049999237060547
2015-05-04,17.899999618530273
2015-05-05,17.530000686645508
2015-05-06,17.459999084472656
2015-05-07,17.610000610351562
2015-05-08,17.979999542236328
2015-05-11,17.81999969482422
2015-05-12,17.690000534057617
2015-05-13,17.530000686645508
2015-05-14,17.860000610351562
2015-05-15,18.389999389648438
2015-05-18,18.3799991607666
2015-05-19,18.65999984741211
2015-05-20,18.81999969482422
2015-05-21,18.739999771118164
2015-05-22,18.5
2015-05-26,18.43000030517578
2015-05-27,18.360000610351562
2015-05-28,18.639999389648438
2015-05-29,18.31999969482422
2015-06-01,18.239999771118164
2015-06-02,18.239999771118164
2015-06-03,18.420000076293945
2015-06-04,18.09000015258789
2015-06-05,18.290000915527344
2015-06-08,17.969999313354492
2015-06-09,17.860000610351562
2015-06-10,18.139999389648438
2015-06-11,18.079999923706055
2015-06-12,18.40999984741211
2015-06-15,18.520000457763672
2015-06-16,18.399999618530273
2015-06-17,18.3799991607666
2015-06-18,18.75
2015-06-19,19.25
2015-06-22,19.5
2015-06-23,20.010000228881836
2015-06-24,20.290000915527344
2015-06-25,20.850000381469727
2015-06-26,21.079999923706055
2015-06-29,20.049999237060547
2015-06-30,19.950000762939453
2015-07-01,19.90999984741211
2015-07-02,19.899999618530273
2015-07-06,19.559999465942383
2015-07-07,19.65999984741211
2015-07-08,19.219999313354492
2015-07-09,19.34000015258789
2015-07-10,19.600000381469727
2015-07-13,19.920000076293945
2015-07-14,20.06999969482422
2015-07-15,19.600000381469727
2015-07-16,19.5
2015-07-17,19.190000534057617
2015-07-20,18.8799991607666
2015-07-21,18.809999465942383
2015-07-22,19.229999542236328
2015-07-23,18.969999313354492
2015-07-24,18.34000015258789
2015-07-27,18.059999465942383
2015-07-28,18.479999542236328
2015-07-29,18.81999969482422
2015-07-30,18.889999389648438
2015-07-31,19.18000030517578
2015-08-03,19.100000381469727
2015-08-04,17.93000030517578
2015-08-05,17.1200008392334
2015-08-06,16.940000534057617
2015-08-07,16.8700008392334
2015-08-10,17.0
2015-08-11,17.040000915527344
2015-08-12,16.790000915527344
2015-08-13,17.309999465942383
2015-08-14,17.40999984741211
2015-08-17,17.780000686645508
2015-08-18,18.219999313354492
2015-08-19,18.139999389648438
2015-08-20,17.469999313354492
2015-08-21,17.040000915527344
2015-08-24,15.970000267028809
2015-08-25,15.710000038146973
2015-08-26,16.40999984741211
2015-08-27,16.520000457763672
2015-08-28,16.84000015258789
2015-08-31,16.700000762939453
2015-09-01,16.079999923706055
2015-09-02,16.40999984741211
2015-09-03,16.8700008392334
2015-09-04,16.270000457763672
2015-09-08,17.010000228881836
2015-09-09,16.780000686645508
2015-09-10,16.280000686645508
2015-09-11,16.6200008392334
2015-09-14,16.239999771118164
2015-09-15,16.34000015258789
2015-09-16,16.399999618530273
2015-09-17,16.68000030517578
2015-09-18,16.309999465942383
2015-09-21,15.949999809265137
2015-09-22,15.34000015258789
2015-09-23,15.260000228881836
2015-09-24,15.350000381469727
2015-09-25,15.279999732971191
2015-09-28,13.8100004196167
2015-09-29,13.319999694824219
2015-09-30,13.329999923706055
2015-10-01,13.550000190734863
2015-10-02,13.579999923706055
2015-10-05,14.220000267028809
2015-10-06,13.899999618530273
2015-10-07,14.720000267028809
2015-10-08,15.210000038146973
2015-10-09,14.979999542236328
2015-10-12,15.0600004196167
2015-10-13,14.489999771118164
2015-10-14,13.789999961853027
2015-10-15,14.09000015258789
2015-10-16,14.319999694824219
2015-10-19,15.079999923706055
2015-10-20,15.65999984741211
2015-10-21,15.539999961853027
2015-10-22,15.220000267028809
2015-10-23,15.40999984741211
2015-10-26,15.4399995803833
2015-10-27,14.460000038146973
2015-10-28,14.90999984741211
2015-10-29,14.300000190734863
2015-10-30,14.239999771118164
2015-11-02,14.449999809265137
2015-11-03,14.329999923706055
2015-11-04,14.300000190734863
2015-11-05,14.130000114440918
2015-11-06,14.180000305175781
2015-11-09,13.510000228881836
2015-11-10,14.270000457763672
2015-11-11,14.829999923706055
2015-11-12,14.029999732971191
2015-11-13,13.619999885559082
2015-11-16,13.920000076293945
2015-11-17,13.800000190734863
2015-11-18,14.140000343322754
2015-11-19,14.15999984741211
2015-11-20,14.1899995803833
2015-11-23,14.239999771118164
2015-11-24,14.380000114440918
2015-11-25,14.529999732971191
2015-11-27,14.670000076293945
2015-11-30,14.34000015258789
2015-12-01,14.579999923706055
2015-12-02,13.640000343322754
2015-12-03,13.25
2015-12-04,13.279999732971191
2015-12-07,13.180000305175781
2015-12-08,12.529999732971191
2015-12-09,12.6899995803833
2015-12-10,12.40999984741211
2015-12-11,11.869999885559082
2015-12-14,11.510000228881836
2015-12-15,11.489999771118164
2015-12-16,12.130000114440918
2015-12-17,11.899999618530273
2015-12-18,11.279999732971191
2015-12-21,11.65999984741211
2015-12-22,11.850000381469727
2015-12-23,12.119999885559082
2015-12-24,12.170000076293945
2015-12-28,11.84000015258789
2015-12-29,11.8100004196167
2015-12-30,11.649999618530273
2015-12-31,11.489999771118164
2016-01-04,11.300000190734863
2016-01-05,11.359999656677246
2016-01-06,10.869999885559082
2016-01-07,10.34000015258789
2016-01-08,9.729999542236328
2016-01-11,9.569999694824219
2016-01-12,9.529999732971191
2016-01-13,8.859999656677246
2016-01-14,9.210000038146973
2016-01-15,9.229999542236328
2016-01-19,8.619999885559082
2016-01-20,7.920000076293945
2016-01-21,8.630000114440918
2016-01-22,8.9399995803833
2016-01-25,8.630000114440918
2016-01-26,9.239999771118164
2016-01-27,8.720000267028809
2016-01-28,8.649999618530273
2016-01-29,8.550000190734863
2016-02-01,8.489999771118164
2016-02-02,7.809999942779541
2016-02-03,8.039999961853027
2016-02-04,8.600000381469727
2016-02-05,6.619999885559082
2016-02-08,6.320000171661377
2016-02-09,6.5
2016-02-10,6.940000057220459
2016-02-11,6.519999980926514
2016-02-12,6.710000038146973
2016-02-16,7.110000133514404
2016-02-17,6.980000019073486
2016-02-18,6.920000076293945
2016-02-19,6.670000076293945
2016-02-22,7.139999866485596
2016-02-23,7.019999980926514
2016-02-24,7.21999979019165
2016-02-25,7.449999809265137
2016-02-26,7.429999828338623
2016-02-29,7.320000171661377
2016-03-01,7.760000228881836
2016-03-02,7.96999979019165
2016-03-03,8.34000015258789
2016-03-04,8.199999809265137
2016-03-07,8.4399995803833
2016-03-08,8.100000381469727
2016-03-09,8.229999542236328
2016-03-10,7.989999771118164
2016-03-11,8.899999618530273
2016-03-14,8.6899995803833
2016-03-15,8.300000190734863
2016-03-16,8.600000381469727
2016-03-17,8.90999984741211
2016-03-18,9.130000114440918
2016-03-21,8.779999732971191
2016-03-22,8.699999809265137
2016-03-23,8.069999694824219
2016-03-24,8.25
2016-03-28,8.239999771118164
2016-03-29,8.710000038146973
2016-03-30,8.380000114440918
2016-03-31,8.720000267028809
2016-04-01,8.600000381469727
2016-04-04,8.319999694824219
2016-04-05,8.449999809265137
2016-04-06,8.760000228881836
2016-04-07,8.770000457763672
2016-04-08,8.829999923706055
2016-04-11,8.979999542236328
2016-04-12,9.069999694824219
2016-04-13,9.760000228881836
2016-04-14,9.4399995803833
2016-04-15,9.449999809265137
2016-04-18,9.760000228881836
2016-04-19,9.420000076293945
2016-04-20,9.5600004196167
2016-04-21,9.59000015258789
2016-04-22,9.680000305175781
2016-04-25,9.449999809265137
2016-04-26,9.760000228881836
2016-04-27,9.90999984741211
2016-04-28,8.380000114440918
2016-04-29,8.220000267028809
2016-05-02,8.270000457763672
2016-05-03,7.710000038146973
2016-05-04,7.239999771118164
2016-05-05,7.159999847412109
2016-05-06,7.190000057220459
2016-05-09,7.559999942779541
2016-05-10,7.550000190734863
2016-05-11,7.389999866485596
2016-05-12,7.320000171661377
2016-05-13,7.380000114440918
2016-05-16,7.380000114440918
2016-05-17,7.420000076293945
2016-05-18,7.28000020980835
2016-05-19,7.070000171661377
2016-05-20,7.369999885559082
2016-05-23,7.199999809265137
2016-05-24,7.860000133514404
2016-05-25,7.849999904632568
2016-05-26,7.650000095367432
2016-05-27,7.880000114440918
2016-05-31,7.849999904632568
2016-06-01,7.960000038146973
2016-06-02,7.900000095367432
2016-06-03,7.889999866485596
2016-06-06,8.010000228881836
2016-06-07,8.319999694824219
2016-06-08,8.5600004196167
2016-06-09,8.34000015258789
2016-06-10,7.920000076293945
2016-06-13,7.309999942779541
2016-06-14,7.159999847412109
2016-06-15,7.199999809265137
2016-06-16,7.159999847412109
2016-06-17,7.639999866485596
2016-06-20,7.690000057220459
2016-06-21,7.590000152587891
2016-06-22,7.460000038146973
2016-06-23,7.690000057220459
2016-06-24,7.449999809265137
2016-06-27,6.840000152587891
2016-06-28,7.199999809265137
2016-06-29,7.610000133514404
2016-06-30,7.75
2016-07-01,7.989999771118164
2016-07-05,7.679999828338623
2016-07-06,7.940000057220459
2016-07-07,7.980000019073486
2016-07-08,8.359999656677246
2016-07-11,8.380000114440918
2016-07-12,8.729999542236328
2016-07-13,8.649999618530273
2016-07-14,8.720000267028809
2016-07-15,8.800000190734863
2016-07-18,8.9399995803833
2016-07-19,8.850000381469727
2016-07-20,8.960000038146973
2016-07-21,9.109999656677246
2016-07-22,9.050000190734863
2016-07-25,8.960000038146973
2016-07-26,9.09000015258789
2016-07-27,9.210000038146973
2016-07-28,9.520000457763672
2016-07-29,9.59000015258789
2016-08-01,9.800000190734863
2016-08-02,9.300000190734863
2016-08-03,9.619999885559082
2016-08-04,9.520000457763672
2016-08-05,9.779999732971191
2016-08-08,9.710000038146973
2016-08-09,9.989999771118164
2016-08-10,9.819999694824219
2016-08-11,10.029999732971191
2016-08-12,9.979999542236328
2016-08-15,10.34000015258789
2016-08-16,10.329999923706055
2016-08-17,10.180000305175781
2016-08-18,10.25
2016-08-19,10.279999732971191
2016-08-22,10.3100004196167
2016-08-23,10.859999656677246
2016-08-24,10.859999656677246
2016-08-25,10.699999809265137
2016-08-26,10.649999618530273
2016-08-29,10.930000305175781
2016-08-30,11.25
2016-08-31,11.25
2016-09-01,11.09000015258789
2016-09-02,11.359999656677246
2016-09-06,11.670000076293945
2016-09-07,12.59000015258789
2016-09-08,12.25
2016-09-09,11.359999656677246
2016-09-12,12.010000228881836
2016-09-13,11.550000190734863
2016-09-14,11.4399995803833
2016-09-15,11.229999542236328
2016-09-16,11.0
2016-09-19,11.140000343322754
2016-09-20,10.850000381469727
2016-09-21,11.109999656677246
2016-09-22,11.640000343322754
2016-09-23,11.510000228881836
2016-09-26,11.420000076293945
2016-09-27,11.430000305175781
2016-09-28,11.920000076293945
2016-09-29,11.5600004196167
2016-09-30,11.65999984741211
2016-10-03,11.5600004196167
2016-10-04,11.529999732971191
2016-10-05,11.789999961853027
2016-10-06,11.859999656677246
2016-10-07,11.579999923706055
2016-10-10,11.460000038146973
2016-10-11,11.279999732971191
2016-10-12,11.260000228881836
2016-10-13,11.109999656677246
2016-10-14,11.100000381469727
2016-10-17,11.140000343322754
2016-10-18,11.289999961853027
2016-10-19,11.420000076293945
2016-10-20,11.239999771118164
2016-10-21,11.170000076293945
2016-10-24,11.270000457763672
2016-10-25,10.859999656677246
2016-10-26,10.739999771118164
2016-10-27,10.020000457763672
2016-10-28,10.039999961853027
2016-10-31,10.229999542236328
2016-11-01,10.020000457763672
2016-11-02,9.850000381469727
2016-11-03,9.739999771118164
2016-11-04,9.8100004196167
2016-11-07,10.020000457763672
2016-11-08,9.960000038146973
2016-11-09,10.15999984741211
2016-11-10,10.84000015258789
2016-11-11,11.359999656677246
2016-11-14,11.800000190734863
2016-11-15,11.670000076293945
2016-11-16,12.350000381469727
2016-11-17,12.510000228881836
2016-11-18,13.390000343322754
2016-11-21,13.0
2016-11-22,13.359999656677246
2016-11-23,13.949999809265137
2016-11-25,14.170000076293945
2016-11-28,13.850000381469727
2016-11-29,13.880000114440918
2016-11-30,13.479999542236328
2016-12-01,12.9399995803833
2016-12-02,13.300000190734863
2016-12-05,13.399999618530273
2016-12-06,14.0
2016-12-07,14.920000076293945
2016-12-08,15.470000267028809
2016-12-09,15.09000015258789
2016-12-12,14.890000343322754
2016-12-13,14.59000015258789
2016-12-14,14.229999542236328
2016-12-15,13.960000038146973
2016-12-16,14.3100004196167
2016-12-19,14.1899995803833
2016-12-20,14.220000267028809
2016-12-21,14.220000267028809
2016-12-22,13.680000305175781
2016-12-23,13.640000343322754
2016-12-27,13.770000457763672
2016-12-28,13.609999656677246
2016-12-29,13.539999961853027
2016-12-30,13.300000190734863
2017-01-03,13.1899995803833
2017-01-04,13.649999618530273
2017-01-05,13.65999984741211
2017-01-06,13.020000457763672
2017-01-09,13.09000015258789
2017-01-10,13.199999809265137
2017-01-11,13.430000305175781
2017-01-12,13.239999771118164
2017-01-13,13.3100004196167
2017-01-17,12.970000267028809
2017-01-18,13.119999885559082
2017-01-19,12.75
2017-01-20,12.699999809265137
2017-01-23,12.739999771118164
2017-01-24,13.869999885559082
2017-01-25,14.229999542236328
2017-01-26,14.609999656677246
2017-01-27,14.199999809265137
2017-01-30,14.239999771118164
2017-01-31,14.260000228881836
2017-02-01,14.170000076293945
2017-02-02,14.020000457763672
2017-02-03,14.170000076293945
2017-02-06,13.960000038146973
2017-02-07,13.9399995803833
2017-02-08,14.020000457763672
2017-02-09,13.260000228881836
2017-02-10,13.0600004196167
2017-02-13,13.109999656677246
2017-02-14,13.119999885559082
2017-02-15,13.149999618530273
2017-02-16,12.90999984741211
2017-02-17,12.800000190734863
2017-02-21,13.0600004196167
2017-02-22,12.510000228881836
2017-02-23,12.180000305175781
2017-02-24,12.149999618530273
2017-02-27,12.390000343322754
2017-02-28,12.199999809265137
2017-03-01,12.520000457763672
2017-03-02,12.270000457763672
2017-03-03,12.3100004196167
2017-03-06,12.1899995803833
2017-03-07,12.270000457763672
2017-03-08,12.270000457763672
2017-03-09,11.800000190734863
2017-03-10,12.039999961853027
2017-03-13,11.850000381469727
2017-03-14,11.869999885559082
2017-03-15,12.09000015258789
2017-03-16,12.479999542236328
2017-03-17,12.140000343322754
2017-03-20,11.949999809265137
2017-03-21,11.5
2017-03-22,11.40999984741211
2017-03-23,11.720000267028809
2017-03-24,11.720000267028809
2017-03-27,11.680000305175781
2017-03-28,12.0600004196167
2017-03-29,12.15999984741211
2017-03-30,12.100000381469727
2017-03-31,12.130000114440918
2017-04-03,11.890000343322754
2017-04-04,11.6899995803833
2017-04-05,11.65999984741211
2017-04-06,11.770000457763672
2017-04-07,11.899999618530273
2017-04-10,12.010000228881836
2017-04-11,12.119999885559082
2017-04-12,11.899999618530273
2017-04-13,11.869999885559082
2017-04-17,12.15999984741211
2017-04-18,12.59000015258789
2017-04-19,12.5600004196167
2017-04-20,12.34000015258789
2017-04-21,12.399999618530273
2017-04-24,12.390000343322754
2017-04-25,12.1899995803833
2017-04-26,12.869999885559082
2017-04-27,12.729999542236328
2017-04-28,12.40999984741211
2017-05-01,12.279999732971191
2017-05-02,11.960000038146973
2017-05-03,12.020000457763672
2017-05-04,12.9399995803833
2017-05-05,13.039999961853027
2017-05-08,13.520000457763672
2017-05-09,14.4399995803833
2017-05-10,14.600000381469727
2017-05-11,14.739999771118164
2017-05-12,14.670000076293945
2017-05-15,14.890000343322754
2017-05-16,15.029999732971191
2017-05-17,14.489999771118164
2017-05-18,14.819999694824219
2017-05-19,14.989999771118164
2017-05-22,14.649999618530273
2017-05-23,14.279999732971191
2017-05-24,14.300000190734863
2017-05-25,14.069999694824219
2017-05-26,12.899999618530273
2017-05-30,12.449999809265137
2017-05-31,12.199999809265137
2017-06-01,12.319999694824219
2017-06-02,12.5600004196167
2017-06-05,12.15999984741211
2017-06-06,12.199999809265137
2017-06-07,12.199999809265137
2017-06-08,12.119999885559082
2017-06-09,12.119999885559082
2017-06-12,12.0600004196167
2017-06-13,12.239999771118164
2017-06-14,12.3100004196167
2017-06-15,12.880000114440918
2017-06-16,12.770000457763672
2017-06-19,12.949999809265137
2017-06-20,13.09000015258789
2017-06-21,12.979999542236328
2017-06-22,13.010000228881836
2017-06-23,13.039999961853027
2017-06-26,13.100000381469727
2017-06-27,13.279999732971191
2017-06-28,13.630000114440918
2017-06-29,13.329999923706055
2017-06-30,13.720000267028809
2017-07-03,13.569999694824219
2017-07-05,13.510000228881836
2017-07-06,13.239999771118164
2017-07-07,13.720000267028809
2017-07-10,13.6899995803833
2017-07-11,13.390000343322754
2017-07-12,13.739999771118164
2017-07-13,13.609999656677246
2017-07-14,13.550000190734863
2017-07-17,13.600000381469727
2017-07-18,13.140000343322754
2017-07-19,13.420000076293945
2017-07-20,13.40999984741211
2017-07-21,13.329999923706055
2017-07-24,13.369999885559082
2017-07-25,13.640000343322754
2017-07-26,13.630000114440918
2017-07-27,13.649999618530273
2017-07-28,13.489999771118164
2017-07-31,13.260000228881836
2017-08-01,13.609999656677246
2017-08-02,15.0
2017-08-03,15.319999694824219
2017-08-04,15.449999809265137
2017-08-07,16.079999923706055
2017-08-08,15.75
2017-08-09,15.859999656677246
2017-08-10,15.489999771118164
2017-08-11,15.569999694824219
2017-08-14,16.06999969482422
2017-08-15,16.1200008392334
2017-08-16,16.309999465942383
2017-08-17,16.0
2017-08-18,15.59000015258789
2017-08-21,15.539999961853027
2017-08-22,15.579999923706055
2017-08-23,15.239999771118164
2017-08-24,15.119999885559082
2017-08-25,15.4399995803833
2017-08-28,15.039999961853027
2017-08-29,14.8100004196167
2017-08-30,14.75
2017-08-31,14.90999984741211
2017-09-01,15.079999923706055
2017-09-05,15.100000381469727
2017-09-06,14.920000076293945
2017-09-07,14.880000114440918
2017-09-08,14.829999923706055
2017-09-11,14.930000305175781
2017-09-12,15.1899995803833
2017-09-13,15.029999732971191
2017-09-14,16.920000076293945
2017-09-15,17.610000610351562
2017-09-18,17.780000686645508
2017-09-19,17.989999771118164
2017-09-20,17.559999465942383
2017-09-21,17.479999542236328
2017-09-22,17.549999237060547
2017-09-25,17.3799991607666
2017-09-26,17.709999084472656
2017-09-27,18.139999389648438
2017-09-28,18.420000076293945
2017-09-29,18.739999771118164
2017-10-02,19.1200008392334
2017-10-03,19.65999984741211
2017-10-04,19.709999084472656
2017-10-05,19.450000762939453
2017-10-06,19.280000686645508
2017-10-09,19.149999618530273
2017-10-10,19.25
2017-10-11,19.350000381469727
2017-10-12,19.3700008392334
2017-10-13,19.31999969482422
2017-10-16,19.5
2017-10-17,19.479999542236328
2017-10-18,19.540000915527344
2017-10-19,19.6200008392334
2017-10-20,19.799999237060547
2017-10-23,19.84000015258789
2017-10-24,20.260000228881836
2017-10-25,19.950000762939453
2017-10-26,19.469999313354492
2017-10-27,19.940000534057617
2017-10-30,20.15999984741211
2017-10-31,20.979999542236328
2017-11-01,21.34000015258789
2017-11-02,20.760000228881836
2017-11-03,20.6200008392334
2017-11-06,21.0
2017-11-07,20.780000686645508
2017-11-08,20.829999923706055
2017-11-09,20.860000610351562
2017-11-10,20.520000457763672
2017-11-13,20.860000610351562
2017-11-14,21.559999465942383
2017-11-15,21.530000686645508
2017-11-16,20.459999084472656
2017-11-17,20.5
2017-11-20,21.6200008392334
2017-11-21,21.959999084472656
2017-11-22,21.940000534057617
2017-11-24,21.899999618530273
2017-11-27,21.43000030517578
2017-11-28,21.770000457763672
2017-11-29,21.350000381469727
2017-11-30,21.15999984741211
2017-12-01,20.600000381469727
2017-12-04,20.299999237060547
2017-12-05,20.100000381469727
2017-12-06,19.950000762939453
2017-12-07,19.979999542236328
2017-12-08,19.959999084472656
2017-12-11,19.280000686645508
2017-12-12,19.059999465942383
2017-12-13,18.90999984741211
2017-12-14,18.780000686645508
2017-12-15,18.950000762939453
2017-12-18,19.59000015258789
2017-12-19,18.920000076293945
2017-12-20,19.040000915527344
2017-12-21,19.530000686645508
2017-12-22,18.940000534057617
2017-12-26,19.06999969482422
2017-12-27,19.079999923706055
2017-12-28,19.149999618530273
2017-12-29,19.209999084472656
2018-01-02,19.829999923706055
2018-01-03,20.600000381469727
2018-01-04,20.100000381469727
2018-01-05,20.31999969482422
2018-01-08,19.950000762939453
2018-01-09,19.649999618530273
2018-01-10,19.489999771118164
2018-01-11,20.700000762939453
2018-01-12,20.25
2018-01-16,20.020000457763672
2018-01-17,20.65999984741211
2018-01-18,20.360000610351562
2018-01-19,20.469999313354492
2018-01-22,20.65999984741211
2018-01-23,20.469999313354492
2018-01-24,20.34000015258789
2018-01-25,19.90999984741211
2018-01-26,19.729999542236328
2018-01-29,18.899999618530273
2018-01-30,18.459999084472656
2018-01-31,18.540000915527344
2018-02-01,19.100000381469727
2018-02-02,18.5
2018-02-05,17.399999618530273
2018-02-06,17.56999969482422
2018-02-07,17.469999313354492
2018-02-08,15.5
2018-02-09,15.25
2018-02-12,15.90999984741211
2018-02-13,15.949999809265137
2018-02-14,16.809999465942383
2018-02-15,16.450000762939453
2018-02-16,17.040000915527344
2018-02-20,16.979999542236328
2018-02-21,17.0
2018-02-22,16.610000610351562
2018-02-23,16.829999923706055
2018-02-26,17.139999389648438
2018-02-27,16.389999389648438
2018-02-28,15.720000267028809
2018-03-01,16.059999465942383
2018-03-02,16.0
2018-03-05,16.260000228881836
2018-03-06,16.600000381469727
2018-03-07,16.469999313354492
2018-03-08,16.3799991607666
2018-03-09,16.5
2018-03-12,16.760000228881836
2018-03-13,16.860000610351562
2018-03-14,16.399999618530273
2018-03-15,16.030000686645508
2018-03-16,16.350000381469727
2018-03-19,16.200000762939453
2018-03-20,16.15999984741211
2018-03-21,16.760000228881836
2018-03-22,16.270000457763672
2018-03-23,16.0
2018-03-26,16.18000030517578
2018-03-27,15.770000457763672
2018-03-28,15.800000190734863
2018-03-29,15.949999809265137
2018-04-02,15.130000114440918
2018-04-03,15.59000015258789
2018-04-04,16.260000228881836
2018-04-05,17.270000457763672
2018-04-06,16.510000228881836
2018-04-09,16.100000381469727
2018-04-10,16.469999313354492
2018-04-11,16.040000915527344
2018-04-12,15.920000076293945
2018-04-13,15.890000343322754
2018-04-16,16.190000534057617
2018-04-17,16.3799991607666
2018-04-18,16.520000457763672
2018-04-19,15.489999771118164
2018-04-20,15.34000015258789
2018-04-23,14.739999771118164
2018-04-24,14.770000457763672
2018-04-25,14.90999984741211
2018-04-26,15.270000457763672
2018-04-27,15.239999771118164
2018-04-30,14.680000305175781
2018-05-01,15.25
2018-05-02,15.4399995803833
2018-05-03,16.110000610351562
2018-05-04,15.899999618530273
2018-05-07,16.530000686645508
2018-05-08,15.869999885559082
2018-05-09,15.470000267028809
2018-05-10,15.65999984741211
2018-05-11,15.59000015258789
2018-05-14,15.289999961853027
2018-05-15,14.380000114440918
2018-05-16,14.819999694824219
2018-05-17,15.119999885559082
2018-05-18,15.3100004196167
2018-05-21,15.350000381469727
2018-05-22,15.050000190734863
2018-05-23,15.260000228881836
2018-05-24,15.319999694824219
2018-05-25,15.470000267028809
2018-05-29,15.649999618530273
2018-05-30,15.359999656677246
2018-05-31,15.100000381469727
2018-06-01,15.149999618530273
2018-06-04,15.079999923706055
2018-06-05,14.979999542236328
2018-06-06,15.15999984741211
2018-06-07,15.5
2018-06-08,15.9399995803833
2018-06-11,15.800000190734863
2018-06-12,15.960000038146973
2018-06-13,15.020000457763672
2018-06-14,15.180000305175781
2018-06-15,15.09000015258789
2018-06-18,14.630000114440918
2018-06-19,14.479999542236328
2018-06-20,14.460000038146973
2018-06-21,14.380000114440918
2018-06-22,14.449999809265137
2018-06-25,14.260000228881836
2018-06-26,14.600000381469727
2018-06-27,14.359999656677246
2018-06-28,14.5600004196167
2018-06-29,14.75
2018-07-02,14.670000076293945
2018-07-03,14.9399995803833
2018-07-05,14.920000076293945
2018-07-06,14.84000015258789
2018-07-09,14.819999694824219
2018-07-10,15.25
2018-07-11,16.0
2018-07-12,15.550000190734863
2018-07-13,15.5600004196167
2018-07-16,15.239999771118164
2018-07-17,15.640000343322754
2018-07-18,15.5600004196167
2018-07-19,15.699999809265137
2018-07-20,15.149999618530273
2018-07-23,14.859999656677246
2018-07-24,14.380000114440918
2018-07-25,13.279999732971191
2018-07-26,13.550000190734863
2018-07-27,12.619999885559082
2018-07-30,12.850000381469727
2018-07-31,12.8100004196167
2018-08-01,12.84000015258789
2018-08-02,12.979999542236328
2018-08-03,12.84000015258789
2018-08-06,12.800000190734863
2018-08-07,13.170000076293945
2018-08-08,13.270000457763672
2018-08-09,13.359999656677246
2018-08-10,13.220000267028809
2018-08-13,12.75
2018-08-14,12.90999984741211
2018-08-15,12.479999542236328
2018-08-16,12.789999961853027
2018-08-17,12.84000015258789
2018-08-20,12.850000381469727
2018-08-21,13.199999809265137
2018-08-22,12.970000267028809
2018-08-23,12.670000076293945
2018-08-24,12.65999984741211
2018-08-27,12.920000076293945
2018-08-28,12.989999771118164
2018-08-29,12.949999809265137
2018-08-30,12.770000457763672
2018-08-31,12.8100004196167
2018-09-04,12.850000381469727
2018-09-05,13.050000190734863
2018-09-06,12.600000381469727
2018-09-07,12.180000305175781
2018-09-10,11.84000015258789
2018-09-11,11.84000015258789
2018-09-12,11.930000305175781
2018-09-13,12.029999732971191
2018-09-14,12.029999732971191
2018-09-17,12.0600004196167
2018-09-18,12.029999732971191
2018-09-19,12.079999923706055
2018-09-20,12.0600004196167
2018-09-21,11.199999809265137
2018-09-24,11.09000015258789
2018-09-25,11.079999923706055
2018-09-26,10.850000381469727
2018-09-27,10.649999618530273
2018-09-28,10.5
2018-10-01,10.630000114440918
2018-10-02,10.979999542236328
2018-10-03,10.949999809265137
2018-10-04,10.609999656677246
2018-10-05,10.539999961853027
2018-10-08,10.6899995803833
2018-10-09,10.479999542236328
2018-10-10,10.09000015258789
2018-10-11,9.779999732971191
2018-10-12,9.369999885559082
2018-10-15,9.479999542236328
2018-10-16,9.90999984741211
2018-10-17,9.819999694824219
2018-10-18,9.510000228881836
2018-10-19,9.119999885559082
2018-10-22,8.869999885559082
2018-10-23,9.210000038146973
2018-10-24,8.4399995803833
2018-10-25,8.5
2018-10-26,8.670000076293945
2018-10-29,8.270000457763672
2018-10-30,8.789999961853027
2018-10-31,8.8100004196167
2018-11-01,9.050000190734863
2018-11-02,9.010000228881836
2018-11-05,9.220000267028809
2018-11-06,9.09000015258789
2018-11-07,9.09000015258789
2018-11-08,8.800000190734863
2018-11-09,8.640000343322754
2018-11-12,8.319999694824219
2018-11-13,10.869999885559082
2018-11-14,10.199999809265137
2018-11-15,9.819999694824219
2018-11-16,10.239999771118164
2018-11-19,10.300000190734863
2018-11-20,9.84000015258789
2018-11-21,10.4399995803833
2018-11-23,10.529999732971191
2018-11-26,10.550000190734863
2018-11-27,10.850000381469727
2018-11-28,11.050000190734863
2018-11-29,11.170000076293945
2018-11-30,11.260000228881836
2018-12-03,11.380000114440918
2018-12-04,10.880000114440918
2018-12-06,11.0
2018-12-07,10.850000381469727
2018-12-10,10.699999809265137
2018-12-11,10.6899995803833
2018-12-12,10.770000457763672
2018-12-13,10.680000305175781
2018-12-14,10.5600004196167
2018-12-17,10.470000267028809
2018-12-18,10.5600004196167
2018-12-19,10.460000038146973
2018-12-20,10.34000015258789
2018-12-21,9.65999984741211
2018-12-24,9.229999542236328
2018-12-26,9.720000267028809
2018-12-27,9.6899995803833
2018-12-28,9.710000038146973
2018-12-31,9.479999542236328
2019-01-02,10.050000190734863
2019-01-03,10.050000190734863
2019-01-04,10.65999984741211
2019-01-07,11.359999656677246
2019-01-08,11.609999656677246
2019-01-09,12.079999923706055
2019-01-10,11.970000267028809
2019-01-11,12.039999961853027
2019-01-14,11.859999656677246
2019-01-15,11.770000457763672
2019-01-16,11.84000015258789
2019-01-17,11.819999694824219
2019-01-18,11.619999885559082
2019-01-22,11.319999694824219
2019-01-23,11.479999542236328
2019-01-24,11.739999771118164
2019-01-25,11.600000381469727
2019-01-28,11.529999732971191
2019-01-29,11.699999809265137
2019-01-30,12.039999961853027
2019-01-31,12.529999732971191
2019-02-01,12.899999618530273
2019-02-04,13.039999961853027
2019-02-05,12.550000190734863
2019-02-06,11.869999885559082
2019-02-07,11.489999771118164
2019-02-08,11.449999809265137
2019-02-11,11.869999885559082
2019-02-12,13.1899995803833
2019-02-13,12.850000381469727
2019-02-14,12.600000381469727
2019-02-15,12.899999618530273
2019-02-19,13.1899995803833
2019-02-20,13.130000114440918
2019-02-21,13.359999656677246
2019-02-22,13.0600004196167
2019-02-25,12.920000076293945
2019-02-26,12.520000457763672
2019-02-27,12.430000305175781
2019-02-28,12.119999885559082
2019-03-01,12.09000015258789
2019-03-04,12.380000114440918
2019-03-05,11.989999771118164
2019-03-06,11.630000114440918
2019-03-07,11.84000015258789
2019-03-08,11.829999923706055
2019-03-11,12.210000038146973
2019-03-12,12.109999656677246
2019-03-13,12.010000228881836
2019-03-14,11.819999694824219
2019-03-15,11.5
2019-03-18,11.550000190734863
2019-03-19,11.319999694824219
2019-03-20,11.369999885559082
2019-03-21,11.710000038146973
2019-03-22,11.5600004196167
2019-03-25,11.65999984741211
2019-03-26,11.529999732971191
2019-03-27,12.170000076293945
2019-03-28,11.739999771118164
2019-03-29,11.510000228881836
2019-04-01,11.75
2019-04-02,11.600000381469727
2019-04-03,11.640000343322754
2019-04-04,12.069999694824219
2019-04-05,12.279999732971191
2019-04-08,12.210000038146973
2019-04-09,12.100000381469727
2019-04-10,12.399999618530273
2019-04-11,12.720000267028809
2019-04-12,12.670000076293945
2019-04-15,12.680000305175781
2019-04-16,12.649999618530273
2019-04-17,12.880000114440918
2019-04-18,13.100000381469727
2019-04-22,12.680000305175781
2019-04-23,13.079999923706055
2019-04-24,13.130000114440918
2019-04-25,12.760000228881836
2019-04-26,12.90999984741211
2019-04-29,13.119999885559082
2019-04-30,13.289999961853027
2019-05-01,13.619999885559082
2019-05-02,14.239999771118164
2019-05-03,12.510000228881836
2019-05-06,11.800000190734863
2019-05-07,10.899999618530273
2019-05-08,10.539999961853027
2019-05-09,10.5
2019-05-10,10.319999694824219
2019-05-13,10.1899995803833
2019-05-14,10.4399995803833
2019-05-15,10.220000267028809
2019-05-16,10.130000114440918
2019-05-17,9.710000038146973
2019-05-20,10.039999961853027
2019-05-21,10.100000381469727
2019-05-22,9.619999885559082
2019-05-23,9.40999984741211
2019-05-24,9.699999809265137
2019-05-28,9.569999694824219
2019-05-29,9.279999732971191
2019-05-30,9.149999618530273
2019-05-31,9.079999923706055
2019-06-03,9.3100004196167
2019-06-04,9.430000305175781
2019-06-05,9.380000114440918
2019-06-06,9.350000381469727
2019-06-07,9.640000343322754
2019-06-10,9.75
2019-06-11,9.6899995803833
2019-06-12,9.649999618530273
2019-06-13,9.819999694824219
2019-06-14,9.989999771118164
2019-06-17,9.880000114440918
2019-06-18,10.09000015258789
2019-06-19,9.949999809265137
2019-06-20,10.0
2019-06-21,9.710000038146973
2019-06-24,9.479999542236328
2019-06-25,9.25
2019-06-26,9.180000305175781
2019-06-27,9.5
2019-06-28,9.609999656677246
2019-07-01,9.739999771118164
2019-07-02,9.869999885559082
2019-07-03,10.0600004196167
2019-07-05,9.960000038146973
2019-07-08,10.109999656677246
2019-07-09,10.0600004196167
2019-07-10,10.520000457763672
2019-07-11,10.600000381469727
2019-07-12,10.670000076293945
2019-07-15,10.539999961853027
2019-07-16,10.710000038146973
2019-07-17,10.550000190734863
2019-07-18,10.579999923706055
2019-07-19,10.539999961853027
2019-07-22,10.670000076293945
2019-07-23,10.5
2019-07-24,10.989999771118164
2019-07-25,11.319999694824219
2019-07-26,11.319999694824219
2019-07-29,11.1899995803833
2019-07-30,11.710000038146973
2019-07-31,11.720000267028809
2019-08-01,11.25
2019-08-02,11.4399995803833
2019-08-05,10.9399995803833
2019-08-06,11.289999961853027
2019-08-07,11.729999542236328
2019-08-08,11.640000343322754
2019-08-09,11.609999656677246
2019-08-12,11.460000038146973
2019-08-13,11.75
2019-08-14,11.510000228881836
2019-08-15,11.3100004196167
2019-08-16,11.4399995803833
2019-08-19,12.029999732971191
2019-08-20,12.609999656677246
2019-08-21,12.869999885559082
2019-08-22,12.760000228881836
2019-08-23,12.34000015258789
2019-08-26,12.4399995803833
2019-08-27,12.210000038146973
2019-08-28,12.359999656677246
2019-08-29,12.420000076293945
2019-08-30,12.529999732971191
2019-09-03,12.109999656677246
2019-09-04,12.489999771118164
2019-09-05,12.380000114440918
2019-09-06,12.520000457763672
2019-09-09,12.869999885559082
2019-09-10,13.1899995803833
2019-09-11,13.729999542236328
2019-09-12,14.149999618530273
2019-09-13,14.09000015258789
2019-09-16,14.109999656677246
2019-09-17,14.279999732971191
2019-09-18,14.149999618530273
2019-09-19,14.010000228881836
2019-09-20,13.899999618530273
2019-09-23,13.84000015258789
2019-09-24,14.119999885559082
2019-09-25,14.710000038146973
2019-09-26,14.829999923706055
2019-09-27,14.65999984741211
2019-09-30,14.899999618530273
2019-10-01,14.65999984741211
2019-10-02,14.619999885559082
2019-10-03,14.65999984741211
2019-10-04,15.319999694824219
2019-10-07,15.65999984741211
2019-10-08,15.369999885559082
2019-10-09,15.210000038146973
2019-10-10,14.979999542236328
2019-10-11,15.100000381469727
2019-10-14,15.270000457763672
2019-10-15,15.460000038146973
2019-10-16,16.020000457763672
2019-10-17,15.920000076293945
2019-10-18,16.139999389648438
2019-10-21,16.389999389648438
2019-10-22,16.209999084472656
2019-10-23,16.219999313354492
2019-10-24,16.06999969482422
2019-10-25,15.84000015258789
2019-10-28,15.75
2019-10-29,15.239999771118164
2019-10-30,15.25
2019-10-31,15.010000228881836
2019-11-01,15.289999961853027
2019-11-04,14.75
2019-11-05,14.539999961853027
2019-11-06,14.680000305175781
2019-11-07,14.369999885559082
2019-11-08,14.0600004196167
2019-11-11,14.140000343322754
2019-11-12,14.470000267028809
2019-11-13,14.670000076293945
2019-11-14,15.680000305175781
2019-11-15,15.619999885559082
2019-11-18,15.699999809265137
2019-11-19,15.550000190734863
2019-11-20,15.65999984741211
2019-11-21,15.289999961853027
2019-11-22,14.789999961853027
2019-11-25,15.109999656677246
2019-11-26,15.430000305175781
2019-11-27,15.289999961853027
2019-11-29,15.319999694824219
2019-12-02,15.170000076293945
2019-12-03,14.989999771118164
2019-12-04,14.989999771118164
2019-12-05,15.100000381469727
2019-12-06,15.199999809265137
2019-12-09,15.699999809265137
2019-12-10,15.819999694824219
2019-12-11,16.18000030517578
2019-12-12,15.680000305175781
2019-12-13,15.4399995803833
2019-12-16,15.039999961853027
2019-12-17,14.880000114440918
2019-12-18,14.670000076293945
2019-12-19,14.1899995803833
2019-12-20,14.380000114440918
2019-12-23,14.380000114440918
2019-12-24,14.609999656677246
2019-12-26,14.34000015258789
2019-12-27,14.289999961853027
2019-12-30,14.170000076293945
2019-12-31,14.130000114440918
