Date,CMO
2007-12-31,3.2172701358795166
2008-01-02,3.2392215728759766
2008-01-03,3.1953163146972656
2008-01-04,3.2221484184265137
2008-01-07,3.219708204269409
2008-01-08,3.2806873321533203
2008-01-09,3.2928848266601562
2008-01-10,3.3660593032836914
2008-01-11,3.346546173095703
2008-01-14,3.509970188140869
2008-01-15,3.624610424041748
2008-01-16,3.661198139190674
2008-01-17,3.700226306915283
2008-01-18,3.6563189029693604
2008-01-22,3.8099873065948486
2008-01-23,3.946582317352295
2008-01-24,3.946582317352295
2008-01-25,3.805109739303589
2008-01-28,3.856332778930664
2008-01-29,3.5953409671783447
2008-01-30,3.6319284439086914
2008-01-31,3.658759355545044
2008-02-01,3.8929202556610107
2008-02-04,3.8636507987976074
2008-02-05,3.9173126220703125
2008-02-06,3.8538949489593506
2008-02-07,3.8636507987976074
2008-02-08,4.234403133392334
2008-02-11,4.217331886291504
2008-02-12,4.329532623291016
2008-02-13,4.290506839752197
2008-02-14,4.356363773345947
2008-02-15,4.283187389373779
2008-02-19,4.327093601226807
2008-02-20,4.458808422088623
2008-02-21,4.417342185974121
2008-02-22,4.480762958526611
2008-02-25,4.402707099914551
2008-02-26,4.346607208251953
2008-02-27,4.268552780151367
2008-02-28,4.266114711761475
2008-02-29,4.200255393981934
2008-03-03,4.017317771911621
2008-03-04,4.131959915161133
2008-03-05,3.975853204727173
2008-03-06,2.7562663555145264
2008-03-07,2.902615547180176
2008-03-10,2.446490526199341
2008-03-11,3.0270133018493652
2008-03-12,2.912372350692749
2008-03-13,2.639185667037964
2008-03-14,2.3220927715301514
2008-03-17,2.15378999710083
2008-03-18,2.9245691299438477
2008-03-19,3.1123855113983154
2008-03-20,3.402646780014038
2008-03-24,3.3002007007598877
2008-03-25,3.3172764778137207
2008-03-26,3.2172701358795166
2008-03-27,3.0852274894714355
2008-03-28,2.9277913570404053
2008-03-31,2.894782066345215
2008-04-01,3.1182384490966797
2008-04-02,3.120776414871216
2008-04-03,3.15124773979187
2008-04-04,3.1487088203430176
2008-04-07,3.2375831604003906
2008-04-08,3.2909088134765625
2008-04-09,3.2325046062469482
2008-04-10,3.2959868907928467
2008-04-11,3.184257984161377
2008-04-14,3.260437488555908
2008-04-15,3.2985260486602783
2008-04-16,3.351851224899292
2008-04-17,3.3721654415130615
2008-04-18,3.3721654415130615
2008-04-21,3.428030252456665
2008-04-22,3.392479419708252
2008-04-23,3.219808578491211
2008-04-24,3.161404848098755
2008-04-25,3.136012554168701
2008-04-28,3.1715617179870605
2008-04-29,3.120776414871216
2008-04-30,3.2756731510162354
2008-05-01,3.2756731510162354
2008-05-02,3.3721654415130615
2008-05-05,3.268054962158203
2008-05-06,3.308683156967163
2008-05-07,3.32899808883667
2008-05-08,3.318840980529785
2008-05-09,3.3163020610809326
2008-05-12,3.321380138397217
2008-05-13,3.303605079650879
2008-05-14,3.3747053146362305
2008-05-15,3.4026362895965576
2008-05-16,3.450882911682129
2008-05-19,3.4381864070892334
2008-05-20,3.379784345626831
2008-05-21,3.3010659217834473
2008-05-22,3.321380138397217
2008-05-23,3.32899808883667
2008-05-27,3.311223030090332
2008-05-28,3.3137624263763428
2008-05-29,3.3874001502990723
2008-05-30,3.4788150787353516
2008-06-02,3.4585001468658447
2008-06-03,3.4661200046539307
2008-06-04,3.326458215713501
2008-06-05,3.4381864070892334
2008-06-06,3.346773862838745
2008-06-09,3.2832913398742676
2008-06-10,3.0953829288482666
2008-06-11,2.9658806324005127
2008-06-12,2.996351957321167
2008-06-13,3.1156980991363525
2008-06-16,3.184257984161377
2008-06-17,3.194415807723999
2008-06-18,3.1715617179870605
2008-06-19,3.1741013526916504
2008-06-20,3.1537885665893555
2008-06-23,3.136012554168701
2008-06-24,3.136012554168701
2008-06-25,3.1182384490966797
2008-06-26,3.102233648300171
2008-06-27,2.976863384246826
2008-06-30,2.8941726684570312
2008-07-01,2.942186117172241
2008-07-02,2.9528567790985107
2008-07-03,2.872833251953125
2008-07-07,2.7474634647369385
2008-07-08,2.9608583450317383
2008-07-09,2.8434906005859375
2008-07-10,2.7474634647369385
2008-07-11,2.907510280609131
2008-07-14,3.1048989295959473
2008-07-15,2.9475209712982178
2008-07-16,3.0995659828186035
2008-07-17,3.1742539405822754
2008-07-18,3.107567071914673
2008-07-21,3.2436065673828125
2008-07-22,3.2942895889282227
2008-07-23,3.24627423286438
2008-07-24,3.0542187690734863
2008-07-25,3.030211925506592
2008-07-28,2.8648300170898438
2008-07-29,2.827486515045166
2008-07-30,2.8941726684570312
2008-07-31,2.912844181060791
2008-08-01,2.95819091796875
2008-08-04,2.8648300170898438
2008-08-05,2.931516408920288
2008-08-06,2.880835771560669
2008-08-07,2.771470308303833
2008-08-08,2.979529619216919
2008-08-11,3.0142080783843994
2008-08-12,2.9261817932128906
2008-08-13,2.942186117172241
2008-08-14,2.976863384246826
2008-08-15,2.9448533058166504
2008-08-18,2.912844181060791
2008-08-19,2.9261817932128906
2008-08-20,2.9901998043060303
2008-08-21,2.98219895362854
2008-08-22,3.0648880004882812
2008-08-25,3.0062053203582764
2008-08-26,3.051551342010498
2008-08-27,3.1155710220336914
2008-08-28,3.147578716278076
2008-08-29,3.1315743923187256
2008-09-02,3.0622212886810303
2008-09-03,3.0328783988952637
2008-09-04,3.0142080783843994
2008-09-05,3.0622212886810303
2008-09-08,3.430327892303467
2008-09-09,3.3556389808654785
2008-09-10,3.2356045246124268
2008-09-11,3.366309404373169
2008-09-12,3.5103516578674316
2008-09-15,3.2969563007354736
2008-09-16,3.382314920425415
2008-09-17,2.9448533058166504
2008-09-18,3.1689188480377197
2008-09-19,3.2836196422576904
2008-09-22,3.0142080783843994
2008-09-23,2.9661943912506104
2008-09-24,2.9635260105133057
2008-09-25,3.0328783988952637
2008-09-26,3.0300769805908203
2008-09-29,2.6993191242218018
2008-09-30,3.0693185329437256
2008-10-01,3.024470567703247
2008-10-02,2.8422739505767822
2008-10-03,2.8030307292938232
2008-10-06,2.60962176322937
2008-10-07,2.7049245834350586
2008-10-08,2.581592082977295
2008-10-09,2.494697332382202
2008-10-10,2.6628804206848145
2008-10-13,2.8170461654663086
2008-10-14,2.87030291557312
2008-10-15,2.413409948348999
2008-10-16,2.4386370182037354
2008-10-17,2.500302791595459
2008-10-20,2.738560676574707
2008-10-21,2.6544699668884277
2008-10-22,2.592803478240967
2008-10-23,2.5507586002349854
2008-10-24,2.435833215713501
2008-10-27,2.323712110519409
2008-10-28,2.5199244022369385
2008-10-29,2.570378541946411
2008-10-30,2.746971368789673
2008-10-31,2.8170461654663086
2008-11-03,2.8030307292938232
2008-11-04,2.9235615730285645
2008-11-05,2.794621706008911
2008-11-06,2.7525763511657715
2008-11-07,2.847879409790039
2008-11-10,2.847879409790039
2008-11-11,2.777803421020508
2008-11-12,2.545151710510254
2008-11-13,2.682500123977661
2008-11-14,2.5115156173706055
2008-11-17,2.477879047393799
2008-11-18,2.5227267742156982
2008-11-19,2.3909847736358643
2008-11-20,2.166743278503418
2008-11-21,2.323712110519409
2008-11-24,2.413409948348999
2008-11-25,2.8002283573150635
2008-11-26,2.920758008956909
2008-11-28,2.940380811691284
2008-12-01,2.738560676574707
2008-12-02,2.8422739505767822
2008-12-03,2.9515912532806396
2008-12-04,2.746971368789673
2008-12-05,2.88712215423584
2008-12-08,2.8590915203094482
2008-12-09,2.7133350372314453
2008-12-10,2.7413649559020996
2008-12-11,2.5956060886383057
2008-12-12,2.6628804206848145
2008-12-15,2.606818437576294
2008-12-16,2.8534841537475586
2008-12-17,2.915151834487915
2008-12-18,2.8506813049316406
2008-12-19,2.9515912532806396
2008-12-22,3.024470567703247
2008-12-23,2.9964396953582764
2008-12-24,3.002046585083008
2008-12-26,2.9515912532806396
2008-12-29,2.9777121543884277
2008-12-30,3.009636878967285
2008-12-31,3.1257271766662598
2009-01-02,3.122823715209961
2009-01-05,3.30566668510437
2009-01-06,3.453681230545044
2009-01-07,3.4101483821868896
2009-01-08,3.4768993854522705
2009-01-09,3.398538589477539
2009-01-12,3.267937183380127
2009-01-13,3.3085689544677734
2009-01-14,3.2156968116760254
2009-01-15,3.2650339603424072
2009-01-16,3.253424644470215
2009-01-20,3.021245241165161
2009-01-21,3.1170194149017334
2009-01-22,2.9777121543884277
2009-01-23,3.111215114593506
2009-01-26,3.148944616317749
2009-01-27,3.198282241821289
2009-01-28,3.2650339603424072
2009-01-29,3.0821924209594727
2009-01-30,3.0967040061950684
2009-02-02,3.2185988426208496
2009-02-03,3.314373731613159
2009-02-04,3.250523090362549
2009-02-05,3.1315317153930664
2009-02-06,3.2098913192749023
2009-02-09,3.230207920074463
2009-02-10,3.122823715209961
2009-02-11,3.1634562015533447
2009-02-12,3.198282241821289
2009-02-13,3.1286282539367676
2009-02-17,3.1286282539367676
2009-02-18,3.1315317153930664
2009-02-19,2.963200569152832
2009-02-20,3.044464588165283
2009-02-23,2.9109599590301514
2009-02-24,3.056072235107422
2009-02-25,2.937080144882202
2009-02-26,2.8761322498321533
2009-02-27,2.9080581665039062
2009-03-02,2.786163330078125
2009-03-03,2.757141590118408
2009-03-04,2.8209898471832275
2009-03-05,2.7397265434265137
2009-03-06,2.754237651824951
2009-03-09,2.7658472061157227
2009-03-10,2.9951255321502686
2009-03-11,2.9399826526641846
2009-03-12,3.1257271766662598
2009-03-13,3.378221273422241
2009-03-16,3.349200963973999
2009-03-17,3.4275619983673096
2009-03-18,3.4014415740966797
2009-03-19,3.206989049911499
2009-03-20,3.105410575866699
2009-03-23,3.204087018966675
2009-03-24,3.157651424407959
2009-03-25,3.299860715866089
2009-03-26,3.3550045490264893
2009-03-27,3.315354824066162
2009-03-30,3.233004093170166
2009-03-31,3.2757041454315186
2009-04-01,3.2970550060272217
2009-04-02,3.3763556480407715
2009-04-03,3.4861550331115723
2009-04-06,3.4922544956207275
2009-04-07,3.3824539184570312
2009-04-08,3.4373550415039062
2009-04-09,3.498354911804199
2009-04-13,3.507505178451538
2009-04-14,3.4068548679351807
2009-04-15,3.5044546127319336
2009-04-16,3.4922544956207275
2009-04-17,3.4190542697906494
2009-04-20,3.3062055110931396
2009-04-21,3.342803955078125
2009-04-22,3.2909538745880127
2009-04-23,3.351954221725464
2009-04-24,3.3824539184570312
2009-04-27,3.3336548805236816
2009-04-28,3.32755446434021
2009-04-29,3.4526045322418213
2009-04-30,3.473954916000366
2009-05-01,3.477005958557129
2009-05-04,3.5654549598693848
2009-05-05,3.60510516166687
2009-05-06,3.6295053958892822
2009-05-07,3.528855085372925
2009-05-08,3.675255537033081
2009-05-11,3.672206163406372
2009-05-12,3.656956195831299
2009-05-13,3.5166542530059814
2009-05-14,3.60510516166687
2009-05-15,3.5624053478240967
2009-05-18,3.7271053791046143
2009-05-19,3.6966049671173096
2009-05-20,3.7271053791046143
2009-05-21,3.742354393005371
2009-05-22,3.7057559490203857
2009-05-26,3.78810453414917
2009-05-27,3.666105270385742
2009-05-28,3.611203670501709
2009-05-29,3.638653516769409
2009-06-01,3.7271053791046143
2009-06-02,3.8155558109283447
2009-06-03,3.900954246520996
2009-06-04,3.952806234359741
2009-06-05,3.8765552043914795
2009-06-08,3.885704755783081
2009-06-09,3.867406129837036
2009-06-10,3.699655532836914
2009-06-11,3.724055767059326
2009-06-12,3.8765552043914795
2009-06-15,3.885704755783081
2009-06-16,3.897904634475708
2009-06-17,3.897904634475708
2009-06-18,3.9070558547973633
2009-06-19,4.047356128692627
2009-06-22,3.9985549449920654
2009-06-23,3.9955058097839355
2009-06-24,3.9711055755615234
2009-06-25,4.0168561935424805
2009-06-26,4.051949977874756
2009-06-29,4.000904083251953
2009-06-30,4.055142402648926
2009-07-01,4.032809257507324
2009-07-02,3.984950065612793
2009-07-06,4.099808216094971
2009-07-07,4.004094123840332
2009-07-08,3.9689981937408447
2009-07-09,3.924330711364746
2009-07-10,4.032809257507324
2009-07-13,4.106189727783203
2009-07-14,4.122143268585205
2009-07-15,4.157238483428955
2009-07-16,4.173192024230957
2009-07-17,4.176380634307861
2009-07-20,4.201904773712158
2009-07-21,4.227428913116455
2009-07-22,4.205095291137695
2009-07-23,4.144477367401123
2009-07-24,4.115760803222656
2009-07-27,4.224239349365234
2009-07-28,4.275287628173828
2009-07-29,4.224239349365234
2009-07-30,4.230620861053467
2009-07-31,4.262524127960205
2009-08-03,4.300810813903809
2009-08-04,4.329526901245117
2009-08-05,4.383764266967773
2009-08-06,4.3040008544921875
2009-08-07,4.364622592926025
2009-08-10,4.335906505584717
2009-08-11,4.294430732727051
2009-08-12,4.3167643547058105
2009-08-13,4.319954872131348
2009-08-14,4.291239261627197
2009-08-17,4.2689056396484375
2009-08-18,4.3167643547058105
2009-08-19,4.319954872131348
2009-08-20,4.393336772918701
2009-08-21,4.418860912322998
2009-08-24,4.415669918060303
2009-08-25,4.444384574890137
2009-08-26,4.428432464599609
2009-08-27,4.418860912322998
2009-08-28,4.380573749542236
2009-08-31,4.3550496101379395
2009-09-01,4.272095680236816
2009-09-02,4.182762622833252
2009-09-03,4.211478233337402
2009-09-04,4.259335517883301
2009-09-08,4.31038236618042
2009-09-09,4.342288494110107
2009-09-10,4.332717418670654
2009-09-11,4.390145778656006
2009-09-14,4.390145778656006
2009-09-15,4.418860912322998
2009-09-16,4.524146556854248
2009-09-17,4.670909404754639
2009-09-18,4.7091965675354
2009-09-21,4.747482776641846
2009-09-22,4.93253231048584
2009-09-23,4.935723781585693
2009-09-24,4.897437572479248
2009-09-25,4.92296028137207
2009-09-28,4.8534369468688965
2009-09-29,4.664729118347168
2009-09-30,4.605137825012207
2009-10-01,4.509128093719482
2009-10-02,4.528993129730225
2009-10-05,4.588582992553711
2009-10-06,4.572030067443848
2009-10-07,4.562098503112793
2009-10-08,4.64155387878418
2009-10-09,4.651487350463867
2009-10-12,4.664729118347168
2009-10-13,4.552167892456055
2009-10-14,4.625001430511475
2009-10-15,4.535613059997559
2009-10-16,4.452847003936768
2009-10-19,4.532302379608154
2009-10-20,4.4561567306518555
2009-10-21,4.4098076820373535
2009-10-22,4.48264217376709
2009-10-23,4.3733906745910645
2009-10-26,4.356837749481201
2009-10-27,4.327040672302246
2009-10-28,4.231031894683838
2009-10-29,4.376701354980469
2009-10-30,4.356837749481201
2009-11-02,4.2376532554626465
2009-11-03,4.267449378967285
2009-11-04,4.168129920959473
2009-11-05,4.297245025634766
2009-11-06,4.247585773468018
2009-11-09,4.4495368003845215
2009-11-10,4.389945030212402
2009-11-11,4.432981967926025
2009-11-12,4.346904754638672
2009-11-13,4.383322715759277
2009-11-16,4.515749454498291
2009-11-17,4.532302379608154
2009-11-18,4.6448655128479
2009-11-19,4.628311634063721
2009-11-20,4.661418437957764
2009-11-23,4.631622314453125
2009-11-24,4.631622314453125
2009-11-25,4.61837911605835
2009-11-27,4.562098503112793
2009-11-30,4.727630138397217
2009-12-01,4.750805377960205
2009-12-02,4.7342529296875
2009-12-03,4.724322319030762
2009-12-04,4.6812825202941895
2009-12-07,4.714389801025391
2009-12-08,4.75742769241333
2009-12-09,4.75742769241333
2009-12-10,4.747495174407959
2009-12-11,4.787224292755127
2009-12-14,4.830263137817383
2009-12-15,4.7441864013671875
2009-12-16,4.770671367645264
2009-12-17,4.754116058349609
2009-12-18,4.7110772132873535
2009-12-21,4.714389801025391
2009-12-22,4.760738372802734
2009-12-23,4.830263137817383
2009-12-24,4.8236403465271
2009-12-28,4.836884498596191
2009-12-29,4.830008506774902
2009-12-30,4.7853169441223145
2009-12-31,4.692497253417969
2010-01-04,4.702813625335693
2010-01-05,4.68218469619751
2010-01-06,4.68218469619751
2010-01-07,4.706249237060547
2010-01-08,4.720001697540283
2010-01-11,4.730312824249268
2010-01-12,4.685624599456787
2010-01-13,4.7165632247924805
2010-01-14,4.706249237060547
2010-01-15,4.668435096740723
2010-01-19,4.713124752044678
2010-01-20,4.695935249328613
2010-01-21,4.678747653961182
2010-01-22,4.675311088562012
2010-01-25,4.685624599456787
2010-01-26,4.61686897277832
2010-01-27,4.637495517730713
2010-01-28,4.534364700317383
2010-01-29,4.565302848815918
2010-02-01,4.551551342010498
2010-02-02,4.568741321563721
2010-02-03,4.568741321563721
2010-02-04,4.486237049102783
2010-02-05,4.544676780700684
2010-02-08,4.527487754821777
2010-02-09,4.489673137664795
2010-02-10,4.386540412902832
2010-02-11,4.317787170410156
2010-02-12,4.324662208557129
2010-02-16,4.414042949676514
2010-02-17,4.403730869293213
2010-02-18,4.355602264404297
2010-02-19,4.307473182678223
2010-02-22,4.304035186767578
2010-02-23,4.307473182678223
2010-02-24,4.290284633636475
2010-02-25,4.228405475616455
2010-02-26,4.276533603668213
2010-03-01,4.310914039611816
2010-03-02,4.372790336608887
2010-03-03,4.376227855682373
2010-03-04,4.389978408813477
2010-03-05,4.410605430603027
2010-03-08,4.386540412902832
2010-03-09,4.379663467407227
2010-03-10,4.417479991912842
2010-03-11,4.441546440124512
2010-03-12,4.448421001434326
2010-03-15,4.438106060028076
2010-03-16,4.475922107696533
2010-03-17,4.475922107696533
2010-03-18,4.479360103607178
2010-03-19,4.482796669006348
2010-03-22,4.503425598144531
2010-03-23,4.479360103607178
2010-03-24,4.438106060028076
2010-03-25,4.407166481018066
2010-03-26,4.355602264404297
2010-03-29,4.28044319152832
2010-03-30,4.176651954650879
2010-03-31,4.28044319152832
2010-04-01,4.25181245803833
2010-04-05,4.219600200653076
2010-04-06,4.223178863525391
2010-04-07,4.1873908042907715
2010-04-08,4.1873908042907715
2010-04-09,4.183812141418457
2010-04-12,4.130125999450684
2010-04-13,4.130125999450684
2010-04-14,4.1873908042907715
2010-04-15,4.180232524871826
2010-04-16,4.144442081451416
2010-04-19,4.183812141418457
2010-04-20,4.258969783782959
2010-04-21,4.241074562072754
2010-04-22,4.194548606872559
2010-04-23,4.233916282653809
2010-04-26,4.237494945526123
2010-04-27,4.198126792907715
2010-04-28,4.1659159660339355
2010-04-29,4.076442718505859
2010-04-30,4.051389217376709
2010-05-03,4.076442718505859
2010-05-04,3.972651481628418
2010-05-05,3.876020908355713
2010-05-06,3.6863346099853516
2010-05-07,3.7400195598602295
2010-05-10,3.8473877906799316
2010-05-11,3.800861120223999
2010-05-12,3.8831787109375
2010-05-13,3.868861675262451
2010-05-14,3.8545470237731934
2010-05-17,3.872440814971924
2010-05-18,3.8259146213531494
2010-05-19,3.800861120223999
2010-05-20,3.7614939212799072
2010-05-21,3.8402302265167236
2010-05-24,3.8044397830963135
2010-05-25,3.9297046661376953
2010-05-26,3.9189672470092773
2010-05-27,4.015599250793457
2010-05-28,4.0871806144714355
2010-06-01,4.0263352394104
2010-06-02,4.090758323669434
2010-06-03,4.105073928833008
2010-06-04,4.015599250793457
2010-06-07,3.9869680404663086
2010-06-08,4.062126159667969
2010-06-09,4.058547496795654
2010-06-10,4.1086530685424805
2010-06-11,4.051389217376709
2010-06-14,4.0692830085754395
2010-06-15,4.0263352394104
2010-06-16,4.051389217376709
2010-06-17,4.033493995666504
2010-06-18,4.097916126251221
2010-06-21,4.072863578796387
2010-06-22,4.033493995666504
2010-06-23,4.01917839050293
2010-06-24,4.058547496795654
2010-06-25,4.169495105743408
2010-06-28,4.191655158996582
2010-06-29,4.11779260635376
2010-06-30,4.084554672241211
2010-07-01,4.0365447998046875
2010-07-02,4.040237903594971
2010-07-06,3.9663755893707275
2010-07-07,4.128870964050293
2010-07-08,4.128870964050293
2010-07-09,4.184267997741699
2010-07-12,4.169497013092041
2010-07-13,4.21012020111084
2010-07-14,4.235969066619873
2010-07-15,4.2987542152404785
2010-07-16,4.272902488708496
2010-07-19,4.276593208312988
2010-07-20,4.398467540740967
2010-07-21,4.37261438369751
2010-07-22,4.483407020568848
2010-07-23,4.553576946258545
2010-07-26,4.5941996574401855
2010-07-27,4.597894191741943
2010-07-28,4.5609636306762695
2010-07-29,4.376308917999268
2010-07-30,4.320912837982178
2010-08-02,4.405853748321533
2010-08-03,4.394772052764893
2010-08-04,4.457555294036865
2010-08-05,4.343070983886719
2010-08-06,4.398467540740967
2010-08-09,4.446478366851807
2010-08-10,4.365228652954102
2010-08-11,4.380001544952393
2010-08-12,4.435399055480957
2010-08-13,4.376308917999268
2010-08-16,4.416932106018066
2010-08-17,4.394772052764893
2010-08-18,4.442783832550049
2010-08-19,4.394772052764893
2010-08-20,4.387388706207275
2010-08-23,4.380001544952393
2010-08-24,4.350456714630127
2010-08-25,4.3319902420043945
2010-08-26,4.239664554595947
2010-08-27,4.302445888519287
2010-08-30,4.258129119873047
2010-08-31,4.291367530822754
2010-09-01,4.357843399047852
2010-09-02,4.361536979675293
2010-09-03,4.368922710418701
2010-09-07,4.343070983886719
2010-09-08,4.357843399047852
2010-09-09,4.361536979675293
2010-09-10,4.080861568450928
2010-09-13,4.088247776031494
2010-09-14,4.077169418334961
2010-09-15,4.088247776031494
2010-09-16,4.1030192375183105
2010-09-17,4.084554672241211
2010-09-20,4.0956339836120605
2010-09-21,4.184267997741699
2010-09-22,4.143643856048584
2010-09-23,4.121484756469727
2010-09-24,4.173189640045166
2010-09-27,4.139950275421143
2010-09-28,4.136170864105225
2010-09-29,4.128608226776123
2010-09-30,4.109705448150635
2010-10-01,4.113485336303711
2010-10-04,4.1248273849487305
2010-10-05,4.155072212219238
2010-10-06,4.15129280090332
2010-10-07,4.132390022277832
2010-10-08,4.170197486877441
2010-10-11,4.14373254776001
2010-10-12,4.155072212219238
2010-10-13,4.170197486877441
2010-10-14,4.173978328704834
2010-10-15,4.162635326385498
2010-10-18,4.204223155975342
2010-10-19,4.211785793304443
2010-10-20,4.223127841949463
2010-10-21,4.223127841949463
2010-10-22,4.173978328704834
2010-10-25,4.173978328704834
2010-10-26,4.170197486877441
2010-10-27,4.132390022277832
2010-10-28,4.25715446472168
2010-10-29,4.310086250305176
2010-11-01,4.310086250305176
2010-11-02,4.313867092132568
2010-11-03,4.2874016761779785
2010-11-04,4.370579242706299
2010-11-05,4.415948390960693
2010-11-08,4.404604911804199
2010-11-09,4.35923433303833
2010-11-10,4.370579242706299
2010-11-11,4.38192081451416
2010-11-12,4.404604911804199
2010-11-15,4.374360084533691
2010-11-16,4.313867092132568
2010-11-17,4.38192081451416
2010-11-18,4.404604911804199
2010-11-19,4.415948390960693
2010-11-22,4.4197282791137695
2010-11-23,4.438633441925049
2010-11-24,4.44997501373291
2010-11-26,4.46131706237793
2010-11-29,4.468878746032715
2010-11-30,4.442414283752441
2010-12-01,4.487782001495361
2010-12-02,4.5293707847595215
2010-12-03,4.589863300323486
2010-12-06,4.574740409851074
2010-12-07,4.540714740753174
2010-12-08,4.5293707847595215
2010-12-09,4.510467529296875
2010-12-10,4.646574974060059
2010-12-13,4.703286170959473
2010-12-14,4.72219181060791
2010-12-15,4.6541361808776855
2010-12-16,4.703286170959473
2010-12-17,4.725971221923828
2010-12-20,4.752437114715576
2010-12-21,4.790243625640869
2010-12-22,4.862081050872803
2010-12-23,4.90366792678833
2010-12-27,4.9187912940979
2010-12-28,4.896107196807861
2010-12-29,4.946782112121582
2010-12-30,4.942884922027588
2010-12-31,4.907801151275635
2011-01-03,4.954578876495361
2011-01-04,4.9155964851379395
2011-01-05,4.962375640869141
2011-01-06,4.95847749710083
2011-01-07,4.95847749710083
2011-01-10,4.938986778259277
2011-01-11,4.950680732727051
2011-01-12,4.966271877288818
2011-01-13,4.966271877288818
2011-01-14,4.966271877288818
2011-01-18,4.962375640869141
2011-01-19,4.919495582580566
2011-01-20,4.9155964851379395
2011-01-21,4.919495582580566
2011-01-24,4.9740705490112305
2011-01-25,4.993561744689941
2011-01-26,5.024747371673584
2011-01-27,4.997458457946777
2011-01-28,4.946782112121582
2011-01-31,4.954578876495361
2011-02-01,5.067625522613525
2011-02-02,5.048134803771973
2011-02-03,5.1222004890441895
2011-02-04,5.106607913970947
2011-02-07,5.153385639190674
2011-02-08,5.141692161560059
2011-02-09,5.1183037757873535
2011-02-10,5.129997253417969
2011-02-11,5.094914436340332
2011-02-14,5.067625522613525
2011-02-15,4.985764503479004
2011-02-16,4.993561744689941
2011-02-17,4.970171928405762
2011-02-18,4.993561744689941
2011-02-22,4.985764503479004
2011-02-23,4.9740705490112305
2011-02-24,5.032541751861572
2011-02-25,5.091015815734863
2011-02-28,5.1222004890441895
2011-03-01,5.106607913970947
2011-03-02,5.161182403564453
2011-03-03,5.176774978637695
2011-03-04,5.129997253417969
2011-03-07,5.059829235076904
2011-03-08,5.1183037757873535
2011-03-09,5.149487018585205
2011-03-10,5.083218097686768
2011-03-11,5.059829235076904
2011-03-14,5.083218097686768
2011-03-15,5.149487018585205
2011-03-16,5.129997253417969
2011-03-17,5.126099109649658
2011-03-18,5.176774978637695
2011-03-21,5.223552703857422
2011-03-22,5.137794017791748
2011-03-23,5.168978214263916
2011-03-24,5.1923675537109375
2011-03-25,5.1962666511535645
2011-03-28,5.141692161560059
2011-03-29,5.077317714691162
2011-03-30,5.0974345207214355
2011-03-31,5.141692161560059
2011-04-01,5.145714282989502
2011-04-04,5.1095051765441895
2011-04-05,5.1738762855529785
2011-04-06,5.278481483459473
2011-04-07,5.198016166687012
2011-04-08,5.153759479522705
2011-04-11,5.177900314331055
2011-04-12,5.129621505737305
2011-04-13,5.133645057678223
2011-04-14,5.238249778747559
2011-04-15,5.210086822509766
2011-04-18,5.189969062805176
2011-04-19,5.149737358093262
2011-04-20,5.165832042694092
2011-04-21,5.19399356842041
2011-04-25,5.20203971862793
2011-04-26,5.222157001495361
2011-04-27,5.270435333251953
2011-04-28,5.310665130615234
2011-04-29,5.326759338378906
2011-05-02,5.314689636230469
2011-05-03,5.326759338378906
2011-05-04,5.322737216949463
2011-05-05,5.314689636230469
2011-05-06,5.314689636230469
2011-05-09,5.338829040527344
2011-05-10,5.3629679679870605
2011-05-11,5.286526679992676
2011-05-12,5.310665130615234
2011-05-13,5.250319480895996
2011-05-16,5.238249778747559
2011-05-17,5.238249778747559
2011-05-18,5.258365154266357
2011-05-19,5.238249778747559
2011-05-20,5.258365154266357
2011-05-23,5.242272853851318
2011-05-24,5.222157001495361
2011-05-25,5.242272853851318
2011-05-26,5.258365154266357
2011-05-27,5.318714618682861
2011-05-31,5.338829040527344
2011-06-01,5.302621364593506
2011-06-02,5.302621364593506
2011-06-03,5.282504081726074
2011-06-06,5.278481483459473
2011-06-07,5.302621364593506
2011-06-08,5.354922294616699
2011-06-09,5.34687614440918
2011-06-10,5.338829040527344
2011-06-13,5.34687614440918
2011-06-14,5.467574119567871
2011-06-15,5.487689018249512
2011-06-16,5.49171257019043
2011-06-17,5.515851974487305
2011-06-20,5.5842461585998535
2011-06-21,5.5842461585998535
2011-06-22,5.5641303062438965
2011-06-23,5.519875526428223
2011-06-24,5.53999137878418
2011-06-27,5.53999137878418
2011-06-28,5.548329830169678
2011-06-29,5.56500244140625
2011-06-30,5.585843563079834
2011-07-01,5.598351955413818
2011-07-05,5.610857963562012
2011-07-06,5.610857963562012
2011-07-07,5.598351955413818
2011-07-08,5.598351955413818
2011-07-11,5.544159412384033
2011-07-12,5.523319244384766
2011-07-13,5.57334041595459
2011-07-14,5.477463245391846
2011-07-15,5.485800743103027
2011-07-18,5.53165340423584
2011-07-19,5.619193077087402
2011-07-20,5.648373603820801
2011-07-21,5.6733832359313965
2011-07-22,5.6733832359313965
2011-07-25,5.585843563079834
2011-07-26,5.506642818450928
2011-07-27,5.439948558807373
2011-07-28,5.42327356338501
2011-07-29,5.269036769866943
2011-08-01,5.4274420738220215
2011-08-02,5.339902400970459
2011-08-03,5.364913463592529
2011-08-04,5.202339172363281
2011-08-05,5.093957901000977
2011-08-08,4.772979259490967
2011-08-09,5.360743999481201
2011-08-10,5.1981730461120605
2011-08-11,5.37741756439209
2011-08-12,5.37741756439209
2011-08-15,5.523319244384766
2011-08-16,5.485800743103027
2011-08-17,5.514979839324951
2011-08-18,5.331564426422119
2011-08-19,5.323227882385254
2011-08-22,5.469126224517822
2011-08-23,5.4566216468811035
2011-08-24,5.37741756439209
2011-08-25,5.277372360229492
2011-08-26,5.364913463592529
2011-08-29,5.485800743103027
2011-08-30,5.535823345184326
2011-08-31,5.548329830169678
2011-09-01,5.331564426422119
2011-09-02,5.22735071182251
2011-09-06,5.298217296600342
2011-09-07,5.3148908615112305
2011-09-08,5.289878845214844
2011-09-09,5.285711288452148
2011-09-12,5.344069004058838
2011-09-13,5.402430057525635
2011-09-14,5.4566216468811035
2011-09-15,5.448283672332764
2011-09-16,5.460788249969482
2011-09-19,5.439948558807373
2011-09-20,5.3565754890441895
2011-09-21,5.1606550216674805
2011-09-22,5.143980979919434
2011-09-23,5.039767265319824
2011-09-26,5.156485080718994
2011-09-27,5.1606550216674805
2011-09-28,5.0742106437683105
2011-09-29,5.078533172607422
2011-09-30,4.987767219543457
2011-10-03,4.672251224517822
2011-10-04,4.83649206161499
2011-10-05,4.845135688781738
2011-10-06,5.065567970275879
2011-10-07,4.948867321014404
2011-10-10,5.078533172607422
2011-10-11,5.035312175750732
2011-10-12,4.940223693847656
2011-10-13,4.888358116149902
2011-10-14,5.04827880859375
2011-10-17,4.96183443069458
2011-10-18,5.01802396774292
2011-10-19,5.078533172607422
2011-10-20,5.022345066070557
2011-10-21,5.01370096206665
2011-10-24,5.212521076202393
2011-10-25,5.303285598754883
2011-10-26,5.3205742835998535
2011-10-27,5.290318012237549
2011-10-28,5.2514190673828125
2011-10-31,5.238454341888428
2011-11-01,5.130399227142334
2011-11-02,5.2168426513671875
2011-11-03,5.203876495361328
2011-11-04,5.307605743408203
2011-11-07,5.307605743408203
2011-11-08,5.376762390136719
2011-11-09,5.242776393890381
2011-11-10,5.2168426513671875
2011-11-11,5.26870584487915
2011-11-14,5.2168426513671875
2011-11-15,5.281674385070801
2011-11-16,5.346506118774414
2011-11-17,5.359471797943115
2011-11-18,5.324894905090332
2011-11-21,5.221164703369141
2011-11-22,5.160653114318848
2011-11-23,5.078533172607422
2011-11-25,5.061244487762451
2011-11-28,5.234130859375
2011-11-29,5.212521076202393
2011-11-30,5.394049644470215
2011-12-01,5.376762390136719
2011-12-02,5.41133975982666
2011-12-05,5.441595077514648
2011-12-06,5.4588823318481445
2011-12-07,5.467525959014893
2011-12-08,5.355151176452637
2011-12-09,5.385406017303467
2011-12-12,5.4026947021484375
2011-12-13,5.41133975982666
2011-12-14,5.4934611320495605
2011-12-15,5.4977827072143555
2011-12-16,5.519394397735596
2011-12-19,5.502104759216309
2011-12-20,5.532361030578613
2011-12-21,5.562614440917969
2011-12-22,5.614481449127197
2011-12-23,5.631769180297852
2011-12-27,5.653379917144775
2011-12-28,5.613158702850342
2011-12-29,5.5863447189331055
2011-12-30,5.559530258178711
2012-01-03,5.631033897399902
2012-01-04,5.613158702850342
2012-01-05,5.4969635009765625
2012-01-06,5.595282077789307
2012-01-09,5.608689785003662
2012-01-10,5.63997220993042
2012-01-11,5.644441604614258
2012-01-12,5.662318229675293
2012-01-13,5.675726413726807
2012-01-17,5.698071479797363
2012-01-18,5.702539920806885
2012-01-19,5.720415115356445
2012-01-20,5.747231483459473
2012-01-23,5.769576072692871
2012-01-24,5.774045467376709
2012-01-25,5.774045467376709
2012-01-26,5.7919206619262695
2012-01-27,5.769576072692871
2012-01-30,5.765106678009033
2012-01-31,5.787454128265381
2012-02-01,5.854488372802734
2012-02-02,5.943869113922119
2012-02-03,5.9840922355651855
2012-02-06,5.952807903289795
2012-02-07,5.957277774810791
2012-02-08,5.943869113922119
2012-02-09,5.939402103424072
2012-02-10,5.908117294311523
2012-02-13,5.979620456695557
2012-02-14,5.934933185577393
2012-02-15,5.957277774810791
2012-02-16,6.01090669631958
2012-02-17,6.055596828460693
2012-02-21,6.024312973022461
2012-02-22,5.93046236038208
2012-02-23,6.037721157073975
2012-02-24,6.01984167098999
2012-02-27,6.01090669631958
2012-02-28,6.01984167098999
2012-02-29,5.943869113922119
2012-03-01,5.894709587097168
2012-03-02,5.917056083679199
2012-03-05,5.979620456695557
2012-03-06,5.943869113922119
2012-03-07,6.015376567840576
2012-03-08,5.948339462280273
2012-03-09,5.9840922355651855
2012-03-12,5.975152492523193
2012-03-13,6.028781890869141
2012-03-14,5.970683574676514
2012-03-15,6.001969337463379
2012-03-16,5.993030071258545
2012-03-19,6.01090669631958
2012-03-20,6.006437301635742
2012-03-21,6.01984167098999
2012-03-22,5.988560199737549
2012-03-23,5.993030071258545
2012-03-26,6.042191982269287
2012-03-27,5.988560199737549
2012-03-28,6.030116558074951
2012-03-29,6.034730911254883
2012-03-30,6.053201675415039
2012-04-02,6.099373817443848
2012-04-03,6.094756126403809
2012-04-04,6.034730911254883
2012-04-05,5.997796535491943
2012-04-09,5.974709510803223
2012-04-10,5.937770366668701
2012-04-11,5.997796535491943
2012-04-12,6.067054748535156
2012-04-13,6.053201675415039
2012-04-16,6.057819843292236
2012-04-17,6.113225936889648
2012-04-18,6.094756126403809
2012-04-19,6.099373817443848
2012-04-20,6.145548343658447
2012-04-23,6.122463226318359
2012-04-24,6.191720008850098
2012-04-25,6.214805603027344
2012-04-26,6.307150363922119
2012-04-27,6.3533220291137695
2012-04-30,6.339470386505127
2012-05-01,6.334853649139404
2012-05-02,6.348705768585205
2012-05-03,6.35793924331665
2012-05-04,6.35793924331665
2012-05-07,6.344089031219482
2012-05-08,6.376408576965332
2012-05-09,6.371790885925293
2012-05-10,6.417962551116943
2012-05-11,6.4087300300598145
2012-05-14,6.371790885925293
2012-05-15,6.32100248336792
2012-05-16,6.344089031219482
2012-05-17,6.191720008850098
2012-05-18,6.1640167236328125
2012-05-21,6.307150363922119
2012-05-22,6.279446601867676
2012-05-23,6.307150363922119
2012-05-24,6.3533220291137695
2012-05-25,6.35793924331665
2012-05-29,6.390260696411133
2012-05-30,6.339470386505127
2012-05-31,6.35793924331665
2012-06-01,6.260977745056152
2012-06-04,6.2886810302734375
2012-06-05,6.376408576965332
2012-06-06,6.417962551116943
2012-06-07,6.385642051696777
2012-06-08,6.528777599334717
2012-06-11,6.519543647766113
2012-06-12,6.417962551116943
2012-06-13,6.371790885925293
2012-06-14,6.413346767425537
2012-06-15,6.422581672668457
2012-06-18,6.417962551116943
2012-06-19,6.4779887199401855
2012-06-20,6.487222194671631
2012-06-21,6.473372936248779
2012-06-22,6.473372936248779
2012-06-25,6.450285911560059
2012-06-26,6.441048622131348
2012-06-27,6.5551347732543945
2012-06-28,6.607424736022949
2012-06-29,6.61217737197876
2012-07-02,6.6644673347473145
2012-07-03,6.645452499389648
2012-07-05,6.631192684173584
2012-07-06,6.654960632324219
2012-07-09,6.69298791885376
2012-07-10,6.659713268280029
2012-07-11,6.564641952514648
2012-07-12,6.531369209289551
2012-07-13,6.46006441116333
2012-07-16,6.597916603088379
2012-07-17,6.697741985321045
2012-07-18,6.659713268280029
2012-07-19,6.659713268280029
2012-07-20,6.626438140869141
2012-07-23,6.7024970054626465
2012-07-24,6.769044876098633
2012-07-25,6.750032901763916
2012-07-26,6.588411808013916
2012-07-27,6.583657264709473
2012-07-30,6.659713268280029
2012-07-31,6.69298791885376
2012-08-01,6.61217737197876
2012-08-02,6.631192684173584
2012-08-03,6.650204658508301
2012-08-06,6.588411808013916
2012-08-07,6.5361199378967285
2012-08-08,6.5361199378967285
2012-08-09,6.602672100067139
2012-08-10,6.588411808013916
2012-08-13,6.650204658508301
2012-08-14,6.61217737197876
2012-08-15,6.607424736022949
2012-08-16,6.578902244567871
2012-08-17,6.645452499389648
2012-08-20,6.683480262756348
2012-08-21,6.626438140869141
2012-08-22,6.645452499389648
2012-08-23,6.631192684173584
2012-08-24,6.654960632324219
2012-08-27,6.7024970054626465
2012-08-28,6.750032901763916
2012-08-29,6.788058757781982
2012-08-30,6.7785515785217285
2012-08-31,6.816579818725586
2012-09-04,6.802319049835205
2012-09-05,6.802319049835205
2012-09-06,6.830841064453125
2012-09-07,6.849855422973633
2012-09-10,6.849855422973633
2012-09-11,6.82608699798584
2012-09-12,6.85460901260376
2012-09-13,6.840346813201904
2012-09-14,6.873623371124268
2012-09-17,6.792811870574951
2012-09-18,6.840346813201904
2012-09-19,6.840346813201904
2012-09-20,6.840346813201904
2012-09-21,6.859360218048096
2012-09-24,6.930665969848633
2012-09-25,6.840346813201904
2012-09-26,6.596571445465088
2012-09-27,6.640451908111572
2012-09-28,6.5770697593688965
2012-10-01,6.547816753387451
2012-10-02,6.547816753387451
2012-10-03,6.4113030433654785
2012-10-04,6.362549781799316
2012-10-05,6.3674235343933105
2012-10-08,6.289413928985596
2012-10-09,6.177277565002441
2012-10-10,6.099268436431885
2012-10-11,6.152899742126465
2012-10-12,6.060268402099609
2012-10-15,5.957879543304443
2012-10-16,6.006634712219238
2012-10-17,6.08464241027832
2012-10-18,6.1724019050598145
2012-10-19,6.143150329589844
2012-10-22,6.104145526885986
2012-10-23,6.040763854980469
2012-10-24,6.094393253326416
2012-10-25,6.040763854980469
2012-10-26,5.914000034332275
2012-10-31,6.006634712219238
2012-11-01,6.104145526885986
2012-11-02,5.996884346008301
2012-11-05,6.006634712219238
2012-11-06,5.884747505187988
2012-11-07,5.782361030578613
2012-11-08,5.835991859436035
2012-11-09,5.831116199493408
2012-11-12,5.80673885345459
2012-11-13,5.626344203948975
2012-11-14,5.411822319030762
2012-11-15,5.538585186004639
2012-11-16,5.787237167358398
2012-11-19,5.8116135597229
2012-11-20,5.826239109039307
2012-11-21,5.831116199493408
2012-11-23,5.914000034332275
2012-11-26,5.904247760772705
2012-11-27,5.870120525360107
2012-11-28,5.840867042541504
2012-11-29,5.865242958068848
2012-11-30,5.918876647949219
2012-12-03,5.855494499206543
2012-12-04,5.918876647949219
2012-12-05,5.874996185302734
2012-12-06,5.874996185302734
2012-12-07,5.889622211456299
2012-12-10,5.957879543304443
2012-12-11,5.889622211456299
2012-12-12,5.8116135597229
2012-12-13,5.689727783203125
2012-12-14,5.675098419189453
2012-12-17,5.748231887817383
2012-12-18,5.8018622398376465
2012-12-19,5.889622211456299
2012-12-20,5.928625583648682
2012-12-21,5.845741271972656
2012-12-24,5.835991859436035
2012-12-26,5.792110919952393
2012-12-27,5.697078227996826
2012-12-28,5.702078342437744
2012-12-31,5.737091064453125
2013-01-02,5.932162284851074
2013-01-03,5.962173938751221
2013-01-04,6.022195816040039
2013-01-07,6.007190704345703
2013-01-08,5.992184638977051
2013-01-09,6.012193202972412
2013-01-10,6.032200813293457
2013-01-11,6.02719783782959
2013-01-14,6.017192363739014
2013-01-15,6.032200813293457
2013-01-16,6.077216625213623
2013-01-17,6.097223281860352
2013-01-18,6.127233982086182
2013-01-22,6.172251224517822
2013-01-23,6.172251224517822
2013-01-24,6.092222213745117
2013-01-25,6.092222213745117
2013-01-28,6.132236957550049
2013-01-29,6.1572465896606445
2013-01-30,6.182255268096924
2013-01-31,6.192259788513184
2013-02-01,6.182255268096924
2013-02-04,6.087220191955566
2013-02-05,6.107226848602295
2013-02-06,6.127233982086182
2013-02-07,6.1122283935546875
2013-02-08,6.097223281860352
2013-02-11,6.102223873138428
2013-02-12,6.072215557098389
2013-02-13,6.142239093780518
2013-02-14,6.11722993850708
2013-02-15,6.137237548828125
2013-02-19,6.102223873138428
2013-02-20,6.04720401763916
2013-02-21,6.077216625213623
2013-02-22,6.122231960296631
2013-02-25,6.087220191955566
2013-02-26,6.132236957550049
2013-02-27,6.172251224517822
2013-02-28,6.272287845611572
2013-03-01,6.222270965576172
2013-03-04,6.247278213500977
2013-03-05,6.197258949279785
2013-03-06,6.167248249053955
2013-03-07,6.2122650146484375
2013-03-08,6.232272624969482
2013-03-11,6.297295570373535
2013-03-12,6.352316856384277
2013-03-13,6.392330646514893
2013-03-14,6.487367153167725
2013-03-15,6.492365837097168
2013-03-18,6.477362632751465
2013-03-19,6.437347888946533
2013-03-20,6.452352046966553
2013-03-21,6.482362747192383
2013-03-22,6.5573906898498535
2013-03-25,6.5473856925964355
2013-03-26,6.567880153656006
2013-03-27,6.613987445831299
2013-03-28,6.567880153656006
2013-04-01,6.608863830566406
2013-04-02,6.583247184753418
2013-04-03,6.567880153656006
2013-04-04,6.629357814788818
2013-04-05,6.639604568481445
2013-04-08,6.706203937530518
2013-04-09,6.660097599029541
2013-04-10,6.6908345222473145
2013-04-11,6.6805877685546875
2013-04-12,6.6498494148254395
2013-04-15,6.485910415649414
2013-04-16,6.603742599487305
2013-04-17,6.5473856925964355
2013-04-18,6.542263507843018
2013-04-19,6.562756538391113
2013-04-22,6.619110107421875
2013-04-23,6.6805877685546875
2013-04-24,6.670342922210693
2013-04-25,6.665220260620117
2013-04-26,6.634479999542236
2013-04-29,6.685713291168213
2013-04-30,6.803544998168945
2013-05-01,6.665220260620117
2013-05-02,6.660097599029541
2013-05-03,6.588371753692627
2013-05-06,6.5934929847717285
2013-05-07,6.7164506912231445
2013-05-08,6.747190475463867
2013-05-09,6.731820106506348
2013-05-10,6.665220260620117
2013-05-13,6.485910415649414
2013-05-14,6.470540523529053
2013-05-15,6.424431800842285
2013-05-16,6.573002815246582
2013-05-17,6.629357814788818
2013-05-20,6.526893615722656
2013-05-21,6.3732008934021
2013-05-22,6.275861740112305
2013-05-23,6.306597709655762
2013-05-24,6.280983924865723
2013-05-28,6.2348761558532715
2013-05-29,6.2707366943359375
2013-05-30,6.429556369781494
2013-05-31,6.29123067855835
2013-06-03,6.316844463348389
2013-06-04,6.403939723968506
2013-06-05,6.337337493896484
2013-06-06,6.409062385559082
2013-06-07,6.403939723968506
2013-06-10,6.368078231811523
2013-06-11,6.275861740112305
2013-06-12,6.199013710021973
2013-06-13,6.450047969818115
2013-06-14,6.460292816162109
2013-06-17,6.3732008934021
2013-06-18,6.470540523529053
2013-06-19,6.368078231811523
2013-06-20,6.199013710021973
2013-06-21,6.347584247589111
2013-06-24,6.168274402618408
2013-06-25,6.199013710021973
2013-06-26,6.2778825759887695
2013-06-27,6.319945335388184
2013-06-28,6.362008094787598
2013-07-01,6.409326553344727
2013-07-02,6.335718154907227
2013-07-03,6.298912525177002
2013-07-05,5.967666149139404
2013-07-08,5.999215602874756
2013-07-09,6.099113941192627
2013-07-10,6.0833420753479
2013-07-11,6.272622108459473
2013-07-12,6.230560302734375
2013-07-15,6.288396835327148
2013-07-16,6.220045566558838
2013-07-17,6.267364501953125
2013-07-18,6.214786529541016
2013-07-19,6.172725200653076
2013-07-22,6.183238983154297
2013-07-23,6.141176223754883
2013-07-24,6.004472732543945
2013-07-25,6.251591205596924
2013-07-26,6.325199604034424
2013-07-29,6.283137798309326
2013-07-30,6.246335506439209
2013-07-31,6.214786529541016
2013-08-01,6.230560302734375
2013-08-02,6.3146867752075195
2013-08-05,6.230560302734375
2013-08-06,6.204270839691162
2013-08-07,6.225302219390869
2013-08-08,6.214786529541016
2013-08-09,6.2778825759887695
2013-08-12,6.2936553955078125
2013-08-13,6.246335506439209
2013-08-14,6.241076946258545
2013-08-15,6.214786529541016
2013-08-16,6.156950950622559
2013-08-19,5.915087699890137
2013-08-20,6.0255045890808105
2013-08-21,5.978184700012207
2013-08-22,6.067568302154541
2013-08-23,6.19375467300415
2013-08-26,6.12540340423584
2013-08-27,6.220045566558838
2013-08-28,6.183238983154297
2013-08-29,6.251591205596924
2013-08-30,6.172725200653076
2013-09-03,6.167464256286621
2013-09-04,6.19375467300415
2013-09-05,6.1306610107421875
2013-09-06,6.120144367218018
2013-09-09,6.177981853485107
2013-09-10,6.12540340423584
2013-09-11,6.1306610107421875
2013-09-12,6.2778825759887695
2013-09-13,6.267364501953125
2013-09-16,6.351491928100586
2013-09-17,6.393553256988525
2013-09-18,6.514484882354736
2013-09-19,6.546031475067139
2013-09-20,6.351491928100586
2013-09-23,6.372521877288818
2013-09-24,6.372521877288818
2013-09-25,6.425100326538086
2013-09-26,6.430495738983154
2013-09-27,6.392732620239258
2013-09-30,6.349573612213135
2013-10-01,6.3765482902526855
2013-10-02,6.3765482902526855
2013-10-03,6.327994346618652
2013-10-04,6.263260364532471
2013-10-07,6.2848381996154785
2013-10-08,6.252470016479492
2013-10-09,6.257864952087402
2013-10-10,6.344179630279541
2013-10-11,6.403522491455078
2013-10-14,6.36575984954834
2013-10-15,6.3387861251831055
2013-10-16,6.371154308319092
2013-10-17,6.554574012756348
2013-10-18,6.576152324676514
2013-10-21,6.522204399108887
2013-10-22,6.543785095214844
2013-10-23,6.53299617767334
2013-10-24,6.381943702697754
2013-10-25,6.36575984954834
2013-10-28,6.360365390777588
2013-10-29,6.2848381996154785
2013-10-30,6.3549699783325195
2013-10-31,6.381943702697754
2013-11-01,6.408917427062988
2013-11-04,6.468259334564209
2013-11-05,6.360365390777588
2013-11-06,6.398127555847168
2013-11-07,6.36575984954834
2013-11-08,6.230892181396484
2013-11-11,6.1715497970581055
2013-11-12,6.220099925994873
2013-11-13,6.327994346618652
2013-11-14,6.398127555847168
2013-11-15,6.414310455322266
2013-11-18,6.403522491455078
2013-11-19,6.311814308166504
2013-11-20,6.371154308319092
2013-11-21,6.419704437255859
2013-11-22,6.468259334564209
2013-11-25,6.516812324523926
2013-11-26,6.479048728942871
2013-11-27,6.522204399108887
2013-11-29,6.489835739135742
2013-12-02,6.468259334564209
2013-12-03,6.52760124206543
2013-12-04,6.522204399108887
2013-12-05,6.522204399108887
2013-12-06,6.468259334564209
2013-12-09,6.457470417022705
2013-12-10,6.495233535766602
2013-12-11,6.468259334564209
2013-12-12,6.457470417022705
2013-12-13,6.516812324523926
2013-12-16,6.543785095214844
2013-12-17,6.624705791473389
2013-12-18,6.657073974609375
2013-12-19,6.5707597732543945
2013-12-20,6.721811294555664
2013-12-23,6.684047698974609
2013-12-24,6.705627918243408
2013-12-26,6.689442157745361
2013-12-27,6.700507164001465
2013-12-30,6.667309761047363
2013-12-31,6.683908939361572
2014-01-02,6.700507164001465
2014-01-03,6.733706474304199
2014-01-06,6.789035797119141
2014-01-07,6.8222336769104
2014-01-08,6.7613701820373535
2014-01-09,6.72817325592041
2014-01-10,6.7613701820373535
2014-01-13,6.72817325592041
2014-01-14,6.706040859222412
2014-01-15,6.672842025756836
2014-01-16,6.694973945617676
2014-01-17,6.700507164001465
2014-01-21,6.7724385261535645
2014-01-22,6.811169147491455
2014-01-23,6.883098125457764
2014-01-24,6.932894706726074
2014-01-27,6.877565860748291
2014-01-28,6.833300590515137
2014-01-29,6.844367504119873
2014-01-30,6.966094970703125
2014-01-31,6.982692241668701
2014-02-03,6.9550275802612305
2014-02-04,6.966094970703125
2014-02-05,6.949495792388916
2014-02-06,6.8941650390625
2014-02-07,6.949495792388916
2014-02-10,6.99929141998291
2014-02-11,6.988225936889648
2014-02-12,6.99929141998291
2014-02-13,7.065688610076904
2014-02-14,7.060156345367432
2014-02-18,7.126551628112793
2014-02-19,7.0878214836120605
2014-02-20,7.065688610076904
2014-02-21,7.010357856750488
2014-02-24,7.060156345367432
2014-02-25,7.054622650146484
2014-02-26,7.115484714508057
2014-02-27,7.082286357879639
2014-02-28,7.132085800170898
2014-03-03,7.14315128326416
2014-03-04,7.14315128326416
2014-03-05,7.181880474090576
2014-03-06,7.187414646148682
2014-03-07,7.098886013031006
2014-03-10,7.104419708251953
2014-03-11,7.082286357879639
2014-03-12,7.115484714508057
2014-03-13,7.198482036590576
2014-03-14,7.204014778137207
2014-03-17,7.215079307556152
2014-03-18,7.226147174835205
2014-03-19,7.15421724319458
2014-03-20,7.148684024810791
2014-03-21,7.187414646148682
2014-03-24,7.181880474090576
2014-03-25,7.204014778137207
2014-03-26,7.137617111206055
2014-03-27,7.1603498458862305
2014-03-28,7.1603498458862305
2014-03-31,7.194446563720703
2014-04-01,7.183078289031982
2014-04-02,7.21717643737793
2014-04-03,7.177397727966309
2014-04-04,7.171713352203369
2014-04-07,7.194446563720703
2014-04-08,7.1887617111206055
2014-04-09,7.171713352203369
2014-04-10,7.194446563720703
2014-04-11,7.211493968963623
2014-04-14,7.234225273132324
2014-04-15,7.2740044593811035
2014-04-16,7.205813407897949
2014-04-17,7.22854471206665
2014-04-21,7.2740044593811035
2014-04-22,7.302417278289795
2014-04-23,7.325151443481445
2014-04-24,7.325151443481445
2014-04-25,7.319467544555664
2014-04-28,7.26263952255249
2014-04-29,7.222861289978027
2014-04-30,7.26263952255249
2014-05-01,7.325151443481445
2014-05-02,7.3308329582214355
2014-05-05,7.319467544555664
2014-05-06,7.325151443481445
2014-05-07,7.3478827476501465
2014-05-08,7.291053295135498
2014-05-09,7.336516857147217
2014-05-12,7.308101177215576
2014-05-13,7.336516857147217
2014-05-14,7.336516857147217
2014-05-15,7.325151443481445
2014-05-16,7.342199325561523
2014-05-19,7.359248161315918
2014-05-20,7.342199325561523
2014-05-21,7.3535661697387695
2014-05-22,7.3819780349731445
2014-05-23,7.433122634887695
2014-05-27,7.472902774810791
2014-05-28,7.450171947479248
2014-05-29,7.416078090667725
2014-05-30,7.484268665313721
2014-06-02,7.444490432739258
2014-06-03,7.455854415893555
2014-06-04,7.472902774810791
2014-06-05,7.506999492645264
2014-06-06,7.541097164154053
2014-06-09,7.541097164154053
2014-06-10,7.535415172576904
2014-06-11,7.552463531494141
2014-06-12,7.563828945159912
2014-06-13,7.580876350402832
2014-06-16,7.575193881988525
2014-06-17,7.54678201675415
2014-06-18,7.529730796813965
2014-06-19,7.552463531494141
2014-06-20,7.58656120300293
2014-06-23,7.5695109367370605
2014-06-24,7.58656120300293
2014-06-25,7.575193881988525
2014-06-26,7.621847152709961
2014-06-27,7.65683650970459
2014-06-30,7.668498516082764
2014-07-01,7.557700157165527
2014-07-02,7.557700157165527
2014-07-03,7.522709846496582
2014-07-07,7.487721920013428
2014-07-08,7.633510112762451
2014-07-09,7.668498516082764
2014-07-10,7.70932149887085
2014-07-11,7.685997009277344
2014-07-14,7.726813793182373
2014-07-15,7.732646942138672
2014-07-16,7.715152740478516
2014-07-17,7.685997009277344
2014-07-18,7.73847770690918
2014-07-21,7.720983028411865
2014-07-22,7.715152740478516
2014-07-23,7.691824913024902
2014-07-24,7.645172595977783
2014-07-25,7.65683650970459
2014-07-28,7.697656631469727
2014-07-29,7.6743316650390625
2014-07-30,7.557700157165527
2014-07-31,7.487721920013428
2014-08-01,7.481889247894287
2014-08-04,7.499383449554443
2014-08-05,7.470227241516113
2014-08-06,7.522709846496582
2014-08-07,7.540205955505371
2014-08-08,7.569361686706543
2014-08-11,7.581027984619141
2014-08-12,7.575193881988525
2014-08-13,7.616015911102295
2014-08-14,7.604351043701172
2014-08-15,7.6101861000061035
2014-08-18,7.627676486968994
2014-08-19,7.598521709442139
2014-08-20,7.616015911102295
2014-08-21,7.621847152709961
2014-08-22,7.616015911102295
2014-08-25,7.616015911102295
2014-08-26,7.668498516082764
2014-08-27,7.651004314422607
2014-08-28,7.668498516082764
2014-08-29,7.70932149887085
2014-09-02,7.6743316650390625
2014-09-03,7.691824913024902
2014-09-04,7.680161476135254
2014-09-05,7.7501420974731445
2014-09-08,7.73847770690918
2014-09-09,7.715152740478516
2014-09-10,7.668498516082764
2014-09-11,7.720983028411865
2014-09-12,7.586858749389648
2014-09-15,7.575193881988525
2014-09-16,7.621847152709961
2014-09-17,7.6101861000061035
2014-09-18,7.581027984619141
2014-09-19,7.581027984619141
2014-09-22,7.516880035400391
2014-09-23,7.499383449554443
2014-09-24,7.481889247894287
2014-09-25,7.540205955505371
2014-09-26,7.522238731384277
2014-09-29,7.474326133728027
2014-09-30,7.3305888175964355
2014-10-01,7.414435863494873
2014-10-02,7.390479564666748
2014-10-03,7.360533714294434
2014-10-06,7.366523265838623
2014-10-07,7.426412582397461
2014-10-08,7.570150852203369
2014-10-09,7.522238731384277
2014-10-10,7.522238731384277
2014-10-13,7.564160346984863
2014-10-14,7.588118553161621
2014-10-15,7.552183151245117
2014-10-16,7.570150852203369
2014-10-17,7.570150852203369
2014-10-20,7.62405252456665
2014-10-21,7.689931392669678
2014-10-22,7.677952289581299
2014-10-23,7.677952289581299
2014-10-24,7.665976047515869
2014-10-27,7.695919036865234
2014-10-28,7.731852054595947
2014-10-29,7.642016887664795
2014-10-30,7.570150852203369
2014-10-31,7.6120734214782715
2014-11-03,7.588118553161621
2014-11-04,7.570150852203369
2014-11-05,7.576137542724609
2014-11-06,7.546196460723877
2014-11-07,7.582127571105957
2014-11-10,7.582127571105957
2014-11-11,7.564160346984863
2014-11-12,7.576137542724609
2014-11-13,7.594107151031494
2014-11-14,7.6120734214782715
2014-11-17,7.642016887664795
2014-11-18,7.689931392669678
2014-11-19,7.642016887664795
2014-11-20,7.725863933563232
2014-11-21,7.665976047515869
2014-11-24,7.719876289367676
2014-11-25,7.731852054595947
2014-11-26,7.779766082763672
2014-11-28,7.791743755340576
2014-12-01,7.773776054382324
2014-12-02,7.82767915725708
2014-12-03,7.83965539932251
2014-12-04,7.797732830047607
2014-12-05,7.7378435134887695
2014-12-08,7.600094318389893
2014-12-09,7.791743755340576
2014-12-10,7.65399694442749
2014-12-11,7.713888168334961
2014-12-12,7.588118553161621
2014-12-15,7.516249656677246
2014-12-16,7.468336582183838
2014-12-17,7.576137542724609
2014-12-18,7.618062496185303
2014-12-19,7.677952289581299
2014-12-22,7.677952289581299
2014-12-23,7.665976047515869
2014-12-24,7.594107151031494
2014-12-26,7.648008823394775
2014-12-29,7.703383445739746
2014-12-30,7.684924125671387
2014-12-31,7.5557146072387695
2015-01-02,7.666465759277344
2015-01-05,7.684924125671387
2015-01-06,7.6357011795043945
2015-01-07,7.654162406921387
2015-01-08,7.7341485023498535
2015-01-09,7.6233954429626465
2015-01-12,7.568021297454834
2015-01-13,7.488033294677734
2015-01-14,7.494184970855713
2015-01-15,7.494184970855713
2015-01-16,7.561868190765381
2015-01-20,7.469576835632324
2015-01-21,7.45727014541626
2015-01-22,7.561868190765381
2015-01-23,7.518797397613525
2015-01-26,7.568021297454834
2015-01-27,7.549561500549316
2015-01-28,7.537256717681885
2015-01-29,7.438810348510742
2015-01-30,7.395740509033203
2015-02-02,7.340365409851074
2015-02-03,7.395740509033203
2015-02-04,7.328058242797852
2015-02-05,7.334211349487305
2015-02-06,7.248071670532227
2015-02-09,7.248071670532227
2015-02-10,7.2234601974487305
2015-02-11,7.20500373840332
2015-02-12,7.272684574127197
2015-02-13,7.284990310668945
2015-02-17,7.3157525062561035
2015-02-18,7.340365409851074
2015-02-19,7.30959939956665
2015-02-20,7.3526716232299805
2015-02-23,7.364977836608887
2015-02-24,7.340365409851074
2015-02-25,7.358823776245117
2015-02-26,7.334211349487305
2015-02-27,7.364977836608887
2015-03-02,7.371130466461182
2015-03-03,7.371130466461182
2015-03-04,7.389590263366699
2015-03-05,7.364977836608887
2015-03-06,7.211154460906982
2015-03-09,7.198849678039551
2015-03-10,7.16808557510376
2015-03-11,7.149626731872559
2015-03-12,7.229615688323975
2015-03-13,7.186545372009277
2015-03-16,7.241920471191406
2015-03-17,7.303450584411621
2015-03-18,7.438810348510742
2015-03-19,7.4265055656433105
2015-03-20,7.549561500549316
2015-03-23,7.568021297454834
2015-03-24,7.543410301208496
2015-03-25,7.494184970855713
2015-03-26,7.494184970855713
2015-03-27,7.456303596496582
2015-03-30,7.456303596496582
2015-03-31,7.431050777435303
2015-04-01,7.437363147735596
2015-04-02,7.456303596496582
2015-04-06,7.532069206237793
2015-04-07,7.475246906280518
2015-04-08,7.500497817993164
2015-04-09,7.46261739730835
2015-04-10,7.5194411277771
2015-04-13,7.513126373291016
2015-04-14,7.525755405426025
2015-04-15,7.5194411277771
2015-04-16,7.551007270812988
2015-04-17,7.5194411277771
2015-04-20,7.563633918762207
2015-04-21,7.538380146026611
2015-04-22,7.513126373291016
2015-04-23,7.551007270812988
2015-04-24,7.557322978973389
2015-04-27,7.538380146026611
2015-04-28,7.481559753417969
2015-04-29,7.412110805511475
2015-04-30,7.355288505554199
2015-05-01,7.405796527862549
2015-05-04,7.468931198120117
2015-05-05,7.393168926239014
2015-05-06,7.380542278289795
2015-05-07,7.405796527862549
2015-05-08,7.431050777435303
2015-05-11,7.405796527862549
2015-05-12,7.475246906280518
2015-05-13,7.456303596496582
2015-05-14,7.525755405426025
2015-05-15,7.513126373291016
2015-05-18,7.532069206237793
2015-05-19,7.5194411277771
2015-05-20,7.525755405426025
2015-05-21,7.513126373291016
2015-05-22,7.487873554229736
2015-05-26,7.456303596496582
2015-05-27,7.468931198120117
2015-05-28,7.468931198120117
2015-05-29,7.468931198120117
2015-06-01,7.513126373291016
2015-06-02,7.487873554229736
2015-06-03,7.456303596496582
2015-06-04,7.443678379058838
2015-06-05,7.34897518157959
2015-06-08,7.311094284057617
2015-06-09,7.29215145111084
2015-06-10,7.29846715927124
2015-06-11,7.424736499786377
2015-06-12,7.418422698974609
2015-06-15,7.405796527862549
2015-06-16,7.418422698974609
2015-06-17,7.443678379058838
2015-06-18,7.481559753417969
2015-06-19,7.475246906280518
2015-06-22,7.449993133544922
2015-06-23,7.437363147735596
2015-06-24,7.424736499786377
2015-06-25,7.431050777435303
2015-06-26,7.281909465789795
2015-06-29,7.191132068634033
2015-06-30,7.197613716125488
2015-07-01,7.3078484535217285
2015-07-02,7.2948808670043945
2015-07-06,7.379176616668701
2015-07-07,7.580190658569336
2015-07-08,7.560739517211914
2015-07-09,7.46995735168457
2015-07-10,7.476439476013184
2015-07-13,7.489410400390625
2015-07-14,7.502378463745117
2015-07-15,7.508862018585205
2015-07-16,7.515346050262451
2015-07-17,7.502378463745117
2015-07-20,7.489410400390625
2015-07-21,7.456989288330078
2015-07-22,7.450505256652832
2015-07-23,7.398630142211914
2015-07-24,7.2948808670043945
2015-07-27,7.34027099609375
2015-07-28,7.398630142211914
2015-07-29,7.40511417388916
2015-07-30,7.210583209991455
2015-07-31,7.178162097930908
2015-08-03,7.158708572387695
2015-08-04,7.132770538330078
2015-08-05,7.1198039054870605
2015-08-06,7.106832981109619
2015-08-07,7.080897331237793
2015-08-10,6.996599197387695
2015-08-11,7.054959774017334
2015-08-12,7.067927837371826
2015-08-13,7.029020309448242
2015-08-14,7.009570121765137
2015-08-17,7.035506248474121
2015-08-18,7.035506248474121
2015-08-19,6.996599197387695
2015-08-20,7.048475742340088
2015-08-21,6.9382405281066895
2015-08-24,6.750194549560547
2015-08-25,6.652929782867432
2015-08-26,6.743711948394775
2015-08-27,6.821523666381836
2015-08-28,6.7891011238098145
2015-08-31,6.756680011749268
2015-09-01,6.717772006988525
2015-09-02,6.717772006988525
2015-09-03,6.711289882659912
2015-09-04,6.659414291381836
2015-09-08,6.678866863250732
2015-09-09,6.639961242675781
2015-09-10,6.607539176940918
2015-09-11,6.678866863250732
2015-09-14,6.639961242675781
2015-09-15,6.639961242675781
2015-09-16,6.678866863250732
2015-09-17,6.769649028778076
2015-09-18,6.750194549560547
2015-09-21,6.879883289337158
2015-09-22,6.8344926834106445
2015-09-23,6.879883289337158
2015-09-24,6.860429286956787
2015-09-25,6.821523666381836
2015-09-28,6.6819024085998535
2015-09-29,6.602117538452148
2015-09-30,6.575524806976318
2015-10-01,6.608767509460449
2015-10-02,6.648658752441406
2015-10-05,6.808226108551025
2015-10-06,6.814874649047852
2015-10-07,6.9412007331848145
2015-10-08,6.961143970489502
2015-10-09,6.934551239013672
2015-10-12,6.934551239013672
2015-10-13,6.854767799377441
2015-10-14,6.848117351531982
2015-10-15,6.861416339874268
2015-10-16,6.874711513519287
2015-10-19,6.8680644035339355
2015-10-20,6.927900791168213
2015-10-21,6.888010025024414
2015-10-22,6.907954692840576
2015-10-23,6.894659042358398
2015-10-26,6.881361484527588
2015-10-27,6.695197582244873
2015-10-28,6.735091209411621
2015-10-29,6.52233362197876
2015-10-30,6.415953636169434
2015-11-02,6.548929214477539
2015-11-03,6.568874359130859
2015-11-04,6.515684604644775
2015-11-05,6.442548751831055
2015-11-06,6.409305572509766
2015-11-09,6.342820167541504
2015-11-10,6.409305572509766
2015-11-11,6.415953636169434
2015-11-12,6.349469184875488
2015-11-13,6.329523086547852
2015-11-16,6.362767696380615
2015-11-17,6.296280384063721
2015-11-18,6.376063346862793
2015-11-19,6.402657985687256
2015-11-20,6.3960089683532715
2015-11-23,6.376063346862793
2015-11-24,6.382711887359619
2015-11-25,6.389359474182129
2015-11-27,6.422604084014893
2015-11-30,6.309576034545898
2015-12-01,6.296280384063721
2015-12-02,6.116764068603516
2015-12-03,6.130063533782959
2015-12-04,6.116764068603516
2015-12-07,6.003738880157471
2015-12-08,5.970495700836182
2015-12-09,5.970495700836182
2015-12-10,6.036983013153076
2015-12-11,5.950549125671387
2015-12-14,5.790981769561768
2015-12-15,5.830873012542725
2015-12-16,5.957198143005371
2015-12-17,6.017035961151123
2015-12-18,5.957198143005371
2015-12-21,5.963846683502197
2015-12-22,6.050279140472412
2015-12-23,6.223143577575684
2015-12-24,6.24308967590332
2015-12-28,6.209847450256348
2015-12-29,6.134617805480957
2015-12-30,6.073066234588623
2015-12-31,5.977319240570068
2016-01-04,6.107261657714844
2016-01-05,6.182489395141602
2016-01-06,6.196169376373291
2016-01-07,6.093583583831787
2016-01-08,6.052548408508301
2016-01-11,6.093583583831787
2016-01-12,5.895251750946045
2016-01-13,5.7653093338012695
2016-01-14,5.7653093338012695
2016-01-15,5.6216888427734375
2016-01-19,5.4712300300598145
2016-01-20,5.382322788238525
2016-01-21,5.389162063598633
2016-01-22,5.594333171844482
2016-01-25,5.498587131500244
2016-01-26,5.68324089050293
2016-01-27,5.68324089050293
2016-01-28,6.0799055099487305
2016-01-29,6.387662410736084
2016-02-01,6.3739848136901855
2016-02-02,6.353466987609863
2016-02-03,6.476570129394531
2016-02-04,6.517604351043701
2016-02-05,6.449213981628418
2016-02-08,6.40817928314209
2016-02-09,6.326110363006592
2016-02-10,6.421856880187988
2016-02-11,6.2919135093688965
2016-02-12,6.428696155548096
2016-02-16,6.476570129394531
2016-02-17,6.579154968261719
2016-02-18,6.599671363830566
2016-02-19,6.524442672729492
2016-02-22,6.558638572692871
2016-02-23,6.572314262390137
2016-02-24,6.551799774169922
2016-02-25,6.681739807128906
2016-02-26,6.599671363830566
2016-02-29,6.640707015991211
2016-03-01,6.5654778480529785
2016-03-02,6.6133503913879395
2016-03-03,6.633867263793945
2016-03-04,6.647544860839844
2016-03-07,6.695418834686279
2016-03-08,6.627026081085205
2016-03-09,6.592832565307617
2016-03-10,6.551799774169922
2016-03-11,6.702256679534912
2016-03-14,6.620189666748047
2016-03-15,6.5654778480529785
2016-03-16,6.620189666748047
2016-03-17,6.7501301765441895
2016-03-18,6.695418834686279
2016-03-21,6.791165351867676
2016-03-22,6.804840564727783
2016-03-23,6.770647048950195
2016-03-24,6.756970405578613
2016-03-28,6.74329137802124
2016-03-29,6.869728088378906
2016-03-30,6.862704753875732
2016-03-31,6.946997165679932
2016-04-01,6.918899059295654
2016-04-04,6.890801429748535
2016-04-05,6.918899059295654
2016-04-06,6.92592191696167
2016-04-07,6.897823810577393
2016-04-08,6.8837761878967285
2016-04-11,6.897823810577393
2016-04-12,6.862704753875732
2016-04-13,6.904850006103516
2016-04-14,6.890801429748535
2016-04-15,6.911874294281006
2016-04-18,6.911874294281006
2016-04-19,6.968069076538086
2016-04-20,6.946997165679932
2016-04-21,6.841630458831787
2016-04-22,6.855679988861084
2016-04-25,6.911874294281006
2016-04-26,6.8837761878967285
2016-04-27,6.862704753875732
2016-04-28,6.827581882476807
2016-04-29,6.827581882476807
2016-05-02,6.757340908050537
2016-05-03,6.644952297210693
2016-05-04,6.680073261260986
2016-05-05,6.771389484405518
2016-05-06,6.827581882476807
2016-05-09,6.79948616027832
2016-05-10,6.827581882476807
2016-05-11,7.003190517425537
2016-05-12,6.961043357849121
2016-05-13,6.968069076538086
2016-05-16,6.996166229248047
2016-05-17,6.954018592834473
2016-05-18,6.813534259796143
2016-05-19,6.79246187210083
2016-05-20,6.771389484405518
2016-05-23,6.757340908050537
2016-05-24,6.79948616027832
2016-05-25,6.79948616027832
2016-05-26,6.806508541107178
2016-05-27,6.750314235687256
2016-05-31,6.785437107086182
2016-06-01,6.848657131195068
2016-06-02,6.8837761878967285
2016-06-03,6.904850006103516
2016-06-06,6.954018592834473
2016-06-07,6.92592191696167
2016-06-08,6.92592191696167
2016-06-09,6.918899059295654
2016-06-10,6.862704753875732
2016-06-13,6.715195655822754
2016-06-14,6.736267566680908
2016-06-15,6.813534259796143
2016-06-16,6.862704753875732
2016-06-17,6.869728088378906
2016-06-20,6.869728088378906
2016-06-21,6.820559024810791
2016-06-22,6.778411865234375
2016-06-23,6.79246187210083
2016-06-24,6.764364242553711
2016-06-27,6.67304801940918
2016-06-28,6.853012561798096
2016-06-29,6.917798042297363
2016-06-30,6.98258638381958
2016-07-01,6.996983051300049
2016-07-05,6.989785671234131
2016-07-06,7.068967819213867
2016-07-07,6.975386619567871
2016-07-08,7.004182815551758
2016-07-11,7.068967819213867
2016-07-12,7.148153305053711
2016-07-13,7.1697492599487305
2016-07-14,7.140955448150635
2016-07-15,7.097762584686279
2016-07-18,7.090564727783203
2016-07-19,7.140955448150635
2016-07-20,7.184144973754883
2016-07-21,7.184144973754883
2016-07-22,7.241734504699707
2016-07-25,7.191344261169434
2016-07-26,7.220137119293213
2016-07-27,7.234536170959473
2016-07-28,7.176948070526123
2016-07-29,7.162548065185547
2016-08-01,7.234536170959473
2016-08-02,7.220137119293213
2016-08-03,7.335316181182861
2016-08-04,7.320919036865234
2016-08-05,7.50808048248291
2016-08-08,7.457690238952637
2016-08-09,7.47928524017334
2016-08-10,7.428896427154541
2016-08-11,7.414498805999756
2016-08-12,7.421698093414307
2016-08-15,7.407299041748047
2016-08-16,7.292123794555664
2016-08-17,7.263329982757568
2016-08-18,7.284925937652588
2016-08-19,7.263329982757568
2016-08-22,7.284925937652588
2016-08-23,7.342513561248779
2016-08-24,7.256129741668701
2016-08-25,7.306520938873291
2016-08-26,7.1697492599487305
2016-08-29,7.133755683898926
2016-08-30,7.148153305053711
2016-08-31,7.140955448150635
2016-09-01,7.11936092376709
2016-09-02,7.234536170959473
2016-09-06,7.198543071746826
2016-09-07,7.277725696563721
2016-09-08,7.241734504699707
2016-09-09,7.047373294830322
2016-09-12,7.1697492599487305
2016-09-13,7.083366394042969
2016-09-14,7.061770439147949
2016-09-15,7.126556396484375
2016-09-16,6.968189716339111
2016-09-19,7.018580913543701
2016-09-20,7.025777816772461
2016-09-21,7.068967819213867
2016-09-22,7.133755683898926
2016-09-23,7.04017448425293
2016-09-26,6.996983051300049
2016-09-27,6.975386619567871
2016-09-28,6.975388050079346
2016-09-29,6.9385175704956055
2016-09-30,6.9532670974731445
2016-10-03,6.879531383514404
2016-10-04,6.717312812805176
2016-10-05,6.680446147918701
2016-10-06,6.621456623077393
2016-10-07,6.636204719543457
2016-10-10,6.695193290710449
2016-10-11,6.695193290710449
2016-10-12,6.754181385040283
2016-10-13,6.754181385040283
2016-10-14,6.732059955596924
2016-10-17,6.724686145782471
2016-10-18,6.746806621551514
2016-10-19,6.791048526763916
2016-10-20,6.813169956207275
2016-10-21,6.820542812347412
2016-10-24,6.901652812957764
2016-10-25,7.004881381988525
2016-10-26,7.004881381988525
2016-10-27,6.9975080490112305
2016-10-28,6.975388050079346
2016-10-31,7.0122551918029785
2016-11-01,6.872159004211426
2016-11-02,6.8647847175598145
2016-11-03,6.901652812957764
2016-11-04,7.004881381988525
2016-11-07,7.041750431060791
2016-11-08,7.115484714508057
2016-11-09,7.167099952697754
2016-11-10,7.122859954833984
2016-11-11,7.2629570960998535
2016-11-14,7.292450904846191
2016-11-15,7.329319477081299
2016-11-16,7.3956804275512695
2016-11-17,7.366186618804932
2016-11-18,7.439921855926514
2016-11-21,7.54315185546875
2016-11-22,7.690622806549072
2016-11-23,7.5947675704956055
2016-11-25,7.639008045196533
2016-11-28,7.639008045196533
2016-11-29,7.756985187530518
2016-11-30,7.624260425567627
2016-12-01,7.506285667419434
2016-12-02,7.37355899810791
2016-12-05,7.432547092437744
2016-12-06,7.535777568817139
2016-12-07,7.550526142120361
2016-12-08,7.675876140594482
2016-12-09,7.7791056632995605
2016-12-12,7.720116138458252
2016-12-13,7.54315185546875
2016-12-14,7.4841628074646
2016-12-15,7.2850775718688965
2016-12-16,7.528404712677002
2016-12-19,7.71274471282959
2016-12-20,7.683248996734619
2016-12-21,7.683248996734619
2016-12-22,7.7274909019470215
2016-12-23,7.720116138458252
2016-12-27,7.71274471282959
2016-12-28,7.644889831542969
2016-12-29,7.788136005401611
2016-12-30,7.682585716247559
2017-01-03,7.848451614379883
2017-01-04,7.9540019035339355
2017-01-05,7.969081401824951
2017-01-06,7.893689155578613
2017-01-09,7.848451614379883
2017-01-10,7.961540699005127
2017-01-11,8.021858215332031
2017-01-12,7.961540699005127
2017-01-13,8.059553146362305
2017-01-17,8.12740707397461
2017-01-18,8.165104866027832
2017-01-19,8.12740707397461
2017-01-20,8.1349458694458
2017-01-23,8.240496635437012
2017-01-24,8.195261001586914
2017-01-25,8.202800750732422
2017-01-26,8.195261001586914
2017-01-27,8.119869232177734
2017-01-30,8.044474601745605
2017-01-31,8.044474601745605
2017-02-01,7.976619243621826
2017-02-02,7.99923849105835
2017-02-03,7.991700649261475
2017-02-06,8.067091941833496
2017-02-07,7.969081401824951
2017-02-08,7.969081401824951
2017-02-09,7.9464640617370605
2017-02-10,7.976619243621826
2017-02-13,7.9464640617370605
2017-02-14,7.9163055419921875
2017-02-15,7.886148452758789
2017-02-16,7.9540019035339355
2017-02-17,7.908766746520996
2017-02-21,7.840912342071533
2017-02-22,7.886148452758789
2017-02-23,7.9163055419921875
2017-02-24,7.9163055419921875
2017-02-27,7.9540019035339355
2017-02-28,7.976619243621826
2017-03-01,8.021858215332031
2017-03-02,8.059553146362305
2017-03-03,7.976619243621826
2017-03-06,7.9540019035339355
2017-03-07,7.908766746520996
2017-03-08,7.697662830352783
2017-03-09,7.682585716247559
2017-03-10,7.788136005401611
2017-03-13,7.795676231384277
2017-03-14,7.757979393005371
2017-03-15,7.855990886688232
2017-03-16,7.825833320617676
2017-03-17,7.901227951049805
2017-03-20,7.9464640617370605
2017-03-21,7.8786091804504395
2017-03-22,7.893689155578613
2017-03-23,7.8786091804504395
2017-03-24,7.855990886688232
2017-03-27,7.901227951049805
2017-03-28,7.99923849105835
2017-03-29,8.114612579345703
2017-03-30,8.060770034790039
2017-03-31,8.10692024230957
2017-04-03,8.099230766296387
2017-04-04,8.114612579345703
2017-04-05,8.053078651428223
2017-04-06,8.137687683105469
2017-04-07,8.099230766296387
2017-04-10,8.129995346069336
2017-04-11,8.237678527832031
2017-04-12,8.191527366638184
2017-04-13,8.183835983276367
2017-04-17,8.322286605834961
2017-04-18,8.35305118560791
2017-04-19,8.306900978088379
2017-04-20,8.222293853759766
2017-04-21,8.28382682800293
2017-04-24,8.299210548400879
2017-04-25,8.36074447631836
2017-04-26,8.414583206176758
2017-04-27,8.722246170043945
2017-04-28,8.568415641784668
2017-05-01,8.660714149475098
2017-05-02,8.437660217285156
2017-05-03,8.368432998657227
2017-05-04,8.28382682800293
2017-05-05,8.329977035522461
2017-05-08,8.253060340881348
2017-05-09,8.091537475585938
2017-05-10,8.091537475585938
2017-05-11,8.083847045898438
2017-05-12,8.037696838378906
2017-05-15,8.060770034790039
2017-05-16,8.060770034790039
2017-05-17,7.968473434448242
2017-05-18,7.8992486000061035
2017-05-19,7.937705993652344
2017-05-22,8.02231502532959
2017-05-23,8.060770034790039
2017-05-24,8.10692024230957
2017-05-25,8.137687683105469
2017-05-26,8.114612579345703
2017-05-30,8.068462371826172
2017-05-31,8.10692024230957
2017-06-01,8.137687683105469
2017-06-02,8.129995346069336
2017-06-05,8.068462371826172
2017-06-06,8.083847045898438
2017-06-07,8.10692024230957
2017-06-08,8.19922161102295
2017-06-09,8.314594268798828
2017-06-12,8.337668418884277
2017-06-13,8.383817672729492
2017-06-14,8.414583206176758
2017-06-15,8.437660217285156
2017-06-16,8.522266387939453
2017-06-19,8.499189376831055
2017-06-20,8.468423843383789
2017-06-21,8.406892776489258
2017-06-22,8.460733413696289
2017-06-23,8.50688362121582
2017-06-26,8.468423843383789
2017-06-27,8.329977035522461
2017-06-28,8.34566593170166
2017-06-29,8.251540184020996
2017-06-30,8.180947303771973
2017-07-03,8.251540184020996
2017-07-05,8.30644702911377
2017-07-06,8.196633338928223
2017-07-07,8.157415390014648
2017-07-10,8.180947303771973
2017-07-11,8.173103332519531
2017-07-12,8.196633338928223
2017-07-13,8.126042366027832
2017-07-14,8.188790321350098
2017-07-17,8.110352516174316
2017-07-18,8.000542640686035
2017-07-19,7.969168663024902
2017-07-20,7.9770121574401855
2017-07-21,7.992698669433594
2017-07-24,7.969168663024902
2017-07-25,7.88288688659668
2017-07-26,7.835825443267822
2017-07-27,7.671108722686768
2017-07-28,7.647578716278076
2017-07-31,7.671108722686768
2017-08-01,7.647578716278076
2017-08-02,7.616201400756836
2017-08-03,7.616201400756836
2017-08-04,7.5612969398498535
2017-08-07,7.592670917510986
2017-08-08,7.631890296936035
2017-08-09,7.655419826507568
2017-08-10,7.600515365600586
2017-08-11,7.57698392868042
2017-08-14,7.608358860015869
2017-08-15,7.57698392868042
2017-08-16,7.592670917510986
2017-08-17,7.545608997344971
2017-08-18,7.631890296936035
2017-08-21,7.616201400756836
2017-08-22,7.765233993530273
2017-08-23,7.639734745025635
2017-08-24,7.671108722686768
2017-08-25,7.647578716278076
2017-08-28,7.631890296936035
2017-08-29,7.5612969398498535
2017-08-30,7.529924392700195
2017-08-31,7.584828853607178
2017-09-01,7.62404727935791
2017-09-05,7.4750165939331055
2017-09-06,7.5063910484313965
2017-09-07,7.459329605102539
2017-09-08,7.427955150604248
2017-09-11,7.4750165939331055
2017-09-12,7.435798168182373
2017-09-13,7.388736248016357
2017-09-14,7.396580219268799
2017-09-15,7.427955150604248
2017-09-18,7.482860565185547
2017-09-19,7.514235496520996
2017-09-20,7.514235496520996
2017-09-21,7.529924392700195
2017-09-22,7.584828853607178
2017-09-25,7.639734745025635
2017-09-26,7.62404727935791
2017-09-27,7.671108722686768
2017-09-28,7.7750959396362305
2017-09-29,7.71910285949707
2017-10-02,7.79109525680542
2017-10-03,7.823090076446533
2017-10-04,7.823090076446533
2017-10-05,7.879085063934326
2017-10-06,7.727100849151611
2017-10-09,7.743099212646484
2017-10-10,7.679108619689941
2017-10-11,7.711104393005371
2017-10-12,7.703104496002197
2017-10-13,7.743099212646484
2017-10-16,7.751097679138184
2017-10-17,7.743099212646484
2017-10-18,7.783094882965088
2017-10-19,7.767096519470215
2017-10-20,7.743099212646484
2017-10-23,7.615115642547607
2017-10-24,7.551122665405273
2017-10-25,7.431136608123779
2017-10-26,7.319148540496826
2017-10-27,7.375142574310303
2017-10-30,7.1591668128967285
2017-10-31,7.055180072784424
2017-11-01,7.071177959442139
2017-11-02,6.935194492340088
2017-11-03,6.9271955490112305
2017-11-06,6.903197765350342
2017-11-07,6.991186618804932
2017-11-08,7.047181606292725
2017-11-09,7.015185356140137
2017-11-10,6.991186618804932
2017-11-13,7.055180072784424
2017-11-14,7.079177379608154
2017-11-15,7.055180072784424
2017-11-16,7.079177379608154
2017-11-17,7.103174209594727
2017-11-20,7.167166709899902
2017-11-21,7.247157573699951
2017-11-22,7.319148540496826
2017-11-24,7.263156414031982
2017-11-27,7.2151618003845215
2017-11-28,7.319148540496826
2017-11-29,7.399139404296875
2017-11-30,7.255156993865967
2017-12-01,7.287152290344238
2017-12-04,7.391141891479492
2017-12-05,7.303150653839111
2017-12-06,7.279155254364014
2017-12-07,7.287152290344238
2017-12-08,7.391141891479492
2017-12-11,7.431136608123779
2017-12-12,7.255156993865967
2017-12-13,7.343146800994873
2017-12-14,7.311150074005127
2017-12-15,7.4151387214660645
2017-12-18,7.311150074005127
2017-12-19,7.1591668128967285
2017-12-20,7.2151618003845215
2017-12-21,7.247157573699951
2017-12-22,7.14316987991333
2017-12-26,7.207162857055664
2017-12-27,7.135170936584473
2017-12-28,7.241421222686768
2017-12-29,7.069785118103027
2018-01-02,7.028919219970703
2018-01-03,6.979880332946777
2018-01-04,7.077958106994629
2018-01-05,7.1269989013671875
2018-01-08,7.216902732849121
2018-01-09,7.1760358810424805
2018-01-10,7.257767677307129
2018-01-11,7.249595642089844
2018-01-12,7.233247756958008
2018-01-16,7.110651016235352
2018-01-17,7.159690856933594
2018-01-18,7.037093162536621
2018-01-19,7.077958106994629
2018-01-22,7.102476119995117
2018-01-23,7.135169982910156
2018-01-24,7.151516914367676
2018-01-25,7.135169982910156
2018-01-26,7.077958106994629
2018-01-29,6.873629570007324
2018-01-30,6.873629570007324
2018-01-31,6.7101664543151855
2018-02-01,6.9962286949157715
2018-02-02,6.9962286949157715
2018-02-05,6.881803035736084
2018-02-06,7.037093162536621
2018-02-07,7.02074670791626
2018-02-08,7.028919219970703
2018-02-09,7.028919219970703
2018-02-12,7.1269989013671875
2018-02-13,7.20055627822876
2018-02-14,7.192382335662842
2018-02-15,7.249595642089844
2018-02-16,7.241421222686768
2018-02-20,6.9962286949157715
2018-02-21,7.012572765350342
2018-02-22,7.004399299621582
2018-02-23,7.102476119995117
2018-02-26,7.143342971801758
2018-02-27,6.947187423706055
2018-02-28,6.824590682983398
2018-03-01,6.840936183929443
2018-03-02,6.979880332946777
2018-03-05,7.077958106994629
2018-03-06,7.110651016235352
2018-03-07,7.1188249588012695
2018-03-08,7.110651016235352
2018-03-09,7.102476119995117
2018-03-12,7.225075721740723
2018-03-13,7.216902732849121
2018-03-14,7.20055627822876
2018-03-15,7.135169982910156
2018-03-16,7.233247756958008
2018-03-19,7.135169982910156
2018-03-20,7.069785118103027
2018-03-21,7.053439140319824
2018-03-22,7.028919219970703
2018-03-23,6.988053321838379
2018-03-26,7.028919219970703
2018-03-27,7.0452656745910645
2018-03-28,7.211820602416992
2018-03-29,7.203492164611816
2018-04-02,7.1118879318237305
2018-04-03,7.186837673187256
2018-04-04,7.236802101135254
2018-04-05,7.2284770011901855
2018-04-06,7.245131969451904
2018-04-09,7.245131969451904
2018-04-10,7.261788368225098
2018-04-11,7.261788368225098
2018-04-12,7.22014856338501
2018-04-13,7.178509712219238
2018-04-16,7.2284770011901855
2018-04-17,7.34506368637085
2018-04-18,7.361718654632568
2018-04-19,7.295098304748535
2018-04-20,7.286769866943359
2018-04-23,7.270114898681641
2018-04-24,7.34506368637085
2018-04-25,7.420013904571533
2018-04-26,7.436670303344727
2018-04-27,7.3700480461120605
2018-04-30,7.328408718109131
2018-05-01,7.303426742553711
2018-05-02,7.245131969451904
2018-05-03,7.32008171081543
2018-05-04,7.395030498504639
2018-05-07,7.436670303344727
2018-05-08,7.361718654632568
2018-05-09,7.378374099731445
2018-05-10,7.436670303344727
2018-05-11,7.403358459472656
2018-05-14,7.378374099731445
2018-05-15,7.428341388702393
2018-05-16,7.478307723999023
2018-05-17,7.494963645935059
2018-05-18,7.57824182510376
2018-05-21,7.628207206726074
2018-05-22,7.66151762008667
2018-05-23,7.6865010261535645
2018-05-24,7.669846534729004
2018-05-25,7.719813346862793
2018-05-29,7.753124237060547
2018-05-30,7.786434173583984
2018-05-31,7.619879722595215
2018-06-01,7.63653564453125
2018-06-04,7.694828987121582
2018-06-05,7.569912910461426
2018-06-06,7.5449299812316895
2018-06-07,7.553256988525391
2018-06-08,7.57824182510376
2018-06-11,7.63653564453125
2018-06-12,7.628207206726074
2018-06-13,7.569912910461426
2018-06-14,7.553256988525391
2018-06-15,7.561585426330566
2018-06-18,7.6865010261535645
2018-06-19,7.736468315124512
2018-06-20,7.703156471252441
2018-06-21,7.6531901359558105
2018-06-22,7.66151762008667
2018-06-25,7.628207206726074
2018-06-26,7.619879722595215
2018-06-27,7.420013904571533
2018-06-28,7.572305679321289
2018-06-29,7.572305679321289
2018-07-02,7.62307071685791
2018-07-03,7.75844144821167
2018-07-05,7.800744533538818
2018-07-06,7.8176655769348145
2018-07-09,7.7922844886779785
2018-07-10,7.436935901641846
2018-07-11,7.411553859710693
2018-07-12,7.32694673538208
2018-07-13,7.250799655914307
2018-07-16,7.250799655914307
2018-07-17,7.183114528656006
2018-07-18,7.250799655914307
2018-07-19,7.310026168823242
2018-07-20,7.32694673538208
2018-07-23,7.3015642166137695
2018-07-24,7.259260654449463
2018-07-25,7.259260654449463
2018-07-26,7.0562052726745605
2018-07-27,7.013901233673096
2018-07-30,7.081586837768555
2018-07-31,7.081586837768555
2018-08-01,7.081586837768555
2018-08-02,7.0562052726745605
2018-08-03,6.980058670043945
2018-08-06,6.963137149810791
2018-08-07,6.903912544250488
2018-08-08,6.903912544250488
2018-08-09,6.895451545715332
2018-08-10,6.946215629577637
2018-08-13,7.047744274139404
2018-08-14,7.0900468826293945
2018-08-15,7.132351875305176
2018-08-16,7.106968879699707
2018-08-17,7.0900468826293945
2018-08-20,7.0900468826293945
2018-08-21,7.132351875305176
2018-08-22,7.106968879699707
2018-08-23,7.0900468826293945
2018-08-24,7.0562052726745605
2018-08-27,7.064666271209717
2018-08-28,7.081586837768555
2018-08-29,7.081586837768555
2018-08-30,7.106968879699707
2018-08-31,7.106968879699707
2018-09-04,7.149272441864014
2018-09-05,7.225419044494629
2018-09-06,7.242340087890625
2018-09-07,7.225419044494629
2018-09-10,7.19157600402832
2018-09-11,7.132351875305176
2018-09-12,7.064666271209717
2018-09-13,6.996981143951416
2018-09-14,6.946215629577637
2018-09-17,6.963137149810791
2018-09-18,6.929294586181641
2018-09-19,6.819305896759033
2018-09-20,6.827765941619873
2018-09-21,6.853149890899658
2018-09-24,6.793924331665039
2018-09-25,6.802384376525879
2018-09-26,6.785464286804199
2018-09-27,6.8111982345581055
2018-09-28,6.785463333129883
2018-10-01,6.708258152008057
2018-10-02,6.682523250579834
2018-10-03,6.622474193572998
2018-10-04,6.5624260902404785
2018-10-05,6.536691188812256
2018-10-08,6.5624260902404785
2018-10-09,6.5710039138793945
2018-10-10,6.528112888336182
2018-10-11,6.408015727996826
2018-10-12,6.322233200073242
2018-10-15,6.347968101501465
2018-10-16,6.4423298835754395
2018-10-17,6.468064308166504
2018-10-18,6.450908184051514
2018-10-19,6.425172328948975
2018-10-22,6.39943790435791
2018-10-23,6.322233200073242
2018-10-24,6.330811977386475
2018-10-25,6.1249308586120605
2018-10-26,6.210713863372803
2018-10-29,5.781797885894775
2018-10-30,5.781797885894775
2018-10-31,5.884737968444824
2018-11-01,6.287919998168945
2018-11-02,6.227871417999268
2018-11-05,6.262185096740723
2018-11-06,6.39943790435791
2018-11-07,6.468064308166504
2018-11-08,6.39943790435791
2018-11-09,6.296497821807861
2018-11-12,6.330811977386475
2018-11-13,6.3908586502075195
2018-11-14,6.425172328948975
2018-11-15,6.433751583099365
2018-11-16,6.493799686431885
2018-11-19,6.54526948928833
2018-11-20,6.536691188812256
2018-11-21,6.519535064697266
2018-11-23,6.510956287384033
2018-11-26,6.588160991668701
2018-11-27,6.553847789764404
2018-11-28,6.5624260902404785
2018-11-29,6.5710039138793945
2018-11-30,6.631053447723389
2018-12-03,6.596740245819092
2018-12-04,6.588160991668701
2018-12-06,6.579582691192627
2018-12-07,6.553847789764404
2018-12-10,6.305076599121094
2018-12-11,6.3908586502075195
2018-12-12,6.416594505310059
2018-12-13,6.330811977386475
2018-12-14,6.339389801025391
2018-12-17,6.056304931640625
2018-12-18,6.1163530349731445
2018-12-19,6.056304931640625
2018-12-20,5.764640808105469
2018-12-21,5.8161115646362305
2018-12-24,5.7560625076293945
2018-12-26,5.927628993988037
2018-12-27,5.944786071777344
2018-12-28,5.979499816894531
2018-12-31,5.788572788238525
2019-01-02,5.866679668426514
2019-01-03,5.927428722381592
2019-01-04,6.014213562011719
2019-01-07,6.109677791595459
2019-01-08,6.0315704345703125
2019-01-09,6.135713577270508
2019-01-10,6.1704277992248535
2019-01-11,6.257213115692139
2019-01-14,6.257213115692139
2019-01-15,6.248534679412842
2019-01-16,6.248534679412842
2019-01-17,6.274569988250732
2019-01-18,6.231177806854248
2019-01-22,6.17910623550415
2019-01-23,6.17910623550415
2019-01-24,6.257213115692139
2019-01-25,6.274569988250732
2019-01-28,6.257213115692139
2019-01-29,6.257213115692139
2019-01-30,6.291926860809326
2019-01-31,6.396069049835205
2019-02-01,6.508890151977539
2019-02-04,6.699817180633545
2019-02-05,6.847352027893066
2019-02-06,6.873387336730957
2019-02-07,6.803959846496582
2019-02-08,6.821317195892334
2019-02-11,6.847352027893066
2019-02-12,6.8299946784973145
2019-02-13,6.8299946784973145
2019-02-14,6.847352027893066
2019-02-15,6.873387336730957
2019-02-19,7.046957969665527
2019-02-20,7.064315319061279
2019-02-21,7.09035062789917
2019-02-22,7.142421722412109
2019-02-25,7.203171253204346
2019-02-26,7.255241870880127
2019-02-27,7.220528602600098
2019-02-28,7.203171253204346
2019-03-01,7.159778594970703
2019-03-04,7.159778594970703
2019-03-05,7.159778594970703
2019-03-06,7.1337432861328125
2019-03-07,7.125064849853516
2019-03-08,7.1077070236206055
2019-03-11,7.203171253204346
2019-03-12,7.211850643157959
2019-03-13,7.28127908706665
2019-03-14,7.359384059906006
2019-03-15,7.385420322418213
2019-03-18,7.437490463256836
2019-03-19,7.376741886138916
2019-03-20,7.333349704742432
2019-03-21,7.272599697113037
2019-03-22,7.185813903808594
2019-03-25,7.28127908706665
2019-03-26,7.4201340675354
2019-03-27,7.454848289489746
2019-03-28,7.498650074005127
2019-03-29,7.524929046630859
2019-04-01,7.568730354309082
2019-04-02,7.542448997497559
2019-04-03,7.524929046630859
2019-04-04,7.577490329742432
2019-04-05,7.612530708312988
2019-04-08,7.656330585479736
2019-04-09,7.630051136016846
2019-04-10,7.63881254196167
2019-04-11,7.603770732879639
2019-04-12,7.62129020690918
2019-04-15,7.533689498901367
2019-04-16,7.498650074005127
2019-04-17,7.524929046630859
2019-04-18,7.507408142089844
2019-04-22,7.533689498901367
2019-04-23,7.551209449768066
2019-04-24,7.559969902038574
2019-04-25,7.428567886352539
2019-04-26,7.507408142089844
2019-04-29,7.533689498901367
2019-04-30,7.524929046630859
2019-05-01,7.454848766326904
2019-05-02,7.524929046630859
2019-05-03,7.568730354309082
2019-05-06,7.551209449768066
2019-05-07,7.463609218597412
2019-05-08,7.437327861785889
2019-05-09,7.428567886352539
2019-05-10,7.384768486022949
2019-05-13,7.279646873474121
2019-05-14,7.349728107452393
2019-05-15,7.437327861785889
2019-05-16,7.454848766326904
2019-05-17,7.367247581481934
2019-05-20,7.279646873474121
2019-05-21,7.262126445770264
2019-05-22,7.192045211791992
2019-05-23,7.148244857788086
2019-05-24,7.2008056640625
2019-05-28,7.148244857788086
2019-05-29,7.025604724884033
2019-05-30,7.025604724884033
2019-05-31,6.929242134094238
2019-06-03,7.060644626617432
2019-06-04,7.2008056640625
2019-06-05,7.340967655181885
2019-06-06,7.279646873474121
2019-06-07,7.086924076080322
2019-06-10,7.130724906921387
2019-06-11,7.165765285491943
2019-06-12,7.183284759521484
2019-06-13,7.270886421203613
2019-06-14,7.279646873474121
2019-06-17,7.192045211791992
2019-06-18,7.1570048332214355
2019-06-19,7.192045211791992
2019-06-20,7.165765285491943
2019-06-21,7.235846042633057
2019-06-24,7.253365993499756
2019-06-25,7.30592679977417
2019-06-26,7.270886421203613
2019-06-27,7.359772205352783
2019-06-28,7.421992778778076
2019-07-01,7.4486589431762695
2019-07-02,7.377549648284912
2019-07-03,7.484213352203369
2019-07-05,7.50199031829834
2019-07-08,7.608654499053955
2019-07-09,7.5108795166015625
2019-07-10,7.573099613189697
2019-07-11,7.581987380981445
2019-07-12,7.804203033447266
2019-07-15,7.839756965637207
2019-07-16,7.875310897827148
2019-07-17,7.928643226623535
2019-07-18,7.981975078582764
2019-07-19,8.02641773223877
2019-07-22,8.088639259338379
2019-07-23,8.07086181640625
2019-07-24,8.12419319152832
2019-07-25,7.821981430053711
2019-07-26,7.866424560546875
2019-07-29,7.946420192718506
2019-07-30,7.6530961990356445
2019-07-31,7.493102550506592
2019-08-01,7.377549648284912
2019-08-02,7.430880546569824
2019-08-05,7.253108978271484
2019-08-06,7.288662910461426
2019-08-07,7.270886421203613
2019-08-08,7.368661403656006
2019-08-09,7.324217796325684
2019-08-12,7.297552108764648
2019-08-13,7.279774188995361
2019-08-14,7.102002143859863
2019-08-15,7.102002143859863
2019-08-16,7.119780540466309
2019-08-19,7.0753374099731445
2019-08-20,7.048670291900635
2019-08-21,7.0397820472717285
2019-08-22,7.022005558013916
2019-08-23,6.870898723602295
2019-08-26,6.853121280670166
2019-08-27,6.630906105041504
2019-08-28,6.408690929412842
2019-08-29,6.4264678955078125
2019-08-30,6.462022304534912
2019-09-03,6.302027702331543
2019-09-04,6.284250259399414
2019-09-05,6.364247798919678
2019-09-06,6.319804668426514
2019-09-09,6.4264678955078125
2019-09-10,6.479799747467041
2019-09-11,6.586463451385498
2019-09-12,6.586463451385498
2019-09-13,6.702014923095703
2019-09-16,6.710904121398926
2019-09-17,6.630906105041504
2019-09-18,6.6664605140686035
2019-09-19,6.719792366027832
2019-09-20,6.675349235534668
2019-09-23,6.684237480163574
2019-09-24,6.568685531616211
2019-09-25,6.790900707244873
2019-09-26,6.755346298217773
2019-09-27,6.656002998352051
2019-09-30,6.637940883636475
2019-10-01,6.547628402709961
2019-10-02,6.592785358428955
2019-10-03,6.665034294128418
2019-10-04,6.719222068786621
2019-10-07,6.719222068786621
2019-10-08,6.646972179412842
2019-10-09,6.719222068786621
2019-10-10,6.782439708709717
2019-10-11,6.809533596038818
2019-10-14,6.773408889770508
2019-10-15,6.800502300262451
2019-10-16,6.809533596038818
2019-10-17,6.890815258026123
2019-10-18,6.881783485412598
2019-10-21,7.044345378875732
2019-10-22,7.062408447265625
2019-10-23,7.107563495635986
2019-10-24,7.017251968383789
2019-10-25,6.9901580810546875
2019-10-28,7.053376197814941
2019-10-29,7.071439266204834
2019-10-30,7.071439266204834
2019-10-31,6.98112678527832
2019-11-01,6.98112678527832
2019-11-04,6.890815258026123
2019-11-05,6.809533596038818
2019-11-06,6.746315002441406
2019-11-07,6.827596664428711
2019-11-08,6.872752666473389
2019-11-11,6.818565368652344
2019-11-12,6.800502300262451
2019-11-13,6.854690074920654
2019-11-14,6.899845600128174
2019-11-15,6.954033374786377
2019-11-18,6.917908191680908
2019-11-19,6.899845600128174
2019-11-20,6.845658779144287
2019-11-21,6.890815258026123
2019-11-22,6.899845600128174
2019-11-25,6.98112678527832
2019-11-26,6.908876895904541
2019-11-27,6.9901580810546875
2019-11-29,7.026282787322998
2019-12-02,7.008220672607422
2019-12-03,6.9901580810546875
2019-12-04,7.026282787322998
2019-12-05,7.053376197814941
2019-12-06,7.143688201904297
2019-12-09,7.188845157623291
2019-12-10,7.215938091278076
2019-12-11,7.224969387054443
2019-12-12,7.324312686920166
2019-12-13,7.2881879806518555
2019-12-16,7.224969387054443
2019-12-17,7.243032455444336
2019-12-18,7.30625057220459
2019-12-19,7.206906795501709
2019-12-20,7.116595268249512
2019-12-23,7.134657859802246
2019-12-24,7.252062797546387
2019-12-26,7.342375755310059
2019-12-27,7.30625057220459
2019-12-30,7.269443511962891
2019-12-31,7.287846565246582
