Date,CNSL
2007-12-31,6.827709674835205
2008-01-02,6.584106922149658
2008-01-03,6.182680606842041
2008-01-04,6.134645462036133
2008-01-07,6.350800037384033
2008-01-08,6.1071953773498535
2008-01-09,6.103767395019531
2008-01-10,6.06602668762207
2008-01-11,6.015861988067627
2008-01-14,5.963245391845703
2008-01-15,5.886075973510742
2008-01-16,5.622991561889648
2008-01-17,5.615976810455322
2008-01-18,5.6054511070251465
2008-01-22,5.300273895263672
2008-01-23,5.615976810455322
2008-01-24,5.503724098205566
2008-01-25,5.486185550689697
2008-01-28,5.500216007232666
2008-01-29,5.661577224731445
2008-01-30,5.496711254119873
2008-01-31,5.486185550689697
2008-02-01,5.4721550941467285
2008-02-04,5.433570384979248
2008-02-05,5.209070205688477
2008-02-06,5.212578296661377
2008-02-07,5.314303874969482
2008-02-08,5.184515953063965
2008-02-11,5.1073455810546875
2008-02-12,5.177502155303955
2008-02-13,5.314303874969482
2008-02-14,5.195040225982666
2008-02-15,5.254671573638916
2008-02-19,5.117870330810547
2008-02-20,5.072267055511475
2008-02-21,4.910910129547119
2008-02-22,4.953001976013184
2008-02-25,5.103836536407471
2008-02-26,5.202055931091309
2008-02-27,5.188023090362549
2008-02-28,5.166976451873779
2008-02-29,5.054728984832764
2008-03-03,5.166976451873779
2008-03-04,5.068759441375732
2008-03-05,4.991589069366455
2008-03-06,5.279225826263428
2008-03-07,5.345874309539795
2008-03-10,5.233625411987305
2008-03-11,5.626499176025391
2008-03-12,5.4160308837890625
2008-03-13,5.430061340332031
2008-03-14,5.251164436340332
2008-03-17,5.4195380210876465
2008-03-18,5.707176685333252
2008-03-19,5.331842422485352
2008-03-20,5.479170799255371
2008-03-24,5.658067226409912
2008-03-25,5.5423126220703125
2008-03-26,5.451107978820801
2008-03-27,5.440585613250732
2008-03-28,5.349382400512695
2008-03-31,5.307290554046631
2008-04-01,5.454616069793701
2008-04-02,5.387967586517334
2008-04-03,5.366920471191406
2008-04-04,5.328336238861084
2008-04-07,5.363412857055664
2008-04-08,5.405508041381836
2008-04-09,5.331842422485352
2008-04-10,5.412524700164795
2008-04-11,5.116405010223389
2008-04-14,5.199159622192383
2008-04-15,5.195561408996582
2008-04-16,5.350277423858643
2008-04-17,5.245935440063477
2008-04-18,5.415040969848633
2008-04-21,5.289109230041504
2008-04-22,5.109207630157471
2008-04-23,5.102013111114502
2008-04-24,5.22434663772583
2008-04-25,5.195561408996582
2008-04-28,5.1200032234191895
2008-04-29,5.127198696136475
2008-04-30,5.145188331604004
2008-05-01,5.2963056564331055
2008-05-02,5.292708873748779
2008-05-05,5.098414897918701
2008-05-06,5.11280632019043
2008-05-07,5.098414897918701
2008-05-08,5.181169033050537
2008-05-09,5.048043251037598
2008-05-12,5.137991905212402
2008-05-13,5.184767246246338
2008-05-14,5.080424785614014
2008-05-15,5.015659332275391
2008-05-16,4.940101623535156
2008-05-19,4.929306983947754
2008-05-20,4.9508957862854
2008-05-21,4.940101623535156
2008-05-22,5.0408453941345215
2008-05-23,4.954492568969727
2008-05-27,5.3718671798706055
2008-05-28,5.487001419067383
2008-05-29,5.47620964050293
2008-05-30,5.39705228805542
2008-06-02,5.508591175079346
2008-06-03,5.558961868286133
2008-06-04,5.436630725860596
2008-06-05,5.54817008972168
2008-06-06,5.526580333709717
2008-06-09,5.51938533782959
2008-06-10,5.422237873077393
2008-06-11,5.299903869628906
2008-06-12,5.3214921951293945
2008-06-13,5.46181583404541
2008-06-16,5.569757461547852
2008-06-17,5.569757461547852
2008-06-18,5.454620838165283
2008-06-19,5.6525115966796875
2008-06-20,5.526580333709717
2008-06-23,5.522983551025391
2008-06-24,5.508591175079346
2008-06-25,5.645316123962402
2008-06-26,5.526580333709717
2008-06-27,5.289109230041504
2008-06-30,5.357471466064453
2008-07-01,5.2963056564331055
2008-07-02,5.289109230041504
2008-07-03,5.102013111114502
2008-07-07,5.004866123199463
2008-07-08,5.105609893798828
2008-07-09,5.037249565124512
2008-07-10,5.109207630157471
2008-07-11,5.163583755493164
2008-07-14,4.9860382080078125
2008-07-15,5.034122467041016
2008-07-16,5.056314945220947
2008-07-17,5.052617073059082
2008-07-18,5.252353191375732
2008-07-21,5.11179780960083
2008-07-22,5.1524858474731445
2008-07-23,5.163583755493164
2008-07-24,5.159883975982666
2008-07-25,5.193172454833984
2008-07-28,5.09700345993042
2008-07-29,5.156183242797852
2008-07-30,5.17467737197876
2008-07-31,5.163583755493164
2008-08-01,5.1709794998168945
2008-08-04,5.09700345993042
2008-08-05,5.071109771728516
2008-08-06,5.056314945220947
2008-08-07,5.2819437980651855
2008-08-08,5.677720546722412
2008-08-11,5.470584392547607
2008-08-12,5.69621467590332
2008-08-13,5.592648029327393
2008-08-14,5.633336067199707
2008-08-15,5.618540287017822
2008-08-18,5.614840030670166
2008-08-19,5.533465385437012
2008-08-20,5.633336067199707
2008-08-21,5.507572650909424
2008-08-22,5.648130893707275
2008-08-25,5.540863513946533
2008-08-26,5.614840030670166
2008-08-27,5.644430637359619
2008-08-28,5.718407154083252
2008-08-29,5.588948726654053
2008-09-02,5.69621467590332
2008-09-03,5.821975231170654
2008-09-04,5.736902713775635
2008-09-05,5.69621467590332
2008-09-08,5.810877799987793
2008-09-09,5.740602016448975
2008-09-10,5.747998237609863
2008-09-11,5.677720546722412
2008-09-12,5.707313060760498
2008-09-15,5.47428560256958
2008-09-16,5.585248947143555
2008-09-17,5.318932056427002
2008-09-18,5.614840030670166
2008-09-19,5.740602016448975
2008-09-22,5.548261642456055
2008-09-23,5.555659294128418
2008-09-24,5.526068687438965
2008-09-25,5.607442855834961
2008-09-26,5.633336067199707
2008-09-29,5.455790042877197
2008-09-30,5.577850818634033
2008-10-01,5.4188008308410645
2008-10-02,5.3522233963012695
2008-10-03,5.056314945220947
2008-10-06,4.638346195220947
2008-10-07,4.497791290283203
2008-10-08,4.272161483764648
2008-10-09,4.053928852081299
2008-10-10,3.8955752849578857
2008-10-13,4.428534030914307
2008-10-14,4.290501117706299
2008-10-15,3.9339189529418945
2008-10-16,4.240655422210693
2008-10-17,3.9415876865386963
2008-10-20,4.1486358642578125
2008-10-21,4.037441253662109
2008-10-22,3.9377527236938477
2008-10-23,3.884073495864868
2008-10-24,3.634847402572632
2008-10-27,3.477644443511963
2008-10-28,3.730703592300415
2008-10-29,3.6233456134796143
2008-10-30,3.7230350971221924
2008-10-31,3.949254035949707
2008-11-03,4.194644927978516
2008-11-04,4.328843593597412
2008-11-05,4.1026225090026855
2008-11-06,3.9300835132598877
2008-11-07,4.167806148529053
2008-11-10,4.236821174621582
2008-11-11,4.167806148529053
2008-11-12,3.9914321899414062
2008-11-13,4.401693344116211
2008-11-14,4.1179609298706055
2008-11-17,4.2023138999938965
2008-11-18,4.194644927978516
2008-11-19,3.761378765106201
2008-11-20,3.1133925914764404
2008-11-21,2.998365879058838
2008-11-24,3.4201314449310303
2008-11-25,3.71920108795166
2008-11-26,4.010602951049805
2008-11-28,3.9032435417175293
2008-12-01,3.5658328533172607
2008-12-02,3.9339189529418945
2008-12-03,4.014436721801758
2008-12-04,3.9185822010040283
2008-12-05,4.068117141723633
2008-12-08,4.282833099365234
2008-12-09,4.294334888458252
2008-12-10,4.275164604187012
2008-12-11,3.8303935527801514
2008-12-12,4.152470588684082
2008-12-15,3.9875972270965576
2008-12-16,4.041276454925537
2008-12-17,4.336512088775635
2008-12-18,4.313507080078125
2008-12-19,4.1486358642578125
2008-12-22,4.156303405761719
2008-12-23,4.190811634063721
2008-12-24,4.2214860916137695
2008-12-26,4.25982666015625
2008-12-29,4.140966892242432
2008-12-30,4.348014831542969
2008-12-31,4.555063724517822
2009-01-02,4.58957052230835
2009-01-05,4.643249988555908
2009-01-06,4.6470842361450195
2009-01-07,4.6279144287109375
2009-01-08,4.7851176261901855
2009-01-09,4.616410732269287
2009-01-12,4.685426235198975
2009-01-13,4.739673614501953
2009-01-14,4.430822372436523
2009-01-15,4.597127914428711
2009-01-16,4.704036712646484
2009-01-20,4.407065391540527
2009-01-21,4.743632793426514
2009-01-22,4.61692476272583
2009-01-23,4.59316873550415
2009-01-26,4.751551628112793
2009-01-27,4.763430595397949
2009-01-28,4.719875335693359
2009-01-29,4.50605583190918
2009-01-30,4.458539962768555
2009-02-02,4.731754302978516
2009-02-03,4.759472370147705
2009-02-04,4.5852484703063965
2009-02-05,4.684237957000732
2009-02-06,4.767391204833984
2009-02-09,4.69215726852417
2009-02-10,4.529813289642334
2009-02-11,4.660481929779053
2009-02-12,4.636723518371582
2009-02-13,4.648603439331055
2009-02-17,4.414982318878174
2009-02-18,4.308074951171875
2009-02-19,4.323913097381592
2009-02-20,4.129889965057373
2009-02-23,3.896272897720337
2009-02-24,4.007143497467041
2009-02-25,3.884394645690918
2009-02-26,3.718090295791626
2009-02-27,3.8289594650268555
2009-03-02,3.4805121421813965
2009-03-03,3.183539867401123
2009-03-04,3.5003106594085693
2009-03-05,3.266692876815796
2009-03-06,3.3181679248809814
2009-03-09,3.1281051635742188
2009-03-10,3.3498451709747314
2009-03-11,3.3181679248809814
2009-03-12,3.587423086166382
2009-03-13,3.4567549228668213
2009-03-16,3.583462715148926
2009-03-17,3.8091611862182617
2009-03-18,4.070496559143066
2009-03-19,4.062579154968262
2009-03-20,4.066536903381348
2009-03-23,4.347670078277588
2009-03-24,3.8566770553588867
2009-03-25,3.9556667804718018
2009-03-26,4.256597518920898
2009-03-27,4.086336135864258
2009-03-30,4.074456691741943
2009-03-31,4.062579154968262
2009-04-01,4.201164245605469
2009-04-02,4.327871322631836
2009-04-03,4.517935276031494
2009-04-06,4.458539962768555
2009-04-07,4.288277626037598
2009-04-08,4.490217208862305
2009-04-09,4.759472370147705
2009-04-13,4.73778772354126
2009-04-14,4.615047454833984
2009-04-15,4.7296037673950195
2009-04-16,4.7705183029174805
2009-04-17,4.778702259063721
2009-04-20,4.541403293609619
2009-04-21,4.635502815246582
2009-04-22,4.676416397094727
2009-04-23,4.598682403564453
2009-04-24,4.623229503631592
2009-04-27,4.54958438873291
2009-04-28,4.570042610168457
2009-04-29,4.7255144119262695
2009-04-30,4.6027727127075195
2009-05-01,4.6641435623168945
2009-05-04,4.827797889709473
2009-05-05,4.688689708709717
2009-05-06,4.631412506103516
2009-05-07,4.66005277633667
2009-05-08,4.9587202072143555
2009-05-11,4.615047454833984
2009-05-12,4.655960559844971
2009-05-13,4.533220291137695
2009-05-14,4.73778772354126
2009-05-15,4.676416397094727
2009-05-18,4.778702259063721
2009-05-19,4.692783832550049
2009-05-20,4.586407661437988
2009-05-21,4.496397972106934
2009-05-22,4.361383438110352
2009-05-26,4.4104790687561035
2009-05-27,4.381839752197266
2009-05-28,4.357291221618652
2009-05-29,4.210002899169922
2009-06-01,4.2795562744140625
2009-06-02,4.189545154571533
2009-06-03,4.300013065338135
2009-06-04,4.312287330627441
2009-06-05,4.4104790687561035
2009-06-08,4.385932445526123
2009-06-09,4.320470333099365
2009-06-10,4.508672714233398
2009-06-11,4.594590187072754
2009-06-12,4.6641435623168945
2009-06-15,4.582315921783447
2009-06-16,4.610954761505127
2009-06-17,4.762334823608398
2009-06-18,4.84825325012207
2009-06-19,4.835978984832764
2009-06-22,4.803249835968018
2009-06-23,4.713241100311279
2009-06-24,4.696874141693115
2009-06-25,4.799158096313477
2009-06-26,4.889167308807373
2009-06-29,4.774608612060547
2009-06-30,4.790975093841553
2009-07-01,4.688689708709717
2009-07-02,4.619138717651367
2009-07-06,4.7050557136535645
2009-07-07,4.586407661437988
2009-07-08,4.6027727127075195
2009-07-09,4.733695983886719
2009-07-10,4.778702259063721
2009-07-13,4.76896858215332
2009-07-14,4.802822113037109
2009-07-15,4.908610820770264
2009-07-16,4.8705267906188965
2009-07-17,4.81128454208374
2009-07-20,4.81128454208374
2009-07-21,4.726653575897217
2009-07-22,4.785894870758057
2009-07-23,4.887453079223633
2009-07-24,4.942464828491211
2009-07-27,5.00170373916626
2009-07-28,5.124419689178467
2009-07-29,5.162503242492676
2009-07-30,5.289449691772461
2009-07-31,5.3444600105285645
2009-08-03,5.4798712730407715
2009-08-04,5.547576904296875
2009-08-05,5.319071292877197
2009-08-06,5.49679708480835
2009-08-07,5.907260417938232
2009-08-10,5.873406887054443
2009-08-11,5.750689506530762
2009-08-12,5.843782901763916
2009-08-13,5.852248191833496
2009-08-14,5.886099815368652
2009-08-17,5.907260417938232
2009-08-18,5.843782901763916
2009-08-19,5.9030280113220215
2009-08-20,5.941110134124756
2009-08-21,6.07228946685791
2009-08-24,6.084982395172119
2009-08-25,6.063826560974121
2009-08-26,6.059595108032227
2009-08-27,6.00035285949707
2009-08-28,5.848015785217285
2009-08-31,5.9664998054504395
2009-09-01,5.9664998054504395
2009-09-02,6.017279148101807
2009-09-03,6.13153076171875
2009-09-04,6.279634952545166
2009-09-08,6.491214752197266
2009-09-09,6.4869842529296875
2009-09-10,6.533529281616211
2009-09-11,6.508140563964844
2009-09-14,6.457360744476318
2009-09-15,6.423508644104004
2009-09-16,6.431972026824951
2009-09-17,6.44466495513916
2009-09-18,6.364266872406006
2009-09-21,6.364266872406006
2009-09-22,6.381191253662109
2009-09-23,6.4869842529296875
2009-09-24,6.630856037139893
2009-09-25,6.613928318023682
2009-09-28,6.745107173919678
2009-09-29,6.774729251861572
2009-09-30,6.774729251861572
2009-10-01,6.618161678314209
2009-10-02,6.719719409942627
2009-10-05,6.888980388641357
2009-10-06,7.121716022491455
2009-10-07,7.164031982421875
2009-10-08,7.2444329261779785
2009-10-09,7.32059907913208
2009-10-12,6.973611354827881
2009-10-13,6.785977363586426
2009-10-14,6.690645694732666
2009-10-15,6.677645206451416
2009-10-16,6.530312538146973
2009-10-19,6.547646999359131
2009-10-20,6.504313945770264
2009-10-21,6.486981391906738
2009-10-22,6.504313945770264
2009-10-23,6.473981857299805
2009-10-26,6.4003143310546875
2009-10-27,6.352646827697754
2009-10-28,6.179315567016602
2009-10-29,6.213980674743652
2009-10-30,5.988646507263184
2009-11-02,5.914983749389648
2009-11-03,5.988646507263184
2009-11-04,5.89331579208374
2009-11-05,6.135982036590576
2009-11-06,6.14031457901001
2009-11-09,6.122983932495117
2009-11-10,6.153313159942627
2009-11-11,6.066646575927734
2009-11-12,5.936648368835449
2009-11-13,5.997313976287842
2009-11-16,6.161980628967285
2009-11-17,6.127316951751709
2009-11-18,6.118648052215576
2009-11-19,5.979981422424316
2009-11-20,6.053648471832275
2009-11-23,6.222646236419678
2009-11-24,6.430647373199463
2009-11-25,6.534645080566406
2009-11-27,6.508647441864014
2009-11-30,6.586645126342773
2009-12-01,6.738312721252441
2009-12-02,6.842310905456543
2009-12-03,6.82498025894165
2009-12-04,6.980978488922119
2009-12-07,6.9246439933776855
2009-12-08,7.045978546142578
2009-12-09,6.920312404632568
2009-12-10,6.811980724334717
2009-12-11,6.967979907989502
2009-12-14,6.928977012634277
2009-12-15,6.816311836242676
2009-12-16,6.816311836242676
2009-12-17,6.863980293273926
2009-12-18,6.911646842956543
2009-12-21,7.050311088562012
2009-12-22,7.279979228973389
2009-12-23,7.336309909820557
2009-12-24,7.2713117599487305
2009-12-28,7.435976028442383
2009-12-29,7.466310977935791
2009-12-30,7.561644077301025
2009-12-31,7.574643135070801
2010-01-04,7.7566423416137695
2010-01-05,7.938643932342529
2010-01-06,7.8563079833984375
2010-01-07,7.908307075500488
2010-01-08,7.877974510192871
2010-01-11,7.942977428436279
2010-01-12,7.812976360321045
2010-01-13,7.745223045349121
2010-01-14,7.683223724365234
2010-01-15,7.59022855758667
2010-01-19,7.683223724365234
2010-01-20,7.554803848266602
2010-01-21,7.444092273712158
2010-01-22,7.355526447296143
2010-01-25,7.404238700866699
2010-01-26,7.235958099365234
2010-01-27,7.395380973815918
2010-01-28,7.346668243408203
2010-01-29,7.585803031921387
2010-02-01,7.479520320892334
2010-02-02,7.4662322998046875
2010-02-03,7.5016608238220215
2010-02-04,7.351095676422119
2010-02-05,7.293526649475098
2010-02-08,7.204959869384766
2010-02-09,7.297956466674805
2010-02-10,7.284669876098633
2010-02-11,7.346668243408203
2010-02-12,7.289098739624023
2010-02-16,7.289098739624023
2010-02-17,7.311241626739502
2010-02-18,7.373236656188965
2010-02-19,7.297956466674805
2010-02-22,7.408666133880615
2010-02-23,7.479520320892334
2010-02-24,7.497231960296631
2010-02-25,7.479520320892334
2010-02-26,7.457376480102539
2010-03-01,7.572517395019531
2010-03-02,7.6256537437438965
2010-03-03,7.56808614730835
2010-03-04,7.709794521331787
2010-03-05,7.754077434539795
2010-03-08,7.953356742858887
2010-03-09,7.847072601318359
2010-03-10,8.024209976196289
2010-03-11,8.037494659423828
2010-03-12,8.161489486694336
2010-03-15,8.165919303894043
2010-03-16,8.272197723388672
2010-03-17,8.258914947509766
2010-03-18,8.351909637451172
2010-03-19,8.258914947509766
2010-03-22,8.431620597839355
2010-03-23,8.444905281066895
2010-03-24,8.36076545715332
2010-03-25,8.334196090698242
2010-03-26,8.334196090698242
2010-03-29,8.334196090698242
2010-03-30,8.4183349609375
2010-03-31,8.396193504333496
2010-04-01,8.467045783996582
2010-04-05,8.635323524475098
2010-04-06,8.502472877502441
2010-04-07,8.49804401397705
2010-04-08,8.4581880569458
2010-04-09,8.480330467224121
2010-04-12,8.5378999710083
2010-04-13,8.527507781982422
2010-04-14,8.62692642211914
2010-04-15,8.645004272460938
2010-04-16,8.617888450622559
2010-04-19,8.572697639465332
2010-04-20,8.554620742797852
2010-04-21,8.509428977966309
2010-04-22,8.455202102661133
2010-04-23,8.455202102661133
2010-04-26,8.522988319396973
2010-04-27,8.477795600891113
2010-04-28,8.518468856811523
2010-04-29,8.554620742797852
2010-04-30,8.382896423339844
2010-05-03,8.54106330871582
2010-05-04,8.391931533813477
2010-05-05,8.324149131774902
2010-05-06,8.03040599822998
2010-05-07,7.759261608123779
2010-05-10,8.003292083740234
2010-05-11,8.062041282653809
2010-05-12,8.351263999938965
2010-05-13,8.3467435836792
2010-05-14,8.283478736877441
2010-05-17,8.283478736877441
2010-05-18,8.138864517211914
2010-05-19,8.04848575592041
2010-05-20,7.6372480392456055
2010-05-21,7.691473960876465
2010-05-24,7.6417694091796875
2010-05-25,7.5287885665893555
2010-05-26,7.605614185333252
2010-05-27,7.781856536865234
2010-05-28,7.8044538497924805
2010-06-01,7.772819519042969
2010-06-02,7.9129109382629395
2010-06-03,8.053001403808594
2010-06-04,7.686957836151123
2010-06-07,7.546865463256836
2010-06-08,7.560424327850342
2010-06-09,7.51975154876709
2010-06-10,7.646285533905029
2010-06-11,7.799933910369873
2010-06-14,7.88579797744751
2010-06-15,7.9129109382629395
2010-06-16,7.93550443649292
2010-06-17,7.958103656768799
2010-06-18,7.917430400848389
2010-06-21,7.985217571258545
2010-06-22,7.9129109382629395
2010-06-23,7.8044538497924805
2010-06-24,7.790899753570557
2010-06-25,8.025888442993164
2010-06-28,8.025888442993164
2010-06-29,7.781856536865234
2010-06-30,7.682438373565674
2010-07-01,7.691473960876465
2010-07-02,7.650803089141846
2010-07-06,7.592057228088379
2010-07-07,7.858682632446289
2010-07-08,8.043965339660645
2010-07-09,8.16598129272461
2010-07-12,8.09819221496582
2010-07-13,8.166091918945312
2010-07-14,8.161470413208008
2010-07-15,7.962862491607666
2010-07-16,7.764252662658691
2010-07-19,7.7827277183532715
2010-07-20,7.88434362411499
2010-07-21,7.828915119171143
2010-07-22,7.967480182647705
2010-07-23,8.022907257080078
2010-07-26,8.01366901397705
2010-07-27,8.082952499389648
2010-07-28,8.022907257080078
2010-07-29,7.981337070465088
2010-07-30,8.064476013183594
2010-08-02,8.059858322143555
2010-08-03,8.059858322143555
2010-08-04,8.106047630310059
2010-08-05,7.995195388793945
2010-08-06,7.912055015563965
2010-08-09,7.962862491607666
2010-08-10,7.893580913543701
2010-08-11,7.727302074432373
2010-08-12,7.745777130126953
2010-08-13,7.704208850860596
2010-08-16,7.8104400634765625
2010-08-17,7.88434362411499
2010-08-18,7.925910949707031
2010-08-19,7.745777130126953
2010-08-20,7.6903510093688965
2010-08-23,7.671876430511475
2010-08-24,7.722682476043701
2010-08-25,7.88434362411499
2010-08-26,7.787344932556152
2010-08-27,7.925910949707031
2010-08-30,7.852008819580078
2010-08-31,7.990575790405273
2010-09-01,8.26308536529541
2010-09-02,8.17532730102539
2010-09-03,8.239990234375
2010-09-07,8.12452220916748
2010-09-08,8.24923038482666
2010-09-09,8.309274673461914
2010-09-10,8.267704963684082
2010-09-13,8.350842475891113
2010-09-14,8.244613647460938
2010-09-15,8.26308536529541
2010-09-16,8.198419570922852
2010-09-17,8.304656028747559
2010-09-20,8.475555419921875
2010-09-21,8.429362297058105
2010-09-22,8.433981895446777
2010-09-23,8.327750205993652
2010-09-24,8.498642921447754
2010-09-27,8.540214538574219
2010-09-28,8.567927360534668
2010-09-29,8.609496116638184
2010-09-30,8.623353958129883
2010-10-01,8.641830444335938
2010-10-04,8.627974510192871
2010-10-05,8.729586601257324
2010-10-06,8.757301330566406
2010-10-07,8.761919021606445
2010-10-08,8.826583862304688
2010-10-11,8.886627197265625
2010-10-12,8.868154525756836
2010-10-13,8.8525972366333
2010-10-14,8.857309341430664
2010-10-15,8.819601058959961
2010-10-18,8.847883224487305
2010-10-19,8.730037689208984
2010-10-20,8.80545711517334
2010-10-21,8.73946475982666
2010-10-22,8.791315078735352
2010-10-25,8.772461891174316
2010-10-26,8.758318901062012
2010-10-27,8.748892784118652
2010-10-28,8.706467628479004
2010-10-29,8.730037689208984
2010-11-01,8.673470497131348
2010-11-02,8.857309341430664
2010-11-03,8.819601058959961
2010-11-04,8.876166343688965
2010-11-05,8.730037689208984
2010-11-08,8.748892784118652
2010-11-09,8.687613487243652
2010-11-10,8.8525972366333
2010-11-11,8.833742141723633
2010-11-12,8.758318901062012
2010-11-15,8.80545711517334
2010-11-16,8.659330368041992
2010-11-17,8.6687593460083
2010-11-18,8.76774787902832
2010-11-19,8.843167304992676
2010-11-22,8.82902717590332
2010-11-23,8.79603099822998
2010-11-24,8.871453285217285
2010-11-26,8.833742141723633
2010-11-29,8.753605842590332
2010-11-30,8.68289852142334
2010-12-01,8.791315078735352
2010-12-02,8.777174949645996
2010-12-03,8.810172080993652
2010-12-06,8.734750747680664
2010-12-07,8.673470497131348
2010-12-08,8.697038650512695
2010-12-09,8.701754570007324
2010-12-10,8.711183547973633
2010-12-13,8.706467628479004
2010-12-14,8.706467628479004
2010-12-15,8.715895652770996
2010-12-16,8.744179725646973
2010-12-17,8.76303482055664
2010-12-20,8.82902717590332
2010-12-21,8.8525972366333
2010-12-22,8.923303604125977
2010-12-23,8.961017608642578
2010-12-27,9.017581939697266
2010-12-28,9.050581932067871
2010-12-29,9.088290214538574
2010-12-30,9.097715377807617
2010-12-31,9.097715377807617
2011-01-03,9.177849769592285
2011-01-04,9.012868881225586
2011-01-05,9.10243034362793
2011-01-06,9.031721115112305
2011-01-07,9.017581939697266
2011-01-10,9.003437995910645
2011-01-11,9.027008056640625
2011-01-12,8.987077713012695
2011-01-13,8.948588371276855
2011-01-14,8.938962936401367
2011-01-18,8.847557067871094
2011-01-19,8.669548034667969
2011-01-20,8.621435165405273
2011-01-21,8.5011568069458
2011-01-24,8.510780334472656
2011-01-25,8.534839630126953
2011-01-26,8.780200958251953
2011-01-27,8.741713523864746
2011-01-28,8.563703536987305
2011-01-31,8.539648056030273
2011-02-01,8.765767097473145
2011-02-02,8.770578384399414
2011-02-03,8.760957717895508
2011-02-04,8.650300979614258
2011-02-07,8.717658042907715
2011-02-08,8.741713523864746
2011-02-09,8.7465238571167
2011-02-10,8.732089042663574
2011-02-11,8.81869125366211
2011-02-14,8.81387710571289
2011-02-15,8.828313827514648
2011-02-16,8.804258346557617
2011-02-17,8.81387710571289
2011-02-18,8.823500633239746
2011-02-22,8.708036422729492
2011-02-23,8.515593528747559
2011-02-24,8.587759971618652
2011-02-25,8.732089042663574
2011-02-28,8.799447059631348
2011-03-01,8.712845802307129
2011-03-02,8.626246452331543
2011-03-03,8.582947731018066
2011-03-04,8.597382545471191
2011-03-07,8.443427085876465
2011-03-08,8.621435165405273
2011-03-09,8.6647367477417
2011-03-10,8.5011568069458
2011-03-11,8.539648056030273
2011-03-14,8.496350288391113
2011-03-15,8.395318031311035
2011-03-16,8.347206115722656
2011-03-17,8.395318031311035
2011-03-18,8.6647367477417
2011-03-21,8.6647367477417
2011-03-22,8.669548034667969
2011-03-23,8.69841194152832
2011-03-24,8.756147384643555
2011-03-25,8.775389671325684
2011-03-28,8.852367401123047
2011-03-29,8.881233215332031
2011-03-30,8.938962936401367
2011-03-31,8.996700286865234
2011-04-01,8.866802215576172
2011-04-04,8.900480270385742
2011-04-05,8.895668029785156
2011-04-06,9.011130332946777
2011-04-07,8.982270240783691
2011-04-08,9.01594352722168
2011-04-11,9.001511573791504
2011-04-12,8.963020324707031
2011-04-13,8.897677421569824
2011-04-14,8.946806907653809
2011-04-15,9.049985885620117
2011-04-18,8.88785171508789
2011-04-19,8.814153671264648
2011-04-20,8.9615478515625
2011-04-21,8.97137451171875
2011-04-25,8.932069778442383
2011-04-26,9.04507064819336
2011-04-27,9.079463005065918
2011-04-28,9.054899215698242
2011-04-29,9.035244941711426
2011-05-02,8.917329788208008
2011-05-03,8.97137451171875
2011-05-04,8.9615478515625
2011-05-05,9.005766868591309
2011-05-06,9.04507064819336
2011-05-09,9.148248672485352
2011-05-10,9.30546760559082
2011-05-11,9.212118148803711
2011-05-12,9.300553321838379
2011-05-13,9.182639122009277
2011-05-16,9.054899215698242
2011-05-17,9.162986755371094
2011-05-18,9.207204818725586
2011-05-19,9.271075248718262
2011-05-20,9.217032432556152
2011-05-23,9.0696382522583
2011-05-24,9.0696382522583
2011-05-25,9.113856315612793
2011-05-26,9.187552452087402
2011-05-27,9.261249542236328
2011-05-31,9.403731346130371
2011-06-01,9.256336212158203
2011-06-02,9.26616382598877
2011-06-03,9.182639122009277
2011-06-06,9.192463874816895
2011-06-07,9.231770515441895
2011-06-08,9.261249542236328
2011-06-09,9.38899040222168
2011-06-10,9.231770515441895
2011-06-13,9.221943855285645
2011-06-14,9.339860916137695
2011-06-15,9.300553321838379
2011-06-16,9.364425659179688
2011-06-17,9.398815155029297
2011-06-20,9.492165565490723
2011-06-21,9.526557922363281
2011-06-22,9.462689399719238
2011-06-23,9.492165565490723
2011-06-24,9.413555145263672
2011-06-27,9.54129409790039
2011-06-28,9.565860748291016
2011-06-29,9.531471252441406
2011-06-30,9.551124572753906
2011-07-01,9.595341682434082
2011-07-05,9.698517799377441
2011-07-06,9.816433906555176
2011-07-07,9.796780586242676
2011-07-08,9.806608200073242
2011-07-11,9.727996826171875
2011-07-12,9.732909202575684
2011-07-13,9.816594123840332
2011-07-14,9.621162414550781
2011-07-15,9.581074714660645
2011-07-18,9.350569725036621
2011-07-19,9.495889663696289
2011-07-20,9.505908012390137
2011-07-21,9.576064109802246
2011-07-22,9.495889663696289
2011-07-25,9.260369300842285
2011-07-26,9.250348091125488
2011-07-27,9.125070571899414
2011-07-28,9.125070571899414
2011-07-29,9.029863357543945
2011-08-01,9.145116806030273
2011-08-02,8.949687957763672
2011-08-03,9.03487491607666
2011-08-04,8.834434509277344
2011-08-05,8.774301528930664
2011-08-08,8.403484344482422
2011-08-09,9.225293159484863
2011-08-10,9.044896125793457
2011-08-11,9.33553695678711
2011-08-12,9.195228576660156
2011-08-15,9.425732612609863
2011-08-16,9.260369300842285
2011-08-17,9.566041946411133
2011-08-18,9.225293159484863
2011-08-19,9.215271949768066
2011-08-22,9.185205459594727
2011-08-23,9.380634307861328
2011-08-24,9.490877151489258
2011-08-25,9.145116806030273
2011-08-26,9.210259437561035
2011-08-29,9.510923385620117
2011-08-30,9.505908012390137
2011-08-31,9.576064109802246
2011-09-01,9.380634307861328
2011-09-02,9.215271949768066
2011-09-06,9.160151481628418
2011-09-07,9.300457000732422
2011-09-08,9.145116806030273
2011-09-09,8.954700469970703
2011-09-12,9.004806518554688
2011-09-13,9.170173645019531
2011-09-14,9.33553695678711
2011-09-15,9.275404930114746
2011-09-16,9.295448303222656
2011-09-19,9.235315322875977
2011-09-20,9.170173645019531
2011-09-21,8.969731330871582
2011-09-22,8.814387321472168
2011-09-23,8.974740982055664
2011-09-26,9.250348091125488
2011-09-27,9.360590934753418
2011-09-28,9.049905776977539
2011-09-29,9.185205459594727
2011-09-30,9.044896125793457
2011-10-03,8.518738746643066
2011-10-04,8.819401741027832
2011-10-05,8.844454765319824
2011-10-06,8.844454765319824
2011-10-07,8.764278411865234
2011-10-10,9.07496166229248
2011-10-11,9.07496166229248
2011-10-12,9.232159614562988
2011-10-13,9.099028587341309
2011-10-14,9.273123741149902
2011-10-17,9.31408977508545
2011-10-18,9.293603897094727
2011-10-19,9.15023422241211
2011-10-20,9.078546524047852
2011-10-21,9.303847312927246
2011-10-24,9.411375045776367
2011-10-25,9.406257629394531
2011-10-26,9.616195678710938
2011-10-27,9.856853485107422
2011-10-28,9.682758331298828
2011-10-31,9.66739559173584
2011-11-01,9.396012306213379
2011-11-02,9.616195678710938
2011-11-03,9.59571361541748
2011-11-04,9.334567070007324
2011-11-07,9.483060836791992
2011-11-08,9.462579727172852
2011-11-09,9.31408977508545
2011-11-10,9.421615600585938
2011-11-11,9.646917343139648
2011-11-14,9.513782501220703
2011-11-15,9.66739559173584
2011-11-16,9.53426742553711
2011-11-17,9.59058952331543
2011-11-18,9.559869766235352
2011-11-21,9.436978340148926
2011-11-22,9.421615600585938
2011-11-23,9.165594100952148
2011-11-25,9.047823905944824
2011-11-28,9.232159614562988
2011-11-29,9.211677551269531
2011-11-30,9.457457542419434
2011-12-01,9.401134490966797
2011-12-02,9.431859016418457
2011-12-05,9.53426742553711
2011-12-06,9.554749488830566
2011-12-07,9.544504165649414
2011-12-08,9.324325561523438
2011-12-09,9.503541946411133
2011-12-12,9.57522964477539
2011-12-13,9.488181114196777
2011-12-14,9.411375045776367
2011-12-15,9.677638053894043
2011-12-16,9.805648803710938
2011-12-19,9.621313095092773
2011-12-20,9.805648803710938
2011-12-21,9.897820472717285
2011-12-22,9.769807815551758
2011-12-23,9.79540729522705
2011-12-27,9.877336502075195
2011-12-28,9.749322891235352
2011-12-29,9.826129913330078
2011-12-30,9.754446983337402
2012-01-03,9.887577056884766
2012-01-04,9.815892219543457
2012-01-05,9.841493606567383
2012-01-06,9.826129913330078
2012-01-09,9.728841781616211
2012-01-10,9.708361625671387
2012-01-11,9.450662612915039
2012-01-12,9.664976119995117
2012-01-13,9.633611679077148
2012-01-17,9.680656433105469
2012-01-18,9.858379364013672
2012-01-19,9.936787605285645
2012-01-20,9.858379364013672
2012-01-23,9.806106567382812
2012-01-24,9.612704277038574
2012-01-25,9.64929485321045
2012-01-26,9.7799711227417
2012-01-27,9.853153228759766
2012-01-30,9.874061584472656
2012-01-31,9.92633056640625
2012-02-01,10.030874252319336
2012-02-02,9.994283676147461
2012-02-03,10.062238693237305
2012-02-06,9.92110538482666
2012-02-07,9.983830451965332
2012-02-08,10.030874252319336
2012-02-09,9.92633056640625
2012-02-10,9.827017784118652
2012-02-13,9.915877342224121
2012-02-14,9.868831634521484
2012-02-15,9.89497184753418
2012-02-16,9.99951171875
2012-02-17,10.041330337524414
2012-02-21,9.952469825744629
2012-02-22,9.785198211669922
2012-02-23,9.910651206970215
2012-02-24,9.957695007324219
2012-02-27,9.957695007324219
2012-02-28,9.915877342224121
2012-02-29,9.915877342224121
2012-03-01,9.936787605285645
2012-03-02,9.905423164367676
2012-03-05,10.088373184204102
2012-03-06,10.015192985534668
2012-03-07,10.104058265686035
2012-03-08,10.213828086853027
2012-03-09,10.318366050720215
2012-03-12,10.307912826538086
2012-03-13,10.334049224853516
2012-03-14,10.203370094299316
2012-03-15,10.192915916442871
2012-03-16,10.22427749633789
2012-03-19,10.271321296691895
2012-03-20,10.245185852050781
2012-03-21,10.313139915466309
2012-03-22,10.23996353149414
2012-03-23,10.22427749633789
2012-03-26,10.292230606079102
2012-03-27,10.349729537963867
2012-03-28,10.287004470825195
2012-03-29,10.287004470825195
2012-03-30,10.260870933532715
2012-04-02,10.260870933532715
2012-04-03,10.250415802001953
2012-04-04,10.1876859664917
2012-04-05,10.203370094299316
2012-04-09,10.088373184204102
2012-04-10,9.931560516357422
2012-04-11,10.079361915588379
2012-04-12,10.047345161437988
2012-04-13,9.956637382507324
2012-04-16,10.079361915588379
2012-04-17,10.16473388671875
2012-04-18,10.090031623840332
2012-04-19,10.047345161437988
2012-04-20,10.143390655517578
2012-04-23,10.015332221984863
2012-04-24,10.06869125366211
2012-04-25,10.175406455993652
2012-04-26,10.239436149597168
2012-04-27,10.330144882202148
2012-04-30,10.324810028076172
2012-05-01,10.29813003540039
2012-05-02,10.207423210144043
2012-05-03,9.903281211853027
2012-05-04,9.711190223693848
2012-05-07,9.700517654418945
2012-05-08,9.876601219177246
2012-05-09,9.81790542602539
2012-05-10,9.641824722290039
2012-05-11,9.513765335083008
2012-05-14,9.300331115722656
2012-05-15,9.311003684997559
2012-05-16,9.37503719329834
2012-05-17,9.19361400604248
2012-05-18,9.166937828063965
2012-05-21,9.054884910583496
2012-05-22,8.446601867675781
2012-05-23,7.651564598083496
2012-05-24,7.4434661865234375
2012-05-25,7.544847011566162
2012-05-29,7.710259914398193
2012-05-30,7.85966157913208
2012-05-31,7.870334148406982
2012-06-01,7.768952369689941
2012-06-04,7.864996910095215
2012-06-05,7.827645778656006
2012-06-06,7.96104097366333
2012-06-07,7.897012710571289
2012-06-08,7.838317394256592
2012-06-11,7.683577060699463
2012-06-12,7.502162456512451
2012-06-13,7.566190242767334
2012-06-14,7.667571544647217
2012-06-15,7.694248676300049
2012-06-18,7.603541851043701
2012-06-19,7.592870235443115
2012-06-20,7.694248676300049
2012-06-21,7.592870235443115
2012-06-22,7.704922199249268
2012-06-25,7.710259914398193
2012-06-26,7.576862335205078
2012-06-27,7.662236213684082
2012-06-28,7.640892505645752
2012-06-29,7.897012710571289
2012-07-02,8.174471855163574
2012-07-03,8.521302223205566
2012-07-05,8.697383880615234
2012-07-06,8.878803253173828
2012-07-09,9.2042875289917
2012-07-10,9.182942390441895
2012-07-11,9.164929389953613
2012-07-12,9.12672233581543
2012-07-13,9.377816200256348
2012-07-16,8.946587562561035
2012-07-17,8.8101224899292
2012-07-18,8.793746948242188
2012-07-19,8.722787857055664
2012-07-20,8.56448745727539
2012-07-23,8.56448745727539
2012-07-24,8.400732040405273
2012-07-25,8.302477836608887
2012-07-26,8.395273208618164
2012-07-27,8.575406074523926
2012-07-30,8.575406074523926
2012-07-31,8.657282829284668
2012-08-01,8.526277542114258
2012-08-02,8.821040153503418
2012-08-03,8.777373313903809
2012-08-06,8.837416648864746
2012-08-07,8.799208641052246
2012-08-08,8.8101224899292
2012-08-09,8.946587562561035
2012-08-10,8.837416648864746
2012-08-13,8.777373313903809
2012-08-14,8.722787857055664
2012-08-15,8.782830238342285
2012-08-16,8.930212020874023
2012-08-17,8.930212020874023
2012-08-20,8.886544227600098
2012-08-21,8.815582275390625
2012-08-22,8.711871147155762
2012-08-23,8.646368026733398
2012-08-24,8.853793144226074
2012-08-27,8.93567180633545
2012-08-28,8.864707946777344
2012-08-29,8.941128730773926
2012-08-30,8.881085395812988
2012-08-31,8.886544227600098
2012-09-04,8.908377647399902
2012-09-05,9.02846622467041
2012-09-06,9.099427223205566
2012-09-07,9.181305885314941
2012-09-10,9.279560089111328
2012-09-11,9.170388221740723
2012-09-12,9.306855201721191
2012-09-13,9.268643379211426
2012-09-14,9.274102210998535
2012-09-17,9.306855201721191
2012-09-18,9.377816200256348
2012-09-19,9.38327407836914
2012-09-20,9.486984252929688
2012-09-21,9.710786819458008
2012-09-24,9.634366989135742
2012-09-25,9.596159934997559
2012-09-26,9.585240364074707
2012-09-27,9.470610618591309
2012-09-28,9.38327407836914
2012-10-01,9.405107498168945
2012-10-02,9.372354507446289
2012-10-03,9.274102210998535
2012-10-04,9.279560089111328
2012-10-05,9.497905731201172
2012-10-08,9.481527328491211
2012-10-09,9.476067543029785
2012-10-10,9.416025161743164
2012-10-11,9.33059024810791
2012-10-12,9.112821578979492
2012-10-15,9.090487480163574
2012-10-16,8.928555488586426
2012-10-17,8.928555488586426
2012-10-18,8.967641830444336
2012-10-19,8.805713653564453
2012-10-22,8.839215278625488
2012-10-23,8.761040687561035
2012-10-24,8.710783958435059
2012-10-25,8.643781661987305
2012-10-26,8.671700477600098
2012-10-31,8.610278129577637
2012-11-01,8.828047752380371
2012-11-02,8.44276237487793
2012-11-05,8.426011085510254
2012-11-06,8.49301528930664
2012-11-07,8.291998863220215
2012-11-08,8.247329711914062
2012-11-09,8.224991798400879
2012-11-12,8.185904502868652
2012-11-13,8.007223129272461
2012-11-14,7.677773952484131
2012-11-15,7.527012348175049
2012-11-16,7.582851409912109
2012-11-19,7.783868789672852
2012-11-20,7.783868789672852
2012-11-21,7.817371845245361
2012-11-23,7.834122657775879
2012-11-26,8.018389701843262
2012-11-27,8.185904502868652
2012-11-28,8.213825225830078
2012-11-29,8.336670875549316
2012-11-30,8.398090362548828
2012-12-03,8.476264953613281
2012-12-04,8.465096473693848
2012-12-05,8.437177658081055
2012-12-06,8.342251777648926
2012-12-07,8.375753402709961
2012-12-10,8.409258842468262
2012-12-11,8.448344230651855
2012-12-12,8.537687301635742
2012-12-13,8.565606117248535
2012-12-14,8.632611274719238
2012-12-17,8.800127983093262
2012-12-18,8.855964660644531
2012-12-19,8.777792930603027
2012-12-20,8.917387962341309
2012-12-21,8.8894681930542
2012-12-24,8.783376693725586
2012-12-26,8.716368675231934
2012-12-27,8.75545597076416
2012-12-28,8.794541358947754
2012-12-31,8.88388442993164
2013-01-02,9.302674293518066
2013-01-03,9.19099235534668
2013-01-04,9.33059024810791
2013-01-07,9.41993236541748
2013-01-08,9.425517082214355
2013-01-09,9.570695877075195
2013-01-10,9.687957763671875
2013-01-11,9.623419761657715
2013-01-14,9.594863891601562
2013-01-15,9.600574493408203
2013-01-16,9.674820899963379
2013-01-17,9.771913528442383
2013-01-18,9.80617904663086
2013-01-22,9.914692878723145
2013-01-23,9.914692878723145
2013-01-24,9.811893463134766
2013-01-25,9.686245918273926
2013-01-28,9.777623176574707
2013-01-29,9.829022407531738
2013-01-30,9.600574493408203
2013-01-31,9.829022407531738
2013-02-01,9.948960304260254
2013-02-04,9.80617904663086
2013-02-05,9.857582092285156
2013-02-06,9.988943099975586
2013-02-07,9.886137962341309
2013-02-08,9.983227729797363
2013-02-11,9.886137962341309
2013-02-12,9.954669952392578
2013-02-13,9.988943099975586
2013-02-14,9.480637550354004
2013-02-15,9.634844779968262
2013-02-19,9.72622299194336
2013-02-20,9.532039642333984
2013-02-21,9.549174308776855
2013-02-22,9.589152336120605
2013-02-25,9.480637550354004
2013-02-26,9.549174308776855
2013-02-27,9.566306114196777
2013-02-28,9.594863891601562
2013-03-01,9.34928035736084
2013-03-04,9.429240226745605
2013-03-05,9.503483772277832
2013-03-06,9.549174308776855
2013-03-07,9.680533409118652
2013-03-08,9.737646102905273
2013-03-11,9.52061653137207
2013-03-12,9.78333568572998
2013-03-13,9.926114082336426
2013-03-14,10.040340423583984
2013-03-15,10.074604988098145
2013-03-18,10.051762580871582
2013-03-19,10.074604988098145
2013-03-20,10.097453117370605
2013-03-21,10.091741561889648
2013-03-22,10.148852348327637
2013-03-25,10.20025634765625
2013-03-26,10.1602783203125
2013-03-27,9.994649887084961
2013-03-28,10.02320671081543
2013-04-01,10.02320671081543
2013-04-02,9.994649887084961
2013-04-03,9.937539100646973
2013-04-04,9.983227729797363
2013-04-05,9.983227729797363
2013-04-08,9.954669952392578
2013-04-09,9.960384368896484
2013-04-10,10.097453117370605
2013-04-11,10.329263687133789
2013-04-12,10.533628463745117
2013-04-15,10.189127922058105
2013-04-16,10.194965362548828
2013-04-17,10.019794464111328
2013-04-18,9.885496139526367
2013-04-19,10.01395320892334
2013-04-22,10.095701217651367
2013-04-23,10.300065994262695
2013-04-24,10.405169486999512
2013-04-25,10.597857475280762
2013-04-26,10.556983947753906
2013-04-29,10.609538078308105
2013-04-30,10.761353492736816
2013-05-01,10.422687530517578
2013-05-02,10.492753982543945
2013-05-03,10.521950721740723
2013-05-06,10.411008834838867
2013-05-07,10.323424339294434
2013-05-08,10.481078147888184
2013-05-09,10.393492698669434
2013-05-10,10.790546417236328
2013-05-13,10.860614776611328
2013-05-14,10.959881782531738
2013-05-15,11.053302764892578
2013-05-16,11.006592750549316
2013-05-17,11.064981460571289
2013-05-20,11.024109840393066
2013-05-21,10.983236312866211
2013-05-22,10.510272026062012
2013-05-23,10.422687530517578
2013-05-24,10.346779823303223
2013-05-28,10.3584566116333
2013-05-29,10.060667991638184
2013-05-30,10.1132173538208
2013-05-31,9.932209014892578
2013-06-03,10.031474113464355
2013-06-04,9.984759330749512
2013-06-05,9.792072296142578
2013-06-06,10.095701217651367
2013-06-07,9.978919982910156
2013-06-10,10.084024429321289
2013-06-11,9.862140655517578
2013-06-12,9.96140193939209
2013-06-13,10.212485313415527
2013-06-14,10.142415046691895
2013-06-17,9.938047409057617
2013-06-18,10.229999542236328
2013-06-19,10.048986434936523
2013-06-20,9.821266174316406
2013-06-21,9.681129455566406
2013-06-24,9.751197814941406
2013-06-25,9.932209014892578
2013-06-26,9.87381649017334
2013-06-27,10.206643104553223
2013-06-28,10.165771484375
2013-07-01,10.206643104553223
2013-07-02,10.218320846557617
2013-07-03,10.300065994262695
2013-07-05,10.387655258178711
2013-07-08,10.562822341918945
2013-07-09,10.627055168151855
2013-07-10,10.802223205566406
2013-07-11,10.460501670837402
2013-07-12,10.233874320983887
2013-07-15,10.341221809387207
2013-07-16,10.6215238571167
2013-07-17,10.609594345092773
2013-07-18,10.633448600769043
2013-07-19,10.705015182495117
2013-07-22,10.669233322143555
2013-07-23,10.657304763793945
2013-07-24,10.478389739990234
2013-07-25,10.6215238571167
2013-07-26,10.502245903015137
2013-07-29,10.532066345214844
2013-07-30,10.430682182312012
2013-07-31,10.430682182312012
2013-08-01,10.573810577392578
2013-08-02,10.6215238571167
2013-08-05,10.687124252319336
2013-08-06,10.693089485168457
2013-08-07,10.699050903320312
2013-08-08,10.43664264678955
2013-08-09,10.257730484008789
2013-08-12,10.329296112060547
2013-08-13,10.18019962310791
2013-08-14,10.263691902160645
2013-08-15,10.138455390930176
2013-08-16,10.096710205078125
2013-08-19,9.94164752960205
2013-08-20,10.090744018554688
2013-08-21,9.971467971801758
2013-08-22,10.066888809204102
2013-08-23,10.335258483886719
2013-08-26,10.168272972106934
2013-08-27,9.96550464630127
2013-08-28,10.00724983215332
2013-08-29,10.18616771697998
2013-08-30,9.947612762451172
2013-09-03,9.977433204650879
2013-09-04,9.989357948303223
2013-09-05,10.043033599853516
2013-09-06,9.959538459777832
2013-09-09,10.120562553405762
2013-09-10,10.3531494140625
2013-09-11,10.317368507385254
2013-09-12,10.27562141418457
2013-09-13,10.317368507385254
2013-09-16,10.126526832580566
2013-09-17,10.257730484008789
2013-09-18,10.263691902160645
2013-09-19,10.311405181884766
2013-09-20,10.245804786682129
2013-09-23,10.44857120513916
2013-09-24,10.514174461364746
2013-09-25,10.43664264678955
2013-09-26,10.442607879638672
2013-09-27,10.293513298034668
2013-09-30,10.281584739685059
2013-10-01,10.329296112060547
2013-10-02,10.460501670837402
2013-10-03,10.40682601928711
2013-10-04,10.466461181640625
2013-10-07,10.591704368591309
2013-10-08,10.585740089416504
2013-10-09,10.561884880065918
2013-10-10,10.828325271606445
2013-10-11,10.91368293762207
2013-10-14,10.895391464233398
2013-10-15,10.858811378479004
2013-10-16,10.822226524353027
2013-10-17,10.968554496765137
2013-10-18,11.133176803588867
2013-10-21,11.023427963256836
2013-10-22,11.114883422851562
2013-10-23,11.157563209533691
2013-10-24,11.285600662231445
2013-10-25,11.33437728881836
2013-10-28,11.389253616333008
2013-10-29,11.407540321350098
2013-10-30,11.24902057647705
2013-10-31,11.358765602111816
2013-11-01,11.328279495239258
2013-11-04,11.566064834594727
2013-11-05,11.328279495239258
2013-11-06,11.316085815429688
2013-11-07,11.401446342468262
2013-11-08,11.700201034545898
2013-11-11,11.620940208435059
2013-11-12,11.614840507507324
2013-11-13,11.742879867553711
2013-11-14,11.614840507507324
2013-11-15,11.6453275680542
2013-11-18,11.602645874023438
2013-11-19,11.669713973999023
2013-11-20,11.535578727722168
2013-11-21,11.602645874023438
2013-11-22,11.688006401062012
2013-11-25,11.706296920776367
2013-11-26,11.742879867553711
2013-11-27,11.736780166625977
2013-11-29,11.78555679321289
2013-12-02,11.602645874023438
2013-12-03,11.529479026794434
2013-12-04,11.669713973999023
2013-12-05,11.69410228729248
2013-12-06,11.730685234069824
2013-12-09,11.736780166625977
2013-12-10,11.596549987792969
2013-12-11,11.492901802062988
2013-12-12,11.401446342468262
2013-12-13,11.505096435546875
2013-12-16,11.5904541015625
2013-12-17,11.480708122253418
2013-12-18,11.627035140991211
2013-12-19,11.718489646911621
2013-12-20,11.791655540466309
2013-12-23,11.834336280822754
2013-12-24,12.035534858703613
2013-12-26,11.986759185791016
2013-12-27,12.041631698608398
2013-12-30,12.02334213256836
2013-12-31,11.968469619750977
2014-01-02,11.980661392211914
2014-01-03,12.078215599060059
2014-01-06,12.126989364624023
2014-01-07,12.218445777893066
2014-01-08,12.248931884765625
2014-01-09,12.334291458129883
2014-01-10,12.431843757629395
2014-01-13,11.96385383605957
2014-01-14,12.144092559814453
2014-01-15,12.094367027282715
2014-01-16,12.21245288848877
2014-01-17,12.24974250793457
2014-01-21,12.280818939208984
2014-01-22,12.168949127197266
2014-01-23,12.2435302734375
2014-01-24,11.96385383605957
2014-01-27,11.926565170288086
2014-01-28,11.994930267333984
2014-01-29,11.808479309082031
2014-01-30,12.088155746459961
2014-01-31,12.168949127197266
2014-02-03,11.789835929870605
2014-02-04,11.671751022338867
2014-02-05,11.54744815826416
2014-02-06,11.516377449035645
2014-02-07,11.777405738830566
2014-02-10,11.441793441772461
2014-02-11,11.709039688110352
2014-02-12,11.839554786682129
2014-02-13,12.001142501831055
2014-02-14,11.932778358459473
2014-02-18,11.951425552368164
2014-02-19,11.727686882019043
2014-02-20,11.970070838928223
2014-02-21,11.920350074768066
2014-02-24,12.044650077819824
2014-02-25,12.007359504699707
2014-02-26,12.069509506225586
2014-02-27,11.709039688110352
2014-02-28,11.845770835876465
2014-03-03,11.808479309082031
2014-03-04,12.280818939208984
2014-03-05,12.405119895935059
2014-03-06,12.305676460266113
2014-03-07,12.268387794494629
2014-03-10,12.125441551208496
2014-03-11,12.044650077819824
2014-03-12,12.175162315368652
2014-03-13,12.106797218322754
2014-03-14,12.206236839294434
2014-03-17,12.4237642288208
2014-03-18,12.554281234741211
2014-03-19,12.504556655883789
2014-03-20,12.41755199432373
2014-03-21,12.398904800415039
2014-03-24,12.106797218322754
2014-03-25,12.050864219665527
2014-03-26,11.982501029968262
2014-03-27,12.044650077819824
2014-03-28,12.21245288848877
2014-03-31,12.436193466186523
2014-04-01,12.554281234741211
2014-04-02,12.653717994689941
2014-04-03,12.579139709472656
2014-04-04,12.280818939208984
2014-04-07,12.268387794494629
2014-04-08,12.566710472106934
2014-04-09,12.560492515563965
2014-04-10,12.610215187072754
2014-04-11,12.00007152557373
2014-04-14,12.202820777893066
2014-04-15,12.139458656311035
2014-04-16,12.278849601745605
2014-04-17,12.513275146484375
2014-04-21,12.481596946716309
2014-04-22,12.462587356567383
2014-04-23,12.38022518157959
2014-04-24,12.329533576965332
2014-04-25,12.196480751037598
2014-04-28,12.386556625366211
2014-04-29,12.399230003356934
2014-04-30,12.62098217010498
2014-05-01,12.418237686157227
2014-05-02,12.608312606811523
2014-05-05,12.399230003356934
2014-05-06,12.348544120788574
2014-05-07,12.487929344177246
2014-05-08,12.462587356567383
2014-05-09,12.639991760253906
2014-05-12,12.747697830200195
2014-05-13,12.678007125854492
2014-05-14,12.703350067138672
2014-05-15,12.754037857055664
2014-05-16,12.82373046875
2014-05-19,12.912433624267578
2014-05-20,12.513275146484375
2014-05-21,12.468920707702637
2014-05-22,12.5956392288208
2014-05-23,12.785717010498047
2014-05-27,12.874418258666992
2014-05-28,12.84907341003418
2014-05-29,12.893425941467285
2014-05-30,12.937775611877441
2014-06-02,12.754037857055664
2014-06-03,12.601973533630371
2014-06-04,12.646329879760742
2014-06-05,12.963120460510254
2014-06-06,13.026476860046387
2014-06-09,13.026476860046387
2014-06-10,12.96945571899414
2014-06-11,12.855412483215332
2014-06-12,12.868081092834473
2014-06-13,13.00113296508789
2014-06-16,13.03281307220459
2014-06-17,13.146859169006348
2014-06-18,13.2482328414917
2014-06-19,13.355940818786621
2014-06-20,13.64105224609375
2014-06-23,13.660061836242676
2014-06-24,13.62838077545166
2014-06-25,13.78678035736084
2014-06-26,13.894487380981445
2014-06-27,14.122580528259277
2014-06-30,14.090899467468262
2014-07-01,14.109906196594238
2014-07-02,14.147920608520508
2014-07-03,14.242958068847656
2014-07-07,14.274636268615723
2014-07-08,14.185935020446777
2014-07-09,14.17326545715332
2014-07-10,14.166929244995117
2014-07-11,14.210128784179688
2014-07-14,14.33907413482666
2014-07-15,14.19078254699707
2014-07-16,14.152100563049316
2014-07-17,13.84907054901123
2014-07-18,14.016704559326172
2014-07-21,13.958677291870117
2014-07-22,14.03604507446289
2014-07-23,13.894200325012207
2014-07-24,13.868414878845215
2014-07-25,13.713674545288086
2014-07-28,13.720122337341309
2014-07-29,14.687236785888672
2014-07-30,14.687236785888672
2014-07-31,14.429338455200195
2014-08-01,14.51315689086914
2014-08-04,14.551836013793945
2014-08-05,14.53894329071045
2014-08-06,14.448680877685547
2014-08-07,14.326177597045898
2014-08-08,14.474471092224121
2014-08-11,14.577630043029785
2014-08-12,15.170791625976562
2014-08-13,15.273950576782227
2014-08-14,15.286846160888672
2014-08-15,15.357769012451172
2014-08-18,15.312638282775879
2014-08-19,15.402898788452148
2014-08-20,15.390008926391602
2014-08-21,15.422242164611816
2014-08-22,15.338423728942871
2014-08-25,15.493162155151367
2014-08-26,15.518952369689941
2014-08-27,15.544745445251465
2014-08-28,15.551186561584473
2014-08-29,15.718819618225098
2014-09-02,15.751063346862793
2014-09-03,15.738163948059082
2014-09-04,15.654352188110352
2014-09-05,15.693033218383789
2014-09-08,15.854214668273926
2014-09-09,15.64145565032959
2014-09-10,15.796188354492188
2014-09-11,16.047643661499023
2014-09-12,16.047643661499023
2014-09-15,15.731717109680176
2014-09-16,15.957379341125488
2014-09-17,16.015405654907227
2014-09-18,16.11211585998535
2014-09-19,16.13790512084961
2014-09-22,16.27330207824707
2014-09-23,16.344226837158203
2014-09-24,16.49896240234375
2014-09-25,16.511856079101562
2014-09-26,16.582778930664062
2014-09-29,16.260404586791992
2014-09-30,16.150800704956055
2014-10-01,15.938033103942871
2014-10-02,16.04119873046875
2014-10-03,16.13145637512207
2014-10-06,16.066984176635742
2014-10-07,15.957379341125488
2014-10-08,16.35712242126465
2014-10-09,16.002511978149414
2014-10-10,15.908851623535156
2014-10-13,16.00054168701172
2014-10-14,16.53761100769043
2014-10-15,16.635848999023438
2014-10-16,17.15326499938965
2014-10-17,17.33009910583496
2014-10-20,17.952312469482422
2014-10-21,18.273237228393555
2014-10-22,17.474191665649414
2014-10-23,17.91956329345703
2014-10-24,18.312536239624023
2014-10-27,17.86061668395996
2014-10-28,18.672761917114258
2014-10-29,18.679309844970703
2014-10-30,17.2973575592041
2014-10-31,16.963329315185547
2014-11-03,17.4086971282959
2014-11-04,17.44144630432129
2014-11-05,17.4086971282959
2014-11-06,16.937131881713867
2014-11-07,17.028823852539062
2014-11-10,17.113969802856445
2014-11-11,17.303905487060547
2014-11-12,17.631383895874023
2014-11-13,17.749277114868164
2014-11-14,17.795120239257812
2014-11-17,17.66413116455078
2014-11-18,17.80821990966797
2014-11-19,17.55278968811035
2014-11-20,17.2777042388916
2014-11-21,17.303905487060547
2014-11-24,17.611730575561523
2014-11-25,17.467647552490234
2014-11-26,17.913013458251953
2014-11-28,17.952312469482422
2014-12-01,17.605182647705078
2014-12-02,17.709976196289062
2014-12-03,17.729625701904297
2014-12-04,17.709976196289062
2014-12-05,17.932661056518555
2014-12-08,17.4086971282959
2014-12-09,17.533140182495117
2014-12-10,17.140167236328125
2014-12-11,17.48729133605957
2014-12-12,16.845436096191406
2014-12-15,16.83888816833496
2014-12-16,17.21221160888672
2014-12-17,17.690330505371094
2014-12-18,18.070201873779297
2014-12-19,17.86716651916504
2014-12-22,18.12259864807129
2014-12-23,18.17499542236328
2014-12-24,18.384580612182617
2014-12-26,18.731704711914062
2014-12-29,18.567968368530273
2014-12-30,18.53521728515625
2014-12-31,18.227392196655273
2015-01-02,18.247041702270508
2015-01-05,17.76237678527832
2015-01-06,16.80613899230957
2015-01-07,15.908851623535156
2015-01-08,15.941601753234863
2015-01-09,15.889201164245605
2015-01-12,15.8106050491333
2015-01-13,15.628891944885254
2015-01-14,15.688798904418945
2015-01-15,15.642206192016602
2015-01-16,16.054895401000977
2015-01-20,15.7753324508667
2015-01-21,15.88183307647705
2015-01-22,16.29451560974121
2015-01-23,16.14808464050293
2015-01-26,16.26123809814453
2015-01-27,16.01495933532715
2015-01-28,15.788640975952148
2015-01-29,16.11480140686035
2015-01-30,15.495769500732422
2015-02-02,15.90845775604248
2015-02-03,16.201330184936523
2015-02-04,16.108142852783203
2015-02-05,16.161392211914062
2015-02-06,16.141427993774414
2015-02-09,15.961708068847656
2015-02-10,15.921768188476562
2015-02-11,15.90845775604248
2015-02-12,15.935080528259277
2015-02-13,16.034927368164062
2015-02-17,16.034927368164062
2015-02-18,15.94173812866211
2015-02-19,15.88183307647705
2015-02-20,15.935080528259277
2015-02-23,15.98167610168457
2015-02-24,15.99499225616455
2015-02-25,15.522394180297852
2015-02-26,14.537267684936523
2015-02-27,14.164518356323242
2015-03-02,14.304295539855957
2015-03-03,14.124578475952148
2015-03-04,14.04470443725586
2015-03-05,14.510641098022461
2015-03-06,13.884954452514648
2015-03-09,13.951516151428223
2015-03-10,13.798417091369629
2015-03-11,13.938204765319824
2015-03-12,14.018080711364746
2015-03-13,13.891611099243164
2015-03-16,14.08464241027832
2015-03-17,14.1112642288208
2015-03-18,14.171171188354492
2015-03-19,14.251049041748047
2015-03-20,14.424110412597656
2015-03-23,14.44407844543457
2015-03-24,14.377514839172363
2015-03-25,13.971485137939453
2015-03-26,14.09129810333252
2015-03-27,14.058018684387207
2015-03-30,14.024734497070312
2015-03-31,13.578765869140625
2015-04-01,14.304295539855957
2015-04-02,14.570547103881836
2015-04-06,14.344234466552734
2015-04-07,14.11792278289795
2015-04-08,13.911578178405762
2015-04-09,13.984797477722168
2015-04-10,14.131234169006348
2015-04-13,13.986823081970215
2015-04-14,14.108860969543457
2015-04-15,14.081742286682129
2015-04-16,14.102079391479492
2015-04-17,13.858007431030273
2015-04-20,14.35971736907959
2015-04-21,14.163101196289062
2015-04-22,14.19021987915039
2015-04-23,14.35971736907959
2015-04-24,14.441076278686523
2015-04-27,14.135982513427734
2015-04-28,14.590231895446777
2015-04-29,14.3936128616333
2015-04-30,14.285139083862305
2015-05-01,14.454633712768555
2015-05-04,14.169879913330078
2015-05-05,14.054620742797852
2015-05-06,13.912247657775879
2015-05-07,13.369860649108887
2015-05-08,13.525794982910156
2015-05-11,13.702070236206055
2015-05-12,13.593592643737793
2015-05-13,13.58681583404541
2015-05-14,13.661395072937012
2015-05-15,13.668169021606445
2015-05-18,13.817327499389648
2015-05-19,13.566475868225098
2015-05-20,13.613932609558105
2015-05-21,13.607152938842773
2015-05-22,13.532574653625488
2015-05-26,13.491893768310547
2015-05-27,13.81054973602295
2015-05-28,14.285139083862305
2015-05-29,14.047843933105469
2015-06-01,13.668169021606445
2015-06-02,14.068182945251465
2015-06-03,14.122422218322754
2015-06-04,13.898688316345215
2015-06-05,13.898688316345215
2015-06-08,13.973264694213867
2015-06-09,13.932584762573242
2015-06-10,14.122422218322754
2015-06-11,14.230897903442383
2015-06-12,14.230897903442383
2015-06-15,14.237677574157715
2015-06-16,14.332596778869629
2015-06-17,14.346158027648926
2015-06-18,14.617351531982422
2015-06-19,14.352935791015625
2015-06-22,14.569890975952148
2015-06-23,14.65125560760498
2015-06-24,14.807188987731934
2015-06-25,14.644471168518066
2015-06-26,14.481752395629883
2015-06-29,14.197000503540039
2015-06-30,14.244460105895996
2015-07-01,14.285139083862305
2015-07-02,14.135982513427734
2015-07-06,13.952925682067871
2015-07-07,13.973264694213867
2015-07-08,13.95970630645752
2015-07-09,13.763090133666992
2015-07-10,13.973264694213867
2015-07-13,14.067927360534668
2015-07-14,14.074837684631348
2015-07-15,14.11629581451416
2015-07-16,14.289031982421875
2015-07-17,14.309761047363281
2015-07-20,14.164663314819336
2015-07-21,13.99191951751709
2015-07-22,13.943551063537598
2015-07-23,13.964282989501953
2015-07-24,13.494428634643555
2015-07-27,13.528977394104004
2015-07-28,13.598076820373535
2015-07-29,13.743175506591797
2015-07-30,13.60498332977295
2015-07-31,13.77081298828125
2015-08-03,13.985013008117676
2015-08-04,13.805360794067383
2015-08-05,13.867547988891602
2015-08-06,13.55661678314209
2015-08-07,13.791542053222656
2015-08-10,13.867547988891602
2015-08-11,14.130114555358887
2015-08-12,13.826091766357422
2015-08-13,13.915913581848145
2015-08-14,14.233756065368652
2015-08-17,14.226848602294922
2015-08-18,14.137022018432617
2015-08-19,13.936647415161133
2015-08-20,13.750085830688477
2015-08-21,13.860639572143555
2015-08-24,13.273322105407715
2015-08-25,13.052216529846191
2015-08-26,13.425335884094238
2015-08-27,13.383879661560059
2015-08-28,13.653348922729492
2015-08-31,13.480610847473145
2015-09-01,13.211138725280762
2015-09-02,13.397698402404785
2015-09-03,13.487524032592773
2015-09-04,13.480610847473145
2015-09-08,13.660261154174805
2015-09-09,13.839909553527832
2015-09-10,13.211138725280762
2015-09-11,13.197319030761719
2015-09-14,13.328600883483887
2015-09-15,13.522071838378906
2015-09-16,13.826091766357422
2015-09-17,13.881367683410645
2015-09-18,13.750085830688477
2015-09-21,13.943551063537598
2015-09-22,13.729353904724121
2015-09-23,13.577346801757812
2015-09-24,13.888277053833008
2015-09-25,13.853729248046875
2015-09-28,13.61880111694336
2015-09-29,13.300963401794434
2015-09-30,13.314780235290527
2015-10-01,12.983123779296875
2015-10-02,13.059126853942871
2015-10-05,13.383879661560059
2015-10-06,13.3700590133667
2015-10-07,13.653348922729492
2015-10-08,14.109382629394531
2015-10-09,14.123204231262207
2015-10-12,14.095563888549805
2015-10-13,13.846941947937012
2015-10-14,13.861026763916016
2015-10-15,14.262487411499023
2015-10-16,14.241361618041992
2015-10-19,14.304747581481934
2015-10-20,14.748470306396484
2015-10-21,14.889333724975586
2015-10-22,15.171063423156738
2015-10-23,15.41757583618164
2015-10-26,15.269664764404297
2015-10-27,15.135846138000488
2015-10-28,15.741565704345703
2015-10-29,15.473919868469238
2015-10-30,15.565482139587402
2015-11-02,15.826082229614258
2015-11-03,15.931732177734375
2015-11-04,15.741565704345703
2015-11-05,14.847076416015625
2015-11-06,15.276715278625488
2015-11-09,15.480963706970215
2015-11-10,15.156978607177734
2015-11-11,14.931595802307129
2015-11-12,14.776644706726074
2015-11-13,14.424482345581055
2015-11-16,14.67099666595459
2015-11-17,14.678038597106934
2015-11-18,15.079500198364258
2015-11-19,15.107675552368164
2015-11-20,15.213319778442383
2015-11-23,15.192190170288086
2015-11-24,15.311927795410156
2015-11-25,15.354183197021484
2015-11-27,15.523225784301758
2015-11-30,15.347143173217773
2015-12-01,15.41757583618164
2015-12-02,15.509142875671387
2015-12-03,15.255582809448242
2015-12-04,15.213319778442383
2015-12-07,15.340097427368164
2015-12-08,15.40349006652832
2015-12-09,15.227408409118652
2015-12-10,15.07245922088623
2015-12-11,14.642823219299316
2015-12-14,14.403352737426758
2015-12-15,14.67099666595459
2015-12-16,15.354183197021484
2015-12-17,15.333056449890137
2015-12-18,14.903420448303223
2015-12-21,14.790731430053711
2015-12-22,14.875248908996582
2015-12-23,15.269664764404297
2015-12-24,15.262622833251953
2015-12-28,15.333056449890137
2015-12-29,15.488006591796875
2015-12-30,15.121759414672852
2015-12-31,14.755512237548828
2016-01-04,14.192057609558105
2016-01-05,14.54421615600586
2016-01-06,14.685078620910645
2016-01-07,14.121623039245605
2016-01-08,13.663819313049316
2016-01-11,14.185013771057129
2016-01-12,14.269532203674316
2016-01-13,13.6785888671875
2016-01-14,13.9011812210083
2016-01-15,13.714491844177246
2016-01-19,13.592424392700195
2016-01-20,13.36983585357666
2016-01-21,13.269308090209961
2016-01-22,13.721670150756836
2016-01-25,13.60678768157959
2016-01-26,13.829376220703125
2016-01-27,13.836557388305664
2016-01-28,14.109408378601074
2016-01-29,14.389444351196289
2016-02-01,14.38226318359375
2016-02-02,14.35354232788086
2016-02-03,14.597677230834961
2016-02-04,14.47560977935791
2016-02-05,14.174032211303711
2016-02-08,14.073509216308594
2016-02-09,13.549342155456543
2016-02-10,13.60678768157959
2016-02-11,14.310460090637207
2016-02-12,13.958623886108398
2016-02-16,14.166851997375488
2016-02-17,14.518691062927246
2016-02-18,14.71256160736084
2016-02-19,14.985416412353516
2016-02-22,15.15056324005127
2016-02-23,14.971052169799805
2016-02-24,15.100302696228027
2016-02-25,15.222369194030762
2016-02-26,16.500469207763672
2016-02-29,16.79486656188965
2016-03-01,16.443025588989258
2016-03-02,17.067718505859375
2016-03-03,17.232866287231445
2016-03-04,17.283130645751953
2016-03-07,17.340572357177734
2016-03-08,17.326213836669922
2016-03-09,17.046175003051758
2016-03-10,17.074901580810547
2016-03-11,17.082077026367188
2016-03-14,16.99591636657715
2016-03-15,16.75178337097168
2016-03-16,17.003095626831055
2016-03-17,17.22568702697754
2016-03-18,17.204147338867188
2016-03-21,17.261587142944336
2016-03-22,17.074901580810547
2016-03-23,16.902572631835938
2016-03-24,17.110801696777344
2016-03-28,17.448278427124023
2016-03-29,18.28838348388672
2016-03-30,18.424806594848633
2016-03-31,18.496612548828125
2016-04-01,18.61149787902832
2016-04-04,18.015525817871094
2016-04-05,17.548803329467773
2016-04-06,17.53443717956543
2016-04-07,17.326213836669922
2016-04-08,17.39801788330078
2016-04-11,17.39083480834961
2016-04-12,17.520084381103516
2016-04-13,17.437637329101562
2016-04-14,17.33548927307129
2016-04-15,17.590856552124023
2016-04-18,17.641925811767578
2016-04-19,17.700298309326172
2016-04-20,17.583559036254883
2016-04-21,17.167680740356445
2016-04-22,17.29901123046875
2016-04-25,17.174978256225586
2016-04-26,17.357379913330078
2016-04-27,17.41575050354004
2016-04-28,17.357379913330078
2016-04-29,17.24793815612793
2016-05-02,17.824329376220703
2016-05-03,17.328197479248047
2016-05-04,17.401155471801758
2016-05-05,17.948362350463867
2016-05-06,18.20372772216797
2016-05-09,18.211021423339844
2016-05-10,18.699859619140625
2016-05-11,18.75092887878418
2016-05-12,18.955219268798828
2016-05-13,18.823888778686523
2016-05-16,18.758228302001953
2016-05-17,18.10887908935547
2016-05-18,17.919174194335938
2016-05-19,17.678407669067383
2016-05-20,17.846216201782227
2016-05-23,17.64922523498535
2016-05-24,18.014028549194336
2016-05-25,17.860809326171875
2016-05-26,17.911880493164062
2016-05-27,17.93376922607422
2016-05-31,17.93376922607422
2016-06-01,17.685701370239258
2016-06-02,17.80244255065918
2016-06-03,17.846216201782227
2016-06-06,17.911880493164062
2016-06-07,18.19643211364746
2016-06-08,18.291278839111328
2016-06-09,18.18183708190918
2016-06-10,18.18183708190918
2016-06-13,18.342348098754883
2016-06-14,18.69256591796875
2016-06-15,18.743635177612305
2016-06-16,19.108440399169922
2016-06-17,19.14491844177246
2016-06-20,19.14491844177246
2016-06-21,19.00629234313965
2016-06-22,18.933332443237305
2016-06-23,19.49513053894043
2016-06-24,19.020889282226562
2016-06-27,18.38612937927246
2016-06-28,18.729042053222656
2016-06-29,19.400279998779297
2016-06-30,19.874530792236328
2016-07-01,19.93289566040039
2016-07-05,20.24662971496582
2016-07-06,20.326885223388672
2016-07-07,20.319589614868164
2016-07-08,20.69169044494629
2016-07-11,20.58224868774414
2016-07-12,20.706283569335938
2016-07-13,20.87419319152832
2016-07-14,20.63749122619629
2016-07-15,20.711458206176758
2016-07-18,20.62269401550293
2016-07-19,20.393388748168945
2016-07-20,20.363801956176758
2016-07-21,19.94217872619629
2016-07-22,20.63749122619629
2016-07-25,20.437772750854492
2016-07-26,20.4229793548584
2016-07-27,20.5709171295166
2016-07-28,20.23065757751465
2016-07-29,20.67447280883789
2016-08-01,20.7336483001709
2016-08-02,20.119707107543945
2016-08-03,19.912588119506836
2016-08-04,19.66109275817871
2016-08-05,19.195083618164062
2016-08-08,18.94359016418457
2016-08-09,19.024951934814453
2016-08-10,19.20987892150879
2016-08-11,19.15070152282715
2016-08-12,18.77345848083496
2016-08-15,18.55894660949707
2016-08-16,17.974584579467773
2016-08-17,17.974584579467773
2016-08-18,17.900619506835938
2016-08-19,17.730491638183594
2016-08-22,17.723093032836914
2016-08-23,17.708297729492188
2016-08-24,17.863630294799805
2016-08-25,18.070749282836914
2016-08-26,17.819250106811523
2016-08-29,17.871030807495117
2016-08-30,17.878429412841797
2016-08-31,17.78966522216797
2016-09-01,17.693506240844727
2016-09-02,18.041160583496094
2016-09-06,18.0633487701416
2016-09-07,18.181703567504883
2016-09-08,18.08554458618164
2016-09-09,17.316261291503906
2016-09-12,17.804458618164062
2016-09-13,17.49378776550293
2016-09-14,17.530773162841797
2016-09-15,17.900619506835938
2016-09-16,17.974584579467773
2016-09-19,18.107730865478516
2016-09-20,17.981985092163086
2016-09-21,18.159509658813477
2016-09-22,18.9583797454834
2016-09-23,18.94359016418457
2016-09-26,18.655105590820312
2016-09-27,18.90660285949707
2016-09-28,19.135910034179688
2016-09-29,19.024951934814453
2016-09-30,18.66990089416504
2016-10-03,18.71428108215332
2016-10-04,18.440597534179688
2016-10-05,18.3000545501709
2016-10-06,18.359230041503906
2016-10-07,18.26306915283203
2016-10-10,18.3000545501709
2016-10-11,18.107730865478516
2016-10-12,18.067899703979492
2016-10-13,18.097963333129883
2016-10-14,17.977712631225586
2016-10-17,18.128028869628906
2016-10-18,18.53387451171875
2016-10-19,18.842021942138672
2016-10-20,17.60192108154297
2016-10-21,17.827396392822266
2016-10-24,17.880008697509766
2016-10-25,17.985225677490234
2016-10-26,17.812366485595703
2016-10-27,18.180635452270508
2016-10-28,17.91006851196289
2016-10-31,17.985225677490234
2016-11-01,17.474153518676758
2016-11-02,16.74512481689453
2016-11-03,17.43657684326172
2016-11-04,17.63949966430664
2016-11-07,18.143056869506836
2016-11-08,18.78190040588379
2016-11-09,19.225322723388672
2016-11-10,18.98482322692871
2016-11-11,19.789012908935547
2016-11-14,20.082122802734375
2016-11-15,20.119705200195312
2016-11-16,20.49549102783203
2016-11-17,20.728483200073242
2016-11-18,20.84873390197754
2016-11-21,20.984018325805664
2016-11-22,21.931005477905273
2016-11-23,22.096349716186523
2016-11-25,22.163991928100586
2016-11-28,22.306787490844727
2016-11-29,22.2767276763916
2016-11-30,21.480058670043945
2016-12-01,21.247068405151367
2016-12-02,21.329742431640625
2016-12-05,20.450395584106445
2016-12-06,20.450395584106445
2016-12-07,20.77357292175293
2016-12-08,20.76605796813965
2016-12-09,20.578166961669922
2016-12-12,20.578166961669922
2016-12-13,20.720962524414062
2016-12-14,20.623262405395508
2016-12-15,20.863765716552734
2016-12-16,20.675870895385742
2016-12-19,20.743513107299805
2016-12-20,20.99905014038086
2016-12-21,20.585678100585938
2016-12-22,20.6533203125
2016-12-23,20.90134048461914
2016-12-27,20.758543014526367
2016-12-28,20.1121883392334
2016-12-29,20.25498390197754
2016-12-30,20.179826736450195
2017-01-03,20.6533203125
2017-01-04,20.53306770324707
2017-01-05,20.49549102783203
2017-01-06,20.300081253051758
2017-01-09,19.60111427307129
2017-01-10,20.097156524658203
2017-01-11,20.19400978088379
2017-01-12,20.02623176574707
2017-01-13,20.079618453979492
2017-01-17,20.01097869873047
2017-01-18,20.049114227294922
2017-01-19,19.995731353759766
2017-01-20,19.980478286743164
2017-01-23,19.972848892211914
2017-01-24,19.896587371826172
2017-01-25,19.873708724975586
2017-01-26,19.919466018676758
2017-01-27,20.09486961364746
2017-01-30,19.957597732543945
2017-01-31,20.064363479614258
2017-02-01,19.54578399658203
2017-02-02,19.66017723083496
2017-02-03,19.91184425354004
2017-02-06,19.378013610839844
2017-02-07,19.378013610839844
2017-02-08,19.225488662719727
2017-02-09,19.370384216308594
2017-02-10,19.675430297851562
2017-02-13,19.675430297851562
2017-02-14,19.576290130615234
2017-02-15,19.568666458129883
2017-02-16,19.61441993713379
2017-02-17,19.744064331054688
2017-02-21,20.262643814086914
2017-02-22,20.3007755279541
2017-02-23,18.485750198364258
2017-02-24,17.64687728881836
2017-02-27,18.051063537597656
2017-02-28,17.196935653686523
2017-03-01,17.49435806274414
2017-03-02,17.2731990814209
2017-03-03,17.036787033081055
2017-03-06,16.98340606689453
2017-03-07,17.02916145324707
2017-03-08,16.82325553894043
2017-03-09,17.143550872802734
2017-03-10,17.5629940032959
2017-03-13,17.784149169921875
2017-03-14,17.654504776000977
2017-03-15,18.012929916381836
2017-03-16,18.150203704833984
2017-03-17,18.600147247314453
2017-03-20,18.485750198364258
2017-03-21,17.71551513671875
2017-03-22,17.42572021484375
2017-03-23,17.68501091003418
2017-03-24,17.723140716552734
2017-03-27,17.5629940032959
2017-03-28,17.753644943237305
2017-03-29,18.23409080505371
2017-03-30,18.394243240356445
2017-03-31,17.860408782958984
2017-04-03,17.669757843017578
2017-04-04,18.150203704833984
2017-04-05,17.93667221069336
2017-04-06,18.1273250579834
2017-04-07,18.424745559692383
2017-04-10,18.30272674560547
2017-04-11,18.78097152709961
2017-04-12,18.76546859741211
2017-04-13,18.49418067932129
2017-04-17,18.749967575073242
2017-04-18,18.928239822387695
2017-04-19,18.81972885131836
2017-04-20,18.81972885131836
2017-04-21,18.618196487426758
2017-04-24,18.70345687866211
2017-04-25,18.680208206176758
2017-04-26,18.92049217224121
2017-04-27,18.649202346801758
2017-04-28,18.346908569335938
2017-05-01,18.385665893554688
2017-05-02,18.641448974609375
2017-05-03,17.967103958129883
2017-05-04,17.409019470214844
2017-05-05,17.58730125427246
2017-05-08,17.17648696899414
2017-05-09,17.145484924316406
2017-05-10,17.153234481811523
2017-05-11,15.944059371948242
2017-05-12,15.99831771850586
2017-05-15,15.889802932739258
2017-05-16,15.634016036987305
2017-05-17,15.409234046936035
2017-05-18,15.246458053588867
2017-05-19,15.192200660705566
2017-05-22,15.091435432434082
2017-05-23,15.137946128845215
2017-05-24,15.176698684692383
2017-05-25,15.254210472106934
2017-05-26,15.099186897277832
2017-05-30,15.3627290725708
2017-05-31,15.440237045288086
2017-06-01,15.424734115600586
2017-06-02,15.587510108947754
2017-06-05,15.447989463806152
2017-06-06,15.525497436523438
2017-06-07,15.51775074005127
2017-06-08,15.812289237976074
2017-06-09,16.15334129333496
2017-06-12,16.45563507080078
2017-06-13,16.323862075805664
2017-06-14,16.62615966796875
2017-06-15,16.308364868164062
2017-06-16,16.64166259765625
2017-06-19,15.99056625366211
2017-06-20,15.688272476196289
2017-06-21,15.618513107299805
2017-06-22,15.680521011352539
2017-06-23,15.913057327270508
2017-06-26,15.944059371948242
2017-06-27,16.07583236694336
2017-06-28,16.48663902282715
2017-06-29,16.556400299072266
2017-06-30,16.64166259765625
2017-07-03,17.013717651367188
2017-07-05,17.083477020263672
2017-07-06,16.525392532348633
2017-07-07,16.052574157714844
2017-07-10,15.618513107299805
2017-07-11,14.982922554016113
2017-07-12,14.853998184204102
2017-07-13,14.569257736206055
2017-07-14,14.205419540405273
2017-07-17,14.21332836151123
2017-07-18,14.18960189819336
2017-07-19,14.173782348632812
2017-07-20,14.48225212097168
2017-07-21,14.632530212402344
2017-07-24,14.31615161895752
2017-07-25,14.35569953918457
2017-07-26,14.31615161895752
2017-07-27,14.561347007751465
2017-07-28,14.35569953918457
2017-07-31,14.237059593200684
2017-08-01,14.545526504516602
2017-08-02,14.592985153198242
2017-08-03,14.719536781311035
2017-08-04,15.526299476623535
2017-08-07,15.668672561645508
2017-08-08,15.328563690185547
2017-08-09,15.122919082641602
2017-08-10,15.067553520202637
2017-08-11,15.233651161193848
2017-08-14,15.550030708312988
2017-08-15,15.075461387634277
2017-08-16,15.249472618103027
2017-08-17,14.743264198303223
2017-08-18,14.774903297424316
2017-08-21,14.537616729736328
2017-08-22,14.75908374786377
2017-08-23,15.2178316116333
2017-08-24,15.05964469909668
2017-08-25,14.869815826416016
2017-08-28,14.925180435180664
2017-08-29,15.115008354187012
2017-08-30,14.806541442871094
2017-08-31,14.592985153198242
2017-09-01,15.04382610321045
2017-09-05,14.75908374786377
2017-09-06,14.260786056518555
2017-09-07,14.0235013961792
2017-09-08,14.142142295837402
2017-09-11,13.809946060180664
2017-09-12,13.873221397399902
2017-09-13,13.873221397399902
2017-09-14,13.976045608520508
2017-09-15,14.363609313964844
2017-09-18,14.46643352508545
2017-09-19,14.632530212402344
2017-09-20,14.640442848205566
2017-09-21,14.711626052856445
2017-09-22,15.004276275634766
2017-09-25,15.33647632598877
2017-09-26,15.38393497467041
2017-09-27,15.455117225646973
2017-09-28,15.423480033874512
2017-09-29,15.09128189086914
2017-10-02,15.31274700164795
2017-10-03,15.826862335205078
2017-10-04,16.151153564453125
2017-10-05,16.040420532226562
2017-10-06,15.858498573303223
2017-10-09,15.905959129333496
2017-10-10,16.056236267089844
2017-10-11,16.328279495239258
2017-10-12,16.375137329101562
2017-10-13,16.21894645690918
2017-10-16,16.17784309387207
2017-10-17,15.955891609191895
2017-10-18,16.136741638183594
2017-10-19,16.079198837280273
2017-10-20,16.046316146850586
2017-10-23,15.816143989562988
2017-10-24,15.6270751953125
2017-10-25,15.807924270629883
2017-10-26,15.766820907592773
2017-10-27,15.816143989562988
2017-10-30,15.651737213134766
2017-10-31,15.758601188659668
2017-11-01,15.750381469726562
2017-11-02,14.796810150146484
2017-11-03,13.202041625976562
2017-11-06,12.84034252166748
2017-11-07,12.306013107299805
2017-11-08,12.248469352722168
2017-11-09,11.788125038146973
2017-11-10,11.681259155273438
2017-11-13,11.163370132446289
2017-11-14,10.785229682922363
2017-11-15,11.262015342712402
2017-11-16,11.072945594787598
2017-11-17,11.05650520324707
2017-11-20,11.007183074951172
2017-11-21,11.031844139099121
2017-11-22,11.097607612609863
2017-11-24,11.19625186920166
2017-11-27,11.35244083404541
2017-11-28,11.673038482666016
2017-11-29,11.771683692932129
2017-11-30,11.623716354370117
2017-12-01,11.146929740905762
2017-12-04,11.11404800415039
2017-12-05,10.382427215576172
2017-12-06,10.102932929992676
2017-12-07,10.037169456481934
2017-12-08,10.135812759399414
2017-12-11,10.916756629943848
2017-12-12,10.209798812866211
2017-12-13,10.513954162597656
2017-12-14,10.481074333190918
2017-12-15,10.439970016479492
2017-12-18,10.612600326538086
2017-12-19,10.349546432495117
2017-12-20,10.324885368347168
2017-12-21,10.127594947814941
2017-12-22,10.15225601196289
2017-12-26,10.16047477722168
2017-12-27,10.16047477722168
2017-12-28,10.11937427520752
2017-12-29,10.02072811126709
2018-01-02,10.92497730255127
2018-01-03,10.086491584777832
2018-01-04,10.604379653930664
2018-01-05,10.612600326538086
2018-01-08,10.54683780670166
2018-01-09,10.185136795043945
2018-01-10,10.283782005310059
2018-01-11,10.56117057800293
2018-01-12,10.773242950439453
2018-01-16,10.637516975402832
2018-01-17,10.57813835144043
2018-01-18,10.484825134277344
2018-01-19,10.450896263122559
2018-01-22,10.976831436157227
2018-01-23,10.722347259521484
2018-01-24,10.773242950439453
2018-01-25,10.679932594299316
2018-01-26,10.900486946105957
2018-01-29,10.824140548706055
2018-01-30,10.612069129943848
2018-01-31,10.56117057800293
2018-02-01,10.527240753173828
2018-02-02,10.043717384338379
2018-02-05,9.543228149414062
2018-02-06,9.899508476257324
2018-02-07,9.933439254760742
2018-02-08,9.407501220703125
2018-02-09,9.390536308288574
2018-02-12,9.678955078125
2018-02-13,9.746816635131836
2018-02-14,9.78074836730957
2018-02-15,9.87406063079834
2018-02-16,10.111579895019531
2018-02-20,10.018268585205078
2018-02-21,9.891023635864258
2018-02-22,9.619573593139648
2018-02-23,10.08613109588623
2018-02-26,10.357583999633789
2018-02-27,10.25578784942627
2018-02-28,9.806197166442871
2018-03-01,10.221858024597168
2018-03-02,10.035234451293945
2018-03-05,10.145511627197266
2018-03-06,10.416962623596191
2018-03-07,10.56117057800293
2018-03-08,10.187926292419434
2018-03-09,10.349100112915039
2018-03-12,10.179442405700684
2018-03-13,10.035234451293945
2018-03-14,10.315169334411621
2018-03-15,10.052200317382812
2018-03-16,10.06068229675293
2018-03-19,9.87406063079834
2018-03-20,9.831645965576172
2018-03-21,9.806197166442871
2018-03-22,9.500811576843262
2018-03-23,9.314189910888672
2018-03-26,9.27177619934082
2018-03-27,9.203912734985352
2018-03-28,9.169981002807617
2018-03-29,9.297224998474121
2018-04-02,8.881564140319824
2018-04-03,9.07667064666748
2018-04-04,9.543228149414062
2018-04-05,9.56019401550293
2018-04-06,9.653505325317383
2018-04-09,9.840127944946289
2018-04-10,9.899508476257324
2018-04-11,10.009785652160645
2018-04-12,9.726497650146484
2018-04-13,9.559857368469238
2018-04-16,9.700187683105469
2018-04-17,9.822972297668457
2018-04-18,9.87559700012207
2018-04-19,9.717726707458496
2018-04-20,9.621251106262207
2018-04-23,9.586170196533203
2018-04-24,9.665103912353516
2018-04-25,9.849284172058105
2018-04-26,9.866826057434082
2018-04-27,10.173794746398926
2018-04-30,9.91067886352539
2018-05-01,10.015924453735352
2018-05-02,10.182564735412598
2018-05-03,9.840514183044434
2018-05-04,10.217646598815918
2018-05-07,10.138712882995605
2018-05-08,10.15625286102295
2018-05-09,10.059778213500977
2018-05-10,10.200105667114258
2018-05-11,10.243958473205566
2018-05-14,9.831744194030762
2018-05-15,9.744038581848145
2018-05-16,9.814203262329102
2018-05-17,9.814203262329102
2018-05-18,9.708956718444824
2018-05-21,9.814203262329102
2018-05-22,9.998383522033691
2018-05-23,9.752808570861816
2018-05-24,9.78789234161377
2018-05-25,9.866826057434082
2018-05-29,9.901908874511719
2018-05-30,9.980843544006348
2018-05-31,9.831744194030762
2018-06-01,9.92821979522705
2018-06-04,10.086090087890625
2018-06-05,10.15625286102295
2018-06-06,10.182564735412598
2018-06-07,10.550926208496094
2018-06-08,10.621089935302734
2018-06-11,10.691254615783691
2018-06-12,11.199945449829102
2018-06-13,11.033303260803223
2018-06-14,11.094697952270508
2018-06-15,11.217484474182129
2018-06-18,11.471830368041992
2018-06-19,11.691093444824219
2018-06-20,11.436747550964355
2018-06-21,11.235026359558105
2018-06-22,11.515682220458984
2018-06-25,11.384124755859375
2018-06-26,11.235026359558105
2018-06-27,10.857893943786621
2018-06-28,10.86666488647461
2018-06-29,10.840352058410645
2018-07-02,10.980682373046875
2018-07-03,11.296420097351074
2018-07-05,11.524454116821289
2018-07-06,11.691093444824219
2018-07-09,11.79633903503418
2018-07-10,11.840191841125488
2018-07-11,11.673552513122559
2018-07-12,11.752140045166016
2018-07-13,11.580509185791016
2018-07-16,11.535345077514648
2018-07-17,11.291448593139648
2018-07-18,11.092719078063965
2018-07-19,11.146918296813965
2018-07-20,10.975287437438965
2018-07-23,11.264349937438965
2018-07-24,11.670841217041016
2018-07-25,11.038519859313965
2018-07-26,11.345647811889648
2018-07-27,11.273381233215332
2018-07-30,11.354681015014648
2018-07-31,11.508244514465332
2018-08-01,11.426946640014648
2018-08-02,10.632028579711914
2018-08-03,9.80097770690918
2018-08-06,10.180370330810547
2018-08-07,9.954541206359863
2018-08-08,9.782912254333496
2018-08-09,10.216503143310547
2018-08-10,10.171337127685547
2018-08-13,10.306835174560547
2018-08-14,10.424264907836914
2018-08-15,10.388134002685547
2018-08-16,10.622994422912598
2018-08-17,10.903022766113281
2018-08-20,10.794625282287598
2018-08-21,10.912056922912598
2018-08-22,10.893990516662598
2018-08-23,10.921089172363281
2018-08-24,10.912056922912598
2018-08-27,11.092719078063965
2018-08-28,11.038519859313965
2018-08-29,11.038519859313965
2018-08-30,10.875923156738281
2018-08-31,10.668160438537598
2018-09-04,10.43329906463623
2018-09-05,10.505563735961914
2018-09-06,10.595895767211914
2018-09-07,10.803658485412598
2018-09-10,11.336615562438965
2018-09-11,11.580509185791016
2018-09-12,11.481144905090332
2018-09-13,11.472111701965332
2018-09-14,11.634709358215332
2018-09-17,11.8876371383667
2018-09-18,11.9418363571167
2018-09-19,11.8966703414917
2018-09-20,12.158632278442383
2018-09-21,12.068300247192383
2018-09-24,11.797306060791016
2018-09-25,11.634709358215332
2018-09-26,11.345647811889648
2018-09-27,11.625676155090332
2018-09-28,11.7792387008667
2018-10-01,11.625676155090332
2018-10-02,11.9147367477417
2018-10-03,12.0412015914917
2018-10-04,12.0231351852417
2018-10-05,11.9418363571167
2018-10-08,12.0321683883667
2018-10-09,12.185730934143066
2018-10-10,12.221863746643066
2018-10-11,10.821724891662598
2018-10-12,10.846927642822266
2018-10-15,10.902935981750488
2018-10-16,11.425680160522461
2018-10-17,11.771062850952148
2018-10-18,11.593705177307129
2018-10-19,11.892415046691895
2018-10-22,11.873745918273926
2018-10-23,11.836406707763672
2018-10-24,11.453683853149414
2018-10-25,11.603038787841797
2018-10-26,11.19231128692627
2018-10-29,11.285658836364746
2018-10-30,11.696385383605957
2018-10-31,11.687051773071289
2018-11-01,11.519026756286621
2018-11-02,11.715056419372559
2018-11-05,12.592517852783203
2018-11-06,12.601853370666504
2018-11-07,12.648527145385742
2018-11-08,12.87255859375
2018-11-09,12.349815368652344
2018-11-12,12.181791305541992
2018-11-13,12.144453048706055
2018-11-14,12.032435417175293
2018-11-15,11.864410400390625
2018-11-16,12.041769981384277
2018-11-19,12.237798690795898
2018-11-20,12.265804290771484
2018-11-21,12.293807029724121
2018-11-23,12.499171257019043
2018-11-26,12.937901496887207
2018-11-27,12.99390983581543
2018-11-28,13.040583610534668
2018-11-29,12.90056324005127
2018-11-30,12.844554901123047
2018-12-03,12.041769981384277
2018-12-04,11.379006385803223
2018-12-06,11.07096004486084
2018-12-07,10.940275192260742
2018-12-10,10.818923950195312
2018-12-11,10.884265899658203
2018-12-12,10.725576400756836
2018-12-13,10.436201095581055
2018-12-14,10.482873916625977
2018-12-17,9.96013069152832
2018-12-18,9.876117706298828
2018-12-19,9.540068626403809
2018-12-20,9.166680335998535
2018-12-21,8.821295738220215
2018-12-24,8.27988338470459
2018-12-26,9.017325401306152
2018-12-27,9.222689628601074
2018-12-28,9.232024192810059
2018-12-31,9.222689628601074
2019-01-02,9.418717384338379
2019-01-03,9.586742401123047
2019-01-04,10.258840560913086
2019-01-07,10.632229804992676
2019-01-08,10.641563415527344
2019-01-09,10.454870223999023
2019-01-10,10.473539352416992
2019-01-11,10.510878562927246
2019-01-14,10.140634536743164
2019-01-15,10.372640609741211
2019-01-16,10.333972930908203
2019-01-17,10.256637573242188
2019-01-18,10.58531379699707
2019-01-22,10.150300979614258
2019-01-23,10.130967140197754
2019-01-24,10.043965339660645
2019-01-25,10.063298225402832
2019-01-28,10.043965339660645
2019-01-29,9.927962303161621
2019-01-30,10.082633018493652
2019-01-31,10.32430648803711
2019-02-01,10.382308006286621
2019-02-04,10.449976921081543
2019-02-05,10.314640045166016
2019-02-06,10.256637573242188
2019-02-07,10.169635772705078
2019-02-08,10.043965339660645
2019-02-11,10.22763729095459
2019-02-12,10.382308006286621
2019-02-13,10.391975402832031
2019-02-14,9.676620483398438
2019-02-15,10.072965621948242
2019-02-19,10.130967140197754
2019-02-20,9.976295471191406
2019-02-21,9.89896011352539
2019-02-22,10.401642799377441
2019-02-25,9.705621719360352
2019-02-26,9.43494701385498
2019-02-27,9.599285125732422
2019-02-28,9.599285125732422
2019-03-01,9.473614692687988
2019-03-04,9.367278099060059
2019-03-05,9.550950050354004
2019-03-06,9.270608901977539
2019-03-07,9.42527961730957
2019-03-08,9.41561222076416
2019-03-11,9.840959548950195
2019-03-12,9.918294906616211
2019-03-13,10.150300979614258
2019-03-14,9.937627792358398
2019-03-15,10.092299461364746
2019-03-18,10.266304969787598
2019-03-19,9.918294906616211
2019-03-20,9.618618965148926
2019-03-21,9.976295471191406
2019-03-22,9.860292434692383
2019-03-25,10.034297943115234
2019-03-26,10.266304969787598
2019-03-27,10.536978721618652
2019-03-28,10.527313232421875
2019-03-29,10.546646118164062
2019-04-01,10.652983665466309
2019-04-02,10.875323295593262
2019-04-03,11.126664161682129
2019-04-04,11.329669952392578
2019-04-05,11.513341903686523
2019-04-08,11.165331840515137
2019-04-09,11.165331840515137
2019-04-10,11.378005027770996
2019-04-11,11.232999801635742
2019-04-12,11.5
2019-04-15,11.149999618530273
2019-04-16,10.149999618530273
2019-04-17,9.920000076293945
2019-04-18,9.289999961853027
2019-04-22,9.100000381469727
2019-04-23,8.920000076293945
2019-04-24,8.890000343322754
2019-04-25,5.849999904632568
2019-04-26,5.699999809265137
2019-04-29,5.409999847412109
2019-04-30,5.159999847412109
2019-05-01,4.960000038146973
2019-05-02,4.860000133514404
2019-05-03,5.110000133514404
2019-05-06,5.050000190734863
2019-05-07,5.050000190734863
2019-05-08,5.110000133514404
2019-05-09,4.96999979019165
2019-05-10,5.050000190734863
2019-05-13,4.880000114440918
2019-05-14,5.099999904632568
2019-05-15,5.099999904632568
2019-05-16,5.03000020980835
2019-05-17,4.920000076293945
2019-05-20,4.75
2019-05-21,4.820000171661377
2019-05-22,4.53000020980835
2019-05-23,4.429999828338623
2019-05-24,4.340000152587891
2019-05-28,4.210000038146973
2019-05-29,4.420000076293945
2019-05-30,4.260000228881836
2019-05-31,4.0
2019-06-03,4.199999809265137
2019-06-04,4.489999771118164
2019-06-05,4.400000095367432
2019-06-06,4.46999979019165
2019-06-07,4.170000076293945
2019-06-10,4.190000057220459
2019-06-11,4.360000133514404
2019-06-12,4.420000076293945
2019-06-13,4.480000019073486
2019-06-14,4.460000038146973
2019-06-17,4.760000228881836
2019-06-18,4.949999809265137
2019-06-19,4.730000019073486
2019-06-20,4.949999809265137
2019-06-21,4.929999828338623
2019-06-24,4.53000020980835
2019-06-25,4.46999979019165
2019-06-26,4.610000133514404
2019-06-27,4.900000095367432
2019-06-28,4.929999828338623
2019-07-01,5.039999961853027
2019-07-02,5.230000019073486
2019-07-03,5.099999904632568
2019-07-05,5.380000114440918
2019-07-08,5.380000114440918
2019-07-09,5.099999904632568
2019-07-10,5.269999980926514
2019-07-11,5.300000190734863
2019-07-12,5.170000076293945
2019-07-15,5.28000020980835
2019-07-16,5.309999942779541
2019-07-17,5.0
2019-07-18,4.889999866485596
2019-07-19,4.949999809265137
2019-07-22,4.5
2019-07-23,4.519999980926514
2019-07-24,4.610000133514404
2019-07-25,4.75
2019-07-26,4.730000019073486
2019-07-29,4.760000228881836
2019-07-30,4.789999961853027
2019-07-31,4.710000038146973
2019-08-01,4.760000228881836
2019-08-02,5.130000114440918
2019-08-05,5.239999771118164
2019-08-06,5.409999847412109
2019-08-07,4.920000076293945
2019-08-08,4.760000228881836
2019-08-09,4.800000190734863
2019-08-12,4.659999847412109
2019-08-13,4.820000171661377
2019-08-14,4.650000095367432
2019-08-15,4.289999961853027
2019-08-16,4.46999979019165
2019-08-19,4.46999979019165
2019-08-20,4.53000020980835
2019-08-21,4.579999923706055
2019-08-22,4.610000133514404
2019-08-23,4.420000076293945
2019-08-26,4.329999923706055
2019-08-27,4.059999942779541
2019-08-28,4.150000095367432
2019-08-29,4.050000190734863
2019-08-30,4.03000020980835
2019-09-03,4.110000133514404
2019-09-04,4.03000020980835
2019-09-05,4.179999828338623
2019-09-06,4.300000190734863
2019-09-09,4.650000095367432
2019-09-10,5.070000171661377
2019-09-11,5.320000171661377
2019-09-12,5.360000133514404
2019-09-13,4.699999809265137
2019-09-16,4.480000019073486
2019-09-17,4.289999961853027
2019-09-18,4.139999866485596
2019-09-19,4.190000057220459
2019-09-20,4.300000190734863
2019-09-23,4.449999809265137
2019-09-24,4.510000228881836
2019-09-25,4.760000228881836
2019-09-26,4.71999979019165
2019-09-27,4.760000228881836
2019-09-30,4.760000228881836
2019-10-01,4.690000057220459
2019-10-02,4.519999980926514
2019-10-03,4.440000057220459
2019-10-04,4.079999923706055
2019-10-07,3.759999990463257
2019-10-08,3.6600000858306885
2019-10-09,3.390000104904175
2019-10-10,3.359999895095825
2019-10-11,3.440000057220459
2019-10-14,3.3299999237060547
2019-10-15,3.5
2019-10-16,3.4000000953674316
2019-10-17,3.450000047683716
2019-10-18,3.4700000286102295
2019-10-21,3.509999990463257
2019-10-22,3.609999895095825
2019-10-23,3.619999885559082
2019-10-24,3.549999952316284
2019-10-25,3.5399999618530273
2019-10-28,3.5899999141693115
2019-10-29,3.4700000286102295
2019-10-30,3.4200000762939453
2019-10-31,4.0
2019-11-01,3.7899999618530273
2019-11-04,3.990000009536743
2019-11-05,4.300000190734863
2019-11-06,4.300000190734863
2019-11-07,4.380000114440918
2019-11-08,4.199999809265137
2019-11-11,4.239999771118164
2019-11-12,4.25
2019-11-13,4.28000020980835
2019-11-14,4.320000171661377
2019-11-15,4.190000057220459
2019-11-18,4.150000095367432
2019-11-19,3.9200000762939453
2019-11-20,3.9000000953674316
2019-11-21,3.9700000286102295
2019-11-22,4.079999923706055
2019-11-25,4.119999885559082
2019-11-26,4.039999961853027
2019-11-27,3.8299999237060547
2019-11-29,3.630000114440918
2019-12-02,3.6500000953674316
2019-12-03,3.75
2019-12-04,3.7799999713897705
2019-12-05,3.7899999618530273
2019-12-06,3.869999885559082
2019-12-09,3.7699999809265137
2019-12-10,3.680000066757202
2019-12-11,3.6700000762939453
2019-12-12,3.569999933242798
2019-12-13,3.440000057220459
2019-12-16,3.690000057220459
2019-12-17,3.7899999618530273
2019-12-18,3.9000000953674316
2019-12-19,3.9600000381469727
2019-12-20,3.6500000953674316
2019-12-23,3.8499999046325684
2019-12-24,3.859999895095825
2019-12-26,3.9200000762939453
2019-12-27,3.859999895095825
2019-12-30,3.859999895095825
2019-12-31,3.880000114440918
