Date,CODI
2007-12-31,4.541954040527344
2008-01-02,4.42611837387085
2008-01-03,4.447458267211914
2008-01-04,4.4413580894470215
2008-01-07,4.67302942276001
2008-01-08,4.480986595153809
2008-01-09,4.47489070892334
2008-01-10,4.410877704620361
2008-01-11,4.477936744689941
2008-01-14,4.523664474487305
2008-01-15,4.416972637176514
2008-01-16,4.484035491943359
2008-01-17,4.319427490234375
2008-01-18,4.1944475173950195
2008-01-22,4.063370704650879
2008-01-23,4.4054999351501465
2008-01-24,4.474239826202393
2008-01-25,4.333639144897461
2008-01-28,4.3805060386657715
2008-01-29,4.368006706237793
2008-01-30,4.211784839630127
2008-01-31,4.51798152923584
2008-02-01,4.589842319488525
2008-02-04,4.599216938018799
2008-02-05,4.533603668212891
2008-02-06,4.5054826736450195
2008-02-07,4.539852619171143
2008-02-08,4.577346324920654
2008-02-11,4.5835957527160645
2008-02-12,4.555474758148193
2008-02-13,4.546102523803711
2008-02-14,4.4054999351501465
2008-02-15,4.280521392822266
2008-02-19,4.336762428283691
2008-02-20,4.277399063110352
2008-02-21,4.221157073974609
2008-02-22,4.146169662475586
2008-02-25,4.383627891540527
2008-02-26,4.371131420135498
2008-02-27,4.283646106719971
2008-02-28,4.2524027824401855
2008-02-29,4.249277114868164
2008-03-03,4.149294853210449
2008-03-04,4.052435398101807
2008-03-05,4.018067836761475
2008-03-06,3.8243496417999268
2008-03-07,3.883714437484741
2008-03-10,3.6618764400482178
2008-03-11,3.78373122215271
2008-03-12,3.8180999755859375
2008-03-13,3.874340295791626
2008-03-14,3.727489948272705
2008-03-17,3.6212587356567383
2008-03-18,3.7243661880493164
2008-03-19,3.7181167602539062
2008-03-20,4.018067836761475
2008-03-24,3.936830997467041
2008-03-25,3.8899636268615723
2008-03-26,3.8430960178375244
2008-03-27,3.736863613128662
2008-03-28,3.9305810928344727
2008-03-31,4.108675956726074
2008-04-01,4.158666610717773
2008-04-02,4.161792755126953
2008-04-03,4.114923477172852
2008-04-04,4.068058013916016
2008-04-07,4.046185493469238
2008-04-08,4.068058013916016
2008-04-09,3.977447986602783
2008-04-10,4.008692741394043
2008-04-11,3.864966869354248
2008-04-14,3.9993197917938232
2008-04-15,3.955578327178955
2008-04-16,3.9587011337280273
2008-04-17,3.905586004257202
2008-04-18,4.0130486488342285
2008-04-21,3.9681389331817627
2008-04-22,3.8975656032562256
2008-04-23,3.8686957359313965
2008-04-24,3.984180212020874
2008-04-25,3.916814088821411
2008-04-28,3.9488930702209473
2008-04-29,3.9392690658569336
2008-04-30,3.9328532218933105
2008-05-01,4.067584037780762
2008-05-02,4.029089450836182
2008-05-05,4.054752349853516
2008-05-06,4.083622932434082
2008-05-07,4.057959079742432
2008-05-08,4.01946496963501
2008-05-09,4.073998928070068
2008-05-12,4.0066351890563965
2008-05-13,3.737172842025757
2008-05-14,3.839825391769409
2008-05-15,3.929645538330078
2008-05-16,3.9809703826904297
2008-05-19,3.9777629375457764
2008-05-20,4.029089450836182
2008-05-21,4.01946496963501
2008-05-22,4.122117042541504
2008-05-23,4.183067798614502
2008-05-27,4.150986194610596
2008-05-28,4.141364097595215
2008-05-29,4.327421188354492
2008-05-30,4.394786357879639
2008-06-02,4.253640174865723
2008-06-03,4.2055230140686035
2008-06-04,4.215145587921143
2008-06-05,4.227977752685547
2008-06-06,4.163819313049316
2008-06-09,4.260056018829346
2008-06-10,4.141364097595215
2008-06-11,4.090036869049072
2008-06-12,4.025881290435791
2008-06-13,4.077208042144775
2008-06-16,4.086831569671631
2008-06-17,4.048336029052734
2008-06-18,3.9617233276367188
2008-06-19,3.955307722091675
2008-06-20,3.910398244857788
2008-06-23,3.843032121658325
2008-06-24,3.7852911949157715
2008-06-25,3.891150712966919
2008-06-26,3.7532122135162354
2008-06-27,3.6537678241729736
2008-06-30,3.6665990352630615
2008-07-01,3.6152737140655518
2008-07-02,3.5350759029388428
2008-07-03,3.4869580268859863
2008-07-07,3.3105239868164062
2008-07-08,3.4548797607421875
2008-07-09,3.3073182106018066
2008-07-10,3.32977294921875
2008-07-11,3.361851692199707
2008-07-14,3.214289426803589
2008-07-15,3.2110812664031982
2008-07-16,3.4228007793426514
2008-07-17,3.528660774230957
2008-07-18,3.474125862121582
2008-07-21,3.5414912700653076
2008-07-22,3.715013265609741
2008-07-23,3.7877275943756104
2008-07-24,3.718318223953247
2008-07-25,3.7712011337280273
2008-07-28,3.642300605773926
2008-07-29,3.715013265609741
2008-07-30,3.8306946754455566
2008-07-31,3.843914270401001
2008-08-01,3.9001028537750244
2008-08-04,3.715013265609741
2008-08-05,3.9926488399505615
2008-08-06,4.0058674812316895
2008-08-07,3.827390432357788
2008-08-08,4.042224407196045
2008-08-11,4.273588180541992
2008-08-12,4.194263935089111
2008-08-13,4.177738189697266
2008-08-14,4.2140960693359375
2008-08-15,4.177738189697266
2008-08-18,4.13146448135376
2008-08-19,4.111634254455566
2008-08-20,4.101717472076416
2008-08-21,4.088497638702393
2008-08-22,4.1149396896362305
2008-08-25,4.038920879364014
2008-08-26,4.065362453460693
2008-08-27,4.098412990570068
2008-08-28,4.366132736206055
2008-08-29,4.24384069442749
2008-09-02,4.445456027984619
2008-09-03,4.498340606689453
2008-09-04,4.352911949157715
2008-09-05,4.419015407562256
2008-09-08,4.633852481842041
2008-09-09,4.607410430908203
2008-09-10,4.726395606994629
2008-09-11,4.736311435699463
2008-09-12,4.8123321533203125
2008-09-15,4.617325782775879
2008-09-16,4.587578296661377
2008-09-17,4.2273149490356445
2008-09-18,4.471897602081299
2008-09-19,4.706564903259277
2008-09-22,4.627241134643555
2008-09-23,4.623935699462891
2008-09-24,4.564443588256836
2008-09-25,4.627241134643555
2008-09-26,4.653682231903076
2008-09-29,4.3264689445495605
2008-09-30,4.607410430908203
2008-10-01,4.623935699462891
2008-10-02,4.528085231781006
2008-10-03,4.676817417144775
2008-10-06,4.419015407562256
2008-10-07,3.9067142009735107
2008-10-08,3.7877275943756104
2008-10-09,3.3250038623809814
2008-10-10,3.582806348800659
2008-10-13,3.9926488399505615
2008-10-14,4.081887722015381
2008-10-15,3.8901870250701904
2008-10-16,4.461982727050781
2008-10-17,4.419015407562256
2008-10-20,4.42893123626709
2008-10-21,4.359521865844727
2008-10-22,4.3730926513671875
2008-10-23,4.267920970916748
2008-10-24,3.9931185245513916
2008-10-27,3.8608076572418213
2008-10-28,4.155965328216553
2008-10-29,4.033830642700195
2008-10-30,4.081326007843018
2008-10-31,4.139002799987793
2008-11-03,4.139002799987793
2008-11-04,4.1525726318359375
2008-11-05,3.9286587238311768
2008-11-06,3.7420644760131836
2008-11-07,3.708139419555664
2008-11-10,3.7047462463378906
2008-11-11,3.7318873405456543
2008-11-12,3.6029670238494873
2008-11-13,3.640286684036255
2008-11-14,3.6436781883239746
2008-11-17,3.4061951637268066
2008-11-18,3.2263870239257812
2008-11-19,2.958369493484497
2008-11-20,2.8430187702178955
2008-11-21,2.978724241256714
2008-11-24,3.1279993057250977
2008-11-25,3.396017551422119
2008-11-26,3.6436781883239746
2008-11-28,3.396017551422119
2008-12-01,2.7785592079162598
2008-12-02,3.1008589267730713
2008-12-03,3.1110360622406006
2008-12-04,2.9481897354125977
2008-12-05,3.1721036434173584
2008-12-08,3.545292615890503
2008-12-09,3.3926243782043457
2008-12-10,3.2603116035461426
2008-12-11,3.2196006774902344
2008-12-12,3.3519113063812256
2008-12-15,3.2196006774902344
2008-12-16,3.640286684036255
2008-12-17,3.7522425651550293
2008-12-18,3.796347141265869
2008-12-19,3.999903678894043
2008-12-22,3.854020357131958
2008-12-23,3.42655086517334
2008-12-24,3.446906328201294
2008-12-26,3.507972240447998
2008-12-29,3.341735363006592
2008-12-30,3.3790535926818848
2008-12-31,3.8167026042938232
2009-01-02,4.064363956451416
2009-01-05,3.996511697769165
2009-01-06,4.118644714355469
2009-01-07,3.979548215866089
2009-01-08,4.1016845703125
2009-01-09,3.81330943107605
2009-01-12,3.667426586151123
2009-01-13,3.7725977897644043
2009-01-14,3.6063597202301025
2009-01-15,3.535114288330078
2009-01-16,3.545292615890503
2009-01-20,3.311201333999634
2009-01-21,3.6029534339904785
2009-01-22,3.409623146057129
2009-01-23,3.349868059158325
2009-01-26,3.501013994216919
2009-01-27,3.631072521209717
2009-01-28,4.031792640686035
2009-01-29,4.130214691162109
2009-01-30,3.799797296524048
2009-02-02,3.7119193077087402
2009-02-03,3.6943447589874268
2009-02-04,3.7505860328674316
2009-02-05,3.870098829269409
2009-02-06,3.9368841648101807
2009-02-09,3.863068103790283
2009-02-10,3.54671049118042
2009-02-11,3.599437713623047
2009-02-12,3.6451332569122314
2009-02-13,3.585376262664795
2009-02-17,3.3779871463775635
2009-02-18,3.335806369781494
2009-02-19,3.2268402576446533
2009-02-20,3.2444138526916504
2009-02-23,2.9772696495056152
2009-02-24,3.191688299179077
2009-02-25,3.2233242988586426
2009-02-26,3.1284165382385254
2009-02-27,3.0967819690704346
2009-03-02,3.072176218032837
2009-03-03,2.843696117401123
2009-03-04,2.8577558994293213
2009-03-05,2.4500081539154053
2009-03-06,2.5835812091827393
2009-03-09,2.4535226821899414
2009-03-10,2.5730350017547607
2009-03-11,2.71012282371521
2009-03-12,3.033510446548462
2009-03-13,3.0124194622039795
2009-03-16,2.8964219093322754
2009-03-17,3.0370259284973145
2009-03-18,3.3182315826416016
2009-03-19,3.153022527694702
2009-03-20,3.0299949645996094
2009-03-23,3.6275575160980225
2009-03-24,3.2233242988586426
2009-03-25,3.3709588050842285
2009-03-26,3.4482901096343994
2009-03-27,3.1354477405548096
2009-03-30,2.9245431423187256
2009-03-31,3.1354477405548096
2009-04-01,3.23738431930542
2009-04-02,3.571317672729492
2009-04-03,3.501013994216919
2009-04-06,3.265504837036133
2009-04-07,3.026480197906494
2009-04-08,3.0194504261016846
2009-04-09,3.2584750652313232
2009-04-13,3.3709588050842285
2009-04-14,3.188173770904541
2009-04-15,3.3147165775299072
2009-04-16,3.3955624103546143
2009-04-17,3.5326504707336426
2009-04-20,3.20223331451416
2009-04-21,3.2533535957336426
2009-04-22,3.2131893634796143
2009-04-23,3.034273147583008
2009-04-24,2.9612460136413574
2009-04-27,2.902822971343994
2009-04-28,3.026968479156494
2009-04-29,3.3081235885620117
2009-04-30,3.2643067836761475
2009-05-01,3.3592426776885986
2009-05-04,3.2606558799743652
2009-05-05,3.421314239501953
2009-05-06,3.3081235885620117
2009-05-07,3.348288059234619
2009-05-08,3.468782424926758
2009-05-11,3.399406909942627
2009-05-12,3.3154258728027344
2009-05-13,3.2022342681884766
2009-05-14,3.1511142253875732
2009-05-15,3.147463083267212
2009-05-18,3.3081235885620117
2009-05-19,3.3008205890655518
2009-05-20,3.2971696853637695
2009-05-21,3.384800910949707
2009-05-22,3.2497003078460693
2009-05-26,3.392103672027588
2009-05-27,3.2716095447540283
2009-05-28,3.191279649734497
2009-05-29,3.2131893634796143
2009-06-01,3.454177141189575
2009-06-02,3.4833874702453613
2009-06-03,3.54911208152771
2009-06-04,3.110949754714966
2009-06-05,3.1036486625671387
2009-06-08,3.143812894821167
2009-06-09,3.2131893634796143
2009-06-10,3.2058849334716797
2009-06-11,3.1401619911193848
2009-06-12,3.1219043731689453
2009-06-15,2.986804246902466
2009-06-16,2.928382635116577
2009-06-17,2.8590073585510254
2009-06-18,2.8772637844085693
2009-06-19,2.9320337772369385
2009-06-22,2.8261446952819824
2009-06-23,2.833446741104126
2009-06-24,2.851703405380249
2009-06-25,2.8663103580474854
2009-06-26,2.9393367767333984
2009-06-29,2.9904561042785645
2009-06-30,2.95394229888916
2009-07-01,3.0379233360290527
2009-07-02,2.9904561042785645
2009-07-06,2.9831535816192627
2009-07-07,2.9393367767333984
2009-07-08,2.928382635116577
2009-07-09,2.9831535816192627
2009-07-10,3.056180238723755
2009-07-13,3.1219043731689453
2009-07-14,3.158416509628296
2009-07-15,3.2131893634796143
2009-07-16,3.187628746032715
2009-07-17,3.209536075592041
2009-07-20,3.220491647720337
2009-07-21,3.257005453109741
2009-07-22,3.2494125366210938
2009-07-23,3.3215365409851074
2009-07-24,3.3139455318450928
2009-07-27,3.3367202281951904
2009-07-28,3.3557021617889404
2009-07-29,3.351905584335327
2009-07-30,3.3746819496154785
2009-07-31,3.4164376258850098
2009-08-03,3.3860697746276855
2009-08-04,3.443009614944458
2009-08-05,3.4278268814086914
2009-08-06,3.4771745204925537
2009-08-07,3.511338949203491
2009-08-10,3.5530953407287598
2009-08-11,3.6138315200805664
2009-08-12,3.7049362659454346
2009-08-13,3.670772075653076
2009-08-14,3.5379109382629395
2009-08-17,3.5910568237304688
2009-08-18,3.568279266357422
2009-08-19,3.617628812789917
2009-08-20,3.7391018867492676
2009-08-21,3.8377997875213623
2009-08-24,3.8150222301483154
2009-08-25,3.8150222301483154
2009-08-26,3.875758171081543
2009-08-27,3.8453900814056396
2009-08-28,3.8264102935791016
2009-08-31,3.8453900814056396
2009-09-01,3.761876106262207
2009-09-02,3.647996664047241
2009-09-03,3.7580814361572266
2009-09-04,3.666975975036621
2009-09-08,3.617628812789917
2009-09-09,3.712529420852661
2009-09-10,3.7391018867492676
2009-09-11,3.7808573246002197
2009-09-14,3.849186658859253
2009-09-15,3.8795552253723145
2009-09-16,3.9440882205963135
2009-09-17,3.8795552253723145
2009-09-18,3.9820480346679688
2009-09-21,3.940293073654175
2009-09-22,4.1376848220825195
2009-09-23,4.118706703186035
2009-09-24,3.9896392822265625
2009-09-25,4.042784214019775
2009-09-28,4.160462379455566
2009-09-29,3.8340017795562744
2009-09-30,3.974454879760742
2009-10-01,3.909923791885376
2009-10-02,3.940293073654175
2009-10-05,4.016211986541748
2009-10-06,4.130093097686768
2009-10-07,4.270548343658447
2009-10-08,4.2629547119140625
2009-10-09,4.285732269287109
2009-10-12,4.429981708526611
2009-10-13,4.429981708526611
2009-10-14,4.5059027671813965
2009-10-15,4.528677940368652
2009-10-16,4.5059027671813965
2009-10-19,4.623579025268555
2009-10-20,4.570435047149658
2009-10-21,4.379023551940918
2009-10-22,4.488399982452393
2009-10-23,4.421992778778076
2009-10-26,4.2501139640808105
2009-10-27,4.269646167755127
2009-10-28,3.988386392593384
2009-10-29,4.129016399383545
2009-10-30,3.9961986541748047
2009-11-02,3.9805753231048584
2009-11-03,3.8907289505004883
2009-11-04,4.054797649383545
2009-11-05,4.2149577140808105
2009-11-06,4.207144737243652
2009-11-09,4.37511682510376
2009-11-10,4.304803371429443
2009-11-11,4.379023551940918
2009-11-12,4.273551940917969
2009-11-13,4.320427894592285
2009-11-16,4.355584144592285
2009-11-17,4.355584144592285
2009-11-18,4.316520690917969
2009-11-19,4.2423014640808105
2009-11-20,4.289175510406494
2009-11-23,4.37511682510376
2009-11-24,4.386834621429443
2009-11-25,4.355584144592285
2009-11-27,4.218862056732178
2009-11-30,4.35167932510376
2009-12-01,4.398557186126709
2009-12-02,4.492307662963867
2009-12-03,4.36730432510376
2009-12-04,4.429805755615234
2009-12-07,4.457149505615234
2009-12-08,4.394648551940918
2009-12-09,4.449337959289551
2009-12-10,4.406367778778076
2009-12-11,4.414181232452393
2009-12-14,4.461056709289551
2009-12-15,4.320427894592285
2009-12-16,4.636842727661133
2009-12-17,4.617311477661133
2009-12-18,4.668094158172607
2009-12-21,4.75403356552124
2009-12-22,4.828253269195557
2009-12-23,5.023571968078613
2009-12-24,5.062635898590088
2009-12-28,5.082167625427246
2009-12-29,5.027477741241455
2009-12-30,5.0743536949157715
2009-12-31,4.984508037567139
2010-01-04,5.0743536949157715
2010-01-05,5.054821968078613
2010-01-06,5.0704474449157715
2010-01-07,5.0743536949157715
2010-01-08,5.101698398590088
2010-01-11,5.078261852264404
2010-01-12,5.082167625427246
2010-01-13,5.066540241241455
2010-01-14,5.03529167175293
2010-01-15,5.047010898590088
2010-01-19,5.1368536949157715
2010-01-20,5.032594680786133
2010-01-21,4.856152057647705
2010-01-22,4.832093715667725
2010-01-25,4.7960028648376465
2010-01-26,4.719812870025635
2010-01-27,4.848133563995361
2010-01-28,4.743873596191406
2010-01-29,4.699760913848877
2010-02-01,4.667683124542236
2010-02-02,4.727831840515137
2010-02-03,4.743873596191406
2010-02-04,4.711793899536133
2010-02-05,4.715803623199463
2010-02-08,4.779962539672852
2010-02-09,4.804022789001465
2010-02-10,4.872193813323975
2010-02-11,4.912293434143066
2010-02-12,4.9483842849731445
2010-02-16,5.108786106109619
2010-02-17,5.245127201080322
2010-02-18,5.209036827087402
2010-02-19,5.172945976257324
2010-02-22,5.305277347564697
2010-02-23,5.309288501739502
2010-02-24,5.349386692047119
2010-02-25,5.333346366882324
2010-02-26,5.365428924560547
2010-03-01,5.493748664855957
2010-03-02,5.598010540008545
2010-03-03,5.541869640350342
2010-03-04,5.634101390838623
2010-03-05,5.77846097946167
2010-03-08,5.8666839599609375
2010-03-09,5.545880317687988
2010-03-10,5.634101390838623
2010-03-11,5.698260307312012
2010-03-12,5.934853553771973
2010-03-15,6.0391130447387695
2010-03-16,6.111293315887451
2010-03-17,6.143375873565674
2010-03-18,6.027085781097412
2010-03-19,6.019063472747803
2010-03-22,6.159416675567627
2010-03-23,6.331847190856934
2010-03-24,6.311799049377441
2010-03-25,6.251646995544434
2010-03-26,6.183475971221924
2010-03-29,6.139365196228027
2010-03-30,6.079214572906494
2010-03-31,6.119314670562744
2010-04-01,6.095253944396973
2010-04-05,6.3358564376831055
2010-04-06,6.396007061004639
2010-04-07,6.303778648376465
2010-04-08,6.440115928649902
2010-04-09,6.311799049377441
2010-04-12,6.472198963165283
2010-04-13,5.999014854431152
2010-04-14,5.990993976593018
2010-04-15,5.995003700256348
2010-04-16,5.9148030281066895
2010-04-19,6.011045932769775
2010-04-20,6.055154323577881
2010-04-21,6.120793342590332
2010-04-22,6.211045742034912
2010-04-23,6.317708492279053
2010-04-26,6.264377117156982
2010-04-27,6.055155277252197
2010-04-28,6.092076778411865
2010-04-29,6.21925163269043
2010-04-30,5.9813103675842285
2010-05-03,5.997720718383789
2010-05-04,5.694141387939453
2010-05-05,5.61619758605957
2010-05-06,5.505430698394775
2010-05-07,5.382359027862549
2010-05-10,5.566965579986572
2010-05-11,5.735165596008301
2010-05-12,6.0961785316467285
2010-05-13,6.071564674377441
2010-05-14,6.022335052490234
2010-05-17,6.087972640991211
2010-05-18,5.932082176208496
2010-05-19,5.858237266540527
2010-05-20,5.57517147064209
2010-05-21,5.587479114532471
2010-05-24,5.562866687774658
2010-05-25,5.657222270965576
2010-05-26,5.5177388191223145
2010-05-27,5.837728023529053
2010-05-28,5.915673732757568
2010-06-01,5.681835174560547
2010-06-02,5.854136943817139
2010-06-03,5.944389343261719
2010-06-04,5.677732467651367
2010-06-07,5.55876350402832
2010-06-08,5.497226238250732
2010-06-09,5.427485942840576
2010-06-10,5.620298862457275
2010-06-11,5.8295207023620605
2010-06-14,5.780294418334961
2010-06-15,6.0100274085998535
2010-06-16,5.985413074493408
2010-06-17,5.911569595336914
2010-06-18,5.907465934753418
2010-06-21,5.841830253601074
2010-06-22,5.784395694732666
2010-06-23,5.804906845092773
2010-06-24,5.698243618011475
2010-06-25,5.821317672729492
2010-06-28,5.804906845092773
2010-06-29,5.468510150909424
2010-06-30,5.50132942199707
2010-07-01,5.464407920837402
2010-07-02,5.579275131225586
2010-07-06,5.386462211608887
2010-07-07,5.509535789489746
2010-07-08,5.628504753112793
2010-07-09,5.788496971130371
2010-07-12,5.850034236907959
2010-07-13,6.07976770401001
2010-07-14,6.0305399894714355
2010-07-15,5.9813103675842285
2010-07-16,5.7720866203308105
2010-07-19,5.845930099487305
2010-07-20,5.936185836791992
2010-07-21,5.814352035522461
2010-07-22,6.074821472167969
2010-07-23,6.2428669929504395
2010-07-26,6.2428669929504395
2010-07-27,6.289078712463379
2010-07-28,6.217659950256348
2010-07-29,6.289078712463379
2010-07-30,6.331089973449707
2010-08-02,6.34789514541626
2010-08-03,6.297482490539551
2010-08-04,6.326887607574463
2010-08-05,6.272273063659668
2010-08-06,6.221861362457275
2010-08-09,6.364699363708496
2010-08-10,6.2134575843811035
2010-08-11,5.931983470916748
2010-08-12,5.944584846496582
2010-08-13,5.944584846496582
2010-08-16,5.9193806648254395
2010-08-17,6.100030422210693
2010-08-18,6.184051513671875
2010-08-19,5.9151787757873535
2010-08-20,5.898373126983643
2010-08-23,5.8437604904174805
2010-08-24,5.9193806648254395
2010-08-25,5.986597537994385
2010-08-26,5.902576923370361
2010-08-27,6.112630844116211
2010-08-30,5.898373126983643
2010-08-31,5.957190036773682
2010-09-01,6.179850101470947
2010-09-02,6.192452907562256
2010-09-03,6.2764763832092285
2010-09-07,6.175648212432861
2010-09-08,6.247066497802734
2010-09-09,6.305882930755615
2010-09-10,6.326887607574463
2010-09-13,6.406709671020508
2010-09-14,6.259670257568359
2010-09-15,6.263870716094971
2010-09-16,6.2764763832092285
2010-09-17,6.431916236877441
2010-09-20,6.59996223449707
2010-09-21,6.578957557678223
2010-09-22,6.52433967590332
2010-09-23,6.431916236877441
2010-09-24,6.612566947937012
2010-09-27,6.608363151550293
2010-09-28,6.721792697906494
2010-09-29,6.76380729675293
2010-09-30,6.789012908935547
2010-10-01,6.8436279296875
2010-10-04,6.759605407714844
2010-10-05,6.978062629699707
2010-10-06,7.0620832443237305
2010-10-07,7.045283317565918
2010-10-08,7.1377058029174805
2010-10-11,7.204925060272217
2010-10-12,7.213326454162598
2010-10-13,7.326756477355957
2010-10-14,7.335156440734863
2010-10-15,7.3855695724487305
2010-10-18,7.570419788360596
2010-10-19,7.33095645904541
2010-10-20,7.1852827072143555
2010-10-21,7.0053253173828125
2010-10-22,6.9753336906433105
2010-10-25,7.103872776031494
2010-10-26,7.155289649963379
2010-10-27,7.1852827072143555
2010-10-28,7.202416896820068
2010-10-29,7.309532165527344
2010-11-01,7.125293254852295
2010-11-02,7.262402057647705
2010-11-03,7.37808895111084
2010-11-04,7.592315673828125
2010-11-05,7.60945463180542
2010-11-08,7.549471855163574
2010-11-09,7.34809684753418
2010-11-10,7.476633071899414
2010-11-11,7.622308254241943
2010-11-12,7.1852827072143555
2010-11-15,7.22812557220459
2010-11-16,7.091018199920654
2010-11-17,7.078165054321289
2010-11-18,7.116726875305176
2010-11-19,7.163854598999023
2010-11-22,7.159572124481201
2010-11-23,7.043890476226807
2010-11-24,7.1981329917907715
2010-11-26,7.1852827072143555
2010-11-29,7.210987091064453
2010-11-30,7.11244010925293
2010-12-01,7.1981329917907715
2010-12-02,7.253833770751953
2010-12-03,7.279542922973633
2010-12-06,7.279542922973633
2010-12-07,7.2838263511657715
2010-12-08,7.335242748260498
2010-12-09,7.339524745941162
2010-12-10,7.468064308166504
2010-12-13,7.468064308166504
2010-12-14,7.618025779724121
2010-12-15,7.450925350189209
2010-12-16,7.38237190246582
2010-12-17,7.232411861419678
2010-12-20,7.202416896820068
2010-12-21,7.343810558319092
2010-12-22,7.343810558319092
2010-12-23,7.429500102996826
2010-12-27,7.498056888580322
2010-12-28,7.4809160232543945
2010-12-29,7.549471855163574
2010-12-30,7.626591205596924
2010-12-31,7.579463481903076
2011-01-03,7.652301788330078
2011-01-04,7.463780403137207
2011-01-05,7.656587600708008
2011-01-06,7.742278575897217
2011-01-07,7.746562480926514
2011-01-10,7.810831069946289
2011-01-11,7.84939432144165
2011-01-12,7.905094623565674
2011-01-13,7.866532802581787
2011-01-14,7.926516532897949
2011-01-18,7.8879547119140625
2011-01-19,7.67405891418457
2011-01-20,7.503818988800049
2011-01-21,7.560564041137695
2011-01-24,7.630404949188232
2011-01-25,7.604214191436768
2011-01-26,7.669691562652588
2011-01-27,7.678424835205078
2011-01-28,7.486356735229492
2011-01-31,7.538736343383789
2011-02-01,7.70025110244751
2011-02-02,7.7700934410095215
2011-02-03,7.669691562652588
2011-02-04,7.6958842277526855
2011-02-07,7.778822898864746
2011-02-08,7.818109512329102
2011-02-09,7.761363506317139
2011-02-10,7.704614639282227
2011-02-11,7.813746929168701
2011-02-14,7.835573673248291
2011-02-15,7.7962822914123535
2011-02-16,7.861763000488281
2011-02-17,7.866129398345947
2011-02-18,7.298649311065674
2011-02-22,7.141499996185303
2011-02-23,6.77918815612793
2011-02-24,6.888319969177246
2011-02-25,7.019274711608887
2011-02-28,7.076023101806641
2011-03-01,6.936336040496826
2011-03-02,6.892683982849121
2011-03-03,7.084754943847656
2011-03-04,6.984353542327881
2011-03-07,6.735536098480225
2011-03-08,6.840301513671875
2011-03-09,6.7573628425598145
2011-03-10,6.569657802581787
2011-03-11,6.674422740936279
2011-03-14,6.639500141143799
2011-03-15,6.630769729614258
2011-03-16,6.569657802581787
2011-03-17,6.4561614990234375
2011-03-18,6.438701152801514
2011-03-21,6.591484069824219
2011-03-22,6.608944416046143
2011-03-23,6.626406669616699
2011-03-24,6.6613287925720215
2011-03-25,6.59426736831665
2011-03-28,6.482499122619629
2011-03-29,6.504854202270508
2011-03-30,6.486970901489258
2011-03-31,6.589798927307129
2011-04-01,6.625563144683838
2011-04-04,6.692622184753418
2011-04-05,6.670269012451172
2011-04-06,6.683682441711426
2011-04-07,6.706035137176514
2011-04-08,6.683682441711426
2011-04-11,6.638975620269775
2011-04-12,6.634501934051514
2011-04-13,6.567442417144775
2011-04-14,6.692622184753418
2011-04-15,6.759684085845947
2011-04-18,6.701565265655518
2011-04-19,6.7239179611206055
2011-04-20,6.817802429199219
2011-04-21,6.858039379119873
2011-04-25,7.175455093383789
2011-04-26,7.184398174285889
2011-04-27,7.327460289001465
2011-04-28,7.4571123123168945
2011-04-29,7.492877006530762
2011-05-02,7.1352219581604
2011-05-03,7.162045478820801
2011-05-04,7.153103828430176
2011-05-05,6.974276065826416
2011-05-06,7.0726318359375
2011-05-09,7.1352219581604
2011-05-10,7.430285930633545
2011-05-11,7.309577465057373
2011-05-12,7.474993705749512
2011-05-13,7.2872233390808105
2011-05-16,7.260397434234619
2011-05-17,6.889332294464111
2011-05-18,7.001100540161133
2011-05-19,7.117338180541992
2011-05-20,7.11286735534668
2011-05-23,7.121809482574463
2011-05-24,7.0145111083984375
2011-05-25,6.983216285705566
2011-05-26,6.898273944854736
2011-05-27,6.87592077255249
2011-05-31,6.978744983673096
2011-06-01,6.714977264404297
2011-06-02,6.764153003692627
2011-06-03,6.737330913543701
2011-06-06,6.77309513092041
2011-06-07,6.826741695404053
2011-06-08,6.790977954864502
2011-06-09,6.880392074584961
2011-06-10,6.7239179611206055
2011-06-13,6.871451377868652
2011-06-14,7.032393455505371
2011-06-15,6.938510894775391
2011-06-16,7.041337013244629
2011-06-17,7.09498405456543
2011-06-20,7.144161701202393
2011-06-21,7.246988773345947
2011-06-22,7.327460289001465
2011-06-23,7.2291059494018555
2011-06-24,7.184398174285889
2011-06-27,7.251460075378418
2011-06-28,7.291696071624756
2011-06-29,7.340872287750244
2011-06-30,7.372166633605957
2011-07-01,7.479463577270508
2011-07-05,7.416874408721924
2011-07-06,7.577817916870117
2011-07-07,7.6895856857299805
2011-07-08,7.747705459594727
2011-07-11,7.631464004516602
2011-07-12,7.600173473358154
2011-07-13,7.622522830963135
2011-07-14,7.609112739562988
2011-07-15,7.626996994018555
2011-07-18,7.300636291503906
2011-07-19,7.433207988739014
2011-07-20,7.309780120849609
2011-07-21,7.456064224243164
2011-07-22,7.414923191070557
2011-07-25,7.282350540161133
2011-07-26,7.158921241760254
2011-07-27,6.953202724456787
2011-07-28,6.930347442626953
2011-07-29,6.843490123748779
2011-08-01,6.9577789306640625
2011-08-02,6.733772277832031
2011-08-03,6.889204025268555
2011-08-04,6.60120153427124
2011-08-05,6.422912120819092
2011-08-08,5.810338020324707
2011-08-09,5.613765239715576
2011-08-10,5.238903999328613
2011-08-11,5.645763874053955
2011-08-12,5.526905059814453
2011-08-15,5.782908916473389
2011-08-16,5.805764675140381
2011-08-17,5.888052463531494
2011-08-18,5.6000494956970215
2011-08-19,5.453763484954834
2011-08-22,5.435478210449219
2011-08-23,5.71433687210083
2011-08-24,5.819479465484619
2011-08-25,5.7234787940979
2011-08-26,5.924623966217041
2011-08-29,6.281198501586914
2011-08-30,6.281198501586914
2011-08-31,6.2720537185668945
2011-09-01,6.057196140289307
2011-09-02,5.805764675140381
2011-09-06,5.773765563964844
2011-09-07,5.974909782409668
2011-09-08,5.810338020324707
2011-09-09,5.595477104187012
2011-09-12,5.7051920890808105
2011-09-13,5.755479335784912
2011-09-14,5.878909111022949
2011-09-15,5.970338821411133
2011-09-16,5.920052528381348
2011-09-19,5.778336524963379
2011-09-20,5.700622081756592
2011-09-21,5.568049907684326
2011-09-22,5.394333362579346
2011-09-23,5.568049907684326
2011-09-26,5.700622081756592
2011-09-27,5.773765563964844
2011-09-28,5.481191635131836
2011-09-29,5.70976448059082
2011-09-30,5.568049907684326
2011-10-03,5.261760711669922
2011-10-04,5.76919412612915
2011-10-05,5.595477104187012
2011-10-06,5.5360493659973145
2011-10-07,5.430904865264893
2011-10-10,5.6869072914123535
2011-10-11,5.915480613708496
2011-10-12,6.006909370422363
2011-10-13,6.061768054962158
2011-10-14,6.25377082824707
2011-10-17,6.070910930633545
2011-10-18,6.322340965270996
2011-10-19,6.235483646392822
2011-10-20,6.326913356781006
2011-10-21,6.2565107345581055
2011-10-24,6.284670829772949
2011-10-25,6.172027111053467
2011-10-26,6.261205196380615
2011-10-27,6.4958815574646
2011-10-28,6.336300849914551
2011-10-31,6.129784107208252
2011-11-01,5.885720252990723
2011-11-02,6.02183198928833
2011-11-03,6.242429733276367
2011-11-04,6.186107635498047
2011-11-07,6.157945156097412
2011-11-08,6.1626386642456055
2011-11-09,5.89979887008667
2011-11-10,5.923269271850586
2011-11-11,5.970203876495361
2011-11-14,5.918573379516602
2011-11-15,6.0546875
2011-11-16,5.998363971710205
2011-11-17,5.85286283493042
2011-11-18,5.8387837409973145
2011-11-21,5.693282604217529
2011-11-22,5.557168483734131
2011-11-23,5.38350772857666
2011-11-25,5.280249118804932
2011-11-28,5.547784328460693
2011-11-29,5.566557884216309
2011-11-30,6.01713752746582
2011-12-01,5.8387837409973145
2011-12-02,5.890415191650391
2011-12-05,5.951430797576904
2011-12-06,5.965509414672852
2011-12-07,5.904494762420654
2011-12-08,5.688589096069336
2011-12-09,5.881025791168213
2011-12-12,5.7402191162109375
2011-12-13,5.636960506439209
2011-12-14,5.693282604217529
2011-12-15,5.6228814125061035
2011-12-16,5.632267475128174
2011-12-19,5.575943470001221
2011-12-20,5.791848182678223
2011-12-21,5.857555389404297
2011-12-22,5.9091877937316895
2011-12-23,5.9795918464660645
2011-12-27,6.007750511169434
2011-12-28,5.871637344360352
2011-12-29,5.937347888946533
2011-12-30,5.8153157234191895
2012-01-03,6.026525974273682
2012-01-04,6.143864154815674
2012-01-05,6.228349685668945
2012-01-06,6.392623424530029
2012-01-09,6.4583330154418945
2012-01-10,6.585057258605957
2012-01-11,6.707091331481934
2012-01-12,6.749333381652832
2012-01-13,6.72117280960083
2012-01-17,6.693012237548828
2012-01-18,6.843204021453857
2012-01-19,6.852828502655029
2012-01-20,6.881702423095703
2012-01-23,6.73252010345459
2012-01-24,6.828768730163574
2012-01-25,6.838393211364746
2012-01-26,6.872076511383057
2012-01-27,6.939451217651367
2012-01-30,6.838393211364746
2012-01-31,6.746957778930664
2012-02-01,6.987575531005859
2012-02-02,6.8480143547058105
2012-02-03,7.136760711669922
2012-02-06,7.127134799957275
2012-02-07,7.2041335105896
2012-02-08,7.2041335105896
2012-02-09,7.213759899139404
2012-02-10,7.079011917114258
2012-02-13,7.343689441680908
2012-02-14,7.24263334274292
2012-02-15,7.069386959075928
2012-02-16,7.29556941986084
2012-02-17,7.415877342224121
2012-02-21,7.271505355834961
2012-02-22,7.079011917114258
2012-02-23,7.319629669189453
2012-02-24,7.194509029388428
2012-02-27,7.300380706787109
2012-02-28,7.300380706787109
2012-02-29,7.184884071350098
2012-03-01,7.146386623382568
2012-03-02,6.9346394538879395
2012-03-05,6.987575531005859
2012-03-06,6.771018981933594
2012-03-07,6.929825305938721
2012-03-08,6.91057825088501
2012-03-09,7.002013206481934
2012-03-12,6.881702423095703
2012-03-13,7.16082239151001
2012-03-14,6.953888416290283
2012-03-15,7.002013206481934
2012-03-16,7.059762477874756
2012-03-19,7.213759899139404
2012-03-20,7.175259113311768
2012-03-21,7.131947040557861
2012-03-22,7.170447826385498
2012-03-23,7.338878154754639
2012-03-26,7.391817092895508
2012-03-27,7.218570709228516
2012-03-28,7.22819709777832
2012-03-29,7.093446731567383
2012-03-30,7.117511749267578
2012-04-02,7.285942077636719
2012-04-03,7.1078877449035645
2012-04-04,7.151196002960205
2012-04-05,7.131947040557861
2012-04-09,7.006824016571045
2012-04-10,6.85764217376709
2012-04-11,7.074200630187988
2012-04-12,7.170447826385498
2012-04-13,6.997199535369873
2012-04-16,7.093446731567383
2012-04-17,7.22819709777832
2012-04-18,7.213759899139404
2012-04-19,7.276317596435547
2012-04-20,7.271389007568359
2012-04-23,7.059408664703369
2012-04-24,7.162934303283691
2012-04-25,7.241811275482178
2012-04-26,7.335476875305176
2012-04-27,7.350266456604004
2012-04-30,7.236879348754883
2012-05-01,7.246741771697998
2012-05-02,7.054481029510498
2012-05-03,6.9115190505981445
2012-05-04,6.832640171051025
2012-05-07,6.807992935180664
2012-05-08,6.7439069747924805
2012-05-09,6.600940704345703
2012-05-10,6.398823261260986
2012-05-11,6.374173641204834
2012-05-14,6.211493015289307
2012-05-15,6.216423034667969
2012-05-16,6.17205286026001
2012-05-17,6.058669090270996
2012-05-18,5.99951171875
2012-05-21,6.236140727996826
2012-05-22,6.290369510650635
2012-05-23,6.388962268829346
2012-05-24,6.482628345489502
2012-05-25,6.467840194702148
2012-05-29,6.4727702140808105
2012-05-30,6.423470973968506
2012-05-31,6.467840194702148
2012-06-01,6.22135066986084
2012-06-04,6.1967010498046875
2012-06-05,6.275578022003174
2012-06-06,6.517136573791504
2012-06-07,6.176982402801514
2012-06-08,6.226281642913818
2012-06-11,6.063600540161133
2012-06-12,6.117826461791992
2012-06-13,6.1572651863098145
2012-06-14,6.132615089416504
2012-06-15,6.206562519073486
2012-06-18,6.260788917541504
2012-06-19,6.285439491271973
2012-06-20,6.369243144989014
2012-06-21,6.098108291625977
2012-06-22,6.324877738952637
2012-06-25,6.492487907409668
2012-06-26,6.58122444152832
2012-06-27,6.635451793670654
2012-06-28,6.822781562805176
2012-06-29,6.881939888000488
2012-07-02,6.975604057312012
2012-07-03,6.92630672454834
2012-07-05,6.921374320983887
2012-07-06,6.936164855957031
2012-07-09,7.019969940185547
2012-07-10,6.941094398498535
2012-07-11,6.990392684936523
2012-07-12,7.049551963806152
2012-07-13,7.108709335327148
2012-07-16,7.084057331085205
2012-07-17,7.133355140686035
2012-07-18,7.22702169418335
2012-07-19,7.143215179443359
2012-07-20,7.138160228729248
2012-07-23,7.072439193725586
2012-07-24,7.026942253112793
2012-07-25,7.021886825561523
2012-07-26,7.001665115356445
2012-07-27,7.001665115356445
2012-07-30,7.097715854644775
2012-07-31,6.986498832702637
2012-08-01,7.037053108215332
2012-08-02,7.047162055969238
2012-08-03,7.163437843322754
2012-08-06,7.138160228729248
2012-08-07,7.183657169342041
2012-08-08,7.213991641998291
2012-08-09,7.24432373046875
2012-08-10,7.229157447814941
2012-08-13,7.340373992919922
2012-08-14,7.3858723640441895
2012-08-15,7.401041030883789
2012-08-16,7.3707075119018555
2012-08-17,7.350484848022461
2012-08-20,7.340373992919922
2012-08-21,7.304986953735352
2012-08-22,7.315097808837891
2012-08-23,7.289821624755859
2012-08-24,7.360595226287842
2012-08-27,7.3656511306762695
2012-08-28,7.375761985778809
2012-08-29,7.395981788635254
2012-08-30,7.375761985778809
2012-08-31,7.43642520904541
2012-09-04,7.451590538024902
2012-09-05,7.3858723640441895
2012-09-06,7.486979961395264
2012-09-07,7.577977657318115
2012-09-10,7.583032608032227
2012-09-11,7.517313480377197
2012-09-12,7.547644138336182
2012-09-13,7.603252410888672
2012-09-14,7.638641834259033
2012-09-17,7.679082870483398
2012-09-18,7.401041030883789
2012-09-19,7.53247594833374
2012-09-20,7.542588233947754
2012-09-21,7.517313480377197
2012-09-24,7.53247594833374
2012-09-25,7.411149024963379
2012-09-26,7.3858723640441895
2012-09-27,7.486979961395264
2012-09-28,7.471813201904297
2012-10-01,7.471813201904297
2012-10-02,7.51225471496582
2012-10-03,7.572919845581055
2012-10-04,7.583032608032227
2012-10-05,7.5880866050720215
2012-10-08,7.567865371704102
2012-10-09,7.471813201904297
2012-10-10,7.53247594833374
2012-10-11,7.633586406707764
2012-10-12,7.638641834259033
2012-10-15,7.633586406707764
2012-10-16,7.759969711303711
2012-10-17,7.800411701202393
2012-10-18,7.840855121612549
2012-10-19,7.876245021820068
2012-10-22,7.741694927215576
2012-10-23,7.49329948425293
2012-10-24,7.555397033691406
2012-10-25,7.555397033691406
2012-10-26,7.451897621154785
2012-10-31,7.451897621154785
2012-11-01,7.591619491577148
2012-11-02,7.513997554779053
2012-11-05,7.477771759033203
2012-11-06,7.477771759033203
2012-11-07,7.379448890686035
2012-11-08,7.203502178192139
2012-11-09,7.177628517150879
2012-11-12,7.22937536239624
2012-11-13,7.244900226593018
2012-11-14,6.996503829956055
2012-11-15,7.244900226593018
2012-11-16,7.3121747970581055
2012-11-19,7.322525501251221
2012-11-20,7.270775318145752
2012-11-21,7.255251884460449
2012-11-23,7.338048934936523
2012-11-26,7.3328752517700195
2012-11-27,7.296649932861328
2012-11-28,7.281124591827393
2012-11-29,7.369096755981445
2012-11-30,7.307001113891602
2012-12-03,7.291477203369141
2012-12-04,7.244900226593018
2012-12-05,7.162101745605469
2012-12-06,7.234549045562744
2012-12-07,7.30182409286499
2012-12-10,7.224201202392578
2012-12-11,7.239724636077881
2012-12-12,7.250075340270996
2012-12-13,7.234549045562744
2012-12-14,7.193151473999023
2012-12-17,7.224201202392578
2012-12-18,7.400148391723633
2012-12-19,7.5088210105896
2012-12-20,7.607147693634033
2012-12-21,7.477771759033203
2012-12-24,7.410498142242432
2012-12-26,7.37427282333374
2012-12-27,7.4208478927612305
2012-12-28,7.451897621154785
2012-12-31,7.612318515777588
2013-01-02,7.7468695640563965
2013-01-03,7.777919292449951
2013-01-04,7.78826904296875
2013-01-07,7.783092498779297
2013-01-08,7.824492454528809
2013-01-09,7.81414270401001
2013-01-10,7.933166027069092
2013-01-11,7.933166027069092
2013-01-14,8.015963554382324
2013-01-15,8.129815101623535
2013-01-16,8.088414192199707
2013-01-17,8.155689239501953
2013-01-18,8.171213150024414
2013-01-22,8.37303352355957
2013-01-23,8.34128189086914
2013-01-24,8.246011734008789
2013-01-25,8.26188850402832
2013-01-28,8.346573829650879
2013-01-29,8.335987091064453
2013-01-30,8.304229736328125
2013-01-31,8.37303352355957
2013-02-01,8.447132110595703
2013-02-04,8.41008472442627
2013-02-05,8.346573829650879
2013-02-06,8.394206047058105
2013-02-07,8.346573829650879
2013-02-08,8.203667640686035
2013-02-11,8.34128189086914
2013-02-12,8.293645858764648
2013-02-13,8.320108413696289
2013-02-14,8.37303352355957
2013-02-15,8.346573829650879
2013-02-19,8.441839218139648
2013-02-20,8.325399398803711
2013-02-21,8.22484016418457
2013-02-22,8.214256286621094
2013-02-25,8.18249797821045
2013-02-26,8.203667640686035
2013-02-27,8.22484016418457
2013-02-28,8.203667640686035
2013-03-01,8.330694198608398
2013-03-04,8.41008472442627
2013-03-05,8.330694198608398
2013-03-06,8.298935890197754
2013-03-07,8.3518648147583
2013-03-08,8.288352012634277
2013-03-11,8.298935890197754
2013-03-12,8.187790870666504
2013-03-13,8.156035423278809
2013-03-14,8.208962440490723
2013-03-15,7.9919610023498535
2013-03-18,8.118985176086426
2013-03-19,8.145448684692383
2013-03-20,8.283059120178223
2013-03-21,8.230134963989258
2013-03-22,8.288352012634277
2013-03-25,8.325399398803711
2013-03-26,8.378329277038574
2013-03-27,8.325399398803711
2013-03-28,8.399497985839844
2013-04-01,8.399497985839844
2013-04-02,8.489477157592773
2013-04-03,8.320108413696289
2013-04-04,8.52652359008789
2013-04-05,8.473596572875977
2013-04-08,8.494766235351562
2013-04-09,8.60062313079834
2013-04-10,8.754107475280762
2013-04-11,8.685304641723633
2013-04-12,8.77527904510498
2013-04-15,8.71176528930664
2013-04-16,8.891716957092285
2013-04-17,8.902305603027344
2013-04-18,8.865257263183594
2013-04-19,8.821982383728027
2013-04-22,8.892300605773926
2013-04-23,8.957207679748535
2013-04-24,8.978843688964844
2013-04-25,9.027522087097168
2013-04-26,9.07620620727539
2013-04-29,9.119475364685059
2013-04-30,9.14652156829834
2013-05-01,8.94097900390625
2013-05-02,8.962615966796875
2013-05-03,9.059978485107422
2013-05-06,9.162748336791992
2013-05-07,9.243882179260254
2013-05-08,9.454830169677734
2013-05-09,9.525145530700684
2013-05-10,9.644143104553223
2013-05-13,9.730687141418457
2013-05-14,9.644143104553223
2013-05-15,9.53055477142334
2013-05-16,9.525145530700684
2013-05-17,9.606278419494629
2013-05-20,9.579235076904297
2013-05-21,9.57382583618164
2013-05-22,9.508918762207031
2013-05-23,9.498099327087402
2013-05-24,9.498099327087402
2013-05-28,9.416967391967773
2013-05-29,9.330423355102539
2013-05-30,9.335833549499512
2013-05-31,9.330423355102539
2013-06-03,9.37369441986084
2013-06-04,9.362879753112793
2013-06-05,8.957207679748535
2013-06-06,9.038342475891113
2013-06-07,9.216836929321289
2013-06-10,9.265519142150879
2013-06-11,9.130292892456055
2013-06-12,9.119475364685059
2013-06-13,9.281742095947266
2013-06-14,9.249289512634277
2013-06-17,9.341241836547852
2013-06-18,9.308789253234863
2013-06-19,9.249289512634277
2013-06-20,9.00588607788086
2013-06-21,9.119475364685059
2013-06-24,9.049160957336426
2013-06-25,9.292562484741211
2013-06-26,9.281742095947266
2013-06-27,9.281742095947266
2013-06-28,9.481873512268066
2013-07-01,9.389924049377441
2013-07-02,9.37369441986084
2013-07-03,9.330423355102539
2013-07-05,9.395333290100098
2013-07-08,9.552192687988281
2013-07-09,9.709051132202148
2013-07-10,9.7252779006958
2013-07-11,10.006542205810547
2013-07-12,10.130949020385742
2013-07-15,10.071450233459473
2013-07-16,9.995726585388184
2013-07-17,10.05522346496582
2013-07-18,10.109312057495117
2013-07-19,10.015552520751953
2013-07-22,9.993494987487793
2013-07-23,9.949374198913574
2013-07-24,9.783914566040039
2013-07-25,9.767370223999023
2013-07-26,9.601917266845703
2013-07-29,9.513671875
2013-07-30,9.77288818359375
2013-07-31,9.723249435424805
2013-08-01,9.965917587280273
2013-08-02,9.938343048095703
2013-08-05,9.982464790344238
2013-08-06,9.894219398498535
2013-08-07,9.982464790344238
2013-08-08,9.960403442382812
2013-08-09,10.010038375854492
2013-08-12,9.938343048095703
2013-08-13,9.73979663848877
2013-08-14,9.783914566040039
2013-08-15,9.67912769317627
2013-08-16,9.601917266845703
2013-08-19,9.38131332397461
2013-08-20,9.541250228881836
2013-08-21,9.519187927246094
2013-08-22,9.607429504394531
2013-08-23,9.5743408203125
2013-08-26,9.59639835357666
2013-08-27,9.513671875
2013-08-28,9.541250228881836
2013-08-29,9.612948417663574
2013-08-30,9.530219078063965
2013-09-03,9.657066345214844
2013-09-04,9.706704139709473
2013-09-05,9.73427963256836
2013-09-06,9.756338119506836
2013-09-09,9.80046272277832
2013-09-10,9.805976867675781
2013-09-11,9.723249435424805
2013-09-12,9.73979663848877
2013-09-13,9.85010051727295
2013-09-16,9.80046272277832
2013-09-17,9.85010051727295
2013-09-18,9.872160911560059
2013-09-19,9.844583511352539
2013-09-20,9.79494571685791
2013-09-23,9.866644859313965
2013-09-24,9.844583511352539
2013-09-25,9.910765647888184
2013-09-26,9.839068412780762
2013-09-27,9.855613708496094
2013-09-30,9.828038215637207
2013-10-01,9.822522163391113
2013-10-02,9.695672035217285
2013-10-03,9.651554107666016
2013-10-04,9.66258430480957
2013-10-07,9.68464183807373
2013-10-08,9.63500690460205
2013-10-09,9.607429504394531
2013-10-10,9.844583511352539
2013-10-11,9.883187294006348
2013-10-14,9.971433639526367
2013-10-15,10.004523277282715
2013-10-16,10.125860214233398
2013-10-17,10.21410083770752
2013-10-18,10.451251983642578
2013-10-21,10.406277656555176
2013-10-22,10.732351303100586
2013-10-23,10.788572311401367
2013-10-24,10.737972259521484
2013-10-25,10.766083717346191
2013-10-28,10.68737506866455
2013-10-29,10.788572311401367
2013-10-30,10.794193267822266
2013-10-31,10.782952308654785
2013-11-01,10.681754112243652
2013-11-04,10.676131248474121
2013-11-05,10.507472038269043
2013-11-06,10.468118667602539
2013-11-07,10.366924285888672
2013-11-08,10.619913101196289
2013-11-11,10.558072090148926
2013-11-12,10.389413833618164
2013-11-13,10.372544288635254
2013-11-14,10.389413833618164
2013-11-15,10.383790969848633
2013-11-18,10.372544288635254
2013-11-19,10.338813781738281
2013-11-20,10.372544288635254
2013-11-21,10.456873893737793
2013-11-22,10.636778831481934
2013-11-25,10.625533103942871
2013-11-26,10.642399787902832
2013-11-27,10.681754112243652
2013-11-29,10.732351303100586
2013-12-02,10.737972259521484
2013-12-03,10.72110652923584
2013-12-04,10.743596076965332
2013-12-05,10.681754112243652
2013-12-06,10.766083717346191
2013-12-09,10.580558776855469
2013-12-10,10.704243659973145
2013-12-11,10.541206359863281
2013-12-12,10.507472038269043
2013-12-13,10.58617877960205
2013-12-16,10.603045463562012
2013-12-17,10.552451133728027
2013-12-18,10.591800689697266
2013-12-19,10.507472038269043
2013-12-20,10.51309585571289
2013-12-23,10.496228218078613
2013-12-24,10.524338722229004
2013-12-26,10.541206359863281
2013-12-27,10.867278099060059
2013-12-30,10.670509338378906
2013-12-31,11.03593635559082
2014-01-02,10.805436134338379
2014-01-03,10.867278099060059
2014-01-06,10.872900009155273
2014-01-07,10.951607704162598
2014-01-08,10.782952308654785
2014-01-09,10.822303771972656
2014-01-10,10.794193267822266
2014-01-13,10.766083717346191
2014-01-14,10.805436134338379
2014-01-15,10.850409507751465
2014-01-16,10.996583938598633
2014-01-17,11.069671630859375
2014-01-21,11.075396537780762
2014-01-22,10.972314834594727
2014-01-23,10.86351203918457
2014-01-24,10.6573486328125
2014-01-27,10.33665657043457
2014-01-28,10.422554969787598
2014-01-29,10.004508018493652
2014-01-30,10.30229663848877
2014-01-31,10.279388427734375
2014-02-03,10.015962600708008
2014-02-04,9.99305534362793
2014-02-05,9.975874900817871
2014-02-06,10.015962600708008
2014-02-07,10.0961332321167
2014-02-10,10.124768257141113
2014-02-11,10.124768257141113
2014-02-12,10.382471084594727
2014-02-13,10.4282808303833
2014-02-14,10.565722465515137
2014-02-18,10.617263793945312
2014-02-19,10.508455276489258
2014-02-20,10.634443283081055
2014-02-21,10.594353675842285
2014-02-24,10.554267883300781
2014-02-25,10.502729415893555
2014-02-26,10.628714561462402
2014-02-27,10.88068962097168
2014-02-28,10.731796264648438
2014-03-03,10.708890914916992
2014-03-04,10.617263793945312
2014-03-05,10.565722465515137
2014-03-06,10.514183044433594
2014-03-07,10.554267883300781
2014-03-10,10.456915855407715
2014-03-11,10.491273880004883
2014-03-12,10.199216842651367
2014-03-13,10.319473266601562
2014-03-14,10.22212028503418
2014-03-17,10.164855003356934
2014-03-18,10.187764167785645
2014-03-19,10.30229663848877
2014-03-20,10.348109245300293
2014-03-21,10.29656982421875
2014-03-24,10.497001647949219
2014-03-25,10.542814254760742
2014-03-26,10.69743537902832
2014-03-27,10.760429382324219
2014-03-28,10.743247985839844
2014-03-31,10.829148292541504
2014-04-01,10.817697525024414
2014-04-02,10.811967849731445
2014-04-03,10.731796264648438
2014-04-04,10.542814254760742
2014-04-07,10.393919944763184
2014-04-08,10.47982120513916
2014-04-09,10.554267883300781
2014-04-10,10.46837043762207
2014-04-11,10.353835105895996
2014-04-14,10.439735412597656
2014-04-15,10.497001647949219
2014-04-16,10.628714561462402
2014-04-17,10.685982704162598
2014-04-21,10.73853588104248
2014-04-22,10.67430591583252
2014-04-23,10.604229927062988
2014-04-24,10.645106315612793
2014-04-25,10.615909576416016
2014-04-28,10.586713790893555
2014-04-29,10.615909576416016
2014-04-30,10.796931266784668
2014-05-01,10.84948444366455
2014-05-02,10.837804794311523
2014-05-05,10.779410362243652
2014-05-06,10.615909576416016
2014-05-07,10.69182300567627
2014-05-08,10.072850227355957
2014-05-09,9.710811614990234
2014-05-12,9.89767074584961
2014-05-13,9.7984037399292
2014-05-14,9.961905479431152
2014-05-15,10.067015647888184
2014-05-16,10.288908004760742
2014-05-19,10.15460205078125
2014-05-20,10.043656349182129
2014-05-21,10.037817001342773
2014-05-22,10.002779960632324
2014-05-23,10.043656349182129
2014-05-27,10.195478439331055
2014-05-28,10.31226634979248
2014-05-29,10.125405311584473
2014-05-30,10.248031616210938
2014-06-02,10.014457702636719
2014-06-03,10.067015647888184
2014-06-04,10.218833923339844
2014-06-05,10.26555061340332
2014-06-06,10.271389961242676
2014-06-09,10.253870964050293
2014-06-10,10.218833923339844
2014-06-11,10.177961349487305
2014-06-12,10.218833923339844
2014-06-13,10.183802604675293
2014-06-16,10.195478439331055
2014-06-17,10.26555061340332
2014-06-18,10.388175964355469
2014-06-19,10.341462135314941
2014-06-20,10.090370178222656
2014-06-23,10.142926216125488
2014-06-24,10.341462135314941
2014-06-25,10.394015312194824
2014-06-26,10.4757661819458
2014-06-27,10.504964828491211
2014-06-30,10.598392486572266
2014-07-01,10.645106315612793
2014-07-02,10.610072135925293
2014-07-03,10.633428573608398
2014-07-07,10.604229927062988
2014-07-08,10.668463706970215
2014-07-09,10.767731666564941
2014-07-10,10.761893272399902
2014-07-11,10.814448356628418
2014-07-14,10.942912101745605
2014-07-15,10.855323791503906
2014-07-16,10.890358924865723
2014-07-17,10.791092872619629
2014-07-18,10.808609962463379
2014-07-21,10.891980171203613
2014-07-22,10.880069732666016
2014-07-23,10.820518493652344
2014-07-24,10.766921997070312
2014-07-25,10.784788131713867
2014-07-28,10.641863822937012
2014-07-29,10.629952430725098
2014-07-30,10.600176811218262
2014-07-31,10.492984771728516
2014-08-01,10.445345878601074
2014-08-04,10.46916389465332
2014-08-05,10.528717041015625
2014-08-06,10.540628433227539
2014-08-07,10.409613609313965
2014-08-08,10.451298713684082
2014-08-11,10.606133460998535
2014-08-12,10.58826732635498
2014-08-13,10.58231258392334
2014-08-14,10.58826732635498
2014-08-15,10.492984771728516
2014-08-18,10.576355934143066
2014-08-19,10.475119590759277
2014-08-20,10.635910987854004
2014-08-21,10.778834342956543
2014-08-22,10.802654266357422
2014-08-25,10.957488059997559
2014-08-26,10.957488059997559
2014-08-27,10.903892517089844
2014-08-28,10.868160247802734
2014-08-29,10.939620018005371
2014-09-02,11.017038345336914
2014-09-03,11.01108455657959
2014-09-04,10.951531410217285
2014-09-05,10.981307029724121
2014-09-08,10.96939754486084
2014-09-09,10.963440895080566
2014-09-10,10.826473236083984
2014-09-11,10.683549880981445
2014-09-12,10.760968208312988
2014-09-15,10.862208366394043
2014-09-16,10.868160247802734
2014-09-17,10.891980171203613
2014-09-18,11.058724403381348
2014-09-19,10.927713394165039
2014-09-22,10.713326454162598
2014-09-23,10.635910987854004
2014-09-24,10.66568374633789
2014-09-25,10.528717041015625
2014-09-26,10.659730911254883
2014-09-29,10.612089157104492
2014-09-30,10.427477836608887
2014-10-01,10.439387321472168
2014-10-02,10.492984771728516
2014-10-03,10.647819519042969
2014-10-06,10.576355934143066
2014-10-07,10.510849952697754
2014-10-08,10.612089157104492
2014-10-09,10.540628433227539
2014-10-10,10.659730911254883
2014-10-13,10.510849952697754
2014-10-14,10.457253456115723
2014-10-15,10.302421569824219
2014-10-16,10.623997688293457
2014-10-17,10.653775215148926
2014-10-20,10.909844398498535
2014-10-21,11.0374116897583
2014-10-22,10.921996116638184
2014-10-23,10.843025207519531
2014-10-24,10.782279014587402
2014-10-27,10.776203155517578
2014-10-28,10.806578636169434
2014-10-29,10.976666450500488
2014-10-30,11.055633544921875
2014-10-31,11.207496643066406
2014-11-03,11.116377830505371
2014-11-04,11.201421737670898
2014-11-05,11.122455596923828
2014-11-06,11.116377830505371
2014-11-07,11.104232788085938
2014-11-10,11.116377830505371
2014-11-11,10.423883438110352
2014-11-12,10.429960250854492
2014-11-13,10.363139152526855
2014-11-14,10.326693534851074
2014-11-17,10.223424911499023
2014-11-18,10.314541816711426
2014-11-19,10.114082336425781
2014-11-20,10.199127197265625
2014-11-21,10.326693534851074
2014-11-24,10.423883438110352
2014-11-25,10.405659675598145
2014-11-26,10.502852439880371
2014-11-28,10.539302825927734
2014-12-01,10.527149200439453
2014-12-02,10.581822395324707
2014-12-03,10.47855281829834
2014-12-04,10.47855281829834
2014-12-05,10.539302825927734
2014-12-08,10.442108154296875
2014-12-09,10.411735534667969
2014-12-10,10.338839530944824
2014-12-11,10.326693534851074
2014-12-12,9.895401954650879
2014-12-15,9.913625717163086
2014-12-16,9.73746395111084
2014-12-17,9.804283142089844
2014-12-18,9.652419090270996
2014-12-19,9.931849479675293
2014-12-22,9.779984474182129
2014-12-23,9.779984474182129
2014-12-24,9.713164329528809
2014-12-26,9.846803665161133
2014-12-29,9.877178192138672
2014-12-30,9.877178192138672
2014-12-31,9.871101379394531
2015-01-02,9.865026473999023
2015-01-05,9.810355186462402
2015-01-06,9.889328002929688
2015-01-07,9.998665809631348
2015-01-08,10.168754577636719
2015-01-09,10.278093338012695
2015-01-12,10.326693534851074
2015-01-13,10.284170150756836
2015-01-14,10.253796577453613
2015-01-15,10.144454956054688
2015-01-16,10.114082336425781
2015-01-20,10.132711410522461
2015-01-21,10.20721435546875
2015-01-22,10.387269973754883
2015-01-23,10.19479751586914
2015-01-26,10.318971633911133
2015-01-27,10.244467735290527
2015-01-28,10.138919830322266
2015-01-29,10.114084243774414
2015-01-30,10.058205604553223
2015-02-02,10.263093948364258
2015-02-03,10.499025344848633
2015-02-04,10.312765121459961
2015-02-05,10.362434387207031
2015-02-06,10.28792667388916
2015-02-09,10.151338577270508
2015-02-10,10.151338577270508
2015-02-11,10.138919830322266
2015-02-12,10.294137954711914
2015-02-13,10.312765121459961
2015-02-17,10.244467735290527
2015-02-18,10.1637544631958
2015-02-19,10.232049942016602
2015-02-20,10.21963119506836
2015-02-23,10.343807220458984
2015-02-24,10.343807220458984
2015-02-25,10.232049942016602
2015-02-26,10.15754508972168
2015-02-27,10.244467735290527
2015-03-02,10.486610412597656
2015-03-03,10.37485122680664
2015-03-04,10.294137954711914
2015-03-05,10.256887435913086
2015-03-06,10.19479751586914
2015-03-09,10.12650203704834
2015-03-10,10.145127296447754
2015-03-11,10.027158737182617
2015-03-12,10.474190711975098
2015-03-13,10.399687767028809
2015-03-16,10.511445999145508
2015-03-17,10.461772918701172
2015-03-18,10.492817878723145
2015-03-19,10.350016593933105
2015-03-20,10.517653465270996
2015-03-23,10.579743385314941
2015-03-24,10.641829490661621
2015-03-25,10.641829490661621
2015-03-26,10.648036003112793
2015-03-27,10.648036003112793
2015-03-30,10.648036003112793
2015-03-31,10.616992950439453
2015-04-01,10.486610412597656
2015-04-02,10.46798324584961
2015-04-06,10.530071258544922
2015-04-07,10.548698425292969
2015-04-08,10.55490779876709
2015-04-09,10.616992950439453
2015-04-10,10.6356201171875
2015-04-13,10.561117172241211
2015-04-14,10.86534309387207
2015-04-15,10.84671688079834
2015-04-16,10.86534309387207
2015-04-17,10.84671688079834
2015-04-20,10.954486846923828
2015-04-21,10.878414154052734
2015-04-22,10.853056907653809
2015-04-23,10.986183166503906
2015-04-24,11.011545181274414
2015-04-27,10.954486846923828
2015-04-28,11.030558586120605
2015-04-29,10.954486846923828
2015-04-30,10.916452407836914
2015-05-01,10.60582160949707
2015-05-04,10.82136058807373
2015-05-05,10.694570541381836
2015-05-06,10.59314250946045
2015-05-07,10.517070770263672
2015-05-08,10.29518985748291
2015-05-11,10.345907211303711
2015-05-12,10.149383544921875
2015-05-13,10.555105209350586
2015-05-14,10.529748916625977
2015-05-15,10.415637016296387
2015-05-18,10.402958869934082
2015-05-19,10.440996170043945
2015-05-20,10.662875175476074
2015-05-21,10.599479675292969
2015-05-22,10.440996170043945
2015-05-26,10.352246284484863
2015-05-27,10.529748916625977
2015-05-28,10.345907211303711
2015-05-29,10.358585357666016
2015-06-01,10.43465518951416
2015-06-02,10.536087036132812
2015-06-03,10.536087036132812
2015-06-04,10.491711616516113
2015-06-05,10.523407936096191
2015-06-08,10.352246284484863
2015-06-09,10.326888084411621
2015-06-10,10.345907211303711
2015-06-11,10.421977996826172
2015-06-12,10.567784309387207
2015-06-15,10.504388809204102
2015-06-16,10.415637016296387
2015-06-17,10.364924430847168
2015-06-18,10.447336196899414
2015-06-19,10.59314250946045
2015-06-22,10.59314250946045
2015-06-23,10.80234432220459
2015-06-24,10.567784309387207
2015-06-25,10.59314250946045
2015-06-26,10.447336196899414
2015-06-29,10.301527976989746
2015-06-30,10.396620750427246
2015-07-01,10.612159729003906
2015-07-02,10.498052597045898
2015-07-06,10.415637016296387
2015-07-07,10.440996170043945
2015-07-08,10.447336196899414
2015-07-09,10.440996170043945
2015-07-10,10.574124336242676
2015-07-13,10.662875175476074
2015-07-14,10.650196075439453
2015-07-15,10.580462455749512
2015-07-16,10.76430606842041
2015-07-17,10.770646095275879
2015-07-20,10.809507369995117
2015-07-21,10.777121543884277
2015-07-22,10.906654357910156
2015-07-23,10.705878257751465
2015-07-24,10.608728408813477
2015-07-27,10.783597946166992
2015-07-28,10.84836483001709
2015-07-29,11.049139976501465
2015-07-30,11.01028060913086
2015-07-31,10.900177955627441
2015-08-03,10.841889381408691
2015-08-04,10.893701553344727
2015-08-05,10.751214981079102
2015-08-06,10.95199203491211
2015-08-07,11.049139976501465
2015-08-10,10.893701553344727
2015-08-11,10.828933715820312
2015-08-12,10.835410118103027
2015-08-13,10.79007339477539
2015-08-14,10.718831062316895
2015-08-17,10.777121543884277
2015-08-18,10.744739532470703
2015-08-19,10.673495292663574
2015-08-20,10.569869041442871
2015-08-21,10.556914329528809
2015-08-24,10.278421401977539
2015-08-25,10.556914329528809
2015-08-26,10.550439834594727
2015-08-27,10.628157615661621
2015-08-28,10.628157615661621
2015-08-31,10.815980911254883
2015-09-01,10.58282470703125
2015-09-02,10.718831062316895
2015-09-03,10.79007339477539
2015-09-04,10.647589683532715
2015-09-08,10.654067039489746
2015-09-09,10.654067039489746
2015-09-10,10.543963432312012
2015-09-11,10.52453327178955
2015-09-14,10.44681167602539
2015-09-15,10.518057823181152
2015-09-16,10.628157615661621
2015-09-17,10.803030967712402
2015-09-18,10.815980911254883
2015-09-21,10.893701553344727
2015-09-22,10.556914329528809
2015-09-23,10.628157615661621
2015-09-24,10.634635925292969
2015-09-25,10.543963432312012
2015-09-28,10.52453327178955
2015-09-29,10.330233573913574
2015-09-30,10.440337181091309
2015-10-01,10.362617492675781
2015-10-02,10.336709976196289
2015-10-05,10.394999504089355
2015-10-06,10.511579513549805
2015-10-07,10.641111373901367
2015-10-08,10.874271392822266
2015-10-09,10.990850448608398
2015-10-12,11.12038516998291
2015-10-13,10.977897644042969
2015-10-14,10.867795944213867
2015-10-15,11.08799934387207
2015-10-16,10.971421241760254
2015-10-19,10.990850448608398
2015-10-20,10.957765579223633
2015-10-21,10.84527587890625
2015-10-22,10.977617263793945
2015-10-23,10.91806411743164
2015-10-26,11.050403594970703
2015-10-27,10.990850448608398
2015-10-28,11.004083633422852
2015-10-29,11.017317771911621
2015-10-30,10.884977340698242
2015-11-02,10.726170539855957
2015-11-03,10.666617393493652
2015-11-04,10.653382301330566
2015-11-05,10.666617393493652
2015-11-06,10.699701309204102
2015-11-09,10.792338371276855
2015-11-10,10.640148162841797
2015-11-11,10.73940372467041
2015-11-12,10.600446701049805
2015-11-13,10.600446701049805
2015-11-16,10.573978424072266
2015-11-17,10.547510147094727
2015-11-18,10.540895462036133
2015-11-19,10.481340408325195
2015-11-20,10.468108177185059
2015-11-23,10.587211608886719
2015-11-24,10.726170539855957
2015-11-25,10.706319808959961
2015-11-27,10.73940372467041
2015-11-30,10.600446701049805
2015-12-01,10.560744285583496
2015-12-02,10.454874038696289
2015-12-03,10.435023307800293
2015-12-04,10.573978424072266
2015-12-07,10.633532524108887
2015-12-08,10.521041870117188
2015-12-09,10.368852615356445
2015-12-10,10.315917015075684
2015-12-11,10.368852615356445
2015-12-14,10.024767875671387
2015-12-15,10.13725757598877
2015-12-16,10.335766792297363
2015-12-17,10.335766792297363
2015-12-18,10.262979507446289
2015-12-21,10.256363868713379
2015-12-22,10.487957000732422
2015-12-23,10.626913070678711
2015-12-24,10.640148162841797
2015-12-28,10.474723815917969
2015-12-29,10.600446701049805
2015-12-30,10.527661323547363
2015-12-31,10.51442813873291
2016-01-04,10.587211608886719
2016-01-05,10.474723815917969
2016-01-06,10.243128776550293
2016-01-07,10.150492668151855
2016-01-08,10.35561752319336
2016-01-11,10.269598007202148
2016-01-12,10.117405891418457
2016-01-13,10.004918098449707
2016-01-14,10.256363868713379
2016-01-15,10.077704429626465
2016-01-19,9.833723068237305
2016-01-20,9.5151948928833
2016-01-21,9.616852760314941
2016-01-22,9.91504955291748
2016-01-25,9.860833168029785
2016-01-26,9.942158699035645
2016-01-27,10.016709327697754
2016-01-28,10.023487091064453
2016-01-29,10.38267707824707
2016-02-01,10.369122505187988
2016-02-02,10.31490421295166
2016-02-03,10.220024108886719
2016-02-04,10.016709327697754
2016-02-05,9.928606033325195
2016-02-08,9.765951156616211
2016-02-09,9.677846908569336
2016-02-10,9.664295196533203
2016-02-11,9.55586051940918
2016-02-12,9.623631477355957
2016-02-16,9.752399444580078
2016-02-17,9.874385833740234
2016-02-18,9.996376037597656
2016-02-19,9.962491035461426
2016-02-22,9.677846908569336
2016-02-23,9.684624671936035
2016-02-24,9.732065200805664
2016-02-25,9.942158699035645
2016-02-26,9.867609977722168
2016-02-29,9.996376037597656
2016-03-01,10.030263900756836
2016-03-02,9.962491035461426
2016-03-03,9.948936462402344
2016-03-04,9.860833168029785
2016-03-07,9.948936462402344
2016-03-08,9.955714225769043
2016-03-09,9.874385833740234
2016-03-10,9.942158699035645
2016-03-11,9.935381889343262
2016-03-14,9.976044654846191
2016-03-15,9.962491035461426
2016-03-16,9.969268798828125
2016-03-17,9.942158699035645
2016-03-18,9.942158699035645
2016-03-21,9.908273696899414
2016-03-22,9.969268798828125
2016-03-23,9.854055404663086
2016-03-24,9.98960018157959
2016-03-28,10.037039756774902
2016-03-29,10.2403564453125
2016-03-30,10.626657485961914
2016-03-31,10.60632610321045
2016-04-01,10.694430351257324
2016-04-04,10.796086311340332
2016-04-05,10.728315353393555
2016-04-06,10.829972267150879
2016-04-07,10.938406944274902
2016-04-08,11.073951721191406
2016-04-11,11.053621292114258
2016-04-12,11.040064811706543
2016-04-13,11.087506294250488
2016-04-14,11.168832778930664
2016-04-15,11.10783863067627
2016-04-18,11.21627426147461
2016-04-19,11.181632995605469
2016-04-20,10.918374061584473
2016-04-21,11.160850524902344
2016-04-22,11.029219627380371
2016-04-25,10.925301551818848
2016-04-26,10.973797798156738
2016-04-27,11.036148071289062
2016-04-28,11.119280815124512
2016-04-29,11.140066146850586
2016-05-02,11.119280815124512
2016-05-03,11.022292137145996
2016-05-04,10.932229042053223
2016-05-05,10.904519081115723
2016-05-06,10.897590637207031
2016-05-09,10.966867446899414
2016-05-10,11.105427742004395
2016-05-11,10.939156532287598
2016-05-12,10.911445617675781
2016-05-13,10.876803398132324
2016-05-16,11.00843620300293
2016-05-17,10.959941864013672
2016-05-18,10.959941864013672
2016-05-19,10.89066219329834
2016-05-20,10.932229042053223
2016-05-23,10.98072338104248
2016-05-24,11.063860893249512
2016-05-25,10.987652778625488
2016-05-26,10.89066219329834
2016-05-27,10.918374061584473
2016-05-31,11.00843620300293
2016-06-01,11.08464527130127
2016-06-02,11.160850524902344
2016-06-03,11.195490837097168
2016-06-06,11.08464527130127
2016-06-07,11.188560485839844
2016-06-08,11.188560485839844
2016-06-09,11.23012924194336
2016-06-10,11.25783920288086
2016-06-13,11.022292137145996
2016-06-14,10.856023788452148
2016-06-15,11.063860893249512
2016-06-16,11.25783920288086
2016-06-17,11.285553932189941
2016-06-20,11.334049224853516
2016-06-21,11.431037902832031
2016-06-22,11.486461639404297
2016-06-23,11.756649017333984
2016-06-24,11.479535102844238
2016-06-27,11.27862548828125
2016-06-28,11.264768600463867
2016-06-29,11.375616073608398
2016-06-30,11.493388175964355
2016-07-01,11.528029441833496
2016-07-05,11.521100997924805
2016-07-06,11.590377807617188
2016-07-07,11.66658878326416
2016-07-08,11.66658878326416
2016-07-11,11.728936195373535
2016-07-12,11.74279499053955
2016-07-13,11.611162185668945
2016-07-14,11.66658878326416
2016-07-15,11.722010612487793
2016-07-18,11.756649017333984
2016-07-19,11.749571800231934
2016-07-20,12.004380226135254
2016-07-21,11.841585159301758
2016-07-22,11.947755813598633
2016-07-25,12.004380226135254
2016-07-26,12.032691955566406
2016-07-27,12.032691955566406
2016-07-28,12.068083763122559
2016-07-29,12.04685115814209
2016-08-01,12.145942687988281
2016-08-02,11.947755813598633
2016-08-03,12.216724395751953
2016-08-04,12.42198657989502
2016-08-05,12.42198657989502
2016-08-08,12.315814971923828
2016-08-09,12.195490837097168
2016-08-10,12.195490837097168
2016-08-11,12.117629051208496
2016-08-12,12.075161933898926
2016-08-15,12.181330680847168
2016-08-16,12.075161933898926
2016-08-17,12.167177200317383
2016-08-18,12.174253463745117
2016-08-19,12.110553741455078
2016-08-22,12.03977108001709
2016-08-23,12.04685115814209
2016-08-24,11.997304916381836
2016-08-25,12.018535614013672
2016-08-26,12.103473663330078
2016-08-29,12.068083763122559
2016-08-30,12.145942687988281
2016-08-31,12.209644317626953
2016-09-01,12.308738708496094
2016-09-02,12.35120677947998
2016-09-06,12.209644317626953
2016-09-07,12.110553741455078
2016-09-08,12.061005592346191
2016-09-09,11.848663330078125
2016-09-12,11.983145713806152
2016-09-13,11.919445037841797
2016-09-14,11.862818717956543
2016-09-15,11.997304916381836
2016-09-16,12.04685115814209
2016-09-19,11.990226745605469
2016-09-20,11.933598518371582
2016-09-21,11.947755813598633
2016-09-22,12.195490837097168
2016-09-23,12.195490837097168
2016-09-26,12.089317321777344
2016-09-27,12.103473663330078
2016-09-28,12.20256519317627
2016-09-29,12.273346900939941
2016-09-30,12.301660537719727
2016-10-03,12.315814971923828
2016-10-04,12.358283996582031
2016-10-05,12.337051391601562
2016-10-06,12.35120677947998
2016-10-07,12.414910316467285
2016-10-10,12.42198657989502
2016-10-11,12.464456558227539
2016-10-12,12.549391746520996
2016-10-13,12.549391746520996
2016-10-14,12.669718742370605
2016-10-17,12.570626258850098
2016-10-18,12.77291202545166
2016-10-19,12.621197700500488
2016-10-20,12.845157623291016
2016-10-21,13.293076515197754
2016-10-24,13.401442527770996
2016-10-25,13.473689079284668
2016-10-26,13.4375638961792
2016-10-27,13.365321159362793
2016-10-28,13.473689079284668
2016-10-31,13.220829963684082
2016-11-01,13.365321159362793
2016-11-02,13.293076515197754
2016-11-03,12.89572811126709
2016-11-04,12.859607696533203
2016-11-07,12.967974662780762
2016-11-08,13.07634162902832
2016-11-09,13.293076515197754
2016-11-10,13.329195976257324
2016-11-11,13.690421104431152
2016-11-14,13.473689079284668
2016-11-15,13.618179321289062
2016-11-16,13.690421104431152
2016-11-17,13.509812355041504
2016-11-18,13.509812355041504
2016-11-21,13.401442527770996
2016-11-22,13.473689079284668
2016-11-23,13.690421104431152
2016-11-25,13.943278312683105
2016-11-28,13.834916114807129
2016-11-29,13.618179321289062
2016-11-30,13.618179321289062
2016-12-01,13.798789978027344
2016-12-02,13.726546287536621
2016-12-05,13.654300689697266
2016-12-06,13.943278312683105
2016-12-07,13.943278312683105
2016-12-08,12.967974662780762
2016-12-09,13.004094123840332
2016-12-12,13.004094123840332
2016-12-13,12.931851387023926
2016-12-14,12.570624351501465
2016-12-15,12.534506797790527
2016-12-16,12.570624351501465
2016-12-19,12.678993225097656
2016-12-20,12.787362098693848
2016-12-21,12.967974662780762
2016-12-22,12.967974662780762
2016-12-23,13.004094123840332
2016-12-27,12.967974662780762
2016-12-28,12.751237869262695
2016-12-29,12.89572811126709
2016-12-30,12.931851387023926
2017-01-03,13.220829963684082
2017-01-04,13.07634162902832
2017-01-05,13.004094123840332
2017-01-06,13.07634162902832
2017-01-09,13.004094123840332
2017-01-10,12.931851387023926
2017-01-11,12.931851387023926
2017-01-12,12.89572811126709
2017-01-13,13.11246109008789
2017-01-17,13.08298397064209
2017-01-18,13.193541526794434
2017-01-19,13.009275436401367
2017-01-20,12.935564994812012
2017-01-23,12.898715019226074
2017-01-24,12.972421646118164
2017-01-25,13.193541526794434
2017-01-26,13.304102897644043
2017-01-27,13.046128273010254
2017-01-30,12.935564994812012
2017-01-31,12.898715019226074
2017-02-01,12.825005531311035
2017-02-02,12.751300811767578
2017-02-03,13.046128273010254
2017-02-06,12.788154602050781
2017-02-07,12.714446067810059
2017-02-08,12.677590370178223
2017-02-09,12.60388469696045
2017-02-10,12.567030906677246
2017-02-13,12.530177116394043
2017-02-14,12.493326187133789
2017-02-15,12.419617652893066
2017-02-16,12.30905818939209
2017-02-17,12.235350608825684
2017-02-21,12.272205352783203
2017-02-22,12.382762908935547
2017-02-23,12.30905818939209
2017-02-24,12.30905818939209
2017-02-27,12.235350608825684
2017-02-28,12.272205352783203
2017-03-01,12.382762908935547
2017-03-02,11.940523147583008
2017-03-03,11.903670310974121
2017-03-06,11.940523147583008
2017-03-07,11.940523147583008
2017-03-08,12.014229774475098
2017-03-09,11.977376937866211
2017-03-10,12.30905818939209
2017-03-13,12.198497772216797
2017-03-14,12.087934494018555
2017-03-15,12.30905818939209
2017-03-16,12.272205352783203
2017-03-17,12.16164493560791
2017-03-20,12.16164493560791
2017-03-21,11.940523147583008
2017-03-22,11.977376937866211
2017-03-23,12.198497772216797
2017-03-24,12.087934494018555
2017-03-27,12.0510835647583
2017-03-28,12.16164493560791
2017-03-29,12.12479019165039
2017-03-30,12.087934494018555
2017-03-31,12.235350608825684
2017-04-03,12.087934494018555
2017-04-04,12.382762908935547
2017-04-05,12.345909118652344
2017-04-06,12.345909118652344
2017-04-07,12.345909118652344
2017-04-10,12.530177116394043
2017-04-11,12.677590370178223
2017-04-12,12.530177116394043
2017-04-13,12.419617652893066
2017-04-17,12.567030906677246
2017-04-18,12.57456111907959
2017-04-19,12.57456111907959
2017-04-20,12.649857521057129
2017-04-21,12.649857521057129
2017-04-24,12.762805938720703
2017-04-25,12.649857521057129
2017-04-26,12.800451278686523
2017-04-27,12.649857521057129
2017-04-28,12.687505722045898
2017-05-01,12.61220932006836
2017-05-02,12.53691291809082
2017-05-03,12.49926471710205
2017-05-04,12.348670959472656
2017-05-05,12.235725402832031
2017-05-08,12.198078155517578
2017-05-09,12.198078155517578
2017-05-10,12.235725402832031
2017-05-11,12.198078155517578
2017-05-12,12.235725402832031
2017-05-15,12.386317253112793
2017-05-16,12.311023712158203
2017-05-17,12.198078155517578
2017-05-18,12.2733736038208
2017-05-19,12.235725402832031
2017-05-22,12.311023712158203
2017-05-23,12.235725402832031
2017-05-24,12.2733736038208
2017-05-25,12.160428047180176
2017-05-26,12.235725402832031
2017-05-30,12.160428047180176
2017-05-31,12.160428047180176
2017-06-01,12.2733736038208
2017-06-02,12.160428047180176
2017-06-05,12.2733736038208
2017-06-06,12.2733736038208
2017-06-07,12.386317253112793
2017-06-08,12.57456111907959
2017-06-09,12.687505722045898
2017-06-12,12.57456111907959
2017-06-13,12.725153923034668
2017-06-14,12.800451278686523
2017-06-15,12.725153923034668
2017-06-16,12.875749588012695
2017-06-19,12.725153923034668
2017-06-20,12.687505722045898
2017-06-21,12.725153923034668
2017-06-22,12.725153923034668
2017-06-23,12.800451278686523
2017-06-26,12.875749588012695
2017-06-27,12.913396835327148
2017-06-28,12.913396835327148
2017-06-29,13.026341438293457
2017-06-30,13.139286994934082
2017-07-03,13.1769380569458
2017-07-05,12.951045989990234
2017-07-06,12.875749588012695
2017-07-07,13.327528953552246
2017-07-10,13.327528953552246
2017-07-11,13.214582443237305
2017-07-12,13.063992500305176
2017-07-13,13.101638793945312
2017-07-14,13.365179061889648
2017-07-17,13.327528953552246
2017-07-18,13.33521842956543
2017-07-19,13.258354187011719
2017-07-20,13.296786308288574
2017-07-21,13.296786308288574
2017-07-24,13.33521842956543
2017-07-25,13.373644828796387
2017-07-26,13.373644828796387
2017-07-27,13.373644828796387
2017-07-28,13.373644828796387
2017-07-31,13.450508117675781
2017-08-01,13.296786308288574
2017-08-02,13.33521842956543
2017-08-03,13.41207504272461
2017-08-04,13.488934516906738
2017-08-07,13.41207504272461
2017-08-08,13.373644828796387
2017-08-09,13.33521842956543
2017-08-10,13.258354187011719
2017-08-11,13.258354187011719
2017-08-14,13.296786308288574
2017-08-15,13.296786308288574
2017-08-16,13.219925880432129
2017-08-17,13.181495666503906
2017-08-18,13.143065452575684
2017-08-21,13.181495666503906
2017-08-22,13.258354187011719
2017-08-23,13.258354187011719
2017-08-24,13.066204071044922
2017-08-25,13.33521842956543
2017-08-28,13.33521842956543
2017-08-29,13.219925880432129
2017-08-30,13.104634284973145
2017-08-31,13.143065452575684
2017-09-01,13.066204071044922
2017-09-05,12.95091438293457
2017-09-06,12.95091438293457
2017-09-07,13.027776718139648
2017-09-08,12.95091438293457
2017-09-11,13.066204071044922
2017-09-12,13.104634284973145
2017-09-13,13.027776718139648
2017-09-14,13.027776718139648
2017-09-15,13.027776718139648
2017-09-18,13.104634284973145
2017-09-19,13.143065452575684
2017-09-20,13.143065452575684
2017-09-21,13.066204071044922
2017-09-22,13.104634284973145
2017-09-25,13.219925880432129
2017-09-26,13.373644828796387
2017-09-27,13.488934516906738
2017-09-28,13.52736759185791
2017-09-29,13.642657279968262
2017-10-02,13.719515800476074
2017-10-03,13.719515800476074
2017-10-04,13.911666870117188
2017-10-05,13.873235702514648
2017-10-06,13.950092315673828
2017-10-09,13.834803581237793
2017-10-10,13.911666870117188
2017-10-11,13.873235702514648
2017-10-12,13.834803581237793
2017-10-13,13.911666870117188
2017-10-16,13.950092315673828
2017-10-17,13.988526344299316
2017-10-18,13.957160949707031
2017-10-19,13.839545249938965
2017-10-20,13.80034065246582
2017-10-23,13.643515586853027
2017-10-24,13.604314804077148
2017-10-25,13.604314804077148
2017-10-26,13.643515586853027
2017-10-27,13.761133193969727
2017-10-30,13.525900840759277
2017-10-31,13.447489738464355
2017-11-01,13.408284187316895
2017-11-02,13.290668487548828
2017-11-03,13.212255477905273
2017-11-06,13.329872131347656
2017-11-07,13.251462936401367
2017-11-08,13.290668487548828
2017-11-09,13.133845329284668
2017-11-10,12.977023124694824
2017-11-13,12.977023124694824
2017-11-14,13.055436134338379
2017-11-15,12.93781852722168
2017-11-16,13.133845329284668
2017-11-17,13.055436134338379
2017-11-20,13.173049926757812
2017-11-21,13.212255477905273
2017-11-22,13.173049926757812
2017-11-24,13.173049926757812
2017-11-27,13.251462936401367
2017-11-28,13.329872131347656
2017-11-29,13.3690767288208
2017-11-30,13.251462936401367
2017-12-01,13.290668487548828
2017-12-04,13.212255477905273
2017-12-05,13.133845329284668
2017-12-06,13.133845329284668
2017-12-07,13.212255477905273
2017-12-08,13.133845329284668
2017-12-11,13.251462936401367
2017-12-12,13.212255477905273
2017-12-13,13.133845329284668
2017-12-14,13.173049926757812
2017-12-15,13.094640731811523
2017-12-18,13.016228675842285
2017-12-19,13.094640731811523
2017-12-20,13.133845329284668
2017-12-21,13.3690767288208
2017-12-22,13.290668487548828
2017-12-26,13.447489738464355
2017-12-27,13.447489738464355
2017-12-28,13.408284187316895
2017-12-29,13.290668487548828
2018-01-02,13.251462936401367
2018-01-03,13.643515586853027
2018-01-04,13.761133193969727
2018-01-05,13.643515586853027
2018-01-08,13.643515586853027
2018-01-09,13.486695289611816
2018-01-10,13.486695289611816
2018-01-11,13.721929550170898
2018-01-12,13.721929550170898
2018-01-16,13.486695289611816
2018-01-17,13.454659461975098
2018-01-18,13.454659461975098
2018-01-19,13.534747123718262
2018-01-22,13.534747123718262
2018-01-23,13.534747123718262
2018-01-24,13.414616584777832
2018-01-25,13.694921493530273
2018-01-26,13.734966278076172
2018-01-29,13.654876708984375
2018-01-30,13.574792861938477
2018-01-31,13.534747123718262
2018-02-01,13.614832878112793
2018-02-02,13.534747123718262
2018-02-05,13.214398384094238
2018-02-06,13.294486045837402
2018-02-07,13.17435359954834
2018-02-08,13.094268798828125
2018-02-09,13.13431167602539
2018-02-12,13.214398384094238
2018-02-13,13.13431167602539
2018-02-14,13.454659461975098
2018-02-15,13.334529876708984
2018-02-16,13.17435359954834
2018-02-20,13.17435359954834
2018-02-21,13.294486045837402
2018-02-22,13.25444221496582
2018-02-23,13.17435359954834
2018-02-26,13.214398384094238
2018-02-27,13.214398384094238
2018-02-28,13.37457275390625
2018-03-01,13.25444221496582
2018-03-02,13.25444221496582
2018-03-05,13.214398384094238
2018-03-06,13.13431167602539
2018-03-07,13.094268798828125
2018-03-08,13.25444221496582
2018-03-09,13.454659461975098
2018-03-12,13.534747123718262
2018-03-13,13.534747123718262
2018-03-14,13.534747123718262
2018-03-15,13.414616584777832
2018-03-16,13.414616584777832
2018-03-19,13.49470329284668
2018-03-20,13.414616584777832
2018-03-21,13.49470329284668
2018-03-22,13.37457275390625
2018-03-23,13.214398384094238
2018-03-26,13.414616584777832
2018-03-27,13.13431167602539
2018-03-28,13.214398384094238
2018-03-29,13.13431167602539
2018-04-02,12.974138259887695
2018-04-03,13.014180183410645
2018-04-04,13.17435359954834
2018-04-05,13.17435359954834
2018-04-06,13.094268798828125
2018-04-09,13.014180183410645
2018-04-10,13.094268798828125
2018-04-11,13.13431167602539
2018-04-12,13.294486045837402
2018-04-13,13.13431167602539
2018-04-16,13.454659461975098
2018-04-17,13.294486045837402
2018-04-18,13.179877281188965
2018-04-19,13.220809936523438
2018-04-20,13.302672386169434
2018-04-23,13.302672386169434
2018-04-24,13.220809936523438
2018-04-25,12.729634284973145
2018-04-26,12.279389381408691
2018-04-27,12.52497673034668
2018-04-30,12.688702583312988
2018-05-01,12.770565032958984
2018-05-02,12.770565032958984
2018-05-03,12.688702583312988
2018-05-04,12.606840133666992
2018-05-07,13.016151428222656
2018-05-08,13.098015785217285
2018-05-09,12.852428436279297
2018-05-10,12.893360137939453
2018-05-11,12.852428436279297
2018-05-14,12.811495780944824
2018-05-15,12.770565032958984
2018-05-16,12.688702583312988
2018-05-17,12.606840133666992
2018-05-18,12.606840133666992
2018-05-21,12.688702583312988
2018-05-22,13.057083129882812
2018-05-23,13.466397285461426
2018-05-24,13.507328987121582
2018-05-25,13.630122184753418
2018-05-29,13.548258781433105
2018-05-30,13.548258781433105
2018-05-31,13.466397285461426
2018-06-01,13.711984634399414
2018-06-04,13.752915382385254
2018-06-05,13.671052932739258
2018-06-06,13.671052932739258
2018-06-07,13.834776878356934
2018-06-08,14.039435386657715
2018-06-11,14.407817840576172
2018-06-12,14.244088172912598
2018-06-13,14.121296882629395
2018-06-14,14.080366134643555
2018-06-15,13.916640281677246
2018-06-18,14.039435386657715
2018-06-19,13.998504638671875
2018-06-20,14.121296882629395
2018-06-21,14.285022735595703
2018-06-22,14.325956344604492
2018-06-25,14.325956344604492
2018-06-26,14.407817840576172
2018-06-27,14.121296882629395
2018-06-28,14.244088172912598
2018-06-29,14.162230491638184
2018-07-02,13.998504638671875
2018-07-03,14.162230491638184
2018-07-05,14.244088172912598
2018-07-06,14.653403282165527
2018-07-09,14.653403282165527
2018-07-10,14.653403282165527
2018-07-11,14.571541786193848
2018-07-12,14.571541786193848
2018-07-13,14.694334983825684
2018-07-16,14.653403282165527
2018-07-17,14.653403282165527
2018-07-18,14.494675636291504
2018-07-19,14.452901840209961
2018-07-20,14.494675636291504
2018-07-23,14.661758422851562
2018-07-24,14.703531265258789
2018-07-25,14.7453031539917
2018-07-26,14.7453031539917
2018-07-27,14.619989395141602
2018-07-30,14.619989395141602
2018-07-31,14.536442756652832
2018-08-01,14.661758422851562
2018-08-02,14.703531265258789
2018-08-03,14.661758422851562
2018-08-06,14.703531265258789
2018-08-07,14.703531265258789
2018-08-08,14.619989395141602
2018-08-09,14.703531265258789
2018-08-10,14.703531265258789
2018-08-13,14.661758422851562
2018-08-14,14.703531265258789
2018-08-15,14.661758422851562
2018-08-16,14.703531265258789
2018-08-17,14.7453031539917
2018-08-20,14.7453031539917
2018-08-21,14.7453031539917
2018-08-22,14.661758422851562
2018-08-23,14.7453031539917
2018-08-24,14.787074089050293
2018-08-27,14.912386894226074
2018-08-28,14.870615005493164
2018-08-29,14.954157829284668
2018-08-30,14.912386894226074
2018-08-31,14.870615005493164
2018-09-04,14.787074089050293
2018-09-05,14.703531265258789
2018-09-06,14.870615005493164
2018-09-07,14.703531265258789
2018-09-10,14.787074089050293
2018-09-11,14.912386894226074
2018-09-12,14.995929718017578
2018-09-13,15.121245384216309
2018-09-14,15.28832721710205
2018-09-17,15.28832721710205
2018-09-18,15.246559143066406
2018-09-19,15.121245384216309
2018-09-20,15.163012504577637
2018-09-21,15.163012504577637
2018-09-24,14.870615005493164
2018-09-25,14.912386894226074
2018-09-26,14.912386894226074
2018-09-27,14.954157829284668
2018-09-28,15.163012504577637
2018-10-01,15.037699699401855
2018-10-02,14.970867156982422
2018-10-03,14.945804595947266
2018-10-04,14.853909492492676
2018-10-05,14.80378246307373
2018-10-08,14.887324333190918
2018-10-09,14.8789701461792
2018-10-10,14.7453031539917
2018-10-11,14.569864273071289
2018-10-12,14.452901840209961
2018-10-15,14.519736289978027
2018-10-16,14.720242500305176
2018-10-17,14.60084056854248
2018-10-18,14.549667358398438
2018-10-19,14.438796043395996
2018-10-22,14.174413681030273
2018-10-23,14.131770133972168
2018-10-24,13.73093032836914
2018-10-25,13.858858108520508
2018-10-26,13.790630340576172
2018-10-29,13.585945129394531
2018-10-30,13.534773826599121
2018-10-31,13.483604431152344
2018-11-01,12.775734901428223
2018-11-02,12.340779304504395
2018-11-05,13.0486478805542
2018-11-06,12.954833984375
2018-11-07,13.713872909545898
2018-11-08,13.364204406738281
2018-11-09,13.227746963500977
2018-11-12,13.37273120880127
2018-11-13,13.125405311584473
2018-11-14,12.971891403198242
2018-11-15,12.988947868347168
2018-11-16,12.963362693786621
2018-11-19,12.90366268157959
2018-11-20,12.758678436279297
2018-11-21,12.980420112609863
2018-11-23,12.895134925842285
2018-11-26,12.912191390991211
2018-11-27,12.886604309082031
2018-11-28,13.0486478805542
2018-11-29,13.116875648498535
2018-11-30,13.040119171142578
2018-12-03,13.091290473937988
2018-12-04,12.775734901428223
2018-12-06,12.536934852600098
2018-12-07,12.357836723327637
2018-12-10,12.340779304504395
2018-12-11,12.067866325378418
2018-12-12,11.95699691772461
2018-12-13,11.769368171691895
2018-12-14,11.590270042419434
2018-12-17,11.334413528442383
2018-12-18,11.504983901977539
2018-12-19,11.48792839050293
2018-12-20,10.831231117248535
2018-12-21,10.566845893859863
2018-12-24,9.961320877075195
2018-12-26,10.79711627960205
2018-12-27,10.720358848571777
2018-12-28,10.814173698425293
2018-12-31,10.618017196655273
2019-01-02,10.950631141662598
2019-01-03,11.206486701965332
2019-01-04,11.76084041595459
2019-01-07,12.306665420532227
2019-01-08,12.65633487701416
2019-01-09,12.65633487701416
2019-01-10,12.639278411865234
2019-01-11,12.70750617980957
2019-01-14,12.733091354370117
2019-01-15,12.784262657165527
2019-01-16,12.469681739807129
2019-01-17,12.548325538635254
2019-01-18,12.513372421264648
2019-01-22,12.20753002166748
2019-01-23,12.277437210083008
2019-01-24,12.408513069152832
2019-01-25,12.775525093078613
2019-01-28,12.801739692687988
2019-01-29,12.79300308227539
2019-01-30,12.941554069519043
2019-01-31,13.221182823181152
2019-02-01,13.212445259094238
2019-02-04,13.194968223571777
2019-02-05,13.360997200012207
2019-02-06,13.492073059082031
2019-02-07,13.465856552124023
2019-02-08,13.492073059082031
2019-02-11,13.448381423950195
2019-02-12,13.605670928955078
2019-02-13,13.797916412353516
2019-02-14,13.81539535522461
2019-02-15,13.832870483398438
2019-02-19,13.701793670654297
2019-02-20,14.077546119689941
2019-02-21,14.191143989562988
2019-02-22,14.243574142456055
2019-02-25,14.077546119689941
2019-02-26,13.920254707336426
2019-02-27,13.955208778381348
2019-02-28,13.754223823547363
2019-03-01,14.007638931274414
2019-03-04,14.042591094970703
2019-03-05,13.963945388793945
2019-03-06,13.841609001159668
2019-03-07,13.719270706176758
2019-03-08,13.780440330505371
2019-03-11,13.937729835510254
2019-03-12,13.920254707336426
2019-03-13,13.789177894592285
2019-03-14,13.920254707336426
2019-03-15,14.243574142456055
2019-03-18,14.243574142456055
2019-03-19,14.199882507324219
2019-03-20,13.963945388793945
2019-03-21,14.173666954040527
2019-03-22,13.841609001159668
2019-03-25,13.797916412353516
2019-03-26,13.6930570602417
2019-03-27,13.762964248657227
2019-03-28,13.666840553283691
2019-03-29,13.710533142089844
2019-04-01,13.841609001159668
2019-04-02,13.990160942077637
2019-04-03,13.902777671813965
2019-04-04,13.850347518920898
2019-04-05,14.199882507324219
2019-04-08,14.287267684936523
2019-04-09,14.129976272583008
2019-04-10,14.234838485717773
2019-04-11,14.261051177978516
2019-04-12,14.348434448242188
2019-04-15,14.505725860595703
2019-04-16,14.601848602294922
2019-04-17,14.476818084716797
2019-04-18,14.369647979736328
2019-04-22,14.378578186035156
2019-04-23,14.592917442321777
2019-04-24,14.717948913574219
2019-04-25,14.655433654785156
2019-04-26,14.842979431152344
2019-04-29,14.816187858581543
2019-04-30,14.77153491973877
2019-05-01,14.610779762268066
2019-05-02,14.664362907409668
2019-05-03,14.878702163696289
2019-05-06,15.218070983886719
2019-05-07,15.02159595489502
2019-05-08,14.78939437866211
2019-05-09,15.057319641113281
2019-05-10,15.119832992553711
2019-05-13,14.70901870727539
2019-05-14,14.807255744934082
2019-05-15,15.02159595489502
2019-05-16,15.075177192687988
2019-05-17,14.896565437316895
2019-05-20,15.02159595489502
2019-05-21,14.95014762878418
2019-05-22,14.682225227355957
2019-05-23,14.655433654785156
2019-05-24,14.45002555847168
2019-05-28,14.43216323852539
2019-05-29,14.316064834594727
2019-05-30,14.146378517150879
2019-05-31,13.887385368347168
2019-06-03,14.994805335998535
2019-06-04,15.673542976379395
2019-06-05,16.057567596435547
2019-06-06,16.227252960205078
2019-06-07,16.36121368408203
2019-06-10,16.432659149169922
2019-06-11,16.539831161499023
2019-06-12,16.763099670410156
2019-06-13,16.932783126831055
2019-06-14,17.039953231811523
2019-06-17,17.057815551757812
2019-06-18,16.432659149169922
2019-06-19,16.754169464111328
2019-06-20,17.031023025512695
2019-06-21,16.932783126831055
2019-06-24,16.655929565429688
2019-06-25,16.73630714416504
2019-06-26,16.95064926147461
2019-06-27,16.88813018798828
2019-06-28,17.06674575805664
2019-07-01,17.06674575805664
2019-07-02,17.084609985351562
2019-07-03,17.09354019165039
2019-07-05,17.647249221801758
2019-07-08,17.49542236328125
2019-07-09,17.432910919189453
2019-07-10,17.522218704223633
2019-07-11,17.736555099487305
2019-07-12,17.63831901550293
2019-07-15,17.62045669555664
2019-07-16,17.71869659423828
2019-07-17,17.75507926940918
2019-07-18,17.500394821166992
2019-07-19,17.19113540649414
2019-07-22,17.19113540649414
2019-07-23,17.336669921875
2019-07-24,17.57316017150879
2019-07-25,17.609546661376953
2019-07-26,17.745983123779297
2019-07-29,17.773269653320312
2019-07-30,18.191679000854492
2019-07-31,17.464012145996094
2019-08-01,17.418533325195312
2019-08-02,17.200231552124023
2019-08-05,16.745439529418945
2019-08-06,16.9637393951416
2019-08-07,17.600448608398438
2019-08-08,17.57316017150879
2019-08-09,17.19113540649414
2019-08-12,16.827302932739258
2019-08-13,16.99102783203125
2019-08-14,16.754535675048828
2019-08-15,16.6817684173584
2019-08-16,17.03650665283203
2019-08-19,17.154754638671875
2019-08-20,17.227519989013672
2019-08-21,17.118371963500977
2019-08-22,17.027408599853516
2019-08-23,16.936452865600586
2019-08-26,17.027408599853516
2019-08-27,16.772727966308594
2019-08-28,16.91826057434082
2019-08-29,16.818206787109375
2019-08-30,17.045602798461914
2019-09-03,16.88187599182129
2019-09-04,17.081985473632812
2019-09-05,17.118371963500977
2019-09-06,17.154754638671875
2019-09-09,17.200231552124023
2019-09-10,17.07288932800293
2019-09-11,17.27299690246582
2019-09-12,17.3730525970459
2019-09-13,17.418533325195312
2019-09-16,17.436723709106445
2019-09-17,17.527681350708008
2019-09-18,17.527681350708008
2019-09-19,17.464012145996094
2019-09-20,17.336669921875
2019-09-23,17.327571868896484
2019-09-24,17.354860305786133
2019-09-25,17.80965232849121
2019-09-26,17.82784652709961
2019-09-27,18.000667572021484
2019-09-30,17.92789649963379
2019-10-01,17.964282989501953
2019-10-02,17.38214683532715
2019-10-03,17.464012145996094
2019-10-04,17.71869468688965
2019-10-07,17.56406593322754
2019-10-08,17.536779403686523
2019-10-09,17.664119720458984
2019-10-10,17.73688507080078
2019-10-11,17.773269653320312
2019-10-14,17.98247528076172
2019-10-15,18.200775146484375
2019-10-16,18.21929931640625
2019-10-17,18.052576065063477
2019-10-18,18.04331398010254
2019-10-21,17.96921157836914
2019-10-22,18.034048080444336
2019-10-23,18.11741065979004
2019-10-24,18.08962631225586
2019-10-25,18.26561164855957
2019-10-28,18.32118797302246
2019-10-29,18.75652503967285
2019-10-30,18.876935958862305
2019-10-31,19.12702178955078
2019-11-01,19.330799102783203
2019-11-04,20.636808395385742
2019-11-05,20.5441837310791
2019-11-06,20.099584579467773
2019-11-07,20.4608211517334
2019-11-08,20.599756240844727
2019-11-11,20.766483306884766
2019-11-12,21.062881469726562
2019-11-13,19.886547088623047
2019-11-14,20.451555252075195
2019-11-15,20.82205581665039
2019-11-18,20.562705993652344
2019-11-19,20.609020233154297
2019-11-20,20.516395568847656
2019-11-21,20.368194580078125
2019-11-22,20.83131980895996
2019-11-25,21.136981964111328
2019-11-26,21.442642211914062
2019-11-27,21.850191116333008
2019-11-29,21.95208168029785
2019-12-02,21.211082458496094
2019-12-03,21.331493377685547
2019-12-04,21.31296730041504
2019-12-05,21.70199203491211
2019-12-06,22.044702529907227
2019-12-09,22.841276168823242
2019-12-10,22.693077087402344
2019-12-11,22.62824058532715
2019-12-12,23.01726531982422
2019-12-13,23.137676239013672
2019-12-16,23.10062599182129
2019-12-17,22.57266616821289
2019-12-18,23.10062599182129
2019-12-19,23.119152069091797
2019-12-20,22.9709529876709
2019-12-23,22.66529083251953
2019-12-24,22.452253341674805
2019-12-26,24.2677001953125
2019-12-27,23.091365814208984
2019-12-30,22.98947525024414
2019-12-31,23.026527404785156
