Date,DAKT
2007-12-31,14.084112167358398
2008-01-02,13.996758460998535
2008-01-03,14.046677589416504
2008-01-04,13.485057830810547
2008-01-07,13.834505081176758
2008-01-08,13.7409086227417
2008-01-09,14.102836608886719
2008-01-10,14.165239334106445
2008-01-11,13.8969087600708
2008-01-14,13.722183227539062
2008-01-15,13.341532707214355
2008-01-16,12.82359504699707
2008-01-17,12.467905044555664
2008-01-18,12.130932807922363
2008-01-22,11.86884880065918
2008-01-23,11.99364948272705
2008-01-24,11.65044116973877
2008-01-25,11.956212043762207
2008-01-28,12.06229305267334
2008-01-29,12.573988914489746
2008-01-30,12.486624717712402
2008-01-31,12.786162376403809
2008-02-01,12.967117309570312
2008-02-04,12.598953247070312
2008-02-05,12.199579238891602
2008-02-06,12.012373924255371
2008-02-07,12.09973430633545
2008-02-08,12.081014633178711
2008-02-11,11.90628719329834
2008-02-12,12.15589427947998
2008-02-13,10.94530200958252
2008-02-14,10.583366394042969
2008-02-15,10.745612144470215
2008-02-19,10.988981246948242
2008-02-20,10.783052444458008
2008-02-21,10.820496559143066
2008-02-22,10.751852989196777
2008-02-25,10.932818412780762
2008-02-26,10.901616096496582
2008-02-27,11.013941764831543
2008-02-28,10.907855987548828
2008-02-29,10.783052444458008
2008-03-03,10.171512603759766
2008-03-04,10.015511512756348
2008-03-05,10.520964622497559
2008-03-06,10.109112739562988
2008-03-07,9.990549087524414
2008-03-10,9.697260856628418
2008-03-11,9.797101020812988
2008-03-12,9.915667533874512
2008-03-13,9.734701156616211
2008-03-14,9.45389175415039
2008-03-17,9.204282760620117
2008-03-18,9.834542274475098
2008-03-19,9.74094009399414
2008-03-20,10.377442359924316
2008-03-24,10.739371299743652
2008-03-25,10.608329772949219
2008-03-26,10.664488792419434
2008-03-27,10.53344440460205
2008-03-28,10.89537525177002
2008-03-31,11.176186561584473
2008-04-01,11.78148365020752
2008-04-02,11.656678199768066
2008-04-03,11.500676155090332
2008-04-04,12.174616813659668
2008-04-07,12.630151748657227
2008-04-08,12.486624717712402
2008-04-09,11.912529945373535
2008-04-10,12.180855751037598
2008-04-11,11.7565279006958
2008-04-14,11.588041305541992
2008-04-15,11.463233947753906
2008-04-16,12.15589427947998
2008-04-17,11.99364948272705
2008-04-18,12.15589427947998
2008-04-21,12.037330627441406
2008-04-22,11.787724494934082
2008-04-23,8.96716022491455
2008-04-24,9.123159408569336
2008-04-25,9.229247093200684
2008-04-28,9.372770309448242
2008-04-29,9.297883987426758
2008-04-30,9.229247093200684
2008-05-01,9.759662628173828
2008-05-02,9.703500747680664
2008-05-05,9.67853832244873
2008-05-06,10.102871894836426
2008-05-07,9.772140502929688
2008-05-08,9.859504699707031
2008-05-09,9.8033447265625
2008-05-12,10.502243995666504
2008-05-13,10.633289337158203
2008-05-14,10.527205467224121
2008-05-15,10.45232105255127
2008-05-16,10.408641815185547
2008-05-19,10.645769119262695
2008-05-20,10.489764213562012
2008-05-21,10.389921188354492
2008-05-22,10.371199607849121
2008-05-23,10.177753448486328
2008-05-27,10.32751750946045
2008-05-28,11.600519180297852
2008-05-29,11.793961524963379
2008-05-30,12.598953247070312
2008-06-02,12.081014633178711
2008-06-03,12.305658340454102
2008-06-04,12.355582237243652
2008-06-05,12.680070877075195
2008-06-06,12.122222900390625
2008-06-09,12.40428352355957
2008-06-10,12.222511291503906
2008-06-11,12.122222900390625
2008-06-12,12.35413932800293
2008-06-13,12.529640197753906
2008-06-16,12.535910606384277
2008-06-17,12.435622215270996
2008-06-18,12.360404968261719
2008-06-19,12.504570007324219
2008-06-20,12.335333824157715
2008-06-23,12.473227500915527
2008-06-24,12.473227500915527
2008-06-25,12.855573654174805
2008-06-26,12.761554718017578
2008-06-27,13.03735065460205
2008-06-30,12.642463684082031
2008-07-01,12.811701774597168
2008-07-02,12.473227500915527
2008-07-03,12.3792085647583
2008-07-07,12.611126899719238
2008-07-08,12.962129592895508
2008-07-09,13.006007194519043
2008-07-10,12.398015022277832
2008-07-11,11.764948844909668
2008-07-14,10.824756622314453
2008-07-15,10.680595397949219
2008-07-16,11.182031631469727
2008-07-17,11.338727951049805
2008-07-18,11.338727951049805
2008-07-21,11.031601905822754
2008-07-22,10.899974822998047
2008-07-23,11.45155143737793
2008-07-24,11.413944244384766
2008-07-25,11.219637870788574
2008-07-28,11.031601905822754
2008-07-29,11.363801956176758
2008-07-30,11.376335144042969
2008-07-31,11.188299179077148
2008-08-01,11.257247924804688
2008-08-04,11.338727951049805
2008-08-05,11.902847290039062
2008-08-06,11.971794128417969
2008-08-07,12.134760856628418
2008-08-08,11.909113883972168
2008-08-11,12.109691619873047
2008-08-12,12.003134727478027
2008-08-13,11.9467191696167
2008-08-14,11.909113883972168
2008-08-15,11.909113883972168
2008-08-18,11.827630996704102
2008-08-19,11.677200317382812
2008-08-20,11.721076011657715
2008-08-21,11.439016342163086
2008-08-22,11.721076011657715
2008-08-25,11.351266860961914
2008-08-26,11.006526947021484
2008-08-27,11.514232635498047
2008-08-28,11.169496536254883
2008-08-29,10.987722396850586
2008-09-02,10.417340278625488
2008-09-03,10.36092758178711
2008-09-04,10.179157257080078
2008-09-05,10.129012107849121
2008-09-08,10.44867992401123
2008-09-09,10.498823165893555
2008-09-10,10.62418270111084
2008-09-11,10.536431312561035
2008-09-12,10.329588890075684
2008-09-15,10.047532081604004
2008-09-16,10.655524253845215
2008-09-17,10.266911506652832
2008-09-18,11.26351261138916
2008-09-19,11.783751487731934
2008-09-22,10.981454849243164
2008-09-23,10.831024169921875
2008-09-24,10.442411422729492
2008-09-25,10.574039459228516
2008-09-26,10.737005233764648
2008-09-29,10.216766357421875
2008-09-30,10.442411422729492
2008-10-01,10.191694259643555
2008-10-02,9.489684104919434
2008-10-03,9.389395713806152
2008-10-06,9.163747787475586
2008-10-07,8.712458610534668
2008-10-08,8.593367576599121
2008-10-09,7.922697067260742
2008-10-10,8.085662841796875
2008-10-13,8.637240409851074
2008-10-14,7.941498279571533
2008-10-15,7.063983917236328
2008-10-16,7.377383708953857
2008-10-17,7.50900936126709
2008-10-20,7.9477667808532715
2008-10-21,7.979102611541748
2008-10-22,6.888482093811035
2008-10-23,6.286756992340088
2008-10-24,5.829197406768799
2008-10-27,5.935754776000977
2008-10-28,6.336902618408203
2008-10-29,6.318099498748779
2008-10-30,6.606423377990723
2008-10-31,6.24288272857666
2008-11-03,6.330636024475098
2008-11-04,6.618961334228516
2008-11-05,6.343171119689941
2008-11-06,5.5471415519714355
2008-11-07,5.728909969329834
2008-11-10,5.565943717956543
2008-11-11,5.13972282409668
2008-11-12,5.0080952644348145
2008-11-13,5.327762126922607
2008-11-14,4.920343399047852
2008-11-17,4.356229305267334
2008-11-18,4.111776351928711
2008-11-19,4.086706638336182
2008-11-20,3.9801511764526367
2008-11-21,3.9049370288848877
2008-11-24,4.237136363983154
2008-11-25,5.0770440101623535
2008-11-26,5.71637487411499
2008-11-28,5.710107326507568
2008-12-01,5.164794445037842
2008-12-02,5.490727424621582
2008-12-03,5.377904891967773
2008-12-04,5.196133136749268
2008-12-05,5.678767204284668
2008-12-08,5.68503475189209
2008-12-09,5.753982067108154
2008-12-10,5.797857761383057
2008-12-11,5.616087913513184
2008-12-12,5.641157627105713
2008-12-15,5.1585259437561035
2008-12-16,5.522068023681641
2008-12-17,5.810392379760742
2008-12-18,5.741447448730469
2008-12-19,5.71637487411499
2008-12-22,5.747714519500732
2008-12-23,5.722641944885254
2008-12-24,5.484460353851318
2008-12-26,5.5784807205200195
2008-12-29,5.584748268127441
2008-12-30,5.666229248046875
2008-12-31,5.8668036460876465
2009-01-02,6.167666912078857
2009-01-05,6.24288272857666
2009-01-06,6.631495475769043
2009-01-07,6.230348587036133
2009-01-08,6.32436466217041
2009-01-09,5.97335958480835
2009-01-12,5.954556941986084
2009-01-13,6.117523670196533
2009-01-14,5.879340648651123
2009-01-15,5.923215866088867
2009-01-16,5.873073577880859
2009-01-20,5.641157627105713
2009-01-21,6.054845809936523
2009-01-22,5.47819185256958
2009-01-23,5.628623962402344
2009-01-26,5.490727424621582
2009-01-27,5.653695106506348
2009-01-28,5.797857761383057
2009-01-29,5.471923351287842
2009-01-30,5.409245014190674
2009-02-02,5.453120708465576
2009-02-03,5.540870666503906
2009-02-04,5.434317111968994
2009-02-05,5.4029765129089355
2009-02-06,5.421781539916992
2009-02-09,5.296421527862549
2009-02-10,5.2024030685424805
2009-02-11,5.277618408203125
2009-02-12,5.334029674530029
2009-02-13,5.3465657234191895
2009-02-17,5.308957099914551
2009-02-18,5.340297698974609
2009-02-19,5.3465657234191895
2009-02-20,5.001828193664551
2009-02-23,4.895271301269531
2009-02-24,4.5191969871521
2009-02-25,4.243404865264893
2009-02-26,4.074170112609863
2009-02-27,4.2998175621032715
2009-03-02,4.105510711669922
2009-03-03,3.9989542961120605
2009-03-04,4.049098968505859
2009-03-05,3.854792594909668
2009-03-06,3.9237396717071533
2009-03-09,3.7482364177703857
2009-03-10,3.9864187240600586
2009-03-11,3.8485236167907715
2009-03-12,3.9989542961120605
2009-03-13,4.111776351928711
2009-03-16,4.118046283721924
2009-03-17,4.337424278259277
2009-03-18,4.387568473815918
2009-03-19,4.494122505187988
2009-03-20,4.237136363983154
2009-03-23,4.537999629974365
2009-03-24,4.3499603271484375
2009-03-25,4.287281513214111
2009-03-26,4.356229305267334
2009-03-27,4.2998175621032715
2009-03-30,4.161921977996826
2009-03-31,4.105510711669922
2009-04-01,4.143118381500244
2009-04-02,4.619482517242432
2009-04-03,4.932879447937012
2009-04-06,4.794984817504883
2009-04-07,4.851396560668945
2009-04-08,4.845127105712891
2009-04-09,5.409245014190674
2009-04-13,5.0582380294799805
2009-04-14,4.788716793060303
2009-04-15,4.820056438446045
2009-04-16,5.095847129821777
2009-04-17,5.221205711364746
2009-04-20,4.794984817504883
2009-04-21,5.290153503417969
2009-04-22,5.3841729164123535
2009-04-23,5.35910177230835
2009-04-24,5.471923351287842
2009-04-27,5.471923351287842
2009-04-28,5.453120708465576
2009-04-29,5.76651668548584
2009-04-30,5.666229248046875
2009-05-01,5.616087913513184
2009-05-04,6.067380428314209
2009-05-05,6.092451095581055
2009-05-06,5.998432159423828
2009-05-07,5.471923351287842
2009-05-08,5.71637487411499
2009-05-11,5.779052734375
2009-05-12,5.666229248046875
2009-05-13,5.240008354187012
2009-05-14,5.246280193328857
2009-05-15,5.3841729164123535
2009-05-18,5.421781539916992
2009-05-19,5.428047180175781
2009-05-20,5.634890556335449
2009-05-21,5.2337422370910645
2009-05-22,5.214938640594482
2009-05-26,5.634890556335449
2009-05-27,5.409245014190674
2009-05-28,5.290153503417969
2009-05-29,5.37163782119751
2009-06-01,5.779052734375
2009-06-02,5.026900291442871
2009-06-03,4.4753193855285645
2009-06-04,4.5756072998046875
2009-06-05,4.623237133026123
2009-06-08,4.642287731170654
2009-06-09,4.864559173583984
2009-06-10,4.832805156707764
2009-06-11,4.934417247772217
2009-06-12,4.921713829040527
2009-06-15,4.71214485168457
2009-06-16,4.64863920211792
2009-06-17,4.877262115478516
2009-06-18,4.8391571044921875
2009-06-19,4.7883524894714355
2009-06-22,4.667690753936768
2009-06-23,4.540679454803467
2009-06-24,4.585131645202637
2009-06-25,4.731196403503418
2009-06-26,4.8391571044921875
2009-06-29,4.756599426269531
2009-06-30,4.889960765838623
2009-07-01,5.029674053192139
2009-07-02,4.762948989868164
2009-07-06,4.680392265319824
2009-07-07,4.616885185241699
2009-07-08,4.5914835929870605
2009-07-09,4.489873886108398
2009-07-10,4.578782081604004
2009-07-13,4.654989242553711
2009-07-14,4.686741352081299
2009-07-15,4.7883524894714355
2009-07-16,5.093182563781738
2009-07-17,5.175739765167236
2009-07-20,5.232894420623779
2009-07-21,5.245595455169678
2009-07-22,5.2392449378967285
2009-07-23,5.42976188659668
2009-07-24,5.556774139404297
2009-07-27,5.525022029876709
2009-07-28,5.4361138343811035
2009-07-29,5.270998954772949
2009-07-30,5.398009300231934
2009-07-31,5.321802616119385
2009-08-03,5.385308265686035
2009-08-04,5.4869184494018555
2009-08-05,5.353555679321289
2009-08-06,5.32815408706665
2009-08-07,5.525022029876709
2009-08-10,5.620282173156738
2009-08-11,5.6139302253723145
2009-08-12,5.721889972686768
2009-08-13,5.740941047668457
2009-08-14,5.525022029876709
2009-08-17,5.366256237030029
2009-08-18,5.607578754425049
2009-08-19,5.690136909484863
2009-08-20,5.82349967956543
2009-08-21,5.728241920471191
2009-08-24,5.645684242248535
2009-08-25,5.385308265686035
2009-08-26,5.2392449378967285
2009-08-27,5.264646053314209
2009-08-28,5.213840961456299
2009-08-31,5.124933242797852
2009-09-01,4.997921943664551
2009-09-02,4.96616792678833
2009-09-03,5.04237699508667
2009-09-04,5.093182563781738
2009-09-08,5.067778587341309
2009-09-09,5.080479621887207
2009-09-10,5.048726558685303
2009-09-11,4.985220909118652
2009-09-14,5.048726558685303
2009-09-15,5.175739765167236
2009-09-16,5.347203731536865
2009-09-17,5.2836995124816895
2009-09-18,5.150336265563965
2009-09-21,5.074128150939941
2009-09-22,5.055078029632568
2009-09-23,5.080479621887207
2009-09-24,5.112232685089111
2009-09-25,5.194790363311768
2009-09-28,5.398009300231934
2009-09-29,5.410711288452148
2009-09-30,5.442464828491211
2009-10-01,5.321802616119385
2009-10-02,5.30910062789917
2009-10-05,5.334504127502441
2009-10-06,5.512320518493652
2009-10-07,5.4869184494018555
2009-10-08,5.607578754425049
2009-10-09,5.544074058532715
2009-10-12,5.5631256103515625
2009-10-13,5.499618053436279
2009-10-14,5.632980823516846
2009-10-15,5.715539455413818
2009-10-16,5.607578754425049
2009-10-19,5.639331340789795
2009-10-20,5.42976188659668
2009-10-21,5.347203731536865
2009-10-22,5.182088851928711
2009-10-23,5.036025524139404
2009-10-26,4.940765857696533
2009-10-27,4.915362358093262
2009-10-28,4.686741352081299
2009-10-29,4.794703006744385
2009-10-30,4.775651454925537
2009-11-02,4.902663707733154
2009-11-03,5.04237699508667
2009-11-04,4.832805156707764
2009-11-05,5.182088851928711
2009-11-06,5.188439846038818
2009-11-09,5.378957748413086
2009-11-10,5.353555679321289
2009-11-11,5.27734899520874
2009-11-12,5.061427593231201
2009-11-13,5.118583679199219
2009-11-16,5.270998954772949
2009-11-17,5.245595455169678
2009-11-18,5.264646053314209
2009-11-19,5.093182563781738
2009-11-20,5.124933242797852
2009-11-23,5.32815408706665
2009-11-24,5.3154520988464355
2009-11-25,5.467864990234375
2009-11-27,5.245595455169678
2009-11-30,5.378957748413086
2009-12-01,5.525022029876709
2009-12-02,5.6139302253723145
2009-12-03,5.493268966674805
2009-12-04,5.588527202606201
2009-12-07,5.5631256103515625
2009-12-08,5.6139302253723145
2009-12-09,5.620282173156738
2009-12-10,5.658384323120117
2009-12-11,5.7028398513793945
2009-12-14,5.715539455413818
2009-12-15,5.709189414978027
2009-12-16,5.76634407043457
2009-12-17,5.664734363555908
2009-12-18,5.696487903594971
2009-12-21,5.715539455413818
2009-12-22,5.842551231384277
2009-12-23,5.80444860458374
2009-12-24,5.82349967956543
2009-12-28,5.7599945068359375
2009-12-29,5.855251312255859
2009-12-30,5.874303817749023
2009-12-31,5.848901271820068
2010-01-04,6.0076680183410645
2010-01-05,5.880654811859131
2010-01-06,5.842551231384277
2010-01-07,5.880654811859131
2010-01-08,6.071173191070557
2010-01-11,5.937808990478516
2010-01-12,5.556774139404297
2010-01-13,5.620282173156738
2010-01-14,5.620282173156738
2010-01-15,5.353555679321289
2010-01-19,5.347203731536865
2010-01-20,5.258296012878418
2010-01-21,5.290049076080322
2010-01-22,5.188439846038818
2010-01-25,5.150336265563965
2010-01-26,5.124933242797852
2010-01-27,5.182088851928711
2010-01-28,5.067778587341309
2010-01-29,4.959818363189697
2010-02-01,4.909014701843262
2010-02-02,4.902663707733154
2010-02-03,4.877262115478516
2010-02-04,4.71214485168457
2010-02-05,4.686741352081299
2010-02-08,4.59783411026001
2010-02-09,4.680392265319824
2010-02-10,4.616885185241699
2010-02-11,4.705794334411621
2010-02-12,4.705794334411621
2010-02-16,4.769301414489746
2010-02-17,4.7883524894714355
2010-02-18,4.64863920211792
2010-02-19,4.724845886230469
2010-02-22,4.724845886230469
2010-02-23,4.623237133026123
2010-02-24,4.972518444061279
2010-02-25,4.947117328643799
2010-02-26,4.807404041290283
2010-03-01,4.858209133148193
2010-03-02,4.902663707733154
2010-03-03,4.934417247772217
2010-03-04,4.953468322753906
2010-03-05,5.04237699508667
2010-03-08,5.04237699508667
2010-03-09,5.124933242797852
2010-03-10,5.112232685089111
2010-03-11,5.086829662322998
2010-03-12,5.226542949676514
2010-03-15,5.245595455169678
2010-03-16,5.258296012878418
2010-03-17,5.131284236907959
2010-03-18,5.055078029632568
2010-03-19,5.04237699508667
2010-03-22,5.10588264465332
2010-03-23,5.04237699508667
2010-03-24,4.928066730499268
2010-03-25,4.864559173583984
2010-03-26,4.959818363189697
2010-03-29,4.902663707733154
2010-03-30,4.832805156707764
2010-03-31,4.8391571044921875
2010-04-01,4.826455593109131
2010-04-05,4.934417247772217
2010-04-06,4.896312713623047
2010-04-07,4.921713829040527
2010-04-08,4.915362358093262
2010-04-09,4.896312713623047
2010-04-12,4.915362358093262
2010-04-13,4.889960765838623
2010-04-14,5.099531173706055
2010-04-15,5.099531173706055
2010-04-16,5.188439846038818
2010-04-19,5.213840961456299
2010-04-20,5.455164432525635
2010-04-21,5.505970001220703
2010-04-22,5.728241920471191
2010-04-23,5.861603260040283
2010-04-26,5.728241920471191
2010-04-27,5.550422668457031
2010-04-28,5.461516857147217
2010-04-29,5.645684242248535
2010-04-30,5.3154520988464355
2010-05-03,5.4361138343811035
2010-05-04,5.067778587341309
2010-05-05,5.086829662322998
2010-05-06,5.163036823272705
2010-05-07,5.264646053314209
2010-05-10,5.512320518493652
2010-05-11,5.461516857147217
2010-05-12,5.632980823516846
2010-05-13,5.575827598571777
2010-05-14,5.42976188659668
2010-05-17,5.544074058532715
2010-05-18,5.3726067543029785
2010-05-19,5.290049076080322
2010-05-20,5.131284236907959
2010-05-21,5.093182563781738
2010-05-24,5.080479621887207
2010-05-25,5.169388771057129
2010-05-26,4.997921943664551
2010-05-27,5.442464828491211
2010-05-28,5.347203731536865
2010-06-01,5.131284236907959
2010-06-02,5.156687259674072
2010-06-03,5.201141834259033
2010-06-04,5.004272937774658
2010-06-07,4.889960765838623
2010-06-08,4.820105075836182
2010-06-09,4.813755035400391
2010-06-10,5.122658729553223
2010-06-11,5.270675182342529
2010-06-14,5.341465473175049
2010-06-15,5.450868606567383
2010-06-16,5.437997341156006
2010-06-17,5.483047008514404
2010-06-18,5.373642921447754
2010-06-21,5.206320762634277
2010-06-22,5.090480327606201
2010-06-23,5.090480327606201
2010-06-24,5.006819248199463
2010-06-25,5.180578231811523
2010-06-28,5.045433521270752
2010-06-29,4.923157691955566
2010-06-30,4.826624870300293
2010-07-01,4.910286903381348
2010-07-02,4.948898792266846
2010-07-06,4.775140285491943
2010-07-07,4.93602991104126
2010-07-08,5.122658729553223
2010-07-09,5.174143314361572
2010-07-12,5.1612725257873535
2010-07-13,5.39294958114624
2010-07-14,5.476611137390137
2010-07-15,5.412255764007568
2010-07-16,5.148399829864502
2010-07-19,5.187014102935791
2010-07-20,5.412255764007568
2010-07-21,5.225627422332764
2010-07-22,5.437997341156006
2010-07-23,5.592450141906738
2010-07-26,5.6310625076293945
2010-07-27,5.598885536193848
2010-07-28,5.412255764007568
2010-07-29,5.521658420562744
2010-07-30,5.483047008514404
2010-08-02,5.470175266265869
2010-08-03,5.418691158294678
2010-08-04,5.425127029418945
2010-08-05,5.328593730926514
2010-08-06,5.328593730926514
2010-08-09,5.46373987197876
2010-08-10,5.238497734069824
2010-08-11,4.93602991104126
2010-08-12,4.8974151611328125
2010-08-13,4.807319641113281
2010-08-16,4.794447422027588
2010-08-17,5.026126384735107
2010-08-18,4.93602991104126
2010-08-19,4.749398708343506
2010-08-20,4.9553351402282715
2010-08-23,5.032561302185059
2010-08-24,5.90135383605957
2010-08-25,5.927094459533691
2010-08-26,5.978581428527832
2010-08-27,6.3389692306518555
2010-08-30,6.0171918869018555
2010-08-31,5.927094459533691
2010-09-01,6.133031845092773
2010-09-02,6.223127365112305
2010-09-03,6.364709854125977
2010-09-07,6.364709854125977
2010-09-08,6.686483860015869
2010-09-09,6.564211845397949
2010-09-10,6.544906139373779
2010-09-13,6.725098609924316
2010-09-14,6.692920207977295
2010-09-15,6.744406223297119
2010-09-16,6.654306888580322
2010-09-17,6.660743236541748
2010-09-20,6.802325248718262
2010-09-21,6.570646286010742
2010-09-22,6.557774066925049
2010-09-23,6.564211845397949
2010-09-24,6.609260559082031
2010-09-27,6.506289482116699
2010-09-28,6.397964954376221
2010-09-29,6.364114284515381
2010-09-30,6.648467063903809
2010-10-01,6.67555046081543
2010-10-04,6.614616870880127
2010-10-05,6.892200469970703
2010-10-06,6.716171741485596
2010-10-07,6.790646076202393
2010-10-08,6.878659248352051
2010-10-11,6.81772518157959
2010-10-12,6.919281482696533
2010-10-13,7.12916374206543
2010-10-14,7.251028537750244
2010-10-15,7.081770420074463
2010-10-18,7.45413875579834
2010-10-19,7.0411481857299805
2010-10-20,7.014065265655518
2010-10-21,7.1223907470703125
2010-10-22,7.217175483703613
2010-10-25,7.311963081359863
2010-10-26,7.339041233062744
2010-10-27,7.339041233062744
2010-10-28,7.34581184387207
2010-10-29,7.393206596374512
2010-11-01,7.474450588226318
2010-11-02,7.657248497009277
2010-11-03,7.684329509735107
2010-11-04,8.077011108398438
2010-11-05,7.995764255523682
2010-11-08,8.063468933105469
2010-11-09,8.043156623840332
2010-11-10,8.151482582092285
2010-11-11,7.961913585662842
2010-11-12,7.738492488861084
2010-11-15,7.826505661010742
2010-11-16,7.616625785827637
2010-11-17,8.442607879638672
2010-11-18,8.584784507751465
2010-11-19,8.59155559539795
2010-11-22,8.63217544555664
2010-11-23,8.760810852050781
2010-11-24,9.194112777709961
2010-11-26,9.437844276428223
2010-11-29,9.356599807739258
2010-11-30,9.126410484313965
2010-12-01,9.417531967163086
2010-12-02,9.728972434997559
2010-12-03,9.89822769165039
2010-12-06,10.087798118591309
2010-12-07,10.317989349365234
2010-12-08,10.758060455322266
2010-12-09,10.771601676940918
2010-12-10,10.771601676940918
2010-12-13,10.67004680633545
2010-12-14,10.676816940307617
2010-12-15,10.852848052978516
2010-12-16,10.900238990783691
2010-12-17,10.947630882263184
2010-12-20,11.306458473205566
2010-12-21,11.516338348388672
2010-12-22,11.299688339233398
2010-12-23,11.16427993774414
2010-12-27,11.171051025390625
2010-12-28,11.116887092590332
2010-12-29,10.846073150634766
2010-12-30,10.852848052978516
2010-12-31,10.778372764587402
2011-01-03,11.049185752868652
2011-01-04,10.595572471618652
2011-01-05,10.981483459472656
2011-01-06,10.900238990783691
2011-01-07,10.900238990783691
2011-01-10,11.001792907714844
2011-01-11,11.096575736999512
2011-01-12,11.17782211303711
2011-01-13,11.089808464050293
2011-01-14,11.171051025390625
2011-01-18,10.825764656066895
2011-01-19,10.250285148620605
2011-01-20,10.223203659057617
2011-01-21,10.243515014648438
2011-01-24,10.324758529663086
2011-01-25,10.372152328491211
2011-01-26,10.615885734558105
2011-01-27,10.575261116027832
2011-01-28,10.02686595916748
2011-01-31,10.338300704956055
2011-02-01,10.541410446166992
2011-02-02,10.40600299835205
2011-02-03,10.609112739562988
2011-02-04,10.399234771728516
2011-02-07,10.548181533813477
2011-02-08,10.392463684082031
2011-02-09,10.378922462463379
2011-02-10,10.67004680633545
2011-02-11,10.791912078857422
2011-02-14,10.920548439025879
2011-02-15,10.697128295898438
2011-02-16,10.981483459472656
2011-02-17,10.920548439025879
2011-02-18,11.008563995361328
2011-02-22,8.043156623840332
2011-02-23,7.494759559631348
2011-02-24,7.325501441955566
2011-02-25,7.880669116973877
2011-02-28,7.752029895782471
2011-03-01,7.440596580505371
2011-03-02,7.406744956970215
2011-03-03,7.582772254943848
2011-03-04,7.650477409362793
2011-03-07,7.332270622253418
2011-03-08,7.603084087371826
2011-03-09,7.603084087371826
2011-03-10,7.325501441955566
2011-03-11,7.278109073638916
2011-03-14,7.176553726196289
2011-03-15,7.054688930511475
2011-03-16,6.885432243347168
2011-03-17,6.838038444519043
2011-03-18,7.318731784820557
2011-03-21,7.589546203613281
2011-03-22,7.515068531036377
2011-03-23,7.542153835296631
2011-03-24,7.427056789398193
2011-03-25,7.311963081359863
2011-03-28,7.366124153137207
2011-03-29,7.379665851593018
2011-03-30,7.41351318359375
2011-03-31,7.278109073638916
2011-04-01,7.433826923370361
2011-04-04,7.501529216766357
2011-04-05,7.467675685882568
2011-04-06,7.474450588226318
2011-04-07,7.271340370178223
2011-04-08,7.149474143981934
2011-04-11,7.000524520874023
2011-04-12,6.973445892333984
2011-04-13,6.892200469970703
2011-04-14,6.905742645263672
2011-04-15,7.007295608520508
2011-04-18,6.84480619430542
2011-04-19,6.905742645263672
2011-04-20,7.284879207611084
2011-04-21,7.102082252502441
2011-04-25,7.102082252502441
2011-04-26,7.291650295257568
2011-04-27,7.366124153137207
2011-04-28,7.284879207611084
2011-04-29,7.257796764373779
2011-05-02,7.068228721618652
2011-05-03,6.932821750640869
2011-05-04,6.736483097076416
2011-05-05,6.655239105224609
2011-05-06,6.770333290100098
2011-05-09,6.905742645263672
2011-05-10,7.176553726196289
2011-05-11,6.783877372741699
2011-05-12,6.838038444519043
2011-05-13,6.59430456161499
2011-05-16,6.4859795570373535
2011-05-17,6.553682804107666
2011-05-18,6.634926795959473
2011-05-19,6.689088821411133
2011-05-20,6.59430456161499
2011-05-23,6.445357799530029
2011-05-24,6.540143013000488
2011-05-25,6.831267833709717
2011-05-26,6.912510871887207
2011-05-27,6.838038444519043
2011-05-31,7.278109073638916
2011-06-01,7.948372840881348
2011-06-02,7.738492488861084
2011-06-03,7.406744956970215
2011-06-06,7.176553726196289
2011-06-07,7.054688930511475
2011-06-08,6.885432243347168
2011-06-09,6.844364166259766
2011-06-10,6.7553863525390625
2011-06-13,6.618497371673584
2011-06-14,6.707475662231445
2011-06-15,6.6732563972473145
2011-06-16,6.700631141662598
2011-06-17,6.74169921875
2011-06-20,6.79645299911499
2011-06-21,7.10444974899292
2011-06-22,6.940185070037842
2011-06-23,7.138671875
2011-06-24,7.09075927734375
2011-06-27,7.111291885375977
2011-06-28,7.152359485626221
2011-06-29,7.282402515411377
2011-06-30,7.385067462921143
2011-07-01,7.474045276641846
2011-07-05,7.679375171661377
2011-07-06,7.563022136688232
2011-07-07,7.610931873321533
2011-07-08,7.5424885749816895
2011-07-11,7.453514099121094
2011-07-12,7.398756504058838
2011-07-13,7.487733364105225
2011-07-14,7.193427085876465
2011-07-15,7.213958263397217
2011-07-18,7.0770721435546875
2011-07-19,7.364534854888916
2011-07-20,7.296092510223389
2011-07-21,7.467199325561523
2011-07-22,7.4466681480407715
2011-07-25,7.330312252044678
2011-07-26,7.20026969909668
2011-07-27,6.871740818023682
2011-07-28,6.789608955383301
2011-07-29,6.79645299911499
2011-08-01,7.124983310699463
2011-08-02,6.837518692016602
2011-08-03,7.001783847808838
2011-08-04,6.6732563972473145
2011-08-05,6.611654281616211
2011-08-08,6.03672981262207
2011-08-09,6.433701992034912
2011-08-10,5.988818168640137
2011-08-11,6.153082370758057
2011-08-12,6.077794075012207
2011-08-15,6.194150924682617
2011-08-16,5.927217483520508
2011-08-17,5.940907001495361
2011-08-18,5.667131423950195
2011-08-19,5.756109237670898
2011-08-22,5.886153221130371
2011-08-23,6.207837104797363
2011-08-24,6.146237373352051
2011-08-25,6.050417900085449
2011-08-26,6.235214710235596
2011-08-29,6.666410446166992
2011-08-30,6.570589542388916
2011-08-31,6.59796667098999
2011-09-01,6.467922687530518
2011-09-02,6.296812057495117
2011-09-06,6.1667704582214355
2011-09-07,6.413168430328369
2011-09-08,6.207837104797363
2011-09-09,5.913530349731445
2011-09-12,6.255748271942139
2011-09-13,6.365258693695068
2011-09-14,6.502144813537598
2011-09-15,6.481612205505371
2011-09-16,6.508989334106445
2011-09-19,6.515833377838135
2011-09-20,6.447391510009766
2011-09-21,6.351569175720215
2011-09-22,6.023040294647217
2011-09-23,6.132550239562988
2011-09-26,6.248904705047607
2011-09-27,6.303658962249756
2011-09-28,5.845085620880127
2011-09-29,6.132550239562988
2011-09-30,5.872464179992676
2011-10-03,5.537090301513672
2011-10-04,6.016195297241211
2011-10-05,6.105170726776123
2011-10-06,6.159925937652588
2011-10-07,6.029885292053223
2011-10-10,6.324191093444824
2011-10-11,6.433701992034912
2011-10-12,6.5569000244140625
2011-10-13,6.502144813537598
2011-10-14,6.584277629852295
2011-10-17,6.2831268310546875
2011-10-18,6.5569000244140625
2011-10-19,6.324191093444824
2011-10-20,6.46107816696167
2011-10-21,6.515833377838135
2011-10-24,6.680099010467529
2011-10-25,6.406323432922363
2011-10-26,6.714320182800293
2011-10-27,7.261870384216309
2011-10-28,7.186583518981934
2011-10-31,6.912809371948242
2011-11-01,6.591122627258301
2011-11-02,6.74169921875
2011-11-03,7.0496931076049805
2011-11-04,7.03600549697876
2011-11-07,6.940185070037842
2011-11-08,6.967562675476074
2011-11-09,6.5569000244140625
2011-11-10,6.522678852081299
2011-11-11,6.714320182800293
2011-11-14,6.666410446166992
2011-11-15,6.803297519683838
2011-11-16,6.693788051605225
2011-11-17,6.700631141662598
2011-11-18,6.8101420402526855
2011-11-21,6.495301246643066
2011-11-22,6.248904705047607
2011-11-23,6.153082370758057
2011-11-25,6.016195297241211
2011-11-28,6.269436359405518
2011-11-29,6.050417900085449
2011-11-30,6.433701992034912
2011-12-01,6.324191093444824
2011-12-02,6.748541355133057
2011-12-05,6.8169846534729
2011-12-06,6.946833610534668
2011-12-07,7.083894729614258
2011-12-08,7.040612697601318
2011-12-09,7.1704607009887695
2011-12-12,7.069467067718506
2011-12-13,6.889123439788818
2011-12-14,6.708781719207764
2011-12-15,6.780915260314941
2011-12-16,6.853054046630859
2011-12-19,6.752060890197754
2011-12-20,7.177672386169434
2011-12-21,7.098320484161377
2011-12-22,7.083894729614258
2011-12-23,7.02618408203125
2011-12-27,7.033400535583496
2011-12-28,7.141602993011475
2011-12-29,7.134392261505127
2011-12-30,6.9035515785217285
2012-01-03,7.105535984039307
2012-01-04,7.033400535583496
2012-01-05,7.05504035949707
2012-01-06,7.040612697601318
2012-01-09,6.997330188751221
2012-01-10,7.2353835105896
2012-01-11,7.228168487548828
2012-01-12,7.271453380584717
2012-01-13,7.1704607009887695
2012-01-17,7.083894729614258
2012-01-18,7.444581031799316
2012-01-19,7.495075702667236
2012-01-20,7.632138729095459
2012-01-23,7.560003280639648
2012-01-24,7.682632923126221
2012-01-25,7.790842056274414
2012-01-26,7.841338634490967
2012-01-27,8.115460395812988
2012-01-30,7.920688152313232
2012-01-31,7.891834259033203
2012-02-01,8.223664283752441
2012-02-02,8.266949653625488
2012-02-03,8.519428253173828
2012-02-06,8.411222457885742
2012-02-07,8.375153541564941
2012-02-08,8.346301078796387
2012-02-09,8.339086532592773
2012-02-10,8.014467239379883
2012-02-13,8.230880737304688
2012-02-14,8.129888534545898
2012-02-15,7.927902698516846
2012-02-16,8.2380952835083
2012-02-17,8.129888534545898
2012-02-21,7.098320484161377
2012-02-22,6.629429340362549
2012-02-23,6.6005730628967285
2012-02-24,6.672709941864014
2012-02-27,6.672709941864014
2012-02-28,6.679925918579102
2012-02-29,6.492367267608643
2012-03-01,6.477940082550049
2012-03-02,6.268742561340332
2012-03-05,6.138894557952881
2012-03-06,6.167747974395752
2012-03-07,6.110039710998535
2012-03-08,6.160534381866455
2012-03-09,6.247098445892334
2012-03-12,6.239887237548828
2012-03-13,6.355307102203369
2012-03-14,6.239887237548828
2012-03-15,6.362521171569824
2012-03-16,6.340879440307617
2012-03-19,6.369734764099121
2012-03-20,6.268742561340332
2012-03-21,6.21103048324585
2012-03-22,6.232673645019531
2012-03-23,6.2182440757751465
2012-03-26,6.362521171569824
2012-03-27,6.297595977783203
2012-03-28,6.3336639404296875
2012-03-29,6.355307102203369
2012-03-30,6.413017272949219
2012-04-02,6.44187068939209
2012-04-03,6.261527061462402
2012-04-04,6.117253303527832
2012-04-05,6.095611095428467
2012-04-09,5.9874067306518555
2012-04-10,5.871985912322998
2012-04-11,5.929696083068848
2012-04-12,5.9946184158325195
2012-04-13,5.864771842956543
2012-04-16,5.915268421173096
2012-04-17,5.9874067306518555
2012-04-18,5.90084171295166
2012-04-19,5.821488380432129
2012-04-20,5.828702449798584
2012-04-23,5.7637810707092285
2012-04-24,5.835916996002197
2012-04-25,5.95855188369751
2012-04-26,5.929696083068848
2012-04-27,6.10282564163208
2012-04-30,5.871985912322998
2012-05-01,5.922481536865234
2012-05-02,5.951336860656738
2012-05-03,5.713283061981201
2012-05-04,5.612290859222412
2012-05-07,5.619505882263184
2012-05-08,5.547366619110107
2012-05-09,5.59786319732666
2012-05-10,5.547366619110107
2012-05-11,5.43916130065918
2012-05-14,5.453588485717773
2012-05-15,5.518511772155762
2012-05-16,5.388665199279785
2012-05-17,5.3814520835876465
2012-05-18,5.3309550285339355
2012-05-21,5.403092384338379
2012-05-22,5.143398284912109
2012-05-23,5.22996187210083
2012-05-24,5.179466724395752
2012-05-25,5.157825469970703
2012-05-29,5.258817195892334
2012-05-30,4.739429473876953
2012-05-31,4.725001335144043
2012-06-01,4.60958194732666
2012-06-04,4.7033586502075195
2012-06-05,4.753855228424072
2012-06-06,4.8548479080200195
2012-06-07,4.970268249511719
2012-06-08,4.970268249511719
2012-06-11,4.7754974365234375
2012-06-12,4.852579116821289
2012-06-13,4.815874099731445
2012-06-14,4.837897300720215
2012-06-15,4.911311626434326
2012-06-18,4.793849945068359
2012-06-19,4.889287948608398
2012-06-20,4.918651580810547
2012-06-21,4.764484882354736
2012-06-22,4.903968811035156
2012-06-25,4.749802112579346
2012-06-26,4.713095664978027
2012-06-27,4.727777481079102
2012-06-28,4.889287948608398
2012-06-29,5.072818279266357
2012-07-02,5.153573036193848
2012-07-03,5.293056964874268
2012-07-05,5.26369047164917
2012-07-06,5.329762935638428
2012-07-09,5.439881801605225
2012-07-10,5.616071701049805
2012-07-11,5.674802303314209
2012-07-12,5.682142734527588
2012-07-13,5.7849225997924805
2012-07-16,5.7849225997924805
2012-07-17,5.858336448669434
2012-07-18,6.159327507019043
2012-07-19,6.1299614906311035
2012-07-20,6.034525394439697
2012-07-23,5.836310386657715
2012-07-24,5.645437717437744
2012-07-25,5.616071701049805
2012-07-26,5.630755424499512
2012-07-27,5.8142852783203125
2012-07-30,5.711509704589844
2012-07-31,5.674802303314209
2012-08-01,5.513294219970703
2012-08-02,5.4031758308410645
2012-08-03,5.608730792999268
2012-08-06,5.652777194976807
2012-08-07,5.667461395263672
2012-08-08,5.667461395263672
2012-08-09,5.682142734527588
2012-08-10,5.704167366027832
2012-08-13,5.748215198516846
2012-08-14,5.608730792999268
2012-08-15,5.748215198516846
2012-08-16,5.858336448669434
2012-08-17,5.88035774230957
2012-08-20,5.917064189910889
2012-08-21,6.922818660736084
2012-08-22,7.010912895202637
2012-08-23,6.9815497398376465
2012-08-24,6.9815497398376465
2012-08-27,7.135715484619141
2012-08-28,7.1797637939453125
2012-08-29,7.194446563720703
2012-08-30,6.988888740539551
2012-08-31,7.018256664276123
2012-09-04,7.054961204528809
2012-09-05,7.0990095138549805
2012-09-06,7.1283721923828125
2012-09-07,7.216469764709473
2012-09-10,7.275197982788086
2012-09-11,7.143056869506836
2012-09-12,7.018256664276123
2012-09-13,7.08432674407959
2012-09-14,7.08432674407959
2012-09-17,6.988888740539551
2012-09-18,6.974207401275635
2012-09-19,6.996230602264404
2012-09-20,6.959524154663086
2012-09-21,7.135715484619141
2012-09-24,7.106350898742676
2012-09-25,6.966866493225098
2012-09-26,6.930160045623779
2012-09-27,7.091667175292969
2012-09-28,6.9815497398376465
2012-10-01,6.930160045623779
2012-10-02,6.820039749145508
2012-10-03,6.783335208892822
2012-10-04,6.812701225280762
2012-10-05,6.790675163269043
2012-10-08,6.790675163269043
2012-10-09,6.827383041381836
2012-10-10,6.878772735595703
2012-10-11,6.966866493225098
2012-10-12,6.790675163269043
2012-10-15,6.834723472595215
2012-10-16,6.790675163269043
2012-10-17,6.731945991516113
2012-10-18,6.585121154785156
2012-10-19,6.313493728637695
2012-10-22,6.4970245361328125
2012-10-23,6.555755615234375
2012-10-24,6.504364490509033
2012-10-25,6.577780246734619
2012-10-26,6.5337324142456055
2012-10-31,6.438294887542725
2012-11-01,6.6144843101501465
2012-11-02,6.401589393615723
2012-11-05,6.489683628082275
2012-11-06,6.570437431335449
2012-11-07,6.335517406463623
2012-11-08,6.122621536254883
2012-11-09,6.049208164215088
2012-11-12,6.1005964279174805
2012-11-13,6.093255519866943
2012-11-14,5.9611124992370605
2012-11-15,5.8950419425964355
2012-11-16,6.071231842041016
2012-11-19,5.975794792175293
2012-11-20,6.893453121185303
2012-11-21,7.018256664276123
2012-11-23,7.106350898742676
2012-11-26,7.2091288566589355
2012-11-27,7.267858505249023
2012-11-28,7.26051664352417
2012-11-29,7.444048881530762
2012-11-30,7.678969860076904
2012-12-03,7.825796127319336
2012-12-04,7.605555534362793
2012-12-05,7.355955600738525
2012-12-06,7.719646453857422
2012-12-07,7.758750915527344
2012-12-10,7.907354831695557
2012-12-11,7.86824893951416
2012-12-12,7.696183681488037
2012-12-13,7.758750915527344
2012-12-14,7.758750915527344
2012-12-17,8.06378173828125
2012-12-18,8.165460586547852
2012-12-19,8.024674415588379
2012-12-20,8.110710144042969
2012-12-21,8.220209121704102
2012-12-24,8.134174346923828
2012-12-26,8.4939546585083
2012-12-27,8.454848289489746
2012-12-28,8.40792179107666
2012-12-31,8.666022300720215
2013-01-02,8.971059799194336
2013-01-03,8.93977165222168
2013-01-04,8.978877067565918
2013-01-07,8.963234901428223
2013-01-08,9.072732925415039
2013-01-09,9.010164260864258
2013-01-10,9.072732925415039
2013-01-11,9.049272537231445
2013-01-14,9.135303497314453
2013-01-15,9.08837604522705
2013-01-16,8.931949615478516
2013-01-17,9.104020118713379
2013-01-18,8.869380950927734
2013-01-22,8.924127578735352
2013-01-23,9.025806427001953
2013-01-24,9.174410820007324
2013-01-25,9.11184310913086
2013-01-28,9.205696105957031
2013-01-29,9.127481460571289
2013-01-30,9.041449546813965
2013-01-31,9.276087760925293
2013-02-01,9.432517051696777
2013-02-04,9.276087760925293
2013-02-05,9.33865737915039
2013-02-06,9.432517051696777
2013-02-07,9.119662284851074
2013-02-08,9.276087760925293
2013-02-11,9.276087760925293
2013-02-12,9.424695014953613
2013-02-13,9.51072883605957
2013-02-14,9.502906799316406
2013-02-15,9.698441505432129
2013-02-19,8.8224515914917
2013-02-20,8.314067840576172
2013-02-21,8.12635326385498
2013-02-22,7.891715049743652
2013-02-25,7.7822160720825195
2013-02-26,7.923000335693359
2013-02-27,7.8604302406311035
2013-02-28,7.985569477081299
2013-03-01,8.157638549804688
2013-03-04,8.165460586547852
2013-03-05,8.173283576965332
2013-03-06,8.22803020477295
2013-03-07,8.21238899230957
2013-03-08,8.251497268676758
2013-03-11,8.34535026550293
2013-03-12,8.423563957214355
2013-03-13,8.572169303894043
2013-03-14,8.587812423706055
2013-03-15,8.658204078674316
2013-03-18,8.486133575439453
2013-03-19,8.392280578613281
2013-03-20,8.423563957214355
2013-03-21,8.392280578613281
2013-03-22,8.251497268676758
2013-03-25,8.188922882080078
2013-03-26,8.34535026550293
2013-03-27,8.134174346923828
2013-03-28,8.21238899230957
2013-04-01,7.985569477081299
2013-04-02,8.009033203125
2013-04-03,7.907354831695557
2013-04-04,7.907354831695557
2013-04-05,7.8291449546813965
2013-04-08,7.876072406768799
2013-04-09,7.821322441101074
2013-04-10,8.001211166381836
2013-04-11,8.110710144042969
2013-04-12,7.9464616775512695
2013-04-15,7.649254322052002
2013-04-16,7.743109703063965
2013-04-17,7.578861713409424
2013-04-18,7.492826461791992
2013-04-19,7.547577857971191
2013-04-22,7.492826461791992
2013-04-23,7.571038246154785
2013-04-24,7.735289573669434
2013-04-25,7.750929355621338
2013-04-26,7.485004425048828
2013-04-29,7.657075881958008
2013-04-30,7.813502311706543
2013-05-01,7.531933784484863
2013-05-02,7.539754867553711
2013-05-03,7.758750915527344
2013-05-06,7.86824893951416
2013-05-07,7.9621076583862305
2013-05-08,7.821322441101074
2013-05-09,7.805677890777588
2013-05-10,7.876072406768799
2013-05-13,7.743109703063965
2013-05-14,7.969925880432129
2013-05-15,8.22803020477295
2013-05-16,8.33752727508545
2013-05-17,8.470489501953125
2013-05-20,8.470489501953125
2013-05-21,8.439207077026367
2013-05-22,8.384456634521484
2013-05-23,8.4939546585083
2013-05-24,8.431386947631836
2013-05-28,8.61127758026123
2013-05-29,7.9464616775512695
2013-05-30,8.081016540527344
2013-05-31,8.12850284576416
2013-06-03,8.302629470825195
2013-06-04,8.183907508850098
2013-06-05,8.191823959350586
2013-06-06,8.263057708740234
2013-06-07,8.294713020324707
2013-06-10,8.405521392822266
2013-06-11,8.160161018371582
2013-06-12,8.057271003723145
2013-06-13,8.215566635131836
2013-06-14,8.081016540527344
2013-06-17,8.12850284576416
2013-06-18,8.12850284576416
2013-06-19,8.12850284576416
2013-06-20,7.914804458618164
2013-06-21,8.017696380615234
2013-06-24,7.99395227432251
2013-06-25,8.009783744812012
2013-06-26,7.9543776512146
2013-06-27,8.175993919372559
2013-06-28,8.120588302612305
2013-07-01,8.326373100280762
2013-07-02,8.223483085632324
2013-07-03,8.389694213867188
2013-07-05,8.540074348449707
2013-07-08,8.587562561035156
2013-07-09,8.737944602966309
2013-07-10,8.84875202178955
2013-07-11,8.880411148071289
2013-07-12,8.912068367004395
2013-07-15,8.951645851135254
2013-07-16,8.904154777526855
2013-07-17,8.99913215637207
2013-07-18,9.054535865783691
2013-07-19,9.038704872131348
2013-07-22,9.07828140258789
2013-07-23,8.904154777526855
2013-07-24,8.880411148071289
2013-07-25,9.094110488891602
2013-07-26,8.872495651245117
2013-07-29,8.761690139770508
2013-07-30,8.635052680969238
2013-07-31,8.611307144165039
2013-08-01,8.674628257751465
2013-08-02,8.864581108093262
2013-08-05,9.125768661499023
2013-08-06,8.888325691223145
2013-08-07,8.714200973510742
2013-08-08,8.571732521057129
2013-08-09,8.47675609588623
2013-08-12,8.658794403076172
2013-08-13,8.563817024230957
2013-08-14,8.54798698425293
2013-08-15,8.33428955078125
2013-08-16,8.270971298217773
2013-08-19,8.3817777633667
2013-08-20,8.888325691223145
2013-08-21,8.49258804321289
2013-08-22,8.745858192443848
2013-08-23,8.555903434753418
2013-08-26,8.682539939880371
2013-08-27,8.365947723388672
2013-08-28,8.49258804321289
2013-08-29,8.722114562988281
2013-08-30,8.460925102233887
2013-09-03,8.650880813598633
2013-09-04,8.762605667114258
2013-09-05,8.730687141418457
2013-09-06,8.714723587036133
2013-09-09,8.746649742126465
2013-09-10,8.770588874816895
2013-09-11,8.810492515563965
2013-09-12,8.730687141418457
2013-09-13,8.770588874816895
2013-09-16,8.858373641967773
2013-09-17,8.914237022399902
2013-09-18,9.017982482910156
2013-09-19,9.145672798156738
2013-09-20,9.089808464050293
2013-09-23,9.097789764404297
2013-09-24,9.07384967803955
2013-09-25,8.914237022399902
2013-09-26,8.946160316467285
2013-09-27,8.890294075012207
2013-09-30,8.93019962310791
2013-10-01,8.93019962310791
2013-10-02,8.874334335327148
2013-10-03,8.690784454345703
2013-10-04,8.802513122558594
2013-10-07,8.658862113952637
2013-10-08,8.507230758666992
2013-10-09,8.59501838684082
2013-10-10,8.802513122558594
2013-10-11,9.041926383972168
2013-10-14,9.29730224609375
2013-10-15,9.289322853088379
2013-10-16,9.33720588684082
2013-10-17,9.480854034423828
2013-10-18,9.576622009277344
2013-10-21,9.736230850219727
2013-10-22,9.80007553100586
2013-10-23,9.831997871398926
2013-10-24,9.855939865112305
2013-10-25,9.76815128326416
2013-10-28,9.752193450927734
2013-10-29,9.736230850219727
2013-10-30,9.560659408569336
2013-10-31,9.544698715209961
2013-11-01,9.409027099609375
2013-11-04,9.600563049316406
2013-11-05,9.39306926727295
2013-11-06,9.424993515014648
2013-11-07,9.361146926879883
2013-11-08,9.640463829040527
2013-11-11,9.656425476074219
2013-11-12,9.792097091674805
2013-11-13,9.863917350769043
2013-11-14,9.895841598510742
2013-11-15,9.951704025268555
2013-11-18,10.039488792419434
2013-11-19,10.438517570495605
2013-11-20,11.228589057922363
2013-11-21,12.29797649383545
2013-11-22,11.962793350219727
2013-11-25,11.970775604248047
2013-11-26,11.970775604248047
2013-11-27,12.313940048217773
2013-11-29,12.210193634033203
2013-12-02,12.170286178588867
2013-12-03,12.194230079650879
2013-12-04,12.081840515136719
2013-12-05,12.322674751281738
2013-12-06,12.683926582336426
2013-12-09,12.547454833984375
2013-12-10,12.113951683044434
2013-12-11,11.953398704528809
2013-12-12,12.009591102600098
2013-12-13,11.945367813110352
2013-12-16,11.881146430969238
2013-12-17,11.977479934692383
2013-12-18,12.073813438415527
2013-12-19,11.77678394317627
2013-12-20,12.146065711975098
2013-12-23,12.218314170837402
2013-12-24,12.394925117492676
2013-12-26,12.234369277954102
2013-12-27,12.539424896240234
2013-12-30,12.435066223144531
2013-12-31,12.587592124938965
2014-01-02,12.22634220123291
2014-01-03,12.475203514099121
2014-01-06,12.146065711975098
2014-01-07,12.178175926208496
2014-01-08,12.073813438415527
2014-01-09,12.033672332763672
2014-01-10,12.073813438415527
2014-01-13,11.712562561035156
2014-01-14,11.808894157409668
2014-01-15,11.889174461364746
2014-01-16,11.937341690063477
2014-01-17,11.832979202270508
2014-01-21,12.017619132995605
2014-01-22,11.849038124084473
2014-01-23,11.808894157409668
2014-01-24,11.3834228515625
2014-01-27,11.728616714477539
2014-01-28,11.664395332336426
2014-01-29,11.54397964477539
2014-01-30,11.712562561035156
2014-01-31,11.728616714477539
2014-02-03,11.279062271118164
2014-02-04,11.086395263671875
2014-02-05,10.94189453125
2014-02-06,10.89372444152832
2014-02-07,10.89372444152832
2014-02-10,11.038230895996094
2014-02-11,11.206811904907227
2014-02-12,11.34328556060791
2014-02-13,11.44764518737793
2014-02-14,11.463701248168945
2014-02-18,11.704533576965332
2014-02-19,11.279062271118164
2014-02-20,11.54397964477539
2014-02-21,11.439615249633789
2014-02-24,11.367368698120117
2014-02-25,11.279062271118164
2014-02-26,11.415533065795898
2014-02-27,11.455672264099121
2014-02-28,11.375394821166992
2014-03-03,11.287092208862305
2014-03-04,11.712562561035156
2014-03-05,11.503838539123535
2014-03-06,11.37458324432373
2014-03-07,11.358426094055176
2014-03-10,11.326112747192383
2014-03-11,11.107994079589844
2014-03-12,11.261483192443848
2014-03-13,11.05951976776123
2014-03-14,11.091833114624023
2014-03-17,11.180700302124023
2014-03-18,11.560388565063477
2014-03-19,11.495762825012207
2014-03-20,11.511916160583496
2014-03-21,11.657332420349121
2014-03-24,11.536155700683594
2014-03-25,11.633095741271973
2014-03-26,11.673491477966309
2014-03-27,11.536155700683594
2014-03-28,11.463447570800781
2014-03-31,11.625018119812012
2014-04-01,11.818902969360352
2014-04-02,11.730039596557617
2014-04-03,11.584626197814941
2014-04-04,11.140304565429688
2014-04-07,10.946420669555664
2014-04-08,11.091833114624023
2014-04-09,11.334193229675293
2014-04-10,10.906027793884277
2014-04-11,10.728301048278809
2014-04-14,10.801008224487305
2014-04-15,10.679828643798828
2014-04-16,10.78485107421875
2014-04-17,10.922184944152832
2014-04-21,10.970656394958496
2014-04-22,11.051444053649902
2014-04-23,10.906027793884277
2014-04-24,10.930265426635742
2014-04-25,10.550573348999023
2014-04-28,10.429394721984863
2014-04-29,10.477865219116211
2014-04-30,10.518259048461914
2014-05-01,10.485944747924805
2014-05-02,11.16454029083252
2014-05-05,11.027205467224121
2014-05-06,10.930265426635742
2014-05-07,11.051444053649902
2014-05-08,10.994891166687012
2014-05-09,11.253405570983887
2014-05-12,11.471527099609375
2014-05-13,11.277642250061035
2014-05-14,10.881792068481445
2014-05-15,10.801008224487305
2014-05-16,10.986814498901367
2014-05-19,11.24532699584961
2014-05-20,10.873714447021484
2014-05-21,10.841399192810059
2014-05-22,10.938340187072754
2014-05-23,11.277642250061035
2014-05-27,11.689645767211914
2014-05-28,9.53267765045166
2014-05-29,10.461501121520996
2014-05-30,10.11115550994873
2014-06-02,9.752660751342773
2014-06-03,9.557120323181152
2014-06-04,9.312690734863281
2014-06-05,9.606003761291504
2014-06-06,9.630446434020996
2014-06-09,9.663036346435547
2014-06-10,9.654891967773438
2014-06-11,9.679330825805664
2014-06-12,9.606003761291504
2014-06-13,9.638594627380371
2014-06-16,9.62230110168457
2014-06-17,9.728219032287598
2014-06-18,9.703775405883789
2014-06-19,9.663036346435547
2014-06-20,9.78525161743164
2014-06-23,9.720073699951172
2014-06-24,9.646744728088379
2014-06-25,9.777105331420898
2014-06-26,9.728219032287598
2014-06-27,9.728219032287598
2014-06-30,9.711921691894531
2014-07-01,9.850432395935059
2014-07-02,9.850432395935059
2014-07-03,9.956351280212402
2014-07-07,9.752660751342773
2014-07-08,9.679330825805664
2014-07-09,9.638594627380371
2014-07-10,9.459348678588867
2014-07-11,9.386017799377441
2014-07-14,9.418606758117676
2014-07-15,9.386017799377441
2014-07-16,9.345284461975098
2014-07-17,9.166034698486328
2014-07-18,9.304543495178223
2014-07-21,9.271957397460938
2014-07-22,9.467495918273926
2014-07-23,9.516380310058594
2014-07-24,9.500086784362793
2014-07-25,9.573413848876953
2014-07-28,9.361576080322266
2014-07-29,9.361576080322266
2014-07-30,9.320839881896973
2014-07-31,9.043822288513184
2014-08-01,9.003082275390625
2014-08-04,8.978641510009766
2014-08-05,9.117148399353027
2014-08-06,9.255658149719238
2014-08-07,9.17418384552002
2014-08-08,9.223066329956055
2014-08-11,9.402315139770508
2014-08-12,9.418606758117676
2014-08-13,9.516380310058594
2014-08-14,9.687479972839355
2014-08-15,9.557120323181152
2014-08-18,9.711921691894531
2014-08-19,9.768956184387207
2014-08-20,9.532675743103027
2014-08-21,9.500086784362793
2014-08-22,9.654891967773438
2014-08-25,9.768956184387207
2014-08-26,10.665192604064941
2014-08-27,10.56742000579834
2014-08-28,10.600010871887207
2014-08-29,10.722224235534668
2014-09-02,10.885176658630371
2014-09-03,10.779256820678711
2014-09-04,10.844437599182129
2014-09-05,11.031830787658691
2014-09-08,11.14590072631836
2014-09-09,10.909619331359863
2014-09-10,11.1051607131958
2014-09-11,11.146199226379395
2014-09-12,10.9163818359375
2014-09-15,10.842511177062988
2014-09-16,10.817887306213379
2014-09-17,10.834303855895996
2014-09-18,10.8999662399292
2014-09-19,10.711186408996582
2014-09-22,10.571654319763184
2014-09-23,10.382874488830566
2014-09-24,10.432120323181152
2014-09-25,10.202302932739258
2014-09-26,10.432120323181152
2014-09-29,10.276171684265137
2014-09-30,10.087390899658203
2014-10-01,9.99710750579834
2014-10-02,10.038143157958984
2014-10-03,10.046355247497559
2014-10-06,9.964274406433105
2014-10-07,9.8329496383667
2014-10-08,10.087390899658203
2014-10-09,9.808326721191406
2014-10-10,9.701624870300293
2014-10-13,9.824742317199707
2014-10-14,9.956066131591797
2014-10-15,10.070978164672852
2014-10-16,10.136639595031738
2014-10-17,10.153056144714355
2014-10-20,9.78370475769043
2014-10-21,9.791913032531738
2014-10-22,9.734456062316895
2014-10-23,9.972482681274414
2014-10-24,10.112015724182129
2014-10-27,10.144847869873047
2014-10-28,10.596277236938477
2014-10-29,10.514199256896973
2014-10-30,10.776848793029785
2014-10-31,10.924589157104492
2014-11-03,10.94100284576416
2014-11-04,11.07232666015625
2014-11-05,11.07232666015625
2014-11-06,11.19544792175293
2014-11-07,11.137990951538086
2014-11-10,11.2446928024292
2014-11-11,11.162617683410645
2014-11-12,11.384225845336914
2014-11-13,11.154407501220703
2014-11-14,11.162617683410645
2014-11-17,10.982044219970703
2014-11-18,11.187238693237305
2014-11-19,10.9163818359375
2014-11-20,11.11336612701416
2014-11-21,10.99846076965332
2014-11-24,11.252901077270508
2014-11-25,10.202302932739258
2014-11-26,9.956066131591797
2014-11-28,9.791913032531738
2014-12-01,9.63596248626709
2014-12-02,9.931446075439453
2014-12-03,9.824742317199707
2014-12-04,9.865781784057617
2014-12-05,10.029937744140625
2014-12-08,9.931446075439453
2014-12-09,10.284379005432129
2014-12-10,10.054559707641602
2014-12-11,10.038010597229004
2014-12-12,9.955254554748535
2014-12-15,9.897331237792969
2014-12-16,9.889055252075195
2014-12-17,10.145589828491211
2014-12-18,10.186968803405762
2014-12-19,10.269721031188965
2014-12-22,10.426953315734863
2014-12-23,10.32765007019043
2014-12-24,10.435229301452637
2014-12-26,10.509706497192383
2014-12-29,10.377303123474121
2014-12-30,10.385576248168945
2014-12-31,10.352474212646484
2015-01-02,10.046285629272461
2015-01-05,9.83112621307373
2015-01-06,9.847675323486328
2015-01-07,10.013185501098633
2015-01-08,9.980085372924805
2015-01-09,9.905606269836426
2015-01-12,9.731821060180664
2015-01-13,9.764924049377441
2015-01-14,9.615966796875
2015-01-15,9.500113487243652
2015-01-16,9.723546981811523
2015-01-20,9.789750099182129
2015-01-21,9.963532447814941
2015-01-22,10.286272048950195
2015-01-23,10.186968803405762
2015-01-26,10.153868675231934
2015-01-27,10.294548034667969
2015-01-28,10.079388618469238
2015-01-29,10.551082611083984
2015-01-30,10.24489688873291
2015-02-02,10.493155479431152
2015-02-03,10.749692916870117
2015-02-04,10.468329429626465
2015-02-05,10.650386810302734
2015-02-06,10.650386810302734
2015-02-09,10.426953315734863
2015-02-10,10.526254653930664
2015-02-11,10.534529685974121
2015-02-12,10.633835792541504
2015-02-13,10.60073471069336
2015-02-17,10.658662796020508
2015-02-18,10.799344062805176
2015-02-19,10.708313941955566
2015-02-20,10.493155479431152
2015-02-23,10.716591835021973
2015-02-24,9.111169815063477
2015-02-25,9.111169815063477
2015-02-26,8.473967552185059
2015-02-27,8.465693473815918
2015-03-02,8.416041374206543
2015-03-03,8.33328628540039
2015-03-04,8.31673526763916
2015-03-05,8.449140548706055
2015-03-06,8.30018424987793
2015-03-09,8.358114242553711
2015-03-10,8.349838256835938
2015-03-11,8.39948844909668
2015-03-12,8.750514030456543
2015-03-13,8.87587833404541
2015-03-16,8.859163284301758
2015-03-17,8.926027297973633
2015-03-18,9.201828956604004
2015-03-19,9.109891891479492
2015-03-20,9.277050018310547
2015-03-23,9.36898422241211
2015-03-24,8.97616958618164
2015-03-25,8.984530448913574
2015-03-26,8.984530448913574
2015-03-27,8.767228126525879
2015-03-30,8.809017181396484
2015-03-31,9.034673690795898
2015-04-01,8.909309387207031
2015-04-02,8.867520332336426
2015-04-06,8.967812538146973
2015-04-07,9.101537704467773
2015-04-08,9.235260009765625
2015-04-09,9.160042762756348
2015-04-10,9.226901054382324
2015-04-13,9.235260009765625
2015-04-14,9.352266311645508
2015-04-15,9.460915565490723
2015-04-16,9.47763442993164
2015-04-17,9.32719612121582
2015-04-20,9.39405632019043
2015-04-21,9.218545913696289
2015-04-22,9.410771369934082
2015-04-23,9.26869010925293
2015-04-24,9.352266311645508
2015-04-27,9.285406112670898
2015-04-28,9.511065483093262
2015-04-29,9.235260009765625
2015-04-30,8.967812538146973
2015-05-01,8.984530448913574
2015-05-04,8.967812538146973
2015-05-05,8.742155075073242
2015-05-06,8.466352462768555
2015-05-07,8.692008972167969
2015-05-08,8.934383392333984
2015-05-11,8.834092140197754
2015-05-12,8.775586128234863
2015-05-13,8.85080623626709
2015-05-14,8.892592430114746
2015-05-15,8.817374229431152
2015-05-18,8.884237289428711
2015-05-19,8.800658226013184
2015-05-20,8.951099395751953
2015-05-21,8.984530448913574
2015-05-22,8.951099395751953
2015-05-26,8.90095329284668
2015-05-27,9.118253707885742
2015-05-28,9.109891891479492
2015-05-29,9.009601593017578
2015-06-01,9.017962455749512
2015-06-02,9.034673690795898
2015-06-03,9.485989570617676
2015-06-04,9.26869010925293
2015-06-05,9.360627174377441
2015-06-08,9.36898422241211
2015-06-09,9.435845375061035
2015-06-10,9.663517951965332
2015-06-11,9.570761680603027
2015-06-12,9.7647066116333
2015-06-15,9.663517951965332
2015-06-16,9.60449504852295
2015-06-17,9.562332153320312
2015-06-18,9.714112281799316
2015-06-19,9.815299987792969
2015-06-22,9.773140907287598
2015-06-23,9.916487693786621
2015-06-24,9.975517272949219
2015-06-25,10.152597427368164
2015-06-26,10.312811851501465
2015-06-29,10.076705932617188
2015-06-30,10.000814437866211
2015-07-01,10.127298355102539
2015-07-02,9.992383003234863
2015-07-06,9.88276195526123
2015-07-07,9.68881607055664
2015-07-08,9.435844421386719
2015-07-09,9.402114868164062
2015-07-10,9.553898811340332
2015-07-13,9.553898811340332
2015-07-14,9.671952247619629
2015-07-15,9.52016830444336
2015-07-16,9.562332153320312
2015-07-17,9.410548210144043
2015-07-20,9.199738502502441
2015-07-21,9.1744384765625
2015-07-22,9.33465576171875
2015-07-23,9.33465576171875
2015-07-24,9.233467102050781
2015-07-27,9.275628089904785
2015-07-28,9.427412033081055
2015-07-29,9.376816749572754
2015-07-30,9.596061706542969
2015-07-31,9.638221740722656
2015-08-03,9.671952247619629
2015-08-04,9.621358871459961
2015-08-05,9.75627613067627
2015-08-06,9.7647066116333
2015-08-07,9.823735237121582
2015-08-10,9.983949661254883
2015-08-11,9.933355331420898
2015-08-12,9.87432861328125
2015-08-13,9.891194343566895
2015-08-14,10.194759368896484
2015-08-17,10.321247100830078
2015-08-18,9.908058166503906
2015-08-19,9.849032402038574
2015-08-20,9.87432861328125
2015-08-21,9.865896224975586
2015-08-24,9.317791938781738
2015-08-25,7.4289374351501465
2015-08-26,6.914558410644531
2015-08-27,7.192829132080078
2015-08-28,7.285585403442383
2015-08-31,7.327747821807861
2015-09-01,7.066343784332275
2015-09-02,7.201261043548584
2015-09-03,7.17596435546875
2015-09-04,7.091639995574951
2015-09-08,7.192829132080078
2015-09-09,7.1506667137146
2015-09-10,7.27012825012207
2015-09-11,7.27866268157959
2015-09-14,7.142133712768555
2015-09-15,7.159200191497803
2015-09-16,7.44079065322876
2015-09-17,7.38959264755249
2015-09-18,7.108001708984375
2015-09-21,7.014138698577881
2015-09-22,7.031206130981445
2015-09-23,7.210397720336914
2015-09-24,7.261597633361816
2015-09-25,7.423722743988037
2015-09-28,7.287195205688477
2015-09-29,7.2957282066345215
2015-09-30,7.398123264312744
2015-10-01,7.159200191497803
2015-10-02,7.38959264755249
2015-10-05,8.02956771850586
2015-10-06,8.04663372039795
2015-10-07,8.23436164855957
2015-10-08,8.251425743103027
2015-10-09,8.097832679748535
2015-10-12,8.080766677856445
2015-10-13,7.927172660827637
2015-10-14,7.824774265289307
2015-10-15,8.080766677856445
2015-10-16,8.038103103637695
2015-10-19,8.003968238830566
2015-10-20,8.225825309753418
2015-10-21,7.935705184936523
2015-10-22,8.04663372039795
2015-10-23,8.27702522277832
2015-10-26,8.208760261535645
2015-10-27,8.089298248291016
2015-10-28,8.31969165802002
2015-10-29,8.29409122467041
2015-10-30,8.27702522277832
2015-11-02,8.498883247375488
2015-11-03,8.626879692077637
2015-11-04,8.567146301269531
2015-11-05,8.55008316040039
2015-11-06,8.746339797973633
2015-11-09,8.498883247375488
2015-11-10,8.541546821594238
2015-11-11,8.447685241699219
2015-11-12,8.285557746887207
2015-11-13,8.311155319213867
2015-11-16,8.27702522277832
2015-11-17,8.36235523223877
2015-11-18,8.541546821594238
2015-11-19,8.541546821594238
2015-11-20,8.490348815917969
2015-11-23,8.60128116607666
2015-11-24,7.005605697631836
2015-11-25,7.321328163146973
2015-11-27,7.039737701416016
2015-11-30,7.398123264312744
2015-12-01,7.4919867515563965
2015-12-02,7.568786144256592
2015-12-03,7.645580768585205
2015-12-04,7.773578643798828
2015-12-07,7.875973224639893
2015-12-08,7.78210973739624
2015-12-09,7.739444732666016
2015-12-10,7.79917573928833
2015-12-11,7.602915287017822
2015-12-14,7.457855224609375
2015-12-15,7.594383239746094
2015-12-16,7.858908176422119
2015-12-17,7.643238067626953
2015-12-18,7.513840198516846
2015-12-21,7.556973934173584
2015-12-22,7.643238067626953
2015-12-23,7.677745342254639
2015-12-24,7.8847856521606445
2015-12-28,7.789893627166748
2015-12-29,7.876163005828857
2015-12-30,7.781267166137695
2015-12-31,7.522466659545898
2016-01-04,7.047998905181885
2016-01-05,7.194652557373047
2016-01-06,6.927225112915039
2016-01-07,6.616664886474609
2016-01-08,6.4096245765686035
2016-01-11,6.4096245765686035
2016-01-12,6.590784549713135
2016-01-13,6.400998115539551
2016-01-14,6.59941291809082
2016-01-15,6.59941291809082
2016-01-19,6.426877975463867
2016-01-20,6.418251037597656
2016-01-21,6.487264633178711
2016-01-22,6.6597981452941895
2016-01-25,6.357865333557129
2016-01-26,6.4958930015563965
2016-01-27,6.36649227142334
2016-01-28,6.53902530670166
2016-01-29,6.927225112915039
2016-02-01,6.797825813293457
2016-02-02,6.487264633178711
2016-02-03,6.5735321044921875
2016-02-04,6.616664886474609
2016-02-05,6.418251037597656
2016-02-08,6.487264633178711
2016-02-09,6.4613847732543945
2016-02-10,6.478639125823975
2016-02-11,6.53902530670166
2016-02-12,6.668425559997559
2016-02-16,7.0825066566467285
2016-02-17,7.0825066566467285
2016-02-18,7.0825066566467285
2016-02-19,7.220531940460205
2016-02-22,7.436199188232422
2016-02-23,6.651172161102295
2016-02-24,6.107691287994385
2016-02-25,5.952410697937012
2016-02-26,5.9610371589660645
2016-02-29,6.099064826965332
2016-03-01,6.30610466003418
2016-03-02,6.357865333557129
2016-03-03,6.426877975463867
2016-03-04,6.530399799346924
2016-03-07,6.633918762207031
2016-03-08,6.435504913330078
2016-03-09,6.452992916107178
2016-03-10,6.4967122077941895
2016-03-11,6.654102802276611
2016-03-14,6.837724685668945
2016-03-15,6.724053382873535
2016-03-16,6.767773151397705
2016-03-17,7.021345615386963
2016-03-18,6.890187740325928
2016-03-21,6.960137844085693
2016-03-22,6.916418552398682
2016-03-23,6.811492443084717
2016-03-24,6.767773151397705
2016-03-28,6.94265079498291
2016-03-29,7.1525044441223145
2016-03-30,7.0738091468811035
2016-03-31,6.907675266265869
2016-04-01,7.021345615386963
2016-04-04,6.87269926071167
2016-04-05,6.802748203277588
2016-04-06,6.9513936042785645
2016-04-07,6.89893102645874
2016-04-08,7.135015964508057
2016-04-11,6.960137844085693
2016-04-12,7.056321144104004
2016-04-13,7.274918079376221
2016-04-14,7.362357139587402
2016-04-15,7.29240608215332
2016-04-18,7.4585394859313965
2016-04-19,7.484771728515625
2016-04-20,7.467283248901367
2016-04-21,7.414820194244385
2016-04-22,7.580954551696777
2016-04-25,7.257431507110596
2016-04-26,7.563465595245361
2016-04-27,7.624674320220947
2016-04-28,7.5459794998168945
2016-04-29,7.607184886932373
2016-05-02,7.476027965545654
2016-05-03,7.318638324737549
2016-05-04,7.213710784912109
2016-05-05,7.1525044441223145
2016-05-06,7.1699910163879395
2016-05-09,7.187480449676514
2016-05-10,7.353612422943115
2016-05-11,7.22245454788208
2016-05-12,7.213710784912109
2016-05-13,7.030089378356934
2016-05-16,7.1525044441223145
2016-05-17,7.021345615386963
2016-05-18,6.968882083892822
2016-05-19,6.365554332733154
2016-05-20,6.566664218902588
2016-05-23,6.575406551361084
2016-05-24,6.697821140289307
2016-05-25,6.828979015350342
2016-05-26,6.85521125793457
2016-05-27,6.977625846862793
2016-05-31,6.968882083892822
2016-06-01,5.6048359870910645
2016-06-02,5.438701629638672
2016-06-03,5.246334552764893
2016-06-06,5.342517852783203
2016-06-07,5.622322082519531
2016-06-08,5.770969390869141
2016-06-09,5.744738578796387
2016-06-10,5.6572980880737305
2016-06-13,5.499907970428467
2016-06-14,5.4736762046813965
2016-06-15,5.508652210235596
2016-06-16,5.491164207458496
2016-06-17,5.78845739364624
2016-06-20,5.622322082519531
2016-06-21,5.727250099182129
2016-06-22,5.631068229675293
2016-06-23,5.71988582611084
2016-06-24,5.542248725891113
2016-06-27,5.488956928253174
2016-06-28,5.45343017578125
2016-06-29,5.488956928253174
2016-06-30,5.5511298179626465
2016-07-01,5.631067752838135
2016-07-05,5.657711982727051
2016-07-06,5.693239212036133
2016-07-07,5.71988582611084
2016-07-08,5.799821853637695
2016-07-11,5.861993789672852
2016-07-12,6.004103660583496
2016-07-13,6.146212577819824
2016-07-14,5.9863386154174805
2016-07-15,5.933048725128174
2016-07-18,5.941930770874023
2016-07-19,5.764294624328613
2016-07-20,5.8353495597839355
2016-07-21,5.746530532836914
2016-07-22,5.8442301750183105
2016-07-25,5.8087029457092285
2016-07-26,5.879757881164551
2016-07-27,5.888638973236084
2016-07-28,5.8264665603637695
2016-07-29,5.746530532836914
2016-08-01,5.728766441345215
2016-08-02,5.7376484870910645
2016-08-03,5.8087029457092285
2016-08-04,5.861993789672852
2016-08-05,5.906403064727783
2016-08-08,5.968576431274414
2016-08-09,6.03963041305542
2016-08-10,5.941930770874023
2016-08-11,6.0307488441467285
2016-08-12,6.092920780181885
2016-08-15,6.208384037017822
2016-08-16,6.1906208992004395
2016-08-17,6.235029220581055
2016-08-18,6.323848247528076
2016-08-19,6.22614860534668
2016-08-22,6.155093669891357
2016-08-23,7.354137420654297
2016-08-24,8.02027416229248
2016-08-25,8.304491996765137
2016-08-26,8.455483436584473
2016-08-29,8.8551664352417
2016-08-30,8.57094669342041
2016-08-31,8.464363098144531
2016-09-01,8.499890327453613
2016-09-02,8.64200210571289
2016-09-06,8.748581886291504
2016-09-07,8.588706970214844
2016-09-08,8.767640113830566
2016-09-09,8.436617851257324
2016-09-12,8.535029411315918
2016-09-13,8.579764366149902
2016-09-14,8.660283088684082
2016-09-15,8.713959693908691
2016-09-16,8.678175926208496
2016-09-19,8.794480323791504
2016-09-20,8.839213371276855
2016-09-21,8.883946418762207
2016-09-22,8.848160743713379
2016-09-23,8.803426742553711
2016-09-26,8.552923202514648
2016-09-27,8.51713752746582
2016-09-28,8.508190155029297
2016-09-29,8.391883850097656
2016-09-30,8.535029411315918
2016-10-03,8.49924373626709
2016-10-04,8.373990058898926
2016-10-05,8.463458061218262
2016-10-06,8.356098175048828
2016-10-07,8.212953567504883
2016-10-10,8.266633033752441
2016-10-11,7.962449073791504
2016-10-12,8.05191421508789
2016-10-13,7.998233318328857
2016-10-14,7.908769130706787
2016-10-17,7.756678104400635
2016-10-18,7.694050312042236
2016-10-19,7.765623092651367
2016-10-20,7.595638275146484
2016-10-21,7.497227668762207
2016-10-24,7.85508918762207
2016-10-25,7.676159858703613
2016-10-26,7.694050312042236
2016-10-27,7.5151190757751465
2016-10-28,7.479333877563477
2016-10-31,7.470387935638428
2016-11-01,7.461441516876221
2016-11-02,7.416707992553711
2016-11-03,7.327241897583008
2016-11-04,7.425655364990234
2016-11-07,7.756678104400635
2016-11-08,7.506173133850098
2016-11-09,7.8908772468566895
2016-11-10,8.087701797485352
2016-11-11,8.400830268859863
2016-11-14,8.266633033752441
2016-11-15,8.230846405029297
2016-11-16,8.311366081237793
2016-11-17,8.481348037719727
2016-11-18,8.356098175048828
2016-11-21,8.41872501373291
2016-11-22,8.937625885009766
2016-11-23,9.33127498626709
2016-11-25,9.519153594970703
2016-11-28,9.671246528625488
2016-11-29,9.465473175048828
2016-11-30,9.206024169921875
2016-12-01,9.376006126403809
2016-12-02,9.2597017288208
2016-12-05,9.384954452514648
2016-12-06,9.358115196228027
2016-12-07,9.367061614990234
2016-12-08,9.62825870513916
2016-12-09,9.565210342407227
2016-12-12,9.267987251281738
2016-12-13,9.267987251281738
2016-12-14,9.159905433654785
2016-12-15,9.16891098022461
2016-12-16,9.195930480957031
2016-12-19,9.376068115234375
2016-12-20,9.457127571105957
2016-12-21,9.610244750976562
2016-12-22,9.376068115234375
2016-12-23,9.547196388244629
2016-12-27,9.664284706115723
2016-12-28,9.44812297821045
2016-12-29,9.547196388244629
2016-12-30,9.637264251708984
2017-01-03,9.772366523742676
2017-01-04,9.907468795776367
2017-01-05,9.745345115661621
2017-01-06,9.592230796813965
2017-01-09,9.484148979187012
2017-01-10,9.547196388244629
2017-01-11,9.70031452178955
2017-01-12,9.574216842651367
2017-01-13,9.547196388244629
2017-01-17,9.213945388793945
2017-01-18,9.313018798828125
2017-01-19,9.276993751525879
2017-01-20,9.276993751525879
2017-01-23,9.177919387817383
2017-01-24,9.349047660827637
2017-01-25,9.367061614990234
2017-01-26,9.304012298583984
2017-01-27,9.35805606842041
2017-01-30,9.015796661376953
2017-01-31,9.150897979736328
2017-02-01,9.13288402557373
2017-02-02,9.105865478515625
2017-02-03,9.159905433654785
2017-02-06,9.096858978271484
2017-02-07,9.060830116271973
2017-02-08,9.042816162109375
2017-02-09,8.97977066040039
2017-02-10,9.087851524353027
2017-02-13,8.997782707214355
2017-02-14,9.042816162109375
2017-02-15,9.015796661376953
2017-02-16,8.85367488861084
2017-02-17,9.105865478515625
2017-02-21,8.547444343566895
2017-02-22,8.556449890136719
2017-02-23,8.75460147857666
2017-02-24,8.75460147857666
2017-02-27,8.79062557220459
2017-02-28,8.439361572265625
2017-03-01,8.529428482055664
2017-03-02,8.394328117370605
2017-03-03,8.349295616149902
2017-03-06,8.322274208068848
2017-03-07,8.475388526916504
2017-03-08,8.50240707397461
2017-03-09,8.393519401550293
2017-03-10,8.502408027648926
2017-03-13,8.49333381652832
2017-03-14,8.429817199707031
2017-03-15,8.502408027648926
2017-03-16,8.49333381652832
2017-03-17,8.59315013885498
2017-03-20,8.43889045715332
2017-03-21,8.31185245513916
2017-03-22,8.284631729125977
2017-03-23,8.302779197692871
2017-03-24,8.339075088500977
2017-03-27,8.302779197692871
2017-03-28,8.339075088500977
2017-03-29,8.320926666259766
2017-03-30,8.429817199707031
2017-03-31,8.57500171661377
2017-04-03,8.166666984558105
2017-04-04,8.184815406799316
2017-04-05,8.184815406799316
2017-04-06,8.330002784729004
2017-04-07,8.348150253295898
2017-04-10,8.330002784729004
2017-04-11,8.339075088500977
2017-04-12,8.257408142089844
2017-04-13,8.139446258544922
2017-04-17,8.221111297607422
2017-04-18,8.293706893920898
2017-04-19,8.348150253295898
2017-04-20,8.348150253295898
2017-04-21,8.31185245513916
2017-04-24,8.339075088500977
2017-04-25,8.320926666259766
2017-04-26,8.59315013885498
2017-04-27,8.629444122314453
2017-04-28,8.584074974060059
2017-05-01,8.475187301635742
2017-05-02,8.565927505493164
2017-05-03,8.447965621948242
2017-05-04,8.538703918457031
2017-05-05,8.765556335449219
2017-05-08,8.838150024414062
2017-05-09,8.738335609436035
2017-05-10,8.820001602172852
2017-05-11,8.756484031677246
2017-05-12,8.565927505493164
2017-05-15,8.511481285095215
2017-05-16,8.357223510742188
2017-05-17,8.112222671508789
2017-05-18,8.121297836303711
2017-05-19,8.193889617919922
2017-05-22,8.293706893920898
2017-05-23,8.302779197692871
2017-05-24,8.284631729125977
2017-05-25,8.266481399536133
2017-05-26,8.293706893920898
2017-05-30,8.420742988586426
2017-05-31,9.010557174682617
2017-06-01,8.820001602172852
2017-06-02,8.829073905944824
2017-06-05,8.847223281860352
2017-06-06,8.756484031677246
2017-06-07,8.747408866882324
2017-06-08,8.9561128616333
2017-06-09,8.974390029907227
2017-06-12,9.065780639648438
2017-06-13,8.965252876281738
2017-06-14,8.937832832336426
2017-06-15,8.901278495788574
2017-06-16,8.819028854370117
2017-06-19,9.00180721282959
2017-06-20,8.883001327514648
2017-06-21,8.745917320251465
2017-06-22,8.855585098266602
2017-06-23,8.846446990966797
2017-06-26,8.846446990966797
2017-06-27,8.800753593444824
2017-06-28,8.965252876281738
2017-06-29,8.846446990966797
2017-06-30,8.800753593444824
2017-07-03,8.87386417388916
2017-07-05,8.78247356414795
2017-07-06,8.590557098388672
2017-07-07,8.700223922729492
2017-07-10,8.691084861755371
2017-07-11,8.718500137329102
2017-07-12,8.89214038848877
2017-07-13,8.846446990966797
2017-07-14,8.809890747070312
2017-07-17,8.846446990966797
2017-07-18,8.819028854370117
2017-07-19,8.828167915344238
2017-07-20,8.983529090881348
2017-07-21,8.901278495788574
2017-07-24,8.764196395874023
2017-07-25,8.828167915344238
2017-07-26,8.755057334899902
2017-07-27,8.764196395874023
2017-07-28,8.819028854370117
2017-07-31,8.937832832336426
2017-08-01,9.074918746948242
2017-08-02,8.928696632385254
2017-08-03,8.773335456848145
2017-08-04,8.79161262512207
2017-08-07,8.73677921295166
2017-08-08,8.663668632507324
2017-08-09,8.563139915466309
2017-08-10,8.51744556427002
2017-08-11,8.590557098388672
2017-08-14,8.78247356414795
2017-08-15,8.78247356414795
2017-08-16,8.78247356414795
2017-08-17,8.444334030151367
2017-08-18,8.563139915466309
2017-08-21,8.535723686218262
2017-08-22,8.883001327514648
2017-08-23,8.599696159362793
2017-08-24,8.700223922729492
2017-08-25,8.590557098388672
2017-08-28,8.590557098388672
2017-08-29,8.636250495910645
2017-08-30,8.617973327636719
2017-08-31,8.800753593444824
2017-09-01,8.755057334899902
2017-09-05,8.691084861755371
2017-09-06,8.755057334899902
2017-09-07,8.755057334899902
2017-09-08,8.828706741333008
2017-09-11,8.893147468566895
2017-09-12,8.957592964172363
2017-09-13,9.104891777038574
2017-09-14,9.141715049743652
2017-09-15,9.160127639770508
2017-09-18,9.381075859069824
2017-09-19,9.23377513885498
2017-09-20,9.196952819824219
2017-09-21,9.44551944732666
2017-09-22,9.454726219177246
2017-09-25,9.40869426727295
2017-09-26,9.629640579223633
2017-09-27,9.758528709411621
2017-09-28,9.740116119384766
2017-09-29,9.730910301208496
2017-10-02,9.767733573913574
2017-10-03,9.887414932250977
2017-10-04,9.905826568603516
2017-10-05,9.822972297668457
2017-10-06,9.813763618469238
2017-10-09,9.758528709411621
2017-10-10,9.832178115844727
2017-10-11,9.84138298034668
2017-10-12,9.767733573913574
2017-10-13,9.804558753967285
2017-10-16,9.832178115844727
2017-10-17,9.666467666625977
2017-10-18,9.666467666625977
2017-10-19,9.44551944732666
2017-10-20,9.50075626373291
2017-10-23,9.427105903625488
2017-10-24,9.473135948181152
2017-10-25,9.565199851989746
2017-10-26,9.583611488342285
2017-10-27,9.629640579223633
2017-10-30,9.399487495422363
2017-10-31,9.454726219177246
2017-11-01,9.289013862609863
2017-11-02,9.068066596984863
2017-11-03,8.948385238647461
2017-11-06,8.911561965942383
2017-11-07,9.022035598754883
2017-11-08,9.224573135375977
2017-11-09,9.196952819824219
2017-11-10,9.150920867919922
2017-11-13,9.160127639770508
2017-11-14,9.132509231567383
2017-11-15,8.96679973602295
2017-11-16,9.196952819824219
2017-11-17,9.150920867919922
2017-11-20,9.289013862609863
2017-11-21,9.031240463256836
2017-11-22,8.755057334899902
2017-11-24,8.883943557739258
2017-11-27,8.791881561279297
2017-11-28,8.856324195861816
2017-11-29,8.883943557739258
2017-11-30,8.819500923156738
2017-12-01,8.626171112060547
2017-12-04,8.589346885681152
2017-12-05,8.580140113830566
2017-12-06,8.488080024719238
2017-12-07,8.469667434692383
2017-12-08,8.386175155639648
2017-12-11,8.441835403442383
2017-12-12,8.441835403442383
2017-12-13,8.590264320373535
2017-12-14,8.46038818359375
2017-12-15,8.636649131774902
2017-12-18,8.710862159729004
2017-12-19,8.599541664123535
2017-12-20,8.68303108215332
2017-12-21,8.69230842590332
2017-12-22,8.599541664123535
2017-12-26,8.478943824768066
2017-12-27,8.516050338745117
2017-12-28,8.525325775146484
2017-12-29,8.469667434692383
2018-01-02,8.525325775146484
2018-01-03,8.497496604919434
2018-01-04,8.627370834350586
2018-01-05,8.803629875183105
2018-01-08,8.822182655334473
2018-01-09,8.794352531433105
2018-01-10,8.64592456817627
2018-01-11,8.720138549804688
2018-01-12,8.664477348327637
2018-01-16,8.543880462646484
2018-01-17,8.701584815979004
2018-01-18,8.608816146850586
2018-01-19,8.85001277923584
2018-01-22,8.803629875183105
2018-01-23,8.803629875183105
2018-01-24,8.757243156433105
2018-01-25,8.785076141357422
2018-01-26,8.738692283630371
2018-01-29,8.68303108215332
2018-01-30,8.580986976623535
2018-01-31,8.590264320373535
2018-02-01,8.729413032531738
2018-02-02,8.701584815979004
2018-02-05,8.376898765563965
2018-02-06,8.478943824768066
2018-02-07,8.627370834350586
2018-02-08,8.48822021484375
2018-02-09,8.618093490600586
2018-02-12,8.608816146850586
2018-02-13,8.710862159729004
2018-02-14,8.710862159729004
2018-02-15,8.720138549804688
2018-02-16,8.766522407531738
2018-02-20,8.339791297912598
2018-02-21,8.386175155639648
2018-02-22,8.376898765563965
2018-02-23,8.395451545715332
2018-02-26,8.4232816696167
2018-02-27,8.284131050109863
2018-02-28,8.265578269958496
2018-03-01,8.191364288330078
2018-03-02,8.302684783935547
2018-03-05,8.367622375488281
2018-03-06,8.534602165222168
2018-03-07,8.580986976623535
2018-03-08,8.497496604919434
2018-03-09,8.656414985656738
2018-03-12,8.684460639953613
2018-03-13,8.590978622436523
2018-03-14,8.478798866271973
2018-03-15,8.609672546386719
2018-03-16,8.684460639953613
2018-03-19,8.572281837463379
2018-03-20,8.572281837463379
2018-03-21,8.590978622436523
2018-03-22,8.366621971130371
2018-03-23,8.132917404174805
2018-03-26,8.329228401184082
2018-03-27,8.26379108428955
2018-03-28,8.235747337341309
2018-03-29,8.235747337341309
2018-04-02,7.992694854736328
2018-04-03,8.301185607910156
2018-04-04,8.422712326049805
2018-04-05,8.49749755859375
2018-04-06,8.41336441040039
2018-04-09,8.235747337341309
2018-04-10,8.478798866271973
2018-04-11,8.49749755859375
2018-04-12,8.469452857971191
2018-04-13,8.45075511932373
2018-04-16,8.590978622436523
2018-04-17,8.675110816955566
2018-04-18,8.665764808654785
2018-04-19,8.572281837463379
2018-04-20,8.52553939819336
2018-04-23,8.45075511932373
2018-04-24,8.41336441040039
2018-04-25,8.404012680053711
2018-04-26,8.45075511932373
2018-04-27,8.422712326049805
2018-04-30,8.422712326049805
2018-05-01,8.432060241699219
2018-05-02,8.506843566894531
2018-05-03,8.469452857971191
2018-05-04,8.553585052490234
2018-05-07,8.665764808654785
2018-05-08,8.62837028503418
2018-05-09,8.740549087524414
2018-05-10,8.740549087524414
2018-05-11,8.740549087524414
2018-05-14,8.703156471252441
2018-05-15,8.76859188079834
2018-05-16,8.918163299560547
2018-05-17,9.142520904541016
2018-05-18,9.226654052734375
2018-05-21,9.142520904541016
2018-05-22,9.198610305786133
2018-05-23,9.189262390136719
2018-05-24,9.236001968383789
2018-05-25,9.217305183410645
2018-05-29,9.394922256469727
2018-05-30,7.6561598777771
2018-05-31,7.487893104553223
2018-06-01,7.4318037033081055
2018-06-04,7.497241020202637
2018-06-05,7.77768611907959
2018-06-06,7.684204578399658
2018-06-07,7.600071430206299
2018-06-08,7.637788772583008
2018-06-11,7.8829522132873535
2018-06-12,8.033823013305664
2018-06-13,7.986674785614014
2018-06-14,8.099827766418457
2018-06-15,8.118685722351074
2018-06-18,8.024393081665039
2018-06-19,8.005533218383789
2018-06-20,8.052681922912598
2018-06-21,8.04325008392334
2018-06-22,8.156403541564941
2018-06-25,8.099827766418457
2018-06-26,8.194121360778809
2018-06-27,8.071539878845215
2018-06-28,8.033823013305664
2018-06-29,8.024393081665039
2018-07-02,8.2035493850708
2018-07-03,8.062110900878906
2018-07-05,8.212979316711426
2018-07-06,8.14697551727295
2018-07-09,8.099827766418457
2018-07-10,8.071539878845215
2018-07-11,7.967815399169922
2018-07-12,8.024393081665039
2018-07-13,8.024393081665039
2018-07-16,7.873522758483887
2018-07-17,7.958385944366455
2018-07-18,8.052681922912598
2018-07-19,7.986674785614014
2018-07-20,7.930099964141846
2018-07-23,7.892381191253662
2018-07-24,7.9489569664001465
2018-07-25,7.873522758483887
2018-07-26,7.9489569664001465
2018-07-27,7.845233917236328
2018-07-30,7.901811122894287
2018-07-31,8.099827766418457
2018-08-01,8.071539878845215
2018-08-02,8.04325008392334
2018-08-03,8.005533218383789
2018-08-06,7.977246284484863
2018-08-07,8.071539878845215
2018-08-08,8.099827766418457
2018-08-09,8.118685722351074
2018-08-10,8.04325008392334
2018-08-13,7.9489569664001465
2018-08-14,7.967815399169922
2018-08-15,8.099827766418457
2018-08-16,8.363849639892578
2018-08-17,8.335561752319336
2018-08-20,8.51471996307373
2018-08-21,7.4869184494018555
2018-08-22,7.3171892166137695
2018-08-23,7.053167819976807
2018-08-24,7.0154500007629395
2018-08-27,7.119173049926758
2018-08-28,7.260613441467285
2018-08-29,7.373766899108887
2018-08-30,7.468059539794922
2018-08-31,7.647217273712158
2018-09-04,7.4114837646484375
2018-09-05,7.4492011070251465
2018-09-06,7.383194923400879
2018-09-07,7.336048603057861
2018-09-10,7.383194923400879
2018-09-11,7.3643364906311035
2018-09-12,7.34547758102417
2018-09-13,7.373766899108887
2018-09-14,7.37376594543457
2018-09-17,7.335707664489746
2018-09-18,7.468911647796631
2018-09-19,7.478426456451416
2018-09-20,7.545027256011963
2018-09-21,7.6306586265563965
2018-09-24,7.545027256011963
2018-09-25,7.583086013793945
2018-09-26,7.4498820304870605
2018-09-27,7.459396839141846
2018-09-28,7.459396839141846
2018-10-01,7.297650337219238
2018-10-02,7.1359028816223145
2018-10-03,7.1263885498046875
2018-10-04,7.021728038787842
2018-10-05,6.993184566497803
2018-10-08,7.012213230133057
2018-10-09,7.116873741149902
2018-10-10,7.012213230133057
2018-10-11,6.8980393409729
2018-10-12,6.859981060028076
2018-10-15,6.879010200500488
2018-10-16,7.09784460067749
2018-10-17,7.107358932495117
2018-10-18,7.002699375152588
2018-10-19,6.964641571044922
2018-10-22,7.088329315185547
2018-10-23,7.078815460205078
2018-10-24,6.964641571044922
2018-10-25,7.040757656097412
2018-10-26,7.031242847442627
2018-10-29,6.983670711517334
2018-10-30,7.1263885498046875
2018-10-31,6.955126762390137
2018-11-01,7.1359028816223145
2018-11-02,7.288135051727295
2018-11-05,7.192990303039551
2018-11-06,7.316679000854492
2018-11-07,7.392795085906982
2018-11-08,7.4498820304870605
2018-11-09,7.297650337219238
2018-11-12,7.202505111694336
2018-11-13,7.240562915802002
2018-11-14,7.107358932495117
2018-11-15,7.250076770782471
2018-11-16,7.297650337219238
2018-11-19,7.307164192199707
2018-11-20,7.307164192199707
2018-11-21,8.144444465637207
2018-11-23,8.420366287231445
2018-11-26,8.363277435302734
2018-11-27,8.23958969116211
2018-11-28,8.582112312316895
2018-11-29,8.591628074645996
2018-11-30,8.515510559082031
2018-12-03,8.39182186126709
2018-12-04,7.963666915893555
2018-12-06,7.954153060913086
2018-12-07,7.915773868560791
2018-12-10,7.973342418670654
2018-12-11,7.9541521072387695
2018-12-12,8.021317481994629
2018-12-13,7.781444549560547
2018-12-14,7.848609924316406
2018-12-17,7.675901412963867
2018-12-18,7.752660274505615
2018-12-19,7.37846040725708
2018-12-20,7.311295509338379
2018-12-21,7.119398593902588
2018-12-24,6.95628547668457
2018-12-26,7.253727436065674
2018-12-27,7.205752849578857
2018-12-28,7.234536647796631
2018-12-31,7.1002092361450195
2019-01-02,7.061829090118408
2019-01-03,7.01385498046875
2019-01-04,7.3208909034729
2019-01-07,7.301701545715332
2019-01-08,7.436028957366943
2019-01-09,7.455219268798828
2019-01-10,7.176968097686768
2019-01-11,7.128993988037109
2019-01-14,7.157778263092041
2019-01-15,7.176968097686768
2019-01-16,7.090614318847656
2019-01-17,7.109803199768066
2019-01-18,7.109803199768066
2019-01-22,7.033044815063477
2019-01-23,7.128993988037109
2019-01-24,7.128993988037109
2019-01-25,7.340081214904785
2019-01-28,7.196157455444336
2019-01-29,7.081018924713135
2019-01-30,7.2825117111206055
2019-01-31,7.224942684173584
2019-02-01,7.388055324554443
2019-02-04,7.570357322692871
2019-02-05,7.579953193664551
2019-02-06,7.666306495666504
2019-02-07,7.599142074584961
2019-02-08,7.551168441772461
2019-02-11,7.551168441772461
2019-02-12,7.570357322692871
2019-02-13,7.695091247558594
2019-02-14,7.896583557128906
2019-02-15,7.992533206939697
2019-02-19,8.050102233886719
2019-02-20,7.934963226318359
2019-02-21,7.9061784744262695
2019-02-22,7.963748455047607
2019-02-25,7.877394199371338
2019-02-26,7.848609924316406
2019-02-27,7.867798805236816
2019-02-28,7.791040420532227
2019-03-01,7.886988639831543
2019-03-04,7.886988639831543
2019-03-05,7.733470916748047
2019-03-06,7.589547634124756
2019-03-07,7.541573524475098
2019-03-08,7.5512542724609375
2019-03-11,7.5899786949157715
2019-03-12,7.493167400360107
2019-03-13,7.464123725891113
2019-03-14,7.454442977905273
2019-03-15,7.289865016937256
2019-03-18,7.2801833152771
2019-03-19,7.3479509353637695
2019-03-20,7.415719032287598
2019-03-21,7.483486175537109
2019-03-22,7.2801833152771
2019-03-25,7.2511396408081055
2019-03-26,7.27050256729126
2019-03-27,7.241459369659424
2019-03-28,7.183372497558594
2019-03-29,7.2124152183532715
2019-04-01,7.3382697105407715
2019-04-02,7.2124152183532715
2019-04-03,7.173691272735596
2019-04-04,7.173691272735596
2019-04-05,7.144648551940918
2019-04-08,7.193053245544434
2019-04-09,7.183372497558594
2019-04-10,7.396356582641602
2019-04-11,7.3479509353637695
2019-04-12,7.27050256729126
2019-04-15,7.231778144836426
2019-04-16,7.231778144836426
2019-04-17,7.318908214569092
2019-04-18,7.32858943939209
2019-04-22,7.231778144836426
2019-04-23,7.231778144836426
2019-04-24,7.183372497558594
2019-04-25,7.096242427825928
2019-04-26,7.067199230194092
2019-04-29,7.231778144836426
2019-04-30,7.3382697105407715
2019-05-01,7.299546241760254
2019-05-02,7.193053245544434
2019-05-03,7.357632637023926
2019-05-06,7.32858943939209
2019-05-07,7.26082181930542
2019-05-08,7.115604877471924
2019-05-09,7.183372497558594
2019-05-10,7.231778144836426
2019-05-13,6.99943208694458
2019-05-14,6.951025485992432
2019-05-15,6.989750385284424
2019-05-16,6.99943208694458
2019-05-17,7.028475284576416
2019-05-20,7.047837257385254
2019-05-21,7.125286102294922
2019-05-22,7.105924129486084
2019-05-23,6.88325834274292
2019-05-24,6.951025485992432
2019-05-28,7.0091118812561035
2019-05-29,6.515377521514893
2019-05-30,6.583144187927246
2019-05-31,6.011960029602051
2019-06-03,6.1668572425842285
2019-06-04,6.002278804779053
2019-06-05,5.857062339782715
2019-06-06,5.731208324432373
2019-06-07,5.897188663482666
2019-06-10,6.082695960998535
2019-06-11,5.96553373336792
2019-06-12,5.955770015716553
2019-06-13,6.053405284881592
2019-06-14,6.121750354766846
2019-06-17,6.004587650299072
2019-06-18,6.053405284881592
2019-06-19,6.024114608764648
2019-06-20,6.111987113952637
2019-06-21,6.014350891113281
2019-06-24,5.867897987365723
2019-06-25,5.838607311248779
2019-06-26,5.838607311248779
2019-06-27,6.043642044067383
2019-06-28,6.024114608764648
2019-07-01,6.238913059234619
2019-07-02,6.209622383117676
2019-07-03,6.248676776885986
2019-07-05,6.385366439819336
2019-07-08,6.248676776885986
2019-07-09,6.170568466186523
2019-07-10,6.1900954246521
2019-07-11,6.160804271697998
2019-07-12,6.248676776885986
2019-07-15,6.219385623931885
2019-07-16,6.219385623931885
2019-07-17,6.151041030883789
2019-07-18,6.092459678649902
2019-07-19,6.072932720184326
2019-07-22,6.111987113952637
2019-07-23,6.092459678649902
2019-07-24,6.238913059234619
2019-07-25,6.014350891113281
2019-07-26,6.151041030883789
2019-07-29,6.092459678649902
2019-07-30,6.141277313232422
2019-07-31,6.1900954246521
2019-08-01,6.072932720184326
2019-08-02,6.072932720184326
2019-08-05,5.906952381134033
2019-08-06,5.96553373336792
2019-08-07,5.955770015716553
2019-08-08,5.906952381134033
2019-08-09,5.780025959014893
2019-08-12,5.770262241363525
2019-08-13,5.848370552062988
2019-08-14,5.721444129943848
2019-08-15,5.760498523712158
2019-08-16,5.916715621948242
2019-08-19,5.955770015716553
2019-08-20,5.926479339599609
2019-08-21,5.955770015716553
2019-08-22,6.072932720184326
2019-08-23,5.809316635131836
2019-08-26,5.858133792877197
2019-08-27,5.789789199829102
2019-08-28,6.551347255706787
2019-08-29,7.078578948974609
2019-08-30,7.059051990509033
2019-09-03,7.029760837554932
2019-09-04,6.98094367980957
2019-09-05,7.29337739944458
2019-09-06,7.29337739944458
2019-09-09,7.351958751678467
2019-09-10,7.527702331542969
2019-09-11,7.576520919799805
2019-09-12,7.722973823547363
2019-09-13,7.644368648529053
2019-09-16,7.673845291137695
2019-09-17,7.585414409637451
2019-09-18,7.457681179046631
2019-09-19,7.339772701263428
2019-09-20,7.280818939208984
2019-09-23,7.359424114227295
2019-09-24,7.379075527191162
2019-09-25,7.438029766082764
2019-09-26,7.359424114227295
2019-09-27,7.4183783531188965
2019-09-30,7.261167526245117
2019-10-01,7.035176753997803
2019-10-02,6.976222991943359
2019-10-03,6.917269229888916
2019-10-04,6.946746349334717
2019-10-07,6.907444000244141
2019-10-08,6.730581760406494
2019-10-09,6.8386640548706055
2019-10-10,6.907444000244141
2019-10-11,6.986049175262451
2019-10-14,6.897617816925049
2019-10-15,7.05482816696167
2019-10-16,7.015525817871094
2019-10-17,7.094130992889404
2019-10-18,7.074479579925537
2019-10-21,7.113781929016113
2019-10-22,7.133433818817139
2019-10-23,7.084305763244629
2019-10-24,6.986049175262451
2019-10-25,6.917269229888916
2019-10-28,7.025351524353027
2019-10-29,7.123608112335205
2019-10-30,7.025351524353027
2019-10-31,6.740407466888428
2019-11-01,6.661802291870117
2019-11-04,6.8386640548706055
2019-11-05,6.887792587280273
2019-11-06,6.848489284515381
2019-11-07,6.8386640548706055
2019-11-08,6.809186935424805
2019-11-11,6.69127893447876
2019-11-12,6.671627521514893
2019-11-13,6.632325172424316
2019-11-14,6.622498989105225
2019-11-15,6.622498989105225
2019-11-18,6.58319616317749
2019-11-19,6.671627521514893
2019-11-20,6.58319616317749
2019-11-21,6.593022346496582
2019-11-22,6.612673759460449
2019-11-25,6.740407466888428
2019-11-26,6.760058403015137
2019-11-27,6.17051887512207
2019-11-29,6.052610397338867
2019-12-02,5.924877166748047
2019-12-03,5.924877166748047
2019-12-04,5.816794395446777
2019-12-05,5.924877166748047
2019-12-06,5.974005222320557
2019-12-09,6.229472637176514
2019-12-10,6.131216049194336
2019-12-11,6.121390342712402
2019-12-12,6.180344104766846
2019-12-13,6.091204643249512
2019-12-16,6.091204643249512
2019-12-17,6.328909873962402
2019-12-18,6.219962120056152
2019-12-19,6.140726566314697
2019-12-20,6.0614914894104
2019-12-23,6.190248489379883
2019-12-24,6.041682720184326
2019-12-26,6.031778335571289
2019-12-27,5.952543258666992
2019-12-30,5.942638397216797
2019-12-31,6.031778335571289
