Date,DUK
2007-12-31,32.351985931396484
2008-01-02,31.678314208984375
2008-01-03,31.774547576904297
2008-01-04,31.758512496948242
2008-01-07,32.5765380859375
2008-01-08,32.48028564453125
2008-01-09,32.83317565917969
2008-01-10,32.78505325317383
2008-01-11,32.368019104003906
2008-01-14,32.48028564453125
2008-01-15,31.934955596923828
2008-01-16,31.99911117553711
2008-01-17,31.068805694580078
2008-01-18,30.731975555419922
2008-01-22,29.68939781188965
2008-01-23,30.45929718017578
2008-01-24,29.512968063354492
2008-01-25,28.791175842285156
2008-01-28,29.400691986083984
2008-01-29,29.432771682739258
2008-01-30,29.512968063354492
2008-01-31,29.913965225219727
2008-02-01,30.298904418945312
2008-02-04,30.860294342041016
2008-02-05,29.705440521240234
2008-02-06,30.218713760375977
2008-02-07,29.49692153930664
2008-02-08,29.49692153930664
2008-02-11,29.673364639282227
2008-02-12,29.9941463470459
2008-02-13,29.896772384643555
2008-02-14,29.474761962890625
2008-02-15,29.344924926757812
2008-02-19,29.49100112915039
2008-02-20,29.66953468322754
2008-02-21,29.06900405883789
2008-02-22,29.5721435546875
2008-02-25,29.86431121826172
2008-02-26,29.880531311035156
2008-02-27,29.620840072631836
2008-02-28,29.10146713256836
2008-02-29,28.468477249145508
2008-03-03,28.711936950683594
2008-03-04,28.728166580200195
2008-03-05,28.598325729370117
2008-03-06,28.01401710510254
2008-03-07,27.819252014160156
2008-03-10,27.786785125732422
2008-03-11,28.874235153198242
2008-03-12,28.45223617553711
2008-03-13,28.809316635131836
2008-03-14,28.403554916381836
2008-03-17,29.117700576782227
2008-03-18,29.44231605529785
2008-03-19,28.809316635131836
2008-03-20,29.604618072509766
2008-03-24,29.23131561279297
2008-03-25,28.890472412109375
2008-03-26,29.117700576782227
2008-03-27,28.890472412109375
2008-03-28,28.74439239501953
2008-03-31,28.971622467041016
2008-04-01,29.426074981689453
2008-04-02,29.70200538635254
2008-04-03,29.523460388183594
2008-04-04,29.40984535217285
2008-04-07,29.653305053710938
2008-04-08,29.880531311035156
2008-04-09,29.81561279296875
2008-04-10,29.783140182495117
2008-04-11,29.50723648071289
2008-04-14,29.280006408691406
2008-04-15,29.280006408691406
2008-04-16,29.945463180541992
2008-04-17,29.73444938659668
2008-04-18,29.84807014465332
2008-04-21,29.653305053710938
2008-04-22,29.344924926757812
2008-04-23,29.84807014465332
2008-04-24,29.5721435546875
2008-04-25,29.977920532226562
2008-04-28,29.66953468322754
2008-04-29,29.53969955444336
2008-04-30,29.71822738647461
2008-05-01,30.30253028869629
2008-05-02,30.821916580200195
2008-05-05,30.39991569519043
2008-05-06,30.448612213134766
2008-05-07,29.977920532226562
2008-05-08,30.107759475708008
2008-05-09,29.96170425415039
2008-05-12,30.367450714111328
2008-05-13,30.172691345214844
2008-05-14,30.659616470336914
2008-05-15,30.413280487060547
2008-05-16,30.446125030517578
2008-05-19,30.75813865661621
2008-05-20,30.528236389160156
2008-05-21,30.446125030517578
2008-05-22,30.59391975402832
2008-05-23,29.904212951660156
2008-05-27,30.052003860473633
2008-05-28,30.21620750427246
2008-05-29,30.249061584472656
2008-05-30,30.347585678100586
2008-06-02,29.7399845123291
2008-06-03,29.510068893432617
2008-06-04,29.8056697845459
2008-06-05,29.83850860595703
2008-06-06,29.05027198791504
2008-06-09,29.72356605529785
2008-06-10,29.411540985107422
2008-06-11,29.460805892944336
2008-06-12,29.296581268310547
2008-06-13,29.8056697845459
2008-06-16,29.88779067993164
2008-06-17,29.88779067993164
2008-06-18,29.72356605529785
2008-06-19,29.75640296936035
2008-06-20,29.017419815063477
2008-06-23,29.13237762451172
2008-06-24,28.836782455444336
2008-06-25,29.13237762451172
2008-06-26,28.29486656188965
2008-06-27,28.032106399536133
2008-06-30,28.54119300842285
2008-07-01,28.360551834106445
2008-07-02,28.344125747680664
2008-07-03,28.097801208496094
2008-07-07,28.21274185180664
2008-07-08,28.705398559570312
2008-07-09,28.754667282104492
2008-07-10,28.65614128112793
2008-07-11,28.574020385742188
2008-07-14,28.245595932006836
2008-07-15,28.344125747680664
2008-07-16,28.048538208007812
2008-07-17,28.21274185180664
2008-07-18,28.54119300842285
2008-07-21,28.508337020874023
2008-07-22,28.508337020874023
2008-07-23,28.27843475341797
2008-07-24,28.44265365600586
2008-07-25,28.22917366027832
2008-07-28,28.08137321472168
2008-07-29,28.360551834106445
2008-07-30,28.771089553833008
2008-07-31,28.86962127685547
2008-08-01,28.19632911682129
2008-08-04,28.52476692199707
2008-08-05,29.000993728637695
2008-08-06,28.639720916748047
2008-08-07,28.606874465942383
2008-08-08,29.854936599731445
2008-08-11,30.446125030517578
2008-08-12,29.313011169433594
2008-08-13,29.54592514038086
2008-08-14,29.229829788208008
2008-08-15,29.579185485839844
2008-08-18,29.762191772460938
2008-08-19,29.42946434020996
2008-08-20,29.446096420288086
2008-08-21,29.37955665588379
2008-08-22,29.662376403808594
2008-08-25,29.26310157775879
2008-08-26,29.446096420288086
2008-08-27,29.496015548706055
2008-08-28,29.679004669189453
2008-08-29,29.01355743408203
2008-09-02,28.84719467163086
2008-09-03,28.481199264526367
2008-09-04,28.764015197753906
2008-09-05,28.79729652404785
2008-09-08,29.72892189025879
2008-09-09,30.111553192138672
2008-09-10,29.72892189025879
2008-09-11,30.311182022094727
2008-09-12,30.44427490234375
2008-09-15,29.712284088134766
2008-09-16,30.011735916137695
2008-09-17,28.913742065429688
2008-09-18,30.926721572875977
2008-09-19,29.89527702331543
2008-09-22,29.89527702331543
2008-09-23,29.396198272705078
2008-09-24,29.69564437866211
2008-09-25,29.89527702331543
2008-09-26,29.995094299316406
2008-09-29,29.296371459960938
2008-09-30,28.996929168701172
2008-10-01,29.62911033630371
2008-10-02,29.179933547973633
2008-10-03,28.880475997924805
2008-10-06,28.46457290649414
2008-10-07,28.231657028198242
2008-10-08,28.165117263793945
2008-10-09,25.203866958618164
2008-10-10,24.006057739257812
2008-10-13,27.200218200683594
2008-10-14,26.152132034301758
2008-10-15,24.63823699951172
2008-10-16,25.83604621887207
2008-10-17,25.203866958618164
2008-10-20,27.749202728271484
2008-10-21,26.11885643005371
2008-10-22,25.70294761657715
2008-10-23,27.283397674560547
2008-10-24,26.00240707397461
2008-10-27,26.152132034301758
2008-10-28,27.749202728271484
2008-10-29,27.017215728759766
2008-10-30,27.998748779296875
2008-10-31,27.2501220703125
2008-11-03,27.732566833496094
2008-11-04,28.148479461669922
2008-11-05,25.98576545715332
2008-11-06,26.05231475830078
2008-11-07,27.033851623535156
2008-11-10,26.484859466552734
2008-11-11,26.351776123046875
2008-11-12,25.828445434570312
2008-11-13,27.195838928222656
2008-11-14,26.40240478515625
2008-11-17,25.980382919311523
2008-11-18,26.469938278198242
2008-11-19,25.170068740844727
2008-11-20,24.697389602661133
2008-11-21,25.3895263671875
2008-11-24,26.081663131713867
2008-11-25,25.879091262817383
2008-11-26,25.55833625793457
2008-11-28,26.267366409301758
2008-12-01,24.883087158203125
2008-12-02,24.477947235107422
2008-12-03,24.91684913635254
2008-12-04,24.62986183166504
2008-12-05,25.220714569091797
2008-12-08,25.220714569091797
2008-12-09,24.494823455810547
2008-12-10,24.849323272705078
2008-12-11,24.57923126220703
2008-12-12,24.680513381958008
2008-12-15,24.494823455810547
2008-12-16,25.220714569091797
2008-12-17,24.66363525390625
2008-12-18,24.93373680114746
2008-12-19,24.781808853149414
2008-12-22,25.051897048950195
2008-12-23,24.376659393310547
2008-12-24,24.66363525390625
2008-12-26,24.562349319458008
2008-12-29,24.731157302856445
2008-12-30,25.220714569091797
2008-12-31,25.33888053894043
2009-01-02,25.997255325317383
2009-01-05,26.621871948242188
2009-01-06,25.895977020263672
2009-01-07,25.963499069213867
2009-01-08,26.014137268066406
2009-01-09,25.777809143066406
2009-01-12,25.946622848510742
2009-01-13,25.592111587524414
2009-01-14,25.305133819580078
2009-01-15,25.085668563842773
2009-01-16,25.355770111083984
2009-01-20,25.119426727294922
2009-01-21,25.068784713745117
2009-01-22,25.085668563842773
2009-01-23,25.153196334838867
2009-01-26,25.592111587524414
2009-01-27,25.828445434570312
2009-01-28,25.997255325317383
2009-01-29,26.014137268066406
2009-01-30,25.575223922729492
2009-02-02,25.33888053894043
2009-02-03,25.406414031982422
2009-02-04,25.929738998413086
2009-02-05,26.115428924560547
2009-02-06,26.469938278198242
2009-02-09,26.43617820739746
2009-02-10,25.676515579223633
2009-02-11,25.60795021057129
2009-02-12,25.505104064941406
2009-02-13,25.265138626098633
2009-02-17,24.185285568237305
2009-02-18,24.69950294494629
2009-02-19,24.85377311706543
2009-02-20,24.270992279052734
2009-02-23,23.84247589111328
2009-02-24,24.528100967407227
2009-02-25,24.288129806518555
2009-02-26,23.61965560913086
2009-02-27,23.088298797607422
2009-03-02,22.14556312561035
2009-03-03,20.94573402404785
2009-03-04,21.288536071777344
2009-03-05,20.637195587158203
2009-03-06,20.82574462890625
2009-03-09,20.242961883544922
2009-03-10,21.23711395263672
2009-03-11,21.511371612548828
2009-03-12,21.682775497436523
2009-03-13,22.042728424072266
2009-03-16,22.55693244934082
2009-03-17,23.174001693725586
2009-03-18,23.9796085357666
2009-03-19,24.288129806518555
2009-03-20,24.37384033203125
2009-03-23,25.17943572998047
2009-03-24,24.339550018310547
2009-03-25,24.40811538696289
2009-03-26,24.785205841064453
2009-03-27,24.493818283081055
2009-03-30,24.185285568237305
2009-03-31,24.54524040222168
2009-04-01,24.442394256591797
2009-04-02,24.305278778076172
2009-04-03,24.32240104675293
2009-04-06,24.099586486816406
2009-04-07,23.585371017456055
2009-04-08,23.9796085357666
2009-04-09,23.928184509277344
2009-04-13,23.859615325927734
2009-04-14,23.516809463500977
2009-04-15,23.99675178527832
2009-04-16,23.773921966552734
2009-04-17,23.551084518432617
2009-04-20,23.516809463500977
2009-04-21,23.70534324645996
2009-04-22,23.516809463500977
2009-04-23,23.688209533691406
2009-04-24,23.568225860595703
2009-04-27,23.61965560913086
2009-04-28,23.739635467529297
2009-04-29,23.9796085357666
2009-04-30,23.671072006225586
2009-05-01,24.185285568237305
2009-05-04,24.390979766845703
2009-05-05,24.32240104675293
2009-05-06,23.9796085357666
2009-05-07,24.32240104675293
2009-05-08,24.305278778076172
2009-05-11,24.579511642456055
2009-05-12,24.682361602783203
2009-05-13,24.065303802490234
2009-05-14,23.92589569091797
2009-05-15,23.49024772644043
2009-05-18,23.612232208251953
2009-05-19,23.62964630126953
2009-05-20,23.385684967041016
2009-05-21,23.437969207763672
2009-05-22,23.856189727783203
2009-05-26,24.448680877685547
2009-05-27,23.960750579833984
2009-05-28,24.448680877685547
2009-05-29,24.657787322998047
2009-06-01,25.04116439819336
2009-06-02,24.570659637451172
2009-06-03,24.535810470581055
2009-06-04,24.51837921142578
2009-06-05,24.622940063476562
2009-06-08,24.55323600769043
2009-06-09,24.535810470581055
2009-06-10,24.640371322631836
2009-06-11,25.16314697265625
2009-06-12,25.563936233520508
2009-06-15,25.180570602416992
2009-06-16,24.79718589782715
2009-06-17,24.90175437927246
2009-06-18,25.51165771484375
2009-06-19,25.110858917236328
2009-06-22,25.529088973999023
2009-06-23,25.076017379760742
2009-06-24,25.093446731567383
2009-06-25,25.494239807128906
2009-06-26,25.110858917236328
2009-06-29,25.407108306884766
2009-06-30,25.424537658691406
2009-07-01,25.842744827270508
2009-07-02,25.093446731567383
2009-07-06,25.459381103515625
2009-07-07,24.954029083251953
2009-07-08,24.90175437927246
2009-07-09,24.79718589782715
2009-07-10,24.954029083251953
2009-07-13,25.38967514038086
2009-07-14,25.302553176879883
2009-07-15,25.720775604248047
2009-07-16,25.738204956054688
2009-07-17,25.668500900268555
2009-07-20,25.720775604248047
2009-07-21,25.94731330871582
2009-07-22,25.86018943786621
2009-07-23,26.400386810302734
2009-07-24,26.818618774414062
2009-07-27,26.923166275024414
2009-07-28,26.661781311035156
2009-07-29,26.7489013671875
2009-07-30,27.062570571899414
2009-07-31,26.975446701049805
2009-08-03,27.13227653503418
2009-08-04,27.149703979492188
2009-08-05,26.714052200317383
2009-08-06,26.923166275024414
2009-08-07,27.30653953552246
2009-08-10,27.04515266418457
2009-08-11,27.18455696105957
2009-08-12,27.042964935302734
2009-08-13,27.0783634185791
2009-08-14,27.219953536987305
2009-08-17,27.02527618408203
2009-08-18,26.989877700805664
2009-08-19,27.149166107177734
2009-08-20,27.414644241333008
2009-08-21,27.627017974853516
2009-08-24,27.786296844482422
2009-08-25,27.644716262817383
2009-08-26,27.68010139465332
2009-08-27,27.644716262817383
2009-08-28,27.627017974853516
2009-08-31,27.414644241333008
2009-09-01,27.060670852661133
2009-09-02,26.812894821166992
2009-09-03,27.096071243286133
2009-09-04,27.46773338317871
2009-09-08,27.46773338317871
2009-09-09,27.308439254760742
2009-09-10,27.308439254760742
2009-09-11,27.308439254760742
2009-09-14,27.69780158996582
2009-09-15,27.715499877929688
2009-09-16,28.051776885986328
2009-09-17,27.998666763305664
2009-09-18,28.2464542388916
2009-09-21,27.87479019165039
2009-09-22,27.803998947143555
2009-09-23,27.82168960571289
2009-09-24,27.980979919433594
2009-09-25,28.016387939453125
2009-09-28,28.2110538482666
2009-09-29,28.0694637298584
2009-09-30,27.857093811035156
2009-10-01,27.627017974853516
2009-10-02,27.219953536987305
2009-10-05,27.450023651123047
2009-10-06,27.644716262817383
2009-10-07,27.750905990600586
2009-10-08,27.59161376953125
2009-10-09,27.609317779541016
2009-10-12,27.68010139465332
2009-10-13,27.627017974853516
2009-10-14,27.927888870239258
2009-10-15,28.051776885986328
2009-10-16,27.945585250854492
2009-10-19,28.281848907470703
2009-10-20,28.228755950927734
2009-10-21,28.58272361755371
2009-10-22,28.653512954711914
2009-10-23,28.49422836303711
2009-10-26,28.2110538482666
2009-10-27,28.14026641845703
2009-10-28,28.03407859802246
2009-10-29,28.51192855834961
2009-10-30,27.998666763305664
2009-11-02,27.927888870239258
2009-11-03,27.82168960571289
2009-11-04,27.96328353881836
2009-11-05,28.405736923217773
2009-11-06,28.405736923217773
2009-11-09,28.865886688232422
2009-11-10,29.063486099243164
2009-11-11,28.991636276245117
2009-11-12,28.75812339782715
2009-11-13,28.812002182006836
2009-11-16,29.09941291809082
2009-11-17,29.081443786621094
2009-11-18,29.027559280395508
2009-11-19,28.91977882385254
2009-11-20,29.135337829589844
2009-11-23,29.566434860229492
2009-11-24,29.74605941772461
2009-11-25,30.08734893798828
2009-11-27,29.979578018188477
2009-11-30,29.961610794067383
2009-12-01,30.734006881713867
2009-12-02,30.985485076904297
2009-12-03,31.02140235900879
2009-12-04,30.787899017333984
2009-12-07,31.21900177001953
2009-12-08,31.344738006591797
2009-12-09,31.344738006591797
2009-12-10,31.739910125732422
2009-12-11,31.991390228271484
2009-12-14,31.79379653930664
2009-12-15,31.703975677490234
2009-12-16,31.52436637878418
2009-12-17,31.129188537597656
2009-12-18,31.236955642700195
2009-12-21,31.20103645324707
2009-12-22,31.003437042236328
2009-12-23,30.967519760131836
2009-12-24,31.02140235900879
2009-12-28,31.14715003967285
2009-12-29,31.236955642700195
2009-12-30,31.290834426879883
2009-12-31,30.91363525390625
2010-01-04,30.482526779174805
2010-01-05,29.979578018188477
2010-01-06,30.08734893798828
2010-01-07,30.23105812072754
2010-01-08,30.24901580810547
2010-01-11,30.554370880126953
2010-01-12,30.590299606323242
2010-01-13,30.66214942932129
2010-01-14,30.66214942932129
2010-01-15,30.356788635253906
2010-01-19,30.698078155517578
2010-01-20,30.410680770874023
2010-01-21,29.961610794067383
2010-01-22,29.72810173034668
2010-01-25,29.925687789916992
2010-01-26,30.195117950439453
2010-01-27,30.06938362121582
2010-01-28,29.853843688964844
2010-01-29,29.692182540893555
2010-02-01,29.907724380493164
2010-02-02,30.105321884155273
2010-02-03,29.889755249023438
2010-02-04,29.40476417541504
2010-02-05,29.314958572387695
2010-02-08,29.314958572387695
2010-02-09,29.74605941772461
2010-02-10,29.563798904418945
2010-02-11,29.545568466186523
2010-02-12,29.436206817626953
2010-02-16,29.618473052978516
2010-02-17,29.49087905883789
2010-02-18,29.7642822265625
2010-02-19,30.274639129638672
2010-02-22,29.946563720703125
2010-02-23,29.800737380981445
2010-02-24,29.983001708984375
2010-02-25,29.855426788330078
2010-02-26,29.800737380981445
2010-03-01,30.05592155456543
2010-03-02,29.964778900146484
2010-03-03,29.89186668395996
2010-03-04,29.7642822265625
2010-03-05,30.001230239868164
2010-03-08,30.12881851196289
2010-03-09,30.01946449279785
2010-03-10,30.01946449279785
2010-03-11,30.037700653076172
2010-03-12,29.7642822265625
2010-03-15,30.001230239868164
2010-03-16,30.274639129638672
2010-03-17,30.29286766052246
2010-03-18,30.219955444335938
2010-03-19,30.219955444335938
2010-03-22,29.964778900146484
2010-03-23,30.001230239868164
2010-03-24,29.74605941772461
2010-03-25,29.709606170654297
2010-03-26,29.928325653076172
2010-03-29,30.238182067871094
2010-03-30,29.89186668395996
2010-03-31,29.74605941772461
2010-04-01,29.910099029541016
2010-04-05,29.928325653076172
2010-04-06,30.16527557373047
2010-04-07,29.83719253540039
2010-04-08,29.600242614746094
2010-04-09,29.7642822265625
2010-04-12,29.63670539855957
2010-04-13,29.563798904418945
2010-04-14,29.545568466186523
2010-04-15,29.399755477905273
2010-04-16,29.1810302734375
2010-04-19,29.29038429260254
2010-04-20,29.800737380981445
2010-04-21,29.709606170654297
2010-04-22,29.545568466186523
2010-04-23,29.618473052978516
2010-04-26,29.600242614746094
2010-04-27,29.1810302734375
2010-04-28,30.32931900024414
2010-04-29,30.12881851196289
2010-04-30,30.584503173828125
2010-05-03,30.857898712158203
2010-05-04,30.4569091796875
2010-05-05,30.548038482666016
2010-05-06,30.037700653076172
2010-05-07,30.16527557373047
2010-05-10,30.80321502685547
2010-05-11,30.83966064453125
2010-05-12,30.949020385742188
2010-05-13,30.730300903320312
2010-05-14,30.584503173828125
2010-05-17,30.857898712158203
2010-05-18,30.87610626220703
2010-05-19,30.487869262695312
2010-05-20,29.52644920349121
2010-05-21,29.581905364990234
2010-05-24,29.52644920349121
2010-05-25,29.249113082885742
2010-05-26,29.04574203491211
2010-05-27,29.544940948486328
2010-05-28,29.507957458496094
2010-06-01,29.027254104614258
2010-06-02,29.507957458496094
2010-06-03,29.674362182617188
2010-06-04,28.860855102539062
2010-06-07,28.971790313720703
2010-06-08,29.76679039001465
2010-06-09,29.45248794555664
2010-06-10,30.025636672973633
2010-06-11,29.896215438842773
2010-06-14,29.970176696777344
2010-06-15,30.339946746826172
2010-06-16,30.543325424194336
2010-06-17,30.894607543945312
2010-06-18,30.76518440246582
2010-06-21,30.672739028930664
2010-06-22,30.173547744750977
2010-06-23,29.98867416381836
2010-06-24,29.85924530029297
2010-06-25,29.896215438842773
2010-06-28,30.210535049438477
2010-06-29,29.85924530029297
2010-06-30,29.581905364990234
2010-07-01,29.52644920349121
2010-07-02,29.692842483520508
2010-07-06,29.98867416381836
2010-07-07,30.96856117248535
2010-07-08,30.91310691833496
2010-07-09,31.04252052307129
2010-07-12,31.22740364074707
2010-07-13,31.134963989257812
2010-07-14,31.35682487487793
2010-07-15,31.578683853149414
2010-07-16,31.19042205810547
2010-07-19,31.74509620666504
2010-07-20,31.68962287902832
2010-07-21,31.245893478393555
2010-07-22,31.61566925048828
2010-07-23,31.319835662841797
2010-07-26,31.61566925048828
2010-07-27,32.096378326416016
2010-07-28,32.00393295288086
2010-07-29,31.74509620666504
2010-07-30,31.61566925048828
2010-08-02,32.11486053466797
2010-08-03,32.11486053466797
2010-08-04,32.11486053466797
2010-08-05,32.188812255859375
2010-08-06,32.207305908203125
2010-08-09,32.466148376464844
2010-08-10,32.706512451171875
2010-08-11,32.078426361083984
2010-08-12,32.05968475341797
2010-08-13,31.89093780517578
2010-08-16,31.928442001342773
2010-08-17,32.32215881347656
2010-08-18,32.359649658203125
2010-08-19,31.947187423706055
2010-08-20,31.984691619873047
2010-08-23,31.984691619873047
2010-08-24,32.265907287597656
2010-08-25,32.17218017578125
2010-08-26,32.02218246459961
2010-08-27,32.547142028808594
2010-08-30,32.15342330932617
2010-08-31,32.20966339111328
2010-09-01,32.69710922241211
2010-09-02,32.39714813232422
2010-09-03,32.52838897705078
2010-09-07,32.5096435546875
2010-09-08,32.60338592529297
2010-09-09,32.884613037109375
2010-09-10,32.8658561706543
2010-09-13,33.10959243774414
2010-09-14,33.10959243774414
2010-09-15,32.95960998535156
2010-09-16,32.94086456298828
2010-09-17,32.8283576965332
2010-09-20,33.33457946777344
2010-09-21,33.35331344604492
2010-09-22,33.709537506103516
2010-09-23,33.297080993652344
2010-09-24,33.7282829284668
2010-09-27,33.55955505371094
2010-09-28,33.63453674316406
2010-09-29,33.484554290771484
2010-09-30,33.203338623046875
2010-10-01,33.428314208984375
2010-10-04,33.27833557128906
2010-10-05,33.259578704833984
2010-10-06,33.18458557128906
2010-10-07,33.05333709716797
2010-10-08,33.07209396362305
2010-10-11,33.034603118896484
2010-10-12,32.95960998535156
2010-10-13,32.92210006713867
2010-10-14,32.95960998535156
2010-10-15,32.97834396362305
2010-10-18,33.09085464477539
2010-10-19,33.128334045410156
2010-10-20,33.35331344604492
2010-10-21,33.40956497192383
2010-10-22,33.33457946777344
2010-10-25,33.31582260131836
2010-10-26,33.484554290771484
2010-10-27,33.503299713134766
2010-10-28,33.878273010253906
2010-10-29,34.140750885009766
2010-11-01,33.84077453613281
2010-11-02,34.25323486328125
2010-11-03,34.290733337402344
2010-11-04,34.740699768066406
2010-11-05,34.665714263916016
2010-11-08,34.55322265625
2010-11-09,34.29670333862305
2010-11-10,33.97368621826172
2010-11-11,33.95467758178711
2010-11-12,33.80267333984375
2010-11-15,33.70766830444336
2010-11-16,33.46066665649414
2010-11-17,33.42266082763672
2010-11-18,33.61266326904297
2010-11-19,33.46066665649414
2010-11-22,33.555660247802734
2010-11-23,33.38465118408203
2010-11-24,33.555660247802734
2010-11-26,33.28964614868164
2010-11-29,33.2706413269043
2010-11-30,33.3466682434082
2010-12-01,33.78367614746094
2010-12-02,33.745670318603516
2010-12-03,33.80267333984375
2010-12-06,33.59367370605469
2010-12-07,33.19465637207031
2010-12-08,32.98564529418945
2010-12-09,33.137630462646484
2010-12-10,33.308650970458984
2010-12-13,33.32765197753906
2010-12-14,33.555660247802734
2010-12-15,33.3466682434082
2010-12-16,33.555660247802734
2010-12-17,33.70766830444336
2010-12-20,33.68867492675781
2010-12-21,33.76467514038086
2010-12-22,33.745670318603516
2010-12-23,33.76467514038086
2010-12-27,33.82168197631836
2010-12-28,33.93567657470703
2010-12-29,33.87868118286133
2010-12-30,33.82168197631836
2010-12-31,33.8406867980957
2011-01-03,33.93567657470703
2011-01-04,34.10669708251953
2011-01-05,33.76467514038086
2011-01-06,33.70766830444336
2011-01-07,33.80267333984375
2011-01-10,33.40365982055664
2011-01-11,33.51765060424805
2011-01-12,33.65067672729492
2011-01-13,33.82168197631836
2011-01-14,34.049686431884766
2011-01-18,34.22069549560547
2011-01-19,34.20170211791992
2011-01-20,34.29670333862305
2011-01-21,34.505706787109375
2011-01-24,34.524715423583984
2011-01-25,34.448699951171875
2011-01-26,34.3917121887207
2011-01-27,34.60071563720703
2011-01-28,34.125701904296875
2011-01-31,33.97368621826172
2011-02-01,34.29670333862305
2011-02-02,34.125701904296875
2011-02-03,34.37270736694336
2011-02-04,34.22069549560547
2011-02-07,34.486717224121094
2011-02-08,34.448699951171875
2011-02-09,34.342769622802734
2011-02-10,34.400569915771484
2011-02-11,34.36203384399414
2011-02-14,34.0731086730957
2011-02-15,34.45833206176758
2011-02-16,34.09235763549805
2011-02-17,34.90134811401367
2011-02-18,34.55464172363281
2011-02-22,34.63169479370117
2011-02-23,34.47760009765625
2011-02-24,34.32351303100586
2011-02-25,34.41981506347656
2011-02-28,34.65095138549805
2011-03-01,34.4390869140625
2011-03-02,34.593177795410156
2011-03-03,34.82430648803711
2011-03-04,34.63169479370117
2011-03-07,34.93986511230469
2011-03-08,35.13248825073242
2011-03-09,35.5177116394043
2011-03-10,35.286563873291016
2011-03-11,35.49844741821289
2011-03-14,35.016902923583984
2011-03-15,34.47760009765625
2011-03-16,33.996070861816406
2011-03-17,33.89976119995117
2011-03-18,33.95754623413086
2011-03-21,34.130889892578125
2011-03-22,34.20794677734375
2011-03-23,34.32351303100586
2011-03-24,34.41981506347656
2011-03-25,34.32351303100586
2011-03-28,34.400569915771484
2011-03-29,34.76652145385742
2011-03-30,34.997650146484375
2011-03-31,34.95913314819336
2011-04-01,35.47917938232422
2011-04-04,35.40213394165039
2011-04-05,35.45991516113281
2011-04-06,35.748844146728516
2011-04-07,35.40213394165039
2011-04-08,35.45991516113281
2011-04-11,34.978389739990234
2011-04-12,34.65095138549805
2011-04-13,34.82430648803711
2011-04-14,35.07470703125
2011-04-15,35.382877349853516
2011-04-18,35.07470703125
2011-04-19,35.09395217895508
2011-04-20,35.5177116394043
2011-04-21,35.53696060180664
2011-04-25,35.49844741821289
2011-04-26,35.614013671875
2011-04-27,35.71033477783203
2011-04-28,35.979976654052734
2011-04-29,35.92218780517578
2011-05-02,36.21110916137695
2011-05-03,36.172584533691406
2011-05-04,36.30741882324219
2011-05-05,36.057029724121094
2011-05-06,36.057029724121094
2011-05-09,36.34593200683594
2011-05-10,36.6155891418457
2011-05-11,36.53856658935547
2011-05-12,37.03934097290039
2011-05-13,37.02008819580078
2011-05-16,37.17416763305664
2011-05-17,37.5208740234375
2011-05-18,37.335567474365234
2011-05-19,37.19900894165039
2011-05-20,37.08197021484375
2011-05-23,36.67233657836914
2011-05-24,36.5553092956543
2011-05-25,36.41875076293945
2011-05-26,36.28221130371094
2011-05-27,36.321224212646484
2011-05-31,36.574806213378906
2011-06-01,36.243186950683594
2011-06-02,36.30170822143555
2011-06-03,35.98960494995117
2011-06-06,35.83355712890625
2011-06-07,35.85306167602539
2011-06-08,36.00911331176758
2011-06-09,35.91157913208008
2011-06-10,35.65799331665039
2011-06-13,36.087154388427734
2011-06-14,36.16518783569336
2011-06-15,35.87257385253906
2011-06-16,36.43825912475586
2011-06-17,36.5553092956543
2011-06-20,36.73086166381836
2011-06-21,36.67233657836914
2011-06-22,36.457767486572266
2011-06-23,36.18467712402344
2011-06-24,36.106651306152344
2011-06-27,36.321224212646484
2011-06-28,36.340721130371094
2011-06-29,36.63331985473633
2011-06-30,36.73086166381836
2011-07-01,37.19900894165039
2011-07-05,37.19900894165039
2011-07-06,37.19900894165039
2011-07-07,37.2380256652832
2011-07-08,37.2380256652832
2011-07-11,37.179508209228516
2011-07-12,37.29655075073242
2011-07-13,37.10148239135742
2011-07-14,36.847896575927734
2011-07-15,36.769874572753906
2011-07-18,36.340721130371094
2011-07-19,36.594322204589844
2011-07-20,36.73086166381836
2011-07-21,37.257530212402344
2011-07-22,36.96493911743164
2011-07-25,36.90642547607422
2011-07-26,36.71134567260742
2011-07-27,36.594322204589844
2011-07-28,36.321224212646484
2011-07-29,36.28221130371094
2011-08-01,36.477272033691406
2011-08-02,36.18467712402344
2011-08-03,35.98960494995117
2011-08-04,35.15082550048828
2011-08-05,35.345890045166016
2011-08-08,33.68783187866211
2011-08-09,34.838741302490234
2011-08-10,34.126502990722656
2011-08-11,35.64984130859375
2011-08-12,35.25416946411133
2011-08-15,36.4016227722168
2011-08-16,36.18400573730469
2011-08-17,36.540096282958984
2011-08-18,36.34226608276367
2011-08-19,36.085079193115234
2011-08-22,36.30268859863281
2011-08-23,36.57967758178711
2011-08-24,37.33143997192383
2011-08-25,36.71815490722656
2011-08-26,36.71815490722656
2011-08-29,37.13360595703125
2011-08-30,37.13360595703125
2011-08-31,37.41057205200195
2011-09-01,37.212738037109375
2011-09-02,37.15338134765625
2011-09-06,36.87641525268555
2011-09-07,37.15338134765625
2011-09-08,37.212738037109375
2011-09-09,36.698368072509766
2011-09-12,37.3116569519043
2011-09-13,37.54905700683594
2011-09-14,37.746891021728516
2011-09-15,38.37997055053711
2011-09-16,38.716285705566406
2011-09-19,38.676719665527344
2011-09-20,39.072383880615234
2011-09-21,38.894344329833984
2011-09-22,38.558013916015625
2011-09-23,39.151519775390625
2011-09-26,39.448265075683594
2011-09-27,39.369144439697266
2011-09-28,39.32957458496094
2011-09-29,39.82415771484375
2011-09-30,39.54718780517578
2011-10-03,38.993247985839844
2011-10-04,38.854766845703125
2011-10-05,38.558013916015625
2011-10-06,38.77564239501953
2011-10-07,39.151519775390625
2011-10-10,40.08134460449219
2011-10-11,39.42848587036133
2011-10-12,39.17131042480469
2011-10-13,39.17131042480469
2011-10-14,39.40871047973633
2011-10-17,39.78459167480469
2011-10-18,39.80437469482422
2011-10-19,39.962642669677734
2011-10-20,40.04177474975586
2011-10-21,40.65507125854492
2011-10-24,40.279178619384766
2011-10-25,39.843929290771484
2011-10-26,40.16048049926758
2011-10-27,40.81332778930664
2011-10-28,40.47700881958008
2011-10-31,40.39788818359375
2011-11-01,39.962642669677734
2011-11-02,40.417659759521484
2011-11-03,41.169437408447266
2011-11-04,40.83311462402344
2011-11-07,41.24857711791992
2011-11-08,41.20900344848633
2011-11-09,40.67485809326172
2011-11-10,41.05073547363281
2011-11-11,41.54531478881836
2011-11-14,41.20900344848633
2011-11-15,40.91225051879883
2011-11-16,40.51173400878906
2011-11-17,40.251399993896484
2011-11-18,40.391578674316406
2011-11-21,40.11122512817383
2011-11-22,39.89094924926758
2011-11-23,39.31020736694336
2011-11-25,39.630611419677734
2011-11-28,40.0311164855957
2011-11-29,40.4716911315918
2011-11-30,41.75333023071289
2011-12-01,41.45293426513672
2011-12-02,41.2927360534668
2011-12-05,41.45293426513672
2011-12-06,41.41289138793945
2011-12-07,41.47296905517578
2011-12-08,41.03239822387695
2011-12-09,41.773353576660156
2011-12-12,41.272701263427734
2011-12-13,41.79338073730469
2011-12-14,41.75333023071289
2011-12-15,42.13381576538086
2011-12-16,42.07373046875
2011-12-19,41.99363327026367
2011-12-20,42.85472106933594
2011-12-21,43.35536193847656
2011-12-22,43.31532287597656
2011-12-23,43.83597946166992
2011-12-27,44.03623580932617
2011-12-28,43.876033782958984
2011-12-29,44.176422119140625
2011-12-30,44.05625915527344
2012-01-03,43.2952995300293
2012-01-04,43.09503936767578
2012-01-05,43.075008392333984
2012-01-06,43.075008392333984
2012-01-09,42.99491882324219
2012-01-10,42.99491882324219
2012-01-11,42.85472106933594
2012-01-12,42.614418029785156
2012-01-13,42.674495697021484
2012-01-17,42.69453430175781
2012-01-18,42.69453430175781
2012-01-19,42.53432846069336
2012-01-20,42.65446853637695
2012-01-23,42.59439468383789
2012-01-24,42.33407211303711
2012-01-25,42.77463912963867
2012-01-26,42.99491882324219
2012-01-27,42.4141731262207
2012-01-30,42.314048767089844
2012-01-31,42.674495697021484
2012-02-01,42.97488784790039
2012-02-02,42.79465103149414
2012-02-03,42.85472106933594
2012-02-06,42.59439468383789
2012-02-07,43.01493835449219
2012-02-08,42.81467819213867
2012-02-09,42.97488784790039
2012-02-10,43.01493835449219
2012-02-13,42.93483352661133
2012-02-14,43.054988861083984
2012-02-15,42.28506851196289
2012-02-16,42.75107192993164
2012-02-17,42.34584426879883
2012-02-21,42.26481628417969
2012-02-22,42.40663146972656
2012-02-23,42.32558822631836
2012-02-24,42.75107192993164
2012-02-27,42.690284729003906
2012-02-28,42.56871795654297
2012-02-29,42.38636779785156
2012-03-01,42.528194427490234
2012-03-02,42.629512786865234
2012-03-05,42.730804443359375
2012-03-06,42.5889892578125
2012-03-07,42.6092414855957
2012-03-08,42.85237121582031
2012-03-09,42.85237121582031
2012-03-12,43.298126220703125
2012-03-13,43.41968536376953
2012-03-14,42.85237121582031
2012-03-15,42.81185531616211
2012-03-16,42.690284729003906
2012-03-19,42.42689895629883
2012-03-20,42.32558822631836
2012-03-21,42.224281311035156
2012-03-22,42.28506851196289
2012-03-23,42.12297821044922
2012-03-26,42.4876708984375
2012-03-27,42.67002868652344
2012-03-28,42.36611557006836
2012-03-29,42.36611557006836
2012-03-30,42.56871795654297
2012-04-02,42.75107192993164
2012-04-03,42.83211898803711
2012-04-04,42.933414459228516
2012-04-05,42.062191009521484
2012-04-09,41.75826644897461
2012-04-10,41.27199935913086
2012-04-11,41.23149108886719
2012-04-12,41.292274475097656
2012-04-13,41.353050231933594
2012-04-16,41.79879379272461
2012-04-17,42.18376159667969
2012-04-18,42.5889892578125
2012-04-19,42.28506851196289
2012-04-20,42.56871795654297
2012-04-23,42.40663146972656
2012-04-24,42.91315841674805
2012-04-25,43.136024475097656
2012-04-26,43.31837463378906
2012-04-27,43.41968536376953
2012-04-30,43.41968536376953
2012-05-01,43.62230682373047
2012-05-02,43.520999908447266
2012-05-03,43.35890579223633
2012-05-04,43.68307876586914
2012-05-07,43.500732421875
2012-05-08,43.66283416748047
2012-05-09,43.76413345336914
2012-05-10,44.14908981323242
2012-05-11,44.00725173950195
2012-05-14,43.946475982666016
2012-05-15,43.92621612548828
2012-05-16,43.84423065185547
2012-05-17,43.92621612548828
2012-05-18,43.98771286010742
2012-05-21,43.84423065185547
2012-05-22,44.37716293334961
2012-05-23,44.274681091308594
2012-05-24,44.684635162353516
2012-05-25,45.0125846862793
2012-05-29,45.053585052490234
2012-05-30,44.787113189697266
2012-05-31,45.053585052490234
2012-06-01,45.81198501586914
2012-06-04,46.078460693359375
2012-06-05,46.34492874145508
2012-06-06,46.508907318115234
2012-06-07,46.918861389160156
2012-06-08,47.45180130004883
2012-06-11,47.10333251953125
2012-06-12,47.06233215332031
2012-06-13,46.83686065673828
2012-06-14,47.43128967285156
2012-06-15,47.67726135253906
2012-06-18,47.71826171875
2012-06-19,47.349300384521484
2012-06-20,46.79587173461914
2012-06-21,46.63189697265625
2012-06-22,46.89835739135742
2012-06-25,47.000850677490234
2012-06-26,46.939361572265625
2012-06-27,47.16482925415039
2012-06-28,47.26731872558594
2012-06-29,47.26731872558594
2012-07-02,47.71826171875
2012-07-03,46.93252182006836
2012-07-05,46.850528717041016
2012-07-06,45.251731872558594
2012-07-09,44.623130798339844
2012-07-10,45.19023132324219
2012-07-11,45.422523498535156
2012-07-12,45.53185272216797
2012-07-13,45.60017776489258
2012-07-16,45.60017776489258
2012-07-17,45.326873779296875
2012-07-18,45.142398834228516
2012-07-19,45.176570892333984
2012-07-20,45.2448844909668
2012-07-23,44.75294876098633
2012-07-24,44.59580612182617
2012-07-25,44.971595764160156
2012-07-26,46.010128021240234
2012-07-27,46.092124938964844
2012-07-30,46.508907318115234
2012-07-31,46.310768127441406
2012-08-01,46.13312911987305
2012-08-02,46.092124938964844
2012-08-03,46.87102508544922
2012-08-06,46.60456466674805
2012-08-07,46.495243072509766
2012-08-08,46.4884147644043
2012-08-09,46.52256393432617
2012-08-10,46.35858917236328
2012-08-13,46.61139678955078
2012-08-14,46.59773635864258
2012-08-15,46.138206481933594
2012-08-16,46.082942962646484
2012-08-17,45.944725036621094
2012-08-20,45.91018295288086
2012-08-21,45.6475944519043
2012-08-22,45.60614013671875
2012-08-23,45.08098602294922
2012-08-24,45.23990249633789
2012-08-27,45.26755142211914
2012-08-28,45.17081069946289
2012-08-29,45.12934494018555
2012-08-30,44.78385543823242
2012-08-31,44.76311492919922
2012-09-04,44.78385543823242
2012-09-05,44.54890060424805
2012-09-06,44.915138244628906
2012-09-07,44.72164535522461
2012-09-10,44.797664642333984
2012-09-11,44.5420036315918
2012-09-12,44.258689880371094
2012-09-13,44.680206298828125
2012-09-14,44.35542678833008
2012-09-17,44.32086944580078
2012-09-18,43.64370346069336
2012-09-19,43.83027648925781
2012-09-20,44.175758361816406
2012-09-21,44.27942657470703
2012-09-24,44.67329406738281
2012-09-25,44.45907211303711
2012-09-26,44.452171325683594
2012-09-27,44.26559066772461
2012-09-28,44.770023345947266
2012-10-01,44.48672103881836
2012-10-02,44.74931335449219
2012-10-03,44.76311492919922
2012-10-04,45.184627532958984
2012-10-05,44.901309967041016
2012-10-08,45.07408142089844
2012-10-09,45.115535736083984
2012-10-10,44.76311492919922
2012-10-11,44.55583190917969
2012-10-12,44.33469009399414
2012-10-15,44.6110954284668
2012-10-16,44.6110954284668
2012-10-17,45.10171127319336
2012-10-18,45.329742431640625
2012-10-19,45.26755142211914
2012-10-22,45.26063537597656
2012-10-23,44.90822982788086
2012-10-24,44.44526290893555
2012-10-25,44.74238586425781
2012-10-26,44.991146087646484
2012-10-31,45.39193344116211
2012-11-01,45.12934494018555
2012-11-02,44.87368392944336
2012-11-05,44.26559066772461
2012-11-06,44.27251434326172
2012-11-07,43.491668701171875
2012-11-08,43.22909927368164
2012-11-09,42.81448745727539
2012-11-12,42.462074279785156
2012-11-13,42.84903335571289
2012-11-14,42.4957389831543
2012-11-15,41.887054443359375
2012-11-16,42.607666015625
2012-11-19,42.67063522338867
2012-11-20,42.53071594238281
2012-11-21,42.27183532714844
2012-11-23,42.29283142089844
2012-11-26,42.89452362060547
2012-11-27,43.09041213989258
2012-11-28,43.16737747192383
2012-11-29,43.650123596191406
2012-11-30,44.65060043334961
2012-12-03,44.75554275512695
2012-12-04,44.49668502807617
2012-12-05,45.098365783691406
2012-12-06,44.895469665527344
2012-12-07,45.00041580200195
2012-12-10,45.00041580200195
2012-12-11,44.972442626953125
2012-12-12,44.98642349243164
2012-12-13,44.72056198120117
2012-12-14,44.64359664916992
2012-12-17,45.30826950073242
2012-12-18,45.83298110961914
2012-12-19,45.3012580871582
2012-12-20,45.511146545410156
2012-12-21,45.13334274291992
2012-12-24,45.18231964111328
2012-12-26,44.82551574707031
2012-12-27,44.57363510131836
2012-12-28,44.083892822265625
2012-12-31,44.6366081237793
2013-01-02,45.48316192626953
2013-01-03,45.385215759277344
2013-01-04,45.51814651489258
2013-01-07,45.3012580871582
2013-01-08,45.40620422363281
2013-01-09,45.48316192626953
2013-01-10,45.73502731323242
2013-01-11,45.95891571044922
2013-01-14,45.749027252197266
2013-01-15,46.21078109741211
2013-01-16,45.986900329589844
2013-01-17,46.189781188964844
2013-01-18,46.742496490478516
2013-01-22,47.092315673828125
2013-01-23,47.16227722167969
2013-01-24,47.435142517089844
2013-01-25,47.519100189208984
2013-01-28,47.316200256347656
2013-01-29,47.561073303222656
2013-01-30,47.882911682128906
2013-01-31,48.092796325683594
2013-02-01,48.162757873535156
2013-02-04,47.819942474365234
2013-02-05,48.19073486328125
2013-02-06,48.351654052734375
2013-02-07,48.30267333984375
2013-02-08,48.27470016479492
2013-02-11,48.372657775878906
2013-02-12,48.624515533447266
2013-02-13,48.68463897705078
2013-02-14,48.10456085205078
2013-02-15,48.146995544433594
2013-02-19,48.783687591552734
2013-02-20,48.70586013793945
2013-02-21,48.69172286987305
2013-02-22,49.13737869262695
2013-02-25,48.889793395996094
2013-02-26,49.229373931884766
2013-02-27,49.611358642578125
2013-02-28,48.988834381103516
2013-03-01,48.988834381103516
2013-03-04,49.31425094604492
2013-03-05,49.632591247558594
2013-03-06,49.434505462646484
2013-03-07,49.20106506347656
2013-03-08,49.26473617553711
2013-03-11,49.37084197998047
2013-03-12,49.19399642944336
2013-03-13,49.455745697021484
2013-03-14,49.46989822387695
2013-03-15,49.48402404785156
2013-03-18,49.25058364868164
2013-03-19,49.455745697021484
2013-03-20,49.80237579345703
2013-03-21,49.70332717895508
2013-03-22,49.9509391784668
2013-03-25,49.71748352050781
2013-03-26,50.19144821166992
2013-03-27,50.736167907714844
2013-03-28,51.351619720458984
2013-04-01,51.16061782836914
2013-04-02,51.37284469604492
2013-04-03,50.72909164428711
2013-04-04,50.78567886352539
2013-04-05,50.9696159362793
2013-04-08,51.648738861083984
2013-04-09,51.37284469604492
2013-04-10,51.493099212646484
2013-04-11,51.76192855834961
2013-04-12,51.62043380737305
2013-04-15,51.13938522338867
2013-04-16,52.044891357421875
2013-04-17,51.74776840209961
2013-04-18,51.81143569946289
2013-04-19,52.58960723876953
2013-04-22,52.54716110229492
2013-04-23,52.639129638671875
2013-04-24,52.85842514038086
2013-04-25,53.15553283691406
2013-04-26,52.957462310791016
2013-04-29,53.19797897338867
2013-04-30,53.19797897338867
2013-05-01,52.97868728637695
2013-05-02,52.900875091552734
2013-05-03,52.68156433105469
2013-05-06,51.57091522216797
2013-05-07,52.136863708496094
2013-05-08,51.5780029296875
2013-05-09,50.9696159362793
2013-05-10,51.06157302856445
2013-05-13,50.771522521972656
2013-05-14,50.99082946777344
2013-05-15,51.65221405029297
2013-05-16,50.88002014160156
2013-05-17,51.20890808105469
2013-05-20,51.001564025878906
2013-05-21,51.044471740722656
2013-05-22,50.186458587646484
2013-05-23,49.87899398803711
2013-05-24,49.24978256225586
2013-05-28,48.44182586669922
2013-05-29,48.01283264160156
2013-05-30,48.12721633911133
2013-05-31,47.85552215576172
2013-06-03,48.04857635498047
2013-06-04,48.01283264160156
2013-06-05,47.769718170166016
2013-06-06,48.26308059692383
2013-06-07,48.398921966552734
2013-06-10,48.54191207885742
2013-06-11,48.05572509765625
2013-06-12,47.6124153137207
2013-06-13,48.25592041015625
2013-06-14,48.36317825317383
2013-06-17,48.370323181152344
2013-06-18,48.7850341796875
2013-06-19,47.70537567138672
2013-06-20,46.547054290771484
2013-06-21,46.89026641845703
2013-06-24,46.80446243286133
2013-06-25,47.276371002197266
2013-06-26,48.341739654541016
2013-06-27,48.27738571166992
2013-06-28,48.26308059692383
2013-07-01,47.791168212890625
2013-07-02,48.034271240234375
2013-07-03,48.18443298339844
2013-07-05,48.09861755371094
2013-07-08,48.42753219604492
2013-07-09,48.7349853515625
2013-07-10,49.042423248291016
2013-07-11,49.97909927368164
2013-07-12,50.1578483581543
2013-07-15,50.77274703979492
2013-07-16,50.40095901489258
2013-07-17,50.55826187133789
2013-07-18,50.872859954833984
2013-07-19,50.679813385009766
2013-07-22,50.601158142089844
2013-07-23,50.98725891113281
2013-07-24,50.40809631347656
2013-07-25,50.479610443115234
2013-07-26,50.615474700927734
2013-07-29,50.922916412353516
2013-07-30,51.115966796875
2013-07-31,50.76560974121094
2013-08-01,51.13025665283203
2013-08-02,51.30186462402344
2013-08-05,51.03016662597656
2013-08-06,50.851417541503906
2013-08-07,50.80136489868164
2013-08-08,50.930057525634766
2013-08-09,50.601158142089844
2013-08-12,50.601158142089844
2013-08-13,50.636898040771484
2013-08-14,49.899471282958984
2013-08-15,49.09697723388672
2013-08-16,48.475215911865234
2013-08-19,47.954689025878906
2013-08-20,48.28725051879883
2013-08-21,47.578739166259766
2013-08-22,47.672725677490234
2013-08-23,47.96914291381836
2013-08-26,47.56427764892578
2013-08-27,47.6076545715332
2013-08-28,47.752254486083984
2013-08-29,47.47030258178711
2013-08-30,47.426918029785156
2013-09-03,46.96420669555664
2013-09-04,46.76900100708008
2013-09-05,46.848541259765625
2013-09-06,47.31847381591797
2013-09-09,47.40522384643555
2013-09-10,47.6799430847168
2013-09-11,47.217247009277344
2013-09-12,46.9714469909668
2013-09-13,47.39076232910156
2013-09-16,47.737796783447266
2013-09-17,47.85347366333008
2013-09-18,49.234352111816406
2013-09-19,49.1114501953125
2013-09-20,48.69934844970703
2013-09-23,48.96684265136719
2013-09-24,48.93791961669922
2013-09-25,48.62704849243164
2013-09-26,48.90900802612305
2013-09-27,48.36677169799805
2013-09-30,48.280025482177734
2013-10-01,48.63427734375
2013-10-02,48.61982345581055
2013-10-03,47.954689025878906
2013-10-04,48.026973724365234
2013-10-07,47.961910247802734
2013-10-08,48.58367156982422
2013-10-09,48.80779266357422
2013-10-10,49.3717041015625
2013-10-11,49.77656555175781
2013-10-14,49.58137512207031
2013-10-15,49.0536003112793
2013-10-16,49.906707763671875
2013-10-17,50.4633903503418
2013-10-18,50.665836334228516
2013-10-21,50.65135192871094
2013-10-22,51.39601516723633
2013-10-23,51.84427261352539
2013-10-24,51.78643035888672
2013-10-25,52.321434020996094
2013-10-28,52.321434020996094
2013-10-29,52.50218200683594
2013-10-30,52.0611686706543
2013-10-31,51.85873031616211
2013-11-01,52.42264175415039
2013-11-04,52.39373779296875
2013-11-05,52.379268646240234
2013-11-06,52.92873001098633
2013-11-07,52.71907043457031
2013-11-08,52.364810943603516
2013-11-11,52.379268646240234
2013-11-12,51.851497650146484
2013-11-13,51.83686828613281
2013-11-14,52.26811599731445
2013-11-15,52.48008728027344
2013-11-18,52.290042877197266
2013-11-19,51.98307418823242
2013-11-20,51.186363220214844
2013-11-21,51.71263122558594
2013-11-22,51.990379333496094
2013-11-25,51.88804244995117
2013-11-26,51.529884338378906
2013-11-27,51.186363220214844
2013-11-29,51.135196685791016
2013-12-02,50.87937927246094
2013-12-03,50.981712341308594
2013-12-04,51.105960845947266
2013-12-05,50.872066497802734
2013-12-06,51.30331802368164
2013-12-09,51.025569915771484
2013-12-10,50.63085174560547
2013-12-11,49.94380569458008
2013-12-12,49.841468811035156
2013-12-13,49.841468811035156
2013-12-16,50.07536315917969
2013-12-17,49.980342864990234
2013-12-18,50.96708297729492
2013-12-19,50.5723876953125
2013-12-20,50.798973083496094
2013-12-23,50.470062255859375
2013-12-24,50.63817596435547
2013-12-26,50.26540756225586
2013-12-27,50.396968841552734
2013-12-30,50.51390838623047
2013-12-31,50.44083023071289
2014-01-02,49.804927825927734
2014-01-03,49.64412307739258
2014-01-06,49.673362731933594
2014-01-07,50.06074905395508
2014-01-08,49.59295654296875
2014-01-09,49.607582092285156
2014-01-10,50.13383102416992
2014-01-13,49.53447723388672
2014-01-14,49.388309478759766
2014-01-15,49.06669616699219
2014-01-16,49.23480987548828
2014-01-17,49.388309478759766
2014-01-21,50.07536315917969
2014-01-22,50.17769241333008
2014-01-23,50.08998107910156
2014-01-24,49.89262771606445
2014-01-27,50.23615646362305
2014-01-28,50.301944732666016
2014-01-29,50.42619705200195
2014-01-30,51.08403396606445
2014-01-31,51.61760330200195
2014-02-03,51.50066375732422
2014-02-04,51.120567321777344
2014-02-05,50.88668441772461
2014-02-06,51.17176818847656
2014-02-07,51.1571159362793
2014-02-10,51.70530700683594
2014-02-11,52.11463928222656
2014-02-12,52.373291015625
2014-02-13,52.78713607788086
2014-02-14,52.80190658569336
2014-02-18,52.8388557434082
2014-02-19,53.00143814086914
2014-02-20,53.01622009277344
2014-02-21,52.831478118896484
2014-02-24,52.550636291503906
2014-02-25,52.491519927978516
2014-02-26,52.38068389892578
2014-02-27,52.04811477661133
2014-02-28,52.38068389892578
2014-03-03,51.7673225402832
2014-03-04,51.81904602050781
2014-03-05,51.81163787841797
2014-03-06,51.752525329589844
2014-03-07,51.77467346191406
2014-03-10,51.449520111083984
2014-03-11,51.33866500854492
2014-03-12,51.99638366699219
2014-03-13,52.151580810546875
2014-03-14,52.24765396118164
2014-03-17,52.54324722290039
2014-03-18,51.90771484375
2014-03-19,50.777034759521484
2014-03-20,51.11697006225586
2014-03-21,51.05046844482422
2014-03-24,51.22783660888672
2014-03-25,51.671226501464844
2014-03-26,51.36085510253906
2014-03-27,52.04072952270508
2014-03-28,52.055519104003906
2014-03-31,52.6319465637207
2014-04-01,52.22547912597656
2014-04-02,51.92250061035156
2014-04-03,52.06290817260742
2014-04-04,52.09246826171875
2014-04-07,52.57280349731445
2014-04-08,53.58524703979492
2014-04-09,53.07533645629883
2014-04-10,52.905372619628906
2014-04-11,53.090118408203125
2014-04-14,53.260093688964844
2014-04-15,53.806949615478516
2014-04-16,54.117340087890625
2014-04-17,53.62958526611328
2014-04-21,53.548309326171875
2014-04-22,53.792171478271484
2014-04-23,53.659149169921875
2014-04-24,53.99170684814453
2014-04-25,54.68637466430664
2014-04-28,55.277587890625
2014-04-29,55.07803726196289
2014-04-30,55.048492431640625
2014-05-01,55.114994049072266
2014-05-02,53.84391784667969
2014-05-05,54.33164596557617
2014-05-06,53.99909591674805
2014-05-07,54.5533447265625
2014-05-08,53.829124450683594
2014-05-09,53.19358444213867
2014-05-12,53.0310173034668
2014-05-13,53.00143814086914
2014-05-14,53.24797821044922
2014-05-15,53.33016586303711
2014-05-16,53.3077507019043
2014-05-19,52.523277282714844
2014-05-20,52.36637878417969
2014-05-21,52.246849060058594
2014-05-22,52.71005630493164
2014-05-23,52.508331298828125
2014-05-27,52.642826080322266
2014-05-28,52.8669548034668
2014-05-29,52.99397659301758
2014-05-30,53.10603713989258
2014-06-02,52.93419647216797
2014-06-03,52.8221321105957
2014-06-04,53.05373001098633
2014-06-05,53.591678619384766
2014-06-06,53.300296783447266
2014-06-09,52.94166946411133
2014-06-10,52.680171966552734
2014-06-11,52.02268981933594
2014-06-12,52.73247146606445
2014-06-13,52.919254302978516
2014-06-16,53.135929107666016
2014-06-17,52.82960510253906
2014-06-18,54.09972381591797
2014-06-19,54.71236801147461
2014-06-20,54.032470703125
2014-06-23,54.05488586425781
2014-06-24,54.06236267089844
2014-06-25,54.57040786743164
2014-06-26,54.66754150390625
2014-06-27,55.06352996826172
2014-06-30,55.42961120605469
2014-07-01,55.01121139526367
2014-07-02,53.957763671875
2014-07-03,53.3376579284668
2014-07-07,53.4796142578125
2014-07-08,54.032470703125
2014-07-09,53.875579833984375
2014-07-10,54.084781646728516
2014-07-11,53.91294860839844
2014-07-14,53.449710845947266
2014-07-15,53.81581115722656
2014-07-16,54.10718536376953
2014-07-17,54.06236267089844
2014-07-18,54.622711181640625
2014-07-21,54.80949783325195
2014-07-22,54.757198333740234
2014-07-23,54.83937454223633
2014-07-24,55.310062408447266
2014-07-25,54.69742965698242
2014-07-28,55.579036712646484
2014-07-29,55.272727966308594
2014-07-30,54.57788848876953
2014-07-31,53.89052963256836
2014-08-01,54.495704650878906
2014-08-04,53.942832946777344
2014-08-05,53.03132629394531
2014-08-06,52.17959976196289
2014-08-07,52.7474250793457
2014-08-08,53.60661315917969
2014-08-11,53.4796142578125
2014-08-12,53.33016586303711
2014-08-13,53.59083938598633
2014-08-14,54.459720611572266
2014-08-15,54.46725845336914
2014-08-18,54.46725845336914
2014-08-19,55.064151763916016
2014-08-20,54.97349166870117
2014-08-21,55.18503952026367
2014-08-22,55.05659103393555
2014-08-25,55.13970947265625
2014-08-26,54.64104461669922
2014-08-27,55.101932525634766
2014-08-28,55.389034271240234
2014-08-29,55.90281295776367
2014-09-02,55.49480438232422
2014-09-03,55.80459976196289
2014-09-04,55.925472259521484
2014-09-05,56.59035873413086
2014-09-08,56.58280563354492
2014-09-09,55.751705169677734
2014-09-10,55.44947814941406
2014-09-11,56.25791931152344
2014-09-12,55.200157165527344
2014-09-15,55.487266540527344
2014-09-16,56.17479705810547
2014-09-17,56.13702392578125
2014-09-18,55.51749038696289
2014-09-19,56.19746398925781
2014-09-22,55.81214141845703
2014-09-23,55.66102600097656
2014-09-24,55.691253662109375
2014-09-25,55.8801383972168
2014-09-26,55.97080993652344
2014-09-29,56.05392074584961
2014-09-30,56.49211883544922
2014-10-01,56.89257049560547
2014-10-02,56.658348083496094
2014-10-03,56.794349670410156
2014-10-06,56.718788146972656
2014-10-07,56.82456970214844
2014-10-08,58.21477127075195
2014-10-09,57.71611022949219
2014-10-10,58.048553466796875
2014-10-13,58.486785888671875
2014-10-14,59.58987045288086
2014-10-15,59.61252975463867
2014-10-16,59.060977935791016
2014-10-17,59.257442474365234
2014-10-20,60.065860748291016
2014-10-21,59.748538970947266
2014-10-22,60.564517974853516
2014-10-23,60.496524810791016
2014-10-24,60.6702995300293
2014-10-27,60.90452194213867
2014-10-28,60.987640380859375
2014-10-29,60.647647857666016
2014-10-30,62.17384719848633
2014-10-31,62.06805419921875
2014-11-03,62.241844177246094
2014-11-04,62.12851333618164
2014-11-05,63.088050842285156
2014-11-06,61.32762145996094
2014-11-07,62.015167236328125
2014-11-10,62.56671905517578
2014-11-11,62.453407287597656
2014-11-12,60.91617965698242
2014-11-13,60.26010513305664
2014-11-14,60.351627349853516
2014-11-17,61.25948715209961
2014-11-18,61.26710510253906
2014-11-19,61.32051086425781
2014-11-20,61.16029357910156
2014-11-21,60.85515213012695
2014-11-24,60.290618896484375
2014-11-25,60.382164001464844
2014-11-26,60.79411697387695
2014-11-28,61.71720886230469
2014-12-01,62.5563850402832
2014-12-02,62.81575393676758
2014-12-03,62.53350067138672
2014-12-04,62.82338333129883
2014-12-05,61.58751678466797
2014-12-08,62.274112701416016
2014-12-09,62.69369125366211
2014-12-10,62.747100830078125
2014-12-11,63.2353401184082
2014-12-12,63.08277893066406
2014-12-15,61.900306701660156
2014-12-16,61.50359344482422
2014-12-17,62.075775146484375
2014-12-18,63.32688903808594
2014-12-19,63.20481872558594
2014-12-22,63.78461456298828
2014-12-23,63.838008880615234
2014-12-24,64.82212829589844
2014-12-26,65.46295928955078
2014-12-29,66.24109649658203
2014-12-30,64.61615753173828
2014-12-31,63.731197357177734
2015-01-02,64.12028503417969
2015-01-05,63.197181701660156
2015-01-06,64.23470306396484
2015-01-07,64.44070434570312
2015-01-08,64.70008087158203
2015-01-09,64.79161834716797
2015-01-12,64.85266876220703
2015-01-13,65.20358276367188
2015-01-14,65.37139892578125
2015-01-15,66.18770599365234
2015-01-16,66.63777160644531
2015-01-20,66.89717864990234
2015-01-21,67.65245056152344
2015-01-22,67.61430358886719
2015-01-23,67.68295288085938
2015-01-26,67.5532455444336
2015-01-27,67.68295288085938
2015-01-28,67.01924133300781
2015-01-29,68.17118835449219
2015-01-30,66.47759246826172
2015-02-02,66.37078857421875
2015-02-03,66.20295715332031
2015-02-04,65.59264373779297
2015-02-05,66.15718078613281
2015-02-06,63.40317916870117
2015-02-09,63.09038543701172
2015-02-10,64.2194595336914
2015-02-11,63.03725051879883
2015-02-12,62.42885208129883
2015-02-13,61.489234924316406
2015-02-17,61.1426887512207
2015-02-18,62.35953903198242
2015-02-19,60.97323989868164
2015-02-20,60.61896896362305
2015-02-23,61.042564392089844
2015-02-24,61.49694061279297
2015-02-25,60.850032806396484
2015-02-26,60.50346374511719
2015-02-27,60.49576187133789
2015-03-02,59.348228454589844
2015-03-03,59.694801330566406
2015-03-04,59.36362075805664
2015-03-05,59.74872589111328
2015-03-06,57.73088455200195
2015-03-09,57.57686996459961
2015-03-10,57.5306510925293
2015-03-11,57.20718765258789
2015-03-12,57.97734832763672
2015-03-13,57.46134567260742
2015-03-16,58.30851364135742
2015-03-17,57.82331085205078
2015-03-18,58.83992385864258
2015-03-19,58.53956985473633
2015-03-20,59.04785919189453
2015-03-23,59.14798355102539
2015-03-24,58.578067779541016
2015-03-25,57.73088455200195
2015-03-26,57.26110076904297
2015-03-27,57.761714935302734
2015-03-30,58.454837799072266
2015-03-31,59.13260269165039
2015-04-01,59.171085357666016
2015-04-02,59.278900146484375
2015-04-06,60.256996154785156
2015-04-07,59.802635192871094
2015-04-08,59.53306198120117
2015-04-09,59.3097038269043
2015-04-10,59.94895553588867
2015-04-13,59.479156494140625
2015-04-14,59.75640106201172
2015-04-15,60.08755874633789
2015-04-16,59.5407600402832
2015-04-17,59.5407600402832
2015-04-20,60.541969299316406
2015-04-21,60.12609100341797
2015-04-22,60.30321502685547
2015-04-23,60.734500885009766
2015-04-24,61.15809631347656
2015-04-27,60.35711669921875
2015-04-28,60.8192253112793
2015-04-29,60.403324127197266
2015-04-30,59.740989685058594
2015-05-01,59.99515151977539
2015-05-04,60.04136657714844
2015-05-05,58.724403381347656
2015-05-06,58.84760665893555
2015-05-07,59.15568923950195
2015-05-08,59.38673400878906
2015-05-11,58.97085189819336
2015-05-12,58.762901306152344
2015-05-13,57.934051513671875
2015-05-14,58.751224517822266
2015-05-15,59.26488494873047
2015-05-18,59.17148971557617
2015-05-19,59.296024322509766
2015-05-20,59.56840133666992
2015-05-21,59.27267837524414
2015-05-22,59.18706512451172
2015-05-26,58.96135711669922
2015-05-27,59.311580657958984
2015-05-28,59.10923767089844
2015-05-29,58.93800354003906
2015-06-01,59.14813995361328
2015-06-02,58.40877914428711
2015-06-03,57.747276306152344
2015-06-04,57.755043029785156
2015-06-05,56.696617126464844
2015-06-08,56.38529968261719
2015-06-09,56.13625717163086
2015-06-10,56.07400131225586
2015-06-11,56.70439529418945
2015-06-12,56.44755554199219
2015-06-15,56.4242057800293
2015-06-16,56.47869873046875
2015-06-17,56.87560272216797
2015-06-18,58.01188278198242
2015-06-19,56.968990325927734
2015-06-22,56.86782455444336
2015-06-23,55.86386489868164
2015-06-24,55.20233154296875
2015-06-25,55.00776672363281
2015-06-26,55.2568244934082
2015-06-29,55.14008331298828
2015-06-30,54.96108627319336
2015-07-01,55.319087982177734
2015-07-02,56.44755554199219
2015-07-06,56.696617126464844
2015-07-07,58.58001708984375
2015-07-08,58.20643997192383
2015-07-09,57.64609146118164
2015-07-10,57.87957763671875
2015-07-13,57.86400604248047
2015-07-14,57.43597412109375
2015-07-15,57.60717010498047
2015-07-16,58.22199249267578
2015-07-17,57.256954193115234
2015-07-20,57.02347183227539
2015-07-21,56.36195755004883
2015-07-22,56.32304000854492
2015-07-23,55.69264602661133
2015-07-24,55.793827056884766
2015-07-27,56.8133430480957
2015-07-28,56.91452407836914
2015-07-29,56.898956298828125
2015-07-30,57.16355514526367
2015-07-31,57.76284408569336
2015-08-03,58.33873748779297
2015-08-04,57.52934646606445
2015-08-05,57.5760383605957
2015-08-06,57.46708679199219
2015-08-07,58.48661804199219
2015-08-10,58.22199249267578
2015-08-11,58.59555435180664
2015-08-12,59.457237243652344
2015-08-13,59.472965240478516
2015-08-14,60.09459686279297
2015-08-17,60.21263122558594
2015-08-18,59.992286682128906
2015-08-19,60.755592346191406
2015-08-20,60.40935134887695
2015-08-21,60.36213684082031
2015-08-24,57.00212860107422
2015-08-25,55.24736785888672
2015-08-26,56.451316833496094
2015-08-27,57.06507110595703
2015-08-28,56.962791442871094
2015-08-31,55.79820251464844
2015-09-01,54.33457946777344
2015-09-02,54.42113494873047
2015-09-03,54.51557540893555
2015-09-04,53.71293258666992
2015-09-08,54.578514099121094
2015-09-09,53.67359161376953
2015-09-10,53.30374526977539
2015-09-11,53.775901794433594
2015-09-14,53.752281188964844
2015-09-15,53.972599029541016
2015-09-16,54.436866760253906
2015-09-17,55.01130676269531
2015-09-18,54.64933395385742
2015-09-21,55.12147521972656
2015-09-22,54.41326141357422
2015-09-23,54.36605453491211
2015-09-24,55.333927154541016
2015-09-25,55.64080810546875
2015-09-28,55.43623352050781
2015-09-29,55.656551361083984
2015-09-30,56.60869216918945
2015-10-01,55.60934066772461
2015-10-02,56.62442398071289
2015-10-05,57.505733489990234
2015-10-06,57.513607025146484
2015-10-07,57.183109283447266
2015-10-08,57.442779541015625
2015-10-09,56.86049270629883
2015-10-12,57.30115509033203
2015-10-13,57.072940826416016
2015-10-14,56.923439025878906
2015-10-15,57.820491790771484
2015-10-16,57.907047271728516
2015-10-19,57.8991813659668
2015-10-20,57.993614196777344
2015-10-21,58.1195182800293
2015-10-22,59.06378173828125
2015-10-23,58.025081634521484
2015-10-26,56.852622985839844
2015-10-27,56.978519439697266
2015-10-28,56.30179214477539
2015-10-29,56.31752395629883
2015-10-30,56.23885726928711
2015-11-02,56.79753494262695
2015-11-03,56.844749450683594
2015-11-04,56.60081100463867
2015-11-05,56.22311782836914
2015-11-06,53.31949996948242
2015-11-09,53.48474884033203
2015-11-10,53.66396713256836
2015-11-11,55.02281951904297
2015-11-12,54.26476287841797
2015-11-13,53.942203521728516
2015-11-16,54.61958694458008
2015-11-17,53.087371826171875
2015-11-18,54.19218063354492
2015-11-19,55.232479095458984
2015-11-20,55.724395751953125
2015-11-23,54.84539794921875
2015-11-24,54.901832580566406
2015-11-25,54.61152267456055
2015-11-27,54.442176818847656
2015-11-30,54.64379119873047
2015-12-01,54.885711669921875
2015-12-02,53.32929992675781
2015-12-03,53.409950256347656
2015-12-04,54.06315612792969
2015-12-07,55.24053192138672
2015-12-08,55.1921501159668
2015-12-09,55.329254150390625
2015-12-10,54.377662658691406
2015-12-11,54.708290100097656
2015-12-14,55.20022201538086
2015-12-15,55.51472091674805
2015-12-16,56.474395751953125
2015-12-17,56.8534049987793
2015-12-18,56.12761306762695
2015-12-21,56.296966552734375
2015-12-22,57.21628952026367
2015-12-23,58.063053131103516
2015-12-24,58.095306396484375
2015-12-28,57.9985466003418
2015-12-29,58.36144256591797
2015-12-30,58.216270446777344
2015-12-31,57.57114028930664
2016-01-04,57.40983963012695
2016-01-05,57.821128845214844
2016-01-06,57.95014953613281
2016-01-07,57.41790008544922
2016-01-08,57.28888702392578
2016-01-11,57.92594909667969
2016-01-12,57.47434616088867
2016-01-13,57.821128845214844
2016-01-14,58.36144256591797
2016-01-15,58.12757873535156
2016-01-19,58.9985237121582
2016-01-20,57.59532165527344
2016-01-21,57.32919692993164
2016-01-22,58.20819091796875
2016-01-25,57.90177917480469
2016-01-26,58.240455627441406
2016-01-27,58.39369583129883
2016-01-28,59.248512268066406
2016-01-29,60.72427749633789
2016-02-01,62.09520721435547
2016-02-02,61.89360046386719
2016-02-03,63.35324478149414
2016-02-04,63.36936569213867
2016-02-05,63.74032974243164
2016-02-08,63.845157623291016
2016-02-09,63.6516227722168
2016-02-10,63.663841247558594
2016-02-11,62.58811569213867
2016-02-12,62.131744384765625
2016-02-16,62.1724967956543
2016-02-17,61.52866744995117
2016-02-18,62.1072998046875
2016-02-19,60.75447463989258
2016-02-22,60.99081039428711
2016-02-23,60.96635818481445
2016-02-24,61.080448150634766
2016-02-25,62.29472351074219
2016-02-26,60.33070373535156
2016-02-29,60.53443908691406
2016-03-01,59.77653884887695
2016-03-02,60.00471496582031
2016-03-03,60.57520294189453
2016-03-04,61.25974655151367
2016-03-07,62.1398811340332
2016-03-08,62.97113037109375
2016-03-09,63.166725158691406
2016-03-10,62.96300506591797
2016-03-11,63.370452880859375
2016-03-14,63.337860107421875
2016-03-15,63.60680389404297
2016-03-16,64.34025573730469
2016-03-17,65.18780517578125
2016-03-18,64.92701721191406
2016-03-21,64.8047866821289
2016-03-22,64.28319549560547
2016-03-23,65.04109954833984
2016-03-24,64.9922103881836
2016-03-28,64.77217102050781
2016-03-29,65.55453491210938
2016-03-30,65.4811782836914
2016-03-31,65.75011444091797
2016-04-01,66.1168441772461
2016-04-04,66.08424377441406
2016-04-05,65.11444854736328
2016-04-06,64.67439270019531
2016-04-07,64.61734008789062
2016-04-08,65.00851440429688
2016-04-11,64.73957824707031
2016-04-12,65.37522888183594
2016-04-13,64.89441680908203
2016-04-14,64.74772644042969
2016-04-15,65.19593811035156
2016-04-18,65.52191162109375
2016-04-19,65.02478790283203
2016-04-20,63.72904586791992
2016-04-21,62.21323776245117
2016-04-22,62.759254455566406
2016-04-25,62.55552673339844
2016-04-26,62.710365295410156
2016-04-27,63.61492919921875
2016-04-28,63.84312057495117
2016-04-29,64.20173645019531
2016-05-02,64.33209991455078
2016-05-03,64.25060272216797
2016-05-04,65.21224975585938
2016-05-05,65.34263610839844
2016-05-06,64.69066619873047
2016-05-09,65.24482727050781
2016-05-10,65.24482727050781
2016-05-11,65.59528350830078
2016-05-12,66.07610321044922
2016-05-13,65.82344818115234
2016-05-16,66.0108871459961
2016-05-17,64.79662322998047
2016-05-18,63.054931640625
2016-05-19,63.38433837890625
2016-05-20,63.409027099609375
2016-05-23,62.709068298339844
2016-05-24,63.400794982910156
2016-05-25,63.36787414550781
2016-05-26,64.19960021972656
2016-05-27,64.2160873413086
2016-05-31,64.42193603515625
2016-06-01,65.072509765625
2016-06-02,65.0066146850586
2016-06-03,65.94538879394531
2016-06-06,65.74774169921875
2016-06-07,65.87128448486328
2016-06-08,66.29949951171875
2016-06-09,66.91712188720703
2016-06-10,66.90065002441406
2016-06-13,67.20533752441406
2016-06-14,67.8641357421875
2016-06-15,67.13945770263672
2016-06-16,67.96295166015625
2016-06-17,68.33354187011719
2016-06-20,67.52650451660156
2016-06-21,67.52650451660156
2016-06-22,67.38650512695312
2016-06-23,67.56768035888672
2016-06-24,67.880615234375
2016-06-27,69.16524505615234
2016-06-28,69.12407684326172
2016-06-29,69.2970199584961
2016-06-30,70.6475601196289
2016-07-01,70.51576232910156
2016-07-05,71.5863265991211
2016-07-06,71.8333740234375
2016-07-07,70.23578643798828
2016-07-08,70.82872009277344
2016-07-11,70.82872009277344
2016-07-12,69.53584289550781
2016-07-13,70.03816986083984
2016-07-14,69.79112243652344
2016-07-15,69.93108367919922
2016-07-18,70.20287322998047
2016-07-19,70.30992126464844
2016-07-20,69.93108367919922
2016-07-21,70.32637786865234
2016-07-22,71.23222351074219
2016-07-25,71.38867950439453
2016-07-26,70.6146011352539
2016-07-27,69.85698699951172
2016-07-28,70.16166687011719
2016-07-29,70.48284149169922
2016-08-01,70.5322494506836
2016-08-02,70.45813751220703
2016-08-03,70.12051391601562
2016-08-04,70.19462585449219
2016-08-05,69.36288452148438
2016-08-08,69.78287506103516
2016-08-09,69.77464294433594
2016-08-10,69.70394134521484
2016-08-11,69.80376434326172
2016-08-12,69.45436096191406
2016-08-15,67.93199920654297
2016-08-16,66.92542266845703
2016-08-17,67.95697021484375
2016-08-18,68.86372375488281
2016-08-19,67.92372131347656
2016-08-22,68.12333679199219
2016-08-23,67.75728607177734
2016-08-24,67.84880828857422
2016-08-25,67.99024200439453
2016-08-26,66.4845199584961
2016-08-29,66.9171142578125
2016-08-30,66.15178680419922
2016-08-31,66.26822662353516
2016-09-01,65.99371337890625
2016-09-02,66.75072479248047
2016-09-06,67.33305358886719
2016-09-07,67.00028991699219
2016-09-08,67.22490692138672
2016-09-09,64.84571075439453
2016-09-12,65.95211791992188
2016-09-13,65.54449462890625
2016-09-14,65.44467163085938
2016-09-15,65.76910400390625
2016-09-16,66.22664642333984
2016-09-19,66.9337387084961
2016-09-20,66.6924819946289
2016-09-21,68.13166046142578
2016-09-22,68.63911437988281
2016-09-23,68.64743041992188
2016-09-26,68.33963775634766
2016-09-27,67.74066925048828
2016-09-28,67.46614074707031
2016-09-29,66.8089599609375
2016-09-30,66.5843505859375
2016-10-03,65.79405975341797
2016-10-04,64.43807983398438
2016-10-05,64.13027954101562
2016-10-06,64.13027954101562
2016-10-07,63.697696685791016
2016-10-10,64.10530853271484
2016-10-11,63.14866638183594
2016-10-12,63.76424789428711
2016-10-13,64.83739471435547
2016-10-14,64.23011779785156
2016-10-17,64.50462341308594
2016-10-18,64.80411529541016
2016-10-19,64.99543762207031
2016-10-20,65.23670196533203
2016-10-21,64.9039306640625
2016-10-24,65.22004699707031
2016-10-25,65.37810516357422
2016-10-26,65.52783203125
2016-10-27,65.23670196533203
2016-10-28,65.48625946044922
2016-10-31,66.56771850585938
2016-11-01,65.36148834228516
2016-11-02,64.88729095458984
2016-11-03,64.87068939208984
2016-11-04,64.28001403808594
2016-11-07,65.82733154296875
2016-11-08,66.25992584228516
2016-11-09,64.33824920654297
2016-11-10,62.524749755859375
2016-11-11,62.591285705566406
2016-11-14,61.925777435302734
2016-11-15,63.165287017822266
2016-11-16,62.23558044433594
2016-11-17,62.15144348144531
2016-11-18,61.92427444458008
2016-11-21,62.622615814208984
2016-11-22,62.15986633300781
2016-11-23,61.87379455566406
2016-11-25,62.555301666259766
2016-11-28,64.01085662841797
2016-11-29,64.2548599243164
2016-11-30,62.06730270385742
2016-12-01,61.209129333496094
2016-12-02,61.7728271484375
2016-12-05,61.93269348144531
2016-12-06,62.143028259277344
2016-12-07,62.82454299926758
2016-12-08,62.875030517578125
2016-12-09,63.79210662841797
2016-12-12,64.347412109375
2016-12-13,65.05413818359375
2016-12-14,63.54811096191406
2016-12-15,63.96877670288086
2016-12-16,64.43993377685547
2016-12-19,64.89430236816406
2016-12-20,65.07938385009766
2016-12-21,64.78490447998047
2016-12-22,65.4327621459961
2016-12-23,65.30656433105469
2016-12-27,65.18876647949219
2016-12-28,64.81014251708984
2016-12-29,65.6430892944336
2016-12-30,65.30656433105469
2017-01-03,65.39910125732422
2017-01-04,65.33177947998047
2017-01-05,65.41594696044922
2017-01-06,65.19718170166016
2017-01-09,64.48202514648438
2017-01-10,64.36421966552734
2017-01-11,64.86904907226562
2017-01-12,65.2392349243164
2017-01-13,64.96160125732422
2017-01-17,65.17195892333984
2017-01-18,65.20560455322266
2017-01-19,64.88587188720703
2017-01-20,65.06254577636719
2017-01-23,64.81014251708984
2017-01-24,64.93635559082031
2017-01-25,64.85221862792969
2017-01-26,64.88587188720703
2017-01-27,64.73442840576172
2017-01-30,64.88587188720703
2017-01-31,66.08059692382812
2017-02-01,65.08779907226562
2017-02-02,65.44960021972656
2017-02-03,65.33177947998047
2017-02-06,65.2645034790039
2017-02-07,65.41594696044922
2017-02-08,66.16475677490234
2017-02-09,65.41594696044922
2017-02-10,65.71041870117188
2017-02-13,66.20682525634766
2017-02-14,65.65991973876953
2017-02-15,65.3154067993164
2017-02-16,67.11885070800781
2017-02-17,66.65947723388672
2017-02-21,67.28048706054688
2017-02-22,67.94401550292969
2017-02-23,68.8287353515625
2017-02-24,69.72193145751953
2017-02-27,69.63687133789062
2017-02-28,70.22384643554688
2017-03-01,69.69641876220703
2017-03-02,70.06221008300781
2017-03-03,69.67941284179688
2017-03-06,69.6453857421875
2017-03-07,69.49225616455078
2017-03-08,68.32682037353516
2017-03-09,68.09713745117188
2017-03-10,68.59903717041016
2017-03-13,68.79469299316406
2017-03-14,68.79469299316406
2017-03-15,69.75596618652344
2017-03-16,69.43270111083984
2017-03-17,69.6198501586914
2017-03-20,69.05839538574219
2017-03-21,70.33443450927734
2017-03-22,70.4024887084961
2017-03-23,70.33443450927734
2017-03-24,70.59812927246094
2017-03-27,70.4280014038086
2017-03-28,70.5470962524414
2017-03-29,70.11326599121094
2017-03-30,69.79000091552734
2017-03-31,69.76448059082031
2017-04-03,69.96863555908203
2017-04-04,70.07071685791016
2017-04-05,70.49606323242188
2017-04-06,70.25787353515625
2017-04-07,69.97715759277344
2017-04-10,70.09625244140625
2017-04-11,69.91761016845703
2017-04-12,70.41950988769531
2017-04-13,70.25787353515625
2017-04-17,70.5470962524414
2017-04-18,70.48755645751953
2017-04-19,70.0537109375
2017-04-20,69.78150177001953
2017-04-21,69.93461608886719
2017-04-24,70.24935913085938
2017-04-25,70.34294128417969
2017-04-26,70.26637268066406
2017-04-27,70.5215835571289
2017-04-28,70.18131256103516
2017-05-01,69.81551361083984
2017-05-02,70.08773040771484
2017-05-03,69.79000091552734
2017-05-04,70.25787353515625
2017-05-05,70.58964538574219
2017-05-08,70.53858947753906
2017-05-09,69.84954833984375
2017-05-10,70.1642837524414
2017-05-11,70.60665130615234
2017-05-12,71.0149917602539
2017-05-15,71.10005950927734
2017-05-16,70.70873260498047
2017-05-17,71.1513900756836
2017-05-18,71.55535888671875
2017-05-19,71.65851593017578
2017-05-22,72.28595733642578
2017-05-23,72.45787048339844
2017-05-24,72.7930908203125
2017-05-25,73.17986297607422
2017-05-26,73.11968994140625
2017-05-30,73.41194915771484
2017-05-31,73.64400482177734
2017-06-01,74.26287841796875
2017-06-02,74.15972137451172
2017-06-05,73.77294158935547
2017-06-06,73.7557373046875
2017-06-07,73.99641418457031
2017-06-08,73.38614654541016
2017-06-09,73.67838287353516
2017-06-12,73.59242248535156
2017-06-13,73.87608337402344
2017-06-14,74.194091796875
2017-06-15,74.73560333251953
2017-06-16,74.89891052246094
2017-06-19,74.68405151367188
2017-06-20,74.70123291015625
2017-06-21,74.40897369384766
2017-06-22,74.15972137451172
2017-06-23,73.88468933105469
2017-06-26,74.52072143554688
2017-06-27,73.66119384765625
2017-06-28,73.03375244140625
2017-06-29,72.22579956054688
2017-06-30,71.84759521484375
2017-07-03,71.60692596435547
2017-07-05,71.5897445678711
2017-07-06,71.52098083496094
2017-07-07,71.70147705078125
2017-07-10,71.50379180908203
2017-07-11,71.49519348144531
2017-07-12,72.18282318115234
2017-07-13,71.65851593017578
2017-07-14,72.06246948242188
2017-07-17,72.22579956054688
2017-07-18,72.36331176757812
2017-07-19,72.5008316040039
2017-07-20,72.9993667602539
2017-07-21,73.23143005371094
2017-07-24,72.67274475097656
2017-07-25,72.03670501708984
2017-07-26,72.58679962158203
2017-07-27,73.10250091552734
2017-07-28,72.98218536376953
2017-07-31,73.16267395019531
2017-08-01,73.20564270019531
2017-08-02,73.69558715820312
2017-08-03,74.35741424560547
2017-08-04,74.33161926269531
2017-08-07,74.14252471923828
2017-08-08,74.43476867675781
2017-08-09,74.09097290039062
2017-08-10,74.25426483154297
2017-08-11,73.66119384765625
2017-08-14,74.0221939086914
2017-08-15,74.68405151367188
2017-08-16,74.9532470703125
2017-08-17,74.57115173339844
2017-08-18,75.0140380859375
2017-08-21,75.1877212524414
2017-08-22,75.16166687011719
2017-08-23,75.4482421875
2017-08-24,75.35272216796875
2017-08-25,75.75218963623047
2017-08-28,75.91718292236328
2017-08-29,75.98666381835938
2017-08-30,75.79560852050781
2017-08-31,75.81297302246094
2017-09-01,75.63060760498047
2017-09-05,75.90850067138672
2017-09-06,75.54375457763672
2017-09-07,75.84770965576172
2017-09-08,76.22981262207031
2017-09-11,76.71613311767578
2017-09-12,75.79560852050781
2017-09-13,75.35272216796875
2017-09-14,75.98666381835938
2017-09-15,75.81297302246094
2017-09-18,74.73612213134766
2017-09-19,74.66666412353516
2017-09-20,73.98928833007812
2017-09-21,73.95455169677734
2017-09-22,73.16431427001953
2017-09-25,73.93719482421875
2017-09-26,73.65928649902344
2017-09-27,72.89508819580078
2017-09-28,73.17298126220703
2017-09-29,72.87772369384766
2017-10-02,73.25982666015625
2017-10-03,72.81693267822266
2017-10-04,73.35535430908203
2017-10-05,73.19904327392578
2017-10-06,73.50298309326172
2017-10-09,73.65928649902344
2017-10-10,74.50165557861328
2017-10-11,75.022705078125
2017-10-12,75.52639770507812
2017-10-13,75.37007904052734
2017-10-16,75.66535186767578
2017-10-17,75.99534606933594
2017-10-18,75.58718872070312
2017-10-19,76.29061126708984
2017-10-20,76.36007690429688
2017-10-23,76.02140045166016
2017-10-24,76.41218566894531
2017-10-25,76.20375061035156
2017-10-26,75.86506652832031
2017-10-27,76.37744140625
2017-10-30,76.51639556884766
2017-10-31,76.6900863647461
2017-11-01,76.2992935180664
2017-11-02,76.90717315673828
2017-11-03,76.87242889404297
2017-11-06,76.30797576904297
2017-11-07,77.60191345214844
2017-11-08,77.48904418945312
2017-11-09,77.8364028930664
2017-11-10,77.19376373291016
2017-11-13,78.05347442626953
2017-11-14,79.1042709350586
2017-11-15,78.6613998413086
2017-11-16,78.24040985107422
2017-11-17,77.63525390625
2017-11-20,77.758056640625
2017-11-21,77.88960266113281
2017-11-22,77.73173522949219
2017-11-24,77.86328887939453
2017-11-27,77.95098114013672
2017-11-28,78.0386962890625
2017-11-29,78.05622863769531
2017-11-30,78.21409606933594
2017-12-01,77.81942749023438
2017-12-04,77.72296142578125
2017-12-05,77.14411163330078
2017-12-06,77.45108032226562
2017-12-07,77.09149169921875
2017-12-08,77.22306060791016
2017-12-11,77.50370025634766
2017-12-12,76.41616821289062
2017-12-13,76.79329681396484
2017-12-14,76.79329681396484
2017-12-15,77.03886413574219
2017-12-18,75.89872741699219
2017-12-19,74.55684661865234
2017-12-20,74.10079193115234
2017-12-21,73.93416595458984
2017-12-22,73.82015228271484
2017-12-26,73.32024383544922
2017-12-27,73.65352630615234
2017-12-28,73.66227722167969
2017-12-29,73.76752471923828
2018-01-02,72.99573516845703
2018-01-03,72.76770782470703
2018-01-04,72.1976318359375
2018-01-05,71.86437225341797
2018-01-08,72.09239196777344
2018-01-09,71.25043487548828
2018-01-10,70.25939178466797
2018-01-11,69.53144836425781
2018-01-12,69.19815063476562
2018-01-16,68.77719116210938
2018-01-17,68.76842498779297
2018-01-18,67.82998657226562
2018-01-19,67.37393951416016
2018-01-22,67.48794555664062
2018-01-23,68.15448760986328
2018-01-24,67.74229431152344
2018-01-25,69.19815063476562
2018-01-26,69.13677978515625
2018-01-29,67.7861328125
2018-01-30,68.11064147949219
2018-01-31,68.84735870361328
2018-02-01,67.3914794921875
2018-02-02,67.11959075927734
2018-02-05,66.48812103271484
2018-02-06,65.33045196533203
2018-02-07,65.25151062011719
2018-02-08,65.18132781982422
2018-02-09,66.74246215820312
2018-02-12,67.36514282226562
2018-02-13,67.60195922851562
2018-02-14,66.19871520996094
2018-02-15,67.62757873535156
2018-02-16,68.07134246826172
2018-02-20,67.17496490478516
2018-02-21,66.8554458618164
2018-02-22,67.04183197021484
2018-02-23,68.53282928466797
2018-02-26,69.15406799316406
2018-02-27,67.74295043945312
2018-02-28,66.86433410644531
2018-03-01,67.0595703125
2018-03-02,66.87319946289062
2018-03-05,68.77244567871094
2018-03-06,67.32583618164062
2018-03-07,66.78446197509766
2018-03-08,67.44120788574219
2018-03-09,67.56544494628906
2018-03-12,67.93821716308594
2018-03-13,67.86720275878906
2018-03-14,68.33759307861328
2018-03-15,68.10681915283203
2018-03-16,68.8612060546875
2018-03-19,68.37308502197266
2018-03-20,67.83169555664062
2018-03-21,67.6098403930664
2018-03-22,67.61872100830078
2018-03-23,66.71346282958984
2018-03-26,67.37908935546875
2018-03-27,68.42633819580078
2018-03-28,68.71033477783203
2018-03-29,68.75469970703125
2018-04-02,68.42633819580078
2018-04-03,68.5683364868164
2018-04-04,68.96771240234375
2018-04-05,69.75758361816406
2018-04-06,69.36708068847656
2018-04-09,69.64221954345703
2018-04-10,68.79907989501953
2018-04-11,68.40858459472656
2018-04-12,67.57432556152344
2018-04-13,68.0447006225586
2018-04-16,69.1895751953125
2018-04-17,69.66883087158203
2018-04-18,69.47358703613281
2018-04-19,69.68657684326172
2018-04-20,68.94108581542969
2018-04-23,69.21620178222656
2018-04-24,69.42033386230469
2018-04-25,70.01495361328125
2018-04-26,70.85807800292969
2018-04-27,71.44384002685547
2018-04-30,71.14208984375
2018-05-01,70.84921264648438
2018-05-02,70.98234558105469
2018-05-03,70.78707885742188
2018-05-04,70.89356994628906
2018-05-07,70.55633544921875
2018-05-08,69.11858367919922
2018-05-09,68.90558624267578
2018-05-10,69.36708068847656
2018-05-11,69.14521789550781
2018-05-14,69.07421112060547
2018-05-15,68.27545166015625
2018-05-16,67.47671508789062
2018-05-17,66.58767700195312
2018-05-18,66.27336883544922
2018-05-21,66.16561126708984
2018-05-22,66.51582336425781
2018-05-23,67.23426055908203
2018-05-24,68.01551055908203
2018-05-25,68.07837677001953
2018-05-29,68.78780364990234
2018-05-30,69.12904357910156
2018-05-31,69.29069519042969
2018-06-01,68.32083892822266
2018-06-04,67.6832504272461
2018-06-05,67.12648010253906
2018-06-06,65.68067932128906
2018-06-07,65.98600769042969
2018-06-08,65.66272735595703
2018-06-11,64.76470184326172
2018-06-12,65.08798217773438
2018-06-13,64.8814468383789
2018-06-14,65.96804809570312
2018-06-15,66.72237396240234
2018-06-18,66.8211669921875
2018-06-19,67.9526596069336
2018-06-20,68.41963195800781
2018-06-21,69.06619262695312
2018-06-22,69.53314971923828
2018-06-25,71.01488494873047
2018-06-26,70.75444793701172
2018-06-27,71.41000366210938
2018-06-28,71.14958190917969
2018-06-29,71.01488494873047
2018-07-02,71.62553405761719
2018-07-03,71.67042541503906
2018-07-05,72.38882446289062
2018-07-06,73.29583740234375
2018-07-09,70.6197509765625
2018-07-10,71.41000366210938
2018-07-11,72.18228912353516
2018-07-12,72.29005432128906
2018-07-13,72.3978271484375
2018-07-16,72.54149627685547
2018-07-17,72.42476654052734
2018-07-18,72.23617553710938
2018-07-19,72.91867065429688
2018-07-20,72.42476654052734
2018-07-23,71.8141098022461
2018-07-24,71.74227142333984
2018-07-25,72.00269317626953
2018-07-26,72.86477661132812
2018-07-27,72.81988525390625
2018-07-30,72.53250122070312
2018-07-31,73.29583740234375
2018-08-01,72.78397369384766
2018-08-02,72.24514770507812
2018-08-03,73.23297119140625
2018-08-06,72.84681701660156
2018-08-07,72.63130950927734
2018-08-08,72.22720336914062
2018-08-09,72.56843566894531
2018-08-10,72.6402816772461
2018-08-13,72.6851806640625
2018-08-14,72.93663024902344
2018-08-15,73.51134490966797
2018-08-16,74.29067993164062
2018-08-17,74.73577117919922
2018-08-20,74.30885314941406
2018-08-21,73.82743835449219
2018-08-22,73.418701171875
2018-08-23,73.46411895751953
2018-08-24,73.9455337524414
2018-08-27,73.20071411132812
2018-08-28,72.98271179199219
2018-08-29,73.327880859375
2018-08-30,73.86376953125
2018-08-31,73.79110717773438
2018-09-04,73.95460510253906
2018-09-05,75.56232452392578
2018-09-06,75.81664276123047
2018-09-07,74.90833282470703
2018-09-10,74.76300811767578
2018-09-11,73.91827392578125
2018-09-12,73.47321319580078
2018-09-13,74.61767578125
2018-09-14,74.20892333984375
2018-09-17,74.5541000366211
2018-09-18,74.40876770019531
2018-09-19,72.74655151367188
2018-09-20,73.22796630859375
2018-09-21,72.5013198852539
2018-09-24,72.31057739257812
2018-09-25,71.58392333984375
2018-09-26,70.929931640625
2018-09-27,71.70199584960938
2018-09-28,72.68297576904297
2018-10-01,72.2560806274414
2018-10-02,73.04629516601562
2018-10-03,71.9290771484375
2018-10-04,72.61031341552734
2018-10-05,73.93644714355469
2018-10-08,74.60859680175781
2018-10-09,74.7085189819336
2018-10-10,74.37244415283203
2018-10-11,72.64665222167969
2018-10-12,72.65571594238281
2018-10-15,72.78288269042969
2018-10-16,73.51863098144531
2018-10-17,73.36420440673828
2018-10-18,73.80928802490234
2018-10-19,75.16265869140625
2018-10-22,75.06273651123047
2018-10-23,74.7539291381836
2018-10-24,76.97928619384766
2018-10-25,75.9710464477539
2018-10-26,74.38152313232422
2018-10-29,75.80755615234375
2018-10-30,76.14363098144531
2018-10-31,75.05365753173828
2018-11-01,74.172607421875
2018-11-02,75.01731872558594
2018-11-05,75.91655731201172
2018-11-06,76.5978012084961
2018-11-07,76.9338607788086
2018-11-08,76.5978012084961
2018-11-09,77.7331771850586
2018-11-12,78.0420150756836
2018-11-13,78.43257141113281
2018-11-14,78.49616241455078
2018-11-15,79.09113311767578
2018-11-16,79.5869369506836
2018-11-19,80.4683837890625
2018-11-20,81.27635955810547
2018-11-21,79.3757553100586
2018-11-23,79.65121459960938
2018-11-26,79.8624038696289
2018-11-27,80.6428451538086
2018-11-28,80.43165588378906
2018-11-29,80.43165588378906
2018-11-30,81.32228088378906
2018-12-03,82.28636169433594
2018-12-04,82.68118286132812
2018-12-06,82.47917938232422
2018-12-07,82.6260757446289
2018-12-10,83.10353088378906
2018-12-11,83.36061096191406
2018-12-12,82.26799011230469
2018-12-13,83.46162414550781
2018-12-14,83.32389831542969
2018-12-17,80.88155364990234
2018-12-18,80.48674774169922
2018-12-19,80.09193420410156
2018-12-20,80.9274673461914
2018-12-21,80.49592590332031
2018-12-24,77.04360961914062
2018-12-26,78.27397155761719
2018-12-27,78.92585754394531
2018-12-28,79.07276153564453
2018-12-31,79.238037109375
2019-01-02,77.76896667480469
2019-01-03,77.74141693115234
2019-01-04,78.38414764404297
2019-01-07,78.05359649658203
2019-01-08,79.03604888916016
2019-01-09,77.86995697021484
2019-01-10,78.29232025146484
2019-01-11,77.68633270263672
2019-01-14,76.81407165527344
2019-01-15,78.17295837402344
2019-01-16,78.29232025146484
2019-01-17,78.63203430175781
2019-01-18,78.5953140258789
2019-01-22,78.60450744628906
2019-01-23,79.08193969726562
2019-01-24,79.60529327392578
2019-01-25,78.82485961914062
2019-01-28,78.64122772216797
2019-01-29,78.62285614013672
2019-01-30,79.00849151611328
2019-01-31,80.59693908691406
2019-02-01,80.59693908691406
2019-02-04,80.63365173339844
2019-02-05,81.25801086425781
2019-02-06,81.22127532958984
2019-02-07,82.15782165527344
2019-02-08,82.91072082519531
2019-02-11,82.79135131835938
2019-02-12,82.84644317626953
2019-02-13,82.25881958007812
2019-02-14,81.47762298583984
2019-02-15,81.19001770019531
2019-02-19,81.58895874023438
2019-02-20,82.43323516845703
2019-02-21,83.11979675292969
2019-02-22,83.41669464111328
2019-02-25,83.01773834228516
2019-02-26,82.46106719970703
2019-02-27,82.8321762084961
2019-02-28,83.18474578857422
2019-03-01,83.06412506103516
2019-03-04,83.38884735107422
2019-03-05,83.06412506103516
2019-03-06,83.10124206542969
2019-03-07,83.11052703857422
2019-03-08,83.68573760986328
2019-03-11,83.83418273925781
2019-03-12,83.97335052490234
2019-03-13,84.01973724365234
2019-03-14,83.83418273925781
2019-03-15,84.10324096679688
2019-03-18,83.55585479736328
2019-03-19,82.6837387084961
2019-03-20,82.9249496459961
2019-03-21,83.41669464111328
2019-03-22,84.14962005615234
2019-03-25,84.21456146240234
2019-03-26,84.91968536376953
2019-03-27,83.94552612304688
2019-03-28,82.9249496459961
2019-03-29,83.50019073486328
2019-04-01,82.8321762084961
2019-04-02,82.69300842285156
2019-04-03,82.43323516845703
2019-04-04,82.8971176147461
2019-04-05,83.99191284179688
2019-04-08,83.60224151611328
2019-04-09,83.73213958740234
2019-04-10,83.44451904296875
2019-04-11,83.74140930175781
2019-04-12,83.91767883300781
2019-04-15,83.90840148925781
2019-04-16,82.6559066772461
2019-04-17,82.62806701660156
2019-04-18,82.7022933959961
2019-04-22,82.32190704345703
2019-04-23,82.5816879272461
2019-04-24,83.20328521728516
2019-04-25,83.91767883300781
2019-04-26,83.79707336425781
2019-04-29,83.11052703857422
2019-04-30,84.53929901123047
2019-05-01,83.88058471679688
2019-05-02,83.32390594482422
2019-05-03,83.64863586425781
2019-05-06,83.01773834228516
2019-05-07,82.81362915039062
2019-05-08,81.45907592773438
2019-05-09,80.55912780761719
2019-05-10,81.63534545898438
2019-05-13,81.6910171508789
2019-05-14,80.72611999511719
2019-05-15,80.52200317382812
2019-05-16,80.87649536132812
2019-05-17,81.77678680419922
2019-05-20,81.55171966552734
2019-05-21,81.66426086425781
2019-05-22,82.3488540649414
2019-05-23,83.3710708618164
2019-05-24,83.28666687011719
2019-05-28,81.70177459716797
2019-05-29,80.47323608398438
2019-05-30,80.21065521240234
2019-05-31,80.28569030761719
2019-06-03,80.67018127441406
2019-06-04,80.5576400756836
2019-06-05,81.79554748535156
2019-06-06,82.25506591796875
2019-06-07,81.62674713134766
2019-06-10,80.92339324951172
2019-06-11,80.31381225585938
2019-06-12,81.26100158691406
2019-06-13,81.37352752685547
2019-06-14,82.4051284790039
2019-06-17,82.48014068603516
2019-06-18,81.8143081665039
2019-06-19,82.19881439208984
2019-06-20,83.07097625732422
2019-06-21,83.9618911743164
2019-06-24,84.3182601928711
2019-06-25,84.51520538330078
2019-06-26,82.50828552246094
2019-06-27,83.04283905029297
2019-06-28,82.75212097167969
2019-07-01,82.53643035888672
2019-07-02,83.59615325927734
2019-07-03,84.4964370727539
2019-07-05,84.1025619506836
2019-07-08,84.08380126953125
2019-07-09,83.83997344970703
2019-07-10,84.0556640625
2019-07-11,83.88685607910156
2019-07-12,83.1834945678711
2019-07-15,83.82121276855469
2019-07-16,83.49298095703125
2019-07-17,83.59615325927734
2019-07-18,84.20571899414062
2019-07-19,82.94905853271484
2019-07-22,82.66771697998047
2019-07-23,82.22694396972656
2019-07-24,81.75804138183594
2019-07-25,81.1109390258789
2019-07-26,81.50482940673828
2019-07-29,82.3301010131836
2019-07-30,82.28321075439453
2019-07-31,81.32664489746094
2019-08-01,82.05813598632812
2019-08-02,82.63958740234375
2019-08-05,81.55171966552734
2019-08-06,83.38982391357422
2019-08-07,83.3147964477539
2019-08-08,83.75556182861328
2019-08-09,84.16820526123047
2019-08-12,83.93375396728516
2019-08-13,84.23384857177734
2019-08-14,83.28666687011719
2019-08-15,84.62793731689453
2019-08-16,85.09239959716797
2019-08-19,85.94550323486328
2019-08-20,86.4289321899414
2019-08-21,86.48580169677734
2019-08-22,86.56163787841797
2019-08-23,86.0118637084961
2019-08-26,86.59007263183594
2019-08-27,87.348388671875
2019-08-28,87.4905776977539
2019-08-29,87.9266128540039
2019-08-30,87.90764617919922
2019-09-03,88.7891845703125
2019-09-04,89.07355499267578
2019-09-05,88.54273223876953
2019-09-06,88.87449645996094
2019-09-09,88.83658599853516
2019-09-10,89.04512786865234
2019-09-11,89.56645965576172
2019-09-12,90.01197052001953
2019-09-13,89.00720977783203
2019-09-16,88.26785278320312
2019-09-17,88.97876739501953
2019-09-18,89.34844970703125
2019-09-19,89.56645965576172
2019-09-20,90.30581665039062
2019-09-23,90.42904663085938
2019-09-24,91.26319122314453
2019-09-25,90.9977798461914
2019-09-26,91.1873550415039
2019-09-27,91.2442398071289
2019-09-30,90.86507415771484
2019-10-01,91.17788696289062
2019-10-02,89.7750015258789
2019-10-03,90.1446762084961
2019-10-04,92.10681915283203
2019-10-07,91.86984252929688
2019-10-08,91.08309173583984
2019-10-09,91.0262222290039
2019-10-10,91.27267456054688
2019-10-11,90.96934509277344
2019-10-14,90.17311096191406
2019-10-15,90.04988861083984
2019-10-16,90.17311096191406
2019-10-17,90.21102905273438
2019-10-18,90.38164520263672
2019-10-21,90.36270141601562
2019-10-22,90.35321807861328
2019-10-23,91.15892791748047
2019-10-24,91.06413269042969
2019-10-25,90.45748138427734
2019-10-28,89.19677734375
2019-10-29,88.65648651123047
2019-10-30,89.1114730834961
2019-10-31,89.34844970703125
2019-11-01,89.46218872070312
2019-11-04,88.76075744628906
2019-11-05,88.2962875366211
2019-11-06,88.4953384399414
2019-11-07,87.75598907470703
2019-11-08,85.26303100585938
2019-11-11,83.03547668457031
2019-11-12,83.02598571777344
2019-11-13,83.9170150756836
2019-11-14,84.55416107177734
2019-11-15,84.87034606933594
2019-11-18,84.93741607666016
2019-11-19,83.38525390625
2019-11-20,83.48106384277344
2019-11-21,83.03075408935547
2019-11-22,83.49065399169922
2019-11-25,83.93138885498047
2019-11-26,84.50625610351562
2019-11-27,84.85118103027344
2019-11-29,84.4775161743164
2019-12-02,83.63436889648438
2019-12-03,84.18049621582031
2019-12-04,85.22484588623047
2019-12-05,85.55061340332031
2019-12-06,86.00093078613281
2019-12-09,85.54103088378906
2019-12-10,85.32066345214844
2019-12-11,85.27275848388672
2019-12-12,85.8093032836914
2019-12-13,86.32669067382812
2019-12-16,86.70035552978516
2019-12-17,86.75784301757812
2019-12-18,86.8153305053711
2019-12-19,86.18297576904297
2019-12-20,86.82492065429688
2019-12-23,86.37459564208984
2019-12-24,86.45124816894531
2019-12-26,86.60454559326172
2019-12-27,87.1602554321289
2019-12-30,86.98780059814453
2019-12-31,87.39020538330078
