Date,ELS
2007-12-31,8.273948669433594
2008-01-02,8.230469703674316
2008-01-03,7.9351654052734375
2008-01-04,7.717761516571045
2008-01-07,7.667036533355713
2008-01-08,7.3844146728515625
2008-01-09,7.636236667633057
2008-01-10,7.725009918212891
2008-01-11,7.692398548126221
2008-01-14,7.672469139099121
2008-01-15,7.509418487548828
2008-01-16,7.636236667633057
2008-01-17,7.601818084716797
2008-01-18,7.41702127456665
2008-01-22,7.710515975952148
2008-01-23,8.315616607666016
2008-01-24,8.1108980178833
2008-01-25,7.964151382446289
2008-01-28,8.266700744628906
2008-01-29,8.051111221313477
2008-01-30,7.821027755737305
2008-01-31,7.911612033843994
2008-02-01,8.351848602294922
2008-02-04,8.493160247802734
2008-02-05,8.277572631835938
2008-02-06,8.26126480102539
2008-02-07,8.427938461303711
2008-02-08,8.427938461303711
2008-02-11,8.235902786254883
2008-02-12,8.369970321655273
2008-02-13,8.710565567016602
2008-02-14,8.578312873840332
2008-02-15,8.453307151794434
2008-02-19,8.424318313598633
2008-02-20,8.610919952392578
2008-02-21,8.333736419677734
2008-02-22,8.469610214233398
2008-02-25,8.884486198425293
2008-02-26,8.877237319946289
2008-02-27,8.708752632141113
2008-02-28,8.447871208190918
2008-02-29,8.275762557983398
2008-03-03,8.357285499572754
2008-03-04,8.317429542541504
2008-03-05,8.201483726501465
2008-03-06,7.944223403930664
2008-03-07,8.06922721862793
2008-03-10,7.953283309936523
2008-03-11,8.505841255187988
2008-03-12,8.17430591583252
2008-03-13,8.362720489501953
2008-03-14,8.3101806640625
2008-03-17,8.455113410949707
2008-03-18,9.098264694213867
2008-03-19,9.031231880187988
2008-03-20,9.132688522338867
2008-03-24,9.275810241699219
2008-03-25,9.437049865722656
2008-03-26,9.216987609863281
2008-03-27,9.046038627624512
2008-03-28,8.976926803588867
2008-03-31,8.978743553161621
2008-04-01,9.52070426940918
2008-04-02,9.389762878417969
2008-04-03,9.564352035522461
2008-04-04,9.586175918579102
2008-04-07,9.426136016845703
2008-04-08,9.351569175720215
2008-04-09,9.07695198059082
2008-04-10,9.171525955200195
2008-04-11,9.002388954162598
2008-04-14,8.922367095947266
2008-04-15,9.022390365600586
2008-04-16,9.362481117248535
2008-04-17,9.255183219909668
2008-04-18,9.180618286132812
2008-04-21,9.142425537109375
2008-04-22,8.978743553161621
2008-04-23,9.095138549804688
2008-04-24,9.275188446044922
2008-04-25,9.176980018615723
2008-04-28,9.142425537109375
2008-04-29,9.08422565460205
2008-04-30,8.991474151611328
2008-05-01,9.333383560180664
2008-05-02,9.160612106323242
2008-05-05,9.133332252502441
2008-05-06,9.1824369430542
2008-05-07,8.891448020935059
2008-05-08,8.789604187011719
2008-05-09,8.953283309936523
2008-05-12,9.222445487976074
2008-05-13,9.209714889526367
2008-05-14,9.171525955200195
2008-05-15,9.242450714111328
2008-05-16,9.209714889526367
2008-05-19,9.102413177490234
2008-05-20,9.087862968444824
2008-05-21,9.007845878601074
2008-05-22,9.106051445007324
2008-05-23,9.131512641906738
2008-05-27,9.118783950805664
2008-05-28,9.091503143310547
2008-05-29,9.075133323669434
2008-05-30,9.036943435668945
2008-06-02,8.847799301147461
2008-06-03,8.916911125183105
2008-06-04,9.016939163208008
2008-06-05,9.266096115112305
2008-06-06,8.807791709899902
2008-06-09,8.642291069030762
2008-06-10,8.765962600708008
2008-06-11,8.624106407165527
2008-06-12,8.518621444702148
2008-06-13,8.767778396606445
2008-06-16,8.913270950317383
2008-06-17,8.72958755493164
2008-06-18,8.59682559967041
2008-06-19,8.720495223999023
2008-06-20,8.58045768737793
2008-06-23,8.35676383972168
2008-06-24,8.398591041564941
2008-06-25,8.568463325500488
2008-06-26,8.318220138549805
2008-06-27,8.108165740966797
2008-06-30,8.036930084228516
2008-07-01,8.060675621032715
2008-07-02,7.996740341186523
2008-07-03,7.9693474769592285
2008-07-07,7.867055892944336
2008-07-08,8.314566612243652
2008-07-09,7.509048938751221
2008-07-10,7.795822620391846
2008-07-11,7.894458293914795
2008-07-14,7.625946998596191
2008-07-15,7.74832820892334
2008-07-16,8.000398635864258
2008-07-17,8.197668075561523
2008-07-18,8.109992980957031
2008-07-21,8.31274127960205
2008-07-22,8.731025695800781
2008-07-23,8.877154350280762
2008-07-24,8.35110092163086
2008-07-25,8.597686767578125
2008-07-28,8.477132797241211
2008-07-29,8.935604095458984
2008-07-30,8.816878318786621
2008-07-31,8.769384384155273
2008-08-01,8.79495906829834
2008-08-04,8.69814682006836
2008-08-05,8.973960876464844
2008-08-06,8.849753379821777
2008-08-07,8.657964706420898
2008-08-08,8.964827537536621
2008-08-11,9.005013465881348
2008-08-12,8.908206939697266
2008-08-13,9.041544914245605
2008-08-14,9.278999328613281
2008-08-15,9.149313926696777
2008-08-18,9.032411575317383
2008-08-19,8.946562767028809
2008-08-20,8.762080192565918
2008-08-21,8.727375030517578
2008-08-22,9.037891387939453
2008-08-25,8.749292373657227
2008-08-26,8.771214485168457
2008-08-27,8.813222885131836
2008-08-28,9.09268856048584
2008-08-29,9.074420928955078
2008-09-02,9.24795150756836
2008-09-03,9.379464149475098
2008-09-04,9.125565528869629
2008-09-05,9.120088577270508
2008-09-08,9.350234985351562
2008-09-09,8.986746788024902
2008-09-10,9.229684829711914
2008-09-11,9.052502632141113
2008-09-12,9.047025680541992
2008-09-15,8.595861434936523
2008-09-16,9.140179634094238
2008-09-17,8.807744979858398
2008-09-18,9.520109176635742
2008-09-19,9.909167289733887
2008-09-22,9.295440673828125
2008-09-23,9.42512321472168
2008-09-24,9.331608772277832
2008-09-25,9.498472213745117
2008-09-26,9.885379791259766
2008-09-29,9.382953643798828
2008-09-30,9.724018096923828
2008-10-01,9.505809783935547
2008-10-02,8.886024475097656
2008-10-03,8.25706958770752
2008-10-06,7.884832382202148
2008-10-07,7.472254753112793
2008-10-08,7.338395595550537
2008-10-09,6.914813041687012
2008-10-10,7.916007041931152
2008-10-13,8.191059112548828
2008-10-14,7.527263641357422
2008-10-15,6.526073932647705
2008-10-16,7.136691570281982
2008-10-17,6.999163627624512
2008-10-20,6.9643235206604
2008-10-21,7.034003257751465
2008-10-22,6.797460556030273
2008-10-23,7.0798444747924805
2008-10-24,6.5884199142456055
2008-10-27,6.395881652832031
2008-10-28,7.320060729980469
2008-10-29,7.107352256774902
2008-10-30,7.263216495513916
2008-10-31,7.699631214141846
2008-11-03,7.468585968017578
2008-11-04,7.589610576629639
2008-11-05,7.096349239349365
2008-11-06,6.903815269470215
2008-11-07,7.314557075500488
2008-11-10,6.9294843673706055
2008-11-11,6.901978015899658
2008-11-12,6.4215545654296875
2008-11-13,6.859802722930908
2008-11-14,6.12999963760376
2008-11-17,5.915457248687744
2008-11-18,5.772430896759033
2008-11-19,5.053627967834473
2008-11-20,4.38433313369751
2008-11-21,4.925268650054932
2008-11-24,5.955799579620361
2008-11-25,6.1630048751831055
2008-11-26,6.23635196685791
2008-11-28,6.344537258148193
2008-12-01,5.042625904083252
2008-12-02,5.497378826141357
2008-12-03,5.631237983703613
2008-12-04,5.689916610717773
2008-12-05,6.4472270011901855
2008-12-08,7.048674583435059
2008-12-09,6.443559169769287
2008-12-10,7.061509132385254
2008-12-11,6.082324504852295
2008-12-12,6.5939226150512695
2008-12-15,6.273025989532471
2008-12-16,7.153191566467285
2008-12-17,7.336562633514404
2008-12-18,6.645263195037842
2008-12-19,7.149527072906494
2008-12-22,6.9074788093566895
2008-12-23,6.686266899108887
2008-12-24,6.645707130432129
2008-12-26,6.665984630584717
2008-12-29,6.302821636199951
2008-12-30,6.702854156494141
2008-12-31,7.071550369262695
2009-01-02,6.833741188049316
2009-01-05,6.798717498779297
2009-01-06,6.946193218231201
2009-01-07,6.983063697814941
2009-01-08,7.054958343505859
2009-01-09,6.830056190490723
2009-01-12,6.533255577087402
2009-01-13,6.776594161987305
2009-01-14,6.514822483062744
2009-01-15,6.662299156188965
2009-01-16,6.920382499694824
2009-01-20,6.026302814483643
2009-01-21,6.658611297607422
2009-01-22,6.402369022369385
2009-01-23,6.498230934143066
2009-01-26,6.579344272613525
2009-01-27,6.8761420249938965
2009-01-28,7.458674907684326
2009-01-29,7.184000492095947
2009-01-30,6.955409526824951
2009-02-02,6.949880599975586
2009-02-03,7.027304172515869
2009-02-04,6.87245512008667
2009-02-05,6.85402250289917
2009-02-06,7.322266101837158
2009-02-09,7.425494194030762
2009-02-10,6.783969402313232
2009-02-11,6.942506790161133
2009-02-12,6.7120747566223145
2009-02-13,6.531412601470947
2009-02-17,6.256735801696777
2009-02-18,6.230926990509033
2009-02-19,5.810616493225098
2009-02-20,6.18299674987793
2009-02-23,5.812459468841553
2009-02-24,6.3046650886535645
2009-02-25,6.326786994934082
2009-02-26,6.055798053741455
2009-02-27,6.144283294677734
2009-03-02,5.570964336395264
2009-03-03,5.589399337768555
2009-03-04,5.801398277282715
2009-03-05,5.500912666320801
2009-03-06,5.635487079620361
2009-03-09,5.664981365203857
2009-03-10,6.382091522216797
2009-03-11,6.4632062911987305
2009-03-12,7.108419418334961
2009-03-13,6.865079402923584
2009-03-16,6.426334381103516
2009-03-17,6.992279529571533
2009-03-18,7.0623321533203125
2009-03-19,7.1397576332092285
2009-03-20,6.798717498779297
2009-03-23,7.812626361846924
2009-03-24,7.051272869110107
2009-03-25,7.119927406311035
2009-03-26,7.388991355895996
2009-03-27,7.066115856170654
2009-03-30,6.648605823516846
2009-03-31,7.069827556610107
2009-04-01,7.030862331390381
2009-04-02,7.416823863983154
2009-04-03,7.789802074432373
2009-04-06,7.921546936035156
2009-04-07,7.546715259552002
2009-04-08,7.79351282119751
2009-04-09,8.498637199401855
2009-04-13,8.350192070007324
2009-04-14,7.4632110595703125
2009-04-15,7.875158309936523
2009-04-16,8.08112907409668
2009-04-17,7.930822849273682
2009-04-20,7.07910680770874
2009-04-21,7.541149616241455
2009-04-22,7.1421966552734375
2009-04-23,7.242395877838135
2009-04-24,7.671040058135986
2009-04-27,7.047560214996338
2009-04-28,7.335175514221191
2009-04-29,7.613516330718994
2009-04-30,7.361155986785889
2009-05-01,6.919524669647217
2009-05-04,7.316621780395508
2009-05-05,7.053124904632568
2009-05-06,7.1793060302734375
2009-05-07,6.672730922698975
2009-05-08,7.099515438079834
2009-05-11,7.004880905151367
2009-05-12,7.080962181091309
2009-05-13,6.880557060241699
2009-05-14,7.149618625640869
2009-05-15,7.014159679412842
2009-05-18,7.351877212524414
2009-05-19,7.1793060302734375
2009-05-20,7.012304782867432
2009-05-21,7.0067362785339355
2009-05-22,6.780355453491211
2009-05-26,7.160750389099121
2009-05-27,6.84529972076416
2009-05-28,6.964058876037598
2009-05-29,7.281364917755127
2009-06-01,7.600527286529541
2009-06-02,7.643205165863037
2009-06-03,7.721142292022705
2009-06-04,7.791651248931885
2009-06-05,7.611663818359375
2009-06-08,7.468780517578125
2009-06-09,7.470637321472168
2009-06-10,7.374143600463867
2009-06-11,7.236830234527588
2009-06-12,7.574548721313477
2009-06-15,7.27765417098999
2009-06-16,7.175594806671143
2009-06-17,7.1421966552734375
2009-06-18,7.116217136383057
2009-06-19,7.023436546325684
2009-06-22,6.7859206199646
2009-06-23,6.260786056518555
2009-06-24,6.602896690368652
2009-06-25,6.746842861175537
2009-06-26,6.860878944396973
2009-06-29,6.849664688110352
2009-06-30,6.950616359710693
2009-07-01,6.959959983825684
2009-07-02,6.655238628387451
2009-07-06,6.8702263832092285
2009-07-07,6.649630069732666
2009-07-08,6.599155902862549
2009-07-09,6.511291980743408
2009-07-10,6.54868221282959
2009-07-13,6.773015975952148
2009-07-14,6.847794055938721
2009-07-15,7.145036697387695
2009-07-16,7.2665510177612305
2009-07-17,7.154383182525635
2009-07-20,7.322633266448975
2009-07-21,7.31328821182251
2009-07-22,7.333847999572754
2009-07-23,7.6441779136657715
2009-07-24,7.646048545837402
2009-07-27,7.694654941558838
2009-07-28,7.748867034912109
2009-07-29,7.586227893829346
2009-07-30,7.782519817352295
2009-07-31,7.7899932861328125
2009-08-03,7.849817276000977
2009-08-04,8.102190971374512
2009-08-05,8.190062522888184
2009-08-06,8.085367202758789
2009-08-07,8.37513256072998
2009-08-10,8.115280151367188
2009-08-11,7.982550621032715
2009-08-12,8.036764144897461
2009-08-13,8.01806926727295
2009-08-14,7.965726375579834
2009-08-17,7.584357261657715
2009-08-18,7.586227893829346
2009-08-19,7.440408229827881
2009-08-20,7.545098781585693
2009-08-21,7.679699897766113
2009-08-24,7.728302955627441
2009-08-25,7.7600836753845215
2009-08-26,7.806819915771484
2009-08-27,7.8554253578186035
2009-08-28,7.7226948738098145
2009-08-31,7.524535179138184
2009-09-01,7.201119899749756
2009-09-02,7.105775356292725
2009-09-03,7.335720062255859
2009-09-04,7.440408229827881
2009-09-08,7.775039196014404
2009-09-09,7.883467197418213
2009-09-10,8.003114700317383
2009-09-11,7.947030544281006
2009-09-14,8.160146713256836
2009-09-15,8.17136287689209
2009-09-16,8.455522537231445
2009-09-17,8.459259033203125
2009-09-18,8.562076568603516
2009-09-21,8.554596900939941
2009-09-22,8.805106163024902
2009-09-23,8.426939010620117
2009-09-24,8.088281631469727
2009-09-25,8.067585945129395
2009-09-28,8.329106330871582
2009-09-29,8.142844200134277
2009-09-30,8.050649642944336
2009-10-01,7.745860576629639
2009-10-02,7.82676362991333
2009-10-05,8.167299270629883
2009-10-06,8.32158088684082
2009-10-07,8.338510513305664
2009-10-08,8.537941932678223
2009-10-09,8.624488830566406
2009-10-12,8.472092628479004
2009-10-13,8.342273712158203
2009-10-14,8.590621948242188
2009-10-15,8.475852966308594
2009-10-16,8.364850997924805
2009-10-19,8.487147331237793
2009-10-20,8.690340995788574
2009-10-21,8.496554374694824
2009-10-22,8.682815551757812
2009-10-23,8.660234451293945
2009-10-26,8.694099426269531
2009-10-27,8.67905330657959
2009-10-28,8.584980964660645
2009-10-29,8.752426147460938
2009-10-30,8.7392578125
2009-11-02,8.784407615661621
2009-11-03,8.835208892822266
2009-11-04,8.581216812133789
2009-11-05,8.767476081848145
2009-11-06,8.63953971862793
2009-11-09,8.987606048583984
2009-11-10,8.6846923828125
2009-11-11,8.966911315917969
2009-11-12,8.83332633972168
2009-11-13,8.968791961669922
2009-11-16,9.29051685333252
2009-11-17,9.171987533569336
2009-11-18,9.331907272338867
2009-11-19,9.085439682006836
2009-11-20,8.98948860168457
2009-11-23,9.083558082580566
2009-11-24,8.993250846862793
2009-11-25,8.953740119934082
2009-11-27,8.711033821105957
2009-11-30,9.032759666442871
2009-12-01,9.162579536437988
2009-12-02,9.339434623718262
2009-12-03,9.188919067382812
2009-12-04,9.57085132598877
2009-12-07,9.444793701171875
2009-12-08,9.441031455993652
2009-12-09,9.465489387512207
2009-12-10,9.303689002990723
2009-12-11,9.429743766784668
2009-12-14,9.450437545776367
2009-12-15,9.433504104614258
2009-12-16,9.450437545776367
2009-12-17,9.281107902526855
2009-12-18,9.260412216186523
2009-12-21,9.307449340820312
2009-12-22,9.29419994354248
2009-12-23,9.299878120422363
2009-12-24,9.368023872375488
2009-12-28,9.591385841369629
2009-12-29,9.449418067932129
2009-12-30,9.506205558776855
2009-12-31,9.553526878356934
2010-01-04,9.500527381896973
2010-01-05,9.542169570922852
2010-01-06,9.508098602294922
2010-01-07,9.417236328125
2010-01-08,9.379383087158203
2010-01-11,9.375594139099121
2010-01-12,9.129515647888184
2010-01-13,9.375594139099121
2010-01-14,9.38884449005127
2010-01-15,9.402093887329102
2010-01-19,9.551636695861816
2010-01-20,9.356663703918457
2010-01-21,9.05569076538086
2010-01-22,8.858830451965332
2010-01-25,8.873971939086914
2010-01-26,8.940226554870605
2010-01-27,8.951581954956055
2010-01-28,9.014049530029297
2010-01-29,9.146552085876465
2010-02-01,9.324485778808594
2010-02-02,9.284734725952148
2010-02-03,9.161694526672363
2010-02-04,8.99133586883545
2010-02-05,9.10301399230957
2010-02-08,8.983760833740234
2010-02-09,8.944008827209473
2010-02-10,8.906152725219727
2010-02-11,8.934547424316406
2010-02-12,8.962940216064453
2010-02-16,9.112478256225586
2010-02-17,9.260128021240234
2010-02-18,9.339628219604492
2010-02-19,9.26959228515625
2010-02-22,9.254448890686035
2010-02-23,9.248767852783203
2010-02-24,9.324485778808594
2010-02-25,9.373701095581055
2010-02-26,9.4153470993042
2010-03-01,9.525136947631836
2010-03-02,9.455096244812012
2010-03-03,9.52324104309082
2010-03-04,9.513778686523438
2010-03-05,9.68981647491455
2010-03-08,9.767425537109375
2010-03-09,9.6879243850708
2010-03-10,9.725784301757812
2010-03-11,9.74849796295166
2010-03-12,9.846927642822266
2010-03-15,9.877214431762695
2010-03-16,10.051362037658691
2010-03-17,10.306909561157227
2010-03-18,10.369372367858887
2010-03-19,10.161151885986328
2010-03-22,10.257692337036133
2010-03-23,10.295549392700195
2010-03-24,10.3031644821167
2010-03-25,10.200380325317383
2010-03-26,10.242255210876465
2010-03-29,10.27841854095459
2010-03-30,10.297452926635742
2010-03-31,10.255577087402344
2010-04-01,10.411656379699707
2010-04-05,10.569639205932617
2010-04-06,10.851346015930176
2010-04-07,10.680037498474121
2010-04-08,10.680037498474121
2010-04-09,10.805663108825684
2010-04-12,10.744755744934082
2010-04-13,11.055009841918945
2010-04-14,11.119726181030273
2010-04-15,10.876091957092285
2010-04-16,10.613417625427246
2010-04-19,10.672423362731934
2010-04-20,10.72952938079834
2010-04-21,10.695263862609863
2010-04-22,10.657196044921875
2010-04-23,10.666716575622559
2010-04-26,10.891319274902344
2010-04-27,10.577253341674805
2010-04-28,10.718107223510742
2010-04-29,11.01694107055664
2010-04-30,10.565834999084473
2010-05-03,10.815179824829102
2010-05-04,10.525862693786621
2010-05-05,10.385011672973633
2010-05-06,9.93580436706543
2010-05-07,9.730234146118164
2010-05-10,10.447824478149414
2010-05-11,10.493505477905273
2010-05-12,10.775211334228516
2010-05-13,10.560124397277832
2010-05-14,10.230833053588867
2010-05-17,10.230833053588867
2010-05-18,10.034783363342285
2010-05-19,9.880607604980469
2010-05-20,9.292451858520508
2010-05-21,9.488504409790039
2010-05-24,9.231542587280273
2010-05-25,9.290547370910645
2010-05-26,9.393331527709961
2010-05-27,9.869183540344238
2010-05-28,9.859665870666504
2010-06-01,9.520858764648438
2010-06-02,9.783534049987793
2010-06-03,9.825406074523926
2010-06-04,9.202991485595703
2010-06-07,9.149697303771973
2010-06-08,9.1953763961792
2010-06-09,9.17634391784668
2010-06-10,9.539895057678223
2010-06-11,9.715009689331055
2010-06-14,9.884414672851562
2010-06-15,10.030975341796875
2010-06-16,10.006231307983398
2010-06-17,9.975776672363281
2010-06-18,9.994812965393066
2010-06-21,9.852055549621582
2010-06-22,9.610322952270508
2010-06-23,9.600747108459473
2010-06-24,9.41501235961914
2010-06-25,9.673508644104004
2010-06-28,9.650532722473145
2010-06-29,9.380547523498535
2010-06-30,9.23501968383789
2010-07-01,9.296298027038574
2010-07-02,9.173749923706055
2010-07-06,8.997588157653809
2010-07-07,9.323101997375488
2010-07-08,9.480116844177246
2010-07-09,9.568195343017578
2010-07-12,9.522239685058594
2010-07-13,9.84775447845459
2010-07-14,9.650532722473145
2010-07-15,9.55862045288086
2010-07-16,9.250340461730957
2010-07-19,9.437992095947266
2010-07-20,9.72329330444336
2010-07-21,9.596920013427734
2010-07-22,9.90519905090332
2010-07-23,10.035404205322266
2010-07-26,10.196248054504395
2010-07-27,10.246030807495117
2010-07-28,10.228799819946289
2010-07-29,10.121569633483887
2010-07-30,10.13497257232666
2010-08-02,10.504528045654297
2010-08-03,10.481548309326172
2010-08-04,10.521758079528809
2010-08-05,10.403040885925293
2010-08-06,10.418360710144043
2010-08-09,10.523675918579102
2010-08-10,10.328363418579102
2010-08-11,10.203907012939453
2010-08-12,9.93009090423584
2010-08-13,9.939667701721191
2010-08-16,10.006684303283691
2010-08-17,10.217309951782227
2010-08-18,10.180926322937012
2010-08-19,9.864989280700684
2010-08-20,9.784565925598145
2010-08-23,9.700315475463867
2010-08-24,9.686910629272461
2010-08-25,9.880308151245117
2010-08-26,9.861157417297363
2010-08-27,10.018173217773438
2010-08-30,9.901368141174316
2010-08-31,9.90519905090332
2010-09-01,10.255603790283203
2010-09-02,10.328363418579102
2010-09-03,10.376235961914062
2010-09-07,10.253691673278809
2010-09-08,10.320708274841309
2010-09-09,10.228799819946289
2010-09-10,10.314963340759277
2010-09-13,10.46240234375
2010-09-14,10.508357048034668
2010-09-15,10.460491180419922
2010-09-16,10.345598220825195
2010-09-17,10.376235961914062
2010-09-20,10.749619483947754
2010-09-21,10.535162925720215
2010-09-22,10.3965425491333
2010-09-23,10.240592956542969
2010-09-24,10.56789493560791
2010-09-27,10.444676399230957
2010-09-28,10.527462005615234
2010-09-29,10.48703384399414
2010-09-30,10.488958358764648
2010-10-01,10.548643112182617
2010-10-04,10.529388427734375
2010-10-05,10.656455993652344
2010-10-06,10.66800594329834
2010-10-07,10.67763614654541
2010-10-08,10.716143608093262
2010-10-11,10.66800594329834
2010-10-12,10.727693557739258
2010-10-13,10.822031021118164
2010-10-14,10.746946334838867
2010-10-15,10.644904136657715
2010-10-18,10.852835655212402
2010-10-19,10.958724975585938
2010-10-20,11.30142879486084
2010-10-21,11.21479320526123
2010-10-22,11.143555641174316
2010-10-25,11.182062149047852
2010-10-26,10.995308876037598
2010-10-27,10.977982521057129
2010-10-28,10.931775093078613
2010-10-29,10.958724975585938
2010-11-01,10.958724975585938
2010-11-02,11.018409729003906
2010-11-03,11.006860733032227
2010-11-04,11.311057090759277
2010-11-05,11.440048217773438
2010-11-08,11.409244537353516
2010-11-09,11.178211212158203
2010-11-10,11.28795051574707
2010-11-11,11.21286678314209
2010-11-12,11.085796356201172
2010-11-15,11.037663459777832
2010-11-16,10.527462005615234
2010-11-17,10.542866706848145
2010-11-18,10.650680541992188
2010-11-19,10.589072227478027
2010-11-22,10.571746826171875
2010-11-23,10.413870811462402
2010-11-24,10.490884780883789
2010-11-26,10.523612976074219
2010-11-29,10.427346229553223
2010-11-30,10.373438835144043
2010-12-01,10.579446792602539
2010-12-02,10.66800594329834
2010-12-03,10.562118530273438
2010-12-06,10.488958358764648
2010-12-07,10.454299926757812
2010-12-08,10.300278663635254
2010-12-09,10.252148628234863
2010-12-10,10.30798053741455
2010-12-13,10.440824508666992
2010-12-14,10.342634201049805
2010-12-15,10.365740776062012
2010-12-16,10.42349910736084
2010-12-17,10.51976203918457
2010-12-20,10.675711631774902
2010-12-21,10.698814392089844
2010-12-22,10.737317085266113
2010-12-23,10.673785209655762
2010-12-27,10.78160285949707
2010-12-28,10.758496284484863
2010-12-29,10.878510475158691
2010-12-30,10.872700691223145
2010-12-31,10.82624626159668
2011-01-03,10.996586799621582
2011-01-04,10.808825492858887
2011-01-05,10.85915470123291
2011-01-06,10.78172492980957
2011-01-07,10.725590705871582
2011-01-10,10.708168983459473
2011-01-11,10.638484954833984
2011-01-12,10.681071281433105
2011-01-13,10.6520357131958
2011-01-14,10.684942245483398
2011-01-18,10.785598754882812
2011-01-19,10.60558032989502
2011-01-20,10.562994003295898
2011-01-21,10.64622688293457
2011-01-24,10.677200317382812
2011-01-25,10.86108684539795
2011-01-26,11.017877578735352
2011-01-27,11.044977188110352
2011-01-28,10.85915470123291
2011-01-31,11.010137557983398
2011-02-01,11.110793113708496
2011-02-02,11.13401985168457
2011-02-03,11.130146980285645
2011-02-04,10.95787239074707
2011-02-07,11.048847198486328
2011-02-08,11.033363342285156
2011-02-09,11.137892723083496
2011-02-10,11.116597175598145
2011-02-11,11.211445808410645
2011-02-14,11.257901191711426
2011-02-15,11.16886043548584
2011-02-16,11.132084846496582
2011-02-17,11.122404098510742
2011-02-18,11.09530258178711
2011-02-22,10.992714881896973
2011-02-23,10.944321632385254
2011-02-24,10.830118179321289
2011-02-25,11.017877578735352
2011-02-28,11.234673500061035
2011-03-01,10.97529411315918
2011-03-02,10.944321632385254
2011-03-03,11.139827728271484
2011-03-04,11.130146980285645
2011-03-07,11.01401138305664
2011-03-08,11.16499137878418
2011-03-09,11.0991792678833
2011-03-10,10.986908912658691
2011-03-11,11.048847198486328
2011-03-14,10.992714881896973
2011-03-15,10.969487190246582
2011-03-16,10.797209739685059
2011-03-17,10.849475860595703
2011-03-18,10.944321632385254
2011-03-21,11.07788372039795
2011-03-22,11.015941619873047
2011-03-23,10.923388481140137
2011-03-24,10.822063446044922
2011-03-25,10.862984657287598
2011-03-28,10.870777130126953
2011-03-29,10.91754150390625
2011-03-30,11.137723922729492
2011-03-31,11.23320198059082
2011-04-01,11.35206127166748
2011-04-04,11.348167419433594
2011-04-05,11.377389907836914
2011-04-06,11.344266891479492
2011-04-07,11.159160614013672
2011-04-08,11.104601860046387
2011-04-11,11.04614543914795
2011-04-12,10.954564094543457
2011-04-13,10.938976287841797
2011-04-14,11.13577651977539
2011-04-15,11.166952133178711
2011-04-18,11.057836532592773
2011-04-19,11.168903350830078
2011-04-20,11.342318534851074
2011-04-21,11.33647346496582
2011-04-25,11.408571243286133
2011-04-26,11.572245597839355
2011-04-27,11.607316970825195
2011-04-28,11.648237228393555
2011-04-29,11.65602970123291
2011-05-02,11.634594917297363
2011-05-03,11.541069030761719
2011-05-04,11.482613563537598
2011-05-05,11.52158260345459
2011-05-06,11.383237838745117
2011-05-09,11.494303703308105
2011-05-10,11.700847625732422
2011-05-11,11.507941246032715
2011-05-12,11.531325340270996
2011-05-13,11.422207832336426
2011-05-16,11.445592880249023
2011-05-17,11.406621932983398
2011-05-18,11.482613563537598
2011-05-19,11.498201370239258
2011-05-20,11.37349796295166
2011-05-23,11.285810470581055
2011-05-24,11.260480880737305
2011-05-25,11.289708137512207
2011-05-26,11.311141014099121
2011-05-27,11.340371131896973
2011-05-31,11.447537422180176
2011-06-01,11.71643352508545
2011-06-02,12.189923286437988
2011-06-03,12.150951385498047
2011-06-06,12.022353172302246
2011-06-07,11.983381271362305
2011-06-08,12.108085632324219
2011-06-09,12.154850006103516
2011-06-10,12.080809593200684
2011-06-13,12.135364532470703
2011-06-14,12.026248931884766
2011-06-15,11.960000038146973
2011-06-16,12.12757396697998
2011-06-17,12.45102596282959
2011-06-20,12.542608261108398
2011-06-21,12.630287170410156
2011-06-22,12.668506622314453
2011-06-23,12.245174407958984
2011-06-24,12.274575233459473
2011-06-27,12.251054763793945
2011-06-28,12.221659660339355
2011-06-29,12.300053596496582
2011-06-30,12.237338066101074
2011-07-01,12.51171875
2011-07-05,12.756696701049805
2011-07-06,12.964444160461426
2011-07-07,13.072237014770508
2011-07-08,13.050678253173828
2011-07-11,13.074197769165039
2011-07-12,13.117314338684082
2011-07-13,12.864489555358887
2011-07-14,12.784139633178711
2011-07-15,12.897808074951172
2011-07-18,12.840973854064941
2011-07-19,12.933085441589355
2011-07-20,13.256464958190918
2011-07-21,13.283903121948242
2011-07-22,13.332897186279297
2011-07-25,13.227067947387695
2011-07-26,13.180026054382324
2011-07-27,12.790018081665039
2011-07-28,12.670466423034668
2011-07-29,12.77042007446289
2011-08-01,12.695943832397461
2011-08-02,12.380407333374023
2011-08-03,12.599910736083984
2011-08-04,12.115824699401855
2011-08-05,11.957077980041504
2011-08-08,11.028105735778809
2011-08-09,11.990399360656738
2011-08-10,11.482793807983398
2011-08-11,12.178540229797363
2011-08-12,12.205978393554688
2011-08-15,12.68222713470459
2011-08-16,12.690064430236816
2011-08-17,12.633225440979004
2011-08-18,12.113870620727539
2011-08-19,12.08838939666748
2011-08-22,12.098185539245605
2011-08-23,12.454882621765137
2011-08-24,12.733182907104492
2011-08-25,12.519556999206543
2011-08-26,12.73906421661377
2011-08-29,13.178067207336426
2011-08-30,13.20746898651123
2011-08-31,13.507319450378418
2011-09-01,13.519084930419922
2011-09-02,13.299578666687012
2011-09-06,13.287821769714355
2011-09-07,13.775824546813965
2011-09-08,13.854217529296875
2011-09-09,13.438728332519531
2011-09-12,13.573960304260254
2011-09-13,13.811100959777832
2011-09-14,13.818939208984375
2011-09-15,13.946337699890137
2011-09-16,14.130558013916016
2011-09-19,14.085482597351074
2011-09-20,14.077643394470215
2011-09-21,13.170228004455566
2011-09-22,12.756696701049805
2011-09-23,12.987959861755371
2011-09-26,12.82137393951416
2011-09-27,12.935044288635254
2011-09-28,12.392021179199219
2011-09-29,12.468892097473145
2011-09-30,12.358513832092285
2011-10-03,11.7080659866333
2011-10-04,12.43735408782959
2011-10-05,12.16337776184082
2011-10-06,12.480720520019531
2011-10-07,12.058914184570312
2011-10-10,12.699504852294922
2011-10-11,12.439325332641602
2011-10-12,12.610806465148926
2011-10-13,12.555620193481445
2011-10-14,12.658113479614258
2011-10-17,12.283612251281738
2011-10-18,12.43735408782959
2011-10-19,12.358513832092285
2011-10-20,11.97415828704834
2011-10-21,12.453125
2011-10-24,12.847333908081055
2011-10-25,12.600954055786133
2011-10-26,12.6482572555542
2011-10-27,12.90843677520752
2011-10-28,12.87492847442627
2011-10-31,13.034581184387207
2011-11-01,12.829593658447266
2011-11-02,13.09765625
2011-11-03,13.09765625
2011-11-04,13.099628448486328
2011-11-07,13.14693546295166
2011-11-08,13.05429458618164
2011-11-09,12.486628532409668
2011-11-10,12.37231159210205
2011-11-11,12.595040321350098
2011-11-14,12.346686363220215
2011-11-15,12.453125
2011-11-16,12.360485076904297
2011-11-17,12.198858261108398
2011-11-18,12.181119918823242
2011-11-21,11.932766914367676
2011-11-22,11.895312309265137
2011-11-23,11.621341705322266
2011-11-25,11.710036277770996
2011-11-28,11.771139144897461
2011-11-29,11.834214210510254
2011-11-30,12.187034606933594
2011-12-01,12.202801704406738
2011-12-02,12.393989562988281
2011-12-05,12.433412551879883
2011-12-06,12.46297836303711
2011-12-07,12.565472602844238
2011-12-08,12.265871047973633
2011-12-09,12.598983764648438
2011-12-12,12.362456321716309
2011-12-13,12.157466888427734
2011-12-14,12.289525985717773
2011-12-15,12.561530113220215
2011-12-16,12.805944442749023
2011-12-19,12.608837127685547
2011-12-20,12.817768096923828
2011-12-21,12.938002586364746
2011-12-22,13.058239936828613
2011-12-23,13.030643463134766
2011-12-27,13.150875091552734
2011-12-28,13.072579383850098
2011-12-29,13.185561180114746
2011-12-30,13.21926212310791
2012-01-03,13.387751579284668
2012-01-04,13.239082336425781
2012-01-05,13.288640975952148
2012-01-06,13.286657333374023
2012-01-09,13.177639961242676
2012-01-10,13.320352554321289
2012-01-11,13.292601585388184
2012-01-12,13.181601524353027
2012-01-13,13.252959251403809
2012-01-17,13.128082275390625
2012-01-18,13.153851509094238
2012-01-19,13.17367172241211
2012-01-20,13.207367897033691
2012-01-23,13.207367897033691
2012-01-24,13.601827621459961
2012-01-25,13.502716064453125
2012-01-26,13.657327651977539
2012-01-27,13.950690269470215
2012-01-30,13.942763328552246
2012-01-31,13.903120040893555
2012-02-01,13.833739280700684
2012-02-02,13.712827682495117
2012-02-03,13.696971893310547
2012-02-06,13.578039169311523
2012-02-07,13.371891021728516
2012-02-08,13.439289093017578
2012-02-09,13.338196754455566
2012-02-10,13.268815994262695
2012-02-13,13.530467987060547
2012-02-14,13.419464111328125
2012-02-15,13.413517951965332
2012-02-16,13.677148818969727
2012-02-17,13.538395881652832
2012-02-21,13.248993873596191
2012-02-22,13.280710220336914
2012-02-23,13.350088119506836
2012-02-24,13.405586242675781
2012-02-27,13.361978530883789
2012-02-28,13.272783279418945
2012-02-29,13.18358325958252
2012-03-01,13.359996795654297
2012-03-02,13.23115348815918
2012-03-05,13.57606029510498
2012-03-06,13.433338165283203
2012-03-07,13.520554542541504
2012-03-08,13.354050636291504
2012-03-09,13.348101615905762
2012-03-12,13.383785247802734
2012-03-13,13.556238174438477
2012-03-14,13.53443431854248
2012-03-15,13.474968910217285
2012-03-16,13.635522842407227
2012-03-19,13.63155746459961
2012-03-20,13.687058448791504
2012-03-21,13.7048978805542
2012-03-22,13.45316219329834
2012-03-23,13.488844871520996
2012-03-26,13.60777759552002
2012-03-27,13.566145896911621
2012-03-28,13.667491912841797
2012-03-29,13.655523300170898
2012-03-30,13.912869453430176
2012-04-02,13.986684799194336
2012-04-03,13.978710174560547
2012-04-04,13.918855667114258
2012-04-05,13.801152229309082
2012-04-09,13.547792434692383
2012-04-10,13.220619201660156
2012-04-11,13.350290298461914
2012-04-12,13.450042724609375
2012-04-13,13.366253852844238
2012-04-16,13.571733474731445
2012-04-17,13.402161598205566
2012-04-18,13.422109603881836
2012-04-19,13.258522987365723
2012-04-20,13.390192985534668
2012-04-23,13.368245124816895
2012-04-24,13.601658821105957
2012-04-25,13.79516887664795
2012-04-26,13.83506965637207
2012-04-27,13.986684799194336
2012-04-30,13.952773094177246
2012-05-01,14.038553237915039
2012-05-02,14.102394104003906
2012-05-03,14.090423583984375
2012-05-04,13.926834106445312
2012-05-07,14.030574798583984
2012-05-08,13.960745811462402
2012-05-09,13.894914627075195
2012-05-10,13.78519344329834
2012-05-11,13.815114974975586
2012-05-14,13.64355182647705
2012-05-15,13.701406478881836
2012-05-16,13.386201858520508
2012-05-17,13.100920677185059
2012-05-18,13.039078712463379
2012-05-21,13.234583854675293
2012-05-22,13.274480819702148
2012-05-23,13.254532814025879
2012-05-24,13.370241165161133
2012-05-25,13.274480819702148
2012-05-29,13.346303939819336
2012-05-30,13.070996284484863
2012-05-31,13.138826370239258
2012-06-01,12.89344596862793
2012-06-04,13.051047325134277
2012-06-05,13.284457206726074
2012-06-06,13.515870094299316
2012-06-07,13.5098876953125
2012-06-08,13.64953327178955
2012-06-11,13.450042724609375
2012-06-12,13.54180908203125
2012-06-13,13.539814949035645
2012-06-14,13.707393646240234
2012-06-15,13.729334831237793
2012-06-18,13.711380958557129
2012-06-19,13.703399658203125
2012-06-20,13.661506652832031
2012-06-21,13.378220558166504
2012-06-22,13.180717468261719
2012-06-25,13.224611282348633
2012-06-26,13.224611282348633
2012-06-27,13.282444953918457
2012-06-28,13.414992332458496
2012-06-29,13.850773811340332
2012-07-02,13.991350173950195
2012-07-03,14.127909660339355
2012-07-05,14.013442039489746
2012-07-06,13.967257499694824
2012-07-09,13.969261169433594
2012-07-10,13.778481483459473
2012-07-11,13.710197448730469
2012-07-12,13.830692291259766
2012-07-13,14.093771934509277
2012-07-16,14.127909660339355
2012-07-17,14.579765319824219
2012-07-18,14.658085823059082
2012-07-19,14.533576965332031
2012-07-20,14.519515991210938
2012-07-23,14.491401672363281
2012-07-24,14.411073684692383
2012-07-25,14.49742603302002
2012-07-26,14.50345230102539
2012-07-27,14.539597511291504
2012-07-30,14.507466316223145
2012-07-31,14.443203926086426
2012-08-01,14.380953788757324
2012-08-02,14.314675331115723
2012-08-03,14.35886001586914
2012-08-06,14.380953788757324
2012-08-07,14.234346389770508
2012-08-08,14.051602363586426
2012-08-09,13.985326766967773
2012-08-10,13.969261169433594
2012-08-13,13.880902290344238
2012-08-14,13.87688159942627
2012-08-15,13.866840362548828
2012-08-16,13.888935089111328
2012-08-17,13.83470630645752
2012-08-20,13.756388664245605
2012-08-21,13.78852367401123
2012-08-22,13.698149681091309
2012-08-23,13.720242500305176
2012-08-24,13.708192825317383
2012-08-27,13.706181526184082
2012-08-28,13.82466983795166
2012-08-29,13.870856285095215
2012-08-30,13.786513328552246
2012-08-31,13.808600425720215
2012-09-04,13.826678276062012
2012-09-05,13.85680103302002
2012-09-06,13.878890037536621
2012-09-07,13.80659294128418
2012-09-10,13.860819816589355
2012-09-11,13.774458885192871
2012-09-12,13.756388664245605
2012-09-13,13.830692291259766
2012-09-14,13.98934268951416
2012-09-17,14.067667007446289
2012-09-18,14.065657615661621
2012-09-19,14.093771934509277
2012-09-20,13.933114051818848
2012-09-21,13.87688159942627
2012-09-24,13.953192710876465
2012-09-25,13.892946243286133
2012-09-26,13.860206604003906
2012-09-27,13.89254379272461
2012-09-28,13.767239570617676
2012-10-01,13.817768096923828
2012-10-02,13.922857284545898
2012-10-03,13.951153755187988
2012-10-04,13.813725471496582
2012-10-05,13.791491508483887
2012-10-08,13.591410636901855
2012-10-09,13.557053565979004
2012-10-10,13.437812805175781
2012-10-11,13.391331672668457
2012-10-12,13.32463550567627
2012-10-15,13.512591361999512
2012-10-16,13.575242042541504
2012-10-17,13.49035930633545
2012-10-18,13.617680549621582
2012-10-19,13.65810489654541
2012-10-22,13.637895584106445
2012-10-23,13.617680549621582
2012-10-24,13.62172794342041
2012-10-25,13.605561256408691
2012-10-26,13.474188804626465
2012-10-31,13.60758113861084
2012-11-01,13.716715812683105
2012-11-02,13.854143142700195
2012-11-05,13.749051094055176
2012-11-06,13.745009422302246
2012-11-07,13.75107192993164
2012-11-08,13.591410636901855
2012-11-09,13.476216316223145
2012-11-12,13.320596694946289
2012-11-13,13.166996002197266
2012-11-14,12.942662239074707
2012-11-15,12.898197174072266
2012-11-16,12.956808090209961
2012-11-19,12.989144325256348
2012-11-20,13.051799774169922
2012-11-21,13.001270294189453
2012-11-23,13.033607482910156
2012-11-26,13.100302696228027
2012-11-27,13.069985389709473
2012-11-28,13.150826454162598
2012-11-29,13.20539379119873
2012-11-30,13.266023635864258
2012-12-03,13.326659202575684
2012-12-04,13.379203796386719
2012-12-05,13.391331672668457
2012-12-06,13.51461410522461
2012-12-07,13.561097145080566
2012-12-10,13.605561256408691
2012-12-11,13.462069511413574
2012-12-12,13.504379272460938
2012-12-13,13.34366226196289
2012-12-14,13.400627136230469
2012-12-17,13.551176071166992
2012-12-18,13.565415382385254
2012-12-19,13.57558536529541
2012-12-20,13.701719284057617
2012-12-21,13.644754409790039
2012-12-24,13.624414443969727
2012-12-26,13.6040678024292
2012-12-27,13.63051700592041
2012-12-28,13.528797149658203
2012-12-31,13.68951416015625
2013-01-02,13.90312385559082
2013-01-03,13.970261573791504
2013-01-04,14.053669929504395
2013-01-07,14.149291038513184
2013-01-08,14.120809555053711
2013-01-09,14.255080223083496
2013-01-10,14.29576587677002
2013-01-11,14.409692764282227
2013-01-14,14.49310302734375
2013-01-15,14.550065994262695
2013-01-16,14.51547908782959
2013-01-17,14.578542709350586
2013-01-18,14.576512336730957
2013-01-22,14.690445899963379
2013-01-23,14.641613960266113
2013-01-24,14.60703182220459
2013-01-25,14.576512336730957
2013-01-28,14.631441116333008
2013-01-29,14.865396499633789
2013-01-30,14.79012680053711
2013-01-31,14.566338539123535
2013-02-01,14.653820037841797
2013-02-04,14.627375602722168
2013-02-05,14.592788696289062
2013-02-06,14.718918800354004
2013-02-07,14.810465812683105
2013-02-08,14.954907417297363
2013-02-11,14.983394622802734
2013-02-12,15.111563682556152
2013-02-13,15.113595008850098
2013-02-14,15.107497215270996
2013-02-15,15.036290168762207
2013-02-19,15.170559883117676
2013-02-20,15.227519989013672
2013-02-21,15.22548770904541
2013-02-22,15.349587440490723
2013-02-25,15.168524742126465
2013-02-26,15.197005271911621
2013-02-27,15.135973930358887
2013-02-28,14.991534233093262
2013-03-01,15.176658630371094
2013-03-04,15.186837196350098
2013-03-05,15.24786376953125
2013-03-06,15.180734634399414
2013-03-07,15.176658630371094
2013-03-08,15.015946388244629
2013-03-11,15.197005271911621
2013-03-12,15.097320556640625
2013-03-13,15.144116401672363
2013-03-14,15.335346221923828
2013-03-15,15.2417631149292
2013-03-18,15.207175254821777
2013-03-19,15.184803009033203
2013-03-20,15.217352867126465
2013-03-21,15.209211349487305
2013-03-22,15.182765007019043
2013-03-25,15.233622550964355
2013-03-26,15.4630126953125
2013-03-27,15.487586975097656
2013-03-28,15.72926139831543
2013-04-01,15.843952178955078
2013-04-02,15.993465423583984
2013-04-03,15.975030899047852
2013-04-04,16.239234924316406
2013-04-05,16.31296730041504
2013-04-08,16.411272048950195
2013-04-09,16.40102767944336
2013-04-10,16.429702758789062
2013-04-11,16.4768123626709
2013-04-12,16.415367126464844
2013-04-15,16.249473571777344
2013-04-16,16.413320541381836
2013-04-17,16.396936416625977
2013-04-18,16.460430145263672
2013-04-19,16.464519500732422
2013-04-22,16.425607681274414
2013-04-23,16.38259506225586
2013-04-24,16.49729347229004
2013-04-25,16.392841339111328
2013-04-26,16.315011978149414
2013-04-29,16.433801651000977
2013-04-30,16.64065170288086
2013-05-01,16.714387893676758
2013-05-02,16.867992401123047
2013-05-03,16.904865264892578
2013-05-06,17.119903564453125
2013-05-07,17.19978141784668
2013-05-08,17.11581802368164
2013-05-09,17.023653030395508
2013-05-10,17.09532928466797
2013-05-13,17.08099365234375
2013-05-14,17.132190704345703
2013-05-15,17.132190704345703
2013-05-16,17.085094451904297
2013-05-17,17.343149185180664
2013-05-20,17.33290672302246
2013-05-21,17.519287109375
2013-05-22,16.857755661010742
2013-05-23,16.534154891967773
2013-05-24,16.597646713256836
2013-05-28,16.618131637573242
2013-05-29,16.280193328857422
2013-05-30,16.081533432006836
2013-05-31,15.805037498474121
2013-06-03,16.03032684326172
2013-06-04,15.92177963256836
2013-06-05,15.917685508728027
2013-06-06,16.050811767578125
2013-06-07,16.243328094482422
2013-06-10,16.091768264770508
2013-06-11,16.03851890563965
2013-06-12,15.897204399108887
2013-06-13,16.130685806274414
2013-06-14,16.173688888549805
2013-06-17,16.17164421081543
2013-06-18,16.25766944885254
2013-06-19,15.759980201721191
2013-06-20,15.290969848632812
2013-06-21,15.346273422241211
2013-06-24,15.503969192504883
2013-06-25,15.721073150634766
2013-06-26,15.873620986938477
2013-06-27,16.162229537963867
2013-06-28,16.20140266418457
2013-07-01,16.38899803161621
2013-07-02,16.91468048095703
2013-07-03,16.68585777282715
2013-07-05,16.751821517944336
2013-07-08,16.62607192993164
2013-07-09,16.760066986083984
2013-07-10,16.863143920898438
2013-07-11,17.184741973876953
2013-07-12,16.93735694885254
2013-07-15,16.788930892944336
2013-07-16,16.788930892944336
2013-07-17,16.97859001159668
2013-07-18,17.040437698364258
2013-07-19,16.838411331176758
2013-07-22,17.040437698364258
2013-07-23,16.747695922851562
2013-07-24,16.405488967895508
2013-07-25,16.302413940429688
2013-07-26,16.211706161499023
2013-07-29,16.129249572753906
2013-07-30,16.063278198242188
2013-07-31,15.869495391845703
2013-08-01,15.782913208007812
2013-08-02,15.494300842285156
2013-08-05,15.391227722167969
2013-08-06,15.317018508911133
2013-08-07,15.275778770446777
2013-08-08,15.164459228515625
2013-08-09,15.453070640563965
2013-08-12,15.321141242980957
2013-08-13,14.962433815002441
2013-08-14,15.114988327026367
2013-08-15,14.863480567932129
2013-08-16,14.385210990905762
2013-08-19,14.100726127624512
2013-08-20,14.455304145812988
2013-08-21,14.49653148651123
2013-08-22,14.657328605651855
2013-08-23,14.855237007141113
2013-08-26,14.760401725769043
2013-08-27,14.822249412536621
2013-08-28,14.533638000488281
2013-08-29,14.41819953918457
2013-08-30,14.327491760253906
2013-09-03,14.228536605834961
2013-09-04,14.339859008789062
2013-09-05,14.199674606323242
2013-09-06,14.405823707580566
2013-09-09,14.537762641906738
2013-09-10,14.583112716674805
2013-09-11,14.463549613952637
2013-09-12,14.298625946044922
2013-09-13,14.257396697998047
2013-09-16,14.554253578186035
2013-09-17,14.574869155883789
2013-09-18,14.644962310791016
2013-09-19,14.871729850769043
2013-09-20,14.66557502746582
2013-09-23,14.533638000488281
2013-09-24,14.397578239440918
2013-09-25,14.480637550354004
2013-09-26,14.468175888061523
2013-09-27,14.380969047546387
2013-09-30,14.189942359924316
2013-10-01,14.277151107788086
2013-10-02,14.285456657409668
2013-10-03,13.90340518951416
2013-10-04,14.044595718383789
2013-10-07,14.115194320678711
2013-10-08,14.069513320922852
2013-10-09,14.119344711303711
2013-10-10,14.571996688842773
2013-10-11,14.750560760498047
2013-10-14,14.679961204528809
2013-10-15,14.663359642028809
2013-10-16,14.949896812438965
2013-10-17,15.3651704788208
2013-10-18,15.219828605651855
2013-10-21,15.215668678283691
2013-10-22,15.734766006469727
2013-10-23,15.838584899902344
2013-10-24,15.905030250549316
2013-10-25,16.046222686767578
2013-10-28,15.93824577331543
2013-10-29,15.738917350769043
2013-10-30,15.821969985961914
2013-10-31,15.776296615600586
2013-11-01,15.826127052307129
2013-11-04,15.88426685333252
2013-11-05,15.444071769714355
2013-11-06,15.444071769714355
2013-11-07,15.47729778289795
2013-11-08,15.120159149169922
2013-11-11,15.082784652709961
2013-11-12,14.99972915649414
2013-11-13,15.128463745117188
2013-11-14,15.261356353759766
2013-11-15,15.277962684631348
2013-11-18,15.04541015625
2013-11-19,14.991421699523926
2013-11-20,14.904212951660156
2013-11-21,14.91252326965332
2013-11-22,14.87099552154541
2013-11-25,14.908367156982422
2013-11-26,14.800394058227539
2013-11-27,14.970657348632812
2013-11-29,14.74225902557373
2013-12-02,14.713193893432617
2013-12-03,14.887606620788574
2013-12-04,15.008041381835938
2013-12-05,14.974814414978027
2013-12-06,14.991421699523926
2013-12-09,15.078634262084961
2013-12-10,15.11185359954834
2013-12-11,14.924978256225586
2013-12-12,14.754717826843262
2013-12-13,14.808699607849121
2013-12-16,14.891757011413574
2013-12-17,15.024641036987305
2013-12-18,15.028797149658203
2013-12-19,14.696574211120605
2013-12-20,14.866841316223145
2013-12-23,14.862690925598145
2013-12-24,15.05923843383789
2013-12-26,15.0299654006958
2013-12-27,15.009053230285645
2013-12-30,15.247429847717285
2013-12-31,15.151243209838867
2014-01-02,15.10942268371582
2014-01-03,15.44398307800293
2014-01-06,15.389615058898926
2014-01-07,15.5318021774292
2014-01-08,15.38125228881836
2014-01-09,15.31015682220459
2014-01-10,15.439798355102539
2014-01-13,15.356154441833496
2014-01-14,15.397982597351074
2014-01-15,15.389615058898926
2014-01-16,15.469069480895996
2014-01-17,15.326888084411621
2014-01-21,15.452345848083496
2014-01-22,15.519253730773926
2014-01-23,15.707444190979004
2014-01-24,15.515073776245117
2014-01-27,15.347796440124512
2014-01-28,15.933268547058105
2014-01-29,16.079639434814453
2014-01-30,16.234375
2014-01-31,16.439289093017578
2014-02-03,16.472740173339844
2014-02-04,16.506200790405273
2014-02-05,16.326374053955078
2014-02-06,16.347286224365234
2014-02-07,16.426740646362305
2014-02-10,16.58147430419922
2014-02-11,16.7529354095459
2014-02-12,16.69020652770996
2014-02-13,16.778024673461914
2014-02-14,16.744571685791016
2014-02-18,16.78220558166504
2014-02-19,16.669294357299805
2014-02-20,16.6232967376709
2014-02-21,16.68602180480957
2014-02-24,16.694385528564453
2014-02-25,16.765478134155273
2014-02-26,16.72365951538086
2014-02-27,16.72784423828125
2014-02-28,16.832395553588867
2014-03-03,16.91603660583496
2014-03-04,17.041492462158203
2014-03-05,17.108402252197266
2014-03-06,17.087491989135742
2014-03-07,17.0122127532959
2014-03-10,16.836572647094727
2014-03-11,16.911849975585938
2014-03-12,17.146039962768555
2014-03-13,17.28404426574707
2014-03-14,17.22968292236328
2014-03-17,17.263132095336914
2014-03-18,17.313318252563477
2014-03-19,16.911849975585938
2014-03-20,17.033124923706055
2014-03-21,17.108402252197266
2014-03-24,16.974578857421875
2014-03-25,17.0916748046875
2014-03-26,16.899869918823242
2014-03-27,16.963096618652344
2014-03-28,17.00525665283203
2014-03-31,17.135934829711914
2014-04-01,17.22024154663086
2014-04-02,17.1865234375
2014-04-03,17.16544532775879
2014-04-04,17.334062576293945
2014-04-07,17.20760154724121
2014-04-08,17.16965675354004
2014-04-09,17.203386306762695
2014-04-10,17.1865234375
2014-04-11,17.04741668701172
2014-04-14,17.31721305847168
2014-04-15,17.397296905517578
2014-04-16,17.32984733581543
2014-04-17,17.20760154724121
2014-04-21,17.34670639038086
2014-04-22,17.338279724121094
2014-04-23,17.393081665039062
2014-04-24,17.405729293823242
2014-04-25,17.41415786743164
2014-04-28,17.764041900634766
2014-04-29,17.62071418762207
2014-04-30,17.650222778320312
2014-05-01,17.83148765563965
2014-05-02,17.907371520996094
2014-05-05,18.012754440307617
2014-05-06,17.96217155456543
2014-05-07,18.202451705932617
2014-05-08,18.14765167236328
2014-05-09,18.17715835571289
2014-05-12,18.10127830505371
2014-05-13,17.96217155456543
2014-05-14,18.029617309570312
2014-05-15,18.0169734954834
2014-05-16,18.1434326171875
2014-05-19,18.16872787475586
2014-05-20,18.14765167236328
2014-05-21,18.02118682861328
2014-05-22,17.852567672729492
2014-05-23,18.012754440307617
2014-05-27,18.109712600708008
2014-05-28,17.97060203552246
2014-05-29,18.194019317626953
2014-05-30,18.438520431518555
2014-06-02,18.49332046508789
2014-06-03,18.52704429626465
2014-06-04,18.518613815307617
2014-06-05,18.64086151123047
2014-06-06,18.569196701049805
2014-06-09,18.21931266784668
2014-06-10,18.22774314880371
2014-06-11,18.33734893798828
2014-06-12,18.484888076782227
2014-06-13,18.708316802978516
2014-06-16,18.451169967651367
2014-06-17,18.34156608581543
2014-06-18,18.645076751708984
2014-06-19,18.88536262512207
2014-06-20,18.94015884399414
2014-06-23,18.931730270385742
2014-06-24,18.813692092895508
2014-06-25,18.82431411743164
2014-06-26,18.747879028320312
2014-06-27,18.794584274291992
2014-06-30,18.75212287902832
2014-07-01,18.820064544677734
2014-07-02,18.760618209838867
2014-07-03,18.586515426635742
2014-07-07,18.539804458618164
2014-07-08,18.875268936157227
2014-07-09,18.760618209838867
2014-07-10,18.91348648071289
2014-07-11,18.96019744873047
2014-07-14,18.985675811767578
2014-07-15,18.9177303314209
2014-07-16,19.09183120727539
2014-07-17,19.006906509399414
2014-07-18,19.09183120727539
2014-07-21,19.053621292114258
2014-07-22,18.82431411743164
2014-07-23,18.98992347717285
2014-07-24,18.934720993041992
2014-07-25,19.00265884399414
2014-07-28,19.11306381225586
2014-07-29,19.06635856628418
2014-07-30,19.04937171936035
2014-07-31,18.807331085205078
2014-08-01,18.675687789916992
2014-08-04,18.692678451538086
2014-08-05,18.675687789916992
2014-08-06,18.73089599609375
2014-08-07,18.705408096313477
2014-08-08,18.71390724182129
2014-08-11,18.722396850585938
2014-08-12,18.74363136291504
2014-08-13,18.98992347717285
2014-08-14,18.9984130859375
2014-08-15,18.985675811767578
2014-08-18,19.253198623657227
2014-08-19,19.19374656677246
2014-08-20,19.20648765563965
2014-08-21,19.155532836914062
2014-08-22,19.11306381225586
2014-08-25,19.1173152923584
2014-08-26,19.172517776489258
2014-08-27,19.253198623657227
2014-08-28,19.28717041015625
2014-08-29,19.401824951171875
2014-09-02,19.406070709228516
2014-09-03,19.41456413269043
2014-09-04,19.35086441040039
2014-09-05,19.59715461730957
2014-09-08,19.4952449798584
2014-09-09,19.39333152770996
2014-09-10,18.981428146362305
2014-09-11,18.985675811767578
2014-09-12,18.548294067382812
2014-09-15,18.221323013305664
2014-09-16,18.429393768310547
2014-09-17,18.48459815979004
2014-09-18,18.140644073486328
2014-09-19,18.051467895507812
2014-09-22,17.94106101989746
2014-09-23,17.911338806152344
2014-09-24,17.832162857055664
2014-09-25,17.91775894165039
2014-09-26,18.200191497802734
2014-09-29,18.247268676757812
2014-09-30,18.127450942993164
2014-10-01,18.29861831665039
2014-10-02,18.234434127807617
2014-10-03,18.277223587036133
2014-10-06,18.392765045166016
2014-10-07,18.307178497314453
2014-10-08,18.679485321044922
2014-10-09,18.773632049560547
2014-10-10,18.628137588500977
2014-10-13,18.72227668762207
2014-10-14,19.043228149414062
2014-10-15,18.902008056640625
2014-10-16,18.91057014465332
2014-10-17,19.09458351135254
2014-10-20,19.257200241088867
2014-10-21,19.85202980041504
2014-10-22,19.99325180053711
2014-10-23,20.258567810058594
2014-10-24,20.190105438232422
2014-10-27,20.292810440063477
2014-10-28,20.35700035095215
2014-10-29,20.36556053161621
2014-10-30,20.566686630249023
2014-10-31,21.01174545288086
2014-11-03,21.289901733398438
2014-11-04,21.247112274169922
2014-11-05,21.41400718688965
2014-11-06,21.12301254272461
2014-11-07,20.844850540161133
2014-11-10,21.212879180908203
2014-11-11,20.84912872314453
2014-11-12,20.72503089904785
2014-11-13,20.776376724243164
2014-11-14,20.489662170410156
2014-11-17,20.63943862915039
2014-11-18,20.635162353515625
2014-11-19,20.29709243774414
2014-11-20,20.34416389465332
2014-11-21,20.558135986328125
2014-11-24,20.70791244506836
2014-11-25,20.84912872314453
2014-11-26,21.11017417907715
2014-11-28,21.229991912841797
2014-12-01,21.17008399963379
2014-12-02,21.25567054748535
2014-12-03,21.3027400970459
2014-12-04,21.48247718811035
2014-12-05,21.37977409362793
2014-12-08,21.68360137939453
2014-12-09,21.640811920166016
2014-12-10,21.632253646850586
2014-12-11,21.589460372924805
2014-12-12,21.294187545776367
2014-12-15,21.050262451171875
2014-12-16,21.071659088134766
2014-12-17,21.495315551757812
2014-12-18,21.58090591430664
2014-12-19,21.555227279663086
2014-12-22,22.120105743408203
2014-12-23,22.05335235595703
2014-12-24,22.00167465209961
2014-12-26,22.35049819946289
2014-12-29,22.574432373046875
2014-12-30,22.33757972717285
2014-12-31,22.199769973754883
2015-01-02,22.548601150512695
2015-01-05,22.583049774169922
2015-01-06,23.017995834350586
2015-01-07,23.526161193847656
2015-01-08,23.6596622467041
2015-01-09,23.577835083007812
2015-01-12,23.939579010009766
2015-01-13,23.92234992980957
2015-01-14,24.24534034729004
2015-01-15,24.081695556640625
2015-01-16,24.24534034729004
2015-01-20,23.879291534423828
2015-01-21,23.89651870727539
2015-01-22,24.271177291870117
2015-01-23,24.03432273864746
2015-01-26,24.24103355407715
2015-01-27,24.249649047851562
2015-01-28,24.120450973510742
2015-01-29,24.137680053710938
2015-01-30,23.569229125976562
2015-02-02,23.65535545349121
2015-02-03,23.89651870727539
2015-02-04,23.76301383972168
2015-02-05,24.20657730102539
2015-02-06,23.336679458618164
2015-02-09,23.1041316986084
2015-02-10,23.009389877319336
2015-02-11,22.828514099121094
2015-02-12,23.37973976135254
2015-02-13,23.12996482849121
2015-02-17,23.241939544677734
2015-02-18,23.56492042541504
2015-02-19,23.12996482849121
2015-02-20,23.40988540649414
2015-02-23,23.577835083007812
2015-02-24,23.082595825195312
2015-02-25,23.138580322265625
2015-02-26,23.125659942626953
2015-02-27,23.198875427246094
2015-03-02,23.448638916015625
2015-03-03,23.40988540649414
2015-03-04,23.147193908691406
2015-03-05,23.211790084838867
2015-03-06,22.46246910095215
2015-03-09,22.66917610168457
2015-03-10,22.570133209228516
2015-03-11,22.828514099121094
2015-03-12,23.405576705932617
2015-03-13,23.51755142211914
2015-03-16,23.887901306152344
2015-03-17,23.887901306152344
2015-03-18,24.391759872436523
2015-03-19,24.305627822875977
2015-03-20,24.813791275024414
2015-03-23,24.607078552246094
2015-03-24,24.32285499572754
2015-03-25,23.900171279907227
2015-03-26,23.752777099609375
2015-03-27,23.891498565673828
2015-03-30,24.073579788208008
2015-03-31,23.8221378326416
2015-04-01,23.683406829833984
2015-04-02,23.904504776000977
2015-04-06,24.090917587280273
2015-04-07,23.627052307128906
2015-04-08,23.54901885986328
2015-04-09,23.002775192260742
2015-04-10,22.929075241088867
2015-04-13,22.911733627319336
2015-04-14,22.998437881469727
2015-04-15,22.794687271118164
2015-04-16,22.907398223876953
2015-04-17,22.716646194458008
2015-04-20,22.868391036987305
2015-04-21,23.115489959716797
2015-04-22,23.648727416992188
2015-04-23,23.774446487426758
2015-04-24,23.913175582885742
2015-04-27,23.830806732177734
2015-04-28,23.735429763793945
2015-04-29,23.39295196533203
2015-04-30,22.89872932434082
2015-05-01,23.076473236083984
2015-05-04,23.124162673950195
2015-05-05,22.642953872680664
2015-05-06,22.707977294921875
2015-05-07,23.21520233154297
2015-05-08,23.44063377380371
2015-05-11,23.115489959716797
2015-05-12,23.176183700561523
2015-05-13,22.859710693359375
2015-05-14,23.431964874267578
2015-05-15,23.609710693359375
2015-05-18,23.536008834838867
2015-05-19,23.57069206237793
2015-05-20,23.50999641418457
2015-05-21,23.301904678344727
2015-05-22,23.431964874267578
2015-05-26,23.371273040771484
2015-05-27,23.73110008239746
2015-05-28,23.869823455810547
2015-05-29,23.752777099609375
2015-06-01,23.97820472717285
2015-06-02,23.479650497436523
2015-06-03,23.046131134033203
2015-06-04,23.119831085205078
2015-06-05,22.84670639038086
2015-06-08,22.864049911499023
2015-06-09,22.625608444213867
2015-06-10,22.946420669555664
2015-06-11,22.976760864257812
2015-06-12,22.98976707458496
2015-06-15,23.011449813842773
2015-06-16,23.189193725585938
2015-06-17,23.46664810180664
2015-06-18,23.78745460510254
2015-06-19,23.956525802612305
2015-06-22,23.51433563232422
2015-06-23,23.184856414794922
2015-06-24,23.1171875
2015-06-25,22.94691276550293
2015-06-26,23.169572830200195
2015-06-29,22.920726776123047
2015-06-30,22.955652236938477
2015-07-01,23.641090393066406
2015-07-02,23.80262565612793
2015-07-06,24.103870391845703
2015-07-07,24.549179077148438
2015-07-08,24.361452102661133
2015-07-09,24.182453155517578
2015-07-10,24.509891510009766
2015-07-13,24.47933006286621
2015-07-14,24.4924259185791
2015-07-15,24.557918548583984
2015-07-16,24.811138153076172
2015-07-17,24.715089797973633
2015-07-20,24.81986427307129
2015-07-21,24.93337631225586
2015-07-22,25.05999183654785
2015-07-23,24.83732795715332
2015-07-24,24.82859992980957
2015-07-27,24.82859992980957
2015-07-28,24.91591453552246
2015-07-29,25.06871795654297
2015-07-30,25.081817626953125
2015-07-31,25.269550323486328
2015-08-03,25.42672348022461
2015-08-04,25.273914337158203
2015-08-05,25.260822296142578
2015-08-06,25.225889205932617
2015-08-07,25.3088436126709
2015-08-10,25.195329666137695
2015-08-11,25.369966506958008
2015-08-12,25.269550323486328
2015-08-13,25.365596771240234
2015-08-14,25.706134796142578
2015-08-17,25.885133743286133
2015-08-18,25.95499038696289
2015-08-19,25.858938217163086
2015-08-20,25.662477493286133
2015-08-21,25.238988876342773
2015-08-24,24.35272216796875
2015-08-25,23.837547302246094
2015-08-26,24.632131576538086
2015-08-27,24.802404403686523
2015-08-28,24.867891311645508
2015-08-31,24.34398651123047
2015-09-01,24.034013748168945
2015-09-02,24.116960525512695
2015-09-03,24.19554901123047
2015-09-04,23.87684440612793
2015-09-08,24.038381576538086
2015-09-09,23.702205657958984
2015-09-10,23.837547302246094
2015-09-11,24.52298927307129
2015-09-14,24.448768615722656
2015-09-15,24.776206970214844
2015-09-16,24.937742233276367
2015-09-17,25.16476821899414
2015-09-18,25.17786407470703
2015-09-21,25.417991638183594
2015-09-22,25.151670455932617
2015-09-23,25.514219284057617
2015-09-24,25.246150970458984
2015-09-25,25.37359619140625
2015-09-28,25.10113525390625
2015-09-29,25.48784637451172
2015-09-30,25.738330841064453
2015-10-01,26.05912971496582
2015-10-02,26.173381805419922
2015-10-05,26.546911239624023
2015-10-06,26.125043869018555
2015-10-07,26.35795021057129
2015-10-08,26.38871192932129
2015-10-09,26.494178771972656
2015-10-12,26.762239456176758
2015-10-13,26.72269058227539
2015-10-14,26.52054786682129
2015-10-15,26.898468017578125
2015-10-16,27.065458297729492
2015-10-19,27.513694763183594
2015-10-20,27.24563217163086
2015-10-21,27.122587203979492
2015-10-22,27.113800048828125
2015-10-23,27.02151107788086
2015-10-26,27.09182357788086
2015-10-27,27.513694763183594
2015-10-28,27.09621810913086
2015-10-29,26.920440673828125
2015-10-30,26.577672958374023
2015-11-02,26.788606643676758
2015-11-03,26.283246994018555
2015-11-04,26.33597755432129
2015-11-05,26.445837020874023
2015-11-06,25.769092559814453
2015-11-09,25.769092559814453
2015-11-10,26.010787963867188
2015-11-11,26.164596557617188
2015-11-12,26.028362274169922
2015-11-13,25.826217651367188
2015-11-16,26.30961036682129
2015-11-17,26.41507911682129
2015-11-18,26.494178771972656
2015-11-19,26.608436584472656
2015-11-20,27.03030014038086
2015-11-23,27.126977920532227
2015-11-24,26.810575485229492
2015-11-25,27.131376266479492
2015-11-27,27.447772979736328
2015-11-30,27.41261863708496
2015-12-01,27.97511100769043
2015-12-02,27.531272888183594
2015-12-03,27.140161514282227
2015-12-04,27.658706665039062
2015-12-07,27.368671417236328
2015-12-08,27.351099014282227
2015-12-09,27.17971420288086
2015-12-10,27.201690673828125
2015-12-11,27.337913513183594
2015-12-14,27.605976104736328
2015-12-15,27.94874382019043
2015-12-16,28.528810501098633
2015-12-17,28.862791061401367
2015-12-18,28.682615280151367
2015-12-21,28.7880802154541
2015-12-22,28.717775344848633
2015-12-23,28.949817657470703
2015-12-24,29.011690139770508
2015-12-28,29.23267936706543
2015-12-29,29.528806686401367
2015-12-30,29.49344825744629
2015-12-31,29.46693229675293
2016-01-04,28.834897994995117
2016-01-05,29.35201644897461
2016-01-06,29.378538131713867
2016-01-07,28.985172271728516
2016-01-08,28.680206298828125
2016-01-11,29.144290924072266
2016-01-12,29.05147361755371
2016-01-13,28.856992721557617
2016-01-14,28.64484405517578
2016-01-15,28.67578125
2016-01-19,29.206161499023438
2016-01-20,28.95423126220703
2016-01-21,28.680206298828125
2016-01-22,29.612783432006836
2016-01-25,29.732120513916016
2016-01-26,29.113338470458984
2016-01-27,28.596227645874023
2016-01-28,28.19844627380371
2016-01-29,29.13544273376465
2016-02-01,29.798419952392578
2016-02-02,29.639307022094727
2016-02-03,29.961950302124023
2016-02-04,29.612783432006836
2016-02-05,29.259199142456055
2016-02-08,28.445955276489258
2016-02-09,28.481311798095703
2016-02-10,29.144290924072266
2016-02-11,29.0382080078125
2016-02-12,29.184066772460938
2016-02-16,29.798419952392578
2016-02-17,29.953115463256836
2016-02-18,30.134328842163086
2016-02-19,30.421613693237305
2016-02-22,30.806127548217773
2016-02-23,30.987354278564453
2016-02-24,30.726577758789062
2016-02-25,31.619375228881836
2016-02-26,31.14204978942871
2016-02-29,31.00945472717285
2016-03-01,31.632646560668945
2016-03-02,31.690095901489258
2016-03-03,31.8536376953125
2016-03-04,31.314416885375977
2016-03-07,31.358610153198242
2016-03-08,31.57076644897461
2016-03-09,31.782920837402344
2016-03-10,31.491209030151367
2016-03-11,32.056941986083984
2016-03-14,31.906673431396484
2016-03-15,32.12766647338867
2016-03-16,32.39727020263672
2016-03-17,32.29561996459961
2016-03-18,31.849214553833008
2016-03-21,31.734304428100586
2016-03-22,31.674270629882812
2016-03-23,31.220767974853516
2016-03-24,31.349712371826172
2016-03-28,31.40751075744629
2016-03-29,31.976608276367188
2016-03-30,31.767641067504883
2016-03-31,32.33675003051758
2016-04-01,32.32341003417969
2016-04-04,32.19892120361328
2016-04-05,31.843238830566406
2016-04-06,31.669832229614258
2016-04-07,31.612028121948242
2016-04-08,31.638713836669922
2016-04-11,31.411956787109375
2016-04-12,31.536441802978516
2016-04-13,31.265226364135742
2016-04-14,30.696125030517578
2016-04-15,31.376386642456055
2016-04-18,31.554235458374023
2016-04-19,32.33675003051758
2016-04-20,31.389726638793945
2016-04-21,30.518285751342773
2016-04-22,30.749479293823242
2016-04-25,31.18519401550293
2016-04-26,31.251893997192383
2016-04-27,31.238557815551758
2016-04-28,31.056259155273438
2016-04-29,30.45159149169922
2016-05-02,31.323028564453125
2016-05-03,31.469751358032227
2016-05-04,32.02107238769531
2016-05-05,32.05219268798828
2016-05-06,32.6879997253418
2016-05-09,33.55055236816406
2016-05-10,33.137046813964844
2016-05-11,32.55905532836914
2016-05-12,32.7413444519043
2016-05-13,32.63909149169922
2016-05-16,32.78136444091797
2016-05-17,32.30118179321289
2016-05-18,32.26561737060547
2016-05-19,32.04774856567383
2016-05-20,32.18114471435547
2016-05-23,32.25672149658203
2016-05-24,32.519039154052734
2016-05-25,32.314517974853516
2016-05-26,32.40789794921875
2016-05-27,32.61686325073242
2016-05-31,32.59017562866211
2016-06-01,32.808048248291016
2016-06-02,32.754695892333984
2016-06-03,32.834716796875
2016-06-06,32.06999588012695
2016-06-07,32.05664825439453
2016-06-08,32.02107238769531
2016-06-09,32.412330627441406
2016-06-10,32.345645904541016
2016-06-13,32.41678237915039
2016-06-14,32.243385314941406
2016-06-15,32.57239532470703
2016-06-16,32.910301208496094
2016-06-17,32.6568717956543
2016-06-20,32.57239532470703
2016-06-21,32.848052978515625
2016-06-22,32.957611083984375
2016-06-23,32.953147888183594
2016-06-24,33.58367919921875
2016-06-27,33.784912109375
2016-06-28,34.94312286376953
2016-06-29,35.359004974365234
2016-06-30,35.79724884033203
2016-07-01,35.63178634643555
2016-07-05,36.09239196777344
2016-07-06,36.05661392211914
2016-07-07,35.79277801513672
2016-07-08,35.90904235839844
2016-07-11,35.962711334228516
2016-07-12,35.73464584350586
2016-07-13,36.087921142578125
2016-07-14,35.80172348022461
2016-07-15,35.962711334228516
2016-07-18,36.22207260131836
2016-07-19,36.369651794433594
2016-07-20,35.9448127746582
2016-07-21,35.980594635009766
2016-07-22,36.14605712890625
2016-07-25,36.14605712890625
2016-07-26,36.275733947753906
2016-07-27,36.06555938720703
2016-07-28,36.557464599609375
2016-07-29,36.776588439941406
2016-08-01,37.1879997253418
2016-08-02,36.48591613769531
2016-08-03,36.26232147216797
2016-08-04,35.79277801513672
2016-08-05,35.92245864868164
2016-08-08,36.02978515625
2016-08-09,36.15052032470703
2016-08-10,36.50828552246094
2016-08-11,35.63178634643555
2016-08-12,35.77488327026367
2016-08-15,35.57365798950195
2016-08-16,34.563018798828125
2016-08-17,34.92971420288086
2016-08-18,34.96101760864258
2016-08-19,34.88051986694336
2016-08-22,35.095176696777344
2016-08-23,34.9923095703125
2016-08-24,34.91630172729492
2016-08-25,35.13093948364258
2016-08-26,34.70164108276367
2016-08-29,34.70164108276367
2016-08-30,34.78660202026367
2016-08-31,34.67033767700195
2016-09-01,34.83580017089844
2016-09-02,35.265098571777344
2016-09-06,35.57365798950195
2016-09-07,35.75252914428711
2016-09-08,35.48869705200195
2016-09-09,34.545127868652344
2016-09-12,34.808963775634766
2016-09-13,34.41097640991211
2016-09-14,34.446746826171875
2016-09-15,34.276817321777344
2016-09-16,34.102413177490234
2016-09-19,34.57643127441406
2016-09-20,34.589847564697266
2016-09-21,35.05491638183594
2016-09-22,35.578128814697266
2016-09-23,35.75252914428711
2016-09-26,35.64073944091797
2016-09-27,35.22038269042969
2016-09-28,35.35301208496094
2016-09-29,35.31254577636719
2016-09-30,34.701072692871094
2016-10-03,33.96821212768555
2016-10-04,33.40169143676758
2016-10-05,32.13829040527344
2016-10-06,32.079833984375
2016-10-07,32.147274017333984
2016-10-10,32.12929153442383
2016-10-11,32.079833984375
2016-10-12,33.14091491699219
2016-10-13,33.71192932128906
2016-10-14,33.419681549072266
2016-10-17,33.509605407714844
2016-10-18,33.61301040649414
2016-10-19,33.577049255371094
2016-10-20,33.63100051879883
2016-10-21,33.59953689575195
2016-10-24,33.75688934326172
2016-10-25,33.70743179321289
2016-10-26,33.622005462646484
2016-10-27,32.76773452758789
2016-10-28,33.3432502746582
2016-10-31,34.09859085083008
2016-11-01,33.347747802734375
2016-11-02,33.11394119262695
2016-11-03,32.64634704589844
2016-11-04,32.39905548095703
2016-11-07,32.4530143737793
2016-11-08,32.89364242553711
2016-11-09,31.967435836791992
2016-11-10,30.690534591674805
2016-11-11,30.474712371826172
2016-11-14,30.996274948120117
2016-11-15,30.627582550048828
2016-11-16,30.690534591674805
2016-11-17,30.146495819091797
2016-11-18,30.30836296081543
2016-11-21,30.375804901123047
2016-11-22,30.879377365112305
2016-11-23,30.578134536743164
2016-11-25,31.072696685791016
2016-11-28,31.27053451538086
2016-11-29,31.769611358642578
2016-11-30,31.216581344604492
2016-12-01,31.059219360351562
2016-12-02,31.459373474121094
2016-12-05,31.221078872680664
2016-12-06,31.10866928100586
2016-12-07,31.729135513305664
2016-12-08,31.85503387451172
2016-12-09,31.594253540039062
2016-12-12,31.819059371948242
2016-12-13,31.742630004882812
2016-12-14,31.198596954345703
2016-12-15,31.36944580078125
2016-12-16,31.917970657348633
2016-12-19,32.12929153442383
2016-12-20,32.120296478271484
2016-12-21,31.60325050354004
2016-12-22,31.55828857421875
2016-12-23,31.890993118286133
2016-12-27,31.729135513305664
2016-12-28,31.803773880004883
2016-12-29,32.26515579223633
2016-12-30,32.61344909667969
2017-01-03,32.27420425415039
2017-01-04,32.595367431640625
2017-01-05,33.13364028930664
2017-01-06,33.400516510009766
2017-01-09,33.03865432739258
2017-01-10,32.64059829711914
2017-01-11,32.44609451293945
2017-01-12,32.803443908691406
2017-01-13,32.839622497558594
2017-01-17,33.07484817504883
2017-01-18,32.98436737060547
2017-01-19,32.889381408691406
2017-01-20,33.269344329833984
2017-01-23,33.91618347167969
2017-01-24,34.05641174316406
2017-01-25,33.50455856323242
2017-01-26,33.459320068359375
2017-01-27,33.4774169921875
2017-01-30,33.35980987548828
2017-01-31,33.44575881958008
2017-02-01,32.844146728515625
2017-02-02,33.35076904296875
2017-02-03,33.42313766479492
2017-02-06,33.400516510009766
2017-02-07,33.49099349975586
2017-02-08,34.05641174316406
2017-02-09,34.124267578125
2017-02-10,34.210205078125
2017-02-13,34.31424331665039
2017-02-14,34.22377395629883
2017-02-15,34.232818603515625
2017-02-16,34.436370849609375
2017-02-17,34.60374069213867
2017-02-21,34.888710021972656
2017-02-22,34.93846893310547
2017-02-23,35.4405632019043
2017-02-24,35.924560546875
2017-02-27,36.028602600097656
2017-02-28,36.01503372192383
2017-03-01,35.86575698852539
2017-03-02,36.046695709228516
2017-03-03,35.94717788696289
2017-03-06,35.94265365600586
2017-03-07,35.66672134399414
2017-03-08,35.05607604980469
2017-03-09,34.63539123535156
2017-03-10,34.3640022277832
2017-03-13,34.47707748413086
2017-03-14,34.50422286987305
2017-03-15,35.047027587890625
2017-03-16,35.02893829345703
2017-03-17,35.092262268066406
2017-03-20,35.123924255371094
2017-03-21,35.01084518432617
2017-03-22,35.21438980102539
2017-03-23,35.77529525756836
2017-03-24,35.38176345825195
2017-03-27,35.09678268432617
2017-03-28,35.092262268066406
2017-03-29,34.945682525634766
2017-03-30,34.959346771240234
2017-03-31,35.07769775390625
2017-04-03,35.423641204833984
2017-04-04,35.655792236328125
2017-04-05,35.85153579711914
2017-04-06,36.16561508178711
2017-04-07,36.20658493041992
2017-04-10,36.388675689697266
2017-04-11,36.25666427612305
2017-04-12,36.247554779052734
2017-04-13,36.12009811401367
2017-04-17,36.365909576416016
2017-04-18,37.1898193359375
2017-04-19,36.957672119140625
2017-04-20,37.05781936645508
2017-04-21,37.094234466552734
2017-04-24,36.7027587890625
2017-04-25,37.267208099365234
2017-04-26,36.734622955322266
2017-04-27,36.94401168823242
2017-04-28,36.83020782470703
2017-05-01,37.00319290161133
2017-05-02,36.93946838378906
2017-05-03,36.71186447143555
2017-05-04,37.226234436035156
2017-05-05,37.36280059814453
2017-05-08,37.253543853759766
2017-05-09,37.107879638671875
2017-05-10,37.5812873840332
2017-05-11,37.46749496459961
2017-05-12,37.412872314453125
2017-05-15,37.390106201171875
2017-05-16,37.18071746826172
2017-05-17,37.51301574707031
2017-05-18,38.11842727661133
2017-05-19,38.02739334106445
2017-05-22,38.3187141418457
2017-05-23,38.75571060180664
2017-05-24,39.09709930419922
2017-05-25,38.67831802368164
2017-05-26,38.31416320800781
2017-05-30,38.259544372558594
2017-05-31,38.418861389160156
2017-06-01,38.43707275390625
2017-06-02,39.2791862487793
2017-06-05,39.30194091796875
2017-06-06,38.814884185791016
2017-06-07,39.09709930419922
2017-06-08,38.514461517333984
2017-06-09,38.56452178955078
2017-06-12,38.64646530151367
2017-06-13,38.7602653503418
2017-06-14,38.78757095336914
2017-06-15,39.08345031738281
2017-06-16,39.265525817871094
2017-06-19,39.53865432739258
2017-06-20,39.62059020996094
2017-06-21,39.53865432739258
2017-06-22,39.33380889892578
2017-06-23,39.68431854248047
2017-06-26,39.38387680053711
2017-06-27,39.17904281616211
2017-06-28,39.241981506347656
2017-06-29,39.20536804199219
2017-06-30,39.525814056396484
2017-07-03,39.37931823730469
2017-07-05,39.4937744140625
2017-07-06,39.026824951171875
2017-07-07,38.90322494506836
2017-07-10,38.72010803222656
2017-07-11,38.820823669433594
2017-07-12,39.20536804199219
2017-07-13,38.6743278503418
2017-07-14,38.985633850097656
2017-07-17,39.51666259765625
2017-07-18,39.37017059326172
2017-07-19,40.029396057128906
2017-07-20,40.061439514160156
2017-07-21,40.015663146972656
2017-07-24,39.80507278442383
2017-07-25,39.502933502197266
2017-07-26,39.87832260131836
2017-07-27,39.80507278442383
2017-07-28,40.139259338378906
2017-07-31,39.96530532836914
2017-08-01,40.11637496948242
2017-08-02,40.18961715698242
2017-08-03,40.2033576965332
2017-08-04,39.585323333740234
2017-08-07,39.521244049072266
2017-08-08,39.7501335144043
2017-08-09,39.47088623046875
2017-08-10,39.36558532714844
2017-08-11,39.43883514404297
2017-08-14,39.937835693359375
2017-08-15,39.99734878540039
2017-08-16,39.942413330078125
2017-08-17,40.006507873535156
2017-08-18,39.99276351928711
2017-08-21,40.22624969482422
2017-08-22,40.427669525146484
2017-08-23,40.812217712402344
2017-08-24,40.68403625488281
2017-08-25,40.606204986572266
2017-08-28,40.55127716064453
2017-08-29,40.418514251708984
2017-08-30,40.66572189331055
2017-08-31,40.812217712402344
2017-09-01,41.10520553588867
2017-09-05,41.25170135498047
2017-09-06,41.347835540771484
2017-09-07,41.389034271240234
2017-09-08,39.475467681884766
2017-09-11,40.71150588989258
2017-09-12,39.68605041503906
2017-09-13,39.791343688964844
2017-09-14,40.19419479370117
2017-09-15,40.36357879638672
2017-09-18,40.33152770996094
2017-09-19,40.22624969482422
2017-09-20,40.18503952026367
2017-09-21,39.864585876464844
2017-09-22,39.415950775146484
2017-09-25,39.26030349731445
2017-09-26,39.15500259399414
2017-09-27,38.6743278503418
2017-09-28,38.82972717285156
2017-09-29,39.175071716308594
2017-10-02,39.322410583496094
2017-10-03,39.36845397949219
2017-10-04,39.819698333740234
2017-10-05,39.92560577392578
2017-10-06,39.82429885864258
2017-10-09,40.19266128540039
2017-10-10,40.32158279418945
2017-10-11,40.18345260620117
2017-10-12,40.44130325317383
2017-10-13,40.436702728271484
2017-10-16,39.97624588012695
2017-10-17,40.280147552490234
2017-10-18,40.19266128540039
2017-10-19,40.413673400878906
2017-10-20,40.238704681396484
2017-10-23,40.04991912841797
2017-10-24,40.436702728271484
2017-10-25,40.23410415649414
2017-10-26,40.36762237548828
2017-10-27,40.56562042236328
2017-10-30,40.4090690612793
2017-10-31,40.740596771240234
2017-11-01,40.95700454711914
2017-11-02,41.02607345581055
2017-11-03,41.394432067871094
2017-11-06,41.25630187988281
2017-11-07,41.14579391479492
2017-11-08,41.302345275878906
2017-11-09,41.348388671875
2017-11-10,41.17340850830078
2017-11-13,41.70293426513672
2017-11-14,41.64767837524414
2017-11-15,41.01225662231445
2017-11-16,41.472713470458984
2017-11-17,41.01686477661133
2017-11-20,41.10435104370117
2017-11-21,41.744380950927734
2017-11-22,41.352989196777344
2017-11-24,41.62926483154297
2017-11-27,41.422061920166016
2017-11-28,41.35759735107422
2017-11-29,41.27471160888672
2017-11-30,41.583213806152344
2017-12-01,41.53256607055664
2017-12-04,41.96078872680664
2017-12-05,41.63847351074219
2017-12-06,41.776615142822266
2017-12-07,42.1035270690918
2017-12-08,42.02064514160156
2017-12-11,42.02064514160156
2017-12-12,42.09431838989258
2017-12-13,42.01143264770508
2017-12-14,41.86869812011719
2017-12-15,42.09892272949219
2017-12-18,42.22785186767578
2017-12-19,41.118167877197266
2017-12-20,40.86030578613281
2017-12-21,40.395259857177734
2017-12-22,40.648502349853516
2017-12-26,40.703758239746094
2017-12-27,40.93397903442383
2017-12-28,41.187469482421875
2017-12-29,41.21524429321289
2018-01-02,40.92356872558594
2018-01-03,40.803184509277344
2018-01-04,40.45132064819336
2018-01-05,40.34482955932617
2018-01-08,40.45132064819336
2018-01-09,40.224449157714844
2018-01-10,39.46514892578125
2018-01-11,39.358665466308594
2018-01-12,38.82623291015625
2018-01-16,38.99754333496094
2018-01-17,39.44200134277344
2018-01-18,39.168846130371094
2018-01-19,39.52534866333008
2018-01-22,39.5670166015625
2018-01-23,40.51613998413086
2018-01-24,39.886470794677734
2018-01-25,39.95128631591797
2018-01-26,39.8123893737793
2018-01-29,39.25217819213867
2018-01-30,39.45589828491211
2018-01-31,39.96518325805664
2018-02-01,39.19198989868164
2018-02-02,39.238285064697266
2018-02-05,38.31694793701172
2018-02-06,38.164154052734375
2018-02-07,38.15952682495117
2018-02-08,37.75672912597656
2018-02-09,38.17341232299805
2018-02-12,38.224342346191406
2018-02-13,38.7197380065918
2018-02-14,38.63177490234375
2018-02-15,39.502197265625
2018-02-16,39.585533142089844
2018-02-20,39.03920364379883
2018-02-21,38.17341232299805
2018-02-22,39.094764709472656
2018-02-23,39.807769775390625
2018-02-26,39.6966438293457
2018-02-27,39.22439956665039
2018-02-28,39.17347717285156
2018-03-01,39.09013366699219
2018-03-02,38.70585250854492
2018-03-05,38.77067565917969
2018-03-06,39.21977233886719
2018-03-07,39.14105987548828
2018-03-08,39.18736267089844
2018-03-09,39.664241790771484
2018-03-12,39.79387664794922
2018-03-13,39.6225700378418
2018-03-14,39.65034866333008
2018-03-15,39.830909729003906
2018-03-16,39.79387664794922
2018-03-19,39.6966438293457
2018-03-20,39.516082763671875
2018-03-21,39.43274688720703
2018-03-22,39.07624435424805
2018-03-23,38.7197380065918
2018-03-26,39.275333404541016
2018-03-27,39.75220489501953
2018-03-28,40.63755416870117
2018-03-29,40.89849853515625
2018-04-02,40.73074722290039
2018-04-03,40.78666687011719
2018-04-04,40.889183044433594
2018-04-05,40.507080078125
2018-04-06,40.53504180908203
2018-04-09,40.27875518798828
2018-04-10,40.460487365722656
2018-04-11,40.80064010620117
2018-04-12,40.488441467285156
2018-04-13,40.865882873535156
2018-04-16,40.9683952331543
2018-04-17,41.280601501464844
2018-04-18,41.14546585083008
2018-04-19,40.70744705200195
2018-04-20,40.55367660522461
2018-04-23,40.581634521484375
2018-04-24,40.851898193359375
2018-04-25,40.926456451416016
2018-04-26,41.09421157836914
2018-04-27,41.695308685302734
2018-04-30,41.54621124267578
2018-05-01,41.774532318115234
2018-05-02,41.755889892578125
2018-05-03,41.81180953979492
2018-05-04,41.94227981567383
2018-05-07,41.9935417175293
2018-05-08,41.93296432495117
2018-05-09,41.71861267089844
2018-05-10,41.92830276489258
2018-05-11,41.79782485961914
2018-05-14,41.54621124267578
2018-05-15,40.926456451416016
2018-05-16,40.65153503417969
2018-05-17,40.46980667114258
2018-05-18,40.241477966308594
2018-05-21,40.44184494018555
2018-05-22,40.488441467285156
2018-05-23,40.95907974243164
2018-05-24,40.940433502197266
2018-05-25,41.30855941772461
2018-05-29,41.68132781982422
2018-05-30,42.217201232910156
2018-05-31,42.356998443603516
2018-06-01,42.82297134399414
2018-06-04,43.13983154296875
2018-06-05,42.6971549987793
2018-06-06,42.75773620605469
2018-06-07,42.71580123901367
2018-06-08,42.95344924926758
2018-06-11,42.869564056396484
2018-06-12,42.962764739990234
2018-06-13,42.310401916503906
2018-06-14,42.75307083129883
2018-06-15,42.79035568237305
2018-06-18,42.552703857421875
2018-06-19,42.14265060424805
2018-06-20,42.44552993774414
2018-06-21,42.473487854003906
2018-06-22,42.68317413330078
2018-06-25,42.589988708496094
2018-06-26,42.54804992675781
2018-06-27,42.35233688354492
2018-06-28,42.896156311035156
2018-06-29,43.08367919921875
2018-07-02,42.872711181640625
2018-07-03,43.01335906982422
2018-07-05,43.29933166503906
2018-07-06,43.37434005737305
2018-07-09,43.01804733276367
2018-07-10,43.11650085449219
2018-07-11,43.21025466918945
2018-07-12,43.24776077270508
2018-07-13,43.36027526855469
2018-07-16,43.61343765258789
2018-07-17,43.468101501464844
2018-07-18,43.074302673339844
2018-07-19,43.32277297973633
2018-07-20,42.797706604003906
2018-07-23,42.797706604003906
2018-07-24,42.160125732421875
2018-07-25,42.5211067199707
2018-07-26,42.296077728271484
2018-07-27,42.17418670654297
2018-07-30,42.08510971069336
2018-07-31,42.65706253051758
2018-08-01,42.74613952636719
2018-08-02,42.638309478759766
2018-08-03,43.14461898803711
2018-08-06,43.16337966918945
2018-08-07,43.15400695800781
2018-08-08,43.19150924682617
2018-08-09,43.280582427978516
2018-08-10,42.825828552246094
2018-08-13,42.9852294921875
2018-08-14,43.39309310913086
2018-08-15,44.05881118774414
2018-08-16,44.54637145996094
2018-08-17,44.762027740478516
2018-08-20,44.58386993408203
2018-08-21,44.42448043823242
2018-08-22,44.2135124206543
2018-08-23,44.17132568359375
2018-08-24,44.5932502746582
2018-08-27,44.8042106628418
2018-08-28,45.26365280151367
2018-08-29,45.25896453857422
2018-08-30,45.32460021972656
2018-08-31,45.418357849121094
2018-09-04,45.1605110168457
2018-09-05,44.827659606933594
2018-09-06,45.146446228027344
2018-09-07,45.024559020996094
2018-09-10,45.07612609863281
2018-09-11,45.15113067626953
2018-09-12,45.08550262451172
2018-09-13,45.2542724609375
2018-09-14,45.1605110168457
2018-09-17,45.488677978515625
2018-09-18,45.376163482666016
2018-09-19,45.141761779785156
2018-09-20,45.25896453857422
2018-09-21,45.46992492675781
2018-09-24,44.97768020629883
2018-09-25,44.8839111328125
2018-09-26,44.588565826416016
2018-09-27,44.715877532958984
2018-09-28,45.479766845703125
2018-10-01,45.23456573486328
2018-10-02,45.187416076660156
2018-10-03,44.64043426513672
2018-10-04,44.38580322265625
2018-10-05,44.230201721191406
2018-10-08,44.5838508605957
2018-10-09,44.8997802734375
2018-10-10,43.96141815185547
2018-10-11,43.19281005859375
2018-10-12,43.320133209228516
2018-10-15,43.62662124633789
2018-10-16,44.503684997558594
2018-10-17,44.27263641357422
2018-10-18,44.26791763305664
2018-10-19,44.49897003173828
2018-10-22,43.75394821166992
2018-10-23,44.38580322265625
2018-10-24,45.28643798828125
2018-10-25,46.210655212402344
2018-10-26,45.16383743286133
2018-10-29,45.58350372314453
2018-10-30,45.536346435546875
2018-10-31,44.649864196777344
2018-11-01,44.84319305419922
2018-11-02,44.319786071777344
2018-11-05,44.84319305419922
2018-11-06,44.86205291748047
2018-11-07,45.856998443603516
2018-11-08,46.02674865722656
2018-11-09,45.99845886230469
2018-11-12,46.0408935546875
2018-11-13,45.965457916259766
2018-11-14,45.52692413330078
2018-11-15,45.14970016479492
2018-11-16,45.6353759765625
2018-11-19,45.937164306640625
2018-11-20,45.918296813964844
2018-11-21,46.05032730102539
2018-11-23,46.1823616027832
2018-11-26,45.95130157470703
2018-11-27,45.937164306640625
2018-11-28,46.069190979003906
2018-11-29,45.93244171142578
2018-11-30,46.932098388671875
2018-12-03,47.56396484375
2018-12-04,46.90852355957031
2018-12-06,48.27598190307617
2018-12-07,48.360862731933594
2018-12-10,48.7192268371582
2018-12-11,48.35614776611328
2018-12-12,47.11129379272461
2018-12-13,47.41778564453125
2018-12-14,47.620548248291016
2018-12-17,46.121063232421875
2018-12-18,46.729347229003906
2018-12-19,46.507720947265625
2018-12-20,46.635040283203125
2018-12-21,46.1823616027832
2018-12-24,43.970848083496094
2018-12-26,45.39488983154297
2018-12-27,45.71263885498047
2018-12-28,45.69841384887695
2018-12-31,46.06357955932617
2019-01-02,44.58866882324219
2019-01-03,45.12457275390625
2019-01-04,45.2383918762207
2019-01-07,45.029720306396484
2019-01-08,45.91181945800781
2019-01-09,45.8027458190918
2019-01-10,46.9456787109375
2019-01-11,47.04053497314453
2019-01-14,46.90299987792969
2019-01-15,47.19702911376953
2019-01-16,47.8989143371582
2019-01-17,48.14078903198242
2019-01-18,48.178714752197266
2019-01-22,48.29254150390625
2019-01-23,48.18820571899414
2019-01-24,47.91788864135742
2019-01-25,48.4063606262207
2019-01-28,48.87112808227539
2019-01-29,49.29793930053711
2019-01-30,49.378570556640625
2019-01-31,50.21324157714844
2019-02-01,50.1136474609375
2019-02-04,50.8392448425293
2019-02-05,51.36566162109375
2019-02-06,51.39411163330078
2019-02-07,51.89207077026367
2019-02-08,52.38528823852539
2019-02-11,52.072288513183594
2019-02-12,51.25658416748047
2019-02-13,51.33245849609375
2019-02-14,51.50319290161133
2019-02-15,51.683406829833984
2019-02-19,51.72608947753906
2019-02-20,51.223384857177734
2019-02-21,51.683406829833984
2019-02-22,52.020118713378906
2019-02-25,51.190189361572266
2019-02-26,51.25658416748047
2019-02-27,51.01945877075195
2019-02-28,51.52216339111328
2019-03-01,51.863616943359375
2019-03-04,52.219303131103516
2019-03-05,52.81210708618164
2019-03-06,52.750457763671875
2019-03-07,52.97335433959961
2019-03-08,52.89747619628906
2019-03-11,53.82225799560547
2019-03-12,53.90287780761719
2019-03-13,53.75111770629883
2019-03-14,54.040409088134766
2019-03-15,53.89813232421875
2019-03-18,52.997066497802734
2019-03-19,52.7457160949707
2019-03-20,52.97335433959961
2019-03-21,54.06412124633789
2019-03-22,54.016700744628906
2019-03-25,54.215877532958984
2019-03-26,54.60476303100586
2019-03-27,54.002471923828125
2019-03-28,55.189483642578125
2019-03-29,54.7963752746582
2019-04-01,54.72925567626953
2019-04-02,55.28056716918945
2019-04-03,55.57780456542969
2019-04-04,55.769569396972656
2019-04-05,55.80312728881836
2019-04-08,55.40522003173828
2019-04-09,55.084014892578125
2019-04-10,55.66889572143555
2019-04-11,55.759979248046875
2019-04-12,56.00927734375
2019-04-15,55.553836822509766
2019-04-16,53.84234619140625
2019-04-17,53.92385482788086
2019-04-18,54.810752868652344
2019-04-22,54.16834259033203
2019-04-23,54.70049285888672
2019-04-24,55.24222183227539
2019-04-25,55.56342697143555
2019-04-26,55.93256759643555
2019-04-29,55.275779724121094
2019-04-30,55.94694900512695
2019-05-01,56.23460006713867
2019-05-02,56.45991516113281
2019-05-03,56.790706634521484
2019-05-06,56.83385467529297
2019-05-07,55.61136245727539
2019-05-08,55.20866394042969
2019-05-09,55.47233200073242
2019-05-10,56.10515594482422
2019-05-13,56.383216857910156
2019-05-14,56.21062469482422
2019-05-15,56.49827194213867
2019-05-16,56.642093658447266
2019-05-17,56.838645935058594
2019-05-20,56.15789031982422
2019-05-21,56.66127395629883
2019-05-22,56.757144927978516
2019-05-23,57.60090637207031
2019-05-24,57.66322708129883
2019-05-28,57.471466064453125
2019-05-29,56.40718460083008
2019-05-30,56.55580139160156
2019-05-31,58.3248176574707
2019-06-03,57.5721435546875
2019-06-04,57.49543762207031
2019-06-05,59.07748794555664
2019-06-06,58.83778381347656
2019-06-07,58.957637786865234
2019-06-10,59.20692825317383
2019-06-11,58.713138580322266
2019-06-12,58.94804763793945
2019-06-13,59.446632385253906
2019-06-14,59.46101379394531
2019-06-17,59.638397216796875
2019-06-18,59.40348815917969
2019-06-19,59.283634185791016
2019-06-20,59.3459587097168
2019-06-21,58.5357551574707
2019-06-24,58.40151596069336
2019-06-25,57.64405822753906
2019-06-26,57.12629699707031
2019-06-27,57.972042083740234
2019-06-28,58.7761344909668
2019-07-01,59.18302536010742
2019-07-02,59.720699310302734
2019-07-03,60.510257720947266
2019-07-05,60.495731353759766
2019-07-08,61.34825897216797
2019-07-09,61.822959899902344
2019-07-10,62.02640914916992
2019-07-11,61.023719787597656
2019-07-12,60.829959869384766
2019-07-15,60.863868713378906
2019-07-16,61.028560638427734
2019-07-17,60.694332122802734
2019-07-18,60.747615814208984
2019-07-19,59.4785041809082
2019-07-22,59.546321868896484
2019-07-23,60.38431930541992
2019-07-24,59.85148620605469
2019-07-25,60.04524230957031
2019-07-26,59.943519592285156
2019-07-29,60.17118453979492
2019-07-30,59.98711395263672
2019-07-31,60.18571853637695
2019-08-01,60.863868713378906
2019-08-02,61.28528594970703
2019-08-05,60.423072814941406
2019-08-06,61.31435012817383
2019-08-07,62.48174285888672
2019-08-08,63.09690475463867
2019-08-09,63.95913314819336
2019-08-12,64.29336547851562
2019-08-13,64.24492645263672
2019-08-14,64.04631042480469
2019-08-15,65.01510620117188
2019-08-16,65.38323974609375
2019-08-19,66.06624603271484
2019-08-20,65.58184814453125
2019-08-21,66.01780700683594
2019-08-22,66.17280578613281
2019-08-23,65.46558380126953
2019-08-26,65.43167877197266
2019-08-27,65.33965301513672
2019-08-28,65.27183532714844
2019-08-29,65.5624771118164
2019-08-30,65.25730895996094
2019-09-03,66.62328338623047
2019-09-04,66.74437713623047
2019-09-05,65.39293670654297
2019-09-06,65.50918579101562
2019-09-09,64.23039245605469
2019-09-10,62.312198638916016
2019-09-11,63.08721923828125
2019-09-12,64.0414810180664
2019-09-13,63.063011169433594
2019-09-16,63.99787521362305
2019-09-17,64.72931671142578
2019-09-18,64.60821533203125
2019-09-19,64.4144515991211
2019-09-20,64.96183013916016
2019-09-23,65.07807922363281
2019-09-24,66.25514221191406
2019-09-25,65.5770034790039
2019-09-26,66.47935485839844
2019-09-27,65.21820068359375
2019-09-30,65.30619049072266
2019-10-01,65.50171661376953
2019-10-02,65.39418029785156
2019-10-03,65.931884765625
2019-10-04,66.68466186523438
2019-10-07,66.92418670654297
2019-10-08,66.94374084472656
2019-10-09,67.13436889648438
2019-10-10,67.04639434814453
2019-10-11,66.31804656982422
2019-10-14,66.21051025390625
2019-10-15,66.89485168457031
2019-10-16,66.01986694335938
2019-10-17,66.66511535644531
2019-10-18,67.486328125
2019-10-21,67.34945678710938
2019-10-22,66.38159942626953
2019-10-23,66.6064453125
2019-10-24,67.3983383178711
2019-10-25,67.33967590332031
2019-10-28,67.32990264892578
2019-10-29,67.29080200195312
2019-10-30,67.60364532470703
2019-10-31,68.3759765625
2019-11-01,68.7963638305664
2019-11-04,67.52543640136719
2019-11-05,66.2447280883789
2019-11-06,66.0394287109375
2019-11-07,65.96121215820312
2019-11-08,65.32574462890625
2019-11-11,66.23495483398438
2019-11-12,65.76567840576172
2019-11-13,66.53800964355469
2019-11-14,67.13436889648438
2019-11-15,68.0631332397461
2019-11-18,69.0212173461914
2019-11-19,69.63713073730469
2019-11-20,69.55892181396484
2019-11-21,68.0631332397461
2019-11-22,68.25865936279297
2019-11-25,69.18741607666016
2019-11-26,71.58262634277344
2019-11-27,72.15943145751953
2019-11-29,72.42339324951172
2019-12-02,71.5728530883789
2019-12-03,71.709716796875
2019-12-04,71.9052505493164
2019-12-05,71.56307220458984
2019-12-06,70.46812438964844
2019-12-09,70.9276123046875
2019-12-10,70.17483520507812
2019-12-11,69.54914093017578
2019-12-12,68.36619567871094
2019-12-13,68.2879867553711
2019-12-16,68.02403259277344
2019-12-17,67.35923767089844
2019-12-18,67.23213195800781
2019-12-19,67.11482238769531
2019-12-20,67.97514343261719
2019-12-23,67.13436889648438
2019-12-24,67.64274597167969
2019-12-26,67.9923324584961
2019-12-27,68.2574691772461
2019-12-30,68.49314880371094
2019-12-31,69.12161254882812
