Date,GRUB
2014-04-04,34.0
2014-04-07,34.79999923706055
2014-04-08,35.9900016784668
2014-04-09,35.310001373291016
2014-04-10,30.90999984741211
2014-04-11,33.63999938964844
2014-04-14,35.15999984741211
2014-04-15,35.0
2014-04-16,37.52000045776367
2014-04-17,35.95000076293945
2014-04-21,33.189998626708984
2014-04-22,32.86000061035156
2014-04-23,32.38999938964844
2014-04-24,32.380001068115234
2014-04-25,31.260000228881836
2014-04-28,32.63999938964844
2014-04-29,32.790000915527344
2014-04-30,30.950000762939453
2014-05-01,31.010000228881836
2014-05-02,31.049999237060547
2014-05-05,31.6299991607666
2014-05-06,31.979999542236328
2014-05-07,30.690000534057617
2014-05-08,31.3799991607666
2014-05-09,31.219999313354492
2014-05-12,30.93000030517578
2014-05-13,31.040000915527344
2014-05-14,31.100000381469727
2014-05-15,31.950000762939453
2014-05-16,32.06999969482422
2014-05-19,31.209999084472656
2014-05-20,30.0
2014-05-21,31.040000915527344
2014-05-22,30.90999984741211
2014-05-23,31.799999237060547
2014-05-27,32.63999938964844
2014-05-28,33.43000030517578
2014-05-29,33.689998626708984
2014-05-30,34.08000183105469
2014-06-02,34.38999938964844
2014-06-03,35.060001373291016
2014-06-04,35.650001525878906
2014-06-05,37.29999923706055
2014-06-06,37.650001525878906
2014-06-09,39.099998474121094
2014-06-10,38.0099983215332
2014-06-11,35.47999954223633
2014-06-12,33.650001525878906
2014-06-13,36.0
2014-06-16,34.9900016784668
2014-06-17,35.77000045776367
2014-06-18,34.9900016784668
2014-06-19,34.45000076293945
2014-06-20,34.95000076293945
2014-06-23,35.220001220703125
2014-06-24,35.40999984741211
2014-06-25,35.47999954223633
2014-06-26,34.650001525878906
2014-06-27,34.20000076293945
2014-06-30,35.40999984741211
2014-07-01,33.81999969482422
2014-07-02,33.77000045776367
2014-07-03,34.099998474121094
2014-07-07,32.70000076293945
2014-07-08,31.479999542236328
2014-07-09,31.8700008392334
2014-07-10,31.889999389648438
2014-07-11,32.86000061035156
2014-07-14,33.529998779296875
2014-07-15,32.439998626708984
2014-07-16,32.959999084472656
2014-07-17,31.8799991607666
2014-07-18,32.130001068115234
2014-07-21,32.779998779296875
2014-07-22,32.41999816894531
2014-07-23,33.52000045776367
2014-07-24,34.959999084472656
2014-07-25,35.22999954223633
2014-07-28,38.02000045776367
2014-07-29,37.59000015258789
2014-07-30,36.52000045776367
2014-07-31,36.290000915527344
2014-08-01,35.7599983215332
2014-08-04,36.2599983215332
2014-08-05,35.83000183105469
2014-08-06,36.91999816894531
2014-08-07,35.83000183105469
2014-08-08,36.400001525878906
2014-08-11,38.790000915527344
2014-08-12,39.36000061035156
2014-08-13,45.209999084472656
2014-08-14,42.7599983215332
2014-08-15,40.93000030517578
2014-08-18,41.11000061035156
2014-08-19,42.40999984741211
2014-08-20,42.45000076293945
2014-08-21,43.45000076293945
2014-08-22,42.7599983215332
2014-08-25,39.15999984741211
2014-08-26,38.47999954223633
2014-08-27,38.959999084472656
2014-08-28,38.68000030517578
2014-08-29,38.439998626708984
2014-09-02,39.31999969482422
2014-09-03,40.84000015258789
2014-09-04,39.650001525878906
2014-09-05,39.75
2014-09-08,39.70000076293945
2014-09-09,39.2599983215332
2014-09-10,38.880001068115234
2014-09-11,37.720001220703125
2014-09-12,39.45000076293945
2014-09-15,39.56999969482422
2014-09-16,39.52000045776367
2014-09-17,38.58000183105469
2014-09-18,38.470001220703125
2014-09-19,37.9900016784668
2014-09-22,35.4900016784668
2014-09-23,35.31999969482422
2014-09-24,35.90999984741211
2014-09-25,34.720001220703125
2014-09-26,34.58000183105469
2014-09-29,35.36000061035156
2014-09-30,34.2400016784668
2014-10-01,35.04999923706055
2014-10-02,35.09000015258789
2014-10-03,35.599998474121094
2014-10-06,35.650001525878906
2014-10-07,36.20000076293945
2014-10-08,37.11000061035156
2014-10-09,36.91999816894531
2014-10-10,35.349998474121094
2014-10-13,35.34000015258789
2014-10-14,36.61000061035156
2014-10-15,36.97999954223633
2014-10-16,37.02000045776367
2014-10-17,37.060001373291016
2014-10-20,36.86000061035156
2014-10-21,36.95000076293945
2014-10-22,37.16999816894531
2014-10-23,37.189998626708984
2014-10-24,36.0
2014-10-27,36.470001220703125
2014-10-28,36.2400016784668
2014-10-29,36.09000015258789
2014-10-30,35.81999969482422
2014-10-31,36.36000061035156
2014-11-03,36.41999816894531
2014-11-04,36.349998474121094
2014-11-05,34.209999084472656
2014-11-06,33.97999954223633
2014-11-07,33.25
2014-11-10,33.52000045776367
2014-11-11,34.130001068115234
2014-11-12,34.5099983215332
2014-11-13,34.369998931884766
2014-11-14,33.86000061035156
2014-11-17,34.060001373291016
2014-11-18,34.29999923706055
2014-11-19,34.779998779296875
2014-11-20,34.54999923706055
2014-11-21,34.900001525878906
2014-11-24,35.5
2014-11-25,36.0
2014-11-26,36.36000061035156
2014-11-28,36.79999923706055
2014-12-01,36.439998626708984
2014-12-02,35.93000030517578
2014-12-03,36.08000183105469
2014-12-04,34.04999923706055
2014-12-05,34.4900016784668
2014-12-08,33.7400016784668
2014-12-09,34.290000915527344
2014-12-10,32.540000915527344
2014-12-11,31.899999618530273
2014-12-12,32.0099983215332
2014-12-15,31.739999771118164
2014-12-16,33.11000061035156
2014-12-17,33.959999084472656
2014-12-18,35.279998779296875
2014-12-19,35.790000915527344
2014-12-22,35.540000915527344
2014-12-23,35.77000045776367
2014-12-24,35.650001525878906
2014-12-26,35.81999969482422
2014-12-29,35.90999984741211
2014-12-30,35.869998931884766
2014-12-31,36.31999969482422
2015-01-02,36.56999969482422
2015-01-05,37.150001525878906
2015-01-06,37.77000045776367
2015-01-07,37.209999084472656
2015-01-08,37.959999084472656
2015-01-09,38.25
2015-01-12,36.75
2015-01-13,37.15999984741211
2015-01-14,36.81999969482422
2015-01-15,36.09000015258789
2015-01-16,36.97999954223633
2015-01-20,36.060001373291016
2015-01-21,35.529998779296875
2015-01-22,35.869998931884766
2015-01-23,35.709999084472656
2015-01-26,36.56999969482422
2015-01-27,35.31999969482422
2015-01-28,34.4900016784668
2015-01-29,34.810001373291016
2015-01-30,34.43000030517578
2015-02-02,35.81999969482422
2015-02-03,36.47999954223633
2015-02-04,37.43000030517578
2015-02-05,39.7599983215332
2015-02-06,40.56999969482422
2015-02-09,39.08000183105469
2015-02-10,37.939998626708984
2015-02-11,37.45000076293945
2015-02-12,38.220001220703125
2015-02-13,39.93000030517578
2015-02-17,39.66999816894531
2015-02-18,39.75
2015-02-19,39.689998626708984
2015-02-20,41.36000061035156
2015-02-23,40.41999816894531
2015-02-24,40.959999084472656
2015-02-25,42.459999084472656
2015-02-26,41.75
2015-02-27,42.0099983215332
2015-03-02,44.09000015258789
2015-03-03,43.4900016784668
2015-03-04,43.43000030517578
2015-03-05,43.189998626708984
2015-03-06,42.31999969482422
2015-03-09,42.9900016784668
2015-03-10,42.54999923706055
2015-03-11,42.91999816894531
2015-03-12,43.54999923706055
2015-03-13,44.25
2015-03-16,45.18000030517578
2015-03-17,45.290000915527344
2015-03-18,45.29999923706055
2015-03-19,45.2400016784668
2015-03-20,45.119998931884766
2015-03-23,45.790000915527344
2015-03-24,45.56999969482422
2015-03-25,44.84000015258789
2015-03-26,44.9900016784668
2015-03-27,45.34000015258789
2015-03-30,46.22999954223633
2015-03-31,45.38999938964844
2015-04-01,44.56999969482422
2015-04-02,44.27000045776367
2015-04-06,44.84000015258789
2015-04-07,45.029998779296875
2015-04-08,45.2400016784668
2015-04-09,43.90999984741211
2015-04-10,43.810001373291016
2015-04-13,44.279998779296875
2015-04-14,43.63999938964844
2015-04-15,45.18000030517578
2015-04-16,45.33000183105469
2015-04-17,45.209999084472656
2015-04-20,45.459999084472656
2015-04-21,46.290000915527344
2015-04-22,45.84000015258789
2015-04-23,46.25
2015-04-24,46.0
2015-04-27,47.18000030517578
2015-04-28,45.29999923706055
2015-04-29,40.849998474121094
2015-04-30,41.16999816894531
2015-05-01,40.09000015258789
2015-05-04,39.02000045776367
2015-05-05,38.939998626708984
2015-05-06,39.0
2015-05-07,39.40999984741211
2015-05-08,40.22999954223633
2015-05-11,39.97999954223633
2015-05-12,39.70000076293945
2015-05-13,39.689998626708984
2015-05-14,40.220001220703125
2015-05-15,39.90999984741211
2015-05-18,40.279998779296875
2015-05-19,39.939998626708984
2015-05-20,40.220001220703125
2015-05-21,40.47999954223633
2015-05-22,40.2599983215332
2015-05-26,39.630001068115234
2015-05-27,39.7400016784668
2015-05-28,40.2599983215332
2015-05-29,40.31999969482422
2015-06-01,40.779998779296875
2015-06-02,40.380001068115234
2015-06-03,40.7599983215332
2015-06-04,40.119998931884766
2015-06-05,39.59000015258789
2015-06-08,38.88999938964844
2015-06-09,37.22999954223633
2015-06-10,37.630001068115234
2015-06-11,37.29999923706055
2015-06-12,37.400001525878906
2015-06-15,37.81999969482422
2015-06-16,37.380001068115234
2015-06-17,35.81999969482422
2015-06-18,34.77000045776367
2015-06-19,35.099998474121094
2015-06-22,34.72999954223633
2015-06-23,35.380001068115234
2015-06-24,35.689998626708984
2015-06-25,35.779998779296875
2015-06-26,34.470001220703125
2015-06-29,33.310001373291016
2015-06-30,34.06999969482422
2015-07-01,31.670000076293945
2015-07-02,30.690000534057617
2015-07-06,30.829999923706055
2015-07-07,30.979999542236328
2015-07-08,31.420000076293945
2015-07-09,31.559999465942383
2015-07-10,31.209999084472656
2015-07-13,32.150001525878906
2015-07-14,32.43000030517578
2015-07-15,31.389999389648438
2015-07-16,31.65999984741211
2015-07-17,31.639999389648438
2015-07-20,32.56999969482422
2015-07-21,33.380001068115234
2015-07-22,33.84000015258789
2015-07-23,33.86000061035156
2015-07-24,33.790000915527344
2015-07-27,31.010000228881836
2015-07-28,33.25
2015-07-29,32.31999969482422
2015-07-30,31.639999389648438
2015-07-31,31.709999084472656
2015-08-03,30.389999389648438
2015-08-04,30.290000915527344
2015-08-05,30.100000381469727
2015-08-06,29.190000534057617
2015-08-07,28.850000381469727
2015-08-10,29.579999923706055
2015-08-11,28.610000610351562
2015-08-12,29.979999542236328
2015-08-13,30.31999969482422
2015-08-14,30.639999389648438
2015-08-17,31.219999313354492
2015-08-18,30.469999313354492
2015-08-19,29.950000762939453
2015-08-20,28.3799991607666
2015-08-21,28.1299991607666
2015-08-24,27.15999984741211
2015-08-25,27.610000610351562
2015-08-26,25.920000076293945
2015-08-27,26.100000381469727
2015-08-28,26.90999984741211
2015-08-31,26.450000762939453
2015-09-01,25.170000076293945
2015-09-02,26.829999923706055
2015-09-03,26.90999984741211
2015-09-04,26.450000762939453
2015-09-08,25.5
2015-09-09,25.739999771118164
2015-09-10,27.420000076293945
2015-09-11,27.600000381469727
2015-09-14,27.34000015258789
2015-09-15,27.829999923706055
2015-09-16,26.899999618530273
2015-09-17,27.75
2015-09-18,28.1299991607666
2015-09-21,27.920000076293945
2015-09-22,25.90999984741211
2015-09-23,25.59000015258789
2015-09-24,25.219999313354492
2015-09-25,24.889999389648438
2015-09-28,24.049999237060547
2015-09-29,24.260000228881836
2015-09-30,24.34000015258789
2015-10-01,24.489999771118164
2015-10-02,25.799999237060547
2015-10-05,27.15999984741211
2015-10-06,27.360000610351562
2015-10-07,28.489999771118164
2015-10-08,29.959999084472656
2015-10-09,30.18000030517578
2015-10-12,29.799999237060547
2015-10-13,30.18000030517578
2015-10-14,30.299999237060547
2015-10-15,30.510000228881836
2015-10-16,31.31999969482422
2015-10-19,30.809999465942383
2015-10-20,30.8799991607666
2015-10-21,29.920000076293945
2015-10-22,30.100000381469727
2015-10-23,31.040000915527344
2015-10-26,32.09000015258789
2015-10-27,24.489999771118164
2015-10-28,24.40999984741211
2015-10-29,23.850000381469727
2015-10-30,23.979999542236328
2015-11-02,24.34000015258789
2015-11-03,24.559999465942383
2015-11-04,24.3700008392334
2015-11-05,24.280000686645508
2015-11-06,25.190000534057617
2015-11-09,25.850000381469727
2015-11-10,25.020000457763672
2015-11-11,24.06999969482422
2015-11-12,23.860000610351562
2015-11-13,23.889999389648438
2015-11-16,24.56999969482422
2015-11-17,25.309999465942383
2015-11-18,25.979999542236328
2015-11-19,25.700000762939453
2015-11-20,26.0
2015-11-23,26.239999771118164
2015-11-24,26.459999084472656
2015-11-25,27.540000915527344
2015-11-27,25.780000686645508
2015-11-30,25.639999389648438
2015-12-01,26.270000457763672
2015-12-02,26.170000076293945
2015-12-03,25.739999771118164
2015-12-04,24.649999618530273
2015-12-07,24.219999313354492
2015-12-08,24.170000076293945
2015-12-09,23.93000030517578
2015-12-10,24.540000915527344
2015-12-11,24.030000686645508
2015-12-14,22.969999313354492
2015-12-15,24.0
2015-12-16,23.600000381469727
2015-12-17,23.06999969482422
2015-12-18,23.43000030517578
2015-12-21,23.899999618530273
2015-12-22,24.809999465942383
2015-12-23,25.860000610351562
2015-12-24,25.3799991607666
2015-12-28,24.989999771118164
2015-12-29,24.65999984741211
2015-12-30,24.43000030517578
2015-12-31,24.200000762939453
2016-01-04,23.6200008392334
2016-01-05,23.059999465942383
2016-01-06,22.31999969482422
2016-01-07,22.850000381469727
2016-01-08,21.989999771118164
2016-01-11,21.719999313354492
2016-01-12,21.700000762939453
2016-01-13,21.1200008392334
2016-01-14,21.950000762939453
2016-01-15,21.0
2016-01-19,20.190000534057617
2016-01-20,20.40999984741211
2016-01-21,19.420000076293945
2016-01-22,19.170000076293945
2016-01-25,18.709999084472656
2016-01-26,19.200000762939453
2016-01-27,18.899999618530273
2016-01-28,18.34000015258789
2016-01-29,18.850000381469727
2016-02-01,19.149999618530273
2016-02-02,18.950000762939453
2016-02-03,19.079999923706055
2016-02-04,21.530000686645508
2016-02-05,21.1299991607666
2016-02-08,20.010000228881836
2016-02-09,19.239999771118164
2016-02-10,19.34000015258789
2016-02-11,20.09000015258789
2016-02-12,20.93000030517578
2016-02-16,22.40999984741211
2016-02-17,22.520000457763672
2016-02-18,22.239999771118164
2016-02-19,22.610000610351562
2016-02-22,22.040000915527344
2016-02-23,22.010000228881836
2016-02-24,22.790000915527344
2016-02-25,22.579999923706055
2016-02-26,23.829999923706055
2016-02-29,23.540000915527344
2016-03-01,23.639999389648438
2016-03-02,24.079999923706055
2016-03-03,23.709999084472656
2016-03-04,24.489999771118164
2016-03-07,25.280000686645508
2016-03-08,24.469999313354492
2016-03-09,25.1200008392334
2016-03-10,24.0
2016-03-11,24.8799991607666
2016-03-14,24.65999984741211
2016-03-15,23.559999465942383
2016-03-16,23.270000457763672
2016-03-17,23.829999923706055
2016-03-18,23.40999984741211
2016-03-21,23.729999542236328
2016-03-22,23.479999542236328
2016-03-23,22.729999542236328
2016-03-24,22.610000610351562
2016-03-28,22.979999542236328
2016-03-29,23.719999313354492
2016-03-30,24.290000915527344
2016-03-31,25.1299991607666
2016-04-01,24.700000762939453
2016-04-04,23.989999771118164
2016-04-05,23.760000228881836
2016-04-06,23.899999618530273
2016-04-07,24.010000228881836
2016-04-08,24.15999984741211
2016-04-11,23.290000915527344
2016-04-12,23.6200008392334
2016-04-13,24.940000534057617
2016-04-14,25.59000015258789
2016-04-15,25.510000228881836
2016-04-18,25.489999771118164
2016-04-19,25.989999771118164
2016-04-20,26.360000610351562
2016-04-21,26.59000015258789
2016-04-22,26.989999771118164
2016-04-25,26.799999237060547
2016-04-26,26.969999313354492
2016-04-27,26.709999084472656
2016-04-28,26.260000228881836
2016-04-29,26.219999313354492
2016-05-02,26.540000915527344
2016-05-03,24.649999618530273
2016-05-04,24.020000457763672
2016-05-05,24.549999237060547
2016-05-06,24.579999923706055
2016-05-09,24.360000610351562
2016-05-10,24.760000228881836
2016-05-11,24.850000381469727
2016-05-12,24.799999237060547
2016-05-13,25.3799991607666
2016-05-16,25.280000686645508
2016-05-17,23.299999237060547
2016-05-18,22.350000381469727
2016-05-19,22.329999923706055
2016-05-20,22.799999237060547
2016-05-23,23.489999771118164
2016-05-24,23.93000030517578
2016-05-25,24.239999771118164
2016-05-26,24.549999237060547
2016-05-27,24.969999313354492
2016-05-31,25.59000015258789
2016-06-01,26.219999313354492
2016-06-02,27.729999542236328
2016-06-03,28.540000915527344
2016-06-06,28.670000076293945
2016-06-07,28.979999542236328
2016-06-08,28.850000381469727
2016-06-09,28.829999923706055
2016-06-10,27.989999771118164
2016-06-13,28.25
2016-06-14,27.670000076293945
2016-06-15,28.389999389648438
2016-06-16,28.889999389648438
2016-06-17,30.06999969482422
2016-06-20,30.59000015258789
2016-06-21,29.780000686645508
2016-06-22,29.84000015258789
2016-06-23,30.670000076293945
2016-06-24,30.100000381469727
2016-06-27,28.6200008392334
2016-06-28,28.729999542236328
2016-06-29,30.530000686645508
2016-06-30,31.06999969482422
2016-07-01,30.770000457763672
2016-07-05,30.110000610351562
2016-07-06,30.84000015258789
2016-07-07,31.079999923706055
2016-07-08,32.060001373291016
2016-07-11,30.739999771118164
2016-07-12,31.65999984741211
2016-07-13,30.65999984741211
2016-07-14,29.940000534057617
2016-07-15,29.799999237060547
2016-07-18,30.670000076293945
2016-07-19,30.559999465942383
2016-07-20,30.549999237060547
2016-07-21,30.940000534057617
2016-07-22,31.739999771118164
2016-07-25,31.600000381469727
2016-07-26,31.75
2016-07-27,30.739999771118164
2016-07-28,38.150001525878906
2016-07-29,37.91999816894531
2016-08-01,38.52000045776367
2016-08-02,39.0
2016-08-03,38.52000045776367
2016-08-04,38.650001525878906
2016-08-05,38.7599983215332
2016-08-08,39.02000045776367
2016-08-09,38.70000076293945
2016-08-10,38.810001373291016
2016-08-11,38.599998474121094
2016-08-12,38.529998779296875
2016-08-15,38.099998474121094
2016-08-16,37.130001068115234
2016-08-17,36.41999816894531
2016-08-18,36.70000076293945
2016-08-19,38.029998779296875
2016-08-22,37.70000076293945
2016-08-23,38.27000045776367
2016-08-24,38.36000061035156
2016-08-25,38.79999923706055
2016-08-26,39.02000045776367
2016-08-29,39.939998626708984
2016-08-30,39.84000015258789
2016-08-31,40.56999969482422
2016-09-01,41.060001373291016
2016-09-02,41.470001220703125
2016-09-06,42.83000183105469
2016-09-07,42.459999084472656
2016-09-08,42.150001525878906
2016-09-09,40.86000061035156
2016-09-12,41.38999938964844
2016-09-13,41.47999954223633
2016-09-14,41.599998474121094
2016-09-15,41.16999816894531
2016-09-16,41.47999954223633
2016-09-19,40.849998474121094
2016-09-20,41.45000076293945
2016-09-21,41.720001220703125
2016-09-22,42.939998626708984
2016-09-23,42.0
2016-09-26,42.189998626708984
2016-09-27,43.77000045776367
2016-09-28,43.88999938964844
2016-09-29,42.310001373291016
2016-09-30,42.9900016784668
2016-10-03,42.68000030517578
2016-10-04,41.529998779296875
2016-10-05,40.84000015258789
2016-10-06,40.310001373291016
2016-10-07,40.560001373291016
2016-10-10,40.84000015258789
2016-10-11,39.65999984741211
2016-10-12,40.349998474121094
2016-10-13,41.18000030517578
2016-10-14,41.560001373291016
2016-10-17,42.0099983215332
2016-10-18,42.08000183105469
2016-10-19,42.09000015258789
2016-10-20,42.63999938964844
2016-10-21,43.20000076293945
2016-10-24,43.790000915527344
2016-10-25,43.38999938964844
2016-10-26,37.880001068115234
2016-10-27,38.36000061035156
2016-10-28,38.43000030517578
2016-10-31,38.11000061035156
2016-11-01,37.36000061035156
2016-11-02,37.02000045776367
2016-11-03,36.4900016784668
2016-11-04,36.810001373291016
2016-11-07,37.95000076293945
2016-11-08,38.22999954223633
2016-11-09,38.68000030517578
2016-11-10,37.099998474121094
2016-11-11,35.310001373291016
2016-11-14,36.34000015258789
2016-11-15,36.0099983215332
2016-11-16,35.9900016784668
2016-11-17,36.290000915527344
2016-11-18,36.650001525878906
2016-11-21,37.9900016784668
2016-11-22,37.13999938964844
2016-11-23,37.93000030517578
2016-11-25,37.58000183105469
2016-11-28,38.150001525878906
2016-11-29,38.220001220703125
2016-11-30,37.029998779296875
2016-12-01,35.560001373291016
2016-12-02,35.779998779296875
2016-12-05,36.34000015258789
2016-12-06,36.56999969482422
2016-12-07,37.349998474121094
2016-12-08,38.08000183105469
2016-12-09,37.88999938964844
2016-12-12,37.2400016784668
2016-12-13,38.040000915527344
2016-12-14,37.459999084472656
2016-12-15,37.84000015258789
2016-12-16,37.25
2016-12-19,37.36000061035156
2016-12-20,39.150001525878906
2016-12-21,38.599998474121094
2016-12-22,37.41999816894531
2016-12-23,37.61000061035156
2016-12-27,38.18000030517578
2016-12-28,37.5099983215332
2016-12-29,37.599998474121094
2016-12-30,37.619998931884766
2017-01-03,37.060001373291016
2017-01-04,37.2599983215332
2017-01-05,36.75
2017-01-06,36.34000015258789
2017-01-09,36.31999969482422
2017-01-10,36.83000183105469
2017-01-11,37.16999816894531
2017-01-12,37.369998931884766
2017-01-13,39.040000915527344
2017-01-17,39.130001068115234
2017-01-18,39.439998626708984
2017-01-19,39.349998474121094
2017-01-20,39.400001525878906
2017-01-23,39.689998626708984
2017-01-24,40.470001220703125
2017-01-25,41.970001220703125
2017-01-26,41.83000183105469
2017-01-27,41.869998931884766
2017-01-30,41.59000015258789
2017-01-31,41.54999923706055
2017-02-01,41.47999954223633
2017-02-02,41.380001068115234
2017-02-03,40.900001525878906
2017-02-06,40.54999923706055
2017-02-07,41.310001373291016
2017-02-08,39.86000061035156
2017-02-09,38.20000076293945
2017-02-10,37.66999816894531
2017-02-13,36.70000076293945
2017-02-14,36.91999816894531
2017-02-15,37.099998474121094
2017-02-16,37.060001373291016
2017-02-17,37.599998474121094
2017-02-21,37.970001220703125
2017-02-22,37.33000183105469
2017-02-23,36.279998779296875
2017-02-24,36.33000183105469
2017-02-27,36.22999954223633
2017-02-28,35.060001373291016
2017-03-01,36.209999084472656
2017-03-02,34.869998931884766
2017-03-03,34.27000045776367
2017-03-06,33.869998931884766
2017-03-07,33.880001068115234
2017-03-08,33.36000061035156
2017-03-09,33.560001373291016
2017-03-10,33.77000045776367
2017-03-13,34.41999816894531
2017-03-14,33.900001525878906
2017-03-15,34.619998931884766
2017-03-16,34.5099983215332
2017-03-17,34.33000183105469
2017-03-20,34.91999816894531
2017-03-21,34.119998931884766
2017-03-22,34.029998779296875
2017-03-23,33.5099983215332
2017-03-24,33.66999816894531
2017-03-27,33.66999816894531
2017-03-28,33.310001373291016
2017-03-29,33.59000015258789
2017-03-30,33.130001068115234
2017-03-31,32.88999938964844
2017-04-03,33.15999984741211
2017-04-04,33.040000915527344
2017-04-05,33.27000045776367
2017-04-06,33.459999084472656
2017-04-07,33.86000061035156
2017-04-10,34.15999984741211
2017-04-11,34.54999923706055
2017-04-12,35.04999923706055
2017-04-13,34.93000030517578
2017-04-17,34.220001220703125
2017-04-18,34.06999969482422
2017-04-19,34.66999816894531
2017-04-20,34.720001220703125
2017-04-21,34.61000061035156
2017-04-24,34.70000076293945
2017-04-25,34.779998779296875
2017-04-26,35.02000045776367
2017-04-27,42.91999816894531
2017-04-28,42.97999954223633
2017-05-01,42.88999938964844
2017-05-02,44.09000015258789
2017-05-03,44.88999938964844
2017-05-04,44.88999938964844
2017-05-05,45.720001220703125
2017-05-08,45.29999923706055
2017-05-09,45.349998474121094
2017-05-10,45.0099983215332
2017-05-11,45.0
2017-05-12,44.90999984741211
2017-05-15,44.31999969482422
2017-05-16,44.650001525878906
2017-05-17,43.36000061035156
2017-05-18,44.06999969482422
2017-05-19,43.369998931884766
2017-05-22,43.13999938964844
2017-05-23,42.72999954223633
2017-05-24,42.83000183105469
2017-05-25,42.349998474121094
2017-05-26,43.83000183105469
2017-05-30,43.4900016784668
2017-05-31,43.470001220703125
2017-06-01,43.709999084472656
2017-06-02,44.66999816894531
2017-06-05,44.52000045776367
2017-06-06,43.7599983215332
2017-06-07,43.880001068115234
2017-06-08,43.810001373291016
2017-06-09,43.349998474121094
2017-06-12,43.02000045776367
2017-06-13,43.43000030517578
2017-06-14,43.75
2017-06-15,43.59000015258789
2017-06-16,43.31999969482422
2017-06-19,45.34000015258789
2017-06-20,45.38999938964844
2017-06-21,46.540000915527344
2017-06-22,46.33000183105469
2017-06-23,47.70000076293945
2017-06-26,44.63999938964844
2017-06-27,43.41999816894531
2017-06-28,44.06999969482422
2017-06-29,43.20000076293945
2017-06-30,43.599998474121094
2017-07-03,43.40999984741211
2017-07-05,43.459999084472656
2017-07-06,43.130001068115234
2017-07-07,43.68000030517578
2017-07-10,43.650001525878906
2017-07-11,43.54999923706055
2017-07-12,45.040000915527344
2017-07-13,45.90999984741211
2017-07-14,45.779998779296875
2017-07-17,45.5099983215332
2017-07-18,45.5099983215332
2017-07-19,45.529998779296875
2017-07-20,45.790000915527344
2017-07-21,45.25
2017-07-24,45.439998626708984
2017-07-25,45.61000061035156
2017-07-26,47.040000915527344
2017-07-27,46.9900016784668
2017-07-28,46.63999938964844
2017-07-31,46.130001068115234
2017-08-01,47.220001220703125
2017-08-02,46.65999984741211
2017-08-03,48.25
2017-08-04,52.619998931884766
2017-08-07,56.959999084472656
2017-08-08,56.09000015258789
2017-08-09,55.81999969482422
2017-08-10,54.16999816894531
2017-08-11,54.459999084472656
2017-08-14,54.41999816894531
2017-08-15,54.349998474121094
2017-08-16,54.650001525878906
2017-08-17,53.560001373291016
2017-08-18,53.869998931884766
2017-08-21,54.36000061035156
2017-08-22,54.93000030517578
2017-08-23,54.58000183105469
2017-08-24,54.529998779296875
2017-08-25,54.150001525878906
2017-08-28,54.130001068115234
2017-08-29,54.709999084472656
2017-08-30,56.290000915527344
2017-08-31,57.09000015258789
2017-09-01,56.060001373291016
2017-09-05,56.29999923706055
2017-09-06,56.75
2017-09-07,57.08000183105469
2017-09-08,56.08000183105469
2017-09-11,56.400001525878906
2017-09-12,56.040000915527344
2017-09-13,56.18000030517578
2017-09-14,54.97999954223633
2017-09-15,53.560001373291016
2017-09-18,53.0
2017-09-19,54.349998474121094
2017-09-20,53.189998626708984
2017-09-21,53.5099983215332
2017-09-22,51.689998626708984
2017-09-25,51.689998626708984
2017-09-26,50.7400016784668
2017-09-27,51.61000061035156
2017-09-28,51.779998779296875
2017-09-29,52.65999984741211
2017-10-02,53.66999816894531
2017-10-03,54.22999954223633
2017-10-04,54.099998474121094
2017-10-05,51.97999954223633
2017-10-06,51.290000915527344
2017-10-09,51.279998779296875
2017-10-10,52.189998626708984
2017-10-11,51.97999954223633
2017-10-12,52.15999984741211
2017-10-13,51.61000061035156
2017-10-16,51.13999938964844
2017-10-17,51.5099983215332
2017-10-18,52.0
2017-10-19,51.77000045776367
2017-10-20,52.34000015258789
2017-10-23,51.439998626708984
2017-10-24,51.97999954223633
2017-10-25,57.790000915527344
2017-10-26,59.040000915527344
2017-10-27,60.02000045776367
2017-10-30,59.68000030517578
2017-10-31,61.02000045776367
2017-11-01,60.83000183105469
2017-11-02,60.83000183105469
2017-11-03,62.189998626708984
2017-11-06,62.91999816894531
2017-11-07,62.45000076293945
2017-11-08,62.41999816894531
2017-11-09,61.63999938964844
2017-11-10,63.099998474121094
2017-11-13,63.619998931884766
2017-11-14,63.08000183105469
2017-11-15,62.9900016784668
2017-11-16,64.51000213623047
2017-11-17,64.69999694824219
2017-11-20,65.02999877929688
2017-11-21,66.79000091552734
2017-11-22,67.69999694824219
2017-11-24,68.58000183105469
2017-11-27,68.58999633789062
2017-11-28,68.2300033569336
2017-11-29,66.19999694824219
2017-11-30,67.55999755859375
2017-12-01,66.5999984741211
2017-12-04,66.94000244140625
2017-12-05,67.58000183105469
2017-12-06,68.41999816894531
2017-12-07,68.94000244140625
2017-12-08,68.22000122070312
2017-12-11,70.33999633789062
2017-12-12,69.83000183105469
2017-12-13,71.41000366210938
2017-12-14,71.54000091552734
2017-12-15,72.30000305175781
2017-12-18,73.66000366210938
2017-12-19,73.18000030517578
2017-12-20,74.08999633789062
2017-12-21,71.44000244140625
2017-12-22,71.73999786376953
2017-12-26,72.22000122070312
2017-12-27,73.13999938964844
2017-12-28,72.19000244140625
2017-12-29,71.80000305175781
2018-01-02,71.26000213623047
2018-01-03,71.31999969482422
2018-01-04,71.87999725341797
2018-01-05,72.97000122070312
2018-01-08,71.36000061035156
2018-01-09,69.16000366210938
2018-01-10,66.52999877929688
2018-01-11,68.22000122070312
2018-01-12,70.61000061035156
2018-01-16,69.83999633789062
2018-01-17,70.80000305175781
2018-01-18,70.33999633789062
2018-01-19,70.02999877929688
2018-01-22,71.91999816894531
2018-01-23,71.16000366210938
2018-01-24,71.52999877929688
2018-01-25,73.4000015258789
2018-01-26,76.48999786376953
2018-01-29,75.41999816894531
2018-01-30,72.72000122070312
2018-01-31,72.25
2018-02-01,72.86000061035156
2018-02-02,70.6500015258789
2018-02-05,68.16000366210938
2018-02-06,68.9000015258789
2018-02-07,69.91000366210938
2018-02-08,89.04000091552734
2018-02-09,85.54000091552734
2018-02-12,86.69999694824219
2018-02-13,87.97000122070312
2018-02-14,93.38999938964844
2018-02-15,94.4000015258789
2018-02-16,95.93000030517578
2018-02-20,97.05000305175781
2018-02-21,97.5199966430664
2018-02-22,98.2699966430664
2018-02-23,96.7300033569336
2018-02-26,99.12999725341797
2018-02-27,98.91999816894531
2018-02-28,99.41000366210938
2018-03-01,97.55000305175781
2018-03-02,99.70999908447266
2018-03-05,101.9800033569336
2018-03-06,101.41999816894531
2018-03-07,104.16000366210938
2018-03-08,106.38999938964844
2018-03-09,108.55999755859375
2018-03-12,109.58999633789062
2018-03-13,109.25
2018-03-14,110.77999877929688
2018-03-15,110.88999938964844
2018-03-16,110.52999877929688
2018-03-19,108.81999969482422
2018-03-20,110.4800033569336
2018-03-21,110.0199966430664
2018-03-22,105.91000366210938
2018-03-23,104.61000061035156
2018-03-26,108.45999908447266
2018-03-27,103.33999633789062
2018-03-28,99.11000061035156
2018-03-29,101.47000122070312
2018-04-02,97.58999633789062
2018-04-03,97.63999938964844
2018-04-04,99.52999877929688
2018-04-05,100.18000030517578
2018-04-06,97.08999633789062
2018-04-09,97.08000183105469
2018-04-10,99.87000274658203
2018-04-11,98.31999969482422
2018-04-12,99.9000015258789
2018-04-13,97.91000366210938
2018-04-16,98.5
2018-04-17,103.72000122070312
2018-04-18,103.06999969482422
2018-04-19,101.73999786376953
2018-04-20,101.66999816894531
2018-04-23,102.16999816894531
2018-04-24,98.02999877929688
2018-04-25,95.56999969482422
2018-04-26,98.52999877929688
2018-04-27,99.37000274658203
2018-04-30,101.13999938964844
2018-05-01,92.6500015258789
2018-05-02,95.55999755859375
2018-05-03,96.79000091552734
2018-05-04,98.77999877929688
2018-05-07,101.68000030517578
2018-05-08,102.44999694824219
2018-05-09,103.44999694824219
2018-05-10,104.4000015258789
2018-05-11,102.04000091552734
2018-05-14,101.69999694824219
2018-05-15,100.63999938964844
2018-05-16,102.66999816894531
2018-05-17,103.37999725341797
2018-05-18,103.80000305175781
2018-05-21,103.68000030517578
2018-05-22,102.6500015258789
2018-05-23,102.75
2018-05-24,103.08999633789062
2018-05-25,101.77999877929688
2018-05-29,101.12999725341797
2018-05-30,107.54000091552734
2018-05-31,107.20999908447266
2018-06-01,107.7699966430664
2018-06-04,107.93000030517578
2018-06-05,109.4800033569336
2018-06-06,107.77999877929688
2018-06-07,104.91000366210938
2018-06-08,104.81999969482422
2018-06-11,107.56999969482422
2018-06-12,112.81999969482422
2018-06-13,115.9800033569336
2018-06-14,119.86000061035156
2018-06-15,118.7699966430664
2018-06-18,117.30999755859375
2018-06-19,114.0
2018-06-20,113.4800033569336
2018-06-21,110.4800033569336
2018-06-22,106.9800033569336
2018-06-25,101.77999877929688
2018-06-26,103.33999633789062
2018-06-27,103.61000061035156
2018-06-28,105.58000183105469
2018-06-29,104.91000366210938
2018-07-02,106.5999984741211
2018-07-03,105.33000183105469
2018-07-05,106.27999877929688
2018-07-06,108.30000305175781
2018-07-09,109.66999816894531
2018-07-10,108.41999816894531
2018-07-11,109.0
2018-07-12,111.25
2018-07-13,110.93000030517578
2018-07-16,110.18000030517578
2018-07-17,113.91000366210938
2018-07-18,113.87000274658203
2018-07-19,112.44999694824219
2018-07-20,111.94000244140625
2018-07-23,110.2699966430664
2018-07-24,109.05999755859375
2018-07-25,134.72999572753906
2018-07-26,135.50999450683594
2018-07-27,131.0
2018-07-30,124.27999877929688
2018-07-31,121.88999938964844
2018-08-01,125.0
2018-08-02,127.77999877929688
2018-08-03,126.08000183105469
2018-08-06,129.0500030517578
2018-08-07,128.63999938964844
2018-08-08,127.88999938964844
2018-08-09,130.44000244140625
2018-08-10,130.4199981689453
2018-08-13,129.9199981689453
2018-08-14,129.00999450683594
2018-08-15,127.37000274658203
2018-08-16,128.5500030517578
2018-08-17,127.4000015258789
2018-08-20,132.30999755859375
2018-08-21,133.11000061035156
2018-08-22,135.33999633789062
2018-08-23,137.92999267578125
2018-08-24,138.44000244140625
2018-08-27,139.86000061035156
2018-08-28,140.47999572753906
2018-08-29,143.0
2018-08-30,142.61000061035156
2018-08-31,144.11000061035156
2018-09-04,144.0
2018-09-05,137.6199951171875
2018-09-06,137.75
2018-09-07,141.9199981689453
2018-09-10,141.00999450683594
2018-09-11,146.72999572753906
2018-09-12,142.60000610351562
2018-09-13,144.97000122070312
2018-09-14,146.11000061035156
2018-09-17,140.27999877929688
2018-09-18,143.60000610351562
2018-09-19,136.55999755859375
2018-09-20,137.2100067138672
2018-09-21,135.75
2018-09-24,134.80999755859375
2018-09-25,138.32000732421875
2018-09-26,138.4199981689453
2018-09-27,139.7899932861328
2018-09-28,138.6199951171875
2018-10-01,137.3800048828125
2018-10-02,136.99000549316406
2018-10-03,135.24000549316406
2018-10-04,130.52999877929688
2018-10-05,129.83999633789062
2018-10-08,126.69999694824219
2018-10-09,128.4499969482422
2018-10-10,117.81999969482422
2018-10-11,114.33000183105469
2018-10-12,116.55000305175781
2018-10-15,114.05000305175781
2018-10-16,121.33999633789062
2018-10-17,120.62000274658203
2018-10-18,117.41000366210938
2018-10-19,114.69000244140625
2018-10-22,116.7699966430664
2018-10-23,115.7300033569336
2018-10-24,109.62000274658203
2018-10-25,96.4800033569336
2018-10-26,87.94999694824219
2018-10-29,84.44000244140625
2018-10-30,89.25
2018-10-31,92.73999786376953
2018-11-01,94.62999725341797
2018-11-02,95.29000091552734
2018-11-05,92.45999908447266
2018-11-06,91.1500015258789
2018-11-07,94.12000274658203
2018-11-08,92.36000061035156
2018-11-09,88.95999908447266
2018-11-12,85.5199966430664
2018-11-13,86.58999633789062
2018-11-14,87.87000274658203
2018-11-15,90.77999877929688
2018-11-16,87.48999786376953
2018-11-19,80.41999816894531
2018-11-20,78.5199966430664
2018-11-21,78.58999633789062
2018-11-23,78.9800033569336
2018-11-26,81.20999908447266
2018-11-27,76.80000305175781
2018-11-28,80.05999755859375
2018-11-29,80.19000244140625
2018-11-30,78.29000091552734
2018-12-03,82.73999786376953
2018-12-04,77.76000213623047
2018-12-06,81.41000366210938
2018-12-07,76.80000305175781
2018-12-10,80.80999755859375
2018-12-11,80.91999816894531
2018-12-12,81.36000061035156
2018-12-13,79.61000061035156
2018-12-14,79.19999694824219
2018-12-17,75.88999938964844
2018-12-18,75.94999694824219
2018-12-19,72.70999908447266
2018-12-20,71.19999694824219
2018-12-21,68.77999877929688
2018-12-24,67.83999633789062
2018-12-26,72.41000366210938
2018-12-27,75.25
2018-12-28,75.98999786376953
2018-12-31,76.80999755859375
2019-01-02,75.45999908447266
2019-01-03,71.30999755859375
2019-01-04,75.80000305175781
2019-01-07,79.8499984741211
2019-01-08,81.08999633789062
2019-01-09,80.38999938964844
2019-01-10,80.97000122070312
2019-01-11,78.54000091552734
2019-01-14,77.91000366210938
2019-01-15,76.58000183105469
2019-01-16,77.98999786376953
2019-01-17,79.66000366210938
2019-01-18,80.97000122070312
2019-01-22,74.55999755859375
2019-01-23,74.45999908447266
2019-01-24,77.23999786376953
2019-01-25,80.7699966430664
2019-01-28,80.98999786376953
2019-01-29,77.02999877929688
2019-01-30,79.94999694824219
2019-01-31,80.4000015258789
2019-02-01,80.12999725341797
2019-02-04,81.41000366210938
2019-02-05,79.87000274658203
2019-02-06,83.94999694824219
2019-02-07,82.2699966430664
2019-02-08,86.08000183105469
2019-02-11,78.08000183105469
2019-02-12,79.56999969482422
2019-02-13,80.7300033569336
2019-02-14,82.47000122070312
2019-02-15,83.20999908447266
2019-02-19,83.54000091552734
2019-02-20,81.68000030517578
2019-02-21,79.5
2019-02-22,79.97000122070312
2019-02-25,81.66000366210938
2019-02-26,80.43000030517578
2019-02-27,81.29000091552734
2019-02-28,81.58000183105469
2019-03-01,83.0199966430664
2019-03-04,77.98999786376953
2019-03-05,79.38999938964844
2019-03-06,76.41999816894531
2019-03-07,73.75
2019-03-08,73.4000015258789
2019-03-11,76.3499984741211
2019-03-12,78.06999969482422
2019-03-13,76.20999908447266
2019-03-14,73.8499984741211
2019-03-15,74.9800033569336
2019-03-18,77.05000305175781
2019-03-19,70.5999984741211
2019-03-20,68.8499984741211
2019-03-21,69.75
2019-03-22,68.58999633789062
2019-03-25,67.86000061035156
2019-03-26,67.25
2019-03-27,66.1500015258789
2019-03-28,66.95999908447266
2019-03-29,69.47000122070312
2019-04-01,70.4800033569336
2019-04-02,70.58000183105469
2019-04-03,70.87999725341797
2019-04-04,70.2699966430664
2019-04-05,71.18000030517578
2019-04-08,71.69999694824219
2019-04-09,70.25
2019-04-10,70.27999877929688
2019-04-11,69.4000015258789
2019-04-12,65.4000015258789
2019-04-15,65.33000183105469
2019-04-16,66.30999755859375
2019-04-17,65.94000244140625
2019-04-18,64.06999969482422
2019-04-22,65.94000244140625
2019-04-23,67.95999908447266
2019-04-24,69.2300033569336
2019-04-25,69.77999877929688
2019-04-26,66.77999877929688
2019-04-29,65.66999816894531
2019-04-30,66.79000091552734
2019-05-01,71.41000366210938
2019-05-02,69.01000213623047
2019-05-03,71.0199966430664
2019-05-06,71.0999984741211
2019-05-07,69.77999877929688
2019-05-08,68.29000091552734
2019-05-09,68.38999938964844
2019-05-10,66.5999984741211
2019-05-13,61.90999984741211
2019-05-14,62.540000915527344
2019-05-15,63.61000061035156
2019-05-16,62.810001373291016
2019-05-17,61.709999084472656
2019-05-20,63.130001068115234
2019-05-21,66.58999633789062
2019-05-22,68.5
2019-05-23,66.13999938964844
2019-05-24,65.87000274658203
2019-05-28,64.41999816894531
2019-05-29,63.9900016784668
2019-05-30,63.79999923706055
2019-05-31,65.1500015258789
2019-06-03,62.939998626708984
2019-06-04,64.81999969482422
2019-06-05,61.619998931884766
2019-06-06,63.13999938964844
2019-06-07,65.22000122070312
2019-06-10,64.69999694824219
2019-06-11,70.05999755859375
2019-06-12,69.94000244140625
2019-06-13,72.93000030517578
2019-06-14,70.16000366210938
2019-06-17,72.01000213623047
2019-06-18,71.33999633789062
2019-06-19,71.56999969482422
2019-06-20,71.73999786376953
2019-06-21,71.16999816894531
2019-06-24,72.19000244140625
2019-06-25,75.9000015258789
2019-06-26,76.81999969482422
2019-06-27,76.16999816894531
2019-06-28,77.98999786376953
2019-07-01,76.55000305175781
2019-07-02,75.88999938964844
2019-07-03,76.98999786376953
2019-07-05,77.86000061035156
2019-07-08,75.80000305175781
2019-07-09,77.30999755859375
2019-07-10,77.05999755859375
2019-07-11,74.0
2019-07-12,75.86000061035156
2019-07-15,76.47000122070312
2019-07-16,75.0199966430664
2019-07-17,74.7300033569336
2019-07-18,74.91000366210938
2019-07-19,75.3499984741211
2019-07-22,73.91000366210938
2019-07-23,73.0
2019-07-24,73.73999786376953
2019-07-25,72.98999786376953
2019-07-26,74.63999938964844
2019-07-29,79.7300033569336
2019-07-30,69.93000030517578
2019-07-31,67.62999725341797
2019-08-01,66.56999969482422
2019-08-02,69.70999908447266
2019-08-05,69.04000091552734
2019-08-06,69.72000122070312
2019-08-07,69.47000122070312
2019-08-08,69.45999908447266
2019-08-09,66.2699966430664
2019-08-12,65.69000244140625
2019-08-13,65.48999786376953
2019-08-14,60.90999984741211
2019-08-15,58.54999923706055
2019-08-16,59.939998626708984
2019-08-19,60.900001525878906
2019-08-20,61.630001068115234
2019-08-21,61.849998474121094
2019-08-22,60.88999938964844
2019-08-23,57.86000061035156
2019-08-26,58.5
2019-08-27,56.459999084472656
2019-08-28,57.54999923706055
2019-08-29,58.75
2019-08-30,59.34000015258789
2019-09-03,56.7400016784668
2019-09-04,58.70000076293945
2019-09-05,60.400001525878906
2019-09-06,60.400001525878906
2019-09-09,62.75
2019-09-10,64.30999755859375
2019-09-11,66.61000061035156
2019-09-12,67.0999984741211
2019-09-13,66.4000015258789
2019-09-16,65.91000366210938
2019-09-17,64.47000122070312
2019-09-18,63.79999923706055
2019-09-19,60.5099983215332
2019-09-20,59.77000045776367
2019-09-23,57.0099983215332
2019-09-24,56.47999954223633
2019-09-25,56.369998931884766
2019-09-26,55.93000030517578
2019-09-27,55.86000061035156
2019-09-30,56.209999084472656
2019-10-01,56.45000076293945
2019-10-02,53.15999984741211
2019-10-03,54.08000183105469
2019-10-04,56.400001525878906
2019-10-07,54.93000030517578
2019-10-08,52.29999923706055
2019-10-09,52.83000183105469
2019-10-10,53.599998474121094
2019-10-11,55.119998931884766
2019-10-14,54.40999984741211
2019-10-15,56.06999969482422
2019-10-16,55.63999938964844
2019-10-17,57.31999969482422
2019-10-18,55.689998626708984
2019-10-21,55.7599983215332
2019-10-22,56.13999938964844
2019-10-23,56.22999954223633
2019-10-24,56.34000015258789
2019-10-25,59.02000045776367
2019-10-28,58.38999938964844
2019-10-29,33.11000061035156
2019-10-30,34.0
2019-10-31,34.060001373291016
2019-11-01,33.720001220703125
2019-11-04,35.0099983215332
2019-11-05,35.63999938964844
2019-11-06,36.13999938964844
2019-11-07,34.61000061035156
2019-11-08,36.189998626708984
2019-11-11,37.15999984741211
2019-11-12,37.310001373291016
2019-11-13,36.630001068115234
2019-11-14,38.5
2019-11-15,39.790000915527344
2019-11-18,40.9900016784668
2019-11-19,40.060001373291016
2019-11-20,40.56999969482422
2019-11-21,41.7400016784668
2019-11-22,42.720001220703125
2019-11-25,42.66999816894531
2019-11-26,42.34000015258789
2019-11-27,43.2400016784668
2019-11-29,43.119998931884766
2019-12-02,42.2599983215332
2019-12-03,42.90999984741211
2019-12-04,42.529998779296875
2019-12-05,40.150001525878906
2019-12-06,41.0099983215332
2019-12-09,39.56999969482422
2019-12-10,39.040000915527344
2019-12-11,40.209999084472656
2019-12-12,42.58000183105469
2019-12-13,43.540000915527344
2019-12-16,45.02000045776367
2019-12-17,45.790000915527344
2019-12-18,46.47999954223633
2019-12-19,48.5
2019-12-20,48.97999954223633
2019-12-23,48.630001068115234
2019-12-24,48.58000183105469
2019-12-26,49.060001373291016
2019-12-27,49.060001373291016
2019-12-30,48.29999923706055
2019-12-31,48.63999938964844
