Date,HTGC
2007-12-31,3.341052532196045
2008-01-02,3.168888807296753
2008-01-03,3.131227970123291
2008-01-04,3.0612876415252686
2008-01-07,3.136608362197876
2008-01-08,2.9913442134857178
2008-01-09,3.012864828109741
2008-01-10,3.0828068256378174
2008-01-11,2.959063768386841
2008-01-14,2.961754322052002
2008-01-15,2.8433921337127686
2008-01-16,2.8541507720947266
2008-01-17,2.743859052658081
2008-01-18,2.751929521560669
2008-01-22,2.8218700885772705
2008-01-23,2.929473400115967
2008-01-24,2.786900281906128
2008-01-25,2.883741855621338
2008-01-28,3.0370771884918213
2008-01-29,3.047835111618042
2008-01-30,3.0074851512908936
2008-01-31,3.133918046951294
2008-02-01,3.0881869792938232
2008-02-04,3.0962562561035156
2008-02-05,3.0666661262512207
2008-02-06,3.158128499984741
2008-02-07,3.2253801822662354
2008-02-08,3.3356714248657227
2008-02-11,3.370643138885498
2008-02-12,3.3249125480651855
2008-02-13,3.3635096549987793
2008-02-14,3.2918288707733154
2008-02-15,3.2835581302642822
2008-02-19,3.324911594390869
2008-02-20,3.3056132793426514
2008-02-21,3.2945847511291504
2008-02-22,3.3000986576080322
2008-02-25,3.3635096549987793
2008-02-26,3.3579952716827393
2008-02-27,3.3910791873931885
2008-02-28,3.3579952716827393
2008-02-29,3.278043508529663
2008-03-03,3.1760361194610596
2008-03-04,3.1843063831329346
2008-03-05,3.1760361194610596
2008-03-06,3.178792953491211
2008-03-07,3.242202043533325
2008-03-10,3.178792953491211
2008-03-11,3.225660562515259
2008-03-12,3.1898205280303955
2008-03-13,3.170520782470703
2008-03-14,3.1374380588531494
2008-03-17,3.0960824489593506
2008-03-18,3.195333480834961
2008-03-19,3.1374380588531494
2008-03-20,3.170520782470703
2008-03-24,3.170520782470703
2008-03-25,3.1594932079315186
2008-03-26,3.1291675567626953
2008-03-27,2.9665050506591797
2008-03-28,2.892066717147827
2008-03-31,2.994074821472168
2008-04-01,3.085054874420166
2008-04-02,3.0740272998809814
2008-04-03,2.994074821472168
2008-04-04,3.007859468460083
2008-04-07,2.97477650642395
2008-04-08,2.9720187187194824
2008-04-09,2.9389350414276123
2008-04-10,3.0133745670318604
2008-04-11,2.905851125717163
2008-04-14,2.911365270614624
2008-04-15,2.9030954837799072
2008-04-16,2.9582345485687256
2008-04-17,3.00510311126709
2008-04-18,3.076784133911133
2008-04-21,3.007859468460083
2008-04-22,2.8893091678619385
2008-04-23,2.864497661590576
2008-04-24,2.894822835922241
2008-04-25,2.8121142387390137
2008-04-28,2.8176286220550537
2008-04-29,2.770759105682373
2008-04-30,2.7983295917510986
2008-05-01,2.8396849632263184
2008-05-02,2.8424413204193115
2008-05-05,2.8617396354675293
2008-05-06,2.9472062587738037
2008-05-07,2.930664539337158
2008-05-08,2.9223930835723877
2008-05-09,2.8617396354675293
2008-05-12,2.8617396354675293
2008-05-13,2.8617396354675293
2008-05-14,2.8731415271759033
2008-05-15,2.881693124771118
2008-05-16,2.8617396354675293
2008-05-19,2.870290994644165
2008-05-20,2.85318922996521
2008-05-21,2.8645904064178467
2008-05-22,2.972902774810791
2008-05-23,2.9472508430480957
2008-05-27,2.9928555488586426
2008-05-28,2.924447774887085
2008-05-29,2.9615025520324707
2008-05-30,2.955801248550415
2008-06-02,2.9501006603240967
2008-06-03,2.9187471866607666
2008-06-04,2.8788416385650635
2008-06-05,2.921597480773926
2008-06-06,2.8788416385650635
2008-06-09,2.8189852237701416
2008-06-10,2.8674416542053223
2008-06-11,2.80188250541687
2008-06-12,2.838937282562256
2008-06-13,2.921597480773926
2008-06-16,2.9900052547454834
2008-06-17,2.9301483631134033
2008-06-18,2.9386987686157227
2008-06-19,2.9329984188079834
2008-06-20,2.8645904064178467
2008-06-23,2.82468581199646
2008-06-24,2.7904813289642334
2008-06-25,2.8560404777526855
2008-06-26,2.7505764961242676
2008-06-27,2.7049713134765625
2008-06-30,2.5453522205352783
2008-07-01,2.505448579788208
2008-07-02,2.4769444465637207
2008-07-03,2.442739963531494
2008-07-07,2.354379177093506
2008-07-08,2.4598424434661865
2008-07-09,2.4056856632232666
2008-07-10,2.437039852142334
2008-07-11,2.4056856632232666
2008-07-14,2.3572309017181396
2008-07-15,2.320175886154175
2008-07-16,2.508298635482788
2008-07-17,2.568155527114868
2008-07-18,2.5567543506622314
2008-07-21,2.5624547004699707
2008-07-22,2.625161647796631
2008-07-23,2.784780740737915
2008-07-24,2.699270725250244
2008-07-25,2.7619781494140625
2008-07-28,2.685019016265869
2008-07-29,2.776231050491333
2008-07-30,2.827535629272461
2008-07-31,2.8360869884490967
2008-08-01,2.8332364559173584
2008-08-04,2.6907193660736084
2008-08-05,2.753427505493164
2008-08-06,2.7733795642852783
2008-08-07,2.5995092391967773
2008-08-08,3.0641160011291504
2008-08-11,3.1838278770446777
2008-08-12,3.1040189266204834
2008-08-13,3.039290189743042
2008-08-14,3.1099040508270264
2008-08-15,3.086365222930908
2008-08-18,3.054002046585083
2008-08-19,3.0245792865753174
2008-08-20,3.083423137664795
2008-08-21,2.98044753074646
2008-08-22,3.083423137664795
2008-08-25,2.9627938270568848
2008-08-26,2.983388900756836
2008-08-27,2.9480834007263184
2008-08-28,3.059885025024414
2008-08-29,3.0628280639648438
2008-09-02,3.021637201309204
2008-09-03,3.0069265365600586
2008-09-04,2.915717601776123
2008-09-05,2.924543857574463
2008-09-08,2.9480834007263184
2008-09-09,2.8715853691101074
2008-09-10,2.9274866580963135
2008-09-11,2.939255475997925
2008-09-12,2.9480834007263184
2008-09-15,2.883354425430298
2008-09-16,2.839221715927124
2008-09-17,2.6921112537384033
2008-09-18,2.824509859085083
2008-09-19,3.106961965560913
2008-09-22,2.971620798110962
2008-09-23,2.9068915843963623
2008-09-24,2.9863314628601074
2008-09-25,2.9892730712890625
2008-09-26,2.933371067047119
2008-09-29,2.8009722232818604
2008-09-30,2.853931427001953
2008-10-01,2.909834146499634
2008-10-02,2.8362791538238525
2008-10-03,2.7715506553649902
2008-10-06,2.5950183868408203
2008-10-07,2.58913516998291
2008-10-08,2.368469715118408
2008-10-09,2.088960886001587
2008-10-10,2.206648588180542
2008-10-13,2.624440908432007
2008-10-14,2.5332329273223877
2008-10-15,2.3802387714385986
2008-10-16,2.45085072517395
2008-10-17,2.2037057876586914
2008-10-20,2.400834083557129
2008-10-21,2.3419899940490723
2008-10-22,2.2713770866394043
2008-10-23,2.2596089839935303
2008-10-24,2.2184181213378906
2008-10-27,2.2125332355499268
2008-10-28,2.5361742973327637
2008-10-29,2.403775691986084
2008-10-30,2.5391175746917725
2008-10-31,2.5538277626037598
2008-11-03,2.5861921310424805
2008-11-04,2.615614652633667
2008-11-05,2.4743876457214355
2008-11-06,2.35964298248291
2008-11-07,2.1654582023620605
2008-11-10,2.083075761795044
2008-11-11,1.977157473564148
2008-11-12,1.9461679458618164
2008-11-13,2.1507015228271484
2008-11-14,1.974057674407959
2008-11-17,1.8439005613327026
2008-11-18,1.8624939918518066
2008-11-19,1.6951488256454468
2008-11-20,1.571189284324646
2008-11-21,1.5432980060577393
2008-11-24,1.8531979322433472
2008-11-25,1.8872867822647095
2008-11-26,1.955464243888855
2008-11-28,1.9988502264022827
2008-12-01,1.8655928373336792
2008-12-02,1.9275729656219482
2008-12-03,2.0887207984924316
2008-12-04,2.1166117191314697
2008-12-05,2.265364170074463
2008-12-08,2.2839574813842773
2008-12-09,2.200284242630005
2008-12-10,2.2343733310699463
2008-12-11,2.156898021697998
2008-12-12,2.246769428253174
2008-12-15,2.252967119216919
2008-12-16,2.4141151905059814
2008-12-17,2.3428382873535156
2008-12-18,2.3118479251861572
2008-12-19,2.3614323139190674
2008-12-22,2.395521402359009
2008-12-23,2.358333110809326
2008-12-24,2.2591652870178223
2008-12-26,2.3335416316986084
2008-12-29,2.240571975708008
2008-12-30,2.2963523864746094
2008-12-31,2.4544012546539307
2009-01-02,2.5008866786956787
2009-01-05,2.5535695552825928
2009-01-06,2.5907583236694336
2009-01-07,2.4884908199310303
2009-01-08,2.5225799083709717
2009-01-09,2.503986120223999
2009-01-12,2.4544012546539307
2009-01-13,2.5690643787384033
2009-01-14,2.4172139167785645
2009-01-15,2.4141151905059814
2009-01-16,2.426511287689209
2009-01-20,2.1847891807556152
2009-01-21,2.231274366378784
2009-01-22,2.200284242630005
2009-01-23,2.200284242630005
2009-01-26,2.22507643699646
2009-01-27,2.1971852779388428
2009-01-28,2.277759313583374
2009-01-29,2.2188782691955566
2009-01-30,2.023642063140869
2009-02-02,2.0267410278320312
2009-02-03,1.9802565574645996
2009-02-04,1.881088137626648
2009-02-05,1.9027811288833618
2009-02-06,2.0112454891204834
2009-02-09,2.0081470012664795
2009-02-10,1.859395146369934
2009-02-11,1.8624939918518066
2009-02-12,1.7943167686462402
2009-02-13,1.5463974475860596
2009-02-17,1.4410313367843628
2009-02-18,1.3263683319091797
2009-02-19,1.390007734298706
2009-02-20,1.4268512725830078
2009-02-23,1.3498144149780273
2009-02-24,1.4134533405303955
2009-02-25,1.5206348896026611
2009-02-26,1.5072370767593384
2009-02-27,1.450297474861145
2009-03-02,1.38665771484375
2009-03-03,1.2526817321777344
2009-03-04,1.3096214532852173
2009-03-05,1.18234384059906
2009-03-06,1.2124882936477661
2009-03-09,1.1990907192230225
2009-03-10,1.279476523399353
2009-03-11,1.2560306787490845
2009-03-12,1.269429087638855
2009-03-13,1.3196696043014526
2009-03-16,1.3431156873703003
2009-03-17,1.4101041555404663
2009-03-18,1.440248727798462
2009-03-19,1.440248727798462
2009-03-20,1.4000561237335205
2009-03-23,1.6479121446609497
2009-03-24,1.6546114683151245
2009-03-25,1.8220826387405396
2009-03-26,1.8254320621490479
2009-03-27,1.7182502746582031
2009-03-30,1.5440808534622192
2009-03-31,1.674708366394043
2009-04-01,1.771841287612915
2009-04-02,1.9493606090545654
2009-04-03,1.8991189002990723
2009-04-06,2.006300449371338
2009-04-07,1.9694569110870361
2009-04-08,1.9192153215408325
2009-04-09,1.989552617073059
2009-04-13,2.1603734493255615
2009-04-14,2.0263962745666504
2009-04-15,2.170421600341797
2009-04-16,2.1268789768218994
2009-04-17,2.2072651386260986
2009-04-20,2.0096497535705566
2009-04-21,2.180469274520874
2009-04-22,2.0967342853546143
2009-04-23,2.0799872875213623
2009-04-24,2.130228281021118
2009-04-27,2.0598905086517334
2009-04-28,2.049842119216919
2009-04-29,2.0799872875213623
2009-04-30,2.012998580932617
2009-05-01,2.0565412044525146
2009-05-04,2.116831064224243
2009-05-05,2.2608559131622314
2009-05-06,2.2876508235931396
2009-05-07,2.42162823677063
2009-05-08,2.8302555084228516
2009-05-11,2.78336501121521
2009-05-12,2.84700345993042
2009-05-13,2.8157548904418945
2009-05-14,2.9164412021636963
2009-05-15,2.892138957977295
2009-05-18,2.9199140071868896
2009-05-19,2.808812141418457
2009-05-20,2.756732702255249
2009-05-21,2.756732702255249
2009-05-22,2.659517288208008
2009-05-26,2.662989616394043
2009-05-27,2.603966236114502
2009-05-28,2.659517288208008
2009-05-29,2.603966236114502
2009-06-01,2.826171636581421
2009-06-02,2.923386335372925
2009-06-03,2.947690010070801
2009-06-04,2.947690010070801
2009-06-05,2.93727445602417
2009-06-08,2.895611524581909
2009-06-09,2.8990838527679443
2009-06-10,2.902555227279663
2009-06-11,2.867835283279419
2009-06-12,2.853947401046753
2009-06-15,2.7914528846740723
2009-06-16,2.8157548904418945
2009-06-17,2.947690010070801
2009-06-18,2.93727445602417
2009-06-19,2.885195016860962
2009-06-22,2.7150700092315674
2009-06-23,2.7115976810455322
2009-06-24,2.826171636581421
2009-06-25,2.951162099838257
2009-06-26,2.8470029830932617
2009-06-29,2.7706198692321777
2009-06-30,2.9164412021636963
2009-07-01,3.044904947280884
2009-07-02,2.926858425140381
2009-07-06,2.954634189605713
2009-07-07,3.006713390350342
2009-07-08,3.034487724304199
2009-07-09,3.0032401084899902
2009-07-10,2.989354372024536
2009-07-13,3.1212871074676514
2009-07-14,3.135176420211792
2009-07-15,3.3191893100738525
2009-07-16,3.4025161266326904
2009-07-17,3.31571626663208
2009-07-20,3.1386477947235107
2009-07-21,3.044904947280884
2009-07-22,3.110872268676758
2009-07-23,3.2358624935150146
2009-07-24,3.2740535736083984
2009-07-27,3.3191893100738525
2009-07-28,3.301830291748047
2009-07-29,3.312244415283203
2009-07-30,3.3782129287719727
2009-07-31,3.3990445137023926
2009-08-03,3.3643243312835693
2009-08-04,3.350437641143799
2009-08-05,3.34696626663208
2009-08-06,3.2428064346313477
2009-08-07,3.2150309085845947
2009-08-10,3.2150309085845947
2009-08-11,3.280998468399048
2009-08-12,3.3957433700561523
2009-08-13,3.456702709197998
2009-08-14,3.4100863933563232
2009-08-17,3.2666549682617188
2009-08-18,3.3240277767181396
2009-08-19,3.4100863933563232
2009-08-20,3.449530601501465
2009-08-21,3.4674580097198486
2009-08-24,3.453115224838257
2009-08-25,3.4244296550750732
2009-08-26,3.449530601501465
2009-08-27,3.4316012859344482
2009-08-28,3.3742282390594482
2009-08-31,3.3204421997070312
2009-09-01,3.2774131298065186
2009-09-02,3.298926830291748
2009-09-03,3.438772678375244
2009-09-04,3.3957433700561523
2009-09-08,3.41725754737854
2009-09-09,3.4674580097198486
2009-09-10,3.474630355834961
2009-09-11,3.5069034099578857
2009-09-14,3.474630355834961
2009-09-15,3.485386371612549
2009-09-16,3.5822043418884277
2009-09-17,3.560689926147461
2009-09-18,3.5750315189361572
2009-09-21,3.546347141265869
2009-09-22,3.6001317501068115
2009-09-23,3.6180617809295654
2009-09-24,3.5427610874176025
2009-09-25,3.535588502883911
2009-09-28,3.5822043418884277
2009-09-29,3.4064998626708984
2009-09-30,3.5212461948394775
2009-10-01,3.5212461948394775
2009-10-02,3.5212461948394775
2009-10-05,3.6108908653259277
2009-10-06,3.7005350589752197
2009-10-07,3.7973525524139404
2009-10-08,3.861893892288208
2009-10-09,3.8583102226257324
2009-10-12,3.7937655448913574
2009-10-13,3.7973525524139404
2009-10-14,3.8224525451660156
2009-10-15,3.8905813694000244
2009-10-16,3.8610804080963135
2009-10-19,3.909019947052002
2009-10-20,3.86476731300354
2009-10-21,3.831578016281128
2009-10-22,3.8832061290740967
2009-10-23,3.783637046813965
2009-10-26,3.709882974624634
2009-10-27,3.650878667831421
2009-10-28,3.4996800422668457
2009-10-29,3.5291826725006104
2009-10-30,3.4591143131256104
2009-11-02,3.43698787689209
2009-11-03,3.400110960006714
2009-11-04,3.3189797401428223
2009-11-05,3.558682918548584
2009-11-06,3.628751039505005
2009-11-09,3.8352653980255127
2009-11-10,3.735697031021118
2009-11-11,3.7283201217651367
2009-11-12,3.6103134155273438
2009-11-13,3.695131301879883
2009-11-16,3.7983884811401367
2009-11-17,3.7688851356506348
2009-11-18,3.779949903488159
2009-11-19,3.6988186836242676
2009-11-20,3.7283201217651367
2009-11-23,3.7061946392059326
2009-11-24,3.779949903488159
2009-11-25,3.6766915321350098
2009-11-27,3.632439136505127
2009-11-30,3.632439136505127
2009-12-01,3.6914429664611816
2009-12-02,3.658254384994507
2009-12-03,3.551307439804077
2009-12-04,3.6140005588531494
2009-12-07,3.643502712249756
2009-12-08,3.558682918548584
2009-12-09,3.632439136505127
2009-12-10,3.636126756668091
2009-12-11,3.684068441390991
2009-12-14,3.750447988510132
2009-12-15,3.606623649597168
2009-12-16,3.7061946392059326
2009-12-17,3.6803793907165527
2009-12-18,3.695131301879883
2009-12-21,3.7578234672546387
2009-12-22,3.809654951095581
2009-12-23,3.8651890754699707
2009-12-24,3.879997968673706
2009-12-28,3.8651890754699707
2009-12-29,3.8651890754699707
2009-12-30,3.902212142944336
2009-12-31,3.8466787338256836
2010-01-04,3.9910671710968018
2010-01-05,4.005876064300537
2010-01-06,4.0762200355529785
2010-01-07,4.002174377441406
2010-01-08,4.009578704833984
2010-01-11,4.087327003479004
2010-01-12,4.024388313293457
2010-01-13,4.039196491241455
2010-01-14,4.02068567276001
2010-01-15,3.9725546836853027
2010-01-19,4.128052234649658
2010-01-20,4.072518348693848
2010-01-21,3.9614477157592773
2010-01-22,3.8948075771331787
2010-01-25,3.86148738861084
2010-01-26,3.709693431854248
2010-01-27,3.883700132369995
2010-01-28,3.794846773147583
2010-01-29,3.7245028018951416
2010-02-01,3.717097282409668
2010-02-02,3.768930435180664
2010-02-03,3.7726311683654785
2010-02-04,3.6097311973571777
2010-02-05,3.650456190109253
2010-02-08,3.6171364784240723
2010-02-09,3.646754741668701
2010-02-10,3.66526460647583
2010-02-11,3.7430129051208496
2010-02-12,3.4135096073150635
2010-02-16,3.457937717437744
2010-02-17,3.4655044078826904
2010-02-18,3.4995527267456055
2010-02-19,3.5146870613098145
2010-02-22,3.6054859161376953
2010-02-23,3.5638697147369385
2010-02-24,3.6773693561553955
2010-02-25,3.6584525108337402
2010-02-26,3.722768783569336
2010-03-01,3.77195143699646
2010-03-02,3.7530357837677
2010-03-03,3.7568185329437256
2010-03-04,3.798433780670166
2010-03-05,3.8892335891723633
2010-03-08,3.881667375564575
2010-03-09,3.877885103225708
2010-03-10,3.8854496479034424
2010-03-11,3.8627517223358154
2010-03-12,3.877885103225708
2010-03-15,3.8892335891723633
2010-03-16,3.8854496479034424
2010-03-17,3.9232842922210693
2010-03-18,4.017866611480713
2010-03-19,4.010298728942871
2010-03-22,4.048131942749023
2010-03-23,4.0405659675598145
2010-03-24,3.972466230392456
2010-03-25,3.972466230392456
2010-03-26,3.9875996112823486
2010-03-29,4.070831775665283
2010-03-30,4.014083385467529
2010-03-31,4.006516456604004
2010-04-01,4.055698871612549
2010-04-05,4.085965156555176
2010-04-06,4.138930797576904
2010-04-07,4.1237993240356445
2010-04-08,4.131365776062012
2010-04-09,4.157848834991455
2010-04-12,4.172980785369873
2010-04-13,4.142714500427246
2010-04-14,4.146498680114746
2010-04-15,4.2978315353393555
2010-04-16,4.218381404876709
2010-04-19,4.172980785369873
2010-04-20,4.252431392669678
2010-04-21,4.267563819885254
2010-04-22,4.210814476013184
2010-04-23,4.350796699523926
2010-04-26,4.29026460647583
2010-04-27,4.195682525634766
2010-04-28,4.116232395172119
2010-04-29,4.225947856903076
2010-04-30,4.101099491119385
2010-05-03,4.029215335845947
2010-05-04,3.904367208480835
2010-05-05,3.8249170780181885
2010-05-06,3.6168360710144043
2010-05-07,3.5979197025299072
2010-05-10,3.652024030685425
2010-05-11,3.6829397678375244
2010-05-12,3.7602319717407227
2010-05-13,3.7447729110717773
2010-05-14,3.6906700134277344
2010-05-17,3.6636178493499756
2010-05-18,3.60178542137146
2010-05-19,3.60564923286438
2010-05-20,3.4124205112457275
2010-05-21,3.420149564743042
2010-05-24,3.4781177043914795
2010-05-25,3.427877902984619
2010-05-26,3.338993787765503
2010-05-27,3.5051698684692383
2010-05-28,3.404691457748413
2010-06-01,3.3312647342681885
2010-06-02,3.5360872745513916
2010-06-03,3.617241382598877
2010-06-04,3.447202205657959
2010-06-07,3.3815040588378906
2010-06-08,3.404691457748413
2010-06-09,3.3505868911743164
2010-06-10,3.4162850379943848
2010-06-11,3.5476808547973633
2010-06-14,3.485846996307373
2010-06-15,3.5708680152893066
2010-06-16,3.551544666290283
2010-06-17,3.520627498626709
2010-06-18,3.636565923690796
2010-06-21,3.5129005908966064
2010-06-22,3.532222032546997
2010-06-23,3.485846996307373
2010-06-24,3.5051698684692383
2010-06-25,3.675211191177368
2010-06-28,3.6558890342712402
2010-06-29,3.4665231704711914
2010-06-30,3.559274196624756
2010-07-01,3.5785984992980957
2010-07-02,3.5670034885406494
2010-07-06,3.628836154937744
2010-07-07,3.6327004432678223
2010-07-08,3.694533586502075
2010-07-09,3.798877716064453
2010-07-12,3.806607246398926
2010-07-13,3.9186792373657227
2010-07-14,3.7486393451690674
2010-07-15,3.84138822555542
2010-07-16,3.7602319717407227
2010-07-19,3.806607246398926
2010-07-20,3.926408052444458
2010-07-21,3.810471773147583
2010-07-22,3.872304916381836
2010-07-23,3.9186792373657227
2010-07-26,3.957324981689453
2010-07-27,4.038481712341309
2010-07-28,4.038481712341309
2010-07-29,4.030753135681152
2010-07-30,4.042346477508545
2010-08-02,4.007565975189209
2010-08-03,3.99983549118042
2010-08-04,4.084855556488037
2010-08-05,4.0230231285095215
2010-08-06,3.9921061992645264
2010-08-09,4.015294551849365
2010-08-10,3.975888252258301
2010-08-11,3.8576769828796387
2010-08-12,3.841914653778076
2010-08-13,3.774928331375122
2010-08-16,3.794630289077759
2010-08-17,3.853736400604248
2010-08-18,3.881319284439087
2010-08-19,3.7315833568573
2010-08-20,3.7985689640045166
2010-08-23,3.727642059326172
2010-08-24,3.6527743339538574
2010-08-25,3.7118818759918213
2010-08-26,3.629133462905884
2010-08-27,3.704000234603882
2010-08-30,3.6173112392425537
2010-08-31,3.5976083278656006
2010-09-01,3.6882388591766357
2010-09-02,3.715822696685791
2010-09-03,3.7394635677337646
2010-09-07,3.6330723762512207
2010-09-08,3.723701000213623
2010-09-09,3.767047643661499
2010-09-10,3.82615327835083
2010-09-13,3.9167840480804443
2010-09-14,3.889200210571289
2010-09-15,3.818272590637207
2010-09-16,3.8143324851989746
2010-09-17,3.861616373062134
2010-09-20,3.912842273712158
2010-09-21,3.8497960567474365
2010-09-22,3.8143324851989746
2010-09-23,3.7709875106811523
2010-09-24,3.912842273712158
2010-09-27,3.8852591514587402
2010-09-28,3.912842273712158
2010-09-29,3.8576769828796387
2010-09-30,3.9837708473205566
2010-10-01,3.9404239654541016
2010-10-04,3.9207229614257812
2010-10-05,4.054698944091797
2010-10-06,4.050756931304932
2010-10-07,3.987710475921631
2010-10-08,4.050756931304932
2010-10-11,4.038935661315918
2010-10-12,3.979829788208008
2010-10-13,4.0231757164001465
2010-10-14,4.066519260406494
2010-10-15,3.9483070373535156
2010-10-18,4.090163230895996
2010-10-19,4.034996509552002
2010-10-20,4.098042964935303
2010-10-21,4.074399948120117
2010-10-22,4.050756931304932
2010-10-25,4.058638572692871
2010-10-26,4.08228063583374
2010-10-27,4.090163230895996
2010-10-28,3.9916510581970215
2010-10-29,4.011353015899658
2010-11-01,3.979829788208008
2010-11-02,4.137446403503418
2010-11-03,4.212315559387207
2010-11-04,4.27930212020874
2010-11-05,4.299005031585693
2010-11-08,4.347170829772949
2010-11-09,4.214710235595703
2010-11-10,4.062178134918213
2010-11-11,4.102317810058594
2010-11-12,4.082248687744141
2010-11-15,4.082248687744141
2010-11-16,3.9618279933929443
2010-11-17,4.09027624130249
2010-11-18,4.094290733337402
2010-11-19,4.086263179779053
2010-11-22,4.03006649017334
2010-11-23,3.9738688468933105
2010-11-24,4.00999641418457
2010-11-26,4.0380940437316895
2010-11-29,4.050135612487793
2010-11-30,4.005983352661133
2010-12-01,4.070206165313721
2010-12-02,4.042108535766602
2010-12-03,4.014009952545166
2010-12-06,4.070206165313721
2010-12-07,4.126401901245117
2010-12-08,4.1825995445251465
2010-12-09,4.1545000076293945
2010-12-10,4.218723773956299
2010-12-13,4.178585052490234
2010-12-14,4.130415916442871
2010-12-15,4.058163642883301
2010-12-16,4.070206165313721
2010-12-17,4.0541510581970215
2010-12-20,4.130415916442871
2010-12-21,4.16654109954834
2010-12-22,4.258864879608154
2010-12-23,4.222738265991211
2010-12-27,4.134430408477783
2010-12-28,4.194640159606934
2010-12-29,4.230766296386719
2010-12-30,4.214710235595703
2010-12-31,4.15851354598999
2011-01-03,4.290976047515869
2011-01-04,4.3271026611328125
2011-01-05,4.359214782714844
2011-01-06,4.351187705993652
2011-01-07,4.339144229888916
2011-01-10,4.339144229888916
2011-01-11,4.250836372375488
2011-01-12,4.323089599609375
2011-01-13,4.315062046051025
2011-01-14,4.335129737854004
2011-01-18,4.299004554748535
2011-01-19,4.2026686668396
2011-01-20,4.1825995445251465
2011-01-21,4.214710235595703
2011-01-24,4.258864879608154
2011-01-25,4.3271026611328125
2011-01-26,4.335129737854004
2011-01-27,4.347170829772949
2011-01-28,4.222738265991211
2011-01-31,4.214710235595703
2011-02-01,4.270906925201416
2011-02-02,4.343158721923828
2011-02-03,4.266891956329346
2011-02-04,4.303018569946289
2011-02-07,4.347170829772949
2011-02-08,4.391327857971191
2011-02-09,4.355201244354248
2011-02-10,4.270906925201416
2011-02-11,4.299004554748535
2011-02-14,4.299004554748535
2011-02-15,4.387312412261963
2011-02-16,4.399354457855225
2011-02-17,4.403369426727295
2011-02-18,4.399354457855225
2011-02-22,4.387312412261963
2011-02-23,4.294990062713623
2011-02-24,4.339144229888916
2011-02-25,4.403369426727295
2011-02-28,4.43949556350708
2011-03-01,4.299004554748535
2011-03-02,4.375269412994385
2011-03-03,4.455550670623779
2011-03-04,4.575972080230713
2011-03-07,4.575972080230713
2011-03-08,4.629180431365967
2011-03-09,4.56369161605835
2011-03-10,4.502296447753906
2011-03-11,4.498203754425049
2011-03-14,4.404064178466797
2011-03-15,4.350856304168701
2011-03-16,4.285368919372559
2011-03-17,4.2730889320373535
2011-03-18,4.399972915649414
2011-03-21,4.420437335968018
2011-03-22,4.395880222320557
2011-03-23,4.395880222320557
2011-03-24,4.4409027099609375
2011-03-25,4.506389617919922
2011-03-28,4.465460777282715
2011-03-29,4.469552516937256
2011-03-30,4.567786693572998
2011-03-31,4.502296447753906
2011-04-01,4.588249683380127
2011-04-04,4.604623317718506
2011-04-05,4.596437454223633
2011-04-06,4.64964485168457
2011-04-07,4.596437454223633
2011-04-08,4.506389617919922
2011-04-11,4.232160568237305
2011-04-12,4.146207332611084
2011-04-13,4.203508377075195
2011-04-14,4.191229820251465
2011-04-15,4.228067398071289
2011-04-18,4.166672706604004
2011-04-19,4.1298346519470215
2011-04-20,4.16257905960083
2011-04-21,4.16257905960083
2011-04-25,4.195322036743164
2011-04-26,4.240345478057861
2011-04-27,4.3017401695251465
2011-04-28,4.399972915649414
2011-04-29,4.399972915649414
2011-05-02,4.350856304168701
2011-05-03,4.350856304168701
2011-05-04,4.30583381652832
2011-05-05,4.248532295227051
2011-05-06,4.297647476196289
2011-05-09,4.277182579040527
2011-05-10,4.338577747344971
2011-05-11,4.338578224182129
2011-05-12,4.392913818359375
2011-05-13,4.3552961349487305
2011-05-16,4.326038837432861
2011-05-17,4.334396839141846
2011-05-18,4.405453205108643
2011-05-19,4.397094249725342
2011-05-20,4.338578224182129
2011-05-23,4.334396839141846
2011-05-24,4.35111665725708
2011-05-25,4.384554386138916
2011-05-26,4.455608367919922
2011-05-27,4.4723286628723145
2011-05-31,4.576822757720947
2011-06-01,4.430531978607178
2011-06-02,4.443070411682129
2011-06-03,4.321859359741211
2011-06-06,4.284239768981934
2011-06-07,4.326038837432861
2011-06-08,4.401273250579834
2011-06-09,4.4639692306518555
2011-06-10,4.305140495300293
2011-06-13,4.35111665725708
2011-06-14,4.41381311416626
2011-06-15,4.330218315124512
2011-06-16,4.321859359741211
2011-06-17,4.296778678894043
2011-06-20,4.330218315124512
2011-06-21,4.334396839141846
2011-06-22,4.254983425140381
2011-06-23,4.305140495300293
2011-06-24,4.305140495300293
2011-06-27,4.384554386138916
2011-06-28,4.330218315124512
2011-06-29,4.334396839141846
2011-06-30,4.397094249725342
2011-07-01,4.409632682800293
2011-07-05,4.41381311416626
2011-07-06,4.443070411682129
2011-07-07,4.514126300811768
2011-07-08,4.493228912353516
2011-07-11,4.41381311416626
2011-07-12,4.376195907592773
2011-07-13,4.380374431610107
2011-07-14,4.3552961349487305
2011-07-15,4.317679405212402
2011-07-18,4.254983425140381
2011-07-19,4.359476089477539
2011-07-20,4.321859359741211
2011-07-21,4.397094249725342
2011-07-22,4.392913818359375
2011-07-25,4.334396839141846
2011-07-26,4.313498020172119
2011-07-27,4.104511737823486
2011-07-28,4.050174713134766
2011-07-29,3.928962469100952
2011-08-01,4.050174713134766
2011-08-02,3.941502094268799
2011-08-03,4.000018119812012
2011-08-04,3.791030168533325
2011-08-05,3.916422128677368
2011-08-08,3.5569651126861572
2011-08-09,3.8829853534698486
2011-08-10,3.569504737854004
2011-08-11,3.7883081436157227
2011-08-12,3.8698229789733887
2011-08-15,3.95991849899292
2011-08-16,3.908435583114624
2011-08-17,3.942755937576294
2011-08-18,3.7883081436157227
2011-08-19,3.7196648120880127
2011-08-22,3.6896307468414307
2011-08-23,3.929886817932129
2011-08-24,3.9384677410125732
2011-08-25,3.8483707904815674
2011-08-26,3.8355014324188232
2011-08-29,4.058594226837158
2011-08-30,4.028563022613525
2011-08-31,4.075755596160889
2011-09-01,3.934175968170166
2011-09-02,3.7968883514404297
2011-09-06,3.7711470127105713
2011-09-07,3.9384677410125732
2011-09-08,3.8355014324188232
2011-09-09,3.801177501678467
2011-09-12,3.8183391094207764
2011-09-13,3.9213054180145264
2011-09-14,3.9684977531433105
2011-09-15,4.015690803527832
2011-09-16,4.024271488189697
2011-09-19,3.9384677410125732
2011-09-20,3.895563840866089
2011-09-21,3.74969482421875
2011-09-22,3.702502965927124
2011-09-23,3.71108341217041
2011-09-26,3.82262921333313
2011-09-27,3.908435583114624
2011-09-28,3.698211193084717
2011-09-29,3.8784029483795166
2011-09-30,3.6553092002868652
2011-10-03,3.5180203914642334
2011-10-04,3.6252777576446533
2011-10-05,3.6681811809539795
2011-10-06,3.7968883514404297
2011-10-07,3.6896307468414307
2011-10-10,3.874112606048584
2011-10-11,3.899855136871338
2011-10-12,4.015690803527832
2011-10-13,3.9899497032165527
2011-10-14,4.105787754058838
2011-10-17,3.9684977531433105
2011-10-18,4.062884330749512
2011-10-19,3.95133900642395
2011-10-20,3.934175968170166
2011-10-21,3.9684977531433105
2011-10-24,4.114367485046387
2011-10-25,4.002821445465088
2011-10-26,4.071464538574219
2011-10-27,4.277398109436035
2011-10-28,4.273109436035156
2011-10-31,4.152981281280518
2011-11-01,4.0328545570373535
2011-11-02,4.157270431518555
2011-11-03,4.285979270935059
2011-11-04,4.221624374389648
2011-11-07,4.140110969543457
2011-11-08,4.135819435119629
2011-11-09,3.9558112621307373
2011-11-10,3.9689812660217285
2011-11-11,4.100697040557861
2011-11-14,4.056790828704834
2011-11-15,4.127039909362793
2011-11-16,4.034837245941162
2011-11-17,3.9997153282165527
2011-11-18,4.039228916168213
2011-11-21,3.9689812660217285
2011-11-22,3.9162960052490234
2011-11-23,3.8021435737609863
2011-11-25,3.758239269256592
2011-11-28,3.898733139038086
2011-11-29,3.8943445682525635
2011-11-30,4.1446003913879395
2011-12-01,4.100697040557861
2011-12-02,4.127039909362793
2011-12-05,4.162160873413086
2011-12-06,4.179723262786865
2011-12-07,4.175334453582764
2011-12-08,4.048010349273682
2011-12-09,4.105086326599121
2011-12-12,4.02605676651001
2011-12-13,4.061180114746094
2011-12-14,4.0963053703308105
2011-12-15,4.148989677429199
2011-12-16,4.118256568908691
2011-12-19,4.083133220672607
2011-12-20,4.219237804412842
2011-12-21,4.2368011474609375
2011-12-22,4.192896366119385
2011-12-23,4.219237804412842
2011-12-27,4.210456848144531
2011-12-28,4.153380870819092
2011-12-29,4.131428241729736
2011-12-30,4.1446003913879395
2012-01-03,4.219237804412842
2012-01-04,4.232409477233887
2012-01-05,4.27192497253418
2012-01-06,4.280704975128174
2012-01-09,4.311439037322998
2012-01-10,4.465105056762695
2012-01-11,4.482666015625
2012-01-12,4.4255900382995605
2012-01-13,4.364123821258545
2012-01-17,4.328999042510986
2012-01-18,4.456322193145752
2012-01-19,4.500227451324463
2012-01-20,4.2675347328186035
2012-01-23,4.254361629486084
2012-01-24,4.22362756729126
2012-01-25,4.2280192375183105
2012-01-26,4.210456848144531
2012-01-27,4.2368011474609375
2012-01-30,4.184114456176758
2012-01-31,4.184114456176758
2012-02-01,4.285093784332275
2012-02-02,4.364123821258545
2012-02-03,4.78560733795166
2012-02-06,4.645113468170166
2012-02-07,4.658284664154053
2012-02-08,4.70658016204834
2012-02-09,4.658284664154053
2012-02-10,4.583645820617676
2012-02-13,4.588037490844727
2012-02-14,4.530960559844971
2012-02-15,4.491446495056152
2012-02-16,4.570476055145264
2012-02-17,4.588037490844727
2012-02-21,4.583645820617676
2012-02-22,4.535351753234863
2012-02-23,4.601207256317139
2012-02-24,4.57486629486084
2012-02-27,4.596817970275879
2012-02-28,4.605599880218506
2012-02-29,4.530960559844971
2012-03-01,4.658284664154053
2012-03-02,4.588037490844727
2012-03-05,4.697799205780029
2012-03-06,4.579255104064941
2012-03-07,4.789998531341553
2012-03-08,4.807939052581787
2012-03-09,4.848304271697998
2012-03-12,4.812424182891846
2012-03-13,4.902122974395752
2012-03-14,4.807939052581787
2012-03-15,4.803454399108887
2012-03-16,4.722723007202148
2012-03-19,4.839332580566406
2012-03-20,4.839332580566406
2012-03-21,4.879698276519775
2012-03-22,4.848304271697998
2012-03-23,4.955944061279297
2012-03-26,5.050130367279053
2012-03-27,4.9380035400390625
2012-03-28,4.870729923248291
2012-03-29,4.879698276519775
2012-03-30,4.969400405883789
2012-04-02,4.987338066101074
2012-04-03,4.969400405883789
2012-04-04,4.9738850593566895
2012-04-05,4.987338066101074
2012-04-09,4.915579319000244
2012-04-10,4.8348493576049805
2012-04-11,4.906609058380127
2012-04-12,4.92903470993042
2012-04-13,4.9380035400390625
2012-04-16,4.9604291915893555
2012-04-17,5.018734455108643
2012-04-18,4.996310234069824
2012-04-19,4.955944061279297
2012-04-20,4.9738850593566895
2012-04-23,4.924548149108887
2012-04-24,5.009765625
2012-04-25,5.050130367279053
2012-04-26,5.112920761108398
2012-04-27,5.157770156860352
2012-04-30,5.117406845092773
2012-05-01,5.050130367279053
2012-05-02,5.1263747215271
2012-05-03,5.063584327697754
2012-05-04,5.045644760131836
2012-05-07,5.157770156860352
2012-05-08,5.139831066131592
2012-05-09,4.924548149108887
2012-05-10,4.987338066101074
2012-05-11,4.978368759155273
2012-05-14,4.9738850593566895
2012-05-15,5.0142502784729
2012-05-16,5.005082607269287
2012-05-17,4.922582626342773
2012-05-18,4.679660320281982
2012-05-21,4.739245891571045
2012-05-22,4.785078048706055
2012-05-23,4.867581844329834
2012-05-24,4.81716251373291
2012-05-25,4.830913066864014
2012-05-29,4.8584136962890625
2012-05-30,4.853829383850098
2012-05-31,4.840080261230469
2012-06-01,4.780495643615723
2012-06-04,4.739245891571045
2012-06-05,4.766745090484619
2012-06-06,4.913414478302002
2012-06-07,4.9271650314331055
2012-06-08,4.972999572753906
2012-06-11,4.936333179473877
2012-06-12,4.98216438293457
2012-06-13,4.899664402008057
2012-06-14,5.014249801635742
2012-06-15,4.963831424713135
2012-06-18,4.940915584564209
2012-06-19,5.083001136779785
2012-06-20,4.977582931518555
2012-06-21,4.849246501922607
2012-06-22,4.977582931518555
2012-06-25,4.963831424713135
2012-06-26,4.9500813484191895
2012-06-27,5.078418254852295
2012-06-28,5.147168159484863
2012-06-29,5.197585582733154
2012-07-02,5.303004741668701
2012-07-03,5.225086688995361
2012-07-05,5.229671001434326
2012-07-06,5.188416957855225
2012-07-09,5.243419647216797
2012-07-10,5.225086688995361
2012-07-11,5.174668788909912
2012-07-12,5.206752300262451
2012-07-13,5.229671001434326
2012-07-16,5.220503807067871
2012-07-17,5.170085906982422
2012-07-18,5.211336612701416
2012-07-19,5.202169418334961
2012-07-20,5.160919666290283
2012-07-23,5.115085124969482
2012-07-24,5.133418083190918
2012-07-25,5.133418083190918
2012-07-26,5.110501289367676
2012-07-27,5.266336917877197
2012-07-30,5.160919666290283
2012-07-31,5.147168159484863
2012-08-01,5.073832988739014
2012-08-02,5.147168159484863
2012-08-03,5.037166595458984
2012-08-06,5.060083866119385
2012-08-07,5.083001136779785
2012-08-08,5.115085124969482
2012-08-09,5.193002700805664
2012-08-10,5.229671001434326
2012-08-13,5.206752300262451
2012-08-14,5.206752300262451
2012-08-15,5.239529132843018
2012-08-16,5.286351680755615
2012-08-17,5.272305965423584
2012-08-20,5.286351680755615
2012-08-21,5.272305965423584
2012-08-22,5.2348480224609375
2012-08-23,5.211435317993164
2012-08-24,5.309764385223389
2012-08-27,5.286351680755615
2012-08-28,5.281669616699219
2012-08-29,5.342540264129639
2012-08-30,5.253576278686523
2012-08-31,5.239529132843018
2012-09-04,5.253576278686523
2012-09-05,5.225482940673828
2012-09-06,5.333176612854004
2012-09-07,5.323812007904053
2012-09-10,5.314445972442627
2012-09-11,5.253576278686523
2012-09-12,5.347221851348877
2012-09-13,5.342540264129639
2012-09-14,5.394045352935791
2012-09-17,5.398727893829346
2012-09-18,5.267623424530029
2012-09-19,5.295716762542725
2012-09-20,5.272305965423584
2012-09-21,5.333176612854004
2012-09-24,5.342540264129639
2012-09-25,5.305080890655518
2012-09-26,5.267623424530029
2012-09-27,5.347221851348877
2012-09-28,5.155247688293457
2012-10-01,5.173977375030518
2012-10-02,5.188024520874023
2012-10-03,5.169295310974121
2012-10-04,5.1927056312561035
2012-10-05,5.178658962249756
2012-10-08,5.178658962249756
2012-10-09,5.113105297088623
2012-10-10,5.117788314819336
2012-10-11,5.131835460662842
2012-10-12,5.061601161956787
2012-10-15,5.010095119476318
2012-10-16,5.113105297088623
2012-10-17,5.127154350280762
2012-10-18,5.108424663543701
2012-10-19,5.033506870269775
2012-10-22,5.108424663543701
2012-10-23,4.953906059265137
2012-10-24,5.056918144226074
2012-10-25,5.099058151245117
2012-10-26,5.089693546295166
2012-10-31,5.056918144226074
2012-11-01,5.033506870269775
2012-11-02,5.024141788482666
2012-11-05,5.005412578582764
2012-11-06,4.963271617889404
2012-11-07,4.869625091552734
2012-11-08,4.719791412353516
2012-11-09,4.820517539978027
2012-11-12,4.8684821128845215
2012-11-13,4.916447162628174
2012-11-14,4.858890056610107
2012-11-15,4.820517539978027
2012-11-16,4.983599662780762
2012-11-19,5.089123249053955
2012-11-20,5.007580280303955
2012-11-21,5.065140247344971
2012-11-23,5.1083083152771
2012-11-26,5.079531192779541
2012-11-27,5.098716735839844
2012-11-28,5.098716735839844
2012-11-29,5.113104343414307
2012-11-30,5.156274795532227
2012-12-03,5.156274795532227
2012-12-04,5.132291793823242
2012-12-05,5.079531192779541
2012-12-06,5.089123249053955
2012-12-07,5.012378692626953
2012-12-10,5.050750732421875
2012-12-11,5.065140247344971
2012-12-12,5.050750732421875
2012-12-13,5.0699381828308105
2012-12-14,5.079531192779541
2012-12-17,5.113104343414307
2012-12-18,5.218628883361816
2012-12-19,5.319357395172119
2012-12-20,5.362527370452881
2012-12-21,5.31456184387207
2012-12-24,5.3097639083862305
2012-12-26,5.266594886779785
2012-12-27,5.213833332061768
2012-12-28,5.218628883361816
2012-12-31,5.3385443687438965
2013-01-02,5.396101474761963
2013-01-03,5.381712436676025
2013-01-04,5.444067478179932
2013-01-07,5.578368663787842
2013-01-08,5.616742134094238
2013-01-09,5.683894157409668
2013-01-10,5.607149124145508
2013-01-11,5.563980579376221
2013-01-14,5.559184551239014
2013-01-15,5.616742134094238
2013-01-16,5.669504165649414
2013-01-17,5.669504165649414
2013-01-18,5.693486213684082
2013-01-22,5.693486213684082
2013-01-23,5.751047134399414
2013-01-24,5.765435218811035
2013-01-25,5.736655235290527
2013-01-28,5.7030792236328125
2013-01-29,5.827788352966309
2013-01-30,5.717470169067383
2013-01-31,5.866161823272705
2013-02-01,5.894941329956055
2013-02-04,5.818197727203369
2013-02-05,5.87575626373291
2013-02-06,5.885349273681641
2013-02-07,5.880552291870117
2013-02-08,5.928516864776611
2013-02-11,5.894941329956055
2013-02-12,5.966891288757324
2013-02-13,6.000464916229248
2013-02-14,6.067615509033203
2013-02-15,5.89973783493042
2013-02-19,5.966891288757324
2013-02-20,5.9381103515625
2013-02-21,5.904534339904785
2013-02-22,6.000464916229248
2013-02-25,5.890144348144531
2013-02-26,5.914128303527832
2013-02-27,5.962093353271484
2013-02-28,6.010056495666504
2013-03-01,6.062819004058838
2013-03-04,6.101192951202393
2013-03-05,6.158750057220459
2013-03-06,6.096395969390869
2013-03-07,6.125752925872803
2013-03-08,6.03768253326416
2013-03-11,6.023004531860352
2013-03-12,6.018110752105713
2013-03-13,6.013217449188232
2013-03-14,6.0474677085876465
2013-03-15,6.003432750701904
2013-03-18,5.978971004486084
2013-03-19,5.95939826965332
2013-03-20,5.949611663818359
2013-03-21,5.944717884063721
2013-03-22,5.993649005889893
2013-03-25,5.974077224731445
2013-03-26,6.03768253326416
2013-03-27,6.03768253326416
2013-03-28,5.993649005889893
2013-04-01,5.974077224731445
2013-04-02,5.974077224731445
2013-04-03,5.827293872833252
2013-04-04,5.7930450439453125
2013-04-05,5.7636871337890625
2013-04-08,5.768581390380859
2013-04-09,5.729438304901123
2013-04-10,6.042574882507324
2013-04-11,6.057253360748291
2013-04-12,5.993649005889893
2013-04-15,5.788151741027832
2013-04-16,5.881114482879639
2013-04-17,5.749008655548096
2013-04-18,5.832186698913574
2013-04-19,5.8713297843933105
2013-04-22,6.174679279327393
2013-04-23,6.2725348472595215
2013-04-24,6.297000885009766
2013-04-25,6.355713367462158
2013-04-26,6.360606670379639
2013-04-29,6.463354110717773
2013-04-30,6.507389545440674
2013-05-01,6.341033935546875
2013-05-02,6.385068416595459
2013-05-03,6.5612077713012695
2013-05-06,6.492710590362549
2013-05-07,6.4193196296691895
2013-05-08,6.531853199005127
2013-05-09,6.531853199005127
2013-05-10,6.556822776794434
2013-05-13,6.551828861236572
2013-05-14,6.596770763397217
2013-05-15,6.561814785003662
2013-05-16,6.586782455444336
2013-05-17,6.656697750091553
2013-05-20,6.70164155960083
2013-05-21,6.711627006530762
2013-05-22,6.611752510070801
2013-05-23,6.641716003417969
2013-05-24,6.656697750091553
2013-05-28,6.721616268157959
2013-05-29,6.6467084884643555
2013-05-30,6.83647346496582
2013-05-31,6.691653251647949
2013-06-03,6.7715559005737305
2013-06-04,6.7515788078308105
2013-06-05,6.731602191925049
2013-06-06,6.721616268157959
2013-06-07,6.746585845947266
2013-06-10,6.7515788078308105
2013-06-11,6.651701927185059
2013-06-12,6.546833038330078
2013-06-13,6.681664943695068
2013-06-14,6.686659812927246
2013-06-17,6.706634044647217
2013-06-18,6.736598014831543
2013-06-19,6.686659812927246
2013-06-20,6.596770763397217
2013-06-21,6.901391983032227
2013-06-24,6.631725788116455
2013-06-25,6.721616268157959
2013-06-26,6.781538486480713
2013-06-27,7.056197166442871
2013-06-28,6.961317539215088
2013-07-01,6.966311931610107
2013-07-02,6.9163737297058105
2013-07-03,6.85145378112793
2013-07-05,6.87642240524292
2013-07-08,6.841467380523682
2013-07-09,6.85145378112793
2013-07-10,6.9812912940979
2013-07-11,7.076172828674316
2013-07-12,7.026236057281494
2013-07-15,7.036223411560059
2013-07-16,7.001266956329346
2013-07-17,6.996274471282959
2013-07-18,7.021242618560791
2013-07-19,7.041219234466553
2013-07-22,7.041219234466553
2013-07-23,7.021242618560791
2013-07-24,6.961317539215088
2013-07-25,6.936349868774414
2013-07-26,6.951329708099365
2013-07-29,6.881415367126465
2013-07-30,6.926360607147217
2013-07-31,6.961317539215088
2013-08-01,7.011253833770752
2013-08-02,7.250956058502197
2013-08-05,7.245963096618652
2013-08-06,7.305886268615723
2013-08-07,7.325862884521484
2013-08-08,7.390781879425049
2013-08-09,7.406052112579346
2013-08-12,7.533302307128906
2013-08-13,7.528212070465088
2013-08-14,7.538393974304199
2013-08-15,7.416232109069824
2013-08-16,7.426413059234619
2013-08-19,7.24316930770874
2013-08-20,7.548573017120361
2013-08-21,7.512942790985107
2013-08-22,7.548573017120361
2013-08-23,7.507854461669922
2013-08-26,7.512942790985107
2013-08-27,7.390782356262207
2013-08-28,7.42132043838501
2013-08-29,7.431501388549805
2013-08-30,7.375510215759277
2013-09-03,7.436592102050781
2013-09-04,7.507854461669922
2013-09-05,7.518033027648926
2013-09-06,7.543483257293701
2013-09-09,7.446771144866943
2013-09-10,7.523122310638428
2013-09-11,7.512942790985107
2013-09-12,7.563843727111816
2013-09-13,7.60965633392334
2013-09-16,7.650373935699463
2013-09-17,7.619835376739502
2013-09-18,7.660553932189941
2013-09-19,7.665646553039551
2013-09-20,7.6249237060546875
2013-09-23,7.680914878845215
2013-09-24,7.731818199157715
2013-09-25,7.86924934387207
2013-09-26,7.808166980743408
2013-09-27,7.752176284790039
2013-09-30,7.762354373931885
2013-10-01,7.741997241973877
2013-10-02,7.680914878845215
2013-10-03,7.640195846557617
2013-10-04,7.701275825500488
2013-10-07,7.614743709564209
2013-10-08,7.604564666748047
2013-10-09,7.579111099243164
2013-10-10,7.640195846557617
2013-10-11,7.731818199157715
2013-10-14,7.721635341644287
2013-10-15,7.680914878845215
2013-10-16,7.726725101470947
2013-10-17,7.741997241973877
2013-10-18,7.787807464599609
2013-10-21,7.767447471618652
2013-10-22,7.884517192840576
2013-10-23,7.976137638092041
2013-10-24,8.0270414352417
2013-10-25,8.113572120666504
2013-10-28,8.159380912780762
2013-10-29,8.174651145935059
2013-10-30,7.991408824920654
2013-10-31,7.859070777893066
2013-11-01,7.8488874435424805
2013-11-04,7.879426956176758
2013-11-05,8.006680488586426
2013-11-06,8.062670707702637
2013-11-07,7.894699573516846
2013-11-08,8.266273498535156
2013-11-11,8.459696769714355
2013-11-12,8.525866508483887
2013-11-13,8.663299560546875
2013-11-14,8.559608459472656
2013-11-15,8.735882759094238
2013-11-18,8.76180362701416
2013-11-19,8.627006530761719
2013-11-20,8.68922233581543
2013-11-21,8.76180362701416
2013-11-22,8.83438777923584
2013-11-25,8.839571952819824
2013-11-26,8.808464050292969
2013-11-27,8.860309600830078
2013-11-29,8.84994125366211
2013-12-02,8.68922233581543
2013-12-03,8.699589729309082
2013-12-04,8.663298606872559
2013-12-05,8.595900535583496
2013-12-06,8.720328330993652
2013-12-09,8.68922233581543
2013-12-10,8.735882759094238
2013-12-11,8.673666954040527
2013-12-12,8.673666954040527
2013-12-13,8.684037208557129
2013-12-16,8.58034610748291
2013-12-17,8.673666954040527
2013-12-18,8.7047758102417
2013-12-19,8.362597465515137
2013-12-20,8.523317337036133
2013-12-23,8.678850173950195
2013-12-24,8.725513458251953
2013-12-26,8.642560005187988
2013-12-27,8.590715408325195
2013-12-30,8.538870811462402
2013-12-31,8.502578735351562
2014-01-02,8.41443920135498
2014-01-03,8.41443920135498
2014-01-06,8.41962718963623
2014-01-07,8.061897277832031
2014-01-08,8.248537063598633
2014-01-09,8.310751914978027
2014-01-10,8.165587425231934
2014-01-13,8.025605201721191
2014-01-14,8.186325073242188
2014-01-15,8.492210388183594
2014-01-16,8.331489562988281
2014-01-17,8.383338928222656
2014-01-21,8.481842041015625
2014-01-22,8.54405403137207
2014-01-23,8.528501510620117
2014-01-24,8.212247848510742
2014-01-27,8.00486946105957
2014-01-28,8.222617149353027
2014-01-29,8.113741874694824
2014-01-30,8.352228164672852
2014-01-31,8.222617149353027
2014-02-03,7.984129428863525
2014-02-04,8.129297256469727
2014-02-05,8.098188400268555
2014-02-06,8.144848823547363
2014-02-07,8.23816967010498
2014-02-10,8.310751914978027
2014-02-11,8.404072761535645
2014-02-12,8.41443920135498
2014-02-13,8.487025260925293
2014-02-14,8.497392654418945
2014-02-18,8.575161933898926
2014-02-19,8.45073413848877
2014-02-20,8.538870811462402
2014-02-21,8.497392654418945
2014-02-24,8.585533142089844
2014-02-25,8.341858863830566
2014-02-26,8.424811363220215
2014-02-27,8.461103439331055
2014-02-28,8.160400390625
2014-03-03,8.160400390625
2014-03-04,8.072264671325684
2014-03-05,8.046342849731445
2014-03-06,8.004022598266602
2014-03-07,7.7553815841674805
2014-03-10,7.951119422912598
2014-03-11,7.676031589508057
2014-03-12,8.056923866271973
2014-03-13,8.130983352661133
2014-03-14,8.093955039978027
2014-03-17,7.850607395172119
2014-03-18,7.824155807495117
2014-03-19,7.7395148277282715
2014-03-20,7.8347368240356445
2014-03-21,7.919379234313965
2014-03-24,7.892928600311279
2014-03-25,7.951119422912598
2014-03-26,7.702479362487793
2014-03-27,7.681320667266846
2014-03-28,7.654870510101318
2014-03-31,7.443263530731201
2014-04-01,7.305721282958984
2014-04-02,7.702479362487793
2014-04-03,7.623130798339844
2014-04-04,7.337460517883301
2014-04-07,7.358621120452881
2014-04-08,7.40623140335083
2014-04-09,7.37449312210083
2014-04-10,7.295140266418457
2014-04-11,7.215787887573242
2014-04-14,7.316299915313721
2014-04-15,7.273979187011719
2014-04-16,7.411523342132568
2014-04-17,7.41681432723999
2014-04-21,7.443263530731201
2014-04-22,7.517327308654785
2014-04-23,7.47500467300415
2014-04-24,7.47500467300415
2014-04-25,7.395653247833252
2014-04-28,7.252818584442139
2014-04-29,7.273979187011719
2014-04-30,7.236949443817139
2014-05-01,7.168176174163818
2014-05-02,7.3797831535339355
2014-05-05,7.522618293762207
2014-05-06,7.538487434387207
2014-05-07,7.575516700744629
2014-05-08,7.559297561645508
2014-05-09,7.532261848449707
2014-05-12,7.770177841186523
2014-05-13,7.672845840454102
2014-05-14,7.559297561645508
2014-05-15,7.532261848449707
2014-05-16,7.710700035095215
2014-05-19,7.737734317779541
2014-05-20,7.645812511444092
2014-05-21,7.662032127380371
2014-05-22,7.705292224884033
2014-05-23,7.9864678382873535
2014-05-27,8.083797454833984
2014-05-28,8.148683547973633
2014-05-29,8.197348594665527
2014-05-30,8.240608215332031
2014-06-02,8.208165168762207
2014-06-03,8.273051261901855
2014-06-04,8.273051261901855
2014-06-05,8.435267448425293
2014-06-06,8.462302207946777
2014-06-09,8.467710494995117
2014-06-10,8.424450874328613
2014-06-11,8.386603355407715
2014-06-12,8.337937355041504
2014-06-13,8.40822982788086
2014-06-16,8.392011642456055
2014-06-17,8.527190208435059
2014-06-18,8.532596588134766
2014-06-19,8.489337921142578
2014-06-20,8.386603355407715
2014-06-23,8.375785827636719
2014-06-24,8.397415161132812
2014-06-25,8.435267448425293
2014-06-26,8.629927635192871
2014-06-27,8.727255821228027
2014-06-30,8.73807144165039
2014-07-01,8.73807144165039
2014-07-02,8.889474868774414
2014-07-03,8.84621524810791
2014-07-07,8.824585914611816
2014-07-08,8.83540153503418
2014-07-09,8.894880294799805
2014-07-10,8.797551155090332
2014-07-11,8.808364868164062
2014-07-14,8.894880294799805
2014-07-15,8.98139762878418
2014-07-16,9.008431434631348
2014-07-17,8.867844581604004
2014-07-18,8.970582008361816
2014-07-21,9.035468101501465
2014-07-22,8.986804962158203
2014-07-23,9.046283721923828
2014-07-24,9.09494686126709
2014-07-25,9.040876388549805
2014-07-28,9.132800102233887
2014-07-29,9.116578102111816
2014-07-30,9.12739086151123
2014-07-31,8.87865924835205
2014-08-01,9.035468101501465
2014-08-04,9.057096481323242
2014-08-05,8.93813705444336
2014-08-06,9.019246101379395
2014-08-07,8.948952674865723
2014-08-08,8.673184394836426
2014-08-11,8.732661247253418
2014-08-12,8.656961441040039
2014-08-13,8.646149635314941
2014-08-14,8.65717601776123
2014-08-15,8.712319374084473
2014-08-18,8.734373092651367
2014-08-19,8.67371940612793
2014-08-20,8.69577693939209
2014-08-21,8.607550621032715
2014-08-22,8.370443344116211
2014-08-25,8.353899002075195
2014-08-26,8.491752624511719
2014-08-27,8.381470680236816
2014-08-28,8.34838581085205
2014-08-29,8.431096076965332
2014-09-02,8.425580978393555
2014-09-03,8.49726676940918
2014-09-04,8.502779006958008
2014-09-05,8.508296012878418
2014-09-08,8.386983871459961
2014-09-09,8.436612129211426
2014-09-10,8.442127227783203
2014-09-11,8.475210189819336
2014-09-12,8.480724334716797
2014-09-15,8.282217979431152
2014-09-16,8.326329231262207
2014-09-17,8.375955581665039
2014-09-18,8.34838581085205
2014-09-19,8.160904884338379
2014-09-22,8.039596557617188
2014-09-23,8.01202392578125
2014-09-24,7.962396144866943
2014-09-25,8.160904884338379
2014-09-26,8.227073669433594
2014-09-29,8.133333206176758
2014-09-30,7.97342586517334
2014-10-01,7.978939533233643
2014-10-02,7.98996639251709
2014-10-03,8.061651229858398
2014-10-06,8.05062198638916
2014-10-07,7.98996639251709
2014-10-08,7.978939533233643
2014-10-09,7.918283462524414
2014-10-10,7.659120082855225
2014-10-13,7.4550981521606445
2014-10-14,7.515752792358398
2014-10-15,7.399955749511719
2014-10-16,7.852116584777832
2014-10-17,7.995482444763184
2014-10-20,8.039596557617188
2014-10-21,8.27118968963623
2014-10-22,8.359413146972656
2014-10-23,8.337357521057129
2014-10-24,8.469696044921875
2014-10-27,8.530352592468262
2014-10-28,8.5910062789917
2014-10-29,8.62960433959961
2014-10-30,8.62960433959961
2014-10-31,8.690263748168945
2014-11-03,8.690263748168945
2014-11-04,8.712319374084473
2014-11-05,8.750917434692383
2014-11-06,8.76745891571045
2014-11-07,8.894283294677734
2014-11-10,8.877741813659668
2014-11-11,8.877741813659668
2014-11-12,8.80605697631836
2014-11-13,8.727333068847656
2014-11-14,8.749825477600098
2014-11-17,8.77794075012207
2014-11-18,8.800433158874512
2014-11-19,8.783564567565918
2014-11-20,8.783564567565918
2014-11-21,8.738579750061035
2014-11-24,8.749825477600098
2014-11-25,8.789188385009766
2014-11-26,8.839799880981445
2014-11-28,8.851043701171875
2014-12-01,8.609244346618652
2014-12-02,8.65985107421875
2014-12-03,8.502401351928711
2014-12-04,8.732954978942871
2014-12-05,8.699214935302734
2014-12-08,8.485529899597168
2014-12-09,8.457414627075195
2014-12-10,8.367443084716797
2014-12-11,8.356197357177734
2014-12-12,8.120017051696777
2014-12-15,8.159380912780762
2014-12-16,7.934449672698975
2014-12-17,8.091902732849121
2014-12-18,8.322456359863281
2014-12-19,8.316831588745117
2014-12-22,8.305586814880371
2014-12-23,8.288716316223145
2014-12-24,8.508023262023926
2014-12-26,8.502401351928711
2014-12-29,8.440543174743652
2014-12-30,8.474284172058105
2014-12-31,8.367443084716797
2015-01-02,8.502401351928711
2015-01-05,8.378689765930176
2015-01-06,8.17062759399414
2015-01-07,8.209990501403809
2015-01-08,8.142509460449219
2015-01-09,8.198744773864746
2015-01-12,8.26622200012207
2015-01-13,8.086278915405273
2015-01-14,8.058161735534668
2015-01-15,7.940072059631348
2015-01-16,7.940072059631348
2015-01-20,7.855723857879639
2015-01-21,8.024423599243164
2015-01-22,8.51364803314209
2015-01-23,8.468661308288574
2015-01-26,8.384313583374023
2015-01-27,8.29433822631836
2015-01-28,8.15375804901123
2015-01-29,8.33370304107666
2015-01-30,8.446170806884766
2015-02-02,8.468661308288574
2015-02-03,8.721710205078125
2015-02-04,8.553009033203125
2015-02-05,8.536140441894531
2015-02-06,8.665475845336914
2015-02-09,8.710460662841797
2015-02-10,8.687970161437988
2015-02-11,8.586750030517578
2015-02-12,8.687970161437988
2015-02-13,8.710460662841797
2015-02-17,8.772318840026855
2015-02-18,8.744202613830566
2015-02-19,8.614867210388184
2015-02-20,8.716085433959961
2015-02-23,8.761070251464844
2015-02-24,8.65985107421875
2015-02-25,8.749825477600098
2015-02-26,8.721710205078125
2015-02-27,8.744202613830566
2015-03-02,8.716085433959961
2015-03-03,8.142509460449219
2015-03-04,8.131265640258789
2015-03-05,8.187496185302734
2015-03-06,8.209990501403809
2015-03-09,8.17062759399414
2015-03-10,8.055709838867188
2015-03-11,8.07294750213623
2015-03-12,8.061455726623535
2015-03-13,8.038473129272461
2015-03-16,8.021235466003418
2015-03-17,7.739689350128174
2015-03-18,7.825874328613281
2015-03-19,7.843113899230957
2015-03-20,8.032726287841797
2015-03-23,7.998251914978027
2015-03-24,7.825874328613281
2015-03-25,7.90631628036499
2015-03-26,7.854605197906494
2015-03-27,7.843113899230957
2015-03-30,7.837368965148926
2015-03-31,7.7454328536987305
2015-04-01,7.814381122589111
2015-04-02,7.825874328613281
2015-04-06,8.003997802734375
2015-04-07,7.935048580169678
2015-04-08,7.8488593101501465
2015-04-09,7.831620693206787
2015-04-10,7.900571346282959
2015-04-13,7.929300308227539
2015-04-14,7.923555374145508
2015-04-15,7.889080047607422
2015-04-16,8.021235466003418
2015-04-17,7.958030700683594
2015-04-20,7.992504119873047
2015-04-21,7.940793037414551
2015-04-22,8.044217109680176
2015-04-23,8.078693389892578
2015-04-24,8.02698040008545
2015-04-27,7.900571346282959
2015-04-28,7.935048580169678
2015-04-29,8.067201614379883
2015-04-30,7.986759662628174
2015-05-01,7.969521999359131
2015-05-04,7.90631628036499
2015-05-05,7.808637619018555
2015-05-06,7.728193283081055
2015-05-07,7.664990425109863
2015-05-08,7.400681018829346
2015-05-11,7.538581848144531
2015-05-12,7.429408550262451
2015-05-13,7.49261474609375
2015-05-14,7.4631876945495605
2015-05-15,7.486731052398682
2015-05-18,7.510273456573486
2015-05-19,7.47495698928833
2015-05-20,7.416100978851318
2015-05-21,7.47495698928833
2015-05-22,7.516160011291504
2015-05-26,7.557359218597412
2015-05-27,7.504385948181152
2015-05-28,7.545585632324219
2015-05-29,7.551473140716553
2015-06-01,7.551473140716553
2015-06-02,7.557359218597412
2015-06-03,7.563244342803955
2015-06-04,7.49261474609375
2015-06-05,7.510273456573486
2015-06-08,7.439643859863281
2015-06-09,7.3631272315979
2015-06-10,7.304270267486572
2015-06-11,7.1865553855896
2015-06-12,7.145354270935059
2015-06-15,6.93934965133667
2015-06-16,7.009979724884033
2015-06-17,7.180668354034424
2015-06-18,6.97466516494751
2015-06-19,6.9334635734558105
2015-06-22,6.862836837768555
2015-06-23,7.0335235595703125
2015-06-24,6.968779563903809
2015-06-25,6.97466516494751
2015-06-26,6.968779563903809
2015-06-29,6.851064682006836
2015-06-30,6.798091411590576
2015-07-01,6.721577167510986
2015-07-02,6.756890773773193
2015-07-06,6.862836837768555
2015-07-07,6.733347415924072
2015-07-08,6.645059585571289
2015-07-09,6.6803765296936035
2015-07-10,6.8216352462768555
2015-07-13,6.915805816650391
2015-07-14,6.92169189453125
2015-07-15,6.92169189453125
2015-07-16,6.980550289154053
2015-07-17,6.868720054626465
2015-07-20,6.8216352462768555
2015-07-21,6.751003742218018
2015-07-22,6.698032379150391
2015-07-23,6.615631580352783
2015-07-24,6.344884872436523
2015-07-27,6.497914791107178
2015-07-28,6.439056873321533
2015-07-29,6.527345180511475
2015-07-30,6.5862016677856445
2015-07-31,6.580317497253418
2015-08-03,6.59208869934082
2015-08-04,6.639174461364746
2015-08-05,6.59208869934082
2015-08-06,6.462600231170654
2015-08-07,7.004093647003174
2015-08-10,7.198325157165527
2015-08-11,7.098268032073975
2015-08-12,7.139467716217041
2015-08-13,7.139467716217041
2015-08-14,7.133426666259766
2015-08-17,7.181748867034912
2015-08-18,7.248190879821777
2015-08-19,7.211948394775391
2015-08-20,7.139467716217041
2015-08-21,7.006584644317627
2015-08-24,6.553572654724121
2015-08-25,6.523371696472168
2015-08-26,6.6320929527282715
2015-08-27,6.87369966506958
2015-08-28,6.952221870422363
2015-08-31,7.006584644317627
2015-09-01,6.746857643127441
2015-09-02,6.777056694030762
2015-09-03,6.86161994934082
2015-09-04,6.837459087371826
2015-09-08,6.855580806732178
2015-09-09,6.831419467926025
2015-09-10,6.8676605224609375
2015-09-11,6.843499183654785
2015-09-14,6.795176982879639
2015-09-15,6.777056694030762
2015-09-16,6.855580806732178
2015-09-17,6.795176982879639
2015-09-18,6.49921178817749
2015-09-21,6.601892948150635
2015-09-22,6.601892948150635
2015-09-23,6.662295818328857
2015-09-24,6.638134479522705
2015-09-25,6.6260528564453125
2015-09-28,6.245522499084473
2015-09-29,6.034117698669434
2015-09-30,6.106598854064941
2015-10-01,6.3059258460998535
2015-10-02,6.179080963134766
2015-10-05,6.444849491119385
2015-10-06,6.4871296882629395
2015-10-07,6.553572654724121
2015-10-08,6.565652370452881
2015-10-09,6.45089054107666
2015-10-12,6.360285758972168
2015-10-13,6.293845176696777
2015-10-14,6.324045181274414
2015-10-15,6.293845176696777
2015-10-16,6.444849491119385
2015-10-19,6.589812755584717
2015-10-20,6.644173622131348
2015-10-21,6.6260528564453125
2015-10-22,6.710615634918213
2015-10-23,6.752896308898926
2015-10-26,6.662295818328857
2015-10-27,6.5354509353637695
2015-10-28,6.68041467666626
2015-10-29,6.740816116333008
2015-10-30,6.740816116333008
2015-11-02,6.758936882019043
2015-11-03,6.849541187286377
2015-11-04,6.819336891174316
2015-11-05,6.819336891174316
2015-11-06,6.988462448120117
2015-11-09,6.86161994934082
2015-11-10,6.86161994934082
2015-11-11,6.855580806732178
2015-11-12,6.824531555175781
2015-11-13,6.805901050567627
2015-11-16,6.905257701873779
2015-11-17,6.750013828277588
2015-11-18,6.905257701873779
2015-11-19,6.923887729644775
2015-11-20,6.824531555175781
2015-11-23,6.936307430267334
2015-11-24,7.023242950439453
2015-11-25,7.054291725158691
2015-11-27,7.060501575469971
2015-11-30,7.184696674346924
2015-12-01,7.128808975219727
2015-12-02,7.2219557762146
2015-12-03,7.122598171234131
2015-12-04,7.308893203735352
2015-12-07,7.2405853271484375
2015-12-08,7.234375
2015-12-09,7.296473026275635
2015-12-10,7.197116374969482
2015-12-11,6.750013828277588
2015-12-14,6.855579376220703
2015-12-15,6.923887729644775
2015-12-16,7.023242950439453
2015-12-17,7.128808975219727
2015-12-18,7.21574592590332
2015-12-21,7.3026814460754395
2015-12-22,7.482765197753906
2015-12-23,7.687685966491699
2015-12-24,7.613171100616455
2015-12-28,7.724947452545166
2015-12-29,7.650428771972656
2015-12-30,7.606961250305176
2015-12-31,7.569703578948975
2016-01-04,7.594541072845459
2016-01-05,7.693897247314453
2016-01-06,7.594541072845459
2016-01-07,7.544862747192383
2016-01-08,7.4579267501831055
2016-01-11,7.377199649810791
2016-01-12,7.246795177459717
2016-01-13,6.8866286277771
2016-01-14,6.700335502624512
2016-01-15,6.768643379211426
2016-01-19,6.576139450073242
2016-01-20,6.38363790512085
2016-01-21,6.632028579711914
2016-01-22,6.867998123168945
2016-01-25,6.750013828277588
2016-01-26,6.830740451812744
2016-01-27,6.706544876098633
2016-01-28,6.6444478034973145
2016-01-29,6.818319320678711
2016-02-01,6.762431621551514
2016-02-02,6.582350254058838
2016-02-03,6.588559627532959
2016-02-04,6.6879167556762695
2016-02-05,6.700335502624512
2016-02-08,6.433315753936768
2016-02-09,6.408475875854492
2016-02-10,6.352588176727295
2016-02-11,6.228393077850342
2016-02-12,6.44573450088501
2016-02-16,6.408475875854492
2016-02-17,6.59476900100708
2016-02-18,6.557509899139404
2016-02-19,6.476785182952881
2016-02-22,6.4146857261657715
2016-02-23,6.427104949951172
2016-02-24,6.427104949951172
2016-02-25,6.638237476348877
2016-02-26,6.830740451812744
2016-02-29,6.923887729644775
2016-03-01,6.973565101623535
2016-03-02,7.07913064956665
2016-03-03,7.181264877319336
2016-03-04,7.162114143371582
2016-03-07,7.347230911254883
2016-03-08,7.283397674560547
2016-03-09,7.091898441314697
2016-03-10,7.264247894287109
2016-03-11,7.277015209197998
2016-03-14,7.328082084655762
2016-03-15,7.264247894287109
2016-03-16,7.2323317527771
2016-03-17,7.257864475250244
2016-03-18,7.162114143371582
2016-03-21,7.302548885345459
2016-03-22,7.404683589935303
2016-03-23,7.391914367675781
2016-03-24,7.494048118591309
2016-03-28,7.5578813552856445
2016-03-29,7.634482383728027
2016-03-30,7.691933631896973
2016-03-31,7.666399955749512
2016-04-01,7.857899188995361
2016-04-04,7.6217145919799805
2016-04-05,7.647249221801758
2016-04-06,7.717464923858643
2016-04-07,7.691933631896973
2016-04-08,7.806833267211914
2016-04-11,7.864282131195068
2016-04-12,7.915348052978516
2016-04-13,7.902581691741943
2016-04-14,7.742999076843262
2016-04-15,7.768532752990723
2016-04-18,7.698317527770996
2016-04-19,7.717464923858643
2016-04-20,7.794066429138184
2016-04-21,7.742999076843262
2016-04-22,7.768532752990723
2016-04-25,7.77491569519043
2016-04-26,7.832365989685059
2016-04-27,7.902581691741943
2016-04-28,7.819600582122803
2016-04-29,7.832365989685059
2016-05-02,7.660016059875488
2016-05-03,7.634482383728027
2016-05-04,7.602565288543701
2016-05-05,7.6280999183654785
2016-05-06,7.589800834655762
2016-05-09,7.6217145919799805
2016-05-10,7.819600582122803
2016-05-11,7.864282131195068
2016-05-12,7.8119001388549805
2016-05-13,7.746416091918945
2016-05-16,7.7333197593688965
2016-05-17,7.792252540588379
2016-05-18,7.8119001388549805
2016-05-19,7.687484264373779
2016-05-20,7.818444728851318
2016-05-23,7.91011905670166
2016-05-24,8.060725212097168
2016-05-25,8.139303207397461
2016-05-26,8.11311149597168
2016-05-27,8.126208305358887
2016-05-31,8.03453540802002
2016-06-01,8.119656562805176
2016-06-02,8.106561660766602
2016-06-03,8.073822021484375
2016-06-06,8.073822021484375
2016-06-07,8.073822021484375
2016-06-08,8.060725212097168
2016-06-09,7.988697528839111
2016-06-10,7.988697528839111
2016-06-13,7.877377986907959
2016-06-14,7.805349826812744
2016-06-15,7.877377986907959
2016-06-16,7.975600242614746
2016-06-17,7.955955505371094
2016-06-20,7.98214864730835
2016-06-21,7.949408531188965
2016-06-22,7.949408531188965
2016-06-23,7.995247840881348
2016-06-24,7.92976188659668
2016-06-27,7.785706996917725
2016-06-28,7.942860126495361
2016-06-29,8.041082382202148
2016-06-30,8.132756233215332
2016-07-01,8.132756233215332
2016-07-05,8.191688537597656
2016-07-06,8.139303207397461
2016-07-07,8.165495872497559
2016-07-08,8.185140609741211
2016-07-11,8.21788215637207
2016-07-12,8.244073867797852
2016-07-13,8.270267486572266
2016-07-14,8.263717651367188
2016-07-15,8.329198837280273
2016-07-18,8.420873641967773
2016-07-19,8.512545585632324
2016-07-20,8.5911226272583
2016-07-21,8.551836013793945
2016-07-22,8.630412101745605
2016-07-25,8.479804992675781
2016-07-26,8.551836013793945
2016-07-27,8.564932823181152
2016-07-28,8.545287132263184
2016-07-29,8.6827974319458
2016-08-01,8.741729736328125
2016-08-02,8.728633880615234
2016-08-03,8.826854705810547
2016-08-04,8.774471282958984
2016-08-05,8.95127010345459
2016-08-08,9.02984619140625
2016-08-09,9.16735553741455
2016-08-10,9.147714614868164
2016-08-11,9.174500465393066
2016-08-12,9.174500465393066
2016-08-15,9.141016006469727
2016-08-16,9.09414005279541
2016-08-17,9.147713661193848
2016-08-18,9.207983016967773
2016-08-19,9.2213773727417
2016-08-22,9.315130233764648
2016-08-23,9.19459056854248
2016-08-24,9.181195259094238
2016-08-25,9.067351341247559
2016-08-26,9.09414005279541
2016-08-29,9.19459056854248
2016-08-30,9.268253326416016
2016-08-31,9.147713661193848
2016-09-01,9.167801856994629
2016-09-02,9.214677810668945
2016-09-06,9.201285362243652
2016-09-07,9.167801856994629
2016-09-08,9.181195259094238
2016-09-09,9.060656547546387
2016-09-12,8.973597526550293
2016-09-13,8.873147010803223
2016-09-14,8.940114974975586
2016-09-15,9.000385284423828
2016-09-16,8.899933815002441
2016-09-19,8.899933815002441
2016-09-20,8.899933815002441
2016-09-21,8.906632423400879
2016-09-22,8.91332721710205
2016-09-23,8.899933815002441
2016-09-26,8.933417320251465
2016-09-27,9.007081985473633
2016-09-28,9.033869743347168
2016-09-29,9.027172088623047
2016-09-30,9.0807466506958
2016-10-03,9.107532501220703
2016-10-04,9.060656547546387
2016-10-05,9.114229202270508
2016-10-06,9.120927810668945
2016-10-07,9.120927810668945
2016-10-10,9.114229202270508
2016-10-11,9.074048042297363
2016-10-12,9.060656547546387
2016-10-13,9.007081985473633
2016-10-14,9.033869743347168
2016-10-17,9.000385284423828
2016-10-18,9.060656547546387
2016-10-19,9.134320259094238
2016-10-20,9.040563583374023
2016-10-21,9.114229202270508
2016-10-24,9.114229202270508
2016-10-25,9.09414005279541
2016-10-26,9.087442398071289
2016-10-27,9.087442398071289
2016-10-28,9.214677810668945
2016-10-31,9.181195259094238
2016-11-01,9.147713661193848
2016-11-02,9.05395793914795
2016-11-03,8.692336082458496
2016-11-04,8.638763427734375
2016-11-07,8.819574356079102
2016-11-08,8.832966804504395
2016-11-09,9.09356689453125
2016-11-10,9.210150718688965
2016-11-11,9.29244613647461
2016-11-14,9.3610258102417
2016-11-15,9.278729438781738
2016-11-16,9.285589218139648
2016-11-17,9.34045124053955
2016-11-18,9.470751762390137
2016-11-21,9.402173042297363
2016-11-22,9.347309112548828
2016-11-23,9.3610258102417
2016-11-25,9.498181343078613
2016-11-28,9.436461448669434
2016-11-29,9.443319320678711
2016-11-30,9.36788272857666
2016-12-01,9.402173042297363
2016-12-02,9.29244613647461
2016-12-05,9.422745704650879
2016-12-06,9.34045124053955
2016-12-07,9.319877624511719
2016-12-08,9.422745704650879
2016-12-09,9.374741554260254
2016-12-12,9.271871566772461
2016-12-13,9.210150718688965
2016-12-14,9.182719230651855
2016-12-15,9.271871566772461
2016-12-16,9.22386646270752
2016-12-19,9.450177192687988
2016-12-20,9.457035064697266
2016-12-21,9.463892936706543
2016-12-22,9.450177192687988
2016-12-23,9.594193458557129
2016-12-27,9.77249813079834
2016-12-28,9.662772178649902
2016-12-29,9.717635154724121
2016-12-30,9.676487922668457
2017-01-03,9.861649513244629
2017-01-04,9.950803756713867
2017-01-05,9.875368118286133
2017-01-06,9.88222599029541
2017-01-09,9.68334674835205
2017-01-10,9.74506664276123
2017-01-11,9.74506664276123
2017-01-12,9.690203666687012
2017-01-13,9.73134994506836
2017-01-17,9.71077823638916
2017-01-18,9.875368118286133
2017-01-19,9.786212921142578
2017-01-20,9.717635154724121
2017-01-23,9.74506664276123
2017-01-24,9.786212921142578
2017-01-25,9.930230140686035
2017-01-26,9.875368118286133
2017-01-27,9.88222599029541
2017-01-30,9.875368118286133
2017-01-31,9.690203666687012
2017-02-01,9.985093116760254
2017-02-02,9.79992961883545
2017-02-03,9.909656524658203
2017-02-06,9.950803756713867
2017-02-07,10.012524604797363
2017-02-08,9.9713773727417
2017-02-09,9.937088012695312
2017-02-10,10.053671836853027
2017-02-13,10.07424545288086
2017-02-14,10.245691299438477
2017-02-15,10.369136810302734
2017-02-16,10.36227798461914
2017-02-17,10.403425216674805
2017-02-21,10.478860855102539
2017-02-22,10.581730842590332
2017-02-23,10.245691299438477
2017-02-24,10.369136810302734
2017-02-27,10.225118637084961
2017-02-28,10.156540870666504
2017-03-01,10.27998161315918
2017-03-02,10.30099105834961
2017-03-03,10.378020286560059
2017-03-06,10.399028778076172
2017-03-07,10.378020286560059
2017-03-08,10.167939186096191
2017-03-09,10.188946723937988
2017-03-10,10.286985397338867
2017-03-13,10.399028778076172
2017-03-14,10.19594955444336
2017-03-15,10.378020286560059
2017-03-16,10.46905517578125
2017-03-17,10.567093849182129
2017-03-20,10.441043853759766
2017-03-21,10.272981643676758
2017-03-22,10.244969367980957
2017-03-23,10.265976905822754
2017-03-24,10.37101936340332
2017-03-27,10.38502311706543
2017-03-28,10.560091972351074
2017-03-29,10.721153259277344
2017-03-30,10.763168334960938
2017-03-31,10.595104217529297
2017-04-03,10.539082527160645
2017-04-04,10.539082527160645
2017-04-05,10.476058959960938
2017-04-06,10.504070281982422
2017-04-07,10.511070251464844
2017-04-10,10.560091972351074
2017-04-11,10.63011646270752
2017-04-12,10.581098556518555
2017-04-13,10.5740966796875
2017-04-17,10.665131568908691
2017-04-18,10.644123077392578
2017-04-19,10.658127784729004
2017-04-20,10.644123077392578
2017-04-21,10.74216079711914
2017-04-24,10.777174949645996
2017-04-25,10.84720230102539
2017-04-26,10.896222114562988
2017-04-27,10.868210792541504
2017-04-28,10.868210792541504
2017-05-01,10.826193809509277
2017-05-02,10.84720230102539
2017-05-03,10.770171165466309
2017-05-04,9.446660995483398
2017-05-05,9.10352611541748
2017-05-08,8.93546199798584
2017-05-09,9.026496887207031
2017-05-10,9.117532730102539
2017-05-11,9.1892671585083
2017-05-12,9.0816650390625
2017-05-15,9.547942161560059
2017-05-16,9.533596992492676
2017-05-17,9.483382225036621
2017-05-18,9.569462776184082
2017-05-19,9.51207447052002
2017-05-22,9.51207447052002
2017-05-23,9.51207447052002
2017-05-24,9.569462776184082
2017-05-25,9.497729301452637
2017-05-26,9.483382225036621
2017-05-30,9.354256629943848
2017-05-31,9.347084999084473
2017-06-01,9.461859703063965
2017-06-02,9.390125274658203
2017-06-05,9.304043769836426
2017-06-06,9.347084999084473
2017-06-07,9.318389892578125
2017-06-08,9.332738876342773
2017-06-09,9.361431121826172
2017-06-12,9.397299766540527
2017-06-13,9.454686164855957
2017-06-14,9.469035148620605
2017-06-15,9.454686164855957
2017-06-16,9.526422500610352
2017-06-19,9.540769577026367
2017-06-20,9.469035148620605
2017-06-21,9.490553855895996
2017-06-22,9.490553855895996
2017-06-23,9.540769577026367
2017-06-26,9.583810806274414
2017-06-27,9.51207447052002
2017-06-28,9.483382225036621
2017-06-29,9.540769577026367
2017-06-30,9.497729301452637
2017-07-03,9.569462776184082
2017-07-05,9.540769577026367
2017-07-06,9.497729301452637
2017-07-07,9.519248962402344
2017-07-10,9.634024620056152
2017-07-11,9.533596992492676
2017-07-12,9.598156929016113
2017-07-13,9.669892311096191
2017-07-14,9.641199111938477
2017-07-17,9.684237480163574
2017-07-18,9.634024620056152
2017-07-19,9.569462776184082
2017-07-20,9.540769577026367
2017-07-21,9.533596992492676
2017-07-24,9.533596992492676
2017-07-25,9.51207447052002
2017-07-26,9.519248962402344
2017-07-27,9.540769577026367
2017-07-28,9.540769577026367
2017-07-31,9.569462776184082
2017-08-01,9.612503051757812
2017-08-02,9.576637268066406
2017-08-03,9.562289237976074
2017-08-04,9.16774845123291
2017-08-07,9.454686164855957
2017-08-08,9.490553855895996
2017-08-09,9.590983390808105
2017-08-10,9.363327026367188
2017-08-11,9.304577827453613
2017-08-14,9.488170623779297
2017-08-15,9.407390594482422
2017-08-16,9.33395004272461
2017-08-17,9.311922073364258
2017-08-18,9.201763153076172
2017-08-21,9.165043830871582
2017-08-22,9.165043830871582
2017-08-23,9.143012046813965
2017-08-24,9.135668754577637
2017-08-25,9.128325462341309
2017-08-28,9.128325462341309
2017-08-29,9.047541618347168
2017-08-30,9.040201187133789
2017-08-31,8.959418296813965
2017-09-01,9.113637924194336
2017-09-05,8.974105834960938
2017-09-06,8.908010482788086
2017-09-07,8.893324851989746
2017-09-08,8.841917991638184
2017-09-11,8.885981559753418
2017-09-12,8.908010482788086
2017-09-13,8.944731712341309
2017-09-14,9.069576263427734
2017-09-15,9.106295585632324
2017-09-18,9.106295585632324
2017-09-19,9.09895133972168
2017-09-20,9.194418907165527
2017-09-21,9.172389030456543
2017-09-22,9.28254508972168
2017-09-25,9.275202751159668
2017-09-26,9.341294288635254
2017-09-27,9.31926441192627
2017-09-28,9.370670318603516
2017-09-29,9.473483085632324
2017-10-02,9.473483085632324
2017-10-03,9.348639488220215
2017-10-04,9.304577827453613
2017-10-05,9.370670318603516
2017-10-06,9.31926441192627
2017-10-09,9.289887428283691
2017-10-10,9.35598373413086
2017-10-11,9.35598373413086
2017-10-12,9.400045394897461
2017-10-13,9.326607704162598
2017-10-16,9.31926441192627
2017-10-17,9.289887428283691
2017-10-18,9.289887428283691
2017-10-19,9.267857551574707
2017-10-20,9.33395004272461
2017-10-23,9.370670318603516
2017-10-24,9.392704010009766
2017-10-25,9.2091064453125
2017-10-26,9.135668754577637
2017-10-27,9.275202751159668
2017-10-30,9.260513305664062
2017-10-31,9.15770149230957
2017-11-01,9.172389030456543
2017-11-02,9.143012046813965
2017-11-03,9.84067153930664
2017-11-06,9.825984954833984
2017-11-07,9.994892120361328
2017-11-08,10.237237930297852
2017-11-09,10.1491117477417
2017-11-10,10.119061470031738
2017-11-13,10.096526145935059
2017-11-14,10.186673164367676
2017-11-15,10.096526145935059
2017-11-16,10.156623840332031
2017-11-17,10.254283905029297
2017-11-20,10.284333229064941
2017-11-21,10.254283905029297
2017-11-22,10.27682113647461
2017-11-24,10.269309043884277
2017-11-27,10.284333229064941
2017-11-28,10.16413688659668
2017-11-29,10.10403823852539
2017-11-30,10.08901309967041
2017-12-01,10.058964729309082
2017-12-04,9.97632884979248
2017-12-05,9.841107368469238
2017-12-06,9.84861946105957
2017-12-07,9.841107368469238
2017-12-08,10.021403312683105
2017-12-11,9.953791618347168
2017-12-12,9.833595275878906
2017-12-13,9.841107368469238
2017-12-14,9.81105899810791
2017-12-15,9.758472442626953
2017-12-18,9.765985488891602
2017-12-19,9.563152313232422
2017-12-20,9.705885887145996
2017-12-21,9.758472442626953
2017-12-22,9.728423118591309
2017-12-26,9.713398933410645
2017-12-27,9.84861946105957
2017-12-28,9.82608413696289
2017-12-29,9.856131553649902
2018-01-02,9.953791618347168
2018-01-03,9.833595275878906
2018-01-04,9.743448257446289
2018-01-05,9.758472442626953
2018-01-08,9.818571090698242
2018-01-09,9.796034812927246
2018-01-10,9.713398933410645
2018-01-11,9.788521766662598
2018-01-12,9.765985488891602
2018-01-16,9.818571090698242
2018-01-17,9.81105899810791
2018-01-18,9.841107368469238
2018-01-19,9.841107368469238
2018-01-22,9.893694877624512
2018-01-23,9.916230201721191
2018-01-24,9.893694877624512
2018-01-25,9.833595275878906
2018-01-26,9.841107368469238
2018-01-29,9.788521766662598
2018-01-30,9.66832447052002
2018-01-31,9.525593757629395
2018-02-01,9.743448257446289
2018-02-02,9.525593757629395
2018-02-05,9.104903221130371
2018-02-06,9.42793083190918
2018-02-07,9.5932035446167
2018-02-08,9.435445785522461
2018-02-09,9.270172119140625
2018-02-12,9.322759628295898
2018-02-13,9.44295597076416
2018-02-14,9.435445785522461
2018-02-15,9.345294952392578
2018-02-16,9.473004341125488
2018-02-20,9.315248489379883
2018-02-21,9.337783813476562
2018-02-22,9.322759628295898
2018-02-23,9.255146980285645
2018-02-26,9.2175874710083
2018-02-27,9.142465591430664
2018-02-28,9.052316665649414
2018-03-01,8.932120323181152
2018-03-02,9.194375038146973
2018-03-05,9.46434497833252
2018-03-06,9.39492416381836
2018-03-07,9.28693675994873
2018-03-08,9.41034984588623
2018-03-09,9.448917388916016
2018-03-12,9.448917388916016
2018-03-13,9.479772567749023
2018-03-14,9.333216667175293
2018-03-15,9.178949356079102
2018-03-16,9.279223442077637
2018-03-19,9.263795852661133
2018-03-20,9.310077667236328
2018-03-21,9.364069938659668
2018-03-22,9.479772567749023
2018-03-23,9.317790031433105
2018-03-26,9.279223442077637
2018-03-27,9.240654945373535
2018-03-28,9.271510124206543
2018-03-29,9.333216667175293
2018-04-02,9.248370170593262
2018-04-03,9.279223442077637
2018-04-04,9.29465103149414
2018-04-05,9.41806411743164
2018-04-06,9.340930938720703
2018-04-09,9.317790031433105
2018-04-10,9.3255033493042
2018-04-11,9.371784210205078
2018-04-12,9.364069938659668
2018-04-13,9.302363395690918
2018-04-16,9.3255033493042
2018-04-17,9.371784210205078
2018-04-18,9.402636528015137
2018-04-19,9.402636528015137
2018-04-20,9.402636528015137
2018-04-23,9.3255033493042
2018-04-24,9.333216667175293
2018-04-25,9.28693675994873
2018-04-26,9.317790031433105
2018-04-27,9.456631660461426
2018-04-30,9.564619064331055
2018-05-01,9.541479110717773
2018-05-02,9.495197296142578
2018-05-03,9.564619064331055
2018-05-04,9.495197296142578
2018-05-07,9.742027282714844
2018-05-08,9.726600646972656
2018-05-09,9.742027282714844
2018-05-10,9.749740600585938
2018-05-11,9.876258850097656
2018-05-14,9.805092811584473
2018-05-15,9.749739646911621
2018-05-16,9.820906639099121
2018-05-17,9.860443115234375
2018-05-18,9.868350982666016
2018-05-21,9.892072677612305
2018-05-22,9.876258850097656
2018-05-23,9.820906639099121
2018-05-24,9.789278030395508
2018-05-25,9.820906639099121
2018-05-29,9.805092811584473
2018-05-30,9.836721420288086
2018-05-31,9.797184944152832
2018-06-01,9.805092811584473
2018-06-04,9.773463249206543
2018-06-05,9.733924865722656
2018-06-06,9.797184944152832
2018-06-07,9.757649421691895
2018-06-08,9.757649421691895
2018-06-11,9.805092811584473
2018-06-12,9.615315437316895
2018-06-13,9.836721420288086
2018-06-14,9.868350982666016
2018-06-15,9.899981498718262
2018-06-18,9.820906639099121
2018-06-19,9.852535247802734
2018-06-20,9.963238716125488
2018-06-21,10.002775192260742
2018-06-22,10.073942184448242
2018-06-25,10.089756965637207
2018-06-26,10.255810737609863
2018-06-27,10.089756965637207
2018-06-28,9.979053497314453
2018-06-29,10.002775192260742
2018-07-02,10.05021858215332
2018-07-03,10.19255256652832
2018-07-05,10.168828964233398
2018-07-06,10.18464469909668
2018-07-09,10.208366394042969
2018-07-10,10.216273307800293
2018-07-11,10.263717651367188
2018-07-12,10.287440299987793
2018-07-13,10.334882736206055
2018-07-16,10.35860538482666
2018-07-17,10.42186450958252
2018-07-18,10.635361671447754
2018-07-19,10.651176452636719
2018-07-20,10.674899101257324
2018-07-23,10.5958251953125
2018-07-24,10.666991233825684
2018-07-25,10.73815631866455
2018-07-26,10.698619842529297
2018-07-27,10.643270492553711
2018-07-30,10.706527709960938
2018-07-31,10.682806015014648
2018-08-01,10.651176452636719
2018-08-02,10.690714836120605
2018-08-03,10.722342491149902
2018-08-06,10.730250358581543
2018-08-07,10.76978588104248
2018-08-08,10.777694702148438
2018-08-09,10.76978588104248
2018-08-10,10.87497615814209
2018-08-13,10.858794212341309
2018-08-14,10.87497615814209
2018-08-15,10.931615829467773
2018-08-16,11.004441261291504
2018-08-17,11.004441261291504
2018-08-20,11.004441261291504
2018-08-21,11.028714179992676
2018-08-22,11.036806106567383
2018-08-23,11.004441261291504
2018-08-24,10.915432929992676
2018-08-27,10.8668851852417
2018-08-28,10.850700378417969
2018-08-29,10.915432929992676
2018-08-30,10.955890655517578
2018-08-31,10.939708709716797
2018-09-04,10.9235258102417
2018-09-05,10.899250030517578
2018-09-06,10.834518432617188
2018-09-07,10.721238136291504
2018-09-10,10.640321731567383
2018-09-11,10.624139785766602
2018-09-12,10.672687530517578
2018-09-13,10.729329109191895
2018-09-14,10.648412704467773
2018-09-17,10.640321731567383
2018-09-18,10.70505428314209
2018-09-19,10.65650463104248
2018-09-20,10.713147163391113
2018-09-21,10.753602981567383
2018-09-24,10.745512008666992
2018-09-25,10.721238136291504
2018-09-26,10.6969633102417
2018-09-27,10.672687530517578
2018-09-28,10.648412704467773
2018-10-01,10.6969633102417
2018-10-02,10.721238136291504
2018-10-03,10.745512008666992
2018-10-04,10.616048812866211
2018-10-05,10.632231712341309
2018-10-08,10.462309837341309
2018-10-09,10.510860443115234
2018-10-10,10.3571195602417
2018-10-11,10.227657318115234
2018-10-12,10.251930236816406
2018-10-15,10.349026679992676
2018-10-16,10.349026679992676
2018-10-17,10.292387962341309
2018-10-18,10.300479888916016
2018-10-19,10.3571195602417
2018-10-22,10.284296035766602
2018-10-23,10.227657318115234
2018-10-24,10.03346061706543
2018-10-25,10.114375114440918
2018-10-26,10.049643516540527
2018-10-29,9.984911918640137
2018-10-30,10.009184837341309
2018-10-31,10.138648986816406
2018-11-01,10.15483283996582
2018-11-02,10.082008361816406
2018-11-05,10.219564437866211
2018-11-06,10.235747337341309
2018-11-07,10.251930236816406
2018-11-08,10.000699043273926
2018-11-09,10.057428359985352
2018-11-12,9.952071189880371
2018-11-13,9.935863494873047
2018-11-14,10.033113479614258
2018-11-15,9.976385116577148
2018-11-16,9.935863494873047
2018-11-19,9.911550521850586
2018-11-20,9.822403907775879
2018-11-21,9.854820251464844
2018-11-23,9.92775821685791
2018-11-26,9.83861255645752
2018-11-27,9.798089981079102
2018-11-28,9.943967819213867
2018-11-29,9.943967819213867
2018-11-30,9.854820251464844
2018-12-03,9.895342826843262
2018-12-04,9.708942413330078
2018-12-06,9.563065528869629
2018-12-07,9.563065528869629
2018-12-10,9.465814590454102
2018-12-11,9.449604988098145
2018-12-12,9.433398246765137
2018-12-13,9.311832427978516
2018-12-14,9.206476211547852
2018-12-17,8.776948928833008
2018-12-18,8.890408515930176
2018-12-19,8.99576473236084
2018-12-20,8.614863395690918
2018-12-21,8.74453067779541
2018-12-24,8.890408515930176
2018-12-26,9.052495002746582
2018-12-27,9.101119995117188
2018-12-28,9.133537292480469
2018-12-31,8.955243110656738
2019-01-02,9.101119995117188
2019-01-03,9.206476211547852
2019-01-04,9.465814590454102
2019-01-07,9.741360664367676
2019-01-08,9.83861255645752
2019-01-09,9.74946403503418
2019-01-10,9.83861255645752
2019-01-11,9.871028900146484
2019-01-14,9.733256340026855
2019-01-15,9.733256340026855
2019-01-16,9.911550521850586
2019-01-17,9.976385116577148
2019-01-18,10.065531730651855
2019-01-22,10.057428359985352
2019-01-23,10.114157676696777
2019-01-24,10.26003360748291
2019-01-25,10.276243209838867
2019-01-28,10.34107780456543
2019-01-29,10.34107780456543
2019-01-30,10.511268615722656
2019-01-31,10.649041175842285
2019-02-01,10.527478218078613
2019-02-04,10.624727249145508
2019-02-05,10.713874816894531
2019-02-06,10.600414276123047
2019-02-07,10.511268615722656
2019-02-08,10.576103210449219
2019-02-11,10.486953735351562
2019-02-12,10.511268615722656
2019-02-13,10.511268615722656
2019-02-14,10.44643497467041
2019-02-15,10.486953735351562
2019-02-19,10.567996978759766
2019-02-20,10.640936851501465
2019-02-21,10.681458473205566
2019-02-22,11.2730712890625
2019-02-25,11.378427505493164
2019-02-26,11.354113578796387
2019-02-27,11.337904930114746
2019-02-28,11.346010208129883
2019-03-01,11.105664253234863
2019-03-04,11.163678169250488
2019-03-05,11.031074523925781
2019-03-06,10.981346130371094
2019-03-07,10.97305965423584
2019-03-08,10.96476936340332
2019-03-11,11.055935859680176
2019-03-12,10.069687843322754
2019-03-13,10.16085433959961
2019-03-14,10.268594741821289
2019-03-15,10.194005966186523
2019-03-18,10.426063537597656
2019-03-19,10.31832218170166
2019-03-20,10.276883125305176
2019-03-21,10.32660961151123
2019-03-22,10.194005966186523
2019-03-25,10.252019882202148
2019-03-26,10.31832218170166
2019-03-27,10.310033798217773
2019-03-28,10.409488677978516
2019-03-29,10.492364883422852
2019-04-01,10.55038070678711
2019-04-02,10.575243949890137
2019-04-03,10.542091369628906
2019-04-04,10.533805847167969
2019-04-05,10.508941650390625
2019-04-08,10.517229080200195
2019-04-09,10.475790023803711
2019-04-10,10.525516510009766
2019-04-11,10.41777515411377
2019-04-12,10.525516510009766
2019-04-15,10.492364883422852
2019-04-16,10.517229080200195
2019-04-17,10.484077453613281
2019-04-18,10.46750259399414
2019-04-22,10.525516510009766
2019-04-23,10.633259773254395
2019-04-24,10.633259773254395
2019-04-25,10.616683006286621
2019-04-26,10.732711791992188
2019-04-29,10.840453147888184
2019-04-30,10.765864372253418
2019-05-01,10.716136932373047
2019-05-02,10.707849502563477
2019-05-03,11.354297637939453
2019-05-06,11.395737648010254
2019-05-07,11.296283721923828
2019-05-08,11.387449264526367
2019-05-09,11.387449264526367
2019-05-10,11.38744831085205
2019-05-13,11.149680137634277
2019-05-14,11.277055740356445
2019-05-15,11.251581192016602
2019-05-16,11.35348129272461
2019-05-17,11.32800579071045
2019-05-20,11.35348129272461
2019-05-21,11.361973762512207
2019-05-22,11.319514274597168
2019-05-23,11.234596252441406
2019-05-24,11.243090629577637
2019-05-28,11.21761417388916
2019-05-29,11.081747055053711
2019-05-30,11.064762115478516
2019-05-31,10.835484504699707
2019-06-03,10.928894996643066
2019-06-04,11.047779083251953
2019-06-05,11.013811111450195
2019-06-06,10.945878028869629
2019-06-07,10.945878028869629
2019-06-10,10.979846000671387
2019-06-11,10.962860107421875
2019-06-12,10.954368591308594
2019-06-13,10.894927024841309
2019-06-14,10.920402526855469
2019-06-17,10.843976974487305
2019-06-18,10.877944946289062
2019-06-19,10.894927024841309
2019-06-20,10.801517486572266
2019-06-21,10.843976974487305
2019-06-24,10.801517486572266
2019-06-25,10.793025970458984
2019-06-26,10.784534454345703
2019-06-27,10.793025970458984
2019-06-28,10.886434555053711
2019-07-01,10.894927024841309
2019-07-02,10.869451522827148
2019-07-03,10.928894996643066
2019-07-05,11.039285659790039
2019-07-08,10.954368591308594
2019-07-09,10.962860107421875
2019-07-10,11.022303581237793
2019-07-11,10.979846000671387
2019-07-12,11.03079605102539
2019-07-15,11.039285659790039
2019-07-16,11.039285659790039
2019-07-17,11.039285659790039
2019-07-18,11.022303581237793
2019-07-19,10.971354484558105
2019-07-22,10.911911010742188
2019-07-23,10.911911010742188
2019-07-24,11.039285659790039
2019-07-25,10.971354484558105
2019-07-26,11.022303581237793
2019-07-29,10.954368591308594
2019-07-30,11.073254585266113
2019-07-31,11.022303581237793
2019-08-01,10.928894996643066
2019-08-02,11.311022758483887
2019-08-05,11.047779083251953
2019-08-06,11.107220649719238
2019-08-07,10.988335609436035
2019-08-08,11.183647155761719
2019-08-09,11.209796905517578
2019-08-12,11.105195999145508
2019-08-13,11.166213989257812
2019-08-14,11.035460472106934
2019-08-15,11.035460472106934
2019-08-16,11.201081275939941
2019-08-19,11.392849922180176
2019-08-20,11.375417709350586
2019-08-21,11.375417709350586
2019-08-22,11.401566505432129
2019-08-23,11.25338077545166
2019-08-26,11.392849922180176
2019-08-27,11.2272310256958
2019-08-28,11.288248062133789
2019-08-29,11.401566505432129
2019-08-30,11.445150375366211
2019-09-03,11.323116302490234
2019-09-04,11.401566505432129
2019-09-05,11.506168365478516
2019-09-06,11.532318115234375
2019-09-09,11.619485855102539
2019-09-10,11.68050479888916
2019-09-11,11.697938919067383
2019-09-12,11.55846881866455
2019-09-13,11.55846881866455
2019-09-16,11.506168365478516
2019-09-17,11.523601531982422
2019-09-18,11.48873519897461
2019-09-19,11.48873519897461
2019-09-20,11.59333610534668
2019-09-23,11.663071632385254
2019-09-24,11.663071632385254
2019-09-25,11.59333610534668
2019-09-26,11.68050479888916
2019-09-27,11.715371131896973
2019-09-30,11.654353141784668
2019-10-01,11.497450828552246
2019-10-02,11.314398765563965
2019-10-03,11.375417709350586
2019-10-04,11.480018615722656
2019-10-07,11.549752235412598
2019-10-08,11.480018615722656
2019-10-09,11.45386791229248
2019-10-10,11.58461856842041
2019-10-11,11.628204345703125
2019-10-14,11.671788215637207
2019-10-15,11.68050479888916
2019-10-16,11.724087715148926
2019-10-17,11.811256408691406
2019-10-18,11.715371131896973
2019-10-21,11.802539825439453
2019-10-22,11.863556861877441
2019-10-23,11.880990982055664
2019-10-24,11.898425102233887
2019-10-25,11.898425102233887
2019-10-28,11.950725555419922
2019-10-29,11.976875305175781
2019-10-30,12.064042091369629
2019-10-31,12.316829681396484
2019-11-01,12.403998374938965
2019-11-04,12.517316818237305
2019-11-05,12.58704948425293
2019-11-06,12.569616317749023
2019-11-07,12.373078346252441
2019-11-08,12.417744636535645
2019-11-11,12.426678657531738
2019-11-12,12.507081985473633
2019-11-13,12.533882141113281
2019-11-14,12.605351448059082
2019-11-15,12.667887687683105
2019-11-18,12.658953666687012
2019-11-19,12.658953666687012
2019-11-20,12.703621864318848
2019-11-21,12.444546699523926
2019-11-22,12.435612678527832
2019-11-25,12.578551292419434
2019-11-26,12.605351448059082
2019-11-27,12.766157150268555
2019-11-29,12.801892280578613
2019-12-02,12.730422019958496
2019-12-03,12.703621864318848
2019-12-04,12.721488952636719
2019-12-05,12.685754776000977
2019-12-06,12.69468879699707
2019-12-09,12.748290061950684
2019-12-10,12.784024238586426
2019-12-11,12.721488952636719
2019-12-12,12.703621864318848
2019-12-13,12.703621864318848
2019-12-16,12.650020599365234
2019-12-17,12.69468879699707
2019-12-18,12.658953666687012
2019-12-19,12.676820755004883
2019-12-20,12.685754776000977
2019-12-23,12.596418380737305
2019-12-24,12.578551292419434
2019-12-26,12.658953666687012
2019-12-27,12.596418380737305
2019-12-30,12.569616317749023
2019-12-31,12.52495002746582
