Date,IFF
2007-12-31,36.61188888549805
2008-01-02,35.904449462890625
2008-01-03,35.5621337890625
2008-01-04,35.060081481933594
2008-01-07,35.318721771240234
2008-01-08,34.5275993347168
2008-01-09,34.641700744628906
2008-01-10,34.73298645019531
2008-01-11,34.77862548828125
2008-01-14,34.953590393066406
2008-01-15,33.94947814941406
2008-01-16,33.71366882324219
2008-01-17,32.79322052001953
2008-01-18,32.56502914428711
2008-01-22,32.68674850463867
2008-01-23,33.64519119262695
2008-01-24,32.73237991333008
2008-01-25,32.68674850463867
2008-01-28,33.04425048828125
2008-01-29,33.089908599853516
2008-01-30,30.031932830810547
2008-01-31,32.367244720458984
2008-02-01,32.46613693237305
2008-02-04,32.38246154785156
2008-02-05,31.933645248413086
2008-02-06,32.230323791503906
2008-02-07,32.306396484375
2008-02-08,32.13144302368164
2008-02-11,32.283573150634766
2008-02-12,32.6715202331543
2008-02-13,32.81605911254883
2008-02-14,32.511783599853516
2008-02-15,32.595462799072266
2008-02-19,32.54981231689453
2008-02-20,32.8616828918457
2008-02-21,32.52699279785156
2008-02-22,32.61067199707031
2008-02-25,32.991024017333984
2008-02-26,33.1507682800293
2008-02-27,33.95708465576172
2008-02-28,33.75170135498047
2008-02-29,32.808448791503906
2008-03-03,32.869293212890625
2008-03-04,32.07819747924805
2008-03-05,32.70195388793945
2008-03-06,32.05537033081055
2008-03-07,31.560922622680664
2008-03-10,30.92194175720215
2008-03-11,32.21510314941406
2008-03-12,32.116214752197266
2008-03-13,32.367244720458984
2008-03-14,32.00971984863281
2008-03-17,31.84998321533203
2008-03-18,33.01260757446289
2008-03-19,32.22477340698242
2008-03-20,32.46953582763672
2008-03-24,32.928466796875
2008-03-25,33.08909225463867
2008-03-26,32.890228271484375
2008-03-27,32.96672821044922
2008-03-28,33.37976837158203
2008-03-31,33.69336700439453
2008-04-01,34.297611236572266
2008-04-02,34.542388916015625
2008-04-03,34.641822814941406
2008-04-04,34.80244445800781
2008-04-07,34.42765426635742
2008-04-08,34.611228942871094
2008-04-09,34.5270881652832
2008-04-10,34.442955017089844
2008-04-11,33.83868408203125
2008-04-14,33.991668701171875
2008-04-15,34.03756332397461
2008-04-16,35.261383056640625
2008-04-17,34.15228271484375
2008-04-18,34.993675231933594
2008-04-21,35.008975982666016
2008-04-22,34.71065139770508
2008-04-23,34.77184295654297
2008-04-24,34.74126052856445
2008-04-25,35.46790313720703
2008-04-28,35.52144241333008
2008-04-29,35.21548843383789
2008-04-30,34.88657760620117
2008-05-01,32.2324333190918
2008-05-02,32.676063537597656
2008-05-05,32.37010955810547
2008-05-06,32.27067184448242
2008-05-07,32.316558837890625
2008-05-08,32.530731201171875
2008-05-09,32.32419967651367
2008-05-12,32.50778579711914
2008-05-13,32.09474182128906
2008-05-14,32.40069580078125
2008-05-15,32.27830505371094
2008-05-16,32.201839447021484
2008-05-19,32.09474182128906
2008-05-20,32.22477340698242
2008-05-21,31.53638458251953
2008-05-22,31.36809539794922
2008-05-23,30.955059051513672
2008-05-27,31.192163467407227
2008-05-28,31.60521125793457
2008-05-29,31.758197784423828
2008-05-30,32.09474182128906
2008-06-02,31.865283966064453
2008-06-03,31.84998321533203
2008-06-04,32.155941009521484
2008-06-05,32.80609893798828
2008-06-06,31.9188175201416
2008-06-09,31.911184310913086
2008-06-10,31.674049377441406
2008-06-11,31.146284103393555
2008-06-12,31.406333923339844
2008-06-13,31.505775451660156
2008-06-16,31.475177764892578
2008-06-17,31.405969619750977
2008-06-18,31.0521183013916
2008-06-19,31.167509078979492
2008-06-20,30.929058074951172
2008-06-23,31.34441375732422
2008-06-24,30.60601234436035
2008-06-25,31.352113723754883
2008-06-26,30.86751365661621
2008-06-27,30.54446029663086
2008-06-30,30.044485092163086
2008-07-01,30.21371841430664
2008-07-02,29.43684196472168
2008-07-03,30.482933044433594
2008-07-07,30.252178192138672
2008-07-08,30.598308563232422
2008-07-09,30.182941436767578
2008-07-10,30.444473266601562
2008-07-11,30.55984878540039
2008-07-14,30.62908172607422
2008-07-15,30.782909393310547
2008-07-16,31.41364097595215
2008-07-17,31.844392776489258
2008-07-18,31.775163650512695
2008-07-21,31.967456817626953
2008-07-22,31.6290283203125
2008-07-23,30.91368293762207
2008-07-24,30.3290958404541
2008-07-25,30.552160263061523
2008-07-28,30.252178192138672
2008-07-29,30.744461059570312
2008-07-30,31.482879638671875
2008-07-31,30.936765670776367
2008-08-01,30.53676414489746
2008-08-04,29.80604362487793
2008-08-05,30.05218505859375
2008-08-06,30.336788177490234
2008-08-07,29.744510650634766
2008-08-08,30.67522621154785
2008-08-11,31.252113342285156
2008-08-12,31.98285484313965
2008-08-13,32.013614654541016
2008-08-14,32.11361312866211
2008-08-15,32.3597412109375
2008-08-18,32.121307373046875
2008-08-19,31.582868576049805
2008-08-20,31.50595474243164
2008-08-21,31.459796905517578
2008-08-22,31.71363067626953
2008-08-25,31.267499923706055
2008-08-26,31.436729431152344
2008-08-27,31.175201416015625
2008-08-28,31.544408798217773
2008-08-29,30.929058074951172
2008-09-02,30.744461059570312
2008-09-03,31.590566635131836
2008-09-04,30.67522621154785
2008-09-05,30.936765670776367
2008-09-08,31.86747169494629
2008-09-09,31.74439811706543
2008-09-10,31.690561294555664
2008-09-11,32.11361312866211
2008-09-12,32.3674430847168
2008-09-15,31.790538787841797
2008-09-16,32.36320495605469
2008-09-17,31.58936309814453
2008-09-18,33.299591064453125
2008-09-19,34.413978576660156
2008-09-22,33.191253662109375
2008-09-23,32.82752990722656
2008-09-24,32.595375061035156
2008-09-25,32.943607330322266
2008-09-26,32.49477767944336
2008-09-29,30.180896759033203
2008-09-30,30.53688621520996
2008-10-01,30.204116821289062
2008-10-02,29.69338035583496
2008-10-03,29.290952682495117
2008-10-06,30.103515625
2008-10-07,29.221302032470703
2008-10-08,29.306428909301758
2008-10-09,27.89024543762207
2008-10-10,27.58843421936035
2008-10-13,30.436277389526367
2008-10-14,28.888547897338867
2008-10-15,27.13186264038086
2008-10-16,28.818897247314453
2008-10-17,27.89024543762207
2008-10-20,28.602216720581055
2008-10-21,27.781911849975586
2008-10-22,26.149049758911133
2008-10-23,25.18170738220215
2008-10-24,24.725126266479492
2008-10-27,23.61848258972168
2008-10-28,26.156780242919922
2008-10-29,26.288339614868164
2008-10-30,24.46200942993164
2008-10-31,24.670949935913086
2008-11-03,25.08111000061035
2008-11-04,25.1507511138916
2008-11-05,24.121509552001953
2008-11-06,22.256484985351562
2008-11-07,22.867839813232422
2008-11-10,22.898794174194336
2008-11-11,22.039793014526367
2008-11-12,21.498085021972656
2008-11-13,22.798185348510742
2008-11-14,21.55999755859375
2008-11-17,21.691558837890625
2008-11-18,21.40522575378418
2008-11-19,20.252155303955078
2008-11-20,19.269344329833984
2008-11-21,21.103416442871094
2008-11-24,22.171356201171875
2008-11-25,22.84462547302246
2008-11-26,23.595277786254883
2008-11-28,23.63396644592285
2008-12-01,21.89276123046875
2008-12-02,22.47316551208496
2008-12-03,22.805931091308594
2008-12-04,22.032066345214844
2008-12-05,22.94522476196289
2008-12-08,23.98995018005371
2008-12-09,23.448238372802734
2008-12-10,23.842912673950195
2008-12-11,22.612459182739258
2008-12-12,23.285730361938477
2008-12-15,22.85236167907715
2008-12-16,23.57979393005371
2008-12-17,23.14284324645996
2008-12-18,22.893156051635742
2008-12-19,22.783926010131836
2008-12-22,22.15190315246582
2008-12-23,21.75395965576172
2008-12-24,21.675939559936523
2008-12-26,21.917821884155273
2008-12-29,21.636920928955078
2008-12-30,22.424999237060547
2008-12-31,23.18965721130371
2009-01-02,23.876300811767578
2009-01-05,23.689035415649414
2009-01-06,23.806074142456055
2009-01-07,23.03360939025879
2009-01-08,23.40813636779785
2009-01-09,22.760515213012695
2009-01-12,22.45621109008789
2009-01-13,22.534236907958984
2009-01-14,21.855396270751953
2009-01-15,22.276744842529297
2009-01-16,21.800777435302734
2009-01-20,21.57449722290039
2009-01-21,22.22992706298828
2009-01-22,22.09728240966797
2009-01-23,22.09728240966797
2009-01-26,22.15970230102539
2009-01-27,22.542037963867188
2009-01-28,22.9789981842041
2009-01-29,22.924373626708984
2009-01-30,22.33135986328125
2009-02-02,22.03485870361328
2009-02-03,21.66033172607422
2009-02-04,21.738357543945312
2009-02-05,25.241777420043945
2009-02-06,24.06357192993164
2009-02-09,23.884113311767578
2009-02-10,23.174055099487305
2009-02-11,22.932172775268555
2009-02-12,22.88534927368164
2009-02-13,22.776119232177734
2009-02-17,22.19871711730957
2009-02-18,21.808584213256836
2009-02-19,21.42624855041504
2009-02-20,21.27020263671875
2009-02-23,20.458711624145508
2009-02-24,20.7318058013916
2009-02-25,20.513328552246094
2009-02-26,20.747417449951172
2009-02-27,20.528934478759766
2009-03-02,19.81889533996582
2009-03-03,20.16221809387207
2009-03-04,20.466516494750977
2009-03-05,19.740859985351562
2009-03-06,19.959341049194336
2009-03-09,20.78643035888672
2009-03-10,21.83199119567871
2009-03-11,21.215579986572266
2009-03-12,21.910018920898438
2009-03-13,22.09728240966797
2009-03-16,22.190914154052734
2009-03-17,22.627872467041016
2009-03-18,22.903335571289062
2009-03-19,22.98204231262207
2009-03-20,22.549165725708008
2009-03-23,24.131145477294922
2009-03-24,23.98947525024414
2009-03-25,24.398744583129883
2009-03-26,24.941810607910156
2009-03-27,24.288557052612305
2009-03-30,23.706138610839844
2009-03-31,23.973731994628906
2009-04-01,24.414480209350586
2009-04-02,25.319597244262695
2009-04-03,25.461271286010742
2009-04-06,25.288127899169922
2009-04-07,24.689952850341797
2009-04-08,25.14644432067871
2009-04-09,25.846925735473633
2009-04-13,25.799699783325195
2009-04-14,25.26450538635254
2009-04-15,25.602933883666992
2009-04-16,25.799699783325195
2009-04-17,25.500621795654297
2009-04-20,24.57189178466797
2009-04-21,24.918203353881836
2009-04-22,25.044124603271484
2009-04-23,24.93393898010254
2009-04-24,25.980724334716797
2009-04-27,25.44552993774414
2009-04-28,25.26450538635254
2009-04-29,25.618680953979492
2009-04-30,24.556150436401367
2009-05-01,23.485755920410156
2009-05-04,24.06031036376953
2009-05-05,23.776966094970703
2009-05-06,23.682519912719727
2009-05-07,23.721874237060547
2009-05-08,24.375133514404297
2009-05-11,23.98947525024414
2009-05-12,24.29642105102539
2009-05-13,23.540851593017578
2009-05-14,23.729740142822266
2009-05-15,23.61168670654297
2009-05-18,24.280685424804688
2009-05-19,24.14688491821289
2009-05-20,24.359392166137695
2009-05-21,23.942251205444336
2009-05-22,24.123271942138672
2009-05-26,24.634859085083008
2009-05-27,23.98947525024414
2009-05-28,24.430227279663086
2009-05-29,25.107097625732422
2009-06-01,25.957111358642578
2009-06-02,26.374248504638672
2009-06-03,25.728866577148438
2009-06-04,25.94923973083496
2009-06-05,26.169618606567383
2009-06-08,25.83905792236328
2009-06-09,25.94137191772461
2009-06-10,25.846925735473633
2009-06-11,26.09878921508789
2009-06-12,25.94137191772461
2009-06-15,25.547847747802734
2009-06-16,25.059873580932617
2009-06-17,25.453397750854492
2009-06-18,25.643766403198242
2009-06-19,25.754810333251953
2009-06-22,25.21544075012207
2009-06-23,25.358211517333984
2009-06-24,25.207509994506836
2009-06-25,25.588241577148438
2009-06-26,25.691354751586914
2009-06-29,26.064159393310547
2009-06-30,25.953105926513672
2009-07-01,25.945167541503906
2009-07-02,25.104398727416992
2009-07-06,25.62790298461914
2009-07-07,25.088533401489258
2009-07-08,24.921960830688477
2009-07-09,24.763324737548828
2009-07-10,24.75539207458496
2009-07-13,25.207509994506836
2009-07-14,25.318553924560547
2009-07-15,25.96103286743164
2009-07-16,26.325904846191406
2009-07-17,26.302114486694336
2009-07-20,26.651113510131836
2009-07-21,26.738365173339844
2009-07-22,26.746294021606445
2009-07-23,27.15082359313965
2009-07-24,27.341188430786133
2009-07-27,27.261869430541992
2009-07-28,27.3649845123291
2009-07-29,27.008052825927734
2009-07-30,27.476032257080078
2009-07-31,27.967796325683594
2009-08-03,28.4040584564209
2009-08-04,28.88789939880371
2009-08-05,28.46752166748047
2009-08-06,28.610286712646484
2009-08-07,29.252771377563477
2009-08-10,28.840314865112305
2009-08-11,28.7768497467041
2009-08-12,29.12586212158203
2009-08-13,29.609710693359375
2009-08-14,29.1020565032959
2009-08-17,28.285083770751953
2009-08-18,28.340604782104492
2009-08-19,28.0471248626709
2009-08-20,27.944005966186523
2009-08-21,28.8006591796875
2009-08-24,28.634082794189453
2009-08-25,28.475446701049805
2009-08-26,28.618213653564453
2009-08-27,28.610286712646484
2009-08-28,28.665815353393555
2009-08-31,28.25334358215332
2009-09-01,27.690189361572266
2009-09-02,27.65052032470703
2009-09-03,27.713993072509766
2009-09-04,27.904356002807617
2009-09-08,28.38026237487793
2009-09-09,29.15758514404297
2009-09-10,29.63349723815918
2009-09-11,29.52245330810547
2009-09-14,30.06976318359375
2009-09-15,30.339435577392578
2009-09-16,30.942249298095703
2009-09-17,30.750661849975586
2009-09-18,31.253597259521484
2009-09-21,31.05402183532715
2009-09-22,31.046043395996094
2009-09-23,30.39142608642578
2009-09-24,29.85655975341797
2009-09-25,29.48135757446289
2009-09-28,30.407398223876953
2009-09-29,30.143957138061523
2009-09-30,30.27967071533203
2009-10-01,29.728839874267578
2009-10-02,29.417505264282227
2009-10-05,29.60909080505371
2009-10-06,30.048160552978516
2009-10-07,30.1200008392334
2009-10-08,30.814533233642578
2009-10-09,30.91033172607422
2009-10-12,30.950241088867188
2009-10-13,30.878387451171875
2009-10-14,31.133859634399414
2009-10-15,31.181745529174805
2009-10-16,31.17377471923828
2009-10-19,31.10990333557129
2009-10-20,31.253597259521484
2009-10-21,31.74856185913086
2009-10-22,32.123756408691406
2009-10-23,31.652753829956055
2009-10-26,31.21368408203125
2009-10-27,31.05402183532715
2009-10-28,30.215797424316406
2009-10-29,30.91033172607422
2009-10-30,30.407398223876953
2009-11-02,30.742677688598633
2009-11-03,31.0220890045166
2009-11-04,31.453166961669922
2009-11-05,32.17163848876953
2009-11-06,32.13172912597656
2009-11-09,32.70650863647461
2009-11-10,32.914066314697266
2009-11-11,32.666595458984375
2009-11-12,32.47499465942383
2009-11-13,32.62668228149414
2009-11-16,33.057769775390625
2009-11-17,33.20145034790039
2009-11-18,32.99388122558594
2009-11-19,32.315338134765625
2009-11-20,32.29937744140625
2009-11-23,32.61870193481445
2009-11-24,32.42709732055664
2009-11-25,32.89011764526367
2009-11-27,32.187618255615234
2009-11-30,32.50693130493164
2009-12-01,32.74642562866211
2009-12-02,32.906089782714844
2009-12-03,32.35527038574219
2009-12-04,32.8502082824707
2009-12-07,33.25733947753906
2009-12-08,32.93801498413086
2009-12-09,33.20145034790039
2009-12-10,33.025821685791016
2009-12-11,32.89011764526367
2009-12-14,33.40902328491211
2009-12-15,33.097686767578125
2009-12-16,33.329185485839844
2009-12-17,32.7830696105957
2009-12-18,32.461830139160156
2009-12-21,32.758975982666016
2009-12-22,32.742916107177734
2009-12-23,33.056121826171875
2009-12-24,33.232818603515625
2009-12-28,33.21675109863281
2009-12-29,33.30509567260742
2009-12-30,33.345245361328125
2009-12-31,33.040077209472656
2010-01-04,33.73878479003906
2010-01-05,33.48981475830078
2010-01-06,33.6263313293457
2010-01-07,33.36933517456055
2010-01-08,33.24886703491211
2010-01-11,33.35327911376953
2010-01-12,33.264930725097656
2010-01-13,33.819087982177734
2010-01-14,33.827125549316406
2010-01-15,33.746803283691406
2010-01-19,34.34111022949219
2010-01-20,33.827125549316406
2010-01-21,33.47373580932617
2010-01-22,32.887474060058594
2010-01-25,32.82322311401367
2010-01-26,32.36544418334961
2010-01-27,32.349388122558594
2010-01-28,32.12450408935547
2010-01-29,31.939802169799805
2010-02-01,32.45379638671875
2010-02-02,32.991878509521484
2010-02-03,33.21675109863281
2010-02-04,32.309226989746094
2010-02-05,32.325294494628906
2010-02-08,32.00404739379883
2010-02-09,32.991878509521484
2010-02-10,33.28099822998047
2010-02-11,33.481773376464844
2010-02-12,33.47373580932617
2010-02-16,33.73074722290039
2010-02-17,33.81105422973633
2010-02-18,34.03593826293945
2010-02-19,34.116241455078125
2010-02-22,33.9315185546875
2010-02-23,33.52193069458008
2010-02-24,33.65043258666992
2010-02-25,33.7066535949707
2010-02-26,33.819087982177734
2010-03-01,34.01182174682617
2010-03-02,34.405364990234375
2010-03-03,34.469608306884766
2010-03-04,34.959503173828125
2010-03-05,35.73049545288086
2010-03-08,35.553802490234375
2010-03-09,35.36104965209961
2010-03-10,35.28877639770508
2010-03-11,35.44137191772461
2010-03-12,35.9232292175293
2010-03-15,36.13204574584961
2010-03-16,36.43722152709961
2010-03-17,36.46133041381836
2010-03-18,36.477386474609375
2010-03-19,36.12401580810547
2010-03-22,36.72972106933594
2010-03-23,37.1981315612793
2010-03-24,36.98815155029297
2010-03-25,36.97200393676758
2010-03-26,36.867008209228516
2010-03-29,38.73257064819336
2010-03-30,38.5145263671875
2010-03-31,38.49837875366211
2010-04-01,38.95063018798828
2010-04-05,39.42711639404297
2010-04-06,39.46748733520508
2010-04-07,39.46748733520508
2010-04-08,39.50785446166992
2010-04-09,40.267024993896484
2010-04-12,40.37199783325195
2010-04-13,40.70311737060547
2010-04-14,41.10691833496094
2010-04-15,41.61570358276367
2010-04-16,40.78388595581055
2010-04-19,40.92117691040039
2010-04-20,40.87271499633789
2010-04-21,40.57389831542969
2010-04-22,40.92923355102539
2010-04-23,41.76914978027344
2010-04-26,41.510711669921875
2010-04-27,40.63851547241211
2010-04-28,40.654666900634766
2010-04-29,41.438053131103516
2010-04-30,40.4527702331543
2010-05-03,41.203826904296875
2010-05-04,40.00050735473633
2010-05-05,39.168678283691406
2010-05-06,37.68268966674805
2010-05-07,36.4228401184082
2010-05-10,37.98958206176758
2010-05-11,37.618080139160156
2010-05-12,38.377227783203125
2010-05-13,37.99764633178711
2010-05-14,37.206199645996094
2010-05-17,37.2950439453125
2010-05-18,36.66511535644531
2010-05-19,36.30169677734375
2010-05-20,34.93684005737305
2010-05-21,35.695987701416016
2010-05-24,35.1548957824707
2010-05-25,35.235652923583984
2010-05-26,34.94492721557617
2010-05-27,36.48744201660156
2010-05-28,35.93827819824219
2010-06-01,35.31641387939453
2010-06-02,36.27745819091797
2010-06-03,36.1644172668457
2010-06-04,34.80763626098633
2010-06-07,34.71879577636719
2010-06-08,35.477928161621094
2010-06-09,35.59907913208008
2010-06-10,36.40668487548828
2010-06-11,36.931617736816406
2010-06-14,36.632816314697266
2010-06-15,37.61000442504883
2010-06-16,37.5534782409668
2010-06-17,37.561553955078125
2010-06-18,37.52924346923828
2010-06-21,37.39122772216797
2010-06-22,36.96898651123047
2010-06-23,36.85531234741211
2010-06-24,36.15700912475586
2010-06-25,35.99462890625
2010-06-28,35.72666931152344
2010-06-29,34.99591064453125
2010-06-30,34.443763732910156
2010-07-01,34.34632110595703
2010-07-02,34.09461212158203
2010-07-06,34.135215759277344
2010-07-07,35.53179931640625
2010-07-08,36.05146408081055
2010-07-09,36.238224029541016
2010-07-12,35.84035110473633
2010-07-13,36.733516693115234
2010-07-14,36.5467529296875
2010-07-15,36.53864669799805
2010-07-16,35.539920806884766
2010-07-19,35.767269134521484
2010-07-20,36.53864669799805
2010-07-21,36.595481872558594
2010-07-22,37.529239654541016
2010-07-23,37.7241096496582
2010-07-26,38.016422271728516
2010-07-27,37.17197799682617
2010-07-28,37.374977111816406
2010-07-29,36.9852294921875
2010-07-30,36.847198486328125
2010-08-02,37.2856559753418
2010-08-03,37.074546813964844
2010-08-04,37.26129913330078
2010-08-05,38.03265380859375
2010-08-06,38.05702209472656
2010-08-09,38.66599655151367
2010-08-10,38.438663482666016
2010-08-11,37.350608825683594
2010-08-12,37.20446014404297
2010-08-13,37.634796142578125
2010-08-16,37.26129913330078
2010-08-17,38.186946868896484
2010-08-18,38.08137893676758
2010-08-19,37.074546813964844
2010-08-20,37.21257781982422
2010-08-23,36.920265197753906
2010-08-24,36.270694732666016
2010-08-25,36.47369384765625
2010-08-26,36.660430908203125
2010-08-27,37.472408294677734
2010-08-30,37.050174713134766
2010-08-31,37.09890365600586
2010-09-01,38.47924041748047
2010-09-02,38.706607818603516
2010-09-03,38.747188568115234
2010-09-07,38.10573196411133
2010-09-08,38.211299896240234
2010-09-09,38.08137893676758
2010-09-10,37.886512756347656
2010-09-13,38.008304595947266
2010-09-14,38.55232238769531
2010-09-15,38.85276412963867
2010-09-16,38.85276412963867
2010-09-17,39.291221618652344
2010-09-20,39.94443130493164
2010-09-21,39.70764923095703
2010-09-22,39.65865707397461
2010-09-23,39.127906799316406
2010-09-24,40.0179328918457
2010-09-27,39.8627815246582
2010-09-28,40.38535690307617
2010-09-29,39.77296829223633
2010-09-30,39.61782455444336
2010-10-01,39.838287353515625
2010-10-04,39.60150146484375
2010-10-05,40.4588508605957
2010-10-06,40.49967575073242
2010-10-07,40.40986633300781
2010-10-08,40.58133316040039
2010-10-11,40.467010498046875
2010-10-12,40.5160026550293
2010-10-13,40.88343811035156
2010-10-14,40.58133316040039
2010-10-15,40.66298294067383
2010-10-18,40.695648193359375
2010-10-19,39.96894454956055
2010-10-20,40.77729415893555
2010-10-21,40.71197509765625
2010-10-22,40.66298294067383
2010-10-25,40.858943939208984
2010-10-26,41.03858947753906
2010-10-27,40.695648193359375
2010-10-28,40.785465240478516
2010-10-29,40.956932067871094
2010-11-01,41.07124328613281
2010-11-02,41.36518478393555
2010-11-03,41.4141845703125
2010-11-04,43.553489685058594
2010-11-05,43.46366882324219
2010-11-08,43.78212356567383
2010-11-09,43.177886962890625
2010-11-10,43.545318603515625
2010-11-11,43.56166076660156
2010-11-12,42.83493423461914
2010-11-15,42.31236267089844
2010-11-16,41.430511474609375
2010-11-17,41.35702133178711
2010-11-18,41.887779235839844
2010-11-19,42.11639404296875
2010-11-22,42.451171875
2010-11-23,42.075565338134766
2010-11-24,42.85126876831055
2010-11-26,43.24320602416992
2010-11-29,43.104393005371094
2010-11-30,42.88393783569336
2010-12-01,43.72495651245117
2010-12-02,44.312870025634766
2010-12-03,44.933414459228516
2010-12-06,44.672122955322266
2010-12-07,45.0477294921875
2010-12-08,44.925254821777344
2010-12-09,45.006893157958984
2010-12-10,45.53764724731445
2010-12-13,45.276344299316406
2010-12-14,45.45598220825195
2010-12-15,45.1130485534668
2010-12-16,45.1130485534668
2010-12-17,44.990570068359375
2010-12-20,45.309024810791016
2010-12-21,45.40700149536133
2010-12-22,45.52946853637695
2010-12-23,45.23551940917969
2010-12-27,45.39142990112305
2010-12-28,45.440643310546875
2010-12-29,45.522701263427734
2010-12-30,45.35038375854492
2010-12-31,45.61296463012695
2011-01-03,45.66221237182617
2011-01-04,45.711429595947266
2011-01-05,45.83451461791992
2011-01-06,45.79348373413086
2011-01-07,45.88373565673828
2011-01-10,45.81809616088867
2011-01-11,45.891944885253906
2011-01-12,45.908363342285156
2011-01-13,45.9329833984375
2011-01-14,45.908363342285156
2011-01-18,46.121700286865234
2011-01-19,45.66221237182617
2011-01-20,45.66221237182617
2011-01-21,45.64580154418945
2011-01-24,46.22017288208008
2011-01-25,46.63862228393555
2011-01-26,47.10631561279297
2011-01-27,46.876564025878906
2011-01-28,46.04784393310547
2011-01-31,46.810935974121094
2011-02-01,48.08274841308594
2011-02-02,48.41095733642578
2011-02-03,48.31249237060547
2011-02-04,48.33709716796875
2011-02-07,48.706356048583984
2011-02-08,48.255062103271484
2011-02-09,47.95967102050781
2011-02-10,44.96475601196289
2011-02-11,46.31862258911133
2011-02-14,45.62938690185547
2011-02-15,45.842708587646484
2011-02-16,46.61400604248047
2011-02-17,46.85195541381836
2011-02-18,47.05708694458008
2011-02-22,46.14630126953125
2011-02-23,45.88373565673828
2011-02-24,45.891944885253906
2011-02-25,46.71248245239258
2011-02-28,46.7288818359375
2011-03-01,46.18733596801758
2011-03-02,46.417083740234375
2011-03-03,47.31965255737305
2011-03-04,46.85195541381836
2011-03-07,47.05708694458008
2011-03-08,47.52479934692383
2011-03-09,47.62325668334961
2011-03-10,47.155548095703125
2011-03-11,47.6314582824707
2011-03-14,47.58223342895508
2011-03-15,47.50017547607422
2011-03-16,46.589393615722656
2011-03-17,47.688899993896484
2011-03-18,49.03456115722656
2011-03-21,49.50437545776367
2011-03-22,49.520870208740234
2011-03-23,49.78462600708008
2011-03-24,50.11431884765625
2011-03-25,50.34510803222656
2011-03-28,50.00716781616211
2011-03-29,50.641841888427734
2011-03-30,51.23529052734375
2011-03-31,51.3506965637207
2011-04-01,51.72160720825195
2011-04-04,52.60354995727539
2011-04-05,52.933265686035156
2011-04-06,52.842586517333984
2011-04-07,52.68598175048828
2011-04-08,52.240875244140625
2011-04-11,51.98536682128906
2011-04-12,51.3506965637207
2011-04-13,51.1446418762207
2011-04-14,50.99626922607422
2011-04-15,51.21881866455078
2011-04-18,50.83966064453125
2011-04-19,51.367183685302734
2011-04-20,51.89470672607422
2011-04-21,52.33979415893555
2011-04-25,52.33979415893555
2011-04-26,52.45518493652344
2011-04-27,52.32330322265625
2011-04-28,52.28209686279297
2011-04-29,52.35627746582031
2011-05-02,52.18318557739258
2011-05-03,51.98536682128906
2011-05-04,51.48257064819336
2011-05-05,51.4166374206543
2011-05-06,51.71337127685547
2011-05-09,52.52936553955078
2011-05-10,53.77398681640625
2011-05-11,53.46902084350586
2011-05-12,52.6118049621582
2011-05-13,51.85348892211914
2011-05-16,51.5567626953125
2011-05-17,51.35892868041992
2011-05-18,52.51288604736328
2011-05-19,52.69422912597656
2011-05-20,52.19968032836914
2011-05-23,51.71337127685547
2011-05-24,51.74633026123047
2011-05-25,52.034812927246094
2011-05-26,52.1090087890625
2011-05-27,52.74367904663086
2011-05-31,52.80136489868164
2011-06-01,51.70512390136719
2011-06-02,51.210575103759766
2011-06-03,50.468746185302734
2011-06-06,49.92475891113281
2011-06-07,50.658321380615234
2011-06-08,50.46050262451172
2011-06-09,51.10342025756836
2011-06-10,50.6748161315918
2011-06-13,50.823177337646484
2011-06-14,51.095184326171875
2011-06-15,50.534690856933594
2011-06-16,50.34510803222656
2011-06-17,50.92208480834961
2011-06-20,51.17871856689453
2011-06-21,52.188724517822266
2011-06-22,51.90725326538086
2011-06-23,51.675437927246094
2011-06-24,51.559539794921875
2011-06-27,51.526424407958984
2011-06-28,51.99831008911133
2011-06-29,52.5529670715332
2011-06-30,53.18216323852539
2011-07-01,53.587825775146484
2011-07-05,53.23183059692383
2011-07-06,53.256675720214844
2011-07-07,53.778221130371094
2011-07-08,53.76993942260742
2011-07-11,53.09109115600586
2011-07-12,52.660614013671875
2011-07-13,52.991756439208984
2011-07-14,52.52813720703125
2011-07-15,52.71855545043945
2011-07-18,51.940364837646484
2011-07-19,52.44535827636719
2011-07-20,51.77479553222656
2011-07-21,52.38740921020508
2011-07-22,52.28805923461914
2011-07-25,52.0065803527832
2011-07-26,51.518157958984375
2011-07-27,50.6406135559082
2011-07-28,50.806182861328125
2011-07-29,50.6406135559082
2011-08-01,51.35257339477539
2011-08-02,50.06937789916992
2011-08-03,50.12732696533203
2011-08-04,46.87381362915039
2011-08-05,47.73480224609375
2011-08-08,43.72792434692383
2011-08-09,46.31914520263672
2011-08-10,44.1004638671875
2011-08-11,45.35054397583008
2011-08-12,46.68340301513672
2011-08-15,47.047672271728516
2011-08-16,45.99628829956055
2011-08-17,45.77275466918945
2011-08-18,44.0011100769043
2011-08-19,43.71136474609375
2011-08-22,44.174964904785156
2011-08-23,46.05424118041992
2011-08-24,45.42505645751953
2011-08-25,45.12702178955078
2011-08-26,46.39365768432617
2011-08-29,47.52782440185547
2011-08-30,47.68511962890625
2011-08-31,48.03282928466797
2011-09-01,47.52782440185547
2011-09-02,46.4350471496582
2011-09-06,46.39365768432617
2011-09-07,47.411930084228516
2011-09-08,47.4367790222168
2011-09-09,46.410213470458984
2011-09-12,46.26947021484375
2011-09-13,46.80759811401367
2011-09-14,47.643733978271484
2011-09-15,48.68684768676758
2011-09-16,49.829307556152344
2011-09-19,49.687835693359375
2011-09-20,49.54637145996094
2011-09-21,48.36471176147461
2011-09-22,46.77531051635742
2011-09-23,46.84187316894531
2011-09-26,47.60744094848633
2011-09-27,49.13861083984375
2011-09-28,47.2995719909668
2011-09-29,47.931983947753906
2011-09-30,46.78361892700195
2011-10-03,46.40916442871094
2011-10-04,47.95695495605469
2011-10-05,48.49787139892578
2011-10-06,49.013797760009766
2011-10-07,48.66429138183594
2011-10-10,50.13718795776367
2011-10-11,49.920833587646484
2011-10-12,50.3785285949707
2011-10-13,49.52140808105469
2011-10-14,50.9693603515625
2011-10-17,49.84593963623047
2011-10-18,50.39517593383789
2011-10-19,49.712806701660156
2011-10-20,49.646217346191406
2011-10-21,50.961036682128906
2011-10-24,50.64481735229492
2011-10-25,49.4132194519043
2011-10-26,50.3868408203125
2011-10-27,52.43394470214844
2011-10-28,52.36737060546875
2011-10-31,50.39517593383789
2011-11-01,49.130306243896484
2011-11-02,50.004058837890625
2011-11-03,51.268924713134766
2011-11-04,50.819557189941406
2011-11-07,51.019287109375
2011-11-08,45.79336166381836
2011-11-09,44.78645706176758
2011-11-10,44.63666915893555
2011-11-11,45.31070327758789
2011-11-14,45.07769775390625
2011-11-15,44.75315856933594
2011-11-16,44.362056732177734
2011-11-17,43.613121032714844
2011-11-18,43.71297836303711
2011-11-21,43.821163177490234
2011-11-22,43.58815383911133
2011-11-23,43.03061294555664
2011-11-25,42.955718994140625
2011-11-28,44.31212615966797
2011-11-29,43.787872314453125
2011-11-30,45.152591705322266
2011-12-01,44.76981735229492
2011-12-02,44.6533088684082
2011-12-05,45.03609848022461
2011-12-06,44.952880859375
2011-12-07,45.31903839111328
2011-12-08,44.403663635253906
2011-12-09,45.10268020629883
2011-12-12,43.970943450927734
2011-12-13,43.56319046020508
2011-12-14,43.34682846069336
2011-12-15,43.413387298583984
2011-12-16,43.18040084838867
2011-12-19,42.69776153564453
2011-12-20,43.47997283935547
2011-12-21,43.413387298583984
2011-12-22,43.42172622680664
2011-12-23,44.47650146484375
2011-12-27,44.65229797363281
2011-12-28,43.589149475097656
2011-12-29,44.10816955566406
2011-12-30,43.88214874267578
2012-01-03,44.26722717285156
2012-01-04,44.325828552246094
2012-01-05,44.28396224975586
2012-01-06,44.426273345947266
2012-01-09,44.55183792114258
2012-01-10,45.255027770996094
2012-01-11,45.388980865478516
2012-01-12,46.10890197753906
2012-01-13,45.68197250366211
2012-01-17,46.10890197753906
2012-01-18,46.62792205810547
2012-01-19,46.89580154418945
2012-01-20,47.00461959838867
2012-01-23,47.264122009277344
2012-01-24,47.25577926635742
2012-01-25,47.540382385253906
2012-01-26,47.51527404785156
2012-01-27,47.66596984863281
2012-01-30,47.222267150878906
2012-01-31,46.720001220703125
2012-02-01,47.11345291137695
2012-02-02,46.91254806518555
2012-02-03,47.205543518066406
2012-02-06,47.121826171875
2012-02-07,46.54420852661133
2012-02-08,47.088340759277344
2012-02-09,47.90034866333008
2012-02-10,46.89580154418945
2012-02-13,47.13019943237305
2012-02-14,47.213905334472656
2012-02-15,46.86232376098633
2012-02-16,47.138553619384766
2012-02-17,47.431556701660156
2012-02-21,48.009178161621094
2012-02-22,48.06777572631836
2012-02-23,48.11800765991211
2012-02-24,48.243568420410156
2012-02-27,48.235206604003906
2012-02-28,48.21845626831055
2012-02-29,47.741302490234375
2012-03-01,47.280879974365234
2012-03-02,47.61571502685547
2012-03-05,47.2976188659668
2012-03-06,46.41027069091797
2012-03-07,46.69488525390625
2012-03-08,47.03810119628906
2012-03-09,47.04648208618164
2012-03-12,46.91254806518555
2012-03-13,47.239013671875
2012-03-14,47.356224060058594
2012-03-15,47.90034866333008
2012-03-16,47.91709518432617
2012-03-19,48.08542251586914
2012-03-20,47.933937072753906
2012-03-21,48.060176849365234
2012-03-22,47.67301940917969
2012-03-23,48.060176849365234
2012-03-26,48.7335319519043
2012-03-27,49.339542388916016
2012-03-28,49.21328353881836
2012-03-29,48.927120208740234
2012-03-30,49.322715759277344
2012-04-02,50.172813415527344
2012-04-03,49.886634826660156
2012-04-04,49.37321472167969
2012-04-05,49.31430435180664
2012-04-09,48.80928039550781
2012-04-10,47.799251556396484
2012-04-11,48.4052734375
2012-04-12,49.263790130615234
2012-04-13,48.826107025146484
2012-04-16,49.0870361328125
2012-04-17,49.592044830322266
2012-04-18,49.7772102355957
2012-04-19,49.852962493896484
2012-04-20,50.02972412109375
2012-04-23,49.65096664428711
2012-04-24,49.768802642822266
2012-04-25,50.122310638427734
2012-04-26,50.610477447509766
2012-04-27,50.95557403564453
2012-04-30,50.67781448364258
2012-05-01,50.82931137084961
2012-05-02,50.8040657043457
2012-05-03,50.48423385620117
2012-05-04,49.55837631225586
2012-05-07,50.063392639160156
2012-05-08,49.38162612915039
2012-05-09,49.171207427978516
2012-05-10,49.0870361328125
2012-05-11,48.80086135864258
2012-05-14,48.47261047363281
2012-05-15,48.31269073486328
2012-05-16,48.051761627197266
2012-05-17,46.78083038330078
2012-05-18,46.62931442260742
2012-05-21,48.144351959228516
2012-05-22,48.051761627197266
2012-05-23,47.91709518432617
2012-05-24,48.26218795776367
2012-05-25,48.00126647949219
2012-05-29,48.63251495361328
2012-05-30,47.61409378051758
2012-05-31,47.454166412353516
2012-06-01,45.74554443359375
2012-06-04,45.71187210083008
2012-06-05,45.880218505859375
2012-06-06,46.982826232910156
2012-06-07,47.201656341552734
2012-06-08,47.54676055908203
2012-06-11,47.0333251953125
2012-06-12,47.47941589355469
2012-06-13,46.57881164550781
2012-06-14,46.94916534423828
2012-06-15,47.504669189453125
2012-06-18,47.689842224121094
2012-06-19,48.48945999145508
2012-06-20,47.967594146728516
2012-06-21,46.94916534423828
2012-06-22,47.10150909423828
2012-06-25,46.03506088256836
2012-06-26,45.96735763549805
2012-06-27,45.95888137817383
2012-06-28,46.178951263427734
2012-06-29,46.382076263427734
2012-07-02,45.992733001708984
2012-07-03,46.509033203125
2012-07-05,46.55134582519531
2012-07-06,45.7557487487793
2012-07-09,46.03506088256836
2012-07-10,45.620323181152344
2012-07-11,45.721900939941406
2012-07-12,45.56108474731445
2012-07-13,46.19586944580078
2012-07-16,45.848846435546875
2012-07-17,46.37361526489258
2012-07-18,46.441322326660156
2012-07-19,46.898372650146484
2012-07-20,46.610599517822266
2012-07-23,45.662654876708984
2012-07-24,45.13788604736328
2012-07-25,45.58647537231445
2012-07-26,45.772682189941406
2012-07-27,46.91530227661133
2012-07-30,47.28771209716797
2012-07-31,47.177677154541016
2012-08-01,47.00840759277344
2012-08-02,46.61906433105469
2012-08-03,46.957611083984375
2012-08-06,47.253868103027344
2012-08-07,47.83787155151367
2012-08-08,52.48454284667969
2012-08-09,51.68046951293945
2012-08-10,51.99363708496094
2012-08-13,51.91745376586914
2012-08-14,51.7227897644043
2012-08-15,51.99363708496094
2012-08-16,52.696136474609375
2012-08-17,52.39143753051758
2012-08-20,52.56916809082031
2012-08-21,52.179832458496094
2012-08-22,52.112125396728516
2012-08-23,51.6212272644043
2012-08-24,51.66353225708008
2012-08-27,51.57042694091797
2012-08-28,51.48579788208008
2012-08-29,51.46039962768555
2012-08-30,51.0202751159668
2012-08-31,51.22340393066406
2012-09-04,50.80022430419922
2012-09-05,50.8933219909668
2012-09-06,51.731258392333984
2012-09-07,51.8751335144043
2012-09-10,51.73971176147461
2012-09-11,51.60429382324219
2012-09-12,51.071075439453125
2012-09-13,51.51118850708008
2012-09-14,50.99488830566406
2012-09-17,51.1566162109375
2012-09-18,51.20768737792969
2012-09-19,51.48006820678711
2012-09-20,51.58219909667969
2012-09-21,51.471561431884766
2012-09-24,51.19066619873047
2012-09-25,50.95233154296875
2012-09-26,50.70548629760742
2012-09-27,51.07149887084961
2012-09-28,50.71400833129883
2012-10-01,51.54815673828125
2012-10-02,51.43751525878906
2012-10-03,51.36091232299805
2012-10-04,51.58219909667969
2012-10-05,51.880123138427734
2012-10-08,51.709896087646484
2012-10-09,51.50559997558594
2012-10-10,51.45453643798828
2012-10-11,51.701385498046875
2012-10-12,51.53114318847656
2012-10-15,52.00782012939453
2012-10-16,52.96966552734375
2012-10-17,53.539955139160156
2012-10-18,53.42079162597656
2012-10-19,52.510009765625
2012-10-22,54.72311019897461
2012-10-23,54.15280532836914
2012-10-24,53.871925354003906
2012-10-25,54.37412643432617
2012-10-26,54.42519760131836
2012-10-31,55.00400161743164
2012-11-01,55.55727767944336
2012-11-02,54.87632369995117
2012-11-05,55.599830627441406
2012-11-06,54.75716018676758
2012-11-07,53.91447067260742
2012-11-08,53.2335319519043
2012-11-09,53.27608108520508
2012-11-12,53.30162811279297
2012-11-13,52.910072326660156
2012-11-14,52.458953857421875
2012-11-15,52.569583892822266
2012-11-16,52.407859802246094
2012-11-19,53.854896545410156
2012-11-20,53.90597152709961
2012-11-21,54.22941589355469
2012-11-23,54.75716018676758
2012-11-26,54.64650344848633
2012-11-27,54.620967864990234
2012-11-28,54.96143341064453
2012-11-29,55.28488540649414
2012-11-30,55.35298538208008
2012-12-03,54.91889190673828
2012-12-04,55.012516021728516
2012-12-05,54.842281341552734
2012-12-06,55.06358337402344
2012-12-07,55.10614776611328
2012-12-10,55.650901794433594
2012-12-11,55.47216033935547
2012-12-12,55.718990325927734
2012-12-13,55.69347381591797
2012-12-14,55.91477584838867
2012-12-17,56.502105712890625
2012-12-18,57.0809211730957
2012-12-19,57.175018310546875
2012-12-20,57.671234130859375
2012-12-21,57.27767562866211
2012-12-24,57.57712936401367
2012-12-26,57.61132049560547
2012-12-27,57.37179946899414
2012-12-28,56.43070602416992
2012-12-31,56.926902770996094
2013-01-02,58.47542190551758
2013-01-03,58.26155090332031
2013-01-04,58.37277603149414
2013-01-07,58.295772552490234
2013-01-08,58.33855056762695
2013-01-09,58.723533630371094
2013-01-10,59.07429122924805
2013-01-11,58.714962005615234
2013-01-14,59.06574630737305
2013-01-15,59.40795135498047
2013-01-16,59.425048828125
2013-01-17,59.95550537109375
2013-01-18,60.36612319946289
2013-01-22,60.580020904541016
2013-01-23,60.13516616821289
2013-01-24,60.545806884765625
2013-01-25,60.85379409790039
2013-01-28,60.32335662841797
2013-01-29,60.88800048828125
2013-01-30,60.60568618774414
2013-01-31,60.25492858886719
2013-02-01,61.01634979248047
2013-02-04,60.51157760620117
2013-02-05,60.88800048828125
2013-02-06,60.90512466430664
2013-02-07,62.16274642944336
2013-02-08,62.96696090698242
2013-02-11,62.7359733581543
2013-02-12,62.8300666809082
2013-02-13,63.45458984375
2013-02-14,63.1380729675293
2013-02-15,63.20651626586914
2013-02-19,63.18083953857422
2013-02-20,61.97452926635742
2013-02-21,61.52112579345703
2013-02-22,61.99163055419922
2013-02-25,60.51157760620117
2013-02-26,61.281551361083984
2013-02-27,62.282535552978516
2013-02-28,62.436519622802734
2013-03-01,62.710304260253906
2013-03-04,62.7445068359375
2013-03-05,62.81296920776367
2013-03-06,63.12950897216797
2013-03-07,63.0268440246582
2013-03-08,63.30060577392578
2013-03-11,64.2588119506836
2013-03-12,63.98503112792969
2013-03-13,64.51546478271484
2013-03-14,64.89188385009766
2013-03-15,65.14000701904297
2013-03-18,64.7208023071289
2013-03-19,64.84111785888672
2013-03-20,66.05284118652344
2013-03-21,65.17625427246094
2013-03-22,64.83251953125
2013-03-25,64.68640899658203
2013-03-26,65.09032440185547
2013-03-27,64.79813385009766
2013-03-28,65.88956451416016
2013-04-01,64.86688232421875
2013-04-02,64.7121810913086
2013-04-03,63.73249435424805
2013-04-04,64.11920928955078
2013-04-05,63.39733123779297
2013-04-08,63.552024841308594
2013-04-09,63.500457763671875
2013-04-10,64.70359802246094
2013-04-11,65.36531066894531
2013-04-12,64.86688232421875
2013-04-15,63.18247604370117
2013-04-16,64.58326721191406
2013-04-17,63.98173141479492
2013-04-18,63.46609878540039
2013-04-19,64.50594329833984
2013-04-22,65.39971923828125
2013-04-23,66.25048828125
2013-04-24,66.02706146240234
2013-04-25,66.05284118652344
2013-04-26,65.21924591064453
2013-04-29,65.73486328125
2013-04-30,66.33644104003906
2013-05-01,65.49422454833984
2013-05-02,66.00987243652344
2013-05-03,66.98099517822266
2013-05-06,67.19583892822266
2013-05-07,68.2872543334961
2013-05-08,68.51069641113281
2013-05-09,68.44194793701172
2013-05-10,68.89741516113281
2013-05-13,68.81146240234375
2013-05-14,69.98885345458984
2013-05-15,70.3583984375
2013-05-16,69.77403259277344
2013-05-17,70.83104705810547
2013-05-20,70.58184051513672
2013-05-21,70.7451171875
2013-05-22,69.98885345458984
2013-05-23,70.23809051513672
2013-05-24,70.45293426513672
2013-05-28,70.78807830810547
2013-05-29,70.13495635986328
2013-05-30,69.98026275634766
2013-05-31,69.00056457519531
2013-06-03,69.00056457519531
2013-06-04,68.94039916992188
2013-06-05,67.36771392822266
2013-06-06,67.5911636352539
2013-06-07,68.47632598876953
2013-06-10,68.52787017822266
2013-06-11,67.831787109375
2013-06-12,67.22161865234375
2013-06-13,67.960693359375
2013-06-14,67.43646240234375
2013-06-17,68.33023071289062
2013-06-18,68.7083740234375
2013-06-19,67.84037017822266
2013-06-20,65.71768188476562
2013-06-21,65.82941436767578
2013-06-24,64.39421081542969
2013-06-25,65.20572662353516
2013-06-26,65.404296875
2013-06-27,65.52515411376953
2013-06-28,64.88629913330078
2013-07-01,67.26041412353516
2013-07-02,67.09636688232422
2013-07-03,66.75105285644531
2013-07-05,68.08920288085938
2013-07-08,68.35681915283203
2013-07-09,68.7021484375
2013-07-10,69.05608367919922
2013-07-11,69.4100570678711
2013-07-12,69.2028579711914
2013-07-15,69.02155303955078
2013-07-16,68.69349670410156
2013-07-17,68.46041870117188
2013-07-18,68.65032196044922
2013-07-19,68.97838592529297
2013-07-22,69.03020477294922
2013-07-23,68.1755142211914
2013-07-24,67.98558807373047
2013-07-25,68.80571746826172
2013-07-26,68.49492645263672
2013-07-29,69.00431060791016
2013-07-30,69.31509399414062
2013-07-31,69.65177154541016
2013-08-01,70.72228240966797
2013-08-02,70.51507568359375
2013-08-05,71.4560775756836
2013-08-06,71.85321807861328
2013-08-07,71.84457397460938
2013-08-08,72.62153625488281
2013-08-09,72.13809204101562
2013-08-12,72.1553726196289
2013-08-13,72.1726303100586
2013-08-14,71.6891860961914
2013-08-15,71.01580810546875
2013-08-16,70.96400451660156
2013-08-19,70.26470184326172
2013-08-20,70.87765502929688
2013-08-21,70.0575180053711
2013-08-22,70.56690216064453
2013-08-23,70.37693786621094
2013-08-26,70.4114990234375
2013-08-27,68.97838592529297
2013-08-28,68.7366714477539
2013-08-29,68.60717010498047
2013-08-30,68.21003723144531
2013-09-03,68.5381088256836
2013-09-04,69.3582534790039
2013-09-05,68.89205932617188
2013-09-06,68.03736114501953
2013-09-09,68.8402328491211
2013-09-10,69.30644989013672
2013-09-11,69.72945404052734
2013-09-12,69.81580352783203
2013-09-13,70.78269958496094
2013-09-16,71.57698059082031
2013-09-17,71.35248565673828
2013-09-18,72.68197631835938
2013-09-19,72.44025421142578
2013-09-20,71.76689147949219
2013-09-23,71.23162078857422
2013-09-24,71.68269348144531
2013-09-25,71.19694519042969
2013-09-26,71.08415985107422
2013-09-27,70.78059387207031
2013-09-30,71.38778686523438
2013-10-01,71.66533660888672
2013-10-02,71.23162841796875
2013-10-03,70.92803192138672
2013-10-04,71.96891021728516
2013-10-07,70.61576843261719
2013-10-08,69.36669158935547
2013-10-09,69.531494140625
2013-10-10,70.3902359008789
2013-10-11,70.32954406738281
2013-10-14,70.53768157958984
2013-10-15,69.58356475830078
2013-10-16,70.35554504394531
2013-10-17,71.83882904052734
2013-10-18,71.4224624633789
2013-10-21,71.3096923828125
2013-10-22,71.58727264404297
2013-10-23,71.37909698486328
2013-10-24,71.56990051269531
2013-10-25,70.97138977050781
2013-10-28,71.7520751953125
2013-10-29,72.42863464355469
2013-10-30,72.02096557617188
2013-10-31,71.69135284423828
2013-11-01,71.8822021484375
2013-11-04,72.44599151611328
2013-11-05,73.05317687988281
2013-11-06,75.2043685913086
2013-11-07,73.84251403808594
2013-11-08,75.41255187988281
2013-11-11,75.6727523803711
2013-11-12,75.90696716308594
2013-11-13,77.04326629638672
2013-11-14,77.97139739990234
2013-11-15,76.83509826660156
2013-11-18,76.81773376464844
2013-11-19,76.85243225097656
2013-11-20,76.5141372680664
2013-11-21,76.61824035644531
2013-11-22,76.69628143310547
2013-11-25,76.3753890991211
2013-11-26,76.548828125
2013-11-27,76.69628143310547
2013-11-29,76.63558197021484
2013-12-02,76.21923065185547
2013-12-03,75.11760711669922
2013-12-04,73.94662475585938
2013-12-05,73.51289367675781
2013-12-06,74.86607360839844
2013-12-09,74.84872436523438
2013-12-10,74.56246948242188
2013-12-11,73.79048156738281
2013-12-12,73.67772674560547
2013-12-13,73.46952819824219
2013-12-16,73.02716827392578
2013-12-17,72.9057388305664
2013-12-18,74.19815063476562
2013-12-19,73.81649017333984
2013-12-20,74.2848892211914
2013-12-23,74.38031768798828
2013-12-24,74.9990005493164
2013-12-26,75.04256439208984
2013-12-27,74.88572692871094
2013-12-30,74.92928314208984
2013-12-31,74.92057037353516
2014-01-02,74.63300323486328
2014-01-03,74.86830139160156
2014-01-06,74.38902282714844
2014-01-07,74.45873260498047
2014-01-08,73.95335388183594
2014-01-09,74.12762451171875
2014-01-10,74.685302734375
2014-01-13,73.88363647460938
2014-01-14,74.81600189208984
2014-01-15,75.18199920654297
2014-01-16,75.69609832763672
2014-01-17,75.82679748535156
2014-01-21,76.17535400390625
2014-01-22,76.0794906616211
2014-01-23,75.24298858642578
2014-01-24,74.06664276123047
2014-01-27,74.11891174316406
2014-01-28,75.98365783691406
2014-01-29,74.798583984375
2014-01-30,76.07077026367188
2014-01-31,75.53052520751953
2014-02-03,73.23011779785156
2014-02-04,73.05583953857422
2014-02-05,73.76162719726562
2014-02-06,74.87699127197266
2014-02-07,75.73094177246094
2014-02-10,76.48031616210938
2014-02-11,77.17743682861328
2014-02-12,76.77658081054688
2014-02-13,78.91145324707031
2014-02-14,79.93968200683594
2014-02-18,80.63676452636719
2014-02-19,79.73925018310547
2014-02-20,80.14009857177734
2014-02-21,79.63469696044922
2014-02-24,79.67827606201172
2014-02-25,79.91352081298828
2014-02-26,81.30772399902344
2014-02-27,81.19446563720703
2014-02-28,81.7259750366211
2014-03-03,81.90896606445312
2014-03-04,83.6343002319336
2014-03-05,83.02435302734375
2014-03-06,82.98075866699219
2014-03-07,83.04176330566406
2014-03-10,83.02435302734375
2014-03-11,82.15294647216797
2014-03-12,81.96126556396484
2014-03-13,80.81105041503906
2014-03-14,80.8981704711914
2014-03-17,81.50814056396484
2014-03-18,81.5342788696289
2014-03-19,80.79362487792969
2014-03-20,81.25542449951172
2014-03-21,81.70856475830078
2014-03-24,80.87202453613281
2014-03-25,81.69459533691406
2014-03-26,81.02079772949219
2014-03-27,81.55457305908203
2014-03-28,82.37711334228516
2014-03-31,83.71595001220703
2014-04-01,84.36347961425781
2014-04-02,84.38098907470703
2014-04-03,84.6872787475586
2014-04-04,82.99838256835938
2014-04-07,81.80834197998047
2014-04-08,81.46707916259766
2014-04-09,82.54338073730469
2014-04-10,80.592041015625
2014-04-11,80.11074829101562
2014-04-14,80.924560546875
2014-04-15,81.55457305908203
2014-04-16,82.58712768554688
2014-04-17,83.25216674804688
2014-04-21,83.26092529296875
2014-04-22,83.84721374511719
2014-04-23,83.92595672607422
2014-04-24,83.72470092773438
2014-04-25,83.32217407226562
2014-04-28,83.5584487915039
2014-04-29,84.71349334716797
2014-04-30,86.2098388671875
2014-05-01,85.99982452392578
2014-05-02,85.46605682373047
2014-05-05,85.61480712890625
2014-05-06,85.80733489990234
2014-05-07,87.50492095947266
2014-05-08,86.62987518310547
2014-05-09,86.02607727050781
2014-05-12,86.36735534667969
2014-05-13,85.9298324584961
2014-05-14,85.10729217529297
2014-05-15,84.2409896850586
2014-05-16,85.18605041503906
2014-05-19,85.69357299804688
2014-05-20,84.8272705078125
2014-05-21,85.84232330322266
2014-05-22,85.80733489990234
2014-05-23,86.50735473632812
2014-05-27,86.30609893798828
2014-05-28,86.3148422241211
2014-05-29,86.58611297607422
2014-05-30,86.85738372802734
2014-06-02,87.2861557006836
2014-06-03,87.2861557006836
2014-06-04,88.02993774414062
2014-06-05,87.89868927001953
2014-06-06,88.25745391845703
2014-06-09,88.95751953125
2014-06-10,89.05377960205078
2014-06-11,89.12376403808594
2014-06-12,88.4849624633789
2014-06-13,88.19621276855469
2014-06-16,87.8111801147461
2014-06-17,88.32746124267578
2014-06-18,90.07755279541016
2014-06-19,89.91130065917969
2014-06-20,91.71390533447266
2014-06-23,91.10137176513672
2014-06-24,90.60072326660156
2014-06-25,91.20675659179688
2014-06-26,90.91692352294922
2014-06-27,91.67228698730469
2014-06-30,91.59322357177734
2014-07-01,92.33103942871094
2014-07-02,92.26954650878906
2014-07-03,92.60334014892578
2014-07-07,92.4715805053711
2014-07-08,91.7864761352539
2014-07-09,91.68106079101562
2014-07-10,91.28579711914062
2014-07-11,91.56687927246094
2014-07-14,91.79524993896484
2014-07-15,91.61080169677734
2014-07-16,91.55809783935547
2014-07-17,90.83788299560547
2014-07-18,91.60203552246094
2014-07-21,91.18042755126953
2014-07-22,91.42634582519531
2014-07-23,91.26824951171875
2014-07-24,91.21556854248047
2014-07-25,91.18042755126953
2014-07-28,91.4000015258789
2014-07-29,90.4513931274414
2014-07-30,90.65341186523438
2014-07-31,88.70349884033203
2014-08-01,88.82647705078125
2014-08-04,89.52915954589844
2014-08-05,84.74219512939453
2014-08-06,86.12120056152344
2014-08-07,85.7347183227539
2014-08-08,86.71846008300781
2014-08-11,86.58671569824219
2014-08-12,87.35086059570312
2014-08-13,88.31703186035156
2014-08-14,88.26433563232422
2014-08-15,87.84273529052734
2014-08-18,88.60688781738281
2014-08-19,89.23050689697266
2014-08-20,88.59809875488281
2014-08-21,88.9494400024414
2014-08-22,88.51907348632812
2014-08-25,88.5893325805664
2014-08-26,88.45756530761719
2014-08-27,88.46636199951172
2014-08-28,88.93186950683594
2014-08-29,89.23050689697266
2014-09-02,89.01091766357422
2014-09-03,88.3785171508789
2014-09-04,88.87039947509766
2014-09-05,89.0548324584961
2014-09-08,89.01091766357422
2014-09-09,86.91168212890625
2014-09-10,86.97315979003906
2014-09-11,87.0610122680664
2014-09-12,86.3144302368164
2014-09-15,86.58671569824219
2014-09-16,87.1664047241211
2014-09-17,87.28936004638672
2014-09-18,88.40489959716797
2014-09-19,88.47513580322266
2014-09-22,87.35086059570312
2014-09-23,86.04473114013672
2014-09-24,86.0359115600586
2014-09-25,84.39446258544922
2014-09-26,85.41815948486328
2014-09-29,85.3917007446289
2014-09-30,84.61506652832031
2014-10-01,83.0706787109375
2014-10-02,83.57369995117188
2014-10-03,83.93553924560547
2014-10-06,83.42369079589844
2014-10-07,82.24113464355469
2014-10-08,83.71492767333984
2014-10-09,82.16169738769531
2014-10-10,82.01165771484375
2014-10-13,81.2174301147461
2014-10-14,82.41761779785156
2014-10-15,83.07951354980469
2014-10-16,83.52075958251953
2014-10-17,84.20027923583984
2014-10-20,84.99457550048828
2014-10-21,86.75957489013672
2014-10-22,86.2300796508789
2014-10-23,84.888671875
2014-10-24,85.8770523071289
2014-10-27,84.21794891357422
2014-10-28,87.07726287841797
2014-10-29,85.17987060546875
2014-10-30,85.60350036621094
2014-10-31,87.50089263916016
2014-11-03,86.63601684570312
2014-11-04,84.27973175048828
2014-11-05,86.05355834960938
2014-11-06,87.31556701660156
2014-11-07,87.18317413330078
2014-11-10,87.62442779541016
2014-11-11,88.06568908691406
2014-11-12,88.32161712646484
2014-11-13,88.32161712646484
2014-11-14,86.60955047607422
2014-11-17,86.52130126953125
2014-11-18,87.21849060058594
2014-11-19,87.03314971923828
2014-11-20,87.92450714111328
2014-11-21,88.37456512451172
2014-11-24,88.06568908691406
2014-11-25,87.71269226074219
2014-11-26,88.35689544677734
2014-11-28,89.28355407714844
2014-12-01,89.53949737548828
2014-12-02,90.15723419189453
2014-12-03,90.686767578125
2014-12-04,91.06623840332031
2014-12-05,91.26920318603516
2014-12-08,90.50143432617188
2014-12-09,91.00444793701172
2014-12-10,89.27472686767578
2014-12-11,90.2366714477539
2014-12-12,88.31277465820312
2014-12-15,87.43029022216797
2014-12-16,87.05961608886719
2014-12-17,88.68345642089844
2014-12-18,90.48377227783203
2014-12-19,90.44847106933594
2014-12-22,90.74851989746094
2014-12-23,91.3839340209961
2014-12-24,91.54279327392578
2014-12-26,91.70235443115234
2014-12-29,91.56050872802734
2014-12-30,91.26793670654297
2014-12-31,89.85839080810547
2015-01-02,89.40625762939453
2015-01-05,88.09420776367188
2015-01-06,87.01264190673828
2015-01-07,87.87257385253906
2015-01-08,90.10659790039062
2015-01-09,90.55875396728516
2015-01-12,89.62788391113281
2015-01-13,91.15271759033203
2015-01-14,92.16333770751953
2015-01-15,93.32470703125
2015-01-16,95.17754364013672
2015-01-20,95.3725814819336
2015-01-21,94.70769500732422
2015-01-22,98.35132598876953
2015-01-23,96.67577362060547
2015-01-26,96.07292938232422
2015-01-27,94.78746795654297
2015-01-28,93.31583404541016
2015-01-29,94.68108367919922
2015-01-30,94.06938934326172
2015-02-02,94.66337585449219
2015-02-03,95.74491119384766
2015-02-04,95.48782348632812
2015-02-05,96.31229400634766
2015-02-06,96.69351959228516
2015-02-09,95.19526672363281
2015-02-10,95.69174194335938
2015-02-11,94.8583984375
2015-02-12,101.74669647216797
2015-02-13,103.68821716308594
2015-02-17,103.90097045898438
2015-02-18,104.84955596923828
2015-02-19,106.4719009399414
2015-02-20,107.62438201904297
2015-02-23,107.48252868652344
2015-02-24,108.71480560302734
2015-02-25,108.04104614257812
2015-02-26,108.01445770263672
2015-02-27,108.09423828125
2015-03-02,108.83890533447266
2015-03-03,107.88148498535156
2015-03-04,107.4648208618164
2015-03-05,107.16339874267578
2015-03-06,105.50558471679688
2015-03-09,106.9949722290039
2015-03-10,104.25556945800781
2015-03-11,103.88323974609375
2015-03-12,105.93997192382812
2015-03-13,104.64564514160156
2015-03-16,105.48785400390625
2015-03-17,104.52153778076172
2015-03-18,104.74317932128906
2015-03-19,105.04458618164062
2015-03-20,106.31231689453125
2015-03-23,106.10841369628906
2015-03-24,105.94883728027344
2015-03-25,104.20439147949219
2015-03-26,103.8661880493164
2015-03-27,104.29339599609375
2015-03-30,105.46823120117188
2015-03-31,104.48919677734375
2015-04-01,104.10648345947266
2015-04-02,104.48029327392578
2015-04-06,105.57503509521484
2015-04-07,105.19232177734375
2015-04-08,105.21011352539062
2015-04-09,105.254638671875
2015-04-10,105.88653564453125
2015-04-13,105.70853424072266
2015-04-14,105.8331527709961
2015-04-15,105.61952209472656
2015-04-16,105.61064147949219
2015-04-17,103.49237060546875
2015-04-20,104.72950744628906
2015-04-21,103.97299194335938
2015-04-22,103.2342529296875
2015-04-23,103.75048828125
2015-04-24,103.1096420288086
2015-04-27,103.40335845947266
2015-04-28,104.08867645263672
2015-04-29,103.45674896240234
2015-04-30,102.1305923461914
2015-05-01,104.50700378417969
2015-05-04,105.22792053222656
2015-05-05,103.77718353271484
2015-05-06,105.11222076416016
2015-05-07,105.21903991699219
2015-05-08,106.30484771728516
2015-05-11,106.18026733398438
2015-05-12,101.81912231445312
2015-05-13,100.29717254638672
2015-05-14,102.39764404296875
2015-05-15,102.73585510253906
2015-05-18,102.60234069824219
2015-05-19,103.14525604248047
2015-05-20,104.60490417480469
2015-05-21,105.254638671875
2015-05-22,105.33473205566406
2015-05-26,104.2221908569336
2015-05-27,105.75304412841797
2015-05-28,106.153564453125
2015-05-29,105.9488525390625
2015-06-01,104.58711242675781
2015-06-02,103.63477325439453
2015-06-03,101.88140869140625
2015-06-04,100.11027526855469
2015-06-05,98.89982604980469
2015-06-08,98.20560455322266
2015-06-09,97.68939971923828
2015-06-10,98.64173126220703
2015-06-11,99.19353485107422
2015-06-12,98.19670867919922
2015-06-15,97.34228515625
2015-06-16,99.00662231445312
2015-06-17,99.30926513671875
2015-06-18,100.87567138671875
2015-06-19,100.41287994384766
2015-06-22,101.04479217529297
2015-06-23,100.75997924804688
2015-06-24,100.6795425415039
2015-06-25,100.65275573730469
2015-06-26,100.65275573730469
2015-06-29,97.67658996582031
2015-06-30,97.67658996582031
2015-07-01,98.50777435302734
2015-07-02,98.60609436035156
2015-07-06,98.04300689697266
2015-07-07,98.00727844238281
2015-07-08,96.92584991455078
2015-07-09,97.33699035644531
2015-07-10,99.33895111083984
2015-07-13,100.6795425415039
2015-07-14,101.13536071777344
2015-07-15,100.71529388427734
2015-07-16,101.3051528930664
2015-07-17,100.67061614990234
2015-07-20,99.75006103515625
2015-07-21,99.74111938476562
2015-07-22,100.33992767333984
2015-07-23,100.25948333740234
2015-07-24,99.29425811767578
2015-07-27,99.30320739746094
2015-07-28,101.61796569824219
2015-07-29,102.3955078125
2015-07-30,103.23564147949219
2015-07-31,103.30714416503906
2015-08-03,103.0479507446289
2015-08-04,103.6735610961914
2015-08-05,104.78179168701172
2015-08-06,104.0489273071289
2015-08-07,103.92382049560547
2015-08-10,106.18496704101562
2015-08-11,101.93079376220703
2015-08-12,101.65373992919922
2015-08-13,101.1889877319336
2015-08-14,102.20785522460938
2015-08-17,102.7708969116211
2015-08-18,103.2535171508789
2015-08-19,101.98441314697266
2015-08-20,100.09862518310547
2015-08-21,100.05393981933594
2015-08-24,96.52367401123047
2015-08-25,95.67461395263672
2015-08-26,97.33699035644531
2015-08-27,98.936767578125
2015-08-28,99.16912078857422
2015-08-31,97.9089584350586
2015-09-01,94.94175720214844
2015-09-02,96.97055053710938
2015-09-03,97.82852935791016
2015-09-04,95.58523559570312
2015-09-08,97.6408462524414
2015-09-09,97.17610168457031
2015-09-10,95.79973602294922
2015-09-11,95.7461166381836
2015-09-14,94.84345245361328
2015-09-15,95.03111267089844
2015-09-16,96.24662017822266
2015-09-17,96.14830017089844
2015-09-18,93.99440002441406
2015-09-21,94.78981018066406
2015-09-22,93.90501403808594
2015-09-23,94.08472442626953
2015-09-24,94.16558074951172
2015-09-25,95.02816772460938
2015-09-28,90.38279724121094
2015-09-29,90.83206939697266
2015-09-30,92.7818374633789
2015-10-01,93.33893585205078
2015-10-02,95.97162628173828
2015-10-05,97.22956848144531
2015-10-06,97.02290344238281
2015-10-07,98.61328887939453
2015-10-08,98.39764404296875
2015-10-09,98.4156265258789
2015-10-12,98.92776489257812
2015-10-13,99.0535659790039
2015-10-14,98.8199691772461
2015-10-15,99.79936981201172
2015-10-16,101.11121368408203
2015-10-19,101.49756622314453
2015-10-20,101.33582305908203
2015-10-21,100.41935729980469
2015-10-22,102.189453125
2015-10-23,102.00074005126953
2015-10-26,103.03404998779297
2015-10-27,102.17145538330078
2015-10-28,103.37548065185547
2015-10-29,103.78881072998047
2015-10-30,104.28299713134766
2015-11-02,104.27400970458984
2015-11-03,104.39081573486328
2015-11-04,104.39081573486328
2015-11-05,104.20214080810547
2015-11-06,101.71321868896484
2015-11-09,102.5308609008789
2015-11-10,102.08161163330078
2015-11-11,104.13923645019531
2015-11-12,101.78510284423828
2015-11-13,100.41036224365234
2015-11-16,102.88128662109375
2015-11-17,103.7348861694336
2015-11-18,105.52297973632812
2015-11-19,105.88238525390625
2015-11-20,105.17255401611328
2015-11-23,106.52933502197266
2015-11-24,107.90406036376953
2015-11-25,108.04782104492188
2015-11-27,107.68840026855469
2015-11-30,107.83219909667969
2015-12-01,109.62025451660156
2015-12-02,108.19159698486328
2015-12-03,107.05046844482422
2015-12-04,108.94635772705078
2015-12-07,108.97332763671875
2015-12-08,108.74868774414062
2015-12-09,108.47014617919922
2015-12-10,106.30467224121094
2015-12-11,104.33692932128906
2015-12-14,104.51660919189453
2015-12-15,106.18788146972656
2015-12-16,108.6767807006836
2015-12-17,106.10700988769531
2015-12-18,104.12127685546875
2015-12-21,105.33427429199219
2015-12-22,107.38292694091797
2015-12-23,108.02388000488281
2015-12-24,108.3037338256836
2015-12-28,108.64677429199219
2015-12-29,109.3419189453125
2015-12-30,108.89053344726562
2015-12-31,108.00582122802734
2016-01-04,106.55238342285156
2016-01-05,107.36488342285156
2016-01-06,105.77600860595703
2016-01-07,105.25240325927734
2016-01-08,105.02670288085938
2016-01-11,106.18225860595703
2016-01-12,106.82321166992188
2016-01-13,104.76493072509766
2016-01-14,105.80308532714844
2016-01-15,104.09687805175781
2016-01-19,102.44483947753906
2016-01-20,100.91014862060547
2016-01-21,100.883056640625
2016-01-22,102.97747802734375
2016-01-25,99.66434478759766
2016-01-26,100.99140167236328
2016-01-27,100.67543029785156
2016-01-28,101.28028869628906
2016-01-29,105.58641815185547
2016-02-01,106.94058990478516
2016-02-02,105.82115173339844
2016-02-03,108.87246704101562
2016-02-04,109.4863510131836
2016-02-05,107.77110290527344
2016-02-08,105.27045440673828
2016-02-09,105.46907043457031
2016-02-10,104.11495971679688
2016-02-11,90.71802520751953
2016-02-12,96.3692855834961
2016-02-16,96.17971801757812
2016-02-17,95.76445770263672
2016-02-18,95.14152526855469
2016-02-19,95.15057373046875
2016-02-22,95.04222869873047
2016-02-23,93.36311340332031
2016-02-24,95.88179779052734
2016-02-25,94.80750274658203
2016-02-26,93.99504852294922
2016-02-29,93.24574279785156
2016-03-01,96.2519302368164
2016-03-02,95.52971649169922
2016-03-03,94.92487335205078
2016-03-04,96.06233978271484
2016-03-07,96.08041381835938
2016-03-08,96.74844360351562
2016-03-09,97.04635620117188
2016-03-10,97.20886993408203
2016-03-11,99.28519439697266
2016-03-14,99.60116577148438
2016-03-15,99.5740737915039
2016-03-16,100.61224365234375
2016-03-17,101.90318298339844
2016-03-18,102.6253890991211
2016-03-21,102.860107421875
2016-03-22,103.72676086425781
2016-03-23,103.08264923095703
2016-03-24,102.72884368896484
2016-03-28,103.27317810058594
2016-03-29,104.13499450683594
2016-03-30,103.94448852539062
2016-03-31,103.20966339111328
2016-04-01,105.57740020751953
2016-04-04,105.0965805053711
2016-04-05,104.63392639160156
2016-04-06,107.11052703857422
2016-04-07,105.81327819824219
2016-04-08,106.7748794555664
2016-04-11,106.49364471435547
2016-04-12,107.52783203125
2016-04-13,108.8432388305664
2016-04-14,108.23542785644531
2016-04-15,108.85230255126953
2016-04-18,109.98627471923828
2016-04-19,110.92976379394531
2016-04-20,108.86138153076172
2016-04-21,108.99746704101562
2016-04-22,109.60526275634766
2016-04-25,108.96117401123047
2016-04-26,109.19705200195312
2016-04-27,109.1063232421875
2016-04-28,108.3896713256836
2016-04-29,108.38056945800781
2016-05-02,108.68901062011719
2016-05-03,108.28079223632812
2016-05-04,107.62763214111328
2016-05-05,107.60948944091797
2016-05-06,107.582275390625
2016-05-09,108.76158142089844
2016-05-10,114.52216339111328
2016-05-11,112.14537048339844
2016-05-12,114.4496078491211
2016-05-13,114.53124237060547
2016-05-16,115.9373779296875
2016-05-17,115.66521453857422
2016-05-18,114.8759765625
2016-05-19,116.11882019042969
2016-05-20,116.14603424072266
2016-05-23,116.04621887207031
2016-05-24,116.3456039428711
2016-05-25,117.02599334716797
2016-05-26,116.96246337890625
2016-05-27,117.33442687988281
2016-05-31,117.02599334716797
2016-06-01,116.95339965820312
2016-06-02,116.7629165649414
2016-06-03,116.41818237304688
2016-06-06,116.88085174560547
2016-06-07,117.50679016113281
2016-06-08,118.84941864013672
2016-06-09,117.75173950195312
2016-06-10,116.80825805664062
2016-06-13,115.52008056640625
2016-06-14,115.54728698730469
2016-06-15,114.4949722290039
2016-06-16,114.24095153808594
2016-06-17,113.85086059570312
2016-06-20,115.21163940429688
2016-06-21,115.46563720703125
2016-06-22,115.08463287353516
2016-06-23,115.93203735351562
2016-06-24,111.29402923583984
2016-06-27,108.943115234375
2016-06-28,110.3919677734375
2016-06-29,112.81574249267578
2016-06-30,114.87503814697266
2016-07-01,114.83860778808594
2016-07-05,114.52880096435547
2016-07-06,115.71334075927734
2016-07-07,116.2236328125
2016-07-08,118.02779388427734
2016-07-11,117.8911361694336
2016-07-12,119.54951477050781
2016-07-13,120.4971694946289
2016-07-14,120.05065155029297
2016-07-15,120.36961364746094
2016-07-18,120.47891998291016
2016-07-19,120.74317169189453
2016-07-20,122.02798461914062
2016-07-21,121.07120513916016
2016-07-22,122.12818145751953
2016-07-25,123.23988342285156
2016-07-26,122.47444915771484
2016-07-27,121.37190246582031
2016-07-28,121.42658233642578
2016-07-29,121.41747283935547
2016-08-01,121.54503631591797
2016-08-02,121.07120513916016
2016-08-03,122.13732147216797
2016-08-04,123.70458984375
2016-08-05,122.10995483398438
2016-08-08,120.92543029785156
2016-08-09,124.26952362060547
2016-08-10,123.50409698486328
2016-08-11,123.95970153808594
2016-08-12,123.54966735839844
2016-08-15,123.82303619384766
2016-08-16,122.13732147216797
2016-08-17,122.30134582519531
2016-08-18,124.10549926757812
2016-08-19,125.3174057006836
2016-08-22,125.37207794189453
2016-08-23,125.82766723632812
2016-08-24,125.61812591552734
2016-08-25,126.23773956298828
2016-08-26,124.30596160888672
2016-08-29,125.24449920654297
2016-08-30,126.15570068359375
2016-08-31,126.27421569824219
2016-09-01,126.08282470703125
2016-09-02,126.64775085449219
2016-09-06,126.44731903076172
2016-09-07,126.95756530761719
2016-09-08,126.31973266601562
2016-09-09,122.7842788696289
2016-09-12,123.01207733154297
2016-09-13,123.03026580810547
2016-09-14,122.62937927246094
2016-09-15,123.26722717285156
2016-09-16,123.78658294677734
2016-09-19,125.5543212890625
2016-09-20,125.96438598632812
2016-09-21,128.5703887939453
2016-09-22,129.87936401367188
2016-09-23,128.97312927246094
2016-09-26,128.32327270507812
2016-09-27,129.3118438720703
2016-09-28,129.9800262451172
2016-09-29,129.96177673339844
2016-09-30,130.86798095703125
2016-10-03,129.94345092773438
2016-10-04,128.5337677001953
2016-10-05,126.82209014892578
2016-10-06,126.52001190185547
2016-10-07,125.79689025878906
2016-10-10,126.04402160644531
2016-10-11,124.01195526123047
2016-10-12,120.23152160644531
2016-10-13,119.18804168701172
2016-10-14,118.36421966552734
2016-10-17,118.17200469970703
2016-10-18,118.99580383300781
2016-10-19,118.47406005859375
2016-10-20,118.2726821899414
2016-10-21,118.76695251464844
2016-10-24,119.47178649902344
2016-10-25,119.4534683227539
2016-10-26,120.8814468383789
2016-10-27,122.0897216796875
2016-10-28,123.15150451660156
2016-10-31,119.70977783203125
2016-11-01,122.5107650756836
2016-11-02,119.59077453613281
2016-11-03,118.34589385986328
2016-11-04,117.76924133300781
2016-11-07,120.02098846435547
2016-11-08,115.3893051147461
2016-11-09,113.5311508178711
2016-11-10,108.4417953491211
2016-11-11,108.37773132324219
2016-11-14,107.57221221923828
2016-11-15,108.06649780273438
2016-11-16,110.60203552246094
2016-11-17,109.3388442993164
2016-11-18,109.64090728759766
2016-11-21,109.8880615234375
2016-11-22,110.15351867675781
2016-11-23,110.14434814453125
2016-11-25,110.19011688232422
2016-11-28,110.16265106201172
2016-11-29,110.98648834228516
2016-11-30,110.80341339111328
2016-12-01,108.47840881347656
2016-12-02,109.9063720703125
2016-12-05,110.76679992675781
2016-12-06,111.48077392578125
2016-12-07,114.10784149169922
2016-12-08,115.1147232055664
2016-12-09,114.69364929199219
2016-12-12,112.77141571044922
2016-12-13,111.44415283203125
2016-12-14,108.40515899658203
2016-12-15,109.9979019165039
2016-12-16,108.0207290649414
2016-12-19,107.89259338378906
2016-12-20,107.8193588256836
2016-12-21,108.23124694824219
2016-12-22,109.247314453125
2016-12-23,108.81475830078125
2016-12-27,109.53258514404297
2016-12-28,109.33012390136719
2016-12-29,109.42216491699219
2016-12-30,108.43746185302734
2017-01-03,107.83006286621094
2017-01-04,108.03252410888672
2017-01-05,106.84536743164062
2017-01-06,106.771728515625
2017-01-09,106.34840393066406
2017-01-10,106.27478790283203
2017-01-11,107.02942657470703
2017-01-12,106.07231140136719
2017-01-13,107.36073303222656
2017-01-17,107.49876403808594
2017-01-18,108.43746185302734
2017-01-19,108.14295196533203
2017-01-20,108.71353149414062
2017-01-23,108.01412200927734
2017-01-24,110.01114654541016
2017-01-25,110.26882934570312
2017-01-26,110.15840148925781
2017-01-27,110.29644012451172
2017-01-30,109.51417541503906
2017-01-31,107.86688232421875
2017-02-01,107.25030517578125
2017-02-02,107.52637481689453
2017-02-03,108.57550048828125
2017-02-06,108.10614776611328
2017-02-07,107.44353485107422
2017-02-08,108.52027893066406
2017-02-09,108.35462188720703
2017-02-10,108.51107788085938
2017-02-13,110.46209716796875
2017-02-14,108.5018539428711
2017-02-15,109.66144561767578
2017-02-16,114.14323425292969
2017-02-17,112.61557006835938
2017-02-21,111.92535400390625
2017-02-22,112.85484313964844
2017-02-23,115.16474151611328
2017-02-24,115.0359115600586
2017-02-27,114.86106872558594
2017-02-28,115.68011474609375
2017-03-01,116.96851348876953
2017-03-02,116.0758285522461
2017-03-03,115.15555572509766
2017-03-06,114.47454833984375
2017-03-07,114.014404296875
2017-03-08,114.3733139038086
2017-03-09,113.80274200439453
2017-03-10,115.33961486816406
2017-03-13,116.50838470458984
2017-03-14,116.15867614746094
2017-03-15,117.88880920410156
2017-03-16,118.66184997558594
2017-03-17,121.5699691772461
2017-03-20,124.60689544677734
2017-03-21,124.330810546875
2017-03-22,125.97814178466797
2017-03-23,124.88711547851562
2017-03-24,123.14883422851562
2017-03-27,122.56629943847656
2017-03-28,121.63246154785156
2017-03-29,122.01154327392578
2017-03-30,122.3906478881836
2017-03-31,122.53857421875
2017-04-03,121.66944885253906
2017-04-04,121.53999328613281
2017-04-05,121.83586120605469
2017-04-06,123.0101089477539
2017-04-07,122.2796859741211
2017-04-10,122.83445739746094
2017-04-11,123.34296417236328
2017-04-12,122.56629943847656
2017-04-13,121.9930648803711
2017-04-17,122.99163818359375
2017-04-18,123.96247100830078
2017-04-19,124.3877944946289
2017-04-20,125.56208038330078
2017-04-21,125.85794067382812
2017-04-24,127.62393188476562
2017-04-25,128.60403442382812
2017-04-26,128.33590698242188
2017-04-27,129.19577026367188
2017-04-28,128.14170837402344
2017-05-01,128.50234985351562
2017-05-02,127.79962921142578
2017-05-03,128.36361694335938
2017-05-04,128.03076171875
2017-05-05,128.77049255371094
2017-05-08,127.0229263305664
2017-05-09,119.2562026977539
2017-05-10,120.50444793701172
2017-05-11,120.98524475097656
2017-05-12,120.85578155517578
2017-05-15,122.50159454345703
2017-05-16,123.12109375
2017-05-17,123.11182403564453
2017-05-18,124.13815307617188
2017-05-19,124.64669799804688
2017-05-22,125.6082992553711
2017-05-23,126.227783203125
2017-05-24,127.50373840332031
2017-05-25,127.97530364990234
2017-05-26,128.00306701660156
2017-05-30,126.66234588623047
2017-05-31,127.4944839477539
2017-06-01,127.76263427734375
2017-06-02,128.74273681640625
2017-06-05,128.9368896484375
2017-06-06,128.33590698242188
2017-06-07,127.4759750366211
2017-06-08,125.46035766601562
2017-06-09,126.85651397705078
2017-06-12,126.15383911132812
2017-06-13,126.20928192138672
2017-06-14,126.2185287475586
2017-06-15,124.90559387207031
2017-06-16,124.43402862548828
2017-06-19,125.87642669677734
2017-06-20,125.92265319824219
2017-06-21,125.82093811035156
2017-06-22,125.53295135498047
2017-06-23,126.48051452636719
2017-06-26,127.33519744873047
2017-06-27,125.75590515136719
2017-06-28,126.25757598876953
2017-06-29,124.00015258789062
2017-06-30,125.41219329833984
2017-07-03,125.31929016113281
2017-07-05,124.67829132080078
2017-07-06,122.77388000488281
2017-07-07,122.51377868652344
2017-07-10,122.33726501464844
2017-07-11,122.60667419433594
2017-07-12,124.07444763183594
2017-07-13,123.30339050292969
2017-07-14,124.23241424560547
2017-07-17,124.37175750732422
2017-07-18,125.46793365478516
2017-07-19,125.62584686279297
2017-07-20,123.89794158935547
2017-07-21,123.56352996826172
2017-07-24,123.09901428222656
2017-07-25,123.53565216064453
2017-07-26,123.90723419189453
2017-07-27,124.09304809570312
2017-07-28,123.6935806274414
2017-07-31,123.7214584350586
2017-08-01,125.01273345947266
2017-08-02,124.33458709716797
2017-08-03,124.78976440429688
2017-08-04,125.22640228271484
2017-08-07,125.23567962646484
2017-08-08,125.07775115966797
2017-08-09,129.75982666015625
2017-08-10,127.13080596923828
2017-08-11,125.76520538330078
2017-08-14,127.32591247558594
2017-08-15,127.33519744873047
2017-08-16,128.70077514648438
2017-08-17,125.67229461669922
2017-08-18,125.25426483154297
2017-08-21,125.30071258544922
2017-08-22,126.21112060546875
2017-08-23,125.52364349365234
2017-08-24,125.62584686279297
2017-08-25,126.26683044433594
2017-08-28,126.47124481201172
2017-08-29,126.29472351074219
2017-08-30,126.54556274414062
2017-08-31,127.13080596923828
2017-09-01,128.14341735839844
2017-09-05,129.36964416503906
2017-09-06,129.18385314941406
2017-09-07,130.5773162841797
2017-09-08,131.75711059570312
2017-09-11,132.97410583496094
2017-09-12,133.0391082763672
2017-09-13,132.97410583496094
2017-09-14,133.45716857910156
2017-09-15,133.56861877441406
2017-09-18,133.90306091308594
2017-09-19,134.3489532470703
2017-09-20,134.7113037109375
2017-09-21,133.559326171875
2017-09-22,134.61416625976562
2017-09-25,135.24887084960938
2017-09-26,134.25941467285156
2017-09-27,131.63644409179688
2017-09-28,133.1112518310547
2017-09-29,133.4006805419922
2017-10-02,134.85684204101562
2017-10-03,136.20098876953125
2017-10-04,136.89178466796875
2017-10-05,137.45187377929688
2017-10-06,135.93963623046875
2017-10-09,136.6397705078125
2017-10-10,138.3946533203125
2017-10-11,137.89990234375
2017-10-12,137.7692413330078
2017-10-13,138.31997680664062
2017-10-16,139.8135223388672
2017-10-17,138.69337463378906
2017-10-18,137.47984313964844
2017-10-19,138.2639617919922
2017-10-20,140.35491943359375
2017-10-23,140.16822814941406
2017-10-24,139.13209533691406
2017-10-25,139.27210998535156
2017-10-26,140.01890563964844
2017-10-27,138.6746826171875
2017-10-30,137.0037841796875
2017-10-31,137.6105499267578
2017-11-01,138.45069885253906
2017-11-02,138.33865356445312
2017-11-03,138.4413299560547
2017-11-06,136.70509338378906
2017-11-07,140.00953674316406
2017-11-08,137.7132110595703
2017-11-09,136.97579956054688
2017-11-10,137.0037841796875
2017-11-13,139.75750732421875
2017-11-14,140.62562561035156
2017-11-15,138.1052703857422
2017-11-16,138.7026824951172
2017-11-17,138.85206604003906
2017-11-20,139.96286010742188
2017-11-21,141.61509704589844
2017-11-22,140.9336700439453
2017-11-24,142.24050903320312
2017-11-27,141.3910675048828
2017-11-28,144.17279052734375
2017-11-29,144.27545166015625
2017-11-30,145.09689331054688
2017-12-01,144.40611267089844
2017-12-04,144.070068359375
2017-12-05,144.65817260742188
2017-12-06,143.56602478027344
2017-12-07,143.0619354248047
2017-12-08,142.85659790039062
2017-12-11,142.16583251953125
2017-12-12,142.12850952148438
2017-12-13,142.85659790039062
2017-12-14,141.5404052734375
2017-12-15,143.911376953125
2017-12-18,144.070068359375
2017-12-19,144.12606811523438
2017-12-20,142.8845977783203
2017-12-21,141.75511169433594
2017-12-22,142.3618927001953
2017-12-26,142.10983276367188
2017-12-27,142.74456787109375
2017-12-28,144.18862915039062
2017-12-29,143.1009063720703
2018-01-02,144.9293975830078
2018-01-03,146.035888671875
2018-01-04,144.17921447753906
2018-01-05,147.09547424316406
2018-01-08,146.1202850341797
2018-01-09,144.64808654785156
2018-01-10,144.19801330566406
2018-01-11,143.9635772705078
2018-01-12,144.1230010986328
2018-01-16,143.03526306152344
2018-01-17,146.79541015625
2018-01-18,145.46388244628906
2018-01-19,145.5201416015625
2018-01-22,143.52285766601562
2018-01-23,143.47598266601562
2018-01-24,143.33534240722656
2018-01-25,145.20135498046875
2018-01-26,143.92608642578125
2018-01-29,141.49745178222656
2018-01-30,140.5691375732422
2018-01-31,140.93484497070312
2018-02-01,138.76876831054688
2018-02-02,137.02467346191406
2018-02-05,132.17681884765625
2018-02-06,133.53648376464844
2018-02-07,133.80841064453125
2018-02-08,129.40126037597656
2018-02-09,131.65170288085938
2018-02-12,133.5458526611328
2018-02-13,134.14596557617188
2018-02-14,135.82443237304688
2018-02-15,135.04617309570312
2018-02-16,132.9925994873047
2018-02-20,133.50836181640625
2018-02-21,132.62692260742188
2018-02-22,133.77088928222656
2018-02-23,136.73397827148438
2018-02-26,136.3682861328125
2018-02-27,133.69589233398438
2018-02-28,132.44874572753906
2018-03-01,129.75758361816406
2018-03-02,129.25119018554688
2018-03-05,129.9357452392578
2018-03-06,130.9296875
2018-03-07,130.6390380859375
2018-03-08,130.33895874023438
2018-03-09,132.22372436523438
2018-03-12,133.1988983154297
2018-03-13,132.48623657226562
2018-03-14,130.61087036132812
2018-03-15,130.36705017089844
2018-03-16,130.09515380859375
2018-03-19,129.25119018554688
2018-03-20,127.16954803466797
2018-03-21,127.60089111328125
2018-03-22,124.9472427368164
2018-03-23,124.98492431640625
2018-03-26,128.01055908203125
2018-03-27,127.62411499023438
2018-03-28,127.30363464355469
2018-03-29,129.0474090576172
2018-04-02,126.39876556396484
2018-04-03,127.56756591796875
2018-04-04,129.1510772705078
2018-04-05,130.3386993408203
2018-04-06,127.55815887451172
2018-04-09,128.067138671875
2018-04-10,129.16050720214844
2018-04-11,128.62326049804688
2018-04-12,129.45269775390625
2018-04-13,129.77316284179688
2018-04-16,132.3935546875
2018-04-17,133.92051696777344
2018-04-18,134.82534790039062
2018-04-19,133.49635314941406
2018-04-20,133.4680633544922
2018-04-23,132.91197204589844
2018-04-24,130.38583374023438
2018-04-25,132.19558715820312
2018-04-26,133.89222717285156
2018-04-27,134.60858154296875
2018-04-30,133.1475830078125
2018-05-01,133.90167236328125
2018-05-02,132.05421447753906
2018-05-03,132.0353546142578
2018-05-04,133.98648071289062
2018-05-07,119.60284423828125
2018-05-08,119.22579956054688
2018-05-09,122.90182495117188
2018-05-10,120.12126159667969
2018-05-11,120.29092407226562
2018-05-14,119.04672241210938
2018-05-15,116.83167266845703
2018-05-16,116.93535614013672
2018-05-17,117.88737487792969
2018-05-18,119.103271484375
2018-05-21,117.84965515136719
2018-05-22,117.79309844970703
2018-05-23,117.96277618408203
2018-05-24,117.78367614746094
2018-05-25,118.18898010253906
2018-05-29,116.98249053955078
2018-05-30,117.64229583740234
2018-05-31,115.11620330810547
2018-06-01,116.89765930175781
2018-06-04,117.3877944946289
2018-06-05,117.28411102294922
2018-06-06,118.38692474365234
2018-06-07,118.9713134765625
2018-06-08,119.15042114257812
2018-06-11,118.34921264648438
2018-06-12,117.28411102294922
2018-06-13,116.43580627441406
2018-06-14,117.3595199584961
2018-06-15,118.96188354492188
2018-06-18,118.33979034423828
2018-06-19,118.11356353759766
2018-06-20,118.31150817871094
2018-06-21,117.51033020019531
2018-06-22,118.09798431396484
2018-06-25,117.18807220458984
2018-06-26,116.77102661132812
2018-06-27,116.69522094726562
2018-06-28,117.24494934082031
2018-06-29,117.49137115478516
2018-07-02,117.11225128173828
2018-07-03,116.53406524658203
2018-07-05,118.0031967163086
2018-07-06,118.67613220214844
2018-07-09,119.16901397705078
2018-07-10,122.21150207519531
2018-07-11,121.10254669189453
2018-07-12,121.47220611572266
2018-07-13,121.56697845458984
2018-07-16,120.73289489746094
2018-07-17,122.2588882446289
2018-07-18,121.53853607177734
2018-07-19,123.12140655517578
2018-07-20,122.21150207519531
2018-07-23,120.57177734375
2018-07-24,121.76602935791016
2018-07-25,122.40106201171875
2018-07-26,124.41991424560547
2018-07-27,124.37251281738281
2018-07-30,123.54792785644531
2018-07-31,125.8321533203125
2018-08-01,125.47198486328125
2018-08-02,125.27295684814453
2018-08-03,127.19701385498047
2018-08-06,127.10222625732422
2018-08-07,127.2254638671875
2018-08-08,127.25389862060547
2018-08-09,127.43395233154297
2018-08-10,125.50040435791016
2018-08-13,124.40093994140625
2018-08-14,124.44834899902344
2018-08-15,124.31564331054688
2018-08-16,124.75164794921875
2018-08-17,125.26346588134766
2018-08-20,126.72308349609375
2018-08-21,126.15443420410156
2018-08-22,124.73270416259766
2018-08-23,124.00286865234375
2018-08-24,124.83696746826172
2018-08-27,124.38198852539062
2018-08-28,123.59529876708984
2018-08-29,123.47209930419922
2018-08-30,123.1024398803711
2018-08-31,123.49105072021484
2018-09-04,122.82758331298828
2018-09-05,121.05516815185547
2018-09-06,123.1024398803711
2018-09-07,120.42960357666016
2018-09-10,121.9366226196289
2018-09-11,120.66656494140625
2018-09-12,124.30615997314453
2018-09-13,130.0688934326172
2018-09-14,129.37698364257812
2018-09-17,129.36753845214844
2018-09-18,131.03567504882812
2018-09-19,130.3343048095703
2018-09-20,132.60906982421875
2018-09-21,133.82862854003906
2018-09-24,132.11361694335938
2018-09-25,130.57008361816406
2018-09-26,130.54150390625
2018-09-27,131.99925231933594
2018-09-28,132.5518798828125
2018-10-01,131.92306518554688
2018-10-02,132.8186492919922
2018-10-03,130.01748657226562
2018-10-04,130.90354919433594
2018-10-05,132.0278778076172
2018-10-08,132.86630249023438
2018-10-09,130.9988555908203
2018-10-10,127.67361450195312
2018-10-11,126.36829376220703
2018-10-12,124.73900604248047
2018-10-15,125.4155044555664
2018-10-16,131.0369415283203
2018-10-17,131.7039031982422
2018-10-18,130.39857482910156
2018-10-19,132.5518798828125
2018-10-22,133.11402893066406
2018-10-23,133.12355041503906
2018-10-24,130.86544799804688
2018-10-25,133.1331024169922
2018-10-26,133.51419067382812
2018-10-29,133.19024658203125
2018-10-30,137.57305908203125
2018-10-31,137.830322265625
2018-11-01,139.297607421875
2018-11-02,139.08799743652344
2018-11-05,139.1356201171875
2018-11-06,141.67005920410156
2018-11-07,138.25906372070312
2018-11-08,140.2694549560547
2018-11-09,138.96414184570312
2018-11-12,136.24871826171875
2018-11-13,136.2010498046875
2018-11-14,134.75283813476562
2018-11-15,135.7437286376953
2018-11-16,136.31539916992188
2018-11-19,133.95248413085938
2018-11-20,131.68482971191406
2018-11-21,132.9044189453125
2018-11-23,133.1426239013672
2018-11-26,133.24742126464844
2018-11-27,133.41893005371094
2018-11-28,133.94296264648438
2018-11-29,134.895751953125
2018-11-30,134.9434051513672
2018-12-03,135.0958251953125
2018-12-04,131.72296142578125
2018-12-06,132.2088623046875
2018-12-07,130.53196716308594
2018-12-10,131.19891357421875
2018-12-11,131.265625
2018-12-12,130.2747039794922
2018-12-13,129.1313934326172
2018-12-14,129.10279846191406
2018-12-17,125.82520294189453
2018-12-18,126.19677734375
2018-12-19,125.15823364257812
2018-12-20,122.26177215576172
2018-12-21,122.15696716308594
2018-12-24,119.05087280273438
2018-12-26,124.13875579833984
2018-12-27,126.87908172607422
2018-12-28,126.6970443725586
2018-12-31,128.65167236328125
2019-01-02,128.94873046875
2019-01-03,125.76761627197266
2019-01-04,130.43385314941406
2019-01-07,131.9285888671875
2019-01-08,131.3536834716797
2019-01-09,130.86502075195312
2019-01-10,130.041015625
2019-01-11,129.30322265625
2019-01-14,127.89472198486328
2019-01-15,128.00013732910156
2019-01-16,128.7474822998047
2019-01-17,129.83021545410156
2019-01-18,132.28309631347656
2019-01-22,132.29270935058594
2019-01-23,131.59320068359375
2019-01-24,131.4686737060547
2019-01-25,132.03396606445312
2019-01-28,131.2386932373047
2019-01-29,133.1262664794922
2019-01-30,133.72991943359375
2019-01-31,135.84744262695312
2019-02-01,135.6941375732422
2019-02-04,136.3936004638672
2019-02-05,137.75416564941406
2019-02-06,137.33258056640625
2019-02-07,136.32652282714844
2019-02-08,135.83787536621094
2019-02-11,137.19842529296875
2019-02-12,139.77590942382812
2019-02-13,139.1435089111328
2019-02-14,127.1090316772461
2019-02-15,126.4862289428711
2019-02-19,122.74943542480469
2019-02-20,124.53160095214844
2019-02-21,123.35308074951172
2019-02-22,122.86441040039062
2019-02-25,121.9637451171875
2019-02-26,120.72772216796875
2019-02-27,122.02123260498047
2019-02-28,122.16495513916016
2019-03-01,122.51948547363281
2019-03-04,122.605712890625
2019-03-05,121.59963989257812
2019-03-06,121.46550750732422
2019-03-07,119.3000717163086
2019-03-08,120.15283203125
2019-03-11,121.05349731445312
2019-03-12,120.90019989013672
2019-03-13,120.191162109375
2019-03-14,119.73123931884766
2019-03-15,119.37671661376953
2019-03-18,119.70249938964844
2019-03-19,118.38982391357422
2019-03-20,117.41251373291016
2019-03-21,121.16847229003906
2019-03-22,120.16620635986328
2019-03-25,119.22176361083984
2019-03-26,120.77334594726562
2019-03-27,122.21893310546875
2019-03-28,125.00409698486328
2019-03-29,124.1174545288086
2019-04-01,126.06415557861328
2019-04-02,125.79431915283203
2019-04-03,126.01598358154297
2019-04-04,127.07608032226562
2019-04-05,127.4229965209961
2019-04-08,127.1628189086914
2019-04-09,126.4303970336914
2019-04-10,125.75579071044922
2019-04-11,126.38219451904297
2019-04-12,128.6662139892578
2019-04-15,129.138427734375
2019-04-16,130.42982482910156
2019-04-17,130.06361389160156
2019-04-18,131.06588745117188
2019-04-22,130.3430938720703
2019-04-23,131.43211364746094
2019-04-24,131.34535217285156
2019-04-25,131.4802703857422
2019-04-26,132.5789337158203
2019-04-29,132.42474365234375
2019-04-30,132.7909393310547
2019-05-01,132.81985473632812
2019-05-02,133.61973571777344
2019-05-03,134.8340301513672
2019-05-06,132.72349548339844
2019-05-07,130.1021728515625
2019-05-08,130.2467041015625
2019-05-09,131.0755157470703
2019-05-10,131.191162109375
2019-05-13,129.6010284423828
2019-05-14,131.0755157470703
2019-05-15,130.67074584960938
2019-05-16,131.99105834960938
2019-05-17,131.71157836914062
2019-05-20,129.89976501464844
2019-05-21,129.909423828125
2019-05-22,130.96949768066406
2019-05-23,130.62255859375
2019-05-24,129.8226776123047
2019-05-28,129.69740295410156
2019-05-29,129.49501037597656
2019-05-30,130.2659912109375
2019-05-31,130.50692749023438
2019-06-03,134.07269287109375
2019-06-04,138.24559020996094
2019-06-05,136.02903747558594
2019-06-06,143.1316680908203
2019-06-07,145.830078125
2019-06-10,145.8397216796875
2019-06-11,146.62994384765625
2019-06-12,146.0998992919922
2019-06-13,144.47122192382812
2019-06-14,143.391845703125
2019-06-17,142.20648193359375
2019-06-18,142.4666748046875
2019-06-19,143.54605102539062
2019-06-20,145.25186157226562
2019-06-21,141.06829833984375
2019-06-24,141.9979705810547
2019-06-25,142.87921142578125
2019-06-26,140.37103271484375
2019-06-27,139.03465270996094
2019-06-28,140.50662231445312
2019-07-01,139.3445281982422
2019-07-02,138.2696075439453
2019-07-03,141.4169158935547
2019-07-05,140.53567504882812
2019-07-08,138.23086547851562
2019-07-09,137.51425170898438
2019-07-10,138.03717041015625
2019-07-11,138.17276000976562
2019-07-12,138.7344207763672
2019-07-15,140.1676788330078
2019-07-16,140.23545837402344
2019-07-17,138.56979370117188
2019-07-18,138.5794677734375
2019-07-19,137.93064880371094
2019-07-22,137.58203125
2019-07-23,140.59376525878906
2019-07-24,141.34915161132812
2019-07-25,140.94239807128906
2019-07-26,141.69776916503906
2019-07-29,139.37356567382812
2019-07-30,141.19419860839844
2019-07-31,139.44137573242188
2019-08-01,138.5794677734375
2019-08-02,139.27674865722656
2019-08-05,137.0009765625
2019-08-06,115.15364837646484
2019-08-07,117.71025848388672
2019-08-08,118.1944580078125
2019-08-09,118.66897583007812
2019-08-12,116.28668975830078
2019-08-13,114.9599609375
2019-08-14,109.43034362792969
2019-08-15,107.11585235595703
2019-08-16,109.21729278564453
2019-08-19,109.56592559814453
2019-08-20,106.5638427734375
2019-08-21,106.9996337890625
2019-08-22,104.39461517333984
2019-08-23,103.13568115234375
2019-08-26,105.28556060791016
2019-08-27,103.93946075439453
2019-08-28,104.93692016601562
2019-08-29,105.32428741455078
2019-08-30,106.28301239013672
2019-09-03,105.70197296142578
2019-09-04,108.36509704589844
2019-09-05,110.88296508789062
2019-09-06,114.1368179321289
2019-09-09,116.14141845703125
2019-09-10,119.9472885131836
2019-09-11,123.43354797363281
2019-09-12,123.08493041992188
2019-09-13,123.27861785888672
2019-09-16,118.17508697509766
2019-09-17,118.36878204345703
2019-09-18,119.10475158691406
2019-09-19,118.97887420654297
2019-09-20,117.08860778808594
2019-09-23,119.6316909790039
2019-09-24,117.59528350830078
2019-09-25,118.97887420654297
2019-09-26,116.72811126708984
2019-09-27,117.71219635009766
2019-09-30,119.54399871826172
2019-10-01,118.50143432617188
2019-10-02,113.99015045166016
2019-10-03,114.89630889892578
2019-10-04,116.09477996826172
2019-10-07,115.36400604248047
2019-10-08,111.1937484741211
2019-10-09,112.14862060546875
2019-10-10,112.9963150024414
2019-10-11,115.12041473388672
2019-10-14,115.29579162597656
2019-10-15,116.1240005493164
2019-10-16,116.1045150756836
2019-10-17,116.38706970214844
2019-10-18,114.81835174560547
2019-10-21,115.35425567626953
2019-10-22,116.06553649902344
2019-10-23,116.94245910644531
2019-10-24,116.64041137695312
2019-10-25,116.88400268554688
2019-10-28,117.10810852050781
2019-10-29,119.09579467773438
2019-10-30,120.15784454345703
2019-10-31,118.88142395019531
2019-11-01,118.61835479736328
2019-11-04,120.83014678955078
2019-11-05,131.01219177246094
2019-11-06,129.599365234375
2019-11-07,129.99887084960938
2019-11-08,129.4044952392578
2019-11-11,127.85527801513672
2019-11-12,127.21219635009766
2019-11-13,129.27783203125
2019-11-14,130.466552734375
2019-11-15,130.48602294921875
2019-11-18,131.55783081054688
2019-11-19,133.37013244628906
2019-11-20,132.90245056152344
2019-11-21,133.37013244628906
2019-11-22,136.42962646484375
2019-11-25,137.78396606445312
2019-11-26,138.241943359375
2019-11-27,137.79371643066406
2019-11-29,137.6085968017578
2019-12-02,136.936279296875
2019-12-03,137.57937622070312
2019-12-04,136.42962646484375
2019-12-05,138.134765625
2019-12-06,138.39781188964844
2019-12-09,130.3788604736328
2019-12-10,130.5542449951172
2019-12-11,131.0901336669922
2019-12-12,131.14862060546875
2019-12-13,130.5445098876953
2019-12-16,116.9229736328125
2019-12-17,117.97528076171875
2019-12-18,119.3393783569336
2019-12-19,120.17732238769531
2019-12-20,119.65118408203125
2019-12-23,120.77169036865234
2019-12-24,121.88245391845703
2019-12-26,123.78411102294922
2019-12-27,124.82316589355469
2019-12-30,124.45067596435547
2019-12-31,126.469970703125
