Date,IHG
2007-12-31,14.949183464050293
2008-01-02,14.502425193786621
2008-01-03,14.502425193786621
2008-01-04,13.72918701171875
2008-01-07,12.930185317993164
2008-01-08,12.861451148986816
2008-01-09,12.268641471862793
2008-01-10,12.105400085449219
2008-01-11,12.474838256835938
2008-01-14,12.406102180480957
2008-01-15,11.813288688659668
2008-01-16,11.658645629882812
2008-01-17,11.478221893310547
2008-01-18,11.392309188842773
2008-01-22,11.753151893615723
2008-01-23,12.39750862121582
2008-01-24,12.835676193237305
2008-01-25,12.809901237487793
2008-01-28,13.248065948486328
2008-01-29,13.583137512207031
2008-01-30,13.22229290008545
2008-01-31,13.291028022766113
2008-02-01,13.325390815734863
2008-02-04,13.196518898010254
2008-02-05,12.457653999328613
2008-02-06,12.603706359863281
2008-02-07,12.466240882873535
2008-02-08,12.268641471862793
2008-02-11,12.234272956848145
2008-02-12,12.595115661621094
2008-02-13,13.076237678527832
2008-02-14,12.91300106048584
2008-02-15,12.887226104736328
2008-02-19,13.772148132324219
2008-02-20,13.892426490783691
2008-02-21,13.651869773864746
2008-02-22,13.849471092224121
2008-02-25,14.261868476867676
2008-02-26,14.45087718963623
2008-02-27,14.347782135009766
2008-02-28,13.78073787689209
2008-02-29,13.05046558380127
2008-03-03,13.016098976135254
2008-03-04,13.162152290344238
2008-03-05,13.565953254699707
2008-03-06,13.299619674682617
2008-03-07,13.5487699508667
2008-03-10,13.15356159210205
2008-03-11,13.583137512207031
2008-03-12,13.617500305175781
2008-03-13,13.51440715789795
2008-03-14,13.196518898010254
2008-03-17,12.784127235412598
2008-03-18,13.273843765258789
2008-03-19,12.749763488769531
2008-03-20,13.00750732421875
2008-03-24,13.248065948486328
2008-03-25,13.72060489654541
2008-03-26,13.748600006103516
2008-03-27,13.486058235168457
2008-03-28,13.267269134521484
2008-03-31,13.214761734008789
2008-04-01,14.028646469116211
2008-04-02,14.387460708618164
2008-04-03,14.186177253723145
2008-04-04,14.474977493286133
2008-04-07,14.57999324798584
2008-04-08,14.352455139160156
2008-04-09,13.844868659973145
2008-04-10,13.643585205078125
2008-04-11,13.494804382324219
2008-04-14,13.486058235168457
2008-04-15,13.556068420410156
2008-04-16,13.993643760681152
2008-04-17,14.151168823242188
2008-04-18,14.632502555847168
2008-04-21,14.247435569763184
2008-04-22,13.9498872756958
2008-04-23,13.888627052307129
2008-04-24,13.862370491027832
2008-04-25,14.48372745513916
2008-04-28,14.404963493347168
2008-04-29,13.9498872756958
2008-04-30,14.028646469116211
2008-05-01,14.107413291931152
2008-05-02,14.466226577758789
2008-05-05,14.378708839416504
2008-05-06,14.404963493347168
2008-05-07,14.48372745513916
2008-05-08,14.501232147216797
2008-05-09,14.571245193481445
2008-05-12,14.57999324798584
2008-05-13,14.632502555847168
2008-05-14,14.466226577758789
2008-05-15,14.623750686645508
2008-05-16,14.702515602111816
2008-05-19,14.650006294250488
2008-05-20,14.334952354431152
2008-05-21,13.94113540649414
2008-05-22,14.177425384521484
2008-05-23,13.862370491027832
2008-05-27,14.124916076660156
2008-05-28,14.32619857788086
2008-05-29,14.089910507202148
2008-05-30,14.378708839416504
2008-06-02,13.783605575561523
2008-06-03,13.608576774597168
2008-06-04,13.774855613708496
2008-06-05,13.906129837036133
2008-06-06,13.284772872924805
2008-06-09,13.00472640991211
2008-06-10,12.733428955078125
2008-06-11,12.30460262298584
2008-06-12,12.488386154174805
2008-06-13,12.532142639160156
2008-06-16,12.602155685424805
2008-06-17,12.427125930786133
2008-06-18,12.19958782196045
2008-06-19,12.278349876403809
2008-06-20,12.050812721252441
2008-06-23,11.902036666870117
2008-06-24,11.867030143737793
2008-06-25,12.374618530273438
2008-06-26,11.508219718933105
2008-06-27,11.578230857849121
2008-06-30,11.665745735168457
2008-07-01,11.394450187683105
2008-07-02,11.1756591796875
2008-07-03,11.420703887939453
2008-07-07,11.236924171447754
2008-07-08,11.403199195861816
2008-07-09,11.6744966506958
2008-07-10,11.079395294189453
2008-07-11,10.781845092773438
2008-07-14,10.921868324279785
2008-07-15,10.816847801208496
2008-07-16,11.385695457458496
2008-07-17,12.182084083557129
2008-07-18,12.672167778015137
2008-07-21,12.295853614807129
2008-07-22,12.243345260620117
2008-07-23,12.91720962524414
2008-07-24,12.033308982849121
2008-07-25,12.033308982849121
2008-07-28,11.656994819641113
2008-07-29,11.788267135620117
2008-07-30,11.718253135681152
2008-07-31,11.473213195800781
2008-08-01,11.438210487365723
2008-08-04,11.54322624206543
2008-08-05,12.514641761779785
2008-08-06,12.532142639160156
2008-08-07,12.164581298828125
2008-08-08,12.3571138381958
2008-08-11,12.540897369384766
2008-08-12,12.715923309326172
2008-08-13,12.208338737487793
2008-08-14,12.068314552307129
2008-08-15,11.840777397155762
2008-08-18,11.64824390411377
2008-08-19,11.5607271194458
2008-08-20,11.403199195861816
2008-08-21,11.63074016571045
2008-08-22,11.858277320861816
2008-08-25,11.656994819641113
2008-08-26,11.508219718933105
2008-08-27,11.651324272155762
2008-08-28,11.87215805053711
2008-08-29,11.942825317382812
2008-09-02,12.066495895385742
2008-09-03,12.110661506652832
2008-09-04,11.58065414428711
2008-09-05,11.695488929748535
2008-09-08,12.048828125
2008-09-09,11.969324111938477
2008-09-10,11.907493591308594
2008-09-11,11.854493141174316
2008-09-12,12.039993286132812
2008-09-15,11.757325172424316
2008-09-16,11.58065414428711
2008-09-17,11.041813850402832
2008-09-18,11.527654647827148
2008-09-19,12.587669372558594
2008-09-22,11.810322761535645
2008-09-23,11.35098648071289
2008-09-24,11.218482971191406
2008-09-25,11.200815200805664
2008-09-26,11.218482971191406
2008-09-29,10.184968948364258
2008-09-30,10.926980018615723
2008-10-01,10.670808792114258
2008-10-02,9.919966697692871
2008-10-03,9.9111328125
2008-10-06,9.407625198364258
2008-10-07,9.230955123901367
2008-10-08,8.974784851074219
2008-10-09,8.745115280151367
2008-10-10,8.815784454345703
2008-10-13,9.805130004882812
2008-10-14,9.089620590209961
2008-10-15,8.374110221862793
2008-10-16,8.815784454345703
2008-10-17,8.303443908691406
2008-10-20,8.533113479614258
2008-10-21,7.897104263305664
2008-10-22,7.570267200469971
2008-10-23,7.649768829345703
2008-10-24,7.09326171875
2008-10-27,6.413087368011475
2008-10-28,7.1992621421813965
2008-10-29,7.225762367248535
2008-10-30,7.8264360427856445
2008-10-31,7.605600833892822
2008-11-03,7.543766498565674
2008-11-04,8.215109825134277
2008-11-05,7.976606845855713
2008-11-06,7.402431488037109
2008-11-07,7.67626953125
2008-11-10,7.384764671325684
2008-11-11,6.863590717315674
2008-11-12,6.351251125335693
2008-11-13,6.731088161468506
2008-11-14,6.360084533691406
2008-11-17,6.236416339874268
2008-11-18,6.342417240142822
2008-11-19,6.15691614151001
2008-11-20,5.759410858154297
2008-11-21,6.059746742248535
2008-11-24,6.474918842315674
2008-11-25,6.775256633758545
2008-11-26,6.934258937835693
2008-11-28,7.216928005218506
2008-12-01,6.333584308624268
2008-12-02,6.916591644287109
2008-12-03,6.819424152374268
2008-12-04,6.74875545501709
2008-12-05,6.81058931350708
2008-12-08,7.0844268798828125
2008-12-09,7.225762367248535
2008-12-10,7.420099258422852
2008-12-11,7.4731011390686035
2008-12-12,7.446598529815674
2008-12-15,7.5349345207214355
2008-12-16,7.967771530151367
2008-12-17,7.83527135848999
2008-12-18,7.428933143615723
2008-12-19,7.340596675872803
2008-12-22,7.269930839538574
2008-12-23,7.437764644622803
2008-12-24,7.261096954345703
2008-12-26,7.3229289054870605
2008-12-29,7.216928005218506
2008-12-30,7.243429660797119
2008-12-31,7.393599033355713
2009-01-02,7.746937274932861
2009-01-05,8.003107070922852
2009-01-06,8.241609573364258
2009-01-07,7.958939075469971
2009-01-08,8.04727554321289
2009-01-09,8.162108421325684
2009-01-12,7.83527135848999
2009-01-13,7.446598529815674
2009-01-14,7.1197614669799805
2009-01-15,7.031427383422852
2009-01-16,7.225762367248535
2009-01-20,6.218750476837158
2009-01-21,6.589754104614258
2009-01-22,6.474918842315674
2009-01-23,6.307084560394287
2009-01-26,6.368919849395752
2009-01-27,6.5632548332214355
2009-01-28,6.969592094421387
2009-01-29,6.686923027038574
2009-01-30,6.589754104614258
2009-02-02,6.448419570922852
2009-02-03,6.695755958557129
2009-02-04,6.545587062835693
2009-02-05,6.731088161468506
2009-02-06,7.296431541442871
2009-02-09,7.305264472961426
2009-02-10,6.801755905151367
2009-02-11,6.713422775268555
2009-02-12,6.333584308624268
2009-02-13,6.139248847961426
2009-02-17,6.059746742248535
2009-02-18,6.042080879211426
2009-02-19,5.989080429077148
2009-02-20,5.794744491577148
2009-02-23,5.644576549530029
2009-02-24,6.059746742248535
2009-02-25,5.936079025268555
2009-02-26,6.042080879211426
2009-02-27,6.0509138107299805
2009-03-02,5.688742637634277
2009-03-03,5.688742637634277
2009-03-04,5.891911506652832
2009-03-05,5.609241485595703
2009-03-06,5.538573741912842
2009-03-09,5.335404396057129
2009-03-10,5.732910633087158
2009-03-11,5.768242835998535
2009-03-12,5.8565778732299805
2009-03-13,6.086248397827148
2009-03-16,6.095082759857178
2009-03-17,6.351251125335693
2009-03-18,6.536754131317139
2009-03-19,7.013759613037109
2009-03-20,6.872424602508545
2009-03-23,7.287597179412842
2009-03-24,7.102096080780029
2009-03-25,7.0489277839660645
2009-03-26,6.938932418823242
2009-03-27,6.746438026428223
2009-03-30,6.783102512359619
2009-03-31,6.920598983764648
2009-04-01,7.516414165496826
2009-04-02,8.185554504394531
2009-04-03,8.451379776000977
2009-04-06,8.139724731445312
2009-04-07,7.580576419830322
2009-04-08,7.745569705963135
2009-04-09,8.020561218261719
2009-04-13,8.121390342712402
2009-04-14,8.029726028442383
2009-04-15,8.423880577087402
2009-04-16,8.891366004943848
2009-04-17,8.973861694335938
2009-04-20,8.06639289855957
2009-04-21,8.423880577087402
2009-04-22,8.084724426269531
2009-04-23,8.717203140258789
2009-04-24,9.074691772460938
2009-04-27,8.57054328918457
2009-04-28,8.497209548950195
2009-04-29,8.964695930480957
2009-04-30,8.680537223815918
2009-05-01,8.6347074508667
2009-05-04,9.001362800598145
2009-05-05,9.239688873291016
2009-05-06,9.661338806152344
2009-05-07,9.441347122192383
2009-05-08,9.377182006835938
2009-05-11,9.04719352722168
2009-05-12,9.478013038635254
2009-05-13,8.753870010375977
2009-05-14,9.0380277633667
2009-05-15,8.836365699768066
2009-05-18,9.212185859680176
2009-05-19,9.349681854248047
2009-05-20,9.413846015930176
2009-05-21,9.27635383605957
2009-05-22,9.138856887817383
2009-05-26,9.368014335632324
2009-05-27,9.780500411987305
2009-05-28,9.771332740783691
2009-05-29,9.74383544921875
2009-06-01,10.25715160369873
2009-06-02,10.25715160369873
2009-06-03,9.991327285766602
2009-06-04,9.862998008728027
2009-06-05,9.853832244873047
2009-06-08,9.908833503723145
2009-06-09,9.899663925170898
2009-06-10,9.917996406555176
2009-06-11,10.064658164978027
2009-06-12,10.018826484680176
2009-06-15,9.53300952911377
2009-06-16,9.478013038635254
2009-06-17,9.27635383605957
2009-06-18,8.973861694335938
2009-06-19,9.413846015930176
2009-06-22,8.86386775970459
2009-06-23,9.056360244750977
2009-06-24,9.322184562683105
2009-06-25,9.496347427368164
2009-06-26,9.404679298400879
2009-06-29,9.67050552368164
2009-06-30,9.450512886047363
2009-07-01,9.615508079528809
2009-07-02,9.349681854248047
2009-07-06,9.175520896911621
2009-07-07,8.909697532653809
2009-07-08,8.772201538085938
2009-07-09,9.028861045837402
2009-07-10,8.973861694335938
2009-07-13,9.175520896911621
2009-07-14,9.26718521118164
2009-07-15,9.560510635375977
2009-07-16,9.478013038635254
2009-07-17,9.358847618103027
2009-07-20,9.762167930603027
2009-07-21,9.624672889709473
2009-07-22,9.63383960723877
2009-07-23,9.725502967834473
2009-07-24,9.853832244873047
2009-07-27,9.725502967834473
2009-07-28,9.63383960723877
2009-07-29,9.707171440124512
2009-07-30,10.027993202209473
2009-07-31,10.376315116882324
2009-08-03,10.733803749084473
2009-08-04,10.715470314025879
2009-08-05,11.36628246307373
2009-08-06,11.42127799987793
2009-08-07,11.476278305053711
2009-08-10,11.375447273254395
2009-08-11,11.036293029785156
2009-08-12,10.972128868103027
2009-08-13,11.0546236038208
2009-08-14,11.017959594726562
2009-08-17,10.477144241333008
2009-08-18,11.04545783996582
2009-08-19,11.100456237792969
2009-08-20,11.247115135192871
2009-08-21,11.742101669311523
2009-08-24,11.613771438598633
2009-08-25,11.6596040725708
2009-08-26,11.5689058303833
2009-08-27,11.541142463684082
2009-08-28,11.504119873046875
2009-08-31,11.420823097229004
2009-09-01,11.032108306884766
2009-09-02,10.939556121826172
2009-09-03,11.235722541809082
2009-09-04,11.254232406616211
2009-09-08,12.392609596252441
2009-09-09,12.226019859313965
2009-09-10,12.253786087036133
2009-09-11,12.281548500061035
2009-09-14,12.161233901977539
2009-09-15,12.133469581604004
2009-09-16,12.716544151306152
2009-09-17,12.531439781188965
2009-09-18,12.438887596130371
2009-09-21,12.198253631591797
2009-09-22,12.466654777526855
2009-09-23,12.374101638793945
2009-09-24,11.99464225769043
2009-09-25,11.82805061340332
2009-09-28,11.948366165161133
2009-09-29,12.124213218688965
2009-09-30,11.957621574401855
2009-10-01,11.707732200622559
2009-10-02,11.346783638000488
2009-10-05,11.587416648864746
2009-10-06,11.809536933898926
2009-10-07,12.161233901977539
2009-10-08,11.985387802124023
2009-10-09,12.133469581604004
2009-10-12,12.013152122497559
2009-10-13,12.105703353881836
2009-10-14,12.466654777526855
2009-10-15,12.91089916229248
2009-10-16,12.6332426071167
2009-10-19,12.8646240234375
2009-10-20,12.59622573852539
2009-10-21,12.7628173828125
2009-10-22,12.623991012573242
2009-10-23,12.226019859313965
2009-10-26,12.077936172485352
2009-10-27,11.809536933898926
2009-10-28,11.420823097229004
2009-10-29,12.20750904083252
2009-10-30,11.763261795043945
2009-11-02,11.976130485534668
2009-11-03,12.133469581604004
2009-11-04,12.40186595916748
2009-11-05,12.5592041015625
2009-11-06,12.670267105102539
2009-11-09,13.049723625183105
2009-11-10,12.781328201293945
2009-11-11,12.846112251281738
2009-11-12,12.81834602355957
2009-11-13,13.234827041625977
2009-11-16,13.299612998962402
2009-11-17,13.373656272888184
2009-11-18,13.133020401000977
2009-11-19,12.8646240234375
2009-11-20,12.6332426071167
2009-11-23,12.96642780303955
2009-11-24,12.975687026977539
2009-11-25,13.114511489868164
2009-11-27,12.81834602355957
2009-11-30,12.901644706726074
2009-12-01,13.12376594543457
2009-12-02,13.114511489868164
2009-12-03,13.188554763793945
2009-12-04,13.225571632385254
2009-12-07,13.160786628723145
2009-12-08,13.0404691696167
2009-12-09,13.299612998962402
2009-12-10,13.336634635925293
2009-12-11,13.558759689331055
2009-12-14,13.57726764678955
2009-12-15,13.373656272888184
2009-12-16,13.345890045166016
2009-12-17,13.160786628723145
2009-12-18,12.975687026977539
2009-12-21,13.244083404541016
2009-12-22,13.12376594543457
2009-12-23,13.281102180480957
2009-12-24,13.308871269226074
2009-12-28,13.345890045166016
2009-12-29,13.188554763793945
2009-12-30,13.318123817443848
2009-12-31,13.299612998962402
2010-01-04,13.438441276550293
2010-01-05,13.345890045166016
2010-01-06,13.290355682373047
2010-01-07,13.429186820983887
2010-01-08,13.68833065032959
2010-01-11,13.864178657531738
2010-01-12,13.57726764678955
2010-01-13,13.864178657531738
2010-01-14,13.938217163085938
2010-01-15,13.836409568786621
2010-01-19,14.262145042419434
2010-01-20,14.114065170288086
2010-01-21,13.975239753723145
2010-01-22,13.336634635925293
2010-01-25,13.827155113220215
2010-01-26,13.891942024230957
2010-01-27,13.836409568786621
2010-01-28,13.475459098815918
2010-01-29,13.20706558227539
2010-02-01,13.281102180480957
2010-02-02,13.50322437286377
2010-02-03,13.271848678588867
2010-02-04,12.920150756835938
2010-02-05,12.957173347473145
2010-02-08,12.809091567993164
2010-02-09,13.20706558227539
2010-02-10,13.20706558227539
2010-02-11,13.290355682373047
2010-02-12,13.32738208770752
2010-02-16,13.114511489868164
2010-02-17,13.12376594543457
2010-02-18,13.234827041625977
2010-02-19,13.20706558227539
2010-02-22,13.114511489868164
2010-02-23,13.02195930480957
2010-02-24,12.994194984436035
2010-02-25,13.12376594543457
2010-02-26,13.077489852905273
2010-03-01,13.216320991516113
2010-03-02,13.521735191345215
2010-03-03,13.271848678588867
2010-03-04,13.299612998962402
2010-03-05,13.57726764678955
2010-03-08,13.438441276550293
2010-03-09,13.345890045166016
2010-03-10,13.57726764678955
2010-03-11,13.817901611328125
2010-03-12,14.01225757598877
2010-03-15,13.901196479797363
2010-03-16,14.067788124084473
2010-03-17,14.151082992553711
2010-03-18,14.206618309020996
2010-03-19,14.151082992553711
2010-03-22,14.336187362670898
2010-03-23,14.4657564163208
2010-03-24,14.269585609436035
2010-03-25,14.524232864379883
2010-03-26,14.7222900390625
2010-03-29,14.62797737121582
2010-03-30,14.81660270690918
2010-03-31,14.750582695007324
2010-04-01,15.03352165222168
2010-04-05,15.241006851196289
2010-04-06,15.36362075805664
2010-04-07,15.165560722351074
2010-04-08,15.127835273742676
2010-04-09,15.467366218566895
2010-04-12,15.316463470458984
2010-04-13,15.410771369934082
2010-04-14,15.448500633239746
2010-04-15,15.589966773986816
2010-04-16,15.231576919555664
2010-04-19,15.042953491210938
2010-04-20,15.174993515014648
2010-04-21,15.40134048461914
2010-04-22,15.967226028442383
2010-04-23,16.410497665405273
2010-04-26,16.467079162597656
2010-04-27,15.693717002868652
2010-04-28,15.420207023620605
2010-04-29,16.67456817626953
2010-04-30,16.589689254760742
2010-05-03,16.89149284362793
2010-05-04,16.01437759399414
2010-05-05,15.571107864379883
2010-05-06,14.835464477539062
2010-05-07,14.288453102111816
2010-05-10,15.476798057556152
2010-05-11,15.533378601074219
2010-05-12,16.146421432495117
2010-05-13,15.778595924377441
2010-05-14,15.608834266662598
2010-05-17,15.476798057556152
2010-05-18,15.165560722351074
2010-05-19,15.269308090209961
2010-05-20,14.533660888671875
2010-05-21,14.873190879821777
2010-05-24,14.61854362487793
2010-05-25,14.014938354492188
2010-05-26,14.175271987915039
2010-05-27,15.071247100830078
2010-05-28,14.882620811462402
2010-06-01,14.958072662353516
2010-06-02,15.420207023620605
2010-06-03,15.72201156616211
2010-06-04,14.807168006896973
2010-06-07,14.637408256530762
2010-06-08,14.712858200073242
2010-06-09,14.976937294006348
2010-06-10,15.863478660583496
2010-06-11,16.05210304260254
2010-06-14,16.448223114013672
2010-06-15,17.297042846679688
2010-06-16,16.97637367248535
2010-06-17,16.93865203857422
2010-06-18,16.91978645324707
2010-06-21,16.561391830444336
2010-06-22,16.391630172729492
2010-06-23,16.561391830444336
2010-06-24,16.01437759399414
2010-06-25,16.17470932006836
2010-06-28,16.325611114501953
2010-06-29,15.589966773986816
2010-06-30,14.788310050964355
2010-07-01,15.071247100830078
2010-07-02,15.061816215515137
2010-07-06,15.297602653503418
2010-07-07,15.97665786743164
2010-07-08,16.080400466918945
2010-07-09,16.04267120361328
2010-07-12,15.986084938049316
2010-07-13,16.61798095703125
2010-07-14,16.627412796020508
2010-07-15,16.372766494750977
2010-07-16,15.854046821594238
2010-07-19,15.93892765045166
2010-07-20,16.165283203125
2010-07-21,16.165283203125
2010-07-22,16.853763580322266
2010-07-23,17.438508987426758
2010-07-26,17.15557098388672
2010-07-27,16.542537689208984
2010-07-28,16.28788948059082
2010-07-29,16.419923782348633
2010-07-30,16.410497665405273
2010-08-02,16.84433364868164
2010-08-03,16.957508087158203
2010-08-04,17.183866500854492
2010-08-05,16.948081970214844
2010-08-06,17.22158432006836
2010-08-09,17.04239273071289
2010-08-10,16.269025802612305
2010-08-11,15.986084938049316
2010-08-12,15.693717002868652
2010-08-13,15.910630226135254
2010-08-16,15.882341384887695
2010-08-17,15.854046821594238
2010-08-18,15.76916790008545
2010-08-19,15.40134048461914
2010-08-20,15.03352165222168
2010-08-23,15.231576919555664
2010-08-24,14.939205169677734
2010-08-25,14.994355201721191
2010-08-26,14.937304496765137
2010-08-27,15.108452796936035
2010-08-30,14.756650924682617
2010-08-31,14.490423202514648
2010-09-01,15.365167617797852
2010-09-02,15.536312103271484
2010-09-03,15.82156753540039
2010-09-07,15.555330276489258
2010-09-08,16.03074073791504
2010-09-09,16.25893783569336
2010-09-10,16.30647850036621
2010-09-13,16.42057991027832
2010-09-14,16.525163650512695
2010-09-15,16.705820083618164
2010-09-16,16.57270622253418
2010-09-17,16.734342575073242
2010-09-20,16.905492782592773
2010-09-21,17.01958656311035
2010-09-22,16.715328216552734
2010-09-23,16.553688049316406
2010-09-24,17.162212371826172
2010-09-27,17.12417984008789
2010-09-28,17.22876739501953
2010-09-29,17.276309967041016
2010-09-30,17.057621002197266
2010-10-01,17.086149215698242
2010-10-04,17.010080337524414
2010-10-05,17.475980758666992
2010-10-06,17.82777976989746
2010-10-07,17.504507064819336
2010-10-08,17.6756534576416
2010-10-11,17.656635284423828
2010-10-12,17.533031463623047
2010-10-13,17.61859893798828
2010-10-14,17.70417594909668
2010-10-15,17.87532615661621
2010-10-18,18.103519439697266
2010-10-19,17.485492706298828
2010-10-20,17.70417594909668
2010-10-21,18.293684005737305
2010-10-22,18.265155792236328
2010-10-25,18.350730895996094
2010-10-26,18.322206497192383
2010-10-27,18.255647659301758
2010-10-28,18.341224670410156
2010-10-29,18.398273468017578
2010-11-01,18.379253387451172
2010-11-02,18.521879196166992
2010-11-03,18.607450485229492
2010-11-04,19.054336547851562
2010-11-05,18.873682022094727
2010-11-08,18.626468658447266
2010-11-09,17.533031463623047
2010-11-10,16.953035354614258
2010-11-11,16.991065979003906
2010-11-12,16.84844207763672
2010-11-15,16.87696647644043
2010-11-16,16.354019165039062
2010-11-17,16.69631576538086
2010-11-18,17.399913787841797
2010-11-19,17.42844009399414
2010-11-22,17.418933868408203
2010-11-23,16.83893585205078
2010-11-24,17.42844009399414
2010-11-26,17.342864990234375
2010-11-29,17.11467170715332
2010-11-30,17.010080337524414
2010-12-01,17.390405654907227
2010-12-02,18.017948150634766
2010-12-03,18.30318832397461
2010-12-06,18.426790237426758
2010-12-07,18.455320358276367
2010-12-08,18.322206497192383
2010-12-09,18.360239028930664
2010-12-10,18.436304092407227
2010-12-13,18.65499496459961
2010-12-14,18.626468658447266
2010-12-15,18.265155792236328
2010-12-16,18.455320358276367
2010-12-17,18.455320358276367
2010-12-20,18.645484924316406
2010-12-21,18.65499496459961
2010-12-22,18.65499496459961
2010-12-23,18.63597297668457
2010-12-27,18.474340438842773
2010-12-28,18.445812225341797
2010-12-29,18.683517456054688
2010-12-30,18.607450485229492
2010-12-31,18.759580612182617
2011-01-03,18.83564567565918
2011-01-04,18.7976131439209
2011-01-05,19.320560455322266
2011-01-06,19.406139373779297
2011-01-07,19.691381454467773
2011-01-10,19.672365188598633
2011-01-11,19.795969009399414
2011-01-12,19.986133575439453
2011-01-13,19.976625442504883
2011-01-14,20.328426361083984
2011-01-18,20.442522048950195
2011-01-19,20.157283782958984
2011-01-20,19.710397720336914
2011-01-21,19.9385929107666
2011-01-24,20.014657974243164
2011-01-25,19.995641708374023
2011-01-26,20.784818649291992
2011-01-27,20.53760528564453
2011-01-28,19.872032165527344
2011-01-31,20.261869430541992
2011-02-01,20.3664608001709
2011-02-02,20.299901962280273
2011-02-03,20.737276077270508
2011-02-04,20.642194747924805
2011-02-07,21.051050186157227
2011-02-08,21.336288452148438
2011-02-09,21.507436752319336
2011-02-10,21.478918075561523
2011-02-11,21.241209030151367
2011-02-14,21.431373596191406
2011-02-15,21.11760139465332
2011-02-16,21.716617584228516
2011-02-17,21.963830947875977
2011-02-18,22.134977340698242
2011-02-22,21.37432098388672
2011-02-23,20.860881805419922
2011-02-24,20.623178482055664
2011-02-25,20.974979400634766
2011-02-28,21.260225296020508
2011-03-01,20.413997650146484
2011-03-02,20.65170669555664
2011-03-03,20.946455001831055
2011-03-04,20.68973159790039
2011-03-07,20.423507690429688
2011-03-08,20.803834915161133
2011-03-09,20.908422470092773
2011-03-10,20.53760528564453
2011-03-11,20.34744644165039
2011-03-14,20.0241641998291
2011-03-15,19.501218795776367
2011-03-16,18.63597297668457
2011-03-17,19.25400733947754
2011-03-18,19.710397720336914
2011-03-21,19.88153839111328
2011-03-22,19.795969009399414
2011-03-23,19.933307647705078
2011-03-24,20.204116821289062
2011-03-25,20.020353317260742
2011-03-28,19.169248580932617
2011-03-29,19.80757713317871
2011-03-30,20.310508728027344
2011-03-31,20.04937171936035
2011-04-01,19.875280380249023
2011-04-04,19.991336822509766
2011-04-05,20.088054656982422
2011-04-06,20.204116821289062
2011-04-07,20.455577850341797
2011-04-08,20.416893005371094
2011-04-11,20.020353317260742
2011-04-12,19.981664657592773
2011-04-13,20.47492790222168
2011-04-14,20.5329532623291
2011-04-15,20.4072208404541
2011-04-18,20.04937171936035
2011-04-19,20.204116821289062
2011-04-20,20.7844181060791
2011-04-21,21.0358829498291
2011-04-25,20.92949104309082
2011-04-26,21.0358829498291
2011-04-27,21.3743839263916
2011-04-28,21.297016143798828
2011-04-29,21.326025009155273
2011-05-02,21.209970474243164
2011-05-03,20.76506805419922
2011-05-04,20.42656707763672
2011-05-05,20.262144088745117
2011-05-06,20.155757904052734
2011-05-09,20.0300235748291
2011-05-10,20.852113723754883
2011-05-11,20.7457275390625
2011-05-12,20.716718673706055
2011-05-13,20.32984733581543
2011-05-16,19.95265007019043
2011-05-17,19.981664657592773
2011-05-18,20.16543197631836
2011-05-19,20.339515686035156
2011-05-20,20.2427978515625
2011-05-23,19.652830123901367
2011-05-24,19.72053337097168
2011-05-25,19.894622802734375
2011-05-26,20.204116821289062
2011-05-27,20.4072208404541
2011-05-31,20.82309913635254
2011-06-01,20.01068115234375
2011-06-02,19.75921630859375
2011-06-03,19.57546043395996
2011-06-06,19.256290435791016
2011-06-07,19.37234878540039
2011-06-08,18.917783737182617
2011-06-09,19.140233993530273
2011-06-10,18.675992965698242
2011-06-13,18.675992965698242
2011-06-14,19.053186416625977
2011-06-15,18.521242141723633
2011-06-16,18.14405059814453
2011-06-17,18.211753845214844
2011-06-20,18.35682487487793
2011-06-21,18.927453994750977
2011-06-22,18.86942481994629
2011-06-23,18.908109664916992
2011-06-24,18.811397552490234
2011-06-27,19.091876983642578
2011-06-28,19.66250228881836
2011-06-29,19.875280380249023
2011-06-30,19.991336822509766
2011-07-01,20.16543197631836
2011-07-05,20.47492790222168
2011-07-06,20.291162490844727
2011-07-07,20.76506805419922
2011-07-08,20.52328109741211
2011-07-11,19.71086311340332
2011-07-12,19.585128784179688
2011-07-13,19.875280380249023
2011-07-14,19.304649353027344
2011-07-15,19.478740692138672
2011-07-18,18.85974884033203
2011-07-19,19.2369441986084
2011-07-20,19.488412857055664
2011-07-21,19.768890380859375
2011-07-22,20.020353317260742
2011-07-25,20.068710327148438
2011-07-26,19.962322235107422
2011-07-27,19.42070960998535
2011-07-28,19.20793342590332
2011-07-29,19.12088394165039
2011-08-01,19.091876983642578
2011-08-02,17.902257919311523
2011-08-03,18.047332763671875
2011-08-04,16.596582412719727
2011-08-05,16.509536743164062
2011-08-08,15.513354301452637
2011-08-09,16.828704833984375
2011-08-10,15.880879402160645
2011-08-11,16.56756591796875
2011-08-12,16.63526725769043
2011-08-15,17.080169677734375
2011-08-16,16.809356689453125
2011-08-17,16.886728286743164
2011-08-18,16.016281127929688
2011-08-19,15.165177345275879
2011-08-22,15.21353530883789
2011-08-23,15.73580551147461
2011-08-24,15.833476066589355
2011-08-25,15.52091121673584
2011-08-26,15.882318496704102
2011-08-29,16.409774780273438
2011-08-30,16.44884490966797
2011-08-31,16.683271408081055
2011-09-01,16.360937118530273
2011-09-02,16.038602828979492
2011-09-06,15.921388626098633
2011-09-07,16.44884490966797
2011-09-08,16.028833389282227
2011-09-09,15.559986114501953
2011-09-12,15.657661437988281
2011-09-13,15.550215721130371
2011-09-14,16.400005340576172
2011-09-15,16.73210906982422
2011-09-16,16.683271408081055
2011-09-19,16.517221450805664
2011-09-20,16.536758422851562
2011-09-21,15.93115520477295
2011-09-22,15.306020736694336
2011-09-23,15.686965942382812
2011-09-26,16.136280059814453
2011-09-27,16.546524047851562
2011-09-28,16.028833389282227
2011-09-29,16.37070655822754
2011-09-30,15.706499099731445
2011-10-03,14.915313720703125
2011-10-04,15.08135986328125
2011-10-05,15.315791130065918
2011-10-06,15.735801696777344
2011-10-07,16.126510620117188
2011-10-10,16.673503875732422
2011-10-11,16.43907928466797
2011-10-12,17.122817993164062
2011-10-13,16.829788208007812
2011-10-14,16.976299285888672
2011-10-17,16.526987075805664
2011-10-18,16.937231063842773
2011-10-19,16.44884490966797
2011-10-20,16.566059112548828
2011-10-21,17.288869857788086
2011-10-24,17.611202239990234
2011-10-25,17.386547088623047
2011-10-26,17.699111938476562
2011-10-27,18.763795852661133
2011-10-28,18.675888061523438
2011-10-31,18.050750732421875
2011-11-01,16.839555740356445
2011-11-02,17.269332885742188
2011-11-03,17.78702163696289
2011-11-04,17.191190719604492
2011-11-07,17.30840301513672
2011-11-08,17.083749771118164
2011-11-09,16.26325798034668
2011-11-10,16.712575912475586
2011-11-11,17.103281021118164
2011-11-14,16.693038940429688
2011-11-15,16.820016860961914
2011-11-16,16.66373634338379
2011-11-17,16.517221450805664
2011-11-18,16.66373634338379
2011-11-21,16.41954231262207
2011-11-22,15.970227241516113
2011-11-23,15.247416496276855
2011-11-25,15.159505844116211
2011-11-28,15.823713302612305
2011-11-29,16.067903518676758
2011-11-30,16.966537475585938
2011-12-01,16.829788208007812
2011-12-02,17.005605697631836
2011-12-05,17.025142669677734
2011-12-06,17.005605697631836
2011-12-07,17.132585525512695
2011-12-08,16.624664306640625
2011-12-09,17.161888122558594
2011-12-12,17.01537322998047
2011-12-13,16.4781436920166
2011-12-14,16.194883346557617
2011-12-15,16.22418975830078
2011-12-16,16.20465087890625
2011-12-19,16.26325798034668
2011-12-20,16.888395309448242
2011-12-21,16.839555740356445
2011-12-22,16.95676612854004
2011-12-23,17.367015838623047
2011-12-27,17.415849685668945
2011-12-28,17.415849685668945
2011-12-29,17.533065795898438
2011-12-30,17.572132110595703
2012-01-03,18.031219482421875
2012-01-04,18.02145004272461
2012-01-05,17.826093673706055
2012-01-06,17.855398178100586
2012-01-09,18.2070369720459
2012-01-10,18.812633514404297
2012-01-11,18.656352996826172
2012-01-12,18.78333282470703
2012-01-13,18.59774398803711
2012-01-17,18.744258880615234
2012-01-18,19.447534561157227
2012-01-19,19.848012924194336
2012-01-20,20.101974487304688
2012-01-23,20.355934143066406
2012-01-24,20.033599853515625
2012-01-25,20.4829158782959
2012-01-26,20.600130081176758
2012-01-27,20.385236740112305
2012-01-30,20.014060974121094
2012-01-31,19.965227127075195
2012-02-01,20.668498992919922
2012-02-02,20.600130081176758
2012-02-03,21.244800567626953
2012-02-06,21.156885147094727
2012-02-07,21.11781883239746
2012-02-08,21.215496063232422
2012-02-09,21.352243423461914
2012-02-10,21.420618057250977
2012-02-13,21.508527755737305
2012-02-14,20.951765060424805
2012-02-15,21.000600814819336
2012-02-16,21.391313552856445
2012-02-17,21.782018661499023
2012-02-21,21.75271987915039
2012-02-22,21.586666107177734
2012-02-23,21.5768985748291
2012-02-24,21.655038833618164
2012-02-27,22.104354858398438
2012-02-28,22.407155990600586
2012-02-29,22.289941787719727
2012-03-01,22.57320785522461
2012-03-02,22.407155990600586
2012-03-05,22.289941787719727
2012-03-06,21.215496063232422
2012-03-07,21.879701614379883
2012-03-08,22.553674697875977
2012-03-09,22.407155990600586
2012-03-12,22.182497024536133
2012-03-13,23.12019920349121
2012-03-14,22.797863006591797
2012-03-15,22.65134620666504
2012-03-16,22.7685604095459
2012-03-19,22.729494094848633
2012-03-20,22.50483512878418
2012-03-21,22.59425926208496
2012-03-22,22.59425926208496
2012-03-23,22.723424911499023
2012-03-26,22.912208557128906
2012-03-27,22.76317024230957
2012-03-28,22.743297576904297
2012-03-29,22.634002685546875
2012-03-30,23.071178436279297
2012-04-02,23.488489151000977
2012-04-03,22.98175621032715
2012-04-04,22.504837036132812
2012-04-05,22.614131927490234
2012-04-09,22.40547752380371
2012-04-10,21.968297958374023
2012-04-11,22.544578552246094
2012-04-12,23.259963989257812
2012-04-13,22.663808822631836
2012-04-16,22.713491439819336
2012-04-17,23.240093231201172
2012-04-18,23.319576263427734
2012-04-19,23.399065017700195
2012-04-20,23.428876876831055
2012-04-23,22.971824645996094
2012-04-24,23.051307678222656
2012-04-25,23.379194259643555
2012-04-26,23.707077026367188
2012-04-27,24.144262313842773
2012-04-30,23.726951599121094
2012-05-01,23.96541404724121
2012-05-02,24.541702270507812
2012-05-03,24.452274322509766
2012-05-04,23.885929107666016
2012-05-07,23.995222091674805
2012-05-08,23.726951599121094
2012-05-09,23.627593994140625
2012-05-10,23.83624839782715
2012-05-11,23.806434631347656
2012-05-14,23.389131546020508
2012-05-15,23.379194259643555
2012-05-16,23.160606384277344
2012-05-17,22.296180725097656
2012-05-18,21.700029373168945
2012-05-21,22.484962463378906
2012-05-22,22.435285568237305
2012-05-23,21.89874267578125
2012-05-24,22.077590942382812
2012-05-25,21.938488006591797
2012-05-29,22.643939971923828
2012-05-30,22.10740089416504
2012-05-31,23.329517364501953
2012-06-01,22.33592414855957
2012-06-04,22.316057205200195
2012-06-05,22.643939971923828
2012-06-06,22.773107528686523
2012-06-07,23.13079833984375
2012-06-08,23.20034408569336
2012-06-11,22.892337799072266
2012-06-12,23.279836654663086
2012-06-13,22.95195198059082
2012-06-14,23.100990295410156
2012-06-15,23.23015785217285
2012-06-18,23.22022247314453
2012-06-19,23.955480575561523
2012-06-20,24.392662048339844
2012-06-21,23.885929107666016
2012-06-22,23.577913284301758
2012-06-25,23.319576263427734
2012-06-26,23.607723236083984
2012-06-27,23.657400131225586
2012-06-28,23.2699031829834
2012-06-29,23.945541381835938
2012-07-02,24.422466278076172
2012-07-03,24.184009552001953
2012-07-05,23.846187591552734
2012-07-06,23.955480575561523
2012-07-09,23.816373825073242
2012-07-10,23.875993728637695
2012-07-11,23.75676155090332
2012-07-12,23.011566162109375
2012-07-13,23.14073371887207
2012-07-16,23.259963989257812
2012-07-17,23.667341232299805
2012-07-18,24.09458351135254
2012-07-19,24.511890411376953
2012-07-20,23.985286712646484
2012-07-23,23.607723236083984
2012-07-24,23.29970932006836
2012-07-25,23.389131546020508
2012-07-26,24.213809967041016
2012-07-27,24.83977508544922
2012-07-30,24.800031661987305
2012-07-31,24.541702270507812
2012-08-01,24.402591705322266
2012-08-02,24.48208236694336
2012-08-03,25.15772819519043
2012-08-06,25.098108291625977
2012-08-07,26.846830368041992
2012-08-08,25.99234390258789
2012-08-09,25.724071502685547
2012-08-10,25.98240089416504
2012-08-13,25.97247314453125
2012-08-14,25.833364486694336
2012-08-15,25.873109817504883
2012-08-16,25.883047103881836
2012-08-17,25.86317253112793
2012-08-20,25.853239059448242
2012-08-21,25.803556442260742
2012-08-22,25.47299575805664
2012-08-23,25.60321807861328
2012-08-24,25.412891387939453
2012-08-27,25.322744369506836
2012-08-28,25.332761764526367
2012-08-29,25.422914505004883
2012-08-30,25.27266502380371
2012-08-31,25.412891387939453
2012-09-04,25.543119430541992
2012-09-05,25.663320541381836
2012-09-06,25.813575744628906
2012-09-07,25.873672485351562
2012-09-10,25.683351516723633
2012-09-11,25.983856201171875
2012-09-12,25.813575744628906
2012-09-13,26.654993057250977
2012-09-14,26.72511100769043
2012-09-17,26.644977569580078
2012-09-18,26.67502784729004
2012-09-19,26.6950626373291
2012-09-20,26.474687576293945
2012-09-21,26.574857711791992
2012-09-24,26.76517677307129
2012-09-25,26.434621810913086
2012-09-26,26.294384002685547
2012-09-27,26.504735946655273
2012-09-28,26.294384002685547
2012-10-01,26.524776458740234
2012-10-02,26.234285354614258
2012-10-03,26.31441879272461
2012-10-04,26.975534439086914
2012-10-05,26.72511100769043
2012-10-08,26.644977569580078
2012-10-09,24.494680404663086
2012-10-10,24.475982666015625
2012-10-11,24.4572811126709
2012-10-12,24.354442596435547
2012-10-15,24.28899574279785
2012-10-16,24.111364364624023
2012-10-17,23.989830017089844
2012-10-18,23.905685424804688
2012-10-19,23.64391326904297
2012-10-22,23.793498992919922
2012-10-23,23.269947052001953
2012-10-24,23.139057159423828
2012-10-25,23.26059341430664
2012-10-26,23.120359420776367
2012-10-31,23.017520904541016
2012-11-01,23.26059341430664
2012-11-02,23.017520904541016
2012-11-05,22.905332565307617
2012-11-06,23.26059341430664
2012-11-07,23.241901397705078
2012-11-08,23.045564651489258
2012-11-09,23.129709243774414
2012-11-12,23.47562599182129
2012-11-13,23.419532775878906
2012-11-14,23.17645263671875
2012-11-15,23.279293060302734
2012-11-16,23.46627426147461
2012-11-19,23.559768676757812
2012-11-20,24.38249397277832
2012-11-21,24.522727966308594
2012-11-23,25.392196655273438
2012-11-26,25.177162170410156
2012-11-27,25.046281814575195
2012-11-28,25.03693199157715
2012-11-29,25.055633544921875
2012-11-30,25.064971923828125
2012-12-03,25.055633544921875
2012-12-04,25.03693199157715
2012-12-05,24.915388107299805
2012-12-06,24.849946975708008
2012-12-07,24.756454467773438
2012-12-10,24.868642807006836
2012-12-11,24.812549591064453
2012-12-12,24.71905517578125
2012-12-13,24.6629638671875
2012-12-14,24.859296798706055
2012-12-17,24.999526977539062
2012-12-18,25.214563369750977
2012-12-19,25.270654678344727
2012-12-20,25.953140258789062
2012-12-21,25.747459411621094
2012-12-24,25.6165714263916
2012-12-26,25.457637786865234
2012-12-27,25.644620895385742
2012-12-28,25.485687255859375
2012-12-31,26.009233474731445
2013-01-02,26.682369232177734
2013-01-03,26.616924285888672
2013-01-04,26.757164001464844
2013-01-07,26.5234375
2013-01-08,26.3645076751709
2013-01-09,26.10272789001465
2013-01-10,26.401899337768555
2013-01-11,26.682369232177734
2013-01-14,26.476694107055664
2013-01-15,26.644977569580078
2013-01-16,26.644977569580078
2013-01-17,26.673019409179688
2013-01-18,26.972196578979492
2013-01-22,27.112428665161133
2013-01-23,27.018939971923828
2013-01-24,27.19657325744629
2013-01-25,27.804264068603516
2013-01-28,27.4303035736084
2013-01-29,27.402254104614258
2013-01-30,27.411603927612305
2013-01-31,27.448999404907227
2013-02-01,27.804264068603516
2013-02-04,27.860363006591797
2013-02-05,27.907106399536133
2013-02-06,28.047338485717773
2013-02-07,28.009944915771484
2013-02-08,28.355859756469727
2013-02-11,27.813613891601562
2013-02-12,28.187576293945312
2013-02-13,28.159534454345703
2013-02-14,28.16888427734375
2013-02-15,28.645689010620117
2013-02-19,28.11278533935547
2013-02-20,27.533140182495117
2013-02-21,27.252670288085938
2013-02-22,27.635982513427734
2013-02-25,26.7291202545166
2013-02-26,27.05633544921875
2013-02-27,27.346155166625977
2013-02-28,27.177873611450195
2013-03-01,27.411603927612305
2013-03-04,27.542495727539062
2013-03-05,27.551843643188477
2013-03-06,27.505102157592773
2013-03-07,27.486398696899414
2013-03-08,27.542495727539062
2013-03-11,27.59858512878418
2013-03-12,27.83230972290039
2013-03-13,27.841665267944336
2013-03-14,28.3839111328125
2013-03-15,28.131488800048828
2013-03-18,28.19692611694336
2013-03-19,28.187576293945312
2013-03-20,28.14015769958496
2013-03-21,27.865110397338867
2013-03-22,27.827177047729492
2013-03-25,27.969440460205078
2013-03-26,28.016862869262695
2013-03-27,28.045316696166992
2013-03-28,28.851484298706055
2013-04-01,28.870450973510742
2013-04-02,29.03169059753418
2013-04-03,28.661806106567383
2013-04-04,28.709224700927734
2013-04-05,28.026348114013672
2013-04-08,28.22551727294922
2013-04-09,27.978923797607422
2013-04-10,27.9599609375
2013-04-11,28.329853057861328
2013-04-12,28.35830307006836
2013-04-15,27.580583572387695
2013-04-16,27.8366641998291
2013-04-17,26.86924934387207
2013-04-18,27.030494689941406
2013-04-19,26.878740310668945
2013-04-22,26.878740310668945
2013-04-23,27.163267135620117
2013-04-24,27.3055362701416
2013-04-25,27.770267486572266
2013-04-26,27.684911727905273
2013-04-29,27.70387840270996
2013-04-30,28.026348114013672
2013-05-01,28.045316696166992
2013-05-02,28.073776245117188
2013-05-03,28.97478485107422
2013-05-06,28.91788101196289
2013-05-07,28.81355094909668
2013-05-08,28.187580108642578
2013-05-09,28.007381439208984
2013-05-10,28.367788314819336
2013-05-13,28.291906356811523
2013-05-14,28.46263313293457
2013-05-15,28.20655059814453
2013-05-16,28.045316696166992
2013-05-17,27.997894287109375
2013-05-20,28.32036018371582
2013-05-21,27.950475692749023
2013-05-22,27.504703521728516
2013-05-23,27.438318252563477
2013-05-24,27.485734939575195
2013-05-28,27.751304626464844
2013-05-29,27.17275619506836
2013-05-30,27.580583572387695
2013-05-31,27.23914337158203
2013-06-03,27.533161163330078
2013-06-04,27.35295867919922
2013-06-05,26.594205856323242
2013-06-06,27.00203514099121
2013-06-07,26.897706985473633
2013-06-10,26.793378829956055
2013-06-11,26.812347412109375
2013-06-12,26.71750259399414
2013-06-13,26.983062744140625
2013-06-14,27.05893898010254
2013-06-17,26.992549896240234
2013-06-18,27.030494689941406
2013-06-19,26.38555145263672
2013-06-20,25.901844024658203
2013-06-21,25.9303035736084
2013-06-24,25.512989044189453
2013-06-25,25.9303035736084
2013-06-26,25.9303035736084
2013-06-27,25.95875358581543
2013-06-28,26.053598403930664
2013-07-01,26.964096069335938
2013-07-02,26.954614639282227
2013-07-03,26.71750259399414
2013-07-05,27.17275619506836
2013-07-08,27.485734939575195
2013-07-09,27.447797775268555
2013-07-10,27.438318252563477
2013-07-11,28.310880661010742
2013-07-12,28.20655059814453
2013-07-15,28.13067626953125
2013-07-16,28.064285278320312
2013-07-17,28.272939682006836
2013-07-18,28.68076515197754
2013-07-19,28.614376068115234
2013-07-22,28.63334846496582
2013-07-23,28.092742919921875
2013-07-24,27.940990447998047
2013-07-25,28.15913200378418
2013-07-26,27.713361740112305
2013-07-29,27.751304626464844
2013-07-30,27.552135467529297
2013-07-31,27.419347763061523
2013-08-01,27.590065002441406
2013-08-02,27.485734939575195
2013-08-05,27.779754638671875
2013-08-06,29.39209747314453
2013-08-07,29.211896896362305
2013-08-08,29.278284072875977
2013-08-09,28.851484298706055
2013-08-12,28.68076515197754
2013-08-13,28.97478485107422
2013-08-14,29.240352630615234
2013-08-15,28.59541130065918
2013-08-16,28.75664710998535
2013-08-19,28.86097526550293
2013-08-20,29.477455139160156
2013-08-21,28.758502960205078
2013-08-22,29.06805419921875
2013-08-23,29.008142471313477
2013-08-26,28.84836769104004
2013-08-27,27.939678192138672
2013-08-28,27.729984283447266
2013-08-29,28.33910369873047
2013-08-30,28.049522399902344
2013-09-03,28.418987274169922
2013-09-04,28.678611755371094
2013-09-05,29.10799217224121
2013-09-06,29.29772186279297
2013-09-09,29.527389526367188
2013-09-10,30.086580276489258
2013-09-11,30.216398239135742
2013-09-12,29.896860122680664
2013-09-13,30.176450729370117
2013-09-16,30.116535186767578
2013-09-17,30.05662727355957
2013-09-18,29.966758728027344
2013-09-19,29.806989669799805
2013-09-20,29.527389526367188
2013-09-23,29.46747589111328
2013-09-24,29.38758659362793
2013-09-25,29.15792465209961
2013-09-26,29.287731170654297
2013-09-27,29.11797523498535
2013-09-30,29.167911529541016
2013-10-01,29.57731819152832
2013-10-02,29.50741958618164
2013-10-03,28.968198776245117
2013-10-04,29.07804298400879
2013-10-07,28.838380813598633
2013-10-08,28.229263305664062
2013-10-09,28.448944091796875
2013-10-10,28.648658752441406
2013-10-11,29.028112411499023
2013-10-14,29.20785140991211
2013-10-15,29.377605438232422
2013-10-16,29.51740264892578
2013-10-17,29.816970825195312
2013-10-18,30.116535186767578
2013-10-21,30.16646385192871
2013-10-22,30.346202850341797
2013-10-23,30.156476974487305
2013-10-24,30.346202850341797
2013-10-25,30.346202850341797
2013-10-28,29.617259979248047
2013-10-29,29.427532196044922
2013-10-30,29.287731170654297
2013-10-31,29.307706832885742
2013-11-01,28.998149871826172
2013-11-04,28.84836769104004
2013-11-05,29.12796401977539
2013-11-06,29.018125534057617
2013-11-07,28.69858741760254
2013-11-08,29.028112411499023
2013-11-11,29.197866439819336
2013-11-12,29.31768798828125
2013-11-13,29.427532196044922
2013-11-14,29.806989669799805
2013-11-15,30.18644142150879
2013-11-18,30.18644142150879
2013-11-19,29.956768035888672
2013-11-20,29.856914520263672
2013-11-21,30.16646385192871
2013-11-22,30.426088333129883
2013-11-25,30.495986938476562
2013-11-26,30.93535614013672
2013-11-27,31.175012588500977
2013-11-29,31.10511589050293
2013-12-02,31.184995651245117
2013-12-03,31.19498634338379
2013-12-04,30.985280990600586
2013-12-05,30.85547637939453
2013-12-06,30.995267868041992
2013-12-09,31.27486801147461
2013-12-10,31.005252838134766
2013-12-11,31.015243530273438
2013-12-12,30.9054012298584
2013-12-13,31.025226593017578
2013-12-16,31.344768524169922
2013-12-17,30.925378799438477
2013-12-18,31.724218368530273
2013-12-19,31.993825912475586
2013-12-20,32.18355178833008
2013-12-23,32.65287780761719
2013-12-24,32.85258865356445
2013-12-26,33.122196197509766
2013-12-27,33.341888427734375
2013-12-30,33.491661071777344
2013-12-31,33.38182830810547
2014-01-02,33.07227325439453
2014-01-03,32.87256622314453
2014-01-06,32.69282531738281
2014-01-07,32.832618713378906
2014-01-08,32.70281219482422
2014-01-09,32.582977294921875
2014-01-10,32.92249298095703
2014-01-13,32.50309371948242
2014-01-14,33.291954040527344
2014-01-15,33.23204803466797
2014-01-16,32.812652587890625
2014-01-17,32.91250228881836
2014-01-21,33.51164245605469
2014-01-22,34.030887603759766
2014-01-23,33.821189880371094
2014-01-24,33.291954040527344
2014-01-27,32.63290786743164
2014-01-28,33.04231643676758
2014-01-29,32.722774505615234
2014-01-30,32.91250228881836
2014-01-31,32.39324951171875
2014-02-03,31.87400245666504
2014-02-04,31.644332885742188
2014-02-05,31.754173278808594
2014-02-06,32.00381088256836
2014-02-07,31.983842849731445
2014-02-10,32.1136474609375
2014-02-11,32.732757568359375
2014-02-12,33.15216064453125
2014-02-13,32.91250228881836
2014-02-14,33.7313232421875
2014-02-18,33.341888427734375
2014-02-19,32.63290786743164
2014-02-20,33.04231643676758
2014-02-21,32.03377151489258
2014-02-24,32.24347686767578
2014-02-25,32.16358947753906
2014-02-26,32.12363815307617
2014-02-27,32.43320083618164
2014-02-28,32.63290786743164
2014-03-03,31.724218368530273
2014-03-04,32.54304122924805
2014-03-05,32.39324951171875
2014-03-06,32.29339599609375
2014-03-07,32.32335662841797
2014-03-10,31.893980026245117
2014-03-11,32.01380157470703
2014-03-12,31.983842849731445
2014-03-13,31.384706497192383
2014-03-14,31.474578857421875
2014-03-17,31.614377975463867
2014-03-18,31.883989334106445
2014-03-19,31.742103576660156
2014-03-20,31.296171188354492
2014-03-21,32.28938293457031
2014-03-24,32.269107818603516
2014-03-25,32.8366584777832
2014-03-26,32.71504592895508
2014-03-27,32.644100189208984
2014-03-28,32.65423583984375
2014-03-31,32.8366584777832
2014-04-01,33.079891204833984
2014-04-02,33.008949279785156
2014-04-03,32.664363861083984
2014-04-04,32.137359619140625
2014-04-07,32.02587890625
2014-04-08,32.644100189208984
2014-04-09,33.09002685546875
2014-04-10,32.258975982666016
2014-04-11,32.17789840698242
2014-04-14,32.5224723815918
2014-04-15,32.552886962890625
2014-04-16,32.73530578613281
2014-04-17,32.96841049194336
2014-04-21,33.079891204833984
2014-04-22,33.44474411010742
2014-04-23,33.302860260009766
2014-04-24,33.96161651611328
2014-04-25,34.1136360168457
2014-04-28,33.92108154296875
2014-04-29,34.15418243408203
2014-04-30,34.88387680053711
2014-05-01,34.772396087646484
2014-05-02,37.397300720214844
2014-05-05,37.599998474121094
2014-05-06,37.61013412475586
2014-05-07,38.33983612060547
2014-05-08,37.893917083740234
2014-05-09,37.58985900878906
2014-05-12,37.630409240722656
2014-05-13,37.98512268066406
2014-05-14,37.5189208984375
2014-05-15,37.57972717285156
2014-05-16,37.48851776123047
2014-05-19,37.4986457824707
2014-05-20,37.32636260986328
2014-05-21,37.944583892822266
2014-05-22,37.934444427490234
2014-05-23,38.12700271606445
2014-05-27,39.26210021972656
2014-05-28,38.92765426635742
2014-05-29,39.56615447998047
2014-05-30,40.336387634277344
2014-06-02,39.86004638671875
2014-06-03,39.485069274902344
2014-06-04,39.464805603027344
2014-06-05,39.343177795410156
2014-06-06,39.272239685058594
2014-06-09,39.424251556396484
2014-06-10,39.32291030883789
2014-06-11,39.28237533569336
2014-06-12,39.464805603027344
2014-06-13,39.23169708251953
2014-06-16,39.30263900756836
2014-06-17,39.36344909667969
2014-06-18,39.39385223388672
2014-06-19,39.77897644042969
2014-06-20,39.89045333862305
2014-06-23,41.086360931396484
2014-06-24,40.559356689453125
2014-06-25,41.13704299926758
2014-06-26,41.97821807861328
2014-06-27,41.755252838134766
2014-06-30,42.06944274902344
2014-07-01,38.8300895690918
2014-07-02,39.11071014404297
2014-07-03,39.765533447265625
2014-07-07,39.36328887939453
2014-07-08,39.11071014404297
2014-07-09,39.38199996948242
2014-07-10,39.04523468017578
2014-07-11,39.25102996826172
2014-07-14,39.29781723022461
2014-07-15,39.410057067871094
2014-07-16,39.391353607177734
2014-07-17,38.97040939331055
2014-07-18,39.428768157958984
2014-07-21,39.344581604003906
2014-07-22,39.391353607177734
2014-07-23,39.2884521484375
2014-07-24,39.10136413574219
2014-07-25,38.79267120361328
2014-07-28,38.91427993774414
2014-07-29,38.736541748046875
2014-07-30,38.343658447265625
2014-07-31,37.78239822387695
2014-08-01,37.09952163696289
2014-08-04,37.436279296875
2014-08-05,35.846031188964844
2014-08-06,35.771202087402344
2014-08-07,35.02284622192383
2014-08-08,34.751564025878906
2014-08-11,35.02284622192383
2014-08-12,34.938655853271484
2014-08-13,35.116390228271484
2014-08-14,35.09769058227539
2014-08-15,35.219295501708984
2014-08-18,35.53733825683594
2014-08-19,35.24735641479492
2014-08-20,35.28502655029297
2014-08-21,35.54869842529297
2014-08-22,35.82178497314453
2014-08-25,36.26437759399414
2014-08-26,35.99128723144531
2014-08-27,36.085453033447266
2014-08-28,36.03837203979492
2014-08-29,36.07604217529297
2014-09-02,35.72761535644531
2014-09-03,36.07604217529297
2014-09-04,35.68994903564453
2014-09-05,35.426273345947266
2014-09-08,34.6917610168457
2014-09-09,35.07785415649414
2014-09-10,35.33211135864258
2014-09-11,35.55812072753906
2014-09-12,35.87827682495117
2014-09-15,36.18904113769531
2014-09-16,36.34912872314453
2014-09-17,36.39621353149414
2014-09-18,37.23432159423828
2014-09-19,37.52623748779297
2014-09-22,37.319068908691406
2014-09-23,37.02714920043945
2014-09-24,36.74463653564453
2014-09-25,36.33029556274414
2014-09-26,36.17020797729492
2014-09-29,36.30204391479492
2014-09-30,36.40563201904297
2014-10-01,35.473365783691406
2014-10-02,34.4940071105957
2014-10-03,34.81417465209961
2014-10-06,35.115516662597656
2014-10-07,33.76890563964844
2014-10-08,34.239749908447266
2014-10-09,33.034393310546875
2014-10-10,33.10031509399414
2014-10-13,32.3846321105957
2014-10-14,32.3846321105957
2014-10-15,32.27162170410156
2014-10-16,32.04561996459961
2014-10-17,32.82722091674805
2014-10-20,34.48458480834961
2014-10-21,34.46575927734375
2014-10-22,34.05141067504883
2014-10-23,34.070247650146484
2014-10-24,33.85365676879883
2014-10-27,34.663509368896484
2014-10-28,34.83301544189453
2014-10-29,34.68234634399414
2014-10-30,35.52985382080078
2014-10-31,35.79352569580078
2014-11-03,36.18904113769531
2014-11-04,36.34912872314453
2014-11-05,36.51863479614258
2014-11-06,36.2078742980957
2014-11-07,36.0195426940918
2014-11-10,36.89531326293945
2014-11-11,38.29841995239258
2014-11-12,37.81816864013672
2014-11-13,37.874664306640625
2014-11-14,37.94057846069336
2014-11-17,38.09124755859375
2014-11-18,38.04416275024414
2014-11-19,38.08183288574219
2014-11-20,38.30783462524414
2014-11-21,38.60917663574219
2014-11-24,39.08944320678711
2014-11-25,39.098854064941406
2014-11-26,39.36252975463867
2014-11-28,39.90870666503906
2014-12-01,38.712764739990234
2014-12-02,38.3925895690918
2014-12-03,38.48675537109375
2014-12-04,38.74101257324219
2014-12-05,38.89168167114258
2014-12-08,38.3925895690918
2014-12-09,37.29082107543945
2014-12-10,37.11189270019531
2014-12-11,37.19664764404297
2014-12-12,36.01012420654297
2014-12-15,35.43568801879883
2014-12-16,36.094871520996094
2014-12-17,36.85764694213867
2014-12-18,38.28900909423828
2014-12-19,38.22308349609375
2014-12-22,38.48675537109375
2014-12-23,38.28900909423828
2014-12-24,38.56209945678711
2014-12-26,38.60917663574219
2014-12-29,38.204261779785156
2014-12-30,37.95000076293945
2014-12-31,37.714569091796875
2015-01-02,37.394405364990234
2015-01-05,36.77289581298828
2015-01-06,36.085453033447266
2015-01-07,36.9423942565918
2015-01-08,37.42264938354492
2015-01-09,37.03656005859375
2015-01-12,37.53565216064453
2015-01-13,37.347312927246094
2015-01-14,37.68632125854492
2015-01-15,36.838809967041016
2015-01-16,37.21548080444336
2015-01-20,37.460323333740234
2015-01-21,37.60157012939453
2015-01-22,38.55268096923828
2015-01-23,38.712764739990234
2015-01-26,39.14594268798828
2015-01-27,39.014102935791016
2015-01-28,37.43206787109375
2015-01-29,37.88407516479492
2015-01-30,37.44148635864258
2015-02-02,36.95180892944336
2015-02-03,37.19664764404297
2015-02-04,37.32848358154297
2015-02-05,37.66749572753906
2015-02-06,37.319068908691406
2015-02-09,37.26256561279297
2015-02-10,38.47734451293945
2015-02-11,38.505592346191406
2015-02-12,38.95759963989258
2015-02-13,37.9876594543457
2015-02-17,36.706966400146484
2015-02-18,37.705162048339844
2015-02-19,37.017730712890625
2015-02-20,37.02714920043945
2015-02-23,37.43206787109375
2015-02-24,37.26256561279297
2015-02-25,37.44148635864258
2015-02-26,37.69574737548828
2015-02-27,38.515010833740234
2015-03-02,39.164772033691406
2015-03-03,38.8540153503418
2015-03-04,38.53384017944336
2015-03-05,38.48675537109375
2015-03-06,37.68632125854492
2015-03-09,38.034751892089844
2015-03-10,37.21548080444336
2015-03-11,36.8764762878418
2015-03-12,37.384986877441406
2015-03-13,36.904720306396484
2015-03-16,37.60157012939453
2015-03-17,37.469730377197266
2015-03-18,38.1289176940918
2015-03-19,37.723995208740234
2015-03-20,38.119503021240234
2015-03-23,37.545074462890625
2015-03-24,37.19664764404297
2015-03-25,36.39621353149414
2015-03-26,36.16079330444336
2015-03-27,37.309654235839844
2015-03-30,37.30023193359375
2015-03-31,36.8764762878418
2015-04-01,37.09305191040039
2015-04-02,37.12168884277344
2015-04-06,37.331634521484375
2015-04-07,37.98054504394531
2015-04-08,38.056884765625
2015-04-09,38.448143005371094
2015-04-10,38.73442459106445
2015-04-13,38.73442459106445
2015-04-14,39.259281158447266
2015-04-15,38.992088317871094
2015-04-16,38.74396896362305
2015-04-17,39.03025817871094
2015-04-20,39.71734619140625
2015-04-21,40.93882369995117
2015-04-22,40.862483978271484
2015-04-23,40.62391662597656
2015-04-24,40.91974639892578
2015-04-27,40.92928695678711
2015-04-28,41.00563049316406
2015-04-29,41.463687896728516
2015-04-30,40.662086486816406
2015-05-01,41.01517105102539
2015-05-04,40.90066146850586
2015-05-05,39.92729187011719
2015-05-06,39.97499465942383
2015-05-07,40.02271270751953
2015-05-08,41.03425598144531
2015-05-11,40.96745300292969
2015-05-12,40.89111328125
2015-05-13,40.75751495361328
2015-05-14,41.48276901245117
2015-05-15,41.53048324584961
2015-05-18,41.55911636352539
2015-05-19,41.282371520996094
2015-05-20,41.29191589355469
2015-05-21,41.301456451416016
2015-05-22,40.84340286254883
2015-05-26,40.05134582519531
2015-05-27,40.59528350830078
2015-05-28,40.91020202636719
2015-05-29,39.92729187011719
2015-06-01,40.12767791748047
2015-06-02,39.87002182006836
2015-06-03,40.07042694091797
2015-06-04,39.72688674926758
2015-06-05,39.4787712097168
2015-06-08,39.27837371826172
2015-06-09,39.22111511230469
2015-06-10,40.36626434326172
2015-06-11,40.413970947265625
2015-06-12,40.10859680175781
2015-06-15,39.69825744628906
2015-06-16,40.0131721496582
2015-06-17,40.05134582519531
2015-06-18,40.62391662597656
2015-06-19,40.95792007446289
2015-06-22,41.091514587402344
2015-06-23,41.177398681640625
2015-06-24,40.77659606933594
2015-06-25,40.59528350830078
2015-06-26,40.604827880859375
2015-06-29,38.9825439453125
2015-06-30,38.61037063598633
2015-07-01,39.335636138916016
2015-07-02,38.83939743041992
2015-07-06,38.69626235961914
2015-07-07,38.324092864990234
2015-07-08,37.60837173461914
2015-07-09,37.9996337890625
2015-07-10,39.8509407043457
2015-07-13,39.80323028564453
2015-07-14,40.10859680175781
2015-07-15,40.356712341308594
2015-07-16,40.662086486816406
2015-07-17,40.728885650634766
2015-07-20,40.70025634765625
2015-07-21,40.03226852416992
2015-07-22,40.11814498901367
2015-07-23,39.22111511230469
2015-07-24,38.76305389404297
2015-07-27,38.028255462646484
2015-07-28,38.7057991027832
2015-07-29,39.173404693603516
2015-07-30,38.915740966796875
2015-07-31,39.91773986816406
2015-08-03,39.459678649902344
2015-08-04,39.76505661010742
2015-08-05,39.28791427612305
2015-08-06,38.63899612426758
2015-08-07,38.667625427246094
2015-08-10,38.658084869384766
2015-08-11,37.94236755371094
2015-08-12,37.50340270996094
2015-08-13,37.54158020019531
2015-08-14,37.484317779541016
2015-08-17,37.55111312866211
2015-08-18,37.436607360839844
2015-08-19,36.968997955322266
2015-08-20,35.82386016845703
2015-08-21,35.22266387939453
2015-08-24,34.23974609375
2015-08-25,34.69779968261719
2015-08-26,35.17376708984375
2015-08-27,36.01032638549805
2015-08-28,36.4141845703125
2015-08-31,35.971866607666016
2015-09-01,34.85645294189453
2015-09-02,35.29877471923828
2015-09-03,35.60647201538086
2015-09-04,34.837223052978516
2015-09-08,35.76032257080078
2015-09-09,35.250694274902344
2015-09-10,36.07763671875
2015-09-11,36.08724594116211
2015-09-14,35.42377853393555
2015-09-15,35.23146438598633
2015-09-16,35.7795524597168
2015-09-17,35.702632904052734
2015-09-18,34.798763275146484
2015-09-21,34.616065979003906
2015-09-22,33.385276794433594
2015-09-23,33.48143005371094
2015-09-24,33.510276794433594
2015-09-25,33.63528060913086
2015-09-28,32.48141098022461
2015-09-29,32.231407165527344
2015-09-30,33.298736572265625
2015-10-01,33.56797409057617
2015-10-02,34.52953338623047
2015-10-05,34.798763275146484
2015-10-06,35.250694274902344
2015-10-07,35.510318756103516
2015-10-08,36.048789978027344
2015-10-09,35.7410888671875
2015-10-12,35.19300842285156
2015-10-13,34.78915023803711
2015-10-14,34.37567901611328
2015-10-15,34.798763275146484
2015-10-16,34.17375564575195
2015-10-19,34.442989349365234
2015-10-20,36.60649490356445
2015-10-21,36.13533401489258
2015-10-22,36.491111755371094
2015-10-23,36.81803894042969
2015-10-26,36.95265579223633
2015-10-27,37.241119384765625
2015-10-28,37.56804656982422
2015-10-29,37.74113082885742
2015-10-30,38.34690856933594
2015-11-02,38.616153717041016
2015-11-03,38.856536865234375
2015-11-04,38.55845260620117
2015-11-05,38.327674865722656
2015-11-06,38.47191619873047
2015-11-09,38.28921890258789
2015-11-10,37.94305419921875
2015-11-11,38.05844497680664
2015-11-12,37.116111755371094
2015-11-13,36.48149108886719
2015-11-16,36.18339920043945
2015-11-17,36.096866607666016
2015-11-18,36.2411003112793
2015-11-19,36.67380905151367
2015-11-20,36.4141845703125
2015-11-23,35.91416931152344
2015-11-24,35.5776252746582
2015-11-25,35.81801223754883
2015-11-27,36.12571334838867
2015-11-30,36.78919219970703
2015-12-01,37.70267105102539
2015-12-02,37.404579162597656
2015-12-03,36.97188186645508
2015-12-04,37.6257438659668
2015-12-07,37.31804656982422
2015-12-08,36.25071716308594
2015-12-09,36.25071716308594
2015-12-10,36.769962310791016
2015-12-11,36.51034164428711
2015-12-14,36.991111755371094
2015-12-15,36.96227264404297
2015-12-16,37.47189712524414
2015-12-17,36.67380905151367
2015-12-18,36.068023681640625
2015-12-21,37.06804656982422
2015-12-22,37.375736236572266
2015-12-23,38.05844497680664
2015-12-24,37.93343734741211
2015-12-28,37.77959060668945
2015-12-29,37.971900939941406
2015-12-30,37.6257438659668
2015-12-31,37.250732421875
2016-01-04,36.67380905151367
2016-01-05,36.47187805175781
2016-01-06,35.76032257080078
2016-01-07,34.97184371948242
2016-01-08,35.308387756347656
2016-01-11,35.76032257080078
2016-01-12,35.34684753417969
2016-01-13,33.856441497802734
2016-01-14,32.741031646728516
2016-01-15,31.423696517944336
2016-01-19,31.00061798095703
2016-01-20,30.8756160736084
2016-01-21,31.058307647705078
2016-01-22,31.97178840637207
2016-01-25,31.202537536621094
2016-01-26,31.894859313964844
2016-01-27,31.712160110473633
2016-01-28,31.644853591918945
2016-01-29,31.86601448059082
2016-02-01,32.750648498535156
2016-02-02,32.09678649902344
2016-02-03,32.26025390625
2016-02-04,32.51987075805664
2016-02-05,31.923702239990234
2016-02-08,31.039073944091797
2016-02-09,31.269847869873047
2016-02-10,31.83716583251953
2016-02-11,31.01984214782715
2016-02-12,32.08717727661133
2016-02-16,32.154483795166016
2016-02-17,34.154518127441406
2016-02-18,33.856441497802734
2016-02-19,34.087215423583984
2016-02-22,33.70258712768555
2016-02-23,34.500675201416016
2016-02-24,34.12567901611328
2016-02-25,35.635318756103516
2016-02-26,36.01994323730469
2016-02-29,36.33725357055664
2016-03-01,37.23150634765625
2016-03-02,36.74110794067383
2016-03-03,37.23150634765625
2016-03-04,37.587276458740234
2016-03-07,37.03919219970703
2016-03-08,36.6257209777832
2016-03-09,37.07765197753906
2016-03-10,36.96227264404297
2016-03-11,37.98152542114258
2016-03-14,39.27962112426758
2016-03-15,38.02959442138672
2016-03-16,38.64499282836914
2016-03-17,38.68345642089844
2016-03-18,39.07769775390625
2016-03-21,39.15461730957031
2016-03-22,38.10651779174805
2016-03-23,37.8853645324707
2016-03-24,38.000755310058594
2016-03-28,38.202674865722656
2016-03-29,38.79884338378906
2016-03-30,39.30120086669922
2016-03-31,40.25715255737305
2016-04-01,39.84745788574219
2016-04-04,39.866966247558594
2016-04-05,39.50604248046875
2016-04-06,39.9840202331543
2016-04-07,38.91101837158203
2016-04-08,39.349979400634766
2016-04-11,39.84745788574219
2016-04-12,40.5205192565918
2016-04-13,40.63758087158203
2016-04-14,39.886470794677734
2016-04-15,39.798683166503906
2016-04-18,40.55954360961914
2016-04-19,40.83266830444336
2016-04-20,40.25715255737305
2016-04-21,39.7889289855957
2016-04-22,39.2524299621582
2016-04-25,39.310951232910156
2016-04-26,39.55482482910156
2016-04-27,39.52555465698242
2016-04-28,39.55482482910156
2016-04-29,39.154876708984375
2016-05-02,39.418251037597656
2016-05-03,38.628135681152344
2016-05-04,38.31598663330078
2016-05-05,38.22819519042969
2016-05-06,38.28672409057617
2016-05-09,38.04864501953125
2016-05-10,38.77494430541992
2016-05-11,37.91307067871094
2016-05-12,37.64191818237305
2016-05-13,36.5766716003418
2016-05-16,36.799407958984375
2016-05-17,36.51856994628906
2016-05-18,37.002769470214844
2016-05-19,35.98594284057617
2016-05-20,36.07310104370117
2016-05-23,36.41204071044922
2016-05-24,37.16740036010742
2016-05-25,37.59349822998047
2016-05-26,37.59349822998047
2016-05-27,37.903385162353516
2016-05-31,37.48697280883789
2016-06-01,37.148033142089844
2016-06-02,37.59349822998047
2016-06-03,37.99054718017578
2016-06-06,38.23263931274414
2016-06-07,38.60063934326172
2016-06-08,37.58381271362305
2016-06-09,37.186767578125
2016-06-10,36.58635711669922
2016-06-13,36.266788482666016
2016-06-14,35.20153045654297
2016-06-15,35.492061614990234
2016-06-16,35.53079605102539
2016-06-17,36.06341552734375
2016-06-20,38.06801986694336
2016-06-21,38.29075622558594
2016-06-22,38.38758850097656
2016-06-23,39.59809875488281
2016-06-24,36.32488250732422
2016-06-27,34.02975845336914
2016-06-28,34.92069625854492
2016-06-29,35.93752670288086
2016-06-30,36.32488250732422
2016-07-01,37.186767578125
2016-07-05,35.995628356933594
2016-07-06,35.64699935913086
2016-07-07,35.792266845703125
2016-07-08,36.07310104370117
2016-07-11,36.81877517700195
2016-07-12,37.49665832519531
2016-07-13,37.273921966552734
2016-07-14,37.380455017089844
2016-07-15,37.244873046875
2016-07-18,37.73875427246094
2016-07-19,37.55476379394531
2016-07-20,37.893707275390625
2016-07-21,38.08738708496094
2016-07-22,38.18422317504883
2016-07-25,38.58127212524414
2016-07-26,39.075157165527344
2016-07-27,38.968631744384766
2016-07-28,38.968631744384766
2016-07-29,39.22041320800781
2016-08-01,39.03642272949219
2016-08-02,40.673030853271484
2016-08-03,40.363136291503906
2016-08-04,40.305030822753906
2016-08-05,40.71176528930664
2016-08-08,41.54458999633789
2016-08-09,41.72859191894531
2016-08-10,41.9706916809082
2016-08-11,42.04815673828125
2016-08-12,42.21278762817383
2016-08-15,42.29026794433594
2016-08-16,42.280574798583984
2016-08-17,42.39678955078125
2016-08-18,42.84225082397461
2016-08-19,43.18119430541992
2016-08-22,43.01656723022461
2016-08-23,43.258670806884766
2016-08-24,42.95846176147461
2016-08-25,42.7357292175293
2016-08-26,42.38710403442383
2016-08-29,42.41615676879883
2016-08-30,42.135318756103516
2016-08-31,41.989051818847656
2016-09-01,42.388858795166016
2016-09-02,42.827667236328125
2016-09-06,42.8569221496582
2016-09-07,42.535125732421875
2016-09-08,42.15482711791992
2016-09-09,40.98467254638672
2016-09-12,41.64775466918945
2016-09-13,41.19919967651367
2016-09-14,41.413726806640625
2016-09-15,42.22308349609375
2016-09-16,41.74526596069336
2016-09-19,41.686763763427734
2016-09-20,41.71601486206055
2016-09-21,41.686763763427734
2016-09-22,42.145076751708984
2016-09-23,42.037811279296875
2016-09-26,39.64874267578125
2016-09-27,40.21431350708008
2016-09-28,40.175315856933594
2016-09-29,39.71700668334961
2016-09-30,40.59461975097656
2016-10-03,41.38447570800781
2016-10-04,41.413726806640625
2016-10-05,40.867652893066406
2016-10-06,40.61411666870117
2016-10-07,39.86326599121094
2016-10-10,39.687744140625
2016-10-11,38.849143981933594
2016-10-12,39.14167785644531
2016-10-13,39.16117858886719
2016-10-14,39.1026725769043
2016-10-17,38.49808883666992
2016-10-18,39.30744552612305
2016-10-19,39.629241943359375
2016-10-20,39.1124267578125
2016-10-21,38.31281661987305
2016-10-24,38.020286560058594
2016-10-25,38.020286560058594
2016-10-26,37.9520263671875
2016-10-27,37.85450744628906
2016-10-28,37.844757080078125
2016-10-31,38.46883773803711
2016-11-01,37.82525634765625
2016-11-02,37.54246139526367
2016-11-03,37.69847869873047
2016-11-04,37.21091842651367
2016-11-07,37.81549835205078
2016-11-08,38.18605041503906
2016-11-09,38.4395866394043
2016-11-10,38.576107025146484
2016-11-11,38.137298583984375
2016-11-14,38.527339935302734
2016-11-15,38.92714309692383
2016-11-16,38.946651458740234
2016-11-17,39.1026725769043
2016-11-18,39.580482482910156
2016-11-21,39.736507415771484
2016-11-22,40.11680221557617
2016-11-23,39.89252853393555
2016-11-25,40.896907806396484
2016-11-28,40.311832427978516
2016-11-29,40.818904876708984
2016-11-30,40.2825813293457
2016-12-01,40.37034225463867
2016-12-02,40.11680221557617
2016-12-05,40.62387466430664
2016-12-06,40.34108352661133
2016-12-07,41.677005767822266
2016-12-08,41.23820877075195
2016-12-09,41.43323516845703
2016-12-12,42.0865592956543
2016-12-13,42.62288284301758
2016-12-14,42.43761444091797
2016-12-15,42.798404693603516
2016-12-16,42.73014831542969
2016-12-19,42.63263702392578
2016-12-20,42.749656677246094
2016-12-21,42.515621185302734
2016-12-22,42.56437301635742
2016-12-23,42.613136291503906
2016-12-27,42.69114685058594
2016-12-28,42.50587463378906
2016-12-29,42.84716796875
2016-12-30,43.22746658325195
2017-01-03,44.027076721191406
2017-01-04,44.602394104003906
2017-01-05,44.816932678222656
2017-01-06,43.841796875
2017-01-09,43.900306701660156
2017-01-10,44.592647552490234
2017-01-11,44.699920654296875
2017-01-12,44.592647552490234
2017-01-13,44.729164123535156
2017-01-17,44.56339645385742
2017-01-18,45.06070327758789
2017-01-19,45.0802116394043
2017-01-20,45.13872146606445
2017-01-23,45.17771911621094
2017-01-24,45.314239501953125
2017-01-25,45.733551025390625
2017-01-26,45.9188232421875
2017-01-27,46.2503662109375
2017-01-30,45.314239501953125
2017-01-31,45.27523422241211
2017-02-01,45.4215087890625
2017-02-02,45.29473876953125
2017-02-03,45.49951934814453
2017-02-06,45.509273529052734
2017-02-07,46.006591796875
2017-02-08,45.90907287597656
2017-02-09,46.04558563232422
2017-02-10,46.24061584472656
2017-02-13,46.69892501831055
2017-02-14,46.68917465209961
2017-02-15,46.59165954589844
2017-02-16,47.12797927856445
2017-02-17,47.00121307373047
2017-02-21,47.410770416259766
2017-02-22,45.899322509765625
2017-02-23,46.03583908081055
2017-02-24,45.899322509765625
2017-02-27,45.92856979370117
2017-02-28,45.87006378173828
2017-03-01,46.24061584472656
2017-03-02,46.152854919433594
2017-03-03,46.006591796875
2017-03-06,45.606781005859375
2017-03-07,45.22648239135742
2017-03-08,45.44101333618164
2017-03-09,45.58727264404297
2017-03-10,45.7432975769043
2017-03-13,45.957828521728516
2017-03-14,45.66529083251953
2017-03-15,46.396629333496094
2017-03-16,46.65991973876953
2017-03-17,47.03046798706055
2017-03-20,46.76718521118164
2017-03-21,46.80619430541992
2017-03-22,46.221107482910156
2017-03-23,46.835445404052734
2017-03-24,46.80619430541992
2017-03-27,46.95246124267578
2017-03-28,46.87445068359375
2017-03-29,46.70867919921875
2017-03-30,47.83982467651367
2017-03-31,47.71305847167969
2017-04-03,47.37176513671875
2017-04-04,47.08897399902344
2017-04-05,47.1669921875
2017-04-06,47.39126968383789
2017-04-07,47.44977951049805
2017-04-10,47.46928024291992
2017-04-11,47.9178352355957
2017-04-12,47.87883377075195
2017-04-13,47.781314849853516
2017-04-17,48.03485107421875
2017-04-18,48.02510070800781
2017-04-19,47.995849609375
2017-04-20,48.61017990112305
2017-04-21,48.85395812988281
2017-04-24,49.36103057861328
2017-04-25,49.819339752197266
2017-04-26,50.6482048034668
2017-04-27,51.2235221862793
2017-04-28,51.47705841064453
2017-05-01,51.53556823730469
2017-05-02,52.042633056640625
2017-05-03,52.45716094970703
2017-05-04,53.3256950378418
2017-05-05,52.80259704589844
2017-05-08,51.070472717285156
2017-05-09,51.79774856567383
2017-05-10,51.99610137939453
2017-05-11,51.92998504638672
2017-05-12,51.95832061767578
2017-05-15,51.73163604736328
2017-05-16,52.23222732543945
2017-05-17,51.5143928527832
2017-05-18,52.26057052612305
2017-05-19,52.53447723388672
2017-05-22,52.71393585205078
2017-05-23,52.62893295288086
2017-05-24,52.88395690917969
2017-05-25,53.29954528808594
2017-05-26,52.83672332763672
2017-05-30,52.94062805175781
2017-05-31,53.403438568115234
2017-06-01,54.09294509887695
2017-06-02,54.4613151550293
2017-06-05,53.913490295410156
2017-06-06,54.01738357543945
2017-06-07,54.19684600830078
2017-06-08,53.68680191040039
2017-06-09,53.1011962890625
2017-06-12,52.3739128112793
2017-06-13,53.18620300292969
2017-06-14,53.20509338378906
2017-06-15,52.052772521972656
2017-06-16,53.54512023925781
2017-06-19,53.1011962890625
2017-06-20,52.52503204345703
2017-06-21,52.71393585205078
2017-06-22,52.65726089477539
2017-06-23,52.9028434753418
2017-06-26,53.025634765625
2017-06-27,52.4494743347168
2017-06-28,52.61948776245117
2017-06-29,52.166114807128906
2017-06-30,52.4494743347168
2017-07-03,52.014984130859375
2017-07-05,52.2700080871582
2017-07-06,51.911094665527344
2017-07-07,51.98665237426758
2017-07-10,52.26057052612305
2017-07-11,51.41049575805664
2017-07-12,52.41169357299805
2017-07-13,52.56281661987305
2017-07-14,52.9784049987793
2017-07-17,53.08230209350586
2017-07-18,53.327880859375
2017-07-19,53.157867431640625
2017-07-20,53.1484260559082
2017-07-21,53.19564437866211
2017-07-24,53.19564437866211
2017-07-25,53.611236572265625
2017-07-26,53.89459228515625
2017-07-27,53.630126953125
2017-07-28,53.479000091552734
2017-07-31,53.611236572265625
2017-08-01,53.77180862426758
2017-08-02,53.6017951965332
2017-08-03,53.30899429321289
2017-08-04,53.78125
2017-08-07,53.87570571899414
2017-08-08,51.78830337524414
2017-08-09,51.127140045166016
2017-08-10,49.22864532470703
2017-08-11,49.0491828918457
2017-08-14,49.10585021972656
2017-08-15,48.52024841308594
2017-08-16,48.95472717285156
2017-08-17,48.1991081237793
2017-08-18,47.7174072265625
2017-08-21,47.80241012573242
2017-08-22,47.651283264160156
2017-08-23,47.01845169067383
2017-08-24,46.84843444824219
2017-08-25,46.90510940551758
2017-08-28,46.90510940551758
2017-08-29,46.687870025634766
2017-08-30,47.125267028808594
2017-08-31,47.733829498291016
2017-09-01,47.866947174072266
2017-09-05,47.10624694824219
2017-09-06,46.72589874267578
2017-09-07,47.08723449707031
2017-09-08,47.286922454833984
2017-09-11,47.70530319213867
2017-09-12,47.9715461730957
2017-09-13,47.9715461730957
2017-09-14,47.80989456176758
2017-09-15,47.401023864746094
2017-09-18,47.61021041870117
2017-09-19,47.83842086791992
2017-09-20,48.08564758300781
2017-09-21,48.171226501464844
2017-09-22,48.979469299316406
2017-09-25,48.86536407470703
2017-09-26,49.0555419921875
2017-09-27,49.08406448364258
2017-09-28,50.34872817993164
2017-09-29,50.29167556762695
2017-10-02,50.2441291809082
2017-10-03,50.36774826049805
2017-10-04,50.5103759765625
2017-10-05,50.50086212158203
2017-10-06,50.938270568847656
2017-10-09,51.41371154785156
2017-10-10,51.56584548950195
2017-10-11,51.584861755371094
2017-10-12,51.73699951171875
2017-10-13,51.97471618652344
2017-10-16,51.651424407958984
2017-10-17,51.56584548950195
2017-10-18,51.651424407958984
2017-10-19,51.56584548950195
2017-10-20,51.02384948730469
2017-10-23,51.11893844604492
2017-10-24,51.1474609375
2017-10-25,51.242549896240234
2017-10-26,52.07931900024414
2017-10-27,52.3265380859375
2017-10-30,52.66885757446289
2017-10-31,52.85902786254883
2017-11-01,53.37250518798828
2017-11-02,53.5056266784668
2017-11-03,54.3423957824707
2017-11-06,54.58961868286133
2017-11-07,53.809906005859375
2017-11-08,54.152217864990234
2017-11-09,53.714820861816406
2017-11-10,53.99057388305664
2017-11-13,53.581695556640625
2017-11-14,53.5056266784668
2017-11-15,52.992149353027344
2017-11-16,53.65776443481445
2017-11-17,53.77186965942383
2017-11-20,54.29484939575195
2017-11-21,54.58961868286133
2017-11-22,54.71323013305664
2017-11-24,55.06505584716797
2017-11-27,55.4359016418457
2017-11-28,55.61655807495117
2017-11-29,55.873294830322266
2017-11-30,55.77821731567383
2017-12-01,56.310707092285156
2017-12-04,56.4343147277832
2017-12-05,56.36775207519531
2017-12-06,56.310707092285156
2017-12-07,56.09199905395508
2017-12-08,56.805152893066406
2017-12-11,56.66252136230469
2017-12-12,56.28217697143555
2017-12-13,57.19500732421875
2017-12-14,57.36616897583008
2017-12-15,58.06981658935547
2017-12-18,58.8685417175293
2017-12-19,58.70689392089844
2017-12-20,58.773460388183594
2017-12-21,59.80990982055664
2017-12-22,59.924015045166016
2017-12-26,59.72433090209961
2017-12-27,60.247318267822266
2017-12-28,60.36141586303711
2017-12-29,60.38995361328125
2018-01-02,60.66570281982422
2018-01-03,60.427982330322266
2018-01-04,60.39945602416992
2018-01-05,60.161739349365234
2018-01-08,60.39945602416992
2018-01-09,60.55158996582031
2018-01-10,60.5230712890625
2018-01-11,61.492958068847656
2018-01-12,62.434326171875
2018-01-16,62.91926574707031
2018-01-17,63.48978805541992
2018-01-18,63.546844482421875
2018-01-19,65.19186401367188
2018-01-22,65.37252044677734
2018-01-23,65.51514434814453
2018-01-24,65.30596923828125
2018-01-25,64.5262451171875
2018-01-26,64.76396179199219
2018-01-29,64.1363754272461
2018-01-30,63.78456497192383
2018-01-31,63.77505111694336
2018-02-01,64.03178405761719
2018-02-02,62.06348419189453
2018-02-05,59.22037124633789
2018-02-06,60.80833435058594
2018-02-07,60.50404739379883
2018-02-08,59.11577224731445
2018-02-09,59.543663024902344
2018-02-12,60.37092208862305
2018-02-13,61.1696662902832
2018-02-14,62.025455474853516
2018-02-15,63.08091735839844
2018-02-16,62.66252899169922
2018-02-20,60.741764068603516
2018-02-21,61.702144622802734
2018-02-22,61.825767517089844
2018-02-23,61.95888900756836
2018-02-26,61.93035888671875
2018-02-27,61.96839904785156
2018-02-28,61.6070556640625
2018-03-01,59.1442985534668
2018-03-02,59.1442985534668
2018-03-05,59.48661804199219
2018-03-06,60.07615661621094
2018-03-07,59.924015045166016
2018-03-08,60.21879196166992
2018-03-09,61.093589782714844
2018-03-12,60.86537551879883
2018-03-13,60.741764068603516
2018-03-14,60.427982330322266
2018-03-15,60.3328971862793
2018-03-16,60.10468673706055
2018-03-19,60.51355743408203
2018-03-20,60.228294372558594
2018-03-21,60.08565902709961
2018-03-22,58.8685417175293
2018-03-23,57.66093444824219
2018-03-26,58.71641159057617
2018-03-27,57.955718994140625
2018-03-28,58.11736297607422
2018-03-29,58.20294189453125
2018-04-02,57.125465393066406
2018-04-03,57.49103927612305
2018-04-04,58.193321228027344
2018-04-05,58.49155044555664
2018-04-06,57.875850677490234
2018-04-09,58.1837043762207
2018-04-10,58.61661148071289
2018-04-11,58.47230911254883
2018-04-12,58.38572692871094
2018-04-13,58.000919342041016
2018-04-16,58.35686492919922
2018-04-17,59.54978561401367
2018-04-18,59.68446350097656
2018-04-19,59.87687683105469
2018-04-20,59.30928421020508
2018-04-23,59.626747131347656
2018-04-24,59.742191314697266
2018-04-25,59.64599609375
2018-04-26,60.858154296875
2018-04-27,60.896629333496094
2018-04-30,61.22372055053711
2018-05-01,61.425750732421875
2018-05-02,60.5503044128418
2018-05-03,61.04094314575195
2018-05-04,61.666263580322266
2018-05-07,62.07032012939453
2018-05-08,62.99386215209961
2018-05-09,63.49412536621094
2018-05-10,63.45563888549805
2018-05-11,62.52246856689453
2018-05-14,62.18575668334961
2018-05-15,61.76245880126953
2018-05-16,62.44549560546875
2018-05-17,62.4262580871582
2018-05-18,62.75335693359375
2018-05-21,63.243988037109375
2018-05-22,63.070823669433594
2018-05-23,62.68601608276367
2018-05-24,62.97462463378906
2018-05-25,62.98424530029297
2018-05-29,61.53157424926758
2018-05-30,62.36854553222656
2018-05-31,62.060691833496094
2018-06-01,62.676395416259766
2018-06-04,63.359432220458984
2018-06-05,63.397918701171875
2018-06-06,64.56197357177734
2018-06-07,63.62879943847656
2018-06-08,63.94627380371094
2018-06-11,64.29261016845703
2018-06-12,63.72500991821289
2018-06-13,63.86930465698242
2018-06-14,64.02324676513672
2018-06-15,63.94627380371094
2018-06-18,63.25361251831055
2018-06-19,62.2146110534668
2018-06-20,62.358917236328125
2018-06-21,61.27182388305664
2018-06-22,61.791324615478516
2018-06-25,60.81005096435547
2018-06-26,60.29055404663086
2018-06-27,60.3001708984375
2018-06-28,59.55940246582031
2018-06-29,60.29055404663086
2018-07-02,59.67484664916992
2018-07-03,59.88649368286133
2018-07-05,59.982704162597656
2018-07-06,60.3963737487793
2018-07-09,61.45460891723633
2018-07-10,61.72397994995117
2018-07-11,61.38726806640625
2018-07-12,62.195377349853516
2018-07-13,62.91691207885742
2018-07-16,62.83993148803711
2018-07-17,62.714866638183594
2018-07-18,63.06120681762695
2018-07-19,62.49360656738281
2018-07-20,62.89765548706055
2018-07-23,62.49360656738281
2018-07-24,62.65715026855469
2018-07-25,60.11738204956055
2018-07-26,59.617130279541016
2018-07-27,59.626747131347656
2018-07-30,59.9442138671875
2018-07-31,59.83839416503906
2018-08-01,59.742191314697266
2018-08-02,58.78015899658203
2018-08-03,59.241939544677734
2018-08-06,59.4920654296875
2018-08-07,57.115848541259766
2018-08-08,57.81813049316406
2018-08-09,58.91484832763672
2018-08-10,58.46268844604492
2018-08-13,58.30876541137695
2018-08-14,58.693580627441406
2018-08-15,57.789268493652344
2018-08-16,58.29914474487305
2018-08-17,58.95332717895508
2018-08-20,59.540164947509766
2018-08-21,59.34776306152344
2018-08-22,59.4920654296875
2018-08-23,58.78015899658203
2018-08-24,59.30928421020508
2018-08-27,59.92498016357422
2018-08-28,60.329036712646484
2018-08-29,60.819671630859375
2018-08-30,60.67743682861328
2018-08-31,60.10655975341797
2018-09-04,59.022865295410156
2018-09-05,58.69388198852539
2018-09-06,58.08429718017578
2018-09-07,58.210086822509766
2018-09-10,58.829341888427734
2018-09-11,58.79064178466797
2018-09-12,59.20670700073242
2018-09-13,59.39054870605469
2018-09-14,59.92271423339844
2018-09-17,59.28411102294922
2018-09-18,59.787254333496094
2018-09-19,59.76790237426758
2018-09-20,60.24202346801758
2018-09-21,60.5516471862793
2018-09-24,60.08720397949219
2018-09-25,60.309757232666016
2018-09-26,61.267669677734375
2018-09-27,61.093505859375
2018-09-28,60.75484085083008
2018-10-01,60.629058837890625
2018-10-02,60.35813522338867
2018-10-03,60.048500061035156
2018-10-04,58.393924713134766
2018-10-05,57.62953567504883
2018-10-08,57.397315979003906
2018-10-09,57.05865478515625
2018-10-10,55.26862335205078
2018-10-11,54.213951110839844
2018-10-12,54.775146484375
2018-10-15,53.70112991333008
2018-10-16,54.63001251220703
2018-10-17,54.02043533325195
2018-10-18,53.575340270996094
2018-10-19,51.7078971862793
2018-10-22,51.14669418334961
2018-10-23,51.11766815185547
2018-10-24,49.192169189453125
2018-10-25,50.517765045166016
2018-10-26,50.469383239746094
2018-10-29,50.092018127441406
2018-10-30,49.95656204223633
2018-10-31,52.017520904541016
2018-11-01,53.84626388549805
2018-11-02,53.33344650268555
2018-11-05,52.627105712890625
2018-11-06,51.53373336791992
2018-11-07,52.617431640625
2018-11-08,52.2207145690918
2018-11-09,51.58211135864258
2018-11-12,50.982208251953125
2018-11-13,52.21104431152344
2018-11-14,52.627105712890625
2018-11-15,52.801273345947266
2018-11-16,53.1689567565918
2018-11-19,52.11428451538086
2018-11-20,51.688541412353516
2018-11-21,52.917381286621094
2018-11-23,52.90770721435547
2018-11-26,53.85594177246094
2018-11-27,53.02381896972656
2018-11-28,54.33006286621094
2018-11-29,54.407466888427734
2018-11-30,53.14960479736328
2018-12-03,53.82691192626953
2018-12-04,52.27877426147461
2018-12-06,52.2884521484375
2018-12-07,51.85303497314453
2018-12-10,51.21442794799805
2018-12-11,51.320858001708984
2018-12-12,52.05622482299805
2018-12-13,51.785301208496094
2018-12-14,51.52405548095703
2018-12-17,51.39826583862305
2018-12-18,51.76595687866211
2018-12-19,51.02090835571289
2018-12-20,50.26618576049805
2018-12-21,49.42438888549805
2018-12-24,49.704994201660156
2018-12-26,51.35956573486328
2018-12-27,50.89512634277344
2018-12-28,51.85303497314453
2018-12-31,52.82062530517578
2019-01-02,51.82400131225586
2019-01-03,50.633872985839844
2019-01-04,52.917381286621094
2019-01-07,52.43358612060547
2019-01-08,53.80756378173828
2019-01-09,53.96237564086914
2019-01-10,53.83659362792969
2019-01-11,54.291358947753906
2019-01-14,53.816463470458984
2019-01-15,54.63128662109375
2019-01-16,54.4395637512207
2019-01-17,55.00514602661133
2019-01-18,55.39817428588867
2019-01-22,54.880523681640625
2019-01-23,55.1489372253418
2019-01-24,55.35024642944336
2019-01-25,54.42997360229492
2019-01-28,54.976383209228516
2019-01-29,55.551551818847656
2019-01-30,56.24174880981445
2019-01-31,55.32148361206055
2019-02-01,55.503623962402344
2019-02-04,56.11713409423828
2019-02-05,56.7785758972168
2019-02-06,56.72105407714844
2019-02-07,56.08837127685547
2019-02-08,55.80078887939453
2019-02-11,55.89665222167969
2019-02-12,55.97334289550781
2019-02-13,57.03739929199219
2019-02-14,57.411258697509766
2019-02-15,57.967254638671875
2019-02-19,58.436973571777344
2019-02-20,57.948081970214844
2019-02-21,58.034358978271484
2019-02-22,58.42738723754883
2019-02-25,59.433929443359375
2019-02-26,59.779029846191406
2019-02-27,58.782073974609375
2019-02-28,57.967254638671875
2019-03-01,58.791664123535156
2019-03-04,58.23566436767578
2019-03-05,58.64786911010742
2019-03-06,58.22608184814453
2019-03-07,57.305809020996094
2019-03-08,57.09492111206055
2019-03-11,57.986427307128906
2019-03-12,57.78511428833008
2019-03-13,58.2069091796875
2019-03-14,58.360286712646484
2019-03-15,58.61911392211914
2019-03-18,59.07924270629883
2019-03-19,59.501033782958984
2019-03-20,58.82041931152344
2019-03-21,59.108001708984375
2019-03-22,58.149391174316406
2019-03-25,58.149391174316406
2019-03-26,58.39862823486328
2019-03-27,58.16856384277344
2019-03-28,58.82017517089844
2019-03-29,59.32515335083008
2019-04-01,59.83984375
2019-04-02,60.66529083251953
2019-04-03,61.50044631958008
2019-04-04,61.17026901245117
2019-04-05,61.53928756713867
2019-04-08,61.57813262939453
2019-04-09,61.15084457397461
2019-04-10,61.60726547241211
2019-04-11,62.10253143310547
2019-04-12,62.48126220703125
2019-04-15,62.48126220703125
2019-04-16,62.72404098510742
2019-04-17,63.19017791748047
2019-04-18,63.25815200805664
2019-04-22,63.2095947265625
2019-04-23,63.015377044677734
2019-04-24,62.937686920166016
2019-04-25,63.12220001220703
2019-04-26,63.46208572387695
2019-04-29,63.91850662231445
2019-04-30,64.20012664794922
2019-05-01,64.94788360595703
2019-05-02,64.37493133544922
2019-05-03,64.22926330566406
2019-05-06,63.7728385925293
2019-05-07,63.666015625
2019-05-08,63.4038200378418
2019-05-09,63.0348014831543
2019-05-10,62.76288604736328
2019-05-13,61.442176818847656
2019-05-14,62.11224365234375
2019-05-15,63.151329040527344
2019-05-16,63.18046188354492
2019-05-17,63.18046188354492
2019-05-20,62.335601806640625
2019-05-21,63.38439178466797
2019-05-22,63.91850662231445
2019-05-23,63.423240661621094
2019-05-24,63.73399353027344
2019-05-28,63.510643005371094
2019-05-29,62.7725944519043
2019-05-30,63.297000885009766
2019-05-31,63.2775764465332
2019-06-03,62.27732849121094
2019-06-04,62.694908142089844
2019-06-05,62.782310485839844
2019-06-06,63.19017791748047
2019-06-07,65.36546325683594
2019-06-10,65.10326385498047
2019-06-11,65.2100830078125
2019-06-12,65.19066619873047
2019-06-13,65.2586441040039
2019-06-14,65.1712417602539
2019-06-17,65.39459228515625
2019-06-18,65.15181732177734
2019-06-19,65.5596923828125
2019-06-20,65.37517547607422
2019-06-21,64.36521911621094
2019-06-24,65.30719757080078
2019-06-25,64.61771392822266
2019-06-26,64.78279113769531
2019-06-27,65.32662200927734
2019-06-28,64.94788360595703
2019-07-01,66.29772186279297
2019-07-02,65.39459228515625
2019-07-03,66.27831268310547
2019-07-05,66.2103271484375
2019-07-08,66.20062255859375
2019-07-09,65.8024673461914
2019-07-10,66.5405044555664
2019-07-11,66.46282196044922
2019-07-12,66.93865966796875
2019-07-15,67.65727996826172
2019-07-16,67.8806381225586
2019-07-17,67.69612884521484
2019-07-18,67.75439453125
2019-07-19,67.55046081542969
2019-07-22,67.28826904296875
2019-07-23,67.71556091308594
2019-07-24,68.2108154296875
2019-07-25,67.18144226074219
2019-07-26,68.1428451538086
2019-07-29,68.2108154296875
2019-07-30,68.31763458251953
2019-07-31,68.12342071533203
2019-08-01,66.3656997680664
2019-08-02,65.2100830078125
2019-08-05,62.83086395263672
2019-08-06,62.5783805847168
2019-08-07,63.063934326171875
2019-08-08,63.46208572387695
2019-08-09,63.65631103515625
2019-08-12,63.56890869140625
2019-08-13,63.297000885009766
2019-08-14,61.64611053466797
2019-08-15,60.99546813964844
2019-08-16,61.626686096191406
2019-08-19,61.937442779541016
2019-08-20,61.714088439941406
2019-08-21,62.12195587158203
2019-08-22,61.65582275390625
2019-08-23,60.95662307739258
2019-08-26,60.95662307739258
2019-08-27,61.199398040771484
2019-08-28,61.014888763427734
2019-08-29,60.95526885986328
2019-08-30,61.25823974609375
2019-09-03,60.83799362182617
2019-09-04,61.47325134277344
2019-09-05,61.1605110168457
2019-09-06,61.6687126159668
2019-09-09,60.96504592895508
2019-09-10,60.88685607910156
2019-09-11,61.9716796875
2019-09-12,60.6913948059082
2019-09-13,61.18982696533203
2019-09-16,60.202735900878906
2019-09-17,61.43415832519531
2019-09-18,61.131187438964844
2019-09-19,60.994361877441406
2019-09-20,60.437294006347656
2019-09-23,60.261375427246094
2019-09-24,60.789127349853516
2019-09-25,60.00727462768555
2019-09-26,60.32001495361328
2019-09-27,60.25160217285156
2019-09-30,60.8770866394043
2019-10-01,59.97795104980469
2019-10-02,58.19923400878906
2019-10-03,58.19923400878906
2019-10-04,58.50220489501953
2019-10-07,58.306739807128906
2019-10-08,57.388065338134766
2019-10-09,57.62261962890625
2019-10-10,58.023319244384766
2019-10-11,58.893131256103516
2019-10-14,57.8474006652832
2019-10-15,58.648799896240234
2019-10-16,58.92245101928711
2019-10-17,59.13745880126953
2019-10-18,57.12418746948242
2019-10-21,57.82785415649414
2019-10-22,56.83099365234375
2019-10-23,57.07532501220703
2019-10-24,58.0330924987793
2019-10-25,58.24810028076172
2019-10-28,58.541297912597656
2019-10-29,58.27742385864258
2019-10-30,58.7953987121582
2019-10-31,59.21564483642578
2019-11-01,59.567481994628906
2019-11-04,59.596797943115234
2019-11-05,60.2320556640625
2019-11-06,60.271148681640625
2019-11-07,60.39820098876953
2019-11-08,60.026817321777344
2019-11-11,60.15386962890625
2019-11-12,60.21250915527344
2019-11-13,59.9290885925293
2019-11-14,59.987728118896484
2019-11-15,60.01704788208008
2019-11-18,60.437294006347656
2019-11-19,60.61320877075195
2019-11-20,58.71721649169922
2019-11-21,58.62925720214844
2019-11-22,59.72385025024414
2019-11-25,61.4830207824707
2019-11-26,62.54829788208008
2019-11-27,63.87744903564453
2019-11-29,63.261741638183594
2019-12-02,62.90013122558594
2019-12-03,60.710941314697266
2019-12-04,61.05300521850586
2019-12-05,61.287559509277344
2019-12-06,62.049869537353516
2019-12-09,61.71757888793945
2019-12-10,61.62961959838867
2019-12-11,61.90326690673828
2019-12-12,63.05649948120117
2019-12-13,63.984954833984375
2019-12-16,65.10887145996094
2019-12-17,65.20660400390625
2019-12-18,65.54866027832031
2019-12-19,65.36296844482422
2019-12-20,65.52912139892578
2019-12-23,66.18392181396484
2019-12-24,66.22301483154297
2019-12-26,66.57484436035156
2019-12-27,66.70189666748047
2019-12-30,66.711669921875
2019-12-31,67.11236572265625
