Date,IMKTA
2007-12-31,16.958223342895508
2008-01-02,17.09848403930664
2008-01-03,16.35042381286621
2008-01-04,15.816097259521484
2008-01-07,16.938186645507812
2008-01-08,15.88288688659668
2008-01-09,17.87993812561035
2008-01-10,17.177644729614258
2008-01-11,17.291898727416992
2008-01-14,17.15748405456543
2008-01-15,16.801294326782227
2008-01-16,17.07012176513672
2008-01-17,16.25693702697754
2008-01-18,15.517682075500488
2008-01-22,15.652083396911621
2008-01-23,15.786495208740234
2008-01-24,15.275736808776855
2008-01-25,14.838898658752441
2008-01-28,15.242130279541016
2008-01-29,14.48944091796875
2008-01-30,14.812023162841797
2008-01-31,15.652083396911621
2008-02-01,15.853704452514648
2008-02-04,15.981389999389648
2008-02-05,15.558004379272461
2008-02-06,15.914185523986816
2008-02-07,16.055313110351562
2008-02-08,15.954511642456055
2008-02-11,16.23676872253418
2008-02-12,16.31742286682129
2008-02-13,16.942426681518555
2008-02-14,16.162851333618164
2008-02-15,16.303977966308594
2008-02-19,16.33757781982422
2008-02-20,16.438386917114258
2008-02-21,16.23005485534668
2008-02-22,16.23005485534668
2008-02-25,16.08892250061035
2008-02-26,16.398061752319336
2008-02-27,16.25693702697754
2008-02-28,16.223325729370117
2008-02-29,16.13596534729004
2008-03-03,15.799942016601562
2008-03-04,15.396711349487305
2008-03-05,15.309338569641113
2008-03-06,14.959866523742676
2008-03-07,14.523039817810059
2008-03-10,14.348305702209473
2008-03-11,14.946433067321777
2008-03-12,15.363104820251465
2008-03-13,15.564720153808594
2008-03-14,15.094280242919922
2008-03-17,14.68432903289795
2008-03-18,15.981389999389648
2008-03-19,15.77977466583252
2008-03-20,16.08892250061035
2008-03-24,16.519033432006836
2008-03-25,16.713932037353516
2008-03-26,16.78784942626953
2008-03-27,16.754253387451172
2008-03-28,16.485435485839844
2008-03-31,16.525754928588867
2008-04-01,17.762325286865234
2008-04-02,17.33221435546875
2008-04-03,16.619836807250977
2008-04-04,16.411500930786133
2008-04-07,16.539199829101562
2008-04-08,16.434324264526367
2008-04-09,16.366662979125977
2008-04-10,16.67112922668457
2008-04-11,15.73743724822998
2008-04-14,15.778033256530762
2008-04-15,15.872750282287598
2008-04-16,16.373432159423828
2008-04-17,16.082500457763672
2008-04-18,16.813220977783203
2008-04-21,16.42078971862793
2008-04-22,15.791560173034668
2008-04-23,15.196167945861816
2008-04-24,15.250296592712402
2008-04-25,15.101446151733398
2008-04-28,14.986428260803223
2008-04-29,15.196167945861816
2008-04-30,15.439739227294922
2008-05-01,15.250296592712402
2008-05-02,15.257059097290039
2008-05-05,15.378849983215332
2008-05-06,14.803744316101074
2008-05-07,15.304423332214355
2008-05-08,15.250296592712402
2008-05-09,15.392378807067871
2008-05-12,15.953947067260742
2008-05-13,16.346363067626953
2008-05-14,16.481687545776367
2008-05-15,16.887636184692383
2008-05-16,16.56287384033203
2008-05-19,16.52228355407715
2008-05-20,16.576404571533203
2008-05-21,16.01483917236328
2008-05-22,16.786155700683594
2008-05-23,16.427562713623047
2008-05-27,16.96883201599121
2008-05-28,16.684659957885742
2008-05-29,16.92823600769043
2008-05-30,16.481687545776367
2008-06-02,16.17045783996582
2008-06-03,16.393726348876953
2008-06-04,16.92823600769043
2008-06-05,17.246232986450195
2008-06-06,16.407255172729492
2008-06-09,16.52903938293457
2008-06-10,16.576404571533203
2008-06-11,16.2922420501709
2008-06-12,16.92823600769043
2008-06-13,17.327421188354492
2008-06-16,17.361251831054688
2008-06-17,17.4830322265625
2008-06-18,17.60481834411621
2008-06-19,17.807798385620117
2008-06-20,17.807798385620117
2008-06-23,17.225933074951172
2008-06-24,16.874109268188477
2008-06-25,17.083850860595703
2008-06-26,16.42078971862793
2008-06-27,16.434324264526367
2008-06-30,15.784804344177246
2008-07-01,16.13662338256836
2008-07-02,16.461389541625977
2008-07-03,16.0689640045166
2008-07-07,15.784804344177246
2008-07-08,16.83757209777832
2008-07-09,16.864826202392578
2008-07-10,16.98748779296875
2008-07-11,17.185091018676758
2008-07-14,17.328189849853516
2008-07-15,17.096506118774414
2008-07-16,17.66889190673828
2008-07-17,17.59394073486328
2008-07-18,16.898900985717773
2008-07-21,16.87845802307129
2008-07-22,17.40995979309082
2008-07-23,16.980669021606445
2008-07-24,16.517309188842773
2008-07-25,17.03518295288086
2008-07-28,16.83757209777832
2008-07-29,16.967041015625
2008-07-30,16.817138671875
2008-07-31,16.571823120117188
2008-08-01,16.817138671875
2008-08-04,16.38784408569336
2008-08-05,17.205533981323242
2008-08-06,16.87845802307129
2008-08-07,16.353782653808594
2008-08-08,17.1169490814209
2008-08-11,17.5734920501709
2008-08-12,17.38269805908203
2008-08-13,17.273672103881836
2008-08-14,17.532609939575195
2008-08-15,17.505352020263672
2008-08-18,17.416767120361328
2008-08-19,16.93977928161621
2008-08-20,16.65359115600586
2008-08-21,16.31289291381836
2008-08-22,16.353782653808594
2008-08-25,16.10846710205078
2008-08-26,16.19023895263672
2008-08-27,16.27881622314453
2008-08-28,17.03518295288086
2008-08-29,16.83757209777832
2008-09-02,16.864826202392578
2008-09-03,17.144207000732422
2008-09-04,17.0079288482666
2008-09-05,17.02155113220215
2008-09-08,17.239606857299805
2008-09-09,17.03518295288086
2008-09-10,17.55986976623535
2008-09-11,17.846057891845703
2008-09-12,17.375886917114258
2008-09-15,17.03518295288086
2008-09-16,16.932971954345703
2008-09-17,16.12209129333496
2008-09-18,16.231117248535156
2008-09-19,17.8051700592041
2008-09-22,17.253225326538086
2008-09-23,16.43553924560547
2008-09-24,16.34014320373535
2008-09-25,16.48324203491211
2008-09-26,16.346961975097656
2008-09-29,15.283964157104492
2008-09-30,15.556526184082031
2008-10-01,15.399801254272461
2008-10-02,14.77291202545166
2008-10-03,13.907524108886719
2008-10-06,12.878597259521484
2008-10-07,13.239485740661621
2008-10-08,12.249618530273438
2008-10-09,11.644699096679688
2008-10-10,11.933412551879883
2008-10-13,14.050622940063477
2008-10-14,13.528202056884766
2008-10-15,11.342240333557129
2008-10-16,12.717059135437012
2008-10-17,12.366477966308594
2008-10-20,13.239485740661621
2008-10-21,12.613940238952637
2008-10-22,12.160255432128906
2008-10-23,11.727190017700195
2008-10-24,11.80967903137207
2008-10-27,11.342240333557129
2008-10-28,12.283990859985352
2008-10-29,11.720314979553223
2008-10-30,12.304611206054688
2008-10-31,12.827044486999512
2008-11-03,12.861407279968262
2008-11-04,12.861407279968262
2008-11-05,12.119010925292969
2008-11-06,11.844045639038086
2008-11-07,11.679069519042969
2008-11-10,11.239127159118652
2008-11-11,10.964163780212402
2008-11-12,10.146146774291992
2008-11-13,10.99853515625
2008-11-14,10.139275550842285
2008-11-17,9.994919776916504
2008-11-18,9.761198043823242
2008-11-19,8.963805198669434
2008-11-20,8.290146827697754
2008-11-21,8.317641258239746
2008-11-24,8.022058486938477
2008-11-25,8.489495277404785
2008-11-26,8.819449424743652
2008-11-28,9.273139953613281
2008-12-01,8.991302490234375
2008-12-02,9.960550308227539
2008-12-03,10.59984016418457
2008-12-04,10.558591842651367
2008-12-05,11.005411148071289
2008-12-08,11.520964622497559
2008-12-09,10.936666488647461
2008-12-10,11.039777755737305
2008-12-11,10.957289695739746
2008-12-12,11.369736671447754
2008-12-15,10.366118431091309
2008-12-16,11.541589736938477
2008-12-17,11.624077796936035
2008-12-18,11.65157413482666
2008-12-19,11.1635103225708
2008-12-22,11.355987548828125
2008-12-23,11.115398406982422
2008-12-24,11.259747505187988
2008-12-26,11.3284912109375
2008-12-29,11.417856216430664
2008-12-30,11.692815780639648
2008-12-31,12.091514587402344
2009-01-02,12.421468734741211
2009-01-05,12.242738723754883
2009-01-06,12.086634635925293
2009-01-07,11.663389205932617
2009-01-08,11.649516105651855
2009-01-09,11.309535026550293
2009-01-12,11.122197151184082
2009-01-13,10.962618827819824
2009-01-14,10.754465103149414
2009-01-15,11.03893756866455
2009-01-16,10.837725639343262
2009-01-20,9.78309154510498
2009-01-21,9.727590560913086
2009-01-22,9.6790189743042
2009-01-23,10.067569732666016
2009-01-26,10.171647071838379
2009-01-27,10.164706230163574
2009-01-28,10.629576683044434
2009-01-29,10.303473472595215
2009-01-30,9.894107818603516
2009-02-02,10.712831497192383
2009-02-03,10.685080528259277
2009-02-04,10.456117630004883
2009-02-05,10.601819038391113
2009-02-06,11.524625778198242
2009-02-09,11.247086524963379
2009-02-10,10.914050102233887
2009-02-11,11.101384162902832
2009-02-12,11.045878410339355
2009-02-13,11.101384162902832
2009-02-17,11.045878410339355
2009-02-18,11.059752464294434
2009-02-19,10.93486499786377
2009-02-20,10.400609016418457
2009-02-23,9.97736644744873
2009-02-24,10.338165283203125
2009-02-25,9.54719066619873
2009-02-26,9.26271915435791
2009-02-27,9.422298431396484
2009-03-02,8.728462219238281
2009-03-03,8.37460708618164
2009-03-04,8.499495506286621
2009-03-05,7.937489986419678
2009-03-06,8.062379837036133
2009-03-09,7.694648742675781
2009-03-10,8.360730171203613
2009-03-11,8.221961975097656
2009-03-12,9.0337495803833
2009-03-13,9.505560874938965
2009-03-16,9.47780704498291
2009-03-17,10.032876014709473
2009-03-18,10.393671989440918
2009-03-19,10.601819038391113
2009-03-20,10.407549858093262
2009-03-23,11.19852066040039
2009-03-24,10.816911697387695
2009-03-25,11.101384162902832
2009-03-26,11.101384162902832
2009-03-27,10.789155960083008
2009-03-30,10.456117630004883
2009-03-31,10.358977317810059
2009-04-01,10.449177742004395
2009-04-02,11.10832405090332
2009-04-03,11.462178230285645
2009-04-06,10.851603507995605
2009-04-07,10.25905990600586
2009-04-08,10.378267288208008
2009-04-09,11.535307884216309
2009-04-13,11.71762752532959
2009-04-14,11.135601043701172
2009-04-15,11.324934959411621
2009-04-16,11.738663673400879
2009-04-17,12.082265853881836
2009-04-20,11.233774185180664
2009-04-21,11.647506713867188
2009-04-22,12.047207832336426
2009-04-23,11.54932975769043
2009-04-24,11.514266014099121
2009-04-27,11.409089088439941
2009-04-28,10.97431755065918
2009-04-29,11.521283149719238
2009-04-30,10.946269035339355
2009-05-01,10.756937026977539
2009-05-04,11.149626731872559
2009-05-05,10.693821907043457
2009-05-06,10.511502265930176
2009-05-07,10.700835227966309
2009-05-08,11.107549667358398
2009-05-11,11.079506874084473
2009-05-12,11.058467864990234
2009-05-13,10.55357837677002
2009-05-14,10.967306137084961
2009-05-15,10.30113410949707
2009-05-18,10.756937026977539
2009-05-19,10.567605018615723
2009-05-20,10.469428062438965
2009-05-21,10.336193084716797
2009-05-22,9.95051383972168
2009-05-26,10.511502265930176
2009-05-27,10.20997428894043
2009-05-28,10.08375358581543
2009-05-29,10.476441383361816
2009-06-01,11.170663833618164
2009-06-02,11.149626731872559
2009-06-03,10.799010276794434
2009-06-04,11.1776762008667
2009-06-05,11.226763725280762
2009-06-08,11.261823654174805
2009-06-09,11.233774185180664
2009-06-10,11.24779987335205
2009-06-11,11.219752311706543
2009-06-12,11.079506874084473
2009-06-15,10.567605018615723
2009-06-16,10.434370040893555
2009-06-17,10.343206405639648
2009-06-18,10.392295837402344
2009-06-19,10.231010437011719
2009-06-22,10.006613731384277
2009-06-23,9.845330238342285
2009-06-24,9.887404441833496
2009-06-25,10.048689842224121
2009-06-26,10.392295837402344
2009-06-29,10.700835227966309
2009-06-30,10.686814308166504
2009-07-01,10.834071159362793
2009-07-02,10.686814308166504
2009-07-06,10.707852363586426
2009-07-07,10.796459197998047
2009-07-08,10.952417373657227
2009-07-09,10.527082443237305
2009-07-10,10.633416175842285
2009-07-13,11.009129524230957
2009-07-14,11.01622200012207
2009-07-15,11.441558837890625
2009-07-16,11.384840965270996
2009-07-17,11.271419525146484
2009-07-20,11.491178512573242
2009-07-21,11.292685508728027
2009-07-22,11.583333969116211
2009-07-23,11.796001434326172
2009-07-24,11.73220443725586
2009-07-27,11.788912773132324
2009-07-28,11.796001434326172
2009-07-29,11.710936546325684
2009-07-30,12.249693870544434
2009-07-31,11.845625877380371
2009-08-03,11.285601615905762
2009-08-04,11.420289039611816
2009-08-05,11.413200378417969
2009-08-06,11.321043014526367
2009-08-07,11.51953411102295
2009-08-10,11.725114822387695
2009-08-11,11.689667701721191
2009-08-12,11.710936546325684
2009-08-13,11.760555267333984
2009-08-14,11.774734497070312
2009-08-17,11.576244354248047
2009-08-18,11.661311149597168
2009-08-19,11.888157844543457
2009-08-20,11.696757316589355
2009-08-21,12.086650848388672
2009-08-24,12.107914924621582
2009-08-25,11.923604011535645
2009-08-26,12.044113159179688
2009-08-27,12.008672714233398
2009-08-28,11.703847885131836
2009-08-31,11.689667701721191
2009-09-01,11.335219383239746
2009-09-02,11.030396461486816
2009-09-03,11.065838813781738
2009-09-04,11.22179889678955
2009-09-08,11.299776077270508
2009-09-09,11.313953399658203
2009-09-10,11.292685508728027
2009-09-11,11.002039909362793
2009-09-14,10.902792930603027
2009-09-15,10.987860679626465
2009-09-16,11.22179889678955
2009-09-17,11.51953411102295
2009-09-18,11.030396461486816
2009-09-21,10.931151390075684
2009-09-22,11.002039909362793
2009-09-23,11.19344425201416
2009-09-24,11.072930335998535
2009-09-25,11.335219383239746
2009-09-28,11.477001190185547
2009-09-29,11.37066650390625
2009-09-30,11.22179889678955
2009-10-01,10.994948387145996
2009-10-02,11.009129524230957
2009-10-05,11.129642486572266
2009-10-06,11.348148345947266
2009-10-07,11.376808166503906
2009-10-08,11.505762100219727
2009-10-09,11.570240020751953
2009-10-12,11.620392799377441
2009-10-13,11.627555847167969
2009-10-14,11.570240020751953
2009-10-15,11.627555847167969
2009-10-16,11.863977432250977
2009-10-19,11.906961441040039
2009-10-20,11.756512641906738
2009-10-21,11.369644165039062
2009-10-22,11.727855682373047
2009-10-23,11.2908353805542
2009-10-26,11.083069801330566
2009-10-27,11.047253608703613
2009-10-28,11.004268646240234
2009-10-29,11.111729621887207
2009-10-30,11.018595695495605
2009-11-02,11.090237617492676
2009-11-03,11.09740161895752
2009-11-04,10.88963794708252
2009-11-05,11.104565620422363
2009-11-06,11.090237617492676
2009-11-09,11.204866409301758
2009-11-10,11.2693452835083
2009-11-11,11.190537452697754
2009-11-12,10.896804809570312
2009-11-13,11.011431694030762
2009-11-16,11.663375854492188
2009-11-17,11.677703857421875
2009-11-18,11.65621280670166
2009-11-19,11.262178421020508
2009-11-20,11.262178421020508
2009-11-23,11.541584014892578
2009-11-24,11.677703857421875
2009-11-25,11.52725601196289
2009-11-27,11.068745613098145
2009-11-30,11.183372497558594
2009-12-01,11.376808166503906
2009-12-02,11.398298263549805
2009-12-03,10.968446731567383
2009-12-04,11.534422874450684
2009-12-07,11.004268646240234
2009-12-08,10.961280822753906
2009-12-09,10.939794540405273
2009-12-10,10.882475852966309
2009-12-11,10.868145942687988
2009-12-14,11.025758743286133
2009-12-15,10.903969764709473
2009-12-16,11.054417610168457
2009-12-17,10.84665584564209
2009-12-18,11.083069801330566
2009-12-21,11.054417610168457
2009-12-22,10.746356010437012
2009-12-23,10.9111328125
2009-12-24,10.853818893432617
2009-12-28,11.032923698425293
2009-12-29,11.104565620422363
2009-12-30,10.9111328125
2009-12-31,10.839488983154297
2010-01-04,10.868145942687988
2010-01-05,10.806583404541016
2010-01-06,10.748635292053223
2010-01-07,10.726905822753906
2010-01-08,10.748635292053223
2010-01-11,10.835553169250488
2010-01-12,10.6762056350708
2010-01-13,10.683450698852539
2010-01-14,10.6979341506958
2010-01-15,10.683450698852539
2010-01-19,10.712420463562012
2010-01-20,10.690689086914062
2010-01-21,10.516860961914062
2010-01-22,10.444429397583008
2010-01-25,10.140223503112793
2010-01-26,10.335787773132324
2010-01-27,10.270601272583008
2010-01-28,10.169193267822266
2010-01-29,10.256111145019531
2010-02-01,10.096763610839844
2010-02-02,10.002606391906738
2010-02-03,9.763587951660156
2010-02-04,9.625967025756836
2010-02-05,9.683914184570312
2010-02-08,9.546296119689941
2010-02-09,9.669428825378418
2010-02-10,9.546296119689941
2010-02-11,9.72736930847168
2010-02-12,9.77807331085205
2010-02-16,9.72736930847168
2010-02-17,10.017093658447266
2010-02-18,10.140223503112793
2010-02-19,10.17643928527832
2010-02-22,10.34302806854248
2010-02-23,10.22713851928711
2010-02-24,10.263354301452637
2010-02-25,10.393730163574219
2010-02-26,10.205411911010742
2010-03-01,10.611019134521484
2010-03-02,10.647234916687012
2010-03-03,10.574804306030273
2010-03-04,10.393730163574219
2010-03-05,10.668966293334961
2010-03-08,10.618263244628906
2010-03-09,10.574804306030273
2010-03-10,10.741393089294434
2010-03-11,10.748635292053223
2010-03-12,10.770365715026855
2010-03-15,10.705179214477539
2010-03-16,10.799338340759277
2010-03-17,10.90798282623291
2010-03-18,10.958683013916016
2010-03-19,10.821066856384277
2010-03-22,10.893497467041016
2010-03-23,10.864524841308594
2010-03-24,10.770365715026855
2010-03-25,10.799338340759277
2010-03-26,10.965928077697754
2010-03-29,10.84279727935791
2010-03-30,10.922468185424805
2010-03-31,10.886251449584961
2010-04-01,10.944195747375488
2010-04-05,11.378780364990234
2010-04-06,11.382437705993652
2010-04-07,11.382437705993652
2010-04-08,11.35315990447998
2010-04-09,11.162840843200684
2010-04-12,11.228721618652344
2010-04-13,11.462961196899414
2010-04-14,11.477602005004883
2010-04-15,11.543478012084961
2010-04-16,11.492237091064453
2010-04-19,11.404398918151855
2010-04-20,12.304746627807617
2010-04-21,12.22422981262207
2010-04-22,12.268147468566895
2010-04-23,12.414544105529785
2010-04-26,11.88751220703125
2010-04-27,11.916790962219238
2010-04-28,11.982670783996582
2010-04-29,12.077828407287598
2010-04-30,11.733795166015625
2010-05-03,11.828951835632324
2010-05-04,11.265320777893066
2010-05-05,11.060364723205566
2010-05-06,10.687049865722656
2010-05-07,10.350336074829102
2010-05-10,10.943246841430664
2010-05-11,11.265320777893066
2010-05-12,11.57275676727295
2010-05-13,11.59471607208252
2010-05-14,11.440999984741211
2010-05-17,11.426361083984375
2010-05-18,11.18480110168457
2010-05-19,11.250683784484863
2010-05-20,10.899325370788574
2010-05-21,11.111600875854492
2010-05-24,10.906645774841309
2010-05-25,10.862727165222168
2010-05-26,10.965206146240234
2010-05-27,11.199442863464355
2010-05-28,11.118921279907227
2010-06-01,10.884684562683105
2010-06-02,11.170162200927734
2010-06-03,11.18480110168457
2010-06-04,10.709009170532227
2010-06-07,10.767566680908203
2010-06-08,10.745609283447266
2010-06-09,10.672409057617188
2010-06-10,10.877365112304688
2010-06-11,11.067683219909668
2010-06-14,10.862727165222168
2010-06-15,11.301919937133789
2010-06-16,11.287281036376953
2010-06-17,11.411718368530273
2010-06-18,11.360480308532715
2010-06-21,11.214080810546875
2010-06-22,11.170162200927734
2010-06-23,11.279959678649902
2010-06-24,11.096964836120605
2010-06-25,11.733795166015625
2010-06-28,11.638630867004395
2010-06-29,11.199442863464355
2010-06-30,11.016443252563477
2010-07-01,10.965206146240234
2010-07-02,10.899325370788574
2010-07-06,10.869383811950684
2010-07-07,11.213730812072754
2010-07-08,11.273614883422852
2010-07-09,11.453274726867676
2010-07-12,11.340989112854004
2010-07-13,11.782649993896484
2010-07-14,11.580533027648926
2010-07-15,11.498188972473145
2010-07-16,11.22869873046875
2010-07-19,11.385903358459473
2010-07-20,11.595504760742188
2010-07-21,11.236186027526855
2010-07-22,11.73025131225586
2010-07-23,11.91739559173584
2010-07-26,12.194371223449707
2010-07-27,12.141963958740234
2010-07-28,12.067112922668457
2010-07-29,12.261741638183594
2010-07-30,12.171914100646973
2010-08-02,12.149453163146973
2010-08-03,11.954825401306152
2010-08-04,12.20934009552002
2010-08-05,11.932363510131836
2010-08-06,12.179399490356445
2010-08-09,12.344084739685059
2010-08-10,12.104540824890137
2010-08-11,11.490705490112305
2010-08-12,11.393388748168945
2010-08-13,11.131383895874023
2010-08-16,11.243673324584961
2010-08-17,11.348475456237793
2010-08-18,11.303563117980957
2010-08-19,10.876869201660156
2010-08-20,10.734638214111328
2010-08-23,10.58492374420166
2010-08-24,10.629834175109863
2010-08-25,10.966697692871094
2010-08-26,10.802009582519531
2010-08-27,11.176301956176758
2010-08-30,10.876869201660156
2010-08-31,10.9966402053833
2010-09-01,11.842535972595215
2010-09-02,11.745221138000488
2010-09-03,11.91739559173584
2010-09-07,11.632935523986816
2010-09-08,11.76019287109375
2010-09-09,11.595504760742188
2010-09-10,11.617962837219238
2010-09-13,12.082083702087402
2010-09-14,12.186884880065918
2010-09-15,12.179399490356445
2010-09-16,12.067112922668457
2010-09-17,11.894938468933105
2010-09-20,12.201854705810547
2010-09-21,12.074596405029297
2010-09-22,11.992253303527832
2010-09-23,11.962310791015625
2010-09-24,12.374030113220215
2010-09-27,12.321625709533691
2010-09-28,12.441399574279785
2010-09-29,12.591120719909668
2010-09-30,12.433919906616211
2010-10-01,12.486312866210938
2010-10-04,12.448887825012207
2010-10-05,13.042410850524902
2010-10-06,13.027289390563965
2010-10-07,12.762663841247559
2010-10-08,13.095335960388184
2010-10-11,12.944123268127441
2010-10-12,13.065092086791992
2010-10-13,13.480938911437988
2010-10-14,13.556543350219727
2010-10-15,13.700200080871582
2010-10-18,14.237019538879395
2010-10-19,13.639719009399414
2010-10-20,14.040440559387207
2010-10-21,13.601913452148438
2010-10-22,13.662398338317871
2010-10-25,13.753130912780762
2010-10-26,13.919463157653809
2010-10-27,13.692644119262695
2010-10-28,13.843855857849121
2010-10-29,13.88166332244873
2010-11-01,13.677522659301758
2010-11-02,14.433600425720215
2010-11-03,14.335311889648438
2010-11-04,15.023343086242676
2010-11-05,15.015789985656738
2010-11-08,14.962862014770508
2010-11-09,14.81164264678955
2010-11-10,15.076275825500488
2010-11-11,14.849444389343262
2010-11-12,14.667986869812012
2010-11-15,14.993102073669434
2010-11-16,14.448724746704102
2010-11-17,14.199213981628418
2010-11-18,14.297506332397461
2010-11-19,14.12360954284668
2010-11-22,14.070682525634766
2010-11-23,13.82873821258545
2010-11-24,14.637744903564453
2010-11-26,14.501651763916016
2010-11-29,14.138727188110352
2010-11-30,14.10092544555664
2010-12-01,14.562134742736816
2010-12-02,14.24457836151123
2010-12-03,14.168971061706543
2010-12-06,15.386261940002441
2010-12-07,15.197245597839355
2010-12-08,15.257730484008789
2010-12-09,15.204806327819824
2010-12-10,15.272851943969727
2010-12-13,15.219923973083496
2010-12-14,15.31065559387207
2010-12-15,15.204806327819824
2010-12-16,15.280410766601562
2010-12-17,15.129196166992188
2010-12-20,15.053590774536133
2010-12-21,15.015789985656738
2010-12-22,15.151883125305176
2010-12-23,14.917495727539062
2010-12-27,15.046029090881348
2010-12-28,14.781402587890625
2010-12-29,14.872127532958984
2010-12-30,14.781402587890625
2010-12-31,14.516769409179688
2011-01-03,15.03090763092041
2011-01-04,14.302801132202148
2011-01-05,14.241812705993652
2011-01-06,14.371420860290527
2011-01-07,14.272305488586426
2011-01-10,14.584895133972168
2011-01-11,14.661136627197266
2011-01-12,14.905111312866211
2011-01-13,15.12621021270752
2011-01-14,14.851739883422852
2011-01-18,14.653512001037598
2011-01-19,13.852983474731445
2011-01-20,14.013089179992676
2011-01-21,13.830110549926758
2011-01-24,15.01947021484375
2011-01-25,15.03471851348877
2011-01-26,15.049968719482422
2011-01-27,14.988972663879395
2011-01-28,14.325676918029785
2011-01-31,14.76787281036377
2011-02-01,15.217698097229004
2011-02-02,15.118587493896484
2011-02-03,15.149077415466309
2011-02-04,15.065217971801758
2011-02-07,15.23294448852539
2011-02-08,15.248194694519043
2011-02-09,15.240569114685059
2011-02-10,15.171955108642578
2011-02-11,15.309185028076172
2011-02-14,15.164323806762695
2011-02-15,15.12621021270752
2011-02-16,15.01947021484375
2011-02-17,15.095717430114746
2011-02-18,14.996597290039062
2011-02-22,14.493408203125
2011-02-23,14.17319393157959
2011-02-24,14.218939781188965
2011-02-25,14.462912559509277
2011-02-28,14.661136627197266
2011-03-01,14.386670112609863
2011-03-02,14.287556648254395
2011-03-03,14.775495529174805
2011-03-04,14.577274322509766
2011-03-07,14.142696380615234
2011-03-08,14.295183181762695
2011-03-09,14.745001792907715
2011-03-10,14.310430526733398
2011-03-11,14.17319393157959
2011-03-14,14.058835983276367
2011-03-15,13.906355857849121
2011-03-16,13.791993141174316
2011-03-17,13.769119262695312
2011-03-18,14.15794849395752
2011-03-21,14.9356050491333
2011-03-22,14.981351852416992
2011-03-23,15.156702041625977
2011-03-24,15.095717430114746
2011-03-25,15.118587493896484
2011-03-28,14.653512001037598
2011-03-29,14.920354843139648
2011-03-30,15.210076332092285
2011-03-31,15.1033353805542
2011-04-01,15.03471851348877
2011-04-04,14.828868865966797
2011-04-05,14.725062370300293
2011-04-06,15.00956916809082
2011-04-07,14.725062370300293
2011-04-08,14.156048774719238
2011-04-11,14.156048774719238
2011-04-12,13.917680740356445
2011-04-13,14.179121017456055
2011-04-14,14.0407133102417
2011-04-15,14.50207233428955
2011-04-18,14.102229118347168
2011-04-19,13.98689079284668
2011-04-20,14.432869911193848
2011-04-21,14.279082298278809
2011-04-25,14.371355056762695
2011-04-26,14.65585994720459
2011-04-27,14.71737289428711
2011-04-28,14.625103950500488
2011-04-29,14.617413520812988
2011-05-02,14.056092262268066
2011-05-03,14.263700485229492
2011-05-04,14.0714693069458
2011-05-05,14.017641067504883
2011-05-06,14.0637845993042
2011-05-09,13.925372123718262
2011-05-10,14.678925514221191
2011-05-11,14.294456481933594
2011-05-12,14.663548469543457
2011-05-13,14.340592384338379
2011-05-16,14.048398971557617
2011-05-17,13.763896942138672
2011-05-18,13.940752983093262
2011-05-19,13.763896942138672
2011-05-20,14.302145004272461
2011-05-23,13.694689750671387
2011-05-24,13.471698760986328
2011-05-25,13.348674774169922
2011-05-26,13.448634147644043
2011-05-27,13.417880058288574
2011-05-31,13.687005043029785
2011-06-01,13.110300064086914
2011-06-02,13.110300064086914
2011-06-03,12.648942947387695
2011-06-06,12.610498428344727
2011-06-07,12.887312889099121
2011-06-08,12.487465858459473
2011-06-09,12.441332817077637
2011-06-10,12.233718872070312
2011-06-13,12.133760452270508
2011-06-14,12.441332817077637
2011-06-15,12.333684921264648
2011-06-16,13.064164161682129
2011-06-17,12.987273216247559
2011-06-20,13.056477546691895
2011-06-21,13.056477546691895
2011-06-22,12.795038223266602
2011-06-23,12.556672096252441
2011-06-24,12.279855728149414
2011-06-27,12.579742431640625
2011-06-28,12.833488464355469
2011-06-29,12.495157241821289
2011-06-30,12.725838661193848
2011-07-01,13.048789978027344
2011-07-05,13.037144660949707
2011-07-06,13.308914184570312
2011-07-07,13.487500190734863
2011-07-08,13.417619705200195
2011-07-11,13.207969665527344
2011-07-12,13.006082534790039
2011-07-13,13.184672355651855
2011-07-14,12.912906646728516
2011-07-15,13.013846397399902
2011-07-18,12.912906646728516
2011-07-19,13.316673278808594
2011-07-20,13.138086318969727
2011-07-21,13.176909446716309
2011-07-22,13.060439109802246
2011-07-25,12.936198234558105
2011-07-26,12.687725067138672
2011-07-27,12.353836059570312
2011-07-28,12.043242454528809
2011-07-29,11.957832336425781
2011-08-01,12.56348705291748
2011-08-02,12.353836059570312
2011-08-03,12.555723190307617
2011-08-04,12.415955543518066
2011-08-05,12.214071273803711
2011-08-08,11.2822904586792
2011-08-09,12.30724811553955
2011-08-10,11.02605152130127
2011-08-11,11.25123405456543
2011-08-12,11.11146354675293
2011-08-15,11.468647003173828
2011-08-16,11.290057182312012
2011-08-17,11.429821014404297
2011-08-18,10.994990348815918
2011-08-19,10.948400497436523
2011-08-22,10.948400497436523
2011-08-23,11.437589645385742
2011-08-24,11.422057151794434
2011-08-25,10.979463577270508
2011-08-26,11.142526626586914
2011-08-29,12.206305503845215
2011-08-30,11.911243438720703
2011-08-31,11.90347957611084
2011-09-01,11.359941482543945
2011-09-02,11.150287628173828
2011-09-06,11.204644203186035
2011-09-07,11.336647987365723
2011-09-08,11.134758949279785
2011-09-09,11.18134880065918
2011-09-12,11.18134880065918
2011-09-13,11.18134880065918
2011-09-14,11.18134880065918
2011-09-15,11.21240520477295
2011-09-16,11.189112663269043
2011-09-19,11.07264232635498
2011-09-20,11.002758979797363
2011-09-21,11.173583984375
2011-09-22,10.917344093322754
2011-09-23,10.956168174743652
2011-09-26,11.538528442382812
2011-09-27,11.390999794006348
2011-09-28,11.049346923828125
2011-09-29,11.344409942626953
2011-09-30,11.057110786437988
2011-10-03,10.909579277038574
2011-10-04,11.730646133422852
2011-10-05,11.219934463500977
2011-10-06,11.384934425354004
2011-10-07,11.141365051269531
2011-10-10,11.51064682006836
2011-10-11,11.754219055175781
2011-10-12,11.92707347869873
2011-10-13,11.934928894042969
2011-10-14,11.982074737548828
2011-10-17,11.67564582824707
2011-10-18,12.08421516418457
2011-10-19,11.801360130310059
2011-10-20,11.832793235778809
2011-10-21,11.903502464294434
2011-10-24,12.060643196105957
2011-10-25,11.424219131469727
2011-10-26,11.785646438598633
2011-10-27,11.691363334655762
2011-10-28,11.942789077758789
2011-10-31,11.864217758178711
2011-11-01,11.824929237365723
2011-11-02,12.060643196105957
2011-11-03,12.233498573303223
2011-11-04,12.08421516418457
2011-11-07,12.264927864074707
2011-11-08,12.2256441116333
2011-11-09,11.777786254882812
2011-11-10,12.390645980834961
2011-11-11,12.414214134216309
2011-11-14,12.005645751953125
2011-11-15,12.194214820861816
2011-11-16,12.03707218170166
2011-11-17,11.824929237365723
2011-11-18,11.958502769470215
2011-11-21,11.707073211669922
2011-11-22,11.384934425354004
2011-11-23,11.164937019348145
2011-11-25,11.141365051269531
2011-11-28,11.290647506713867
2011-11-29,11.259222030639648
2011-11-30,12.115645408630371
2011-12-01,11.714933395385742
2011-12-02,11.785646438598633
2011-12-05,11.785646438598633
2011-12-06,11.76993179321289
2011-12-07,11.919219017028809
2011-12-08,11.659934043884277
2011-12-09,11.762075424194336
2011-12-12,11.832793235778809
2011-12-13,11.636358261108398
2011-12-14,11.526363372802734
2011-12-15,11.824929237365723
2011-12-16,11.809216499328613
2011-12-19,11.785646438598633
2011-12-20,11.974215507507324
2011-12-21,11.832793235778809
2011-12-22,11.738503456115723
2011-12-23,11.777786254882812
2011-12-27,11.777786254882812
2011-12-28,11.762075424194336
2011-12-29,11.817075729370117
2011-12-30,11.832793235778809
2012-01-03,12.319931030273438
2012-01-04,12.284194946289062
2012-01-05,12.339780807495117
2012-01-06,12.26831340789795
2012-01-09,12.498594284057617
2012-01-10,12.633583068847656
2012-01-11,12.760635375976562
2012-01-12,12.768576622009277
2012-01-13,12.808279991149902
2012-01-17,13.03061294555664
2012-01-18,13.467354774475098
2012-01-19,13.578524589538574
2012-01-20,13.673810005187988
2012-01-23,13.935853004455566
2012-01-24,13.991438865661621
2012-01-25,13.85644817352295
2012-01-26,13.475296020507812
2012-01-27,13.808796882629395
2012-01-30,13.784980773925781
2012-01-31,13.848504066467285
2012-02-01,14.04702091217041
2012-02-02,14.04702091217041
2012-02-03,14.332880973815918
2012-02-06,14.309063911437988
2012-02-07,14.094667434692383
2012-02-08,14.142303466796875
2012-02-09,14.023200035095215
2012-02-10,13.951730728149414
2012-02-13,14.031142234802246
2012-02-14,13.888208389282227
2012-02-15,13.697632789611816
2012-02-16,14.070844650268555
2012-02-17,13.991438865661621
2012-02-21,13.935853004455566
2012-02-22,13.467354774475098
2012-02-23,13.689689636230469
2012-02-24,13.348243713378906
2012-02-27,14.340826034545898
2012-02-28,14.348766326904297
2012-02-29,14.189955711364746
2012-03-01,14.293182373046875
2012-03-02,13.800857543945312
2012-03-05,14.023200035095215
2012-03-06,13.673810005187988
2012-03-07,13.665867805480957
2012-03-08,13.872326850891113
2012-03-09,14.094667434692383
2012-03-12,14.118487358093262
2012-03-13,14.301121711730957
2012-03-14,14.182013511657715
2012-03-15,14.245535850524902
2012-03-16,14.13437271118164
2012-03-19,14.380529403686523
2012-03-20,14.094667434692383
2012-03-21,14.039080619812012
2012-03-22,14.015257835388184
2012-03-23,14.293182373046875
2012-03-26,14.515519142150879
2012-03-27,14.404349327087402
2012-03-28,14.221718788146973
2012-03-29,14.213777542114258
2012-03-30,14.007320404052734
2012-04-02,13.943796157836914
2012-04-03,13.619140625
2012-04-04,13.547002792358398
2012-04-05,13.57906723022461
2012-04-09,13.426765441894531
2012-04-10,13.066043853759766
2012-04-11,13.330570220947266
2012-04-12,13.57906723022461
2012-04-13,13.226362228393555
2012-04-16,13.266444206237793
2012-04-17,13.619140625
2012-04-18,13.330570220947266
2012-04-19,13.298505783081055
2012-04-20,13.434778213500977
2012-04-23,13.258426666259766
2012-04-24,13.763432502746582
2012-04-25,13.62716293334961
2012-04-26,13.771449089050293
2012-04-27,14.396692276000977
2012-04-30,13.939779281616211
2012-05-01,13.787482261657715
2012-05-02,14.011931419372559
2012-05-03,13.803512573242188
2012-05-04,13.723352432250977
2012-05-07,13.563034057617188
2012-05-08,14.003911972045898
2012-05-09,13.547002792358398
2012-05-10,13.667242050170898
2012-05-11,13.386686325073242
2012-05-14,13.066043853759766
2012-05-15,13.106123924255371
2012-05-16,12.71334171295166
2012-05-17,12.873662948608398
2012-05-18,12.849614143371582
2012-05-21,13.05001163482666
2012-05-22,12.793498039245605
2012-05-23,12.71334171295166
2012-05-24,12.657231330871582
2012-05-25,12.913739204406738
2012-05-29,12.520955085754395
2012-05-30,12.304527282714844
2012-05-31,12.512940406799316
2012-06-01,12.280476570129395
2012-06-04,12.264445304870605
2012-06-05,12.256427764892578
2012-06-06,12.70532512664795
2012-06-07,12.545005798339844
2012-06-08,12.504923820495605
2012-06-11,12.344606399536133
2012-06-12,12.649212837219238
2012-06-13,12.328574180603027
2012-06-14,12.601117134094238
2012-06-15,12.61715030670166
2012-06-18,12.561037063598633
2012-06-19,12.913739204406738
2012-06-20,12.881675720214844
2012-06-21,12.601117134094238
2012-06-22,12.977869987487793
2012-06-25,12.801517486572266
2012-06-26,12.729372024536133
2012-06-27,12.83358097076416
2012-06-28,12.360636711120605
2012-06-29,12.849614143371582
2012-07-02,13.12904167175293
2012-07-03,13.104742050170898
2012-07-05,13.242430686950684
2012-07-06,13.355819702148438
2012-07-09,13.242430686950684
2012-07-10,13.120940208435059
2012-07-11,13.137137413024902
2012-07-12,12.877959251403809
2012-07-13,12.886058807373047
2012-07-16,12.772668838500977
2012-07-17,12.748368263244629
2012-07-18,12.772668838500977
2012-07-19,12.586384773254395
2012-07-20,12.38389778137207
2012-07-23,12.100421905517578
2012-07-24,12.31910514831543
2012-07-25,12.294807434082031
2012-07-26,12.537786483764648
2012-07-27,12.715972900390625
2012-07-30,13.201931953430176
2012-07-31,13.250533103942871
2012-08-01,13.4611177444458
2012-08-02,13.525909423828125
2012-08-03,13.428712844848633
2012-08-06,13.477311134338379
2012-08-07,13.558303833007812
2012-08-08,13.347723007202148
2012-08-09,13.258630752563477
2012-08-10,13.282925605773926
2012-08-13,13.234333038330078
2012-08-14,13.234333038330078
2012-08-15,13.299125671386719
2012-08-16,13.27482795715332
2012-08-17,13.12904167175293
2012-08-20,13.153339385986328
2012-08-21,13.015647888183594
2012-08-22,13.112841606140137
2012-08-23,12.934656143188477
2012-08-24,12.918457984924316
2012-08-27,12.942755699157715
2012-08-28,12.98325252532959
2012-08-29,12.96705150604248
2012-08-30,12.918457984924316
2012-08-31,12.934656143188477
2012-09-04,12.934656143188477
2012-09-05,12.910356521606445
2012-09-06,12.958954811096191
2012-09-07,12.805066108703613
2012-09-10,12.942755699157715
2012-09-11,13.21003246307373
2012-09-12,13.420616149902344
2012-09-13,13.4611177444458
2012-09-14,13.525909423828125
2012-09-17,13.363921165466309
2012-09-18,13.380118370056152
2012-09-19,13.315326690673828
2012-09-20,13.193833351135254
2012-09-21,13.29102611541748
2012-09-24,13.29102611541748
2012-09-25,13.315326690673828
2012-09-26,13.363921165466309
2012-09-27,13.380118370056152
2012-09-28,13.242430686950684
2012-10-01,13.396315574645996
2012-10-02,13.201931953430176
2012-10-03,13.218133926391602
2012-10-04,13.177635192871094
2012-10-05,13.177635192871094
2012-10-08,13.137137413024902
2012-10-09,13.002126693725586
2012-10-10,13.067586898803711
2012-10-11,13.018491744995117
2012-10-12,12.87120532989502
2012-10-15,12.977579116821289
2012-10-16,12.953032493591309
2012-10-17,13.043038368225098
2012-10-18,12.805745124816895
2012-10-19,12.846658706665039
2012-10-22,13.059401512145996
2012-10-23,12.961214065551758
2012-10-24,12.863020896911621
2012-10-25,13.067586898803711
2012-10-26,13.05122184753418
2012-10-31,13.255786895751953
2012-11-01,13.313065528869629
2012-11-02,13.378521919250488
2012-11-05,13.452170372009277
2012-11-06,13.501262664794922
2012-11-07,13.05122184753418
2012-11-08,12.936664581298828
2012-11-09,13.002126693725586
2012-11-12,12.969396591186523
2012-11-13,12.953032493591309
2012-11-14,12.797560691833496
2012-11-15,12.576632499694824
2012-11-16,12.617547988891602
2012-11-19,13.12486457824707
2012-11-20,13.075769424438477
2012-11-21,13.108500480651855
2012-11-23,13.403070449829102
2012-11-26,13.321248054504395
2012-11-27,13.133048057556152
2012-11-28,13.272148132324219
2012-11-29,13.370342254638672
2012-11-30,13.32943058013916
2012-12-03,13.313065528869629
2012-12-04,13.427620887756348
2012-12-05,13.484895706176758
2012-12-06,13.427620887756348
2012-12-07,13.804023742675781
2012-12-10,13.787652969360352
2012-12-11,13.984037399291992
2012-12-12,14.000405311584473
2012-12-13,14.098589897155762
2012-12-14,14.254059791564941
2012-12-17,14.597726821899414
2012-12-18,14.859572410583496
2012-12-19,14.76956558227539
2012-12-20,14.915287971496582
2012-12-21,14.743849754333496
2012-12-24,14.743849754333496
2012-12-26,14.640984535217285
2012-12-27,14.735279083251953
2012-12-28,14.632414817810059
2012-12-31,14.795281410217285
2013-01-02,14.992441177368164
2013-01-03,15.05244255065918
2013-01-04,15.189597129821777
2013-01-07,15.18101978302002
2013-01-08,14.855287551879883
2013-01-09,14.838141441345215
2013-01-10,14.640984535217285
2013-01-11,14.53812026977539
2013-01-14,14.623842239379883
2013-01-15,14.821002006530762
2013-01-16,14.529552459716797
2013-01-17,14.598129272460938
2013-01-18,14.86385440826416
2013-01-22,15.18101978302002
2013-01-23,15.326748847961426
2013-01-24,15.326748847961426
2013-01-25,15.412466049194336
2013-01-28,16.10680389404297
2013-01-29,16.226804733276367
2013-01-30,16.252521514892578
2013-01-31,16.449684143066406
2013-02-01,16.818273544311523
2013-02-04,16.4582462310791
2013-02-05,16.50968360900879
2013-02-06,16.54397201538086
2013-02-07,16.501110076904297
2013-02-08,16.55254554748535
2013-02-11,16.64683723449707
2013-02-12,16.569684982299805
2013-02-13,16.569684982299805
2013-02-14,16.58683204650879
2013-02-15,16.595399856567383
2013-02-19,16.766843795776367
2013-02-20,16.449684143066406
2013-02-21,16.70684051513672
2013-02-22,16.801130294799805
2013-02-25,17.204021453857422
2013-02-26,17.426889419555664
2013-02-27,17.529752731323242
2013-02-28,17.624040603637695
2013-03-01,17.632612228393555
2013-03-04,17.769775390625
2013-03-05,17.786911010742188
2013-03-06,18.001211166381836
2013-03-07,17.906923294067383
2013-03-08,17.8126277923584
2013-03-11,17.76119613647461
2013-03-12,17.769775390625
2013-03-13,17.966917037963867
2013-03-14,18.086938858032227
2013-03-15,18.129793167114258
2013-03-18,18.592683792114258
2013-03-19,18.52410316467285
2013-03-20,18.558393478393555
2013-03-21,18.1983642578125
2013-03-22,18.46410369873047
2013-03-25,18.395524978637695
2013-03-26,18.249801635742188
2013-03-27,18.395524978637695
2013-03-28,18.41267204284668
2013-04-01,17.984066009521484
2013-04-02,18.41267204284668
2013-04-03,18.532682418823242
2013-04-04,18.46410369873047
2013-04-05,18.54124641418457
2013-04-08,18.558393478393555
2013-04-09,18.329486846923828
2013-04-10,18.735469818115234
2013-04-11,18.683643341064453
2013-04-12,18.735469818115234
2013-04-15,16.999265670776367
2013-04-16,17.72484016418457
2013-04-17,17.508893966674805
2013-04-18,17.785308837890625
2013-04-19,18.415874481201172
2013-04-22,18.389955520629883
2013-04-23,18.71819305419922
2013-04-24,18.830486297607422
2013-04-25,18.657730102539062
2013-04-26,18.20856475830078
2013-04-29,18.355405807495117
2013-04-30,18.415874481201172
2013-05-01,17.422515869140625
2013-05-02,18.251752853393555
2013-05-03,18.320852279663086
2013-05-06,18.13946533203125
2013-05-07,18.536794662475586
2013-05-08,18.389955520629883
2013-05-09,18.51088523864746
2013-05-10,18.59726333618164
2013-05-13,18.631813049316406
2013-05-14,18.726831436157227
2013-05-15,18.70955467224121
2013-05-16,18.43314552307129
2013-05-17,18.623178482055664
2013-05-20,18.830486297607422
2013-05-21,18.60590171813965
2013-05-22,17.9407901763916
2013-05-23,18.873676300048828
2013-05-24,19.063703536987305
2013-05-28,20.134798049926758
2013-05-29,19.970680236816406
2013-05-30,20.134798049926758
2013-05-31,19.020517349243164
2013-06-03,18.770021438598633
2013-06-04,19.029155731201172
2013-06-05,18.93414306640625
2013-06-06,19.167362213134766
2013-06-07,19.36602783203125
2013-06-10,20.108884811401367
2013-06-11,20.039783477783203
2013-06-12,19.616527557373047
2013-06-13,20.117528915405273
2013-06-14,19.720184326171875
2013-06-17,19.426498413085938
2013-06-18,20.368019104003906
2013-06-19,20.7221736907959
2013-06-20,19.91021156311035
2013-06-21,21.1195125579834
2013-06-24,21.110872268676758
2013-06-25,21.378650665283203
2013-06-26,21.845090866088867
2013-06-27,22.000572204589844
2013-06-28,21.810535430908203
2013-07-01,21.758710861206055
2013-07-02,21.79326057434082
2013-07-03,21.767353057861328
2013-07-05,21.560043334960938
2013-07-08,21.672332763671875
2013-07-09,21.885353088378906
2013-07-10,21.89405059814453
2013-07-11,22.37228012084961
2013-07-12,23.780872344970703
2013-07-15,23.546110153198242
2013-07-16,24.424306869506836
2013-07-17,24.19823455810547
2013-07-18,24.606903076171875
2013-07-19,24.624290466308594
2013-07-22,24.9981746673584
2013-07-23,24.659069061279297
2013-07-24,24.5808162689209
2013-07-25,25.180770874023438
2013-07-26,24.511255264282227
2013-07-29,24.563426971435547
2013-07-30,24.737333297729492
2013-07-31,24.74601936340332
2013-08-01,25.00687599182129
2013-08-02,22.37228012084961
2013-08-05,22.337501525878906
2013-08-06,22.363582611083984
2013-08-07,22.79833984375
2013-08-08,23.36351203918457
2013-08-09,23.267868041992188
2013-08-12,23.798267364501953
2013-08-13,23.554805755615234
2013-08-14,23.520023345947266
2013-08-15,22.82442283630371
2013-08-16,22.50270652770996
2013-08-19,21.763629913330078
2013-08-20,21.728857040405273
2013-08-21,21.659290313720703
2013-08-22,22.52009391784668
2013-08-23,22.163599014282227
2013-08-26,21.998395919799805
2013-08-27,21.415830612182617
2013-08-28,21.563642501831055
2013-08-29,21.74623680114746
2013-08-30,21.728857040405273
2013-09-03,24.250404357910156
2013-09-04,23.398292541503906
2013-09-05,23.16352653503418
2013-09-06,23.389602661132812
2013-09-09,23.911300659179688
2013-09-10,23.4417667388916
2013-09-11,23.22439193725586
2013-09-12,23.415687561035156
2013-09-13,23.45915412902832
2013-09-16,23.850439071655273
2013-09-17,24.128677368164062
2013-09-18,24.406917572021484
2013-09-19,24.28517723083496
2013-09-20,24.37213897705078
2013-09-23,24.754716873168945
2013-09-24,25.05034637451172
2013-09-25,24.485170364379883
2013-09-26,24.763410568237305
2013-09-27,24.711244583129883
2013-09-30,24.980791091918945
2013-10-01,24.380830764770508
2013-10-02,24.033031463623047
2013-10-03,23.467853546142578
2013-10-04,23.66783905029297
2013-10-07,23.38089942932129
2013-10-08,22.79037094116211
2013-10-09,22.676633834838867
2013-10-10,23.245296478271484
2013-10-11,23.796466827392578
2013-10-14,23.499011993408203
2013-10-15,23.324037551879883
2013-10-16,23.131567001342773
2013-10-17,23.070327758789062
2013-10-18,23.096567153930664
2013-10-21,22.755369186401367
2013-10-22,22.851606369018555
2013-10-23,22.799108505249023
2013-10-24,22.492908477783203
2013-10-25,23.184057235717773
2013-10-28,23.53400421142578
2013-10-29,23.770221710205078
2013-10-30,23.271549224853516
2013-10-31,22.580398559570312
2013-11-01,22.79037094116211
2013-11-04,22.904102325439453
2013-11-05,23.157814025878906
2013-11-06,23.052827835083008
2013-11-07,22.30044174194336
2013-11-08,23.131567001342773
2013-11-11,22.92159652709961
2013-11-12,23.105318069458008
2013-11-13,23.61274528503418
2013-11-14,23.096567153930664
2013-11-15,23.201557159423828
2013-11-18,22.501665115356445
2013-11-19,22.440420150756836
2013-11-20,22.30919075012207
2013-11-21,22.79037094116211
2013-11-22,23.16656494140625
2013-11-25,22.9653377532959
2013-11-26,23.184057235717773
2013-11-27,23.332782745361328
2013-11-29,22.982839584350586
2013-12-02,21.7755184173584
2013-12-03,21.6180362701416
2013-12-04,22.072973251342773
2013-12-05,21.25934410095215
2013-12-06,20.7169246673584
2013-12-09,22.20420265197754
2013-12-10,21.556793212890625
2013-12-11,21.355579376220703
2013-12-12,21.6442813873291
2013-12-13,21.548051834106445
2013-12-16,22.037979125976562
2013-12-17,22.501665115356445
2013-12-18,22.895347595214844
2013-12-19,22.711627960205078
2013-12-20,23.37653160095215
2013-12-23,23.691482543945312
2013-12-24,24.02393341064453
2013-12-26,23.953941345214844
2013-12-27,23.62149429321289
2013-12-30,23.551504135131836
2013-12-31,23.708984375
2014-01-02,23.481517791748047
2014-01-03,23.385276794433594
2014-01-06,23.45526885986328
2014-01-07,24.190309524536133
2014-01-08,23.574108123779297
2014-01-09,23.670934677124023
2014-01-10,23.662134170532227
2014-01-13,23.1779727935791
2014-01-14,23.750164031982422
2014-01-15,23.688547134399414
2014-01-16,23.450862884521484
2014-01-17,23.40685272216797
2014-01-21,23.389245986938477
2014-01-22,23.257205963134766
2014-01-23,23.274810791015625
2014-01-24,23.23959732055664
2014-01-27,23.626924514770508
2014-01-28,23.85580062866211
2014-01-29,23.899810791015625
2014-01-30,24.331159591674805
2014-01-31,23.92622184753418
2014-02-03,21.14451026916504
2014-02-04,20.378662109375
2014-02-05,19.727245330810547
2014-02-06,19.55999755859375
2014-02-07,19.59520721435547
2014-02-10,19.56879997253418
2014-02-11,19.59520721435547
2014-02-12,19.718442916870117
2014-02-13,20.096969604492188
2014-02-14,20.273033142089844
2014-02-18,20.545915603637695
2014-02-19,20.457887649536133
2014-02-20,20.730775833129883
2014-02-21,20.71316909790039
2014-02-24,20.528310775756836
2014-02-25,20.554719924926758
2014-02-26,20.625141143798828
2014-02-27,20.739582061767578
2014-02-28,20.669157028198242
2014-03-03,20.686763763427734
2014-03-04,21.18852424621582
2014-03-05,21.382190704345703
2014-03-06,21.302961349487305
2014-03-07,21.53183937072754
2014-03-10,21.60226058959961
2014-03-11,20.942049026489258
2014-03-12,21.012466430664062
2014-03-13,20.5371150970459
2014-03-14,20.98606300354004
2014-03-17,20.90683364868164
2014-03-18,21.24134635925293
2014-03-19,21.162120819091797
2014-03-20,20.880428314208984
2014-03-21,21.60226058959961
2014-03-24,21.461416244506836
2014-03-25,21.285358428955078
2014-03-26,20.898033142089844
2014-03-27,20.58993148803711
2014-03-28,20.58993148803711
2014-03-31,20.96845245361328
2014-04-01,21.285358428955078
2014-04-02,21.37339210510254
2014-04-03,21.36458396911621
2014-04-04,20.96845245361328
2014-04-07,20.80119514465332
2014-04-08,20.73471450805664
2014-04-09,21.01838493347168
2014-04-10,20.326934814453125
2014-04-11,20.105314254760742
2014-04-14,20.052122116088867
2014-04-15,19.830503463745117
2014-04-16,19.928020477294922
2014-04-17,20.078716278076172
2014-04-21,20.247150421142578
2014-04-22,20.309200286865234
2014-04-23,20.539684295654297
2014-04-24,20.557418823242188
2014-04-25,20.663799285888672
2014-04-28,20.770174026489258
2014-04-29,20.557418823242188
2014-04-30,20.380123138427734
2014-05-01,20.344663619995117
2014-05-02,23.083881378173828
2014-05-05,23.1104736328125
2014-05-06,23.61576271057129
2014-05-07,23.571447372436523
2014-05-08,23.145933151245117
2014-05-09,23.39414405822754
2014-05-12,24.129920959472656
2014-05-13,24.316082000732422
2014-05-14,24.076732635498047
2014-05-15,23.757600784301758
2014-05-16,23.65122413635254
2014-05-19,24.387001037597656
2014-05-20,23.314363479614258
2014-05-21,23.32322883605957
2014-05-22,23.677818298339844
2014-05-23,24.20970916748047
2014-05-27,24.555437088012695
2014-05-28,24.511106491088867
2014-05-29,24.20970916748047
2014-05-30,23.243444442749023
2014-06-02,23.19911766052246
2014-06-03,22.773611068725586
2014-06-04,22.862262725830078
2014-06-05,24.094467163085938
2014-06-06,24.050142288208008
2014-06-09,24.413599014282227
2014-06-10,24.3692684173584
2014-06-11,24.005815505981445
2014-06-12,24.076732635498047
2014-06-13,23.810792922973633
2014-06-16,24.041276931762695
2014-06-17,24.10332679748535
2014-06-18,23.810792922973633
2014-06-19,23.52712059020996
2014-06-20,23.32322883605957
2014-06-23,23.287769317626953
2014-06-24,23.039552688598633
2014-06-25,23.80192756652832
2014-06-26,23.26117706298828
2014-06-27,23.37641716003418
2014-06-30,23.358686447143555
2014-07-01,23.952634811401367
2014-07-02,23.881711959838867
2014-07-03,24.16538429260254
2014-07-07,23.52712059020996
2014-07-08,23.263973236083984
2014-07-09,23.13016700744629
2014-07-10,23.067726135253906
2014-07-11,22.95176887512207
2014-07-14,23.21044921875
2014-07-15,23.058805465698242
2014-07-16,23.495893478393555
2014-07-17,23.094486236572266
2014-07-18,23.486970901489258
2014-07-21,23.19260597229004
2014-07-22,23.148006439208984
2014-07-23,23.067726135253906
2014-07-24,22.880395889282227
2014-07-25,22.514671325683594
2014-07-28,22.309505462646484
2014-07-29,22.389785766601562
2014-07-30,22.29166603088379
2014-07-31,21.872417449951172
2014-08-01,21.99730110168457
2014-08-04,21.390724182128906
2014-08-05,21.67616844177246
2014-08-06,21.82781410217285
2014-08-07,22.00621795654297
2014-08-08,22.20246124267578
2014-08-11,22.57711410522461
2014-08-12,22.363027572631836
2014-08-13,22.238147735595703
2014-08-14,22.27382469177246
2014-08-15,22.238147735595703
2014-08-18,22.60387420654297
2014-08-19,22.478992462158203
2014-08-20,22.300586700439453
2014-08-21,22.220306396484375
2014-08-22,22.425472259521484
2014-08-25,22.3719482421875
2014-08-26,22.53251075744629
2014-08-27,22.40762710571289
2014-08-28,22.059738159179688
2014-08-29,22.514671325683594
2014-09-02,22.85364532470703
2014-09-03,23.014205932617188
2014-09-04,22.62171745300293
2014-09-05,22.835796356201172
2014-09-08,23.18368911743164
2014-09-09,23.005281448364258
2014-09-10,22.942840576171875
2014-09-11,23.237205505371094
2014-09-12,22.960681915283203
2014-09-15,22.40762710571289
2014-09-16,22.684154510498047
2014-09-17,22.380868911743164
2014-09-18,22.639554977416992
2014-09-19,22.59495735168457
2014-09-22,22.131103515625
2014-09-23,21.917015075683594
2014-09-24,21.792133331298828
2014-09-25,21.337200164794922
2014-09-26,21.444242477416992
2014-09-29,21.337200164794922
2014-09-30,21.132034301757812
2014-10-01,20.88226890563965
2014-10-02,21.05175018310547
2014-10-03,21.6583309173584
2014-10-06,21.560211181640625
2014-10-07,21.38506507873535
2014-10-08,21.771270751953125
2014-10-09,21.32219696044922
2014-10-10,21.286266326904297
2014-10-13,21.843120574951172
2014-10-14,22.25627899169922
2014-10-15,22.42692756652832
2014-10-16,22.597576141357422
2014-10-17,22.103586196899414
2014-10-20,22.516740798950195
2014-10-21,22.42692756652832
2014-10-22,21.968870162963867
2014-10-23,22.55266571044922
2014-10-24,22.12154769897461
2014-10-27,22.004793167114258
2014-10-28,22.813129425048828
2014-10-29,23.25322914123535
2014-10-30,23.77415657043457
2014-10-31,24.16036605834961
2014-11-03,24.106475830078125
2014-11-04,24.38490104675293
2014-11-05,24.402862548828125
2014-11-06,24.627405166625977
2014-11-07,24.510643005371094
2014-11-10,24.636383056640625
2014-11-11,24.636383056640625
2014-11-12,25.03157615661621
2014-11-13,25.12139320373535
2014-11-14,24.816015243530273
2014-11-17,24.6633358001709
2014-11-18,24.528608322143555
2014-11-19,24.34000015258789
2014-11-20,24.528608322143555
2014-11-21,24.914817810058594
2014-11-24,25.372873306274414
2014-11-25,25.013608932495117
2014-11-26,25.11240577697754
2014-11-28,24.375919342041016
2014-12-01,24.483701705932617
2014-12-02,25.094444274902344
2014-12-03,25.094444274902344
2014-12-04,25.597414016723633
2014-12-05,25.714174270629883
2014-12-08,25.7680606842041
2014-12-09,27.106313705444336
2014-12-10,27.19613265991211
2014-12-11,27.869741439819336
2014-12-12,27.91465187072754
2014-12-15,28.81281280517578
2014-12-16,29.48642349243164
2014-12-17,29.93549919128418
2014-12-18,29.93549919128418
2014-12-19,30.510324478149414
2014-12-22,31.004301071166992
2014-12-23,32.15393829345703
2014-12-24,32.0281982421875
2014-12-26,31.9653263092041
2014-12-29,33.14191818237305
2014-12-30,33.35747146606445
2014-12-31,33.31257247924805
2015-01-02,34.56998062133789
2015-01-05,36.734527587890625
2015-01-06,35.94546127319336
2015-01-07,36.35127258300781
2015-01-08,37.98350143432617
2015-01-09,38.335205078125
2015-01-12,37.77610778808594
2015-01-13,39.778079986572266
2015-01-14,40.05763626098633
2015-01-15,40.589698791503906
2015-01-16,41.91532897949219
2015-01-20,42.880252838134766
2015-01-21,36.161888122558594
2015-01-22,38.49753952026367
2015-01-23,39.011558532714844
2015-01-26,39.76004409790039
2015-01-27,40.39130401611328
2015-01-28,38.94843292236328
2015-01-29,39.61576843261719
2015-01-30,38.461463928222656
2015-02-02,39.4173583984375
2015-02-03,39.86825942993164
2015-02-04,39.73299789428711
2015-02-05,39.4985237121582
2015-02-06,37.23503112792969
2015-02-09,38.00156021118164
2015-02-10,37.884315490722656
2015-02-11,38.37128448486328
2015-02-12,38.2720832824707
2015-02-13,38.10976791381836
2015-02-17,39.78710174560547
2015-02-18,39.08369445800781
2015-02-19,39.5616455078125
2015-02-20,38.6959342956543
2015-02-23,38.87628173828125
2015-02-24,39.11075973510742
2015-02-25,38.731998443603516
2015-02-26,39.52558135986328
2015-02-27,38.9935302734375
2015-03-02,42.54657745361328
2015-03-03,41.31112289428711
2015-03-04,41.82514572143555
2015-03-05,43.547584533691406
2015-03-06,42.294097900390625
2015-03-09,44.052581787109375
2015-03-10,43.511497497558594
2015-03-11,43.72793197631836
2015-03-12,44.76499557495117
2015-03-13,45.53152084350586
2015-03-16,43.70088577270508
2015-03-17,44.08864974975586
2015-03-18,44.44034194946289
2015-03-19,44.467411041259766
2015-03-20,44.0976676940918
2015-03-23,44.65678024291992
2015-03-24,44.0976676940918
2015-03-25,42.726951599121094
2015-03-26,42.89828872680664
2015-03-27,43.35820388793945
2015-03-30,44.91830825805664
2015-03-31,44.620704650878906
2015-04-01,46.126705169677734
2015-04-02,46.87519454956055
2015-04-06,48.029483795166016
2015-04-07,45.93534469604492
2015-04-08,48.757686614990234
2015-04-09,48.540592193603516
2015-04-10,47.247013092041016
2015-04-13,47.01182174682617
2015-04-14,46.315284729003906
2015-04-15,45.663963317871094
2015-04-16,43.01350784301758
2015-04-17,43.022552490234375
2015-04-20,42.615482330322266
2015-04-21,42.38932418823242
2015-04-22,43.03160095214844
2015-04-23,42.76926040649414
2015-04-24,43.067787170410156
2015-04-27,41.71088790893555
2015-04-28,40.589195251464844
2015-04-29,39.02423858642578
2015-04-30,37.86635971069336
2015-05-01,38.951873779296875
2015-05-04,37.74876022338867
2015-05-05,36.97080993652344
2015-05-06,37.71257019042969
2015-05-07,37.99300765991211
2015-05-08,38.22820281982422
2015-05-11,44.9402961730957
2015-05-12,42.62452697753906
2015-05-13,42.70594787597656
2015-05-14,43.05873107910156
2015-05-15,42.96827697753906
2015-05-18,45.71825408935547
2015-05-19,45.84488296508789
2015-05-20,46.41478729248047
2015-05-21,46.36051940917969
2015-05-22,45.51923751831055
2015-05-26,44.75033187866211
2015-05-27,45.428775787353516
2015-05-28,45.13026428222656
2015-05-29,44.216617584228516
2015-06-01,43.764320373535156
2015-06-02,44.39754104614258
2015-06-03,45.98057556152344
2015-06-04,45.4830436706543
2015-06-05,44.91315460205078
2015-06-08,42.99541473388672
2015-06-09,43.384395599365234
2015-06-10,44.41563415527344
2015-06-11,44.478946685791016
2015-06-12,44.55131530761719
2015-06-15,44.18043518066406
2015-06-16,43.818603515625
2015-06-17,44.18947982788086
2015-06-18,43.99951934814453
2015-06-19,43.067787170410156
2015-06-22,43.23060989379883
2015-06-23,43.86382293701172
2015-06-24,42.66071701049805
2015-06-25,43.48390197753906
2015-06-26,43.03160095214844
2015-06-29,42.96827697753906
2015-06-30,43.21251678466797
2015-07-01,43.35725021362305
2015-07-02,43.33916091918945
2015-07-06,43.384395599365234
2015-07-07,45.30421447753906
2015-07-08,45.8306999206543
2015-07-09,46.24823760986328
2015-07-10,46.093929290771484
2015-07-13,45.649147033691406
2015-07-14,45.13174819946289
2015-07-15,44.46003723144531
2015-07-16,45.26790237426758
2015-07-17,44.36018753051758
2015-07-20,43.98802185058594
2015-07-21,44.07880401611328
2015-07-22,43.67939758300781
2015-07-23,42.88969039916992
2015-07-24,41.8004264831543
2015-07-27,41.50994873046875
2015-07-28,41.96381759643555
2015-07-29,42.208892822265625
2015-07-30,41.428260803222656
2015-07-31,42.009193420410156
2015-08-03,45.295143127441406
2015-08-04,45.66730499267578
2015-08-05,47.80043411254883
2015-08-06,46.49333190917969
2015-08-07,45.03190231323242
2015-08-10,45.12266159057617
2015-08-11,45.621917724609375
2015-08-12,45.594688415527344
2015-08-13,46.58409881591797
2015-08-14,49.34355545043945
2015-08-17,50.74144744873047
2015-08-18,49.307254791259766
2015-08-19,48.9260139465332
2015-08-20,48.708152770996094
2015-08-21,48.009212493896484
2015-08-24,45.02281188964844
2015-08-25,44.79589080810547
2015-08-26,47.01072311401367
2015-08-27,46.175621032714844
2015-08-28,45.64006805419922
2015-08-31,45.11359786987305
2015-09-01,44.65065383911133
2015-09-02,45.34051513671875
2015-09-03,45.63099670410156
2015-09-04,44.877593994140625
2015-09-08,44.632503509521484
2015-09-09,43.85186004638672
2015-09-10,43.98802185058594
2015-09-11,43.1619987487793
2015-09-14,43.733856201171875
2015-09-15,44.07880401611328
2015-09-16,43.57954788208008
2015-09-17,44.51449966430664
2015-09-18,43.00769805908203
2015-09-21,43.39801025390625
2015-09-22,42.1998176574707
2015-09-23,41.33749008178711
2015-09-24,42.11812973022461
2015-09-25,40.24822998046875
2015-09-28,41.174102783203125
2015-09-29,42.8079833984375
2015-09-30,43.41616439819336
2015-10-01,42.4539794921875
2015-10-02,43.61586380004883
2015-10-05,44.32387924194336
2015-10-06,41.996803283691406
2015-10-07,42.2244987487793
2015-10-08,43.490509033203125
2015-10-09,44.35576629638672
2015-10-12,44.70185852050781
2015-10-13,46.013404846191406
2015-10-14,44.03697204589844
2015-10-15,43.02599334716797
2015-10-16,43.1899299621582
2015-10-19,45.594444274902344
2015-10-20,46.27753448486328
2015-10-21,45.421390533447266
2015-10-22,45.55801010131836
2015-10-23,44.60166931152344
2015-10-26,43.7728385925293
2015-10-27,43.27190399169922
2015-10-28,44.55613327026367
2015-10-29,45.166358947753906
2015-10-30,45.48514175415039
2015-11-02,47.02439498901367
2015-11-03,48.499881744384766
2015-11-04,47.953399658203125
2015-11-05,48.627384185791016
2015-11-06,50.203067779541016
2015-11-09,46.99706268310547
2015-11-10,48.43612289428711
2015-11-11,47.989830017089844
2015-11-12,47.37049102783203
2015-11-13,46.341285705566406
2015-11-16,48.30860137939453
2015-11-17,49.86606979370117
2015-11-18,49.8842887878418
2015-11-19,49.7476692199707
2015-11-20,49.11921310424805
2015-11-23,51.0865364074707
2015-11-24,50.08466339111328
2015-11-25,51.39620590209961
2015-11-27,51.35977554321289
2015-11-30,49.611045837402344
2015-12-01,48.80955505371094
2015-12-02,50.83151626586914
2015-12-03,49.29226303100586
2015-12-04,49.7476692199707
2015-12-07,49.75678253173828
2015-12-08,49.33781051635742
2015-12-09,49.0372428894043
2015-12-10,48.95527648925781
2015-12-11,42.953125
2015-12-14,40.011260986328125
2015-12-15,40.9584846496582
2015-12-16,41.95125961303711
2015-12-17,39.38282012939453
2015-12-18,38.43558120727539
2015-12-21,39.346378326416016
2015-12-22,40.575950622558594
2015-12-23,40.840084075927734
2015-12-24,39.428348541259766
2015-12-28,39.35548400878906
2015-12-29,39.847312927246094
2015-12-30,39.79267120361328
2015-12-31,40.14788818359375
2016-01-04,34.92901611328125
2016-01-05,36.12274169921875
2016-01-06,35.3635139465332
2016-01-07,34.05545425415039
2016-01-08,34.4945182800293
2016-01-11,35.86662292480469
2016-01-12,35.84832763671875
2016-01-13,34.6683235168457
2016-01-14,34.714054107666016
2016-01-15,33.351104736328125
2016-01-19,32.66505813598633
2016-01-20,32.793121337890625
2016-01-21,32.86629867553711
2016-01-22,33.25048065185547
2016-01-25,32.893741607666016
2016-01-26,33.0949821472168
2016-01-27,32.80227279663086
2016-01-28,33.22304153442383
2016-01-29,35.0890998840332
2016-02-01,34.997615814208984
2016-02-02,34.04630661010742
2016-02-03,33.113277435302734
2016-02-04,33.05839920043945
2016-02-05,31.31125259399414
2016-02-08,31.265522003173828
2016-02-09,31.503353118896484
2016-02-10,31.631410598754883
2016-02-11,31.951576232910156
2016-02-12,32.445518493652344
2016-02-16,32.783973693847656
2016-02-17,32.363197326660156
2016-02-18,31.9881591796875
2016-02-19,31.228927612304688
2016-02-22,31.475910186767578
2016-02-23,33.16816329956055
2016-02-24,33.113277435302734
2016-02-25,33.42428207397461
2016-02-26,33.01265335083008
2016-02-29,30.853893280029297
2016-03-01,31.146610260009766
2016-03-02,31.777774810791016
2016-03-03,29.39946746826172
2016-03-04,29.856836318969727
2016-03-07,30.24102210998535
2016-03-08,30.14040184020996
2016-03-09,31.018543243408203
2016-03-10,30.076374053955078
2016-03-11,31.713743209838867
2016-03-14,32.079620361328125
2016-03-15,31.796066284179688
2016-03-16,32.37234878540039
2016-03-17,32.8114128112793
2016-03-18,32.99436950683594
2016-03-21,32.34490966796875
2016-03-22,32.299171447753906
2016-03-23,31.86009979248047
2016-03-24,32.0064582824707
2016-03-28,32.171104431152344
2016-03-29,33.05839920043945
2016-03-30,33.954830169677734
2016-03-31,34.30242919921875
2016-04-01,34.13777160644531
2016-04-04,33.085838317871094
2016-04-05,33.209896087646484
2016-04-06,33.503936767578125
2016-04-07,32.11637878417969
2016-04-08,31.59258270263672
2016-04-11,30.949342727661133
2016-04-12,31.730422973632812
2016-04-13,32.9342155456543
2016-04-14,31.996910095214844
2016-04-15,33.20069885253906
2016-04-18,32.419612884521484
2016-04-19,31.877452850341797
2016-04-20,33.10880661010742
2016-04-21,32.2725830078125
2016-04-22,32.189884185791016
2016-04-25,33.053672790527344
2016-04-26,33.963409423828125
2016-04-27,34.02772903442383
2016-04-28,34.064491271972656
2016-04-29,33.145572662353516
2016-05-02,33.540706634521484
2016-05-03,33.59584045410156
2016-05-04,33.75205612182617
2016-05-05,33.228271484375
2016-05-06,34.11043930053711
2016-05-09,37.58396530151367
2016-05-10,36.22395706176758
2016-05-11,34.625038146972656
2016-05-12,35.341796875
2016-05-13,35.222328186035156
2016-05-16,35.332611083984375
2016-05-17,34.21151351928711
2016-05-18,33.733673095703125
2016-05-19,34.064491271972656
2016-05-20,34.03692626953125
2016-05-23,33.522315979003906
2016-05-24,34.716922760009766
2016-05-25,34.16556930541992
2016-05-26,34.40449142456055
2016-05-27,35.2131462097168
2016-05-31,34.25746154785156
2016-06-01,35.332611083984375
2016-06-02,35.37854766845703
2016-06-03,35.19476318359375
2016-06-06,34.965023040771484
2016-06-07,35.332611083984375
2016-06-08,35.847198486328125
2016-06-09,35.479637145996094
2016-06-10,35.35098648071289
2016-06-13,34.45962905883789
2016-06-14,34.275840759277344
2016-06-15,34.32178497314453
2016-06-16,34.376930236816406
2016-06-17,33.72447967529297
2016-06-20,34.09205627441406
2016-06-21,33.67854690551758
2016-06-22,34.07368087768555
2016-06-23,34.82719802856445
2016-06-24,35.05691909790039
2016-06-27,34.716922760009766
2016-06-28,33.522315979003906
2016-06-29,34.202335357666016
2016-06-30,34.275840759277344
2016-07-01,34.79043960571289
2016-07-05,34.933502197265625
2016-07-06,35.607242584228516
2016-07-07,35.66261672973633
2016-07-08,36.687095642089844
2016-07-11,36.871681213378906
2016-07-12,36.871681213378906
2016-07-13,36.94551086425781
2016-07-14,36.954742431640625
2016-07-15,36.96397399902344
2016-07-18,36.973209381103516
2016-07-19,36.74246597290039
2016-07-20,36.677860260009766
2016-07-21,36.17024612426758
2016-07-22,36.290225982666016
2016-07-25,37.1485595703125
2016-07-26,37.41621780395508
2016-07-27,36.55787658691406
2016-07-28,35.96718978881836
2016-07-29,35.83798599243164
2016-08-01,35.154998779296875
2016-08-02,34.0197868347168
2016-08-03,33.604454040527344
2016-08-04,34.60123825073242
2016-08-05,34.98887252807617
2016-08-08,34.48124694824219
2016-08-09,34.62892532348633
2016-08-10,34.60123825073242
2016-08-11,34.13052749633789
2016-08-12,34.25974655151367
2016-08-15,34.48124694824219
2016-08-16,33.88133239746094
2016-08-17,33.8075065612793
2016-08-18,34.04746627807617
2016-08-19,34.121307373046875
2016-08-22,34.693538665771484
2016-08-23,34.73967742919922
2016-08-24,35.89335632324219
2016-08-25,35.18269348144531
2016-08-26,34.64738845825195
2016-08-29,34.8411979675293
2016-08-30,35.01655578613281
2016-08-31,34.91503143310547
2016-09-01,35.01655578613281
2016-09-02,35.62570571899414
2016-09-06,35.83798599243164
2016-09-07,35.57032775878906
2016-09-08,35.874900817871094
2016-09-09,35.63493347167969
2016-09-12,35.66261672973633
2016-09-13,35.62570571899414
2016-09-14,35.18269348144531
2016-09-15,35.42266082763672
2016-09-16,35.21961212158203
2016-09-19,35.607242584228516
2016-09-20,35.173465728759766
2016-09-21,35.23806381225586
2016-09-22,35.505733489990234
2016-09-23,35.607242584228516
2016-09-26,35.930274963378906
2016-09-27,35.44111251831055
2016-09-28,35.773372650146484
2016-09-29,35.37649917602539
2016-09-30,36.4932746887207
2016-10-03,36.21639633178711
2016-10-04,36.27663040161133
2016-10-05,36.83273696899414
2016-10-06,37.37031173706055
2016-10-07,36.100528717041016
2016-10-10,36.74932861328125
2016-10-11,36.842010498046875
2016-10-12,37.629817962646484
2016-10-13,36.842010498046875
2016-10-14,37.49079513549805
2016-10-17,36.934688568115234
2016-10-18,36.88834762573242
2016-10-19,38.09324645996094
2016-10-20,37.815189361572266
2016-10-21,38.00056457519531
2016-10-24,38.27861022949219
2016-10-25,38.27861022949219
2016-10-26,38.00056457519531
2016-10-27,38.046897888183594
2016-10-28,38.046897888183594
2016-10-31,36.610294342041016
2016-11-01,38.18592834472656
2016-11-02,37.676170349121094
2016-11-03,35.91516876220703
2016-11-04,36.517608642578125
2016-11-07,38.00056457519531
2016-11-08,38.18592834472656
2016-11-09,39.854248046875
2016-11-10,42.12501525878906
2016-11-11,43.23722839355469
2016-11-14,43.74699401855469
2016-11-15,44.16407012939453
2016-11-16,43.83967590332031
2016-11-17,44.11772155761719
2016-11-18,44.11772155761719
2016-11-21,43.93235397338867
2016-11-22,43.93235397338867
2016-11-23,43.97869873046875
2016-11-25,43.97869873046875
2016-11-28,43.561622619628906
2016-11-29,43.46894836425781
2016-11-30,42.54209518432617
2016-12-01,42.588436126708984
2016-12-02,41.985984802246094
2016-12-05,42.495750427246094
2016-12-06,43.32991027832031
2016-12-07,43.97869873046875
2016-12-08,45.64701843261719
2016-12-09,45.322628021240234
2016-12-12,44.21041488647461
2016-12-13,44.76652145385742
2016-12-14,44.02504348754883
2016-12-15,44.53480529785156
2016-12-16,45.64701843261719
2016-12-19,47.639739990234375
2016-12-20,47.917781829833984
2016-12-21,46.80556106567383
2016-12-22,45.22993850708008
2016-12-23,45.64701843261719
2016-12-27,46.01776123046875
2016-12-28,45.600677490234375
2016-12-29,45.415306091308594
2016-12-30,44.581146240234375
2017-01-03,45.87872314453125
2017-01-04,46.311153411865234
2017-01-05,45.47420883178711
2017-01-06,44.63725662231445
2017-01-09,45.05572509765625
2017-01-10,45.892677307128906
2017-01-11,45.009220123291016
2017-01-12,44.31177520751953
2017-01-13,44.77674865722656
2017-01-17,44.91624069213867
2017-01-18,44.59075927734375
2017-01-19,43.28882598876953
2017-01-20,42.91686248779297
2017-01-23,43.66081619262695
2017-01-24,43.33533477783203
2017-01-25,43.24234390258789
2017-01-26,42.59138870239258
2017-01-27,41.66143798828125
2017-01-30,41.10347366333008
2017-01-31,42.07991027832031
2017-02-01,42.31239700317383
2017-02-02,44.12578201293945
2017-02-03,44.3582763671875
2017-02-06,42.49837875366211
2017-02-07,41.800933837890625
2017-02-08,42.265899658203125
2017-02-09,43.102848052978516
2017-02-10,43.846805572509766
2017-02-13,43.14934539794922
2017-02-14,43.33533477783203
2017-02-15,43.56781768798828
2017-02-16,43.19584655761719
2017-02-17,43.521324157714844
2017-02-21,43.846805572509766
2017-02-22,44.12578201293945
2017-02-23,44.31177520751953
2017-02-24,44.8232421875
2017-02-27,44.54426193237305
2017-02-28,43.56781768798828
2017-03-01,43.19584655761719
2017-03-02,43.19584655761719
2017-03-03,42.91686248779297
2017-03-06,42.544883728027344
2017-03-07,41.56844711303711
2017-03-08,41.52194595336914
2017-03-09,40.35951614379883
2017-03-10,40.26652145385742
2017-03-13,40.40601348876953
2017-03-14,40.22002410888672
2017-03-15,40.40601348876953
2017-03-16,41.335960388183594
2017-03-17,42.033416748046875
2017-03-20,41.24296188354492
2017-03-21,40.73149490356445
2017-03-22,40.35951614379883
2017-03-23,40.592002868652344
2017-03-24,40.12702941894531
2017-03-27,40.592002868652344
2017-03-28,40.63850402832031
2017-03-29,41.52194595336914
2017-03-30,41.289466857910156
2017-03-31,40.12702941894531
2017-04-03,40.63850402832031
2017-04-04,40.325782775878906
2017-04-05,39.999080657958984
2017-04-06,40.69917297363281
2017-04-07,40.979209899902344
2017-04-10,41.63263702392578
2017-04-11,42.23939514160156
2017-04-12,41.25926208496094
2017-04-13,40.652503967285156
2017-04-17,41.44594955444336
2017-04-18,41.77266311645508
2017-04-19,42.14604949951172
2017-04-20,43.12619400024414
2017-04-21,43.31288146972656
2017-04-24,44.01298522949219
2017-04-25,43.032840728759766
2017-04-26,44.38636779785156
2017-04-27,44.38636779785156
2017-04-28,43.59292221069336
2017-05-01,43.35955810546875
2017-05-02,42.79947280883789
2017-05-03,42.23939514160156
2017-05-04,39.06560516357422
2017-05-05,39.112281799316406
2017-05-08,39.345645904541016
2017-05-09,37.85210037231445
2017-05-10,37.8054313659668
2017-05-11,37.19866943359375
2017-05-12,35.89182662963867
2017-05-15,36.91863250732422
2017-05-16,36.638587951660156
2017-05-17,35.47175979614258
2017-05-18,35.33174133300781
2017-05-19,35.33174133300781
2017-05-22,35.33174133300781
2017-05-23,35.56510543823242
2017-05-24,35.425079345703125
2017-05-25,35.47175979614258
2017-05-26,34.53828430175781
2017-05-30,34.02488708496094
2017-05-31,34.1649055480957
2017-06-01,35.751792907714844
2017-06-02,35.28506851196289
2017-06-05,34.911678314208984
2017-06-06,33.74484634399414
2017-06-07,33.604820251464844
2017-06-08,33.51148223876953
2017-06-09,34.444950103759766
2017-06-12,34.304927825927734
2017-06-13,34.304927825927734
2017-06-14,34.491615295410156
2017-06-15,32.671348571777344
2017-06-16,31.691207885742188
2017-06-19,31.271160125732422
2017-06-20,29.544240951538086
2017-06-21,29.684261322021484
2017-06-22,30.104324340820312
2017-06-23,29.824281692504883
2017-06-26,31.504518508911133
2017-06-27,31.392505645751953
2017-06-28,31.457847595214844
2017-06-29,31.41117286682129
2017-06-30,31.084457397460938
2017-07-03,31.661401748657227
2017-07-05,29.785171508789062
2017-07-06,28.612524032592773
2017-07-07,29.08158302307129
2017-07-10,27.7213134765625
2017-07-11,28.00275230407715
2017-07-12,28.65943145751953
2017-07-13,28.331092834472656
2017-07-14,28.23727798461914
2017-07-17,28.56562042236328
2017-07-18,28.049659729003906
2017-07-19,28.331092834472656
2017-07-20,28.19037437438965
2017-07-21,27.299161911010742
2017-07-24,27.158447265625
2017-07-25,28.284183502197266
2017-07-26,28.049659729003906
2017-07-27,28.049659729003906
2017-07-28,27.627504348754883
2017-07-31,27.674409866333008
2017-08-01,27.674409866333008
2017-08-02,26.783201217651367
2017-08-03,27.299161911010742
2017-08-04,27.81513023376465
2017-08-07,27.205350875854492
2017-08-08,25.376028060913086
2017-08-09,24.90696907043457
2017-08-10,24.81315803527832
2017-08-11,25.376028060913086
2017-08-14,25.141498565673828
2017-08-15,25.469839096069336
2017-08-16,24.90696907043457
2017-08-17,24.109573364257812
2017-08-18,24.531723022460938
2017-08-21,23.405986785888672
2017-08-22,22.98383140563965
2017-08-23,22.5147762298584
2017-08-24,21.71737289428711
2017-08-25,22.749303817749023
2017-08-28,20.544729232788086
2017-08-29,19.606618881225586
2017-08-30,20.310199737548828
2017-08-31,20.591638565063477
2017-09-01,20.77926254272461
2017-09-05,20.404014587402344
2017-09-06,21.10759925842285
2017-09-07,21.482847213745117
2017-09-08,21.389036178588867
2017-09-11,21.905000686645508
2017-09-12,22.327152252197266
2017-09-13,22.60858917236328
2017-09-14,22.467872619628906
2017-09-15,22.98383140563965
2017-09-18,23.452892303466797
2017-09-19,23.405986785888672
2017-09-20,23.499792098999023
2017-09-21,23.0776424407959
2017-09-22,22.98383140563965
2017-09-25,22.890016555786133
2017-09-26,23.640514373779297
2017-09-27,24.250288009643555
2017-09-28,23.734323501586914
2017-09-29,24.109573364257812
2017-10-02,23.96885108947754
2017-10-03,24.531723022460938
2017-10-04,24.90696907043457
2017-10-05,25.32912254333496
2017-10-06,24.860063552856445
2017-10-09,23.68741798400879
2017-10-10,24.344100952148438
2017-10-11,23.791791915893555
2017-10-12,23.555761337280273
2017-10-13,23.744585037231445
2017-10-16,22.753259658813477
2017-10-17,22.706052780151367
2017-10-18,23.083702087402344
2017-10-19,22.84766960144043
2017-10-20,23.13091278076172
2017-10-23,23.272525787353516
2017-10-24,23.178115844726562
2017-10-25,23.178115844726562
2017-10-26,22.800466537475586
2017-10-27,22.517230987548828
2017-10-30,21.525907516479492
2017-10-31,21.997966766357422
2017-11-01,22.375612258911133
2017-11-02,23.13091278076172
2017-11-03,23.083702087402344
2017-11-06,22.47002410888672
2017-11-07,22.045169830322266
2017-11-08,21.809139251708984
2017-11-09,21.761932373046875
2017-11-10,22.186790466308594
2017-11-13,21.90355110168457
2017-11-14,22.186790466308594
2017-11-15,21.761932373046875
2017-11-16,22.89487648010254
2017-11-17,23.178115844726562
2017-11-20,23.225322723388672
2017-11-21,23.3669376373291
2017-11-22,24.075027465820312
2017-11-24,23.13091278076172
2017-11-27,23.933408737182617
2017-11-28,25.20796775817871
2017-11-29,27.332237243652344
2017-11-30,26.19929313659668
2017-12-01,26.388120651245117
2017-12-04,27.757089614868164
2017-12-05,26.152088165283203
2017-12-06,26.152088165283203
2017-12-07,28.842824935913086
2017-12-08,29.550914764404297
2017-12-11,31.391948699951172
2017-12-12,30.542240142822266
2017-12-13,31.10870933532715
2017-12-14,30.117387771606445
2017-12-15,31.155916213989258
2017-12-18,32.10003662109375
2017-12-19,32.808128356933594
2017-12-20,31.816797256469727
2017-12-21,33.09136199951172
2017-12-22,32.760921478271484
2017-12-26,34.31871032714844
2017-12-27,33.185768127441406
2017-12-28,33.42180633544922
2017-12-29,32.66650390625
2018-01-02,34.460330963134766
2018-01-03,33.657833099365234
2018-01-04,33.185768127441406
2018-01-05,32.996952056884766
2018-01-08,33.46901321411133
2018-01-09,31.864004135131836
2018-01-10,32.020545959472656
2018-01-11,32.63724136352539
2018-01-12,32.020545959472656
2018-01-16,32.067989349365234
2018-01-17,33.39624786376953
2018-01-18,32.77955627441406
2018-01-19,33.159061431884766
2018-01-22,33.53855895996094
2018-01-23,32.77955627441406
2018-01-24,33.20648956298828
2018-01-25,34.012939453125
2018-01-26,34.29756546020508
2018-01-29,33.72831344604492
2018-01-30,32.589805603027344
2018-01-31,31.87823486328125
2018-02-01,31.925678253173828
2018-02-02,29.83841323852539
2018-02-05,27.893455505371094
2018-02-06,29.079404830932617
2018-02-07,28.984527587890625
2018-02-08,28.605024337768555
2018-02-09,30.31278419494629
2018-02-12,28.984527587890625
2018-02-13,29.5063419342041
2018-02-14,29.819433212280273
2018-02-15,30.73973274230957
2018-02-16,30.502538681030273
2018-02-20,29.93328094482422
2018-02-21,30.73973274230957
2018-02-22,30.360225677490234
2018-02-23,30.360225677490234
2018-02-26,31.214111328125
2018-02-27,30.92947769165039
2018-02-28,30.549978256225586
2018-03-01,31.356414794921875
2018-03-02,31.40385627746582
2018-03-05,31.546171188354492
2018-03-06,32.305179595947266
2018-03-07,32.020545959472656
2018-03-08,30.92947769165039
2018-03-09,31.973112106323242
2018-03-12,32.067989349365234
2018-03-13,31.59360694885254
2018-03-14,31.356414794921875
2018-03-15,31.49873924255371
2018-03-16,31.6884822845459
2018-03-19,32.067989349365234
2018-03-20,31.546171188354492
2018-03-21,31.6884822845459
2018-03-22,31.546171188354492
2018-03-23,31.40385627746582
2018-03-26,32.020545959472656
2018-03-27,31.49873924255371
2018-03-28,31.925678253173828
2018-03-29,32.11542510986328
2018-04-02,31.356414794921875
2018-04-03,31.356414794921875
2018-04-04,32.067989349365234
2018-04-05,31.973112106323242
2018-04-06,32.162864685058594
2018-04-09,32.020545959472656
2018-04-10,31.78336524963379
2018-04-11,32.32206726074219
2018-04-12,32.75111389160156
2018-04-13,32.27438735961914
2018-04-16,33.37085723876953
2018-04-17,33.466209411621094
2018-04-18,33.03716278076172
2018-04-19,32.989479064941406
2018-04-20,32.41741180419922
2018-04-23,32.22671127319336
2018-04-24,32.75111389160156
2018-04-25,32.941802978515625
2018-04-26,32.79878234863281
2018-04-27,32.65577697753906
2018-04-30,32.65577697753906
2018-05-01,32.79878234863281
2018-05-02,32.22671127319336
2018-05-03,30.653520584106445
2018-05-04,30.367483139038086
2018-05-07,29.55704689025879
2018-05-08,29.509376525878906
2018-05-09,29.55704689025879
2018-05-10,26.629945755004883
2018-05-11,27.6501407623291
2018-05-14,27.12574577331543
2018-05-15,27.221088409423828
2018-05-16,28.079195022583008
2018-05-17,28.555923461914062
2018-05-18,28.365230560302734
2018-05-21,28.794286727905273
2018-05-22,28.269886016845703
2018-05-23,28.65126609802246
2018-05-24,28.937305450439453
2018-05-25,28.794286727905273
2018-05-29,28.31755828857422
2018-05-30,28.412906646728516
2018-05-31,27.364103317260742
2018-06-01,27.459447860717773
2018-06-04,27.793161392211914
2018-06-05,27.507123947143555
2018-06-06,27.12574577331543
2018-06-07,27.221088409423828
2018-06-08,27.507123947143555
2018-06-11,28.079195022583008
2018-06-12,27.7454891204834
2018-06-13,27.840835571289062
2018-06-14,27.983848571777344
2018-06-15,28.031522750854492
2018-06-18,28.412906646728516
2018-06-19,28.84195899963379
2018-06-20,29.31868553161621
2018-06-21,29.747737884521484
2018-06-22,30.129119873046875
2018-06-25,30.27213478088379
2018-06-26,30.4151554107666
2018-06-27,30.176794052124023
2018-06-28,30.367483139038086
2018-06-29,30.319807052612305
2018-07-02,30.987228393554688
2018-07-03,31.1302490234375
2018-07-05,31.51161766052246
2018-07-06,31.368610382080078
2018-07-09,30.844209671020508
2018-07-10,29.795408248901367
2018-07-11,28.94713020324707
2018-07-12,28.228240966796875
2018-07-13,28.51579475402832
2018-07-16,28.563720703125
2018-07-17,28.899200439453125
2018-07-18,28.46786880493164
2018-07-19,28.563720703125
2018-07-20,28.32408905029297
2018-07-23,27.653133392333984
2018-07-24,27.36557960510254
2018-07-25,27.221797943115234
2018-07-26,27.70105743408203
2018-07-27,27.509355545043945
2018-07-30,28.228240966796875
2018-07-31,28.51579475402832
2018-08-01,27.70105743408203
2018-08-02,27.653133392333984
2018-08-03,27.748985290527344
2018-08-06,27.748985290527344
2018-08-07,28.276168823242188
2018-08-08,28.32408905029297
2018-08-09,28.70749855041504
2018-08-10,32.924964904785156
2018-08-13,31.48719024658203
2018-08-14,32.39777374267578
2018-08-15,31.67888832092285
2018-08-16,32.01436996459961
2018-08-17,32.49363327026367
2018-08-20,31.63096809387207
2018-08-21,32.445701599121094
2018-08-22,33.64384460449219
2018-08-23,35.2733154296875
2018-08-24,34.84199142456055
2018-08-27,35.08161926269531
2018-08-28,35.03369140625
2018-08-29,33.88347244262695
2018-08-30,34.45858383178711
2018-08-31,34.45858383178711
2018-09-04,33.06873321533203
2018-09-05,32.73325729370117
2018-09-06,32.49363327026367
2018-09-07,32.924964904785156
2018-09-10,34.027252197265625
2018-09-11,33.88347244262695
2018-09-12,34.3148078918457
2018-09-13,32.924964904785156
2018-09-14,33.97932052612305
2018-09-17,34.12310028076172
2018-09-18,34.027252197265625
2018-09-19,33.212520599365234
2018-09-20,32.97288513183594
2018-09-21,32.63740921020508
2018-09-24,32.589481353759766
2018-09-25,32.30192184448242
2018-09-26,32.8291130065918
2018-09-27,33.02081298828125
2018-09-28,32.8291130065918
2018-10-01,32.273170471191406
2018-10-02,31.525531768798828
2018-10-03,30.749134063720703
2018-10-04,30.37531280517578
2018-10-05,30.289047241210938
2018-10-08,31.16129493713379
2018-10-09,30.93125343322754
2018-10-10,30.77228546142578
2018-10-11,29.317489624023438
2018-10-12,29.683597564697266
2018-10-15,30.463985443115234
2018-10-16,30.92643165588379
2018-10-17,31.148025512695312
2018-10-18,30.666303634643555
2018-10-19,30.868627548217773
2018-10-22,32.1403694152832
2018-10-23,31.668285369873047
2018-10-24,30.936067581176758
2018-10-25,30.541061401367188
2018-10-26,29.86664581298828
2018-10-29,30.309831619262695
2018-10-30,32.85331344604492
2018-10-31,31.7357234954834
2018-11-01,31.3599796295166
2018-11-02,31.832069396972656
2018-11-05,31.571941375732422
2018-11-06,31.533401489257812
2018-11-07,32.19817352294922
2018-11-08,32.56428146362305
2018-11-09,31.82243537902832
2018-11-12,31.803159713745117
2018-11-13,31.44668960571289
2018-11-14,31.06131935119629
2018-11-15,30.23275375366211
2018-11-16,29.924457550048828
2018-11-19,29.702863693237305
2018-11-20,28.90321159362793
2018-11-21,28.84540367126465
2018-11-23,29.394563674926758
2018-11-26,28.88393783569336
2018-11-27,29.182607650756836
2018-11-28,29.269315719604492
2018-11-29,28.50819969177246
2018-11-30,28.02648162841797
2018-12-03,28.363683700561523
2018-12-04,26.562049865722656
2018-12-06,27.072675704956055
2018-12-07,27.7663516998291
2018-12-10,28.970651626586914
2018-12-11,30.300199508666992
2018-12-12,30.15567970275879
2018-12-13,29.14406967163086
2018-12-14,28.354047775268555
2018-12-17,28.036113739013672
2018-12-18,28.209531784057617
2018-12-19,27.419509887695312
2018-12-20,26.629491806030273
2018-12-21,26.147768020629883
2018-12-24,25.001277923583984
2018-12-26,26.61022186279297
2018-12-27,25.4444580078125
2018-12-28,25.540803909301758
2018-12-31,26.224843978881836
2019-01-02,26.76436996459961
2019-01-03,27.14011573791504
2019-01-04,27.650737762451172
2019-01-07,28.46002769470215
2019-01-08,28.479293823242188
2019-01-09,28.086912155151367
2019-01-10,27.418405532836914
2019-01-11,27.757503509521484
2019-01-14,27.718753814697266
2019-01-15,28.319438934326172
2019-01-16,29.046072006225586
2019-01-17,29.36579132080078
2019-01-18,29.404544830322266
2019-01-22,29.133270263671875
2019-01-23,29.16233253479004
2019-01-24,29.17202377319336
2019-01-25,28.69728660583496
2019-01-28,28.086912155151367
2019-01-29,27.67030906677246
2019-01-30,26.963048934936523
2019-01-31,27.65093231201172
2019-02-01,27.709060668945312
2019-02-04,27.660615921020508
2019-02-05,28.38725471496582
2019-02-06,28.057846069335938
2019-02-07,30.12149429321289
2019-02-08,28.8523006439209
2019-02-11,29.249530792236328
2019-02-12,28.900745391845703
2019-02-13,29.82115364074707
2019-02-14,30.024608612060547
2019-02-15,30.150558471679688
2019-02-19,30.063364028930664
2019-02-20,29.38516616821289
2019-02-21,28.98794174194336
2019-02-22,29.307661056518555
2019-02-25,29.491743087768555
2019-02-26,29.54987144470215
2019-02-27,30.0342960357666
2019-02-28,30.150558471679688
2019-03-01,30.392770767211914
2019-03-04,29.685510635375977
2019-03-05,29.75333023071289
2019-03-06,28.900745391845703
2019-03-07,28.920122146606445
2019-03-08,28.648845672607422
2019-03-11,28.69728660583496
2019-03-12,28.532583236694336
2019-03-13,28.474449157714844
2019-03-14,27.960962295532227
2019-03-15,27.118064880371094
2019-03-18,27.67030906677246
2019-03-19,27.56373405456543
2019-03-20,27.12775230407715
2019-03-21,27.166505813598633
2019-03-22,26.691770553588867
2019-03-25,26.720834732055664
2019-03-26,26.895227432250977
2019-03-27,26.701459884643555
2019-03-28,26.439868927001953
2019-03-29,26.75958824157715
2019-04-01,26.769277572631836
2019-04-02,26.27516746520996
2019-04-03,25.286937713623047
2019-04-04,25.52915382385254
2019-04-05,26.16859245300293
2019-04-08,26.24610137939453
2019-04-09,26.2170352935791
2019-04-10,26.63132095336914
2019-04-11,26.680063247680664
2019-04-12,26.485103607177734
2019-04-15,26.797033309936523
2019-04-16,26.953001022338867
2019-04-17,27.420902252197266
2019-04-18,27.294179916381836
2019-04-22,26.991992950439453
2019-04-23,27.450145721435547
2019-04-24,27.440397262573242
2019-04-25,27.479389190673828
2019-04-26,26.816532135009766
2019-04-29,27.196699142456055
2019-04-30,26.758045196533203
2019-05-01,26.55333709716797
2019-05-02,26.02695083618164
2019-05-03,26.894514083862305
2019-05-06,27.177202224731445
2019-05-07,26.758045196533203
2019-05-08,26.836029052734375
2019-05-09,28.190990447998047
2019-05-10,29.156034469604492
2019-05-13,29.419225692749023
2019-05-14,30.08208656311035
2019-05-15,29.721412658691406
2019-05-16,29.80914306640625
2019-05-17,29.896875381469727
2019-05-20,29.643428802490234
2019-05-21,30.169816970825195
2019-05-22,30.052839279174805
2019-05-23,29.740909576416016
2019-05-24,30.33553123474121
2019-05-28,30.598726272583008
2019-05-29,30.618221282958984
2019-05-30,30.140573501586914
2019-05-31,29.05855369567871
2019-06-03,29.1072940826416
2019-06-04,29.926118850708008
2019-06-05,29.126787185668945
2019-06-06,29.146284103393555
2019-06-07,29.253511428833008
2019-06-10,29.312000274658203
2019-06-11,30.218555450439453
2019-06-12,30.920406341552734
2019-06-13,31.017885208129883
2019-06-14,30.969146728515625
2019-06-17,31.26158332824707
2019-06-18,31.203096389770508
2019-06-19,30.891162872314453
2019-06-20,30.81317710876465
2019-06-21,30.783935546875
2019-06-24,30.08208656311035
2019-06-25,30.22830581665039
2019-06-26,30.413515090942383
2019-06-27,30.754690170288086
2019-06-28,30.345277786254883
2019-07-01,30.549985885620117
2019-07-02,30.48175048828125
2019-07-03,30.618221282958984
2019-07-05,30.95939826965332
2019-07-08,31.037382125854492
2019-07-09,31.183597564697266
2019-07-10,31.345272064208984
2019-07-11,31.5804386138916
2019-07-12,31.639230728149414
2019-07-15,31.639230728149414
2019-07-16,31.864595413208008
2019-07-17,31.3256778717041
2019-07-18,31.345272064208984
2019-07-19,31.306081771850586
2019-07-22,30.09107208251953
2019-07-23,29.708932876586914
2019-07-24,30.316434860229492
2019-07-25,30.502607345581055
2019-07-26,31.129711151123047
2019-07-29,31.119911193847656
2019-07-30,31.257089614868164
2019-07-31,30.845552444458008
2019-08-01,30.492809295654297
2019-08-02,30.453617095947266
2019-08-05,30.159664154052734
2019-08-06,30.326234817504883
2019-08-07,31.110111236572266
2019-08-08,32.540687561035156
2019-08-09,32.56028747558594
2019-08-12,32.903236389160156
2019-08-13,33.47154235839844
2019-08-14,33.18738555908203
2019-08-15,33.324562072753906
2019-08-16,34.578773498535156
2019-08-19,35.28425598144531
2019-08-20,34.92171096801758
2019-08-21,36.26409912109375
2019-08-22,36.72462844848633
2019-08-23,36.33269119262695
2019-08-26,37.61629104614258
2019-08-27,36.98918914794922
2019-08-28,38.10620880126953
2019-08-29,37.87105178833008
2019-08-30,38.096412658691406
2019-09-03,38.38056564331055
2019-09-04,38.831298828125
2019-09-05,39.07625961303711
2019-09-06,39.321224212646484
2019-09-09,40.0659065246582
2019-09-10,40.70280838012695
2019-09-11,41.64345932006836
2019-09-12,41.15353775024414
2019-09-13,40.75179672241211
2019-09-16,40.09530258178711
2019-09-17,40.271671295166016
2019-09-18,39.31142044067383
2019-09-19,38.66472625732422
2019-09-20,38.56674575805664
2019-09-23,38.12581253051758
2019-09-24,38.184600830078125
2019-09-25,38.811702728271484
2019-09-26,38.37077331542969
2019-09-27,38.04742431640625
2019-09-30,38.07681655883789
2019-10-01,38.311981201171875
2019-10-02,37.65548324584961
2019-10-03,37.67508316040039
2019-10-04,38.14541244506836
2019-10-07,38.11601638793945
2019-10-08,38.26298904418945
2019-10-09,38.533592224121094
2019-10-10,37.47087097167969
2019-10-11,38.2580680847168
2019-10-14,38.32695007324219
2019-10-15,37.726707458496094
2019-10-16,37.81526565551758
2019-10-17,38.32695007324219
2019-10-18,38.49422836303711
2019-10-21,38.71070861816406
2019-10-22,38.68119430541992
2019-10-23,38.70087432861328
2019-10-24,38.81895065307617
2019-10-25,39.73407745361328
2019-10-28,39.28143310546875
2019-10-29,39.40935134887695
2019-10-30,39.0944709777832
2019-10-31,38.79927062988281
2019-11-01,39.18303298950195
2019-11-04,40.21623611450195
2019-11-05,41.31832504272461
2019-11-06,42.607364654541016
2019-11-07,42.25312423706055
2019-11-08,42.381046295166016
2019-11-11,41.57416534423828
2019-11-12,42.23344039916992
2019-11-13,43.2764892578125
2019-11-14,43.43392562866211
2019-11-15,43.28633117675781
2019-11-18,43.35520935058594
2019-11-19,43.23712921142578
2019-11-20,43.020652770996094
2019-11-21,42.47944259643555
2019-11-22,41.63320541381836
2019-11-25,41.97760009765625
2019-11-26,42.51880645751953
2019-11-27,42.94192886352539
2019-11-29,43.729129791259766
2019-12-02,43.78817367553711
2019-12-03,44.10305404663086
2019-12-04,42.873046875
2019-12-05,42.36136245727539
2019-12-06,42.873046875
2019-12-09,42.78449249267578
2019-12-10,44.40809631347656
2019-12-11,44.6147346496582
2019-12-12,45.05753707885742
2019-12-13,44.14241409301758
2019-12-16,45.03785705566406
2019-12-17,45.69713592529297
2019-12-18,46.37610626220703
2019-12-19,46.90746307373047
2019-12-20,47.36994171142578
2019-12-23,47.074745178222656
2019-12-24,46.90746307373047
2019-12-26,46.92714309692383
2019-12-27,46.96650695800781
2019-12-30,47.82258605957031
2019-12-31,46.75002670288086
