Date,INFY
2007-12-31,3.937960386276245
2008-01-02,3.857222318649292
2008-01-03,3.810340166091919
2008-01-04,3.6558094024658203
2008-01-07,3.7322070598602295
2008-01-08,3.6436548233032227
2008-01-09,3.719184398651123
2008-01-10,3.719184398651123
2008-01-11,3.4847819805145264
2008-01-14,3.503013849258423
2008-01-15,3.393625259399414
2008-01-16,3.3545591831207275
2008-01-17,3.356295347213745
2008-01-18,3.3007333278656006
2008-01-22,3.292919874191284
2008-01-23,3.365845203399658
2008-01-24,3.4161977767944336
2008-01-25,3.4075162410736084
2008-01-28,3.447451114654541
2008-01-29,3.490859270095825
2008-01-30,3.46394681930542
2008-01-31,3.5941710472106934
2008-02-01,3.7764837741851807
2008-02-04,3.706162452697754
2008-02-05,3.459606170654297
2008-02-06,3.456132650375366
2008-02-07,3.467419385910034
2008-02-08,3.6202144622802734
2008-02-11,3.5828843116760254
2008-02-12,3.634972333908081
2008-02-13,3.654073476791382
2008-02-14,3.607192277908325
2008-02-15,3.5733351707458496
2008-02-19,3.5629160404205322
2008-02-20,3.580280065536499
2008-02-21,3.6202144622802734
2008-02-22,3.6028523445129395
2008-02-25,3.657545328140259
2008-02-26,3.681854248046875
2008-02-27,3.646259307861328
2008-02-28,3.552497625350952
2008-02-29,3.37886643409729
2008-03-03,3.317227602005005
2008-03-04,3.249511480331421
2008-03-05,3.3154919147491455
2008-03-06,3.214785099029541
2008-03-07,3.117551565170288
2008-03-10,3.021186351776123
2008-03-11,3.1817948818206787
2008-03-12,3.067199230194092
2008-03-13,3.0324723720550537
2008-03-14,2.9465246200561523
2008-03-17,2.86578631401062
2008-03-18,2.992537260055542
2008-03-19,2.8979084491729736
2008-03-20,2.9413163661956787
2008-03-24,3.15140962600708
2008-03-25,3.2469072341918945
2008-03-26,3.214785099029541
2008-03-27,3.152277708053589
2008-03-28,3.15140962600708
2008-03-31,3.105397939682007
2008-04-01,3.249511480331421
2008-04-02,3.2269392013549805
2008-04-03,3.2477753162384033
2008-04-04,3.199158191680908
2008-04-07,3.208707809448242
2008-04-08,3.1774542331695557
2008-04-09,3.125365734100342
2008-04-10,3.1470694541931152
2008-04-11,3.1088714599609375
2008-04-14,3.1739823818206787
2008-04-15,3.443979024887085
2008-04-16,3.5490262508392334
2008-04-17,3.5637850761413574
2008-04-18,3.7400200366973877
2008-04-21,3.705294132232666
2008-04-22,3.5880937576293945
2008-04-23,3.662754774093628
2008-04-24,3.7400200366973877
2008-04-25,3.743492364883423
2008-04-28,3.671435594558716
2008-04-29,3.811208724975586
2008-04-30,3.7929775714874268
2008-05-01,3.840726137161255
2008-05-02,3.901498556137085
2008-05-05,3.8511440753936768
2008-05-06,3.976158857345581
2008-05-07,3.753910779953003
2008-05-08,3.7183172702789307
2008-05-09,3.72526216506958
2008-05-12,3.783428430557251
2008-05-13,3.734811305999756
2008-05-14,3.8485395908355713
2008-05-15,4.0438761711120605
2008-05-16,3.9943907260894775
2008-05-19,3.9509825706481934
2008-05-20,3.847672462463379
2008-05-21,3.812946081161499
2008-05-22,3.8381218910217285
2008-05-23,3.743492364883423
2008-05-27,3.8146820068359375
2008-05-28,3.913421392440796
2008-05-29,3.998936653137207
2008-05-30,4.329537391662598
2008-06-02,4.211400985717773
2008-06-03,4.123241424560547
2008-06-04,4.116188049316406
2008-06-05,4.3524580001831055
2008-06-06,4.18495512008667
2008-06-09,4.135583400726318
2008-06-10,4.031554698944092
2008-06-11,3.9574997425079346
2008-06-12,4.093267917633057
2008-06-13,4.17172908782959
2008-06-16,4.150572299957275
2008-06-17,4.1223602294921875
2008-06-18,4.005107402801514
2008-06-19,4.087096214294434
2008-06-20,3.9063689708709717
2008-06-23,3.967198371887207
2008-06-24,3.871985912322998
2008-06-25,3.907250165939331
2008-06-26,3.7564961910247803
2008-06-27,3.7935235500335693
2008-06-30,3.8314313888549805
2008-07-01,3.8323137760162354
2008-07-02,3.8437745571136475
2008-07-03,3.755614995956421
2008-07-07,3.7644314765930176
2008-07-08,3.7917604446411133
2008-07-09,3.8640518188476562
2008-07-10,3.878157377243042
2008-07-11,3.3624212741851807
2008-07-14,3.2751426696777344
2008-07-15,3.263681650161743
2008-07-16,3.4523441791534424
2008-07-17,3.5034773349761963
2008-07-18,3.3871066570281982
2008-07-21,3.3042359352111816
2008-07-22,3.459397792816162
2008-07-23,3.5281622409820557
2008-07-24,3.3377366065979004
2008-07-25,3.376526355743408
2008-07-28,3.332446575164795
2008-07-29,3.472620725631714
2008-07-30,3.448817253112793
2008-07-31,3.472620725631714
2008-08-01,3.5660715103149414
2008-08-04,3.4893717765808105
2008-08-05,3.593400478363037
2008-08-06,3.6921398639678955
2008-08-07,3.604860544204712
2008-08-08,3.6604015827178955
2008-08-11,3.644533157348633
2008-08-12,3.5237538814544678
2008-08-13,3.5546109676361084
2008-08-14,3.7265217304229736
2008-08-15,3.739745855331421
2008-08-18,3.6727445125579834
2008-08-19,3.5969276428222656
2008-08-20,3.581940174102783
2008-08-21,3.5493197441101074
2008-08-22,3.6639280319213867
2008-08-25,3.5175833702087402
2008-08-26,3.5731232166290283
2008-08-27,3.629545211791992
2008-08-28,3.6498236656188965
2008-08-29,3.6392431259155273
2008-09-02,3.6242563724517822
2008-09-03,3.5801758766174316
2008-09-04,3.4840829372406006
2008-09-05,3.472620725631714
2008-09-08,3.4779114723205566
2008-09-09,3.3897509574890137
2008-09-10,3.4549903869628906
2008-09-11,3.277787446975708
2008-09-12,3.2830777168273926
2008-09-15,3.0679666996002197
2008-09-16,3.2090232372283936
2008-09-17,3.028294563293457
2008-09-18,3.0785470008850098
2008-09-19,3.394158363342285
2008-09-22,3.2566285133361816
2008-09-23,3.1014678478240967
2008-09-24,2.9692277908325195
2008-09-25,3.0185976028442383
2008-09-26,2.963056802749634
2008-09-29,2.5874955654144287
2008-09-30,2.9366087913513184
2008-10-01,2.856383800506592
2008-10-02,2.6959314346313477
2008-10-03,2.607771873474121
2008-10-06,2.452610492706299
2008-10-07,2.3415286540985107
2008-10-08,2.2498421669006348
2008-10-09,2.2057623863220215
2008-10-10,2.1079049110412598
2008-10-13,2.6016006469726562
2008-10-14,2.497462272644043
2008-10-15,2.2231228351593018
2008-10-16,2.352745771408081
2008-10-17,2.304802894592285
2008-10-20,2.4876959323883057
2008-10-21,2.358072519302368
2008-10-22,2.2515337467193604
2008-10-23,2.295924425125122
2008-10-24,2.2391037940979004
2008-10-27,2.1645262241363525
2008-10-28,2.50101375579834
2008-10-29,2.4788172245025635
2008-10-30,2.6022250652313232
2008-10-31,2.6031136512756348
2008-11-03,2.5338633060455322
2008-11-04,2.6563830375671387
2008-11-05,2.4512953758239746
2008-11-06,2.1947126388549805
2008-11-07,2.369614839553833
2008-11-10,2.423771858215332
2008-11-11,2.311018705368042
2008-11-12,2.1698532104492188
2008-11-13,2.326998710632324
2008-11-14,2.1947126388549805
2008-11-17,2.1689653396606445
2008-11-18,2.1423306465148926
2008-11-19,1.986960768699646
2008-11-20,1.874206304550171
2008-11-21,2.038454532623291
2008-11-24,2.2160205841064453
2008-11-25,2.054436206817627
2008-11-26,2.158311605453491
2008-11-28,2.232888698577881
2008-12-01,2.096163511276245
2008-12-02,2.1689653396606445
2008-12-03,2.1494336128234863
2008-12-04,2.0322399139404297
2008-12-05,2.109480619430542
2008-12-08,2.298588752746582
2008-12-09,2.2133564949035645
2008-12-10,2.2257864475250244
2008-12-11,2.1290123462677
2008-12-12,2.1503214836120605
2008-12-15,2.1201348304748535
2008-12-16,2.137003183364868
2008-12-17,2.211581230163574
2008-12-18,2.2621877193450928
2008-12-19,2.2692902088165283
2008-12-22,2.2231228351593018
2008-12-23,2.2470943927764893
2008-12-24,2.2311134338378906
2008-12-26,2.1432182788848877
2008-12-29,2.1245737075805664
2008-12-30,2.170740842819214
2008-12-31,2.1813948154449463
2009-01-02,2.232888698577881
2009-01-05,2.307466745376587
2009-01-06,2.361624240875244
2009-01-07,2.391810655593872
2009-01-08,2.365175485610962
2009-01-09,2.3500819206237793
2009-01-12,2.2977001667022705
2009-01-13,2.432650566101074
2009-01-14,2.3465311527252197
2009-01-15,2.410454511642456
2009-01-16,2.4592857360839844
2009-01-20,2.3234479427337646
2009-01-21,2.374054193496704
2009-01-22,2.2666265964508057
2009-01-23,2.3136818408966064
2009-01-26,2.3705029487609863
2009-01-27,2.4069035053253174
2009-01-28,2.489471435546875
2009-01-29,2.4379773139953613
2009-01-30,2.358072519302368
2009-02-02,2.363400459289551
2009-02-03,2.436201572418213
2009-02-04,2.4042396545410156
2009-02-05,2.379380702972412
2009-02-06,2.5738155841827393
2009-02-09,2.604889392852783
2009-02-10,2.4069035053253174
2009-02-11,2.396249294281006
2009-02-12,2.4033524990081787
2009-02-13,2.3420917987823486
2009-02-17,2.2275619506835938
2009-02-18,2.232888698577881
2009-02-19,2.1947126388549805
2009-02-20,2.1449944972991943
2009-02-23,2.1023786067962646
2009-02-24,2.2000396251678467
2009-02-25,2.1858339309692383
2009-02-26,2.148545742034912
2009-02-27,2.148545742034912
2009-03-02,2.0224740505218506
2009-03-03,2.0491085052490234
2009-03-04,2.1378917694091797
2009-03-05,2.036679267883301
2009-03-06,2.0704164505004883
2009-03-09,2.0260250568389893
2009-03-10,2.1760685443878174
2009-03-11,2.175180196762085
2009-03-12,2.2550852298736572
2009-03-13,2.2479820251464844
2009-03-16,2.2275619506835938
2009-03-17,2.2515337467193604
2009-03-18,2.326111316680908
2009-03-19,2.3749420642852783
2009-03-20,2.298588752746582
2009-03-23,2.452183246612549
2009-03-24,2.331437826156616
2009-03-25,2.383820056915283
2009-03-26,2.485032081604004
2009-03-27,2.300363779067993
2009-03-30,2.2968125343322754
2009-03-31,2.364287853240967
2009-04-01,2.396249294281006
2009-04-02,2.5400779247283936
2009-04-03,2.580030679702759
2009-04-06,2.5134432315826416
2009-04-07,2.50278902053833
2009-04-08,2.5667123794555664
2009-04-09,2.6386263370513916
2009-04-13,2.617318868637085
2009-04-14,2.5533955097198486
2009-04-15,2.3802683353424072
2009-04-16,2.441528558731079
2009-04-17,2.484144926071167
2009-04-20,2.4069035053253174
2009-04-21,2.4157819747924805
2009-04-22,2.476154327392578
2009-04-23,2.5400779247283936
2009-04-24,2.564936637878418
2009-04-27,2.5454046726226807
2009-04-28,2.5445168018341064
2009-04-29,2.691896677017212
2009-04-30,2.7353994846343994
2009-05-01,2.7256338596343994
2009-05-04,2.90852689743042
2009-05-05,2.878340482711792
2009-05-06,2.790445327758789
2009-05-07,2.7513811588287354
2009-05-08,2.7664737701416016
2009-05-11,2.7567086219787598
2009-05-12,2.8277344703674316
2009-05-13,2.6954476833343506
2009-05-14,2.79488468170166
2009-05-15,2.8428280353546143
2009-05-18,3.0985219478607178
2009-05-19,2.931610107421875
2009-05-20,2.859696388244629
2009-05-21,2.799323558807373
2009-05-22,2.805539131164551
2009-05-26,2.877452850341797
2009-05-27,2.895209312438965
2009-05-28,2.963571786880493
2009-05-29,3.068336248397827
2009-06-01,3.169548511505127
2009-06-02,3.2308082580566406
2009-06-03,3.1555895805358887
2009-06-04,3.185106039047241
2009-06-05,3.223567008972168
2009-06-08,3.2396671772003174
2009-06-09,3.3568389415740967
2009-06-10,3.3344783782958984
2009-06-11,3.3210608959198
2009-06-12,3.3201661109924316
2009-06-15,3.1770565509796143
2009-06-16,3.116234302520752
2009-06-17,3.1493287086486816
2009-06-18,3.1538004875183105
2009-06-19,3.2334065437316895
2009-06-22,3.136805772781372
2009-06-23,3.172584295272827
2009-06-24,3.232511520385742
2009-06-25,3.280810832977295
2009-06-26,3.368466377258301
2009-06-29,3.3309006690979004
2009-06-30,3.2897555828094482
2009-07-01,3.3389506340026855
2009-07-02,3.23877215385437
2009-07-06,3.19941782951355
2009-07-07,3.1538004875183105
2009-07-08,3.067039728164673
2009-07-09,3.0849287509918213
2009-07-10,3.21551775932312
2009-07-13,3.2405624389648438
2009-07-14,3.226250171661377
2009-07-15,3.3398449420928955
2009-07-16,3.3657829761505127
2009-07-17,3.465066432952881
2009-07-20,3.638587713241577
2009-07-21,3.6582658290863037
2009-07-22,3.622488260269165
2009-07-23,3.777226686477661
2009-07-24,3.7924320697784424
2009-07-27,3.796902894973755
2009-07-28,3.758443832397461
2009-07-29,3.717298746109009
2009-07-30,3.7754387855529785
2009-07-31,3.8487818241119385
2009-08-03,3.969531536102295
2009-08-04,4.020514488220215
2009-08-05,3.977581739425659
2009-08-06,3.892609119415283
2009-08-07,3.8979766368865967
2009-08-10,3.8577260971069336
2009-08-11,3.8130037784576416
2009-08-12,3.8460986614227295
2009-08-13,3.831786632537842
2009-08-14,3.7477102279663086
2009-08-17,3.6305384635925293
2009-08-18,3.656477212905884
2009-08-19,3.6716830730438232
2009-08-20,3.6850993633270264
2009-08-21,3.7790162563323975
2009-08-24,3.788853645324707
2009-08-25,3.853254556655884
2009-08-26,3.9543263912200928
2009-08-27,4.00888729095459
2009-08-28,3.9561147689819336
2009-08-31,3.866670608520508
2009-09-01,3.8577260971069336
2009-09-02,3.884558916091919
2009-09-03,3.965954065322876
2009-09-04,4.016936779022217
2009-09-08,4.1171135902404785
2009-09-09,4.190458297729492
2009-09-10,4.222659111022949
2009-09-11,4.184197425842285
2009-09-14,4.154679775238037
2009-09-15,4.216396808624268
2009-09-16,4.342513561248779
2009-09-17,4.3970746994018555
2009-09-18,4.354140758514404
2009-09-21,4.380079746246338
2009-09-22,4.4087018966674805
2009-09-23,4.339829444885254
2009-09-24,4.214608192443848
2009-09-25,4.171675205230713
2009-09-28,4.288846969604492
2009-09-29,4.306736469268799
2009-09-30,4.3371477127075195
2009-10-01,4.2262372970581055
2009-10-02,4.279901504516602
2009-10-05,4.4087018966674805
2009-10-06,4.435536861419678
2009-10-07,4.342513561248779
2009-10-08,4.425695419311523
2009-10-09,4.270063877105713
2009-10-12,4.236968994140625
2009-10-13,4.277943134307861
2009-10-14,4.396549701690674
2009-10-15,4.357013702392578
2009-10-16,4.273449897766113
2009-10-19,4.306695938110352
2009-10-20,4.318378925323486
2009-10-21,4.2941155433654785
2009-10-22,4.3264641761779785
2009-10-23,4.365101337432861
2009-10-26,4.3345513343811035
2009-10-27,4.240204811096191
2009-10-28,4.1683220863342285
2009-10-29,4.246494293212891
2009-10-30,4.133277893066406
2009-11-02,4.167422771453857
2009-11-03,4.195276737213135
2009-11-04,4.2941155433654785
2009-11-05,4.339043140411377
2009-11-06,4.2941155433654785
2009-11-09,4.41362190246582
2009-11-10,4.333652496337891
2009-11-11,4.463939666748047
2009-11-12,4.444172382354736
2009-11-13,4.570866584777832
2009-11-16,4.6643147468566895
2009-11-17,4.723618984222412
2009-11-18,4.676894187927246
2009-11-19,4.578054904937744
2009-11-20,4.603213787078857
2009-11-23,4.658024311065674
2009-11-24,4.653532028198242
2009-11-25,4.729907512664795
2009-11-27,4.543910503387451
2009-11-30,4.579851150512695
2009-12-01,4.669705867767334
2009-12-02,4.675995826721191
2009-12-03,4.671503067016602
2009-12-04,4.713733673095703
2009-12-07,4.6409525871276855
2009-12-08,4.6508355140686035
2009-12-09,4.716430187225342
2009-12-10,4.727212429046631
2009-12-11,4.715530872344971
2009-12-14,4.7981977462768555
2009-12-15,4.790108680725098
2009-12-16,4.890746593475342
2009-12-17,4.87457275390625
2009-12-18,4.909615516662598
2009-12-21,4.859297752380371
2009-12-22,4.892542839050293
2009-12-23,4.9967732429504395
2009-12-24,5.030917644500732
2009-12-28,5.019237041473389
2009-12-29,4.9931793212890625
2009-12-30,5.0057597160339355
2009-12-31,4.96622371673584
2010-01-04,5.100106239318848
2010-01-05,5.119873523712158
2010-01-06,5.0416998863220215
2010-01-07,4.888050079345703
2010-01-08,4.900630474090576
2010-01-11,4.926689147949219
2010-01-12,5.1800761222839355
2010-01-13,5.261841773986816
2010-01-14,5.278914928436279
2010-01-15,5.206132411956787
2010-01-19,5.258249282836914
2010-01-20,5.130657196044922
2010-01-21,5.018338680267334
2010-01-22,4.861992835998535
2010-01-25,4.897036075592041
2010-01-26,4.8575005531311035
2010-01-27,4.890746593475342
2010-01-28,4.7029523849487305
2010-01-29,4.6643147468566895
2010-02-01,4.749674320220947
2010-02-02,4.768545627593994
2010-02-03,4.780226230621338
2010-02-04,4.554691314697266
2010-02-05,4.576257705688477
2010-02-08,4.593329906463623
2010-02-09,4.785616397857666
2010-02-10,4.772139549255371
2010-02-11,4.876369476318359
2010-02-12,4.854804515838623
2010-02-16,4.985991954803467
2010-02-17,4.977904796600342
2010-02-18,5.016541957855225
2010-02-19,5.030917644500732
2010-02-22,5.02462911605835
2010-02-23,4.988686561584473
2010-02-24,5.074047565460205
2010-02-25,5.10280179977417
2010-02-26,5.112685203552246
2010-03-01,5.242074966430664
2010-03-02,5.308567047119141
2010-03-03,5.3049726486206055
2010-03-04,5.228597164154053
2010-03-05,5.351696968078613
2010-03-08,5.379550457000732
2010-03-09,5.344508171081543
2010-03-10,5.3741607666015625
2010-03-11,5.388537406921387
2010-03-12,5.312160015106201
2010-03-15,5.347203731536865
2010-03-16,5.40201473236084
2010-03-17,5.493664741516113
2010-03-18,5.550273418426514
2010-03-19,5.454131126403809
2010-03-22,5.534099102020264
2010-03-23,5.5996928215026855
2010-03-24,5.518824577331543
2010-03-25,5.538592338562012
2010-03-26,5.473897457122803
2010-03-29,5.418188095092773
2010-03-30,5.36697244644165
2010-03-31,5.284305095672607
2010-04-01,5.407405376434326
2010-04-05,5.488273620605469
2010-04-06,5.492767810821533
2010-04-07,5.378652572631836
2010-04-08,5.4190874099731445
2010-04-09,5.477492332458496
2010-04-12,5.519723415374756
2010-04-13,5.665287017822266
2010-04-14,5.642823219299316
2010-04-15,5.630243301391602
2010-04-16,5.569142818450928
2010-04-19,5.548475742340088
2010-04-20,5.591606140136719
2010-04-21,5.5323028564453125
2010-04-22,5.592504501342773
2010-04-23,5.566447734832764
2010-04-26,5.612272262573242
2010-04-27,5.434362411499023
2010-04-28,5.423580169677734
2010-04-29,5.481985092163086
2010-04-30,5.385841369628906
2010-05-03,5.458622932434082
2010-05-04,5.264538764953613
2010-05-05,5.295089244842529
2010-05-06,5.106395721435547
2010-05-07,5.074946880340576
2010-05-10,5.391233921051025
2010-05-11,5.306769847869873
2010-05-12,5.349000930786133
2010-05-13,5.35978364944458
2010-05-14,5.199842929840088
2010-05-17,5.200742244720459
2010-05-18,5.162105083465576
2010-05-19,5.111786842346191
2010-05-20,4.958136558532715
2010-05-21,5.066859722137451
2010-05-24,5.001266956329346
2010-05-25,4.994976997375488
2010-05-26,5.025629043579102
2010-05-27,5.236271858215332
2010-05-28,5.201014041900635
2010-06-01,5.114224433898926
2010-06-02,5.285995006561279
2010-06-03,5.314924240112305
2010-06-04,5.224518299102783
2010-06-07,5.1124162673950195
2010-06-08,5.187453746795654
2010-06-09,5.167564392089844
2010-06-10,5.324869155883789
2010-06-11,5.372783660888672
2010-06-14,5.5237603187561035
2010-06-15,5.659368515014648
2010-06-16,5.746157169342041
2010-06-17,5.7118024826049805
2010-06-18,5.733500957489014
2010-06-21,5.716323375701904
2010-06-22,5.608741760253906
2010-06-23,5.623206615447998
2010-06-24,5.560827255249023
2010-06-25,5.634054660797119
2010-06-28,5.614165306091309
2010-06-29,5.416178226470947
2010-06-30,5.416178226470947
2010-07-01,5.342949390411377
2010-07-02,5.323060989379883
2010-07-06,5.371880531311035
2010-07-07,5.493927001953125
2010-07-08,5.54545783996582
2010-07-09,5.656656742095947
2010-07-12,5.697338581085205
2010-07-13,5.372783660888672
2010-07-14,5.368262767791748
2010-07-15,5.3655524253845215
2010-07-16,5.271529197692871
2010-07-19,5.2977471351623535
2010-07-20,5.323060989379883
2010-07-21,5.24440860748291
2010-07-22,5.420698165893555
2010-07-23,5.440587997436523
2010-07-26,5.4848856925964355
2010-07-27,5.493927001953125
2010-07-28,5.463189601898193
2010-07-29,5.461380958557129
2010-07-30,5.467709064483643
2010-08-02,5.54545783996582
2010-08-03,5.662080764770508
2010-08-04,5.72898006439209
2010-08-05,5.6250152587890625
2010-08-06,5.594276428222656
2010-08-09,5.641287803649902
2010-08-10,5.609645843505859
2010-08-11,5.401714324951172
2010-08-12,5.359222888946533
2010-08-13,5.338429927825928
2010-08-16,5.378207683563232
2010-08-17,5.3935770988464355
2010-08-18,5.460477352142334
2010-08-19,5.389960765838623
2010-08-20,5.385440826416016
2010-08-23,5.367358684539795
2010-08-24,5.301364421844482
2010-08-25,5.309500694274902
2010-08-26,5.269722938537598
2010-08-27,5.24440860748291
2010-08-30,5.1820292472839355
2010-08-31,5.178411960601807
2010-09-01,5.397193431854248
2010-09-02,5.40352201461792
2010-09-03,5.483981609344482
2010-09-07,5.499350070953369
2010-09-08,5.571675777435303
2010-09-09,5.590660572052002
2010-09-10,5.634958744049072
2010-09-13,5.850123405456543
2010-09-14,5.886285305023193
2010-09-15,5.854644298553467
2010-09-16,5.8682050704956055
2010-09-17,5.882669448852539
2010-09-20,5.9812116622924805
2010-09-21,5.955896854400635
2010-09-22,5.9251604080200195
2010-09-23,5.913406848907471
2010-09-24,6.046302795410156
2010-09-27,5.978499412536621
2010-09-28,6.078847885131836
2010-09-29,6.068902969360352
2010-09-30,6.085177898406982
2010-10-01,6.3753790855407715
2010-10-04,6.220784664154053
2010-10-05,6.303959369659424
2010-10-06,6.23976993560791
2010-10-07,6.224401950836182
2010-10-08,6.282259941101074
2010-10-11,6.219882011413574
2010-10-12,6.232538223266602
2010-10-13,6.436853408813477
2010-10-14,6.419677257537842
2010-10-15,6.20270299911499
2010-10-18,6.213552474975586
2010-10-19,6.0775980949401855
2010-10-20,6.122488975524902
2010-10-21,6.176539897918701
2010-10-22,6.226012229919434
2010-10-25,6.185703277587891
2010-10-26,6.155471324920654
2010-10-27,6.083096504211426
2010-10-28,6.128902912139893
2010-10-29,6.178372859954834
2010-11-01,6.1582183837890625
2010-11-02,6.208606243133545
2010-11-03,6.237921237945557
2010-11-04,6.372591018676758
2010-11-05,6.317625999450684
2010-11-08,6.227845191955566
2010-11-09,6.173793315887451
2010-11-10,6.258993148803711
2010-11-11,6.197612762451172
2010-11-12,6.073935508728027
2010-11-15,6.089510440826416
2010-11-16,5.919110298156738
2010-11-17,5.909948348999023
2010-11-18,6.0775980949401855
2010-11-19,6.040954113006592
2010-11-22,6.145392417907715
2010-11-23,6.018050670623779
2010-11-24,6.123406410217285
2010-11-26,6.134398937225342
2010-11-29,6.081263065338135
2010-11-30,6.060193061828613
2010-12-01,6.2159342765808105
2010-12-02,6.346024513244629
2010-12-03,6.3515214920043945
2010-12-06,6.36526346206665
2010-12-07,6.422980308532715
2010-12-08,6.418399810791016
2010-12-09,6.3643479347229
2010-12-10,6.391831398010254
2010-12-13,6.455044746398926
2010-12-14,6.531998157501221
2010-12-15,6.542993068695068
2010-12-16,6.739961624145508
2010-12-17,6.757366180419922
2010-12-20,6.756450653076172
2010-12-21,6.783019065856934
2010-12-22,6.797676086425781
2010-12-23,6.857224464416504
2010-12-27,6.874631881713867
2010-12-28,6.871883392333984
2010-12-29,6.946089744567871
2010-12-30,7.0001420974731445
2010-12-31,6.969908714294434
2011-01-03,7.102748394012451
2011-01-04,7.04319953918457
2011-01-05,7.089005947113037
2011-01-06,7.080760955810547
2011-01-07,6.9405927658081055
2011-01-10,6.892953872680664
2011-01-11,6.889289379119873
2011-01-12,7.024878025054932
2011-01-13,6.581470489501953
2011-01-14,6.479780673980713
2011-01-18,6.510928153991699
2011-01-19,6.4907732009887695
2011-01-20,6.474283695220947
2011-01-21,6.439469814300537
2011-01-24,6.497185707092285
2011-01-25,6.412900447845459
2011-01-26,6.450464248657227
2011-01-27,6.418399810791016
2011-01-28,6.194864273071289
2011-01-31,6.203107833862305
2011-02-01,6.298386096954346
2011-02-02,6.231509208679199
2011-02-03,6.261741638183594
2011-02-04,6.2003607749938965
2011-02-07,6.2974700927734375
2011-02-08,6.319458484649658
2011-02-09,6.230592250823975
2011-02-10,6.167379379272461
2011-02-11,6.149057865142822
2011-02-14,6.242501258850098
2011-02-15,6.256245136260986
2011-02-16,6.291057109832764
2011-02-17,6.372591018676758
2011-02-18,6.355186939239502
2011-02-22,6.174707889556885
2011-02-23,6.094088077545166
2011-02-24,6.094088077545166
2011-02-25,6.169210910797119
2011-02-28,6.1105804443359375
2011-03-01,6.097754001617432
2011-03-02,6.124322414398193
2011-03-03,6.266321659088135
2011-03-04,6.199443340301514
2011-03-07,6.1215739250183105
2011-03-08,6.313960075378418
2011-03-09,6.291973114013672
2011-03-10,6.143560409545898
2011-03-11,6.188451290130615
2011-03-14,6.214102268218994
2011-03-15,6.092258453369141
2011-03-16,5.9365153312683105
2011-03-17,5.97590970993042
2011-03-18,5.913612365722656
2011-03-21,5.9731597900390625
2011-03-22,5.910862922668457
2011-03-23,6.0611090660095215
2011-03-24,6.252580642700195
2011-03-25,6.343276500701904
2011-03-28,6.359766483306885
2011-03-29,6.4816131591796875
2011-03-30,6.482530117034912
2011-03-31,6.568645000457764
2011-04-01,6.697819232940674
2011-04-04,6.723470211029053
2011-04-05,6.724385738372803
2011-04-06,6.700567245483398
2011-04-07,6.712475776672363
2011-04-08,6.600709915161133
2011-04-11,6.6740007400512695
2011-04-12,6.575056552886963
2011-04-13,6.686825752258301
2011-04-14,6.688656806945801
2011-04-15,5.790851593017578
2011-04-18,5.815587520599365
2011-04-19,5.854063987731934
2011-04-20,5.953005313873291
2011-04-21,5.958502292633057
2011-04-25,5.996063232421875
2011-04-26,6.07027006149292
2011-04-27,6.063856601715088
2011-04-28,5.901702880859375
2011-04-29,5.971329689025879
2011-05-02,5.99331521987915
2011-05-03,5.906282901763916
2011-05-04,5.861392021179199
2011-05-05,5.79909610748291
2011-05-06,5.938346862792969
2011-05-09,5.920940399169922
2011-05-10,5.954838275909424
2011-05-11,5.896205902099609
2011-05-12,5.901702880859375
2011-05-13,5.821083068847656
2011-05-16,5.7313032150268555
2011-05-17,5.738631248474121
2011-05-18,5.786271572113037
2011-05-19,5.744128704071045
2011-05-20,5.76336669921875
2011-05-23,5.72672176361084
2011-05-24,5.732217788696289
2011-05-25,5.688394546508789
2011-05-26,5.700388431549072
2011-05-27,5.688394546508789
2011-05-31,5.697621822357178
2011-06-01,5.692085266113281
2011-06-02,5.739142417907715
2011-06-03,5.779741287231445
2011-06-06,5.838791847229004
2011-06-07,5.923680305480957
2011-06-08,5.879391670227051
2011-06-09,5.921835422515869
2011-06-10,5.825875282287598
2011-06-13,5.847097873687744
2011-06-14,5.872010231018066
2011-06-15,5.745600700378418
2011-06-16,5.687471866607666
2011-06-17,5.686549663543701
2011-06-20,5.600739002227783
2011-06-21,5.697621822357178
2011-06-22,5.677321434020996
2011-06-23,5.739142417907715
2011-06-24,5.753907203674316
2011-06-27,5.851710319519043
2011-06-28,5.920913219451904
2011-06-29,5.950438499450684
2011-06-30,6.018718719482422
2011-07-01,6.096222877502441
2011-07-05,6.1561994552612305
2011-07-06,6.132209300994873
2011-07-07,6.2973713874816895
2011-07-08,6.201412200927734
2011-07-11,6.006723403930664
2011-07-12,5.669018268585205
2011-07-13,5.652409076690674
2011-07-14,5.64318323135376
2011-07-15,5.664405345916748
2011-07-18,5.595202445983887
2011-07-19,5.721611976623535
2011-07-20,5.6856255531311035
2011-07-21,5.781586647033691
2011-07-22,5.87016487121582
2011-07-25,5.800962448120117
2011-07-26,5.82772159576416
2011-07-27,5.719765663146973
2011-07-28,5.702235698699951
2011-07-29,5.740988254547119
2011-08-01,5.836025238037109
2011-08-02,5.655178546905518
2011-08-03,5.681012153625488
2011-08-04,5.365452766418457
2011-08-05,5.295327186584473
2011-08-08,4.926252365112305
2011-08-09,5.100640296936035
2011-08-10,4.8450541496276855
2011-08-11,4.980689525604248
2011-08-12,4.962237358093262
2011-08-15,5.000990390777588
2011-08-16,4.9105658531188965
2011-08-17,4.988070964813232
2011-08-18,4.417849063873291
2011-08-19,4.388321399688721
2011-08-22,4.43814754486084
2011-08-23,4.6042327880859375
2011-08-24,4.568246841430664
2011-08-25,4.397549152374268
2011-08-26,4.4667510986328125
2011-08-29,4.737098217010498
2011-08-30,4.703883647918701
2011-08-31,4.762934684753418
2011-09-01,4.700191497802734
2011-09-02,4.57562780380249
2011-09-06,4.515653610229492
2011-09-07,4.618072986602783
2011-09-08,4.579320430755615
2011-09-09,4.352336883544922
2011-09-12,4.38001823425293
2011-09-13,4.434455871582031
2011-09-14,4.596850395202637
2011-09-15,4.670665264129639
2011-09-16,4.672510623931885
2011-09-19,4.561788082122803
2011-09-20,4.60884428024292
2011-09-21,4.5211896896362305
2011-09-22,4.337574005126953
2011-09-23,4.4501423835754395
2011-09-26,4.494431495666504
2011-09-27,4.725104808807373
2011-09-28,4.690042495727539
2011-09-29,4.774930000305176
2011-09-30,4.712185382843018
2011-10-03,4.617149353027344
2011-10-04,4.679892063140869
2011-10-05,4.744481086730957
2011-10-06,4.857972621917725
2011-10-07,4.823832988739014
2011-10-10,4.966850280761719
2011-10-11,4.8588948249816895
2011-10-12,5.198444366455078
2011-10-13,5.158768177032471
2011-10-14,5.259343147277832
2011-10-17,5.079417705535889
2011-10-18,5.149543285369873
2011-10-19,5.101583480834961
2011-10-20,5.04684591293335
2011-10-21,5.155391216278076
2011-10-24,5.347431182861328
2011-10-25,5.346503257751465
2011-10-26,5.348359107971191
2011-10-27,5.647087574005127
2011-10-28,5.588641166687012
2011-10-31,5.435564994812012
2011-11-01,5.334443092346191
2011-11-02,5.431854248046875
2011-11-03,5.450408935546875
2011-11-04,5.388249397277832
2011-11-07,5.376190662384033
2011-11-08,5.417010307312012
2011-11-09,5.198066711425781
2011-11-10,5.197139739990234
2011-11-11,5.307538032531738
2011-11-14,5.1424031257629395
2011-11-15,5.158174991607666
2011-11-16,5.04684591293335
2011-11-17,4.955928325653076
2011-11-18,4.925313949584961
2011-11-21,4.729564189910889
2011-11-22,4.731418609619141
2011-11-23,4.604320526123047
2011-11-25,4.635862827301025
2011-11-28,4.731418609619141
2011-11-29,4.6905975341796875
2011-11-30,4.788938522338867
2011-12-01,4.8622283935546875
2011-12-02,4.8993377685546875
2011-12-05,4.942013740539551
2011-12-06,4.893771648406982
2011-12-07,4.906760215759277
2011-12-08,4.694308757781982
2011-12-09,4.869649410247803
2011-12-12,4.787082195281982
2011-12-13,4.793576240539551
2011-12-14,4.623802661895752
2011-12-15,4.646996974945068
2011-12-16,4.672971725463867
2011-12-19,4.582983493804932
2011-12-20,4.775022029876709
2011-12-21,4.578342437744141
2011-12-22,4.737912178039551
2011-12-23,4.745336055755615
2011-12-27,4.763888359069824
2011-12-28,4.732347011566162
2011-12-29,4.762032985687256
2011-12-30,4.766672611236572
2012-01-03,4.958713054656982
2012-01-04,4.935518741607666
2012-01-05,5.010665416717529
2012-01-06,5.002315998077393
2012-01-09,5.134054660797119
2012-01-10,5.18786096572876
2012-01-11,5.27599573135376
2012-01-12,4.810276508331299
2012-01-13,4.738840103149414
2012-01-17,4.816769599914551
2012-01-18,4.805636882781982
2012-01-19,4.796359062194824
2012-01-20,4.8510966300964355
2012-01-23,4.8993377685546875
2012-01-24,4.971701145172119
2012-01-25,5.030148029327393
2012-01-26,5.0867390632629395
2012-01-27,5.038496971130371
2012-01-30,5.036642074584961
2012-01-31,5.101583480834961
2012-02-01,5.146113395690918
2012-02-02,5.148898124694824
2012-02-03,5.29640531539917
2012-02-06,5.225898265838623
2012-02-07,5.196211814880371
2012-02-08,5.170234680175781
2012-02-09,5.223114490509033
2012-02-10,5.168379783630371
2012-02-13,5.198066711425781
2012-02-14,5.309393882751465
2012-02-15,5.45412015914917
2012-02-16,5.511638641357422
2012-02-17,5.529265880584717
2012-02-21,5.5236992835998535
2012-02-22,5.575653076171875
2012-02-23,5.533904552459717
2012-02-24,5.532049655914307
2012-02-27,5.447625160217285
2012-02-28,5.4281439781188965
2012-02-29,5.351140975952148
2012-03-01,5.369696140289307
2012-03-02,5.35206937789917
2012-03-05,5.295477867126465
2012-03-06,5.173017978668213
2012-03-07,5.293623447418213
2012-03-08,5.354852199554443
2012-03-09,5.399383544921875
2012-03-12,5.342792510986328
2012-03-13,5.468962669372559
2012-03-14,5.4466986656188965
2012-03-15,5.47916841506958
2012-03-16,5.452264785766602
2012-03-19,5.390106201171875
2012-03-20,5.348359107971191
2012-03-21,5.356708526611328
2012-03-22,5.238887310028076
2012-03-23,5.290840148925781
2012-03-26,5.326094150543213
2012-03-27,5.340936660766602
2012-03-28,5.186933994293213
2012-03-29,5.237959384918213
2012-03-30,5.290840148925781
2012-04-02,5.32238245010376
2012-04-03,5.343719959259033
2012-04-04,5.28527307510376
2012-04-05,5.32423734664917
2012-04-09,5.26671838760376
2012-04-10,5.217548847198486
2012-04-11,5.238887310028076
2012-04-12,5.26671838760376
2012-04-13,4.559788227081299
2012-04-16,4.405786037445068
2012-04-17,4.410425186157227
2012-04-18,4.342700481414795
2012-04-19,4.3723883628845215
2012-04-20,4.327857971191406
2012-04-23,4.236011505126953
2012-04-24,4.243432998657227
2012-04-25,4.278686046600342
2012-04-26,4.3482666015625
2012-04-27,4.3658928871154785
2012-04-30,4.388159275054932
2012-05-01,4.3946533203125
2012-05-02,4.41691780090332
2012-05-03,4.3343505859375
2012-05-04,4.236938953399658
2012-05-07,4.160865783691406
2012-05-08,4.176637172698975
2012-05-09,4.120973110198975
2012-05-10,4.1246843338012695
2012-05-11,4.056960105895996
2012-05-14,4.017066478729248
2012-05-15,4.090357303619385
2012-05-16,4.027272701263428
2012-05-17,3.940993309020996
2012-05-18,3.977174758911133
2012-05-21,3.9855241775512695
2012-05-22,4.038047790527344
2012-05-23,3.992866039276123
2012-05-24,4.0644025802612305
2012-05-25,3.9966320991516113
2012-05-29,4.089818000793457
2012-05-30,4.00133752822876
2012-05-31,3.9627468585968018
2012-06-01,3.970275640487671
2012-06-04,4.018280029296875
2012-06-05,4.074757099151611
2012-06-06,4.231007099151611
2012-06-07,4.130293369293213
2012-06-08,4.105817794799805
2012-06-11,4.0399298667907715
2012-06-12,4.153823375701904
2012-06-13,4.1227617263793945
2012-06-14,4.175472259521484
2012-06-15,4.235713958740234
2012-06-18,4.190533638000488
2012-06-19,4.165118217468262
2012-06-20,4.136880397796631
2012-06-21,3.987218141555786
2012-06-22,4.019221782684326
2012-06-25,3.9966320991516113
2012-06-26,4.00510311126709
2012-06-27,4.07004976272583
2012-06-28,4.029576301574707
2012-06-29,4.241361618041992
2012-07-02,4.275246620178223
2012-07-03,4.3345465660095215
2012-07-05,4.197123050689697
2012-07-06,4.0992302894592285
2012-07-09,4.146291732788086
2012-07-10,4.096405982971191
2012-07-11,4.105817794799805
2012-07-12,3.6474199295043945
2012-07-13,3.7848458290100098
2012-07-16,3.702014207839966
2012-07-17,3.690718650817871
2012-07-18,3.7453126907348633
2012-07-19,3.780139446258545
2012-07-20,3.721780300140381
2012-07-23,3.6521267890930176
2012-07-24,3.6078872680664062
2012-07-25,3.5928263664245605
2012-07-26,3.6380083560943604
2012-07-27,3.7264864444732666
2012-07-30,3.7170751094818115
2012-07-31,3.72554612159729
2012-08-01,3.755666971206665
2012-08-02,3.6935431957244873
2012-08-03,3.7697863578796387
2012-08-06,3.8281447887420654
2012-08-07,3.8959155082702637
2012-08-08,3.9015631675720215
2012-08-09,3.914741039276123
2012-08-10,3.9335665702819824
2012-08-13,3.8968570232391357
2012-08-14,3.8733251094818115
2012-08-15,3.8949742317199707
2012-08-16,3.9608640670776367
2012-08-17,4.007925987243652
2012-08-20,4.016397953033447
2012-08-21,4.093583106994629
2012-08-22,4.094524383544922
2012-08-23,4.1048760414123535
2012-08-24,4.107700824737549
2012-08-27,4.068168640136719
2012-08-28,4.054989814758301
2012-08-29,4.023928165435791
2012-08-30,3.9919261932373047
2012-08-31,4.003220558166504
2012-09-04,3.972158432006836
2012-09-05,3.9881598949432373
2012-09-06,4.202770233154297
2012-09-07,4.29783821105957
2012-09-10,4.264894008636475
2012-09-11,4.3147807121276855
2012-09-12,4.339252948760986
2012-09-13,4.4550299644470215
2012-09-14,4.5322136878967285
2012-09-17,4.535978317260742
2012-09-18,4.487973213195801
2012-09-19,4.471972465515137
2012-09-20,4.504917621612549
2012-09-21,4.585866451263428
2012-09-24,4.5416259765625
2012-09-25,4.4691481590271
2012-09-26,4.453147888183594
2012-09-27,4.492680549621582
2012-09-28,4.568922996520996
2012-10-01,4.655520439147949
2012-10-02,4.656462669372559
2012-10-03,4.658344745635986
2012-10-04,4.673405170440674
2012-10-05,4.588690280914307
2012-10-08,4.5077409744262695
2012-10-09,4.46726655960083
2012-10-10,4.411731719970703
2012-10-11,4.538803577423096
2012-10-12,4.1924147605896
2012-10-15,4.1952385902404785
2012-10-16,4.222241401672363
2012-10-17,4.1805596351623535
2012-10-18,4.209926605224609
2012-10-19,4.138877868652344
2012-10-22,4.166348934173584
2012-10-23,4.102878093719482
2012-10-24,4.073510646820068
2012-10-25,4.118035316467285
2012-10-26,4.0422492027282715
2012-10-31,4.1132988929748535
2012-11-01,4.160665035247803
2012-11-02,4.150245189666748
2012-11-05,4.14645528793335
2012-11-06,4.168244361877441
2012-11-07,4.100984573364258
2012-11-08,4.061196327209473
2012-11-09,4.078247547149658
2012-11-12,4.0545654296875
2012-11-13,3.986358404159546
2012-11-14,3.9513063430786133
2012-11-15,3.96551513671875
2012-11-16,4.030881881713867
2012-11-19,4.0990891456604
2012-11-20,3.9835140705108643
2012-11-21,4.012882232666016
2012-11-23,4.123720645904541
2012-11-26,4.1549811363220215
2012-11-27,4.130351543426514
2012-11-28,4.115194320678711
2012-11-29,4.230767726898193
2012-11-30,4.210875034332275
2012-12-03,4.168244361877441
2012-12-04,4.17108678817749
2012-12-05,4.119930744171143
2012-12-06,4.071616172790527
2012-12-07,4.056459426879883
2012-12-10,4.083932876586914
2012-12-11,4.073510646820068
2012-12-12,4.0545654296875
2012-12-13,3.9569902420043945
2012-12-14,3.9484639167785645
2012-12-17,3.9276230335235596
2012-12-18,3.9825682640075684
2012-12-19,4.015725135803223
2012-12-20,4.02046012878418
2012-12-21,4.0422492027282715
2012-12-24,3.973094940185547
2012-12-26,3.9920413494110107
2012-12-27,3.950359344482422
2012-12-28,3.9588851928710938
2012-12-31,4.007198333740234
2013-01-02,4.0602498054504395
2013-01-03,4.118035316467285
2013-01-04,4.043197154998779
2013-01-07,4.100984573364258
2013-01-08,4.028039932250977
2013-01-09,4.043197154998779
2013-01-10,4.163507461547852
2013-01-11,4.946948051452637
2013-01-14,4.919476509094238
2013-01-15,4.831373691558838
2013-01-16,4.862635612487793
2013-01-17,4.938421249389648
2013-01-18,4.946000576019287
2013-01-22,4.927053928375244
2013-01-23,5.02273416519165
2013-01-24,4.986735820770264
2013-01-25,4.9895782470703125
2013-01-28,4.946000576019287
2013-01-29,4.96873664855957
2013-01-30,5.004734992980957
2013-01-31,4.994314193725586
2013-02-01,5.003787517547607
2013-02-04,4.917581081390381
2013-02-05,4.982946872711182
2013-02-06,5.010418891906738
2013-02-07,4.945053577423096
2013-02-08,4.9630537033081055
2013-02-11,4.842741012573242
2013-02-12,4.883476734161377
2013-02-13,4.943159103393555
2013-02-14,4.891056537628174
2013-02-15,4.869266986846924
2013-02-19,4.9497904777526855
2013-02-20,4.916633605957031
2013-02-21,4.847477912902832
2013-02-22,5.066310882568359
2013-02-25,5.170517921447754
2013-02-26,5.161044597625732
2013-02-27,5.167675971984863
2013-02-28,5.108941555023193
2013-03-01,5.112730979919434
2013-03-04,5.075784683227539
2013-03-05,5.129782199859619
2013-03-06,5.1875691413879395
2013-03-07,5.180937767028809
2013-03-08,5.21599006652832
2013-03-11,5.148728847503662
2013-03-12,4.998104095458984
2013-03-13,5.015155792236328
2013-03-14,5.045470714569092
2013-03-15,5.0767316818237305
2013-03-18,5.041680812835693
2013-03-19,4.976314544677734
2013-03-20,5.061575889587402
2013-03-21,4.946000576019287
2013-03-22,4.96115779876709
2013-03-25,4.953579425811768
2013-03-26,4.9857892990112305
2013-03-27,4.995261192321777
2013-03-28,5.107047080993652
2013-04-01,5.048312664031982
2013-04-02,5.135467052459717
2013-04-03,5.0814690589904785
2013-04-04,4.978209972381592
2013-04-05,4.928949356079102
2013-04-08,4.907160758972168
2013-04-09,4.876845836639404
2013-04-10,5.020839691162109
2013-04-11,5.1477813720703125
2013-04-12,4.0829854011535645
2013-04-15,3.9513063430786133
2013-04-16,4.050774574279785
2013-04-17,3.9683573246002197
2013-04-18,3.909623861312866
2013-04-19,3.9541471004486084
2013-04-22,3.9134135246276855
2013-04-23,3.9001505374908447
2013-04-24,3.8650994300842285
2013-04-25,3.8707833290100098
2013-04-26,3.798786163330078
2013-04-29,3.866046667098999
2013-04-30,3.9541471004486084
2013-05-01,3.935201406478882
2013-05-02,4.032775402069092
2013-05-03,4.110457897186279
2013-05-06,4.092458248138428
2013-05-07,4.163507461547852
2013-05-08,4.151192665100098
2013-05-09,4.0990891456604
2013-05-10,4.061196327209473
2013-05-13,4.0545654296875
2013-05-14,4.064985275268555
2013-05-15,4.023303508758545
2013-05-16,4.046987056732178
2013-05-17,4.1076154708862305
2013-05-20,4.084879398345947
2013-05-21,4.124667167663574
2013-05-22,4.079195022583008
2013-05-23,4.0223565101623535
2013-05-24,3.959831476211548
2013-05-28,4.026144027709961
2013-05-29,3.973330497741699
2013-05-30,3.9992129802703857
2013-05-31,4.00208854675293
2013-06-03,4.163130283355713
2013-06-04,4.187095642089844
2013-06-05,4.0883612632751465
2013-06-06,4.095072269439697
2013-06-07,4.1276631355285645
2013-06-10,4.135330677032471
2013-06-11,4.084526538848877
2013-06-12,4.004963397979736
2013-06-13,3.9944188594818115
2013-06-14,4.030846118927002
2013-06-17,4.050018310546875
2013-06-18,3.985792398452759
2013-06-19,3.924443483352661
2013-06-20,3.815164089202881
2013-06-21,3.8477563858032227
2013-06-24,3.758607864379883
2013-06-25,3.8602182865142822
2013-06-26,3.8592591285705566
2013-06-27,3.9675793647766113
2013-06-28,3.948408842086792
2013-07-01,3.933070182800293
2013-07-02,3.8832242488861084
2013-07-03,3.8861005306243896
2013-07-05,3.942656993865967
2013-07-08,3.982917308807373
2013-07-09,4.036598205566406
2013-07-10,4.081650733947754
2013-07-11,4.221603870391846
2013-07-12,4.425782203674316
2013-07-15,4.438244342803955
2013-07-16,4.449747085571289
2013-07-17,4.488090515136719
2013-07-18,4.562859535217285
2013-07-19,4.576280117034912
2013-07-22,4.698978900909424
2013-07-23,4.6692633628845215
2013-07-24,4.7507429122924805
2013-07-25,4.788126468658447
2013-07-26,4.7785420417785645
2013-07-29,4.77278995513916
2013-07-30,4.764162540435791
2013-07-31,4.7622456550598145
2013-08-01,4.7756667137146
2013-08-02,4.764162540435791
2013-08-05,4.766080379486084
2013-08-06,4.703771591186523
2013-08-07,4.6462578773498535
2013-08-08,4.7622456550598145
2013-08-09,4.7488250732421875
2013-08-12,4.7488250732421875
2013-08-13,4.831264972686768
2013-08-14,4.797712802886963
2013-08-15,4.687477111816406
2013-08-16,4.640505790710449
2013-08-19,4.57532262802124
2013-08-20,4.550397872924805
2013-08-21,4.448788166046143
2013-08-22,4.493841171264648
2013-08-23,4.563819408416748
2013-08-26,4.55806827545166
2013-08-27,4.449747085571289
2013-08-28,4.453580856323242
2013-08-29,4.429616928100586
2013-08-30,4.444953918457031
2013-09-03,4.356764316558838
2013-09-04,4.476586818695068
2013-09-05,4.422906398773193
2013-09-06,4.468918800354004
2013-09-09,4.55806827545166
2013-09-10,4.735406398773193
2013-09-11,4.6836419105529785
2013-09-12,4.630919456481934
2013-09-13,4.59832763671875
2013-09-16,4.609830856323242
2013-09-17,4.621334075927734
2013-09-18,4.700896263122559
2013-09-19,4.65009069442749
2013-09-20,4.589701175689697
2013-09-23,4.645298004150391
2013-09-24,4.659677028656006
2013-09-25,4.684600353240967
2013-09-26,4.670222282409668
2013-09-27,4.660635471343994
2013-09-30,4.611747741699219
2013-10-01,4.6673455238342285
2013-10-02,4.687477111816406
2013-10-03,4.711441516876221
2013-10-04,4.735406398773193
2013-10-07,4.7373223304748535
2013-10-08,4.633794784545898
2013-10-09,4.7622456550598145
2013-10-10,4.819760799407959
2013-10-11,5.118839740753174
2013-10-14,5.228117942810059
2013-10-15,5.280185699462891
2013-10-16,5.253187656402588
2013-10-17,5.23293924331665
2013-10-18,5.219439506530762
2013-10-21,5.257044315338135
2013-10-22,5.277294158935547
2013-10-23,5.223296642303467
2013-10-24,5.2281174659729
2013-10-25,5.2126898765563965
2013-10-28,5.199190616607666
2013-10-29,5.217510223388672
2013-10-30,5.179905891418457
2013-10-31,5.116265296936035
2013-11-01,5.0690178871154785
2013-11-04,5.053589820861816
2013-11-05,5.102766036987305
2013-11-06,5.16640567779541
2013-11-07,5.175084114074707
2013-11-08,5.176048755645752
2013-11-11,5.132657527923584
2013-11-12,5.086373805999756
2013-11-13,5.15772819519043
2013-11-14,5.204011917114258
2013-11-15,5.266686916351318
2013-11-18,5.339005470275879
2013-11-19,5.297542572021484
2013-11-20,5.246438026428223
2013-11-21,5.160621166229248
2013-11-22,5.199190616607666
2013-11-25,5.132657527923584
2013-11-26,5.167370796203613
2013-11-27,5.128800392150879
2013-11-29,5.20883321762085
2013-12-02,5.164477825164795
2013-12-03,5.1307291984558105
2013-12-04,5.242580890655518
2013-12-05,5.194368839263916
2013-12-06,5.349612236022949
2013-12-09,5.321648597717285
2013-12-10,5.310077667236328
2013-12-11,5.234866619110107
2013-12-12,5.195333957672119
2013-12-13,5.242580890655518
2013-12-16,5.366967678070068
2013-12-17,5.387216567993164
2013-12-18,5.419037342071533
2013-12-19,5.452785015106201
2013-12-20,5.496176242828369
2013-12-23,5.4846062660217285
2013-12-24,5.510641098022461
2013-12-26,5.543424606323242
2013-12-27,5.616706848144531
2013-12-30,5.451821804046631
2013-12-31,5.457606792449951
2014-01-02,5.354432582855225
2014-01-03,5.510641098022461
2014-01-06,5.429643630981445
2014-01-07,5.408430576324463
2014-01-08,5.376610279083252
2014-01-09,5.414215564727783
2014-01-10,5.737236499786377
2014-01-13,5.728558540344238
2014-01-14,5.836553573608398
2014-01-15,5.784484386444092
2014-01-16,5.852945804595947
2014-01-17,5.812447547912598
2014-01-21,5.836553573608398
2014-01-22,5.929121971130371
2014-01-23,5.901158809661865
2014-01-24,5.740128993988037
2014-01-27,5.611886024475098
2014-01-28,5.5974225997924805
2014-01-29,5.626348495483398
2014-01-30,5.714095115661621
2014-01-31,5.6485276222229
2014-02-03,5.451821804046631
2014-02-04,5.503890514373779
2014-02-05,5.4508562088012695
2014-02-06,5.5463175773620605
2014-02-07,5.560781002044678
2014-02-10,5.5463175773620605
2014-02-11,5.646597862243652
2014-02-12,5.6350274085998535
2014-02-13,5.629242420196533
2014-02-14,5.717952251434326
2014-02-18,5.772913932800293
2014-02-19,5.777734756469727
2014-02-20,5.8664445877075195
2014-02-21,5.863553047180176
2014-02-24,5.886693954467773
2014-02-25,5.858731269836426
2014-02-26,5.901158809661865
2014-02-27,5.946476936340332
2014-02-28,5.946476936340332
2014-03-03,5.77869987487793
2014-03-04,5.965761661529541
2014-03-05,6.028438091278076
2014-03-06,6.075685501098633
2014-03-07,5.821125507354736
2014-03-10,5.751700401306152
2014-03-11,5.749773025512695
2014-03-12,5.400716781616211
2014-03-13,5.255116939544678
2014-03-14,5.298506259918213
2014-03-17,5.306221008300781
2014-03-18,5.294650554656982
2014-03-19,5.191476345062256
2014-03-20,5.266686916351318
2014-03-21,5.193404197692871
2014-03-24,5.141335964202881
2014-03-25,5.147121429443359
2014-03-26,5.168334007263184
2014-03-27,5.168334007263184
2014-03-28,5.2001543045043945
2014-03-31,5.2242608070373535
2014-04-01,5.322612762451172
2014-04-02,5.3679327964782715
2014-04-03,5.319720268249512
2014-04-04,5.282114505767822
2014-04-07,5.269580364227295
2014-04-08,5.298506259918213
2014-04-09,5.215581893920898
2014-04-10,5.086373805999756
2014-04-11,5.12494421005249
2014-04-14,5.359253883361816
2014-04-15,5.108551502227783
2014-04-16,5.069982528686523
2014-04-17,5.098908424377441
2014-04-21,5.062268257141113
2014-04-22,5.057446479797363
2014-04-23,5.042983531951904
2014-04-24,5.067088603973389
2014-04-25,5.062268257141113
2014-04-28,5.102766036987305
2014-04-29,5.136515140533447
2014-04-30,5.1789398193359375
2014-05-01,5.141335964202881
2014-05-02,5.155799388885498
2014-05-05,5.131693363189697
2014-05-06,5.138443946838379
2014-05-07,4.946558475494385
2014-05-08,4.957165718078613
2014-05-09,5.060339450836182
2014-05-12,5.203047275543213
2014-05-13,5.235830783843994
2014-05-14,5.247401714324951
2014-05-15,5.1837615966796875
2014-05-16,5.129764556884766
2014-05-19,5.023697853088379
2014-05-20,5.094088077545166
2014-05-21,5.140371322631836
2014-05-22,5.072875022888184
2014-05-23,5.076732158660889
2014-05-27,5.102766036987305
2014-05-28,4.933060646057129
2014-05-29,4.893525123596191
2014-05-30,4.959094047546387
2014-06-02,5.040090560913086
2014-06-03,5.011163234710693
2014-06-04,4.94752311706543
2014-06-05,4.979343891143799
2014-06-06,5.015019416809082
2014-06-09,5.00923490524292
2014-06-10,5.042983531951904
2014-06-11,5.280185699462891
2014-06-12,5.177012920379639
2014-06-13,5.20497465133667
2014-06-16,5.235830783843994
2014-06-17,5.259186744689941
2014-06-18,5.295334815979004
2014-06-19,5.338322162628174
2014-06-20,5.335391521453857
2014-06-23,5.224013805389404
2014-06-24,5.171255588531494
2014-06-25,5.210335731506348
2014-06-26,5.143900394439697
2014-06-27,5.247460842132568
2014-06-30,5.253324031829834
2014-07-01,5.251368999481201
2014-07-02,5.241599082946777
2014-07-03,5.249415874481201
2014-07-07,5.430159568786621
2014-07-08,5.427229404449463
2014-07-09,5.376425743103027
2014-07-10,5.437000274658203
2014-07-11,5.297288417816162
2014-07-14,5.243553638458252
2014-07-15,5.214243412017822
2014-07-16,5.355907917022705
2014-07-17,5.198611259460449
2014-07-18,5.298264980316162
2014-07-21,5.225967884063721
2014-07-22,5.306081295013428
2014-07-23,5.42136812210083
2014-07-24,5.448723793029785
2014-07-25,5.393033504486084
2014-07-28,5.459468841552734
2014-07-29,5.41159725189209
2014-07-30,5.43602180480957
2014-07-31,5.355907917022705
2014-08-01,5.390103340148926
2014-08-04,5.594295978546143
2014-08-05,5.637284278869629
2014-08-06,5.4975738525390625
2014-08-07,5.583549976348877
2014-08-08,5.653892993927002
2014-08-11,5.7125139236450195
2014-08-12,5.648031234741211
2014-08-13,5.6968817710876465
2014-08-14,5.679295539855957
2014-08-15,5.680272102355957
2014-08-18,5.705674171447754
2014-08-19,5.677341461181641
2014-08-20,5.713490009307861
2014-08-21,5.702743053436279
2014-08-22,5.763317108154297
2014-08-25,5.793603420257568
2014-08-26,5.807281017303467
2014-08-27,5.819005966186523
2014-08-28,5.789695739746094
2014-08-29,5.813143730163574
2014-09-02,5.808258533477783
2014-09-03,5.9811882972717285
2014-09-04,5.9704413414001465
2014-09-05,6.019290924072266
2014-09-08,6.032968997955322
2014-09-09,5.890326023101807
2014-09-10,5.905959129333496
2014-09-11,5.872741222381592
2014-09-12,5.825845241546631
2014-09-15,5.769178867340088
2014-09-16,5.8346381187438965
2014-09-17,5.7857890129089355
2014-09-18,5.8092360496521
2014-09-19,5.815097808837891
2014-09-22,5.7545247077941895
2014-09-23,5.75159215927124
2014-09-24,5.828775405883789
2014-09-25,5.762340545654297
2014-09-26,5.869809150695801
2014-09-29,5.912797927856445
2014-09-30,5.909867763519287
2014-10-01,5.879580497741699
2014-10-02,5.824868202209473
2014-10-03,5.867856502532959
2014-10-06,5.95871639251709
2014-10-07,5.88641881942749
2014-10-08,5.8981428146362305
2014-10-09,5.804350852966309
2014-10-10,6.137507915496826
2014-10-13,6.238138198852539
2014-10-14,6.348609924316406
2014-10-15,6.317102909088135
2014-10-16,6.596045970916748
2014-10-17,6.5048112869262695
2014-10-20,6.526833534240723
2014-10-21,6.539417743682861
2014-10-22,6.4723029136657715
2014-10-23,6.448185443878174
2014-10-24,6.520541191101074
2014-10-27,6.49642276763916
2014-10-28,6.57821798324585
2014-10-29,6.71139669418335
2014-10-30,6.841429710388184
2014-10-31,7.011312484741211
2014-11-03,7.025993347167969
2014-11-04,7.029139518737793
2014-11-05,7.0773773193359375
2014-11-06,7.086816310882568
2014-11-07,7.130859375
2014-11-10,7.105692386627197
2014-11-11,7.0459184646606445
2014-11-12,7.041724681854248
2014-11-13,7.126664161682129
2014-11-14,7.11407995223999
2014-11-17,7.129809856414795
2014-11-18,7.060599327087402
2014-11-19,7.049063205718994
2014-11-20,6.9473443031311035
2014-11-21,7.115128517150879
2014-11-24,7.304935455322266
2014-11-25,7.21999454498291
2014-11-26,7.326959133148193
2014-11-28,7.3238115310668945
2014-12-01,7.3238115310668945
2014-12-02,7.247259616851807
2014-12-03,7.313324928283691
2014-12-04,7.172804832458496
2014-12-05,7.060599327087402
2014-12-08,6.776413440704346
2014-12-09,6.747051239013672
2014-12-10,6.5855584144592285
2014-12-11,6.637990951538086
2014-12-12,6.558293342590332
2014-12-15,6.476497650146484
2014-12-16,6.501666069030762
2014-12-17,6.575071811676025
2014-12-18,6.826748847961426
2014-12-19,6.7386627197265625
2014-12-22,6.732369899749756
2014-12-23,6.721883296966553
2014-12-24,6.656867980957031
2014-12-26,6.669450283050537
2014-12-29,6.667354106903076
2014-12-30,6.6002397537231445
2014-12-31,6.598141670227051
2015-01-02,6.690423965454102
2015-01-05,6.606531620025635
2015-01-06,6.560390472412109
2015-01-07,6.698812484741211
2015-01-08,6.734467029571533
2015-01-09,7.038578033447266
2015-01-12,7.030188083648682
2015-01-13,7.101497650146484
2015-01-14,7.107789516448975
2015-01-15,7.166513442993164
2015-01-16,7.250406265258789
2015-01-20,7.256696701049805
2015-01-21,7.380437850952148
2015-01-22,7.50837516784668
2015-01-23,7.445456504821777
2015-01-26,7.4853057861328125
2015-01-27,7.369951248168945
2015-01-28,7.369951248168945
2015-01-29,7.260893821716309
2015-01-30,7.147638320922852
2015-02-02,7.2042646408081055
2015-02-03,7.239919662475586
2015-02-04,7.294448375701904
2015-02-05,7.497889041900635
2015-02-06,7.502082347869873
2015-02-09,7.592268943786621
2015-02-10,7.6530914306640625
2015-02-11,7.619533538818359
2015-02-12,7.703426361083984
2015-02-13,7.676159381866455
2015-02-17,7.585975646972656
2015-02-18,7.655187129974365
2015-02-19,7.801999092102051
2015-02-20,7.7432732582092285
2015-02-23,7.590170383453369
2015-02-24,7.7076191902160645
2015-02-25,7.7118144035339355
2015-02-26,7.671966075897217
2015-02-27,7.699230194091797
2015-03-02,7.676159381866455
2015-03-03,7.734885215759277
2015-03-04,7.575489521026611
2015-03-05,7.443359851837158
2015-03-06,7.390926837921143
2015-03-09,7.304935455322266
2015-03-10,7.27557373046875
2015-03-11,7.262990474700928
2015-03-12,7.388828754425049
2015-03-13,7.384633541107178
2015-03-16,7.575489521026611
2015-03-17,7.4853057861328125
2015-03-18,7.592268943786621
2015-03-19,7.546127796173096
2015-03-20,7.573392391204834
2015-03-23,7.548224925994873
2015-03-24,7.491597652435303
2015-03-25,7.344785213470459
2015-03-26,7.330103874206543
2015-03-27,7.445456504821777
2015-03-30,7.504179954528809
2015-03-31,7.3573689460754395
2015-04-01,7.265087127685547
2015-04-02,7.265087127685547
2015-04-06,7.246211528778076
2015-04-07,7.355271816253662
2015-04-08,7.504179954528809
2015-04-09,7.5545172691345215
2015-04-10,7.615340232849121
2015-04-13,7.596462726593018
2015-04-14,7.575489521026611
2015-04-15,7.581783294677734
2015-04-16,7.405607223510742
2015-04-17,7.361562728881836
2015-04-20,7.239919662475586
2015-04-21,7.246211528778076
2015-04-22,7.24830961227417
2015-04-23,7.332200527191162
2015-04-24,6.671548843383789
2015-04-27,6.5666823387146
2015-04-28,6.560390472412109
2015-04-29,6.5331244468688965
2015-04-30,6.497471332550049
2015-05-01,6.541515350341797
2015-05-04,6.614921569824219
2015-05-05,6.5478057861328125
2015-05-06,6.421967506408691
2015-05-07,6.463914394378662
2015-05-08,6.5478057861328125
2015-05-11,6.564585208892822
2015-05-12,6.43455171585083
2015-05-13,6.4492340087890625
2015-05-14,6.438746452331543
2015-05-15,6.5163469314575195
2015-05-18,6.587656021118164
2015-05-19,6.648477554321289
2015-05-20,6.715591907501221
2015-05-21,6.677839756011963
2015-05-22,6.6757426261901855
2015-05-26,6.568778991699219
2015-05-27,6.5561957359313965
2015-05-28,6.614921569824219
2015-05-29,6.684132099151611
2015-06-01,6.7554402351379395
2015-06-02,6.673645496368408
2015-06-03,6.732369899749756
2015-06-04,6.637990951538086
2015-06-05,6.671548843383789
2015-06-08,6.6107258796691895
2015-06-09,6.524736404418945
2015-06-10,6.652672290802002
2015-06-11,6.6507568359375
2015-06-12,6.601807594299316
2015-06-15,6.6507568359375
2015-06-16,6.776322841644287
2015-06-17,6.793348789215088
2015-06-18,6.846554756164551
2015-06-19,6.789093017578125
2015-06-22,6.923171520233154
2015-06-23,6.85719633102417
2015-06-24,6.708219528198242
2015-06-25,6.865707874298096
2015-06-26,6.882735252380371
2015-06-29,6.750783920288086
2015-06-30,6.746527671813965
2015-07-01,6.772066116333008
2015-07-02,6.793348789215088
2015-07-06,6.759297847747803
2015-07-07,6.750783920288086
2015-07-08,6.576268672943115
2015-07-09,6.559242248535156
2015-07-10,6.589037895202637
2015-07-13,6.61457633972168
2015-07-14,6.6316022872924805
2015-07-15,6.716732025146484
2015-07-16,6.780579566955566
2015-07-17,6.7422709465026855
2015-07-20,6.7124762535095215
2015-07-21,7.261561393737793
2015-07-22,7.3466925621032715
2015-07-23,7.3722310066223145
2015-07-24,7.333922386169434
2015-07-27,7.125354290008545
2015-07-28,7.206228256225586
2015-07-29,7.236023426055908
2015-07-30,7.214741230010986
2015-07-31,7.1977152824401855
2015-08-03,7.218997001647949
2015-08-04,7.210484981536865
2015-08-05,7.402024745941162
2015-08-06,7.367974758148193
2015-08-07,7.461616039276123
2015-08-10,7.529722213745117
2015-08-11,7.431820869445801
2015-08-12,7.597823619842529
2015-08-13,7.674441337585449
2015-08-14,7.648901462554932
2015-08-17,7.619107246398926
2015-08-18,7.661672115325928
2015-08-19,7.7297749519348145
2015-08-20,7.367974758148193
2015-08-21,7.25730562210083
2015-08-24,7.040225982666016
2015-08-25,7.023200035095215
2015-08-26,7.214741230010986
2015-08-27,7.350949287414551
2015-08-28,7.453104019165039
2015-08-31,7.299870014190674
2015-09-01,7.172175407409668
2015-09-02,7.427565097808838
2015-09-03,7.470129013061523
2015-09-04,7.201972007751465
2015-09-08,7.423308372497559
2015-09-09,7.350949287414551
2015-09-10,7.491413593292236
2015-09-11,7.529722213745117
2015-09-14,7.525463581085205
2015-09-15,7.559515953063965
2015-09-16,7.606337070465088
2015-09-17,7.555260181427002
2015-09-18,7.414795875549316
2015-09-21,7.602081775665283
2015-09-22,7.555260181427002
2015-09-23,7.512693405151367
2015-09-24,7.525463581085205
2015-09-25,7.580799102783203
2015-09-28,7.593568325042725
2015-09-29,7.68295431137085
2015-09-30,8.125630378723145
2015-10-01,8.040498733520508
2015-10-02,8.040498733520508
2015-10-05,8.274604797363281
2015-10-06,8.087321281433105
2015-10-07,8.09157657623291
2015-10-08,8.155425071716309
2015-10-09,8.151166915893555
2015-10-12,7.610592842102051
2015-10-13,7.461616039276123
2015-10-14,7.406282901763916
2015-10-15,7.494324207305908
2015-10-16,7.747715473175049
2015-10-19,7.6961774826049805
2015-10-20,7.752010345458984
2015-10-21,7.580218315124512
2015-10-22,7.799251079559326
2015-10-23,7.996810436248779
2015-10-26,7.945273399353027
2015-10-27,7.945273399353027
2015-10-28,7.988220691680908
2015-10-29,7.85508394241333
2015-10-30,7.799251079559326
2015-11-02,7.842197895050049
2015-11-03,7.8808512687683105
2015-11-04,7.794956207275391
2015-11-05,7.7691874504089355
2015-11-06,7.687587738037109
2015-11-09,7.5845136642456055
2015-11-10,7.49862003326416
2015-11-11,7.502913475036621
2015-11-12,7.455671310424805
2015-11-13,7.309652328491211
2015-11-16,7.2624101638793945
2015-11-17,6.918829441070557
2015-11-18,6.918829441070557
2015-11-19,6.9961347579956055
2015-11-20,6.9617767333984375
2015-11-23,6.974660873413086
2015-11-24,6.974660873413086
2015-11-25,6.944598197937012
2015-11-27,7.073439598083496
2015-11-30,7.163629531860352
2015-12-01,7.112092971801758
2015-12-02,6.983250617980957
2015-12-03,6.927418231964111
2015-12-04,7.030492782592773
2015-12-07,7.004724025726318
2015-12-08,6.837230205535889
2015-12-09,6.92312479019165
2015-12-10,7.056260108947754
2015-12-11,6.970365524291992
2015-12-14,7.094913959503174
2015-12-15,7.210873126983643
2015-12-16,7.266704559326172
2015-12-17,7.142155170440674
2015-12-18,7.0219035148620605
2015-12-21,7.112092971801758
2015-12-22,7.210873126983643
2015-12-23,7.240935325622559
2015-12-24,7.236640453338623
2015-12-28,7.232347011566162
2015-12-29,7.279588222503662
2015-12-30,7.223755836486816
2015-12-31,7.193693161010742
2016-01-04,6.974660873413086
2016-01-05,6.957482814788818
2016-01-06,6.901650905609131
2016-01-07,6.897356033325195
2016-01-08,6.944598197937012
2016-01-11,6.9789557456970215
2016-01-12,7.116386890411377
2016-01-13,7.0691447257995605
2016-01-14,7.666114330291748
2016-01-15,7.438492298126221
2016-01-19,7.507209777832031
2016-01-20,7.481440544128418
2016-01-21,7.674703598022461
2016-01-22,7.687587738037109
2016-01-25,7.648934841156006
2016-01-26,7.524389266967773
2016-01-27,7.481440544128418
2016-01-28,7.42990255355835
2016-01-29,7.691884517669678
2016-02-01,7.631755828857422
2016-02-02,7.541566371917725
2016-02-03,7.580218315124512
2016-02-04,7.661818981170654
2016-02-05,7.451379299163818
2016-02-08,7.107797622680664
2016-02-09,7.017608165740967
2016-02-10,7.0219035148620605
2016-02-11,6.9617767333984375
2016-02-12,6.9145355224609375
2016-02-16,6.9617767333984375
2016-02-17,7.077733993530273
2016-02-18,7.047671794891357
2016-02-19,7.03908109664917
2016-02-22,7.253818511962891
2016-02-23,7.150745391845703
2016-02-24,7.232347011566162
2016-02-25,7.2452311515808105
2016-02-26,7.253818511962891
2016-02-29,7.223755836486816
2016-03-01,7.481440544128418
2016-03-02,7.593103408813477
2016-03-03,7.807840824127197
2016-03-04,7.919503211975098
2016-03-07,7.906620502471924
2016-03-08,7.6961774826049805
2016-03-09,7.661818981170654
2016-03-10,7.631755828857422
2016-03-11,7.713356971740723
2016-03-14,7.739126682281494
2016-03-15,7.623167514801025
2016-03-16,7.807840824127197
2016-03-17,7.8722615242004395
2016-03-18,7.953860282897949
2016-03-21,8.022578239440918
2016-03-22,7.94956636428833
2016-03-23,8.013988494873047
2016-03-24,8.078408241271973
2016-03-28,8.052640914916992
2016-03-29,8.026875495910645
2016-03-30,8.228727340698242
2016-03-31,8.168599128723145
2016-04-01,8.267377853393555
2016-04-04,8.267377853393555
2016-04-05,8.078408241271973
2016-04-06,8.074114799499512
2016-04-07,7.777778148651123
2016-04-08,7.752010345458984
2016-04-11,7.803546905517578
2016-04-12,7.816430568695068
2016-04-13,7.8808512687683105
2016-04-14,7.92379903793335
2016-04-15,8.589484214782715
2016-04-18,8.284557342529297
2016-04-19,8.31032657623291
2016-04-20,8.3060302734375
2016-04-21,8.134242057800293
2016-04-22,8.194368362426758
2016-04-25,8.194368362426758
2016-04-26,8.2587890625
2016-04-27,8.254494667053223
2016-04-28,8.112767219543457
2016-04-29,8.074114799499512
2016-05-02,8.06982135772705
2016-05-03,7.94956636428833
2016-05-04,7.919503211975098
2016-05-05,7.902324676513672
2016-05-06,7.902324676513672
2016-05-09,8.026875495910645
2016-05-10,8.15571403503418
2016-05-11,8.013988494873047
2016-05-12,8.03975772857666
2016-05-13,7.966745853424072
2016-05-16,8.099884986877441
2016-05-17,7.910914421081543
2016-05-18,8.00539779663086
2016-05-19,7.932387828826904
2016-05-20,7.928092956542969
2016-05-23,7.898031711578369
2016-05-24,7.983924865722656
2016-05-25,8.078408241271973
2016-05-26,8.23731517791748
2016-05-27,8.370452880859375
2016-05-31,8.348979949951172
2016-06-01,8.396222114562988
2016-06-02,8.447754859924316
2016-06-03,8.421989440917969
2016-06-06,8.464937210083008
2016-06-07,8.483607292175293
2016-06-08,8.379405975341797
2016-06-09,7.914846897125244
2016-06-10,7.849722385406494
2016-06-13,7.784598350524902
2016-06-14,7.841040134429932
2016-06-15,7.862748146057129
2016-06-16,7.919188976287842
2016-06-17,7.93221378326416
2016-06-20,8.084173202514648
2016-06-21,8.0494384765625
2016-06-22,8.066805839538574
2016-06-23,8.240472793579102
2016-06-24,7.849722385406494
2016-06-27,7.524097442626953
2016-06-28,7.619614601135254
2016-06-29,7.719475269317627
2016-06-30,7.7498650550842285
2016-07-01,7.77591609954834
2016-07-05,7.741181373596191
2016-07-06,7.654349327087402
2016-07-07,7.6717143058776855
2016-07-08,7.745522499084473
2016-07-11,7.871432781219482
2016-07-12,7.93221378326416
2016-07-13,7.949581623077393
2016-07-14,8.006022453308105
2016-07-15,7.298332214355469
2016-07-18,7.30267333984375
2016-07-19,7.228865146636963
2016-07-20,7.272282600402832
2016-07-21,7.215841293334961
2016-07-22,7.194131374359131
2016-07-25,7.246231555938721
2016-07-26,7.272282600402832
2016-07-27,7.250574588775635
2016-07-28,7.202815532684326
2016-07-29,7.133347988128662
2016-08-01,7.194131374359131
2016-08-02,7.115981101989746
2016-08-03,7.098615646362305
2016-08-04,6.985732078552246
2016-08-05,7.055199146270752
2016-08-08,7.063882827758789
2016-08-09,7.1029582023620605
2016-08-10,7.168082237243652
2016-08-11,7.133347988128662
2016-08-12,7.00744104385376
2016-08-15,7.033491611480713
2016-08-16,6.9249491691589355
2016-08-17,6.911924839019775
2016-08-18,6.894557952880859
2016-08-19,6.903240203857422
2016-08-22,6.859825134277344
2016-08-23,7.181107997894287
2016-08-24,7.115981101989746
2016-08-25,6.968365669250488
2016-08-26,6.903240203857422
2016-08-29,6.83811616897583
2016-08-30,6.885873317718506
2016-08-31,6.885873317718506
2016-09-01,6.990074634552002
2016-09-02,7.076906681060791
2016-09-06,7.137691020965576
2016-09-07,7.137691020965576
2016-09-08,6.985732078552246
2016-09-09,6.977049827575684
2016-09-12,7.111640453338623
2016-09-13,6.972707748413086
2016-09-14,6.9249491691589355
2016-09-15,6.964024066925049
2016-09-16,6.977049827575684
2016-09-19,7.003098487854004
2016-09-20,6.968365669250488
2016-09-21,7.003098487854004
2016-09-22,7.055199146270752
2016-09-23,6.929291725158691
2016-09-26,6.89021635055542
2016-09-27,6.907582759857178
2016-09-28,6.898899078369141
2016-09-29,6.89021635055542
2016-09-30,6.85114049911499
2016-10-03,6.929291725158691
2016-10-04,6.9249491691589355
2016-10-05,6.929291725158691
2016-10-06,6.8424577713012695
2016-10-07,6.772991180419922
2016-10-10,6.89021635055542
2016-10-11,6.816407203674316
2016-10-12,6.916266441345215
2016-10-13,7.228865146636963
2016-10-14,6.799041271209717
2016-10-17,6.816407203674316
2016-10-18,6.907582759857178
2016-10-19,6.949260234832764
2016-10-20,6.905388832092285
2016-10-21,6.962422847747803
2016-10-24,7.015068054199219
2016-10-25,6.883452415466309
2016-10-26,6.852743148803711
2016-10-27,6.738676071166992
2016-10-28,6.7079668045043945
2016-10-31,6.69480562210083
2016-11-01,6.69480562210083
2016-11-02,6.650933265686035
2016-11-03,6.563190937042236
2016-11-04,6.598287582397461
2016-11-07,6.686030864715576
2016-11-08,6.650933265686035
2016-11-09,6.378930568695068
2016-11-10,6.335058689117432
2016-11-11,6.365767478942871
2016-11-14,6.168346405029297
2016-11-15,6.142023086547852
2016-11-16,6.190281867980957
2016-11-17,6.185894966125488
2016-11-18,6.093764781951904
2016-11-21,6.142023086547852
2016-11-22,6.168346405029297
2016-11-23,6.199056148529053
2016-11-25,6.374542236328125
2016-11-28,6.387704372406006
2016-11-29,6.3613810539245605
2016-11-30,6.352606773376465
2016-12-01,6.2780256271362305
2016-12-02,6.2780256271362305
2016-12-05,6.291186809539795
2016-12-06,6.348219871520996
2016-12-07,6.488609313964844
2016-12-08,6.484221458435059
2016-12-09,6.466673851013184
2016-12-12,6.449123859405518
2016-12-13,6.567578315734863
2016-12-14,6.510545253753662
2016-12-15,6.528093338012695
2016-12-16,6.536867618560791
2016-12-19,6.523705959320068
2016-12-20,6.550029277801514
2016-12-21,6.567578315734863
2016-12-22,6.492995738983154
2016-12-23,6.471060752868652
2016-12-27,6.4973835945129395
2016-12-28,6.46228551864624
2016-12-29,6.466673851013184
2016-12-30,6.506157398223877
2017-01-03,6.466673851013184
2017-01-04,6.637772560119629
2017-01-05,6.589513778686523
2017-01-06,6.501771450042725
2017-01-09,6.563190937042236
2017-01-10,6.484221458435059
2017-01-11,6.664094924926758
2017-01-12,6.690418243408203
2017-01-13,6.3613810539245605
2017-01-17,6.356994152069092
2017-01-18,6.335058689117432
2017-01-19,6.3131232261657715
2017-01-20,6.299960136413574
2017-01-23,6.1815080642700195
2017-01-24,6.194669246673584
2017-01-25,6.142023086547852
2017-01-26,6.049892902374268
2017-01-27,6.1157002449035645
2017-01-30,6.058667182922363
2017-01-31,6.041118621826172
2017-02-01,5.962150573730469
2017-02-02,6.032344818115234
2017-02-03,6.089376926422119
2017-02-06,6.076215744018555
2017-02-07,6.172734260559082
2017-02-08,6.190281867980957
2017-02-09,6.392091274261475
2017-02-10,6.3613810539245605
2017-02-13,6.427188873291016
2017-02-14,6.541254997253418
2017-02-15,6.5193190574646
2017-02-16,6.576352119445801
2017-02-17,6.528093338012695
2017-02-21,6.7079668045043945
2017-02-22,6.598287582397461
2017-02-23,6.664094924926758
2017-02-24,6.6728692054748535
2017-02-27,6.6728692054748535
2017-02-28,6.642159461975098
2017-03-01,6.738676071166992
2017-03-02,6.703579425811768
2017-03-03,6.747450351715088
2017-03-06,6.650933265686035
2017-03-07,6.593900680541992
2017-03-08,6.567578315734863
2017-03-09,6.677257061004639
2017-03-10,6.800097465515137
2017-03-13,6.839581489562988
2017-03-14,6.82642126083374
2017-03-15,6.760612964630127
2017-03-16,6.918550968170166
2017-03-17,6.729903221130371
2017-03-20,6.804485321044922
2017-03-21,6.813258171081543
2017-03-22,6.865904808044434
2017-03-23,6.892227649688721
2017-03-24,6.8746795654296875
2017-03-27,6.909776210784912
2017-03-28,6.896615028381348
2017-03-29,6.9317121505737305
2017-03-30,6.9317121505737305
2017-03-31,6.9317121505737305
2017-04-03,6.786935806274414
2017-04-04,6.7518391609191895
2017-04-05,6.738676071166992
2017-04-06,6.738676071166992
2017-04-07,6.699192523956299
2017-04-10,6.65532112121582
2017-04-11,6.6202239990234375
2017-04-12,6.69480562210083
2017-04-13,6.352606773376465
2017-04-17,6.374542236328125
2017-04-18,6.326283931732178
2017-04-19,6.291186809539795
2017-04-20,6.348219871520996
2017-04-21,6.352606773376465
2017-04-24,6.330671787261963
2017-04-25,6.378930568695068
2017-04-26,6.3613810539245605
2017-04-27,6.392091274261475
2017-04-28,6.387704372406006
2017-05-01,6.378930568695068
2017-05-02,6.370156288146973
2017-05-03,6.440350532531738
2017-05-04,6.45789909362793
2017-05-05,6.492995738983154
2017-05-08,6.624610900878906
2017-05-09,6.554416656494141
2017-05-10,6.541254997253418
2017-05-11,6.699192523956299
2017-05-12,6.703579425811768
2017-05-15,6.633385181427002
2017-05-16,6.69480562210083
2017-05-17,6.5324811935424805
2017-05-18,6.571965217590332
2017-05-19,6.650933265686035
2017-05-22,6.602675437927246
2017-05-23,6.607061862945557
2017-05-24,6.668482780456543
2017-05-25,6.804485321044922
2017-05-26,6.813258171081543
2017-05-30,6.756226062774658
2017-05-31,6.7250494956970215
2017-06-01,6.814123630523682
2017-06-02,6.760679244995117
2017-06-05,6.782948017120361
2017-06-06,6.943280220031738
2017-06-07,6.827484607696533
2017-06-08,6.80076265335083
2017-06-09,6.658244609832764
2017-06-12,6.707234859466553
2017-06-13,6.742865085601807
2017-06-14,6.756226062774658
2017-06-15,6.711688995361328
2017-06-16,6.533541679382324
2017-06-19,6.600347995758057
2017-06-20,6.635976791381836
2017-06-21,6.671605587005615
2017-06-22,6.578078746795654
2017-06-23,6.61370849609375
2017-06-26,6.653791427612305
2017-06-27,6.551355838775635
2017-06-28,6.644883632659912
2017-06-29,6.6315226554870605
2017-06-30,6.689420223236084
2017-07-03,6.742865085601807
2017-07-05,6.653791427612305
2017-07-06,6.653791427612305
2017-07-07,6.698327541351318
2017-07-10,6.823030471801758
2017-07-11,6.889836311340332
2017-07-12,6.965548515319824
2017-07-13,6.929919242858887
2017-07-14,6.978909492492676
2017-07-17,6.965548515319824
2017-07-18,6.9254655838012695
2017-07-19,6.849751949310303
2017-07-20,6.912104606628418
2017-07-21,6.983363628387451
2017-07-24,6.983363628387451
2017-07-25,7.041261196136475
2017-07-26,7.0857977867126465
2017-07-27,6.943280220031738
2017-07-28,6.9967241287231445
2017-07-31,7.036807537078857
2017-08-01,7.0857977867126465
2017-08-02,7.027900218963623
2017-08-03,7.023446559906006
2017-08-04,6.978909492492676
2017-08-07,6.921010971069336
2017-08-08,6.912104606628418
2017-08-09,6.947734355926514
2017-08-10,6.823030471801758
2017-08-11,6.898743629455566
2017-08-14,6.889836311340332
2017-08-15,6.898743629455566
2017-08-16,6.9700026512146
2017-08-17,7.094704627990723
2017-08-18,6.586986064910889
2017-08-21,6.484552383422852
2017-08-22,6.3509416580200195
2017-08-23,6.600347995758057
2017-08-24,6.676059722900391
2017-08-25,6.747317790985107
2017-08-28,6.818577766418457
2017-08-29,6.80076265335083
2017-08-30,6.702781677246094
2017-08-31,6.68051290512085
2017-09-01,6.609254837036133
2017-09-05,6.524634838104248
2017-09-06,6.5112738609313965
2017-09-07,6.493459224700928
2017-09-08,6.471190452575684
2017-09-11,6.489005088806152
2017-09-12,6.475644111633301
2017-09-13,6.471190452575684
2017-09-14,6.480097770690918
2017-09-15,6.524634838104248
2017-09-18,6.591439247131348
2017-09-19,6.591439247131348
2017-09-20,6.609254837036133
2017-09-21,6.520181655883789
2017-09-22,6.497912883758545
2017-09-25,6.373210430145264
2017-09-26,6.386570930480957
2017-09-27,6.36875581741333
2017-09-28,6.355395317077637
2017-09-29,6.497912883758545
2017-10-02,6.537996292114258
2017-10-03,6.480097770690918
2017-10-04,6.462282657623291
2017-10-05,6.466737270355225
2017-10-06,6.5157270431518555
2017-10-09,6.5424485206604
2017-10-10,6.573625564575195
2017-10-11,6.493459224700928
2017-10-12,6.506819248199463
2017-10-13,6.551355838775635
2017-10-16,6.5112738609313965
2017-10-17,6.440014839172363
2017-10-18,6.493459224700928
2017-10-19,6.546903610229492
2017-10-20,6.484552383422852
2017-10-23,6.604801177978516
2017-10-24,6.466737270355225
2017-10-25,6.684967041015625
2017-10-26,6.684967041015625
2017-10-27,6.68051290512085
2017-10-30,6.6315226554870605
2017-10-31,6.703995704650879
2017-11-01,6.797285556793213
2017-11-02,6.769446849822998
2017-11-03,6.78800630569458
2017-11-06,6.876162528991699
2017-11-07,6.890081405639648
2017-11-08,6.922560214996338
2017-11-09,6.9503984451293945
2017-11-10,6.96431827545166
2017-11-13,6.866881847381592
2017-11-14,6.9179205894470215
2017-11-15,6.885441780090332
2017-11-16,7.084952354431152
2017-11-17,7.047834396362305
2017-11-20,6.996796131134033
2017-11-21,7.015356063842773
2017-11-22,7.052473545074463
2017-11-24,7.24270486831665
2017-11-27,7.2055864334106445
2017-11-28,7.219506740570068
2017-11-29,7.191667556762695
2017-11-30,7.219506740570068
2017-12-01,6.9875168800354
2017-12-04,7.173107624053955
2017-12-05,7.279822826385498
2017-12-06,7.219506740570068
2017-12-07,7.270544052124023
2017-12-08,7.27518367767334
2017-12-11,7.358699798583984
2017-12-12,7.381898403167725
2017-12-13,7.37261962890625
2017-12-14,7.377258777618408
2017-12-15,7.451495170593262
2017-12-18,7.442216396331787
2017-12-19,7.419017314910889
2017-12-20,7.423656940460205
2017-12-21,7.465414524078369
2017-12-22,7.470054626464844
2017-12-26,7.521091461181641
2017-12-27,7.50717306137085
2017-12-28,7.497893333435059
2017-12-29,7.525732040405273
2018-01-02,7.558211326599121
2018-01-03,7.4932541847229
2018-01-04,7.446855545043945
2018-01-05,7.586050033569336
2018-01-08,7.646366596221924
2018-01-09,7.767000675201416
2018-01-10,7.882996082305908
2018-01-11,8.012910842895508
2018-01-12,7.799479007720947
2018-01-16,8.24953842163086
2018-01-17,8.4072904586792
2018-01-18,8.314495086669922
2018-01-19,8.346973419189453
2018-01-22,8.486167907714844
2018-01-23,8.560404777526855
2018-01-24,8.565044403076172
2018-01-25,8.560404777526855
2018-01-26,8.583603858947754
2018-01-29,8.606801986694336
2018-01-30,8.467609405517578
2018-01-31,8.356254577636719
2018-02-01,8.319135665893555
2018-02-02,8.23561954498291
2018-02-05,8.059309005737305
2018-02-06,8.105704307556152
2018-02-07,8.110344886779785
2018-02-08,7.93867301940918
2018-02-09,8.054668426513672
2018-02-12,8.17530345916748
2018-02-13,8.101064682006836
2018-02-14,8.15210247039795
2018-02-15,8.170661926269531
2018-02-16,8.161382675170898
2018-02-20,8.18458080291748
2018-02-21,8.198501586914062
2018-02-22,8.258816719055176
2018-02-23,8.333053588867188
2018-02-26,8.203140258789062
2018-02-27,8.12890625
2018-02-28,8.19386100769043
2018-03-01,8.119625091552734
2018-03-02,8.23561954498291
2018-03-05,8.35161304473877
2018-03-06,8.346973419189453
2018-03-07,8.300575256347656
2018-03-08,8.365533828735352
2018-03-09,8.425849914550781
2018-03-12,8.541845321655273
2018-03-13,8.53256607055664
2018-03-14,8.527925491333008
2018-03-15,8.49080753326416
2018-03-16,8.49080753326416
2018-03-19,8.342333793640137
2018-03-20,8.449048042297363
2018-03-21,8.3701753616333
2018-03-22,8.207780838012695
2018-03-23,8.226340293884277
2018-03-26,8.337695121765137
2018-03-27,8.221699714660645
2018-03-28,8.207780838012695
2018-03-29,8.282017707824707
2018-04-02,8.142822265625
2018-04-03,8.203140258789062
2018-04-04,8.272738456726074
2018-04-05,8.29129695892334
2018-04-06,8.114984512329102
2018-04-09,8.008269309997559
2018-04-10,8.036108016967773
2018-04-11,8.050027847290039
2018-04-12,8.356254577636719
2018-04-13,7.711322784423828
2018-04-16,7.882996082305908
2018-04-17,7.808758735656738
2018-04-18,7.855156898498535
2018-04-19,7.966510772705078
2018-04-20,8.059309005737305
2018-04-23,8.08250617980957
2018-04-24,7.929394245147705
2018-04-25,7.98507022857666
2018-04-26,8.101064682006836
2018-04-27,8.17530345916748
2018-04-30,8.198501586914062
2018-05-01,8.18458080291748
2018-05-02,8.24489974975586
2018-05-03,8.203140258789062
2018-05-04,8.19386100769043
2018-05-07,8.091787338256836
2018-05-08,8.036108016967773
2018-05-09,8.105704307556152
2018-05-10,8.096426963806152
2018-05-11,8.14746379852295
2018-05-14,8.18922233581543
2018-05-15,8.12890625
2018-05-16,8.142822265625
2018-05-17,8.054668426513672
2018-05-18,8.054668426513672
2018-05-21,8.068585395812988
2018-05-22,8.12890625
2018-05-23,8.263459205627441
2018-05-24,8.462968826293945
2018-05-25,8.500086784362793
2018-05-29,8.35161304473877
2018-05-30,8.416569709777832
2018-05-31,8.439770698547363
2018-06-01,8.486167907714844
2018-06-04,8.555765151977539
2018-06-05,8.518646240234375
2018-06-06,8.69495677947998
2018-06-07,8.616080284118652
2018-06-08,8.690316200256348
2018-06-11,8.69959831237793
2018-06-12,8.815592765808105
2018-06-13,8.732075691223145
2018-06-14,8.493546485900879
2018-06-15,8.760137557983398
2018-06-18,8.624504089355469
2018-06-19,8.51225471496582
2018-06-20,8.493546485900879
2018-06-21,8.526285171508789
2018-06-22,8.755460739135742
2018-06-25,8.718045234680176
2018-06-26,8.755460739135742
2018-06-27,8.727399826049805
2018-06-28,8.886420249938965
2018-06-29,9.087532997131348
2018-07-02,9.171721458435059
2018-07-03,9.209136009216309
2018-07-05,9.045440673828125
2018-07-06,8.956575393676758
2018-07-09,9.073501586914062
2018-07-10,9.25123119354248
2018-07-11,9.241876602172852
2018-07-12,9.358802795410156
2018-07-13,9.082856178283691
2018-07-16,9.167044639587402
2018-07-17,9.307354927062988
2018-07-18,9.204459190368652
2018-07-19,9.218489646911621
2018-07-20,9.358802795410156
2018-07-23,9.42428207397461
2018-07-24,9.536530494689941
2018-07-25,9.625396728515625
2018-07-26,9.606688499450684
2018-07-27,9.51314640045166
2018-07-30,9.32606315612793
2018-07-31,9.438314437866211
2018-08-01,9.517823219299316
2018-08-02,9.531854629516602
2018-08-03,9.606688499450684
2018-08-06,9.630073547363281
2018-08-07,9.634748458862305
2018-08-08,9.70490550994873
2018-08-09,9.77506160736084
2018-08-10,9.728290557861328
2018-08-13,9.73764419555664
2018-08-14,9.77506160736084
2018-08-15,9.761031150817871
2018-08-16,9.817155838012695
2018-08-17,9.859249114990234
2018-08-20,9.587979316711426
2018-08-21,9.583301544189453
2018-08-22,9.587979316711426
2018-08-23,9.531854629516602
2018-08-24,9.494438171386719
2018-08-27,9.606688499450684
2018-08-28,9.658134460449219
2018-08-29,9.517823219299316
2018-08-30,9.569269180297852
2018-08-31,9.71426010131836
2018-09-04,9.709582328796387
2018-09-05,9.686197280883789
2018-09-06,9.728290557861328
2018-09-07,9.751675605773926
2018-09-10,9.68152141571045
2018-09-11,9.807801246643066
2018-09-12,9.868602752685547
2018-09-13,9.924727439880371
2018-09-14,9.653456687927246
2018-09-17,9.587979316711426
2018-09-18,9.48508358001709
2018-09-19,9.363481521606445
2018-09-20,9.419604301452637
2018-09-21,9.288647651672363
2018-09-24,9.307354927062988
2018-09-25,9.494438171386719
2018-09-26,9.41025161743164
2018-09-27,9.447667121887207
2018-09-28,9.51314640045166
2018-10-01,9.700227737426758
2018-10-02,9.606688499450684
2018-10-03,9.39154052734375
2018-10-04,9.3541259765625
2018-10-05,9.51314640045166
2018-10-08,9.382187843322754
2018-10-09,9.372834205627441
2018-10-10,9.110918045043945
2018-10-11,8.905128479003906
2018-10-12,9.110918045043945
2018-10-15,9.269938468933105
2018-10-16,9.559917449951172
2018-10-17,9.167044639587402
2018-10-18,8.923836708068848
2018-10-19,8.96125316619873
2018-10-22,8.867712020874023
2018-10-23,8.792878150939941
2018-10-24,8.474838256835938
2018-10-25,8.611909866333008
2018-10-26,8.52683162689209
2018-10-29,8.479565620422363
2018-10-30,8.687536239624023
2018-10-31,8.952226638793945
2018-11-01,8.791522026062012
2018-11-02,8.744256019592285
2018-11-05,8.886054992675781
2018-11-06,8.961681365966797
2018-11-07,9.084572792053223
2018-11-08,8.990039825439453
2018-11-09,8.9711332321167
2018-11-12,8.82933521270752
2018-11-13,8.886054992675781
2018-11-14,8.744256019592285
2018-11-15,8.819881439208984
2018-11-16,8.819881439208984
2018-11-19,8.782068252563477
2018-11-20,8.59300422668457
2018-11-21,8.5740966796875
2018-11-23,8.59300422668457
2018-11-26,8.678082466125488
2018-11-27,8.763163566589355
2018-11-28,9.320903778076172
2018-11-29,9.15074634552002
2018-11-30,9.320903778076172
2018-12-03,9.35871696472168
2018-12-04,9.311450958251953
2018-12-06,9.2925443649292
2018-12-07,9.160199165344238
2018-12-10,9.046758651733398
2018-12-11,9.160199165344238
2018-12-12,9.13183879852295
2018-12-13,9.330357551574707
2018-12-14,9.349264144897461
2018-12-17,9.075119018554688
2018-12-18,9.018400192260742
2018-12-19,8.914414405822754
2018-12-20,8.772614479064941
2018-12-21,8.602457046508789
2018-12-24,8.583549499511719
2018-12-26,8.867147445678711
2018-12-27,8.933320045471191
2018-12-28,8.914414405822754
2018-12-31,8.999493598937988
2019-01-02,9.084572792053223
2019-01-03,8.952226638793945
2019-01-04,9.103479385375977
2019-01-07,9.179105758666992
2019-01-08,9.216917037963867
2019-01-09,9.330357551574707
2019-01-10,9.33980941772461
2019-01-11,9.840831756591797
2019-01-14,9.803018569946289
2019-01-15,9.916458129882812
2019-01-16,10.029897689819336
2019-01-17,10.001537322998047
2019-01-18,10.086616516113281
2019-01-22,9.95427131652832
2019-01-23,9.95427131652832
2019-01-24,9.912579536437988
2019-01-25,10.026625633239746
2019-01-28,9.998113632202148
2019-01-29,9.960098266601562
2019-01-30,10.064640998840332
2019-01-31,10.2642240524292
2019-02-01,10.359261512756348
2019-02-04,10.330750465393066
2019-02-05,10.302238464355469
2019-02-06,10.359261512756348
2019-02-07,10.311742782592773
2019-02-08,10.321246147155762
2019-02-11,10.283231735229492
2019-02-12,10.235713005065918
2019-02-13,10.2642240524292
2019-02-14,10.226207733154297
2019-02-15,10.226207733154297
2019-02-19,10.026625633239746
2019-02-20,10.169184684753418
2019-02-21,10.026625633239746
2019-02-22,10.102656364440918
2019-02-25,10.273728370666504
2019-02-26,10.197694778442383
2019-02-27,10.169184684753418
2019-02-28,10.188193321228027
2019-03-01,10.302238464355469
2019-03-04,10.188193321228027
2019-03-05,10.235713005065918
2019-03-06,10.178688049316406
2019-03-07,9.969602584838867
2019-03-08,9.950594902038574
2019-03-11,10.026625633239746
2019-03-12,9.998113632202148
2019-03-13,10.026625633239746
2019-03-14,10.074145317077637
2019-03-15,10.169184684753418
2019-03-18,10.188193321228027
2019-03-19,10.359261512756348
2019-03-20,10.39727783203125
2019-03-21,10.51132583618164
2019-03-22,10.340254783630371
2019-03-25,10.283231735229492
2019-03-26,10.283231735229492
2019-03-27,10.197694778442383
2019-03-28,10.340254783630371
2019-03-29,10.387774467468262
2019-04-01,10.539836883544922
2019-04-02,10.625371932983398
2019-04-03,10.644379615783691
2019-04-04,10.520828247070312
2019-04-05,10.758426666259766
2019-04-08,10.748924255371094
2019-04-09,10.5968599319458
2019-04-10,10.530333518981934
2019-04-11,10.425789833068848
2019-04-12,10.026625633239746
2019-04-15,10.045632362365723
2019-04-16,9.855554580688477
2019-04-17,9.893570899963379
2019-04-18,9.874564170837402
2019-04-22,9.931586265563965
2019-04-23,10.007616996765137
2019-04-24,10.055136680603027
2019-04-25,9.998113632202148
2019-04-26,10.121664047241211
2019-04-29,10.216704368591309
2019-04-30,10.226207733154297
2019-05-01,10.235713005065918
2019-05-02,10.045632362365723
2019-05-03,9.817540168762207
2019-05-06,9.931586265563965
2019-05-07,9.827043533325195
2019-05-08,9.874564170837402
2019-05-09,9.693988800048828
2019-05-10,9.751011848449707
2019-05-13,9.608453750610352
2019-05-14,9.703492164611816
2019-05-15,9.874564170837402
2019-05-16,9.988609313964844
2019-05-17,9.665477752685547
2019-05-20,9.693988800048828
2019-05-21,9.674980163574219
2019-05-22,9.712997436523438
2019-05-23,9.655973434448242
2019-05-24,9.72249984741211
2019-05-28,9.78902816772461
2019-05-29,9.760516166687012
2019-05-30,10.045632362365723
2019-05-31,9.950594902038574
2019-06-03,9.931586265563965
2019-06-04,10.055136680603027
2019-06-05,9.922082901000977
2019-06-06,10.007616996765137
2019-06-07,10.102656364440918
2019-06-10,10.24521541595459
2019-06-11,10.302238464355469
2019-06-12,10.2642240524292
2019-06-13,10.235309600830078
2019-06-14,10.216034889221191
2019-06-17,10.216034889221191
2019-06-18,10.360601425170898
2019-06-19,10.216034889221191
2019-06-20,10.379878044128418
2019-06-21,10.33168888092041
2019-06-24,10.293136596679688
2019-06-25,10.264223098754883
2019-06-26,10.273860931396484
2019-06-27,10.235309600830078
2019-06-28,10.31241226196289
2019-07-01,10.31241226196289
2019-07-02,10.3702392578125
2019-07-03,10.350963592529297
2019-07-05,10.302774429321289
2019-07-08,10.177483558654785
2019-07-09,10.04255485534668
2019-07-10,10.100381851196289
2019-07-11,10.33168888092041
2019-07-12,10.987055778503418
2019-07-15,11.083434104919434
2019-07-16,11.112346649169922
2019-07-17,11.073796272277832
2019-07-18,11.131622314453125
2019-07-19,10.977418899536133
2019-07-22,11.044882774353027
2019-07-23,11.073796272277832
2019-07-24,11.044882774353027
2019-07-25,11.102709770202637
2019-07-26,11.06415843963623
2019-07-29,11.093070983886719
2019-07-30,11.006332397460938
2019-07-31,10.909954071044922
2019-08-01,10.852128028869629
2019-08-02,10.678647994995117
2019-08-05,10.505167007446289
2019-08-06,10.601545333862305
2019-08-07,10.75575065612793
2019-08-08,10.842489242553711
2019-08-09,10.726837158203125
2019-08-12,10.69792366027832
2019-08-13,10.659372329711914
2019-08-14,10.399151802062988
2019-08-15,10.53408145904541
2019-08-16,10.6690092086792
2019-08-19,10.726837158203125
2019-08-20,10.919590950012207
2019-08-21,10.890678405761719
2019-08-22,10.803938865661621
2019-08-23,10.707560539245605
2019-08-26,10.726837158203125
2019-08-27,10.746111869812012
2019-08-28,10.794300079345703
2019-08-29,10.977418899536133
2019-08-30,11.073796272277832
2019-09-03,10.8714017868042
2019-09-04,11.256914138793945
2019-09-05,11.632786750793457
2019-09-06,11.382205963134766
2019-09-09,11.218362808227539
2019-09-10,11.19908618927002
2019-09-11,11.16053581237793
2019-09-12,11.256914138793945
2019-09-13,11.343653678894043
2019-09-16,11.334016799926758
2019-09-17,11.247275352478027
2019-09-18,11.276189804077148
2019-09-19,11.17981243133545
2019-09-20,10.938867568969727
2019-09-23,10.601545333862305
2019-09-24,10.640096664428711
2019-09-25,10.659372329711914
2019-09-26,10.726837158203125
2019-09-27,10.803938865661621
2019-09-30,10.95814323425293
2019-10-01,10.640096664428711
2019-10-02,10.678647994995117
2019-10-03,10.75575065612793
2019-10-04,10.813575744628906
2019-10-07,10.881040573120117
2019-10-08,10.717198371887207
2019-10-09,10.75575065612793
2019-10-10,10.775025367736816
2019-10-11,10.5726318359375
2019-10-14,10.235309600830078
2019-10-15,10.283498764038086
2019-10-16,10.216034889221191
2019-10-17,10.20639705657959
2019-10-18,10.18712043762207
2019-10-21,8.953487396240234
2019-10-22,8.790555000305176
2019-10-23,8.81982421875
2019-10-24,8.712503433227539
2019-10-25,8.975926399230957
2019-10-28,8.936901092529297
2019-10-29,9.083248138427734
2019-10-30,9.09300422668457
2019-10-31,9.356428146362305
2019-11-01,9.28813362121582
2019-11-04,9.52228832244873
2019-11-05,9.483262062072754
2019-11-06,9.639365196228027
2019-11-07,9.775956153869629
2019-11-08,9.444236755371094
2019-11-11,9.551557540893555
2019-11-12,9.512531280517578
2019-11-13,9.473505973815918
2019-11-14,9.629608154296875
2019-11-15,9.619851112365723
2019-11-18,9.619851112365723
2019-11-19,9.590582847595215
2019-11-20,9.678390502929688
2019-11-21,9.629608154296875
2019-11-22,9.366185188293457
2019-11-25,9.629608154296875
2019-11-26,9.414966583251953
2019-11-27,9.541800498962402
2019-11-29,9.590582847595215
2019-12-02,9.453991889953613
2019-12-03,9.434479713439941
2019-12-04,9.619851112365723
2019-12-05,9.649121284484863
2019-12-06,9.69790267944336
2019-12-09,9.69790267944336
2019-12-10,9.7954683303833
2019-12-11,9.824737548828125
2019-12-12,9.785711288452148
2019-12-13,9.834493637084961
2019-12-16,9.88327693939209
2019-12-17,10.039379119873047
2019-12-18,10.078404426574707
2019-12-19,10.019866943359375
2019-12-20,10.039379119873047
2019-12-23,10.039379119873047
2019-12-24,9.990596771240234
2019-12-26,9.922301292419434
2019-12-27,10.010109901428223
2019-12-30,9.912546157836914
2019-12-31,10.068648338317871
