Date,ISIG
2007-12-31,1.4588485956192017
2008-01-02,1.4121239185333252
2008-01-03,1.4121239185333252
2008-01-04,1.4899983406066895
2008-01-07,1.4796150922775269
2008-01-08,1.5107649564743042
2008-01-09,1.3082913160324097
2008-01-10,1.3290578126907349
2008-01-11,1.3082913160324097
2008-01-14,1.287524700164795
2008-01-15,1.3030996322631836
2008-01-16,1.2511833906173706
2008-01-17,1.136967420578003
2008-01-18,1.04351806640625
2008-01-22,1.0746678113937378
2008-01-23,1.1681172847747803
2008-01-24,1.34982430934906
2008-01-25,1.297908067703247
2008-01-28,1.396549105644226
2008-01-29,1.3809741735458374
2008-01-30,1.443273663520813
2008-01-31,1.443273663520813
2008-02-01,1.448465347290039
2008-02-04,1.4536569118499756
2008-02-05,1.443273663520813
2008-02-06,1.4536569118499756
2008-02-07,1.4121239185333252
2008-02-08,1.4588485956192017
2008-02-11,1.4017406702041626
2008-02-12,1.4276987314224243
2008-02-13,1.4328904151916504
2008-02-14,1.4328904151916504
2008-02-15,1.4328904151916504
2008-02-19,1.4225071668624878
2008-02-20,1.3602075576782227
2008-02-21,1.4328904151916504
2008-02-22,1.3550158739089966
2008-02-25,1.3602075576782227
2008-02-26,1.3705909252166748
2008-02-27,1.2459917068481445
2008-02-28,1.287524700164795
2008-02-29,1.2511833906173706
2008-03-03,1.443273663520813
2008-03-04,1.3602075576782227
2008-03-05,1.3342493772506714
2008-03-06,1.2667582035064697
2008-03-07,1.287524700164795
2008-03-10,1.2719498872756958
2008-03-11,1.3030996322631836
2008-03-12,1.2200335264205933
2008-03-13,1.2511833906173706
2008-03-14,1.240800142288208
2008-03-17,1.2615666389465332
2008-03-18,1.2563750743865967
2008-03-19,1.2200335264205933
2008-03-20,1.235608458518982
2008-03-24,1.240800142288208
2008-03-25,1.235608458518982
2008-03-26,1.2667582035064697
2008-03-27,1.297908067703247
2008-03-28,1.3342493772506714
2008-03-31,1.3342493772506714
2008-04-01,1.3342493772506714
2008-04-02,1.297908067703247
2008-04-03,1.2304167747497559
2008-04-04,1.2615666389465332
2008-04-07,1.240800142288208
2008-04-08,1.2719498872756958
2008-04-09,1.2771414518356323
2008-04-10,1.2719498872756958
2008-04-11,1.1785004138946533
2008-04-14,1.235608458518982
2008-04-15,1.2459917068481445
2008-04-16,1.297908067703247
2008-04-17,1.1681172847747803
2008-04-18,1.188883662223816
2008-04-21,1.2044585943222046
2008-04-22,1.2511833906173706
2008-04-23,1.1162009239196777
2008-04-24,1.0590929985046387
2008-04-25,1.0487096309661865
2008-04-28,0.9967933297157288
2008-04-29,1.00198495388031
2008-04-30,0.9864100813865662
2008-05-01,1.0279431343078613
2008-05-02,0.9864100813865662
2008-05-05,1.0175598859786987
2008-05-06,0.9864100813865662
2008-05-07,1.038326382637024
2008-05-08,1.00198495388031
2008-05-09,1.0279431343078613
2008-05-12,1.142159104347229
2008-05-13,1.090242624282837
2008-05-14,1.0746678113937378
2008-05-15,1.0642845630645752
2008-05-16,1.0590929985046387
2008-05-19,0.9604519009590149
2008-05-20,0.9552603363990784
2008-05-21,1.00198495388031
2008-05-22,1.0850510597229004
2008-05-23,1.0798593759536743
2008-05-27,1.0331348180770874
2008-05-28,1.04351806640625
2008-05-29,1.0279431343078613
2008-05-30,1.0175598859786987
2008-06-02,0.9708351492881775
2008-06-03,0.9448770880699158
2008-06-04,1.0175598859786987
2008-06-05,0.9708351492881775
2008-06-06,0.9604519009590149
2008-06-09,0.9604519009590149
2008-06-10,0.9812184572219849
2008-06-11,0.9760268330574036
2008-06-12,0.9760268330574036
2008-06-13,0.9604519009590149
2008-06-16,0.9604519009590149
2008-06-17,0.9189188480377197
2008-06-18,0.9137272238731384
2008-06-19,0.9189188480377197
2008-06-20,0.9344937205314636
2008-06-23,0.9500687122344971
2008-06-24,0.9916017055511475
2008-06-25,1.0227514505386353
2008-06-26,0.9448770880699158
2008-06-27,0.8981524109840393
2008-06-30,0.8618108630180359
2008-07-01,0.8462360501289368
2008-07-02,0.9085355401039124
2008-07-03,0.9085355401039124
2008-07-07,0.8721941113471985
2008-07-08,0.9137272238731384
2008-07-09,0.9137272238731384
2008-07-10,0.9344937205314636
2008-07-11,0.9344937205314636
2008-07-14,0.9085355401039124
2008-07-15,0.8773858547210693
2008-07-16,0.8670024871826172
2008-07-17,0.9085355401039124
2008-07-18,0.9137272238731384
2008-07-21,0.9137272238731384
2008-07-22,1.0071766376495361
2008-07-23,0.9604519009590149
2008-07-24,1.1006258726119995
2008-07-25,1.1162009239196777
2008-07-28,0.9916017055511475
2008-07-29,0.9916017055511475
2008-07-30,1.0487096309661865
2008-07-31,1.0746678113937378
2008-08-01,1.0642845630645752
2008-08-04,1.1006258726119995
2008-08-05,1.0487096309661865
2008-08-06,1.038326382637024
2008-08-07,1.038326382637024
2008-08-08,1.038326382637024
2008-08-11,1.0539013147354126
2008-08-12,1.0642845630645752
2008-08-13,1.136967420578003
2008-08-14,1.0539013147354126
2008-08-15,1.0487096309661865
2008-08-18,1.0850510597229004
2008-08-19,1.0642845630645752
2008-08-20,1.0642845630645752
2008-08-21,1.0642845630645752
2008-08-22,1.0539013147354126
2008-08-25,1.038326382637024
2008-08-26,1.090242624282837
2008-08-27,1.038326382637024
2008-08-28,1.095434308052063
2008-08-29,1.1006258726119995
2008-09-02,1.038326382637024
2008-09-03,1.038326382637024
2008-09-04,1.090242624282837
2008-09-05,1.1162009239196777
2008-09-08,1.0850510597229004
2008-09-09,1.038326382637024
2008-09-10,1.038326382637024
2008-09-11,1.0642845630645752
2008-09-12,1.0746678113937378
2008-09-15,1.0642845630645752
2008-09-16,1.0279431343078613
2008-09-17,0.9760268330574036
2008-09-18,0.9760268330574036
2008-09-19,0.9967933297157288
2008-09-22,1.0071766376495361
2008-09-23,1.0175598859786987
2008-09-24,0.8773858547210693
2008-09-25,0.9864100813865662
2008-09-26,0.9604519009590149
2008-09-29,1.0123682022094727
2008-09-30,1.0175598859786987
2008-10-01,0.9967933297157288
2008-10-02,0.9552603363990784
2008-10-03,0.9344937205314636
2008-10-06,0.924110472202301
2008-10-07,0.8047029972076416
2008-10-08,0.8773858547210693
2008-10-09,0.9656435251235962
2008-10-10,0.8202778697013855
2008-10-13,0.8825774788856506
2008-10-14,0.773553192615509
2008-10-15,0.7475950121879578
2008-10-16,0.7164452075958252
2008-10-17,0.7475950121879578
2008-10-20,0.7475950121879578
2008-10-21,0.7216368317604065
2008-10-22,0.6956787109375
2008-10-23,0.6489540338516235
2008-10-24,0.7164452075958252
2008-10-27,0.7320200800895691
2008-10-28,0.7475950121879578
2008-10-29,0.8670024871826172
2008-10-30,0.9552603363990784
2008-10-31,0.9344937205314636
2008-11-03,0.9344937205314636
2008-11-04,0.9293020963668823
2008-11-05,0.8410444259643555
2008-11-06,0.8254694938659668
2008-11-07,0.8098946213722229
2008-11-10,0.7683615684509277
2008-11-11,0.7424033880233765
2008-11-12,0.7372117638587952
2008-11-13,0.7372117638587952
2008-11-14,0.5918460488319397
2008-11-17,0.5866544246673584
2008-11-18,0.5710795521736145
2008-11-19,0.5606963038444519
2008-11-20,0.519163191318512
2008-11-21,0.519163191318512
2008-11-24,0.5347381234169006
2008-11-25,0.5399296879768372
2008-11-26,0.6229958534240723
2008-11-28,0.6022292971611023
2008-12-01,0.519163191318512
2008-12-02,0.5710795521736145
2008-12-03,0.4464803636074066
2008-12-04,0.4568636119365692
2008-12-05,0.4620552361011505
2008-12-08,0.4672468602657318
2008-12-09,0.4620552361011505
2008-12-10,0.4932050406932831
2008-12-11,0.4983966648578644
2008-12-12,0.4464803636074066
2008-12-15,0.4412887394428253
2008-12-16,0.4568636119365692
2008-12-17,0.4568636119365692
2008-12-18,0.4412887394428253
2008-12-19,0.42052221298217773
2008-12-22,0.42052221298217773
2008-12-23,0.4412887394428253
2008-12-24,0.41013893485069275
2008-12-26,0.4672468602657318
2008-12-29,0.4724385440349579
2008-12-30,0.4412887394428253
2008-12-31,0.5087799429893494
2009-01-02,0.5555046200752258
2009-01-05,0.4672468602657318
2009-01-06,0.5139715671539307
2009-01-07,0.5139715671539307
2009-01-08,0.5606963038444519
2009-01-09,0.5503129363059998
2009-01-12,0.6126125454902649
2009-01-13,0.5451213121414185
2009-01-14,0.5451213121414185
2009-01-15,0.4983966648578644
2009-01-16,0.519163191318512
2009-01-20,0.5347381234169006
2009-01-21,0.5139715671539307
2009-01-22,0.5139715671539307
2009-01-23,0.5139715671539307
2009-01-26,0.5347381234169006
2009-01-27,0.5139715671539307
2009-01-28,0.5399296879768372
2009-01-29,0.5555046200752258
2009-01-30,0.4880134165287018
2009-02-02,0.4568636119365692
2009-02-03,0.4412887394428253
2009-02-04,0.4412887394428253
2009-02-05,0.4880134165287018
2009-02-06,0.5866544246673584
2009-02-09,0.5866544246673584
2009-02-10,0.4620552361011505
2009-02-11,0.4568636119365692
2009-02-12,0.4828217625617981
2009-02-13,0.4672468602657318
2009-02-17,0.4672468602657318
2009-02-18,0.4672468602657318
2009-02-19,0.4568636119365692
2009-02-20,0.4620552361011505
2009-02-23,0.4620552361011505
2009-02-24,0.4620552361011505
2009-02-25,0.4620552361011505
2009-02-26,0.4880134165287018
2009-02-27,0.4672468602657318
2009-03-02,0.4672468602657318
2009-03-03,0.5658879280090332
2009-03-04,0.5555046200752258
2009-03-05,0.5087799429893494
2009-03-06,0.39975565671920776
2009-03-09,0.42052221298217773
2009-03-10,0.4932050406932831
2009-03-11,0.6489540338516235
2009-03-12,0.9085355401039124
2009-03-13,0.9812184572219849
2009-03-16,1.0487096309661865
2009-03-17,1.038326382637024
2009-03-18,1.04351806640625
2009-03-19,0.9967933297157288
2009-03-20,0.9967933297157288
2009-03-23,1.04351806640625
2009-03-24,1.038326382637024
2009-03-25,1.04351806640625
2009-03-26,1.0642845630645752
2009-03-27,1.0642845630645752
2009-03-30,1.038326382637024
2009-03-31,1.038326382637024
2009-04-01,0.9656435251235962
2009-04-02,1.038326382637024
2009-04-03,1.0123682022094727
2009-04-06,1.0331348180770874
2009-04-07,1.0331348180770874
2009-04-08,1.0123682022094727
2009-04-09,1.0227514505386353
2009-04-13,1.0175598859786987
2009-04-14,0.9708351492881775
2009-04-15,1.038326382637024
2009-04-16,1.0850510597229004
2009-04-17,1.0850510597229004
2009-04-20,1.0798593759536743
2009-04-21,1.090242624282837
2009-04-22,1.1525423526763916
2009-04-23,1.1473506689071655
2009-04-24,1.1681172847747803
2009-04-27,1.194075345993042
2009-04-28,1.3550158739089966
2009-04-29,1.4796150922775269
2009-04-30,1.443273663520813
2009-05-01,1.4588485956192017
2009-05-04,1.4588485956192017
2009-05-05,1.4588485956192017
2009-05-06,1.4536569118499756
2009-05-07,1.4536569118499756
2009-05-08,1.3757824897766113
2009-05-11,1.448465347290039
2009-05-12,1.5263397693634033
2009-05-13,1.4796150922775269
2009-05-14,1.500381588935852
2009-05-15,1.4796150922775269
2009-05-18,1.5055732727050781
2009-05-19,1.500381588935852
2009-05-20,1.4536569118499756
2009-05-21,1.4744235277175903
2009-05-22,1.4796150922775269
2009-05-26,1.4796150922775269
2009-05-27,1.5055732727050781
2009-05-28,1.5055732727050781
2009-05-29,1.5055732727050781
2009-06-01,1.4121239185333252
2009-06-02,1.5055732727050781
2009-06-03,1.500381588935852
2009-06-04,1.4951900243759155
2009-06-05,1.5055732727050781
2009-06-08,1.5055732727050781
2009-06-09,1.5055732727050781
2009-06-10,1.4017406702041626
2009-06-11,1.500381588935852
2009-06-12,1.500381588935852
2009-06-15,1.4796150922775269
2009-06-16,1.5055732727050781
2009-06-17,1.4328904151916504
2009-06-18,1.297908067703247
2009-06-19,1.4225071668624878
2009-06-22,1.4121239185333252
2009-06-23,1.4121239185333252
2009-06-24,1.1265841722488403
2009-06-25,1.391357421875
2009-06-26,1.386165738105774
2009-06-29,1.4225071668624878
2009-06-30,1.4744235277175903
2009-07-01,1.396549105644226
2009-07-02,1.391357421875
2009-07-06,1.396549105644226
2009-07-07,1.4173156023025513
2009-07-08,1.4276987314224243
2009-07-09,1.4121239185333252
2009-07-10,1.2771414518356323
2009-07-13,1.3757824897766113
2009-07-14,1.3809741735458374
2009-07-15,1.3653992414474487
2009-07-16,1.3653992414474487
2009-07-17,1.3653992414474487
2009-07-20,1.3602075576782227
2009-07-21,1.3602075576782227
2009-07-22,1.3186745643615723
2009-07-23,1.6094059944152832
2009-07-24,1.5574896335601807
2009-07-27,1.5574896335601807
2009-07-28,1.5574896335601807
2009-07-29,1.5522979497909546
2009-07-30,1.6094059944152832
2009-07-31,1.7391966581344604
2009-08-03,1.7599632740020752
2009-08-04,1.8222627639770508
2009-08-05,1.8689874410629272
2009-08-06,1.8689874410629272
2009-08-07,1.9157121181488037
2009-08-10,1.8949458599090576
2009-08-11,1.9209038019180298
2009-08-12,1.9364787340164185
2009-08-13,1.8170710802078247
2009-08-14,1.946861982345581
2009-08-17,1.9209038019180298
2009-08-18,1.8949458599090576
2009-08-19,1.8949458599090576
2009-08-20,1.9260954856872559
2009-08-21,1.9572452306747437
2009-08-24,1.9572452306747437
2009-08-25,1.946861982345581
2009-08-26,1.941670298576355
2009-08-27,1.946861982345581
2009-08-28,1.941670298576355
2009-08-31,1.9676284790039062
2009-09-01,1.9209038019180298
2009-09-02,1.9364787340164185
2009-09-03,1.9312870502471924
2009-09-04,1.8637958765029907
2009-09-08,1.9209038019180298
2009-09-09,1.9105206727981567
2009-09-10,1.983203411102295
2009-09-11,1.9728201627731323
2009-09-14,2.00396990776062
2009-09-15,1.9728201627731323
2009-09-16,2.00396990776062
2009-09-17,2.066269636154175
2009-09-18,1.8637958765029907
2009-09-21,1.9728201627731323
2009-09-22,1.988395094871521
2009-09-23,1.843029260635376
2009-09-24,1.988395094871521
2009-09-25,1.9209038019180298
2009-09-28,1.9209038019180298
2009-09-29,1.9157121181488037
2009-09-30,1.9676284790039062
2009-10-01,2.050694704055786
2009-10-02,2.2791264057159424
2009-10-05,2.2531683444976807
2009-10-06,2.2324018478393555
2009-10-07,2.3102762699127197
2009-10-08,2.258359909057617
2009-10-09,2.2064435482025146
2009-10-12,2.43487548828125
2009-10-13,2.3621926307678223
2009-10-14,2.3362345695495605
2009-10-15,2.3829591274261475
2009-10-16,2.388150691986084
2009-10-19,2.3362345695495605
2009-10-20,2.3258512020111084
2009-10-21,2.3362345695495605
2009-10-22,2.3154680728912354
2009-10-23,2.284318208694458
2009-10-26,2.2998929023742676
2009-10-27,2.284318208694458
2009-10-28,2.2531683444976807
2009-10-29,2.2687430381774902
2009-10-30,2.258359909057617
2009-11-02,2.263551712036133
2009-11-03,2.3102762699127197
2009-11-04,2.3102762699127197
2009-11-05,2.3362345695495605
2009-11-06,2.3621926307678223
2009-11-09,2.2531683444976807
2009-11-10,2.3362345695495605
2009-11-11,2.3362345695495605
2009-11-12,2.2998929023742676
2009-11-13,2.3102762699127197
2009-11-16,2.3570008277893066
2009-11-17,2.414108991622925
2009-11-18,2.414108991622925
2009-11-19,2.408917188644409
2009-11-20,2.258359909057617
2009-11-23,2.3154680728912354
2009-11-24,2.4504501819610596
2009-11-25,2.3621926307678223
2009-11-27,2.388150691986084
2009-11-30,2.388150691986084
2009-12-01,2.3621926307678223
2009-12-02,2.3621926307678223
2009-12-03,2.4037258625030518
2009-12-04,2.4400670528411865
2009-12-07,2.4296836853027344
2009-12-08,2.4193005561828613
2009-12-09,2.4867916107177734
2009-12-10,2.6840736865997314
2009-12-11,2.6736905574798584
2009-12-14,2.652924060821533
2009-12-15,2.642540693283081
2009-12-16,2.6010079383850098
2009-12-17,2.5438997745513916
2009-12-18,2.517941474914551
2009-12-21,2.5438997745513916
2009-12-22,2.5231332778930664
2009-12-23,2.538707971572876
2009-12-24,2.491983413696289
2009-12-28,2.5127501487731934
2009-12-29,2.4867916107177734
2009-12-30,2.5335164070129395
2009-12-31,2.481600284576416
2010-01-04,2.4660251140594482
2010-01-05,2.481600284576416
2010-01-06,2.491983413696289
2010-01-07,2.4660251140594482
2010-01-08,2.471216917037964
2010-01-11,2.4764084815979004
2010-01-12,2.4764084815979004
2010-01-13,2.4764084815979004
2010-01-14,2.491983413696289
2010-01-15,2.4971749782562256
2010-01-19,2.388150691986084
2010-01-20,2.258359909057617
2010-01-21,2.331042766571045
2010-01-22,2.097419261932373
2010-01-25,2.2895095348358154
2010-01-26,2.3362345695495605
2010-01-27,2.388150691986084
2010-01-28,2.43487548828125
2010-01-29,2.408917188644409
2010-02-01,2.6840736865997314
2010-02-02,2.6736905574798584
2010-02-03,2.6373491287231445
2010-02-04,2.6477322578430176
2010-02-05,2.6373491287231445
2010-02-08,2.621774435043335
2010-02-09,2.606199264526367
2010-02-10,2.6165826320648193
2010-02-11,2.611391067504883
2010-02-12,2.6633071899414062
2010-02-16,2.6269657611846924
2010-02-17,2.595816135406494
2010-02-18,2.564666271209717
2010-02-19,2.803481340408325
2010-02-22,2.876163959503174
2010-02-23,2.8553974628448486
2010-02-24,2.725606918334961
2010-02-25,2.8242478370666504
2010-02-26,2.9021224975585938
2010-03-01,2.829439401626587
2010-03-02,2.7775230407714844
2010-03-03,2.78271484375
2010-03-04,2.886547327041626
2010-03-05,2.912505626678467
2010-03-08,2.907313823699951
2010-03-09,2.9384636878967285
2010-03-10,2.896930694580078
2010-03-11,2.990380048751831
2010-03-12,3.0526795387268066
2010-03-15,3.1149792671203613
2010-03-16,3.0682544708251953
2010-03-17,3.063062906265259
2010-03-18,3.0059549808502197
2010-03-19,2.979996681213379
2010-03-22,3.037104606628418
2010-03-23,3.2291951179504395
2010-03-24,3.2655365467071533
2010-03-25,3.3226444721221924
2010-03-26,3.374560832977295
2010-03-29,3.374560832977295
2010-03-30,3.364177703857422
2010-03-31,3.4057106971740723
2010-04-01,3.410902261734009
2010-04-05,3.478393316268921
2010-04-06,3.4732017517089844
2010-04-07,3.5147347450256348
2010-04-08,3.5303099155426025
2010-04-09,3.6029927730560303
2010-04-12,3.5562679767608643
2010-04-13,3.4835851192474365
2010-04-14,3.5043516159057617
2010-04-15,3.5043516159057617
2010-04-16,3.525118112564087
2010-04-19,3.5303099155426025
2010-04-20,3.5562679767608643
2010-04-21,3.452435255050659
2010-04-22,3.5043516159057617
2010-04-23,3.499159812927246
2010-04-26,3.5978009700775146
2010-04-27,3.6237592697143555
2010-04-28,3.571842908859253
2010-04-29,3.7120168209075928
2010-04-30,3.7275917530059814
2010-05-03,3.9144904613494873
2010-05-04,3.5199265480041504
2010-05-05,3.0890209674835205
2010-05-06,2.933272123336792
2010-05-07,2.8605892658233643
2010-05-10,2.933272123336792
2010-05-11,2.865780830383301
2010-05-12,2.9488470554351807
2010-05-13,3.047487735748291
2010-05-14,2.943655490875244
2010-05-17,2.922888994216919
2010-05-18,2.9592301845550537
2010-05-19,2.876163959503174
2010-05-20,2.8553974628448486
2010-05-21,2.7515649795532227
2010-05-24,2.715223550796509
2010-05-25,2.83982253074646
2010-05-26,2.850205898284912
2010-05-27,2.9176971912384033
2010-05-28,2.8605892658233643
2010-06-01,2.8553974628448486
2010-06-02,2.9021224975585938
2010-06-03,2.8813557624816895
2010-06-04,2.9176971912384033
2010-06-07,2.896930694580078
2010-06-08,2.8605892658233643
2010-06-09,2.8138647079467773
2010-06-10,2.803481340408325
2010-06-11,2.7567567825317383
2010-06-14,2.761948347091675
2010-06-15,2.7515649795532227
2010-06-16,2.746373414993286
2010-06-17,2.772331476211548
2010-06-18,2.886547327041626
2010-06-21,2.7567567825317383
2010-06-22,2.69964861869812
2010-06-23,2.689265251159668
2010-06-24,2.725606918334961
2010-06-25,2.725606918334961
2010-06-28,2.69964861869812
2010-06-29,2.7307984828948975
2010-06-30,2.7204151153564453
2010-07-01,2.689265251159668
2010-07-02,2.7515649795532227
2010-07-06,2.746373414993286
2010-07-07,2.746373414993286
2010-07-08,2.7567567825317383
2010-07-09,2.7982895374298096
2010-07-12,2.7775230407714844
2010-07-13,2.78271484375
2010-07-14,2.7879064083099365
2010-07-15,2.7879064083099365
2010-07-16,2.772331476211548
2010-07-19,2.772331476211548
2010-07-20,2.7515649795532227
2010-07-21,2.7567567825317383
2010-07-22,2.8086729049682617
2010-07-23,2.7775230407714844
2010-07-26,2.8138647079467773
2010-07-27,2.803481340408325
2010-07-28,2.886547327041626
2010-07-29,3.0111465454101562
2010-07-30,3.1513209342956543
2010-08-02,3.2655365467071533
2010-08-03,3.3070695400238037
2010-08-04,3.270728349685669
2010-08-05,3.1720874309539795
2010-08-06,3.1149792671203613
2010-08-09,3.120171070098877
2010-08-10,3.063062906265259
2010-08-11,2.9851884841918945
2010-08-12,3.0059549808502197
2010-08-13,3.224003314971924
2010-08-16,3.260344982147217
2010-08-17,3.260344982147217
2010-08-18,3.270728349685669
2010-08-19,3.270728349685669
2010-08-20,3.270728349685669
2010-08-23,3.2395784854888916
2010-08-24,3.213620185852051
2010-08-25,3.2395784854888916
2010-08-26,3.244769811630249
2010-08-27,3.2291951179504395
2010-08-30,3.187662124633789
2010-08-31,3.1928539276123047
2010-09-01,3.234386682510376
2010-09-02,3.255153179168701
2010-09-03,3.3122613430023193
2010-09-07,3.2759196758270264
2010-09-08,3.3070695400238037
2010-09-09,3.291494846343994
2010-09-10,3.4160940647125244
2010-09-13,3.499159812927246
2010-09-14,3.499159812927246
2010-09-15,3.5043516159057617
2010-09-16,3.410902261734009
2010-09-17,3.374560832977295
2010-09-20,3.410902261734009
2010-09-21,3.4368605613708496
2010-09-22,3.4732017517089844
2010-09-23,3.4576268196105957
2010-09-24,3.4628186225891113
2010-09-27,3.431668758392334
2010-09-28,3.4680099487304688
2010-09-29,3.4628186225891113
2010-09-30,3.5978009700775146
2010-10-01,3.5562679767608643
2010-10-04,3.5770344734191895
2010-10-05,3.5770344734191895
2010-10-06,3.5562679767608643
2010-10-07,3.6029927730560303
2010-10-08,3.639333963394165
2010-10-11,3.6445255279541016
2010-10-12,3.649717330932617
2010-10-13,3.6549088954925537
2010-10-14,3.639333963394165
2010-10-15,3.686058521270752
2010-10-18,3.6601006984710693
2010-10-19,3.686058521270752
2010-10-20,3.7016336917877197
2010-10-21,3.686058521270752
2010-10-22,3.6808671951293945
2010-10-25,3.6549088954925537
2010-10-26,3.6704838275909424
2010-10-27,3.5978009700775146
2010-10-28,3.5303099155426025
2010-10-29,3.5926096439361572
2010-11-01,3.525118112564087
2010-11-02,3.6237592697143555
2010-11-03,3.5666511058807373
2010-11-04,3.4160940647125244
2010-11-05,3.5926096439361572
2010-11-08,3.5770344734191895
2010-11-09,3.5770344734191895
2010-11-10,3.535501480102539
2010-11-11,3.5199265480041504
2010-11-12,3.5303099155426025
2010-11-15,3.56145977973938
2010-11-16,3.5874178409576416
2010-11-17,3.5666511058807373
2010-11-18,3.5666511058807373
2010-11-19,3.582226276397705
2010-11-22,3.5510764122009277
2010-11-23,3.535501480102539
2010-11-24,3.5510764122009277
2010-11-26,3.5562679767608643
2010-11-29,3.582226276397705
2010-11-30,3.6549088954925537
2010-12-01,3.6237592697143555
2010-12-02,3.675675392150879
2010-12-03,3.6341421604156494
2010-12-06,3.6237592697143555
2010-12-07,3.582226276397705
2010-12-08,3.6445255279541016
2010-12-09,3.6341421604156494
2010-12-10,3.4835851192474365
2010-12-13,3.4264771938323975
2010-12-14,3.5147347450256348
2010-12-15,3.4732017517089844
2010-12-16,3.478393316268921
2010-12-17,3.3537943363189697
2010-12-20,3.384944200515747
2010-12-21,3.4576268196105957
2010-12-22,3.6341421604156494
2010-12-23,3.5510764122009277
2010-12-27,3.5147347450256348
2010-12-28,3.525118112564087
2010-12-29,3.2966861724853516
2010-12-30,3.3901360034942627
2010-12-31,3.4057106971740723
2011-01-03,3.374560832977295
2011-01-04,3.3174526691436768
2011-01-05,3.374560832977295
2011-01-06,3.4264771938323975
2011-01-07,3.374560832977295
2011-01-10,3.3537943363189697
2011-01-11,3.348602533340454
2011-01-12,3.364177703857422
2011-01-13,3.3693690299987793
2011-01-14,3.3434112071990967
2011-01-18,3.4680099487304688
2011-01-19,3.4576268196105957
2011-01-20,3.452435255050659
2011-01-21,3.3901360034942627
2011-01-24,3.421285390853882
2011-01-25,3.5666511058807373
2011-01-26,3.6029927730560303
2011-01-27,3.6912503242492676
2011-01-28,3.706825017929077
2011-01-31,3.706825017929077
2011-02-01,3.6652920246124268
2011-02-02,3.675675392150879
2011-02-03,3.7379748821258545
2011-02-04,3.893723964691162
2011-02-07,3.8573827743530273
2011-02-08,3.815849542617798
2011-02-09,3.930065631866455
2011-02-10,3.722400188446045
2011-02-11,3.696441888809204
2011-02-14,3.6341421604156494
2011-02-15,3.675675392150879
2011-02-16,3.6601006984710693
2011-02-17,3.7379748821258545
2011-02-18,3.7379748821258545
2011-02-22,3.706825017929077
2011-02-23,3.6912503242492676
2011-02-24,3.722400188446045
2011-02-25,3.571842908859253
2011-02-28,3.4732017517089844
2011-03-01,3.5043516159057617
2011-03-02,3.5303099155426025
2011-03-03,3.5406932830810547
2011-03-04,3.525118112564087
2011-03-07,3.5510764122009277
2011-03-08,3.5043516159057617
2011-03-09,3.478393316268921
2011-03-10,3.488776445388794
2011-03-11,3.478393316268921
2011-03-14,3.4576268196105957
2011-03-15,3.421285390853882
2011-03-16,3.3070695400238037
2011-03-17,3.301877975463867
2011-03-18,3.395327568054199
2011-03-21,3.478393316268921
2011-03-22,3.5043516159057617
2011-03-23,3.5303099155426025
2011-03-24,3.5406932830810547
2011-03-25,3.525118112564087
2011-03-28,3.4628186225891113
2011-03-29,3.5095434188842773
2011-03-30,3.6237592697143555
2011-03-31,3.6912503242492676
2011-04-01,3.8106582164764404
2011-04-04,3.6704838275909424
2011-04-05,3.722400188446045
2011-04-06,3.7120168209075928
2011-04-07,3.639333963394165
2011-04-08,3.6237592697143555
2011-04-11,3.6601006984710693
2011-04-12,3.5978009700775146
2011-04-13,3.5666511058807373
2011-04-14,3.608184337615967
2011-04-15,3.6341421604156494
2011-04-18,3.61856746673584
2011-04-19,3.628950834274292
2011-04-20,3.6549088954925537
2011-04-21,3.6549088954925537
2011-04-25,3.6912503242492676
2011-04-26,3.779508352279663
2011-04-27,3.7846999168395996
2011-04-28,3.7898917198181152
2011-04-29,3.815849542617798
2011-05-02,3.722400188446045
2011-05-03,3.808800220489502
2011-05-04,3.5927999019622803
2011-05-05,3.5064001083374023
2011-05-06,3.484800338745117
2011-05-09,3.5136001110076904
2011-05-10,3.556800127029419
2011-05-11,3.456000328063965
2011-05-12,3.5208001136779785
2011-05-13,3.4488000869750977
2011-05-16,3.376800060272217
2011-05-17,3.1175999641418457
2011-05-18,3.131999969482422
2011-05-19,3.0239999294281006
2011-05-20,3.0960001945495605
2011-05-23,3.052799940109253
2011-05-24,2.9088001251220703
2011-05-25,3.0383999347686768
2011-05-26,3.139200210571289
2011-05-27,3.1824002265930176
2011-05-31,3.4200000762939453
2011-06-01,3.3624002933502197
2011-06-02,3.218400001525879
2011-06-03,3.218400001525879
2011-06-06,3.1032001972198486
2011-06-07,3.0095999240875244
2011-06-08,2.9880001544952393
2011-06-09,2.9880001544952393
2011-06-10,2.9448001384735107
2011-06-13,2.894400119781494
2011-06-14,2.87280011177063
2011-06-15,2.8512001037597656
2011-06-16,2.786400079727173
2011-06-17,2.865600109100342
2011-06-20,2.9376001358032227
2011-06-21,2.9880001544952393
2011-06-22,2.952000141143799
2011-06-23,2.9304001331329346
2011-06-24,2.9376001358032227
2011-06-27,2.9232001304626465
2011-06-28,2.865600109100342
2011-06-29,2.7648000717163086
2011-06-30,2.6928000450134277
2011-07-01,2.6712000370025635
2011-07-05,2.635200262069702
2011-07-06,2.714400053024292
2011-07-07,2.786400079727173
2011-07-08,2.793600082397461
2011-07-11,2.7576000690460205
2011-07-12,2.800800085067749
2011-07-13,2.808000087738037
2011-07-14,2.793600082397461
2011-07-15,2.7504000663757324
2011-07-18,2.7648000717163086
2011-07-19,2.793600082397461
2011-07-20,2.9016003608703613
2011-07-21,2.865600109100342
2011-07-22,2.9016003608703613
2011-07-25,2.8512001037597656
2011-07-26,2.8584001064300537
2011-07-27,2.7720000743865967
2011-07-28,2.800800085067749
2011-07-29,2.728800058364868
2011-08-01,2.6784000396728516
2011-08-02,2.620800256729126
2011-08-03,2.6064000129699707
2011-08-04,2.282400131225586
2011-08-05,2.1744000911712646
2011-08-08,2.0880000591278076
2011-08-09,2.1744000911712646
2011-08-10,2.102400064468384
2011-08-11,2.289600133895874
2011-08-12,2.376000165939331
2011-08-15,2.2464001178741455
2011-08-16,2.2608001232147217
2011-08-17,2.275200128555298
2011-08-18,2.2536001205444336
2011-08-19,2.2248001098632812
2011-08-22,2.2464001178741455
2011-08-23,2.2536001205444336
2011-08-24,2.2464001178741455
2011-08-25,2.2464001178741455
2011-08-26,2.3256001472473145
2011-08-29,2.361600160598755
2011-08-30,2.3256001472473145
2011-08-31,2.4119999408721924
2011-09-01,2.440800189971924
2011-09-02,2.448000192642212
2011-09-06,2.440800189971924
2011-09-07,2.282400131225586
2011-09-08,2.2680001258850098
2011-09-09,2.2608001232147217
2011-09-12,2.1816000938415527
2011-09-13,2.1744000911712646
2011-09-14,2.044800043106079
2011-09-15,1.9584001302719116
2011-09-16,1.9440001249313354
2011-09-19,1.828800082206726
2011-09-20,1.7136001586914062
2011-09-21,1.6992000341415405
2011-09-22,1.6632000207901
2011-09-23,1.7640000581741333
2011-09-26,1.6704000234603882
2011-09-27,1.6776000261306763
2011-09-28,1.6776000261306763
2011-09-29,1.6776000261306763
2011-09-30,1.6992000341415405
2011-10-03,1.6992000341415405
2011-10-04,1.6272000074386597
2011-10-05,1.7208001613616943
2011-10-06,1.6920000314712524
2011-10-07,1.7856000661849976
2011-10-10,1.7568000555038452
2011-10-11,1.6776000261306763
2011-10-12,1.6848000288009644
2011-10-13,1.6632000207901
2011-10-14,1.656000018119812
2011-10-17,1.5119999647140503
2011-10-18,1.5119999647140503
2011-10-19,1.5984001159667969
2011-10-20,1.6416000127792358
2011-10-21,1.6704000234603882
2011-10-24,1.6704000234603882
2011-10-25,1.6776000261306763
2011-10-26,1.7424001693725586
2011-10-27,1.7208001613616943
2011-10-28,1.656000018119812
2011-10-31,1.4975999593734741
2011-11-01,1.3896000385284424
2011-11-02,1.3320000171661377
2011-11-03,1.4112000465393066
2011-11-04,1.533600091934204
2011-11-07,1.5408000946044922
2011-11-08,1.5480000972747803
2011-11-09,1.5696001052856445
2011-11-10,1.5912001132965088
2011-11-11,1.5840001106262207
2011-11-14,1.5984001159667969
2011-11-15,1.5840001106262207
2011-11-16,1.612800121307373
2011-11-17,1.612800121307373
2011-11-18,1.5768001079559326
2011-11-21,1.5263999700546265
2011-11-22,1.5840001106262207
2011-11-23,1.605600118637085
2011-11-25,1.605600118637085
2011-11-28,1.5840001106262207
2011-11-29,1.5840001106262207
2011-11-30,1.5840001106262207
2011-12-01,1.5408000946044922
2011-12-02,1.5840001106262207
2011-12-05,1.4688000679016113
2011-12-06,1.5480000972747803
2011-12-07,1.490399956703186
2011-12-08,1.4688000679016113
2011-12-09,1.3824000358581543
2011-12-12,1.36080002784729
2011-12-13,1.2888000011444092
2011-12-14,1.3896000385284424
2011-12-15,1.5119999647140503
2011-12-16,1.5047999620437622
2011-12-19,1.447200059890747
2011-12-20,1.4616000652313232
2011-12-21,1.4688000679016113
2011-12-22,1.490399956703186
2011-12-23,1.4832000732421875
2011-12-27,1.4616000652313232
2011-12-28,1.432800054550171
2011-12-29,1.4544000625610352
2011-12-30,1.447200059890747
2012-01-03,1.440000057220459
2012-01-04,1.440000057220459
2012-01-05,1.447200059890747
2012-01-06,1.432800054550171
2012-01-09,1.4688000679016113
2012-01-10,1.4616000652313232
2012-01-11,1.4760000705718994
2012-01-12,1.4832000732421875
2012-01-13,1.4760000705718994
2012-01-17,1.5119999647140503
2012-01-18,1.5696001052856445
2012-01-19,1.5840001106262207
2012-01-20,1.5624001026153564
2012-01-23,1.5480000972747803
2012-01-24,1.5408000946044922
2012-01-25,1.5696001052856445
2012-01-26,1.5552000999450684
2012-01-27,1.5263999700546265
2012-01-30,1.5768001079559326
2012-01-31,1.5119999647140503
2012-02-01,1.5624001026153564
2012-02-02,1.5840001106262207
2012-02-03,1.5480000972747803
2012-02-06,1.5840001106262207
2012-02-07,1.5480000972747803
2012-02-08,1.5191999673843384
2012-02-09,1.5047999620437622
2012-02-10,1.4975999593734741
2012-02-13,1.5047999620437622
2012-02-14,1.5119999647140503
2012-02-15,1.533600091934204
2012-02-16,1.5119999647140503
2012-02-17,1.5552000999450684
2012-02-21,1.5840001106262207
2012-02-22,1.5840001106262207
2012-02-23,1.5768001079559326
2012-02-24,1.5552000999450684
2012-02-27,1.490399956703186
2012-02-28,1.5047999620437622
2012-02-29,1.5408000946044922
2012-03-01,1.5408000946044922
2012-03-02,1.5263999700546265
2012-03-05,1.432800054550171
2012-03-06,1.2599999904632568
2012-03-07,1.195199966430664
2012-03-08,1.195199966430664
2012-03-09,1.1880000829696655
2012-03-12,1.152000069618225
2012-03-13,1.152000069618225
2012-03-14,1.1016000509262085
2012-03-15,1.0800000429153442
2012-03-16,1.0944000482559204
2012-03-19,1.1016000509262085
2012-03-20,1.1160000562667847
2012-03-21,1.152000069618225
2012-03-22,1.1232000589370728
2012-03-23,1.152000069618225
2012-03-26,1.144800066947937
2012-03-27,1.2095999717712402
2012-03-28,1.2456001043319702
2012-03-29,1.2599999904632568
2012-03-30,1.3032000064849854
2012-04-02,1.2960000038146973
2012-04-03,1.267199993133545
2012-04-04,1.310400128364563
2012-04-05,1.3032000064849854
2012-04-09,1.2960000038146973
2012-04-10,1.2960000038146973
2012-04-11,1.2960000038146973
2012-04-12,1.267199993133545
2012-04-13,1.2599999904632568
2012-04-16,1.2384001016616821
2012-04-17,1.2528001070022583
2012-04-18,1.2456001043319702
2012-04-19,1.2528001070022583
2012-04-20,1.2528001070022583
2012-04-23,1.2960000038146973
2012-04-24,1.2960000038146973
2012-04-25,1.2599999904632568
2012-04-26,1.2456001043319702
2012-04-27,1.281599998474121
2012-04-30,1.274399995803833
2012-05-01,1.274399995803833
2012-05-02,1.2528001070022583
2012-05-03,1.4112000465393066
2012-05-04,1.3680000305175781
2012-05-07,1.3896000385284424
2012-05-08,1.3752000331878662
2012-05-09,1.3680000305175781
2012-05-10,1.3680000305175781
2012-05-11,1.3680000305175781
2012-05-14,1.3320000171661377
2012-05-15,1.317600131034851
2012-05-16,1.3392000198364258
2012-05-17,1.3320000171661377
2012-05-18,1.2528001070022583
2012-05-21,1.1880000829696655
2012-05-22,1.281599998474121
2012-05-23,1.2528001070022583
2012-05-24,1.2599999904632568
2012-05-25,1.36080002784729
2012-05-29,1.3680000305175781
2012-05-30,1.3968000411987305
2012-05-31,1.3752000331878662
2012-06-01,1.3968000411987305
2012-06-04,1.267199993133545
2012-06-05,1.3320000171661377
2012-06-06,1.3968000411987305
2012-06-07,1.3968000411987305
2012-06-08,1.3896000385284424
2012-06-11,1.3752000331878662
2012-06-12,1.3464000225067139
2012-06-13,1.36080002784729
2012-06-14,1.3968000411987305
2012-06-15,1.3968000411987305
2012-06-18,1.4040000438690186
2012-06-19,1.3680000305175781
2012-06-20,1.3968000411987305
2012-06-21,1.3896000385284424
2012-06-22,1.231200098991394
2012-06-25,1.267199993133545
2012-06-26,1.310400128364563
2012-06-27,1.317600131034851
2012-06-28,1.310400128364563
2012-06-29,1.3464000225067139
2012-07-02,1.310400128364563
2012-07-03,1.3320000171661377
2012-07-05,1.3464000225067139
2012-07-06,1.353600025177002
2012-07-09,1.310400128364563
2012-07-10,1.2960000038146973
2012-07-11,1.3032000064849854
2012-07-12,1.317600131034851
2012-07-13,1.3320000171661377
2012-07-16,1.3752000331878662
2012-07-17,1.3320000171661377
2012-07-18,1.3248001337051392
2012-07-19,1.353600025177002
2012-07-20,1.3248001337051392
2012-07-23,1.353600025177002
2012-07-24,1.3248001337051392
2012-07-25,1.3464000225067139
2012-07-26,1.267199993133545
2012-07-27,1.224000096321106
2012-07-30,1.224000096321106
2012-07-31,1.2384001016616821
2012-08-01,1.224000096321106
2012-08-02,1.224000096321106
2012-08-03,1.1880000829696655
2012-08-06,1.1808000802993774
2012-08-07,1.152000069618225
2012-08-08,1.1160000562667847
2012-08-09,1.1664000749588013
2012-08-10,1.137600064277649
2012-08-13,1.137600064277649
2012-08-14,1.1664000749588013
2012-08-15,1.144800066947937
2012-08-16,1.1664000749588013
2012-08-17,1.137600064277649
2012-08-20,1.1592000722885132
2012-08-21,1.152000069618225
2012-08-22,1.1664000749588013
2012-08-23,1.1736000776290894
2012-08-24,1.2168000936508179
2012-08-27,1.2095999717712402
2012-08-28,1.2456001043319702
2012-08-29,1.3032000064849854
2012-08-30,1.2960000038146973
2012-08-31,1.2023999691009521
2012-09-04,1.3320000171661377
2012-09-05,1.3248001337051392
2012-09-06,1.3248001337051392
2012-09-07,1.3248001337051392
2012-09-10,1.2960000038146973
2012-09-11,1.2599999904632568
2012-09-12,1.1592000722885132
2012-09-13,1.2599999904632568
2012-09-14,1.224000096321106
2012-09-17,1.224000096321106
2012-09-18,1.1880000829696655
2012-09-19,1.2023999691009521
2012-09-20,1.1808000802993774
2012-09-21,1.137600064277649
2012-09-24,1.1664000749588013
2012-09-25,1.1304000616073608
2012-09-26,1.1304000616073608
2012-09-27,1.224000096321106
2012-09-28,1.2384001016616821
2012-10-01,1.224000096321106
2012-10-02,1.224000096321106
2012-10-03,1.2168000936508179
2012-10-04,1.2384001016616821
2012-10-05,1.144800066947937
2012-10-08,1.195199966430664
2012-10-09,1.0944000482559204
2012-10-10,1.1088000535964966
2012-10-11,1.1232000589370728
2012-10-12,1.2023999691009521
2012-10-15,1.195199966430664
2012-10-16,1.1880000829696655
2012-10-17,1.2095999717712402
2012-10-18,1.152000069618225
2012-10-19,1.195199966430664
2012-10-22,1.1808000802993774
2012-10-23,1.1880000829696655
2012-10-24,1.1880000829696655
2012-10-25,1.1160000562667847
2012-10-26,1.1880000829696655
2012-10-31,1.2095999717712402
2012-11-01,1.2384001016616821
2012-11-02,1.2599999904632568
2012-11-05,1.274399995803833
2012-11-06,1.274399995803833
2012-11-07,1.274399995803833
2012-11-08,1.267199993133545
2012-11-09,1.267199993133545
2012-11-12,1.267199993133545
2012-11-13,1.274399995803833
2012-11-14,1.274399995803833
2012-11-15,1.274399995803833
2012-11-16,1.274399995803833
2012-11-19,1.274399995803833
2012-11-20,1.2599999904632568
2012-11-21,1.2599999904632568
2012-11-23,1.2599999904632568
2012-11-26,1.2599999904632568
2012-11-27,1.2599999904632568
2012-11-28,1.2599999904632568
2012-11-29,1.274399995803833
2012-11-30,1.281599998474121
2012-12-03,1.2960000038146973
2012-12-04,1.1592000722885132
2012-12-05,1.2528001070022583
2012-12-06,1.267199993133545
2012-12-07,1.2888000011444092
2012-12-10,1.2456001043319702
2012-12-11,1.195199966430664
2012-12-12,1.2456001043319702
2012-12-13,1.2456001043319702
2012-12-14,1.2528001070022583
2012-12-17,1.267199993133545
2012-12-18,1.2528001070022583
2012-12-19,1.2456001043319702
2012-12-20,1.274399995803833
2012-12-21,1.267199993133545
2012-12-24,1.274399995803833
2012-12-26,1.2456001043319702
2012-12-27,1.2384001016616821
2012-12-28,1.2384001016616821
2012-12-31,1.231200098991394
2013-01-02,1.2456001043319702
2013-01-03,1.274399995803833
2013-01-04,1.3248001337051392
2013-01-07,1.317600131034851
2013-01-08,1.2960000038146973
2013-01-09,1.3032000064849854
2013-01-10,1.5408000946044922
2013-01-11,1.5624001026153564
2013-01-14,1.447200059890747
2013-01-15,1.447200059890747
2013-01-16,1.440000057220459
2013-01-17,1.432800054550171
2013-01-18,1.4688000679016113
2013-01-22,1.5480000972747803
2013-01-23,1.5119999647140503
2013-01-24,1.5480000972747803
2013-01-25,1.5912001132965088
2013-01-28,1.5984001159667969
2013-01-29,1.5191999673843384
2013-01-30,1.5696001052856445
2013-01-31,1.5552000999450684
2013-02-01,1.5047999620437622
2013-02-04,1.533600091934204
2013-02-05,1.3824000358581543
2013-02-06,1.4760000705718994
2013-02-07,1.4760000705718994
2013-02-08,1.4544000625610352
2013-02-11,1.432800054550171
2013-02-12,1.3968000411987305
2013-02-13,1.317600131034851
2013-02-14,1.3896000385284424
2013-02-15,1.432800054550171
2013-02-19,1.3896000385284424
2013-02-20,1.4256000518798828
2013-02-21,1.440000057220459
2013-02-22,1.5191999673843384
2013-02-25,1.440000057220459
2013-02-26,1.3680000305175781
2013-02-27,1.4040000438690186
2013-02-28,1.4616000652313232
2013-03-01,1.3752000331878662
2013-03-04,1.447200059890747
2013-03-05,1.5624001026153564
2013-03-06,1.5408000946044922
2013-03-07,1.5480000972747803
2013-03-08,1.5840001106262207
2013-03-11,1.5840001106262207
2013-03-12,1.4544000625610352
2013-03-13,1.432800054550171
2013-03-14,1.5047999620437622
2013-03-15,1.4760000705718994
2013-03-18,1.4184000492095947
2013-03-19,1.4688000679016113
2013-03-20,1.4544000625610352
2013-03-21,1.447200059890747
2013-03-22,1.4832000732421875
2013-03-25,1.4832000732421875
2013-03-26,1.4688000679016113
2013-03-27,1.4616000652313232
2013-03-28,1.4688000679016113
2013-04-01,1.4544000625610352
2013-04-02,1.440000057220459
2013-04-03,1.4760000705718994
2013-04-04,1.447200059890747
2013-04-05,1.4616000652313232
2013-04-08,1.4616000652313232
2013-04-09,1.4040000438690186
2013-04-10,1.4040000438690186
2013-04-11,1.4184000492095947
2013-04-12,1.4040000438690186
2013-04-15,1.4256000518798828
2013-04-16,1.440000057220459
2013-04-17,1.4040000438690186
2013-04-18,1.4184000492095947
2013-04-19,1.4112000465393066
2013-04-22,1.4040000438690186
2013-04-23,1.4112000465393066
2013-04-24,1.432800054550171
2013-04-25,1.440000057220459
2013-04-26,1.432800054550171
2013-04-29,1.4040000438690186
2013-04-30,1.447200059890747
2013-05-01,1.440000057220459
2013-05-02,1.432800054550171
2013-05-03,1.5119999647140503
2013-05-06,1.4975999593734741
2013-05-07,1.5047999620437622
2013-05-08,1.5191999673843384
2013-05-09,1.447200059890747
2013-05-10,1.4256000518798828
2013-05-13,1.432800054550171
2013-05-14,1.447200059890747
2013-05-15,1.440000057220459
2013-05-16,1.3752000331878662
2013-05-17,1.4760000705718994
2013-05-20,1.4040000438690186
2013-05-21,1.4256000518798828
2013-05-22,1.447200059890747
2013-05-23,1.4760000705718994
2013-05-24,1.4975999593734741
2013-05-28,1.4760000705718994
2013-05-29,1.4760000705718994
2013-05-30,1.4544000625610352
2013-05-31,1.432800054550171
2013-06-03,1.4760000705718994
2013-06-04,1.4832000732421875
2013-06-05,1.4832000732421875
2013-06-06,1.440000057220459
2013-06-07,1.4184000492095947
2013-06-10,1.4184000492095947
2013-06-11,1.4184000492095947
2013-06-12,1.3824000358581543
2013-06-13,1.4184000492095947
2013-06-14,1.3824000358581543
2013-06-17,1.3896000385284424
2013-06-18,1.36080002784729
2013-06-19,1.3680000305175781
2013-06-20,1.3680000305175781
2013-06-21,1.3752000331878662
2013-06-24,1.4184000492095947
2013-06-25,1.440000057220459
2013-06-26,1.4975999593734741
2013-06-27,1.533600091934204
2013-06-28,1.5768001079559326
2013-07-01,1.656000018119812
2013-07-02,1.612800121307373
2013-07-03,1.5840001106262207
2013-07-05,1.5840001106262207
2013-07-08,1.533600091934204
2013-07-09,1.5552000999450684
2013-07-10,1.5624001026153564
2013-07-11,1.5408000946044922
2013-07-12,1.5263999700546265
2013-07-15,1.5840001106262207
2013-07-16,1.5552000999450684
2013-07-17,1.533600091934204
2013-07-18,1.6848000288009644
2013-07-19,1.656000018119812
2013-07-22,1.6920000314712524
2013-07-23,1.7064000368118286
2013-07-24,1.6992000341415405
2013-07-25,1.7064000368118286
2013-07-26,1.6992000341415405
2013-07-29,1.6992000341415405
2013-07-30,1.6992000341415405
2013-07-31,1.6992000341415405
2013-08-01,1.6920000314712524
2013-08-02,1.6920000314712524
2013-08-05,1.7136001586914062
2013-08-06,1.7280001640319824
2013-08-07,1.7208001613616943
2013-08-08,1.7424001693725586
2013-08-09,1.7424001693725586
2013-08-12,1.7136001586914062
2013-08-13,1.7280001640319824
2013-08-14,1.7352001667022705
2013-08-15,1.7280001640319824
2013-08-16,1.7280001640319824
2013-08-19,1.7496001720428467
2013-08-20,1.7640000581741333
2013-08-21,1.7712000608444214
2013-08-22,1.7640000581741333
2013-08-23,1.7064000368118286
2013-08-26,1.7784000635147095
2013-08-27,1.7856000661849976
2013-08-28,1.8936001062393188
2013-08-29,2.0880000591278076
2013-08-30,2.0952000617980957
2013-09-03,2.124000072479248
2013-09-04,2.0736000537872314
2013-09-05,2.0808000564575195
2013-09-06,2.0736000537872314
2013-09-09,1.9440001249313354
2013-09-10,1.9800000190734863
2013-09-11,1.9224001169204712
2013-09-12,1.9800000190734863
2013-09-13,1.9872000217437744
2013-09-16,1.9728001356124878
2013-09-17,1.9800000190734863
2013-09-18,1.9800000190734863
2013-09-19,2.023200035095215
2013-09-20,1.9800000190734863
2013-09-23,1.9728001356124878
2013-09-24,1.9944000244140625
2013-09-25,1.9512001276016235
2013-09-26,1.915200114250183
2013-09-27,1.915200114250183
2013-09-30,1.9224001169204712
2013-10-01,2.0088000297546387
2013-10-02,1.9800000190734863
2013-10-03,2.0160000324249268
2013-10-04,2.030400037765503
2013-10-07,2.0736000537872314
2013-10-08,2.0880000591278076
2013-10-09,2.0016000270843506
2013-10-10,1.9872000217437744
2013-10-11,2.0088000297546387
2013-10-14,2.0088000297546387
2013-10-15,1.9872000217437744
2013-10-16,1.9224001169204712
2013-10-17,2.0088000297546387
2013-10-18,1.9656001329421997
2013-10-21,2.0088000297546387
2013-10-22,2.030400037765503
2013-10-23,2.0160000324249268
2013-10-24,2.0088000297546387
2013-10-25,2.0088000297546387
2013-10-28,1.9944000244140625
2013-10-29,1.9872000217437744
2013-10-30,2.052000045776367
2013-10-31,1.7424001693725586
2013-11-01,1.7064000368118286
2013-11-04,1.7712000608444214
2013-11-05,1.7640000581741333
2013-11-06,1.6776000261306763
2013-11-07,1.7928000688552856
2013-11-08,1.7640000581741333
2013-11-11,1.7640000581741333
2013-11-12,1.7568000555038452
2013-11-13,1.7712000608444214
2013-11-14,1.7712000608444214
2013-11-15,1.7784000635147095
2013-11-18,1.9224001169204712
2013-11-19,1.9440001249313354
2013-11-20,1.9296001195907593
2013-11-21,1.9368001222610474
2013-11-22,1.9440001249313354
2013-11-25,1.9440001249313354
2013-11-26,1.915200114250183
2013-11-27,1.9368001222610474
2013-11-29,1.9656001329421997
2013-12-02,1.9440001249313354
2013-12-03,1.8863999843597412
2013-12-04,1.8503999710083008
2013-12-05,1.8503999710083008
2013-12-06,2.023200035095215
2013-12-09,1.9656001329421997
2013-12-10,1.9728001356124878
2013-12-11,1.9296001195907593
2013-12-12,1.9368001222610474
2013-12-13,1.9368001222610474
2013-12-16,1.9584001302719116
2013-12-17,1.9800000190734863
2013-12-18,1.9728001356124878
2013-12-19,1.9872000217437744
2013-12-20,2.052000045776367
2013-12-23,2.023200035095215
2013-12-24,1.9944000244140625
2013-12-26,2.0016000270843506
2013-12-27,1.9512001276016235
2013-12-30,1.9440001249313354
2013-12-31,1.9656001329421997
2014-01-02,1.9512001276016235
2014-01-03,2.0016000270843506
2014-01-06,2.0016000270843506
2014-01-07,2.0736000537872314
2014-01-08,2.109600067138672
2014-01-09,2.1456000804901123
2014-01-10,2.1600000858306885
2014-01-13,2.131200075149536
2014-01-14,2.1600000858306885
2014-01-15,2.1672000885009766
2014-01-16,2.1528000831604004
2014-01-17,2.138400077819824
2014-01-21,2.138400077819824
2014-01-22,2.1600000858306885
2014-01-23,2.030400037765503
2014-01-24,1.9584001302719116
2014-01-27,1.9440001249313354
2014-01-28,1.9512001276016235
2014-01-29,1.9440001249313354
2014-01-30,1.9728001356124878
2014-01-31,1.9728001356124878
2014-02-03,1.9440001249313354
2014-02-04,1.9512001276016235
2014-02-05,1.9800000190734863
2014-02-06,1.9584001302719116
2014-02-07,1.9584001302719116
2014-02-10,1.9584001302719116
2014-02-11,2.0160000324249268
2014-02-12,2.0664000511169434
2014-02-13,2.030400037765503
2014-02-14,2.0808000564575195
2014-02-18,2.052000045776367
2014-02-19,2.044800043106079
2014-02-20,2.0880000591278076
2014-02-21,2.0664000511169434
2014-02-24,2.0808000564575195
2014-02-25,2.044800043106079
2014-02-26,2.0880000591278076
2014-02-27,2.275200128555298
2014-02-28,2.2464001178741455
2014-03-03,2.2680001258850098
2014-03-04,2.3400001525878906
2014-03-05,2.30400013923645
2014-03-06,2.3328001499176025
2014-03-07,2.397599935531616
2014-03-10,2.390399932861328
2014-03-11,2.4047999382019043
2014-03-12,2.30400013923645
2014-03-13,2.3112001419067383
2014-03-14,2.30400013923645
2014-03-17,2.30400013923645
2014-03-18,2.361600160598755
2014-03-19,2.390399932861328
2014-03-20,2.4840002059936523
2014-03-21,2.4984002113342285
2014-03-24,2.4840002059936523
2014-03-25,2.440800189971924
2014-03-26,2.4047999382019043
2014-03-27,2.368800163269043
2014-03-28,2.368800163269043
2014-03-31,2.1744000911712646
2014-04-01,2.2320001125335693
2014-04-02,2.3256001472473145
2014-04-03,2.30400013923645
2014-04-04,2.2680001258850098
2014-04-07,2.2248001098632812
2014-04-08,2.2680001258850098
2014-04-09,2.282400131225586
2014-04-10,2.282400131225586
2014-04-11,2.2608001232147217
2014-04-14,2.2320001125335693
2014-04-15,2.217600107192993
2014-04-16,2.1600000858306885
2014-04-17,2.188800096511841
2014-04-21,2.0664000511169434
2014-04-22,2.196000099182129
2014-04-23,2.138400077819824
2014-04-24,2.1600000858306885
2014-04-25,2.1816000938415527
2014-04-28,2.0952000617980957
2014-04-29,2.138400077819824
2014-04-30,2.109600067138672
2014-05-01,2.138400077819824
2014-05-02,2.196000099182129
2014-05-05,2.1528000831604004
2014-05-06,2.109600067138672
2014-05-07,2.0880000591278076
2014-05-08,2.0592000484466553
2014-05-09,1.9944000244140625
2014-05-12,1.9584001302719116
2014-05-13,1.9728001356124878
2014-05-14,1.9656001329421997
2014-05-15,1.9728001356124878
2014-05-16,2.124000072479248
2014-05-19,2.0736000537872314
2014-05-20,2.124000072479248
2014-05-21,2.1816000938415527
2014-05-22,2.2464001178741455
2014-05-23,2.2464001178741455
2014-05-27,2.2680001258850098
2014-05-28,2.2608001232147217
2014-05-29,2.289600133895874
2014-05-30,2.3184001445770264
2014-06-02,2.289600133895874
2014-06-03,2.282400131225586
2014-06-04,2.296800136566162
2014-06-05,2.3472001552581787
2014-06-06,2.3472001552581787
2014-06-09,2.3184001445770264
2014-06-10,2.3112001419067383
2014-06-11,2.3112001419067383
2014-06-12,2.2464001178741455
2014-06-13,2.2464001178741455
2014-06-16,2.3112001419067383
2014-06-17,2.361600160598755
2014-06-18,2.368800163269043
2014-06-19,2.361600160598755
2014-06-20,2.390399932861328
2014-06-23,2.361600160598755
2014-06-24,2.30400013923645
2014-06-25,2.2536001205444336
2014-06-26,2.2608001232147217
2014-06-27,2.203200101852417
2014-06-30,2.3472001552581787
2014-07-01,2.3328001499176025
2014-07-02,2.3184001445770264
2014-07-03,2.3256001472473145
2014-07-07,2.296800136566162
2014-07-08,2.2392001152038574
2014-07-09,2.217600107192993
2014-07-10,2.203200101852417
2014-07-11,2.1744000911712646
2014-07-14,2.1600000858306885
2014-07-15,2.2392001152038574
2014-07-16,2.203200101852417
2014-07-17,2.2392001152038574
2014-07-18,2.217600107192993
2014-07-21,2.1744000911712646
2014-07-22,2.2608001232147217
2014-07-23,2.2608001232147217
2014-07-24,2.2320001125335693
2014-07-25,2.2320001125335693
2014-07-28,2.2680001258850098
2014-07-29,2.2320001125335693
2014-07-30,2.1600000858306885
2014-07-31,2.210400104522705
2014-08-01,2.203200101852417
2014-08-04,2.138400077819824
2014-08-05,2.023200035095215
2014-08-06,2.0592000484466553
2014-08-07,2.109600067138672
2014-08-08,2.037600040435791
2014-08-11,2.0880000591278076
2014-08-12,2.1672000885009766
2014-08-13,2.1528000831604004
2014-08-14,2.1456000804901123
2014-08-15,2.102400064468384
2014-08-18,2.1744000911712646
2014-08-19,2.1744000911712646
2014-08-20,2.217600107192993
2014-08-21,2.296800136566162
2014-08-22,2.203200101852417
2014-08-25,2.210400104522705
2014-08-26,2.2608001232147217
2014-08-27,2.2608001232147217
2014-08-28,2.2464001178741455
2014-08-29,2.2680001258850098
2014-09-02,2.2536001205444336
2014-09-03,2.1744000911712646
2014-09-04,2.196000099182129
2014-09-05,2.203200101852417
2014-09-08,2.1672000885009766
2014-09-09,2.1456000804901123
2014-09-10,2.1600000858306885
2014-09-11,2.1816000938415527
2014-09-12,2.2536001205444336
2014-09-15,2.217600107192993
2014-09-16,2.196000099182129
2014-09-17,2.203200101852417
2014-09-18,2.1744000911712646
2014-09-19,2.383200168609619
2014-09-22,2.289600133895874
2014-09-23,2.282400131225586
2014-09-24,2.275200128555298
2014-09-25,2.275200128555298
2014-09-26,2.2248001098632812
2014-09-29,2.2248001098632812
2014-09-30,2.210400104522705
2014-10-01,2.188800096511841
2014-10-02,2.2464001178741455
2014-10-03,2.2320001125335693
2014-10-06,2.2320001125335693
2014-10-07,2.2464001178741455
2014-10-08,2.2320001125335693
2014-10-09,2.188800096511841
2014-10-10,2.2320001125335693
2014-10-13,2.217600107192993
2014-10-14,2.2320001125335693
2014-10-15,2.217600107192993
2014-10-16,2.210400104522705
2014-10-17,2.2248001098632812
2014-10-20,2.2248001098632812
2014-10-21,2.2608001232147217
2014-10-22,2.289600133895874
2014-10-23,2.296800136566162
2014-10-24,2.296800136566162
2014-10-27,2.3184001445770264
2014-10-28,2.289600133895874
2014-10-29,2.275200128555298
2014-10-30,2.2320001125335693
2014-10-31,2.30400013923645
2014-11-03,2.1672000885009766
2014-11-04,2.1744000911712646
2014-11-05,2.1456000804901123
2014-11-06,2.124000072479248
2014-11-07,2.1456000804901123
2014-11-10,2.052000045776367
2014-11-11,1.9872000217437744
2014-11-12,2.0736000537872314
2014-11-13,2.102400064468384
2014-11-14,2.1600000858306885
2014-11-17,2.188800096511841
2014-11-18,2.0952000617980957
2014-11-19,2.0736000537872314
2014-11-20,2.124000072479248
2014-11-21,2.1456000804901123
2014-11-24,2.0952000617980957
2014-11-25,2.0952000617980957
2014-11-26,2.102400064468384
2014-11-28,2.131200075149536
2014-12-01,2.2320001125335693
2014-12-02,2.2680001258850098
2014-12-03,2.3184001445770264
2014-12-04,2.462400197982788
2014-12-05,2.383200168609619
2014-12-08,2.275200128555298
2014-12-09,2.2608001232147217
2014-12-10,2.203200101852417
2014-12-11,2.196000099182129
2014-12-12,2.5920000076293945
2014-12-15,3.0095999240875244
2014-12-16,3.1968002319335938
2014-12-17,3.0168001651763916
2014-12-18,2.7432000637054443
2014-12-19,2.6712000370025635
2014-12-22,2.6928000450134277
2014-12-23,2.707200050354004
2014-12-24,2.72160005569458
2014-12-26,2.628000259399414
2014-12-29,2.5848000049591064
2014-12-30,2.5776000022888184
2014-12-31,2.5776000022888184
2015-01-02,2.563199996948242
2015-01-05,2.5271999835968018
2015-01-06,2.4336001873016357
2015-01-07,2.4263999462127686
2015-01-08,2.440800189971924
2015-01-09,2.361600160598755
2015-01-12,2.397599935531616
2015-01-13,2.3472001552581787
2015-01-14,2.390399932861328
2015-01-15,2.2392001152038574
2015-01-16,2.3256001472473145
2015-01-20,2.296800136566162
2015-01-21,2.2680001258850098
2015-01-22,2.2608001232147217
2015-01-23,2.2536001205444336
2015-01-26,2.2248001098632812
2015-01-27,2.2248001098632812
2015-01-28,2.2536001205444336
2015-01-29,2.3184001445770264
2015-01-30,2.3184001445770264
2015-02-02,2.448000192642212
2015-02-03,2.4336001873016357
2015-02-04,2.4047999382019043
2015-02-05,2.3256001472473145
2015-02-06,2.376000165939331
2015-02-09,2.390399932861328
2015-02-10,2.3328001499176025
2015-02-11,2.3400001525878906
2015-02-12,2.296800136566162
2015-02-13,2.296800136566162
2015-02-17,2.289600133895874
2015-02-18,2.3328001499176025
2015-02-19,2.3184001445770264
2015-02-20,2.2248001098632812
2015-02-23,2.2248001098632812
2015-02-24,2.2320001125335693
2015-02-25,2.2320001125335693
2015-02-26,2.124000072479248
2015-02-27,2.1816000938415527
2015-03-02,2.1600000858306885
2015-03-03,2.138400077819824
2015-03-04,2.124000072479248
2015-03-05,2.0736000537872314
2015-03-06,2.138400077819824
2015-03-09,2.0880000591278076
2015-03-10,2.0664000511169434
2015-03-11,2.0664000511169434
2015-03-12,2.109600067138672
2015-03-13,2.0952000617980957
2015-03-16,2.044800043106079
2015-03-17,2.037600040435791
2015-03-18,2.044800043106079
2015-03-19,2.037600040435791
2015-03-20,2.0592000484466553
2015-03-23,2.1600000858306885
2015-03-24,2.124000072479248
2015-03-25,2.1600000858306885
2015-03-26,2.1600000858306885
2015-03-27,2.0952000617980957
2015-03-30,2.1528000831604004
2015-03-31,2.1600000858306885
2015-04-01,2.11680006980896
2015-04-02,2.1528000831604004
2015-04-06,2.102400064468384
2015-04-07,2.1528000831604004
2015-04-08,2.1600000858306885
2015-04-09,2.188800096511841
2015-04-10,2.188800096511841
2015-04-13,2.1744000911712646
2015-04-14,2.188800096511841
2015-04-15,2.1744000911712646
2015-04-16,2.1528000831604004
2015-04-17,2.1600000858306885
2015-04-20,2.1600000858306885
2015-04-21,2.1600000858306885
2015-04-22,2.1816000938415527
2015-04-23,2.1816000938415527
2015-04-24,2.1816000938415527
2015-04-27,2.138400077819824
2015-04-28,2.1744000911712646
2015-04-29,2.1528000831604004
2015-04-30,2.1528000831604004
2015-05-01,2.1600000858306885
2015-05-04,2.1456000804901123
2015-05-05,2.138400077819824
2015-05-06,2.138400077819824
2015-05-07,2.1600000858306885
2015-05-08,2.124000072479248
2015-05-11,2.0736000537872314
2015-05-12,2.052000045776367
2015-05-13,2.052000045776367
2015-05-14,1.9872000217437744
2015-05-15,2.044800043106079
2015-05-18,2.0736000537872314
2015-05-19,2.109600067138672
2015-05-20,2.102400064468384
2015-05-21,2.0808000564575195
2015-05-22,2.0736000537872314
2015-05-26,2.0736000537872314
2015-05-27,2.0808000564575195
2015-05-28,2.0808000564575195
2015-05-29,2.0592000484466553
2015-06-01,2.0736000537872314
2015-06-02,2.052000045776367
2015-06-03,2.037600040435791
2015-06-04,2.030400037765503
2015-06-05,2.037600040435791
2015-06-08,2.037600040435791
2015-06-09,2.030400037765503
2015-06-10,2.037600040435791
2015-06-11,2.0016000270843506
2015-06-12,2.0016000270843506
2015-06-15,1.9872000217437744
2015-06-16,1.9944000244140625
2015-06-17,2.0016000270843506
2015-06-18,1.9872000217437744
2015-06-19,2.023200035095215
2015-06-22,2.0088000297546387
2015-06-23,2.0088000297546387
2015-06-24,2.0088000297546387
2015-06-25,1.9656001329421997
2015-06-26,1.9728001356124878
2015-06-29,1.9440001249313354
2015-06-30,1.9656001329421997
2015-07-01,1.9224001169204712
2015-07-02,1.8936001062393188
2015-07-06,1.9224001169204712
2015-07-07,1.900800108909607
2015-07-08,1.871999979019165
2015-07-09,1.8791999816894531
2015-07-10,1.8791999816894531
2015-07-13,2.0088000297546387
2015-07-14,1.9440001249313354
2015-07-15,1.908000111579895
2015-07-16,1.915200114250183
2015-07-17,1.9368001222610474
2015-07-20,1.8936001062393188
2015-07-21,1.8863999843597412
2015-07-22,1.900800108909607
2015-07-23,1.900800108909607
2015-07-24,1.915200114250183
2015-07-27,1.9440001249313354
2015-07-28,1.915200114250183
2015-07-29,1.9728001356124878
2015-07-30,1.9440001249313354
2015-07-31,1.9440001249313354
2015-08-03,1.9440001249313354
2015-08-04,1.9656001329421997
2015-08-05,1.9512001276016235
2015-08-06,1.9440001249313354
2015-08-07,1.9224001169204712
2015-08-10,1.8863999843597412
2015-08-11,1.8575999736785889
2015-08-12,1.8791999816894531
2015-08-13,1.8863999843597412
2015-08-14,1.8575999736785889
2015-08-17,1.8936001062393188
2015-08-18,1.871999979019165
2015-08-19,1.81440007686615
2015-08-20,1.864799976348877
2015-08-21,1.864799976348877
2015-08-24,1.871999979019165
2015-08-25,1.864799976348877
2015-08-26,1.8000000715255737
2015-08-27,1.9224001169204712
2015-08-28,1.9512001276016235
2015-08-31,1.908000111579895
2015-09-01,1.9800000190734863
2015-09-02,1.915200114250183
2015-09-03,1.8791999816894531
2015-09-04,1.8791999816894531
2015-09-08,1.864799976348877
2015-09-09,1.8936001062393188
2015-09-10,1.871999979019165
2015-09-11,1.864799976348877
2015-09-14,1.8791999816894531
2015-09-15,1.864799976348877
2015-09-16,1.8432000875473022
2015-09-17,1.871999979019165
2015-09-18,1.8791999816894531
2015-09-21,1.8503999710083008
2015-09-22,1.828800082206726
2015-09-23,1.8503999710083008
2015-09-24,1.8072000741958618
2015-09-25,1.7928000688552856
2015-09-28,1.8360000848770142
2015-09-29,1.8000000715255737
2015-09-30,1.821600079536438
2015-10-01,1.8360000848770142
2015-10-02,1.8936001062393188
2015-10-05,1.871999979019165
2015-10-06,1.908000111579895
2015-10-07,1.915200114250183
2015-10-08,1.8936001062393188
2015-10-09,1.8936001062393188
2015-10-12,1.8936001062393188
2015-10-13,1.828800082206726
2015-10-14,1.9368001222610474
2015-10-15,1.9440001249313354
2015-10-16,1.9368001222610474
2015-10-19,1.9656001329421997
2015-10-20,1.9728001356124878
2015-10-21,1.9512001276016235
2015-10-22,1.9512001276016235
2015-10-23,1.8791999816894531
2015-10-26,1.9440001249313354
2015-10-27,1.864799976348877
2015-10-28,1.9944000244140625
2015-10-29,2.0664000511169434
2015-10-30,2.0160000324249268
2015-11-02,2.023200035095215
2015-11-03,2.023200035095215
2015-11-04,2.044800043106079
2015-11-05,2.044800043106079
2015-11-06,2.044800043106079
2015-11-09,2.037600040435791
2015-11-10,2.11680006980896
2015-11-11,2.138400077819824
2015-11-12,2.11680006980896
2015-11-13,2.1456000804901123
2015-11-16,2.11680006980896
2015-11-17,2.109600067138672
2015-11-18,2.102400064468384
2015-11-19,2.0808000564575195
2015-11-20,2.124000072479248
2015-11-23,2.131200075149536
2015-11-24,2.1456000804901123
2015-11-25,2.0952000617980957
2015-11-27,2.131200075149536
2015-11-30,2.0808000564575195
2015-12-01,2.138400077819824
2015-12-02,2.044800043106079
2015-12-03,2.052000045776367
2015-12-04,2.0160000324249268
2015-12-07,2.0880000591278076
2015-12-08,2.102400064468384
2015-12-09,2.131200075149536
2015-12-10,2.1600000858306885
2015-12-11,2.0664000511169434
2015-12-14,2.102400064468384
2015-12-15,2.1528000831604004
2015-12-16,2.1600000858306885
2015-12-17,2.0808000564575195
2015-12-18,2.0952000617980957
2015-12-21,2.0880000591278076
2015-12-22,2.052000045776367
2015-12-23,2.0952000617980957
2015-12-24,2.0808000564575195
2015-12-28,2.0808000564575195
2015-12-29,2.11680006980896
2015-12-30,2.11680006980896
2015-12-31,2.0664000511169434
2016-01-04,2.0736000537872314
2016-01-05,2.11680006980896
2016-01-06,2.11680006980896
2016-01-07,2.11680006980896
2016-01-08,2.0880000591278076
2016-01-11,1.8360000848770142
2016-01-12,1.908000111579895
2016-01-13,1.864799976348877
2016-01-14,1.915200114250183
2016-01-15,1.8360000848770142
2016-01-19,1.8432000875473022
2016-01-20,1.7928000688552856
2016-01-21,1.864799976348877
2016-01-22,1.8863999843597412
2016-01-25,1.871999979019165
2016-01-26,1.9224001169204712
2016-01-27,1.8791999816894531
2016-01-28,1.871999979019165
2016-01-29,1.8072000741958618
2016-02-01,1.8503999710083008
2016-02-02,1.81440007686615
2016-02-03,1.821600079536438
2016-02-04,1.915200114250183
2016-02-05,1.8360000848770142
2016-02-08,1.915200114250183
2016-02-09,1.8503999710083008
2016-02-10,1.9368001222610474
2016-02-11,1.9512001276016235
2016-02-12,2.0664000511169434
2016-02-16,2.0160000324249268
2016-02-17,1.9584001302719116
2016-02-18,2.0088000297546387
2016-02-19,2.0808000564575195
2016-02-22,2.044800043106079
2016-02-23,1.908000111579895
2016-02-24,1.9368001222610474
2016-02-25,1.9224001169204712
2016-02-26,1.9584001302719116
2016-02-29,1.871999979019165
2016-03-01,2.023200035095215
2016-03-02,1.9224001169204712
2016-03-03,1.9224001169204712
2016-03-04,2.037600040435791
2016-03-07,1.915200114250183
2016-03-08,1.8575999736785889
2016-03-09,1.821600079536438
2016-03-10,1.81440007686615
2016-03-11,1.8000000715255737
2016-03-14,1.871999979019165
2016-03-15,1.915200114250183
2016-03-16,1.9800000190734863
2016-03-17,1.9872000217437744
2016-03-18,2.109600067138672
2016-03-21,2.0880000591278076
2016-03-22,2.109600067138672
2016-03-23,2.030400037765503
2016-03-24,2.044800043106079
2016-03-28,2.0880000591278076
2016-03-29,2.0880000591278076
2016-03-30,2.0880000591278076
2016-03-31,2.052000045776367
2016-04-01,2.0160000324249268
2016-04-04,2.052000045776367
2016-04-05,2.037600040435791
2016-04-06,2.052000045776367
2016-04-07,2.124000072479248
2016-04-08,2.0880000591278076
2016-04-11,2.0592000484466553
2016-04-12,2.0664000511169434
2016-04-13,2.044800043106079
2016-04-14,2.0952000617980957
2016-04-15,2.052000045776367
2016-04-18,2.044800043106079
2016-04-19,2.044800043106079
2016-04-20,2.0016000270843506
2016-04-21,2.0016000270843506
2016-04-22,2.0016000270843506
2016-04-25,1.9728001356124878
2016-04-26,2.0016000270843506
2016-04-27,1.9944000244140625
2016-04-28,1.821600079536438
2016-04-29,1.7784000635147095
2016-05-02,1.8000000715255737
2016-05-03,1.8432000875473022
2016-05-04,1.8000000715255737
2016-05-05,1.7568000555038452
2016-05-06,1.8432000875473022
2016-05-09,1.7496001720428467
2016-05-10,1.7496001720428467
2016-05-11,1.7496001720428467
2016-05-12,1.6920000314712524
2016-05-13,1.6776000261306763
2016-05-16,1.6704000234603882
2016-05-17,1.6704000234603882
2016-05-18,1.6272000074386597
2016-05-19,1.6200001239776611
2016-05-20,1.612800121307373
2016-05-23,1.6272000074386597
2016-05-24,1.6704000234603882
2016-05-25,1.7568000555038452
2016-05-26,1.7568000555038452
2016-05-27,1.6704000234603882
2016-05-31,1.6920000314712524
2016-06-01,1.7064000368118286
2016-06-02,1.7064000368118286
2016-06-03,1.7208001613616943
2016-06-06,1.7568000555038452
2016-06-07,1.7784000635147095
2016-06-08,1.6272000074386597
2016-06-09,1.6200001239776611
2016-06-10,1.6704000234603882
2016-06-13,1.6632000207901
2016-06-14,1.656000018119812
2016-06-15,1.6344000101089478
2016-06-16,1.6632000207901
2016-06-17,1.6272000074386597
2016-06-20,1.6272000074386597
2016-06-21,1.612800121307373
2016-06-22,1.5840001106262207
2016-06-23,1.5768001079559326
2016-06-24,1.5912001132965088
2016-06-27,1.5552000999450684
2016-06-28,1.5840001106262207
2016-06-29,1.5840001106262207
2016-06-30,1.5696001052856445
2016-07-01,1.5696001052856445
2016-07-05,1.5696001052856445
2016-07-06,1.5768001079559326
2016-07-07,1.5624001026153564
2016-07-08,1.5408000946044922
2016-07-11,1.5840001106262207
2016-07-12,1.5912001132965088
2016-07-13,1.5840001106262207
2016-07-14,1.6200001239776611
2016-07-15,1.6272000074386597
2016-07-18,1.6848000288009644
2016-07-19,1.6704000234603882
2016-07-20,1.7280001640319824
2016-07-21,1.7280001640319824
2016-07-22,1.7280001640319824
2016-07-25,1.656000018119812
2016-07-26,1.656000018119812
2016-07-27,1.656000018119812
2016-07-28,1.5840001106262207
2016-07-29,1.605600118637085
2016-08-01,1.533600091934204
2016-08-02,1.6344000101089478
2016-08-03,1.612800121307373
2016-08-04,1.612800121307373
2016-08-05,1.6200001239776611
2016-08-08,1.6200001239776611
2016-08-09,1.6200001239776611
2016-08-10,1.533600091934204
2016-08-11,1.5768001079559326
2016-08-12,1.6992000341415405
2016-08-15,1.7280001640319824
2016-08-16,1.6272000074386597
2016-08-17,1.605600118637085
2016-08-18,1.6920000314712524
2016-08-19,1.6416000127792358
2016-08-22,1.5984001159667969
2016-08-23,1.5912001132965088
2016-08-24,1.648800015449524
2016-08-25,1.612800121307373
2016-08-26,1.605600118637085
2016-08-29,1.5984001159667969
2016-08-30,1.6344000101089478
2016-08-31,1.612800121307373
2016-09-01,1.6200001239776611
2016-09-02,1.605600118637085
2016-09-06,1.605600118637085
2016-09-07,1.5984001159667969
2016-09-08,1.5984001159667969
2016-09-09,1.5768001079559326
2016-09-12,1.5912001132965088
2016-09-13,1.5624001026153564
2016-09-14,1.5480000972747803
2016-09-15,1.533600091934204
2016-09-16,1.908000111579895
2016-09-19,1.8360000848770142
2016-09-20,1.81440007686615
2016-09-21,1.6704000234603882
2016-09-22,1.7856000661849976
2016-09-23,1.6632000207901
2016-09-26,1.6992000341415405
2016-09-27,1.7280001640319824
2016-09-28,1.7424001693725586
2016-09-29,1.7424001693725586
2016-09-30,1.7136001586914062
2016-10-03,1.6632000207901
2016-10-04,1.6632000207901
2016-10-05,1.605600118637085
2016-10-06,1.5912001132965088
2016-10-07,1.648800015449524
2016-10-10,1.648800015449524
2016-10-11,1.648800015449524
2016-10-12,1.656000018119812
2016-10-13,1.6200001239776611
2016-10-14,1.6344000101089478
2016-10-17,1.6344000101089478
2016-10-18,1.605600118637085
2016-10-19,1.6272000074386597
2016-10-20,1.5912001132965088
2016-10-21,1.6200001239776611
2016-10-24,1.6272000074386597
2016-10-25,1.6200001239776611
2016-10-26,1.6200001239776611
2016-10-27,1.5624001026153564
2016-10-28,1.5696001052856445
2016-10-31,1.5696001052856445
2016-11-01,1.5696001052856445
2016-11-02,1.5624001026153564
2016-11-03,1.5552000999450684
2016-11-04,1.5263999700546265
2016-11-07,1.533600091934204
2016-11-08,1.490399956703186
2016-11-09,1.5119999647140503
2016-11-10,1.5191999673843384
2016-11-11,1.6416000127792358
2016-11-14,1.6416000127792358
2016-11-15,1.5840001106262207
2016-11-16,1.447200059890747
2016-11-17,1.4760000705718994
2016-11-18,1.447200059890747
2016-11-21,1.4184000492095947
2016-11-22,1.440000057220459
2016-11-23,1.447200059890747
2016-11-25,1.4184000492095947
2016-11-28,1.4832000732421875
2016-11-29,1.5191999673843384
2016-11-30,1.6272000074386597
2016-12-01,1.5840001106262207
2016-12-02,1.605600118637085
2016-12-05,1.656000018119812
2016-12-06,1.612800121307373
2016-12-07,1.656000018119812
2016-12-08,1.6272000074386597
2016-12-09,1.7280001640319824
2016-12-12,1.7856000661849976
2016-12-13,1.7856000661849976
2016-12-14,1.7496001720428467
2016-12-15,1.7280001640319824
2016-12-16,1.7352001667022705
2016-12-19,1.7352001667022705
2016-12-20,1.7352001667022705
2016-12-21,1.6992000341415405
2016-12-22,1.7280001640319824
2016-12-23,1.7640000581741333
2016-12-27,1.7352001667022705
2016-12-28,1.7496001720428467
2016-12-29,1.7424001693725586
2016-12-30,1.7568000555038452
2017-01-03,1.8000000715255737
2017-01-04,1.81440007686615
2017-01-05,1.8432000875473022
2017-01-06,1.8000000715255737
2017-01-09,1.7699999809265137
2017-01-10,1.7100000381469727
2017-01-11,1.690000057220459
2017-01-12,1.6399999856948853
2017-01-13,1.6399999856948853
2017-01-17,1.6399999856948853
2017-01-18,1.6399999856948853
2017-01-19,1.6299999952316284
2017-01-20,1.6299999952316284
2017-01-23,1.6100000143051147
2017-01-24,1.6100000143051147
2017-01-25,1.6299999952316284
2017-01-26,1.6200000047683716
2017-01-27,1.6299999952316284
2017-01-30,1.559999942779541
2017-01-31,1.5399999618530273
2017-02-01,1.5299999713897705
2017-02-02,1.5800000429153442
2017-02-03,1.5399999618530273
2017-02-06,1.4600000381469727
2017-02-07,1.4900000095367432
2017-02-08,1.5099999904632568
2017-02-09,1.5199999809265137
2017-02-10,1.5199999809265137
2017-02-13,1.5
2017-02-14,1.5
2017-02-15,1.5
2017-02-16,1.4700000286102295
2017-02-17,1.5
2017-02-21,1.440000057220459
2017-02-22,1.4900000095367432
2017-02-23,1.4700000286102295
2017-02-24,1.4299999475479126
2017-02-27,1.4500000476837158
2017-02-28,1.4299999475479126
2017-03-01,1.409999966621399
2017-03-02,1.5399999618530273
2017-03-03,1.3899999856948853
2017-03-06,1.3300000429153442
2017-03-07,1.2899999618530273
2017-03-08,1.2799999713897705
2017-03-09,1.2599999904632568
2017-03-10,1.2599999904632568
2017-03-13,1.2999999523162842
2017-03-14,1.3700000047683716
2017-03-15,1.350000023841858
2017-03-16,1.350000023841858
2017-03-17,1.350000023841858
2017-03-20,1.350000023841858
2017-03-21,1.3600000143051147
2017-03-22,1.350000023841858
2017-03-23,1.3799999952316284
2017-03-24,1.4800000190734863
2017-03-27,1.5
2017-03-28,1.5099999904632568
2017-03-29,1.4500000476837158
2017-03-30,1.4800000190734863
2017-03-31,1.4900000095367432
2017-04-03,1.350000023841858
2017-04-04,1.3700000047683716
2017-04-05,1.3600000143051147
2017-04-06,1.350000023841858
2017-04-07,1.3300000429153442
2017-04-10,1.2999999523162842
2017-04-11,1.2999999523162842
2017-04-12,1.309999942779541
2017-04-13,1.309999942779541
2017-04-17,1.2999999523162842
2017-04-18,1.2999999523162842
2017-04-19,1.2699999809265137
2017-04-20,1.25
2017-04-21,1.2200000286102295
2017-04-24,1.2400000095367432
2017-04-25,1.2300000190734863
2017-04-26,1.2300000190734863
2017-04-27,1.1799999475479126
2017-04-28,1.2300000190734863
2017-05-01,1.190000057220459
2017-05-02,1.159999966621399
2017-05-03,1.1699999570846558
2017-05-04,1.0800000429153442
2017-05-05,1.1200000047683716
2017-05-08,1.090000033378601
2017-05-09,1.100000023841858
2017-05-10,1.100000023841858
2017-05-11,1.0499999523162842
2017-05-12,1.0499999523162842
2017-05-15,1.0800000429153442
2017-05-16,1.0299999713897705
2017-05-17,0.949999988079071
2017-05-18,1.0399999618530273
2017-05-19,1.0199999809265137
2017-05-22,1.0
2017-05-23,1.0199999809265137
2017-05-24,1.0
2017-05-25,1.0099999904632568
2017-05-26,1.0
2017-05-30,1.0399999618530273
2017-05-31,1.0499999523162842
2017-06-01,0.949999988079071
2017-06-02,1.0
2017-06-05,0.9700000286102295
2017-06-06,0.949999988079071
2017-06-07,0.9599999785423279
2017-06-08,0.949999988079071
2017-06-09,0.9700000286102295
2017-06-12,0.949999988079071
2017-06-13,0.9200000166893005
2017-06-14,0.9399999976158142
2017-06-15,1.0
2017-06-16,1.0199999809265137
2017-06-19,1.0199999809265137
2017-06-20,0.9900000095367432
2017-06-21,0.9700000286102295
2017-06-22,1.0199999809265137
2017-06-23,1.0399999618530273
2017-06-26,1.0199999809265137
2017-06-27,1.0099999904632568
2017-06-28,0.9900000095367432
2017-06-29,1.0
2017-06-30,1.0199999809265137
2017-07-03,0.9900000095367432
2017-07-05,1.0099999904632568
2017-07-06,1.0
2017-07-07,1.059999942779541
2017-07-10,1.0199999809265137
2017-07-11,1.0199999809265137
2017-07-12,1.0499999523162842
2017-07-13,1.0399999618530273
2017-07-14,1.0199999809265137
2017-07-17,1.0199999809265137
2017-07-18,1.0399999618530273
2017-07-19,1.0299999713897705
2017-07-20,1.0199999809265137
2017-07-21,1.0199999809265137
2017-07-24,1.1399999856948853
2017-07-25,1.0399999618530273
2017-07-26,1.0499999523162842
2017-07-27,1.0499999523162842
2017-07-28,1.0299999713897705
2017-07-31,1.0099999904632568
2017-08-01,1.0299999713897705
2017-08-02,1.0
2017-08-03,1.0099999904632568
2017-08-04,1.0
2017-08-07,1.0499999523162842
2017-08-08,1.0399999618530273
2017-08-09,1.0099999904632568
2017-08-10,1.0199999809265137
2017-08-11,1.0
2017-08-14,1.0199999809265137
2017-08-15,0.9800000190734863
2017-08-16,0.9800000190734863
2017-08-17,0.9900000095367432
2017-08-18,1.0
2017-08-21,0.9800000190734863
2017-08-22,0.9900000095367432
2017-08-23,0.9900000095367432
2017-08-24,1.0
2017-08-25,0.9900000095367432
2017-08-28,0.9900000095367432
2017-08-29,1.0
2017-08-30,1.100000023841858
2017-08-31,1.0800000429153442
2017-09-01,1.090000033378601
2017-09-05,1.1200000047683716
2017-09-06,1.149999976158142
2017-09-07,1.1299999952316284
2017-09-08,1.059999942779541
2017-09-11,1.090000033378601
2017-09-12,1.100000023841858
2017-09-13,1.090000033378601
2017-09-14,1.1100000143051147
2017-09-15,1.0399999618530273
2017-09-18,1.090000033378601
2017-09-19,1.1100000143051147
2017-09-20,1.100000023841858
2017-09-21,1.1399999856948853
2017-09-22,1.159999966621399
2017-09-25,1.0700000524520874
2017-09-26,1.0700000524520874
2017-09-27,1.100000023841858
2017-09-28,1.090000033378601
2017-09-29,1.0800000429153442
2017-10-02,1.090000033378601
2017-10-03,1.0800000429153442
2017-10-04,1.0800000429153442
2017-10-05,1.090000033378601
2017-10-06,1.100000023841858
2017-10-09,1.090000033378601
2017-10-10,1.0700000524520874
2017-10-11,1.090000033378601
2017-10-12,1.0700000524520874
2017-10-13,1.1200000047683716
2017-10-16,1.1399999856948853
2017-10-17,1.1200000047683716
2017-10-18,1.2799999713897705
2017-10-19,1.2999999523162842
2017-10-20,1.25
2017-10-23,1.2699999809265137
2017-10-24,1.2599999904632568
2017-10-25,1.2599999904632568
2017-10-26,1.2400000095367432
2017-10-27,1.2400000095367432
2017-10-30,1.2699999809265137
2017-10-31,1.2400000095367432
2017-11-01,1.2899999618530273
2017-11-02,1.3600000143051147
2017-11-03,1.7100000381469727
2017-11-06,1.649999976158142
2017-11-07,1.8300000429153442
2017-11-08,1.6799999475479126
2017-11-09,1.6100000143051147
2017-11-10,1.659999966621399
2017-11-13,1.7300000190734863
2017-11-14,1.6799999475479126
2017-11-15,1.6799999475479126
2017-11-16,1.6799999475479126
2017-11-17,1.690000057220459
2017-11-20,1.75
2017-11-21,1.649999976158142
2017-11-22,1.690000057220459
2017-11-24,1.7200000286102295
2017-11-27,1.7699999809265137
2017-11-28,1.3200000524520874
2017-11-29,1.4700000286102295
2017-11-30,1.5099999904632568
2017-12-01,1.4500000476837158
2017-12-04,1.4500000476837158
2017-12-05,1.399999976158142
2017-12-06,1.399999976158142
2017-12-07,1.3899999856948853
2017-12-08,1.3300000429153442
2017-12-11,1.2899999618530273
2017-12-12,1.2899999618530273
2017-12-13,1.2400000095367432
2017-12-14,1.2100000381469727
2017-12-15,1.2100000381469727
2017-12-18,1.2200000286102295
2017-12-19,1.159999966621399
2017-12-20,1.2100000381469727
2017-12-21,1.1799999475479126
2017-12-22,1.25
2017-12-26,1.2300000190734863
2017-12-27,1.2400000095367432
2017-12-28,1.25
2017-12-29,1.190000057220459
2018-01-02,1.190000057220459
2018-01-03,1.2599999904632568
2018-01-04,1.2300000190734863
2018-01-05,1.25
2018-01-08,1.2799999713897705
2018-01-09,1.2100000381469727
2018-01-10,1.2000000476837158
2018-01-11,1.2000000476837158
2018-01-12,1.2200000286102295
2018-01-16,1.350000023841858
2018-01-17,1.3799999952316284
2018-01-18,1.3600000143051147
2018-01-19,1.3799999952316284
2018-01-22,1.350000023841858
2018-01-23,1.3600000143051147
2018-01-24,1.350000023841858
2018-01-25,1.350000023841858
2018-01-26,1.3700000047683716
2018-01-29,1.350000023841858
2018-01-30,1.3300000429153442
2018-01-31,1.3200000524520874
2018-02-01,1.2999999523162842
2018-02-02,1.2899999618530273
2018-02-05,1.2200000286102295
2018-02-06,1.2300000190734863
2018-02-07,1.2699999809265137
2018-02-08,1.2200000286102295
2018-02-09,1.190000057220459
2018-02-12,1.190000057220459
2018-02-13,1.190000057220459
2018-02-14,1.190000057220459
2018-02-15,1.2100000381469727
2018-02-16,1.2400000095367432
2018-02-20,1.2300000190734863
2018-02-21,1.2400000095367432
2018-02-22,1.2599999904632568
2018-02-23,1.2400000095367432
2018-02-26,1.25
2018-02-27,1.2599999904632568
2018-02-28,1.2400000095367432
2018-03-01,1.25
2018-03-02,1.3200000524520874
2018-03-05,1.2899999618530273
2018-03-06,1.2699999809265137
2018-03-07,1.2999999523162842
2018-03-08,1.2899999618530273
2018-03-09,1.309999942779541
2018-03-12,1.3200000524520874
2018-03-13,1.2699999809265137
2018-03-14,1.6299999952316284
2018-03-15,1.649999976158142
2018-03-16,1.7000000476837158
2018-03-19,1.690000057220459
2018-03-20,1.690000057220459
2018-03-21,1.649999976158142
2018-03-22,1.6399999856948853
2018-03-23,1.6399999856948853
2018-03-26,1.659999966621399
2018-03-27,1.6100000143051147
2018-03-28,1.5299999713897705
2018-03-29,1.5800000429153442
2018-04-02,1.6200000047683716
2018-04-03,1.6100000143051147
2018-04-04,1.6299999952316284
2018-04-05,1.6399999856948853
2018-04-06,1.8799999952316284
2018-04-09,2.0
2018-04-10,2.0199999809265137
2018-04-11,2.0299999713897705
2018-04-12,2.069999933242798
2018-04-13,2.0299999713897705
2018-04-16,2.0199999809265137
2018-04-17,2.0299999713897705
2018-04-18,2.119999885559082
2018-04-19,2.180000066757202
2018-04-20,2.2300000190734863
2018-04-23,2.140000104904175
2018-04-24,2.1600000858306885
2018-04-25,2.1600000858306885
2018-04-26,2.0799999237060547
2018-04-27,2.140000104904175
2018-04-30,2.1600000858306885
2018-05-01,2.109999895095825
2018-05-02,1.7300000190734863
2018-05-03,1.7000000476837158
2018-05-04,1.690000057220459
2018-05-07,1.6799999475479126
2018-05-08,1.7000000476837158
2018-05-09,1.6699999570846558
2018-05-10,1.6699999570846558
2018-05-11,1.6299999952316284
2018-05-14,1.6200000047683716
2018-05-15,1.6100000143051147
2018-05-16,1.5499999523162842
2018-05-17,1.559999942779541
2018-05-18,1.6200000047683716
2018-05-21,1.6299999952316284
2018-05-22,1.659999966621399
2018-05-23,1.7899999618530273
2018-05-24,1.8700000047683716
2018-05-25,1.8799999952316284
2018-05-29,1.840000033378601
2018-05-30,1.8300000429153442
2018-05-31,1.8300000429153442
2018-06-01,1.8200000524520874
2018-06-04,1.7999999523162842
2018-06-05,1.7999999523162842
2018-06-06,1.7200000286102295
2018-06-07,1.7699999809265137
2018-06-08,1.7899999618530273
2018-06-11,1.8799999952316284
2018-06-12,1.7999999523162842
2018-06-13,1.7699999809265137
2018-06-14,1.7699999809265137
2018-06-15,1.7300000190734863
2018-06-18,1.7200000286102295
2018-06-19,1.690000057220459
2018-06-20,1.7200000286102295
2018-06-21,1.659999966621399
2018-06-22,1.7000000476837158
2018-06-25,1.6699999570846558
2018-06-26,1.7000000476837158
2018-06-27,1.690000057220459
2018-06-28,1.6699999570846558
2018-06-29,1.6299999952316284
2018-07-02,1.649999976158142
2018-07-03,1.7100000381469727
2018-07-05,1.6799999475479126
2018-07-06,1.6799999475479126
2018-07-09,1.7100000381469727
2018-07-10,1.6799999475479126
2018-07-11,1.659999966621399
2018-07-12,1.6799999475479126
2018-07-13,1.6699999570846558
2018-07-16,1.659999966621399
2018-07-17,1.6399999856948853
2018-07-18,1.6399999856948853
2018-07-19,1.6399999856948853
2018-07-20,1.6100000143051147
2018-07-23,1.6399999856948853
2018-07-24,1.600000023841858
2018-07-25,1.6100000143051147
2018-07-26,1.6200000047683716
2018-07-27,1.6399999856948853
2018-07-30,1.6100000143051147
2018-07-31,1.6699999570846558
2018-08-01,1.850000023841858
2018-08-02,1.7999999523162842
2018-08-03,1.8200000524520874
2018-08-06,1.8600000143051147
2018-08-07,1.8700000047683716
2018-08-08,1.909999966621399
2018-08-09,1.9700000286102295
2018-08-10,1.9500000476837158
2018-08-13,1.909999966621399
2018-08-14,2.009999990463257
2018-08-15,2.130000114440918
2018-08-16,2.0799999237060547
2018-08-17,2.0199999809265137
2018-08-20,2.049999952316284
2018-08-21,2.0
2018-08-22,2.0
2018-08-23,2.0199999809265137
2018-08-24,2.0299999713897705
2018-08-27,2.0299999713897705
2018-08-28,2.1600000858306885
2018-08-29,2.119999885559082
2018-08-30,2.2799999713897705
2018-08-31,2.180000066757202
2018-09-04,2.2699999809265137
2018-09-05,2.2699999809265137
2018-09-06,2.2300000190734863
2018-09-07,2.119999885559082
2018-09-10,2.0999999046325684
2018-09-11,2.059999942779541
2018-09-12,2.049999952316284
2018-09-13,1.9500000476837158
2018-09-14,1.9199999570846558
2018-09-17,1.840000033378601
2018-09-18,1.899999976158142
2018-09-19,1.8700000047683716
2018-09-20,1.7899999618530273
2018-09-21,1.7400000095367432
2018-09-24,1.7799999713897705
2018-09-25,1.7899999618530273
2018-09-26,1.7999999523162842
2018-09-27,1.7799999713897705
2018-09-28,1.7300000190734863
2018-10-01,1.7100000381469727
2018-10-02,1.7799999713897705
2018-10-03,1.7999999523162842
2018-10-04,1.9500000476837158
2018-10-05,1.940000057220459
2018-10-08,1.8200000524520874
2018-10-09,1.809999942779541
2018-10-10,1.7999999523162842
2018-10-11,1.7599999904632568
2018-10-12,1.8200000524520874
2018-10-15,1.7799999713897705
2018-10-16,1.75
2018-10-17,1.75
2018-10-18,1.7999999523162842
2018-10-19,1.7599999904632568
2018-10-22,1.7200000286102295
2018-10-23,1.7200000286102295
2018-10-24,1.690000057220459
2018-10-25,1.75
2018-10-26,1.7999999523162842
2018-10-29,1.7200000286102295
2018-10-30,1.7200000286102295
2018-10-31,1.7200000286102295
2018-11-01,1.7200000286102295
2018-11-02,1.850000023841858
2018-11-05,1.8700000047683716
2018-11-06,1.899999976158142
2018-11-07,1.809999942779541
2018-11-08,1.8600000143051147
2018-11-09,1.9500000476837158
2018-11-12,1.850000023841858
2018-11-13,1.8600000143051147
2018-11-14,1.75
2018-11-15,1.75
2018-11-16,1.7000000476837158
2018-11-19,1.7000000476837158
2018-11-20,1.7999999523162842
2018-11-21,1.7400000095367432
2018-11-23,1.7999999523162842
2018-11-26,1.7999999523162842
2018-11-27,1.7899999618530273
2018-11-28,1.7999999523162842
2018-11-29,1.75
2018-11-30,1.7100000381469727
2018-12-03,1.7699999809265137
2018-12-04,1.7599999904632568
2018-12-06,1.659999966621399
2018-12-07,1.6200000047683716
2018-12-10,1.649999976158142
2018-12-11,1.6799999475479126
2018-12-12,1.6399999856948853
2018-12-13,1.6799999475479126
2018-12-14,1.6200000047683716
2018-12-17,1.6699999570846558
2018-12-18,1.75
2018-12-19,1.6399999856948853
2018-12-20,1.5800000429153442
2018-12-21,1.5299999713897705
2018-12-24,1.5099999904632568
2018-12-26,1.5099999904632568
2018-12-27,1.4800000190734863
2018-12-28,1.5099999904632568
2018-12-31,1.4900000095367432
2019-01-02,1.5299999713897705
2019-01-03,1.4600000381469727
2019-01-04,1.6200000047683716
2019-01-07,1.6200000047683716
2019-01-08,1.5499999523162842
2019-01-09,1.5499999523162842
2019-01-10,1.5499999523162842
2019-01-11,1.590000033378601
2019-01-14,1.5800000429153442
2019-01-15,1.5099999904632568
2019-01-16,1.5199999809265137
2019-01-17,1.5099999904632568
2019-01-18,1.5299999713897705
2019-01-22,1.159999966621399
2019-01-23,1.149999976158142
2019-01-24,1.1399999856948853
2019-01-25,1.2200000286102295
2019-01-28,1.2200000286102295
2019-01-29,1.190000057220459
2019-01-30,1.2000000476837158
2019-01-31,1.2100000381469727
2019-02-01,1.2200000286102295
2019-02-04,1.190000057220459
2019-02-05,1.1699999570846558
2019-02-06,1.1699999570846558
2019-02-07,1.1399999856948853
2019-02-08,1.1100000143051147
2019-02-11,1.1299999952316284
2019-02-12,1.3200000524520874
2019-02-13,1.3600000143051147
2019-02-14,1.3700000047683716
2019-02-15,1.3300000429153442
2019-02-19,1.399999976158142
2019-02-20,1.3600000143051147
2019-02-21,1.3899999856948853
2019-02-22,1.3600000143051147
2019-02-25,1.3799999952316284
2019-02-26,1.3799999952316284
2019-02-27,1.3799999952316284
2019-02-28,1.3899999856948853
2019-03-01,1.3899999856948853
2019-03-04,1.399999976158142
2019-03-05,1.3300000429153442
2019-03-06,1.2699999809265137
2019-03-07,1.25
2019-03-08,1.2699999809265137
2019-03-11,1.2599999904632568
2019-03-12,1.25
2019-03-13,1.25
2019-03-14,1.2000000476837158
2019-03-15,1.3300000429153442
2019-03-18,1.3899999856948853
2019-03-19,1.4199999570846558
2019-03-20,1.4199999570846558
2019-03-21,1.3799999952316284
2019-03-22,1.3600000143051147
2019-03-25,1.3899999856948853
2019-03-26,1.350000023841858
2019-03-27,1.340000033378601
2019-03-28,1.3200000524520874
2019-03-29,1.3300000429153442
2019-04-01,1.340000033378601
2019-04-02,1.3799999952316284
2019-04-03,1.3899999856948853
2019-04-04,1.350000023841858
2019-04-05,1.3899999856948853
2019-04-08,1.3899999856948853
2019-04-09,1.3600000143051147
2019-04-10,1.3600000143051147
2019-04-11,1.3899999856948853
2019-04-12,1.350000023841858
2019-04-15,1.3899999856948853
2019-04-16,1.3799999952316284
2019-04-17,1.340000033378601
2019-04-18,1.350000023841858
2019-04-22,1.350000023841858
2019-04-23,1.340000033378601
2019-04-24,1.309999942779541
2019-04-25,1.309999942779541
2019-04-26,1.2999999523162842
2019-04-29,1.309999942779541
2019-04-30,1.2999999523162842
2019-05-01,1.2400000095367432
2019-05-02,1.2200000286102295
2019-05-03,1.1699999570846558
2019-05-06,1.159999966621399
2019-05-07,1.1399999856948853
2019-05-08,1.1399999856948853
2019-05-09,1.1399999856948853
2019-05-10,1.149999976158142
2019-05-13,1.1399999856948853
2019-05-14,1.1299999952316284
2019-05-15,1.159999966621399
2019-05-16,1.100000023841858
2019-05-17,1.0800000429153442
2019-05-20,1.100000023841858
2019-05-21,1.100000023841858
2019-05-22,1.090000033378601
2019-05-23,1.090000033378601
2019-05-24,1.1299999952316284
2019-05-28,1.149999976158142
2019-05-29,1.1100000143051147
2019-05-30,1.1200000047683716
2019-05-31,1.0800000429153442
2019-06-03,1.0800000429153442
2019-06-04,1.0399999618530273
2019-06-05,1.090000033378601
2019-06-06,1.059999942779541
2019-06-07,1.0700000524520874
2019-06-10,1.090000033378601
2019-06-11,1.0399999618530273
2019-06-12,1.0399999618530273
2019-06-13,1.0299999713897705
2019-06-14,1.0399999618530273
2019-06-17,1.0
2019-06-18,1.0199999809265137
2019-06-19,1.0
2019-06-20,1.0199999809265137
2019-06-21,1.0
2019-06-24,1.090000033378601
2019-06-25,1.0800000429153442
2019-06-26,1.0499999523162842
2019-06-27,1.100000023841858
2019-06-28,1.1399999856948853
2019-07-01,1.0700000524520874
2019-07-02,1.059999942779541
2019-07-03,1.059999942779541
2019-07-05,1.059999942779541
2019-07-08,1.0499999523162842
2019-07-09,1.0199999809265137
2019-07-10,1.0099999904632568
2019-07-11,1.0499999523162842
2019-07-12,1.0299999713897705
2019-07-15,1.0199999809265137
2019-07-16,1.059999942779541
2019-07-17,1.0
2019-07-18,1.0399999618530273
2019-07-19,1.0499999523162842
2019-07-22,1.0299999713897705
2019-07-23,1.059999942779541
2019-07-24,1.0299999713897705
2019-07-25,1.0199999809265137
2019-07-26,1.0
2019-07-29,0.9700000286102295
2019-07-30,1.0099999904632568
2019-07-31,1.0800000429153442
2019-08-01,0.9800000190734863
2019-08-02,1.0
2019-08-05,0.9700000286102295
2019-08-06,1.0199999809265137
2019-08-07,0.9900000095367432
2019-08-08,0.9700000286102295
2019-08-09,0.9700000286102295
2019-08-12,1.0
2019-08-13,1.0
2019-08-14,0.949999988079071
2019-08-15,0.949999988079071
2019-08-16,1.0
2019-08-19,0.9399999976158142
2019-08-20,0.9900000095367432
2019-08-21,0.9599999785423279
2019-08-22,0.9700000286102295
2019-08-23,0.9700000286102295
2019-08-26,1.0199999809265137
2019-08-27,1.0099999904632568
2019-08-28,0.9700000286102295
2019-08-29,1.0199999809265137
2019-08-30,1.0399999618530273
2019-09-03,1.0399999618530273
2019-09-04,1.0800000429153442
2019-09-05,1.0800000429153442
2019-09-06,1.0700000524520874
2019-09-09,1.059999942779541
2019-09-10,1.059999942779541
2019-09-11,1.0499999523162842
2019-09-12,1.0199999809265137
2019-09-13,1.0299999713897705
2019-09-16,1.0199999809265137
2019-09-17,0.9900000095367432
2019-09-18,1.0099999904632568
2019-09-19,0.9700000286102295
2019-09-20,1.0199999809265137
2019-09-23,1.0800000429153442
2019-09-24,1.0199999809265137
2019-09-25,0.9800000190734863
2019-09-26,0.9800000190734863
2019-09-27,0.9599999785423279
2019-09-30,0.9800000190734863
2019-10-01,0.9800000190734863
2019-10-02,0.9700000286102295
2019-10-03,0.9800000190734863
2019-10-04,0.9800000190734863
2019-10-07,1.0
2019-10-08,0.9900000095367432
2019-10-09,0.9900000095367432
2019-10-10,0.9800000190734863
2019-10-11,0.9800000190734863
2019-10-14,0.9800000190734863
2019-10-15,0.9800000190734863
2019-10-16,0.9800000190734863
2019-10-17,0.9800000190734863
2019-10-18,0.9800000190734863
2019-10-21,1.0
2019-10-22,0.9800000190734863
2019-10-23,0.9800000190734863
2019-10-24,0.9599999785423279
2019-10-25,0.9800000190734863
2019-10-28,0.9599999785423279
2019-10-29,0.9700000286102295
2019-10-30,0.9900000095367432
2019-10-31,0.9900000095367432
2019-11-01,0.9599999785423279
2019-11-04,0.9900000095367432
2019-11-05,0.9599999785423279
2019-11-06,1.1100000143051147
2019-11-07,1.0700000524520874
2019-11-08,1.0700000524520874
2019-11-11,1.0499999523162842
2019-11-12,1.0199999809265137
2019-11-13,1.0199999809265137
2019-11-14,1.0
2019-11-15,0.9399999976158142
2019-11-18,0.949999988079071
2019-11-19,0.949999988079071
2019-11-20,0.949999988079071
2019-11-21,0.9800000190734863
2019-11-22,0.9300000071525574
2019-11-25,0.8700000047683716
2019-11-26,0.8999999761581421
2019-11-27,0.8600000143051147
2019-11-29,0.9300000071525574
2019-12-02,0.9399999976158142
2019-12-03,0.8899999856948853
2019-12-04,0.8799999952316284
2019-12-05,0.8500000238418579
2019-12-06,0.8500000238418579
2019-12-09,0.8100000023841858
2019-12-10,0.8299999833106995
2019-12-11,0.800000011920929
2019-12-12,0.7599999904632568
2019-12-13,0.7799999713897705
2019-12-16,0.7799999713897705
2019-12-17,0.7799999713897705
2019-12-18,0.7599999904632568
2019-12-19,0.75
2019-12-20,0.7599999904632568
2019-12-23,0.7599999904632568
2019-12-24,0.7599999904632568
2019-12-26,0.75
2019-12-27,0.7599999904632568
2019-12-30,0.7599999904632568
2019-12-31,0.7300000190734863
