Date,JNPR
2007-12-31,28.699874877929688
2008-01-02,27.748971939086914
2008-01-03,28.03424644470215
2008-01-04,26.901809692382812
2008-01-07,26.53874397277832
2008-01-08,26.279401779174805
2008-01-09,26.642475128173828
2008-01-10,26.512807846069336
2008-01-11,22.994478225708008
2008-01-14,24.368959426879883
2008-01-15,23.815711975097656
2008-01-16,23.67739486694336
2008-01-17,22.994478225708008
2008-01-18,22.90803337097168
2008-01-22,22.138668060302734
2008-01-23,21.066743850708008
2008-01-24,22.735139846801758
2008-01-25,22.432584762573242
2008-01-28,23.513154983520508
2008-01-29,23.141433715820312
2008-01-30,23.253820419311523
2008-01-31,23.469928741455078
2008-02-01,23.55636978149414
2008-02-04,22.821584701538086
2008-02-05,22.043582916259766
2008-02-06,21.70644187927246
2008-02-07,21.35201644897461
2008-02-08,22.00899887084961
2008-02-11,22.320201873779297
2008-02-12,22.41529655456543
2008-02-13,23.755191802978516
2008-02-14,23.17601203918457
2008-02-15,22.579540252685547
2008-02-19,22.596830368041992
2008-02-20,22.519025802612305
2008-02-21,22.181888580322266
2008-02-22,22.640056610107422
2008-02-25,23.850292205810547
2008-02-26,23.781131744384766
2008-02-27,25.319862365722656
2008-02-28,24.714744567871094
2008-02-29,23.184656143188477
2008-03-03,22.363428115844727
2008-03-04,22.72650146484375
2008-03-05,23.530439376831055
2008-03-06,22.328847885131836
2008-03-07,21.56812858581543
2008-03-10,21.26556968688965
2008-03-11,22.276981353759766
2008-03-12,22.10408592224121
2008-03-13,22.138668060302734
2008-03-14,21.334732055664062
2008-03-17,20.971654891967773
2008-03-18,22.026296615600586
2008-03-19,21.13590431213379
2008-03-20,21.74966049194336
2008-03-24,22.043582916259766
2008-03-25,22.977188110351562
2008-03-26,22.648698806762695
2008-03-27,21.5249080657959
2008-03-28,21.006235122680664
2008-03-31,21.611351013183594
2008-04-01,22.285627365112305
2008-04-02,21.230995178222656
2008-04-03,21.075389862060547
2008-04-04,20.77283477783203
2008-04-07,20.28009033203125
2008-04-08,20.254159927368164
2008-04-09,19.856508255004883
2008-04-10,20.150421142578125
2008-04-11,19.73548698425293
2008-04-14,19.9775333404541
2008-04-15,19.649044036865234
2008-04-16,20.40976333618164
2008-04-17,20.193645477294922
2008-04-18,21.16183853149414
2008-04-21,21.74102210998535
2008-04-22,21.04081153869629
2008-04-23,21.931203842163086
2008-04-24,22.242401123046875
2008-04-25,23.089563369750977
2008-04-28,23.37483787536621
2008-04-29,23.651460647583008
2008-04-30,23.876218795776367
2008-05-01,24.740676879882812
2008-05-02,24.88763427734375
2008-05-05,24.671520233154297
2008-05-06,24.835765838623047
2008-05-07,24.265226364135742
2008-05-08,23.89350700378418
2008-05-09,23.616884231567383
2008-05-12,23.954023361206055
2008-05-13,23.590959548950195
2008-05-14,23.530439376831055
2008-05-15,24.351669311523438
2008-05-16,24.974075317382812
2008-05-19,25.07781219482422
2008-05-20,24.25657844543457
2008-05-21,23.798419952392578
2008-05-22,23.824356079101562
2008-05-23,23.582307815551758
2008-05-27,24.222007751464844
2008-05-28,24.196069717407227
2008-05-29,23.867576599121094
2008-05-30,23.789772033691406
2008-06-02,23.383480072021484
2008-06-03,23.011768341064453
2008-06-04,23.322973251342773
2008-06-05,23.219234466552734
2008-06-06,23.037696838378906
2008-06-09,23.21059226989746
2008-06-10,22.89938735961914
2008-06-11,21.654571533203125
2008-06-12,21.239635467529297
2008-06-13,20.911148071289062
2008-06-16,20.841989517211914
2008-06-17,20.40111541748047
2008-06-18,19.56259536743164
2008-06-19,20.150421142578125
2008-06-20,19.657684326171875
2008-06-23,19.86515235900879
2008-06-24,19.96889305114746
2008-06-25,20.167715072631836
2008-06-26,19.363773345947266
2008-06-27,19.57124137878418
2008-06-30,19.1735897064209
2008-07-01,18.801881790161133
2008-07-02,18.905611038208008
2008-07-03,19.666330337524414
2008-07-07,20.029407501220703
2008-07-08,20.176355361938477
2008-07-09,18.957475662231445
2008-07-10,19.052566528320312
2008-07-11,18.81052017211914
2008-07-14,18.77593994140625
2008-07-15,18.957475662231445
2008-07-16,19.54530906677246
2008-07-17,20.020753860473633
2008-07-18,19.493436813354492
2008-07-21,20.3060302734375
2008-07-22,19.32919692993164
2008-07-23,19.787357330322266
2008-07-24,19.510730743408203
2008-07-25,22.968547821044922
2008-07-28,22.06086540222168
2008-07-29,22.034934997558594
2008-07-30,22.4671630859375
2008-07-31,22.50174331665039
2008-08-01,22.622766494750977
2008-08-04,21.63728904724121
2008-08-05,22.4671630859375
2008-08-06,22.743785858154297
2008-08-07,22.302919387817383
2008-08-08,23.167367935180664
2008-08-11,22.856164932250977
2008-08-12,22.38936424255371
2008-08-13,22.579540252685547
2008-08-14,23.357547760009766
2008-08-15,23.31432342529297
2008-08-18,22.838876724243164
2008-08-19,22.268335342407227
2008-08-20,22.181888580322266
2008-08-21,22.078157424926758
2008-08-22,22.372072219848633
2008-08-25,21.974422454833984
2008-08-26,21.715085983276367
2008-08-27,21.870685577392578
2008-08-28,22.45851707458496
2008-08-29,22.216468811035156
2008-09-02,21.611351013183594
2008-09-03,21.784242630004883
2008-09-04,20.40111541748047
2008-09-05,20.876564025878906
2008-09-08,21.57676887512207
2008-09-09,21.42982292175293
2008-09-10,21.853403091430664
2008-09-11,22.346141815185547
2008-09-12,22.311561584472656
2008-09-15,21.792882919311523
2008-09-16,21.957134246826172
2008-09-17,20.945722579956055
2008-09-18,22.380712509155273
2008-09-19,23.253820419311523
2008-09-22,22.000356674194336
2008-09-23,20.945722579956055
2008-09-24,20.098552703857422
2008-09-25,20.05533218383789
2008-09-26,19.899730682373047
2008-09-29,18.15353775024414
2008-09-30,18.21404266357422
2008-10-01,17.280439376831055
2008-10-02,16.035625457763672
2008-10-03,16.044265747070312
2008-10-06,16.338184356689453
2008-10-07,14.756227493286133
2008-10-08,14.920475006103516
2008-10-09,14.488250732421875
2008-10-10,14.228912353515625
2008-10-13,16.398693084716797
2008-10-14,15.395927429199219
2008-10-15,14.04737663269043
2008-10-16,14.505538940429688
2008-10-17,15.551532745361328
2008-10-20,17.271791458129883
2008-10-21,15.923240661621094
2008-10-22,16.433271408081055
2008-10-23,15.413217544555664
2008-10-24,14.263495445251465
2008-10-27,14.540119171142578
2008-10-28,16.13935661315918
2008-10-29,16.061559677124023
2008-10-30,16.27766990661621
2008-10-31,16.19986915588379
2008-11-03,15.707131385803223
2008-11-04,16.21715545654297
2008-11-05,14.877256393432617
2008-11-06,14.62656021118164
2008-11-07,15.00692081451416
2008-11-10,14.89454174041748
2008-11-11,14.056022644042969
2008-11-12,13.096479415893555
2008-11-13,13.917710304260254
2008-11-14,12.992741584777832
2008-11-17,12.724762916564941
2008-11-18,12.672895431518555
2008-11-19,12.13693618774414
2008-11-20,11.964044570922852
2008-11-21,12.889010429382324
2008-11-24,14.289426803588867
2008-11-25,14.462319374084473
2008-11-26,15.171170234680176
2008-11-28,15.024211883544922
2008-12-01,13.191569328308105
2008-12-02,14.038734436035156
2008-12-03,14.410449981689453
2008-12-04,13.468194961547852
2008-12-05,14.090600967407227
2008-12-08,14.756227493286133
2008-12-09,15.508308410644531
2008-12-10,15.378636360168457
2008-12-11,14.808096885681152
2008-12-12,15.093368530273438
2008-12-15,14.661136627197266
2008-12-16,15.38728141784668
2008-12-17,14.972344398498535
2008-12-18,14.773518562316895
2008-12-19,14.574699401855469
2008-12-22,14.384514808654785
2008-12-23,14.540119171142578
2008-12-24,14.72165298461914
2008-12-26,14.63520622253418
2008-12-29,14.808096885681152
2008-12-30,15.04150104522705
2008-12-31,15.136590957641602
2009-01-02,15.897307395935059
2009-01-05,15.98375129699707
2009-01-06,16.225801467895508
2009-01-07,15.404574394226074
2009-01-08,15.724420547485352
2009-01-09,15.248968124389648
2009-01-12,14.756227493286133
2009-01-13,14.600628852844238
2009-01-14,13.917710304260254
2009-01-15,14.133825302124023
2009-01-16,14.168399810791016
2009-01-20,13.338525772094727
2009-01-21,14.669782638549805
2009-01-22,15.04150104522705
2009-01-23,15.283549308776855
2009-01-26,15.292193412780762
2009-01-27,15.378636360168457
2009-01-28,15.85409164428711
2009-01-29,14.669782638549805
2009-01-30,12.240668296813965
2009-02-02,12.491363525390625
2009-02-03,12.370338439941406
2009-02-04,12.664253234863281
2009-02-05,13.83126449584961
2009-02-06,14.133825302124023
2009-02-09,13.727529525756836
2009-02-10,13.528705596923828
2009-02-11,13.4422607421875
2009-02-12,13.355813980102539
2009-02-13,13.321237564086914
2009-02-17,12.880363464355469
2009-02-18,12.716117858886719
2009-02-19,12.802563667297363
2009-02-20,12.690184593200684
2009-02-23,12.404915809631348
2009-02-24,12.923587799072266
2009-02-25,12.716117858886719
2009-02-26,12.318470001220703
2009-02-27,12.283891677856445
2009-03-02,11.661486625671387
2009-03-03,11.523171424865723
2009-03-04,11.920821189880371
2009-03-05,11.609617233276367
2009-03-06,10.952632904052734
2009-03-09,10.96127700805664
2009-03-10,11.894886016845703
2009-03-11,12.370338439941406
2009-03-12,12.767986297607422
2009-03-13,12.742055892944336
2009-03-16,12.655609130859375
2009-03-17,13.303948402404785
2009-03-18,13.4422607421875
2009-03-19,13.528705596923828
2009-03-20,13.0446138381958
2009-03-23,14.263495445251465
2009-03-24,13.822620391845703
2009-03-25,13.528705596923828
2009-03-26,14.14246654510498
2009-03-27,13.67566204071045
2009-03-30,13.070547103881836
2009-03-31,13.01003646850586
2009-04-01,13.641088485717773
2009-04-02,14.643851280212402
2009-04-03,14.72165298461914
2009-04-06,13.883130073547363
2009-04-07,13.502772331237793
2009-04-08,15.136590957641602
2009-04-09,15.85409164428711
2009-04-13,15.568817138671875
2009-04-14,15.663907051086426
2009-04-15,15.880022048950195
2009-04-16,16.58887481689453
2009-04-17,15.98375129699707
2009-04-20,15.266256332397461
2009-04-21,15.828154563903809
2009-04-22,16.24309539794922
2009-04-23,16.649385452270508
2009-04-24,19.303260803222656
2009-04-27,18.473384857177734
2009-04-28,18.0498046875
2009-04-29,18.38694190979004
2009-04-30,18.715436935424805
2009-05-01,19.156301498413086
2009-05-04,19.303260803222656
2009-05-05,19.91702651977539
2009-05-06,19.873796463012695
2009-05-07,18.41287612915039
2009-05-08,18.888324737548828
2009-05-11,18.36964988708496
2009-05-12,18.784584045410156
2009-05-13,18.35236167907715
2009-05-14,18.62034034729004
2009-05-15,18.63762855529785
2009-05-18,19.251394271850586
2009-05-19,19.54530906677246
2009-05-20,19.770065307617188
2009-05-21,20.150421142578125
2009-05-22,20.046693801879883
2009-05-26,20.76418685913086
2009-05-27,20.867921829223633
2009-05-28,21.507619857788086
2009-05-29,21.377948760986328
2009-06-01,21.90526580810547
2009-06-02,20.591297149658203
2009-06-03,20.660449981689453
2009-06-04,20.859270095825195
2009-06-05,20.83333969116211
2009-06-08,20.487564086914062
2009-06-09,20.93708038330078
2009-06-10,20.565364837646484
2009-06-11,20.643159866333008
2009-06-12,20.634519577026367
2009-06-15,20.470273971557617
2009-06-16,19.960243225097656
2009-06-17,19.770065307617188
2009-06-18,19.320547103881836
2009-06-19,19.381057739257812
2009-06-22,18.577119827270508
2009-06-23,18.905611038208008
2009-06-24,19.59717559814453
2009-06-25,19.91702651977539
2009-06-26,19.56259536743164
2009-06-29,20.42704963684082
2009-06-30,20.40111541748047
2009-07-01,21.101322174072266
2009-07-02,20.357892990112305
2009-07-06,20.470273971557617
2009-07-07,19.86515235900879
2009-07-08,19.86515235900879
2009-07-09,20.01211166381836
2009-07-10,20.05533218383789
2009-07-13,20.098552703857422
2009-07-14,20.24551773071289
2009-07-15,21.775598526000977
2009-07-16,21.63728904724121
2009-07-17,21.775598526000977
2009-07-20,22.233755111694336
2009-07-21,22.372072219848633
2009-07-22,22.043582916259766
2009-07-23,22.951255798339844
2009-07-24,23.219234466552734
2009-07-27,23.0290584564209
2009-07-28,22.449872970581055
2009-07-29,22.216468811035156
2009-07-30,22.51038360595703
2009-07-31,22.58818817138672
2009-08-03,22.709205627441406
2009-08-04,22.579540252685547
2009-08-05,22.199182510375977
2009-08-06,21.723731994628906
2009-08-07,21.957134246826172
2009-08-10,21.611351013183594
2009-08-11,21.63728904724121
2009-08-12,21.913917541503906
2009-08-13,21.810176849365234
2009-08-14,21.28285789489746
2009-08-17,20.47892189025879
2009-08-18,20.76418685913086
2009-08-19,20.470273971557617
2009-08-20,21.256925582885742
2009-08-21,21.274215698242188
2009-08-24,20.71231460571289
2009-08-25,20.42704963684082
2009-08-26,20.07262420654297
2009-08-27,20.47892189025879
2009-08-28,20.38382911682129
2009-08-31,19.942955017089844
2009-09-01,19.614463806152344
2009-09-02,19.90837860107422
2009-09-03,20.23686981201172
2009-09-04,20.548076629638672
2009-09-08,20.99759292602539
2009-09-09,22.596830368041992
2009-09-10,22.951255798339844
2009-09-11,22.838876724243164
2009-09-14,22.856164932250977
2009-09-15,23.28839683532715
2009-09-16,23.703330993652344
2009-09-17,23.660104751586914
2009-09-18,23.876218795776367
2009-09-21,23.988595962524414
2009-09-22,23.945383071899414
2009-09-23,23.23652458190918
2009-09-24,22.9858341217041
2009-09-25,22.752431869506836
2009-09-28,23.55636978149414
2009-09-29,22.951255798339844
2009-09-30,23.357547760009766
2009-10-01,22.69192123413086
2009-10-02,22.346141815185547
2009-10-05,22.804298400878906
2009-10-06,23.297040939331055
2009-10-07,22.9339656829834
2009-10-08,23.426708221435547
2009-10-09,23.798419952392578
2009-10-12,24.135555267333984
2009-10-13,23.634172439575195
2009-10-14,23.513154983520508
2009-10-15,23.582307815551758
2009-10-16,22.90803337097168
2009-10-19,23.521799087524414
2009-10-20,23.962663650512695
2009-10-21,24.049116134643555
2009-10-22,24.3948917388916
2009-10-23,23.608240127563477
2009-10-26,22.665985107421875
2009-10-27,22.337493896484375
2009-10-28,21.663219451904297
2009-10-29,22.787010192871094
2009-10-30,22.05222511291504
2009-11-02,22.155954360961914
2009-11-03,22.173246383666992
2009-11-04,22.095441818237305
2009-11-05,22.475805282592773
2009-11-06,21.89661979675293
2009-11-09,21.983070373535156
2009-11-10,21.533550262451172
2009-11-11,21.913917541503906
2009-11-12,21.35201644897461
2009-11-13,22.6054744720459
2009-11-16,22.441226959228516
2009-11-17,22.311561584472656
2009-11-18,22.130022048950195
2009-11-19,21.862043380737305
2009-11-20,21.784242630004883
2009-11-23,22.53631591796875
2009-11-24,22.51038360595703
2009-11-25,22.657339096069336
2009-11-27,22.190532684326172
2009-11-30,22.58818817138672
2009-12-01,23.158721923828125
2009-12-02,23.167367935180664
2009-12-03,23.271100997924805
2009-12-04,23.625534057617188
2009-12-07,23.6428165435791
2009-12-08,23.495864868164062
2009-12-09,23.590959548950195
2009-12-10,23.34026336669922
2009-12-11,23.150081634521484
2009-12-14,23.10685920715332
2009-12-15,22.89938735961914
2009-12-16,22.787010192871094
2009-12-17,22.05222511291504
2009-12-18,22.562253952026367
2009-12-21,22.847517013549805
2009-12-22,22.821584701538086
2009-12-23,22.665985107421875
2009-12-24,22.847517013549805
2009-12-28,23.167367935180664
2009-12-29,23.19330406188965
2009-12-30,23.461278915405273
2009-12-31,23.05498695373535
2010-01-04,23.495864868164062
2010-01-05,23.124147415161133
2010-01-06,22.50174331665039
2010-01-07,22.614118576049805
2010-01-08,22.69192123413086
2010-01-11,22.648698806762695
2010-01-12,22.35478401184082
2010-01-13,22.890745162963867
2010-01-14,22.769718170166016
2010-01-15,22.977188110351562
2010-01-19,23.227882385253906
2010-01-20,22.519025802612305
2010-01-21,22.579540252685547
2010-01-22,21.56812858581543
2010-01-25,21.931203842163086
2010-01-26,21.490327835083008
2010-01-27,21.62864112854004
2010-01-28,21.17047691345215
2010-01-29,21.464391708374023
2010-02-01,21.663219451904297
2010-02-02,21.7583065032959
2010-02-03,21.89661979675293
2010-02-04,21.516265869140625
2010-02-05,21.611351013183594
2010-02-08,21.533550262451172
2010-02-09,21.715085983276367
2010-02-10,21.62864112854004
2010-02-11,21.836109161376953
2010-02-12,21.403884887695312
2010-02-16,22.000356674194336
2010-02-17,22.14731216430664
2010-02-18,22.423940658569336
2010-02-19,23.72062110900879
2010-02-22,23.521799087524414
2010-02-23,23.253820419311523
2010-02-24,24.161489486694336
2010-02-25,24.204713821411133
2010-02-26,24.18742561340332
2010-03-01,24.66287612915039
2010-03-02,24.697452545166016
2010-03-03,24.86170196533203
2010-03-04,24.78389549255371
2010-03-05,25.15561294555664
2010-03-08,25.587844848632812
2010-03-09,25.838533401489258
2010-03-10,26.270755767822266
2010-03-11,26.331270217895508
2010-03-12,25.881755828857422
2010-03-15,25.99413299560547
2010-03-16,26.279401779174805
2010-03-17,26.530099868774414
2010-03-18,26.149736404418945
2010-03-19,25.838533401489258
2010-03-22,26.05463981628418
2010-03-23,26.6943359375
2010-03-24,26.331270217895508
2010-03-25,26.56467628479004
2010-03-26,26.357208251953125
2010-03-29,26.495515823364258
2010-03-30,26.685693740844727
2010-03-31,26.521455764770508
2010-04-01,26.322628021240234
2010-04-05,26.677051544189453
2010-04-06,27.3513240814209
2010-04-07,27.221664428710938
2010-04-08,27.031476974487305
2010-04-09,27.359970092773438
2010-04-12,27.31675148010254
2010-04-13,27.01418685913086
2010-04-14,27.4982852935791
2010-04-15,27.645240783691406
2010-04-16,26.979612350463867
2010-04-19,26.953678131103516
2010-04-20,27.282176971435547
2010-04-21,25.77802085876465
2010-04-22,25.674287796020508
2010-04-23,25.99413299560547
2010-04-26,25.71750831604004
2010-04-27,25.302568435668945
2010-04-28,25.07781219482422
2010-04-29,25.380369186401367
2010-04-30,24.559144973754883
2010-05-03,25.060522079467773
2010-05-04,24.32573699951172
2010-05-05,24.5332088470459
2010-05-06,23.850292205810547
2010-05-07,23.10685920715332
2010-05-10,24.36031723022461
2010-05-11,24.152849197387695
2010-05-12,25.000011444091797
2010-05-13,24.230649948120117
2010-05-14,23.772483825683594
2010-05-17,24.196069717407227
2010-05-18,23.513154983520508
2010-05-19,23.227882385253906
2010-05-20,22.112733840942383
2010-05-21,22.812942504882812
2010-05-24,22.58818817138672
2010-05-25,22.700563430786133
2010-05-26,22.519025802612305
2010-05-27,23.565017700195312
2010-05-28,23.011768341064453
2010-06-01,21.464391708374023
2010-06-02,21.862043380737305
2010-06-03,22.311561584472656
2010-06-04,21.326080322265625
2010-06-07,21.006235122680664
2010-06-08,21.04081153869629
2010-06-09,20.7296085357666
2010-06-10,21.230995178222656
2010-06-11,21.60270881652832
2010-06-14,21.49896812438965
2010-06-15,22.06951332092285
2010-06-16,21.74966049194336
2010-06-17,21.862043380737305
2010-06-18,22.043582916259766
2010-06-21,21.56812858581543
2010-06-22,21.11861228942871
2010-06-23,21.11861228942871
2010-06-24,20.496206283569336
2010-06-25,20.504854202270508
2010-06-28,20.911148071289062
2010-06-29,20.07262420654297
2010-06-30,19.726839065551758
2010-07-01,19.88243865966797
2010-07-02,20.816055297851562
2010-07-06,20.824697494506836
2010-07-07,22.034934997558594
2010-07-08,21.983070373535156
2010-07-09,22.276981353759766
2010-07-12,22.475805282592773
2010-07-13,23.10685920715332
2010-07-14,23.426708221435547
2010-07-15,23.219234466552734
2010-07-16,22.38936424255371
2010-07-19,22.994478225708008
2010-07-20,23.072280883789062
2010-07-21,22.916677474975586
2010-07-22,23.694684982299805
2010-07-23,24.282514572143555
2010-07-26,24.939498901367188
2010-07-27,24.27387237548828
2010-07-28,24.03182601928711
2010-07-29,23.858930587768555
2010-07-30,24.01453399658203
2010-08-02,24.29116439819336
2010-08-03,24.222007751464844
2010-08-04,24.619651794433594
2010-08-05,24.472698211669922
2010-08-06,24.196069717407227
2010-08-09,24.70609474182129
2010-08-10,24.80118751525879
2010-08-11,23.919445037841797
2010-08-12,22.285627365112305
2010-08-13,22.155954360961914
2010-08-16,22.363428115844727
2010-08-17,22.665985107421875
2010-08-18,22.88210105895996
2010-08-19,23.063636779785156
2010-08-20,23.547731399536133
2010-08-23,23.495864868164062
2010-08-24,23.158721923828125
2010-08-25,23.132789611816406
2010-08-26,23.158721923828125
2010-08-27,23.547731399536133
2010-08-30,23.26245880126953
2010-08-31,23.513154983520508
2010-09-01,23.88486099243164
2010-09-02,24.44676399230957
2010-09-03,25.060522079467773
2010-09-07,24.697452545166016
2010-09-08,24.939498901367188
2010-09-09,24.464048385620117
2010-09-10,24.44676399230957
2010-09-13,25.259347915649414
2010-09-14,25.33714485168457
2010-09-15,25.50139808654785
2010-09-16,25.708864212036133
2010-09-17,25.942262649536133
2010-09-20,26.25347137451172
2010-09-21,26.167024612426758
2010-09-22,25.553260803222656
2010-09-23,25.475460052490234
2010-09-24,25.74344253540039
2010-09-27,26.82400894165039
2010-09-28,27.0228328704834
2010-09-29,26.728918075561523
2010-09-30,26.23618507385254
2010-10-01,26.19295883178711
2010-10-04,26.58196258544922
2010-10-05,28.172561645507812
2010-10-06,26.988256454467773
2010-10-07,27.1179256439209
2010-10-08,27.20436668395996
2010-10-11,27.38590431213379
2010-10-12,27.58473014831543
2010-10-13,27.3513240814209
2010-10-14,27.057411193847656
2010-10-15,27.61066436767578
2010-10-18,27.6365966796875
2010-10-19,26.400428771972656
2010-10-20,27.774911880493164
2010-10-21,27.394550323486328
2010-10-22,27.61066436767578
2010-10-25,27.679819107055664
2010-10-26,27.991025924682617
2010-10-27,27.75762176513672
2010-10-28,27.480998992919922
2010-10-29,27.999670028686523
2010-11-01,27.671173095703125
2010-11-02,27.861351013183594
2010-11-03,28.82954216003418
2010-11-04,29.25312042236328
2010-11-05,29.728572845458984
2010-11-08,29.555681228637695
2010-11-09,29.564329147338867
2010-11-10,29.86689567565918
2010-11-11,29.849597930908203
2010-11-12,30.956098556518555
2010-11-15,29.68535041809082
2010-11-16,29.09752082824707
2010-11-17,28.622079849243164
2010-11-18,29.719924926757812
2010-11-19,30.02249526977539
2010-11-22,29.86689567565918
2010-11-23,28.941925048828125
2010-11-24,29.83230972290039
2010-11-26,29.50381851196289
2010-11-29,29.33956527709961
2010-11-30,29.408729553222656
2010-12-01,30.11758041381836
2010-12-02,30.238603591918945
2010-12-03,29.668066024780273
2010-12-06,29.52111053466797
2010-12-07,29.46059799194336
2010-12-08,30.2213134765625
2010-12-09,30.90423583984375
2010-12-10,31.016616821289062
2010-12-13,31.258670806884766
2010-12-14,30.90423583984375
2010-12-15,31.059831619262695
2010-12-16,31.725467681884766
2010-12-17,31.543928146362305
2010-12-20,31.976154327392578
2010-12-21,32.51211929321289
2010-12-22,32.7628059387207
2010-12-23,31.993446350097656
2010-12-27,32.05396270751953
2010-12-28,31.984806060791016
2010-12-29,31.91564178466797
2010-12-30,32.13175582885742
2010-12-31,31.91564178466797
2011-01-03,32.19226837158203
2011-01-04,32.12311935424805
2011-01-05,32.74552917480469
2011-01-06,33.030792236328125
2011-01-07,32.49483108520508
2011-01-10,32.51211929321289
2011-01-11,32.719581604003906
2011-01-12,33.12586975097656
2011-01-13,33.0394287109375
2011-01-14,33.480308532714844
2011-01-18,32.806034088134766
2011-01-19,31.898357391357422
2011-01-20,30.247249603271484
2011-01-21,30.14351463317871
2011-01-24,30.15216064453125
2011-01-25,30.100297927856445
2011-01-26,32.02802658081055
2011-01-27,32.15769577026367
2011-01-28,31.362396240234375
2011-01-31,32.088531494140625
2011-02-01,32.30465316772461
2011-02-02,32.83197784423828
2011-02-03,33.26420211791992
2011-02-04,34.63002395629883
2011-02-07,34.664608001708984
2011-02-08,34.828857421875
2011-02-09,34.863426208496094
2011-02-10,37.517311096191406
2011-02-11,37.52595138549805
2011-02-14,37.70748519897461
2011-02-15,38.37311553955078
2011-02-16,37.89766311645508
2011-02-17,38.23480224609375
2011-02-18,38.03598403930664
2011-02-22,36.696075439453125
2011-02-23,35.822975158691406
2011-02-24,37.318485260009766
2011-02-25,37.94953155517578
2011-02-28,38.03598403930664
2011-03-01,37.2752571105957
2011-03-02,37.353050231933594
2011-03-03,37.828514099121094
2011-03-04,38.13106918334961
2011-03-07,38.31260299682617
2011-03-08,38.433624267578125
2011-03-09,37.4567985534668
2011-03-10,35.745174407958984
2011-03-11,37.07643508911133
2011-03-14,37.21474838256836
2011-03-15,36.51453399658203
2011-03-16,36.28978729248047
2011-03-17,35.33888626098633
2011-03-18,34.80292510986328
2011-03-21,35.04496765136719
2011-03-22,33.82608413696289
2011-03-23,34.681907653808594
2011-03-24,35.287010192871094
2011-03-25,35.35617446899414
2011-03-28,34.638671875
2011-03-29,35.23514175415039
2011-03-30,36.18605422973633
2011-03-31,36.3762321472168
2011-04-01,35.66737747192383
2011-04-04,34.37069320678711
2011-04-05,34.042205810546875
2011-04-06,33.56675338745117
2011-04-07,33.6099739074707
2011-04-08,33.12586975097656
2011-04-11,33.35063934326172
2011-04-12,32.719581604003906
2011-04-13,33.15180587768555
2011-04-14,33.2728385925293
2011-04-15,33.17774963378906
2011-04-18,33.07402038574219
2011-04-19,33.25554656982422
2011-04-20,33.93846130371094
2011-04-21,34.6473274230957
2011-04-25,34.39662551879883
2011-04-26,33.756935119628906
2011-04-27,33.5148811340332
2011-04-28,33.25554656982422
2011-04-29,33.1345100402832
2011-05-02,32.49483108520508
2011-05-03,32.417030334472656
2011-05-04,32.2354850769043
2011-05-05,32.451602935791016
2011-05-06,32.1058235168457
2011-05-09,32.24413299560547
2011-05-10,32.68500518798828
2011-05-11,33.25554656982422
2011-05-12,34.41391372680664
2011-05-13,34.25831604003906
2011-05-16,33.81743621826172
2011-05-17,33.33334732055664
2011-05-18,33.653194427490234
2011-05-19,33.756935119628906
2011-05-20,33.592689514160156
2011-05-23,32.633140563964844
2011-05-24,31.595802307128906
2011-05-25,31.725467681884766
2011-05-26,31.96750259399414
2011-05-27,32.02802658081055
2011-05-31,31.647666931152344
2011-06-01,28.501047134399414
2011-06-02,29.06294822692871
2011-06-03,27.947805404663086
2011-06-06,27.187082290649414
2011-06-07,28.1984920501709
2011-06-08,27.75762176513672
2011-06-09,27.57608413696289
2011-06-10,26.599252700805664
2011-06-13,25.855817794799805
2011-06-14,26.331270217895508
2011-06-15,25.389019012451172
2011-06-16,25.492748260498047
2011-06-17,25.35443687438965
2011-06-20,25.510042190551758
2011-06-21,26.149736404418945
2011-06-22,25.52733039855957
2011-06-23,26.167024612426758
2011-06-24,25.95091438293457
2011-06-27,26.365848541259766
2011-06-28,26.31398582458496
2011-06-29,26.642475128173828
2011-06-30,27.230308532714844
2011-07-01,27.6365966796875
2011-07-05,27.480998992919922
2011-07-06,27.230308532714844
2011-07-07,28.354097366333008
2011-07-08,27.714397430419922
2011-07-11,27.187082290649414
2011-07-12,26.953678131103516
2011-07-13,26.82400894165039
2011-07-14,26.24482536315918
2011-07-15,26.478229522705078
2011-07-18,25.959552764892578
2011-07-19,27.299457550048828
2011-07-20,26.92774200439453
2011-07-21,26.210248947143555
2011-07-22,27.031476974487305
2011-07-25,26.512807846069336
2011-07-26,26.94503402709961
2011-07-27,21.317434310913086
2011-07-28,20.565364837646484
2011-07-29,20.219579696655273
2011-08-01,19.899730682373047
2011-08-02,19.674972534179688
2011-08-03,20.392475128173828
2011-08-04,19.147655487060547
2011-08-05,19.216812133789062
2011-08-08,17.427396774291992
2011-08-09,18.603057861328125
2011-08-10,17.86825942993164
2011-08-11,19.130374908447266
2011-08-12,19.1735897064209
2011-08-15,19.424280166625977
2011-08-16,19.087146759033203
2011-08-17,18.750011444091797
2011-08-18,17.228572845458984
2011-08-19,17.055679321289062
2011-08-22,17.04703140258789
2011-08-23,18.067087173461914
2011-08-24,18.17082405090332
2011-08-25,17.60028648376465
2011-08-26,18.067087173461914
2011-08-29,18.93154525756836
2011-08-30,18.87103271484375
2011-08-31,18.093027114868164
2011-09-01,18.274560928344727
2011-09-02,17.461971282958984
2011-09-06,17.26314353942871
2011-09-07,18.62034034729004
2011-09-08,18.654918670654297
2011-09-09,18.551185607910156
2011-09-12,18.79322624206543
2011-09-13,18.56847381591797
2011-09-14,18.663562774658203
2011-09-15,17.89419937133789
2011-09-16,17.418745040893555
2011-09-19,17.202632904052734
2011-09-20,17.41010856628418
2011-09-21,17.098899841308594
2011-09-22,16.528364181518555
2011-09-23,16.38140296936035
2011-09-26,16.511077880859375
2011-09-27,17.228572845458984
2011-09-28,16.29496192932129
2011-09-29,15.905952453613281
2011-09-30,14.920475006103516
2011-10-03,14.764870643615723
2011-10-04,15.335418701171875
2011-10-05,16.56293487548828
2011-10-06,16.796344757080078
2011-10-07,16.46784782409668
2011-10-10,17.01245880126953
2011-10-11,17.43604278564453
2011-10-12,17.280439376831055
2011-10-13,17.660795211791992
2011-10-14,18.63762855529785
2011-10-17,17.634862899780273
2011-10-18,18.50796127319336
2011-10-19,17.43604278564453
2011-10-20,17.77317237854004
2011-10-21,18.257266998291016
2011-10-24,19.441572189331055
2011-10-25,19.683618545532227
2011-10-26,20.098552703857422
2011-10-27,21.101322174072266
2011-10-28,21.44710922241211
2011-10-31,21.153188705444336
2011-11-01,20.124492645263672
2011-11-02,20.349254608154297
2011-11-03,20.71231460571289
2011-11-04,20.7296085357666
2011-11-07,20.496206283569336
2011-11-08,21.29150390625
2011-11-09,20.150421142578125
2011-11-10,20.548076629638672
2011-11-11,21.507619857788086
2011-11-14,21.403884887695312
2011-11-15,21.256925582885742
2011-11-16,20.7296085357666
2011-11-17,19.649044036865234
2011-11-18,19.50208282470703
2011-11-21,18.87103271484375
2011-11-22,18.50796127319336
2011-11-23,17.764528274536133
2011-11-25,17.43604278564453
2011-11-28,18.317779541015625
2011-11-29,18.023866653442383
2011-11-30,19.631752014160156
2011-12-01,19.234102249145508
2011-12-02,19.53666114807129
2011-12-05,20.193645477294922
2011-12-06,19.64039421081543
2011-12-07,18.42151641845703
2011-12-08,17.332304000854492
2011-12-09,17.202632904052734
2011-12-12,17.14212417602539
2011-12-13,16.41598892211914
2011-12-14,16.320894241333008
2011-12-15,16.078847885131836
2011-12-16,15.862733840942383
2011-12-19,15.663907051086426
2011-12-20,17.064321517944336
2011-12-21,16.81363296508789
2011-12-22,17.937423706054688
2011-12-23,18.006580352783203
2011-12-27,17.972000122070312
2011-12-28,17.686731338500977
2011-12-29,17.712665557861328
2011-12-30,17.643505096435547
2012-01-03,18.1881160736084
2012-01-04,17.937423706054688
2012-01-05,17.842330932617188
2012-01-06,17.660795211791992
2012-01-09,18.611698150634766
2012-01-10,18.447444915771484
2012-01-11,18.42151641845703
2012-01-12,18.404226303100586
2012-01-13,18.196760177612305
2012-01-17,18.361005783081055
2012-01-18,19.4588623046875
2012-01-19,20.643159866333008
2012-01-20,19.873796463012695
2012-01-23,19.484790802001953
2012-01-24,20.01211166381836
2012-01-25,19.553956985473633
2012-01-26,19.337841033935547
2012-01-27,18.750011444091797
2012-01-30,18.231334686279297
2012-01-31,18.093027114868164
2012-02-01,18.741361618041992
2012-02-02,18.68084716796875
2012-02-03,19.493436813354492
2012-02-06,19.64039421081543
2012-02-07,19.899730682373047
2012-02-08,19.960243225097656
2012-02-09,20.038047790527344
2012-02-10,19.64039421081543
2012-02-13,19.424280166625977
2012-02-14,19.510730743408203
2012-02-15,20.885208129882812
2012-02-16,20.76418685913086
2012-02-17,20.91978645324707
2012-02-21,20.548076629638672
2012-02-22,20.556720733642578
2012-02-23,20.323314666748047
2012-02-24,20.504854202270508
2012-02-27,20.357892990112305
2012-02-28,20.522140502929688
2012-02-29,19.674972534179688
2012-03-01,19.268680572509766
2012-03-02,19.00934410095215
2012-03-05,18.43880844116211
2012-03-06,18.231334686279297
2012-03-07,18.50796127319336
2012-03-08,18.525251388549805
2012-03-09,18.5166072845459
2012-03-12,18.283203125
2012-03-13,18.42151641845703
2012-03-14,17.80775260925293
2012-03-15,18.43880844116211
2012-03-16,18.525251388549805
2012-03-19,18.72407341003418
2012-03-20,18.283203125
2012-03-21,18.309141159057617
2012-03-22,18.110313415527344
2012-03-23,18.248626708984375
2012-03-26,18.5166072845459
2012-03-27,19.216812133789062
2012-03-28,19.372417449951172
2012-03-29,19.770065307617188
2012-03-30,19.778705596923828
2012-04-02,19.649044036865234
2012-04-03,18.94883155822754
2012-04-04,18.672212600708008
2012-04-05,18.36964988708496
2012-04-09,18.075735092163086
2012-04-10,18.0498046875
2012-04-11,18.801881790161133
2012-04-12,19.035282135009766
2012-04-13,18.32642936706543
2012-04-16,18.015222549438477
2012-04-17,18.689495086669922
2012-04-18,18.291847229003906
2012-04-19,18.093027114868164
2012-04-20,17.80775260925293
2012-04-23,17.43604278564453
2012-04-24,18.69814109802246
2012-04-25,18.023866653442383
2012-04-26,18.42151641845703
2012-04-27,18.378299713134766
2012-04-30,18.525251388549805
2012-05-01,18.551185607910156
2012-05-02,18.162179946899414
2012-05-03,17.574350357055664
2012-05-04,17.038389205932617
2012-05-07,16.640743255615234
2012-05-08,16.364116668701172
2012-05-09,16.433271408081055
2012-05-10,15.620686531066895
2012-05-11,15.51695442199707
2012-05-14,15.188459396362305
2012-05-15,15.274904251098633
2012-05-16,14.937767028808594
2012-05-17,14.695720672607422
2012-05-18,15.153882026672363
2012-05-21,15.542887687683105
2012-05-22,15.551532745361328
2012-05-23,14.89454174041748
2012-05-24,14.695720672607422
2012-05-25,14.825387001037598
2012-05-29,15.050148963928223
2012-05-30,14.920475006103516
2012-05-31,14.868606567382812
2012-06-01,14.540119171142578
2012-06-04,14.445023536682129
2012-06-05,14.695720672607422
2012-06-06,15.11065673828125
2012-06-07,14.324003219604492
2012-06-08,14.600628852844238
2012-06-11,14.177048683166504
2012-06-12,14.358582496643066
2012-06-13,14.14246654510498
2012-06-14,14.004154205322266
2012-06-15,14.202981948852539
2012-06-18,14.133825302124023
2012-06-19,14.228912353515625
2012-06-20,14.462319374084473
2012-06-21,13.727529525756836
2012-06-22,13.8658447265625
2012-06-25,13.476839065551758
2012-06-26,13.355813980102539
2012-06-27,13.468194961547852
2012-06-28,13.424971580505371
2012-06-29,14.09924602508545
2012-07-02,13.7015962600708
2012-07-03,13.952288627624512
2012-07-05,13.943644523620605
2012-07-06,13.468194961547852
2012-07-09,13.139700889587402
2012-07-10,12.828497886657715
2012-07-11,12.690184593200684
2012-07-12,12.543228149414062
2012-07-13,12.534582138061523
2012-07-16,12.353047370910645
2012-07-17,12.335760116577148
2012-07-18,13.148346900939941
2012-07-19,13.692952156066895
2012-07-20,13.528705596923828
2012-07-23,13.15699291229248
2012-07-24,12.811210632324219
2012-07-25,14.263495445251465
2012-07-26,14.548760414123535
2012-07-27,15.378636360168457
2012-07-30,15.171170234680176
2012-07-31,15.153882026672363
2012-08-01,15.309484481811523
2012-08-02,15.197103500366211
2012-08-03,15.629335403442383
2012-08-06,16.10477638244629
2012-08-07,16.46784782409668
2012-08-08,16.225801467895508
2012-08-09,16.770410537719727
2012-08-10,16.63210105895996
2012-08-13,16.35546875
2012-08-14,15.620686531066895
2012-08-15,15.940532684326172
2012-08-16,16.07020378112793
2012-08-17,15.949178695678711
2012-08-20,15.845444679260254
2012-08-21,15.733067512512207
2012-08-22,15.784926414489746
2012-08-23,15.758996963500977
2012-08-24,15.335418701171875
2012-08-27,15.344060897827148
2012-08-28,15.85409164428711
2012-08-29,15.975113868713379
2012-08-30,15.344060897827148
2012-08-31,15.076080322265625
2012-09-04,15.292193412780762
2012-09-05,15.119301795959473
2012-09-06,15.758996963500977
2012-09-07,16.173933029174805
2012-09-10,15.741708755493164
2012-09-11,16.026981353759766
2012-09-12,16.70989990234375
2012-09-13,16.779050827026367
2012-09-14,16.70989990234375
2012-09-17,16.744476318359375
2012-09-18,16.372764587402344
2012-09-19,16.320894241333008
2012-09-20,16.061559677124023
2012-09-21,15.98375129699707
2012-09-24,15.793575286865234
2012-09-25,15.439152717590332
2012-09-26,15.024211883544922
2012-09-27,15.274904251098633
2012-09-28,14.790810585021973
2012-10-01,14.496893882751465
2012-10-02,14.462319374084473
2012-10-03,14.358582496643066
2012-10-04,14.436385154724121
2012-10-05,14.39316177368164
2012-10-08,14.358582496643066
2012-10-09,14.332647323608398
2012-10-10,14.133825302124023
2012-10-11,14.133825302124023
2012-10-12,14.133825302124023
2012-10-15,14.514188766479492
2012-10-16,15.11065673828125
2012-10-17,14.96369743347168
2012-10-18,15.733067512512207
2012-10-19,15.378636360168457
2012-10-22,15.309484481811523
2012-10-23,15.188459396362305
2012-10-24,13.822620391845703
2012-10-25,13.891777038574219
2012-10-26,14.332647323608398
2012-10-31,14.324003219604492
2012-11-01,14.92912483215332
2012-11-02,14.799452781677246
2012-11-05,15.076080322265625
2012-11-06,15.16252613067627
2012-11-07,15.361346244812012
2012-11-08,15.214397430419922
2012-11-09,15.257613182067871
2012-11-12,15.378636360168457
2012-11-13,14.99828052520752
2012-11-14,15.171170234680176
2012-11-15,14.609272956848145
2012-11-16,14.107892036437988
2012-11-19,14.14246654510498
2012-11-20,13.960931777954102
2012-11-21,14.012801170349121
2012-11-23,14.436385154724121
2012-11-26,14.531474113464355
2012-11-27,14.773518562316895
2012-11-28,15.378636360168457
2012-11-29,15.577465057373047
2012-11-30,15.542887687683105
2012-12-03,15.456439018249512
2012-12-04,15.577465057373047
2012-12-05,15.880022048950195
2012-12-06,16.511077880859375
2012-12-07,16.67531967163086
2012-12-10,16.66667366027832
2012-12-11,16.57158088684082
2012-12-12,16.398693084716797
2012-12-13,16.735830307006836
2012-12-14,16.93465805053711
2012-12-17,17.098899841308594
2012-12-18,17.51384162902832
2012-12-19,17.427396774291992
2012-12-20,17.591642379760742
2012-12-21,17.43604278564453
2012-12-24,17.297725677490234
2012-12-26,17.193992614746094
2012-12-27,17.10755157470703
2012-12-28,16.753122329711914
2012-12-31,17.00381088256836
2013-01-02,17.764528274536133
2013-01-03,17.43604278564453
2013-01-04,17.617570877075195
2013-01-07,17.418745040893555
2013-01-08,17.04703140258789
2013-01-09,17.24585723876953
2013-01-10,17.54842185974121
2013-01-11,17.859621047973633
2013-01-14,17.99793243408203
2013-01-15,18.162179946899414
2013-01-16,18.136247634887695
2013-01-17,18.395580291748047
2013-01-18,18.577119827270508
2013-01-22,18.585765838623047
2013-01-23,18.395580291748047
2013-01-24,18.585765838623047
2013-01-25,19.510730743408203
2013-01-28,19.19087791442871
2013-01-29,18.654918670654297
2013-01-30,18.654918670654297
2013-01-31,19.346481323242188
2013-02-01,19.29461097717285
2013-02-04,19.225460052490234
2013-02-05,19.355127334594727
2013-02-06,19.346481323242188
2013-02-07,19.337841033935547
2013-02-08,18.879676818847656
2013-02-11,18.76729393005371
2013-02-12,18.68084716796875
2013-02-13,18.732717514038086
2013-02-14,18.741361618041992
2013-02-15,18.8969669342041
2013-02-19,19.234102249145508
2013-02-20,18.76729393005371
2013-02-21,18.43880844116211
2013-02-22,18.542537689208984
2013-02-25,17.911487579345703
2013-02-26,17.686731338500977
2013-02-27,17.911487579345703
2013-02-28,17.876911163330078
2013-03-01,17.712665557861328
2013-03-04,17.40146255493164
2013-03-05,17.271791458129883
2013-03-06,17.39281463623047
2013-03-07,18.257266998291016
2013-03-08,17.88555335998535
2013-03-11,18.058443069458008
2013-03-12,17.954713821411133
2013-03-13,17.75588035583496
2013-03-14,17.72995376586914
2013-03-15,17.43604278564453
2013-03-18,17.470617294311523
2013-03-19,16.545652389526367
2013-03-20,16.69260597229004
2013-03-21,16.329538345336914
2013-03-22,16.18257713317871
2013-03-25,16.39004898071289
2013-03-26,16.122066497802734
2013-03-27,16.13935661315918
2013-03-28,16.026981353759766
2013-04-01,16.026981353759766
2013-04-02,15.793575286865234
2013-04-03,15.793575286865234
2013-04-04,15.663907051086426
2013-04-05,15.171170234680176
2013-04-08,15.413217544555664
2013-04-09,15.560171127319336
2013-04-10,16.28631591796875
2013-04-11,16.044265747070312
2013-04-12,16.18257713317871
2013-04-15,15.646615982055664
2013-04-16,15.681198120117188
2013-04-17,15.300840377807617
2013-04-18,14.972344398498535
2013-04-19,14.782164573669434
2013-04-22,14.799452781677246
2013-04-23,15.00692081451416
2013-04-24,13.563284873962402
2013-04-25,13.753464698791504
2013-04-26,13.649728775024414
2013-04-29,13.883130073547363
2013-04-30,14.306714057922363
2013-05-01,14.09924602508545
2013-05-02,14.090600967407227
2013-05-03,14.246199607849121
2013-05-06,14.63520622253418
2013-05-07,14.522829055786133
2013-05-08,14.946410179138184
2013-05-09,14.989635467529297
2013-05-10,15.00692081451416
2013-05-13,14.92912483215332
2013-05-14,14.782164573669434
2013-05-15,14.756227493286133
2013-05-16,15.369993209838867
2013-05-17,15.223038673400879
2013-05-20,15.197103500366211
2013-05-21,15.248968124389648
2013-05-22,15.05879020690918
2013-05-23,14.937767028808594
2013-05-24,14.99828052520752
2013-05-28,15.102017402648926
2013-05-29,15.551532745361328
2013-05-30,15.568817138671875
2013-05-31,15.326772689819336
2013-06-03,15.127943992614746
2013-06-04,15.032855033874512
2013-06-05,16.026981353759766
2013-06-06,15.966469764709473
2013-06-07,16.47649383544922
2013-06-10,16.450559616088867
2013-06-11,15.819509506225586
2013-06-12,15.897307395935059
2013-06-13,16.658031463623047
2013-06-14,16.46784782409668
2013-06-17,16.47649383544922
2013-06-18,16.537010192871094
2013-06-19,16.537010192871094
2013-06-20,16.58887481689453
2013-06-21,16.24309539794922
2013-06-24,15.98375129699707
2013-06-25,15.914600372314453
2013-06-26,15.957820892333984
2013-06-27,16.46784782409668
2013-06-28,16.69260597229004
2013-07-01,16.839563369750977
2013-07-02,16.537010192871094
2013-07-03,16.6839656829834
2013-07-05,16.951948165893555
2013-07-08,16.66667366027832
2013-07-09,17.00381088256836
2013-07-10,17.01245880126953
2013-07-11,17.427396774291992
2013-07-12,17.591642379760742
2013-07-15,17.67808723449707
2013-07-16,17.764528274536133
2013-07-17,17.92877769470215
2013-07-18,18.17947006225586
2013-07-19,18.1881160736084
2013-07-22,17.937423706054688
2013-07-23,18.447444915771484
2013-07-24,18.72407341003418
2013-07-25,19.07849884033203
2013-07-26,18.603057861328125
2013-07-29,18.585765838623047
2013-07-30,18.93154525756836
2013-07-31,18.732717514038086
2013-08-01,18.992061614990234
2013-08-02,18.84510040283203
2013-08-05,19.035282135009766
2013-08-06,19.00934410095215
2013-08-07,19.01799201965332
2013-08-08,19.156301498413086
2013-08-09,18.084375381469727
2013-08-12,17.799110412597656
2013-08-13,18.291847229003906
2013-08-14,18.239986419677734
2013-08-15,17.54842185974121
2013-08-16,17.669443130493164
2013-08-19,17.340953826904297
2013-08-20,17.55706024169922
2013-08-21,17.202632904052734
2013-08-22,17.211286544799805
2013-08-23,17.064321517944336
2013-08-26,16.8741397857666
2013-08-27,16.38140296936035
2013-08-28,16.433271408081055
2013-08-29,16.312252044677734
2013-08-30,16.338184356689453
2013-09-03,16.81363296508789
2013-09-04,17.911487579345703
2013-09-05,17.721309661865234
2013-09-06,18.006580352783203
2013-09-09,18.041156768798828
2013-09-10,18.283203125
2013-09-11,18.50796127319336
2013-09-12,18.291847229003906
2013-09-13,18.17082405090332
2013-09-16,18.205400466918945
2013-09-17,18.5166072845459
2013-09-18,18.72407341003418
2013-09-19,18.5166072845459
2013-09-20,18.144893646240234
2013-09-23,17.72995376586914
2013-09-24,17.461971282958984
2013-09-25,17.37552833557129
2013-09-26,17.418745040893555
2013-09-27,17.24585723876953
2013-09-30,17.168062210083008
2013-10-01,17.418745040893555
2013-10-02,17.444683074951172
2013-10-03,17.40146255493164
2013-10-04,18.023866653442383
2013-10-07,17.77317237854004
2013-10-08,17.617570877075195
2013-10-09,17.297725677490234
2013-10-10,17.297725677490234
2013-10-11,17.444683074951172
2013-10-14,17.81639862060547
2013-10-15,17.349594116210938
2013-10-16,18.17947006225586
2013-10-17,17.876911163330078
2013-10-18,17.99793243408203
2013-10-21,18.023866653442383
2013-10-22,17.60028648376465
2013-10-23,16.46784782409668
2013-10-24,16.07020378112793
2013-10-25,16.1652889251709
2013-10-28,16.29496192932129
2013-10-29,16.42462730407715
2013-10-30,16.14800262451172
2013-10-31,16.113422393798828
2013-11-01,15.975113868713379
2013-11-04,15.966469764709473
2013-11-05,16.044265747070312
2013-11-06,16.173933029174805
2013-11-07,16.14800262451172
2013-11-08,16.658031463623047
2013-11-11,16.485139846801758
2013-11-12,16.943300247192383
2013-11-13,16.67531967163086
2013-11-14,16.770410537719727
2013-11-15,17.15077018737793
2013-11-18,16.93465805053711
2013-11-19,16.770410537719727
2013-11-20,17.202632904052734
2013-11-21,17.40146255493164
2013-11-22,17.77317237854004
2013-11-25,17.712665557861328
2013-11-26,17.45333480834961
2013-11-27,17.582996368408203
2013-11-29,17.522483825683594
2013-12-02,17.55706024169922
2013-12-03,17.608930587768555
2013-12-04,18.015222549438477
2013-12-05,18.456092834472656
2013-12-06,18.732717514038086
2013-12-09,18.741361618041992
2013-12-10,18.663562774658203
2013-12-11,18.43016242980957
2013-12-12,17.842330932617188
2013-12-13,17.86825942993164
2013-12-16,18.1881160736084
2013-12-17,18.11895751953125
2013-12-18,18.404226303100586
2013-12-19,18.32642936706543
2013-12-20,18.81916618347168
2013-12-23,18.741361618041992
2013-12-24,18.853742599487305
2013-12-26,18.9401912689209
2013-12-27,19.208168029785156
2013-12-30,19.476152420043945
2013-12-31,19.510730743408203
2014-01-02,19.432926177978516
2014-01-03,19.683618545532227
2014-01-06,19.553956985473633
2014-01-07,19.58853530883789
2014-01-08,19.81328582763672
2014-01-09,19.73548698425293
2014-01-10,20.349254608154297
2014-01-13,21.887977600097656
2014-01-14,21.974422454833984
2014-01-15,22.372072219848633
2014-01-16,22.294269561767578
2014-01-17,22.475805282592773
2014-01-21,22.50174331665039
2014-01-22,22.63140869140625
2014-01-23,22.484451293945312
2014-01-24,23.962663650512695
2014-01-27,24.135555267333984
2014-01-28,23.781131744384766
2014-01-29,23.9713077545166
2014-01-30,24.092330932617188
2014-01-31,23.003122329711914
2014-02-03,22.778366088867188
2014-02-04,23.132789611816406
2014-02-05,23.150081634521484
2014-02-06,23.348907470703125
2014-02-07,23.55636978149414
2014-02-10,23.9713077545166
2014-02-11,23.910802841186523
2014-02-12,23.426708221435547
2014-02-13,23.746549606323242
2014-02-14,23.703330993652344
2014-02-18,23.7379093170166
2014-02-19,23.513154983520508
2014-02-20,23.694684982299805
2014-02-21,24.161489486694336
2014-02-24,23.841642379760742
2014-02-25,23.418060302734375
2014-02-26,23.245168685913086
2014-02-27,23.348907470703125
2014-02-28,23.115503311157227
2014-03-03,22.89938735961914
2014-03-04,22.700563430786133
2014-03-05,22.795654296875
2014-03-06,22.856164932250977
2014-03-07,22.700563430786133
2014-03-10,22.717853546142578
2014-03-11,21.94849395751953
2014-03-12,22.026296615600586
2014-03-13,21.70644187927246
2014-03-14,22.14731216430664
2014-03-17,21.92255401611328
2014-03-18,22.39800453186035
2014-03-19,22.864816665649414
2014-03-20,22.88210105895996
2014-03-21,22.441226959228516
2014-03-24,22.328847885131836
2014-03-25,22.648698806762695
2014-03-26,22.216468811035156
2014-03-27,21.89661979675293
2014-03-28,22.14731216430664
2014-03-31,22.268335342407227
2014-04-01,22.847517013549805
2014-04-02,22.778366088867188
2014-04-03,23.167367935180664
2014-04-04,22.38936424255371
2014-04-07,21.89661979675293
2014-04-08,21.827472686767578
2014-04-09,21.87933349609375
2014-04-10,21.481679916381836
2014-04-11,20.99759292602539
2014-04-14,21.34337043762207
2014-04-15,21.516265869140625
2014-04-16,21.654571533203125
2014-04-17,21.7583065032959
2014-04-21,21.974422454833984
2014-04-22,22.380712509155273
2014-04-23,21.490327835083008
2014-04-24,21.818817138671875
2014-04-25,21.16183853149414
2014-04-28,20.77283477783203
2014-04-29,20.988950729370117
2014-04-30,21.34337043762207
2014-05-01,21.533550262451172
2014-05-02,21.39523696899414
2014-05-05,21.438459396362305
2014-05-06,21.26556968688965
2014-05-07,21.326080322265625
2014-05-08,21.30014991760254
2014-05-09,21.26556968688965
2014-05-12,21.42117691040039
2014-05-13,21.49896812438965
2014-05-14,21.274215698242188
2014-05-15,21.36065673828125
2014-05-16,21.101322174072266
2014-05-19,21.28285789489746
2014-05-20,21.014881134033203
2014-05-21,21.256925582885742
2014-05-22,21.35201644897461
2014-05-23,21.42117691040039
2014-05-27,21.62864112854004
2014-05-28,21.810176849365234
2014-05-29,22.000356674194336
2014-05-30,21.14454460144043
2014-06-02,21.17912483215332
2014-06-03,21.196413040161133
2014-06-04,21.334732055664062
2014-06-05,21.438459396362305
2014-06-06,21.516265869140625
2014-06-09,21.386592864990234
2014-06-10,21.377948760986328
2014-06-11,21.317434310913086
2014-06-12,21.29150390625
2014-06-13,21.256925582885742
2014-06-16,21.550846099853516
2014-06-17,21.775598526000977
2014-06-18,21.827472686767578
2014-06-19,20.928434371948242
2014-06-20,20.971654891967773
2014-06-23,21.11861228942871
2014-06-24,20.859270095825195
2014-06-25,20.867921829223633
2014-06-26,20.95436668395996
2014-06-27,21.153188705444336
2014-06-30,21.21370506286621
2014-07-01,21.17912483215332
2014-07-02,21.42117691040039
2014-07-03,21.308795928955078
2014-07-07,21.36065673828125
2014-07-08,20.816055297851562
2014-07-09,21.075389862060547
2014-07-10,21.084035873413086
2014-07-11,20.980300903320312
2014-07-14,20.859270095825195
2014-07-15,20.893857955932617
2014-07-16,20.599939346313477
2014-07-17,20.617229461669922
2014-07-18,20.746898651123047
2014-07-21,21.13590431213379
2014-07-22,21.455745697021484
2014-07-23,19.38970184326172
2014-07-24,20.063976287841797
2014-07-25,20.098552703857422
2014-07-28,20.504854202270508
2014-07-29,20.496206283569336
2014-07-30,20.504854202270508
2014-07-31,20.349254608154297
2014-08-01,20.1158447265625
2014-08-04,20.05533218383789
2014-08-05,20.150421142578125
2014-08-06,20.184999465942383
2014-08-07,19.88243865966797
2014-08-08,20.08991241455078
2014-08-11,20.15906524658203
2014-08-12,20.176355361938477
2014-08-13,20.38382911682129
2014-08-14,19.88243865966797
2014-08-15,19.873796463012695
2014-08-18,20.098552703857422
2014-08-19,20.47892189025879
2014-08-20,20.565364837646484
2014-08-21,20.738252639770508
2014-08-22,20.79012107849121
2014-08-25,20.530786514282227
2014-08-26,20.323314666748047
2014-08-27,20.081270217895508
2014-08-28,20.124677658081055
2014-08-29,20.133359909057617
2014-09-02,20.133359909057617
2014-09-03,20.072586059570312
2014-09-04,20.115997314453125
2014-09-05,20.254905700683594
2014-09-08,20.41118049621582
2014-09-09,20.27227020263672
2014-09-10,20.610864639282227
2014-09-11,20.576139450073242
2014-09-12,20.107311248779297
2014-09-15,19.994447708129883
2014-09-16,19.794761657714844
2014-09-17,19.812129974365234
2014-09-18,19.78608512878418
2014-09-19,19.647172927856445
2014-09-22,19.62112808227539
2014-09-23,19.560354232788086
2014-09-24,19.577716827392578
2014-09-25,19.239124298095703
2014-09-26,19.29121208190918
2014-09-29,19.256484985351562
2014-09-30,19.230440139770508
2014-10-01,18.8223934173584
2014-10-02,19.05680274963379
2014-10-03,19.152299880981445
2014-10-06,18.80502700805664
2014-10-07,18.483800888061523
2014-10-08,18.40566062927246
2014-10-09,18.179929733276367
2014-10-10,16.53036880493164
2014-10-13,16.122312545776367
2014-10-14,16.29595375061035
2014-10-15,16.608503341674805
2014-10-16,16.660594940185547
2014-10-17,16.912368774414062
2014-10-20,17.1901912689209
2014-10-21,17.520103454589844
2014-10-22,17.08600425720215
2014-10-23,17.641647338867188
2014-10-24,16.495637893676758
2014-10-27,17.120737075805664
2014-10-28,17.980241775512695
2014-10-29,18.197290420532227
2014-10-30,18.205978393554688
2014-10-31,18.292795181274414
2014-11-03,18.292795181274414
2014-11-04,18.396970748901367
2014-11-05,18.605342864990234
2014-11-06,18.761611938476562
2014-11-07,19.022077560424805
2014-11-10,18.666114807128906
2014-11-11,17.606924057006836
2014-11-12,18.119157791137695
2014-11-13,17.7545166015625
2014-11-14,18.223337173461914
2014-11-17,18.51852035522461
2014-11-18,18.735572814941406
2014-11-19,18.631389617919922
2014-11-20,18.570615768432617
2014-11-21,18.969982147216797
2014-11-24,19.143619537353516
2014-11-25,19.325942993164062
2014-11-26,19.273849487304688
2014-11-28,19.3261775970459
2014-12-01,18.977325439453125
2014-12-02,18.77674674987793
2014-12-03,19.456998825073242
2014-12-04,19.395946502685547
2014-12-05,19.4831600189209
2014-12-08,18.92500114440918
2014-12-09,19.055818557739258
2014-12-10,18.689529418945312
2014-12-11,18.6372013092041
2014-12-12,18.4017391204834
2014-12-15,18.541269302368164
2014-12-16,18.6372013092041
2014-12-17,18.68080711364746
2014-12-18,19.099428176879883
2014-12-19,19.605253219604492
2014-12-22,19.762235641479492
2014-12-23,19.893054962158203
2014-12-24,19.910499572753906
2014-12-26,19.823286056518555
2014-12-29,19.701189041137695
2014-12-30,19.770959854125977
2014-12-31,19.465715408325195
2015-01-02,19.57909393310547
2015-01-05,19.361061096191406
2015-01-06,19.0907039642334
2015-01-07,19.518041610717773
2015-01-08,20.08492088317871
2015-01-09,20.10236358642578
2015-01-12,19.57909393310547
2015-01-13,19.535486221313477
2015-01-14,19.404664993286133
2015-01-15,18.654644012451172
2015-01-16,18.863950729370117
2015-01-20,18.94244384765625
2015-01-21,19.047100067138672
2015-01-22,19.230243682861328
2015-01-23,19.195363998413086
2015-01-26,19.317455291748047
2015-01-27,19.038379669189453
2015-01-28,19.753515243530273
2015-01-29,19.805843353271484
2015-01-30,19.823286056518555
2015-02-02,19.67502212524414
2015-02-03,20.250621795654297
2015-02-04,19.832008361816406
2015-02-05,20.268064498901367
2015-02-06,20.43377113342285
2015-02-09,20.189577102661133
2015-02-10,20.16341209411621
2015-02-11,20.31167221069336
2015-02-12,20.62563705444336
2015-02-13,20.791339874267578
2015-02-17,20.869831085205078
2015-02-18,20.712848663330078
2015-02-19,20.930877685546875
2015-02-20,21.105300903320312
2015-02-23,21.04425048828125
2015-02-24,21.32333755493164
2015-02-25,21.3669376373291
2015-02-26,21.026811599731445
2015-02-27,20.93923568725586
2015-03-02,21.026811599731445
2015-03-03,20.912961959838867
2015-03-04,20.326208114624023
2015-03-05,20.273664474487305
2015-03-06,20.6414794921875
2015-03-09,20.94799041748047
2015-03-10,20.475086212158203
2015-03-11,20.51887321472168
2015-03-12,20.6414794921875
2015-03-13,20.51887321472168
2015-03-16,20.720298767089844
2015-03-17,20.580175399780273
2015-03-18,20.81662940979004
2015-03-19,20.7115421295166
2015-03-20,20.73781394958496
2015-03-23,20.88669204711914
2015-03-24,20.492603302001953
2015-03-25,19.888330459594727
2015-03-26,19.538028717041016
2015-03-27,19.52051544189453
2015-03-30,19.730701446533203
2015-03-31,19.774484634399414
2015-04-01,19.704425811767578
2015-04-02,19.774484634399414
2015-04-06,19.87957763671875
2015-04-07,20.510116577148438
2015-04-08,20.4400577545166
2015-04-09,20.729053497314453
2015-04-10,20.81662940979004
2015-04-13,20.667747497558594
2015-04-14,21.00929832458496
2015-04-15,21.35083770751953
2015-04-16,21.272018432617188
2015-04-17,20.78160285949707
2015-04-20,21.140663146972656
2015-04-21,21.166933059692383
2015-04-22,21.35959815979004
2015-04-23,21.018051147460938
2015-04-24,22.892166137695312
2015-04-27,23.15488052368164
2015-04-28,23.496437072753906
2015-04-29,23.321279525756836
2015-04-30,23.146127700805664
2015-05-01,23.56649398803711
2015-05-04,23.706613540649414
2015-05-05,23.365068435668945
2015-05-06,23.35630989074707
2015-05-07,23.408857345581055
2015-05-08,23.62779998779297
2015-05-11,23.7241268157959
2015-05-12,23.689098358154297
2015-05-13,23.785432815551758
2015-05-14,24.030641555786133
2015-05-15,23.92555046081543
2015-05-18,24.18828010559082
2015-05-19,24.109455108642578
2015-05-20,24.170761108398438
2015-05-21,24.162006378173828
2015-05-22,24.170761108398438
2015-05-26,23.62779998779297
2015-05-27,24.354665756225586
2015-05-28,24.214548110961914
2015-05-29,24.43427848815918
2015-06-01,23.783870697021484
2015-06-02,23.950868606567383
2015-06-03,24.065128326416016
2015-06-04,23.86297607421875
2015-06-05,24.065128326416016
2015-06-08,23.88934326171875
2015-06-09,24.08270835876465
2015-06-10,24.328811645507812
2015-06-11,24.539756774902344
2015-06-12,24.07391929626465
2015-06-15,23.88934326171875
2015-06-16,24.117862701416016
2015-06-17,24.100284576416016
2015-06-18,24.513381958007812
2015-06-19,23.95965576171875
2015-06-22,23.74871253967285
2015-06-23,23.898136138916016
2015-06-24,23.625661849975586
2015-06-25,23.695980072021484
2015-06-26,23.37077522277832
2015-06-29,22.948888778686523
2015-06-30,22.825836181640625
2015-07-01,23.11588478088379
2015-07-02,22.948888778686523
2015-07-06,22.632471084594727
2015-07-07,22.755521774291992
2015-07-08,22.509424209594727
2015-07-09,22.597312927246094
2015-07-10,22.984046936035156
2015-07-13,22.975257873535156
2015-07-14,22.904939651489258
2015-07-15,22.984046936035156
2015-07-16,23.159828186035156
2015-07-17,23.194988250732422
2015-07-20,23.168621063232422
2015-07-21,23.151042938232422
2015-07-22,23.019197463989258
2015-07-23,23.282888412475586
2015-07-24,24.20576286315918
2015-07-27,24.10907554626465
2015-07-28,24.232128143310547
2015-07-29,24.153018951416016
2015-07-30,24.574909210205078
2015-07-31,24.979223251342773
2015-08-03,24.759483337402344
2015-08-04,24.592491149902344
2015-08-05,24.82979965209961
2015-08-06,24.618854522705078
2015-08-07,24.662805557250977
2015-08-10,24.95284652709961
2015-08-11,24.504592895507812
2015-08-12,24.741907119750977
2015-08-13,24.759483337402344
2015-08-14,24.777063369750977
2015-08-17,24.89131736755371
2015-08-18,24.71553611755371
2015-08-19,24.65401268005371
2015-08-20,24.04755210876465
2015-08-21,23.344406127929688
2015-08-24,22.465473175048828
2015-08-25,21.867801666259766
2015-08-26,22.474260330200195
2015-08-27,22.85220718383789
2015-08-28,22.922792434692383
2015-08-31,22.68456268310547
2015-09-01,22.005178451538086
2015-09-02,22.331636428833008
2015-09-03,22.296342849731445
2015-09-04,22.111055374145508
2015-09-08,22.54339599609375
2015-09-09,22.27869415283203
2015-09-10,22.605154037475586
2015-09-11,22.287517547607422
2015-09-14,22.349285125732422
2015-09-15,22.763975143432617
2015-09-16,22.90514373779297
2015-09-17,22.772798538208008
2015-09-18,22.534568786621094
2015-09-21,22.728679656982422
2015-09-22,22.27869415283203
2015-09-23,22.375749588012695
2015-09-24,22.331636428833008
2015-09-25,22.30516242980957
2015-09-28,21.97870445251465
2015-09-29,22.093408584594727
2015-09-30,22.68456268310547
2015-10-01,22.97573471069336
2015-10-02,23.972759246826172
2015-10-05,25.14624786376953
2015-10-06,25.075666427612305
2015-10-07,25.957984924316406
2015-10-08,26.293275833129883
2015-10-09,25.94034194946289
2015-10-12,26.23151206970215
2015-10-13,26.28445053100586
2015-10-14,26.07268524169922
2015-10-15,26.469738006591797
2015-10-16,26.319738388061523
2015-10-19,26.416797637939453
2015-10-20,26.681493759155273
2015-10-21,26.293275833129883
2015-10-22,26.257980346679688
2015-10-23,27.784399032592773
2015-10-26,27.24618148803711
2015-10-27,27.828519821166992
2015-10-28,27.96086311340332
2015-10-29,27.51970863342285
2015-10-30,27.696168899536133
2015-11-02,28.00498390197754
2015-11-03,28.437314987182617
2015-11-04,27.899105072021484
2015-11-05,27.70499610900879
2015-11-06,27.97850799560547
2015-11-09,25.79916763305664
2015-11-10,26.125629425048828
2015-11-11,26.081512451171875
2015-11-12,26.16092300415039
2015-11-13,25.3315372467041
2015-11-16,25.7726993560791
2015-11-17,26.046222686767578
2015-11-18,26.43444061279297
2015-11-19,26.64620590209961
2015-11-20,26.87560272216797
2015-11-23,27.034423828125
2015-11-24,26.849140167236328
2015-11-25,26.83148765563965
2015-11-27,26.796083450317383
2015-11-30,26.672147750854492
2015-12-01,26.93772315979004
2015-12-02,26.81378746032715
2015-12-03,25.946252822875977
2015-12-04,26.380022048950195
2015-12-07,26.40657615661621
2015-12-08,26.35346221923828
2015-12-09,25.69839096069336
2015-12-10,25.54789924621582
2015-12-11,25.33544158935547
2015-12-14,25.468225479125977
2015-12-15,25.831172943115234
2015-12-16,26.025924682617188
2015-12-17,25.769207000732422
2015-12-18,25.3885555267334
2015-12-21,24.12266731262207
2015-12-22,24.35283088684082
2015-12-23,24.476762771606445
2015-12-24,24.450206756591797
2015-12-28,24.52987289428711
2015-12-29,24.82200813293457
2015-12-30,24.52987289428711
2015-12-31,24.432506561279297
2016-01-04,24.26430892944336
2016-01-05,24.38823699951172
2016-01-06,23.706607818603516
2016-01-07,23.09579849243164
2016-01-08,22.768260955810547
2016-01-11,23.024974822998047
2016-01-12,23.2374324798584
2016-01-13,22.71514129638672
2016-01-14,23.157764434814453
2016-01-15,22.785966873168945
2016-01-19,22.785966873168945
2016-01-20,22.653181076049805
2016-01-21,22.697439193725586
2016-01-22,23.12235450744629
2016-01-25,23.1843204498291
2016-01-26,23.591524124145508
2016-01-27,23.49415397644043
2016-01-28,19.882389068603516
2016-01-29,20.891559600830078
2016-02-01,21.53778076171875
2016-02-02,21.24565315246582
2016-02-03,21.174833297729492
2016-02-04,21.006641387939453
2016-02-05,20.271894454956055
2016-02-08,19.44862174987793
2016-02-09,19.466327667236328
2016-02-10,19.138790130615234
2016-02-11,19.209613800048828
2016-02-12,19.333545684814453
2016-02-16,20.546314239501953
2016-02-17,20.865001678466797
2016-02-18,21.24565315246582
2016-02-19,21.750240325927734
2016-02-22,21.936138153076172
2016-02-23,21.741382598876953
2016-02-24,21.9892520904541
2016-02-25,22.095476150512695
2016-02-26,21.864391326904297
2016-02-29,21.953271865844727
2016-03-01,22.157697677612305
2016-03-02,22.166580200195312
2016-03-03,22.131032943725586
2016-03-04,22.44211196899414
2016-03-07,22.388782501220703
2016-03-08,22.246578216552734
2016-03-09,22.424333572387695
2016-03-10,22.495439529418945
2016-03-11,23.29535484313965
2016-03-14,23.019824981689453
2016-03-15,22.850955963134766
2016-03-16,22.842069625854492
2016-03-17,23.40201187133789
2016-03-18,23.455331802368164
2016-03-21,22.930950164794922
2016-03-22,23.046489715576172
2016-03-23,22.788738250732422
2016-03-24,22.539873123168945
2016-03-28,22.619869232177734
2016-03-29,22.806514739990234
2016-03-30,22.673198699951172
2016-03-31,22.673198699951172
2016-04-01,22.71763038635254
2016-04-04,22.388782501220703
2016-04-05,22.424333572387695
2016-04-06,22.65542221069336
2016-04-07,22.166580200195312
2016-04-08,22.157697677612305
2016-04-11,22.122140884399414
2016-04-12,20.495643615722656
2016-04-13,21.171131134033203
2016-04-14,20.94892692565918
2016-04-15,21.011140823364258
2016-04-18,20.975595474243164
2016-04-19,20.86005401611328
2016-04-20,20.67340087890625
2016-04-21,20.780059814453125
2016-04-22,21.10891342163086
2016-04-25,20.922269821166992
2016-04-26,20.931156158447266
2016-04-27,21.162242889404297
2016-04-28,20.806724548339844
2016-04-29,20.797834396362305
2016-05-02,20.753398895263672
2016-05-03,20.18456268310547
2016-05-04,20.01569938659668
2016-05-05,19.855709075927734
2016-05-06,20.149009704589844
2016-05-09,20.18456268310547
2016-05-10,20.57563591003418
2016-05-11,20.30900001525879
2016-05-12,20.22011947631836
2016-05-13,20.22011947631836
2016-05-16,20.45120620727539
2016-05-17,20.086795806884766
2016-05-18,19.989028930664062
2016-05-19,19.88237762451172
2016-05-20,20.202342987060547
2016-05-23,19.989028930664062
2016-05-24,20.353437423706055
2016-05-25,20.495643615722656
2016-05-26,20.43343162536621
2016-05-27,20.55840301513672
2016-05-31,20.89762306213379
2016-06-01,20.736942291259766
2016-06-02,20.942258834838867
2016-06-03,20.835134506225586
2016-06-06,20.81728172302246
2016-06-07,20.95118522644043
2016-06-08,21.040447235107422
2016-06-09,20.93332862854004
2016-06-10,20.486989974975586
2016-06-13,20.549476623535156
2016-06-14,20.478063583374023
2016-06-15,20.478063583374023
2016-06-16,20.504844665527344
2016-06-17,20.701234817504883
2016-06-20,20.72801399230957
2016-06-21,20.72801399230957
2016-06-22,20.540552139282227
2016-06-23,21.460012435913086
2016-06-24,20.040651321411133
2016-06-27,18.96050453186035
2016-06-28,19.201534271240234
2016-06-29,19.701431274414062
2016-06-30,20.07635498046875
2016-07-01,19.95138168334961
2016-07-05,19.701431274414062
2016-07-06,19.567533493041992
2016-07-07,19.594314575195312
2016-07-08,20.22811508178711
2016-07-11,20.406652450561523
2016-07-12,20.620891571044922
2016-07-13,20.576255798339844
2016-07-14,20.61196517944336
2016-07-15,20.603038787841797
2016-07-18,20.665525436401367
2016-07-19,20.888694763183594
2016-07-20,20.986892700195312
2016-07-21,20.888694763183594
2016-07-22,21.218990325927734
2016-07-25,21.477863311767578
2016-07-26,21.620689392089844
2016-07-27,20.14777183532715
2016-07-28,20.192407608032227
2016-07-29,20.25489044189453
2016-08-01,20.174549102783203
2016-08-02,19.844257354736328
2016-08-03,20.174549102783203
2016-08-04,20.129919052124023
2016-08-05,20.576255798339844
2016-08-08,20.701234817504883
2016-08-09,20.603038787841797
2016-08-10,20.540552139282227
2016-08-11,20.799427032470703
2016-08-12,20.77265167236328
2016-08-15,21.397520065307617
2016-08-16,20.852989196777344
2016-08-17,20.629817962646484
2016-08-18,20.629817962646484
2016-08-19,20.861915588378906
2016-08-22,20.77265167236328
2016-08-23,20.93332862854004
2016-08-24,20.861915588378906
2016-08-25,20.888694763183594
2016-08-26,20.781574249267578
2016-08-29,20.692304611206055
2016-08-30,20.82678985595703
2016-08-31,20.692306518554688
2016-09-01,20.89851188659668
2016-09-02,20.988170623779297
2016-09-06,21.015064239501953
2016-09-07,20.988170623779297
2016-09-08,21.050926208496094
2016-09-09,20.764026641845703
2016-09-12,20.970239639282227
2016-09-13,20.27092933654785
2016-09-14,20.315757751464844
2016-09-15,20.629549026489258
2016-09-16,20.14541244506836
2016-09-19,20.396446228027344
2016-09-20,20.127483367919922
2016-09-21,21.185405731201172
2016-09-22,21.391616821289062
2016-09-23,21.328855514526367
2016-09-26,21.212303161621094
2016-09-27,21.552989959716797
2016-09-28,21.454370498657227
2016-09-29,21.257131576538086
2016-09-30,21.570920944213867
2016-10-03,21.57988929748535
2016-10-04,21.74126434326172
2016-10-05,22.270231246948242
2016-10-06,21.983335494995117
2016-10-07,22.243335723876953
2016-10-10,22.02816390991211
2016-10-11,21.46333885192871
2016-10-12,21.050926208496094
2016-10-13,20.808856964111328
2016-10-14,20.396446228027344
2016-10-17,20.109554290771484
2016-10-18,20.486103057861328
2016-10-19,20.575756072998047
2016-10-20,20.396446228027344
2016-10-21,20.737133026123047
2016-10-24,21.212303161621094
2016-10-25,21.26609230041504
2016-10-26,23.444705963134766
2016-10-27,23.480566024780273
2016-10-28,23.48953628540039
2016-10-31,23.61505126953125
2016-11-01,23.17574119567871
2016-11-02,22.548158645629883
2016-11-03,22.33298683166504
2016-11-04,22.324024200439453
2016-11-07,22.852985382080078
2016-11-08,22.852985382080078
2016-11-09,22.664710998535156
2016-11-10,22.584022521972656
2016-11-11,22.781265258789062
2016-11-14,23.27435874938965
2016-11-15,23.39988136291504
2016-11-16,23.5253963470459
2016-11-17,23.5253963470459
2016-11-18,23.6240177154541
2016-11-21,23.63298225402832
2016-11-22,23.61505126953125
2016-11-23,23.659870147705078
2016-11-25,23.7674617767334
2016-11-28,23.74056625366211
2016-11-29,24.100543975830078
2016-11-30,24.78450584411621
2016-12-01,24.280534744262695
2016-12-02,24.145538330078125
2016-12-05,24.235536575317383
2016-12-06,24.235536575317383
2016-12-07,24.97348976135254
2016-12-08,25.79244041442871
2016-12-09,25.612451553344727
2016-12-12,25.20747947692871
2016-12-13,25.747447967529297
2016-12-14,25.5224609375
2016-12-15,25.711448669433594
2016-12-16,25.495458602905273
2016-12-19,25.6844482421875
2016-12-20,25.648448944091797
2016-12-21,25.612451553344727
2016-12-22,25.432462692260742
2016-12-23,25.612451553344727
2016-12-27,25.810440063476562
2016-12-28,25.58545684814453
2016-12-29,25.53145980834961
2016-12-30,25.432462692260742
2017-01-03,25.738445281982422
2017-01-04,26.0084285736084
2017-01-05,25.95443344116211
2017-01-06,25.972431182861328
2017-01-09,25.54945182800293
2017-01-10,25.558454513549805
2017-01-11,25.06348419189453
2017-01-12,25.018489837646484
2017-01-13,25.08148765563965
2017-01-17,24.667510986328125
2017-01-18,24.604515075683594
2017-01-19,24.676509857177734
2017-01-20,24.685510635375977
2017-01-23,24.748502731323242
2017-01-24,25.054487228393555
2017-01-25,25.32447052001953
2017-01-26,24.946491241455078
2017-01-27,24.001550674438477
2017-01-30,23.803560256958008
2017-01-31,24.100543975830078
2017-02-01,24.127540588378906
2017-02-02,24.514522552490234
2017-02-03,24.613513946533203
2017-02-06,24.550514221191406
2017-02-07,24.4785213470459
2017-02-08,24.514522552490234
2017-02-09,24.658510208129883
2017-02-10,24.87449836730957
2017-02-13,25.135482788085938
2017-02-14,25.090490341186523
2017-02-15,25.16248321533203
2017-02-16,25.27947425842285
2017-02-17,25.54945182800293
2017-02-21,25.819440841674805
2017-02-22,25.675451278686523
2017-02-23,25.58545684814453
2017-02-24,25.57645606994629
2017-02-27,25.58548355102539
2017-02-28,25.28745460510254
2017-03-01,25.513235092163086
2017-03-02,25.52226448059082
2017-03-03,25.549362182617188
2017-03-06,25.431957244873047
2017-03-07,25.422922134399414
2017-03-08,25.016517639160156
2017-03-09,25.115861892700195
2017-03-10,25.29648780822754
2017-03-13,25.260360717773438
2017-03-14,25.413890838623047
2017-03-15,25.558391571044922
2017-03-16,25.757080078125
2017-03-17,25.901578903198242
2017-03-20,25.45001792907715
2017-03-21,25.115861892700195
2017-03-22,25.29648780822754
2017-03-23,25.14295768737793
2017-03-24,25.124895095825195
2017-03-27,25.06167221069336
2017-03-28,25.09779930114746
2017-03-29,24.971359252929688
2017-03-30,25.016517639160156
2017-03-31,25.133920669555664
2017-04-03,25.03458023071289
2017-04-04,25.251333236694336
2017-04-05,25.124895095825195
2017-04-06,25.115861892700195
2017-04-07,25.17005157470703
2017-04-10,25.17908477783203
2017-04-11,25.09779930114746
2017-04-12,24.953296661376953
2017-04-13,24.89007568359375
2017-04-17,25.025548934936523
2017-04-18,25.016517639160156
2017-04-19,25.043611526489258
2017-04-20,25.10683250427246
2017-04-21,25.08877182006836
2017-04-24,25.53129768371582
2017-04-25,25.08877182006836
2017-04-26,26.606016159057617
2017-04-27,27.08466911315918
2017-04-28,27.156919479370117
2017-05-01,27.63558006286621
2017-05-02,27.897480010986328
2017-05-03,27.364639282226562
2017-05-04,27.545263290405273
2017-05-05,27.59041976928711
2017-05-08,27.536235809326172
2017-05-09,27.707826614379883
2017-05-10,27.861358642578125
2017-05-11,27.59945297241211
2017-05-12,27.62654685974121
2017-05-15,27.64460563659668
2017-05-16,27.62654685974121
2017-05-17,26.876955032348633
2017-05-18,26.72342300415039
2017-05-19,26.669235229492188
2017-05-22,26.759550094604492
2017-05-23,26.596986770629883
2017-05-24,26.497638702392578
2017-05-25,26.587955474853516
2017-05-26,26.479578018188477
2017-05-30,26.552074432373047
2017-05-31,26.57926368713379
2017-06-01,27.25891876220703
2017-06-02,27.213611602783203
2017-06-05,27.3314151763916
2017-06-06,27.240798950195312
2017-06-07,26.452390670776367
2017-06-08,26.724254608154297
2017-06-09,25.926788330078125
2017-06-12,26.153343200683594
2017-06-13,26.461450576782227
2017-06-14,26.01740837097168
2017-06-15,26.153343200683594
2017-06-16,25.98116111755371
2017-06-19,26.452390670776367
2017-06-20,26.071781158447266
2017-06-21,26.153343200683594
2017-06-22,25.70023536682129
2017-06-23,25.636796951293945
2017-06-26,25.47368049621582
2017-06-27,25.319625854492188
2017-06-28,25.528053283691406
2017-06-29,25.21087646484375
2017-06-30,25.2652530670166
2017-07-03,25.13838005065918
2017-07-05,25.5371150970459
2017-07-06,25.183692932128906
2017-07-07,25.78179359436035
2017-07-10,26.461450576782227
2017-07-11,26.379898071289062
2017-07-12,26.43426513671875
2017-07-13,26.36176872253418
2017-07-14,26.289278030395508
2017-07-17,26.39801597595215
2017-07-18,26.153343200683594
2017-07-19,26.61551284790039
2017-07-20,26.479578018188477
2017-07-21,26.669885635375977
2017-07-24,26.69706916809082
2017-07-25,27.150177001953125
2017-07-26,25.42837142944336
2017-07-27,25.201818466186523
2017-07-28,25.165569305419922
2017-07-31,25.32868766784668
2017-08-01,25.618671417236328
2017-08-02,25.573362350463867
2017-08-03,25.682109832763672
2017-08-04,25.500865936279297
2017-08-07,25.636796951293945
2017-08-08,25.600549697875977
2017-08-09,25.673046112060547
2017-08-10,24.866518020629883
2017-08-11,24.839332580566406
2017-08-14,25.301498413085938
2017-08-15,24.948076248168945
2017-08-16,25.147443771362305
2017-08-17,24.612777709960938
2017-08-18,24.612777709960938
2017-08-21,24.59465217590332
2017-08-22,24.984325408935547
2017-08-23,24.766834259033203
2017-08-24,24.866518020629883
2017-08-25,24.957141876220703
2017-08-28,24.948076248168945
2017-08-29,24.857458114624023
2017-08-30,25.1394100189209
2017-08-31,25.221267700195312
2017-09-01,25.17578887939453
2017-09-05,24.711933135986328
2017-09-06,25.012075424194336
2017-09-07,24.575502395629883
2017-09-08,24.211688995361328
2017-09-11,24.539119720458984
2017-09-12,25.039358139038086
2017-09-13,25.10302734375
2017-09-14,25.066648483276367
2017-09-15,25.284934997558594
2017-09-18,25.20307731628418
2017-09-19,25.121219635009766
2017-09-20,25.184886932373047
2017-09-21,25.20307731628418
2017-09-22,25.457748413085938
2017-09-25,25.33950424194336
2017-09-26,25.32131576538086
2017-09-27,25.5668888092041
2017-09-28,25.20307731628418
2017-09-29,25.31222152709961
2017-10-02,25.81245994567871
2017-10-03,25.957984924316406
2017-10-04,26.094417572021484
2017-10-05,25.876129150390625
2017-10-06,25.857940673828125
2017-10-09,24.848358154296875
2017-10-10,24.839265823364258
2017-10-11,24.429975509643555
2017-10-12,23.165727615356445
2017-10-13,23.48406410217285
2017-10-16,23.684165954589844
2017-10-17,23.74782943725586
2017-10-18,23.720542907714844
2017-10-19,23.48406410217285
2017-10-20,23.67506980895996
2017-10-23,23.429492950439453
2017-10-24,23.793304443359375
2017-10-25,22.338056564331055
2017-10-26,22.610916137695312
2017-10-27,22.92015838623047
2017-10-30,22.66548728942871
2017-10-31,22.583627700805664
2017-11-01,22.610916137695312
2017-11-02,22.19253158569336
2017-11-03,22.328960418701172
2017-11-06,22.50177001953125
2017-11-07,22.28348731994629
2017-11-08,22.5472469329834
2017-11-09,23.05658531188965
2017-11-10,22.738250732421875
2017-11-13,23.06568145751953
2017-11-14,24.038875579833984
2017-11-15,23.60230255126953
2017-11-16,23.820594787597656
2017-11-17,23.920639038085938
2017-11-20,24.530027389526367
2017-11-21,24.539119720458984
2017-11-22,24.566408157348633
2017-11-24,24.866548538208008
2017-11-27,24.90293312072754
2017-11-28,25.639646530151367
2017-11-29,26.931184768676758
2017-11-30,25.33411407470703
2017-12-01,25.899932861328125
2017-12-04,25.51663589477539
2017-12-05,25.197221755981445
2017-12-06,25.51663589477539
2017-12-07,25.936439514160156
2017-12-08,25.899932861328125
2017-12-11,25.909061431884766
2017-12-12,26.392744064331055
2017-12-13,26.56614112854004
2017-12-14,26.28322982788086
2017-12-15,25.918184280395508
2017-12-18,26.1007080078125
2017-12-19,25.954692840576172
2017-12-20,26.00944709777832
2017-12-21,26.17371940612793
2017-12-22,26.337989807128906
2017-12-26,26.337989807128906
2017-12-27,26.356239318847656
2017-12-28,26.34711456298828
2017-12-29,26.00944709777832
2018-01-02,26.191970825195312
2018-01-03,26.292354583740234
2018-01-04,26.274106979370117
2018-01-05,26.01857566833496
2018-01-08,26.264976501464844
2018-01-09,26.12808609008789
2018-01-10,25.918184280395508
2018-01-11,26.246726989746094
2018-01-12,26.365365982055664
2018-01-16,26.109834671020508
2018-01-17,26.16459083557129
2018-01-18,25.24285316467285
2018-01-19,25.416250228881836
2018-01-22,25.881681442260742
2018-01-23,25.671777725219727
2018-01-24,25.525760650634766
2018-01-25,25.251981735229492
2018-01-26,25.726533889770508
2018-01-29,25.991195678710938
2018-01-30,25.845172882080078
2018-01-31,23.86480712890625
2018-02-01,24.2298526763916
2018-02-02,23.965198516845703
2018-02-05,22.997827529907227
2018-02-06,23.30811309814453
2018-02-07,23.171220779418945
2018-02-08,22.505016326904297
2018-02-09,23.216854095458984
2018-02-12,23.545394897460938
2018-02-13,23.90131187438965
2018-02-14,23.883060455322266
2018-02-15,24.55838966369629
2018-02-16,24.04732894897461
2018-02-20,23.93781852722168
2018-02-21,23.627525329589844
2018-02-22,23.755294799804688
2018-02-23,23.837432861328125
2018-02-26,23.90131187438965
2018-02-27,23.819177627563477
2018-02-28,23.58024787902832
2018-03-01,23.12996482849121
2018-03-02,23.525114059448242
2018-03-05,23.74565887451172
2018-03-06,23.837553024291992
2018-03-07,23.773229598999023
2018-03-08,23.929452896118164
2018-03-09,24.287837982177734
2018-03-12,24.205137252807617
2018-03-13,24.269458770751953
2018-03-14,24.07648468017578
2018-03-15,24.10405158996582
2018-03-16,24.159189224243164
2018-03-19,23.212669372558594
2018-03-20,23.35970115661621
2018-03-21,23.249427795410156
2018-03-22,22.780765533447266
2018-03-23,22.165069580078125
2018-03-26,22.60616683959961
2018-03-27,22.28453254699707
2018-03-28,22.100740432739258
2018-03-29,22.358047485351562
2018-04-02,22.119117736816406
2018-04-03,22.146690368652344
2018-04-04,22.192636489868164
2018-04-05,22.376428604125977
2018-04-06,22.137495040893555
2018-04-09,22.146690368652344
2018-04-10,22.66130256652832
2018-04-11,22.688867568969727
2018-04-12,22.835901260375977
2018-04-13,22.835901260375977
2018-04-16,22.96455192565918
2018-04-17,23.350513458251953
2018-04-18,22.403993606567383
2018-04-19,22.459129333496094
2018-04-20,22.376428604125977
2018-04-23,22.358047485351562
2018-04-24,22.321292877197266
2018-04-25,22.321292877197266
2018-04-26,22.49588966369629
2018-04-27,22.624540328979492
2018-04-30,22.59697723388672
2018-05-01,22.734813690185547
2018-05-02,22.900224685668945
2018-05-03,23.120777130126953
2018-05-04,23.58024787902832
2018-05-07,23.828367233276367
2018-05-08,23.828367233276367
2018-05-09,24.04891586303711
2018-05-10,24.205137252807617
2018-05-11,24.37055015563965
2018-05-14,24.581907272338867
2018-05-15,24.65542221069336
2018-05-16,24.6829891204834
2018-05-17,24.554338455200195
2018-05-18,24.49920082092285
2018-05-21,24.784074783325195
2018-05-22,24.995437622070312
2018-05-23,25.004621505737305
2018-05-24,24.82083511352539
2018-05-25,25.022998809814453
2018-05-29,24.921918869018555
2018-05-30,24.811643600463867
2018-05-31,24.64512062072754
2018-06-01,24.793136596679688
2018-06-04,24.941158294677734
2018-06-05,25.26494789123535
2018-06-06,25.375965118408203
2018-06-07,25.375965118408203
2018-06-08,25.829273223876953
2018-06-11,25.699756622314453
2018-06-12,25.78301429748535
2018-06-13,25.829273223876953
2018-06-14,25.73676109313965
2018-06-15,25.246448516845703
2018-06-18,25.04292106628418
2018-06-19,24.811641693115234
2018-06-20,24.92266082763672
2018-06-21,24.90415382385254
2018-06-22,24.70987892150879
2018-06-25,24.349084854125977
2018-06-26,24.58036231994629
2018-06-27,24.737634658813477
2018-06-28,25.21869659423828
2018-06-29,25.36671257019043
2018-07-02,25.672000885009766
2018-07-03,25.190942764282227
2018-07-05,25.727508544921875
2018-07-06,25.86627769470215
2018-07-09,26.310333251953125
2018-07-10,26.180814743041992
2018-07-11,26.023544311523438
2018-07-12,26.375091552734375
2018-07-13,25.77376365661621
2018-07-16,25.77376365661621
2018-07-17,25.838525772094727
2018-07-18,26.15306282043457
2018-07-19,25.958789825439453
2018-07-20,25.875526428222656
2018-07-23,25.977293014526367
2018-07-24,25.857025146484375
2018-07-25,26.08830451965332
2018-07-26,26.134557723999023
2018-07-27,24.219568252563477
2018-07-30,24.330581665039062
2018-07-31,24.367586135864258
2018-08-01,23.988290786743164
2018-08-02,24.219568252563477
2018-08-03,24.367586135864258
2018-08-06,24.302825927734375
2018-08-07,24.654375076293945
2018-08-08,24.74688720703125
2018-08-09,24.92266082763672
2018-08-10,24.876399993896484
2018-08-13,24.92266082763672
2018-08-14,24.885650634765625
2018-08-15,24.83014488220215
2018-08-16,25.25569725036621
2018-08-17,25.662752151489258
2018-08-20,26.069801330566406
2018-08-21,26.190065383911133
2018-08-22,26.143814086914062
2018-08-23,26.21782112121582
2018-08-24,26.439847946166992
2018-08-27,26.412097930908203
2018-08-28,26.763641357421875
2018-08-29,26.680381774902344
2018-08-30,26.53235626220703
2018-08-31,26.467193603515625
2018-09-04,26.42995262145996
2018-09-05,26.057573318481445
2018-09-06,25.7875919342041
2018-09-07,25.610708236694336
2018-09-10,25.722423553466797
2018-09-11,25.60140037536621
2018-09-12,25.64794921875
2018-09-13,25.899307250976562
2018-09-14,25.94585609436035
2018-09-17,26.066883087158203
2018-09-18,26.616147994995117
2018-09-19,27.184030532836914
2018-09-20,27.51917839050293
2018-09-21,27.71468162536621
2018-09-24,27.621583938598633
2018-09-25,27.733301162719727
2018-09-26,27.547107696533203
2018-09-27,27.649513244628906
2018-09-28,27.90087127685547
2018-10-01,27.854324340820312
2018-10-02,27.770538330078125
2018-10-03,27.696060180664062
2018-10-04,27.342296600341797
2018-10-05,27.128171920776367
2018-10-08,26.820960998535156
2018-10-09,26.7744083404541
2018-10-10,25.70380401611328
2018-10-11,24.931108474731445
2018-10-12,25.43382453918457
2018-10-15,25.852758407592773
2018-10-16,26.58821678161621
2018-10-17,26.876815795898438
2018-10-18,26.644075393676758
2018-10-19,26.44857406616211
2018-10-22,26.51373863220215
2018-10-23,25.675874710083008
2018-10-24,26.681312561035156
2018-10-25,26.653383255004883
2018-10-26,26.19721221923828
2018-10-29,26.113428115844727
2018-10-30,26.79302978515625
2018-10-31,27.24919891357422
2018-11-01,27.59365463256836
2018-11-02,27.71468162536621
2018-11-05,27.761226654052734
2018-11-06,28.068443298339844
2018-11-07,28.338422775268555
2018-11-08,28.552541732788086
2018-11-09,27.109556198120117
2018-11-12,26.42995262145996
2018-11-13,26.346168518066406
2018-11-14,26.19721221923828
2018-11-15,26.36478614807129
2018-11-16,26.616147994995117
2018-11-19,26.122737884521484
2018-11-20,25.38728141784668
2018-11-21,25.657258987426758
2018-11-23,25.620019912719727
2018-11-26,25.768972396850586
2018-11-27,26.057573318481445
2018-11-28,27.40746307373047
2018-11-29,26.616147994995117
2018-11-30,26.727863311767578
2018-12-03,27.295747756958008
2018-12-04,26.583847045898438
2018-12-06,26.611949920654297
2018-12-07,25.909414291381836
2018-12-10,25.862579345703125
2018-12-11,26.06865692138672
2018-12-12,26.658782958984375
2018-12-13,26.321569442749023
2018-12-14,26.012454986572266
2018-12-17,25.647132873535156
2018-12-18,26.012454986572266
2018-12-19,25.25371742248535
2018-12-20,25.2349853515625
2018-12-21,24.56991958618164
2018-12-24,23.94232177734375
2018-12-26,24.916501998901367
2018-12-27,25.10384178161621
2018-12-28,25.057008743286133
2018-12-31,25.20688247680664
2019-01-02,25.188148498535156
2019-01-03,24.35447883605957
2019-01-04,25.29118537902832
2019-01-07,25.778276443481445
2019-01-08,26.10612678527832
2019-01-09,26.3684024810791
2019-01-10,26.4714412689209
2019-01-11,26.349668502807617
2019-01-14,26.134227752685547
2019-01-15,26.349668502807617
2019-01-16,26.293468475341797
2019-01-17,26.18106460571289
2019-01-18,26.52764320373535
2019-01-22,26.07802391052246
2019-01-23,26.218530654907227
2019-01-24,26.396507263183594
2019-01-25,26.583847045898438
2019-01-28,26.3684024810791
2019-01-29,26.18106460571289
2019-01-30,24.195234298706055
2019-01-31,24.29827308654785
2019-02-01,24.176498413085938
2019-02-04,24.36384391784668
2019-02-05,24.410680770874023
2019-02-06,24.46688461303711
2019-02-07,24.326372146606445
2019-02-08,24.438779830932617
2019-02-11,24.513717651367188
2019-02-12,24.93523597717285
2019-02-13,25.038272857666016
2019-02-14,25.25371742248535
2019-02-15,25.403593063354492
2019-02-19,25.43169403076172
2019-02-20,25.46916389465332
2019-02-21,25.5159969329834
2019-02-22,25.862579345703125
2019-02-25,25.853214263916016
2019-02-26,25.825111389160156
2019-02-27,25.722070693969727
2019-02-28,25.542858123779297
2019-03-01,25.49570083618164
2019-03-04,25.4674015045166
2019-03-05,25.042940139770508
2019-03-06,25.071239471435547
2019-03-07,24.476999282836914
2019-03-08,24.23175811767578
2019-03-11,24.684511184692383
2019-03-12,24.788270950317383
2019-03-13,24.958049774169922
2019-03-14,25.184431076049805
2019-03-15,25.31648063659668
2019-03-18,24.86372947692871
2019-03-19,24.712810516357422
2019-03-20,24.731672286987305
2019-03-21,25.2598876953125
2019-03-22,24.82600212097168
2019-03-25,24.476999282836914
2019-03-26,24.609054565429688
2019-03-27,24.46756935119629
2019-03-28,24.50529670715332
2019-03-29,24.967483520507812
2019-04-01,25.656049728393555
2019-04-02,25.59002113342285
2019-04-03,25.693777084350586
2019-04-04,25.39194107055664
2019-04-05,25.49570083618164
2019-04-08,25.788097381591797
2019-04-09,25.646615982055664
2019-04-10,25.929584503173828
2019-04-11,25.94845199584961
2019-04-12,26.22199058532715
2019-04-15,26.033340454101562
2019-04-16,26.34461212158203
2019-04-17,26.306880950927734
2019-04-18,26.42007064819336
2019-04-22,26.325746536254883
2019-04-23,26.750202178955078
2019-04-24,27.089767456054688
2019-04-25,26.51439094543457
2019-04-26,25.693777084350586
2019-04-29,26.35404396057129
2019-04-30,26.19369125366211
2019-05-01,26.212556838989258
2019-05-02,26.28801918029785
2019-05-03,26.080501556396484
2019-05-06,25.684343338012695
2019-05-07,25.16556167602539
2019-05-08,25.156131744384766
2019-05-09,24.929750442504883
2019-05-10,24.910888671875
2019-05-13,24.005382537841797
2019-05-14,24.04311180114746
2019-05-15,24.25062370300293
2019-05-16,24.39211082458496
2019-05-17,23.750707626342773
2019-05-20,23.958223342895508
2019-05-21,24.590187072753906
2019-05-22,24.39211082458496
2019-05-23,23.722412109375
2019-05-24,23.760141372680664
2019-05-28,23.562061309814453
2019-05-29,23.590356826782227
2019-05-30,23.826168060302734
2019-05-31,23.38899040222168
2019-06-03,23.64558982849121
2019-06-04,24.595975875854492
2019-06-05,25.166208267211914
2019-06-06,25.280258178710938
2019-06-07,25.41330909729004
2019-06-10,25.52735710144043
2019-06-11,25.59388542175293
2019-06-12,25.612892150878906
2019-06-13,25.574874877929688
2019-06-14,25.31827163696289
2019-06-17,25.280258178710938
2019-06-18,25.52735710144043
2019-06-19,25.517854690551758
2019-06-20,25.603389739990234
2019-06-21,25.47983741760254
2019-06-24,25.299264907836914
2019-06-25,25.014150619506836
2019-06-26,25.43231773376465
2019-06-27,25.517854690551758
2019-06-28,25.308765411376953
2019-07-01,25.59388542175293
2019-07-02,25.612892150878906
2019-07-03,25.726938247680664
2019-07-05,26.002548217773438
2019-07-08,25.09017562866211
2019-07-09,25.0046443939209
2019-07-10,24.985637664794922
2019-07-11,25.156705856323242
2019-07-12,25.641403198242188
2019-07-15,25.736440658569336
2019-07-16,25.93602180480957
2019-07-17,25.65090560913086
2019-07-18,25.802968978881836
2019-07-19,25.679418563842773
2019-07-22,25.50834846496582
2019-07-23,25.565372467041016
2019-07-24,25.802968978881836
2019-07-25,25.156705856323242
2019-07-26,25.356285095214844
2019-07-29,25.517854690551758
2019-07-30,25.707929611206055
2019-07-31,25.679418563842773
2019-08-01,25.261249542236328
2019-08-02,24.662504196166992
2019-08-05,23.911701202392578
2019-08-06,23.987733840942383
2019-08-07,24.03525161743164
2019-08-08,24.339374542236328
2019-08-09,24.082773208618164
2019-08-12,23.86418342590332
2019-08-13,24.196815490722656
2019-08-14,23.01833724975586
2019-08-15,22.286542892456055
2019-08-16,22.73322296142578
2019-08-19,22.923301696777344
2019-08-20,22.248525619506836
2019-08-21,22.676197052001953
2019-08-22,22.609670639038086
2019-08-23,21.934900283813477
2019-08-26,21.99192237854004
2019-08-27,21.716312408447266
2019-08-28,21.6497859954834
2019-08-29,22.020435333251953
2019-08-30,22.010929107666016
2019-09-03,21.69470977783203
2019-09-04,22.12592124938965
2019-09-05,22.87335205078125
2019-09-06,23.160825729370117
2019-09-09,23.01708984375
2019-09-10,23.486629486083984
2019-09-11,23.467466354370117
2019-09-12,23.4195556640625
2019-09-13,23.25665283203125
2019-09-16,23.362056732177734
2019-09-17,23.08416748046875
2019-09-18,22.96917724609375
2019-09-19,22.87335205078125
2019-09-20,22.85418701171875
2019-09-23,23.304561614990234
2019-09-24,23.208738327026367
2019-09-25,23.745357513427734
2019-09-26,23.716609954833984
2019-09-27,23.831600189208984
2019-09-30,23.716609954833984
2019-10-01,22.72003173828125
2019-10-02,22.288820266723633
2019-10-03,22.624210357666016
2019-10-04,22.83502197265625
2019-10-07,22.729616165161133
2019-10-08,22.18341636657715
2019-10-09,22.375062942504883
2019-10-10,22.585878372192383
2019-10-11,22.70086669921875
2019-10-14,22.576295852661133
2019-10-15,22.605045318603516
2019-10-16,22.547548294067383
2019-10-17,22.988340377807617
2019-10-18,22.902099609375
2019-10-21,23.237485885620117
2019-10-22,23.726192474365234
2019-10-23,23.917842864990234
2019-10-24,23.486629486083984
2019-10-25,24.176565170288086
2019-10-28,24.09990692138672
2019-10-29,23.572872161865234
2019-10-30,23.889095306396484
2019-10-31,23.7836856842041
2019-11-01,23.467466354370117
2019-11-04,23.898677825927734
2019-11-05,24.2819766998291
2019-11-06,24.876089096069336
2019-11-07,24.674856185913086
2019-11-08,25.077320098876953
2019-11-11,25.201894760131836
2019-11-12,24.636524200439453
2019-11-13,24.29155921936035
2019-11-14,24.02324867248535
2019-11-15,24.444875717163086
2019-11-18,24.991079330444336
2019-11-19,25.029409408569336
2019-11-20,24.49279022216797
2019-11-21,24.262807846069336
2019-11-22,24.396963119506836
2019-11-25,24.780263900756836
2019-11-26,24.56945037841797
2019-11-27,24.21489715576172
2019-11-29,24.195585250854492
2019-12-02,23.92524528503418
2019-12-03,23.654903411865234
2019-12-04,23.4521484375
2019-12-05,23.220426559448242
2019-12-06,23.143184661865234
2019-12-09,23.09490966796875
2019-12-10,22.921117782592773
2019-12-11,23.181806564331055
2019-12-12,23.51007843017578
2019-12-13,23.297664642333984
2019-12-16,23.27835464477539
2019-12-17,23.374906539916992
2019-12-18,23.38456153869629
2019-12-19,23.587318420410156
2019-12-20,23.654903411865234
2019-12-23,23.62593650817871
2019-12-24,23.4521484375
2019-12-26,23.64525032043457
2019-12-27,23.56800651550293
2019-12-30,23.654903411865234
2019-12-31,23.780418395996094
