Date,MKTX
2007-12-31,11.396100044250488
2008-01-02,10.907567977905273
2008-01-03,10.658858299255371
2008-01-04,10.45456600189209
2008-01-07,10.729920387268066
2008-01-08,9.441974639892578
2008-01-09,9.264327049255371
2008-01-10,9.433090209960938
2008-01-11,9.282092094421387
2008-01-14,9.3531494140625
2008-01-15,9.70844554901123
2008-01-16,9.3531494140625
2008-01-17,8.980094909667969
2008-01-18,9.1843843460083
2008-01-22,9.051148414611816
2008-01-23,8.695855140686035
2008-01-24,8.633675575256348
2008-01-25,8.580382347106934
2008-01-28,8.571500778198242
2008-01-29,8.456032752990723
2008-01-30,8.287263870239258
2008-01-31,8.393853187561035
2008-02-01,8.464910507202148
2008-02-04,8.420498847961426
2008-02-05,8.00302791595459
2008-02-06,8.420498847961426
2008-02-07,8.491559982299805
2008-02-08,8.482678413391113
2008-02-11,8.527091026306152
2008-02-12,8.660326957702637
2008-02-13,9.406444549560547
2008-02-14,8.935677528381348
2008-02-15,8.74914836883545
2008-02-19,8.731382369995117
2008-02-20,8.544853210449219
2008-02-21,8.367203712463379
2008-02-22,8.322793960571289
2008-02-25,8.500441551208496
2008-02-26,8.944562911987305
2008-02-27,8.882386207580566
2008-02-28,8.793559074401855
2008-02-29,8.322793960571289
2008-03-03,8.438265800476074
2008-03-04,8.535966873168945
2008-03-05,8.500441551208496
2008-03-06,7.843143939971924
2008-03-07,8.376089096069336
2008-03-10,8.491559982299805
2008-03-11,9.219915390014648
2008-03-12,8.713619232177734
2008-03-13,9.042264938354492
2008-03-14,8.544853210449219
2008-03-17,8.624796867370605
2008-03-18,9.015616416931152
2008-03-19,8.971208572387695
2008-03-20,9.770622253417969
2008-03-24,10.285798072814941
2008-03-25,10.15256404876709
2008-03-26,10.143683433532715
2008-03-27,9.601856231689453
2008-03-28,9.139974594116211
2008-03-31,8.829089164733887
2008-04-01,9.015616416931152
2008-04-02,9.068915367126465
2008-04-03,8.891264915466309
2008-04-04,9.193265914916992
2008-04-07,9.113326072692871
2008-04-08,8.909029006958008
2008-04-09,8.269498825073242
2008-04-10,7.949735164642334
2008-04-11,7.470086097717285
2008-04-14,7.567790508270264
2008-04-15,7.656615257263184
2008-04-16,8.065203666687012
2008-04-17,7.940851211547852
2008-04-18,8.23397159576416
2008-04-21,7.914205551147461
2008-04-22,7.088140964508057
2008-04-23,7.230260372161865
2008-04-24,7.168084621429443
2008-04-25,7.745438575744629
2008-04-28,7.73655366897583
2008-04-29,7.612205505371094
2008-04-30,7.807617664337158
2008-05-01,8.180672645568848
2008-05-02,8.10073471069336
2008-05-05,7.940851211547852
2008-05-06,7.994143486022949
2008-05-07,7.185851097106934
2008-05-08,7.301318645477295
2008-05-09,7.034848690032959
2008-05-12,7.185851097106934
2008-05-13,7.123673439025879
2008-05-14,7.194731712341309
2008-05-15,7.052612781524658
2008-05-16,6.990435600280762
2008-05-19,6.759493827819824
2008-05-20,7.025965690612793
2008-05-21,6.6351399421691895
2008-05-22,6.679551601409912
2008-05-23,6.741729736328125
2008-05-27,6.874963283538818
2008-05-28,6.679551601409912
2008-05-29,6.874963283538818
2008-05-30,6.946024417877197
2008-06-02,6.6529059410095215
2008-06-03,6.786142349243164
2008-06-04,6.919377326965332
2008-06-05,7.159201622009277
2008-06-06,7.132553577423096
2008-06-09,7.123673439025879
2008-06-10,7.248025894165039
2008-06-11,7.194731712341309
2008-06-12,7.159201622009277
2008-06-13,7.310202598571777
2008-06-16,7.292437553405762
2008-06-17,7.105907917022705
2008-06-18,7.150318145751953
2008-06-19,7.221376895904541
2008-06-20,7.194731712341309
2008-06-23,7.194731712341309
2008-06-24,7.114790439605713
2008-06-25,6.928260326385498
2008-06-26,6.866081714630127
2008-06-27,6.946024417877197
2008-06-30,6.715083122253418
2008-07-01,6.519669055938721
2008-07-02,6.022256851196289
2008-07-03,6.004491329193115
2008-07-07,5.951199054718018
2008-07-08,6.137725830078125
2008-07-09,5.89790153503418
2008-07-10,5.800196170806885
2008-07-11,5.746901988983154
2008-07-14,5.684726715087891
2008-07-15,6.075550556182861
2008-07-16,6.5551981925964355
2008-07-17,6.919377326965332
2008-07-18,6.954906940460205
2008-07-21,6.901613235473633
2008-07-22,7.852027893066406
2008-07-23,8.216204643249512
2008-07-24,8.029674530029297
2008-07-25,8.189558029174805
2008-07-28,7.594439506530762
2008-07-29,8.509324073791504
2008-07-30,8.802443504333496
2008-07-31,8.59814739227295
2008-08-01,8.633675575256348
2008-08-04,8.269498825073242
2008-08-05,8.704734802246094
2008-08-06,8.704734802246094
2008-08-07,8.447148323059082
2008-08-08,8.695855140686035
2008-08-11,8.660326957702637
2008-08-12,8.562621116638184
2008-08-13,8.589264869689941
2008-08-14,8.678088188171387
2008-08-15,8.607028007507324
2008-08-18,8.358322143554688
2008-08-19,8.313912391662598
2008-08-20,8.42938232421875
2008-08-21,8.447148323059082
2008-08-22,8.660326957702637
2008-08-25,8.633675575256348
2008-08-26,8.793559074401855
2008-08-27,8.882386207580566
2008-08-28,9.21103286743164
2008-08-29,8.92679500579834
2008-09-02,8.944562911987305
2008-09-03,9.575210571289062
2008-09-04,8.891264915466309
2008-09-05,8.775795936584473
2008-09-08,9.015616416931152
2008-09-09,8.527091026306152
2008-09-10,8.331673622131348
2008-09-11,8.25173568725586
2008-09-12,8.464910507202148
2008-09-15,7.097023963928223
2008-09-16,6.537436008453369
2008-09-17,5.498195648193359
2008-09-18,5.960080623626709
2008-09-19,7.825381278991699
2008-09-22,7.621082782745361
2008-09-23,7.754322528839111
2008-09-24,6.937142848968506
2008-09-25,6.750612258911133
2008-09-26,7.025965690612793
2008-09-29,6.191021919250488
2008-09-30,7.168084621429443
2008-10-01,6.413082122802734
2008-10-02,6.32425594329834
2008-10-03,6.32425594329834
2008-10-06,6.413082122802734
2008-10-07,5.160665035247803
2008-10-08,5.160665035247803
2008-10-09,4.609957695007324
2008-10-10,6.12884521484375
2008-10-13,6.439727783203125
2008-10-14,5.3294291496276855
2008-10-15,4.254662036895752
2008-10-16,4.8586649894714355
2008-10-17,3.828307628631592
2008-10-20,3.8727192878723145
2008-10-21,4.148072719573975
2008-10-22,4.458957195281982
2008-10-23,4.574428081512451
2008-10-24,4.47672176361084
2008-10-27,4.228016376495361
2008-10-28,4.840898036956787
2008-10-29,4.89419412612915
2008-10-30,5.0007829666137695
2008-10-31,5.080724239349365
2008-11-03,4.849781036376953
2008-11-04,4.716545104980469
2008-11-05,4.334602355957031
2008-11-06,4.405663967132568
2008-11-07,4.920841217041016
2008-11-10,5.27613639831543
2008-11-11,5.071841716766357
2008-11-12,4.681015491485596
2008-11-13,5.622550010681152
2008-11-14,4.778722763061523
2008-11-17,4.849781036376953
2008-11-18,5.196194648742676
2008-11-19,4.2368974685668945
2008-11-20,3.9970717430114746
2008-11-21,4.83201789855957
2008-11-24,5.1073713302612305
2008-11-25,5.3294291496276855
2008-11-26,5.498195648193359
2008-11-28,5.684726715087891
2008-12-01,4.521132469177246
2008-12-02,5.151783466339111
2008-12-03,5.320549964904785
2008-12-04,4.974134922027588
2008-12-05,5.693606853485107
2008-12-08,6.25319766998291
2008-12-09,6.226550579071045
2008-12-10,6.439727783203125
2008-12-11,6.12884521484375
2008-12-12,6.25319766998291
2008-12-15,5.817960739135742
2008-12-16,6.226550579071045
2008-12-17,6.777259349822998
2008-12-18,6.706200122833252
2008-12-19,6.590729713439941
2008-12-22,6.6617889404296875
2008-12-23,6.990435600280762
2008-12-24,7.061495780944824
2008-12-26,7.105907917022705
2008-12-29,6.723964214324951
2008-12-30,7.105907917022705
2008-12-31,7.248025894165039
2009-01-02,7.709909915924072
2009-01-05,7.550025939941406
2009-01-06,7.727673530578613
2009-01-07,7.248025894165039
2009-01-08,7.123673439025879
2009-01-09,6.306492328643799
2009-01-12,6.475259304046631
2009-01-13,7.194731712341309
2009-01-14,6.528553009033203
2009-01-15,7.052612781524658
2009-01-16,6.848318576812744
2009-01-20,6.572963714599609
2009-01-21,7.754322528839111
2009-01-22,7.194731712341309
2009-01-23,7.105907917022705
2009-01-26,7.576673984527588
2009-01-27,7.7809672355651855
2009-01-28,8.011911392211914
2009-01-29,7.327967166900635
2009-01-30,6.85720157623291
2009-02-02,7.185851097106934
2009-02-03,7.123673439025879
2009-02-04,7.132553577423096
2009-02-05,7.319085121154785
2009-02-06,7.754322528839111
2009-02-09,7.514493942260742
2009-02-10,7.04373025894165
2009-02-11,7.123673439025879
2009-02-12,7.381260871887207
2009-02-13,7.470086097717285
2009-02-17,7.017082214355469
2009-02-18,7.04373025894165
2009-02-19,7.017082214355469
2009-02-20,6.972671985626221
2009-02-23,6.715083122253418
2009-02-24,7.256907939910889
2009-02-25,7.105907917022705
2009-02-26,7.04373025894165
2009-02-27,7.008200168609619
2009-03-02,6.6973161697387695
2009-03-03,5.835727691650391
2009-03-04,5.82684326171875
2009-03-05,5.444901466369629
2009-03-06,6.262080669403076
2009-03-09,5.764667987823486
2009-03-10,6.075550556182861
2009-03-11,6.315375328063965
2009-03-12,6.83943510055542
2009-03-13,6.644023418426514
2009-03-16,6.572963714599609
2009-03-17,7.274672508239746
2009-03-18,7.239142894744873
2009-03-19,7.061495780944824
2009-03-20,6.501904487609863
2009-03-23,7.532260894775391
2009-03-24,6.475259304046631
2009-03-25,6.484139442443848
2009-03-26,7.265788555145264
2009-03-27,6.297611713409424
2009-03-30,6.084432601928711
2009-03-31,6.786142349243164
2009-04-01,6.874963283538818
2009-04-02,7.319085121154785
2009-04-03,7.452319622039795
2009-04-06,7.470086097717285
2009-04-07,7.301318645477295
2009-04-08,7.674381256103516
2009-04-09,7.949735164642334
2009-04-13,8.491559982299805
2009-04-14,7.683260917663574
2009-04-15,8.580382347106934
2009-04-16,8.740264892578125
2009-04-17,8.331673622131348
2009-04-20,7.674381256103516
2009-04-21,8.313912391662598
2009-04-22,8.109619140625
2009-04-23,7.940851211547852
2009-04-24,8.29614543914795
2009-04-27,8.22508716583252
2009-04-28,8.384970664978027
2009-04-29,8.95344352722168
2009-04-30,8.518205642700195
2009-05-01,8.473794937133789
2009-05-04,9.006738662719727
2009-05-05,9.25544548034668
2009-05-06,9.308738708496094
2009-05-07,8.855732917785645
2009-05-08,9.566327095031738
2009-05-11,9.362030982971191
2009-05-12,9.566327095031738
2009-05-13,9.308738708496094
2009-05-14,9.575210571289062
2009-05-15,9.264327049255371
2009-05-18,9.717329978942871
2009-05-19,9.592978477478027
2009-05-20,9.655156135559082
2009-05-21,9.068915367126465
2009-05-22,9.273205757141113
2009-05-26,9.646271705627441
2009-05-27,8.988972663879395
2009-05-28,9.068915367126465
2009-05-29,9.370918273925781
2009-06-01,9.655156135559082
2009-06-02,9.832797050476074
2009-06-03,9.770622253417969
2009-06-04,9.770622253417969
2009-06-05,9.770622253417969
2009-06-08,9.717329978942871
2009-06-09,9.592978477478027
2009-06-10,9.051148414611816
2009-06-11,8.740264892578125
2009-06-12,8.651443481445312
2009-06-15,8.509324073791504
2009-06-16,8.118498802185059
2009-06-17,8.313912391662598
2009-06-18,8.473794937133789
2009-06-19,8.384970664978027
2009-06-22,7.78985071182251
2009-06-23,8.260618209838867
2009-06-24,8.029674530029297
2009-06-25,8.820211410522461
2009-06-26,8.287263870239258
2009-06-29,8.322793960571289
2009-06-30,8.464910507202148
2009-07-01,8.917914390563965
2009-07-02,8.491559982299805
2009-07-06,8.349441528320312
2009-07-07,8.207322120666504
2009-07-08,8.127382278442383
2009-07-09,7.985264301300049
2009-07-10,7.931971073150635
2009-07-13,8.580382347106934
2009-07-14,8.25173568725586
2009-07-15,9.388677597045898
2009-07-16,9.90385627746582
2009-07-17,9.646271705627441
2009-07-20,9.273205757141113
2009-07-21,8.988972663879395
2009-07-22,9.21103286743164
2009-07-23,9.90385627746582
2009-07-24,9.87720775604248
2009-07-27,9.823915481567383
2009-07-28,9.743973731994629
2009-07-29,9.406444549560547
2009-07-30,9.566327095031738
2009-07-31,9.290973663330078
2009-08-03,9.7883882522583
2009-08-04,9.042264938354492
2009-08-05,8.891264915466309
2009-08-06,8.74914836883545
2009-08-07,9.592978477478027
2009-08-10,9.761738777160645
2009-08-11,9.58409309387207
2009-08-12,9.87720775604248
2009-08-13,9.939388275146484
2009-08-14,9.406444549560547
2009-08-17,8.882386207580566
2009-08-18,8.846855163574219
2009-08-19,9.015616416931152
2009-08-20,9.157735824584961
2009-08-21,9.921625137329102
2009-08-24,9.80615234375
2009-08-25,9.9571533203125
2009-08-26,10.13479995727539
2009-08-27,10.13479995727539
2009-08-28,9.974920272827148
2009-08-31,9.850564002990723
2009-09-01,9.468622207641602
2009-09-02,9.468622207641602
2009-09-03,9.646271705627441
2009-09-04,9.9571533203125
2009-09-08,9.921625137329102
2009-09-09,10.214742660522461
2009-09-10,10.170330047607422
2009-09-11,9.761738777160645
2009-09-14,9.992684364318848
2009-09-15,9.9571533203125
2009-09-16,10.037093162536621
2009-09-17,9.983799934387207
2009-09-18,10.081503868103027
2009-09-21,10.028210639953613
2009-09-22,10.019330024719238
2009-09-23,10.045973777770996
2009-09-24,10.054858207702637
2009-09-25,10.072626113891602
2009-09-28,10.67662525177002
2009-09-29,10.747685432434082
2009-09-30,10.685508728027344
2009-10-01,10.214742660522461
2009-10-02,10.25915241241455
2009-10-05,10.614446640014648
2009-10-06,10.845390319824219
2009-10-07,10.543390274047852
2009-10-08,10.703271865844727
2009-10-09,11.094097137451172
2009-10-12,10.960859298706055
2009-10-13,11.147394180297852
2009-10-14,11.511573791503906
2009-10-15,11.422740936279297
2009-10-16,11.55598258972168
2009-10-19,11.573747634887695
2009-10-20,11.520454406738281
2009-10-21,11.138509750366211
2009-10-22,11.11186408996582
2009-10-23,10.960859298706055
2009-10-26,10.907567977905273
2009-10-27,10.729920387268066
2009-10-28,11.094097137451172
2009-10-29,10.898683547973633
2009-10-30,10.55227279663086
2009-11-02,10.45456600189209
2009-11-03,10.570037841796875
2009-11-04,10.419035911560059
2009-11-05,10.800979614257812
2009-11-06,11.104731559753418
2009-11-09,11.256604194641113
2009-11-10,10.783109664916992
2009-11-11,10.872451782226562
2009-11-12,10.541895866394043
2009-11-13,10.63123607635498
2009-11-16,11.471017837524414
2009-11-17,11.48888111114502
2009-11-18,11.363807678222656
2009-11-19,11.211933135986328
2009-11-20,11.292337417602539
2009-11-23,11.703295707702637
2009-11-24,11.667557716369629
2009-11-25,10.997522354125977
2009-11-27,10.247084617614746
2009-11-30,11.122597694396973
2009-12-01,11.399543762207031
2009-12-02,11.596086502075195
2009-12-03,11.622891426086426
2009-12-04,12.024911880493164
2009-12-07,12.114248275756836
2009-12-08,11.89090347290039
2009-12-09,12.060646057128906
2009-12-10,11.649694442749023
2009-12-11,11.4442138671875
2009-12-14,11.953438758850098
2009-12-15,11.435280799865723
2009-12-16,11.56035041809082
2009-12-17,11.774765968322754
2009-12-18,12.310794830322266
2009-12-21,12.373332977294922
2009-12-22,12.114248275756836
2009-12-23,12.346529006958008
2009-12-24,12.275057792663574
2009-12-28,12.212519645690918
2009-12-29,12.239319801330566
2009-12-30,12.364398956298828
2009-12-31,12.417998313903809
2010-01-04,12.677081108093262
2010-01-05,12.221456527709961
2010-01-06,12.525205612182617
2010-01-07,12.614542961120605
2010-01-08,13.025498390197754
2010-01-11,12.971894264221191
2010-01-12,12.989762306213379
2010-01-13,12.945093154907227
2010-01-14,12.980827331542969
2010-01-15,12.766416549682617
2010-01-19,13.141637802124023
2010-01-20,13.150574684143066
2010-01-21,12.739617347717285
2010-01-22,12.605608940124512
2010-01-25,12.855753898620605
2010-01-26,12.149985313415527
2010-01-27,12.364398956298828
2010-01-28,12.176785469055176
2010-01-29,12.176785469055176
2010-02-01,12.328660011291504
2010-02-02,12.355463027954102
2010-02-03,12.650280952453613
2010-02-04,11.837302207946777
2010-02-05,12.185721397399902
2010-02-08,11.935574531555176
2010-02-09,12.078513145446777
2010-02-10,12.346529006958008
2010-02-11,12.971894264221191
2010-02-12,13.205296516418457
2010-02-16,13.366886138916016
2010-02-17,13.465635299682617
2010-02-18,13.708019256591797
2010-02-19,13.788811683654785
2010-02-22,13.941421508789062
2010-02-23,13.770854949951172
2010-02-24,13.815742492675781
2010-02-25,13.483590126037598
2010-02-26,13.41176986694336
2010-03-01,13.438705444335938
2010-03-02,13.456660270690918
2010-03-03,13.47461223602295
2010-03-04,13.62722396850586
2010-03-05,13.887557029724121
2010-03-08,13.528474807739258
2010-03-09,13.555405616760254
2010-03-10,13.438705444335938
2010-03-11,13.393819808959961
2010-03-12,13.38484001159668
2010-03-15,13.393819808959961
2010-03-16,13.708019256591797
2010-03-17,14.076080322265625
2010-03-18,14.076080322265625
2010-03-19,14.246641159057617
2010-03-22,14.345391273498535
2010-03-23,14.489020347595215
2010-03-24,14.408226013183594
2010-03-25,14.372322082519531
2010-03-26,14.542888641357422
2010-03-29,14.35436725616455
2010-03-30,14.282550811767578
2010-03-31,14.120963096618652
2010-04-01,13.977331161499023
2010-04-05,14.363346099853516
2010-04-06,14.282550811767578
2010-04-07,14.291525840759277
2010-04-08,14.372322082519531
2010-04-09,14.551862716674805
2010-04-12,14.794241905212402
2010-04-13,15.072535514831543
2010-04-14,15.49445629119873
2010-04-15,15.620136260986328
2010-04-16,15.3777494430542
2010-04-19,15.045609474182129
2010-04-20,15.3777494430542
2010-04-21,15.287981986999512
2010-04-22,15.53036880493164
2010-04-23,15.261054992675781
2010-04-26,15.15332317352295
2010-04-27,14.506975173950195
2010-04-28,14.381298065185547
2010-04-29,14.569814682006836
2010-04-30,14.156866073608398
2010-05-03,14.722426414489746
2010-05-04,14.372322082519531
2010-05-05,14.363346099853516
2010-05-06,14.129940032958984
2010-05-07,13.591315269470215
2010-05-10,14.312817573547363
2010-05-11,14.45711898803711
2010-05-12,15.476242065429688
2010-05-13,15.25076961517334
2010-05-14,14.98021125793457
2010-05-17,15.043338775634766
2010-05-18,14.222630500793457
2010-05-19,14.01519775390625
2010-05-20,12.833733558654785
2010-05-21,13.149395942687988
2010-05-24,12.779617309570312
2010-05-25,12.752565383911133
2010-05-26,12.77060317993164
2010-05-27,13.600335121154785
2010-05-28,13.311731338500977
2010-06-01,12.707473754882812
2010-06-02,12.707473754882812
2010-06-03,12.959999084472656
2010-06-04,12.572190284729004
2010-06-07,12.202421188354492
2010-06-08,12.130270004272461
2010-06-09,12.139290809631348
2010-06-10,12.599246978759766
2010-06-11,12.536117553710938
2010-06-14,12.671399116516113
2010-06-15,13.023130416870117
2010-06-16,12.950981140136719
2010-06-17,13.149395942687988
2010-06-18,13.203503608703613
2010-06-21,12.878829956054688
2010-06-22,12.62630558013916
2010-06-23,12.58121109008789
2010-06-24,12.545133590698242
2010-06-25,12.896867752075195
2010-06-28,12.82471752166748
2010-06-29,12.572190284729004
2010-06-30,12.436909675598145
2010-07-01,12.509058952331543
2010-07-02,12.391816139221191
2010-07-06,12.40985107421875
2010-07-07,12.932943344116211
2010-07-08,13.4019193649292
2010-07-09,13.52818489074707
2010-07-12,13.437990188598633
2010-07-13,12.22948169708252
2010-07-14,11.886765480041504
2010-07-15,11.76952075958252
2010-07-16,11.210351943969727
2010-07-19,11.65227222442627
2010-07-20,11.65227222442627
2010-07-21,11.408766746520996
2010-07-22,11.480916023254395
2010-07-23,11.65227222442627
2010-07-26,11.526010513305664
2010-07-27,11.174278259277344
2010-07-28,11.922840118408203
2010-07-29,12.482002258300781
2010-07-30,12.82471752166748
2010-08-02,13.194487571716309
2010-08-03,13.365843772888184
2010-08-04,13.519161224365234
2010-08-05,13.483087539672852
2010-08-06,13.672484397888184
2010-08-09,13.898999214172363
2010-08-10,13.5728178024292
2010-08-11,13.110723495483398
2010-08-12,13.31911849975586
2010-08-13,13.16508674621582
2010-08-16,13.618118286132812
2010-08-17,13.654362678527832
2010-08-18,13.554696083068848
2010-08-19,13.31911849975586
2010-08-20,13.554696083068848
2010-08-23,13.31005859375
2010-08-24,13.482213020324707
2010-08-25,13.708728790283203
2010-08-26,13.5728178024292
2010-08-27,13.844635009765625
2010-08-30,13.518451690673828
2010-08-31,13.853694915771484
2010-09-01,14.333908081054688
2010-09-02,14.26142406463623
2010-09-03,14.26142406463623
2010-09-07,13.935239791870117
2010-09-08,14.433575630187988
2010-09-09,14.442639350891113
2010-09-10,14.515122413635254
2010-09-13,14.850363731384277
2010-09-14,14.832242965698242
2010-09-15,15.167481422424316
2010-09-16,15.0859375
2010-09-17,15.00439453125
2010-09-20,15.357759475708008
2010-09-21,15.294332504272461
2010-09-22,15.384939193725586
2010-09-23,14.678215026855469
2010-09-24,15.647699356079102
2010-09-27,15.674882888793945
2010-09-28,15.611461639404297
2010-09-29,15.403064727783203
2010-09-30,15.384939193725586
2010-10-01,15.339638710021973
2010-10-04,15.44836139678955
2010-10-05,15.747363090515137
2010-10-06,15.638641357421875
2010-10-07,15.76549243927002
2010-10-08,16.01012420654297
2010-10-11,15.856094360351562
2010-10-12,15.810785293579102
2010-10-13,15.783610343933105
2010-10-14,15.665825843811035
2010-10-15,15.783610343933105
2010-10-18,16.10072898864746
2010-10-19,15.720185279846191
2010-10-20,16.08260726928711
2010-10-21,16.300064086914062
2010-10-22,16.38161277770996
2010-10-25,16.653427124023438
2010-10-26,16.590007781982422
2010-10-27,16.762157440185547
2010-10-28,16.562822341918945
2010-10-29,16.463153839111328
2010-11-01,16.499401092529297
2010-11-02,16.762157440185547
2010-11-03,16.716856002807617
2010-11-04,17.02491569519043
2010-11-05,16.806644439697266
2010-11-08,16.870309829711914
2010-11-09,16.788455963134766
2010-11-10,16.979433059692383
2010-11-11,16.8430233001709
2010-11-12,16.788455963134766
2010-11-15,16.82483673095703
2010-11-16,16.624755859375
2010-11-17,16.715702056884766
2010-11-18,16.88849449157715
2010-11-19,17.243179321289062
2010-11-22,17.161331176757812
2010-11-23,16.624755859375
2010-11-24,17.07038688659668
2010-11-26,17.043102264404297
2010-11-29,17.26137351989746
2010-11-30,16.54290771484375
2010-12-01,16.715702056884766
2010-12-02,17.152236938476562
2010-12-03,17.061290740966797
2010-12-06,17.006723403930664
2010-12-07,17.33412742614746
2010-12-08,17.09766960144043
2010-12-09,17.043102264404297
2010-12-10,17.12495231628418
2010-12-13,17.006723403930664
2010-12-14,17.297746658325195
2010-12-15,17.279558181762695
2010-12-16,17.616060256958008
2010-12-17,17.825237274169922
2010-12-20,18.052595138549805
2010-12-21,18.761962890625
2010-12-22,18.65283203125
2010-12-23,18.543697357177734
2010-12-27,18.761962890625
2010-12-28,18.971141815185547
2010-12-29,19.034801483154297
2010-12-30,18.88928985595703
2010-12-31,18.925668716430664
2011-01-03,18.625551223754883
2011-01-04,17.988935470581055
2011-01-05,18.04349708557129
2011-01-06,18.525508880615234
2011-01-07,18.407283782958984
2011-01-10,18.816532135009766
2011-01-11,18.80743408203125
2011-01-12,19.19850730895996
2011-01-13,19.253068923950195
2011-01-14,19.63504409790039
2011-01-18,19.862403869628906
2011-01-19,19.607749938964844
2011-01-20,18.498228073120117
2011-01-21,18.289047241210938
2011-01-24,18.4163761138916
2011-01-25,18.6892032623291
2011-01-26,19.189409255981445
2011-01-27,19.034801483154297
2011-01-28,18.507326126098633
2011-01-31,18.307235717773438
2011-02-01,18.66193199157715
2011-02-02,19.180316925048828
2011-02-03,19.034801483154297
2011-02-04,18.843822479248047
2011-02-07,19.098461151123047
2011-02-08,18.980236053466797
2011-02-09,19.143932342529297
2011-02-10,19.280353546142578
2011-02-11,19.562284469604492
2011-02-14,19.781465530395508
2011-02-15,19.16044044494629
2011-02-16,19.379629135131836
2011-02-17,19.544017791748047
2011-02-18,19.580543518066406
2011-02-22,19.1787052154541
2011-02-23,19.169574737548828
2011-02-24,19.260906219482422
2011-02-25,19.544017791748047
2011-02-28,19.534881591796875
2011-03-01,19.498363494873047
2011-03-02,19.434429168701172
2011-03-03,20.174169540405273
2011-03-04,20.12851905822754
2011-03-07,20.101112365722656
2011-03-08,20.320297241210938
2011-03-09,20.073719024658203
2011-03-10,19.534881591796875
2011-03-11,19.215242385864258
2011-03-14,19.20611572265625
2011-03-15,19.470956802368164
2011-03-16,19.15130615234375
2011-03-17,19.215242385864258
2011-03-18,20.101112365722656
2011-03-21,20.530349731445312
2011-03-22,20.247236251831055
2011-03-23,20.457284927368164
2011-03-24,20.831729888916016
2011-03-25,21.041786193847656
2011-03-28,21.142244338989258
2011-03-29,21.1057186126709
2011-03-30,21.580610275268555
2011-03-31,22.09204864501953
2011-04-01,22.66741180419922
2011-04-04,22.795263290405273
2011-04-05,22.804399490356445
2011-04-06,22.987058639526367
2011-04-07,23.032716751098633
2011-04-08,22.822662353515625
2011-04-11,22.722200393676758
2011-04-12,22.119441986083984
2011-04-13,21.97332000732422
2011-04-14,22.119441986083984
2011-04-15,22.694805145263672
2011-04-18,22.50301742553711
2011-04-19,22.21990203857422
2011-04-20,22.046384811401367
2011-04-21,22.165109634399414
2011-04-25,22.055517196655273
2011-04-26,22.302095413208008
2011-04-27,21.80893325805664
2011-04-28,22.247304916381836
2011-04-29,22.238170623779297
2011-05-02,20.703866958618164
2011-05-03,20.521221160888672
2011-05-04,20.557748794555664
2011-05-05,20.183307647705078
2011-05-06,20.19244384765625
2011-05-09,20.183273315429688
2011-05-10,20.31165313720703
2011-05-11,19.669750213623047
2011-05-12,20.25662612915039
2011-05-13,20.03655433654785
2011-05-16,19.96319007873535
2011-05-17,19.257095336914062
2011-05-18,19.266265869140625
2011-05-19,19.458839416503906
2011-05-20,19.68808937072754
2011-05-23,20.238290786743164
2011-05-24,20.25662612915039
2011-05-25,20.678451538085938
2011-05-26,20.898536682128906
2011-05-27,20.944387435913086
2011-05-31,21.971435546875
2011-06-01,21.182802200317383
2011-06-02,20.926042556762695
2011-06-03,20.770156860351562
2011-06-06,20.504226684570312
2011-06-07,20.32082748413086
2011-06-08,19.77061653137207
2011-06-09,20.660112380981445
2011-06-10,20.31165313720703
2011-06-13,20.27497100830078
2011-06-14,20.412525177001953
2011-06-15,20.54090118408203
2011-06-16,20.85268783569336
2011-06-17,20.669281005859375
2011-06-20,20.99940299987793
2011-06-21,21.66881561279297
2011-06-22,21.953086853027344
2011-06-23,22.063129425048828
2011-06-24,22.0447940826416
2011-06-27,22.549148559570312
2011-06-28,22.9617977142334
2011-06-29,22.915945053100586
2011-06-30,22.980134963989258
2011-07-01,23.14519691467285
2011-07-05,23.48448371887207
2011-07-06,23.567018508911133
2011-07-07,23.979671478271484
2011-07-08,23.869630813598633
2011-07-11,23.14519691467285
2011-07-12,23.181875228881836
2011-07-13,23.502824783325195
2011-07-14,23.346933364868164
2011-07-15,23.502824783325195
2011-07-18,22.84258270263672
2011-07-19,23.65871810913086
2011-07-20,23.447803497314453
2011-07-21,23.713735580444336
2011-07-22,23.521163940429688
2011-07-25,23.392786026000977
2011-07-26,22.84258270263672
2011-07-27,22.8792667388916
2011-07-28,23.631208419799805
2011-07-29,23.96132469177246
2011-08-01,23.96132469177246
2011-08-02,24.071367263793945
2011-08-03,24.832483291625977
2011-08-04,24.31896209716797
2011-08-05,23.58534812927246
2011-08-08,21.467077255249023
2011-08-09,22.884714126586914
2011-08-10,21.614368438720703
2011-08-11,22.700603485107422
2011-08-12,22.24032974243164
2011-08-15,22.728221893310547
2011-08-16,22.139070510864258
2011-08-17,25.268924713134766
2011-08-18,25.176864624023438
2011-08-19,24.716590881347656
2011-08-22,24.440431594848633
2011-08-23,27.09160041809082
2011-08-24,27.18365478515625
2011-08-25,26.24469566345215
2011-08-26,27.321731567382812
2011-08-29,28.306716918945312
2011-08-30,27.597900390625
2011-08-31,27.13762664794922
2011-09-01,27.017955780029297
2011-09-02,26.622121810913086
2011-09-06,26.31834602355957
2011-09-07,27.837236404418945
2011-09-08,27.62550926208496
2011-09-09,27.063980102539062
2011-09-12,27.100807189941406
2011-09-13,27.045574188232422
2011-09-14,27.367761611938477
2011-09-15,27.18365478515625
2011-09-16,25.453027725219727
2011-09-19,25.48065185546875
2011-09-20,25.011167526245117
2011-09-21,23.759235382080078
2011-09-22,24.79023551940918
2011-09-23,24.955942153930664
2011-09-26,25.554290771484375
2011-09-27,25.36098289489746
2011-09-28,24.265533447265625
2011-09-29,24.440431594848633
2011-09-30,23.952545166015625
2011-10-03,22.617753982543945
2011-10-04,23.924928665161133
2011-10-05,23.46465492248535
2011-10-06,24.827062606811523
2011-10-07,24.32076072692871
2011-10-10,25.038785934448242
2011-10-11,25.094022750854492
2011-10-12,25.149246215820312
2011-10-13,25.305740356445312
2011-10-14,25.63714027404785
2011-10-17,24.210298538208008
2011-10-18,24.85468292236328
2011-10-19,24.035390853881836
2011-10-20,24.13665008544922
2011-10-21,24.51407814025879
2011-10-24,25.18607521057129
2011-10-25,24.486469268798828
2011-10-26,25.416202545166016
2011-10-27,27.74518394470215
2011-10-28,27.469018936157227
2011-10-31,26.907493591308594
2011-11-01,26.594507217407227
2011-11-02,26.649742126464844
2011-11-03,28.546062469482422
2011-11-04,26.1434383392334
2011-11-07,26.557689666748047
2011-11-08,27.434934616088867
2011-11-09,25.708131790161133
2011-11-10,25.523447036743164
2011-11-11,26.26218605041504
2011-11-14,25.938983917236328
2011-11-15,26.603849411010742
2011-11-16,25.643489837646484
2011-11-17,24.950931549072266
2011-11-18,25.412635803222656
2011-11-21,24.849353790283203
2011-11-22,24.6092586517334
2011-11-23,25.015565872192383
2011-11-25,24.350696563720703
2011-11-28,25.745065689086914
2011-11-29,25.717369079589844
2011-11-30,26.723899841308594
2011-12-01,26.502275466918945
2011-12-02,26.65926170349121
2011-12-05,25.86511993408203
2011-12-06,27.010164260864258
2011-12-07,26.585386276245117
2011-12-08,25.855876922607422
2011-12-09,26.27142333984375
2011-12-12,26.409936904907227
2011-12-13,25.514217376708984
2011-12-14,24.886293411254883
2011-12-15,26.095970153808594
2011-12-16,26.48380470275879
2011-12-19,26.73314094543457
2011-12-20,28.773900985717773
2011-12-21,27.010164260864258
2011-12-22,27.250246047973633
2011-12-23,27.213314056396484
2011-12-27,27.194852828979492
2011-12-28,27.638090133666992
2011-12-29,27.896644592285156
2011-12-30,27.804306030273438
2012-01-03,27.019397735595703
2012-01-04,27.71196174621582
2012-01-05,28.718496322631836
2012-01-06,28.515348434448242
2012-01-09,29.281782150268555
2012-01-10,29.697324752807617
2012-01-11,28.413761138916016
2012-01-12,28.5061092376709
2012-01-13,28.29372215270996
2012-01-17,28.219846725463867
2012-01-18,29.041698455810547
2012-01-19,29.281782150268555
2012-01-20,29.300256729125977
2012-01-23,28.764667510986328
2012-01-24,28.598451614379883
2012-01-25,29.0047607421875
2012-01-26,28.626155853271484
2012-01-27,28.75543212890625
2012-01-30,28.533809661865234
2012-01-31,28.681556701660156
2012-02-01,30.805437088012695
2012-02-02,31.37795066833496
2012-02-03,31.71963119506836
2012-02-06,30.389890670776367
2012-02-07,30.33448028564453
2012-02-08,29.91895294189453
2012-02-09,29.586515426635742
2012-02-10,29.761972427368164
2012-02-13,30.703853607177734
2012-02-14,29.897809982299805
2012-02-15,29.51795768737793
2012-02-16,30.249876022338867
2012-02-17,29.94413948059082
2012-02-21,29.693986892700195
2012-02-22,28.285717010498047
2012-02-23,31.000341415405273
2012-02-24,30.63901138305664
2012-02-27,30.991073608398438
2012-02-28,30.944759368896484
2012-02-29,30.685325622558594
2012-03-01,31.343135833740234
2012-03-02,31.77858543395996
2012-03-05,32.04726791381836
2012-03-06,32.2418327331543
2012-03-07,32.399322509765625
2012-03-08,33.09419250488281
2012-03-09,33.223915100097656
2012-03-12,33.26097106933594
2012-03-13,34.23378372192383
2012-03-14,33.029361724853516
2012-03-15,32.612430572509766
2012-03-16,33.29802703857422
2012-03-19,33.816871643066406
2012-03-20,33.733482360839844
2012-03-21,32.35301208496094
2012-03-22,33.65010070800781
2012-03-23,34.335693359375
2012-03-26,34.771156311035156
2012-03-27,34.678497314453125
2012-03-28,35.01203536987305
2012-03-29,34.74335479736328
2012-03-30,34.548797607421875
2012-04-02,34.88233184814453
2012-04-03,34.78968811035156
2012-04-04,34.2615852355957
2012-04-05,34.69702911376953
2012-04-09,33.928043365478516
2012-04-10,33.548179626464844
2012-04-11,33.714942932128906
2012-04-12,33.288761138916016
2012-04-13,33.084938049316406
2012-04-16,34.067020416259766
2012-04-17,33.77053451538086
2012-04-18,33.464786529541016
2012-04-19,33.789066314697266
2012-04-20,33.733482360839844
2012-04-23,33.12199783325195
2012-04-24,33.399940490722656
2012-04-25,32.78845977783203
2012-04-26,32.44565200805664
2012-04-27,32.19551086425781
2012-04-30,31.787853240966797
2012-05-01,31.908294677734375
2012-05-02,31.21343231201172
2012-05-03,31.102252960205078
2012-05-04,30.685325622558594
2012-05-07,30.38884925842285
2012-05-08,30.147153854370117
2012-05-09,29.886863708496094
2012-05-10,29.83108901977539
2012-05-11,29.821792602539062
2012-05-14,29.27332305908203
2012-05-15,30.10997200012207
2012-05-16,29.979822158813477
2012-05-17,29.74742317199707
2012-05-18,29.738126754760742
2012-05-21,29.849687576293945
2012-05-22,29.626575469970703
2012-05-23,30.082088470458984
2012-05-24,29.589391708374023
2012-05-25,29.9984188079834
2012-05-29,30.156450271606445
2012-05-30,30.054195404052734
2012-05-31,30.017011642456055
2012-06-01,28.483158111572266
2012-06-04,28.185684204101562
2012-06-05,28.222867965698242
2012-06-06,28.81781578063965
2012-06-07,28.59470558166504
2012-06-08,28.75274658203125
2012-06-11,27.99976348876953
2012-06-12,28.074129104614258
2012-06-13,28.473867416381836
2012-06-14,26.958600997924805
2012-06-15,26.874942779541016
2012-06-18,26.410139083862305
2012-06-19,26.372949600219727
2012-06-20,26.140546798706055
2012-06-21,25.229534149169922
2012-06-22,25.406156539916992
2012-06-25,24.941356658935547
2012-06-26,25.025020599365234
2012-06-27,24.941356658935547
2012-06-28,24.374296188354492
2012-06-29,24.764724731445312
2012-07-02,24.98783302307129
2012-07-03,25.192352294921875
2012-07-05,25.499120712280273
2012-07-06,25.48052978515625
2012-07-09,26.140546798706055
2012-07-10,26.028995513916016
2012-07-11,26.261394500732422
2012-07-12,26.51239585876465
2012-07-13,27.09804344177246
2012-07-16,26.772682189941406
2012-07-17,26.847047805786133
2012-07-18,27.228191375732422
2012-07-19,27.97186851501465
2012-07-20,27.153818130493164
2012-07-23,26.828458786010742
2012-07-24,26.586755752563477
2012-07-25,28.213571548461914
2012-07-26,29.096702575683594
2012-07-27,29.133880615234375
2012-07-30,28.68767738342285
2012-07-31,28.092721939086914
2012-08-01,27.88821029663086
2012-08-02,28.241455078125
2012-08-03,30.286596298217773
2012-08-06,30.52829360961914
2012-08-07,30.56559944152832
2012-08-08,30.658878326416016
2012-08-09,30.78013038635254
2012-08-10,31.003986358642578
2012-08-13,29.632869720458984
2012-08-14,29.36237907409668
2012-08-15,29.604890823364258
2012-08-16,30.714845657348633
2012-08-17,30.42569351196289
2012-08-20,30.13654327392578
2012-08-21,30.13654327392578
2012-08-22,30.17385482788086
2012-08-23,29.558252334594727
2012-08-24,29.548925399780273
2012-08-27,29.828744888305664
2012-08-28,30.17385482788086
2012-08-29,30.481653213500977
2012-08-30,30.22982406616211
2012-08-31,30.37905502319336
2012-09-04,31.367753982543945
2012-09-05,31.712854385375977
2012-09-06,28.355031967163086
2012-09-07,26.946609497070312
2012-09-10,27.217098236083984
2012-09-11,27.804718017578125
2012-09-12,28.00058937072754
2012-09-13,28.131174087524414
2012-09-14,28.5042667388916
2012-09-17,28.494935989379883
2012-09-18,28.560230255126953
2012-09-19,29.222469329833984
2012-09-20,28.896011352539062
2012-09-21,28.78409194946289
2012-09-24,28.812070846557617
2012-09-25,30.201839447021484
2012-09-26,28.448305130004883
2012-09-27,29.455656051635742
2012-09-28,29.483638763427734
2012-10-01,29.250455856323242
2012-10-02,29.632869720458984
2012-10-03,29.18515968322754
2012-10-04,29.492965698242188
2012-10-05,29.651525497436523
2012-10-08,29.548925399780273
2012-10-09,29.119869232177734
2012-10-10,29.297094345092773
2012-10-11,29.464982986450195
2012-10-12,29.091886520385742
2012-10-15,29.511619567871094
2012-10-16,29.847394943237305
2012-10-17,29.744796752929688
2012-10-18,29.437000274658203
2012-10-19,28.821395874023438
2012-10-22,29.063907623291016
2012-10-23,28.97063446044922
2012-10-24,28.73744773864746
2012-10-25,28.700143814086914
2012-10-26,28.914669036865234
2012-10-31,29.138521194458008
2012-11-01,29.399688720703125
2012-11-02,28.942649841308594
2012-11-05,29.129196166992188
2012-11-06,29.464982986450195
2012-11-07,28.968904495239258
2012-11-08,28.800426483154297
2012-11-09,28.276269912719727
2012-11-12,28.051633834838867
2012-11-13,28.04227638244629
2012-11-14,27.143728256225586
2012-11-15,27.143728256225586
2012-11-16,27.63043785095215
2012-11-19,28.04227638244629
2012-11-20,27.82699966430664
2012-11-21,28.07035255432129
2012-11-23,28.369873046875
2012-11-26,28.528987884521484
2012-11-27,28.3979549407959
2012-11-28,28.435388565063477
2012-11-29,28.734912872314453
2012-11-30,28.884666442871094
2012-12-03,28.697467803955078
2012-12-04,28.660024642944336
2012-12-05,30.700483322143555
2012-12-06,31.177841186523438
2012-12-07,30.400968551635742
2012-12-10,30.597530364990234
2012-12-11,30.213768005371094
2012-12-12,30.166975021362305
2012-12-13,30.157611846923828
2012-12-14,30.971921920776367
2012-12-17,31.383766174316406
2012-12-18,31.851747512817383
2012-12-19,32.11383819580078
2012-12-20,32.78774642944336
2012-12-21,32.70351028442383
2012-12-24,32.61927795410156
2012-12-26,33.02174377441406
2012-12-27,32.5911865234375
2012-12-28,32.66606903076172
2012-12-31,33.040470123291016
2013-01-02,33.91093826293945
2013-01-03,33.47102355957031
2013-01-04,32.722232818603516
2013-01-07,32.96558380126953
2013-01-08,33.068538665771484
2013-01-09,33.49909973144531
2013-01-10,33.0872688293457
2013-01-11,32.563106536865234
2013-01-14,33.143409729003906
2013-01-15,33.67693328857422
2013-01-16,33.47102355957031
2013-01-17,34.00453186035156
2013-01-18,34.86564254760742
2013-01-22,34.72526168823242
2013-01-23,34.631649017333984
2013-01-24,35.09965133666992
2013-01-25,35.2774772644043
2013-01-28,35.137081146240234
2013-01-29,35.55827713012695
2013-01-30,35.240047454833984
2013-01-31,35.38979721069336
2013-02-01,36.00755310058594
2013-02-04,35.34299850463867
2013-02-05,35.41787338256836
2013-02-06,35.502132415771484
2013-02-07,35.36171340942383
2013-02-08,35.57701110839844
2013-02-11,35.38044357299805
2013-02-12,35.60585021972656
2013-02-13,36.02850341796875
2013-02-14,37.81302261352539
2013-02-15,37.88816452026367
2013-02-19,39.3063850402832
2013-02-20,37.19312286376953
2013-02-21,36.56386184692383
2013-02-22,36.54507064819336
2013-02-25,36.49810791015625
2013-02-26,36.83623504638672
2013-02-27,36.73291778564453
2013-02-28,36.68595886230469
2013-03-01,36.68595886230469
2013-03-04,36.87380599975586
2013-03-05,37.550052642822266
2013-03-06,37.493675231933594
2013-03-07,36.83623504638672
2013-03-08,37.47490310668945
2013-03-11,37.15556716918945
2013-03-12,36.69534683227539
2013-03-13,36.535675048828125
2013-03-14,35.80309295654297
2013-03-15,35.9627685546875
2013-03-18,35.66221237182617
2013-03-19,34.92962646484375
2013-03-20,35.915794372558594
2013-03-21,35.86883544921875
2013-03-22,35.9345703125
2013-03-25,34.74176788330078
2013-03-26,35.02353286743164
2013-03-27,35.20199203491211
2013-03-28,35.03292465209961
2013-04-01,35.014137268066406
2013-04-02,35.136234283447266
2013-04-03,34.835693359375
2013-04-04,35.220767974853516
2013-04-05,35.24895095825195
2013-04-08,35.60585021972656
2013-04-09,35.511932373046875
2013-04-10,36.52629470825195
2013-04-11,36.15060043334961
2013-04-12,36.05667495727539
2013-04-15,35.50253677368164
2013-04-16,36.263301849365234
2013-04-17,36.657779693603516
2013-04-18,36.62959671020508
2013-04-19,37.21193313598633
2013-04-22,37.30583190917969
2013-04-23,37.5406379699707
2013-04-24,38.91191482543945
2013-04-25,39.92626190185547
2013-04-26,40.3864860534668
2013-04-29,39.682071685791016
2013-04-30,39.74781799316406
2013-05-01,39.48484420776367
2013-05-02,40.414669036865234
2013-05-03,40.527381896972656
2013-05-06,40.56493377685547
2013-05-07,41.073646545410156
2013-05-08,41.31858825683594
2013-05-09,41.243221282958984
2013-05-10,41.25264358520508
2013-05-13,41.43162536621094
2013-05-14,42.9577522277832
2013-05-15,43.11790466308594
2013-05-16,42.78820037841797
2013-05-17,43.43819808959961
2013-05-20,43.287479400634766
2013-05-21,42.63745880126953
2013-05-22,41.233795166015625
2013-05-23,41.45045852661133
2013-05-24,41.393951416015625
2013-05-28,41.45045852661133
2013-05-29,40.904083251953125
2013-05-30,41.41279220581055
2013-05-31,40.847557067871094
2013-06-03,41.01711654663086
2013-06-04,40.72509002685547
2013-06-05,40.72509002685547
2013-06-06,41.667152404785156
2013-06-07,42.03453826904297
2013-06-10,42.84471130371094
2013-06-11,42.910667419433594
2013-06-12,42.703407287597656
2013-06-13,44.71940994262695
2013-06-14,43.83387756347656
2013-06-17,44.06938934326172
2013-06-18,45.030296325683594
2013-06-19,44.22011184692383
2013-06-20,43.11790466308594
2013-06-21,44.00344467163086
2013-06-24,43.24979782104492
2013-06-25,43.353424072265625
2013-06-26,43.57951354980469
2013-06-27,44.54983901977539
2013-06-28,44.04111862182617
2013-07-01,45.256378173828125
2013-07-02,44.83245849609375
2013-07-03,46.77309036254883
2013-07-05,47.696311950683594
2013-07-08,47.78109359741211
2013-07-09,49.005760192871094
2013-07-10,48.063697814941406
2013-07-11,48.035438537597656
2013-07-12,47.837608337402344
2013-07-15,47.762237548828125
2013-07-16,48.04486846923828
2013-07-17,48.04486846923828
2013-07-18,48.845611572265625
2013-07-19,48.76082229614258
2013-07-22,50.22102355957031
2013-07-23,49.84419250488281
2013-07-24,50.90871810913086
2013-07-25,50.32463455200195
2013-07-26,49.42026901245117
2013-07-29,49.31663513183594
2013-07-30,49.21302032470703
2013-07-31,48.704307556152344
2013-08-01,49.99492263793945
2013-08-02,49.89128875732422
2013-08-05,49.86302947998047
2013-08-06,49.863037109375
2013-08-07,49.39084243774414
2013-08-08,50.0707893371582
2013-08-09,49.9952392578125
2013-08-12,50.656307220458984
2013-08-13,50.741302490234375
2013-08-14,50.79796600341797
2013-08-15,49.06974411010742
2013-08-16,48.890323638916016
2013-08-19,48.578678131103516
2013-08-20,49.428619384765625
2013-08-21,49.23030090332031
2013-08-22,50.02357864379883
2013-08-23,50.42021560668945
2013-08-26,50.004695892333984
2013-08-27,49.10753631591797
2013-08-28,48.871429443359375
2013-08-29,49.04142761230469
2013-08-30,47.93649673461914
2013-09-03,49.69303894042969
2013-09-04,50.79796600341797
2013-09-05,50.807395935058594
2013-09-06,50.59019470214844
2013-09-09,51.02460861206055
2013-09-10,51.572349548339844
2013-09-11,51.440147399902344
2013-09-12,51.37404251098633
2013-09-13,51.80842971801758
2013-09-16,52.677268981933594
2013-09-17,53.63108825683594
2013-09-18,53.46110153198242
2013-09-19,53.716087341308594
2013-09-20,55.68983459472656
2013-09-23,56.72864532470703
2013-09-24,58.05076599121094
2013-09-25,56.653099060058594
2013-09-26,57.163055419921875
2013-09-27,56.709754943847656
2013-09-30,56.615325927734375
2013-10-01,58.286865234375
2013-10-02,57.92799758911133
2013-10-03,57.96577453613281
2013-10-04,59.49566650390625
2013-10-07,59.32567596435547
2013-10-08,58.5701789855957
2013-10-09,59.344566345214844
2013-10-10,61.28053283691406
2013-10-11,61.82827377319336
2013-10-14,62.3193473815918
2013-10-15,62.083251953125
2013-10-16,61.40331268310547
2013-10-17,61.57328796386719
2013-10-18,62.10214614868164
2013-10-21,62.00770950317383
2013-10-22,61.620513916015625
2013-10-23,61.412742614746094
2013-10-24,61.98880386352539
2013-10-25,61.94160079956055
2013-10-28,61.88492202758789
2013-10-29,62.234352111816406
2013-10-30,62.111576080322266
2013-10-31,61.60160446166992
2013-11-01,61.431636810302734
2013-11-04,61.998260498046875
2013-11-05,62.319976806640625
2013-11-06,62.376747131347656
2013-11-07,61.950931549072266
2013-11-08,62.424076080322266
2013-11-11,62.72687530517578
2013-11-12,62.74580383300781
2013-11-13,63.77720642089844
2013-11-14,64.00430297851562
2013-11-15,64.49635314941406
2013-11-18,65.27229309082031
2013-11-19,64.04216003417969
2013-11-20,64.53418731689453
2013-11-21,66.80519104003906
2013-11-22,66.56864929199219
2013-11-25,64.39225769042969
2013-11-26,64.36387634277344
2013-11-27,64.96003723144531
2013-11-29,66.58758544921875
2013-12-02,65.54667663574219
2013-12-03,64.07054901123047
2013-12-04,61.43050765991211
2013-12-05,60.985782623291016
2013-12-06,63.0675163269043
2013-12-09,62.23480987548828
2013-12-10,61.17501449584961
2013-12-11,60.20984649658203
2013-12-12,61.46834945678711
2013-12-13,61.08985900878906
2013-12-16,61.05200958251953
2013-12-17,60.4842643737793
2013-12-18,60.66405487060547
2013-12-19,60.020599365234375
2013-12-20,62.19696807861328
2013-12-23,62.68901062011719
2013-12-24,62.05503845214844
2013-12-26,63.02968215942383
2013-12-27,63.058048248291016
2013-12-30,62.461917877197266
2013-12-31,63.332454681396484
2014-01-02,61.884708404541016
2014-01-03,63.55010223388672
2014-01-06,61.61029052734375
2014-01-07,62.19696807861328
2014-01-08,60.872215270996094
2014-01-09,60.00167465209961
2014-01-10,60.4085578918457
2014-01-13,59.0932731628418
2014-01-14,60.077362060546875
2014-01-15,59.67994689941406
2014-01-16,59.594783782958984
2014-01-17,58.591758728027344
2014-01-21,59.91650390625
2014-01-22,59.43393325805664
2014-01-23,58.7999382019043
2014-01-24,57.9010009765625
2014-01-27,56.55732345581055
2014-01-28,58.2321891784668
2014-01-29,57.002052307128906
2014-01-30,59.90705108642578
2014-01-31,59.367698669433594
2014-02-03,57.38056182861328
2014-02-04,58.5066032409668
2014-02-05,58.16594696044922
2014-02-06,57.8631477355957
2014-02-07,57.98615646362305
2014-02-10,57.096683502197266
2014-02-11,57.314903259277344
2014-02-12,56.88795852661133
2014-02-13,56.87846755981445
2014-02-14,56.6507568359375
2014-02-18,57.096683502197266
2014-02-19,56.03406524658203
2014-02-20,56.641273498535156
2014-02-21,56.32818603515625
2014-02-24,56.688724517822266
2014-02-25,55.882259368896484
2014-02-26,56.18587112426758
2014-02-27,56.03406524658203
2014-02-28,56.015098571777344
2014-03-03,56.34716033935547
2014-03-04,59.88605499267578
2014-03-05,60.493263244628906
2014-03-06,61.043540954589844
2014-03-07,61.204837799072266
2014-03-10,61.13842010498047
2014-03-11,59.4970588684082
2014-03-12,60.28453063964844
2014-03-13,59.610897064208984
2014-03-14,59.03215408325195
2014-03-17,60.18966293334961
2014-03-18,59.72477340698242
2014-03-19,59.127044677734375
2014-03-20,59.6962890625
2014-03-21,58.984737396240234
2014-03-24,58.984737396240234
2014-03-25,58.4724006652832
2014-03-26,56.5179328918457
2014-03-27,55.711483001708984
2014-03-28,55.01889419555664
2014-03-31,56.18587112426758
2014-04-01,56.593849182128906
2014-04-02,56.26176834106445
2014-04-03,53.975257873535156
2014-04-04,52.220035552978516
2014-04-07,51.47999572753906
2014-04-08,51.688724517822266
2014-04-09,52.18208312988281
2014-04-10,51.66025924682617
2014-04-11,50.36045837402344
2014-04-14,50.98663330078125
2014-04-15,51.44205093383789
2014-04-16,52.30542755126953
2014-04-17,52.741859436035156
2014-04-21,53.121360778808594
2014-04-22,53.73806381225586
2014-04-23,52.2010612487793
2014-04-24,52.17258071899414
2014-04-25,51.94490432739258
2014-04-28,50.9391975402832
2014-04-29,50.550209045410156
2014-04-30,51.072025299072266
2014-05-01,51.84052276611328
2014-05-02,51.75514221191406
2014-05-05,51.92591094970703
2014-05-06,51.66899490356445
2014-05-07,51.83076858520508
2014-05-08,51.77366638183594
2014-05-09,51.84027099609375
2014-05-12,52.88698196411133
2014-05-13,52.01154327392578
2014-05-14,50.536643981933594
2014-05-15,50.32730484008789
2014-05-16,50.77454376220703
2014-05-19,51.79269790649414
2014-05-20,51.10758590698242
2014-05-21,51.43111801147461
2014-05-22,52.078155517578125
2014-05-23,52.35411834716797
2014-05-27,53.6672477722168
2014-05-28,52.630062103271484
2014-05-29,51.9734992980957
2014-05-30,50.765018463134766
2014-06-02,50.3748893737793
2014-06-03,47.86280059814453
2014-06-04,49.36625671386719
2014-06-05,50.08943176269531
2014-06-06,51.412071228027344
2014-06-09,51.69754409790039
2014-06-10,51.51674270629883
2014-06-11,50.86018753051758
2014-06-12,50.72696304321289
2014-06-13,51.7356071472168
2014-06-16,52.20186233520508
2014-06-17,52.58247756958008
2014-06-18,53.48644256591797
2014-06-19,52.810848236083984
2014-06-20,52.94407653808594
2014-06-23,53.30565643310547
2014-06-24,52.88698196411133
2014-06-25,52.820377349853516
2014-06-26,52.74424743652344
2014-06-27,52.62053298950195
2014-06-30,51.44062805175781
2014-07-01,51.08856201171875
2014-07-02,50.1750602722168
2014-07-03,49.38528060913086
2014-07-07,48.433738708496094
2014-07-08,47.548805236816406
2014-07-09,46.835140228271484
2014-07-10,45.72182846069336
2014-07-11,45.19847869873047
2014-07-14,46.150028228759766
2014-07-15,45.89311218261719
2014-07-16,45.77892303466797
2014-07-17,46.22614288330078
2014-07-18,47.20624923706055
2014-07-21,47.6724967956543
2014-07-22,47.92942428588867
2014-07-23,51.29789352416992
2014-07-24,53.69579315185547
2014-07-25,53.2771110534668
2014-07-28,53.26759719848633
2014-07-29,53.648216247558594
2014-07-30,54.19059753417969
2014-07-31,53.50547409057617
2014-08-01,53.14389419555664
2014-08-04,53.56257629394531
2014-08-05,53.37173080444336
2014-08-06,54.05878829956055
2014-08-07,53.047279357910156
2014-08-08,52.837337493896484
2014-08-11,54.67906188964844
2014-08-12,53.887020111083984
2014-08-13,53.99199295043945
2014-08-14,54.21146774291992
2014-08-15,54.67906188964844
2014-08-18,55.56652069091797
2014-08-19,55.537899017333984
2014-08-20,55.471099853515625
2014-08-21,55.118019104003906
2014-08-22,55.31840896606445
2014-08-25,56.89293670654297
2014-08-26,56.797508239746094
2014-08-27,56.59711837768555
2014-08-28,55.9577751159668
2014-08-29,56.22495651245117
2014-09-02,56.82614517211914
2014-09-03,57.274654388427734
2014-09-04,55.73830032348633
2014-09-05,56.58756637573242
2014-09-08,57.04561233520508
2014-09-09,57.131500244140625
2014-09-10,57.23646926879883
2014-09-11,56.549400329589844
2014-09-12,56.35855484008789
2014-09-15,55.35658264160156
2014-09-16,55.91004943847656
2014-09-17,56.11998748779297
2014-09-18,58.81100845336914
2014-09-19,58.925514221191406
2014-09-22,57.77085876464844
2014-09-23,56.58756637573242
2014-09-24,57.92353439331055
2014-09-25,57.30327606201172
2014-09-26,58.58197784423828
2014-09-29,59.2117919921875
2014-09-30,59.030487060546875
2014-10-01,59.020938873291016
2014-10-02,58.95414352416992
2014-10-03,59.59348678588867
2014-10-06,59.83205032348633
2014-10-07,59.1640739440918
2014-10-08,59.84160232543945
2014-10-09,59.307220458984375
2014-10-10,59.66983413696289
2014-10-13,59.69846725463867
2014-10-14,60.204219818115234
2014-10-15,61.65470504760742
2014-10-16,60.8626594543457
2014-10-17,59.98474884033203
2014-10-20,61.02487564086914
2014-10-21,62.628028869628906
2014-10-22,58.35296630859375
2014-10-23,58.44837951660156
2014-10-24,59.307220458984375
2014-10-27,60.223304748535156
2014-10-28,61.11076736450195
2014-10-29,61.06304931640625
2014-10-30,61.292083740234375
2014-10-31,61.69286346435547
2014-11-03,61.61652374267578
2014-11-04,62.15223693847656
2014-11-05,62.898414611816406
2014-11-06,62.783599853515625
2014-11-07,62.52532196044922
2014-11-10,62.133113861083984
2014-11-11,62.42966079711914
2014-11-12,63.05146408081055
2014-11-13,63.20453643798828
2014-11-14,62.611427307128906
2014-11-17,60.966026306152344
2014-11-18,60.6407585144043
2014-11-19,60.28681564331055
2014-11-20,61.16690444946289
2014-11-21,60.018951416015625
2014-11-24,61.51129150390625
2014-11-25,61.23387145996094
2014-11-26,62.05657958984375
2014-11-28,62.726219177246094
2014-12-01,61.425193786621094
2014-12-02,62.42966079711914
2014-12-03,63.79763412475586
2014-12-04,64.44818115234375
2014-12-05,65.146484375
2014-12-08,65.04125213623047
2014-12-09,66.34224700927734
2014-12-10,65.91181182861328
2014-12-11,66.76318359375
2014-12-12,65.4813003540039
2014-12-15,65.5291519165039
2014-12-16,65.62480163574219
2014-12-17,67.02147674560547
2014-12-18,69.09735870361328
2014-12-19,68.43729400634766
2014-12-22,68.52339935302734
2014-12-23,69.15476989746094
2014-12-24,69.16434478759766
2014-12-26,70.07315063476562
2014-12-29,69.09735870361328
2014-12-30,68.8677749633789
2014-12-31,68.59991455078125
2015-01-02,67.29888153076172
2015-01-05,65.99788665771484
2015-01-06,64.72557067871094
2015-01-07,65.30909729003906
2015-01-08,68.59036254882812
2015-01-09,68.4085922241211
2015-01-12,67.9111557006836
2015-01-13,69.46090698242188
2015-01-14,69.79570007324219
2015-01-15,67.53805541992188
2015-01-16,69.26956939697266
2015-01-20,69.0304183959961
2015-01-21,68.44686889648438
2015-01-22,71.21153259277344
2015-01-23,70.80975341796875
2015-01-26,71.13499450683594
2015-01-27,70.93408966064453
2015-01-28,70.08268737792969
2015-01-29,72.65603637695312
2015-01-30,72.6751708984375
2015-02-02,71.82376098632812
2015-02-03,72.65603637695312
2015-02-04,74.59799194335938
2015-02-05,76.92261505126953
2015-02-06,78.13751983642578
2015-02-09,76.59734344482422
2015-02-10,77.22071838378906
2015-02-11,77.60433197021484
2015-02-12,78.52499389648438
2015-02-13,77.89203643798828
2015-02-17,76.47266387939453
2015-02-18,77.22071838378906
2015-02-19,76.30004119873047
2015-02-20,75.7342300415039
2015-02-23,76.7891616821289
2015-02-24,76.81792449951172
2015-02-25,76.55901336669922
2015-02-26,77.61392211914062
2015-02-27,76.32881164550781
2015-03-02,77.5467758178711
2015-03-03,76.98094940185547
2015-03-04,80.3567123413086
2015-03-05,82.48575592041016
2015-03-06,80.75950622558594
2015-03-09,81.77608489990234
2015-03-10,81.09517669677734
2015-03-11,82.19805908203125
2015-03-12,82.4761734008789
2015-03-13,81.99665069580078
2015-03-16,82.50495147705078
2015-03-17,83.11873626708984
2015-03-18,83.33930969238281
2015-03-19,83.73249053955078
2015-03-20,85.16142272949219
2015-03-23,83.36807250976562
2015-03-24,82.29395294189453
2015-03-25,79.6854019165039
2015-03-26,80.06903839111328
2015-03-27,80.5389404296875
2015-03-30,82.92691040039062
2015-03-31,79.503173828125
2015-04-01,79.47443389892578
2015-04-02,81.05680847167969
2015-04-06,81.92951965332031
2015-04-07,82.48575592041016
2015-04-08,83.91470336914062
2015-04-09,83.69413757324219
2015-04-10,84.46134948730469
2015-04-13,84.53809356689453
2015-04-14,85.64093780517578
2015-04-15,84.94085693359375
2015-04-16,86.11087799072266
2015-04-17,83.73249053955078
2015-04-20,85.08470153808594
2015-04-21,86.32186126708984
2015-04-22,85.02719116210938
2015-04-23,85.06552124023438
2015-04-24,84.32707977294922
2015-04-27,84.24077606201172
2015-04-28,86.1588363647461
2015-04-29,85.41079711914062
2015-04-30,82.33233642578125
2015-05-01,81.4787826538086
2015-05-04,81.49795532226562
2015-05-05,80.07526397705078
2015-05-06,80.65201568603516
2015-05-07,81.72866821289062
2015-05-08,81.39221954345703
2015-05-11,82.7380142211914
2015-05-12,82.6899642944336
2015-05-13,82.7380142211914
2015-05-14,83.89157104492188
2015-05-15,84.10304260253906
2015-05-18,85.65070343017578
2015-05-19,85.24700164794922
2015-05-20,84.93936920166016
2015-05-21,84.59329986572266
2015-05-22,84.32415771484375
2015-05-26,83.20904541015625
2015-05-27,85.77568054199219
2015-05-28,85.57384490966797
2015-05-29,85.02588653564453
2015-06-01,85.51614379882812
2015-06-02,85.06432342529297
2015-06-03,84.48757934570312
2015-06-04,83.14176940917969
2015-06-05,83.29558563232422
2015-06-08,82.93989562988281
2015-06-09,82.08433532714844
2015-06-10,83.21868133544922
2015-06-11,83.32441711425781
2015-06-12,82.96874237060547
2015-06-15,83.62239837646484
2015-06-16,83.92041778564453
2015-06-17,85.27584075927734
2015-06-18,85.75650024414062
2015-06-19,87.96743774414062
2015-06-22,91.58186340332031
2015-06-23,92.4758529663086
2015-06-24,93.48522186279297
2015-06-25,93.57173156738281
2015-06-26,93.11029815673828
2015-06-29,88.74606323242188
2015-06-30,89.17864227294922
2015-07-01,91.09162902832031
2015-07-02,90.83206939697266
2015-07-06,93.11994171142578
2015-07-07,93.69670104980469
2015-07-08,93.99470520019531
2015-07-09,95.76348114013672
2015-07-10,99.28177642822266
2015-07-13,97.80139923095703
2015-07-14,97.00352478027344
2015-07-15,96.01342010498047
2015-07-16,97.57069396972656
2015-07-17,97.3880386352539
2015-07-20,97.03237915039062
2015-07-21,96.34024810791016
2015-07-22,94.15809631347656
2015-07-23,94.15809631347656
2015-07-24,92.80270385742188
2015-07-27,94.15809631347656
2015-07-28,93.87935638427734
2015-07-29,94.35999298095703
2015-07-30,93.31218719482422
2015-07-31,94.01392364501953
2015-08-03,94.12928009033203
2015-08-04,93.3971939086914
2015-08-05,95.60306549072266
2015-08-06,94.33157348632812
2015-08-07,93.98477935791016
2015-08-10,93.8306655883789
2015-08-11,92.6266098022461
2015-08-12,91.86563873291016
2015-08-13,91.06613159179688
2015-08-14,92.8385238647461
2015-08-17,93.9462661743164
2015-08-18,93.90771484375
2015-08-19,94.45677185058594
2015-08-20,93.02153778076172
2015-08-21,90.50743103027344
2015-08-24,86.3172836303711
2015-08-25,85.64300537109375
2015-08-26,87.62731170654297
2015-08-27,88.4557113647461
2015-08-28,88.08966064453125
2015-08-31,87.09752655029297
2015-09-01,88.34013366699219
2015-09-02,93.0793228149414
2015-09-03,92.66512298583984
2015-09-04,91.36473846435547
2015-09-08,92.9541244506836
2015-09-09,93.0697250366211
2015-09-10,93.57058715820312
2015-09-11,93.77288055419922
2015-09-14,93.3971939086914
2015-09-15,93.7247085571289
2015-09-16,93.91736602783203
2015-09-17,92.9541244506836
2015-09-18,92.78071594238281
2015-09-21,93.47425842285156
2015-09-22,92.39541625976562
2015-09-23,95.35261535644531
2015-09-24,93.58021545410156
2015-09-25,95.8631591796875
2015-09-28,91.22024536132812
2015-09-29,87.48283386230469
2015-09-30,89.46712493896484
2015-10-01,90.56523132324219
2015-10-02,91.51886749267578
2015-10-05,93.36832427978516
2015-10-06,89.90058898925781
2015-10-07,91.3551025390625
2015-10-08,91.99085998535156
2015-10-09,91.22024536132812
2015-10-12,93.3971939086914
2015-10-13,91.08537292480469
2015-10-14,90.77715301513672
2015-10-15,92.9541244506836
2015-10-16,93.1756591796875
2015-10-19,92.41466522216797
2015-10-20,92.56880950927734
2015-10-21,83.66834259033203
2015-10-22,86.25951385498047
2015-10-23,86.70259857177734
2015-10-26,92.3376235961914
2015-10-27,91.75968170166016
2015-10-28,96.51815032958984
2015-10-29,99.10930633544922
2015-10-30,97.58737182617188
2015-11-02,95.55088806152344
2015-11-03,95.43505859375
2015-11-04,95.11656951904297
2015-11-05,95.53157043457031
2015-11-06,96.3423080444336
2015-11-09,95.70531463623047
2015-11-10,96.48709106445312
2015-11-11,97.65492248535156
2015-11-12,96.52568817138672
2015-11-13,95.14552307128906
2015-11-16,97.23992156982422
2015-11-17,98.1857681274414
2015-11-18,100.00028228759766
2015-11-19,99.88444519042969
2015-11-20,102.96331024169922
2015-11-23,103.6099853515625
2015-11-24,101.53488159179688
2015-11-25,102.3070068359375
2015-11-27,103.90916442871094
2015-11-30,103.05982971191406
2015-12-01,102.98260498046875
2015-12-02,102.73168182373047
2015-12-03,105.68505859375
2015-12-04,109.9124526977539
2015-12-07,109.60362243652344
2015-12-08,108.98590087890625
2015-12-09,105.69473266601562
2015-12-10,105.376220703125
2015-12-11,102.93437194824219
2015-12-14,104.49793243408203
2015-12-15,104.23733520507812
2015-12-16,105.41480255126953
2015-12-17,104.16010284423828
2015-12-18,101.22600555419922
2015-12-21,101.94025421142578
2015-12-22,101.14881896972656
2015-12-23,101.11019897460938
2015-12-24,107.2582778930664
2015-12-28,108.77357482910156
2015-12-29,110.2599105834961
2015-12-30,109.02452087402344
2015-12-31,107.70223999023438
2016-01-04,105.47272491455078
2016-01-05,106.25450134277344
2016-01-06,104.97084045410156
2016-01-07,103.330078125
2016-01-08,102.04642486572266
2016-01-11,102.80888366699219
2016-01-12,102.57723999023438
2016-01-13,99.31499481201172
2016-01-14,100.8013687133789
2016-01-15,98.22438049316406
2016-01-19,98.8131332397461
2016-01-20,99.71072387695312
2016-01-21,98.35948944091797
2016-01-22,99.7010726928711
2016-01-25,98.41741180419922
2016-01-26,100.74345397949219
2016-01-27,104.50755310058594
2016-01-28,108.06900787353516
2016-01-29,112.18058013916016
2016-02-01,111.72696685791016
2016-02-02,110.63634490966797
2016-02-03,109.87386322021484
2016-02-04,107.6250228881836
2016-02-05,102.88609313964844
2016-02-08,101.66999053955078
2016-02-09,103.50833129882812
2016-02-10,101.87317657470703
2016-02-11,102.6762466430664
2016-02-12,105.28862762451172
2016-02-16,107.1947021484375
2016-02-17,110.44566345214844
2016-02-18,108.27835845947266
2016-02-19,110.42630004882812
2016-02-22,107.63976287841797
2016-02-23,111.50994873046875
2016-02-24,112.23562622070312
2016-02-25,115.38016510009766
2016-02-26,116.00906372070312
2016-02-29,114.61579132080078
2016-03-01,114.47065734863281
2016-03-02,116.06709289550781
2016-03-03,116.84117126464844
2016-03-04,122.19169616699219
2016-03-07,118.06993103027344
2016-03-08,119.77284240722656
2016-03-09,118.6214599609375
2016-03-10,121.84339141845703
2016-03-11,120.87582397460938
2016-03-14,120.15017700195312
2016-03-15,119.07618713378906
2016-03-16,119.10521697998047
2016-03-17,119.66638946533203
2016-03-18,120.31465911865234
2016-03-21,118.37957000732422
2016-03-22,118.01188659667969
2016-03-23,117.21849822998047
2016-03-24,116.29931640625
2016-03-28,117.08304595947266
2016-03-29,119.8405532836914
2016-03-30,119.60835266113281
2016-03-31,120.77908325195312
2016-04-01,124.40740966796875
2016-04-04,122.40455627441406
2016-04-05,119.1148910522461
2016-04-06,121.32091522216797
2016-04-07,119.97601318359375
2016-04-08,119.01813507080078
2016-04-11,117.60552978515625
2016-04-12,117.9151382446289
2016-04-13,120.94355773925781
2016-04-14,121.61114501953125
2016-04-15,120.6339340209961
2016-04-18,120.41140747070312
2016-04-19,122.08525848388672
2016-04-20,124.92017364501953
2016-04-21,124.07843017578125
2016-04-22,125.25884246826172
2016-04-25,124.40740966796875
2016-04-26,125.20075988769531
2016-04-27,121.63053131103516
2016-04-28,119.73414611816406
2016-04-29,118.77626037597656
2016-05-02,119.30839538574219
2016-05-03,116.93791198730469
2016-05-04,118.74723052978516
2016-05-05,120.37271881103516
2016-05-06,121.3886489868164
2016-05-09,123.15922546386719
2016-05-10,123.24650573730469
2016-05-11,124.7880630493164
2016-05-12,127.9002456665039
2016-05-13,126.62047576904297
2016-05-16,128.55950927734375
2016-05-17,127.2409896850586
2016-05-18,129.3545379638672
2016-05-19,129.0830841064453
2016-05-20,130.33377075195312
2016-05-23,130.2755889892578
2016-05-24,134.2506866455078
2016-05-25,135.73406982421875
2016-05-26,134.5318603515625
2016-05-27,136.29635620117188
2016-05-31,135.6758575439453
2016-06-01,136.3641815185547
2016-06-02,137.1398468017578
2016-06-03,137.3822479248047
2016-06-06,138.88504028320312
2016-06-07,137.43072509765625
2016-06-08,139.17588806152344
2016-06-09,137.89608764648438
2016-06-10,137.5179901123047
2016-06-13,137.740966796875
2016-06-14,137.1786346435547
2016-06-15,137.28524780273438
2016-06-16,138.17727661132812
2016-06-17,136.1994171142578
2016-06-20,136.6550750732422
2016-06-21,134.50271606445312
2016-06-22,134.99722290039062
2016-06-23,139.73817443847656
2016-06-24,134.93902587890625
2016-06-27,131.7298583984375
2016-06-28,136.9556427001953
2016-06-29,137.6925048828125
2016-06-30,140.969482421875
2016-07-01,139.21466064453125
2016-07-05,140.18417358398438
2016-07-06,145.4584197998047
2016-07-07,144.72158813476562
2016-07-08,147.09693908691406
2016-07-11,146.2146453857422
2016-07-12,146.47642517089844
2016-07-13,146.1079864501953
2016-07-14,146.893310546875
2016-07-15,146.79638671875
2016-07-18,145.4002685546875
2016-07-19,147.3974609375
2016-07-20,147.41685485839844
2016-07-21,146.76730346679688
2016-07-22,148.0858612060547
2016-07-25,148.7936248779297
2016-07-26,149.02627563476562
2016-07-27,149.113525390625
2016-07-28,154.8919219970703
2016-07-29,156.73402404785156
2016-08-01,156.5498504638672
2016-08-02,156.8988494873047
2016-08-03,156.8115997314453
2016-08-04,157.461181640625
2016-08-05,157.8683624267578
2016-08-08,156.84066772460938
2016-08-09,156.772705078125
2016-08-10,157.42332458496094
2016-08-11,157.30677795410156
2016-08-12,157.5301513671875
2016-08-15,159.73452758789062
2016-08-16,158.3458709716797
2016-08-17,159.86077880859375
2016-08-18,162.06517028808594
2016-08-19,161.8903350830078
2016-08-22,160.4822540283203
2016-08-23,160.06471252441406
2016-08-24,160.58908081054688
2016-08-25,161.15231323242188
2016-08-26,161.35623168945312
2016-08-29,162.9585418701172
2016-08-30,164.05589294433594
2016-08-31,163.66744995117188
2016-09-01,164.62879943847656
2016-09-02,167.5518035888672
2016-09-06,163.9976348876953
2016-09-07,164.13357543945312
2016-09-08,163.84225463867188
2016-09-09,166.42532348632812
2016-09-12,167.0468292236328
2016-09-13,164.60939025878906
2016-09-14,164.61911010742188
2016-09-15,168.3286895751953
2016-09-16,167.76541137695312
2016-09-19,165.80381774902344
2016-09-20,167.83343505859375
2016-09-21,168.3286895751953
2016-09-22,167.84312438964844
2016-09-23,165.8135528564453
2016-09-26,163.02651977539062
2016-09-27,165.34739685058594
2016-09-28,166.06602478027344
2016-09-29,161.33682250976562
2016-09-30,160.80276489257812
2016-10-03,159.4140625
2016-10-04,157.5107421875
2016-10-05,156.6270294189453
2016-10-06,155.70449829101562
2016-10-07,154.5877685546875
2016-10-10,154.22848510742188
2016-10-11,152.354248046875
2016-10-12,152.6747283935547
2016-10-13,150.48007202148438
2016-10-14,149.76144409179688
2016-10-17,147.88726806640625
2016-10-18,150.27609252929688
2016-10-19,148.90687561035156
2016-10-20,147.02297973632812
2016-10-21,147.8192596435547
2016-10-24,148.82920837402344
2016-10-25,147.8192596435547
2016-10-26,148.72235107421875
2016-10-27,146.28492736816406
2016-10-28,145.7896728515625
2016-10-31,146.4014434814453
2016-11-01,144.02230834960938
2016-11-02,143.42022705078125
2016-11-03,143.52703857421875
2016-11-04,146.11985778808594
2016-11-07,148.9506378173828
2016-11-08,150.98370361328125
2016-11-09,156.85923767089844
2016-11-10,155.55575561523438
2016-11-11,157.51100158691406
2016-11-14,161.10052490234375
2016-11-15,159.1549835205078
2016-11-16,161.3145294189453
2016-11-17,166.36322021484375
2016-11-18,164.84568786621094
2016-11-21,165.45852661132812
2016-11-22,164.7678680419922
2016-11-23,163.87290954589844
2016-11-25,165.0013427734375
2016-11-28,164.54412841796875
2016-11-29,164.3592987060547
2016-11-30,161.25616455078125
2016-12-01,158.4643096923828
2016-12-02,157.4915313720703
2016-12-05,159.5927276611328
2016-12-06,161.84957885742188
2016-12-07,159.01881408691406
2016-12-08,160.44873046875
2016-12-09,162.42349243164062
2016-12-12,163.61024475097656
2016-12-13,164.33010864257812
2016-12-14,160.04025268554688
2016-12-15,162.5694122314453
2016-12-16,157.9681854248047
2016-12-19,156.2755889892578
2016-12-20,152.7833251953125
2016-12-21,149.4856719970703
2016-12-22,146.11013793945312
2016-12-23,145.35137939453125
2016-12-27,145.41946411132812
2016-12-28,144.3883514404297
2016-12-29,141.5673065185547
2016-12-30,142.91943359375
2017-01-03,146.0906982421875
2017-01-04,148.75607299804688
2017-01-05,148.55177307128906
2017-01-06,152.8708953857422
2017-01-09,152.5206756591797
2017-01-10,151.81056213378906
2017-01-11,152.7152862548828
2017-01-12,152.09268188476562
2017-01-13,152.5790557861328
2017-01-17,151.2755584716797
2017-01-18,152.248291015625
2017-01-19,151.003173828125
2017-01-20,152.6179656982422
2017-01-23,151.15884399414062
2017-01-24,154.04794311523438
2017-01-25,171.19789123535156
2017-01-26,175.4975128173828
2017-01-27,174.92359924316406
2017-01-30,176.40220642089844
2017-01-31,182.15126037597656
2017-02-01,183.0170440673828
2017-02-02,182.9781494140625
2017-02-03,186.06182861328125
2017-02-06,185.09878540039062
2017-02-07,184.5043182373047
2017-02-08,182.68209838867188
2017-02-09,183.5201416015625
2017-02-10,182.04872131347656
2017-02-13,184.95260620117188
2017-02-14,185.2156982421875
2017-02-15,186.7943115234375
2017-02-16,186.78456115722656
2017-02-17,188.14886474609375
2017-02-21,187.81752014160156
2017-02-22,190.03929138183594
2017-02-23,189.8736114501953
2017-02-24,191.16964721679688
2017-02-27,190.0100860595703
2017-02-28,190.2439422607422
2017-03-01,192.68980407714844
2017-03-02,187.04769897460938
2017-03-03,188.899169921875
2017-03-06,187.87603759765625
2017-03-07,187.62261962890625
2017-03-08,186.09274291992188
2017-03-09,187.20358276367188
2017-03-10,186.60919189453125
2017-03-13,186.78456115722656
2017-03-14,186.35581970214844
2017-03-15,186.23887634277344
2017-03-16,185.90756225585938
2017-03-17,185.19622802734375
2017-03-20,184.98184204101562
2017-03-21,179.71975708007812
2017-03-22,183.14987182617188
2017-03-23,182.2240753173828
2017-03-24,182.90623474121094
2017-03-27,180.26544189453125
2017-03-28,181.16197204589844
2017-03-29,180.38238525390625
2017-03-30,181.19119262695312
2017-03-31,182.70159912109375
2017-04-03,182.37026977539062
2017-04-04,181.12294006347656
2017-04-05,175.5003662109375
2017-04-06,176.90353393554688
2017-04-07,178.06314086914062
2017-04-10,178.5796356201172
2017-04-11,178.26779174804688
2017-04-12,176.20193481445312
2017-04-13,173.5221710205078
2017-04-17,178.03390502929688
2017-04-18,178.38475036621094
2017-04-19,178.31654357910156
2017-04-20,180.56753540039062
2017-04-21,179.8853759765625
2017-04-24,180.86961364746094
2017-04-25,179.95359802246094
2017-04-26,189.58128356933594
2017-04-27,190.87733459472656
2017-04-28,187.60313415527344
2017-05-01,187.2133331298828
2017-05-02,184.53355407714844
2017-05-03,182.06820678710938
2017-05-04,181.73687744140625
2017-05-05,183.04266357421875
2017-05-08,181.2593994140625
2017-05-09,182.09890747070312
2017-05-10,183.68035888671875
2017-05-11,183.84628295898438
2017-05-12,181.95248413085938
2017-05-15,183.90487670898438
2017-05-16,180.32225036621094
2017-05-17,177.99891662597656
2017-05-18,177.71580505371094
2017-05-19,181.9622344970703
2017-05-22,180.98605346679688
2017-05-23,183.52418518066406
2017-05-24,187.1165313720703
2017-05-25,190.90414428710938
2017-05-26,189.5472869873047
2017-05-30,186.65774536132812
2017-05-31,186.04273986816406
2017-06-01,187.39964294433594
2017-06-02,187.0384521484375
2017-06-05,185.96461486816406
2017-06-06,183.514404296875
2017-06-07,190.1134490966797
2017-06-08,194.58441162109375
2017-06-09,197.13226318359375
2017-06-12,199.4751434326172
2017-06-13,201.24203491210938
2017-06-14,201.83755493164062
2017-06-15,202.4036865234375
2017-06-16,200.78323364257812
2017-06-19,202.97962951660156
2017-06-20,202.5013427734375
2017-06-21,197.630126953125
2017-06-22,196.96629333496094
2017-06-23,196.5953826904297
2017-06-26,196.06822204589844
2017-06-27,192.93466186523438
2017-06-28,196.95655822753906
2017-06-29,198.6746368408203
2017-06-30,196.31228637695312
2017-07-03,198.5477294921875
2017-07-05,200.85159301757812
2017-07-06,188.7760772705078
2017-07-07,189.4203338623047
2017-07-10,190.34776306152344
2017-07-11,188.639404296875
2017-07-12,189.1372528076172
2017-07-13,189.5472869873047
2017-07-14,185.8767852783203
2017-07-17,185.91580200195312
2017-07-18,188.0048828125
2017-07-19,189.98654174804688
2017-07-20,190.0451202392578
2017-07-21,190.2794189453125
2017-07-24,192.06581115722656
2017-07-25,194.73081970214844
2017-07-26,200.26585388183594
2017-07-27,200.6270751953125
2017-07-28,202.89181518554688
2017-07-31,198.05967712402344
2017-08-01,199.35801696777344
2017-08-02,200.67588806152344
2017-08-03,200.18777465820312
2017-08-04,201.1053466796875
2017-08-07,197.0834503173828
2017-08-08,193.04519653320312
2017-08-09,194.6292266845703
2017-08-10,191.07005310058594
2017-08-11,188.18553161621094
2017-08-14,188.96780395507812
2017-08-15,188.21490478515625
2017-08-16,188.69403076171875
2017-08-17,187.76510620117188
2017-08-18,184.51885986328125
2017-08-21,187.3349151611328
2017-08-22,189.0460205078125
2017-08-23,189.7793731689453
2017-08-24,186.37664794921875
2017-08-25,186.36691284179688
2017-08-28,185.70196533203125
2017-08-29,184.67530822753906
2017-08-30,187.1490936279297
2017-08-31,188.6646728515625
2017-09-01,184.78285217285156
2017-09-05,183.30641174316406
2017-09-06,172.6582794189453
2017-09-07,172.30625915527344
2017-09-08,174.41827392578125
2017-09-11,175.81651306152344
2017-09-12,176.0805206298828
2017-09-13,176.7552032470703
2017-09-14,177.18544006347656
2017-09-15,175.20050048828125
2017-09-18,176.42271423339844
2017-09-19,175.98275756835938
2017-09-20,177.30274963378906
2017-09-21,175.52317810058594
2017-09-22,178.44677734375
2017-09-25,174.5355987548828
2017-09-26,172.2866668701172
2017-09-27,174.8778533935547
2017-09-28,178.84765625
2017-09-29,180.4121551513672
2017-10-02,181.66371154785156
2017-10-03,180.959716796875
2017-10-04,179.95254516601562
2017-10-05,182.49484252929688
2017-10-06,183.2868194580078
2017-10-09,185.16416931152344
2017-10-10,183.4823760986328
2017-10-11,187.4522247314453
2017-10-12,185.94644165039062
2017-10-13,187.03176879882812
2017-10-16,188.1171112060547
2017-10-17,187.13931274414062
2017-10-18,189.1829071044922
2017-10-19,184.479736328125
2017-10-20,186.03440856933594
2017-10-23,186.99267578125
2017-10-24,185.8584442138672
2017-10-25,175.68942260742188
2017-10-26,175.4449462890625
2017-10-27,171.6902313232422
2017-10-30,169.2066650390625
2017-10-31,170.13555908203125
2017-11-01,171.8271484375
2017-11-02,172.58004760742188
2017-11-03,173.06890869140625
2017-11-06,175.95339965820312
2017-11-07,174.3762664794922
2017-11-08,175.10116577148438
2017-11-09,170.93792724609375
2017-11-10,169.9485626220703
2017-11-13,170.95753479003906
2017-11-14,170.38934326171875
2017-11-15,174.190185546875
2017-11-16,172.65220642089844
2017-11-17,176.71754455566406
2017-11-20,179.54847717285156
2017-11-21,184.5640106201172
2017-11-22,184.1427459716797
2017-11-24,184.62274169921875
2017-11-27,184.7108917236328
2017-11-28,189.48153686523438
2017-11-29,192.03819274902344
2017-11-30,191.283935546875
2017-12-01,191.36231994628906
2017-12-04,193.1647491455078
2017-12-05,192.0872039794922
2017-12-06,193.00799560546875
2017-12-07,191.60719299316406
2017-12-08,191.99905395507812
2017-12-11,192.8022918701172
2017-12-12,193.18434143066406
2017-12-13,192.24391174316406
2017-12-14,191.0880126953125
2017-12-15,189.89292907714844
2017-12-18,195.29046630859375
2017-12-19,197.9745330810547
2017-12-20,198.7679901123047
2017-12-21,197.60226440429688
2017-12-22,197.6316680908203
2017-12-26,196.91659545898438
2017-12-27,196.89698791503906
2017-12-28,197.6904296875
2017-12-29,197.6316680908203
2018-01-02,199.4733123779297
2018-01-03,196.8382110595703
2018-01-04,202.3238983154297
2018-01-05,202.99978637695312
2018-01-08,203.17613220214844
2018-01-09,200.38430786132812
2018-01-10,202.1671600341797
2018-01-11,197.40634155273438
2018-01-12,199.5614776611328
2018-01-16,202.2455291748047
2018-01-17,203.13693237304688
2018-01-18,203.61692810058594
2018-01-19,204.1361083984375
2018-01-22,197.15167236328125
2018-01-23,191.97947692871094
2018-01-24,191.74435424804688
2018-01-25,189.62844848632812
2018-01-26,189.54029846191406
2018-01-29,186.8953857421875
2018-01-30,187.93377685546875
2018-01-31,192.2047882080078
2018-02-01,191.60719299316406
2018-02-02,192.28309631347656
2018-02-05,193.1060028076172
2018-02-06,191.2741241455078
2018-02-07,191.02923583984375
2018-02-08,185.1615447998047
2018-02-09,185.29867553710938
2018-02-12,187.59091186523438
2018-02-13,189.7703857421875
2018-02-14,193.99183654785156
2018-02-15,195.2681121826172
2018-02-16,197.7224578857422
2018-02-20,196.46583557128906
2018-02-21,198.30169677734375
2018-02-22,195.75894165039062
2018-02-23,194.0703887939453
2018-02-26,196.0240478515625
2018-02-27,197.33956909179688
2018-02-28,198.70419311523438
2018-03-01,201.8457794189453
2018-03-02,199.1754608154297
2018-03-05,205.38003540039062
2018-03-06,207.6085968017578
2018-03-07,208.6001434326172
2018-03-08,212.77252197265625
2018-03-09,214.88330078125
2018-03-12,219.07530212402344
2018-03-13,219.88034057617188
2018-03-14,219.4876251220703
2018-03-15,219.99813842773438
2018-03-16,220.489013671875
2018-03-19,218.6826171875
2018-03-20,220.1257781982422
2018-03-21,219.291259765625
2018-03-22,217.2001953125
2018-03-23,215.53123474121094
2018-03-26,217.66160583496094
2018-03-27,213.3125
2018-03-28,209.0909881591797
2018-03-29,213.4695587158203
2018-04-02,208.3939971923828
2018-04-03,209.51315307617188
2018-04-04,208.36453247070312
2018-04-05,204.6339111328125
2018-04-06,202.90602111816406
2018-04-09,204.0154266357422
2018-04-10,202.61154174804688
2018-04-11,202.09120178222656
2018-04-12,199.7644805908203
2018-04-13,198.3802490234375
2018-04-16,200.66770935058594
2018-04-17,202.2286376953125
2018-04-18,199.38162231445312
2018-04-19,198.9692840576172
2018-04-20,198.8023681640625
2018-04-23,198.37039184570312
2018-04-24,197.21194458007812
2018-04-25,195.6510009765625
2018-04-26,195.8375244140625
2018-04-27,195.62155151367188
2018-04-30,195.00306701660156
2018-05-01,197.84027099609375
2018-05-02,198.33116149902344
2018-05-03,195.36630249023438
2018-05-04,198.05624389648438
2018-05-07,200.2946319580078
2018-05-08,199.99951171875
2018-05-09,202.4097137451172
2018-05-10,201.28823852539062
2018-05-11,202.39002990722656
2018-05-14,196.3890838623047
2018-05-15,198.0516357421875
2018-05-16,198.9567108154297
2018-05-17,199.52728271484375
2018-05-18,201.3964385986328
2018-05-21,207.17111206054688
2018-05-22,206.8956756591797
2018-05-23,206.60055541992188
2018-05-24,208.39102172851562
2018-05-25,207.1317901611328
2018-05-29,207.51548767089844
2018-05-30,212.640869140625
2018-05-31,210.18145751953125
2018-06-01,213.3295135498047
2018-06-04,214.41163635253906
2018-06-05,205.3118133544922
2018-06-06,207.84010314941406
2018-06-07,209.00094604492188
2018-06-08,211.4013214111328
2018-06-11,214.5985565185547
2018-06-12,211.971923828125
2018-06-13,213.20164489746094
2018-06-14,213.7820281982422
2018-06-15,211.61776733398438
2018-06-18,210.3979034423828
2018-06-19,210.85044860839844
2018-06-20,209.5813446044922
2018-06-21,208.2532958984375
2018-06-22,207.57447814941406
2018-06-25,202.08505249023438
2018-06-26,199.4190673828125
2018-06-27,197.05804443359375
2018-06-28,199.36004638671875
2018-06-29,194.64781188964844
2018-07-02,197.4613800048828
2018-07-03,196.35955810546875
2018-07-05,196.54649353027344
2018-07-06,199.2616729736328
2018-07-09,199.5076141357422
2018-07-10,198.35658264160156
2018-07-11,200.79635620117188
2018-07-12,203.23606872558594
2018-07-13,202.51795959472656
2018-07-16,202.635986328125
2018-07-17,204.2198486328125
2018-07-18,206.3546142578125
2018-07-19,205.51841735839844
2018-07-20,206.80714416503906
2018-07-23,207.09243774414062
2018-07-24,206.19720458984375
2018-07-25,199.6157989501953
2018-07-26,197.1170654296875
2018-07-27,195.3758087158203
2018-07-30,189.08953857421875
2018-07-31,190.62420654296875
2018-08-01,190.38809204101562
2018-08-02,187.71229553222656
2018-08-03,186.56126403808594
2018-08-06,186.60061645507812
2018-08-07,186.36448669433594
2018-08-08,183.61370849609375
2018-08-09,183.36721801757812
2018-08-10,183.85032653808594
2018-08-13,183.34751892089844
2018-08-14,183.82073974609375
2018-08-15,184.6094970703125
2018-08-16,185.32925415039062
2018-08-17,186.4236602783203
2018-08-20,187.35044860839844
2018-08-21,187.99130249023438
2018-08-22,188.06033325195312
2018-08-23,186.52224731445312
2018-08-24,184.74754333496094
2018-08-27,184.58981323242188
2018-08-28,185.87152099609375
2018-08-29,187.3701629638672
2018-08-30,187.31100463867188
2018-08-31,187.1532745361328
2018-09-04,191.64920043945312
2018-09-05,188.50404357910156
2018-09-06,181.5826416015625
2018-09-07,184.3334503173828
2018-09-10,180.4192352294922
2018-09-11,181.7798309326172
2018-09-12,181.50375366210938
2018-09-13,180.72488403320312
2018-09-14,180.87274169921875
2018-09-17,177.26417541503906
2018-09-18,179.0881805419922
2018-09-19,180.05442810058594
2018-09-20,180.6657257080078
2018-09-21,179.30508422851562
2018-09-24,181.59249877929688
2018-09-25,179.06845092773438
2018-09-26,176.672607421875
2018-09-27,175.6669464111328
2018-09-28,175.98245239257812
2018-10-01,171.44705200195312
2018-10-02,175.59791564941406
2018-10-03,180.5670928955078
2018-10-04,188.83924865722656
2018-10-05,186.877197265625
2018-10-08,183.44606018066406
2018-10-09,186.03915405273438
2018-10-10,184.185546875
2018-10-11,182.59815979003906
2018-10-12,184.86585998535156
2018-10-15,187.06454467773438
2018-10-16,190.88015747070312
2018-10-17,193.3154754638672
2018-10-18,191.98440551757812
2018-10-19,194.65634155273438
2018-10-22,193.5816650390625
2018-10-23,190.16041564941406
2018-10-24,205.9947967529297
2018-10-25,207.69061279296875
2018-10-26,204.84121704101562
2018-10-29,206.10324096679688
2018-10-30,214.207763671875
2018-10-31,206.724365234375
2018-11-01,205.6595916748047
2018-11-02,210.78651428222656
2018-11-05,204.18063354492188
2018-11-06,204.7635498046875
2018-11-07,205.57363891601562
2018-11-08,203.736083984375
2018-11-09,205.96884155273438
2018-11-12,204.90182495117188
2018-11-13,205.28717041015625
2018-11-14,207.55943298339844
2018-11-15,207.50018310546875
2018-11-16,210.89874267578125
2018-11-19,212.06451416015625
2018-11-20,214.41586303710938
2018-11-21,212.30165100097656
2018-11-23,210.92837524414062
2018-11-26,212.51898193359375
2018-11-27,215.2062225341797
2018-11-28,213.3982696533203
2018-11-29,212.459716796875
2018-11-30,215.107421875
2018-12-03,216.6486053466797
2018-12-04,219.3161163330078
2018-12-06,219.23707580566406
2018-12-07,222.0231170654297
2018-12-10,223.67300415039062
2018-12-11,225.93540954589844
2018-12-12,225.5204620361328
2018-12-13,226.57757568359375
2018-12-14,223.7718048095703
2018-12-17,216.71780395507812
2018-12-18,210.79994201660156
2018-12-19,210.48379516601562
2018-12-20,206.8579864501953
2018-12-21,202.38258361816406
2018-12-24,196.92906188964844
2018-12-26,202.0071258544922
2018-12-27,203.3705291748047
2018-12-28,205.05003356933594
2018-12-31,208.76473999023438
2019-01-02,206.69004821777344
2019-01-03,205.25750732421875
2019-01-04,211.71878051757812
2019-01-07,214.24790954589844
2019-01-08,214.07994079589844
2019-01-09,210.5727081298828
2019-01-10,210.10838317871094
2019-01-11,210.02932739257812
2019-01-14,205.07968139648438
2019-01-15,208.3399200439453
2019-01-16,213.645263671875
2019-01-17,213.38839721679688
2019-01-18,216.53997802734375
2019-01-22,215.67056274414062
2019-01-23,217.162353515625
2019-01-24,216.1151580810547
2019-01-25,216.80670166015625
2019-01-28,215.67056274414062
2019-01-29,210.92837524414062
2019-01-30,207.68788146972656
2019-01-31,212.18307495117188
2019-02-01,211.04693603515625
2019-02-04,213.82305908203125
2019-02-05,216.00645446777344
2019-02-06,216.20407104492188
2019-02-07,217.8539276123047
2019-02-08,218.01202392578125
2019-02-11,220.86720275878906
2019-02-12,223.20411682128906
2019-02-13,225.99647521972656
2019-02-14,224.54087829589844
2019-02-15,227.26397705078125
2019-02-19,230.26431274414062
2019-02-20,231.2842559814453
2019-02-21,232.8586883544922
2019-02-22,236.6313934326172
2019-02-25,239.02772521972656
2019-02-26,238.09690856933594
2019-02-27,242.10728454589844
2019-02-28,241.49337768554688
2019-03-01,240.71107482910156
2019-03-04,235.2351837158203
2019-03-05,231.63082885742188
2019-03-06,228.2640838623047
2019-03-07,223.2338104248047
2019-03-08,223.4615478515625
2019-03-11,224.93698120117188
2019-03-12,227.53134155273438
2019-03-13,228.21458435058594
2019-03-14,229.54147338867188
2019-03-15,231.155517578125
2019-03-18,235.3144073486328
2019-03-19,233.3141632080078
2019-03-20,234.89852905273438
2019-03-21,237.8097381591797
2019-03-22,236.007568359375
2019-03-25,236.7799530029297
2019-03-26,241.2952880859375
2019-03-27,242.68161010742188
2019-03-28,244.1075439453125
2019-03-29,243.67181396484375
2019-04-01,244.30555725097656
2019-04-02,246.25628662109375
2019-04-03,244.26596069335938
2019-04-04,245.97901916503906
2019-04-05,251.40536499023438
2019-04-08,255.61380004882812
2019-04-09,256.4554748535156
2019-04-10,255.93064880371094
2019-04-11,254.70281982421875
2019-04-12,257.3070983886719
2019-04-15,259.1785888671875
2019-04-16,260.3470458984375
2019-04-17,259.663818359375
2019-04-18,261.3372802734375
2019-04-22,259.56475830078125
2019-04-23,259.93115234375
2019-04-24,261.7927551269531
2019-04-25,262.8621520996094
2019-04-26,267.0408630371094
2019-04-29,273.5960693359375
2019-04-30,275.6062316894531
2019-05-01,279.2799377441406
2019-05-02,280.14141845703125
2019-05-03,283.25067138671875
2019-05-06,287.59771728515625
2019-05-07,277.61859130859375
2019-05-08,278.5610046386719
2019-05-09,275.763671875
2019-05-10,278.68994140625
2019-05-13,279.38427734375
2019-05-14,285.0781555175781
2019-05-15,284.6912841796875
2019-05-16,287.1017150878906
2019-05-17,289.8197021484375
2019-05-20,291.2282409667969
2019-05-21,289.6907653808594
2019-05-22,290.1371154785156
2019-05-23,289.27410888671875
2019-05-24,286.0006408691406
2019-05-28,278.80902099609375
2019-05-29,279.0569763183594
2019-05-30,281.67572021484375
2019-05-31,295.4242248535156
2019-06-03,291.8532409667969
2019-06-04,296.7137756347656
2019-06-05,314.25152587890625
2019-06-06,324.2306213378906
2019-06-07,331.91827392578125
2019-06-10,337.165771484375
2019-06-11,331.3033142089844
2019-06-12,322.663330078125
2019-06-13,315.1145935058594
2019-06-14,317.47540283203125
2019-06-17,315.9378356933594
2019-06-18,315.9874572753906
2019-06-19,328.72418212890625
2019-06-20,328.69439697265625
2019-06-21,330.40057373046875
2019-06-24,330.3410949707031
2019-06-25,316.4735412597656
2019-06-26,310.1548156738281
2019-06-27,313.7952880859375
2019-06-28,318.8343811035156
2019-07-01,319.98504638671875
2019-07-02,328.2282409667969
2019-07-03,335.7770080566406
2019-07-05,339.14959716796875
2019-07-08,338.7528991699219
2019-07-09,340.1416015625
2019-07-10,346.5893249511719
2019-07-11,351.6780700683594
2019-07-12,355.3978576660156
2019-07-15,357.8876647949219
2019-07-16,360.18902587890625
2019-07-17,365.0694580078125
2019-07-18,369.801025390625
2019-07-19,364.0774841308594
2019-07-22,367.499755859375
2019-07-23,364.8512268066406
2019-07-24,331.56121826171875
2019-07-25,341.2327575683594
2019-07-26,345.1410827636719
2019-07-29,334.18988037109375
2019-07-30,333.3467102050781
2019-07-31,334.3287658691406
2019-08-01,337.5624694824219
2019-08-02,337.889892578125
2019-08-05,338.7231140136719
2019-08-06,342.5776062011719
2019-08-07,346.6308898925781
2019-08-08,350.04827880859375
2019-08-09,359.7740783691406
2019-08-12,360.8768005371094
2019-08-13,364.61212158203125
2019-08-14,354.32012939453125
2019-08-15,362.7245788574219
2019-08-16,363.80743408203125
2019-08-19,366.48974609375
2019-08-20,372.8675842285156
2019-08-21,386.6763916015625
2019-08-22,390.03424072265625
2019-08-23,386.0704345703125
2019-08-26,392.517822265625
2019-08-27,403.0184631347656
2019-08-28,401.8064880371094
2019-08-29,389.6766357421875
2019-08-30,395.0113830566406
2019-09-03,399.4718933105469
2019-09-04,405.92926025390625
2019-09-05,409.25726318359375
2019-09-06,416.6484375
2019-09-09,367.2646179199219
2019-09-10,339.8158874511719
2019-09-11,339.19000244140625
2019-09-12,342.87567138671875
2019-09-13,328.12310791015625
2019-09-16,332.15643310546875
2019-09-17,340.2331237792969
2019-09-18,341.7431640625
2019-09-19,340.5013732910156
2019-09-20,335.9613342285156
2019-09-23,333.34857177734375
2019-09-24,333.89495849609375
2019-09-25,331.32196044921875
2019-09-26,329.82183837890625
2019-09-27,322.5797119140625
2019-09-30,325.3514099121094
2019-10-01,322.8777160644531
2019-10-02,316.6389465332031
2019-10-03,334.6499328613281
2019-10-04,344.673828125
2019-10-07,345.5082702636719
2019-10-08,344.3956298828125
2019-10-09,352.9391784667969
2019-10-10,356.7341613769531
2019-10-11,345.9056701660156
2019-10-14,347.13751220703125
2019-10-15,347.0282287597656
2019-10-16,338.1866455078125
2019-10-17,347.40576171875
2019-10-18,350.56488037109375
2019-10-21,351.08148193359375
2019-10-22,338.4151306152344
2019-10-23,339.9350891113281
2019-10-24,347.1673278808594
2019-10-25,341.8127136230469
2019-10-28,346.5811462402344
2019-10-29,349.1839904785156
2019-10-30,356.7937927246094
2019-10-31,366.17181396484375
2019-11-01,363.7378845214844
2019-11-04,356.0486755371094
2019-11-05,341.9615478515625
2019-11-06,346.0205078125
2019-11-07,347.80133056640625
2019-11-08,345.3639221191406
2019-11-11,357.88916015625
2019-11-12,364.0472717285156
2019-11-13,372.4339294433594
2019-11-14,377.2689514160156
2019-11-15,379.0994873046875
2019-11-18,387.5159606933594
2019-11-19,398.1111755371094
2019-11-20,402.4089050292969
2019-11-21,391.86346435546875
2019-11-22,390.31146240234375
2019-11-25,395.1365661621094
2019-11-26,399.8322448730469
2019-11-27,404.3389587402344
2019-11-29,401.74237060546875
2019-12-02,396.9173278808594
2019-12-03,395.6240539550781
2019-12-04,391.96295166015625
2019-12-05,379.2188720703125
2019-12-06,373.9660339355469
2019-12-09,365.1317138671875
2019-12-10,368.09637451171875
2019-12-11,374.871337890625
2019-12-12,367.55914306640625
2019-12-13,371.96636962890625
2019-12-16,372.7622375488281
2019-12-17,371.6181640625
2019-12-18,367.9969177246094
2019-12-19,375.6274108886719
2019-12-20,374.3838806152344
2019-12-23,369.4493713378906
2019-12-24,372.1553955078125
2019-12-26,374.16497802734375
2019-12-27,373.0706481933594
2019-12-30,372.5732116699219
2019-12-31,377.15948486328125
