Date,MMS
2007-12-31,7.941015243530273
2008-01-02,7.817610263824463
2008-01-03,7.679811477661133
2008-01-04,7.720946311950684
2008-01-07,7.613998889923096
2008-01-08,7.539955139160156
2008-01-09,7.646902084350586
2008-01-10,7.661299705505371
2008-01-11,7.634563446044922
2008-01-14,7.710660934448242
2008-01-15,7.367187023162842
2008-01-16,7.39186954498291
2008-01-17,7.128610134124756
2008-01-18,7.235560894012451
2008-01-22,7.22938871383667
2008-01-23,7.122439384460449
2008-01-24,7.243784427642822
2008-01-25,7.221161365509033
2008-01-28,7.247897624969482
2008-01-29,7.326053619384766
2008-01-30,7.21087646484375
2008-01-31,7.27463436126709
2008-02-01,7.558466911315918
2008-02-04,7.474137306213379
2008-02-05,7.387756824493408
2008-02-06,7.367187023162842
2008-02-07,7.344563961029053
2008-02-08,7.502931594848633
2008-02-11,7.488534927368164
2008-02-12,7.564631938934326
2008-02-13,7.760091304779053
2008-02-14,7.691477298736572
2008-02-15,7.714344501495361
2008-02-19,7.685238361358643
2008-02-20,7.787123203277588
2008-02-21,7.683157444000244
2008-02-22,7.641571998596191
2008-02-25,7.651970863342285
2008-02-26,7.797518253326416
2008-02-27,7.918122291564941
2008-02-28,7.837026596069336
2008-02-29,7.552156925201416
2008-03-03,7.670681953430176
2008-03-04,7.631174564361572
2008-03-05,7.666522026062012
2008-03-06,7.468986511230469
2008-03-07,7.583349704742432
2008-03-10,7.477301597595215
2008-03-11,7.558394908905029
2008-03-12,7.49393892288208
2008-03-13,7.749695777893066
2008-03-14,7.662362098693848
2008-03-17,7.606220722198486
2008-03-18,7.747618198394775
2008-03-19,7.651970863342285
2008-03-20,7.747618198394775
2008-03-24,8.047039985656738
2008-03-25,7.8349480628967285
2008-03-26,7.928520202636719
2008-03-27,7.793360233306885
2008-03-28,7.753854274749756
2008-03-31,7.633252143859863
2008-04-01,7.886936187744141
2008-04-02,7.814152717590332
2008-04-03,7.70395040512085
2008-04-04,7.753854274749756
2008-04-07,7.789201736450195
2008-04-08,7.747618198394775
2008-04-09,7.545920372009277
2008-04-10,7.77048921585083
2008-04-11,7.678999900817871
2008-04-14,7.687312602996826
2008-04-15,7.799600124359131
2008-04-16,7.959707736968994
2008-04-17,7.907724857330322
2008-04-18,7.976343631744385
2008-04-21,7.922277450561523
2008-04-22,7.86405611038208
2008-04-23,7.824549198150635
2008-04-24,7.936835289001465
2008-04-25,7.884853363037109
2008-04-28,7.901489734649658
2008-04-29,7.924359321594238
2008-04-30,7.884853363037109
2008-05-01,7.995058536529541
2008-05-02,7.911884784698486
2008-05-05,7.882771015167236
2008-05-06,7.841184616088867
2008-05-07,7.807916641235352
2008-05-08,7.70395040512085
2008-05-09,7.726823806762695
2008-05-12,7.930598258972168
2008-05-13,8.105011940002441
2008-05-14,8.033563613891602
2008-05-15,8.10711669921875
2008-05-16,8.03777027130127
2008-05-19,7.859151363372803
2008-05-20,7.775094985961914
2008-05-21,7.7687883377075195
2008-05-22,7.878060817718506
2008-05-23,7.9221906661987305
2008-05-27,7.888570308685303
2008-05-28,7.833933353424072
2008-05-29,7.791906833648682
2008-05-30,7.726765155792236
2008-06-02,7.649014949798584
2008-06-03,7.558656692504883
2008-06-04,7.6069865226745605
2008-06-05,7.697348117828369
2008-06-06,7.546045780181885
2008-06-09,7.556551933288574
2008-06-10,7.512423515319824
2008-06-11,7.331705570220947
2008-06-12,7.480902671813965
2008-06-13,7.661619663238525
2008-06-16,7.7099528312683105
2008-06-17,7.684736728668213
2008-06-18,7.684736728668213
2008-06-19,7.758285045623779
2008-06-20,7.602781772613525
2008-06-23,7.539742469787598
2008-06-24,7.472496509552002
2008-06-25,7.535539627075195
2008-06-26,7.363224506378174
2008-06-27,7.352720737457275
2008-06-30,7.31699800491333
2008-07-01,7.180405616760254
2008-07-02,7.167800426483154
2008-07-03,7.243448734283447
2008-07-07,7.180405616760254
2008-07-08,7.291780471801758
2008-07-09,7.2140302658081055
2008-07-10,7.16989803314209
2008-07-11,7.24975061416626
2008-07-14,7.125772953033447
2008-07-15,7.24975061416626
2008-07-16,7.30228853225708
2008-07-17,7.348517894744873
2008-07-18,7.323300361633301
2008-07-21,7.335906982421875
2008-07-22,7.560756683349609
2008-07-23,7.535539627075195
2008-07-24,7.506119728088379
2008-07-25,7.592275142669678
2008-07-28,7.514523983001709
2008-07-29,7.785601615905762
2008-07-30,7.6805315017700195
2008-07-31,7.798213481903076
2008-08-01,7.789806365966797
2008-08-04,7.804516792297363
2008-08-05,7.899078369140625
2008-08-06,7.8633551597595215
2008-08-07,7.300185203552246
2008-08-08,7.518728256225586
2008-08-11,7.7687883377075195
2008-08-12,7.665824890136719
2008-08-13,7.891288757324219
2008-08-14,7.847036838531494
2008-08-15,7.849145412445068
2008-08-18,7.809108734130859
2008-08-19,7.72061014175415
2008-08-20,7.857574939727783
2008-08-21,7.680576324462891
2008-08-22,7.752216815948486
2008-08-25,7.4698615074157715
2008-08-26,7.594183444976807
2008-08-27,7.621574401855469
2008-08-28,7.804897785186768
2008-08-29,7.7964677810668945
2008-09-02,7.804897785186768
2008-09-03,7.9228973388671875
2008-09-04,7.693221092224121
2008-09-05,7.634217739105225
2008-09-08,7.857574939727783
2008-09-09,7.640538215637207
2008-09-10,7.737466812133789
2008-09-11,7.648965835571289
2008-09-12,7.640538215637207
2008-09-15,7.592073917388916
2008-09-16,7.743790626525879
2008-09-17,7.6089324951171875
2008-09-18,7.9144673347473145
2008-09-19,7.901822566986084
2008-09-22,7.594183444976807
2008-09-23,8.061969757080078
2008-09-24,7.880753993988037
2008-09-25,7.99664831161499
2008-09-26,7.967150688171387
2008-09-29,7.552041053771973
2008-09-30,7.762752056121826
2008-10-01,7.733254909515381
2008-10-02,7.505680084228516
2008-10-03,7.396107196807861
2008-10-06,7.1537861824035645
2008-10-07,6.850354194641113
2008-10-08,6.723926067352295
2008-10-09,6.4710693359375
2008-10-10,6.922000408172607
2008-10-13,6.8840718269348145
2008-10-14,6.69232177734375
2008-10-15,6.342532157897949
2008-10-16,6.643855571746826
2008-10-17,6.570105075836182
2008-10-20,6.753427028656006
2008-10-21,6.608033180236816
2008-10-22,6.414175510406494
2008-10-23,6.49003267288208
2008-10-24,6.266673564910889
2008-10-27,5.975887298583984
2008-10-28,6.1423516273498535
2008-10-29,6.066495895385742
2008-10-30,6.414175510406494
2008-10-31,6.730247497558594
2008-11-03,6.787140846252441
2008-11-04,6.747104167938232
2008-11-05,6.378352642059326
2008-11-06,6.243495464324951
2008-11-07,6.245602130889893
2008-11-10,6.163424491882324
2008-11-11,5.940065383911133
2008-11-12,5.6365437507629395
2008-11-13,6.630474090576172
2008-11-14,6.098239898681641
2008-11-17,6.294887542724609
2008-11-18,6.359012603759766
2008-11-19,5.9593024253845215
2008-11-20,5.839604377746582
2008-11-21,6.3119893074035645
2008-11-24,6.37611198425293
2008-11-25,6.497949600219727
2008-11-26,6.65825891494751
2008-11-28,6.711697101593018
2008-12-01,6.3889360427856445
2008-12-02,6.61550760269165
2008-12-03,6.773684978485107
2008-12-04,6.803610801696777
2008-12-05,7.085758686065674
2008-12-08,7.301642894744873
2008-12-09,7.070795059204102
2008-12-10,7.344393730163574
2008-12-11,7.256755828857422
2008-12-12,7.107130527496338
2008-12-15,7.239655017852783
2008-12-16,7.288818836212158
2008-12-17,7.314469814300537
2008-12-18,7.340116024017334
2008-12-19,7.485467433929443
2008-12-22,7.414929389953613
2008-12-23,7.342252254486084
2008-12-24,7.335840702056885
2008-12-26,7.380727291107178
2008-12-29,7.344393730163574
2008-12-30,7.459817409515381
2008-12-31,7.504703521728516
2009-01-02,7.684250831604004
2009-01-05,7.833874702453613
2009-01-06,7.98563814163208
2009-01-07,7.878764629364014
2009-01-08,7.874486923217773
2009-01-09,7.647912979125977
2009-01-12,7.701350688934326
2009-01-13,7.810360908508301
2009-01-14,7.551727294921875
2009-01-15,7.720589637756348
2009-01-16,7.795403003692627
2009-01-20,7.517529010772705
2009-01-21,7.874486923217773
2009-01-22,7.7783002853393555
2009-01-23,7.827465057373047
2009-01-26,8.011287689208984
2009-01-27,8.128849029541016
2009-01-28,8.227174758911133
2009-01-29,7.940750598907471
2009-01-30,7.942890167236328
2009-02-02,7.92365026473999
2009-02-03,7.970674514770508
2009-02-04,8.137398719787598
2009-02-05,8.098925590515137
2009-02-06,8.015560150146484
2009-02-09,8.227174758911133
2009-02-10,8.015560150146484
2009-02-11,8.065361976623535
2009-02-12,8.156298637390137
2009-02-13,8.138978004455566
2009-02-17,7.900801181793213
2009-02-18,7.907299995422363
2009-02-19,7.846678733825684
2009-02-20,7.7882184982299805
2009-02-23,7.708104133605957
2009-02-24,7.900801181793213
2009-02-25,7.718929290771484
2009-02-26,7.738419055938721
2009-02-27,7.978752136230469
2009-03-02,7.734084129333496
2009-03-03,7.314038276672363
2009-03-04,7.285890579223633
2009-03-05,7.361670970916748
2009-03-06,7.389819145202637
2009-03-09,7.188456058502197
2009-03-10,7.305375099182129
2009-03-11,7.266403675079346
2009-03-12,7.480760097503662
2009-03-13,7.526226997375488
2009-03-16,7.576026916503906
2009-03-17,7.870491981506348
2009-03-18,8.136807441711426
2009-03-19,7.993910312652588
2009-03-20,8.022056579589844
2009-03-23,8.301365852355957
2009-03-24,8.019891738891602
2009-03-25,8.374982833862305
2009-03-26,8.75822639465332
2009-03-27,8.487576484680176
2009-03-30,8.455093383789062
2009-03-31,8.630478858947754
2009-04-01,8.669448852539062
2009-04-02,8.66512393951416
2009-04-03,8.526545524597168
2009-04-06,8.66079044342041
2009-04-07,8.177950859069824
2009-04-08,8.227751731872559
2009-04-09,8.465922355651855
2009-04-13,8.422621726989746
2009-04-14,8.21908950805664
2009-04-15,8.34034252166748
2009-04-16,8.336010932922363
2009-04-17,8.504895210266113
2009-04-20,8.3446683883667
2009-04-21,8.548200607299805
2009-04-22,8.446438789367676
2009-04-23,8.366325378417969
2009-04-24,8.533041954040527
2009-04-27,8.554696083068848
2009-04-28,8.82967758178711
2009-04-29,8.94659423828125
2009-04-30,8.732242584228516
2009-05-01,8.914117813110352
2009-05-04,9.143630027770996
2009-05-05,9.076508522033691
2009-05-06,8.877309799194336
2009-05-07,9.230239868164062
2009-05-08,9.403451919555664
2009-05-11,9.349324226379395
2009-05-12,9.403451919555664
2009-05-13,9.333395004272461
2009-05-14,9.322442054748535
2009-05-15,9.412211418151855
2009-05-18,9.526060104370117
2009-05-19,9.344337463378906
2009-05-20,9.274279594421387
2009-05-21,9.160430908203125
2009-05-22,9.081613540649414
2009-05-26,9.151671409606934
2009-05-27,8.9808988571167
2009-05-28,8.75101089477539
2009-05-29,8.735684394836426
2009-06-01,8.672197341918945
2009-06-02,8.593375205993652
2009-06-03,8.580240249633789
2009-06-04,8.516751289367676
2009-06-05,8.634973526000977
2009-06-08,8.637165069580078
2009-06-09,8.536450386047363
2009-06-10,8.514557838439941
2009-06-11,8.536450386047363
2009-06-12,8.49047565460205
2009-06-15,8.398523330688477
2009-06-16,8.396328926086426
2009-06-17,8.41822624206543
2009-06-18,8.567099571228027
2009-06-19,8.536450386047363
2009-06-22,8.350353240966797
2009-06-23,8.356919288635254
2009-06-24,8.359111785888672
2009-06-25,8.761963844299316
2009-06-26,8.961193084716797
2009-06-29,9.01154899597168
2009-06-30,9.031254768371582
2009-07-01,9.17794418334961
2009-07-02,9.048771858215332
2009-07-06,8.976519584655762
2009-07-07,8.860483169555664
2009-07-08,8.753202438354492
2009-07-09,8.691900253295898
2009-07-10,8.654681205749512
2009-07-13,8.899890899658203
2009-07-14,8.88675594329834
2009-07-15,9.276466369628906
2009-07-16,9.322442054748535
2009-07-17,9.304931640625
2009-07-20,9.285224914550781
2009-07-21,9.267707824707031
2009-07-22,9.291793823242188
2009-07-23,9.41658878326416
2009-07-24,9.370613098144531
2009-07-27,9.32901382446289
2009-07-28,9.300551414489746
2009-07-29,9.287412643432617
2009-07-30,9.372804641723633
2009-07-31,9.331201553344727
2009-08-03,9.383750915527344
2009-08-04,9.484461784362793
2009-08-05,9.313689231872559
2009-08-06,9.164807319641113
2009-08-07,9.420966148376465
2009-08-10,9.261140823364258
2009-08-11,9.123211860656738
2009-08-12,9.167509078979492
2009-08-13,9.202947616577148
2009-08-14,8.950448989868164
2009-08-17,8.821983337402344
2009-08-18,8.921653747558594
2009-08-19,8.968167304992676
2009-08-20,8.977025985717773
2009-08-21,9.174152374267578
2009-08-24,9.198516845703125
2009-08-25,9.238386154174805
2009-08-26,9.269394874572754
2009-08-27,9.340269088745117
2009-08-28,9.311477661132812
2009-08-31,9.225096702575684
2009-09-01,9.112136840820312
2009-09-02,9.105490684509277
2009-09-03,9.258318901062012
2009-09-04,9.26053524017334
2009-09-08,9.307048797607422
2009-09-09,9.342485427856445
2009-09-10,9.269394874572754
2009-09-11,9.322553634643555
2009-09-14,9.346918106079102
2009-09-15,9.391216278076172
2009-09-16,9.570621490478516
2009-09-17,9.862992286682129
2009-09-18,10.05568790435791
2009-09-21,10.060114860534668
2009-09-22,10.148714065551758
2009-09-23,10.401212692260742
2009-09-24,10.562902450561523
2009-09-25,10.46544361114502
2009-09-28,10.631566047668457
2009-09-29,10.52967643737793
2009-09-30,10.321477890014648
2009-10-01,10.321477890014648
2009-10-02,10.430007934570312
2009-10-05,10.403427124023438
2009-10-06,10.534109115600586
2009-10-07,10.518604278564453
2009-10-08,10.57840633392334
2009-10-09,10.7423095703125
2009-10-12,10.698012351989746
2009-10-13,10.631566047668457
2009-10-14,10.824263572692871
2009-10-15,10.671430587768555
2009-10-16,10.580619812011719
2009-10-19,10.56954288482666
2009-10-20,10.505313873291016
2009-10-21,10.49866771697998
2009-10-22,10.644853591918945
2009-10-23,10.456583976745605
2009-10-26,10.410070419311523
2009-10-27,10.2594575881958
2009-10-28,10.212946891784668
2009-10-29,10.250600814819336
2009-10-30,10.246170043945312
2009-11-02,10.301544189453125
2009-11-03,10.294893264770508
2009-11-04,10.255029678344727
2009-11-05,10.410070419311523
2009-11-06,10.418930053710938
2009-11-09,10.367988586425781
2009-11-10,10.259180068969727
2009-11-11,10.41684341430664
2009-11-12,9.875018119812012
2009-11-13,9.934974670410156
2009-11-16,10.199222564697266
2009-11-17,10.294707298278809
2009-11-18,10.443490028381348
2009-11-19,10.316915512084961
2009-11-20,10.323575019836426
2009-11-23,10.516770362854004
2009-11-24,10.474578857421875
2009-11-25,10.334678649902344
2009-11-27,10.272503852844238
2009-11-30,10.323575019836426
2009-12-01,10.332459449768066
2009-12-02,10.325800895690918
2009-12-03,10.21476936340332
2009-12-04,10.44127082824707
2009-12-07,10.472357749938965
2009-12-08,10.550076484680176
2009-12-09,10.545639991760254
2009-12-10,10.483460426330566
2009-12-11,10.487900733947754
2009-12-14,10.587830543518066
2009-12-15,10.447931289672852
2009-12-16,10.536758422851562
2009-12-17,10.396858215332031
2009-12-18,10.499003410339355
2009-12-21,11.045272827148438
2009-12-22,11.254006385803223
2009-12-23,11.300642013549805
2009-12-24,11.307306289672852
2009-12-28,11.287317276000977
2009-12-29,11.362817764282227
2009-12-30,11.289539337158203
2009-12-31,11.103005409240723
2010-01-04,11.23624324798584
2010-01-05,11.278432846069336
2010-01-06,11.347271919250488
2010-01-07,11.29175853729248
2010-01-08,11.194053649902344
2010-01-11,11.205154418945312
2010-01-12,11.227362632751465
2010-01-13,11.251788139343262
2010-01-14,11.222920417785645
2010-01-15,11.100790023803711
2010-01-19,11.169628143310547
2010-01-20,10.985319137573242
2010-01-21,10.956450462341309
2010-01-22,10.76103401184082
2010-01-25,10.7854642868042
2010-01-26,10.703299522399902
2010-01-27,10.76325511932373
2010-01-28,10.63001823425293
2010-01-29,10.627799987792969
2010-02-01,10.676653861999512
2010-02-02,10.656668663024902
2010-02-03,10.696640014648438
2010-02-04,11.482730865478516
2010-02-05,11.982369422912598
2010-02-08,11.989026069641113
2010-02-09,12.113383293151855
2010-02-10,12.283645629882812
2010-02-11,12.480792045593262
2010-02-12,12.49423599243164
2010-02-16,12.574889183044434
2010-02-17,12.821320533752441
2010-02-18,12.845964431762695
2010-02-19,12.870609283447266
2010-02-22,13.005026817321777
2010-02-23,12.993823051452637
2010-02-24,13.007264137268066
2010-02-25,12.90869140625
2010-02-26,12.899733543395996
2010-03-01,13.305227279663086
2010-03-02,13.515820503234863
2010-03-03,13.462051391601562
2010-03-04,13.475495338439941
2010-03-05,13.522538185119629
2010-03-08,13.367958068847656
2010-03-09,13.72416877746582
2010-03-10,13.76225471496582
2010-03-11,13.80034065246582
2010-03-12,13.683841705322266
2010-03-15,13.596470832824707
2010-03-16,13.627836227416992
2010-03-17,13.737610816955566
2010-03-18,13.609914779663086
2010-03-19,13.55390453338623
2010-03-22,13.76897144317627
2010-03-23,13.874272346496582
2010-03-24,13.609914779663086
2010-03-25,13.61439037322998
2010-03-26,13.72416877746582
2010-03-29,13.55390453338623
2010-03-30,13.726408958435059
2010-03-31,13.650238037109375
2010-04-01,13.639036178588867
2010-04-05,13.690564155578613
2010-04-06,13.706246376037598
2010-04-07,13.78913688659668
2010-04-08,13.858586311340332
2010-04-09,13.961640357971191
2010-04-12,13.963883399963379
2010-04-13,14.024370193481445
2010-04-14,14.212556838989258
2010-04-15,14.371621131896973
2010-04-16,14.268564224243164
2010-04-19,14.257362365722656
2010-04-20,14.261842727661133
2010-04-21,14.306648254394531
2010-04-22,14.32457160949707
2010-04-23,14.51948070526123
2010-04-26,14.499322891235352
2010-04-27,14.230478286743164
2010-04-28,14.255127906799316
2010-04-29,14.476913452148438
2010-04-30,13.869787216186523
2010-05-03,13.966123580932617
2010-05-04,13.78913688659668
2010-05-05,13.603194236755371
2010-05-06,13.61887264251709
2010-05-07,13.273862838745117
2010-05-10,13.598710060119629
2010-05-11,13.892191886901855
2010-05-12,14.01115608215332
2010-05-13,13.986469268798828
2010-05-14,13.9999361038208
2010-05-17,14.09196662902832
2010-05-18,14.040338516235352
2010-05-19,14.024629592895508
2010-05-20,13.366944313049316
2010-05-21,13.454483032226562
2010-05-24,13.411833763122559
2010-05-25,13.423060417175293
2010-05-26,13.34449577331543
2010-05-27,13.609365463256836
2010-05-28,13.445507049560547
2010-06-01,13.243484497070312
2010-06-02,13.512847900390625
2010-06-03,13.863011360168457
2010-06-04,13.295112609863281
2010-06-07,12.974125862121582
2010-06-08,13.005556106567383
2010-06-09,13.012285232543945
2010-06-10,13.506112098693848
2010-06-11,13.544271469116211
2010-06-14,13.566719055175781
2010-06-15,13.6475248336792
2010-06-16,13.701398849487305
2010-06-17,13.726089477539062
2010-06-18,13.78669548034668
2010-06-21,13.854032516479492
2010-06-22,13.589162826538086
2010-06-23,13.584672927856445
2010-06-24,13.387142181396484
2010-06-25,13.411833763122559
2010-06-28,13.463462829589844
2010-06-29,13.106561660766602
2010-06-30,12.989842414855957
2010-07-01,12.848429679870605
2010-07-02,12.90454387664795
2010-07-06,12.767618179321289
2010-07-07,12.913519859313965
2010-07-08,13.086358070373535
2010-07-09,13.140230178833008
2010-07-12,13.15145492553711
2010-07-13,13.65425968170166
2010-07-14,13.562227249145508
2010-07-15,13.474688529968262
2010-07-16,12.989842414855957
2010-07-19,13.187371253967285
2010-07-20,13.319804191589355
2010-07-21,13.142477035522461
2010-07-22,13.393880844116211
2010-07-23,13.649772644042969
2010-07-26,13.845054626464844
2010-07-27,13.813632011413574
2010-07-28,13.584672927856445
2010-07-29,13.48591136932373
2010-07-30,13.510601997375488
2010-08-02,13.582428932189941
2010-08-03,13.416326522827148
2010-08-04,13.591408729553223
2010-08-05,13.23450756072998
2010-08-06,13.131253242492676
2010-08-09,13.337759971618652
2010-08-10,13.232266426086426
2010-08-11,12.832714080810547
2010-08-12,12.728582382202148
2010-08-13,12.721792221069336
2010-08-16,12.887044906616211
2010-08-17,13.201692581176758
2010-08-18,13.12699031829834
2010-08-19,12.93458080291748
2010-08-20,12.973061561584473
2010-08-23,12.810077667236328
2010-08-24,12.690103530883789
2010-08-25,12.742167472839355
2010-08-26,12.613136291503906
2010-08-27,12.6221923828125
2010-08-30,12.278116226196289
2010-08-31,12.158143043518066
2010-09-01,12.343761444091797
2010-09-02,12.522589683532715
2010-09-03,12.780645370483398
2010-09-07,12.751219749450684
2010-09-08,12.658409118652344
2010-09-09,12.66746711730957
2010-09-10,12.690103530883789
2010-09-13,12.85987663269043
2010-09-14,12.873458862304688
2010-09-15,12.970797538757324
2010-09-16,12.88025188446045
2010-09-17,12.984378814697266
2010-09-20,13.455220222473145
2010-09-21,13.398627281188965
2010-09-22,13.294501304626465
2010-09-23,13.138309478759766
2010-09-24,13.500493049621582
2010-09-27,13.50954818725586
2010-09-28,13.670269012451172
2010-09-29,13.862680435180664
2010-09-30,13.939647674560547
2010-10-01,13.826464653015137
2010-10-04,13.66347885131836
2010-10-05,13.871737480163574
2010-10-06,13.815144538879395
2010-10-07,13.97586441040039
2010-10-08,13.980392456054688
2010-10-11,13.919275283813477
2010-10-12,13.935115814208984
2010-10-13,13.998498916625977
2010-10-14,14.138847351074219
2010-10-15,14.249772071838379
2010-10-18,14.36973762512207
2010-10-19,13.94870376586914
2010-10-20,13.901163101196289
2010-10-21,13.849098205566406
2010-10-22,13.819673538208008
2010-10-25,13.808355331420898
2010-10-26,13.772136688232422
2010-10-27,13.704224586486816
2010-10-28,13.55935001373291
2010-10-29,13.724597930908203
2010-11-01,13.425793647766113
2010-11-02,13.82193660736084
2010-11-03,13.92153549194336
2010-11-04,14.129791259765625
2010-11-05,14.159218788146973
2010-11-08,14.233918190002441
2010-11-09,13.840044021606445
2010-11-10,14.225630760192871
2010-11-11,13.4430513381958
2010-11-12,13.75334644317627
2010-11-15,13.819509506225586
2010-11-16,13.780723571777344
2010-11-17,13.712274551391602
2010-11-18,13.837763786315918
2010-11-19,13.874268531799316
2010-11-22,13.906208038330078
2010-11-23,13.767034530639648
2010-11-24,14.11611557006836
2010-11-26,14.118398666381836
2010-11-29,13.897082328796387
2010-11-30,13.849169731140137
2010-12-01,14.275825500488281
2010-12-02,14.57699203491211
2010-12-03,14.70704460144043
2010-12-06,14.809713363647461
2010-12-07,14.841654777526855
2010-12-08,15.0584077835083
2010-12-09,15.053839683532715
2010-12-10,15.174763679504395
2010-12-13,14.932918548583984
2010-12-14,15.147387504577637
2010-12-15,15.126852035522461
2010-12-16,15.293413162231445
2010-12-17,15.386956214904785
2010-12-20,15.329911231994629
2010-12-21,15.425740242004395
2010-12-22,15.348167419433594
2010-12-23,15.135977745056152
2010-12-27,15.320788383483887
2010-12-28,15.341324806213379
2010-12-29,15.27514934539795
2010-12-30,15.236363410949707
2010-12-31,14.96257495880127
2011-01-03,15.135977745056152
2011-01-04,14.855345726013184
2011-01-05,14.955737113952637
2011-01-06,14.70704460144043
2011-01-07,14.529080390930176
2011-01-10,14.627187728881836
2011-01-11,14.864471435546875
2011-01-12,14.766368865966797
2011-01-13,14.796025276184082
2011-01-14,15.138266563415527
2011-01-18,15.03559398651123
2011-01-19,14.718450546264648
2011-01-20,14.80515193939209
2011-01-21,14.759522438049316
2011-01-24,15.003646850585938
2011-01-25,14.944328308105469
2011-01-26,15.126852035522461
2011-01-27,15.489620208740234
2011-01-28,15.361858367919922
2011-01-31,15.480497360229492
2011-02-01,15.605986595153809
2011-02-02,15.713223457336426
2011-02-03,15.697248458862305
2011-02-04,15.79763412475586
2011-02-07,15.955068588256836
2011-02-08,16.082834243774414
2011-02-09,16.002973556518555
2011-02-10,16.032642364501953
2011-02-11,16.389333724975586
2011-02-14,16.437652587890625
2011-02-15,16.555021286010742
2011-02-16,16.74141502380371
2011-02-17,16.796642303466797
2011-02-18,17.25918960571289
2011-02-22,17.00836181640625
2011-02-23,16.74601936340332
2011-02-24,16.84267234802246
2011-02-25,16.99224853515625
2011-02-28,17.029069900512695
2011-03-01,16.748321533203125
2011-03-02,16.72300910949707
2011-03-03,17.383459091186523
2011-03-04,17.344341278076172
2011-03-07,17.1257266998291
2011-03-08,17.491615295410156
2011-03-09,17.48931312561035
2011-03-10,16.918609619140625
2011-03-11,16.985347747802734
2011-03-14,16.904802322387695
2011-03-15,16.7045955657959
2011-03-16,17.006057739257812
2011-03-17,16.987648010253906
2011-03-18,17.21776580810547
2011-03-21,17.855209350585938
2011-03-22,17.977174758911133
2011-03-23,17.94956398010254
2011-03-24,18.000186920166016
2011-03-25,18.2257022857666
2011-03-28,18.177379608154297
2011-03-29,18.34536361694336
2011-03-30,18.45123291015625
2011-03-31,18.679048538208008
2011-04-01,18.9713134765625
2011-04-04,18.570886611938477
2011-04-05,18.40979766845703
2011-04-06,18.432811737060547
2011-04-07,18.363779067993164
2011-04-08,18.22800636291504
2011-04-11,18.140560150146484
2011-04-12,17.92424201965332
2011-04-13,17.926551818847656
2011-04-14,17.99098777770996
2011-04-15,18.308551788330078
2011-04-18,17.850603103637695
2011-04-19,17.73784828186035
2011-04-20,18.14516258239746
2011-04-21,18.306249618530273
2011-04-25,18.207300186157227
2011-04-26,18.402902603149414
2011-04-27,18.471940994262695
2011-04-28,18.40979766845703
2011-04-29,18.407499313354492
2011-05-02,18.115245819091797
2011-05-03,17.926551818847656
2011-05-04,17.698726654052734
2011-05-05,18.349971771240234
2011-05-06,18.31775665283203
2011-05-09,19.19452667236328
2011-05-10,19.542009353637695
2011-05-11,19.50260353088379
2011-05-12,19.484067916870117
2011-05-13,19.38208770751953
2011-05-16,18.96724510192871
2011-05-17,18.84440803527832
2011-05-18,18.83513641357422
2011-05-19,19.212915420532227
2011-05-20,19.15497589111328
2011-05-23,18.779518127441406
2011-05-24,18.58252716064453
2011-05-25,18.742443084716797
2011-05-26,18.886123657226562
2011-05-27,18.99968719482422
2011-05-31,19.421493530273438
2011-06-01,19.018230438232422
2011-06-02,18.777202606201172
2011-06-03,18.533849716186523
2011-06-06,18.137544631958008
2011-06-07,17.970680236816406
2011-06-08,17.780637741088867
2011-06-09,17.889558792114258
2011-06-10,17.565095901489258
2011-06-13,17.56045913696289
2011-06-14,18.01239776611328
2011-06-15,17.919681549072266
2011-06-16,18.00312042236328
2011-06-17,18.17926025390625
2011-06-20,18.27428436279297
2011-06-21,18.71230697631836
2011-06-22,18.596424102783203
2011-06-23,18.60338020324707
2011-06-24,18.573253631591797
2011-06-27,18.705350875854492
2011-06-28,19.04140281677246
2011-06-29,19.13642692565918
2011-06-30,19.173511505126953
2011-07-01,19.31951904296875
2011-07-05,19.314884185791016
2011-07-06,19.444669723510742
2011-07-07,19.653249740600586
2011-07-08,19.56982421875
2011-07-11,19.273162841796875
2011-07-12,19.161924362182617
2011-07-13,19.20363998413086
2011-07-14,18.95797348022461
2011-07-15,18.962610244750977
2011-07-18,18.726213455200195
2011-07-19,19.249996185302734
2011-07-20,18.86990737915039
2011-07-21,18.828182220458984
2011-07-22,18.860639572143555
2011-07-25,18.689132690429688
2011-07-26,18.475908279418945
2011-07-27,18.02166748046875
2011-07-28,17.94285774230957
2011-07-29,17.905790328979492
2011-08-01,18.007747650146484
2011-08-02,17.845521926879883
2011-08-03,17.74818229675293
2011-08-04,17.785276412963867
2011-08-05,18.058740615844727
2011-08-08,17.178056716918945
2011-08-09,18.332218170166016
2011-08-10,17.1131649017334
2011-08-11,17.858428955078125
2011-08-12,17.918975830078125
2011-08-15,18.235715866088867
2011-08-16,17.914316177368164
2011-08-17,17.932954788208008
2011-08-18,17.220300674438477
2011-08-19,17.173715591430664
2011-08-22,17.141111373901367
2011-08-23,17.555662155151367
2011-08-24,17.443870544433594
2011-08-25,17.00602912902832
2011-08-26,17.164403915405273
2011-08-29,17.35072135925293
2011-08-30,17.346067428588867
2011-08-31,17.2296085357666
2011-09-01,17.299476623535156
2011-09-02,16.78244972229004
2011-09-06,16.419130325317383
2011-09-07,16.698606491088867
2011-09-08,16.45174217224121
2011-09-09,15.934711456298828
2011-09-12,15.720447540283203
2011-09-13,15.818260192871094
2011-09-14,15.948689460754395
2011-09-15,16.09307861328125
2011-09-16,16.11636734008789
2011-09-19,15.88813304901123
2011-09-20,15.55742073059082
2011-09-21,15.003128051757812
2011-09-22,14.695708274841309
2011-09-23,14.96120548248291
2011-09-26,15.277944564819336
2011-09-27,15.878813743591309
2011-09-28,15.962658882141113
2011-09-29,16.48434066772461
2011-09-30,16.256101608276367
2011-10-03,15.794971466064453
2011-10-04,16.73587417602539
2011-10-05,16.619426727294922
2011-10-06,16.79642105102539
2011-10-07,16.633398056030273
2011-10-10,17.07124137878418
2011-10-11,17.00602912902832
2011-10-12,17.262218475341797
2011-10-13,17.448532104492188
2011-10-14,17.951587677001953
2011-10-17,17.266878128051758
2011-10-18,17.569637298583984
2011-10-19,17.131790161132812
2011-10-20,17.141111373901367
2011-10-21,17.61155891418457
2011-10-24,18.291616439819336
2011-10-25,17.96555519104004
2011-10-26,18.179824829101562
2011-10-27,19.190589904785156
2011-10-28,19.120723724365234
2011-10-31,18.790014266967773
2011-11-01,18.291616439819336
2011-11-02,18.70151138305664
2011-11-03,19.157989501953125
2011-11-04,18.948383331298828
2011-11-07,18.9437255859375
2011-11-08,19.190589904785156
2011-11-09,18.822616577148438
2011-11-10,19.382808685302734
2011-11-11,19.751611709594727
2011-11-14,19.4388370513916
2011-11-15,19.611562728881836
2011-11-16,19.028018951416016
2011-11-17,18.897308349609375
2011-11-18,18.68723487854004
2011-11-21,18.18306541442871
2011-11-22,18.155052185058594
2011-11-23,17.79092788696289
2011-11-25,17.622861862182617
2011-11-28,18.17372703552246
2011-11-29,18.70591163635254
2011-11-30,19.420156478881836
2011-12-01,19.47618293762207
2011-12-02,19.480846405029297
2011-12-05,19.578880310058594
2011-12-06,19.714263916015625
2011-12-07,19.508859634399414
2011-12-08,19.172733306884766
2011-12-09,19.508859634399414
2011-12-12,19.43416404724121
2011-12-13,19.0560302734375
2011-12-14,18.66389274597168
2011-12-15,18.88797378540039
2011-12-16,18.850618362426758
2011-12-19,18.70123863220215
2011-12-20,19.1914119720459
2011-12-21,19.18674659729004
2011-12-22,19.196081161499023
2011-12-23,19.205413818359375
2011-12-27,19.37348175048828
2011-12-28,19.172733306884766
2011-12-29,19.4014892578125
2011-12-30,19.303449630737305
2012-01-03,19.51352882385254
2012-01-04,19.676921844482422
2012-01-05,20.27446174621582
2012-01-06,20.288463592529297
2012-01-09,20.358488082885742
2012-01-10,20.77863121032715
2012-01-11,20.699281692504883
2012-01-12,20.867338180541992
2012-01-13,20.80198097229004
2012-01-17,20.83932876586914
2012-01-18,20.62925148010254
2012-01-19,20.531211853027344
2012-01-20,20.61057472229004
2012-01-23,20.867338180541992
2012-01-24,21.20345115661621
2012-01-25,21.264137268066406
2012-01-26,21.10541534423828
2012-01-27,21.32949447631836
2012-01-30,20.96070098876953
2012-01-31,21.021387100219727
2012-02-01,21.50689125061035
2012-02-02,20.96536636352539
2012-02-03,21.10541534423828
2012-02-06,21.072738647460938
2012-02-07,21.077415466308594
2012-02-08,21.012048721313477
2012-02-09,20.890682220458984
2012-02-10,20.64326286315918
2012-02-13,20.863557815551758
2012-02-14,20.708877563476562
2012-02-15,20.29170036315918
2012-02-16,20.493255615234375
2012-02-17,20.483884811401367
2012-02-21,20.258892059326172
2012-02-22,20.066709518432617
2012-02-23,20.151079177856445
2012-02-24,20.033905029296875
2012-02-27,19.837026596069336
2012-02-28,19.635467529296875
2012-02-29,19.551097869873047
2012-03-01,19.363603591918945
2012-03-02,18.974544525146484
2012-03-05,19.283910751342773
2012-03-06,18.993295669555664
2012-03-07,18.988611221313477
2012-03-08,19.194854736328125
2012-03-09,19.51359748840332
2012-03-12,19.476097106933594
2012-03-13,20.015148162841797
2012-03-14,19.808900833129883
2012-03-15,19.865156173706055
2012-03-16,19.968271255493164
2012-03-19,19.963584899902344
2012-03-20,19.569843292236328
2012-03-21,19.44329071044922
2012-03-22,19.171417236328125
2012-03-23,19.157358169555664
2012-03-26,19.621408462524414
2012-03-27,19.377662658691406
2012-03-28,19.23235321044922
2012-03-29,19.255786895751953
2012-03-30,19.063610076904297
2012-04-02,19.372976303100586
2012-04-03,19.44329071044922
2012-04-04,19.162044525146484
2012-04-05,19.0870418548584
2012-04-09,18.838611602783203
2012-04-10,18.754243850708008
2012-04-11,18.880796432495117
2012-04-12,19.002668380737305
2012-04-13,18.876108169555664
2012-04-16,18.965173721313477
2012-04-17,19.574535369873047
2012-04-18,19.44329071044922
2012-04-19,19.574535369873047
2012-04-20,20.19795799255371
2012-04-23,20.155771255493164
2012-04-24,20.230762481689453
2012-04-25,20.343265533447266
2012-04-26,20.39952278137207
2012-04-27,20.924503326416016
2012-04-30,20.741689682006836
2012-05-01,20.657312393188477
2012-05-02,20.751073837280273
2012-05-03,21.6229190826416
2012-05-04,21.894792556762695
2012-05-07,21.969785690307617
2012-05-08,22.035409927368164
2012-05-09,21.899477005004883
2012-05-10,22.030729293823242
2012-05-11,22.073074340820312
2012-05-14,21.92249870300293
2012-05-15,22.124826431274414
2012-05-16,22.0166015625
2012-05-17,21.795454025268555
2012-05-18,21.65899658203125
2012-05-21,21.80956268310547
2012-05-22,21.837804794311523
2012-05-23,21.936613082885742
2012-05-24,21.84720802307129
2012-05-25,21.65899658203125
2012-05-29,21.84720802307129
2012-05-30,21.560178756713867
2012-05-31,21.4143123626709
2012-06-01,20.929658889770508
2012-06-04,21.019060134887695
2012-06-05,20.97201156616211
2012-06-06,21.390785217285156
2012-06-07,21.320201873779297
2012-06-08,21.574296951293945
2012-06-11,21.40019989013672
2012-06-12,21.409605026245117
2012-06-13,21.141399383544922
2012-06-14,21.183752059936523
2012-06-15,21.46137046813965
2012-06-18,21.259031295776367
2012-06-19,21.35784912109375
2012-06-20,21.301380157470703
2012-06-21,20.868486404418945
2012-06-22,21.324909210205078
2012-06-25,21.27315330505371
2012-06-26,21.244916915893555
2012-06-27,21.03317642211914
2012-06-28,22.995332717895508
2012-06-29,24.350486755371094
2012-07-02,24.78809356689453
2012-07-03,24.952783584594727
2012-07-05,24.797504425048828
2012-07-06,24.548118591308594
2012-07-09,24.581058502197266
2012-07-10,23.804664611816406
2012-07-11,23.847009658813477
2012-07-12,24.03052520751953
2012-07-13,24.101102828979492
2012-07-16,24.468124389648438
2012-07-17,24.552818298339844
2012-07-18,24.46341896057129
2012-07-19,24.07756996154785
2012-07-20,23.522336959838867
2012-07-23,23.21177864074707
2012-07-24,22.896522521972656
2012-07-25,23.018863677978516
2012-07-26,23.508222579956055
2012-07-27,24.41166114807129
2012-07-30,23.912883758544922
2012-07-31,23.76232147216797
2012-08-01,23.53645133972168
2012-08-02,23.338829040527344
2012-08-03,23.936410903930664
2012-08-06,23.804664611816406
2012-08-07,25.037477493286133
2012-08-08,25.056299209594727
2012-08-09,25.009244918823242
2012-08-10,25.070417404174805
2012-08-13,24.80647087097168
2012-08-14,24.863027572631836
2012-08-15,24.90544891357422
2012-08-16,24.924299240112305
2012-08-17,25.02328872680664
2012-08-20,24.896024703979492
2012-08-21,24.980867385864258
2012-08-22,24.86774444580078
2012-08-23,24.73105239868164
2012-08-24,25.452198028564453
2012-08-27,25.273088455200195
2012-08-28,25.428632736206055
2012-08-29,25.664304733276367
2012-08-30,25.537038803100586
2012-08-31,25.63602638244629
2012-09-04,26.26290512084961
2012-09-05,26.27703857421875
2012-09-06,26.74837303161621
2012-09-07,26.81435775756836
2012-09-10,26.866212844848633
2012-09-11,26.76723289489746
2012-09-12,26.460866928100586
2012-09-13,26.984045028686523
2012-09-14,27.20085906982422
2012-09-17,27.13016128540039
2012-09-18,27.5590763092041
2012-09-19,27.790035247802734
2012-09-20,27.620351791381836
2012-09-21,28.049266815185547
2012-09-24,27.700481414794922
2012-09-25,27.52136993408203
2012-09-26,27.29041862487793
2012-09-27,27.80888557434082
2012-09-28,28.148250579833984
2012-10-01,28.36977767944336
2012-10-02,28.346210479736328
2012-10-03,28.204814910888672
2012-10-04,27.544940948486328
2012-10-05,27.37525749206543
2012-10-08,27.356403350830078
2012-10-09,27.002904891967773
2012-10-10,27.03117561340332
2012-10-11,27.13016128540039
2012-10-12,26.786088943481445
2012-10-15,27.12073516845703
2012-10-16,27.280994415283203
2012-10-17,27.299842834472656
2012-10-18,27.007617950439453
2012-10-19,26.456144332885742
2012-10-22,26.630542755126953
2012-10-23,26.446720123291016
2012-10-24,26.30061149597168
2012-10-25,26.427871704101562
2012-10-26,26.093217849731445
2012-10-31,26.00838279724121
2012-11-01,26.206336975097656
2012-11-02,25.739717483520508
2012-11-05,26.02723503112793
2012-11-06,26.682392120361328
2012-11-07,27.813600540161133
2012-11-08,27.361116409301758
2012-11-09,27.17729377746582
2012-11-12,27.620351791381836
2012-11-13,27.554162979125977
2012-11-14,26.48093605041504
2012-11-15,27.279937744140625
2012-11-16,27.696001052856445
2012-11-19,27.927663803100586
2012-11-20,28.490280151367188
2012-11-21,28.802326202392578
2012-11-23,29.156911849975586
2012-11-26,29.20892333984375
2012-11-27,29.062358856201172
2012-11-28,29.49732780456543
2012-11-29,29.733720779418945
2012-11-30,29.780996322631836
2012-12-03,29.695894241333008
2012-12-04,29.71953582763672
2012-12-05,29.601343154907227
2012-12-06,30.059938430786133
2012-12-07,29.922840118408203
2012-12-10,29.828275680541992
2012-12-11,30.409809112548828
2012-12-12,29.87555694580078
2012-12-13,29.785730361938477
2012-12-14,29.776264190673828
2012-12-17,29.960657119750977
2012-12-18,30.06939697265625
2012-12-19,29.643890380859375
2012-12-20,29.7100830078125
2012-12-21,29.7100830078125
2012-12-24,29.691164016723633
2012-12-26,29.37439727783203
2012-12-27,29.35548210144043
2012-12-28,29.16637420654297
2012-12-31,29.889738082885742
2013-01-02,30.59419822692871
2013-01-03,30.225425720214844
2013-01-04,30.693477630615234
2013-01-07,30.367252349853516
2013-01-08,30.253786087036133
2013-01-09,30.797496795654297
2013-01-10,30.773853302001953
2013-01-11,31.45939826965332
2013-01-14,31.795082092285156
2013-01-15,31.917999267578125
2013-01-16,32.07876205444336
2013-01-17,32.47117614746094
2013-01-18,32.93449783325195
2013-01-22,33.09052276611328
2013-01-23,32.95814514160156
2013-01-24,33.161434173583984
2013-01-25,33.31272888183594
2013-01-28,33.175636291503906
2013-01-29,31.82818031311035
2013-01-30,31.979482650756836
2013-01-31,32.419158935546875
2013-02-01,32.8021125793457
2013-02-04,32.03620529174805
2013-02-05,32.28677749633789
2013-02-06,32.40026092529297
2013-02-07,33.733516693115234
2013-02-08,34.00773620605469
2013-02-11,33.85643005371094
2013-02-12,33.82807159423828
2013-02-13,34.116844177246094
2013-02-14,34.220985412597656
2013-02-15,34.0979118347168
2013-02-19,34.74645233154297
2013-02-20,33.709720611572266
2013-02-21,33.5819206237793
2013-02-22,34.07896041870117
2013-02-25,33.8422737121582
2013-02-26,34.500274658203125
2013-02-27,34.27779006958008
2013-02-28,34.45293045043945
2013-03-01,35.03994369506836
2013-03-04,35.030460357666016
2013-03-05,35.238765716552734
2013-03-06,35.418636322021484
2013-03-07,36.34648132324219
2013-03-08,36.10506057739258
2013-03-11,36.05771255493164
2013-03-12,35.99143981933594
2013-03-13,36.29914093017578
2013-03-14,36.455360412597656
2013-03-15,36.639976501464844
2013-03-18,36.32754898071289
2013-03-19,36.3133430480957
2013-03-20,36.455360412597656
2013-03-21,36.5074348449707
2013-03-22,36.7819938659668
2013-03-25,37.56308364868164
2013-03-26,37.82817077636719
2013-03-27,37.80924606323242
2013-03-28,37.85658645629883
2013-04-01,37.998592376708984
2013-04-02,37.98911666870117
2013-04-03,37.87077713012695
2013-04-04,38.24949645996094
2013-04-05,37.47786331176758
2013-04-08,37.998592376708984
2013-04-09,37.208038330078125
2013-04-10,37.837642669677734
2013-04-11,37.752437591552734
2013-04-12,37.316925048828125
2013-04-15,35.688472747802734
2013-04-16,36.0103759765625
2013-04-17,36.12398147583008
2013-04-18,34.523956298828125
2013-04-19,37.198570251464844
2013-04-22,37.14649963378906
2013-04-23,37.941795349121094
2013-04-24,37.63882827758789
2013-04-25,37.70509719848633
2013-04-26,37.08022689819336
2013-04-29,37.49207305908203
2013-04-30,37.72404098510742
2013-05-01,36.805667877197266
2013-05-02,36.21393585205078
2013-05-03,36.36068344116211
2013-05-06,36.450626373291016
2013-05-07,36.88140869140625
2013-05-08,36.805667877197266
2013-05-09,36.526363372802734
2013-05-10,36.4600944519043
2013-05-13,35.810791015625
2013-05-14,36.403221130371094
2013-05-15,36.58332061767578
2013-05-16,36.59279251098633
2013-05-17,36.78711700439453
2013-05-20,35.791839599609375
2013-05-21,35.70652770996094
2013-05-22,34.69230651855469
2013-05-23,34.825008392333984
2013-05-24,34.654388427734375
2013-05-28,35.384254455566406
2013-05-29,34.98613739013672
2013-05-30,35.4648323059082
2013-05-31,35.37002944946289
2013-06-03,35.50274658203125
2013-06-04,35.028804779052734
2013-06-05,34.81078338623047
2013-06-06,34.93876266479492
2013-06-07,35.019325256347656
2013-06-10,34.815528869628906
2013-06-11,34.10935974121094
2013-06-12,33.673336029052734
2013-06-13,34.46482467651367
2013-06-14,34.84870147705078
2013-06-17,36.0003776550293
2013-06-18,36.41743850708008
2013-06-19,36.469573974609375
2013-06-20,36.25629806518555
2013-06-21,36.3036994934082
2013-06-24,35.905582427978516
2013-06-25,35.87714767456055
2013-06-26,35.24681091308594
2013-06-27,35.77761459350586
2013-06-28,35.298946380615234
2013-07-01,35.67809295654297
2013-07-02,34.12357711791992
2013-07-03,34.14252853393555
2013-07-05,34.12357711791992
2013-07-08,34.5406494140625
2013-07-09,33.83922576904297
2013-07-10,33.858177185058594
2013-07-11,33.460060119628906
2013-07-12,33.6685905456543
2013-07-15,34.00984191894531
2013-07-16,34.20888900756836
2013-07-17,34.63543701171875
2013-07-18,35.080928802490234
2013-07-19,35.49799346923828
2013-07-22,35.905582427978516
2013-07-23,35.77288818359375
2013-07-24,35.87714767456055
2013-07-25,36.20890426635742
2013-07-26,35.92454528808594
2013-07-29,35.44112014770508
2013-07-30,35.17572021484375
2013-07-31,35.64966583251953
2013-08-01,35.94350051879883
2013-08-02,35.090415954589844
2013-08-05,35.39373016357422
2013-08-06,35.317893981933594
2013-08-07,36.009857177734375
2013-08-08,35.905582427978516
2013-08-09,37.03356170654297
2013-08-12,37.49802017211914
2013-08-13,38.081626892089844
2013-08-14,37.56917953491211
2013-08-15,36.9144172668457
2013-08-16,36.942874908447266
2013-08-19,36.41146469116211
2013-08-20,36.9144172668457
2013-08-21,36.16473388671875
2013-08-22,36.22166442871094
2013-08-23,36.2880973815918
2013-08-26,36.04137420654297
2013-08-27,35.31067657470703
2013-08-28,35.528926849365234
2013-08-29,36.155242919921875
2013-08-30,35.595359802246094
2013-09-03,35.585872650146484
2013-09-04,35.88005065917969
2013-09-05,36.48737716674805
2013-09-06,36.44941329956055
2013-09-09,36.88593292236328
2013-09-10,37.645111083984375
2013-09-11,37.48377990722656
2013-09-12,37.14216232299805
2013-09-13,37.588172912597656
2013-09-16,38.59407424926758
2013-09-17,39.85616683959961
2013-09-18,40.349639892578125
2013-09-19,41.00441360473633
2013-09-20,40.58687210083008
2013-09-23,40.65329360961914
2013-09-24,41.6971549987793
2013-09-25,40.89054489135742
2013-09-26,42.97825241088867
2013-09-27,42.52274703979492
2013-09-30,42.74100112915039
2013-10-01,44.45861053466797
2013-10-02,44.38270950317383
2013-10-03,44.23086166381836
2013-10-04,44.47758483886719
2013-10-07,43.96516036987305
2013-10-08,43.05415344238281
2013-10-09,42.570186614990234
2013-10-10,44.39219284057617
2013-10-11,44.08852005004883
2013-10-14,44.923606872558594
2013-10-15,44.72432327270508
2013-10-16,45.284202575683594
2013-10-17,46.08132553100586
2013-10-18,46.67918014526367
2013-10-21,46.897430419921875
2013-10-22,47.83690643310547
2013-10-23,47.153648376464844
2013-10-24,47.04927444458008
2013-10-25,46.4134635925293
2013-10-28,46.59375
2013-10-29,46.868953704833984
2013-10-30,46.16674041748047
2013-10-31,45.97694396972656
2013-11-01,45.2557258605957
2013-11-04,45.57838439941406
2013-11-05,45.6258430480957
2013-11-06,45.13236999511719
2013-11-07,44.041072845458984
2013-11-08,44.61993408203125
2013-11-11,44.667388916015625
2013-11-12,44.50606155395508
2013-11-13,44.35883331298828
2013-11-14,44.57730484008789
2013-11-15,42.2976188659668
2013-11-18,42.41159439086914
2013-11-19,42.37362289428711
2013-11-20,42.525577545166016
2013-11-21,43.8744010925293
2013-11-22,43.45646286010742
2013-11-25,43.190486907958984
2013-11-26,43.218994140625
2013-11-27,43.1240119934082
2013-11-29,43.218994140625
2013-12-02,43.076507568359375
2013-12-03,42.525577545166016
2013-12-04,41.87018966674805
2013-12-05,42.202632904052734
2013-12-06,42.620582580566406
2013-12-09,42.38309860229492
2013-12-10,42.231136322021484
2013-12-11,41.670711517333984
2013-12-12,41.06278610229492
2013-12-13,41.03429412841797
2013-12-16,41.4427490234375
2013-12-17,41.005802154541016
2013-12-18,41.366756439208984
2013-12-19,40.88232421875
2013-12-20,41.58521270751953
2013-12-23,41.794189453125
2013-12-24,41.74668884277344
2013-12-26,41.68971252441406
2013-12-27,41.499732971191406
2013-12-30,41.22426986694336
2013-12-31,41.784698486328125
2014-01-02,40.540367126464844
2014-01-03,40.41688919067383
2014-01-06,39.57149887084961
2014-01-07,40.283905029296875
2014-01-08,40.8253173828125
2014-01-09,42.13615417480469
2014-01-10,42.183631896972656
2014-01-13,41.20526885986328
2014-01-14,42.00316619873047
2014-01-15,41.974674224853516
2014-01-16,41.993656158447266
2014-01-17,41.528228759765625
2014-01-21,41.4332389831543
2014-01-22,41.328758239746094
2014-01-23,40.64484786987305
2014-01-24,40.00843048095703
2014-01-27,39.324527740478516
2014-01-28,40.00843048095703
2014-01-29,39.799468994140625
2014-01-30,40.29340362548828
2014-01-31,40.24590301513672
2014-02-03,38.77360153198242
2014-02-04,39.239051818847656
2014-02-05,39.78996658325195
2014-02-06,47.578887939453125
2014-02-07,44.86227035522461
2014-02-10,45.35619354248047
2014-02-11,45.13772964477539
2014-02-12,44.847740173339844
2014-02-13,45.06642150878906
2014-02-14,44.210723876953125
2014-02-18,44.59103775024414
2014-02-19,44.334327697753906
2014-02-20,44.895286560058594
2014-02-21,44.914302825927734
2014-02-24,45.64637756347656
2014-02-25,45.27558517456055
2014-02-26,45.80801010131836
2014-02-27,46.37847137451172
2014-02-28,45.43721389770508
2014-03-03,45.39918518066406
2014-03-04,46.88239288330078
2014-03-05,46.20734405517578
2014-03-06,46.1598014831543
2014-03-07,45.560821533203125
2014-03-10,45.64637756347656
2014-03-11,44.771671295166016
2014-03-12,44.81920623779297
2014-03-13,44.42941665649414
2014-03-14,43.72584533691406
2014-03-17,43.44060134887695
2014-03-18,44.19171142578125
2014-03-19,43.3930778503418
2014-03-20,42.87965393066406
2014-03-21,42.22362518310547
2014-03-24,41.757747650146484
2014-03-25,41.80529022216797
2014-03-26,41.101715087890625
2014-03-27,41.64365005493164
2014-03-28,42.04297637939453
2014-03-31,42.65147018432617
2014-04-01,42.99374771118164
2014-04-02,42.59442138671875
2014-04-03,42.00495147705078
2014-04-04,41.27285385131836
2014-04-07,40.388633728027344
2014-04-08,40.67387390136719
2014-04-09,41.2823486328125
2014-04-10,40.59782028198242
2014-04-11,40.07489013671875
2014-04-14,40.15093994140625
2014-04-15,40.22700881958008
2014-04-16,40.61682891845703
2014-04-17,40.388633728027344
2014-04-21,40.59782028198242
2014-04-22,40.96861267089844
2014-04-23,40.21750259399414
2014-04-24,39.85620880126953
2014-04-25,39.504425048828125
2014-04-28,39.03855514526367
2014-04-29,40.806976318359375
2014-04-30,40.47420883178711
2014-05-01,39.65654373168945
2014-05-02,40.179473876953125
2014-05-05,40.00833511352539
2014-05-06,39.6090087890625
2014-05-07,39.970314025878906
2014-05-08,41.74823760986328
2014-05-09,41.53907775878906
2014-05-12,42.299678802490234
2014-05-13,41.04814910888672
2014-05-14,40.60084915161133
2014-05-15,41.067195892333984
2014-05-16,40.79119873046875
2014-05-19,41.34320068359375
2014-05-20,40.51519012451172
2014-05-21,40.534217834472656
2014-05-22,40.48663330078125
2014-05-23,40.81023406982422
2014-05-27,41.40030288696289
2014-05-28,41.876163482666016
2014-05-29,42.856441497802734
2014-05-30,42.52334976196289
2014-06-02,42.25686264038086
2014-06-03,42.22829818725586
2014-06-04,41.96181869506836
2014-06-05,42.39961242675781
2014-06-06,43.85576629638672
2014-06-09,41.67630386352539
2014-06-10,41.600162506103516
2014-06-11,41.59064865112305
2014-06-12,40.14401626586914
2014-06-13,40.50568389892578
2014-06-16,40.06787109375
2014-06-17,39.22083282470703
2014-06-18,39.30647659301758
2014-06-19,39.93462371826172
2014-06-20,40.638919830322266
2014-06-23,40.42952346801758
2014-06-24,40.439056396484375
2014-06-25,40.534217834472656
2014-06-26,40.30580139160156
2014-06-27,40.83876419067383
2014-06-30,40.94346618652344
2014-07-01,40.78167724609375
2014-07-02,40.33436965942383
2014-07-03,40.91493225097656
2014-07-07,40.163047790527344
2014-07-08,40.439056396484375
2014-07-09,40.572303771972656
2014-07-10,39.98221206665039
2014-07-11,39.83946228027344
2014-07-14,39.88705825805664
2014-07-15,39.38262939453125
2014-07-16,39.58250045776367
2014-07-17,39.04951477050781
2014-07-18,39.173240661621094
2014-07-21,39.41118621826172
2014-07-22,39.715728759765625
2014-07-23,40.496158599853516
2014-07-24,40.8768424987793
2014-07-25,40.94346618652344
2014-07-28,40.78167724609375
2014-07-29,40.619873046875
2014-07-30,40.26774978637695
2014-07-31,39.36359405517578
2014-08-01,38.887733459472656
2014-08-04,39.087589263916016
2014-08-05,39.5158805847168
2014-08-06,39.64910888671875
2014-08-07,36.70825958251953
2014-08-08,38.002620697021484
2014-08-11,37.85986328125
2014-08-12,37.203163146972656
2014-08-13,37.446136474609375
2014-08-14,37.65576171875
2014-08-15,37.92255401611328
2014-08-18,38.99925231933594
2014-08-19,39.47566223144531
2014-08-20,39.551883697509766
2014-08-21,39.64716720581055
2014-08-22,39.44707489013672
2014-08-25,39.170753479003906
2014-08-26,39.35177993774414
2014-08-27,39.04689407348633
2014-08-28,39.11358642578125
2014-08-29,39.256507873535156
2014-09-02,39.790096282958984
2014-09-03,39.92348098754883
2014-09-04,39.87584686279297
2014-09-05,39.93302536010742
2014-09-08,39.8853759765625
2014-09-09,39.542362213134766
2014-09-10,39.65668869018555
2014-09-11,39.39944076538086
2014-09-12,39.38990783691406
2014-09-15,39.44707489013672
2014-09-16,39.332733154296875
2014-09-17,39.39944076538086
2014-09-18,39.73292922973633
2014-09-19,39.60906219482422
2014-09-22,39.294620513916016
2014-09-23,39.123111724853516
2014-09-24,39.065940856933594
2014-09-25,38.3513298034668
2014-09-26,38.70387268066406
2014-09-29,38.80867004394531
2014-09-30,38.23698806762695
2014-10-01,37.16029357910156
2014-10-02,37.26509094238281
2014-10-03,37.90348815917969
2014-10-06,37.998779296875
2014-10-07,38.25603103637695
2014-10-08,38.31320571899414
2014-10-09,38.02736282348633
2014-10-10,38.20839309692383
2014-10-13,38.11310958862305
2014-10-14,38.341793060302734
2014-10-15,38.8944206237793
2014-10-16,38.942081451416016
2014-10-17,39.361324310302734
2014-10-20,40.009246826171875
2014-10-21,41.124053955078125
2014-10-22,40.67622375488281
2014-10-23,40.828678131103516
2014-10-24,41.48613357543945
2014-10-27,41.867252349853516
2014-10-28,44.18262481689453
2014-10-29,45.18309783935547
2014-10-30,45.66904067993164
2014-10-31,46.174034118652344
2014-11-03,46.345542907714844
2014-11-04,46.688568115234375
2014-11-05,46.9172477722168
2014-11-06,46.93630599975586
2014-11-07,46.869606018066406
2014-11-10,47.12686538696289
2014-11-11,47.17450714111328
2014-11-12,47.999454498291016
2014-11-13,47.8945426940918
2014-11-14,50.13572692871094
2014-11-17,49.477684020996094
2014-11-18,49.65888595581055
2014-11-19,49.50630187988281
2014-11-20,49.21064376831055
2014-11-21,49.687496185302734
2014-11-24,49.94498825073242
2014-11-25,49.992679595947266
2014-11-26,50.049888610839844
2014-11-28,49.96406936645508
2014-12-01,50.240638732910156
2014-12-02,51.0512809753418
2014-12-03,51.39461135864258
2014-12-04,50.851009368896484
2014-12-05,50.80331802368164
2014-12-08,50.498138427734375
2014-12-09,50.70794677734375
2014-12-10,49.42999267578125
2014-12-11,49.66843032836914
2014-12-12,48.90546798706055
2014-12-15,47.999454498291016
2014-12-16,48.638431549072266
2014-12-17,51.0512809753418
2014-12-18,51.10850143432617
2014-12-19,50.851009368896484
2014-12-22,51.83331298828125
2014-12-23,52.33877182006836
2014-12-24,52.39598083496094
2014-12-26,52.920528411865234
2014-12-29,52.89191436767578
2014-12-30,52.63441848754883
2014-12-31,52.300621032714844
2015-01-02,51.25156021118164
2015-01-05,50.67932891845703
2015-01-06,50.39323043823242
2015-01-07,50.54582214355469
2015-01-08,52.11941909790039
2015-01-09,51.623497009277344
2015-01-12,51.92867660522461
2015-01-13,52.968204498291016
2015-01-14,53.25432586669922
2015-01-15,52.834686279296875
2015-01-16,53.626258850097656
2015-01-20,53.46413040161133
2015-01-21,52.88236999511719
2015-01-22,53.82653045654297
2015-01-23,54.455970764160156
2015-01-26,54.51319122314453
2015-01-27,54.09355926513672
2015-01-28,53.52134704589844
2015-01-29,54.24616241455078
2015-01-30,53.13987731933594
2015-02-02,53.416446685791016
2015-02-03,55.04725646972656
2015-02-04,54.78976058959961
2015-02-05,56.916500091552734
2015-02-06,56.29659652709961
2015-02-09,55.97233963012695
2015-02-10,56.14400863647461
2015-02-11,55.604759216308594
2015-02-12,56.33012008666992
2015-02-13,56.444644927978516
2015-02-17,56.58781051635742
2015-02-18,56.45418930053711
2015-02-19,56.86459732055664
2015-02-20,56.559181213378906
2015-02-23,56.73099136352539
2015-02-24,56.58781051635742
2015-02-25,56.86459732055664
2015-02-26,57.12228775024414
2015-02-27,56.530540466308594
2015-03-02,56.85505676269531
2015-03-03,58.11489486694336
2015-03-04,57.86674880981445
2015-03-05,57.98126983642578
2015-03-06,57.51360321044922
2015-03-09,59.15521240234375
2015-03-10,58.50621032714844
2015-03-11,59.89011764526367
2015-03-12,60.53912353515625
2015-03-13,59.74695587158203
2015-03-16,61.25495147705078
2015-03-17,61.264503479003906
2015-03-18,62.59114456176758
2015-03-19,62.419349670410156
2015-03-20,63.36422348022461
2015-03-23,63.125633239746094
2015-03-24,62.86793518066406
2015-03-25,60.98770523071289
2015-03-26,61.188140869140625
2015-03-27,61.655799865722656
2015-03-30,63.373779296875
2015-03-31,63.71735382080078
2015-04-01,63.182899475097656
2015-04-02,63.24016571044922
2015-04-06,64.76724243164062
2015-04-07,63.73645782470703
2015-04-08,64.7576904296875
2015-04-09,64.1850357055664
2015-04-10,65.04399871826172
2015-04-13,63.91780090332031
2015-04-14,63.96551513671875
2015-04-15,63.76508712768555
2015-04-16,63.71735382080078
2015-04-17,62.60066223144531
2015-04-20,62.972900390625
2015-04-21,63.86052322387695
2015-04-22,64.27091979980469
2015-04-23,64.62406921386719
2015-04-24,64.09913635253906
2015-04-27,62.62933349609375
2015-04-28,63.326045989990234
2015-04-29,62.696128845214844
2015-04-30,61.09270477294922
2015-05-01,61.74169921875
2015-05-04,61.827606201171875
2015-05-05,61.06406784057617
2015-05-06,60.11919403076172
2015-05-07,62.56250762939453
2015-05-08,60.5105094909668
2015-05-11,60.405521392822266
2015-05-12,59.90921401977539
2015-05-13,60.353336334228516
2015-05-14,61.65229034423828
2015-05-15,61.82421112060547
2015-05-18,62.62649917602539
2015-05-19,63.18044662475586
2015-05-20,62.91304016113281
2015-05-21,62.569190979003906
2015-05-22,62.02479553222656
2015-05-26,61.31798553466797
2015-05-27,62.8843879699707
2015-05-28,62.722015380859375
2015-05-29,62.435482025146484
2015-06-01,62.35906982421875
2015-06-02,61.63318634033203
2015-06-03,62.08208465576172
2015-06-04,61.432613372802734
2015-06-05,61.86241912841797
2015-06-08,61.60452651977539
2015-06-09,60.916847229003906
2015-06-10,61.28934097290039
2015-06-11,61.71913528442383
2015-06-12,61.05056381225586
2015-06-15,59.751625061035156
2015-06-16,60.90730285644531
2015-06-17,61.47081756591797
2015-06-18,62.798431396484375
2015-06-19,62.311317443847656
2015-06-22,62.63605499267578
2015-06-23,62.979896545410156
2015-06-24,62.20624542236328
2015-06-25,64.00184631347656
2015-06-26,64.27884674072266
2015-06-29,62.83662796020508
2015-06-30,62.779335021972656
2015-07-01,63.170921325683594
2015-07-02,62.80795669555664
2015-07-06,63.237789154052734
2015-07-07,62.320858001708984
2015-07-08,61.30845260620117
2015-07-09,61.54722595214844
2015-07-10,62.565120697021484
2015-07-13,63.004791259765625
2015-07-14,63.39665985107422
2015-07-15,64.01790618896484
2015-07-16,64.72517395019531
2015-07-17,64.82076263427734
2015-07-20,65.62361145019531
2015-07-21,64.90679168701172
2015-07-22,65.45157623291016
2015-07-23,65.06925964355469
2015-07-24,64.48624420166016
2015-07-27,63.75028610229492
2015-07-28,64.57225036621094
2015-07-29,65.23175811767578
2015-07-30,65.07880401611328
2015-07-31,65.19351196289062
2015-08-03,65.20307922363281
2015-08-04,65.48979949951172
2015-08-05,66.15885925292969
2015-08-06,61.915191650390625
2015-08-07,57.01205825805664
2015-08-10,57.71933364868164
2015-08-11,57.44215774536133
2015-08-12,57.87736511230469
2015-08-13,58.11648941040039
2015-08-14,58.51823043823242
2015-08-17,59.13037109375
2015-08-18,58.55647277832031
2015-08-19,57.91563034057617
2015-08-20,58.73820877075195
2015-08-21,57.32260513305664
2015-08-24,56.088722229003906
2015-08-25,57.02608108520508
2015-08-26,59.13037109375
2015-08-27,59.22601318359375
2015-08-28,59.417320251464844
2015-08-31,57.91563034057617
2015-09-01,57.37042236328125
2015-09-02,59.398197174072266
2015-09-03,59.22601318359375
2015-09-04,57.973018646240234
2015-09-08,59.111244201660156
2015-09-09,58.51823043823242
2015-09-10,58.38431167602539
2015-09-11,59.55122756958008
2015-09-14,59.90513229370117
2015-09-15,60.5555534362793
2015-09-16,61.17726516723633
2015-09-17,61.02423095703125
2015-09-18,59.48427200317383
2015-09-21,59.809478759765625
2015-09-22,58.99647521972656
2015-09-23,59.49384307861328
2015-09-24,59.93383026123047
2015-09-25,58.56604766845703
2015-09-28,56.289588928222656
2015-09-29,55.935691833496094
2015-09-30,56.96869659423828
2015-10-01,56.01221466064453
2015-10-02,56.78696060180664
2015-10-05,57.34173583984375
2015-10-06,57.02608108520508
2015-10-07,59.474708557128906
2015-10-08,61.148582458496094
2015-10-09,61.03380584716797
2015-10-12,61.4163818359375
2015-10-13,61.48334884643555
2015-10-14,61.02423095703125
2015-10-15,62.87026596069336
2015-10-16,63.625892639160156
2015-10-19,64.65890502929688
2015-10-20,63.59717559814453
2015-10-21,62.219852447509766
2015-10-22,62.152889251708984
2015-10-23,62.58330154418945
2015-10-26,63.6163215637207
2015-10-27,63.11894226074219
2015-10-28,65.51017761230469
2015-10-29,65.7971420288086
2015-10-30,65.23280334472656
2015-11-02,65.53887939453125
2015-11-03,65.55799865722656
2015-11-04,65.28063201904297
2015-11-05,65.67278289794922
2015-11-06,66.76319122314453
2015-11-09,65.65364837646484
2015-11-10,66.42412567138672
2015-11-11,65.69672393798828
2015-11-12,51.31121063232422
2015-11-13,49.44483184814453
2015-11-16,50.26795196533203
2015-11-17,49.12897491455078
2015-11-18,50.39237976074219
2015-11-19,49.607547760009766
2015-11-20,51.47391128540039
2015-11-23,52.048187255859375
2015-11-24,52.20133972167969
2015-11-25,53.08189010620117
2015-11-27,53.3498649597168
2015-11-30,54.316558837890625
2015-12-01,54.507991790771484
2015-12-02,55.03440856933594
2015-12-03,54.986549377441406
2015-12-04,56.24037551879883
2015-12-07,55.149261474609375
2015-12-08,54.842979431152344
2015-12-09,53.90500259399414
2015-12-10,54.74727249145508
2015-12-11,52.947879791259766
2015-12-14,53.34029769897461
2015-12-15,53.751861572265625
2015-12-16,53.79971694946289
2015-12-17,53.06272506713867
2015-12-18,52.3831901550293
2015-12-21,52.27789306640625
2015-12-22,53.14888381958008
2015-12-23,54.89083480834961
2015-12-24,53.780574798583984
2015-12-28,54.67070388793945
2015-12-29,54.871700286865234
2015-12-30,54.34528732299805
2015-12-31,53.838008880615234
2016-01-04,52.076900482177734
2016-01-05,52.6607551574707
2016-01-06,52.622467041015625
2016-01-07,51.64619445800781
2016-01-08,51.282501220703125
2016-01-11,51.14849853515625
2016-01-12,52.153472900390625
2016-01-13,49.980812072753906
2016-01-14,51.26335144042969
2016-01-15,50.17222595214844
2016-01-19,50.373233795166016
2016-01-20,50.97622299194336
2016-01-21,50.20094680786133
2016-01-22,51.282501220703125
2016-01-25,49.894676208496094
2016-01-26,50.34451675415039
2016-01-27,49.34911346435547
2016-01-28,49.751094818115234
2016-01-29,51.08150100708008
2016-02-01,51.426063537597656
2016-02-02,50.13395309448242
2016-02-03,50.20094680786133
2016-02-04,48.24843215942383
2016-02-05,44.90806579589844
2016-02-08,44.17109298706055
2016-02-09,44.4390869140625
2016-02-10,43.9701042175293
2016-02-11,44.56888961791992
2016-02-12,45.498207092285156
2016-02-16,45.785621643066406
2016-02-17,45.498207092285156
2016-02-18,44.722171783447266
2016-02-19,46.02513122558594
2016-02-22,45.93890380859375
2016-02-23,45.22037124633789
2016-02-24,46.22632598876953
2016-02-25,46.44668197631836
2016-02-26,46.81074523925781
2016-02-29,47.10773468017578
2016-03-01,48.219085693359375
2016-03-02,49.05259704589844
2016-03-03,48.391544342041016
2016-03-04,49.2537956237793
2016-03-07,49.617862701416016
2016-03-08,50.26934051513672
2016-03-09,49.79030227661133
2016-03-10,49.06217956542969
2016-03-11,50.020240783691406
2016-03-14,50.048980712890625
2016-03-15,49.51247024536133
2016-03-16,49.2537956237793
2016-03-17,48.33405303955078
2016-03-18,49.21546173095703
2016-03-21,49.40707778930664
2016-03-22,48.391544342041016
2016-03-23,47.893348693847656
2016-03-24,48.113704681396484
2016-03-28,48.266990661621094
2016-03-29,50.61423110961914
2016-03-30,50.28849411010742
2016-03-31,50.432193756103516
2016-04-01,50.690879821777344
2016-04-04,49.886112213134766
2016-04-05,49.972328186035156
2016-04-06,49.80946350097656
2016-04-07,45.871849060058594
2016-04-08,45.4311408996582
2016-04-11,45.16287612915039
2016-04-12,45.948482513427734
2016-04-13,48.132869720458984
2016-04-14,48.15202331542969
2016-04-15,48.98553466796875
2016-04-18,49.49331283569336
2016-04-19,50.058555603027344
2016-04-20,50.02981948852539
2016-04-21,50.26934051513672
2016-04-22,50.4609375
2016-04-25,50.767520904541016
2016-04-26,51.01662063598633
2016-04-27,51.7830696105957
2016-04-28,51.47648620605469
2016-04-29,50.68128967285156
2016-05-02,50.55674743652344
2016-05-03,50.077728271484375
2016-05-04,49.617862701416016
2016-05-05,50.28849411010742
2016-05-06,51.65852355957031
2016-05-09,51.85012435913086
2016-05-10,52.032161712646484
2016-05-11,52.01777648925781
2016-05-12,51.67258834838867
2016-05-13,50.972625732421875
2016-05-16,52.43967819213867
2016-05-17,51.96983337402344
2016-05-18,51.950660705566406
2016-05-19,51.7972412109375
2016-05-20,53.06292724609375
2016-05-23,52.40132141113281
2016-05-24,54.46285629272461
2016-05-25,53.964256286621094
2016-05-26,53.561527252197266
2016-05-27,54.67379379272461
2016-05-31,55.27789306640625
2016-06-01,54.86557388305664
2016-06-02,55.29705047607422
2016-06-03,53.8587760925293
2016-06-06,54.53956985473633
2016-06-07,54.769691467285156
2016-06-08,55.31622314453125
2016-06-09,55.48882293701172
2016-06-10,54.827213287353516
2016-06-13,53.03416442871094
2016-06-14,53.36975860595703
2016-06-15,53.31222152709961
2016-06-16,53.264286041259766
2016-06-17,52.43967819213867
2016-06-20,54.769691467285156
2016-06-21,54.56832504272461
2016-06-22,54.59709548950195
2016-06-23,55.728546142578125
2016-06-24,51.979427337646484
2016-06-27,48.87274169921875
2016-06-28,48.92068099975586
2016-06-29,50.64661407470703
2016-06-30,53.09169387817383
2016-07-01,53.07251739501953
2016-07-05,52.813621520996094
2016-07-06,53.12045669555664
2016-07-07,53.945064544677734
2016-07-08,55.50800323486328
2016-07-11,55.997013092041016
2016-07-12,56.60109329223633
2016-07-13,56.86957550048828
2016-07-14,56.46685791015625
2016-07-15,55.90113067626953
2016-07-18,55.48882293701172
2016-07-19,55.546356201171875
2016-07-20,56.66822052001953
2016-07-21,56.23673629760742
2016-07-22,57.23393630981445
2016-07-25,57.013404846191406
2016-07-26,57.253116607666016
2016-07-27,56.9462776184082
2016-07-28,56.67780685424805
2016-07-29,56.4956169128418
2016-08-01,56.74492645263672
2016-08-02,55.43130111694336
2016-08-03,55.62306213378906
2016-08-04,55.057342529296875
2016-08-05,56.90792465209961
2016-08-08,57.291473388671875
2016-08-09,57.348995208740234
2016-08-10,57.58871078491211
2016-08-11,57.34402084350586
2016-08-12,57.30564498901367
2016-08-15,57.70866775512695
2016-08-16,56.6915168762207
2016-08-17,56.63393020629883
2016-08-18,56.45161437988281
2016-08-19,56.19253921508789
2016-08-22,55.904659271240234
2016-08-23,56.51879119873047
2016-08-24,56.11576843261719
2016-08-25,56.48040771484375
2016-08-26,56.0773811340332
2016-08-29,56.06779098510742
2016-08-30,56.71070098876953
2016-08-31,56.4420166015625
2016-09-01,55.99101638793945
2016-09-02,56.4420166015625
2016-09-06,56.41324234008789
2016-09-07,56.85464096069336
2016-09-08,56.672325134277344
2016-09-09,55.72233963012695
2016-09-12,56.38444900512695
2016-09-13,54.705196380615234
2016-09-14,54.03350067138672
2016-09-15,54.37894821166992
2016-09-16,53.49613952636719
2016-09-19,54.40773010253906
2016-09-20,54.292579650878906
2016-09-21,54.69561004638672
2016-09-22,55.68396759033203
2016-09-23,55.21377944946289
2016-09-26,54.187034606933594
2016-09-27,54.1678352355957
2016-09-28,54.62843704223633
2016-09-29,53.68805694580078
2016-09-30,54.27338790893555
2016-10-03,53.793601989746094
2016-10-04,52.49819564819336
2016-10-05,53.333011627197266
2016-10-06,52.87240982055664
2016-10-07,52.39263153076172
2016-10-10,53.87038040161133
2016-10-11,52.88200759887695
2016-10-12,53.11231231689453
2016-10-13,52.450199127197266
2016-10-14,52.37343978881836
2016-10-17,51.79770278930664
2016-10-18,51.98960876464844
2016-10-19,51.72093200683594
2016-10-20,51.049224853515625
2016-10-21,51.74011993408203
2016-10-24,52.32545852661133
2016-10-25,52.459800720214844
2016-10-26,51.38507843017578
2016-10-27,50.8381233215332
2016-10-28,50.06087112426758
2016-10-31,49.955322265625
2016-11-01,49.024532318115234
2016-11-02,49.28864669799805
2016-11-03,49.44231033325195
2016-11-04,50.4411506652832
2016-11-07,51.776126861572266
2016-11-08,52.32356643676758
2016-11-09,43.45890808105469
2016-11-10,47.22268295288086
2016-11-11,50.05653381347656
2016-11-14,52.327457427978516
2016-11-15,51.855953216552734
2016-11-16,52.33708190917969
2016-11-17,52.99141311645508
2016-11-18,53.17424011230469
2016-11-21,54.08837890625
2016-11-22,55.17572784423828
2016-11-23,55.29119873046875
2016-11-25,55.16611099243164
2016-11-28,54.75234603881836
2016-11-29,54.136497497558594
2016-11-30,53.20310974121094
2016-12-01,52.20236587524414
2016-12-02,51.798221588134766
2016-12-05,51.94255828857422
2016-12-06,52.06764602661133
2016-12-07,52.51991271972656
2016-12-08,52.51991271972656
2016-12-09,53.029903411865234
2016-12-12,52.09650802612305
2016-12-13,52.49103927612305
2016-12-14,51.95218276977539
2016-12-15,52.693111419677734
2016-12-16,52.596885681152344
2016-12-19,52.92405700683594
2016-12-20,54.00178146362305
2016-12-21,53.35707092285156
2016-12-22,52.06764602661133
2016-12-23,52.87594223022461
2016-12-27,53.4821662902832
2016-12-28,53.17424011230469
2016-12-29,53.46290969848633
2016-12-30,53.68424606323242
2017-01-03,53.3666877746582
2017-01-04,54.35780715942383
2017-01-05,54.579132080078125
2017-01-06,54.723472595214844
2017-01-09,54.85818099975586
2017-01-10,54.6561164855957
2017-01-11,55.06987762451172
2017-01-12,55.44516372680664
2017-01-13,56.29194641113281
2017-01-17,55.26234436035156
2017-01-18,55.02177810668945
2017-01-19,54.165367126464844
2017-01-20,54.9255485534668
2017-01-23,54.46365737915039
2017-01-24,54.3193244934082
2017-01-25,54.9832763671875
2017-01-26,54.309696197509766
2017-01-27,53.94404983520508
2017-01-30,53.308963775634766
2017-01-31,53.05876541137695
2017-02-01,52.760475158691406
2017-02-02,53.21273422241211
2017-02-03,54.04989242553711
2017-02-06,53.308963775634766
2017-02-07,52.7412223815918
2017-02-08,52.635379791259766
2017-02-09,53.62649917602539
2017-02-10,54.09800338745117
2017-02-13,55.88441467285156
2017-02-14,56.991905212402344
2017-02-15,57.14598083496094
2017-02-16,56.76077651977539
2017-02-17,56.55854034423828
2017-02-21,57.78158187866211
2017-02-22,57.97418212890625
2017-02-23,58.0127067565918
2017-02-24,58.08012008666992
2017-02-27,58.36902618408203
2017-02-28,57.46377944946289
2017-03-01,58.88906478881836
2017-03-02,59.01424789428711
2017-03-03,58.8216552734375
2017-03-06,58.30161666870117
2017-03-07,58.54237747192383
2017-03-08,58.52310562133789
2017-03-09,58.03196334838867
2017-03-10,58.34014129638672
2017-03-13,58.9853630065918
2017-03-14,59.062416076660156
2017-03-15,59.57281494140625
2017-03-16,59.53429412841797
2017-03-17,59.91950607299805
2017-03-20,59.27427291870117
2017-03-21,58.28236389160156
2017-03-22,58.88906478881836
2017-03-23,59.07203674316406
2017-03-24,59.65947723388672
2017-03-27,59.29353713989258
2017-03-28,59.75578689575195
2017-03-29,60.121734619140625
2017-03-30,60.04469299316406
2017-03-31,59.900245666503906
2017-04-03,59.620967864990234
2017-04-04,59.707637786865234
2017-04-05,59.20685958862305
2017-04-06,59.37057876586914
2017-04-07,55.296974182128906
2017-04-10,55.66292953491211
2017-04-11,56.63557815551758
2017-04-12,56.16370391845703
2017-04-13,55.48957824707031
2017-04-17,56.3466682434082
2017-04-18,56.6163215637207
2017-04-19,57.60823440551758
2017-04-20,57.86825180053711
2017-04-21,58.15716552734375
2017-04-24,59.03351974487305
2017-04-25,59.303165435791016
2017-04-26,59.49576187133789
2017-04-27,59.640220642089844
2017-04-28,58.734981536865234
2017-05-01,58.95647048950195
2017-05-02,58.59053039550781
2017-05-03,57.48304748535156
2017-05-04,59.12018585205078
2017-05-05,58.54237747192383
2017-05-08,59.43798828125
2017-05-09,61.2003288269043
2017-05-10,60.90177917480469
2017-05-11,61.166805267333984
2017-05-12,61.13788986206055
2017-05-15,61.34028244018555
2017-05-16,61.47520065307617
2017-05-17,60.10672378540039
2017-05-18,60.23200607299805
2017-05-19,60.38619613647461
2017-05-22,60.91624450683594
2017-05-23,60.94514846801758
2017-05-24,61.38846206665039
2017-05-25,60.116363525390625
2017-05-26,60.13563919067383
2017-05-30,59.6345100402832
2017-05-31,59.827247619628906
2017-06-01,60.09708786010742
2017-06-02,61.321006774902344
2017-06-05,60.83914566040039
2017-06-06,60.34764862060547
2017-06-07,60.35729217529297
2017-06-08,61.28245162963867
2017-06-09,61.56192398071289
2017-06-12,61.74502944946289
2017-06-13,61.90885925292969
2017-06-14,61.92814254760742
2017-06-15,62.04378128051758
2017-06-16,61.44628143310547
2017-06-19,61.995609283447266
2017-06-20,61.22462844848633
2017-06-21,60.89696502685547
2017-06-22,60.810237884521484
2017-06-23,60.858421325683594
2017-06-26,60.82950973510742
2017-06-27,60.38619613647461
2017-06-28,61.11861801147461
2017-06-29,60.51148223876953
2017-06-30,60.35729217529297
2017-07-03,60.26091766357422
2017-07-05,59.91398239135742
2017-07-06,58.71897506713867
2017-07-07,59.40321350097656
2017-07-10,59.08519744873047
2017-07-11,59.750152587890625
2017-07-12,59.46104049682617
2017-07-13,58.17929458618164
2017-07-14,58.044376373291016
2017-07-17,57.09993362426758
2017-07-18,56.85901641845703
2017-07-19,58.41059875488281
2017-07-20,58.35276794433594
2017-07-21,58.33349609375
2017-07-24,58.32386016845703
2017-07-25,59.32612228393555
2017-07-26,59.22010803222656
2017-07-27,58.07328796386719
2017-07-28,58.21784973144531
2017-07-31,58.1696662902832
2017-08-01,58.83462142944336
2017-08-02,57.543243408203125
2017-08-03,58.74789047241211
2017-08-04,58.84425354003906
2017-08-07,59.26830291748047
2017-08-08,58.69007110595703
2017-08-09,58.044376373291016
2017-08-10,58.07328796386719
2017-08-11,58.666412353515625
2017-08-14,59.07148742675781
2017-08-15,58.2902946472168
2017-08-16,58.29993438720703
2017-08-17,57.23905563354492
2017-08-18,57.190834045410156
2017-08-21,57.26799392700195
2017-08-22,57.769500732421875
2017-08-23,57.60554504394531
2017-08-24,57.740562438964844
2017-08-25,57.24870681762695
2017-08-28,57.682701110839844
2017-08-29,57.45123291015625
2017-08-30,57.692344665527344
2017-08-31,58.61819839477539
2017-09-01,58.242069244384766
2017-09-05,58.135982513427734
2017-09-06,58.53139114379883
2017-09-07,58.79179382324219
2017-09-08,58.46389389038086
2017-09-11,60.53742218017578
2017-09-12,61.2510986328125
2017-09-13,61.11606979370117
2017-09-14,60.65314483642578
2017-09-15,61.318607330322266
2017-09-18,61.0389289855957
2017-09-19,60.57600402832031
2017-09-20,61.02927780151367
2017-09-21,61.32825469970703
2017-09-22,62.080509185791016
2017-09-25,62.099796295166016
2017-09-26,62.11909484863281
2017-09-27,62.7459716796875
2017-09-28,62.07086181640625
2017-09-29,62.20588302612305
2017-10-02,63.09315872192383
2017-10-03,63.276397705078125
2017-10-04,62.95814895629883
2017-10-05,63.25710678100586
2017-10-06,63.276397705078125
2017-10-09,63.02565002441406
2017-10-10,63.43070602416992
2017-10-11,63.0449333190918
2017-10-12,62.9484977722168
2017-10-13,62.92920684814453
2017-10-16,62.77489471435547
2017-10-17,62.485565185546875
2017-10-18,63.01600646972656
2017-10-19,62.99671936035156
2017-10-20,63.999732971191406
2017-10-23,63.86471176147461
2017-10-24,64.1347427368164
2017-10-25,63.58501434326172
2017-10-26,63.478939056396484
2017-10-27,63.536800384521484
2017-10-30,62.697757720947266
2017-10-31,64.06725311279297
2017-11-01,63.536800384521484
2017-11-02,63.11246109008789
2017-11-03,62.697757720947266
2017-11-06,62.475929260253906
2017-11-07,62.95814895629883
2017-11-08,63.74897384643555
2017-11-09,61.3571891784668
2017-11-10,60.846038818359375
2017-11-13,62.33125686645508
2017-11-14,62.51945877075195
2017-11-15,62.065853118896484
2017-11-16,63.301185607910156
2017-11-17,63.18537521362305
2017-11-20,64.0539779663086
2017-11-21,65.05768585205078
2017-11-22,64.79711151123047
2017-11-24,64.46897888183594
2017-11-27,64.63304138183594
2017-11-28,65.37616729736328
2017-11-29,65.73326110839844
2017-11-30,66.6694107055664
2017-12-01,66.76590728759766
2017-12-04,66.3702163696289
2017-12-05,66.39918518066406
2017-12-06,67.05545043945312
2017-12-07,67.69241333007812
2017-12-08,68.34867095947266
2017-12-11,68.41624450683594
2017-12-12,68.45486450195312
2017-12-13,68.126708984375
2017-12-14,68.33903503417969
2017-12-15,68.83123779296875
2017-12-18,69.0435562133789
2017-12-19,69.14972686767578
2017-12-20,69.1111068725586
2017-12-21,68.69611358642578
2017-12-22,68.55134582519531
2017-12-26,69.22694396972656
2017-12-27,69.16901397705078
2017-12-28,69.52610778808594
2017-12-29,69.08216094970703
2018-01-02,68.86984252929688
2018-01-03,68.70578002929688
2018-01-04,68.55134582519531
2018-01-05,68.78296661376953
2018-01-08,69.05320739746094
2018-01-09,68.64786529541016
2018-01-10,67.64417266845703
2018-01-11,69.52610778808594
2018-01-12,69.38133239746094
2018-01-16,68.763671875
2018-01-17,67.52835845947266
2018-01-18,67.15194702148438
2018-01-19,67.64417266845703
2018-01-22,67.27742004394531
2018-01-23,66.78522491455078
2018-01-24,67.30636596679688
2018-01-25,67.28706359863281
2018-01-26,67.70206451416016
2018-01-29,66.59219360351562
2018-01-30,66.15789031982422
2018-01-31,65.80079650878906
2018-02-01,66.3702163696289
2018-02-02,65.4147720336914
2018-02-05,62.934444427490234
2018-02-06,62.509803771972656
2018-02-07,62.96340560913086
2018-02-08,61.737728118896484
2018-02-09,61.56399917602539
2018-02-12,62.20096969604492
2018-02-13,63.059906005859375
2018-02-14,64.59065246582031
2018-02-15,64.29127502441406
2018-02-16,64.9576416015625
2018-02-20,64.84175872802734
2018-02-21,65.54676818847656
2018-02-22,65.81718444824219
2018-02-23,65.82685089111328
2018-02-26,66.10691833496094
2018-02-27,65.59505462646484
2018-02-28,64.68724060058594
2018-03-01,64.24298858642578
2018-03-02,64.43614959716797
2018-03-05,64.54236602783203
2018-03-06,65.33431243896484
2018-03-07,65.51778411865234
2018-03-08,65.4405517578125
2018-03-09,66.63809204101562
2018-03-12,65.86548614501953
2018-03-13,65.64336395263672
2018-03-14,65.56608581542969
2018-03-15,65.51778411865234
2018-03-16,65.77855682373047
2018-03-19,65.28600311279297
2018-03-20,65.17010498046875
2018-03-21,64.96731567382812
2018-03-22,63.70215606689453
2018-03-23,61.67403793334961
2018-03-26,62.57220458984375
2018-03-27,62.48527908325195
2018-03-28,62.83296203613281
2018-03-29,64.45545196533203
2018-04-02,62.639801025390625
2018-04-03,63.412418365478516
2018-04-04,64.04016876220703
2018-04-05,64.51339721679688
2018-04-06,63.34481430053711
2018-04-09,63.199951171875
2018-04-10,64.74519348144531
2018-04-11,65.4405517578125
2018-04-12,65.53712463378906
2018-04-13,65.81718444824219
2018-04-16,67.03406524658203
2018-04-17,67.41070556640625
2018-04-18,68.30887603759766
2018-04-19,68.27989959716797
2018-04-20,67.34310913085938
2018-04-23,67.48797607421875
2018-04-24,67.3913803100586
2018-04-25,67.1885757446289
2018-04-26,66.80227661132812
2018-04-27,66.31938934326172
2018-04-30,65.31498718261719
2018-05-01,65.77855682373047
2018-05-02,64.89970397949219
2018-05-03,64.55203247070312
2018-05-04,64.73552703857422
2018-05-07,64.79346466064453
2018-05-08,65.99102783203125
2018-05-09,65.46952056884766
2018-05-10,60.30264663696289
2018-05-11,58.99885940551758
2018-05-14,59.29362487792969
2018-05-15,59.564247131347656
2018-05-16,59.757545471191406
2018-05-17,59.8735237121582
2018-05-18,60.15379333496094
2018-05-21,60.91731262207031
2018-05-22,60.12480545043945
2018-05-23,60.17313003540039
2018-05-24,59.81553268432617
2018-05-25,59.47726058959961
2018-05-29,59.052005767822266
2018-05-30,59.4289436340332
2018-05-31,58.85871887207031
2018-06-01,59.17765426635742
2018-06-04,60.13446807861328
2018-06-05,60.80134582519531
2018-06-06,61.158939361572266
2018-06-07,60.753013610839844
2018-06-08,60.617713928222656
2018-06-11,60.521060943603516
2018-06-12,60.19245910644531
2018-06-13,60.0474853515625
2018-06-14,60.3760871887207
2018-06-15,60.57905578613281
2018-06-18,60.81100082397461
2018-06-19,61.41022491455078
2018-06-20,61.255592346191406
2018-06-21,61.110618591308594
2018-06-22,61.03329849243164
2018-06-25,61.0526237487793
2018-06-26,61.555198669433594
2018-06-27,60.86899185180664
2018-06-28,60.695030212402344
2018-06-29,60.02815628051758
2018-07-02,60.67569351196289
2018-07-03,61.477882385253906
2018-07-05,61.767822265625
2018-07-06,61.99978256225586
2018-07-09,62.463687896728516
2018-07-10,62.0384407043457
2018-07-11,61.9901123046875
2018-07-12,62.63764572143555
2018-07-13,62.3283805847168
2018-07-16,62.28972625732422
2018-07-17,62.656986236572266
2018-07-18,62.71497344970703
2018-07-19,63.28520202636719
2018-07-20,62.96625518798828
2018-07-23,62.63764572143555
2018-07-24,62.241397857666016
2018-07-25,62.26072311401367
2018-07-26,62.64731979370117
2018-07-27,62.56999588012695
2018-07-30,61.777488708496094
2018-07-31,62.63764572143555
2018-08-01,62.35736083984375
2018-08-02,62.83095932006836
2018-08-03,62.49269104003906
2018-08-06,62.9759407043457
2018-08-07,63.46883010864258
2018-08-08,63.507476806640625
2018-08-09,60.791683197021484
2018-08-10,61.207271575927734
2018-08-13,61.429561614990234
2018-08-14,61.927642822265625
2018-08-15,62.014686584472656
2018-08-16,62.043704986572266
2018-08-17,62.95283508300781
2018-08-20,62.84645080566406
2018-08-21,63.42674255371094
2018-08-22,63.39773941040039
2018-08-23,63.29134750366211
2018-08-24,63.46544647216797
2018-08-27,63.42674255371094
2018-08-28,63.281673431396484
2018-08-29,64.07476043701172
2018-08-30,63.88131332397461
2018-08-31,64.31654357910156
2018-09-04,63.68788146972656
2018-09-05,63.35905838012695
2018-09-06,63.44610595703125
2018-09-07,63.12693405151367
2018-09-10,63.38806915283203
2018-09-11,63.36873245239258
2018-09-12,63.43642044067383
2018-09-13,63.48478317260742
2018-09-14,64.06507110595703
2018-09-17,63.861976623535156
2018-09-18,63.85230255126953
2018-09-19,62.16943359375
2018-09-20,63.01087188720703
2018-09-21,63.01087188720703
2018-09-24,62.80777359008789
2018-09-25,62.85612106323242
2018-09-26,62.35319900512695
2018-09-27,62.52729034423828
2018-09-28,62.923824310302734
2018-10-01,61.6278190612793
2018-10-02,61.37636184692383
2018-10-03,61.531105041503906
2018-10-04,60.699337005615234
2018-10-05,60.29313278198242
2018-10-08,60.29313278198242
2018-10-09,60.64131546020508
2018-10-10,61.173255920410156
2018-10-11,59.76119613647461
2018-10-12,60.128719329833984
2018-10-15,60.206085205078125
2018-10-16,62.11140823364258
2018-10-17,62.56597137451172
2018-10-18,62.35319900512695
2018-10-19,62.56597137451172
2018-10-22,63.44610595703125
2018-10-23,62.99152374267578
2018-10-24,62.343528747558594
2018-10-25,63.88131332397461
2018-10-26,63.610511779785156
2018-10-29,63.42674255371094
2018-10-30,63.610511779785156
2018-10-31,62.83677673339844
2018-11-01,62.44023895263672
2018-11-02,61.772891998291016
2018-11-05,62.15976333618164
2018-11-06,61.946990966796875
2018-11-07,63.84262466430664
2018-11-08,64.51964569091797
2018-11-09,65.0225830078125
2018-11-12,64.5680160522461
2018-11-13,64.24884796142578
2018-11-14,63.51101303100586
2018-11-15,64.47212982177734
2018-11-16,64.06439971923828
2018-11-19,62.08391189575195
2018-11-20,61.64704895019531
2018-11-21,64.59832763671875
2018-11-23,65.46236419677734
2018-11-26,66.3846435546875
2018-11-27,66.09341430664062
2018-11-28,67.53992462158203
2018-11-29,67.73409271240234
2018-11-30,69.04469299316406
2018-12-03,69.7436752319336
2018-12-04,68.67578125
2018-12-06,68.3262710571289
2018-12-07,67.82145690917969
2018-12-10,67.36517333984375
2018-12-11,67.9379653930664
2018-12-12,68.2680435180664
2018-12-13,67.90882873535156
2018-12-14,67.43313598632812
2018-12-17,65.59828186035156
2018-12-18,63.84109878540039
2018-12-19,62.78290939331055
2018-12-20,62.47223663330078
2018-12-21,60.92863464355469
2018-12-24,60.59856033325195
2018-12-26,62.520790100097656
2018-12-27,62.50136947631836
2018-12-28,62.8994026184082
2018-12-31,63.19065475463867
2019-01-02,63.10326385498047
2019-01-03,63.025604248046875
2019-01-04,65.03520202636719
2019-01-07,64.39447021484375
2019-01-08,66.32640075683594
2019-01-09,66.53997802734375
2019-01-10,66.93801879882812
2019-01-11,66.64675903320312
2019-01-14,66.161376953125
2019-01-15,66.52056121826172
2019-01-16,67.09335327148438
2019-01-17,67.05450439453125
2019-01-18,67.3748779296875
2019-01-22,67.06422424316406
2019-01-23,67.0447998046875
2019-01-24,67.20984649658203
2019-01-25,67.1321792602539
2019-01-28,67.23895263671875
2019-01-29,66.76326751708984
2019-01-30,66.92830657958984
2019-01-31,68.08357238769531
2019-02-01,68.11270141601562
2019-02-04,68.88935089111328
2019-02-05,69.86018371582031
2019-02-06,69.7436752319336
2019-02-07,68.65635681152344
2019-02-08,67.85057067871094
2019-02-11,67.6467056274414
2019-02-12,67.95738220214844
2019-02-13,68.3262710571289
2019-02-14,70.07025146484375
2019-02-15,71.88240051269531
2019-02-19,71.14195251464844
2019-02-20,70.55738830566406
2019-02-21,69.88514709472656
2019-02-22,70.44047546386719
2019-02-25,70.66455078125
2019-02-26,70.32355499267578
2019-02-27,69.39799499511719
2019-02-28,68.86214447021484
2019-03-01,69.64156341552734
2019-03-04,68.9595718383789
2019-03-05,68.25808715820312
2019-03-06,67.20587158203125
2019-03-07,67.70274353027344
2019-03-08,67.85862731933594
2019-03-11,69.23235321044922
2019-03-12,68.92059326171875
2019-03-13,69.51490783691406
2019-03-14,69.18365478515625
2019-03-15,69.27133178710938
2019-03-18,68.9595718383789
2019-03-19,69.39799499511719
2019-03-20,69.37850952148438
2019-03-21,69.89486694335938
2019-03-22,68.1216812133789
2019-03-25,67.9073486328125
2019-03-26,68.92059326171875
2019-03-27,68.81342315673828
2019-03-28,69.39799499511719
2019-03-29,69.15442657470703
2019-04-01,69.54414367675781
2019-04-02,68.92059326171875
2019-04-03,69.74873352050781
2019-04-04,70.041015625
2019-04-05,69.76822662353516
2019-04-08,69.23235321044922
2019-04-09,68.48218536376953
2019-04-10,68.89136505126953
2019-04-11,68.51139068603516
2019-04-12,68.60882568359375
2019-04-15,68.9887924194336
2019-04-16,68.9400863647461
2019-04-17,68.9595718383789
2019-04-18,69.14469909667969
2019-04-22,68.86214447021484
2019-04-23,69.74873352050781
2019-04-24,70.5768814086914
2019-04-25,70.63533782958984
2019-04-26,71.41474914550781
2019-04-29,71.52192687988281
2019-04-30,71.7557601928711
2019-05-01,71.10298156738281
2019-05-02,70.96658325195312
2019-05-03,71.94087982177734
2019-05-06,71.96034240722656
2019-05-07,70.50867462158203
2019-05-08,70.48918914794922
2019-05-09,70.44047546386719
2019-05-10,70.98606872558594
2019-05-13,69.5733642578125
2019-05-14,69.64179992675781
2019-05-15,69.680908203125
2019-05-16,70.63906860351562
2019-05-17,69.89601135253906
2019-05-20,70.66839599609375
2019-05-21,71.6460952758789
2019-05-22,71.26480102539062
2019-05-23,69.90579223632812
2019-05-24,70.02311706542969
2019-05-28,69.91555786132812
2019-05-29,69.12361907958984
2019-05-30,69.680908203125
2019-05-31,69.66136932373047
2019-06-03,68.47834014892578
2019-06-04,71.22569274902344
2019-06-05,72.23271942138672
2019-06-06,72.4869155883789
2019-06-07,73.01487731933594
2019-06-10,72.76067352294922
2019-06-11,72.8975601196289
2019-06-12,73.87525177001953
2019-06-13,74.18812561035156
2019-06-14,74.1978988647461
2019-06-17,73.81659698486328
2019-06-18,74.00236511230469
2019-06-19,74.1490249633789
2019-06-20,74.66720581054688
2019-06-21,72.9073257446289
2019-06-24,71.94918823242188
2019-06-25,71.40167999267578
2019-06-26,70.03289031982422
2019-06-27,70.6292953491211
2019-06-28,70.92259216308594
2019-07-01,70.99103546142578
2019-07-02,70.932373046875
2019-07-03,71.87096405029297
2019-07-05,72.28160095214844
2019-07-08,72.37937927246094
2019-07-09,72.35982513427734
2019-07-10,72.46737670898438
2019-07-11,72.18383026123047
2019-07-12,72.86823272705078
2019-07-15,72.81934356689453
2019-07-16,72.50647735595703
2019-07-17,71.92962646484375
2019-07-18,72.24249267578125
2019-07-19,71.30390167236328
2019-07-22,71.10836029052734
2019-07-23,71.58744049072266
2019-07-24,72.16427612304688
2019-07-25,71.55809783935547
2019-07-26,72.9073257446289
2019-07-29,72.46737670898438
2019-07-30,72.17405700683594
2019-07-31,71.87096405029297
2019-08-01,71.43099975585938
2019-08-02,69.96444702148438
2019-08-05,67.50064086914062
2019-08-06,68.66410064697266
2019-08-07,68.84009552001953
2019-08-08,77.73719024658203
2019-08-09,74.10013580322266
2019-08-12,74.32500457763672
2019-08-13,74.84319305419922
2019-08-14,74.35273742675781
2019-08-15,74.47044372558594
2019-08-16,75.89276123046875
2019-08-19,76.41263580322266
2019-08-20,77.05023956298828
2019-08-21,77.12870025634766
2019-08-22,76.05950927734375
2019-08-23,74.37235260009766
2019-08-26,75.07860565185547
2019-08-27,74.47044372558594
2019-08-28,74.8922348022461
2019-08-29,75.43173217773438
2019-08-30,75.47097778320312
2019-09-03,75.35326385498047
2019-09-04,76.72652435302734
2019-09-05,77.36412048339844
2019-09-06,76.38322448730469
2019-09-09,77.24640655517578
2019-09-10,76.97176361083984
2019-09-11,78.24693298339844
2019-09-12,79.11994934082031
2019-09-13,79.85562133789062
2019-09-16,77.9722900390625
2019-09-17,78.88452911376953
2019-09-18,78.32540130615234
2019-09-19,78.31558990478516
2019-09-20,76.54015350341797
2019-09-23,76.47149658203125
2019-09-24,76.29492950439453
2019-09-25,76.97176361083984
2019-09-26,76.3537826538086
2019-09-27,75.80448150634766
2019-09-30,75.78485870361328
2019-10-01,75.00994873046875
2019-10-02,73.70533752441406
2019-10-03,73.62686920166016
2019-10-04,74.46064758300781
2019-10-07,74.03884887695312
2019-10-08,72.65576934814453
2019-10-09,72.7930908203125
2019-10-10,72.322265625
2019-10-11,73.11678314208984
2019-10-14,72.80290222167969
2019-10-15,73.78380584716797
2019-10-16,73.77399444580078
2019-10-17,74.8922348022461
2019-10-18,75.89276123046875
2019-10-21,76.51072692871094
2019-10-22,74.59796905517578
2019-10-23,73.44049835205078
2019-10-24,73.08737182617188
2019-10-25,73.60723876953125
2019-10-28,73.42086791992188
2019-10-29,74.34293365478516
2019-10-30,75.62791442871094
2019-10-31,75.2747802734375
2019-11-01,74.35273742675781
2019-11-04,73.82304382324219
2019-11-05,74.36254119873047
2019-11-06,74.4508285522461
2019-11-07,74.53910064697266
2019-11-08,74.93146514892578
2019-11-11,74.51948547363281
2019-11-12,74.72547912597656
2019-11-13,74.94127655029297
2019-11-14,75.77811431884766
2019-11-15,76.44758605957031
2019-11-18,76.3294448852539
2019-11-19,75.03973388671875
2019-11-20,73.838623046875
2019-11-21,73.57280731201172
2019-11-22,72.87379455566406
2019-11-25,74.31118774414062
2019-11-26,74.49824523925781
2019-11-27,74.58686065673828
2019-11-29,73.49404907226562
2019-12-02,73.00179290771484
2019-12-03,72.77534484863281
2019-12-04,73.17899322509766
2019-12-05,73.39559173583984
2019-12-06,73.46451568603516
2019-12-09,72.932861328125
2019-12-10,72.30277252197266
2019-12-11,72.3421630859375
2019-12-12,72.2240219116211
2019-12-13,72.03695678710938
2019-12-16,72.60798645019531
2019-12-17,72.13540649414062
2019-12-18,72.56859588623047
2019-12-19,73.04116821289062
2019-12-20,73.9863052368164
2019-12-23,73.36605072021484
2019-12-24,72.97225189208984
2019-12-26,73.13961029052734
2019-12-27,73.13961029052734
2019-12-30,73.66140747070312
2019-12-31,73.23806762695312
