Date,MTN
2007-12-31,44.090057373046875
2008-01-02,42.66434097290039
2008-01-03,42.91835021972656
2008-01-04,42.787269592285156
2008-01-07,42.33659744262695
2008-01-08,41.89414978027344
2008-01-09,42.91016387939453
2008-01-10,43.14777374267578
2008-01-11,40.910911560058594
2008-01-14,40.55858612060547
2008-01-15,37.84648513793945
2008-01-16,36.5436897277832
2008-01-17,34.24946975708008
2008-01-18,34.872188568115234
2008-01-22,36.551883697509766
2008-01-23,38.24797058105469
2008-01-24,38.10867691040039
2008-01-25,37.518741607666016
2008-01-28,37.38764190673828
2008-01-29,37.920223236083984
2008-01-30,37.78913879394531
2008-01-31,38.60848617553711
2008-02-01,40.43567657470703
2008-02-04,40.60775375366211
2008-02-05,39.38689422607422
2008-02-06,38.51018142700195
2008-02-07,37.75634765625
2008-02-08,37.66622543334961
2008-02-11,37.953006744384766
2008-02-12,38.60848617553711
2008-02-13,40.239044189453125
2008-02-14,39.66548156738281
2008-02-15,39.009986877441406
2008-02-19,38.05132293701172
2008-02-20,38.59210968017578
2008-02-21,37.445003509521484
2008-02-22,37.928428649902344
2008-02-25,37.13364028930664
2008-02-26,37.90383529663086
2008-02-27,37.86287307739258
2008-02-28,37.6170539855957
2008-02-29,37.07628631591797
2008-03-03,36.87144088745117
2008-03-04,35.150779724121094
2008-03-05,34.00365447998047
2008-03-06,33.14333724975586
2008-03-07,34.10198974609375
2008-03-10,32.77460479736328
2008-03-11,34.224891662597656
2008-03-12,33.79063415527344
2008-03-13,34.29862594604492
2008-03-14,33.50384521484375
2008-03-17,33.03681182861328
2008-03-18,34.94593048095703
2008-03-19,34.642765045166016
2008-03-20,36.76491928100586
2008-03-24,38.43643569946289
2008-03-25,38.805137634277344
2008-03-26,37.80552673339844
2008-03-27,37.43679428100586
2008-03-28,38.157840728759766
2008-03-31,39.56714630126953
2008-04-01,40.304588317871094
2008-04-02,40.51762008666992
2008-04-03,39.90309524536133
2008-04-04,40.2308349609375
2008-04-07,40.271812438964844
2008-04-08,38.99360656738281
2008-04-09,38.43643569946289
2008-04-10,38.01034927368164
2008-04-11,38.02675247192383
2008-04-14,37.09266662597656
2008-04-15,37.543312072753906
2008-04-16,38.239768981933594
2008-04-17,38.64946746826172
2008-04-18,38.837928771972656
2008-04-21,39.624507904052734
2008-04-22,39.03458023071289
2008-04-23,37.8218994140625
2008-04-24,38.68223571777344
2008-04-25,39.3541145324707
2008-04-28,39.370513916015625
2008-04-29,39.61630630493164
2008-04-30,40.00961685180664
2008-05-01,40.747039794921875
2008-05-02,40.29639434814453
2008-05-05,39.96044921875
2008-05-06,40.05876541137695
2008-05-07,39.165653228759766
2008-05-08,39.34592056274414
2008-05-09,38.91985321044922
2008-05-12,40.19806671142578
2008-05-13,40.94367980957031
2008-05-14,41.28782272338867
2008-05-15,41.271427154541016
2008-05-16,40.96006774902344
2008-05-19,40.86174774169922
2008-05-20,41.050209045410156
2008-05-21,39.67366409301758
2008-05-22,40.12432098388672
2008-05-23,38.93624496459961
2008-05-27,39.837547302246094
2008-05-28,40.484840393066406
2008-05-29,41.09117889404297
2008-05-30,40.79620361328125
2008-06-02,39.12470245361328
2008-06-03,38.911651611328125
2008-06-04,40.2308349609375
2008-06-05,38.157840728759766
2008-06-06,36.25692367553711
2008-06-09,35.88821029663086
2008-06-10,36.076656341552734
2008-06-11,35.76530456542969
2008-06-12,35.134395599365234
2008-06-13,35.806270599365234
2008-06-16,35.74071502685547
2008-06-17,35.64239501953125
2008-06-18,35.70793914794922
2008-06-19,35.339237213134766
2008-06-20,35.26548767089844
2008-06-23,35.02786636352539
2008-06-24,34.986907958984375
2008-06-25,35.69155502319336
2008-06-26,34.97051239013672
2008-06-27,34.68374252319336
2008-06-30,35.09341812133789
2008-07-01,34.08559799194336
2008-07-02,33.12693786621094
2008-07-03,33.19248962402344
2008-07-07,31.832347869873047
2008-07-08,31.307945251464844
2008-07-09,30.578716278076172
2008-07-10,29.841283798217773
2008-07-11,29.742961883544922
2008-07-14,28.464759826660156
2008-07-15,27.456928253173828
2008-07-16,29.308704376220703
2008-07-17,30.439424514770508
2008-07-18,30.23458480834961
2008-07-21,30.972002029418945
2008-07-22,32.78280258178711
2008-07-23,34.241275787353516
2008-07-24,31.283370971679688
2008-07-25,32.594364166259766
2008-07-28,32.07815170288086
2008-07-29,33.20886993408203
2008-07-30,32.979454040527344
2008-07-31,33.085968017578125
2008-08-01,33.798828125
2008-08-04,33.4055290222168
2008-08-05,33.5939826965332
2008-08-06,34.126564025878906
2008-08-07,32.88933563232422
2008-08-08,35.175357818603516
2008-08-11,36.99435043334961
2008-08-12,36.15858840942383
2008-08-13,36.46995544433594
2008-08-14,36.37982177734375
2008-08-15,36.34705352783203
2008-08-18,35.86362075805664
2008-08-19,35.51948165893555
2008-08-20,36.03569412231445
2008-08-21,35.806270599365234
2008-08-22,36.01111602783203
2008-08-25,34.54444885253906
2008-08-26,34.560821533203125
2008-08-27,34.675537109375
2008-08-28,36.265106201171875
2008-08-29,36.04387283325195
2008-09-02,35.658790588378906
2008-09-03,37.47776412963867
2008-09-04,36.69938278198242
2008-09-05,35.56045913696289
2008-09-08,36.87144088745117
2008-09-09,35.945560455322266
2008-09-10,36.027496337890625
2008-09-11,36.04387283325195
2008-09-12,34.134765625
2008-09-15,33.50384521484375
2008-09-16,32.48783874511719
2008-09-17,31.324325561523438
2008-09-18,33.26622772216797
2008-09-19,34.41333770751953
2008-09-22,33.733272552490234
2008-09-23,32.848358154296875
2008-09-24,33.102359771728516
2008-09-25,31.1932373046875
2008-09-26,30.095291137695312
2008-09-29,30.636064529418945
2008-09-30,28.636823654174805
2008-10-01,27.817455291748047
2008-10-02,25.285614013671875
2008-10-03,24.580961227416992
2008-10-06,23.007780075073242
2008-10-07,23.96643829345703
2008-10-08,22.09828758239746
2008-10-09,19.72212791442871
2008-10-10,21.426408767700195
2008-10-13,23.55675506591797
2008-10-14,23.548561096191406
2008-10-15,20.295682907104492
2008-10-16,19.615602493286133
2008-10-17,20.287487030029297
2008-10-20,19.951547622680664
2008-10-21,19.517290115356445
2008-10-22,19.271474838256836
2008-10-23,20.631620407104492
2008-10-24,20.107227325439453
2008-10-27,20.07444953918457
2008-10-28,22.40144920349121
2008-10-29,25.728071212768555
2008-10-30,27.52248764038086
2008-10-31,27.25208854675293
2008-11-03,25.62974739074707
2008-11-04,25.285614013671875
2008-11-05,24.277795791625977
2008-11-06,21.393634796142578
2008-11-07,20.221939086914062
2008-11-10,20.271095275878906
2008-11-11,20.41039276123047
2008-11-12,18.575016021728516
2008-11-13,22.147443771362305
2008-11-14,18.321008682250977
2008-11-17,16.69866371154785
2008-11-18,15.928460121154785
2008-11-19,13.994759559631348
2008-11-20,12.90500545501709
2008-11-21,13.56869125366211
2008-11-24,15.608909606933594
2008-11-25,16.10872459411621
2008-11-26,17.354158401489258
2008-11-28,17.821197509765625
2008-12-01,14.912446975708008
2008-12-02,16.747827529907227
2008-12-03,17.288606643676758
2008-12-04,16.739633560180664
2008-12-05,17.821197509765625
2008-12-08,18.361974716186523
2008-12-09,16.559368133544922
2008-12-10,16.969053268432617
2008-12-11,15.887492179870605
2008-12-12,16.116912841796875
2008-12-15,16.633113861083984
2008-12-16,19.451732635498047
2008-12-17,19.8778018951416
2008-12-18,19.517290115356445
2008-12-19,19.8778018951416
2008-12-22,19.631994247436523
2008-12-23,19.705738067626953
2008-12-24,20.271095275878906
2008-12-26,20.4185848236084
2008-12-29,20.41039276123047
2008-12-30,20.631620407104492
2008-12-31,21.795116424560547
2009-01-02,21.631244659423828
2009-01-05,23.696044921875
2009-01-06,24.613731384277344
2009-01-07,23.237205505371094
2009-01-08,23.43385124206543
2009-01-09,22.09828758239746
2009-01-12,20.787303924560547
2009-01-13,21.23795509338379
2009-01-14,19.47631072998047
2009-01-15,19.746702194213867
2009-01-16,20.107227325439453
2009-01-20,18.42753028869629
2009-01-21,19.123985290527344
2009-01-22,19.45992660522461
2009-01-23,19.02566146850586
2009-01-26,18.960111618041992
2009-01-27,19.894187927246094
2009-01-28,21.1478214263916
2009-01-29,19.67296028137207
2009-01-30,19.107603073120117
2009-02-02,19.886001586914062
2009-02-03,19.812253952026367
2009-02-04,20.15639305114746
2009-02-05,19.3452205657959
2009-02-06,20.852855682373047
2009-02-09,21.34446907043457
2009-02-10,19.197731018066406
2009-02-11,18.869983673095703
2009-02-12,19.18954086303711
2009-02-13,17.927715301513672
2009-02-17,17.3377685546875
2009-02-18,17.313190460205078
2009-02-19,16.411882400512695
2009-02-20,16.739633560180664
2009-02-23,15.57613754272461
2009-02-24,16.64950942993164
2009-02-25,15.789175033569336
2009-02-26,15.57613754272461
2009-02-27,15.469616889953613
2009-03-02,14.347088813781738
2009-03-03,14.568315505981445
2009-03-04,14.54373550415039
2009-03-05,13.961989402770996
2009-03-06,13.175394058227539
2009-03-09,12.126606941223145
2009-03-10,13.527724266052246
2009-03-11,15.207416534423828
2009-03-12,17.706485748291016
2009-03-13,17.010026931762695
2009-03-16,16.03498077392578
2009-03-17,15.994014739990234
2009-03-18,16.878925323486328
2009-03-19,16.469247817993164
2009-03-20,16.60853385925293
2009-03-23,18.181726455688477
2009-03-24,18.296428680419922
2009-03-25,18.96830940246582
2009-03-26,19.29605484008789
2009-03-27,17.862167358398438
2009-03-30,16.502016067504883
2009-03-31,16.739633560180664
2009-04-01,17.862167358398438
2009-04-02,19.115793228149414
2009-04-03,20.82007598876953
2009-04-06,19.910572052001953
2009-04-07,18.788049697875977
2009-04-08,20.271095275878906
2009-04-09,21.450979232788086
2009-04-13,21.22156524658203
2009-04-14,20.107227325439453
2009-04-15,20.336647033691406
2009-04-16,20.983949661254883
2009-04-17,21.90163230895996
2009-04-20,19.951547622680664
2009-04-21,20.402196884155273
2009-04-22,21.164213180541992
2009-04-23,21.09865951538086
2009-04-24,22.245771408081055
2009-04-27,22.7537784576416
2009-04-28,22.97500228881836
2009-04-29,23.2945556640625
2009-04-30,23.92547035217285
2009-05-01,23.327329635620117
2009-05-04,24.097536087036133
2009-05-05,24.834962844848633
2009-05-06,24.245019912719727
2009-05-07,22.18021583557129
2009-05-08,22.475191116333008
2009-05-11,22.024538040161133
2009-05-12,22.065513610839844
2009-05-13,19.62380027770996
2009-05-14,20.303876876831055
2009-05-15,21.491960525512695
2009-05-18,23.08152198791504
2009-05-19,22.966814041137695
2009-05-20,21.631244659423828
2009-05-21,21.03311538696289
2009-05-22,20.746328353881836
2009-05-26,22.598098754882812
2009-05-27,22.38506317138672
2009-05-28,22.262161254882812
2009-05-29,22.524351119995117
2009-06-01,23.581336975097656
2009-06-02,24.10573387145996
2009-06-03,23.671463012695312
2009-06-04,23.45023536682129
2009-06-05,24.580961227416992
2009-06-08,25.04800033569336
2009-06-09,24.646507263183594
2009-06-10,23.75340461730957
2009-06-11,23.360105514526367
2009-06-12,23.696044921875
2009-06-15,22.09828758239746
2009-06-16,22.00815773010254
2009-06-17,22.2949275970459
2009-06-18,22.32770347595215
2009-06-19,23.0241641998291
2009-06-22,21.623046875
2009-06-23,21.090469360351562
2009-06-24,20.934783935546875
2009-06-25,21.352664947509766
2009-06-26,22.18021583557129
2009-06-29,22.40144920349121
2009-06-30,21.97538185119629
2009-07-01,22.589900970458984
2009-07-02,21.99995231628418
2009-07-06,20.82007598876953
2009-07-07,20.525104522705078
2009-07-08,20.320262908935547
2009-07-09,20.26290512084961
2009-07-10,20.828266143798828
2009-07-13,21.50834083557129
2009-07-14,22.172025680541992
2009-07-15,23.49940299987793
2009-07-16,23.638694763183594
2009-07-17,23.630496978759766
2009-07-20,23.761600494384766
2009-07-21,23.532176971435547
2009-07-22,23.761600494384766
2009-07-23,24.048370361328125
2009-07-24,23.761600494384766
2009-07-27,23.92547035217285
2009-07-28,23.82714080810547
2009-07-29,23.573139190673828
2009-07-30,23.745206832885742
2009-07-31,23.442041397094727
2009-08-03,23.704238891601562
2009-08-04,23.704238891601562
2009-08-05,23.96643829345703
2009-08-06,24.023794174194336
2009-08-07,25.777231216430664
2009-08-10,25.66252326965332
2009-08-11,25.637941360473633
2009-08-12,26.129562377929688
2009-08-13,26.25246810913086
2009-08-14,25.154512405395508
2009-08-17,23.941862106323242
2009-08-18,24.310575485229492
2009-08-19,24.605541229248047
2009-08-20,24.998842239379883
2009-08-21,26.02304458618164
2009-08-24,25.383935928344727
2009-08-25,25.80181312561035
2009-08-26,26.088590621948242
2009-08-27,26.70311737060547
2009-08-28,27.866615295410156
2009-08-31,27.13738250732422
2009-09-01,25.31839370727539
2009-09-02,25.359355926513672
2009-09-03,25.67071533203125
2009-09-04,26.137754440307617
2009-09-08,26.367177963256836
2009-09-09,26.875181198120117
2009-09-10,26.79324722290039
2009-09-11,26.79324722290039
2009-09-14,27.27666664123535
2009-09-15,28.1124267578125
2009-09-16,28.497528076171875
2009-09-17,28.014102935791016
2009-09-18,29.218564987182617
2009-09-21,28.972759246826172
2009-09-22,29.36605453491211
2009-09-23,29.29231071472168
2009-09-24,30.414833068847656
2009-09-25,29.39883041381836
2009-09-28,28.268104553222656
2009-09-29,28.18617057800293
2009-09-30,27.481521606445312
2009-10-01,26.096790313720703
2009-10-02,25.744455337524414
2009-10-05,26.10498046875
2009-10-06,26.842409133911133
2009-10-07,28.1779727935791
2009-10-08,28.497528076171875
2009-10-09,29.50534439086914
2009-10-12,29.824893951416016
2009-10-13,29.456188201904297
2009-10-14,30.152639389038086
2009-10-15,30.464008331298828
2009-10-16,30.34929084777832
2009-10-19,30.677043914794922
2009-10-20,30.89826202392578
2009-10-21,30.02154541015625
2009-10-22,30.324710845947266
2009-10-23,30.300128936767578
2009-10-26,30.00515365600586
2009-10-27,29.185802459716797
2009-10-28,28.137008666992188
2009-10-29,29.431608200073242
2009-10-30,28.218936920166016
2009-11-02,27.940357208251953
2009-11-03,28.472946166992188
2009-11-04,28.48114013671875
2009-11-05,29.865877151489258
2009-11-06,29.50534439086914
2009-11-09,30.447614669799805
2009-11-10,30.48857307434082
2009-11-11,30.939233779907227
2009-11-12,31.09491539001465
2009-11-13,31.111305236816406
2009-11-16,31.95524787902832
2009-11-17,31.873321533203125
2009-11-18,31.217819213867188
2009-11-19,31.08672332763672
2009-11-20,30.939233779907227
2009-11-23,31.627500534057617
2009-11-24,31.307945251464844
2009-11-25,31.873321533203125
2009-11-27,31.545576095581055
2009-11-30,31.783184051513672
2009-12-01,31.95524787902832
2009-12-02,32.49602508544922
2009-12-03,32.18466567993164
2009-12-04,32.93849563598633
2009-12-07,33.86436462402344
2009-12-08,31.545576095581055
2009-12-09,31.012971878051758
2009-12-10,30.578716278076172
2009-12-11,31.578350067138672
2009-12-14,31.81596565246582
2009-12-15,31.71763038635254
2009-12-16,31.84054183959961
2009-12-17,31.79958152770996
2009-12-18,32.43867492675781
2009-12-21,32.9302978515625
2009-12-22,32.10272979736328
2009-12-23,32.03717803955078
2009-12-24,32.209251403808594
2009-12-28,31.930660247802734
2009-12-29,31.455432891845703
2009-12-30,30.8572940826416
2009-12-31,30.972002029418945
2010-01-04,29.882259368896484
2010-01-05,29.939619064331055
2010-01-06,29.030120849609375
2010-01-07,29.48896598815918
2010-01-08,30.636064529418945
2010-01-11,30.537748336791992
2010-01-12,30.332910537719727
2010-01-13,31.012971878051758
2010-01-14,30.767173767089844
2010-01-15,30.144441604614258
2010-01-19,30.046123504638672
2010-01-20,29.16121482849121
2010-01-21,28.88262939453125
2010-01-22,28.685976028442383
2010-01-25,27.686359405517578
2010-01-26,29.144832611083984
2010-01-27,29.218564987182617
2010-01-28,28.677785873413086
2010-01-29,27.61261558532715
2010-02-01,27.47332000732422
2010-02-02,28.448366165161133
2010-02-03,28.899011611938477
2010-02-04,27.55526351928711
2010-02-05,27.293054580688477
2010-02-08,26.97350311279297
2010-02-09,27.694543838500977
2010-02-10,27.743709564208984
2010-02-11,28.284496307373047
2010-02-12,28.587656021118164
2010-02-16,28.718753814697266
2010-02-17,29.415225982666016
2010-02-18,29.73476219177246
2010-02-19,29.73476219177246
2010-02-22,30.185420989990234
2010-02-23,29.17760467529297
2010-02-24,29.652833938598633
2010-02-25,29.661022186279297
2010-02-26,29.50534439086914
2010-03-01,30.595094680786133
2010-03-02,30.013355255126953
2010-03-03,29.73476219177246
2010-03-04,29.374258041381836
2010-03-05,30.3165283203125
2010-03-08,30.10348892211914
2010-03-09,30.55413246154785
2010-03-10,32.692684173583984
2010-03-11,31.963441848754883
2010-03-12,32.414093017578125
2010-03-15,32.65170669555664
2010-03-16,32.78280258178711
2010-03-17,32.946678161621094
2010-03-18,32.75822830200195
2010-03-19,32.70087432861328
2010-03-22,33.38915252685547
2010-03-23,33.71689224243164
2010-03-24,33.88895797729492
2010-03-25,33.74147033691406
2010-03-26,33.36454772949219
2010-03-29,33.38915252685547
2010-03-30,33.61036682128906
2010-03-31,32.848358154296875
2010-04-01,33.69230651855469
2010-04-05,34.55264663696289
2010-04-06,34.61819076538086
2010-04-07,34.560821533203125
2010-04-08,34.560821533203125
2010-04-09,35.32283020019531
2010-04-12,35.11800765991211
2010-04-13,36.08484649658203
2010-04-14,36.65019989013672
2010-04-15,36.91239929199219
2010-04-16,36.093055725097656
2010-04-19,35.945560455322266
2010-04-20,35.757102966308594
2010-04-21,35.8718147277832
2010-04-22,37.281131744384766
2010-04-23,39.32953643798828
2010-04-26,38.93624496459961
2010-04-27,37.69898986816406
2010-04-28,37.453189849853516
2010-04-29,38.01034927368164
2010-04-30,37.395835876464844
2010-05-03,38.5511474609375
2010-05-04,37.46957015991211
2010-05-05,36.83047866821289
2010-05-06,35.36381149291992
2010-05-07,33.9299201965332
2010-05-10,35.24909591674805
2010-05-11,36.24052429199219
2010-05-12,37.543312072753906
2010-05-13,37.31389236450195
2010-05-14,36.39621353149414
2010-05-17,36.06026840209961
2010-05-18,35.33102798461914
2010-05-19,35.101619720458984
2010-05-20,32.47964096069336
2010-05-21,32.848358154296875
2010-05-24,32.848358154296875
2010-05-25,32.80739974975586
2010-05-26,33.44649887084961
2010-05-27,34.749290466308594
2010-05-28,34.09379196166992
2010-06-01,33.184295654296875
2010-06-02,33.5939826965332
2010-06-03,33.97908401489258
2010-06-04,32.471458435058594
2010-06-07,31.520980834960938
2010-06-08,31.299755096435547
2010-06-09,29.50534439086914
2010-06-10,31.06214141845703
2010-06-11,32.02899169921875
2010-06-14,32.848358154296875
2010-06-15,33.921722412109375
2010-06-16,33.184295654296875
2010-06-17,32.80739974975586
2010-06-18,33.20886993408203
2010-06-21,32.85655212402344
2010-06-22,32.094539642333984
2010-06-23,31.938859939575195
2010-06-24,31.693052291870117
2010-06-25,32.06996154785156
2010-06-28,31.29156494140625
2010-06-29,29.759349822998047
2010-06-30,28.604042053222656
2010-07-01,28.73514175415039
2010-07-02,28.194358825683594
2010-07-06,27.76009178161621
2010-07-07,28.685976028442383
2010-07-08,29.562702178955078
2010-07-09,29.972383499145508
2010-07-12,29.62006187438965
2010-07-13,30.72620391845703
2010-07-14,30.34929084777832
2010-07-15,30.537748336791992
2010-07-16,28.579465866088867
2010-07-19,28.546688079833984
2010-07-20,29.185802459716797
2010-07-21,28.77610969543457
2010-07-22,29.996973037719727
2010-07-23,32.06175994873047
2010-07-26,32.91391372680664
2010-07-27,32.594364166259766
2010-07-28,31.635692596435547
2010-07-29,31.16866111755371
2010-07-30,31.03755760192871
2010-08-02,31.520980834960938
2010-08-03,30.758981704711914
2010-08-04,31.283370971679688
2010-08-05,30.693424224853516
2010-08-06,30.078899383544922
2010-08-09,30.84911346435547
2010-08-10,30.267353057861328
2010-08-11,28.546688079833984
2010-08-12,27.93216323852539
2010-08-13,27.743709564208984
2010-08-16,28.1124267578125
2010-08-17,29.005538940429688
2010-08-18,29.226755142211914
2010-08-19,28.31726837158203
2010-08-20,28.53030014038086
2010-08-23,27.850223541259766
2010-08-24,26.965314865112305
2010-08-25,27.317636489868164
2010-08-26,27.21112823486328
2010-08-27,28.18617057800293
2010-08-30,27.36680793762207
2010-08-31,27.063634872436523
2010-09-01,28.309072494506836
2010-09-02,29.29231071472168
2010-09-03,29.833091735839844
2010-09-07,28.78430938720703
2010-09-08,28.858047485351562
2010-09-09,29.0465087890625
2010-09-10,29.382436752319336
2010-09-13,30.185420989990234
2010-09-14,30.111675262451172
2010-09-15,30.037927627563477
2010-09-16,29.685606002807617
2010-09-17,29.85767364501953
2010-09-20,30.931041717529297
2010-09-21,30.480390548706055
2010-09-22,29.685606002807617
2010-09-23,29.005538940429688
2010-09-24,30.423036575317383
2010-09-27,30.55413246154785
2010-09-28,30.98839569091797
2010-09-29,30.808141708374023
2010-09-30,30.742589950561523
2010-10-01,31.693052291870117
2010-10-04,31.49640464782715
2010-10-05,32.61893844604492
2010-10-06,32.3403434753418
2010-10-07,32.209251403808594
2010-10-08,33.085968017578125
2010-10-11,33.13513946533203
2010-10-12,32.88933563232422
2010-10-13,33.20886993408203
2010-10-14,32.45506286621094
2010-10-15,32.18466567993164
2010-10-18,32.4058952331543
2010-10-19,31.98802947998047
2010-10-20,32.22564697265625
2010-10-21,32.10272979736328
2010-10-22,32.45506286621094
2010-10-25,33.24164581298828
2010-10-26,33.561195373535156
2010-10-27,33.561195373535156
2010-10-28,33.462890625
2010-10-29,33.23344802856445
2010-11-01,33.04501724243164
2010-11-02,33.32358932495117
2010-11-03,33.512046813964844
2010-11-04,35.060646057128906
2010-11-05,35.150779724121094
2010-11-08,34.92134475708008
2010-11-09,34.10198974609375
2010-11-10,35.32283020019531
2010-11-11,36.06846618652344
2010-11-12,35.73253631591797
2010-11-15,36.027496337890625
2010-11-16,34.79844284057617
2010-11-17,35.29825973510742
2010-11-18,36.35523223876953
2010-11-19,37.182796478271484
2010-11-22,37.38764190673828
2010-11-23,37.141841888427734
2010-11-24,38.469200134277344
2010-11-26,38.09229278564453
2010-11-29,37.87925720214844
2010-11-30,37.10085678100586
2010-12-01,38.57571792602539
2010-12-02,38.91985321044922
2010-12-03,39.157470703125
2010-12-06,40.22263717651367
2010-12-07,41.54182815551758
2010-12-08,42.000667572021484
2010-12-09,42.92656326293945
2010-12-10,43.7786979675293
2010-12-13,43.31984329223633
2010-12-14,42.94293975830078
2010-12-15,42.73807907104492
2010-12-16,43.01668167114258
2010-12-17,43.63120651245117
2010-12-20,43.590232849121094
2010-12-21,43.754112243652344
2010-12-22,43.72952651977539
2010-12-23,43.6475944519043
2010-12-27,43.7786979675293
2010-12-28,43.45913314819336
2010-12-29,43.47552490234375
2010-12-30,42.97572708129883
2010-12-31,42.63977813720703
2011-01-03,42.97572708129883
2011-01-04,42.574214935302734
2011-01-05,43.3690071105957
2011-01-06,43.287071228027344
2011-01-07,42.19731903076172
2011-01-10,42.5660400390625
2011-01-11,42.12358093261719
2011-01-12,42.74628448486328
2011-01-13,43.25428771972656
2011-01-14,43.52469253540039
2011-01-18,42.98392105102539
2011-01-19,41.95970916748047
2011-01-20,41.13214874267578
2011-01-21,40.4930419921875
2011-01-24,40.714271545410156
2011-01-25,39.85393524169922
2011-01-26,41.263240814208984
2011-01-27,40.96006774902344
2011-01-28,39.27217102050781
2011-01-31,39.370513916015625
2011-02-01,40.68968963623047
2011-02-02,40.60775375366211
2011-02-03,40.2308349609375
2011-02-04,40.1570930480957
2011-02-07,40.82078552246094
2011-02-08,41.06658935546875
2011-02-09,40.787994384765625
2011-02-10,40.902713775634766
2011-02-11,41.55001449584961
2011-02-14,41.49265670776367
2011-02-15,40.85355758666992
2011-02-16,40.681495666503906
2011-02-17,40.60775375366211
2011-02-18,40.39469909667969
2011-02-22,38.4855842590332
2011-02-23,37.87925720214844
2011-02-24,38.018550872802734
2011-02-25,40.51762008666992
2011-02-28,39.985023498535156
2011-03-01,39.17385482788086
2011-03-02,39.03458023071289
2011-03-03,39.61630630493164
2011-03-04,39.20663070678711
2011-03-07,39.32953643798828
2011-03-08,40.67329406738281
2011-03-09,40.828975677490234
2011-03-10,39.82935333251953
2011-03-11,40.640525817871094
2011-03-14,39.878517150878906
2011-03-15,40.05876541137695
2011-03-16,38.87889099121094
2011-03-17,39.18204879760742
2011-03-18,40.05876541137695
2011-03-21,41.06658935546875
2011-03-22,40.85355758666992
2011-03-23,40.4274787902832
2011-03-24,40.648712158203125
2011-03-25,40.82078552246094
2011-03-28,39.51799392700195
2011-03-29,40.083351135253906
2011-03-30,40.460262298583984
2011-03-31,39.9522590637207
2011-04-01,39.772003173828125
2011-04-04,39.48521423339844
2011-04-05,39.075531005859375
2011-04-06,40.00141525268555
2011-04-07,40.484840393066406
2011-04-08,40.04237747192383
2011-04-11,40.304588317871094
2011-04-12,40.67329406738281
2011-04-13,40.6241340637207
2011-04-14,39.53438949584961
2011-04-15,40.10793685913086
2011-04-18,39.42786407470703
2011-04-19,39.09191131591797
2011-04-20,39.51799392700195
2011-04-21,39.64909744262695
2011-04-25,39.231204986572266
2011-04-26,39.403289794921875
2011-04-27,39.87031936645508
2011-04-28,40.07514953613281
2011-04-29,40.14070510864258
2011-05-02,39.82935333251953
2011-05-03,39.2967643737793
2011-05-04,38.57571792602539
2011-05-05,38.9608268737793
2011-05-06,38.60848617553711
2011-05-09,38.64946746826172
2011-05-10,40.747039794921875
2011-05-11,39.38689422607422
2011-05-12,38.8297233581543
2011-05-13,37.87925720214844
2011-05-16,36.666595458984375
2011-05-17,36.91239929199219
2011-05-18,37.674407958984375
2011-05-19,37.86287307739258
2011-05-20,37.25653076171875
2011-05-23,37.625267028808594
2011-05-24,37.87107467651367
2011-05-25,38.54294967651367
2011-05-26,39.54257583618164
2011-05-27,39.10011291503906
2011-05-31,39.86212921142578
2011-06-01,38.10047912597656
2011-06-02,38.01034927368164
2011-06-03,37.174598693847656
2011-06-06,36.35523223876953
2011-06-07,35.798072814941406
2011-06-08,35.56864929199219
2011-06-09,37.31389236450195
2011-06-10,35.60142517089844
2011-06-13,35.929161071777344
2011-06-14,37.0189208984375
2011-06-15,36.65841293334961
2011-06-16,36.51911544799805
2011-06-17,36.32246780395508
2011-06-20,36.76491928100586
2011-06-21,37.36305618286133
2011-06-22,36.70757293701172
2011-06-23,36.73215103149414
2011-06-24,36.21596145629883
2011-06-27,36.48634338378906
2011-06-28,37.207374572753906
2011-06-29,37.74995803833008
2011-06-30,37.996585845947266
2011-07-01,38.50627899169922
2011-07-05,38.432273864746094
2011-07-06,38.243202209472656
2011-07-07,38.69534683227539
2011-07-08,38.33362579345703
2011-07-11,36.862125396728516
2011-07-12,36.92786407470703
2011-07-13,37.158058166503906
2011-07-14,36.62370681762695
2011-07-15,37.018310546875
2011-07-18,36.17155456542969
2011-07-19,37.46222686767578
2011-07-20,37.19093704223633
2011-07-21,37.717063903808594
2011-07-22,37.96370315551758
2011-07-25,37.81571960449219
2011-07-26,37.85683059692383
2011-07-27,37.158058166503906
2011-07-28,37.40468215942383
2011-07-29,37.610206604003906
2011-08-01,37.19915771484375
2011-08-02,35.51390075683594
2011-08-03,36.29486846923828
2011-08-04,34.65070724487305
2011-08-05,33.91084289550781
2011-08-08,30.984228134155273
2011-08-09,32.907894134521484
2011-08-10,30.95134735107422
2011-08-11,32.8256950378418
2011-08-12,33.212074279785156
2011-08-15,33.919044494628906
2011-08-16,33.01476287841797
2011-08-17,32.266685485839844
2011-08-18,29.471593856811523
2011-08-19,28.57552719116211
2011-08-22,28.665964126586914
2011-08-23,30.81159019470215
2011-08-24,31.189743041992188
2011-08-25,29.849763870239258
2011-08-26,30.680057525634766
2011-08-29,33.02298355102539
2011-08-30,33.0394287109375
2011-08-31,33.23672866821289
2011-09-01,32.118709564208984
2011-09-02,30.32656478881836
2011-09-06,29.981292724609375
2011-09-07,31.49391746520996
2011-09-08,30.3676700592041
2011-09-09,29.2496395111084
2011-09-12,29.23319435119629
2011-09-13,29.64423179626465
2011-09-14,30.548526763916016
2011-09-15,31.49391746520996
2011-09-16,31.206192016601562
2011-09-19,31.444591522216797
2011-09-20,32.59550476074219
2011-09-21,32.74348831176758
2011-09-22,30.211471557617188
2011-09-23,30.671833038330078
2011-09-26,32.735260009765625
2011-09-27,32.83391189575195
2011-09-28,32.685935974121094
2011-09-29,33.401145935058594
2011-09-30,31.066436767578125
2011-10-03,29.340070724487305
2011-10-04,31.80631446838379
2011-10-05,32.04471969604492
2011-10-06,32.735260009765625
2011-10-07,32.3721809387207
2011-10-10,33.52745056152344
2011-10-11,33.370662689208984
2011-10-12,33.5439453125
2011-10-13,33.51094055175781
2011-10-14,33.85751724243164
2011-10-17,33.79974365234375
2011-10-18,34.220611572265625
2011-10-19,34.270103454589844
2011-10-20,34.3278694152832
2011-10-21,35.9534912109375
2011-10-24,37.546119689941406
2011-10-25,35.64817428588867
2011-10-26,36.67140579223633
2011-10-27,39.34502410888672
2011-10-28,38.354801177978516
2011-10-31,36.77042770385742
2011-11-01,35.11180877685547
2011-11-02,36.547637939453125
2011-11-03,37.62863540649414
2011-11-04,36.9272346496582
2011-11-07,36.64666748046875
2011-11-08,37.191280364990234
2011-11-09,34.3443717956543
2011-11-10,35.46662139892578
2011-11-11,36.53939437866211
2011-11-14,35.70594024658203
2011-11-15,36.6136474609375
2011-11-16,35.53266525268555
2011-11-17,34.90549850463867
2011-11-18,35.177825927734375
2011-11-21,33.989540100097656
2011-11-22,34.22884750366211
2011-11-23,32.933311462402344
2011-11-25,32.74351501464844
2011-11-28,35.34286880493164
2011-11-29,34.864253997802734
2011-11-30,36.720924377441406
2011-12-01,37.32331085205078
2011-12-02,37.661643981933594
2011-12-05,36.8611946105957
2011-12-06,37.49660110473633
2011-12-07,37.45534133911133
2011-12-08,36.902469635009766
2011-12-09,38.12374496459961
2011-12-12,36.81170654296875
2011-12-13,35.384124755859375
2011-12-14,34.996280670166016
2011-12-15,35.44187927246094
2011-12-16,35.22734069824219
2011-12-19,34.70745849609375
2011-12-20,36.429996490478516
2011-12-21,36.22297286987305
2011-12-22,36.23124694824219
2011-12-23,37.357521057128906
2011-12-27,36.810943603515625
2011-12-28,35.42794418334961
2011-12-29,35.336856842041016
2011-12-30,35.080135345458984
2012-01-03,33.10086441040039
2012-01-04,32.347259521484375
2012-01-05,31.59363555908203
2012-01-06,31.717876434326172
2012-01-09,32.40522384643555
2012-01-10,33.374149322509766
2012-01-11,32.82758331298828
2012-01-12,33.4818229675293
2012-01-13,33.44867706298828
2012-01-17,33.19197082519531
2012-01-18,34.39276123046875
2012-01-19,36.289215087890625
2012-01-20,37.16704559326172
2012-01-23,37.026248931884766
2012-01-24,37.324398040771484
2012-01-25,37.357521057128906
2012-01-26,36.107025146484375
2012-01-27,36.38031005859375
2012-01-30,35.94139862060547
2012-01-31,36.11531448364258
2012-02-01,36.12358474731445
2012-02-02,36.11531448364258
2012-02-03,36.72812271118164
2012-02-06,36.48797607421875
2012-02-07,36.015933990478516
2012-02-08,36.363739013671875
2012-02-09,36.56250762939453
2012-02-10,35.709510803222656
2012-02-13,35.378257751464844
2012-02-14,35.21263122558594
2012-02-15,34.47557067871094
2012-02-16,34.41761779785156
2012-02-17,34.591522216796875
2012-02-21,33.746822357177734
2012-02-22,34.41761779785156
2012-02-23,35.08839797973633
2012-02-24,35.0552864074707
2012-02-27,34.90622329711914
2012-02-28,33.87931823730469
2012-02-29,34.86481857299805
2012-03-01,34.48386001586914
2012-03-02,34.28511428833008
2012-03-05,34.351341247558594
2012-03-06,35.833740234375
2012-03-07,37.00141906738281
2012-03-08,36.96000671386719
2012-03-09,37.52314758300781
2012-03-12,37.390647888183594
2012-03-13,38.65770721435547
2012-03-14,38.2436408996582
2012-03-15,37.82127380371094
2012-03-16,37.539710998535156
2012-03-19,37.7053337097168
2012-03-20,37.22502517700195
2012-03-21,37.40719985961914
2012-03-22,37.15606689453125
2012-03-23,37.089542388916016
2012-03-26,37.97103500366211
2012-03-27,37.305755615234375
2012-03-28,37.01469421386719
2012-03-29,36.7236213684082
2012-03-30,35.96687698364258
2012-04-02,36.13319396972656
2012-04-03,35.89202880859375
2012-04-04,35.509490966796875
2012-04-05,35.35980224609375
2012-04-09,35.210121154785156
2012-04-10,34.82757568359375
2012-04-11,34.627986907958984
2012-04-12,34.910743713378906
2012-04-13,34.45335006713867
2012-04-16,34.2620849609375
2012-04-17,34.810943603515625
2012-04-18,34.129024505615234
2012-04-19,33.571861267089844
2012-04-20,33.97101593017578
2012-04-23,33.37226867675781
2012-04-24,33.646690368652344
2012-04-25,33.97101593017578
2012-04-26,34.162296295166016
2012-04-27,34.35356140136719
2012-04-30,33.912811279296875
2012-05-01,34.162296295166016
2012-05-02,36.9980583190918
2012-05-03,36.257930755615234
2012-05-04,35.57601547241211
2012-05-07,36.665409088134766
2012-05-08,36.18308639526367
2012-05-09,36.43257141113281
2012-05-10,36.124874114990234
2012-05-11,35.55940246582031
2012-05-14,35.326534271240234
2012-05-15,35.25168991088867
2012-05-16,35.235050201416016
2012-05-17,34.0541877746582
2012-05-18,33.93775177001953
2012-05-21,34.869163513183594
2012-05-22,34.48662185668945
2012-05-23,34.328617095947266
2012-05-24,34.228824615478516
2012-05-25,34.50324630737305
2012-05-29,36.49079132080078
2012-05-30,35.89202880859375
2012-05-31,36.14982223510742
2012-06-01,35.093692779541016
2012-06-04,35.509490966796875
2012-06-05,36.38267517089844
2012-06-06,39.085384368896484
2012-06-07,38.86085510253906
2012-06-08,38.669578552246094
2012-06-11,38.02924728393555
2012-06-12,38.12904357910156
2012-06-13,37.74648666381836
2012-06-14,38.428409576416016
2012-06-15,39.509498596191406
2012-06-18,39.90867233276367
2012-06-19,39.87540054321289
2012-06-20,40.01676940917969
2012-06-21,39.530887603759766
2012-06-22,40.00675964355469
2012-06-25,39.07170867919922
2012-06-26,39.88988494873047
2012-06-27,39.97336196899414
2012-06-28,40.031803131103516
2012-06-29,41.81007385253906
2012-07-02,42.48631286621094
2012-07-03,41.9352912902832
2012-07-05,41.77668380737305
2012-07-06,41.242366790771484
2012-07-09,40.28226089477539
2012-07-10,40.42420196533203
2012-07-11,40.47428894042969
2012-07-12,40.18208312988281
2012-07-13,41.12549591064453
2012-07-16,41.36760330200195
2012-07-17,41.526222229003906
2012-07-18,41.57631301879883
2012-07-19,42.152374267578125
2012-07-20,42.06888961791992
2012-07-23,41.15888214111328
2012-07-24,41.07539367675781
2012-07-25,41.025299072265625
2012-07-26,40.99189758300781
2012-07-27,41.16722869873047
2012-07-30,41.83512496948242
2012-07-31,41.44274139404297
2012-08-01,41.15888214111328
2012-08-02,41.61804962158203
2012-08-03,43.03733444213867
2012-08-06,44.49833679199219
2012-08-07,43.42137145996094
2012-08-08,42.2525520324707
2012-08-09,41.4677734375
2012-08-10,41.88520812988281
2012-08-13,42.01044464111328
2012-08-14,40.90842056274414
2012-08-15,41.68484878540039
2012-08-16,41.66815185546875
2012-08-17,42.40282440185547
2012-08-20,42.46126937866211
2012-08-21,43.23768997192383
2012-08-22,43.32118225097656
2012-08-23,43.780364990234375
2012-08-24,43.03733444213867
2012-08-27,43.479801177978516
2012-08-28,44.022483825683594
2012-08-29,43.8721923828125
2012-08-30,43.571632385253906
2012-08-31,43.03733444213867
2012-09-04,44.05587387084961
2012-09-05,43.554931640625
2012-09-06,45.041011810302734
2012-09-07,45.775672912597656
2012-09-10,45.299808502197266
2012-09-11,45.61704635620117
2012-09-12,46.251564025878906
2012-09-13,46.326698303222656
2012-09-14,47.378631591796875
2012-09-17,46.77753829956055
2012-09-18,46.276607513427734
2012-09-19,46.05119323730469
2012-09-20,45.299808502197266
2012-09-21,45.14118194580078
2012-09-24,44.022483825683594
2012-09-25,47.645774841308594
2012-09-26,47.745967864990234
2012-09-27,48.38882827758789
2012-09-28,48.13001251220703
2012-10-01,48.35542297363281
2012-10-02,47.73762130737305
2012-10-03,47.75432586669922
2012-10-04,47.862850189208984
2012-10-05,47.995201110839844
2012-10-08,48.4468879699707
2012-10-09,48.354454040527344
2012-10-10,48.30401611328125
2012-10-11,48.72421646118164
2012-10-12,49.14439010620117
2012-10-15,48.47209167480469
2012-10-16,48.56454086303711
2012-10-17,49.43011474609375
2012-10-18,49.24523162841797
2012-10-19,48.7662239074707
2012-10-22,48.631752014160156
2012-10-23,48.18637466430664
2012-10-24,48.220001220703125
2012-10-25,48.362850189208984
2012-10-26,47.70737838745117
2012-10-31,47.71577072143555
2012-11-01,47.951080322265625
2012-11-02,46.9006233215332
2012-11-05,47.73257827758789
2012-11-06,48.682193756103516
2012-11-07,46.49725341796875
2012-11-08,45.38795852661133
2012-11-09,45.12746047973633
2012-11-12,44.211463928222656
2012-11-13,44.68206787109375
2012-11-14,43.8080940246582
2012-11-15,43.883724212646484
2012-11-16,47.362815856933594
2012-11-19,46.0434455871582
2012-11-20,45.99302673339844
2012-11-21,46.44682693481445
2012-11-23,47.110713958740234
2012-11-26,46.5728759765625
2012-11-27,46.69893264770508
2012-11-28,47.06029510498047
2012-11-29,47.480464935302734
2012-11-30,47.329200744628906
2012-12-03,46.92584228515625
2012-12-04,43.2198371887207
2012-12-05,44.076995849609375
2012-12-06,44.37953567504883
2012-12-07,44.942569732666016
2012-12-10,44.36273193359375
2012-12-11,45.1358642578125
2012-12-12,45.16108703613281
2012-12-13,44.623233795166016
2012-12-14,44.51398849487305
2012-12-17,44.92555236816406
2012-12-18,45.78577423095703
2012-12-19,45.077354431152344
2012-12-20,44.78218078613281
2012-12-21,45.95445251464844
2012-12-24,45.052059173583984
2012-12-26,43.66051483154297
2012-12-27,44.59663772583008
2012-12-28,44.90868377685547
2012-12-31,45.617088317871094
2013-01-02,46.87370681762695
2013-01-03,47.4218864440918
2013-01-04,47.4218864440918
2013-01-07,47.49778747558594
2013-01-08,46.747196197509766
2013-01-09,46.82309341430664
2013-01-10,46.595394134521484
2013-01-11,46.36768341064453
2013-01-14,45.591800689697266
2013-01-15,45.321937561035156
2013-01-16,44.20870590209961
2013-01-17,44.39423370361328
2013-01-18,44.4364013671875
2013-01-22,44.6135139465332
2013-01-23,44.72313690185547
2013-01-24,44.11592102050781
2013-01-25,44.191829681396484
2013-01-28,43.980987548828125
2013-01-29,43.9472541809082
2013-01-30,42.94366455078125
2013-01-31,44.57134246826172
2013-02-01,45.06892776489258
2013-02-04,44.858070373535156
2013-02-05,44.92555236816406
2013-02-06,45.321937561035156
2013-02-07,45.38096618652344
2013-02-08,46.24118423461914
2013-02-11,46.39298629760742
2013-02-12,46.553226470947266
2013-02-13,46.14842224121094
2013-02-14,46.52792739868164
2013-02-15,46.662864685058594
2013-02-19,46.64600372314453
2013-02-20,46.20744323730469
2013-02-21,46.20744323730469
2013-02-22,47.033931732177734
2013-02-25,46.435150146484375
2013-02-26,46.76406478881836
2013-02-27,46.87370681762695
2013-02-28,46.58696365356445
2013-03-01,47.396583557128906
2013-03-04,47.253211975097656
2013-03-05,47.995357513427734
2013-03-06,47.81825637817383
2013-03-07,51.29288864135742
2013-03-08,53.46873474121094
2013-03-11,51.52902603149414
2013-03-12,51.427825927734375
2013-03-13,51.2760124206543
2013-03-14,51.61336135864258
2013-03-15,51.925392150878906
2013-03-18,51.67239761352539
2013-03-19,51.68925857543945
2013-03-20,52.39767074584961
2013-03-21,52.25129699707031
2013-03-22,51.34588623046875
2013-03-25,51.44742202758789
2013-03-26,52.03128433227539
2013-03-27,51.66741943359375
2013-03-28,52.73360824584961
2013-04-01,52.95362854003906
2013-04-02,54.13825607299805
2013-04-03,52.75899124145508
2013-04-04,52.217445373535156
2013-04-05,51.752052307128906
2013-04-08,51.3374137878418
2013-04-09,51.777435302734375
2013-04-10,51.955135345458984
2013-04-11,52.039756774902344
2013-04-12,52.05666732788086
2013-04-15,49.526607513427734
2013-04-16,50.220462799072266
2013-04-17,51.117408752441406
2013-04-18,50.0597038269043
2013-04-19,50.508174896240234
2013-04-22,50.59278869628906
2013-04-23,50.9566535949707
2013-04-24,50.7451057434082
2013-04-25,51.142791748046875
2013-04-26,50.83818817138672
2013-04-29,50.84663772583008
2013-04-30,51.02433776855469
2013-05-01,50.38970947265625
2013-05-02,51.117408752441406
2013-05-03,52.02281951904297
2013-05-06,52.3443717956543
2013-05-07,52.49666976928711
2013-05-08,53.325931549072266
2013-05-09,53.529022216796875
2013-05-10,54.13825607299805
2013-05-13,54.1721076965332
2013-05-14,54.95904541015625
2013-05-15,54.6798095703125
2013-05-16,54.34980773925781
2013-05-17,56.20292663574219
2013-05-20,55.86445236206055
2013-05-21,55.8475341796875
2013-05-22,55.22983169555664
2013-05-23,55.28060531616211
2013-05-24,55.475215911865234
2013-05-28,56.61756134033203
2013-05-29,54.992897033691406
2013-05-30,53.2159309387207
2013-05-31,54.19749450683594
2013-06-03,54.231327056884766
2013-06-04,53.8844108581543
2013-06-05,53.28362274169922
2013-06-06,52.598228454589844
2013-06-07,54.062110900878906
2013-06-10,54.18056869506836
2013-06-11,54.03672790527344
2013-06-12,53.842098236083984
2013-06-13,54.222877502441406
2013-06-14,53.75748062133789
2013-06-17,53.545936584472656
2013-06-18,54.36673355102539
2013-06-19,53.80825424194336
2013-06-20,52.286109924316406
2013-06-21,52.03990936279297
2013-06-24,51.21644973754883
2013-06-25,51.71732711791992
2013-06-26,51.59846878051758
2013-06-27,52.39646911621094
2013-06-28,52.226680755615234
2013-07-01,53.05864334106445
2013-07-02,53.05864334106445
2013-07-03,53.14353561401367
2013-07-05,54.03491973876953
2013-07-08,54.646156311035156
2013-07-09,54.84989547729492
2013-07-10,55.04515838623047
2013-07-11,55.86014175415039
2013-07-12,56.05539321899414
2013-07-15,56.06387710571289
2013-07-16,55.673377990722656
2013-07-17,55.82617950439453
2013-07-18,55.97898483276367
2013-07-19,55.88560485839844
2013-07-22,55.97898483276367
2013-07-23,56.06387710571289
2013-07-24,55.59696578979492
2013-07-25,56.2591438293457
2013-07-26,56.174251556396484
2013-07-29,55.970497131347656
2013-07-30,56.86187744140625
2013-07-31,56.86187744140625
2013-08-01,57.67685317993164
2013-08-02,58.016448974609375
2013-08-05,58.2711181640625
2013-08-06,58.254146575927734
2013-08-07,57.52406692504883
2013-08-08,58.398460388183594
2013-08-09,58.05039978027344
2013-08-12,58.45787811279297
2013-08-13,59.120059967041016
2013-08-14,58.534278869628906
2013-08-15,56.79396057128906
2013-08-16,56.428924560546875
2013-08-19,57.36275863647461
2013-08-20,57.99947738647461
2013-08-21,58.05039978027344
2013-08-22,59.59546661376953
2013-08-23,59.49358367919922
2013-08-26,59.96901321411133
2013-08-27,58.97574234008789
2013-08-28,58.423919677734375
2013-08-29,58.65313720703125
2013-08-30,57.727806091308594
2013-09-03,57.71082305908203
2013-09-04,58.57674026489258
2013-09-05,59.26436233520508
2013-09-06,58.07587814331055
2013-09-09,58.839908599853516
2013-09-10,59.75676727294922
2013-09-11,58.65313720703125
2013-09-12,58.228660583496094
2013-09-13,58.568233489990234
2013-09-16,58.77199172973633
2013-09-17,59.40869140625
2013-09-18,59.00120544433594
2013-09-19,58.474857330322266
2013-09-20,58.71257019042969
2013-09-23,58.398460388183594
2013-09-24,58.636173248291016
2013-09-25,58.220184326171875
2013-09-26,58.55975341796875
2013-09-27,59.07761764526367
2013-09-30,58.89934158325195
2013-10-01,59.49358367919922
2013-10-02,59.052146911621094
2013-10-03,57.71933364868164
2013-10-04,58.237159729003906
2013-10-07,57.19578170776367
2013-10-08,56.242088317871094
2013-10-09,55.86741638183594
2013-10-10,56.982887268066406
2013-10-11,58.33679962158203
2013-10-14,58.6518440246582
2013-10-15,58.40489196777344
2013-10-16,58.94137191772461
2013-10-17,59.60552978515625
2013-10-18,60.57625961303711
2013-10-21,59.90355682373047
2013-10-22,60.50814437866211
2013-10-23,60.05683135986328
2013-10-24,61.19785690307617
2013-10-25,61.904598236083984
2013-10-28,61.691734313964844
2013-10-29,61.632137298583984
2013-10-30,60.78913879394531
2013-10-31,59.98872756958008
2013-11-01,59.99723434448242
2013-11-04,60.69548034667969
2013-11-05,60.303775787353516
2013-11-06,60.2867431640625
2013-11-07,59.42671203613281
2013-11-08,60.26969909667969
2013-11-11,60.116432189941406
2013-11-12,60.02277374267578
2013-11-13,60.5251579284668
2013-11-14,62.662452697753906
2013-11-15,61.913124084472656
2013-11-18,61.589561462402344
2013-11-19,63.616146087646484
2013-11-20,63.318119049072266
2013-11-21,63.726837158203125
2013-11-22,63.83750534057617
2013-11-25,63.6672248840332
2013-11-26,64.23773956298828
2013-11-27,64.38249206542969
2013-11-29,64.5357666015625
2013-12-02,63.250003814697266
2013-12-03,63.06267166137695
2013-12-04,62.747596740722656
2013-12-05,63.811988830566406
2013-12-06,63.777923583984375
2013-12-09,64.6975326538086
2013-12-10,62.55173873901367
2013-12-11,62.88385009765625
2013-12-12,62.79869079589844
2013-12-13,63.1478157043457
2013-12-16,63.34365463256836
2013-12-17,63.054141998291016
2013-12-18,64.1951675415039
2013-12-19,63.173362731933594
2013-12-20,63.888607025146484
2013-12-23,64.13453674316406
2013-12-24,64.16663360595703
2013-12-26,64.50911712646484
2013-12-27,63.81559371948242
2013-12-30,64.43209838867188
2013-12-31,64.41495513916016
2014-01-02,64.20944213867188
2014-01-03,64.02108764648438
2014-01-06,63.5073356628418
2014-01-07,63.31040573120117
2014-01-08,62.1373405456543
2014-01-09,62.145912170410156
2014-01-10,61.537986755371094
2014-01-13,61.22118377685547
2014-01-14,61.79485321044922
2014-01-15,62.58259582519531
2014-01-16,62.822349548339844
2014-01-17,61.76061248779297
2014-01-21,62.18873977661133
2014-01-22,62.22296905517578
2014-01-23,61.48661422729492
2014-01-24,60.373504638671875
2014-01-27,59.19188690185547
2014-01-28,59.63713073730469
2014-01-29,58.74664306640625
2014-01-30,58.935020446777344
2014-01-31,58.35277557373047
2014-02-03,58.404151916503906
2014-02-04,59.4401969909668
2014-02-05,58.301395416259766
2014-02-06,58.38703155517578
2014-02-07,59.45732879638672
2014-02-10,58.94356918334961
2014-02-11,59.03776168823242
2014-02-12,59.18332290649414
2014-02-13,60.2022590637207
2014-02-14,60.91292953491211
2014-02-18,60.870121002197266
2014-02-19,60.510498046875
2014-02-20,60.66460418701172
2014-02-21,60.40774917602539
2014-02-24,61.769187927246094
2014-02-25,61.64930725097656
2014-02-26,60.835880279541016
2014-02-27,60.536190032958984
2014-02-28,60.210811614990234
2014-03-03,59.1405029296875
2014-03-04,59.75701141357422
2014-03-05,60.79304122924805
2014-03-06,61.10129928588867
2014-03-07,60.998538970947266
2014-03-10,60.58755874633789
2014-03-11,60.930076599121094
2014-03-12,61.04137420654297
2014-03-13,59.29463195800781
2014-03-14,59.67137908935547
2014-03-17,60.25362777709961
2014-03-18,61.21261215209961
2014-03-19,61.238311767578125
2014-03-20,62.04316711425781
2014-03-21,62.145912170410156
2014-03-24,61.61504364013672
2014-03-25,61.56368637084961
2014-03-26,60.750247955322266
2014-03-27,59.46587371826172
2014-03-28,59.71998596191406
2014-03-31,60.0387077331543
2014-04-01,60.3746452331543
2014-04-02,60.314353942871094
2014-04-03,59.96119689941406
2014-04-04,58.56575012207031
2014-04-07,57.850791931152344
2014-04-08,57.97998809814453
2014-04-09,58.01445770263672
2014-04-10,56.44671630859375
2014-04-11,55.904052734375
2014-04-14,56.42950439453125
2014-04-15,56.162471771240234
2014-04-16,56.33475112915039
2014-04-17,56.52425765991211
2014-04-21,56.14524459838867
2014-04-22,57.10137939453125
2014-04-23,56.463966369628906
2014-04-24,58.152259826660156
2014-04-25,58.04890441894531
2014-04-28,59.03948974609375
2014-04-29,59.65108108520508
2014-04-30,59.63386535644531
2014-05-01,59.43574142456055
2014-05-02,58.62602615356445
2014-05-05,58.005828857421875
2014-05-06,58.13505554199219
2014-05-07,57.83356475830078
2014-05-08,57.997222900390625
2014-05-09,58.51405715942383
2014-05-12,59.17732620239258
2014-05-13,58.38484573364258
2014-05-14,56.88603210449219
2014-05-15,56.73959732055664
2014-05-16,57.0927619934082
2014-05-19,57.73019027709961
2014-05-20,57.17028045654297
2014-05-21,59.86642837524414
2014-05-22,60.099002838134766
2014-05-23,60.417724609375
2014-05-27,60.29712677001953
2014-05-28,59.96980285644531
2014-05-29,60.00425338745117
2014-05-30,60.030094146728516
2014-06-02,60.96900177001953
2014-06-03,61.192970275878906
2014-06-04,61.32217025756836
2014-06-05,62.01991653442383
2014-06-06,65.65496063232422
2014-06-09,65.91336822509766
2014-06-10,66.32682800292969
2014-06-11,65.45682525634766
2014-06-12,64.78495788574219
2014-06-13,65.06922149658203
2014-06-16,64.54376220703125
2014-06-17,64.68160247802734
2014-06-18,65.29317474365234
2014-06-19,65.99908447265625
2014-06-20,65.44474029541016
2014-06-23,66.13764190673828
2014-06-24,66.51008605957031
2014-06-25,66.78726196289062
2014-06-26,66.46678161621094
2014-06-27,66.77857971191406
2014-06-30,66.84786987304688
2014-07-01,67.73999786376953
2014-07-02,67.75730895996094
2014-07-03,68.23368835449219
2014-07-07,68.02582550048828
2014-07-08,67.33291625976562
2014-07-09,67.66203308105469
2014-07-10,67.16834259033203
2014-07-11,67.82661437988281
2014-07-14,68.24232482910156
2014-07-15,68.08643341064453
2014-07-16,67.65336608886719
2014-07-17,66.51008605957031
2014-07-18,67.20298767089844
2014-07-21,67.1943130493164
2014-07-22,67.99118041992188
2014-07-23,67.52344512939453
2014-07-24,66.78726196289062
2014-07-25,65.8431625366211
2014-07-28,66.16364288330078
2014-07-29,65.90377807617188
2014-07-30,66.51873016357422
2014-07-31,65.39277648925781
2014-08-01,64.95973205566406
2014-08-04,64.89041137695312
2014-08-05,64.48334503173828
2014-08-06,64.76049041748047
2014-08-07,64.29277038574219
2014-08-08,65.3841323852539
2014-08-11,65.69590759277344
2014-08-12,66.05970001220703
2014-08-13,65.60063934326172
2014-08-14,65.95576477050781
2014-08-15,66.53606414794922
2014-08-18,67.08172607421875
2014-08-19,67.3155746459961
2014-08-20,66.4841079711914
2014-08-21,66.06835174560547
2014-08-22,66.03370666503906
2014-08-25,66.57071685791016
2014-08-26,67.6966781616211
2014-08-27,67.96517944335938
2014-08-28,68.23368835449219
2014-08-29,68.84864044189453
2014-09-02,68.16439056396484
2014-09-03,68.81397247314453
2014-09-04,68.90925598144531
2014-09-05,68.69274139404297
2014-09-08,67.14234924316406
2014-09-09,66.59668731689453
2014-09-10,66.49275970458984
2014-09-11,74.27062225341797
2014-09-12,75.81231689453125
2014-09-15,75.70838165283203
2014-09-16,76.34065246582031
2014-09-17,76.59183502197266
2014-09-18,77.3973388671875
2014-09-19,76.50521850585938
2014-09-22,76.09813690185547
2014-09-23,75.5091781616211
2014-09-24,74.52178192138672
2014-09-25,74.4611587524414
2014-09-26,74.21863555908203
2014-09-29,74.1926498413086
2014-09-30,75.14539337158203
2014-10-01,73.82023620605469
2014-10-02,73.23992156982422
2014-10-03,74.9328384399414
2014-10-06,74.23651885986328
2014-10-07,71.89513397216797
2014-10-08,74.12336730957031
2014-10-09,72.00830078125
2014-10-10,71.29457092285156
2014-10-13,71.6949462890625
2014-10-14,72.34776306152344
2014-10-15,71.48604583740234
2014-10-16,72.02571868896484
2014-10-17,71.86902618408203
2014-10-20,71.59920501708984
2014-10-21,72.6175765991211
2014-10-22,72.10401916503906
2014-10-23,73.01795959472656
2014-10-24,73.11371612548828
2014-10-27,73.4966812133789
2014-10-28,75.3332290649414
2014-10-29,74.7674789428711
2014-10-30,75.03730010986328
2014-10-31,75.16785430908203
2014-11-03,75.43768310546875
2014-11-04,75.00247955322266
2014-11-05,75.08950805664062
2014-11-06,75.76844024658203
2014-11-07,75.4028549194336
2014-11-10,75.86418151855469
2014-11-11,75.89898681640625
2014-11-12,75.96861267089844
2014-11-13,76.36900329589844
2014-11-14,75.84674835205078
2014-11-17,74.68041229248047
2014-11-18,74.4106216430664
2014-11-19,74.07986450195312
2014-11-20,73.88836669921875
2014-11-21,74.11467742919922
2014-11-24,73.74039459228516
2014-11-25,74.50634765625
2014-11-26,76.02085876464844
2014-11-28,76.28195190429688
2014-12-01,75.67267608642578
2014-12-02,77.56146240234375
2014-12-03,77.46571350097656
2014-12-04,78.27518463134766
2014-12-05,79.5807876586914
2014-12-08,77.62236785888672
2014-12-09,78.83223724365234
2014-12-10,76.98700714111328
2014-12-11,76.69105529785156
2014-12-12,77.6136703491211
2014-12-15,78.5188980102539
2014-12-16,77.83998107910156
2014-12-17,79.51984405517578
2014-12-18,78.73650360107422
2014-12-19,78.23168182373047
2014-12-22,78.26649475097656
2014-12-23,78.6320571899414
2014-12-24,78.75009155273438
2014-12-26,78.85501861572266
2014-12-29,79.69447326660156
2014-12-30,79.0736312866211
2014-12-31,79.68571472167969
2015-01-02,79.09111022949219
2015-01-05,78.73259735107422
2015-01-06,77.1236801147461
2015-01-07,77.89314270019531
2015-01-08,78.89874267578125
2015-01-09,78.1554946899414
2015-01-12,79.13482666015625
2015-01-13,80.42023468017578
2015-01-14,79.38842010498047
2015-01-15,77.62210083007812
2015-01-16,78.627685546875
2015-01-20,77.68328857421875
2015-01-21,77.31605529785156
2015-01-22,78.8899917602539
2015-01-23,79.09111022949219
2015-01-26,79.36217498779297
2015-01-27,79.30097198486328
2015-01-28,78.71509552001953
2015-01-29,78.66264343261719
2015-01-30,76.73893737792969
2015-02-02,76.70394897460938
2015-02-03,76.81763458251953
2015-02-04,76.5815200805664
2015-02-05,75.65464782714844
2015-02-06,76.17057800292969
2015-02-09,73.97576904296875
2015-02-10,75.1737289428711
2015-02-11,75.42730712890625
2015-02-12,75.78582000732422
2015-02-13,75.06879425048828
2015-02-17,74.68403625488281
2015-02-18,75.42730712890625
2015-02-19,74.95511627197266
2015-02-20,75.1125259399414
2015-02-23,74.93761444091797
2015-02-24,75.47103118896484
2015-02-25,75.08627319335938
2015-02-26,76.29298400878906
2015-02-27,76.78265380859375
2015-03-02,77.21986389160156
2015-03-03,76.04812622070312
2015-03-04,76.1006088256836
2015-03-05,76.3017349243164
2015-03-06,75.14749908447266
2015-03-09,75.89075469970703
2015-03-10,75.03379821777344
2015-03-11,74.33428192138672
2015-03-12,81.55696868896484
2015-03-13,84.6874008178711
2015-03-16,87.87902069091797
2015-03-17,87.8965072631836
2015-03-18,87.25818634033203
2015-03-19,86.5673828125
2015-03-20,86.5236587524414
2015-03-23,87.0657958984375
2015-03-24,87.72162628173828
2015-03-25,87.08330535888672
2015-03-26,86.5236587524414
2015-03-27,87.8286361694336
2015-03-30,88.39180755615234
2015-03-31,91.00529479980469
2015-04-01,90.13414001464844
2015-04-02,91.82364654541016
2015-04-06,91.99083709716797
2015-04-07,92.97640228271484
2015-04-08,94.74510192871094
2015-04-09,93.85636901855469
2015-04-10,93.36358642578125
2015-04-13,92.41323852539062
2015-04-14,92.07884216308594
2015-04-15,92.48363494873047
2015-04-16,91.82364654541016
2015-04-17,90.70612335205078
2015-04-20,91.69166564941406
2015-04-21,91.98206329345703
2015-04-22,92.14044952392578
2015-04-23,92.68601989746094
2015-04-24,91.55967712402344
2015-04-27,89.61495208740234
2015-04-28,89.52696990966797
2015-04-29,87.33586883544922
2015-04-30,87.30068969726562
2015-05-01,87.84625244140625
2015-05-04,87.12467956542969
2015-05-05,88.18061828613281
2015-05-06,88.07501983642578
2015-05-07,88.77899932861328
2015-05-08,89.14859008789062
2015-05-11,89.05178833007812
2015-05-12,89.11337280273438
2015-05-13,89.35978698730469
2015-05-14,90.9613037109375
2015-05-15,90.90850830078125
2015-05-18,92.39562225341797
2015-05-19,92.39562225341797
2015-05-20,92.12283325195312
2015-05-21,92.84440612792969
2015-05-22,92.88841247558594
2015-05-26,91.52446746826172
2015-05-27,92.83560180664062
2015-05-28,92.05242919921875
2015-05-29,91.28689575195312
2015-06-01,92.0172348022461
2015-06-02,92.76521301269531
2015-06-03,92.85321044921875
2015-06-04,92.38683319091797
2015-06-05,93.54837799072266
2015-06-08,93.54837799072266
2015-06-09,90.83811950683594
2015-06-10,92.40443420410156
2015-06-11,93.16120910644531
2015-06-12,93.17879486083984
2015-06-15,93.09078979492188
2015-06-16,92.70362091064453
2015-06-17,92.9148178100586
2015-06-18,94.67472076416016
2015-06-19,95.3346939086914
2015-06-22,96.4522476196289
2015-06-23,96.72038269042969
2015-06-24,96.09204864501953
2015-06-25,96.49028015136719
2015-06-26,96.72923278808594
2015-06-29,95.33981323242188
2015-06-30,96.6407241821289
2015-07-01,98.03903198242188
2015-07-02,96.66728973388672
2015-07-06,97.44609069824219
2015-07-07,97.24253845214844
2015-07-08,96.66728973388672
2015-07-09,96.2159652709961
2015-07-10,97.15404510498047
2015-07-13,98.14523315429688
2015-07-14,98.49920654296875
2015-07-15,97.77352905273438
2015-07-16,98.65851593017578
2015-07-17,97.1009292602539
2015-07-20,97.30447387695312
2015-07-21,96.52570343017578
2015-07-22,97.40182495117188
2015-07-23,97.27794647216797
2015-07-24,95.87965393066406
2015-07-27,94.97694396972656
2015-07-28,95.06546783447266
2015-07-29,94.8619155883789
2015-07-30,95.50796508789062
2015-07-31,97.07439422607422
2015-08-03,95.99469757080078
2015-08-04,96.4991455078125
2015-08-05,97.27794647216797
2015-08-06,96.7469482421875
2015-08-07,96.78233337402344
2015-08-10,97.4372329711914
2015-08-11,97.80892181396484
2015-08-12,95.47257232666016
2015-08-13,95.74691772460938
2015-08-14,96.60533905029297
2015-08-17,98.09210205078125
2015-08-18,97.39298248291016
2015-08-19,97.44609069824219
2015-08-20,96.71151733398438
2015-08-21,95.95044708251953
2015-08-24,93.0211410522461
2015-08-25,92.63176727294922
2015-08-26,94.75569915771484
2015-08-27,95.38406372070312
2015-08-28,96.20709991455078
2015-08-31,95.49909973144531
2015-09-01,92.48128509521484
2015-09-02,94.09197235107422
2015-09-03,94.12737274169922
2015-09-04,93.66719055175781
2015-09-08,95.37520599365234
2015-09-09,94.6672134399414
2015-09-10,94.9150161743164
2015-09-11,95.87080383300781
2015-09-14,95.2070541381836
2015-09-15,94.37516784667969
2015-09-16,95.31326293945312
2015-09-17,95.26016235351562
2015-09-18,93.80877685546875
2015-09-21,95.69379425048828
2015-09-22,93.59638214111328
2015-09-23,93.7822265625
2015-09-24,93.33089447021484
2015-09-25,95.06546783447266
2015-09-28,91.19806671142578
2015-09-29,89.61392974853516
2015-09-30,92.6406021118164
2015-10-01,92.25121307373047
2015-10-02,92.5963363647461
2015-10-05,93.69374084472656
2015-10-06,92.31314086914062
2015-10-07,92.79657745361328
2015-10-08,94.76416778564453
2015-10-09,95.94825744628906
2015-10-12,97.38163757324219
2015-10-13,97.09674835205078
2015-10-14,96.10852813720703
2015-10-15,97.02554321289062
2015-10-16,96.94541931152344
2015-10-19,97.25701141357422
2015-10-20,97.52410888671875
2015-10-21,97.21249389648438
2015-10-22,98.21855926513672
2015-10-23,99.53620910644531
2015-10-26,101.3346176147461
2015-10-27,100.72920227050781
2015-10-28,102.87486267089844
2015-10-29,102.50981903076172
2015-10-30,101.6462173461914
2015-11-02,102.65225982666016
2015-11-03,102.16260528564453
2015-11-04,103.25767517089844
2015-11-05,103.34671783447266
2015-11-06,103.4001235961914
2015-11-09,101.94001770019531
2015-11-10,103.498046875
2015-11-11,102.98167419433594
2015-11-12,101.6551284790039
2015-11-13,102.3050537109375
2015-11-16,102.29613494873047
2015-11-17,102.61665344238281
2015-11-18,102.60775756835938
2015-11-19,102.5988540649414
2015-11-20,104.16577911376953
2015-11-23,105.6436996459961
2015-11-24,105.18964385986328
2015-11-25,107.37979888916016
2015-11-27,107.65577697753906
2015-11-30,107.37088775634766
2015-12-01,106.10667419433594
2015-12-02,110.00621032714844
2015-12-03,109.25833129882812
2015-12-04,108.6173095703125
2015-12-07,111.80461883544922
2015-12-08,114.17284393310547
2015-12-09,113.38046264648438
2015-12-10,114.35090637207031
2015-12-11,113.66534423828125
2015-12-14,113.03323364257812
2015-12-15,115.50828552246094
2015-12-16,118.39287567138672
2015-12-17,113.9858627319336
2015-12-18,111.19031524658203
2015-12-21,111.3416519165039
2015-12-22,111.47521209716797
2015-12-23,115.4416732788086
2015-12-24,114.5111083984375
2015-12-28,114.65425872802734
2015-12-29,116.59589385986328
2015-12-30,116.5422134399414
2015-12-31,114.52005004882812
2016-01-04,111.08418273925781
2016-01-05,112.67684936523438
2016-01-06,112.69474792480469
2016-01-07,109.16044616699219
2016-01-08,107.89883422851562
2016-01-11,110.49363708496094
2016-01-12,108.95466613769531
2016-01-13,104.77613830566406
2016-01-14,108.95466613769531
2016-01-15,106.41354370117188
2016-01-19,109.11572265625
2016-01-20,108.53413391113281
2016-01-21,110.32364654541016
2016-01-22,111.45103454589844
2016-01-25,110.21627044677734
2016-01-26,111.50472259521484
2016-01-27,108.25675964355469
2016-01-28,107.36199188232422
2016-01-29,111.84471130371094
2016-02-01,111.41523742675781
2016-02-02,109.10676574707031
2016-02-03,107.15621948242188
2016-02-04,107.23674011230469
2016-02-05,104.50770568847656
2016-02-08,104.6866683959961
2016-02-09,104.140869140625
2016-02-10,105.50089263916016
2016-02-11,104.856689453125
2016-02-12,107.58568572998047
2016-02-16,110.88733673095703
2016-02-17,112.03264617919922
2016-02-18,111.54051208496094
2016-02-19,114.28743743896484
2016-02-22,113.36580657958984
2016-02-23,113.29422760009766
2016-02-24,114.22477722167969
2016-02-25,115.75482177734375
2016-02-26,113.41950225830078
2016-02-29,114.00110626220703
2016-03-01,116.184326171875
2016-03-02,115.49534606933594
2016-03-03,114.95848083496094
2016-03-04,116.21115112304688
2016-03-07,116.82852935791016
2016-03-08,117.58909606933594
2016-03-09,118.92227172851562
2016-03-10,114.17109680175781
2016-03-11,117.2938232421875
2016-03-14,117.83960723876953
2016-03-15,116.90010070800781
2016-03-16,116.28273010253906
2016-03-17,114.5111083984375
2016-03-18,113.88477325439453
2016-03-21,114.39478302001953
2016-03-22,114.20690155029297
2016-03-23,113.26737976074219
2016-03-24,113.99681091308594
2016-03-28,115.86990356445312
2016-03-29,118.68852996826172
2016-03-30,118.57146453857422
2016-03-31,120.39950561523438
2016-04-01,119.1478042602539
2016-04-04,117.18466186523438
2016-04-05,114.87031555175781
2016-04-06,115.91492462158203
2016-04-07,115.48267364501953
2016-04-08,115.73481750488281
2016-04-11,115.31156921386719
2016-04-12,116.50025939941406
2016-04-13,118.31031036376953
2016-04-14,118.84162902832031
2016-04-15,119.23782348632812
2016-04-18,119.52598571777344
2016-04-19,119.77813720703125
2016-04-20,118.01313018798828
2016-04-21,118.7515640258789
2016-04-22,117.58089447021484
2016-04-25,117.58991241455078
2016-04-26,117.94110870361328
2016-04-27,117.77001190185547
2016-04-28,116.50928497314453
2016-04-29,116.74342346191406
2016-05-02,117.7519760131836
2016-05-03,116.91448974609375
2016-05-04,116.51827239990234
2016-05-05,116.2301025390625
2016-05-06,117.53585815429688
2016-05-09,117.11262512207031
2016-05-10,119.15681457519531
2016-05-11,115.0594253540039
2016-05-12,116.0049819946289
2016-05-13,114.90633392333984
2016-05-16,115.5186996459961
2016-05-17,113.23139190673828
2016-05-18,113.447509765625
2016-05-19,112.92520904541016
2016-05-20,113.7536849975586
2016-05-23,114.31200408935547
2016-05-24,116.19410705566406
2016-05-25,116.35617065429688
2016-05-26,116.44624328613281
2016-05-27,117.44581604003906
2016-05-31,118.19324493408203
2016-06-01,118.37334442138672
2016-06-02,120.38150024414062
2016-06-03,120.68766784667969
2016-06-06,120.07532501220703
2016-06-07,121.95740509033203
2016-06-08,121.78630828857422
2016-06-09,125.35237121582031
2016-06-10,128.34207153320312
2016-06-13,125.51447296142578
2016-06-14,124.23572540283203
2016-06-15,124.33478546142578
2016-06-16,124.0826416015625
2016-06-17,122.56073760986328
2016-06-20,123.65037536621094
2016-06-21,123.29917907714844
2016-06-22,124.69500732421875
2016-06-23,126.84722137451172
2016-06-24,122.66275787353516
2016-06-27,121.09586334228516
2016-06-28,121.67552947998047
2016-06-29,122.97978973388672
2016-06-30,125.19880676269531
2016-07-01,125.64262390136719
2016-07-05,125.28938293457031
2016-07-06,125.62448120117188
2016-07-07,126.43966674804688
2016-07-08,127.01026153564453
2016-07-11,129.20213317871094
2016-07-12,131.14944458007812
2016-07-13,130.2346954345703
2016-07-14,130.04446411132812
2016-07-15,130.37054443359375
2016-07-18,130.035400390625
2016-07-19,130.36146545410156
2016-07-20,130.7056427001953
2016-07-21,130.00823974609375
2016-07-22,130.90492248535156
2016-07-25,130.71469116210938
2016-07-26,129.33802795410156
2016-07-27,128.40509033203125
2016-07-28,129.85427856445312
2016-07-29,129.58255004882812
2016-08-01,129.70030212402344
2016-08-02,129.97198486328125
2016-08-03,129.15684509277344
2016-08-04,130.31617736816406
2016-08-05,130.397705078125
2016-08-08,140.8045196533203
2016-08-09,137.77032470703125
2016-08-10,142.74276733398438
2016-08-11,141.83705139160156
2016-08-12,141.53814697265625
2016-08-15,142.17214965820312
2016-08-16,139.91690063476562
2016-08-17,139.57275390625
2016-08-18,141.76455688476562
2016-08-19,142.71559143066406
2016-08-22,143.2771759033203
2016-08-23,145.51431274414062
2016-08-24,144.69915771484375
2016-08-25,145.0614471435547
2016-08-26,143.2047119140625
2016-08-29,143.93832397460938
2016-08-30,143.8386993408203
2016-08-31,143.49453735351562
2016-09-01,145.36940002441406
2016-09-02,146.16641235351562
2016-09-06,146.9725341796875
2016-09-07,147.20802307128906
2016-09-08,146.9634552001953
2016-09-09,143.54885864257812
2016-09-12,145.54148864746094
2016-09-13,144.16473388671875
2016-09-14,144.6176300048828
2016-09-15,146.36570739746094
2016-09-16,145.55052185058594
2016-09-19,145.72262573242188
2016-09-20,144.8350067138672
2016-09-21,146.0577392578125
2016-09-22,146.69175720214844
2016-09-23,145.42372131347656
2016-09-26,141.11245727539062
2016-09-27,141.16680908203125
2016-09-28,141.9910125732422
2016-09-29,142.19932556152344
2016-09-30,142.09066772460938
2016-10-03,142.06349182128906
2016-10-04,141.8551483154297
2016-10-05,142.14651489257812
2016-10-06,141.6366729736328
2016-10-07,141.8369598388672
2016-10-10,140.9447479248047
2016-10-11,140.27101135253906
2016-10-12,139.83399963378906
2016-10-13,139.6063690185547
2016-10-14,139.6701202392578
2016-10-17,139.46983337402344
2016-10-18,141.36354064941406
2016-10-19,140.81727600097656
2016-10-20,143.43019104003906
2016-10-21,143.8854522705078
2016-10-24,144.7867889404297
2016-10-25,142.27395629882812
2016-10-26,142.1373748779297
2016-10-27,141.32708740234375
2016-10-28,142.6381378173828
2016-10-31,145.16006469726562
2016-11-01,143.50302124023438
2016-11-02,142.4196319580078
2016-11-03,142.5926055908203
2016-11-04,141.7732391357422
2016-11-07,144.6502227783203
2016-11-08,145.21466064453125
2016-11-09,141.1814422607422
2016-11-10,140.6078643798828
2016-11-11,142.2011260986328
2016-11-14,141.43634033203125
2016-11-15,141.97352600097656
2016-11-16,143.25726318359375
2016-11-17,143.64869689941406
2016-11-18,141.8551788330078
2016-11-21,146.42556762695312
2016-11-22,149.3207550048828
2016-11-23,149.87611389160156
2016-11-25,151.14161682128906
2016-11-28,149.1932830810547
2016-11-29,147.4998779296875
2016-11-30,144.2132110595703
2016-12-01,141.66397094726562
2016-12-02,143.7761688232422
2016-12-05,146.33453369140625
2016-12-06,147.3542022705078
2016-12-07,148.15538024902344
2016-12-08,146.5074920654297
2016-12-09,152.94427490234375
2016-12-12,151.1325225830078
2016-12-13,148.74717712402344
2016-12-14,148.9474639892578
2016-12-15,146.05227661132812
2016-12-16,147.16302490234375
2016-12-19,147.15391540527344
2016-12-20,146.5621337890625
2016-12-21,146.68959045410156
2016-12-22,148.62879943847656
2016-12-23,148.6654052734375
2016-12-27,149.14122009277344
2016-12-28,148.07981872558594
2016-12-29,148.30856323242188
2016-12-30,147.59487915039062
2017-01-03,147.29295349121094
2017-01-04,148.46412658691406
2017-01-05,149.726806640625
2017-01-06,150.48622131347656
2017-01-09,147.9792022705078
2017-01-10,150.65087890625
2017-01-11,149.89149475097656
2017-01-12,147.76876831054688
2017-01-13,151.00775146484375
2017-01-17,147.832763671875
2017-01-18,148.87586975097656
2017-01-19,148.85755920410156
2017-01-20,151.91357421875
2017-01-23,152.70962524414062
2017-01-24,154.6951141357422
2017-01-25,154.4480743408203
2017-01-26,155.2715301513672
2017-01-27,156.05844116210938
2017-01-30,156.01266479492188
2017-01-31,156.95509338378906
2017-02-01,157.1197967529297
2017-02-02,157.88836669921875
2017-02-03,159.38894653320312
2017-02-06,159.44383239746094
2017-02-07,162.59136962890625
2017-02-08,161.19143676757812
2017-02-09,163.26844787597656
2017-02-10,162.7835235595703
2017-02-13,162.28941345214844
2017-02-14,162.875
2017-02-15,163.59779357910156
2017-02-16,164.57684326171875
2017-02-17,164.69580078125
2017-02-21,167.1571044921875
2017-02-22,166.15977478027344
2017-02-23,164.8147430419922
2017-02-24,167.1387939453125
2017-02-27,167.2303009033203
2017-02-28,165.77548217773438
2017-03-01,167.934814453125
2017-03-02,166.93751525878906
2017-03-03,168.5021209716797
2017-03-06,167.49562072753906
2017-03-07,166.6996307373047
2017-03-08,166.34275817871094
2017-03-09,165.09840393066406
2017-03-10,172.82992553710938
2017-03-13,171.1464080810547
2017-03-14,170.0758819580078
2017-03-15,171.018310546875
2017-03-16,170.39610290527344
2017-03-17,172.9306182861328
2017-03-20,172.86656188964844
2017-03-21,169.32559204101562
2017-03-22,171.2470703125
2017-03-23,172.7018585205078
2017-03-24,171.58558654785156
2017-03-27,173.0237579345703
2017-03-28,174.7352294921875
2017-03-29,174.28431701660156
2017-03-30,174.85484313964844
2017-03-31,176.57553100585938
2017-04-03,175.13087463378906
2017-04-04,176.584716796875
2017-04-05,174.78123474121094
2017-04-06,175.90382385253906
2017-04-07,174.68003845214844
2017-04-10,173.78746032714844
2017-04-11,174.74441528320312
2017-04-12,173.52066040039062
2017-04-13,171.7079620361328
2017-04-17,174.69842529296875
2017-04-18,175.89462280273438
2017-04-19,177.23802185058594
2017-04-20,178.47100830078125
2017-04-21,178.13973999023438
2017-04-24,179.59359741210938
2017-04-25,179.83285522460938
2017-04-26,183.2373504638672
2017-04-27,183.20974731445312
2017-04-28,181.87554931640625
2017-05-01,182.9888916015625
2017-05-02,182.9888916015625
2017-05-03,183.03494262695312
2017-05-04,183.44898986816406
2017-05-05,185.3536834716797
2017-05-08,183.32937622070312
2017-05-09,183.86306762695312
2017-05-10,185.1236572265625
2017-05-11,185.2800750732422
2017-05-12,183.8078155517578
2017-05-15,183.83543395996094
2017-05-16,185.7953643798828
2017-05-17,183.24658203125
2017-05-18,182.8784942626953
2017-05-19,185.8689727783203
2017-05-22,188.02207946777344
2017-05-23,189.48513793945312
2017-05-24,189.0250701904297
2017-05-25,189.4667510986328
2017-05-26,191.91433715820312
2017-05-30,193.4601287841797
2017-05-31,196.8186492919922
2017-06-01,197.5271759033203
2017-06-02,198.16209411621094
2017-06-05,195.21762084960938
2017-06-06,196.0917510986328
2017-06-07,197.79403686523438
2017-06-08,194.0122528076172
2017-06-09,185.96096801757812
2017-06-12,186.15419006347656
2017-06-13,188.8134307861328
2017-06-14,187.98529052734375
2017-06-15,188.9790496826172
2017-06-16,192.50320434570312
2017-06-19,194.51832580566406
2017-06-20,192.96328735351562
2017-06-21,193.61659240722656
2017-06-22,193.8282012939453
2017-06-23,194.4078826904297
2017-06-26,193.4951934814453
2017-06-27,190.02735900878906
2017-06-28,190.18455505371094
2017-06-29,186.04165649414062
2017-06-30,187.5675048828125
2017-07-03,185.1631622314453
2017-07-05,184.82098388671875
2017-07-06,184.1089324951172
2017-07-07,186.96640014648438
2017-07-10,187.77093505859375
2017-07-11,187.4842987060547
2017-07-12,190.4989471435547
2017-07-13,188.86215209960938
2017-07-14,188.446044921875
2017-07-17,188.95462036132812
2017-07-18,188.63096618652344
2017-07-19,190.5174560546875
2017-07-20,190.60072326660156
2017-07-21,192.74607849121094
2017-07-24,194.11476135253906
2017-07-25,194.0777587890625
2017-07-26,196.74102783203125
2017-07-27,195.28919982910156
2017-07-28,195.98275756835938
2017-07-31,194.9007568359375
2017-08-01,195.97348022460938
2017-08-02,194.98403930664062
2017-08-03,196.71328735351562
2017-08-04,197.60105895996094
2017-08-07,197.6472930908203
2017-08-08,197.56407165527344
2017-08-09,196.71328735351562
2017-08-10,196.1676788330078
2017-08-11,197.59182739257812
2017-08-14,202.16012573242188
2017-08-15,201.05963134765625
2017-08-16,204.87884521484375
2017-08-17,203.0293426513672
2017-08-18,203.6396942138672
2017-08-21,203.3622589111328
2017-08-22,205.6464080810547
2017-08-23,205.27651977539062
2017-08-24,204.16680908203125
2017-08-25,205.0453338623047
2017-08-28,202.19708251953125
2017-08-29,202.89988708496094
2017-08-30,206.9780731201172
2017-08-31,210.7972869873047
2017-09-01,211.20416259765625
2017-09-05,209.31768798828125
2017-09-06,209.2714385986328
2017-09-07,208.76284790039062
2017-09-08,210.59384155273438
2017-09-11,213.04441833496094
2017-09-12,213.12765502929688
2017-09-13,212.5727996826172
2017-09-14,211.32440185546875
2017-09-15,209.95574951171875
2017-09-18,211.1024627685547
2017-09-19,212.7207489013672
2017-09-20,211.74978637695312
2017-09-21,212.47108459472656
2017-09-22,214.80145263671875
2017-09-25,211.87924194335938
2017-09-26,208.05999755859375
2017-09-27,210.88050842285156
2017-09-28,205.1007537841797
2017-09-29,210.9544677734375
2017-10-02,205.24876403808594
2017-10-03,204.93435668945312
2017-10-04,203.90789794921875
2017-10-05,200.1996307373047
2017-10-06,202.25611877441406
2017-10-09,201.2432098388672
2017-10-10,200.5369415283203
2017-10-11,201.0480499267578
2017-10-12,201.62420654296875
2017-10-13,202.06097412109375
2017-10-16,201.11309814453125
2017-10-17,203.5013427734375
2017-10-18,206.11256408691406
2017-10-19,206.7630615234375
2017-10-20,212.3479766845703
2017-10-23,213.02635192871094
2017-10-24,210.73106384277344
2017-10-25,209.70887756347656
2017-10-26,209.74606323242188
2017-10-27,211.24217224121094
2017-10-30,210.35935974121094
2017-10-31,212.82192993164062
2017-11-01,214.1693878173828
2017-11-02,215.40530395507812
2017-11-03,218.95510864257812
2017-11-06,219.968017578125
2017-11-07,219.066650390625
2017-11-08,218.2767791748047
2017-11-09,216.13015747070312
2017-11-10,215.62831115722656
2017-11-13,213.1099853515625
2017-11-14,213.48170471191406
2017-11-15,210.9169158935547
2017-11-16,212.40374755859375
2017-11-17,214.11363220214844
2017-11-20,212.3294219970703
2017-11-21,213.66754150390625
2017-11-22,213.74191284179688
2017-11-24,215.62831115722656
2017-11-27,211.2235870361328
2017-11-28,210.0526885986328
2017-11-29,207.9990234375
2017-11-30,209.23492431640625
2017-12-01,207.88748168945312
2017-12-04,205.23907470703125
2017-12-05,207.62728881835938
2017-12-06,205.53639221191406
2017-12-07,209.5509033203125
2017-12-08,209.54161071777344
2017-12-11,208.7331085205078
2017-12-12,202.9809112548828
2017-12-13,205.1647186279297
2017-12-14,203.14820861816406
2017-12-15,204.2911834716797
2017-12-18,206.28916931152344
2017-12-19,203.75221252441406
2017-12-20,201.64280700683594
2017-12-21,200.3789825439453
2017-12-22,199.9514923095703
2017-12-26,200.77609252929688
2017-12-27,199.6834716796875
2017-12-28,200.55194091796875
2017-12-29,198.41346740722656
2018-01-02,196.52708435058594
2018-01-03,198.5255126953125
2018-01-04,195.20103454589844
2018-01-05,193.55747985839844
2018-01-08,192.0540008544922
2018-01-09,199.20726013183594
2018-01-10,199.38467407226562
2018-01-11,204.45542907714844
2018-01-12,207.6024627685547
2018-01-16,207.46243286132812
2018-01-17,210.20790100097656
2018-01-18,209.93707275390625
2018-01-19,216.14710998535156
2018-01-22,216.40863037109375
2018-01-23,217.69728088378906
2018-01-24,217.2584228515625
2018-01-25,218.16421508789062
2018-01-26,214.67166137695312
2018-01-29,210.17054748535156
2018-01-30,207.09820556640625
2018-01-31,204.10057067871094
2018-02-01,209.68492126464844
2018-02-02,203.5589141845703
2018-02-05,198.55352783203125
2018-02-06,197.91851806640625
2018-02-07,200.07569885253906
2018-02-08,192.43687438964844
2018-02-09,192.34347534179688
2018-02-12,196.80726623535156
2018-02-13,198.45082092285156
2018-02-14,198.24539184570312
2018-02-15,200.0290069580078
2018-02-16,201.7472686767578
2018-02-20,201.70994567871094
2018-02-21,201.81263732910156
2018-02-22,197.69439697265625
2018-02-23,196.77923583984375
2018-02-26,198.0119171142578
2018-02-27,195.50921630859375
2018-02-28,192.25010681152344
2018-03-01,193.7442626953125
2018-03-02,194.8555145263672
2018-03-05,197.647705078125
2018-03-06,199.4500274658203
2018-03-07,202.46633911132812
2018-03-08,213.41098022460938
2018-03-09,211.9728546142578
2018-03-12,208.63902282714844
2018-03-13,206.7246551513672
2018-03-14,208.30284118652344
2018-03-15,210.64683532714844
2018-03-16,211.88880920410156
2018-03-19,212.63587951660156
2018-03-20,215.2506103515625
2018-03-21,214.50357055664062
2018-03-22,212.86932373046875
2018-03-23,208.83514404296875
2018-03-26,213.2908477783203
2018-03-27,209.4649658203125
2018-03-28,210.31097412109375
2018-03-29,208.4027557373047
2018-04-02,206.11849975585938
2018-04-03,209.57777404785156
2018-04-04,212.0970458984375
2018-04-05,215.18031311035156
2018-04-06,210.4425811767578
2018-04-09,211.6082000732422
2018-04-10,213.63868713378906
2018-04-11,214.27786254882812
2018-04-12,212.3226318359375
2018-04-13,210.01956176757812
2018-04-16,211.94662475585938
2018-04-17,215.13331604003906
2018-04-18,213.15924072265625
2018-04-19,217.7277374267578
2018-04-20,217.48333740234375
2018-04-23,219.43858337402344
2018-04-24,217.04153442382812
2018-04-25,216.3177032470703
2018-04-26,216.23312377929688
2018-04-27,216.91932678222656
2018-04-30,215.55628967285156
2018-05-01,212.16285705566406
2018-05-02,208.8351593017578
2018-05-03,211.0347900390625
2018-05-04,214.09925842285156
2018-05-07,214.55047607421875
2018-05-08,214.84188842773438
2018-05-09,217.5209503173828
2018-05-10,219.673583984375
2018-05-11,223.7532958984375
2018-05-14,223.60289001464844
2018-05-15,221.96725463867188
2018-05-16,221.8356475830078
2018-05-17,222.41844177246094
2018-05-18,224.60870361328125
2018-05-21,225.3701171875
2018-05-22,222.81326293945312
2018-05-23,223.00128173828125
2018-05-24,224.01649475097656
2018-05-25,226.86477661132812
2018-05-29,226.2255401611328
2018-05-30,228.55679321289062
2018-05-31,226.34771728515625
2018-06-01,230.7376708984375
2018-06-04,239.7242431640625
2018-06-05,241.54788208007812
2018-06-06,243.5595703125
2018-06-07,254.4825897216797
2018-06-08,258.74090576171875
2018-06-11,255.6764373779297
2018-06-12,262.73602294921875
2018-06-13,259.3143310546875
2018-06-14,264.2211608886719
2018-06-15,265.245849609375
2018-06-18,267.9530944824219
2018-06-19,263.976806640625
2018-06-20,263.15899658203125
2018-06-21,262.10614013671875
2018-06-22,263.9674072265625
2018-06-25,259.6057434082031
2018-06-26,261.65643310546875
2018-06-27,255.77822875976562
2018-06-28,256.75164794921875
2018-06-29,259.1237487792969
2018-07-02,263.0835266113281
2018-07-03,263.7733459472656
2018-07-05,264.1419677734375
2018-07-06,268.0638732910156
2018-07-09,269.2735900878906
2018-07-10,267.1282958984375
2018-07-11,268.7821960449219
2018-07-12,269.93511962890625
2018-07-13,272.212646484375
2018-07-16,272.29779052734375
2018-07-17,274.4241027832031
2018-07-18,272.91204833984375
2018-07-19,269.70831298828125
2018-07-20,269.55712890625
2018-07-23,271.2487487792969
2018-07-24,265.5690002441406
2018-07-25,269.3114013671875
2018-07-26,269.3208312988281
2018-07-27,261.98724365234375
2018-07-30,259.0481262207031
2018-07-31,261.65643310546875
2018-08-01,263.37646484375
2018-08-02,267.1566467285156
2018-08-03,267.3929443359375
2018-08-06,269.14129638671875
2018-08-07,270.07684326171875
2018-08-08,268.45135498046875
2018-08-09,271.9574890136719
2018-08-10,272.14654541015625
2018-08-13,271.4944763183594
2018-08-14,274.2729187011719
2018-08-15,274.03668212890625
2018-08-16,275.0289306640625
2018-08-17,278.62957763671875
2018-08-20,275.9078674316406
2018-08-21,277.6656494140625
2018-08-22,277.5522155761719
2018-08-23,277.5522155761719
2018-08-24,279.1304626464844
2018-08-27,281.89947509765625
2018-08-28,280.4725036621094
2018-08-29,278.98870849609375
2018-08-30,278.525634765625
2018-08-31,281.6726379394531
2018-09-04,284.8575134277344
2018-09-05,273.809814453125
2018-09-06,275.6148681640625
2018-09-07,277.8546447753906
2018-09-10,278.8658447265625
2018-09-11,276.12518310546875
2018-09-12,276.8812561035156
2018-09-13,277.7790832519531
2018-09-14,278.0247497558594
2018-09-17,273.9421081542969
2018-09-18,276.285888671875
2018-09-19,270.1903076171875
2018-09-20,271.6268005371094
2018-09-21,266.7313232421875
2018-09-24,268.8672180175781
2018-09-25,273.1105041503906
2018-09-26,272.84588623046875
2018-09-27,270.40765380859375
2018-09-28,259.34112548828125
2018-10-01,251.06243896484375
2018-10-02,245.31651306152344
2018-10-03,243.10508728027344
2018-10-04,239.9580841064453
2018-10-05,237.13491821289062
2018-10-08,232.48672485351562
2018-10-09,233.18063354492188
2018-10-10,227.04005432128906
2018-10-11,227.76246643066406
2018-10-12,233.6939239501953
2018-10-15,234.7965545654297
2018-10-16,244.4161834716797
2018-10-17,241.97325134277344
2018-10-18,237.54367065429688
2018-10-19,234.2452392578125
2018-10-22,234.74903869628906
2018-10-23,232.27760314941406
2018-10-24,221.93556213378906
2018-10-25,228.70350646972656
2018-10-26,226.1370391845703
2018-10-29,223.08575439453125
2018-10-30,230.13885498046875
2018-10-31,238.89346313476562
2018-11-01,243.37057495117188
2018-11-02,244.2926025390625
2018-11-05,242.37246704101562
2018-11-06,246.1556854248047
2018-11-07,250.87046813964844
2018-11-08,254.17835998535156
2018-11-09,252.2487335205078
2018-11-12,246.3743133544922
2018-11-13,247.15380859375
2018-11-14,243.96942138671875
2018-11-15,251.54534912109375
2018-11-16,255.2620391845703
2018-11-19,249.41610717773438
2018-11-20,244.18807983398438
2018-11-21,252.69552612304688
2018-11-23,251.8685302734375
2018-11-26,258.5699462890625
2018-11-27,258.7220458984375
2018-11-28,267.49566650390625
2018-11-29,264.03564453125
2018-11-30,265.37591552734375
2018-12-03,264.187744140625
2018-12-04,256.279052734375
2018-12-06,258.332275390625
2018-12-07,212.2113800048828
2018-12-10,222.88612365722656
2018-12-11,226.10848999023438
2018-12-12,213.91285705566406
2018-12-13,210.3292999267578
2018-12-14,213.4470977783203
2018-12-17,217.25881958007812
2018-12-18,218.4185028076172
2018-12-19,211.94522094726562
2018-12-20,202.22105407714844
2018-12-21,196.39414978027344
2018-12-24,191.22314453125
2018-12-26,200.6933135986328
2018-12-27,201.1816864013672
2018-12-28,201.85195922851562
2018-12-31,201.87110900878906
2019-01-02,203.1159210205078
2019-01-03,201.06675720214844
2019-01-04,208.4973602294922
2019-01-07,209.40704345703125
2019-01-08,207.56854248046875
2019-01-09,206.32373046875
2019-01-10,205.51937866210938
2019-01-11,179.37820434570312
2019-01-14,180.01976013183594
2019-01-15,175.45225524902344
2019-01-16,176.9843292236328
2019-01-17,173.13497924804688
2019-01-18,178.80364990234375
2019-01-22,176.4097900390625
2019-01-23,178.58343505859375
2019-01-24,179.32077026367188
2019-01-25,176.09381103515625
2019-01-28,178.09507751464844
2019-01-29,178.2387237548828
2019-01-30,178.9090118408203
2019-01-31,180.2687225341797
2019-02-01,188.51324462890625
2019-02-04,186.63645935058594
2019-02-05,192.15194702148438
2019-02-06,194.73733520507812
2019-02-07,190.1219482421875
2019-02-08,193.1094970703125
2019-02-11,192.92758178710938
2019-02-12,196.2981414794922
2019-02-13,198.51968383789062
2019-02-14,198.37603759765625
2019-02-15,197.6387176513672
2019-02-19,198.96971130371094
2019-02-20,202.32115173339844
2019-02-21,198.74948120117188
2019-02-22,199.70703125
2019-02-25,200.0421905517578
2019-02-26,198.25155639648438
2019-02-27,198.9409942626953
2019-02-28,199.54425048828125
2019-03-01,198.6345672607422
2019-03-04,196.30772399902344
2019-03-05,198.1845245361328
2019-03-06,198.6728515625
2019-03-07,193.80850219726562
2019-03-08,207.3578643798828
2019-03-11,211.1689453125
2019-03-12,208.57398986816406
2019-03-13,208.83250427246094
2019-03-14,205.2799835205078
2019-03-15,205.1267852783203
2019-03-18,207.5015106201172
2019-03-19,203.40316772460938
2019-03-20,201.2295379638672
2019-03-21,204.5235137939453
2019-03-22,202.7999267578125
2019-03-25,202.32115173339844
2019-03-26,205.6910858154297
2019-03-27,205.38209533691406
2019-03-28,208.3464813232422
2019-03-29,209.8238525390625
2019-04-01,211.07911682128906
2019-04-02,213.0972137451172
2019-04-03,213.9951934814453
2019-04-04,207.97955322265625
2019-04-05,211.92881774902344
2019-04-08,210.46112060546875
2019-04-09,209.69830322265625
2019-04-10,208.65545654296875
2019-04-11,210.10385131835938
2019-04-12,209.62106323242188
2019-04-15,210.2583465576172
2019-04-16,207.33258056640625
2019-04-17,203.86610412597656
2019-04-18,202.26321411132812
2019-04-22,204.48410034179688
2019-04-23,205.5751953125
2019-04-24,208.44302368164062
2019-04-25,209.35069274902344
2019-04-26,213.23239135742188
2019-04-29,217.12371826171875
2019-04-30,220.97647094726562
2019-05-01,222.07723999023438
2019-05-02,221.84548950195312
2019-05-03,223.67047119140625
2019-05-06,219.69223022460938
2019-05-07,217.56790161132812
2019-05-08,218.3307342529297
2019-05-09,218.18588256835938
2019-05-10,217.34580993652344
2019-05-13,210.90530395507812
2019-05-14,212.2281494140625
2019-05-15,213.00062561035156
2019-05-16,215.63671875
2019-05-17,212.3730010986328
2019-05-20,208.4816436767578
2019-05-21,210.89566040039062
2019-05-22,208.5975341796875
2019-05-23,204.136474609375
2019-05-24,207.0332489013672
2019-05-28,209.939697265625
2019-05-29,207.54502868652344
2019-05-30,207.94093322753906
2019-05-31,207.7091827392578
2019-06-03,205.85523986816406
2019-06-04,210.60597229003906
2019-06-05,210.7604522705078
2019-06-06,210.60597229003906
2019-06-07,228.97158813476562
2019-06-10,227.4266357421875
2019-06-11,224.12429809570312
2019-06-12,227.91908264160156
2019-06-13,225.0222930908203
2019-06-14,227.86114501953125
2019-06-17,228.60467529296875
2019-06-18,228.50808715820312
2019-06-19,227.55215454101562
2019-06-20,225.33128356933594
2019-06-21,222.60830688476562
2019-06-24,220.0494842529297
2019-06-25,217.4610137939453
2019-06-26,213.6756134033203
2019-06-27,215.73858642578125
2019-06-28,217.17880249023438
2019-07-01,216.6728057861328
2019-07-02,216.77984619140625
2019-07-03,220.48739624023438
2019-07-05,217.0814971923828
2019-07-08,218.103271484375
2019-07-09,219.81594848632812
2019-07-10,218.54116821289062
2019-07-11,221.72323608398438
2019-07-12,221.3729248046875
2019-07-15,222.43360900878906
2019-07-16,226.00491333007812
2019-07-17,223.51376342773438
2019-07-18,222.5406494140625
2019-07-19,219.6407928466797
2019-07-22,228.94371032714844
2019-07-23,237.4292449951172
2019-07-24,236.86483764648438
2019-07-25,240.13450622558594
2019-07-26,242.0417938232422
2019-07-29,240.2999267578125
2019-07-30,240.45562744140625
2019-07-31,239.89122009277344
2019-08-01,237.94497680664062
2019-08-02,235.41490173339844
2019-08-05,227.82464599609375
2019-08-06,232.3106689453125
2019-08-07,232.8848114013672
2019-08-08,238.061767578125
2019-08-09,232.71937561035156
2019-08-12,231.1526641845703
2019-08-13,232.8166961669922
2019-08-14,227.81491088867188
2019-08-15,228.3014678955078
2019-08-16,229.91683959960938
2019-08-19,234.50991821289062
2019-08-20,234.50018310546875
2019-08-21,235.73602294921875
2019-08-22,231.61978149414062
2019-08-23,228.78802490234375
2019-08-26,231.51272583007812
2019-08-27,230.1795654296875
2019-08-28,230.52987670898438
2019-08-29,231.91171264648438
2019-08-30,229.92657470703125
2019-09-03,230.80233764648438
2019-09-04,233.33245849609375
2019-09-05,229.45945739746094
2019-09-06,235.85279846191406
2019-09-09,227.00721740722656
2019-09-10,231.5030059814453
2019-09-11,232.3593292236328
2019-09-12,232.90428161621094
2019-09-13,232.09658813476562
2019-09-16,227.69813537597656
2019-09-17,233.59519958496094
2019-09-18,231.318115234375
2019-09-19,227.92196655273438
2019-09-20,229.44972229003906
2019-09-23,233.02105712890625
2019-09-24,230.0627899169922
2019-09-25,229.800048828125
2019-09-26,224.07815551757812
2019-09-27,230.60772705078125
2019-09-30,221.4410400390625
2019-10-01,222.3557586669922
2019-10-02,217.7821502685547
2019-10-03,222.4530792236328
2019-10-04,224.7398681640625
2019-10-07,220.8861846923828
2019-10-08,219.65065002441406
2019-10-09,219.66046142578125
2019-10-10,221.41571044921875
2019-10-11,221.78831481933594
2019-10-14,222.10211181640625
2019-10-15,221.94520568847656
2019-10-16,225.49493408203125
2019-10-17,229.41726684570312
2019-10-18,228.29940795898438
2019-10-21,229.47610473632812
2019-10-22,227.01483154296875
2019-10-23,225.79891967773438
2019-10-24,228.3288116455078
2019-10-25,231.4470672607422
2019-10-28,232.03541564941406
2019-10-29,228.18173217773438
2019-10-30,231.25094604492188
2019-10-31,227.85813903808594
2019-11-01,227.3090057373047
2019-11-04,232.6728057861328
2019-11-05,232.14328002929688
2019-11-06,232.15309143066406
2019-11-07,232.24134826660156
2019-11-08,235.95774841308594
2019-11-11,236.95794677734375
2019-11-12,239.1054229736328
2019-11-13,236.68338012695312
2019-11-14,234.98696899414062
2019-11-15,238.28173828125
2019-11-18,238.03659057617188
2019-11-19,235.8008575439453
2019-11-20,234.2123260498047
2019-11-21,231.5843505859375
2019-11-22,231.93736267089844
2019-11-25,233.43765258789062
2019-11-26,240.13504028320312
2019-11-27,241.88047790527344
2019-11-29,237.95814514160156
2019-12-02,236.20289611816406
2019-12-03,232.57473754882812
2019-12-04,231.39804077148438
2019-12-05,231.4176483154297
2019-12-06,228.2895965576172
2019-12-09,226.34803771972656
2019-12-10,228.4366912841797
2019-12-11,233.66317749023438
2019-12-12,237.4678497314453
2019-12-13,238.1738739013672
2019-12-16,243.1846466064453
2019-12-17,242.02757263183594
2019-12-18,244.41038513183594
2019-12-19,240.29193115234375
2019-12-20,241.95892333984375
2019-12-23,240.88027954101562
2019-12-24,241.1963348388672
2019-12-26,239.08274841308594
2019-12-27,239.33953857421875
2019-12-30,237.38397216796875
2019-12-31,236.87037658691406
