Date,NFLX
2007-12-31,3.8028571605682373
2008-01-02,3.7642858028411865
2008-01-03,3.72428560256958
2008-01-04,3.515714168548584
2008-01-07,3.554285764694214
2008-01-08,3.328571319580078
2008-01-09,3.2857143878936768
2008-01-10,3.528571367263794
2008-01-11,3.344285726547241
2008-01-14,3.252857208251953
2008-01-15,3.1500000953674316
2008-01-16,3.1528570652008057
2008-01-17,3.109999895095825
2008-01-18,3.1214284896850586
2008-01-22,3.1757142543792725
2008-01-23,3.3942856788635254
2008-01-24,3.1342856884002686
2008-01-25,3.109999895095825
2008-01-28,3.2842857837677
2008-01-29,3.3085713386535645
2008-01-30,3.2771427631378174
2008-01-31,3.5928571224212646
2008-02-01,3.627142906188965
2008-02-04,3.6985714435577393
2008-02-05,3.6085715293884277
2008-02-06,3.7171428203582764
2008-02-07,3.835714340209961
2008-02-08,3.8399999141693115
2008-02-11,3.841428518295288
2008-02-12,3.8428571224212646
2008-02-13,3.901428461074829
2008-02-14,3.8214285373687744
2008-02-15,3.799999952316284
2008-02-19,3.8271429538726807
2008-02-20,3.924285650253296
2008-02-21,3.981428623199463
2008-02-22,3.971428632736206
2008-02-25,4.0
2008-02-26,4.142857074737549
2008-02-27,4.632857322692871
2008-02-28,4.505714416503906
2008-02-29,4.511428356170654
2008-03-03,4.420000076293945
2008-03-04,4.502857208251953
2008-03-05,4.585714340209961
2008-03-06,4.374285697937012
2008-03-07,4.465714454650879
2008-03-10,4.744285583496094
2008-03-11,4.725714206695557
2008-03-12,4.862857341766357
2008-03-13,4.887142658233643
2008-03-14,4.751428604125977
2008-03-17,4.712857246398926
2008-03-18,5.0
2008-03-19,4.981428623199463
2008-03-20,5.17714262008667
2008-03-24,5.45285701751709
2008-03-25,5.302856922149658
2008-03-26,5.408571243286133
2008-03-27,5.194285869598389
2008-03-28,5.084285736083984
2008-03-31,4.949999809265137
2008-04-01,5.215714454650879
2008-04-02,5.192857265472412
2008-04-03,5.332857131958008
2008-04-04,5.172857284545898
2008-04-07,5.128571510314941
2008-04-08,5.27142858505249
2008-04-09,5.20285701751709
2008-04-10,5.22428560256958
2008-04-11,5.07285737991333
2008-04-14,5.111428737640381
2008-04-15,5.211428642272949
2008-04-16,5.567142963409424
2008-04-17,5.814285755157471
2008-04-18,5.508571624755859
2008-04-21,5.617142677307129
2008-04-22,4.285714149475098
2008-04-23,4.465714454650879
2008-04-24,4.7171430587768555
2008-04-25,4.851428508758545
2008-04-28,4.7228569984436035
2008-04-29,4.597142696380615
2008-04-30,4.5685715675354
2008-05-01,4.4285712242126465
2008-05-02,4.442857265472412
2008-05-05,4.4285712242126465
2008-05-06,4.420000076293945
2008-05-07,4.3085713386535645
2008-05-08,4.307142734527588
2008-05-09,4.388571262359619
2008-05-12,4.387142658233643
2008-05-13,4.380000114440918
2008-05-14,4.342857360839844
2008-05-15,4.27571439743042
2008-05-16,4.522857189178467
2008-05-19,4.425714492797852
2008-05-20,4.518571376800537
2008-05-21,4.5271430015563965
2008-05-22,4.53000020980835
2008-05-23,4.458571434020996
2008-05-27,4.575714111328125
2008-05-28,4.445714473724365
2008-05-29,4.335714340209961
2008-05-30,4.3371429443359375
2008-06-02,4.4128570556640625
2008-06-03,4.552856922149658
2008-06-04,4.624285697937012
2008-06-05,4.738571643829346
2008-06-06,4.545714378356934
2008-06-09,4.447143077850342
2008-06-10,4.375714302062988
2008-06-11,4.3185715675354
2008-06-12,4.429999828338623
2008-06-13,4.6028571128845215
2008-06-16,4.559999942779541
2008-06-17,4.471428394317627
2008-06-18,4.311428546905518
2008-06-19,4.585714340209961
2008-06-20,4.485714435577393
2008-06-23,4.230000019073486
2008-06-24,4.142857074737549
2008-06-25,4.22857141494751
2008-06-26,4.111428737640381
2008-06-27,3.819999933242798
2008-06-30,3.72428560256958
2008-07-01,3.8714284896850586
2008-07-02,3.892857074737549
2008-07-03,3.8971428871154785
2008-07-07,4.035714149475098
2008-07-08,4.0585713386535645
2008-07-09,4.088571548461914
2008-07-10,3.9785714149475098
2008-07-11,3.8871428966522217
2008-07-14,3.9728572368621826
2008-07-15,3.958571434020996
2008-07-16,4.015714168548584
2008-07-17,3.968571424484253
2008-07-18,3.8714284896850586
2008-07-21,3.9071428775787354
2008-07-22,3.8885715007781982
2008-07-23,3.997142791748047
2008-07-24,3.8185713291168213
2008-07-25,3.9785714149475098
2008-07-28,4.090000152587891
2008-07-29,4.434285640716553
2008-07-30,4.361428737640381
2008-07-31,4.4128570556640625
2008-08-01,4.174285888671875
2008-08-04,4.261428356170654
2008-08-05,4.269999980926514
2008-08-06,4.285714149475098
2008-08-07,4.351428508758545
2008-08-08,4.435714244842529
2008-08-11,4.599999904632568
2008-08-12,4.401428699493408
2008-08-13,4.451428413391113
2008-08-14,4.548571586608887
2008-08-15,4.465714454650879
2008-08-18,4.369999885559082
2008-08-19,4.30142879486084
2008-08-20,4.360000133514404
2008-08-21,4.285714149475098
2008-08-22,4.378571510314941
2008-08-25,4.2771430015563965
2008-08-26,4.298571586608887
2008-08-27,4.377142906188965
2008-08-28,4.445714473724365
2008-08-29,4.405714511871338
2008-09-02,4.405714511871338
2008-09-03,4.415714263916016
2008-09-04,4.2671427726745605
2008-09-05,4.237143039703369
2008-09-08,4.307142734527588
2008-09-09,4.105714321136475
2008-09-10,4.107142925262451
2008-09-11,4.1185712814331055
2008-09-12,4.2071428298950195
2008-09-15,4.015714168548584
2008-09-16,4.065714359283447
2008-09-17,4.122857093811035
2008-09-18,4.434285640716553
2008-09-19,4.562857151031494
2008-09-22,4.53000020980835
2008-09-23,4.50428581237793
2008-09-24,4.538571357727051
2008-09-25,4.710000038146973
2008-09-26,4.695714473724365
2008-09-29,4.514285564422607
2008-09-30,4.411428451538086
2008-10-01,4.291428565979004
2008-10-02,4.185714244842529
2008-10-03,4.138571262359619
2008-10-06,3.7842857837677
2008-10-07,3.187142848968506
2008-10-08,3.2485713958740234
2008-10-09,3.2771427631378174
2008-10-10,3.4700000286102295
2008-10-13,3.6285715103149414
2008-10-14,3.4342856407165527
2008-10-15,3.2157142162323
2008-10-16,3.3499999046325684
2008-10-17,3.328571319580078
2008-10-20,3.4000000953674316
2008-10-21,2.9785714149475098
2008-10-22,2.9571428298950195
2008-10-23,2.9700000286102295
2008-10-24,2.7071428298950195
2008-10-27,2.562857151031494
2008-10-28,2.9385714530944824
2008-10-29,3.1085715293884277
2008-10-30,3.2542858123779297
2008-10-31,3.537142753601074
2008-11-03,3.3371429443359375
2008-11-04,3.432857036590576
2008-11-05,3.2842857837677
2008-11-06,3.0685713291168213
2008-11-07,3.122857093811035
2008-11-10,3.075714349746704
2008-11-11,3.145714282989502
2008-11-12,2.9571428298950195
2008-11-13,3.4800000190734863
2008-11-14,3.1471428871154785
2008-11-17,3.0357143878936768
2008-11-18,3.0642857551574707
2008-11-19,2.9357142448425293
2008-11-20,2.674285650253296
2008-11-21,2.8557143211364746
2008-11-24,3.1728570461273193
2008-11-25,3.0899999141693115
2008-11-26,3.2671427726745605
2008-11-28,3.2828571796417236
2008-12-01,3.148571491241455
2008-12-02,3.3157143592834473
2008-12-03,3.401428461074829
2008-12-04,3.309999942779541
2008-12-05,3.609999895095825
2008-12-08,3.6442856788635254
2008-12-09,4.012856960296631
2008-12-10,4.0685715675354
2008-12-11,4.019999980926514
2008-12-12,4.07285737991333
2008-12-15,4.070000171661377
2008-12-16,4.092857360839844
2008-12-17,4.112857341766357
2008-12-18,4.034285545349121
2008-12-19,3.955714225769043
2008-12-22,3.9885714054107666
2008-12-23,3.8785715103149414
2008-12-24,3.9157142639160156
2008-12-26,4.065714359283447
2008-12-29,3.990000009536743
2008-12-30,4.094285488128662
2008-12-31,4.269999980926514
2009-01-02,4.2671427726745605
2009-01-05,4.562857151031494
2009-01-06,4.705714225769043
2009-01-07,4.672857284545898
2009-01-08,4.735714435577393
2009-01-09,4.608571529388428
2009-01-12,4.458571434020996
2009-01-13,4.420000076293945
2009-01-14,4.21999979019165
2009-01-15,4.5171427726745605
2009-01-16,4.465714454650879
2009-01-20,4.261428356170654
2009-01-21,4.384285926818848
2009-01-22,4.405714511871338
2009-01-23,4.348571300506592
2009-01-26,4.307142734527588
2009-01-27,4.97428560256958
2009-01-28,5.165714263916016
2009-01-29,5.268571376800537
2009-01-30,5.1628570556640625
2009-02-02,5.278571605682373
2009-02-03,5.248571395874023
2009-02-04,5.264285564422607
2009-02-05,5.3528571128845215
2009-02-06,5.285714149475098
2009-02-09,5.2771430015563965
2009-02-10,5.167142868041992
2009-02-11,5.167142868041992
2009-02-12,5.418571472167969
2009-02-13,5.505714416503906
2009-02-17,5.317142963409424
2009-02-18,5.285714149475098
2009-02-19,5.298571586608887
2009-02-20,5.257143020629883
2009-02-23,5.082857131958008
2009-02-24,5.151428699493408
2009-02-25,5.112857341766357
2009-02-26,5.111428737640381
2009-02-27,5.17714262008667
2009-03-02,4.907142639160156
2009-03-03,5.194285869598389
2009-03-04,5.387142658233643
2009-03-05,5.414285659790039
2009-03-06,5.454285621643066
2009-03-09,5.5
2009-03-10,5.5
2009-03-11,5.355714321136475
2009-03-12,5.708571434020996
2009-03-13,5.624285697937012
2009-03-16,5.522857189178467
2009-03-17,5.827142715454102
2009-03-18,5.945714473724365
2009-03-19,5.929999828338623
2009-03-20,5.949999809265137
2009-03-23,6.199999809265137
2009-03-24,6.20285701751709
2009-03-25,5.937142848968506
2009-03-26,5.964285850524902
2009-03-27,5.668571472167969
2009-03-30,6.00428581237793
2009-03-31,6.1314287185668945
2009-04-01,6.124285697937012
2009-04-02,6.161428451538086
2009-04-03,6.152857303619385
2009-04-06,6.357142925262451
2009-04-07,6.242856979370117
2009-04-08,6.325714111328125
2009-04-09,6.7071428298950195
2009-04-13,7.059999942779541
2009-04-14,6.828571319580078
2009-04-15,6.655714511871338
2009-04-16,6.895714282989502
2009-04-17,6.975714206695557
2009-04-20,7.0871429443359375
2009-04-21,6.657142639160156
2009-04-22,6.554285526275635
2009-04-23,6.47428560256958
2009-04-24,6.104285717010498
2009-04-27,6.624285697937012
2009-04-28,6.597142696380615
2009-04-29,6.461428642272949
2009-04-30,6.4728569984436035
2009-05-01,6.354285717010498
2009-05-04,6.420000076293945
2009-05-05,6.444285869598389
2009-05-06,6.141428470611572
2009-05-07,5.710000038146973
2009-05-08,5.74571418762207
2009-05-11,5.657142639160156
2009-05-12,5.761428356170654
2009-05-13,5.378571510314941
2009-05-14,5.29714298248291
2009-05-15,5.5
2009-05-18,5.538571357727051
2009-05-19,5.661428451538086
2009-05-20,5.75
2009-05-21,5.5871429443359375
2009-05-22,5.5428571701049805
2009-05-26,5.727142810821533
2009-05-27,5.561428546905518
2009-05-28,5.505714416503906
2009-05-29,5.6314287185668945
2009-06-01,5.848571300506592
2009-06-02,5.8814287185668945
2009-06-03,5.785714149475098
2009-06-04,5.815714359283447
2009-06-05,5.598571300506592
2009-06-08,5.544285774230957
2009-06-09,5.57285737991333
2009-06-10,5.408571243286133
2009-06-11,5.391428470611572
2009-06-12,5.405714511871338
2009-06-15,5.451428413391113
2009-06-16,5.404285907745361
2009-06-17,5.77142858505249
2009-06-18,5.901428699493408
2009-06-19,5.9414286613464355
2009-06-22,5.7928571701049805
2009-06-23,5.652857303619385
2009-06-24,5.655714511871338
2009-06-25,5.872857093811035
2009-06-26,5.7671427726745605
2009-06-29,5.885714054107666
2009-06-30,5.905714511871338
2009-07-01,5.802856922149658
2009-07-02,5.70285701751709
2009-07-06,5.682857036590576
2009-07-07,5.5428571701049805
2009-07-08,5.528571605682373
2009-07-09,5.7071428298950195
2009-07-10,5.72428560256958
2009-07-13,6.0271430015563965
2009-07-14,6.185714244842529
2009-07-15,6.344285488128662
2009-07-16,6.304285526275635
2009-07-17,6.305714130401611
2009-07-20,6.402857303619385
2009-07-21,6.3971428871154785
2009-07-22,6.468571662902832
2009-07-23,6.637142658233643
2009-07-24,6.028571605682373
2009-07-27,5.9571428298950195
2009-07-28,6.048571586608887
2009-07-29,6.099999904632568
2009-07-30,6.230000019073486
2009-07-31,6.2771430015563965
2009-08-03,6.424285888671875
2009-08-04,6.311428546905518
2009-08-05,6.329999923706055
2009-08-06,6.214285850524902
2009-08-07,6.4285712242126465
2009-08-10,6.5428571701049805
2009-08-11,6.584285736083984
2009-08-12,6.611428737640381
2009-08-13,6.611428737640381
2009-08-14,6.355714321136475
2009-08-17,6.158571243286133
2009-08-18,6.221428394317627
2009-08-19,6.409999847412109
2009-08-20,6.425714492797852
2009-08-21,6.442857265472412
2009-08-24,6.331428527832031
2009-08-25,6.351428508758545
2009-08-26,6.281428337097168
2009-08-27,6.25
2009-08-28,6.317142963409424
2009-08-31,6.2328572273254395
2009-09-01,6.02142858505249
2009-09-02,5.968571662902832
2009-09-03,5.755714416503906
2009-09-04,5.849999904632568
2009-09-08,5.925714492797852
2009-09-09,6.175714492797852
2009-09-10,6.214285850524902
2009-09-11,6.094285488128662
2009-09-14,6.182857036590576
2009-09-15,6.424285888671875
2009-09-16,6.685714244842529
2009-09-17,6.634285926818848
2009-09-18,6.77142858505249
2009-09-21,6.785714149475098
2009-09-22,6.8185715675354
2009-09-23,6.692857265472412
2009-09-24,6.659999847412109
2009-09-25,6.608571529388428
2009-09-28,6.567142963409424
2009-09-29,6.608571529388428
2009-09-30,6.595714092254639
2009-10-01,6.374285697937012
2009-10-02,6.388571262359619
2009-10-05,6.488571643829346
2009-10-06,6.595714092254639
2009-10-07,6.607142925262451
2009-10-08,6.577142715454102
2009-10-09,6.701428413391113
2009-10-12,6.579999923706055
2009-10-13,6.641428470611572
2009-10-14,6.867142677307129
2009-10-15,7.192857265472412
2009-10-16,6.998571395874023
2009-10-19,7.114285945892334
2009-10-20,6.994285583496094
2009-10-21,6.835714340209961
2009-10-22,7.090000152587891
2009-10-23,7.841428756713867
2009-10-26,7.8814287185668945
2009-10-27,7.748571395874023
2009-10-28,7.648571491241455
2009-10-29,7.902857303619385
2009-10-30,7.635714054107666
2009-11-02,7.685714244842529
2009-11-03,7.6785712242126465
2009-11-04,7.737143039703369
2009-11-05,8.05571460723877
2009-11-06,7.980000019073486
2009-11-09,8.171428680419922
2009-11-10,8.342857360839844
2009-11-11,8.49142837524414
2009-11-12,8.312856674194336
2009-11-13,8.475714683532715
2009-11-16,8.494285583496094
2009-11-17,8.678571701049805
2009-11-18,8.732856750488281
2009-11-19,8.60857105255127
2009-11-20,8.567142486572266
2009-11-23,8.625714302062988
2009-11-24,8.524285316467285
2009-11-25,8.460000038146973
2009-11-27,8.264286041259766
2009-11-30,8.375714302062988
2009-12-01,8.318571090698242
2009-12-02,8.428571701049805
2009-12-03,8.284285545349121
2009-12-04,8.032856941223145
2009-12-07,7.987143039703369
2009-12-08,7.988571643829346
2009-12-09,7.994285583496094
2009-12-10,8.105713844299316
2009-12-11,7.9571428298950195
2009-12-14,8.058571815490723
2009-12-15,8.131428718566895
2009-12-16,7.8685712814331055
2009-12-17,7.675714492797852
2009-12-18,7.610000133514404
2009-12-21,7.708571434020996
2009-12-22,7.658571243286133
2009-12-23,8.121428489685059
2009-12-24,8.127142906188965
2009-12-28,8.191428184509277
2009-12-29,8.140000343322754
2009-12-30,7.947143077850342
2009-12-31,7.869999885559082
2010-01-04,7.639999866485596
2010-01-05,7.358571529388428
2010-01-06,7.617142677307129
2010-01-07,7.485714435577393
2010-01-08,7.614285945892334
2010-01-11,7.604285717010498
2010-01-12,7.481428623199463
2010-01-13,7.708571434020996
2010-01-14,7.284285545349121
2010-01-15,7.278571605682373
2010-01-19,7.314285755157471
2010-01-20,7.320000171661377
2010-01-21,7.312857151031494
2010-01-22,7.269999980926514
2010-01-25,7.018571376800537
2010-01-26,7.135714054107666
2010-01-27,7.281428337097168
2010-01-28,9.005714416503906
2010-01-29,8.892857551574707
2010-02-01,8.718571662902832
2010-02-02,8.835714340209961
2010-02-03,8.850000381469727
2010-02-04,8.619999885559082
2010-02-05,8.691428184509277
2010-02-08,8.699999809265137
2010-02-09,8.875714302062988
2010-02-10,8.784285545349121
2010-02-11,9.05142879486084
2010-02-12,9.025713920593262
2010-02-16,9.265714645385742
2010-02-17,9.215714454650879
2010-02-18,9.442856788635254
2010-02-19,9.521428108215332
2010-02-22,9.324285507202148
2010-02-23,9.192856788635254
2010-02-24,9.24142837524414
2010-02-25,9.372857093811035
2010-02-26,9.435714721679688
2010-03-01,9.95714282989502
2010-03-02,9.85428524017334
2010-03-03,9.649999618530273
2010-03-04,9.715714454650879
2010-03-05,9.664285659790039
2010-03-08,9.811429023742676
2010-03-09,9.99142837524414
2010-03-10,10.182857513427734
2010-03-11,10.170000076293945
2010-03-12,9.997142791748047
2010-03-15,9.942856788635254
2010-03-16,10.09000015258789
2010-03-17,10.131428718566895
2010-03-18,10.077142715454102
2010-03-19,10.064285278320312
2010-03-22,10.412857055664062
2010-03-23,10.422857284545898
2010-03-24,10.338571548461914
2010-03-25,10.505714416503906
2010-03-26,10.614285469055176
2010-03-29,10.557143211364746
2010-03-30,10.722857475280762
2010-03-31,10.534285545349121
2010-04-01,10.714285850524902
2010-04-05,11.427143096923828
2010-04-06,11.90999984741211
2010-04-07,11.390000343322754
2010-04-08,11.6899995803833
2010-04-09,11.774285316467285
2010-04-12,11.882857322692871
2010-04-13,12.34000015258789
2010-04-14,12.510000228881836
2010-04-15,12.404285430908203
2010-04-16,12.187143325805664
2010-04-19,12.114285469055176
2010-04-20,12.438570976257324
2010-04-21,12.425714492797852
2010-04-22,14.321428298950195
2010-04-23,14.247142791748047
2010-04-26,15.45285701751709
2010-04-27,14.581428527832031
2010-04-28,14.19857120513916
2010-04-29,14.738571166992188
2010-04-30,14.128571510314941
2010-05-03,14.569999694824219
2010-05-04,14.19428539276123
2010-05-05,14.032856941223145
2010-05-06,13.85285758972168
2010-05-07,13.012857437133789
2010-05-10,13.928571701049805
2010-05-11,14.260000228881836
2010-05-12,15.404285430908203
2010-05-13,15.715714454650879
2010-05-14,14.365714073181152
2010-05-17,15.192856788635254
2010-05-18,14.572856903076172
2010-05-19,14.372857093811035
2010-05-20,13.569999694824219
2010-05-21,14.210000038146973
2010-05-24,14.517143249511719
2010-05-25,15.0
2010-05-26,14.971428871154785
2010-05-27,15.55142879486084
2010-05-28,15.878571510314941
2010-06-01,15.327142715454102
2010-06-02,15.825714111328125
2010-06-03,15.978571891784668
2010-06-04,15.682857513427734
2010-06-07,15.59428596496582
2010-06-08,15.761428833007812
2010-06-09,16.489999771118164
2010-06-10,16.95142936706543
2010-06-11,17.24142837524414
2010-06-14,18.11571502685547
2010-06-15,17.64285659790039
2010-06-16,17.809999465942383
2010-06-17,17.979999542236328
2010-06-18,18.059999465942383
2010-06-21,16.998571395874023
2010-06-22,16.632856369018555
2010-06-23,16.82428550720215
2010-06-24,16.464284896850586
2010-06-25,16.854286193847656
2010-06-28,16.801427841186523
2010-06-29,16.082857131958008
2010-06-30,15.521428108215332
2010-07-01,15.665714263916016
2010-07-02,15.29714298248291
2010-07-06,15.324285507202148
2010-07-07,16.927143096923828
2010-07-08,16.711427688598633
2010-07-09,16.790000915527344
2010-07-12,17.054285049438477
2010-07-13,17.2742862701416
2010-07-14,17.571428298950195
2010-07-15,17.301427841186523
2010-07-16,16.912857055664062
2010-07-19,16.985713958740234
2010-07-20,17.198572158813477
2010-07-21,17.092857360839844
2010-07-22,14.794285774230957
2010-07-23,15.385714530944824
2010-07-26,14.684286117553711
2010-07-27,14.869999885559082
2010-07-28,14.329999923706055
2010-07-29,14.002857208251953
2010-07-30,14.649999618530273
2010-08-02,14.554286003112793
2010-08-03,14.915714263916016
2010-08-04,15.447142601013184
2010-08-05,15.789999961853027
2010-08-06,16.902856826782227
2010-08-09,16.700000762939453
2010-08-10,17.858572006225586
2010-08-11,18.067142486572266
2010-08-12,19.007143020629883
2010-08-13,18.894285202026367
2010-08-16,19.60285758972168
2010-08-17,18.99571418762207
2010-08-18,17.957143783569336
2010-08-19,18.31999969482422
2010-08-20,18.56571388244629
2010-08-23,18.128570556640625
2010-08-24,17.325714111328125
2010-08-25,17.75
2010-08-26,17.977142333984375
2010-08-27,18.014286041259766
2010-08-30,17.58571434020996
2010-08-31,17.931428909301758
2010-09-01,19.272857666015625
2010-09-02,19.714284896850586
2010-09-03,19.78285789489746
2010-09-07,20.255714416503906
2010-09-08,20.85714340209961
2010-09-09,20.81142807006836
2010-09-10,20.8799991607666
2010-09-13,21.13428497314453
2010-09-14,20.950000762939453
2010-09-15,20.445714950561523
2010-09-16,20.071428298950195
2010-09-17,20.06571388244629
2010-09-20,20.412857055664062
2010-09-21,21.02857208251953
2010-09-22,22.41857147216797
2010-09-23,22.924285888671875
2010-09-24,23.1728572845459
2010-09-27,23.56999969482422
2010-09-28,23.12285804748535
2010-09-29,24.375713348388672
2010-09-30,23.165714263916016
2010-10-01,22.09428596496582
2010-10-04,22.341428756713867
2010-10-05,22.308570861816406
2010-10-06,21.46714210510254
2010-10-07,21.632856369018555
2010-10-08,21.37714195251465
2010-10-11,21.95571517944336
2010-10-12,22.198572158813477
2010-10-13,22.087142944335938
2010-10-14,21.825714111328125
2010-10-15,22.24571418762207
2010-10-18,21.85714340209961
2010-10-19,21.332857131958008
2010-10-20,21.878570556640625
2010-10-21,24.670000076293945
2010-10-22,24.014286041259766
2010-10-25,23.834285736083984
2010-10-26,25.374286651611328
2010-10-27,25.5
2010-10-28,25.100000381469727
2010-10-29,24.795713424682617
2010-11-01,23.90999984741211
2010-11-02,24.515714645385742
2010-11-03,24.494285583496094
2010-11-04,23.974285125732422
2010-11-05,24.014286041259766
2010-11-08,24.161428451538086
2010-11-09,24.351428985595703
2010-11-10,25.26714324951172
2010-11-11,25.020000457763672
2010-11-12,24.714284896850586
2010-11-15,24.042856216430664
2010-11-16,23.628570556640625
2010-11-17,23.81142807006836
2010-11-18,24.047142028808594
2010-11-19,24.719999313354492
2010-11-22,26.902856826782227
2010-11-23,26.81571388244629
2010-11-24,26.96714210510254
2010-11-26,27.41428565979004
2010-11-29,28.417142868041992
2010-11-30,29.41428565979004
2010-12-01,28.591428756713867
2010-12-02,27.631427764892578
2010-12-03,26.492856979370117
2010-12-06,27.63857078552246
2010-12-07,27.11571502685547
2010-12-08,26.889999389648438
2010-12-09,27.292856216430664
2010-12-10,27.804285049438477
2010-12-13,26.257143020629883
2010-12-14,25.492856979370117
2010-12-15,25.5
2010-12-16,25.950000762939453
2010-12-17,25.71714210510254
2010-12-20,25.435714721679688
2010-12-21,26.605714797973633
2010-12-22,26.47857093811035
2010-12-23,26.368572235107422
2010-12-27,25.715713500976562
2010-12-28,26.238571166992188
2010-12-29,25.752857208251953
2010-12-30,25.685714721679688
2010-12-31,25.100000381469727
2011-01-03,25.48714256286621
2011-01-04,25.90999984741211
2011-01-05,25.67571449279785
2011-01-06,25.427143096923828
2011-01-07,25.614286422729492
2011-01-10,26.84000015258789
2011-01-11,26.66428565979004
2011-01-12,26.985713958740234
2011-01-13,27.355714797973633
2011-01-14,27.354286193847656
2011-01-18,27.66857147216797
2011-01-19,27.26714324951172
2011-01-20,26.428571701049805
2011-01-21,26.01285743713379
2011-01-24,26.280000686645508
2011-01-25,26.677143096923828
2011-01-26,26.14714241027832
2011-01-27,30.124286651611328
2011-01-28,31.139999389648438
2011-01-31,30.582857131958008
2011-02-01,30.41428565979004
2011-02-02,30.18000030517578
2011-02-03,30.21285629272461
2011-02-04,31.43857192993164
2011-02-07,31.145713806152344
2011-02-08,31.09000015258789
2011-02-09,31.755714416503906
2011-02-10,31.885713577270508
2011-02-11,33.0099983215332
2011-02-14,35.36428451538086
2011-02-15,34.3985710144043
2011-02-16,33.959999084472656
2011-02-17,33.66143035888672
2011-02-18,33.644287109375
2011-02-22,31.657142639160156
2011-02-23,30.171428680419922
2011-02-24,30.739999771118164
2011-02-25,30.34857177734375
2011-02-28,29.5242862701416
2011-03-01,29.23285675048828
2011-03-02,29.17571449279785
2011-03-03,29.0528564453125
2011-03-04,30.10285758972168
2011-03-07,29.628570556640625
2011-03-08,27.921428680419922
2011-03-09,27.56999969482422
2011-03-10,28.57428550720215
2011-03-11,29.219999313354492
2011-03-14,28.742856979370117
2011-03-15,31.015714645385742
2011-03-16,30.54857063293457
2011-03-17,30.55714225769043
2011-03-18,29.91428565979004
2011-03-21,30.40571403503418
2011-03-22,31.62714195251465
2011-03-23,32.72285842895508
2011-03-24,32.73285675048828
2011-03-25,32.85857009887695
2011-03-28,33.90285873413086
2011-03-29,33.91143035888672
2011-03-30,33.99285888671875
2011-03-31,33.968570709228516
2011-04-01,34.584285736083984
2011-04-04,34.959999084472656
2011-04-05,34.88999938964844
2011-04-06,34.281429290771484
2011-04-07,33.422855377197266
2011-04-08,33.551429748535156
2011-04-11,32.59428405761719
2011-04-12,33.41714096069336
2011-04-13,34.10714340209961
2011-04-14,33.818572998046875
2011-04-15,33.64142990112305
2011-04-18,33.33285903930664
2011-04-19,34.50714111328125
2011-04-20,34.91857147216797
2011-04-21,36.031429290771484
2011-04-25,35.952857971191406
2011-04-26,32.7014274597168
2011-04-27,33.70857238769531
2011-04-28,33.48143005371094
2011-04-29,33.23857116699219
2011-05-02,33.88428497314453
2011-05-03,33.03428649902344
2011-05-04,32.74142837524414
2011-05-05,32.90142822265625
2011-05-06,32.781429290771484
2011-05-09,33.772857666015625
2011-05-10,33.9471435546875
2011-05-11,34.38142776489258
2011-05-12,35.11000061035156
2011-05-13,35.21714401245117
2011-05-16,33.869998931884766
2011-05-17,33.84857177734375
2011-05-18,34.6485710144043
2011-05-19,34.67571258544922
2011-05-20,35.128570556640625
2011-05-23,35.4042854309082
2011-05-24,35.371429443359375
2011-05-25,37.067142486572266
2011-05-26,37.67856979370117
2011-05-27,37.78714370727539
2011-05-31,38.68571472167969
2011-06-01,38.18000030517578
2011-06-02,38.81428527832031
2011-06-03,39.099998474121094
2011-06-06,37.512855529785156
2011-06-07,37.66999816894531
2011-06-08,37.46571350097656
2011-06-09,37.5099983215332
2011-06-10,36.94571304321289
2011-06-13,36.7457160949707
2011-06-14,37.30428695678711
2011-06-15,36.73143005371094
2011-06-16,35.61428451538086
2011-06-17,35.0957145690918
2011-06-20,35.09000015258789
2011-06-21,36.235713958740234
2011-06-22,35.522857666015625
2011-06-23,36.531429290771484
2011-06-24,36.70857238769531
2011-06-27,37.15999984741211
2011-06-28,37.869998931884766
2011-06-29,37.84857177734375
2011-06-30,37.52714157104492
2011-07-01,38.28428649902344
2011-07-05,41.37571334838867
2011-07-06,41.56571578979492
2011-07-07,41.77428436279297
2011-07-08,42.16285705566406
2011-07-11,41.53428649902344
2011-07-12,41.61000061035156
2011-07-13,42.67571258544922
2011-07-14,40.94571304321289
2011-07-15,40.9900016784668
2011-07-18,39.85714340209961
2011-07-19,41.04142761230469
2011-07-20,40.20000076293945
2011-07-21,39.40142822265625
2011-07-22,39.51142883300781
2011-07-25,40.218570709228516
2011-07-26,38.130001068115234
2011-07-27,38.48857116699219
2011-07-28,38.08856964111328
2011-07-29,37.998573303222656
2011-08-01,37.62571334838867
2011-08-02,36.74285888671875
2011-08-03,37.14285659790039
2011-08-04,35.11000061035156
2011-08-05,34.44428634643555
2011-08-08,32.37714385986328
2011-08-09,33.97142791748047
2011-08-10,33.202857971191406
2011-08-11,34.73285675048828
2011-08-12,34.85714340209961
2011-08-15,35.182857513427734
2011-08-16,34.1485710144043
2011-08-17,33.17714309692383
2011-08-18,31.068571090698242
2011-08-19,29.31571388244629
2011-08-22,29.31571388244629
2011-08-23,31.362857818603516
2011-08-24,30.86142921447754
2011-08-25,30.832857131958008
2011-08-26,31.698572158813477
2011-08-29,32.1485710144043
2011-08-30,33.7542839050293
2011-08-31,33.57285690307617
2011-09-01,33.32428741455078
2011-09-02,30.444286346435547
2011-09-06,31.252857208251953
2011-09-07,30.85714340209961
2011-09-08,30.171428680419922
2011-09-09,29.13857078552246
2011-09-12,30.007143020629883
2011-09-13,29.821428298950195
2011-09-14,29.81571388244629
2011-09-15,24.178571701049805
2011-09-16,22.170000076293945
2011-09-19,20.535715103149414
2011-09-20,18.575714111328125
2011-09-21,18.35714340209961
2011-09-22,18.36142921447754
2011-09-23,18.479999542236328
2011-09-26,18.88857078552246
2011-09-27,18.21285629272461
2011-09-28,18.162857055664062
2011-09-29,16.170000076293945
2011-09-30,16.181428909301758
2011-10-03,16.178571701049805
2011-10-04,16.41428565979004
2011-10-05,17.108572006225586
2011-10-06,17.605714797973633
2011-10-07,16.744285583496094
2011-10-10,15.945713996887207
2011-10-11,15.522856712341309
2011-10-12,16.231428146362305
2011-10-13,16.715713500976562
2011-10-14,16.5771427154541
2011-10-17,16.761428833007812
2011-10-18,15.962857246398926
2011-10-19,15.631428718566895
2011-10-20,15.925714492797852
2011-10-21,16.719999313354492
2011-10-24,16.977142333984375
2011-10-25,11.052857398986816
2011-10-26,11.342857360839844
2011-10-27,11.55142879486084
2011-10-28,12.020000457763672
2011-10-31,11.725714683532715
2011-11-01,11.441428184509277
2011-11-02,11.912857055664062
2011-11-03,13.184286117553711
2011-11-04,12.859999656677246
2011-11-07,12.975714683532715
2011-11-08,12.924285888671875
2011-11-09,12.578571319580078
2011-11-10,12.15999984741211
2011-11-11,12.535714149475098
2011-11-14,12.24571418762207
2011-11-15,12.325714111328125
2011-11-16,11.597143173217773
2011-11-17,10.922857284545898
2011-11-18,11.15142822265625
2011-11-21,10.638571739196777
2011-11-22,10.064285278320312
2011-11-23,9.785714149475098
2011-11-25,9.122857093811035
2011-11-28,9.992856979370117
2011-11-29,9.652856826782227
2011-11-30,9.218571662902832
2011-12-01,9.595714569091797
2011-12-02,9.481428146362305
2011-12-05,10.017143249511719
2011-12-06,9.734285354614258
2011-12-07,10.279999732971191
2011-12-08,9.917142868041992
2011-12-09,10.127142906188965
2011-12-12,10.751428604125977
2011-12-13,10.30142879486084
2011-12-14,10.148571014404297
2011-12-15,9.960000038146973
2011-12-16,9.974286079406738
2011-12-19,9.592857360839844
2011-12-20,10.199999809265137
2011-12-21,10.138571739196777
2011-12-22,10.548571586608887
2011-12-23,10.374285697937012
2011-12-27,10.085714340209961
2011-12-28,9.885714530944824
2011-12-29,9.899999618530273
2011-12-30,9.898571014404297
2012-01-03,10.319999694824219
2012-01-04,11.492856979370117
2012-01-05,11.328571319580078
2012-01-06,12.327142715454102
2012-01-09,14.025713920593262
2012-01-10,13.6899995803833
2012-01-11,13.164285659790039
2012-01-12,13.164285659790039
2012-01-13,13.482856750488281
2012-01-17,13.531428337097168
2012-01-18,14.077142715454102
2012-01-19,14.779999732971191
2012-01-20,14.319999694824219
2012-01-23,13.422857284545898
2012-01-24,13.238571166992188
2012-01-25,13.577142715454102
2012-01-26,16.572856903076172
2012-01-27,17.68428611755371
2012-01-30,17.91857147216797
2012-01-31,17.171428680419922
2012-02-01,17.567142486572266
2012-02-02,17.714284896850586
2012-02-03,18.06142807006836
2012-02-06,18.464284896850586
2012-02-07,18.268571853637695
2012-02-08,17.714284896850586
2012-02-09,17.834285736083984
2012-02-10,17.704286575317383
2012-02-13,16.899999618530273
2012-02-14,17.58142852783203
2012-02-15,17.437143325805664
2012-02-16,17.415714263916016
2012-02-17,17.407142639160156
2012-02-21,16.77142906188965
2012-02-22,16.05714225769043
2012-02-23,16.141427993774414
2012-02-24,15.95285701751709
2012-02-27,15.630000114440918
2012-02-28,16.18857192993164
2012-02-29,15.818571090698242
2012-03-01,16.10714340209961
2012-03-02,16.44285774230957
2012-03-05,15.829999923706055
2012-03-06,15.304286003112793
2012-03-07,15.027142524719238
2012-03-08,15.438570976257324
2012-03-09,15.59000015258789
2012-03-12,15.171428680419922
2012-03-13,15.192856788635254
2012-03-14,15.035714149475098
2012-03-15,15.738571166992188
2012-03-16,15.708571434020996
2012-03-19,16.332857131958008
2012-03-20,16.431428909301758
2012-03-21,17.157142639160156
2012-03-22,16.961427688598633
2012-03-23,17.170000076293945
2012-03-26,17.427143096923828
2012-03-27,17.238571166992188
2012-03-28,16.972856521606445
2012-03-29,16.435714721679688
2012-03-30,16.43428611755371
2012-04-02,16.281429290771484
2012-04-03,16.137142181396484
2012-04-04,15.751428604125977
2012-04-05,15.785714149475098
2012-04-09,15.239999771118164
2012-04-10,14.5600004196167
2012-04-11,14.25857162475586
2012-04-12,14.894286155700684
2012-04-13,14.881428718566895
2012-04-16,14.449999809265137
2012-04-17,15.28857135772705
2012-04-18,15.279999732971191
2012-04-19,15.298571586608887
2012-04-20,15.158571243286133
2012-04-23,14.548571586608887
2012-04-24,12.525713920593262
2012-04-25,12.335714340209961
2012-04-26,12.152856826782227
2012-04-27,11.962857246398926
2012-04-30,11.44857120513916
2012-05-01,11.622857093811035
2012-05-02,11.747142791748047
2012-05-03,10.85285758972168
2012-05-04,10.44857120513916
2012-05-07,10.492856979370117
2012-05-08,10.398571014404297
2012-05-09,10.621428489685059
2012-05-10,10.345714569091797
2012-05-11,11.054286003112793
2012-05-14,10.994285583496094
2012-05-15,11.068571090698242
2012-05-16,10.600000381469727
2012-05-17,10.281428337097168
2012-05-18,9.994285583496094
2012-05-21,10.248571395874023
2012-05-22,9.672857284545898
2012-05-23,10.272856712341309
2012-05-24,10.03857135772705
2012-05-25,10.031428337097168
2012-05-29,9.920000076293945
2012-05-30,9.619999885559082
2012-05-31,9.062856674194336
2012-06-01,8.992856979370117
2012-06-04,9.285714149475098
2012-06-05,9.261428833007812
2012-06-06,9.411428451538086
2012-06-07,9.234285354614258
2012-06-08,9.377142906188965
2012-06-11,9.0
2012-06-12,9.002857208251953
2012-06-13,8.975714683532715
2012-06-14,8.951428413391113
2012-06-15,9.398571014404297
2012-06-18,9.532856941223145
2012-06-19,9.975714683532715
2012-06-20,9.737142562866211
2012-06-21,9.40571403503418
2012-06-22,9.69428539276123
2012-06-25,9.575714111328125
2012-06-26,9.54285717010498
2012-06-27,9.498571395874023
2012-06-28,9.622857093811035
2012-06-29,9.784285545349121
2012-07-02,9.692856788635254
2012-07-03,10.291428565979004
2012-07-05,11.674285888671875
2012-07-06,11.69857120513916
2012-07-09,11.855713844299316
2012-07-10,11.46142864227295
2012-07-11,11.662857055664062
2012-07-12,12.138571739196777
2012-07-13,12.128571510314941
2012-07-16,11.85428524017334
2012-07-17,11.682857513427734
2012-07-18,11.609999656677246
2012-07-19,11.874285697937012
2012-07-20,11.688570976257324
2012-07-23,11.420000076293945
2012-07-24,11.484285354614258
2012-07-25,8.611428260803223
2012-07-26,8.144286155700684
2012-07-27,8.417142868041992
2012-07-30,8.25
2012-07-31,8.121428489685059
2012-08-01,7.785714149475098
2012-08-02,7.695714473724365
2012-08-03,7.701428413391113
2012-08-06,8.1128568649292
2012-08-07,8.271428108215332
2012-08-08,8.257143020629883
2012-08-09,8.272856712341309
2012-08-10,8.557143211364746
2012-08-13,8.558571815490723
2012-08-14,8.822856903076172
2012-08-15,9.037142753601074
2012-08-16,9.187143325805664
2012-08-17,9.09857177734375
2012-08-20,9.177143096923828
2012-08-21,9.371428489685059
2012-08-22,9.342857360839844
2012-08-23,9.149999618530273
2012-08-24,9.022856712341309
2012-08-27,8.912857055664062
2012-08-28,8.992856979370117
2012-08-29,9.062856674194336
2012-08-30,8.640000343322754
2012-08-31,8.531428337097168
2012-09-04,7.989999771118164
2012-09-05,7.851428508758545
2012-09-06,8.092857360839844
2012-09-07,8.09428596496582
2012-09-10,7.988571643829346
2012-09-11,8.165714263916016
2012-09-12,8.172857284545898
2012-09-13,8.285714149475098
2012-09-14,8.64571475982666
2012-09-17,8.14571475982666
2012-09-18,8.00857162475586
2012-09-19,8.148571014404297
2012-09-20,8.39142894744873
2012-09-21,8.255714416503906
2012-09-24,8.05571460723877
2012-09-25,7.685714244842529
2012-09-26,7.875714302062988
2012-09-27,7.935714244842529
2012-09-28,7.7771430015563965
2012-10-01,8.007143020629883
2012-10-02,8.065713882446289
2012-10-03,8.9399995803833
2012-10-04,9.524285316467285
2012-10-05,9.50857162475586
2012-10-08,10.502857208251953
2012-10-09,9.361428260803223
2012-10-10,9.357142448425293
2012-10-11,9.425714492797852
2012-10-12,9.1899995803833
2012-10-15,9.251428604125977
2012-10-16,9.435714721679688
2012-10-17,9.78857135772705
2012-10-18,9.622857093811035
2012-10-19,9.282856941223145
2012-10-22,9.697142601013184
2012-10-23,9.74571418762207
2012-10-24,8.588571548461914
2012-10-25,8.787142753601074
2012-10-26,9.9399995803833
2012-10-31,11.319999694824219
2012-11-01,11.09857177734375
2012-11-02,10.985713958740234
2012-11-05,11.177143096923828
2012-11-06,10.90999984741211
2012-11-07,11.097143173217773
2012-11-08,10.85285758972168
2012-11-09,11.128571510314941
2012-11-12,11.170000076293945
2012-11-13,11.372857093811035
2012-11-14,11.39714241027832
2012-11-15,11.640000343322754
2012-11-16,11.557143211364746
2012-11-19,11.622857093811035
2012-11-20,11.771428108215332
2012-11-21,11.857142448425293
2012-11-23,11.850000381469727
2012-11-26,11.722857475280762
2012-11-27,11.868571281433105
2012-11-28,11.747142791748047
2012-11-29,11.625714302062988
2012-11-30,11.672857284545898
2012-12-03,10.857142448425293
2012-12-04,12.378571510314941
2012-12-05,11.90999984741211
2012-12-06,12.3100004196167
2012-12-07,12.282856941223145
2012-12-10,12.114285469055176
2012-12-11,12.29714298248291
2012-12-12,12.96142864227295
2012-12-13,13.222857475280762
2012-12-14,13.328571319580078
2012-12-17,13.528571128845215
2012-12-18,13.662857055664062
2012-12-19,13.425714492797852
2012-12-20,13.357142448425293
2012-12-21,13.048571586608887
2012-12-24,12.890000343322754
2012-12-26,12.949999809265137
2012-12-27,12.928571701049805
2012-12-28,12.761428833007812
2012-12-31,13.227143287658691
2013-01-02,13.144286155700684
2013-01-03,13.798571586608887
2013-01-04,13.71142864227295
2013-01-07,14.171428680419922
2013-01-08,13.880000114440918
2013-01-09,13.701428413391113
2013-01-10,14.0
2013-01-11,14.470000267028809
2013-01-14,14.778571128845215
2013-01-15,14.527142524719238
2013-01-16,13.925714492797852
2013-01-17,13.95714282989502
2013-01-18,14.167142868041992
2013-01-22,13.972857475280762
2013-01-23,14.751428604125977
2013-01-24,20.979999542236328
2013-01-25,24.222856521606445
2013-01-28,23.158571243286133
2013-01-29,24.15999984741211
2013-01-30,23.957143783569336
2013-01-31,23.605714797973633
2013-02-01,23.542856216430664
2013-02-04,24.96285629272461
2013-02-05,24.912857055664062
2013-02-06,26.34428596496582
2013-02-07,25.994285583496094
2013-02-08,25.85285758972168
2013-02-11,25.412857055664062
2013-02-12,25.421428680419922
2013-02-13,26.610000610351562
2013-02-14,26.77142906188965
2013-02-15,27.072856903076172
2013-02-19,28.064285278320312
2013-02-20,26.731428146362305
2013-02-21,26.735713958740234
2013-02-22,25.694286346435547
2013-02-25,25.617143630981445
2013-02-26,26.29857063293457
2013-02-27,26.33142852783203
2013-02-28,26.868572235107422
2013-03-01,27.0528564453125
2013-03-04,25.887142181396484
2013-03-05,25.961427688598633
2013-03-06,26.13428497314453
2013-03-07,25.937143325805664
2013-03-08,26.385713577270508
2013-03-11,25.77857208251953
2013-03-12,26.015714645385742
2013-03-13,27.479999542236328
2013-03-14,26.90999984741211
2013-03-15,26.407142639160156
2013-03-18,26.51285743713379
2013-03-19,25.90999984741211
2013-03-20,26.149999618530273
2013-03-21,25.998571395874023
2013-03-22,25.899999618530273
2013-03-25,25.8271427154541
2013-03-26,27.229999542236328
2013-03-27,27.177143096923828
2013-03-28,27.040000915527344
2013-04-01,26.06142807006836
2013-04-02,25.24142837524414
2013-04-03,24.248571395874023
2013-04-04,23.812856674194336
2013-04-05,23.522857666015625
2013-04-08,23.29428482055664
2013-04-09,24.194286346435547
2013-04-10,23.724285125732422
2013-04-11,24.715713500976562
2013-04-12,24.742856979370117
2013-04-15,25.214284896850586
2013-04-16,25.121429443359375
2013-04-17,24.194286346435547
2013-04-18,23.402856826782227
2013-04-19,23.338571548461914
2013-04-22,24.90999984741211
2013-04-23,30.998571395874023
2013-04-24,30.959999084472656
2013-04-25,30.535715103149414
2013-04-26,30.792856216430664
2013-04-29,30.715713500976562
2013-04-30,30.867143630981445
2013-05-01,30.415714263916016
2013-05-02,30.641427993774414
2013-05-03,30.492856979370117
2013-05-06,30.09857177734375
2013-05-07,29.464284896850586
2013-05-08,29.801427841186523
2013-05-09,30.915714263916016
2013-05-10,31.09857177734375
2013-05-13,32.76856994628906
2013-05-14,33.424285888671875
2013-05-15,34.771427154541016
2013-05-16,33.861427307128906
2013-05-17,34.14285659790039
2013-05-20,34.22142791748047
2013-05-21,33.869998931884766
2013-05-22,32.65142822265625
2013-05-23,32.31142807006836
2013-05-24,32.67714309692383
2013-05-28,30.59857177734375
2013-05-29,30.76285743713379
2013-05-30,31.808570861816406
2013-05-31,32.32143020629883
2013-06-03,31.709999084472656
2013-06-04,32.18714141845703
2013-06-05,31.9228572845459
2013-06-06,31.105714797973633
2013-06-07,31.459999084472656
2013-06-10,31.56142807006836
2013-06-11,30.637142181396484
2013-06-12,29.662857055664062
2013-06-13,30.770000457763672
2013-06-14,30.56999969482422
2013-06-17,32.74714279174805
2013-06-18,32.689998626708984
2013-06-19,33.18714141845703
2013-06-20,31.931428909301758
2013-06-21,30.985713958740234
2013-06-24,30.799999237060547
2013-06-25,30.41428565979004
2013-06-26,30.299999237060547
2013-06-27,30.709999084472656
2013-06-28,30.15571403503418
2013-07-01,32.040000915527344
2013-07-02,31.637142181396484
2013-07-03,31.558570861816406
2013-07-05,32.157142639160156
2013-07-08,33.29999923706055
2013-07-09,35.34000015258789
2013-07-10,34.83142852783203
2013-07-11,34.88142776489258
2013-07-12,36.751426696777344
2013-07-15,36.854286193847656
2013-07-16,37.211429595947266
2013-07-17,38.27428436279297
2013-07-18,38.058570861816406
2013-07-19,37.797142028808594
2013-07-22,37.422855377197266
2013-07-23,35.751426696777344
2013-07-24,34.47142791748047
2013-07-25,35.248573303222656
2013-07-26,35.18714141845703
2013-07-29,34.994285583496094
2013-07-30,34.82285690307617
2013-07-31,34.92571258544922
2013-08-01,35.58856964111328
2013-08-02,35.16857147216797
2013-08-05,36.262855529785156
2013-08-06,36.55714416503906
2013-08-07,35.6014289855957
2013-08-08,35.771427154541016
2013-08-09,36.10714340209961
2013-08-12,36.657142639160156
2013-08-13,37.02714157104492
2013-08-14,37.40142822265625
2013-08-15,36.2014274597168
2013-08-16,36.98143005371094
2013-08-19,37.111427307128906
2013-08-20,39.04142761230469
2013-08-21,38.62428665161133
2013-08-22,38.53571319580078
2013-08-23,39.76571273803711
2013-08-26,40.388572692871094
2013-08-27,39.43428421020508
2013-08-28,40.47999954223633
2013-08-29,41.121429443359375
2013-08-30,40.558570861816406
2013-09-03,41.28571319580078
2013-09-04,41.77571487426758
2013-09-05,42.158573150634766
2013-09-06,41.6485710144043
2013-09-09,42.021427154541016
2013-09-10,44.72285842895508
2013-09-11,44.0428581237793
2013-09-12,43.058570861816406
2013-09-13,43.66428756713867
2013-09-16,43.165714263916016
2013-09-17,42.7928581237793
2013-09-18,43.8457145690918
2013-09-19,43.64285659790039
2013-09-20,44.83285903930664
2013-09-23,43.1485710144043
2013-09-24,43.78428649902344
2013-09-25,43.87714385986328
2013-09-26,44.78714370727539
2013-09-27,44.628570556640625
2013-09-30,44.172855377197266
2013-10-01,46.37428665161133
2013-10-02,47.24714279174805
2013-10-03,45.959999084472656
2013-10-04,46.751426696777344
2013-10-07,45.4514274597168
2013-10-08,43.18857192993164
2013-10-09,41.20428466796875
2013-10-10,43.42714309692383
2013-10-11,42.978572845458984
2013-10-14,46.33714294433594
2013-10-15,45.95571517944336
2013-10-16,46.12571334838867
2013-10-17,47.157142639160156
2013-10-18,47.64285659790039
2013-10-21,50.71285629272461
2013-10-22,46.07428741455078
2013-10-23,47.17714309692383
2013-10-24,47.317142486572266
2013-10-25,46.861427307128906
2013-10-28,44.85714340209961
2013-10-29,46.75714111328125
2013-10-30,45.448570251464844
2013-10-31,46.068572998046875
2013-11-01,47.038570404052734
2013-11-04,48.228572845458984
2013-11-05,48.78571319580078
2013-11-06,47.9471435546875
2013-11-07,46.69428634643555
2013-11-08,47.842857360839844
2013-11-11,48.272857666015625
2013-11-12,47.67571258544922
2013-11-13,47.89714431762695
2013-11-14,48.93857192993164
2013-11-15,49.96571350097656
2013-11-18,48.82428741455078
2013-11-19,48.18428421020508
2013-11-20,48.50285720825195
2013-11-21,49.78571319580078
2013-11-22,49.69285583496094
2013-11-25,50.03428649902344
2013-11-26,50.74285888671875
2013-11-27,51.78428649902344
2013-11-29,52.25714111328125
2013-12-02,51.98857116699219
2013-12-03,51.84857177734375
2013-12-04,50.895713806152344
2013-12-05,51.15142822265625
2013-12-06,50.63428497314453
2013-12-09,50.810001373291016
2013-12-10,51.871429443359375
2013-12-11,51.99714279174805
2013-12-12,53.33285903930664
2013-12-13,52.709999084472656
2013-12-16,52.33000183105469
2013-12-17,53.5528564453125
2013-12-18,53.748573303222656
2013-12-19,53.81999969482422
2013-12-20,53.66714096069336
2013-12-23,54.36857223510742
2013-12-24,54.05571365356445
2013-12-26,53.84714126586914
2013-12-27,52.5
2013-12-30,52.42714309692383
2013-12-31,52.5957145690918
2014-01-02,51.83142852783203
2014-01-03,51.871429443359375
2014-01-06,51.36714172363281
2014-01-07,48.5
2014-01-08,48.71285629272461
2014-01-09,48.150001525878906
2014-01-10,47.448570251464844
2014-01-13,48.11571502685547
2014-01-14,48.279998779296875
2014-01-15,47.1971435546875
2014-01-16,47.38285827636719
2014-01-17,47.1485710144043
2014-01-21,46.95857238769531
2014-01-22,47.67571258544922
2014-01-23,55.531429290771484
2014-01-24,55.1542854309082
2014-01-27,54.461429595947266
2014-01-28,58.11000061035156
2014-01-29,57.202857971191406
2014-01-30,57.810001373291016
2014-01-31,58.47571563720703
2014-02-03,57.76856994628906
2014-02-04,57.987144470214844
2014-02-05,57.77428436279297
2014-02-06,58.272857666015625
2014-02-07,61.42571258544922
2014-02-10,61.49142837524414
2014-02-11,61.998573303222656
2014-02-12,61.27571487426758
2014-02-13,62.36428451538086
2014-02-14,62.21571350097656
2014-02-18,62.407142639160156
2014-02-19,61.17571258544922
2014-02-20,62.13571548461914
2014-02-21,61.74714279174805
2014-02-24,63.85714340209961
2014-02-25,64.71857452392578
2014-02-26,64.11285400390625
2014-02-27,64.60428619384766
2014-02-28,63.66143035888672
2014-03-03,63.65571594238281
2014-03-04,64.99714660644531
2014-03-05,64.78571319580078
2014-03-06,64.35857391357422
2014-03-07,64.0528564453125
2014-03-10,62.849998474121094
2014-03-11,62.49714279174805
2014-03-12,62.36857223510742
2014-03-13,61.43714141845703
2014-03-14,60.64142990112305
2014-03-17,60.388572692871094
2014-03-18,60.03571319580078
2014-03-19,60.012855529785156
2014-03-20,60.61000061035156
2014-03-21,57.998573303222656
2014-03-24,54.128570556640625
2014-03-25,52.977142333984375
2014-03-26,53.182857513427734
2014-03-27,52.02571487426758
2014-03-28,51.26714324951172
2014-03-31,50.290000915527344
2014-04-01,52.09857177734375
2014-04-02,51.84000015258789
2014-04-03,50.66999816894531
2014-04-04,48.18714141845703
2014-04-07,48.28571319580078
2014-04-08,49.841426849365234
2014-04-09,50.432857513427734
2014-04-10,47.818572998046875
2014-04-11,46.672855377197266
2014-04-14,47.36857223510742
2014-04-15,46.61000061035156
2014-04-16,47.34428405761719
2014-04-17,49.39142990112305
2014-04-21,49.78428649902344
2014-04-22,53.271427154541016
2014-04-23,50.5
2014-04-24,49.15285873413086
2014-04-25,46.01142883300781
2014-04-28,44.887142181396484
2014-04-29,45.69571304321289
2014-04-30,46.005714416503906
2014-05-01,48.07428741455078
2014-05-02,48.66428756713867
2014-05-05,49.1971435546875
2014-05-06,46.59857177734375
2014-05-07,45.79142761230469
2014-05-08,45.9514274597168
2014-05-09,46.93571472167969
2014-05-12,49.349998474121094
2014-05-13,49.591426849365234
2014-05-14,50.26856994628906
2014-05-15,49.16999816894531
2014-05-16,49.98285675048828
2014-05-19,52.07143020629883
2014-05-20,53.0957145690918
2014-05-21,55.79999923706055
2014-05-22,55.97142791748047
2014-05-23,57.478572845458984
2014-05-27,56.97285842895508
2014-05-28,57.31999969482422
2014-05-29,59.31428527832031
2014-05-30,59.689998626708984
2014-06-02,60.29428482055664
2014-06-03,59.65285873413086
2014-06-04,60.45857238769531
2014-06-05,61.19285583496094
2014-06-06,61.4471435546875
2014-06-09,60.441429138183594
2014-06-10,61.18428421020508
2014-06-11,61.42856979370117
2014-06-12,60.349998474121094
2014-06-13,61.1014289855957
2014-06-16,61.46571350097656
2014-06-17,63.378570556640625
2014-06-18,64.0971450805664
2014-06-19,63.05571365356445
2014-06-20,62.88285827636719
2014-06-23,62.788570404052734
2014-06-24,62.33714294433594
2014-06-25,63.45857238769531
2014-06-26,62.801429748535156
2014-06-27,63.1542854309082
2014-06-30,62.94285583496094
2014-07-01,67.5857162475586
2014-07-02,66.67713928222656
2014-07-03,67.47856903076172
2014-07-07,65.8028564453125
2014-07-08,63.57857131958008
2014-07-09,63.28571319580078
2014-07-10,62.650001525878906
2014-07-11,62.8514289855957
2014-07-14,64.65428924560547
2014-07-15,64.15571594238281
2014-07-16,63.49142837524414
2014-07-17,62.76571273803711
2014-07-18,63.452857971191406
2014-07-21,64.56428527832031
2014-07-22,61.584285736083984
2014-07-23,61.128570556640625
2014-07-24,60.76856994628906
2014-07-25,60.26571273803711
2014-07-28,60.665714263916016
2014-07-29,60.611427307128906
2014-07-30,62.051429748535156
2014-07-31,60.388572692871094
2014-08-01,60.771427154541016
2014-08-04,60.38571548461914
2014-08-05,60.407142639160156
2014-08-06,61.47142791748047
2014-08-07,64.23857116699219
2014-08-08,63.69285583496094
2014-08-11,64.5057144165039
2014-08-12,63.772857666015625
2014-08-13,64.50428771972656
2014-08-14,64.41000366210938
2014-08-15,65.58428192138672
2014-08-18,66.57142639160156
2014-08-19,66.87857055664062
2014-08-20,67.4557113647461
2014-08-21,67.43571472167969
2014-08-22,68.4557113647461
2014-08-25,68.70428466796875
2014-08-26,68.4800033569336
2014-08-27,67.81428527832031
2014-08-28,67.88714599609375
2014-08-29,68.23428344726562
2014-09-02,68.0857162475586
2014-09-03,68.19857025146484
2014-09-04,67.52428436279297
2014-09-05,67.95428466796875
2014-09-08,68.47571563720703
2014-09-09,68.43000030517578
2014-09-10,69.19857025146484
2014-09-11,68.7942886352539
2014-09-12,68.07857513427734
2014-09-15,65.39286041259766
2014-09-16,65.27285766601562
2014-09-17,64.93285369873047
2014-09-18,65.57286071777344
2014-09-19,65.36000061035156
2014-09-22,63.2542839050293
2014-09-23,63.41428756713867
2014-09-24,64.36571502685547
2014-09-25,63.355712890625
2014-09-26,64.10713958740234
2014-09-29,64.22285461425781
2014-09-30,64.45428466796875
2014-10-01,62.68571472167969
2014-10-02,64.2828598022461
2014-10-03,65.64857482910156
2014-10-06,66.21142578125
2014-10-07,65.17857360839844
2014-10-08,66.69428253173828
2014-10-09,65.94571685791016
2014-10-10,64.58285522460938
2014-10-13,62.6542854309082
2014-10-14,64.16000366210938
2014-10-15,64.08428192138672
2014-10-16,51.67142868041992
2014-10-17,51.012855529785156
2014-10-20,51.317142486572266
2014-10-21,52.28428649902344
2014-10-22,53.521427154541016
2014-10-23,54.720001220703125
2014-10-24,55.00285720825195
2014-10-27,54.20000076293945
2014-10-28,55.174285888671875
2014-10-29,54.014286041259766
2014-10-30,54.144287109375
2014-10-31,56.11000061035156
2014-11-03,55.487144470214844
2014-11-04,54.682857513427734
2014-11-05,54.34000015258789
2014-11-06,54.75714111328125
2014-11-07,54.880001068115234
2014-11-10,55.32428741455078
2014-11-11,54.650001525878906
2014-11-12,54.83714294433594
2014-11-13,54.2014274597168
2014-11-14,55.1485710144043
2014-11-17,54.448570251464844
2014-11-18,54.432857513427734
2014-11-19,51.871429443359375
2014-11-20,52.591426849365234
2014-11-21,51.468570709228516
2014-11-24,50.924285888671875
2014-11-25,49.855712890625
2014-11-26,50.165714263916016
2014-11-28,49.512855529785156
2014-12-01,48.83000183105469
2014-12-02,50.33000183105469
2014-12-03,50.73143005371094
2014-12-04,50.08571243286133
2014-12-05,50.13142776489258
2014-12-08,48.49714279174805
2014-12-09,49.111427307128906
2014-12-10,47.7599983215332
2014-12-11,47.80428695678711
2014-12-12,47.78285598754883
2014-12-15,46.720001220703125
2014-12-16,45.20571517944336
2014-12-17,47.66428756713867
2014-12-18,47.77428436279297
2014-12-19,48.58856964111328
2014-12-22,48.09714126586914
2014-12-23,48.06142807006836
2014-12-24,48.871429443359375
2014-12-26,48.57857131958008
2014-12-29,48.84714126586914
2014-12-30,49.03285598754883
2014-12-31,48.801429748535156
2015-01-02,49.84857177734375
2015-01-05,47.31142807006836
2015-01-06,46.501426696777344
2015-01-07,46.74285888671875
2015-01-08,47.779998779296875
2015-01-09,47.04142761230469
2015-01-12,45.547142028808594
2015-01-13,46.255714416503906
2015-01-14,46.31999969482422
2015-01-15,46.251426696777344
2015-01-16,48.191429138183594
2015-01-20,49.82857131958008
2015-01-21,58.468570709228516
2015-01-22,61.20571517944336
2015-01-23,62.494285583496094
2015-01-26,63.79428482055664
2015-01-27,64.88143157958984
2015-01-28,63.20857238769531
2015-01-29,63.400001525878906
2015-01-30,63.11428451538086
2015-02-02,63.0099983215332
2015-02-03,65.27428436279297
2015-02-04,64.10142517089844
2015-02-05,64.12999725341797
2015-02-06,63.47999954223633
2015-02-09,63.29571533203125
2015-02-10,64.8499984741211
2015-02-11,64.98428344726562
2015-02-12,65.24714660644531
2015-02-13,66.5857162475586
2015-02-17,67.13714599609375
2015-02-18,67.86571502685547
2015-02-19,67.80000305175781
2015-02-20,68.31428527832031
2015-02-23,67.40571594238281
2015-02-24,67.83999633789062
2015-02-25,68.33285522460938
2015-02-26,69.00428771972656
2015-02-27,67.84428405761719
2015-03-02,68.60713958740234
2015-03-03,67.81571197509766
2015-03-04,67.11000061035156
2015-03-05,66.80714416503906
2015-03-06,64.87428283691406
2015-03-09,63.66143035888672
2015-03-10,62.15142822265625
2015-03-11,62.88428497314453
2015-03-12,64.04571533203125
2015-03-13,62.628570556640625
2015-03-16,60.281429290771484
2015-03-17,59.788570404052734
2015-03-18,60.44571304321289
2015-03-19,60.744285583496094
2015-03-20,61.18571472167969
2015-03-23,60.71428680419922
2015-03-24,62.611427307128906
2015-03-25,60.25
2015-03-26,59.751426696777344
2015-03-27,59.25285720825195
2015-03-30,60.36714172363281
2015-03-31,59.52714157104492
2015-04-01,59.01714324951172
2015-04-02,59.1542854309082
2015-04-06,60.33000183105469
2015-04-07,60.494285583496094
2015-04-08,63.04999923706055
2015-04-09,62.78571319580078
2015-04-10,64.93856811523438
2015-04-13,67.81143188476562
2015-04-14,68.38714599609375
2015-04-15,67.92285919189453
2015-04-16,80.29285430908203
2015-04-17,81.6500015258789
2015-04-20,81.05571746826172
2015-04-21,80.06285858154297
2015-04-22,79.66857147216797
2015-04-23,79.86571502685547
2015-04-24,79.77143096923828
2015-04-27,80.86856842041016
2015-04-28,80.43714141845703
2015-04-29,80.40714263916016
2015-04-30,79.5
2015-05-01,79.57571411132812
2015-05-04,79.27143096923828
2015-05-05,80.79285430908203
2015-05-06,80.07714080810547
2015-05-07,80.74857330322266
2015-05-08,82.0857162475586
2015-05-11,84.27857208251953
2015-05-12,83.37714385986328
2015-05-13,82.87285614013672
2015-05-14,83.8357162475586
2015-05-15,87.60713958740234
2015-05-18,88.26714324951172
2015-05-19,88.06857299804688
2015-05-20,88.79000091552734
2015-05-21,89.00285339355469
2015-05-22,88.83856964111328
2015-05-26,87.99285888671875
2015-05-27,89.85713958740234
2015-05-28,89.50714111328125
2015-05-29,89.15142822265625
2015-06-01,89.00285339355469
2015-06-02,89.12999725341797
2015-06-03,88.8085708618164
2015-06-04,89.34857177734375
2015-06-05,90.45999908447266
2015-06-08,89.60428619384766
2015-06-09,92.44999694824219
2015-06-10,95.87142944335938
2015-06-11,95.09428405761719
2015-06-12,94.41857147216797
2015-06-15,93.43142700195312
2015-06-16,95.27285766601562
2015-06-17,94.27143096923828
2015-06-18,94.74285888671875
2015-06-19,93.87142944335938
2015-06-22,96.4142837524414
2015-06-23,97.31285858154297
2015-06-24,96.94428253173828
2015-06-25,94.89142608642578
2015-06-26,93.08856964111328
2015-06-29,92.23143005371094
2015-06-30,93.84857177734375
2015-07-01,93.63571166992188
2015-07-02,94.0442886352539
2015-07-06,94.57142639160156
2015-07-07,94.0914306640625
2015-07-08,93.50714111328125
2015-07-09,95.72714233398438
2015-07-10,97.22856903076172
2015-07-13,101.08714294433594
2015-07-14,100.37142944335938
2015-07-15,98.12999725341797
2015-07-16,115.80999755859375
2015-07-17,114.7699966430664
2015-07-20,110.55000305175781
2015-07-21,112.51000213623047
2015-07-22,111.5
2015-07-23,110.0999984741211
2015-07-24,109.33999633789062
2015-07-27,106.43000030517578
2015-07-28,106.9000015258789
2015-07-29,107.08000183105469
2015-07-30,111.55999755859375
2015-07-31,114.30999755859375
2015-08-03,112.55999755859375
2015-08-04,121.1500015258789
2015-08-05,123.70999908447266
2015-08-06,126.44999694824219
2015-08-07,123.5199966430664
2015-08-10,123.02999877929688
2015-08-11,122.73999786376953
2015-08-12,120.51000213623047
2015-08-13,123.7300033569336
2015-08-14,123.38999938964844
2015-08-17,125.36000061035156
2015-08-18,124.05000305175781
2015-08-19,122.05999755859375
2015-08-20,112.48999786376953
2015-08-21,103.95999908447266
2015-08-24,96.87999725341797
2015-08-25,101.5199966430664
2015-08-26,110.12999725341797
2015-08-27,117.66000366210938
2015-08-28,117.62999725341797
2015-08-31,115.02999877929688
2015-09-01,105.79000091552734
2015-09-02,105.44000244140625
2015-09-03,101.05999755859375
2015-09-04,98.79000091552734
2015-09-08,94.94999694824219
2015-09-09,99.18000030517578
2015-09-10,99.4800033569336
2015-09-11,97.51000213623047
2015-09-14,95.69000244140625
2015-09-15,99.16000366210938
2015-09-16,104.08000183105469
2015-09-17,104.20999908447266
2015-09-18,102.62000274658203
2015-09-21,100.30000305175781
2015-09-22,98.47000122070312
2015-09-23,98.06999969482422
2015-09-24,103.76000213623047
2015-09-25,102.23999786376953
2015-09-28,99.47000122070312
2015-09-29,98.3499984741211
2015-09-30,103.26000213623047
2015-10-01,105.9800033569336
2015-10-02,106.11000061035156
2015-10-05,111.25
2015-10-06,108.33000183105469
2015-10-07,108.0999984741211
2015-10-08,114.93000030517578
2015-10-09,113.33000183105469
2015-10-12,113.44999694824219
2015-10-13,109.7300033569336
2015-10-14,110.2300033569336
2015-10-15,101.08999633789062
2015-10-16,98.98999786376953
2015-10-19,101.69000244140625
2015-10-20,98.98999786376953
2015-10-21,97.95999908447266
2015-10-22,97.31999969482422
2015-10-23,100.04000091552734
2015-10-26,103.04000091552734
2015-10-27,103.06999969482422
2015-10-28,105.80000305175781
2015-10-29,105.12000274658203
2015-10-30,108.37999725341797
2015-11-02,107.63999938964844
2015-11-03,109.73999786376953
2015-11-04,114.05000305175781
2015-11-05,113.5
2015-11-06,114.05999755859375
2015-11-09,109.86000061035156
2015-11-10,112.69999694824219
2015-11-11,112.86000061035156
2015-11-12,108.91999816894531
2015-11-13,103.6500015258789
2015-11-16,111.3499984741211
2015-11-17,117.0999984741211
2015-11-18,120.62999725341797
2015-11-19,120.22000122070312
2015-11-20,123.83999633789062
2015-11-23,125.02999877929688
2015-11-24,123.30999755859375
2015-11-25,124.16000366210938
2015-11-27,125.44000244140625
2015-11-30,123.33000183105469
2015-12-01,125.37000274658203
2015-12-02,128.92999267578125
2015-12-03,126.80999755859375
2015-12-04,130.92999267578125
2015-12-07,125.36000061035156
2015-12-08,126.9800033569336
2015-12-09,124.19999694824219
2015-12-10,122.91000366210938
2015-12-11,118.91000366210938
2015-12-14,120.66999816894531
2015-12-15,118.5999984741211
2015-12-16,122.63999938964844
2015-12-17,122.51000213623047
2015-12-18,118.0199966430664
2015-12-21,116.62999725341797
2015-12-22,116.23999786376953
2015-12-23,118.16000366210938
2015-12-24,117.33000183105469
2015-12-28,117.11000061035156
2015-12-29,119.12000274658203
2015-12-30,116.70999908447266
2015-12-31,114.37999725341797
2016-01-04,109.95999908447266
2016-01-05,107.66000366210938
2016-01-06,117.68000030517578
2016-01-07,114.55999755859375
2016-01-08,111.38999938964844
2016-01-11,114.97000122070312
2016-01-12,116.58000183105469
2016-01-13,106.55999755859375
2016-01-14,107.05999755859375
2016-01-15,104.04000091552734
2016-01-19,107.88999938964844
2016-01-20,107.73999786376953
2016-01-21,102.3499984741211
2016-01-22,100.72000122070312
2016-01-25,99.12000274658203
2016-01-26,97.83000183105469
2016-01-27,91.1500015258789
2016-01-28,94.41000366210938
2016-01-29,91.83999633789062
2016-02-01,94.08999633789062
2016-02-02,91.48999786376953
2016-02-03,90.73999786376953
2016-02-04,89.70999908447266
2016-02-05,82.79000091552734
2016-02-08,83.31999969482422
2016-02-09,86.12999725341797
2016-02-10,88.44999694824219
2016-02-11,86.3499984741211
2016-02-12,87.4000015258789
2016-02-16,89.05000305175781
2016-02-17,94.76000213623047
2016-02-18,90.48999786376953
2016-02-19,89.2300033569336
2016-02-22,91.93000030517578
2016-02-23,89.12000274658203
2016-02-24,91.61000061035156
2016-02-25,94.52999877929688
2016-02-26,94.79000091552734
2016-02-29,93.41000366210938
2016-03-01,98.30000305175781
2016-03-02,97.61000061035156
2016-03-03,97.93000030517578
2016-03-04,101.58000183105469
2016-03-07,95.48999786376953
2016-03-08,96.2300033569336
2016-03-09,98.0
2016-03-10,97.36000061035156
2016-03-11,97.66000366210938
2016-03-14,98.12999725341797
2016-03-15,97.86000061035156
2016-03-16,99.3499984741211
2016-03-17,99.72000122070312
2016-03-18,101.12000274658203
2016-03-21,101.05999755859375
2016-03-22,99.83999633789062
2016-03-23,99.58999633789062
2016-03-24,98.36000061035156
2016-03-28,101.20999908447266
2016-03-29,104.12999725341797
2016-03-30,102.19000244140625
2016-03-31,102.2300033569336
2016-04-01,105.69999694824219
2016-04-04,104.3499984741211
2016-04-05,104.94000244140625
2016-04-06,104.83000183105469
2016-04-07,104.44999694824219
2016-04-08,103.80999755859375
2016-04-11,102.68000030517578
2016-04-12,106.9800033569336
2016-04-13,109.6500015258789
2016-04-14,110.41999816894531
2016-04-15,111.51000213623047
2016-04-18,108.4000015258789
2016-04-19,94.33999633789062
2016-04-20,96.7699966430664
2016-04-21,94.9800033569336
2016-04-22,95.9000015258789
2016-04-25,93.55999755859375
2016-04-26,92.43000030517578
2016-04-27,91.04000091552734
2016-04-28,90.27999877929688
2016-04-29,90.02999877929688
2016-05-02,93.11000061035156
2016-05-03,91.54000091552734
2016-05-04,90.79000091552734
2016-05-05,89.37000274658203
2016-05-06,90.83999633789062
2016-05-09,90.54000091552734
2016-05-10,92.88999938964844
2016-05-11,90.0199966430664
2016-05-12,87.73999786376953
2016-05-13,87.87999725341797
2016-05-16,89.12000274658203
2016-05-17,88.62999725341797
2016-05-18,90.5
2016-05-19,89.55000305175781
2016-05-20,92.48999786376953
2016-05-23,94.88999938964844
2016-05-24,97.88999938964844
2016-05-25,100.19999694824219
2016-05-26,102.80999755859375
2016-05-27,103.30000305175781
2016-05-31,102.56999969482422
2016-06-01,101.51000213623047
2016-06-02,101.25
2016-06-03,99.58999633789062
2016-06-06,100.73999786376953
2016-06-07,99.88999938964844
2016-06-08,97.86000061035156
2016-06-09,97.08999633789062
2016-06-10,93.75
2016-06-13,93.8499984741211
2016-06-14,94.12000274658203
2016-06-15,94.29000091552734
2016-06-16,95.44000244140625
2016-06-17,94.44999694824219
2016-06-20,93.80000305175781
2016-06-21,90.98999786376953
2016-06-22,90.01000213623047
2016-06-23,91.66000366210938
2016-06-24,88.44000244140625
2016-06-27,85.33000183105469
2016-06-28,87.97000122070312
2016-06-29,91.05999755859375
2016-06-30,91.4800033569336
2016-07-01,96.66999816894531
2016-07-05,97.91000366210938
2016-07-06,94.5999984741211
2016-07-07,95.0999984741211
2016-07-08,97.05999755859375
2016-07-11,94.66999816894531
2016-07-12,95.97000122070312
2016-07-13,96.43000030517578
2016-07-14,98.0199966430664
2016-07-15,98.38999938964844
2016-07-18,98.80999755859375
2016-07-19,85.83999633789062
2016-07-20,87.91000366210938
2016-07-21,85.98999786376953
2016-07-22,85.88999938964844
2016-07-25,87.66000366210938
2016-07-26,91.41000366210938
2016-07-27,92.04000091552734
2016-07-28,91.6500015258789
2016-07-29,91.25
2016-08-01,94.37000274658203
2016-08-02,93.55999755859375
2016-08-03,93.0999984741211
2016-08-04,93.44000244140625
2016-08-05,97.02999877929688
2016-08-08,95.11000061035156
2016-08-09,93.98999786376953
2016-08-10,93.93000030517578
2016-08-11,95.88999938964844
2016-08-12,96.58999633789062
2016-08-15,95.30999755859375
2016-08-16,95.12000274658203
2016-08-17,96.37000274658203
2016-08-18,96.16000366210938
2016-08-19,95.87000274658203
2016-08-22,95.26000213623047
2016-08-23,95.94000244140625
2016-08-24,95.18000030517578
2016-08-25,97.31999969482422
2016-08-26,97.58000183105469
2016-08-29,97.30000305175781
2016-08-30,97.44999694824219
2016-08-31,97.44999694824219
2016-09-01,97.37999725341797
2016-09-02,97.37999725341797
2016-09-06,100.08999633789062
2016-09-07,99.1500015258789
2016-09-08,99.66000366210938
2016-09-09,96.5
2016-09-12,99.05000305175781
2016-09-13,96.08999633789062
2016-09-14,97.01000213623047
2016-09-15,97.33999633789062
2016-09-16,99.4800033569336
2016-09-19,98.05999755859375
2016-09-20,98.25
2016-09-21,94.87999725341797
2016-09-22,95.83000183105469
2016-09-23,95.94000244140625
2016-09-26,94.55999755859375
2016-09-27,97.06999969482422
2016-09-28,97.4800033569336
2016-09-29,96.66999816894531
2016-09-30,98.55000305175781
2016-10-03,102.62999725341797
2016-10-04,102.33999633789062
2016-10-05,106.27999877929688
2016-10-06,105.06999969482422
2016-10-07,104.81999969482422
2016-10-10,103.33000183105469
2016-10-11,100.58999633789062
2016-10-12,99.5
2016-10-13,100.2300033569336
2016-10-14,101.47000122070312
2016-10-17,99.80000305175781
2016-10-18,118.79000091552734
2016-10-19,121.87000274658203
2016-10-20,123.3499984741211
2016-10-21,127.5
2016-10-24,127.33000183105469
2016-10-25,126.51000213623047
2016-10-26,126.97000122070312
2016-10-27,126.47000122070312
2016-10-28,126.56999969482422
2016-10-31,124.87000274658203
2016-11-01,123.30000305175781
2016-11-02,122.33999633789062
2016-11-03,122.13999938964844
2016-11-04,122.02999877929688
2016-11-07,124.58000183105469
2016-11-08,124.33999633789062
2016-11-09,122.19000244140625
2016-11-10,115.41999816894531
2016-11-11,114.77999877929688
2016-11-14,113.37999725341797
2016-11-15,113.58999633789062
2016-11-16,115.19000244140625
2016-11-17,115.02999877929688
2016-11-18,115.20999908447266
2016-11-21,117.95999908447266
2016-11-22,118.04000091552734
2016-11-23,117.69000244140625
2016-11-25,117.41000366210938
2016-11-28,116.93000030517578
2016-11-29,117.51000213623047
2016-11-30,117.0
2016-12-01,117.22000122070312
2016-12-02,120.80999755859375
2016-12-05,119.16000366210938
2016-12-06,124.56999969482422
2016-12-07,125.38999938964844
2016-12-08,123.23999786376953
2016-12-09,122.87999725341797
2016-12-12,122.83000183105469
2016-12-13,123.77999877929688
2016-12-14,123.44000244140625
2016-12-15,125.0
2016-12-16,124.22000122070312
2016-12-19,125.44999694824219
2016-12-20,125.12000274658203
2016-12-21,126.5
2016-12-22,125.58000183105469
2016-12-23,125.58999633789062
2016-12-27,128.35000610351562
2016-12-28,125.88999938964844
2016-12-29,125.33000183105469
2016-12-30,123.80000305175781
2017-01-03,127.48999786376953
2017-01-04,129.41000366210938
2017-01-05,131.80999755859375
2017-01-06,131.07000732421875
2017-01-09,130.9499969482422
2017-01-10,129.88999938964844
2017-01-11,130.5
2017-01-12,129.17999267578125
2017-01-13,133.6999969482422
2017-01-17,132.88999938964844
2017-01-18,133.25999450683594
2017-01-19,138.41000366210938
2017-01-20,138.60000610351562
2017-01-23,137.38999938964844
2017-01-24,140.11000061035156
2017-01-25,139.52000427246094
2017-01-26,138.9600067138672
2017-01-27,142.4499969482422
2017-01-30,141.22000122070312
2017-01-31,140.7100067138672
2017-02-01,140.77999877929688
2017-02-02,139.1999969482422
2017-02-03,140.25
2017-02-06,140.97000122070312
2017-02-07,144.0
2017-02-08,144.74000549316406
2017-02-09,144.13999938964844
2017-02-10,144.82000732421875
2017-02-13,143.1999969482422
2017-02-14,140.82000732421875
2017-02-15,142.27000427246094
2017-02-16,142.00999450683594
2017-02-17,142.22000122070312
2017-02-21,142.60000610351562
2017-02-22,143.86000061035156
2017-02-23,142.77999877929688
2017-02-24,143.25
2017-02-27,143.41000366210938
2017-02-28,142.1300048828125
2017-03-01,142.64999389648438
2017-03-02,139.52999877929688
2017-03-03,139.13999938964844
2017-03-06,141.94000244140625
2017-03-07,141.42999267578125
2017-03-08,140.32000732421875
2017-03-09,140.52999877929688
2017-03-10,140.88999938964844
2017-03-13,143.52000427246094
2017-03-14,143.19000244140625
2017-03-15,145.25
2017-03-16,144.38999938964844
2017-03-17,145.11000061035156
2017-03-20,145.8300018310547
2017-03-21,142.4199981689453
2017-03-22,142.64999389648438
2017-03-23,141.83999633789062
2017-03-24,142.02000427246094
2017-03-27,144.05999755859375
2017-03-28,145.1699981689453
2017-03-29,146.47000122070312
2017-03-30,148.05999755859375
2017-03-31,147.80999755859375
2017-04-03,146.9199981689453
2017-04-04,145.5
2017-04-05,143.6199951171875
2017-04-06,143.74000549316406
2017-04-07,143.11000061035156
2017-04-10,143.85000610351562
2017-04-11,144.35000610351562
2017-04-12,143.8300018310547
2017-04-13,142.9199981689453
2017-04-17,147.25
2017-04-18,143.36000061035156
2017-04-19,139.75999450683594
2017-04-20,141.17999267578125
2017-04-21,142.8699951171875
2017-04-24,143.8300018310547
2017-04-25,152.16000366210938
2017-04-26,150.1699981689453
2017-04-27,153.0800018310547
2017-04-28,152.1999969482422
2017-05-01,155.35000610351562
2017-05-02,156.4499969482422
2017-05-03,155.58999633789062
2017-05-04,157.25
2017-05-05,156.60000610351562
2017-05-08,156.3800048828125
2017-05-09,157.4600067138672
2017-05-10,160.27999877929688
2017-05-11,158.5399932861328
2017-05-12,160.80999755859375
2017-05-15,160.02000427246094
2017-05-16,159.41000366210938
2017-05-17,153.1999969482422
2017-05-18,155.6999969482422
2017-05-19,157.02000427246094
2017-05-22,157.16000366210938
2017-05-23,157.9499969482422
2017-05-24,157.75
2017-05-25,163.0500030517578
2017-05-26,162.42999267578125
2017-05-30,163.22000122070312
2017-05-31,163.07000732421875
2017-06-01,162.99000549316406
2017-06-02,165.17999267578125
2017-06-05,165.05999755859375
2017-06-06,165.1699981689453
2017-06-07,165.61000061035156
2017-06-08,165.8800048828125
2017-06-09,158.02999877929688
2017-06-12,151.44000244140625
2017-06-13,152.72000122070312
2017-06-14,152.1999969482422
2017-06-15,151.75999450683594
2017-06-16,152.3800048828125
2017-06-19,153.39999389648438
2017-06-20,152.0500030517578
2017-06-21,155.02999877929688
2017-06-22,154.88999938964844
2017-06-23,158.02000427246094
2017-06-26,157.5
2017-06-27,151.02999877929688
2017-06-28,153.41000366210938
2017-06-29,150.08999633789062
2017-06-30,149.41000366210938
2017-07-03,146.1699981689453
2017-07-05,147.61000061035156
2017-07-06,146.25
2017-07-07,150.17999267578125
2017-07-10,152.6699981689453
2017-07-11,154.3300018310547
2017-07-12,158.75
2017-07-13,158.2100067138672
2017-07-14,161.1199951171875
2017-07-17,161.6999969482422
2017-07-18,183.60000610351562
2017-07-19,183.86000061035156
2017-07-20,183.60000610351562
2017-07-21,188.5399932861328
2017-07-24,187.91000366210938
2017-07-25,186.97000122070312
2017-07-26,189.0800018310547
2017-07-27,182.67999267578125
2017-07-28,184.0399932861328
2017-07-31,181.66000366210938
2017-08-01,182.02999877929688
2017-08-02,180.74000549316406
2017-08-03,179.22999572753906
2017-08-04,180.27000427246094
2017-08-07,181.3300018310547
2017-08-08,178.36000061035156
2017-08-09,175.77999877929688
2017-08-10,169.13999938964844
2017-08-11,171.39999389648438
2017-08-14,171.0
2017-08-15,168.5
2017-08-16,169.97999572753906
2017-08-17,166.08999633789062
2017-08-18,166.5399932861328
2017-08-21,166.75999450683594
2017-08-22,169.33999633789062
2017-08-23,169.05999755859375
2017-08-24,168.1300048828125
2017-08-25,165.9499969482422
2017-08-28,167.1199951171875
2017-08-29,168.80999755859375
2017-08-30,174.69000244140625
2017-08-31,174.7100067138672
2017-09-01,174.74000549316406
2017-09-05,174.52000427246094
2017-09-06,179.25
2017-09-07,179.0
2017-09-08,176.4199981689453
2017-09-11,181.74000549316406
2017-09-12,185.14999389648438
2017-09-13,183.63999938964844
2017-09-14,182.6300048828125
2017-09-15,182.35000610351562
2017-09-18,184.6199951171875
2017-09-19,185.67999267578125
2017-09-20,185.50999450683594
2017-09-21,188.77999877929688
2017-09-22,187.35000610351562
2017-09-25,178.5500030517578
2017-09-26,179.3800048828125
2017-09-27,181.97000122070312
2017-09-28,180.6999969482422
2017-09-29,181.35000610351562
2017-10-02,177.00999450683594
2017-10-03,179.19000244140625
2017-10-04,184.4499969482422
2017-10-05,194.38999938964844
2017-10-06,198.02000427246094
2017-10-09,196.8699951171875
2017-10-10,195.0800018310547
2017-10-11,194.9499969482422
2017-10-12,195.86000061035156
2017-10-13,199.49000549316406
2017-10-16,202.67999267578125
2017-10-17,199.47999572753906
2017-10-18,195.5399932861328
2017-10-19,195.1300048828125
2017-10-20,194.16000366210938
2017-10-23,192.47000122070312
2017-10-24,196.02000427246094
2017-10-25,193.77000427246094
2017-10-26,195.2100067138672
2017-10-27,199.5399932861328
2017-10-30,198.3699951171875
2017-10-31,196.42999267578125
2017-11-01,198.0
2017-11-02,199.32000732421875
2017-11-03,200.00999450683594
2017-11-06,200.1300048828125
2017-11-07,195.88999938964844
2017-11-08,196.44000244140625
2017-11-09,193.89999389648438
2017-11-10,192.02000427246094
2017-11-13,195.0800018310547
2017-11-14,195.7100067138672
2017-11-15,192.1199951171875
2017-11-16,195.50999450683594
2017-11-17,193.1999969482422
2017-11-20,194.10000610351562
2017-11-21,196.22999572753906
2017-11-22,196.32000732421875
2017-11-24,195.75
2017-11-27,195.0500030517578
2017-11-28,199.17999267578125
2017-11-29,188.14999389648438
2017-11-30,187.5800018310547
2017-12-01,186.82000732421875
2017-12-04,184.0399932861328
2017-12-05,184.2100067138672
2017-12-06,185.3000030517578
2017-12-07,185.1999969482422
2017-12-08,188.5399932861328
2017-12-11,186.22000122070312
2017-12-12,185.72999572753906
2017-12-13,187.86000061035156
2017-12-14,189.55999755859375
2017-12-15,190.1199951171875
2017-12-18,190.4199981689453
2017-12-19,187.02000427246094
2017-12-20,188.82000732421875
2017-12-21,188.6199951171875
2017-12-22,189.94000244140625
2017-12-26,187.75999450683594
2017-12-27,186.24000549316406
2017-12-28,192.7100067138672
2017-12-29,191.9600067138672
2018-01-02,201.07000732421875
2018-01-03,205.0500030517578
2018-01-04,205.6300048828125
2018-01-05,209.99000549316406
2018-01-08,212.0500030517578
2018-01-09,209.30999755859375
2018-01-10,212.52000427246094
2018-01-11,217.24000549316406
2018-01-12,221.22999572753906
2018-01-16,221.52999877929688
2018-01-17,217.5
2018-01-18,220.3300018310547
2018-01-19,220.4600067138672
2018-01-22,227.5800018310547
2018-01-23,250.2899932861328
2018-01-24,261.29998779296875
2018-01-25,269.70001220703125
2018-01-26,274.6000061035156
2018-01-29,284.5899963378906
2018-01-30,278.79998779296875
2018-01-31,270.29998779296875
2018-02-01,265.07000732421875
2018-02-02,267.42999267578125
2018-02-05,254.25999450683594
2018-02-06,265.7200012207031
2018-02-07,264.55999755859375
2018-02-08,250.10000610351562
2018-02-09,249.47000122070312
2018-02-12,257.95001220703125
2018-02-13,258.2699890136719
2018-02-14,266.0
2018-02-15,280.2699890136719
2018-02-16,278.5199890136719
2018-02-20,278.54998779296875
2018-02-21,281.0400085449219
2018-02-22,278.1400146484375
2018-02-23,285.92999267578125
2018-02-26,294.1600036621094
2018-02-27,290.6099853515625
2018-02-28,291.3800048828125
2018-03-01,290.3900146484375
2018-03-02,301.04998779296875
2018-03-05,315.0
2018-03-06,325.2200012207031
2018-03-07,321.1600036621094
2018-03-08,317.0
2018-03-09,331.44000244140625
2018-03-12,321.29998779296875
2018-03-13,315.8800048828125
2018-03-14,321.54998779296875
2018-03-15,321.0899963378906
2018-03-16,318.45001220703125
2018-03-19,313.4800109863281
2018-03-20,317.5
2018-03-21,316.4800109863281
2018-03-22,306.70001220703125
2018-03-23,300.94000244140625
2018-03-26,320.3500061035156
2018-03-27,300.69000244140625
2018-03-28,285.7699890136719
2018-03-29,295.3500061035156
2018-04-02,280.2900085449219
2018-04-03,283.6700134277344
2018-04-04,288.94000244140625
2018-04-05,293.9700012207031
2018-04-06,288.8500061035156
2018-04-09,289.92999267578125
2018-04-10,298.07000732421875
2018-04-11,303.6700134277344
2018-04-12,309.25
2018-04-13,311.6499938964844
2018-04-16,307.7799987792969
2018-04-17,336.05999755859375
2018-04-18,334.5199890136719
2018-04-19,332.70001220703125
2018-04-20,327.7699890136719
2018-04-23,318.69000244140625
2018-04-24,307.0199890136719
2018-04-25,305.760009765625
2018-04-26,313.9800109863281
2018-04-27,311.760009765625
2018-04-30,312.4599914550781
2018-05-01,313.29998779296875
2018-05-02,313.3599853515625
2018-05-03,311.69000244140625
2018-05-04,320.0899963378906
2018-05-07,326.260009765625
2018-05-08,326.8900146484375
2018-05-09,330.29998779296875
2018-05-10,329.6000061035156
2018-05-11,326.4599914550781
2018-05-14,328.5299987792969
2018-05-15,326.1300048828125
2018-05-16,328.19000244140625
2018-05-17,325.2200012207031
2018-05-18,324.17999267578125
2018-05-21,331.82000732421875
2018-05-22,331.6199951171875
2018-05-23,344.7200012207031
2018-05-24,349.2900085449219
2018-05-25,351.2900085449219
2018-05-29,349.7300109863281
2018-05-30,353.5400085449219
2018-05-31,351.6000061035156
2018-06-01,359.92999267578125
2018-06-04,361.80999755859375
2018-06-05,365.79998779296875
2018-06-06,367.45001220703125
2018-06-07,361.3999938964844
2018-06-08,360.57000732421875
2018-06-11,361.45001220703125
2018-06-12,363.8299865722656
2018-06-13,379.92999267578125
2018-06-14,392.8699951171875
2018-06-15,391.9800109863281
2018-06-18,390.3999938964844
2018-06-19,404.9800109863281
2018-06-20,416.760009765625
2018-06-21,415.44000244140625
2018-06-22,411.0899963378906
2018-06-25,384.4800109863281
2018-06-26,399.3900146484375
2018-06-27,390.3900146484375
2018-06-28,395.4200134277344
2018-06-29,391.42999267578125
2018-07-02,398.17999267578125
2018-07-03,390.5199890136719
2018-07-05,398.3900146484375
2018-07-06,408.25
2018-07-09,418.9700012207031
2018-07-10,415.6300048828125
2018-07-11,418.6499938964844
2018-07-12,413.5
2018-07-13,395.79998779296875
2018-07-16,400.4800109863281
2018-07-17,379.4800109863281
2018-07-18,375.1300048828125
2018-07-19,364.2300109863281
2018-07-20,361.04998779296875
2018-07-23,362.6600036621094
2018-07-24,357.32000732421875
2018-07-25,362.8699951171875
2018-07-26,363.0899963378906
2018-07-27,355.2099914550781
2018-07-30,334.9599914550781
2018-07-31,337.45001220703125
2018-08-01,338.3800048828125
2018-08-02,344.5
2018-08-03,343.0899963378906
2018-08-06,350.9200134277344
2018-08-07,351.8299865722656
2018-08-08,347.6099853515625
2018-08-09,349.3599853515625
2018-08-10,345.8699951171875
2018-08-13,341.30999755859375
2018-08-14,337.489990234375
2018-08-15,326.3999938964844
2018-08-16,322.44000244140625
2018-08-17,316.7799987792969
2018-08-20,327.7300109863281
2018-08-21,338.0199890136719
2018-08-22,344.44000244140625
2018-08-23,339.1700134277344
2018-08-24,358.82000732421875
2018-08-27,364.5799865722656
2018-08-28,368.489990234375
2018-08-29,368.0400085449219
2018-08-30,370.9800109863281
2018-08-31,367.67999267578125
2018-09-04,363.6000061035156
2018-09-05,341.17999267578125
2018-09-06,346.4599914550781
2018-09-07,348.67999267578125
2018-09-10,348.4100036621094
2018-09-11,355.92999267578125
2018-09-12,369.95001220703125
2018-09-13,368.1499938964844
2018-09-14,364.55999755859375
2018-09-17,350.3500061035156
2018-09-18,367.6499938964844
2018-09-19,366.9599914550781
2018-09-20,365.3599853515625
2018-09-21,361.19000244140625
2018-09-24,369.6099853515625
2018-09-25,369.42999267578125
2018-09-26,377.8800048828125
2018-09-27,380.7099914550781
2018-09-28,374.1300048828125
2018-10-01,381.42999267578125
2018-10-02,377.1400146484375
2018-10-03,377.04998779296875
2018-10-04,363.6499938964844
2018-10-05,351.3500061035156
2018-10-08,349.1000061035156
2018-10-09,355.7099914550781
2018-10-10,325.8900146484375
2018-10-11,321.1000061035156
2018-10-12,339.55999755859375
2018-10-15,333.1300048828125
2018-10-16,346.3999938964844
2018-10-17,364.70001220703125
2018-10-18,346.7099914550781
2018-10-19,332.6700134277344
2018-10-22,329.5400085449219
2018-10-23,333.1600036621094
2018-10-24,301.8299865722656
2018-10-25,312.8699951171875
2018-10-26,299.8299865722656
2018-10-29,284.8399963378906
2018-10-30,285.80999755859375
2018-10-31,301.7799987792969
2018-11-01,317.3800048828125
2018-11-02,309.1000061035156
2018-11-05,315.44000244140625
2018-11-06,310.8399963378906
2018-11-07,327.5
2018-11-08,317.9200134277344
2018-11-09,303.4700012207031
2018-11-12,294.07000732421875
2018-11-13,294.3999938964844
2018-11-14,286.7300109863281
2018-11-15,290.05999755859375
2018-11-16,286.2099914550781
2018-11-19,270.6000061035156
2018-11-20,266.9800109863281
2018-11-21,262.1300048828125
2018-11-23,258.82000732421875
2018-11-26,261.42999267578125
2018-11-27,266.6300048828125
2018-11-28,282.6499938964844
2018-11-29,288.75
2018-11-30,286.1300048828125
2018-12-03,290.29998779296875
2018-12-04,275.3299865722656
2018-12-06,282.8800048828125
2018-12-07,265.1400146484375
2018-12-10,269.70001220703125
2018-12-11,265.32000732421875
2018-12-12,274.8800048828125
2018-12-13,276.0199890136719
2018-12-14,266.8399963378906
2018-12-17,262.79998779296875
2018-12-18,270.94000244140625
2018-12-19,266.7699890136719
2018-12-20,260.5799865722656
2018-12-21,246.38999938964844
2018-12-24,233.8800048828125
2018-12-26,253.6699981689453
2018-12-27,255.57000732421875
2018-12-28,256.0799865722656
2018-12-31,267.6600036621094
2019-01-02,267.6600036621094
2019-01-03,271.20001220703125
2019-01-04,297.57000732421875
2019-01-07,315.3399963378906
2019-01-08,320.2699890136719
2019-01-09,319.9599914550781
2019-01-10,324.6600036621094
2019-01-11,337.5899963378906
2019-01-14,332.94000244140625
2019-01-15,354.6400146484375
2019-01-16,351.3900146484375
2019-01-17,353.19000244140625
2019-01-18,339.1000061035156
2019-01-22,325.1600036621094
2019-01-23,321.989990234375
2019-01-24,326.6700134277344
2019-01-25,338.04998779296875
2019-01-28,335.6600036621094
2019-01-29,328.8999938964844
2019-01-30,340.6600036621094
2019-01-31,339.5
2019-02-01,339.8500061035156
2019-02-04,351.3399963378906
2019-02-05,355.80999755859375
2019-02-06,352.19000244140625
2019-02-07,344.7099914550781
2019-02-08,347.57000732421875
2019-02-11,345.7300109863281
2019-02-12,359.9700012207031
2019-02-13,351.7699890136719
2019-02-14,359.07000732421875
2019-02-15,356.8699951171875
2019-02-19,361.9200134277344
2019-02-20,359.9100036621094
2019-02-21,356.9700012207031
2019-02-22,363.0199890136719
2019-02-25,363.9100036621094
2019-02-26,364.9700012207031
2019-02-27,362.8699951171875
2019-02-28,358.1000061035156
2019-03-01,357.32000732421875
2019-03-04,351.0400085449219
2019-03-05,354.29998779296875
2019-03-06,359.6099853515625
2019-03-07,352.6000061035156
2019-03-08,349.6000061035156
2019-03-11,358.8599853515625
2019-03-12,356.2699890136719
2019-03-13,361.2099914550781
2019-03-14,358.82000732421875
2019-03-15,361.4599914550781
2019-03-18,363.44000244140625
2019-03-19,358.7799987792969
2019-03-20,375.2200012207031
2019-03-21,377.8699951171875
2019-03-22,361.010009765625
2019-03-25,366.2300109863281
2019-03-26,359.9700012207031
2019-03-27,353.3699951171875
2019-03-28,354.6099853515625
2019-03-29,356.55999755859375
2019-04-01,366.9599914550781
2019-04-02,367.7200012207031
2019-04-03,369.75
2019-04-04,367.8800048828125
2019-04-05,365.489990234375
2019-04-08,361.4100036621094
2019-04-09,364.7099914550781
2019-04-10,363.9200134277344
2019-04-11,367.6499938964844
2019-04-12,351.1400146484375
2019-04-15,348.8699951171875
2019-04-16,359.4599914550781
2019-04-17,354.739990234375
2019-04-18,360.3500061035156
2019-04-22,377.3399963378906
2019-04-23,381.8900146484375
2019-04-24,374.2300109863281
2019-04-25,368.3299865722656
2019-04-26,374.8500061035156
2019-04-29,371.8299865722656
2019-04-30,370.5400085449219
2019-05-01,378.80999755859375
2019-05-02,379.05999755859375
2019-05-03,385.0299987792969
2019-05-06,378.6700134277344
2019-05-07,370.4599914550781
2019-05-08,364.3699951171875
2019-05-09,362.75
2019-05-10,361.0400085449219
2019-05-13,345.260009765625
2019-05-14,345.6099853515625
2019-05-15,354.989990234375
2019-05-16,359.30999755859375
2019-05-17,354.45001220703125
2019-05-20,348.1099853515625
2019-05-21,354.2699890136719
2019-05-22,359.7300109863281
2019-05-23,352.2099914550781
2019-05-24,354.3900146484375
2019-05-28,355.05999755859375
2019-05-29,349.19000244140625
2019-05-30,351.8500061035156
2019-05-31,343.2799987792969
2019-06-03,336.6300048828125
2019-06-04,353.3999938964844
2019-06-05,355.7300109863281
2019-06-06,357.1300048828125
2019-06-07,360.8699951171875
2019-06-10,352.010009765625
2019-06-11,351.2699890136719
2019-06-12,345.55999755859375
2019-06-13,343.42999267578125
2019-06-14,339.7300109863281
2019-06-17,350.6199951171875
2019-06-18,357.1199951171875
2019-06-19,363.5199890136719
2019-06-20,365.2099914550781
2019-06-21,369.2099914550781
2019-06-24,371.0400085449219
2019-06-25,360.29998779296875
2019-06-26,362.20001220703125
2019-06-27,370.0199890136719
2019-06-28,367.32000732421875
2019-07-01,374.6000061035156
2019-07-02,375.42999267578125
2019-07-03,381.7200012207031
2019-07-05,380.54998779296875
2019-07-08,376.1600036621094
2019-07-09,379.92999267578125
2019-07-10,381.0
2019-07-11,379.5
2019-07-12,373.25
2019-07-15,366.6000061035156
2019-07-16,365.989990234375
2019-07-17,362.44000244140625
2019-07-18,325.2099914550781
2019-07-19,315.1000061035156
2019-07-22,310.6199951171875
2019-07-23,307.29998779296875
2019-07-24,317.94000244140625
2019-07-25,326.4599914550781
2019-07-26,335.7799987792969
2019-07-29,332.70001220703125
2019-07-30,325.92999267578125
2019-07-31,322.989990234375
2019-08-01,319.5
2019-08-02,318.8299865722656
2019-08-05,307.6300048828125
2019-08-06,310.1000061035156
2019-08-07,304.2900085449219
2019-08-08,315.8999938964844
2019-08-09,308.92999267578125
2019-08-12,310.8299865722656
2019-08-13,312.2799987792969
2019-08-14,299.1099853515625
2019-08-15,295.760009765625
2019-08-16,302.79998779296875
2019-08-19,309.3800048828125
2019-08-20,298.989990234375
2019-08-21,297.80999755859375
2019-08-22,296.92999267578125
2019-08-23,291.44000244140625
2019-08-26,294.9800109863281
2019-08-27,291.0299987792969
2019-08-28,291.7699890136719
2019-08-29,296.7799987792969
2019-08-30,293.75
2019-09-03,289.2900085449219
2019-09-04,291.5199890136719
2019-09-05,293.25
2019-09-06,290.1700134277344
2019-09-09,294.3399963378906
2019-09-10,287.989990234375
2019-09-11,288.2699890136719
2019-09-12,288.8599853515625
2019-09-13,294.1499938964844
2019-09-16,294.2900085449219
2019-09-17,298.6000061035156
2019-09-18,291.55999755859375
2019-09-19,286.6000061035156
2019-09-20,270.75
2019-09-23,265.9200134277344
2019-09-24,254.58999633789062
2019-09-25,264.75
2019-09-26,263.30999755859375
2019-09-27,263.0799865722656
2019-09-30,267.6199951171875
2019-10-01,269.5799865722656
2019-10-02,268.0299987792969
2019-10-03,268.1499938964844
2019-10-04,272.7900085449219
2019-10-07,274.4599914550781
2019-10-08,270.7200012207031
2019-10-09,267.5299987792969
2019-10-10,280.4800109863281
2019-10-11,282.92999267578125
2019-10-14,285.5299987792969
2019-10-15,284.25
2019-10-16,286.2799987792969
2019-10-17,293.3500061035156
2019-10-18,275.29998779296875
2019-10-21,278.04998779296875
2019-10-22,266.69000244140625
2019-10-23,271.2699890136719
2019-10-24,271.5
2019-10-25,276.82000732421875
2019-10-28,281.8599853515625
2019-10-29,281.2099914550781
2019-10-30,291.45001220703125
2019-10-31,287.4100036621094
2019-11-01,286.80999755859375
2019-11-04,292.8599853515625
2019-11-05,288.0299987792969
2019-11-06,288.5899963378906
2019-11-07,289.57000732421875
2019-11-08,291.57000732421875
2019-11-11,294.17999267578125
2019-11-12,292.010009765625
2019-11-13,283.1099853515625
2019-11-14,289.6199951171875
2019-11-15,295.0299987792969
2019-11-18,302.57000732421875
2019-11-19,302.6000061035156
2019-11-20,305.1600036621094
2019-11-21,311.69000244140625
2019-11-22,310.4800109863281
2019-11-25,315.54998779296875
2019-11-26,312.489990234375
2019-11-27,315.92999267578125
2019-11-29,314.6600036621094
2019-12-02,309.989990234375
2019-12-03,306.1600036621094
2019-12-04,304.32000732421875
2019-12-05,302.8599853515625
2019-12-06,307.3500061035156
2019-12-09,302.5
2019-12-10,293.1199951171875
2019-12-11,298.92999267578125
2019-12-12,298.44000244140625
2019-12-13,298.5
2019-12-16,304.2099914550781
2019-12-17,315.4800109863281
2019-12-18,320.79998779296875
2019-12-19,332.2200012207031
2019-12-20,336.8999938964844
2019-12-23,333.1000061035156
2019-12-24,333.20001220703125
2019-12-26,332.6300048828125
2019-12-27,329.0899963378906
2019-12-30,323.30999755859375
2019-12-31,323.57000732421875
