Date,NYCB
2007-12-31,7.681386470794678
2008-01-02,7.567780017852783
2008-01-03,7.3580474853515625
2008-01-04,7.200752258300781
2008-01-07,7.279398441314697
2008-01-08,7.087147235870361
2008-01-09,6.947326183319092
2008-01-10,7.034712314605713
2008-01-11,7.078407287597656
2008-01-14,6.912370681762695
2008-01-15,6.811877250671387
2008-01-16,6.846830368041992
2008-01-17,6.619623184204102
2008-01-18,6.580296039581299
2008-01-22,6.925480365753174
2008-01-23,7.4366984367370605
2008-01-24,7.589628219604492
2008-01-25,7.559040069580078
2008-01-28,7.768767833709717
2008-01-29,7.711971282958984
2008-01-30,7.85615873336792
2008-01-31,8.10521411895752
2008-02-01,8.109580993652344
2008-02-04,7.80397891998291
2008-02-05,7.73754358291626
2008-02-06,7.702111721038818
2008-02-07,7.808407783508301
2008-02-08,7.666677951812744
2008-02-11,7.719826698303223
2008-02-12,7.821695327758789
2008-02-13,7.80397891998291
2008-02-14,7.715396404266357
2008-02-15,7.72868537902832
2008-02-19,7.644531726837158
2008-02-20,7.781833648681641
2008-02-21,7.648962020874023
2008-02-22,7.613528728485107
2008-02-25,7.609102249145508
2008-02-26,7.595812797546387
2008-02-27,7.6312456130981445
2008-02-28,7.423079490661621
2008-02-29,7.232632637023926
2008-03-03,7.188340663909912
2008-03-04,7.144050121307373
2008-03-05,7.0864715576171875
2008-03-06,6.966887950897217
2008-03-07,7.055468559265137
2008-03-10,7.05103874206543
2008-03-11,7.42750883102417
2008-03-12,7.19277286529541
2008-03-13,7.476227760314941
2008-03-14,7.520519733428955
2008-03-17,7.569238662719727
2008-03-18,8.083006858825684
2008-03-19,7.9368510246276855
2008-03-20,8.406326293945312
2008-03-24,8.171588897705078
2008-03-25,8.28231430053711
2008-03-26,8.074151039123535
2008-03-27,8.100724220275879
2008-03-28,7.9988555908203125
2008-03-31,8.069721221923828
2008-04-01,8.269026756286621
2008-04-02,8.317748069763184
2008-04-03,8.291172981262207
2008-04-04,8.167160987854004
2008-04-07,8.317748069763184
2008-04-08,8.322176933288574
2008-04-09,8.078575134277344
2008-04-10,8.012145042419434
2008-04-11,7.914705276489258
2008-04-14,7.644531726837158
2008-04-15,7.865985870361328
2008-04-16,8.11844253540039
2008-04-17,8.215880393981934
2008-04-18,8.153871536254883
2008-04-21,8.052002906799316
2008-04-22,8.344320297241211
2008-04-23,8.078575134277344
2008-04-24,8.508195877075195
2008-04-25,8.499340057373047
2008-04-28,8.31332015991211
2008-04-29,8.331035614013672
2008-04-30,8.269026756286621
2008-05-01,8.54362678527832
2008-05-02,8.388614654541016
2008-05-05,8.366170883178711
2008-05-06,8.442472457885742
2008-05-07,8.28089427947998
2008-05-08,8.384124755859375
2008-05-09,8.46042537689209
2008-05-12,8.527750015258789
2008-05-13,8.541213989257812
2008-05-14,8.577117919921875
2008-05-15,8.720745086669922
2008-05-16,8.837441444396973
2008-05-19,8.837441444396973
2008-05-20,8.779091835021973
2008-05-21,8.864371299743652
2008-05-22,9.06185531616211
2008-05-23,9.093274116516113
2008-05-27,9.241389274597168
2008-05-28,9.003507614135742
2008-05-29,9.174063682556152
2008-05-30,9.209968566894531
2008-06-02,9.196505546569824
2008-06-03,8.967599868774414
2008-06-04,9.133670806884766
2008-06-05,9.2009916305542
2008-06-06,8.945158004760742
2008-06-09,8.859883308410645
2008-06-10,8.864371299743652
2008-06-11,8.707281112670898
2008-06-12,8.761141777038574
2008-06-13,8.985559463500977
2008-06-16,8.99453067779541
2008-06-17,8.981066703796387
2008-06-18,9.021462440490723
2008-06-19,8.806024551391602
2008-06-20,8.904767036437988
2008-06-23,8.770119667053223
2008-06-24,8.770119667053223
2008-06-25,8.648933410644531
2008-06-26,8.514283180236816
2008-06-27,8.303335189819336
2008-06-30,8.00710678100586
2008-07-01,7.962226867675781
2008-07-02,8.025057792663574
2008-07-03,7.7782063484191895
2008-07-07,7.490955352783203
2008-07-08,8.0205717086792
2008-07-09,7.921831130981445
2008-07-10,7.85899543762207
2008-07-11,7.692928791046143
2008-07-14,7.25307559967041
2008-07-15,7.095984935760498
2008-07-16,7.719857215881348
2008-07-17,8.069945335388184
2008-07-18,8.26294231414795
2008-07-21,8.249476432800293
2008-07-22,8.550189018249512
2008-07-23,7.899386405944824
2008-07-24,7.176775932312012
2008-07-25,7.275516033172607
2008-07-28,7.100474834442139
2008-07-29,7.437096118927002
2008-07-30,7.504419326782227
2008-07-31,7.459536552429199
2008-08-01,7.562767505645752
2008-08-04,7.339529037475586
2008-08-05,7.5035400390625
2008-08-06,7.4944305419921875
2008-08-07,7.234745979309082
2008-08-08,7.3805317878723145
2008-08-11,7.644772529602051
2008-08-12,7.280301570892334
2008-08-13,7.098066329956055
2008-08-14,7.271191120147705
2008-08-15,7.362305164337158
2008-08-18,7.2119646072387695
2008-08-19,7.061620235443115
2008-08-20,7.011504650115967
2008-08-21,6.934053897857666
2008-08-22,7.175516605377197
2008-08-25,6.979612827301025
2008-08-26,7.052509784698486
2008-08-27,7.139072418212891
2008-08-28,7.421534061431885
2008-08-29,7.51265287399292
2008-09-02,7.439760684967041
2008-09-03,7.448870658874512
2008-09-04,7.303081512451172
2008-09-05,7.603771209716797
2008-09-08,7.9409050941467285
2008-09-09,7.51265287399292
2008-09-10,7.375974655151367
2008-09-11,7.39875602722168
2008-09-12,7.87712287902832
2008-09-15,7.667552947998047
2008-09-16,8.127695083618164
2008-09-17,7.731334209442139
2008-09-18,8.710851669311523
2008-09-19,9.339560508728027
2008-09-22,8.050246238708496
2008-09-23,7.685776233673096
2008-09-24,7.822452068328857
2008-09-25,7.667552947998047
2008-09-26,7.7176690101623535
2008-09-29,6.9431633949279785
2008-09-30,7.649327754974365
2008-10-01,7.626552581787109
2008-10-02,7.690330982208252
2008-10-03,7.129960060119629
2008-10-06,7.234745979309082
2008-10-07,6.838381290435791
2008-10-08,6.75637674331665
2008-10-09,6.045658111572266
2008-10-10,6.75637674331665
2008-10-13,7.3349738121032715
2008-10-14,7.166407108306885
2008-10-15,6.6197004318237305
2008-10-16,6.706262588500977
2008-10-17,6.355457782745361
2008-10-20,6.309899806976318
2008-10-21,6.319011211395264
2008-10-22,6.113995552062988
2008-10-23,6.095773696899414
2008-10-24,6.214226245880127
2008-10-27,5.931760787963867
2008-10-28,6.6880364418029785
2008-10-29,6.428351879119873
2008-10-30,6.719929218292236
2008-10-31,7.134515285491943
2008-11-03,6.678925037384033
2008-11-04,7.016059398651123
2008-11-05,6.488120079040527
2008-11-06,6.4140238761901855
2008-11-07,6.293615818023682
2008-11-10,6.177838325500488
2008-11-11,6.446442604064941
2008-11-12,6.168575763702393
2008-11-13,6.96975040435791
2008-11-14,6.488120079040527
2008-11-17,6.432546138763428
2008-11-18,6.367712020874023
2008-11-19,5.835140705108643
2008-11-20,5.362771034240723
2008-11-21,5.177530765533447
2008-11-24,5.487809658050537
2008-11-25,5.779566764831543
2008-11-26,5.964810371398926
2008-11-28,6.0435380935668945
2008-12-01,5.209946632385254
2008-12-02,5.645266056060791
2008-12-03,5.960178852081299
2008-12-04,5.84440279006958
2008-12-05,6.038905620574951
2008-12-08,5.737887859344482
2008-12-09,5.51559591293335
2008-12-10,5.37203311920166
2008-12-11,5.103433132171631
2008-12-12,5.409083366394043
2008-12-15,5.432236671447754
2008-12-16,5.798092842102051
2008-12-17,5.723991870880127
2008-12-18,5.77030611038208
2008-12-19,5.617480278015137
2008-12-22,5.6360063552856445
2008-12-23,5.561907768249512
2008-12-24,5.561907768249512
2008-12-26,5.659158229827881
2008-12-29,5.497071266174316
2008-12-30,5.5063347816467285
2008-12-31,5.538752555847168
2009-01-02,5.622110366821289
2009-01-05,5.552645206451416
2009-01-06,5.663790702819824
2009-01-07,5.455391883850098
2009-01-08,5.612850666046143
2009-01-09,5.631372451782227
2009-01-12,5.571168899536133
2009-01-13,5.557276248931885
2009-01-14,5.3581414222717285
2009-01-15,5.654528617858887
2009-01-16,5.774934768676758
2009-01-20,5.719362258911133
2009-01-21,5.686946392059326
2009-01-22,5.626741886138916
2009-01-23,5.733257293701172
2009-01-26,5.798092842102051
2009-01-27,5.543382167816162
2009-01-28,6.1222662925720215
2009-01-29,6.071321964263916
2009-01-30,6.136158466339111
2009-02-02,6.3399248123168945
2009-02-03,6.071321964263916
2009-02-04,5.674754619598389
2009-02-05,5.934412479400635
2009-02-06,6.033555030822754
2009-02-09,5.986343860626221
2009-02-10,5.6228203773498535
2009-02-11,5.769175052642822
2009-02-12,5.5944929122924805
2009-02-13,5.348997116088867
2009-02-17,5.188478946685791
2009-02-18,5.1035003662109375
2009-02-19,4.886329650878906
2009-02-20,4.78246545791626
2009-02-23,4.565296649932861
2009-02-24,4.881607532501221
2009-02-25,4.886329650878906
2009-02-26,4.938262462615967
2009-02-27,4.650275230407715
2009-03-02,4.348125457763672
2009-03-03,4.371732234954834
2009-03-04,4.173446178436279
2009-03-05,3.729663133621216
2009-03-06,3.7721519470214844
2009-03-09,3.876016616821289
2009-03-10,4.253704071044922
2009-03-11,4.031813144683838
2009-03-12,4.461431980133057
2009-03-13,4.470875263214111
2009-03-16,4.570018291473389
2009-03-17,4.673880577087402
2009-03-18,5.089336395263672
2009-03-19,5.056291103363037
2009-03-20,4.796628475189209
2009-03-23,5.400928497314453
2009-03-24,5.226248264312744
2009-03-25,5.348997116088867
2009-03-26,5.509512901306152
2009-03-27,5.382044315338135
2009-03-30,5.0232415199279785
2009-03-31,5.2734599113464355
2009-04-01,5.230970859527588
2009-04-02,5.344275951385498
2009-04-03,5.358438968658447
2009-04-06,5.037403106689453
2009-04-07,4.985470771789551
2009-04-08,4.8391194343566895
2009-04-09,5.5142364501953125
2009-04-13,5.797500133514404
2009-04-14,5.391488075256348
2009-04-15,5.570889472961426
2009-04-16,5.561446666717529
2009-04-17,5.80222225189209
2009-04-20,5.15543270111084
2009-04-21,5.495351314544678
2009-04-22,5.495351314544678
2009-04-23,5.264016628265381
2009-04-24,5.410370826721191
2009-04-27,5.358438968658447
2009-04-28,5.537840366363525
2009-04-29,5.618098735809326
2009-04-30,5.339555263519287
2009-05-01,5.160153388977051
2009-05-04,5.641704082489014
2009-05-05,5.358438968658447
2009-05-06,5.4984354972839355
2009-05-07,5.324646949768066
2009-05-08,5.406713485717773
2009-05-11,5.459815502166748
2009-05-12,5.382575511932373
2009-05-13,5.247406959533691
2009-05-14,5.3343024253845215
2009-05-15,5.054311275482178
2009-05-18,5.426021099090576
2009-05-19,5.112242221832275
2009-05-20,4.986727237701416
2009-05-21,4.856388092041016
2009-05-22,4.837077617645264
2009-05-26,5.063966274261475
2009-05-27,4.899835109710693
2009-05-28,5.150859355926514
2009-05-29,5.3391289710998535
2009-06-01,5.343955993652344
2009-06-02,5.397059917449951
2009-06-03,5.2280988693237305
2009-06-04,5.179824352264404
2009-06-05,4.977073669433594
2009-06-08,5.073622703552246
2009-06-09,5.126720428466797
2009-06-10,5.184650421142578
2009-06-11,5.281201362609863
2009-06-12,5.281201362609863
2009-06-15,5.218443870544434
2009-06-16,5.218443870544434
2009-06-17,5.141205310821533
2009-06-18,5.194307327270508
2009-06-19,5.1556878089904785
2009-06-22,5.006037712097168
2009-06-23,4.972246170043945
2009-06-24,5.035003185272217
2009-06-25,5.203963756561279
2009-06-26,5.1556878089904785
2009-06-29,5.170169353485107
2009-06-30,5.160515785217285
2009-07-01,5.2280988693237305
2009-07-02,5.126720428466797
2009-07-06,5.054311275482178
2009-07-07,5.044656753540039
2009-07-08,4.996382236480713
2009-07-09,4.981901168823242
2009-07-10,4.8708696365356445
2009-07-13,5.073622703552246
2009-07-14,5.179824352264404
2009-07-15,5.358436584472656
2009-07-16,5.314993381500244
2009-07-17,5.295682907104492
2009-07-20,5.3343024253845215
2009-07-21,5.237752437591553
2009-07-22,5.179824352264404
2009-07-23,5.319820404052734
2009-07-24,5.440505504608154
2009-07-27,5.638430118560791
2009-07-28,5.710842132568359
2009-07-29,4.991554260253906
2009-07-30,5.213615894317627
2009-07-31,5.281201362609863
2009-08-03,5.314993381500244
2009-08-04,5.440505504608154
2009-08-05,5.494811534881592
2009-08-06,5.47999906539917
2009-08-07,5.786089897155762
2009-08-10,5.558990955352783
2009-08-11,5.46025276184082
2009-08-12,5.529369831085205
2009-08-13,5.573802947998047
2009-08-14,5.514559745788574
2009-08-17,5.361515998840332
2009-08-18,5.302270412445068
2009-08-19,5.331892967224121
2009-08-20,5.3516411781311035
2009-08-21,5.504684925079346
2009-08-24,5.405947208404541
2009-08-25,5.3960723876953125
2009-08-26,5.3516411781311035
2009-08-27,5.36644983291626
2009-08-28,5.326957702636719
2009-08-31,5.252902507781982
2009-09-01,5.119603633880615
2009-09-02,5.070235252380371
2009-09-03,5.164036273956299
2009-09-04,5.154162883758545
2009-09-08,5.193658828735352
2009-09-09,5.307207107543945
2009-09-10,5.287459850311279
2009-09-11,5.31708288192749
2009-09-14,5.36644983291626
2009-09-15,5.42075777053833
2009-09-16,5.776215553283691
2009-09-17,5.6182355880737305
2009-09-18,5.583676338195801
2009-09-21,5.588613986968994
2009-09-22,5.642920970916748
2009-09-23,5.499749660491943
2009-09-24,5.3960723876953125
2009-09-25,5.42075777053833
2009-09-28,5.484938144683838
2009-09-29,5.608362197875977
2009-09-30,5.6379828453063965
2009-10-01,5.6379828453063965
2009-10-02,5.494811534881592
2009-10-05,5.593550682067871
2009-10-06,5.529369831085205
2009-10-07,5.514559745788574
2009-10-08,5.62317419052124
2009-10-09,5.776215553283691
2009-10-12,5.603424072265625
2009-10-13,5.5441813468933105
2009-10-14,5.554055690765381
2009-10-15,5.558990955352783
2009-10-16,5.563929080963135
2009-10-19,5.53924560546875
2009-10-20,5.455316066741943
2009-10-21,5.425693988800049
2009-10-22,5.42075777053833
2009-10-23,5.410884380340576
2009-10-26,5.361515998840332
2009-10-27,5.430634021759033
2009-10-28,5.425693988800049
2009-10-29,5.489874839782715
2009-10-30,5.326957702636719
2009-11-02,5.312146186828613
2009-11-03,5.223280906677246
2009-11-04,5.253620147705078
2009-11-05,5.364859580993652
2009-11-06,5.349691867828369
2009-11-09,5.5671162605285645
2009-11-10,5.632850170135498
2009-11-11,5.774429798126221
2009-11-12,5.789597511291504
2009-11-13,5.824994087219238
2009-11-16,5.8098249435424805
2009-11-17,5.890727519989014
2009-11-18,5.921065807342529
2009-11-19,5.80476713180542
2009-11-20,5.698582649230957
2009-11-23,5.749147891998291
2009-11-24,5.835108280181885
2009-11-25,5.83004903793335
2009-11-27,5.784543037414551
2009-11-30,5.910951614379883
2009-12-01,5.865445613861084
2009-12-02,5.956460475921631
2009-12-03,5.921065807342529
2009-12-04,6.234564304351807
2009-12-07,6.775598526000977
2009-12-08,6.396372318267822
2009-12-09,6.5682878494262695
2009-12-10,6.563230991363525
2009-12-11,6.623908996582031
2009-12-14,6.816052436828613
2009-12-15,6.831222057342529
2009-12-16,7.033481121063232
2009-12-17,7.038534164428711
2009-12-18,7.26101541519165
2009-12-21,7.170001983642578
2009-12-22,7.26101541519165
2009-12-23,7.36720085144043
2009-12-24,7.407651424407959
2009-12-28,7.276185512542725
2009-12-29,7.321695804595947
2009-12-30,7.3368635177612305
2009-12-31,7.3368635177612305
2010-01-04,7.291355609893799
2010-01-05,7.311580657958984
2010-01-06,7.316636562347412
2010-01-07,7.51383638381958
2010-01-08,7.539119243621826
2010-01-11,7.508782386779785
2010-01-12,7.3419189453125
2010-01-13,7.432934761047363
2010-01-14,7.50372314453125
2010-01-15,7.372254848480225
2010-01-19,7.4177656173706055
2010-01-20,7.42788028717041
2010-01-21,7.609908580780029
2010-01-22,7.5290045738220215
2010-01-25,7.422821521759033
2010-01-26,7.579570770263672
2010-01-27,7.549232482910156
2010-01-28,7.534060478210449
2010-01-29,7.599794387817383
2010-02-01,7.650362014770508
2010-02-02,7.761602401733398
2010-02-03,7.622819423675537
2010-02-04,7.468613147735596
2010-02-05,7.725619792938232
2010-02-08,7.720482349395752
2010-02-09,7.756463527679443
2010-02-10,7.720482349395752
2010-02-11,7.920948028564453
2010-02-12,8.018608093261719
2010-02-16,8.162531852722168
2010-02-17,8.054591178894043
2010-02-18,8.070008277893066
2010-02-19,8.028889656066895
2010-02-22,8.12654972076416
2010-02-23,7.987766265869141
2010-02-24,8.003189086914062
2010-02-25,7.982626438140869
2010-02-26,7.962063789367676
2010-03-01,8.03403091430664
2010-03-02,8.085429191589355
2010-03-03,7.941506862640381
2010-03-04,7.931227684020996
2010-03-05,8.018608093261719
2010-03-08,8.121411323547363
2010-03-09,8.219074249267578
2010-03-10,8.39897632598877
2010-03-11,8.548043251037598
2010-03-12,8.393839836120605
2010-03-15,8.573744773864746
2010-03-16,8.655984878540039
2010-03-17,8.779349327087402
2010-03-18,8.620003700256348
2010-03-19,8.414398193359375
2010-03-22,8.481219291687012
2010-03-23,8.532623291015625
2010-03-24,8.42467975616455
2010-03-25,8.337297439575195
2010-03-26,8.404121398925781
2010-03-29,8.568604469299316
2010-03-30,8.553181648254395
2010-03-31,8.50178337097168
2010-04-01,8.553181648254395
2010-04-05,8.671405792236328
2010-04-06,8.712531089782715
2010-04-07,8.70738697052002
2010-04-08,8.912992477416992
2010-04-09,8.959254264831543
2010-04-12,9.077478408813477
2010-04-13,9.020933151245117
2010-04-14,9.252243041992188
2010-04-15,9.252243041992188
2010-04-16,9.026076316833496
2010-04-19,9.03121566772461
2010-04-20,9.216257095336914
2010-04-21,8.902711868286133
2010-04-22,8.805047988891602
2010-04-23,8.50178337097168
2010-04-26,8.373279571533203
2010-04-27,8.409258842468262
2010-04-28,8.48636245727539
2010-04-29,8.49664306640625
2010-04-30,8.465799331665039
2010-05-03,8.669355392456055
2010-05-04,8.335315704345703
2010-05-05,8.324878692626953
2010-05-06,7.938642978668213
2010-05-07,7.990838527679443
2010-05-10,8.41882610321045
2010-05-11,8.3666353225708
2010-05-12,8.491898536682129
2010-05-13,8.507555961608887
2010-05-14,8.345755577087402
2010-05-17,8.392730712890625
2010-05-18,8.340537071228027
2010-05-19,8.460579872131348
2010-05-20,7.990838527679443
2010-05-21,8.032593727111816
2010-05-24,8.090005874633789
2010-05-25,8.058691024780273
2010-05-26,8.163077354431152
2010-05-27,8.43448257446289
2010-05-28,8.37707233428955
2010-06-01,8.168298721313477
2010-06-02,8.47102165222168
2010-06-03,8.309218406677246
2010-06-04,8.11610221862793
2010-06-07,8.131758689880371
2010-06-08,8.215270042419434
2010-06-09,8.147419929504395
2010-06-10,8.37707233428955
2010-06-11,8.37185287475586
2010-06-14,8.257024765014648
2010-06-15,8.403167724609375
2010-06-16,8.387511253356934
2010-06-17,8.455362319946289
2010-06-18,8.42404556274414
2010-06-21,8.392730712890625
2010-06-22,8.309218406677246
2010-06-23,8.251808166503906
2010-06-24,8.163077354431152
2010-06-25,8.136981964111328
2010-06-28,8.17873764038086
2010-06-29,7.985621452331543
2010-06-30,7.969961643218994
2010-07-01,8.110882759094238
2010-07-02,7.949084281921387
2010-07-06,7.996058940887451
2010-07-07,8.251808166503906
2010-07-08,8.298781394958496
2010-07-09,8.439704895019531
2010-07-12,8.455362319946289
2010-07-13,8.810276985168457
2010-07-14,8.872909545898438
2010-07-15,8.935541152954102
2010-07-16,8.669355392456055
2010-07-19,8.705891609191895
2010-07-20,8.695452690124512
2010-07-21,8.502336502075195
2010-07-22,8.679794311523438
2010-07-23,8.778961181640625
2010-07-26,9.029489517211914
2010-07-27,9.081687927246094
2010-07-28,8.914664268493652
2010-07-29,9.013833045959473
2010-07-30,9.008614540100098
2010-08-02,9.16519832611084
2010-08-03,9.233048439025879
2010-08-04,9.243636131286621
2010-08-05,9.195987701416016
2010-08-06,9.116575241088867
2010-08-09,9.143044471740723
2010-08-10,9.095398902893066
2010-08-11,8.730096817016602
2010-08-12,8.618922233581543
2010-08-13,8.571273803710938
2010-08-16,8.518335342407227
2010-08-17,8.682451248168945
2010-08-18,8.67186164855957
2010-08-19,8.539507865905762
2010-08-20,8.497154235839844
2010-08-23,8.433625221252441
2010-08-24,8.43891716003418
2010-08-25,8.32244873046875
2010-08-26,8.258915901184082
2010-08-27,8.412446975708008
2010-08-30,8.258915901184082
2010-08-31,8.412446975708008
2010-09-01,8.518335342407227
2010-09-02,8.491862297058105
2010-09-03,8.708922386169434
2010-09-07,8.677157402038574
2010-09-08,8.724806785583496
2010-09-09,8.79362964630127
2010-09-10,8.783041954040527
2010-09-13,8.989513397216797
2010-09-14,8.878334045410156
2010-09-15,8.857157707214355
2010-09-16,8.751276016235352
2010-09-17,8.640098571777344
2010-09-20,8.74068832397461
2010-09-21,8.650684356689453
2010-09-22,8.513036727905273
2010-09-23,8.47597885131836
2010-09-24,8.655982971191406
2010-09-27,8.513036727905273
2010-09-28,8.544801712036133
2010-09-29,8.470685005187988
2010-09-30,8.603039741516113
2010-10-01,8.650684356689453
2010-10-04,8.613625526428223
2010-10-05,8.719511032104492
2010-10-06,8.730096817016602
2010-10-07,8.687744140625
2010-10-08,8.67186164855957
2010-10-11,8.682451248168945
2010-10-12,8.772452354431152
2010-10-13,8.777746200561523
2010-10-14,8.814805030822754
2010-10-15,8.745983123779297
2010-10-18,8.798924446105957
2010-10-19,8.80950927734375
2010-10-20,8.899513244628906
2010-10-21,8.873039245605469
2010-10-22,8.920689582824707
2010-10-25,8.883630752563477
2010-10-26,8.888921737670898
2010-10-27,8.883630752563477
2010-10-28,8.931279182434082
2010-10-29,8.963046073913574
2010-11-01,9.053043365478516
2010-11-02,9.100692749023438
2010-11-03,9.127161979675293
2010-11-04,9.309812545776367
2010-11-05,9.218487739562988
2010-11-08,9.175512313842773
2010-11-09,9.094930648803711
2010-11-10,9.250722885131836
2010-11-11,9.137907028198242
2010-11-12,8.998233795166016
2010-11-15,9.051953315734863
2010-11-16,8.982115745544434
2010-11-17,8.966002464294434
2010-11-18,9.111045837402344
2010-11-19,9.094930648803711
2010-11-22,9.132534980773926
2010-11-23,9.089555740356445
2010-11-24,9.132534980773926
2010-11-26,9.078810691833496
2010-11-29,9.14865493774414
2010-11-30,9.025094032287598
2010-12-01,9.062695503234863
2010-12-02,9.207744598388672
2010-12-03,9.293696403503418
2010-12-06,9.401137351989746
2010-12-07,9.304441452026367
2010-12-08,9.37427806854248
2010-12-09,9.476349830627441
2010-12-10,9.546184539794922
2010-12-13,9.492462158203125
2010-12-14,9.492462158203125
2010-12-15,9.57841682434082
2010-12-16,9.836278915405273
2010-12-17,9.723464965820312
2010-12-20,9.6589994430542
2010-12-21,9.857767105102539
2010-12-22,10.126368522644043
2010-12-23,10.368112564086914
2010-12-27,10.276787757873535
2010-12-28,10.169343948364258
2010-12-29,10.190832138061523
2010-12-30,10.223066329956055
2010-12-31,10.126368522644043
2011-01-03,10.190832138061523
2011-01-04,10.099509239196777
2011-01-05,10.190832138061523
2011-01-06,10.088764190673828
2011-01-07,10.008184432983398
2011-01-10,9.873881340026855
2011-01-11,9.916858673095703
2011-01-12,9.927602767944336
2011-01-13,9.863139152526855
2011-01-14,10.040416717529297
2011-01-18,10.083394050598145
2011-01-19,9.80941390991211
2011-01-20,9.820158004760742
2011-01-21,9.836278915405273
2011-01-24,9.84701919555664
2011-01-25,10.035046577453613
2011-01-26,9.750321388244629
2011-01-27,9.943718910217285
2011-01-28,9.814785957336426
2011-01-31,9.841647148132324
2011-02-01,10.002811431884766
2011-02-02,10.11025619506836
2011-02-03,9.979585647583008
2011-02-04,10.01225471496582
2011-02-07,10.15925407409668
2011-02-08,10.240915298461914
2011-02-09,10.088476181030273
2011-02-10,10.099363327026367
2011-02-11,10.273585319519043
2011-02-14,10.186474800109863
2011-02-15,10.21369457244873
2011-02-16,10.289915084838867
2011-02-17,10.24636459350586
2011-02-18,10.262697219848633
2011-02-22,10.132030487060547
2011-02-23,10.11569881439209
2011-02-24,9.957808494567871
2011-02-25,10.142919540405273
2011-02-28,10.15925407409668
2011-03-01,9.930586814880371
2011-03-02,9.832590103149414
2011-03-03,9.903366088867188
2011-03-04,9.663811683654785
2011-03-07,9.565814018249512
2011-03-08,9.636589050292969
2011-03-09,9.756365776062012
2011-03-10,9.5875883102417
2011-03-11,9.620255470275879
2011-03-14,9.603922843933105
2011-03-15,9.614810943603516
2011-03-16,9.516810417175293
2011-03-17,9.582145690917969
2011-03-18,9.576703071594238
2011-03-21,9.598478317260742
2011-03-22,9.549481391906738
2011-03-23,9.473257064819336
2011-03-24,9.418811798095703
2011-03-25,9.39159107208252
2011-03-28,9.489590644836426
2011-03-29,9.456925392150879
2011-03-30,9.342592239379883
2011-03-31,9.397035598754883
2011-04-01,9.456925392150879
2011-04-04,9.413370132446289
2011-04-05,9.489590644836426
2011-04-06,9.500482559204102
2011-04-07,9.462368965148926
2011-04-08,9.397035598754883
2011-04-11,9.418811798095703
2011-04-12,9.331704139709473
2011-04-13,9.3153715133667
2011-04-14,9.233702659606934
2011-04-15,9.266368865966797
2011-04-18,9.29903793334961
2011-04-19,8.863486289978027
2011-04-20,8.798151969909668
2011-04-21,8.814488410949707
2011-04-25,8.84170913696289
2011-04-26,8.901596069335938
2011-04-27,9.015928268432617
2011-04-28,9.075817108154297
2011-04-29,9.037708282470703
2011-05-02,9.026815414428711
2011-05-03,9.11937141418457
2011-05-04,9.119372367858887
2011-05-05,8.986725807189941
2011-05-06,8.948038101196289
2011-05-09,8.931459426879883
2011-05-10,8.964619636535645
2011-05-11,9.080682754516602
2011-05-12,9.097262382507324
2011-05-13,8.986725807189941
2011-05-16,8.981196403503418
2011-05-17,9.064102172851562
2011-05-18,9.041996002197266
2011-05-19,9.102791786193848
2011-05-20,9.003307342529297
2011-05-23,9.003307342529297
2011-05-24,8.964619636535645
2011-05-25,8.881714820861816
2011-05-26,8.81539249420166
2011-05-27,8.925929069519043
2011-05-31,8.953566551208496
2011-06-01,8.754594802856445
2011-06-02,8.732488632202148
2011-06-03,8.699328422546387
2011-06-06,8.660639762878418
2011-06-07,8.655109405517578
2011-06-08,8.572208404541016
2011-06-09,8.561159133911133
2011-06-10,8.561159133911133
2011-06-13,8.616424560546875
2011-06-14,8.649585723876953
2011-06-15,8.544575691223145
2011-06-16,8.721436500549316
2011-06-17,8.787757873535156
2011-06-20,8.749072074890137
2011-06-21,8.677221298217773
2011-06-22,8.53904914855957
2011-06-23,8.340079307556152
2011-06-24,8.257179260253906
2011-06-27,8.22954273223877
2011-06-28,8.152165412902832
2011-06-29,8.323498725891113
2011-06-30,8.284810066223145
2011-07-01,8.594318389892578
2011-07-05,8.456141471862793
2011-07-06,8.550103187561035
2011-07-07,8.644060134887695
2011-07-08,8.505887985229492
2011-07-11,8.400875091552734
2011-07-12,8.384295463562012
2011-07-13,8.445090293884277
2011-07-14,8.334556579589844
2011-07-15,8.345605850219727
2011-07-18,8.196380615234375
2011-07-19,8.262706756591797
2011-07-20,8.334556579589844
2011-07-21,8.290337562561035
2011-07-22,7.975306510925293
2011-07-25,7.870293140411377
2011-07-26,7.787389755249023
2011-07-27,7.605003356933594
2011-07-28,7.505519866943359
2011-07-29,7.4778852462768555
2011-08-01,7.511046886444092
2011-08-02,7.433670520782471
2011-08-03,7.25346040725708
2011-08-04,7.152091979980469
2011-08-05,7.118300914764404
2011-08-08,6.4650397300720215
2011-08-09,7.000039100646973
2011-08-10,6.673408031463623
2011-08-11,7.208406448364258
2011-08-12,6.983144283294678
2011-08-15,7.343564510345459
2011-08-16,7.321038722991943
2011-08-17,7.298514366149902
2011-08-18,6.898670673370361
2011-08-19,6.757882595062256
2011-08-22,6.752250671386719
2011-08-23,6.870514869689941
2011-08-24,7.033828258514404
2011-08-25,6.8874077796936035
2011-08-26,7.039461135864258
2011-08-29,7.321038722991943
2011-08-30,7.259090900421143
2011-08-31,7.214039325714111
2011-09-01,7.033828258514404
2011-09-02,6.797302722930908
2011-09-06,6.746618747711182
2011-09-07,6.921196460723877
2011-09-08,6.73535680770874
2011-09-09,6.690301418304443
2011-09-12,7.011300086975098
2011-09-13,7.000039100646973
2011-09-14,7.281617641448975
2011-09-15,7.321038722991943
2011-09-16,7.259090900421143
2011-09-19,7.168984889984131
2011-09-20,7.101408004760742
2011-09-21,6.684669494628906
2011-09-22,6.50446081161499
2011-09-23,6.8029327392578125
2011-09-26,6.949354648590088
2011-09-27,6.938091278076172
2011-09-28,6.650880813598633
2011-09-29,6.954986572265625
2011-09-30,6.701566696166992
2011-10-03,6.419987678527832
2011-10-04,6.701566696166992
2011-10-05,6.853616714477539
2011-10-06,7.061985969543457
2011-10-07,6.791670322418213
2011-10-10,7.05635404586792
2011-10-11,7.016935348510742
2011-10-12,7.230933666229248
2011-10-13,7.152091979980469
2011-10-14,7.157722473144531
2011-10-17,6.926828384399414
2011-10-18,7.247827053070068
2011-10-19,6.84798526763916
2011-10-20,6.864880084991455
2011-10-21,6.98877477645874
2011-10-24,7.118300914764404
2011-10-25,7.107039451599121
2011-10-26,7.247827053070068
2011-10-27,7.59698486328125
2011-10-28,7.59698486328125
2011-10-31,7.4956159591674805
2011-11-01,7.123934745788574
2011-11-02,7.3097758293151855
2011-11-03,7.390164852142334
2011-11-04,7.246612071990967
2011-11-07,7.355713844299316
2011-11-08,7.476297855377197
2011-11-09,7.011183261871338
2011-11-10,6.999698162078857
2011-11-11,7.022665977478027
2011-11-14,6.884854316711426
2011-11-15,6.959502220153809
2011-11-16,6.856144428253174
2011-11-17,6.838918209075928
2011-11-18,6.850403785705566
2011-11-21,6.712589740753174
2011-11-22,6.643684387207031
2011-11-23,6.500131607055664
2011-11-25,6.534581661224365
2011-11-28,6.649426460266113
2011-11-29,6.614974498748779
2011-11-30,6.9135637283325195
2011-12-01,6.792980670928955
2011-12-02,6.838918209075928
2011-12-05,6.810207843780518
2011-12-06,6.833175182342529
2011-12-07,6.775755405426025
2011-12-08,6.683879852294922
2011-12-09,6.90782356262207
2011-12-12,6.890598773956299
2011-12-13,6.8618855476379395
2011-12-14,6.804462909698486
2011-12-15,6.890598773956299
2011-12-16,6.873370170593262
2011-12-19,6.747041702270508
2011-12-20,6.902080535888672
2011-12-21,6.959502220153809
2011-12-22,7.07434606552124
2011-12-23,7.120283603668213
2011-12-27,7.103055953979492
2011-12-28,6.976729393005371
2011-12-29,7.103055953979492
2011-12-30,7.103055953979492
2012-01-03,7.235126972198486
2012-01-04,7.367194652557373
2012-01-05,7.436101913452148
2012-01-06,7.476297855377197
2012-01-09,7.585400581359863
2012-01-10,7.5911407470703125
2012-01-11,7.596883296966553
2012-01-12,7.6543049812316895
2012-01-13,7.648562908172607
2012-01-17,7.527976989746094
2012-01-18,7.55668830871582
2012-01-19,7.470555782318115
2012-01-20,7.539461612701416
2012-01-23,7.487780570983887
2012-01-24,7.5164947509765625
2012-01-25,7.390164852142334
2012-01-26,7.3040337562561035
2012-01-27,7.29254674911499
2012-01-30,7.349970817565918
2012-01-31,7.286804676055908
2012-02-01,7.361453533172607
2012-02-02,7.447587966918945
2012-02-03,7.430020332336426
2012-02-06,7.307067394256592
2012-02-07,7.342196464538574
2012-02-08,7.400748252868652
2012-02-09,7.389037609100342
2012-02-10,7.307067394256592
2012-02-13,7.3187785148620605
2012-02-14,7.213386058807373
2012-02-15,7.342196464538574
2012-02-16,7.500283241271973
2012-02-17,7.582252025604248
2012-02-21,7.558831214904785
2012-02-22,7.447587966918945
2012-02-23,7.494427680969238
2012-02-24,7.5412678718566895
2012-02-27,7.629090785980225
2012-02-28,7.6642231941223145
2012-02-29,7.617382526397705
2012-03-01,7.646660327911377
2012-03-02,7.629090785980225
2012-03-05,7.634947299957275
2012-03-06,7.529556751251221
2012-03-07,7.605672836303711
2012-03-08,7.529556751251221
2012-03-09,7.605672836303711
2012-03-12,7.623237609863281
2012-03-13,7.763759136199951
2012-03-14,7.6934967041015625
2012-03-15,7.933554649353027
2012-03-16,8.144333839416504
2012-03-19,8.097491264343262
2012-03-20,8.068220138549805
2012-03-21,8.050655364990234
2012-03-22,7.939411640167236
2012-03-23,7.980395317077637
2012-03-26,8.038942337036133
2012-03-27,7.9862494468688965
2012-03-28,8.10920524597168
2012-03-29,8.015523910522461
2012-03-30,8.144333839416504
2012-04-02,8.068220138549805
2012-04-03,8.120914459228516
2012-04-04,8.138481140136719
2012-04-05,7.980395317077637
2012-04-09,7.845727920532227
2012-04-10,7.722773551940918
2012-04-11,7.845727920532227
2012-04-12,7.90427827835083
2012-04-13,7.7052083015441895
2012-04-16,7.775470733642578
2012-04-17,7.992104530334473
2012-04-18,7.80474328994751
2012-04-19,7.634947299957275
2012-04-20,7.681789398193359
2012-04-23,7.634947299957275
2012-04-24,7.722773551940918
2012-04-25,7.787180423736572
2012-04-26,7.851583003997803
2012-04-27,7.974540710449219
2012-04-30,7.898421287536621
2012-05-01,7.851583003997803
2012-05-02,7.886715888977051
2012-05-03,7.773362159729004
2012-05-04,7.695808410644531
2012-05-07,7.791264057159424
2012-05-08,7.779330253601074
2012-05-09,7.665980815887451
2012-05-10,7.6600165367126465
2012-05-11,7.713708877563477
2012-05-14,7.630185604095459
2012-05-15,7.540701866149902
2012-05-16,7.516838550567627
2012-05-17,7.492974281311035
2012-05-18,7.445250034332275
2012-05-21,7.427350997924805
2012-05-22,7.487009525299072
2012-05-23,7.540701866149902
2012-05-24,7.564561367034912
2012-05-25,7.576493263244629
2012-05-29,7.62421989440918
2012-05-30,7.409454822540283
2012-05-31,7.367692947387695
2012-06-01,7.03957986831665
2012-06-04,6.902365684509277
2012-06-05,7.0157151222229
2012-06-06,7.123098850250244
2012-06-07,7.170822620391846
2012-06-08,7.248378753662109
2012-06-11,7.057474136352539
2012-06-12,7.212583541870117
2012-06-13,7.212583541870117
2012-06-14,7.284173488616943
2012-06-15,7.361727714538574
2012-06-18,7.3438310623168945
2012-06-19,7.385591983795166
2012-06-20,7.475078105926514
2012-06-21,7.325934886932373
2012-06-22,7.409454822540283
2012-06-25,7.296104431152344
2012-06-26,7.284173488616943
2012-06-27,7.4392828941345215
2012-06-28,7.4333176612854
2012-06-29,7.475078105926514
2012-07-02,7.576493263244629
2012-07-03,7.58842658996582
2012-07-05,7.57052755355835
2012-07-06,7.654048919677734
2012-07-09,7.3915557861328125
2012-07-10,7.385591983795166
2012-07-11,7.463147163391113
2012-07-12,7.325934886932373
2012-07-13,7.498940944671631
2012-07-16,7.445250034332275
2012-07-17,7.564561367034912
2012-07-18,7.576493263244629
2012-07-19,7.546665191650391
2012-07-20,7.504906177520752
2012-07-23,7.385591983795166
2012-07-24,7.373658657073975
2012-07-25,7.5526299476623535
2012-07-26,7.546665191650391
2012-07-27,7.582459926605225
2012-07-30,7.630185604095459
2012-07-31,7.743536472320557
2012-08-01,7.737569332122803
2012-08-02,7.701775074005127
2012-08-03,7.793028354644775
2012-08-06,7.726108074188232
2012-08-07,7.884283065795898
2012-08-08,7.914700031280518
2012-08-09,7.963366985321045
2012-08-10,7.975535869598389
2012-08-13,7.96945333480835
2012-08-14,8.00595474243164
2012-08-15,8.018121719360352
2012-08-16,8.024205207824707
2012-08-17,8.085039138793945
2012-08-20,8.066790580749512
2012-08-21,8.018121719360352
2012-08-22,7.981619834899902
2012-08-23,7.975535869598389
2012-08-24,8.00595474243164
2012-08-27,8.012035369873047
2012-08-28,8.018121719360352
2012-08-29,8.024205207824707
2012-08-30,8.018121719360352
2012-08-31,8.066790580749512
2012-09-04,8.158040046691895
2012-09-05,8.133708000183105
2012-09-06,8.255379676818848
2012-09-07,8.279714584350586
2012-09-10,8.249296188354492
2012-09-11,8.285796165466309
2012-09-12,8.346630096435547
2012-09-13,8.370967864990234
2012-09-14,8.58997631072998
2012-09-17,8.395299911499023
2012-09-18,8.401383399963379
2012-09-19,8.42572021484375
2012-09-20,8.334464073181152
2012-09-21,8.322299003601074
2012-09-24,8.58997631072998
2012-09-25,8.498719215393066
2012-09-26,8.462218284606934
2012-09-27,8.58388900756836
2012-09-28,8.614311218261719
2012-10-01,8.571722030639648
2012-10-02,8.735977172851562
2012-10-03,8.845484733581543
2012-10-04,9.034073829650879
2012-10-05,9.088827133178711
2012-10-08,9.070573806762695
2012-10-09,9.094907760620117
2012-10-10,9.02799129486084
2012-10-11,9.009740829467773
2012-10-12,8.790730476379395
2012-10-15,8.772480964660645
2012-10-16,8.66297721862793
2012-10-17,8.821147918701172
2012-10-18,8.760313987731934
2012-10-19,8.839400291442871
2012-10-22,8.90023422241211
2012-10-23,8.90023422241211
2012-10-24,8.468304634094238
2012-10-25,8.456135749816895
2012-10-26,8.419635772705078
2012-10-31,8.431803703308105
2012-11-01,8.577805519104004
2012-11-02,8.419635772705078
2012-11-05,8.363877296447754
2012-11-06,8.345290184020996
2012-11-07,8.078885078430176
2012-11-08,7.973562240600586
2012-11-09,7.985954761505127
2012-11-12,7.9239983558654785
2012-11-13,7.769111156463623
2012-11-14,7.762916088104248
2012-11-15,7.713350772857666
2012-11-16,7.775306224822998
2012-11-19,7.862043380737305
2012-11-20,7.893021583557129
2012-11-21,7.849651336669922
2012-11-23,7.992145538330078
2012-11-26,7.973562240600586
2012-11-27,7.862043380737305
2012-11-28,7.893021583557129
2012-11-29,7.973562240600586
2012-11-30,8.060298919677734
2012-12-03,8.05410099029541
2012-12-04,8.023124694824219
2012-12-05,8.109861373901367
2012-12-06,8.010733604431152
2012-12-07,8.01693058013916
2012-12-10,8.035514831542969
2012-12-11,7.985954761505127
2012-12-12,7.94258451461792
2012-12-13,7.985954761505127
2012-12-14,7.8992133140563965
2012-12-17,8.023124694824219
2012-12-18,8.21518611907959
2012-12-19,8.165620803833008
2012-12-20,8.202792167663574
2012-12-21,8.147035598754883
2012-12-24,8.035514831542969
2012-12-26,8.023124694824219
2012-12-27,8.072688102722168
2012-12-28,8.01693058013916
2012-12-31,8.116056442260742
2013-01-02,8.308115005493164
2013-01-03,8.339096069335938
2013-01-04,8.270944595336914
2013-01-07,8.202792167663574
2013-01-08,8.202792167663574
2013-01-09,8.233773231506348
2013-01-10,8.308115005493164
2013-01-11,8.370071411132812
2013-01-14,8.332898139953613
2013-01-15,8.332898139953613
2013-01-16,8.37626838684082
2013-01-17,8.456806182861328
2013-01-18,8.407242774963379
2013-01-22,8.382463455200195
2013-01-23,8.227577209472656
2013-01-24,8.116056442260742
2013-01-25,8.0974702835083
2013-01-28,8.171815872192383
2013-01-29,8.19040298461914
2013-01-30,8.091278076171875
2013-01-31,8.270944595336914
2013-02-01,8.277138710021973
2013-02-04,8.233773231506348
2013-02-05,8.388657569885254
2013-02-06,8.450611114501953
2013-02-07,8.34332275390625
2013-02-08,8.387502670288086
2013-02-11,8.444302558898926
2013-02-12,8.583144187927246
2013-02-13,8.646256446838379
2013-02-14,8.583144187927246
2013-02-15,8.576835632324219
2013-02-19,8.677813529968262
2013-02-20,8.494791984558105
2013-02-21,8.456920623779297
2013-02-22,8.545279502868652
2013-02-25,8.35594367980957
2013-02-26,8.456920623779297
2013-02-27,8.46323299407959
2013-02-28,8.520035743713379
2013-03-01,8.45061206817627
2013-03-04,8.520035743713379
2013-03-05,8.494791984558105
2013-03-06,8.40012264251709
2013-03-07,8.595767974853516
2013-03-08,8.778788566589355
2013-03-11,8.753544807434082
2013-03-12,8.816658020019531
2013-03-13,8.860835075378418
2013-03-14,8.968125343322754
2013-03-15,8.974438667297363
2013-03-18,8.94919204711914
2013-03-19,8.917638778686523
2013-03-20,8.961814880371094
2013-03-21,8.94919204711914
2013-03-22,8.942880630493164
2013-03-25,8.92394733428955
2013-03-26,8.987058639526367
2013-03-27,9.037546157836914
2013-03-28,9.05648136138916
2013-04-01,8.980744361877441
2013-04-02,8.829280853271484
2013-04-03,8.614700317382812
2013-04-04,8.589457511901855
2013-04-05,8.570523262023926
2013-04-08,8.646256446838379
2013-04-09,8.677813529968262
2013-04-10,8.747238159179688
2013-04-11,8.734614372253418
2013-04-12,8.608388900756836
2013-04-15,8.40012264251709
2013-04-16,8.437989234924316
2013-04-17,8.330699920654297
2013-04-18,8.330699920654297
2013-04-19,8.45061206817627
2013-04-22,8.50741195678711
2013-04-23,8.551590919494629
2013-04-24,8.406434059143066
2013-04-25,8.45061206817627
2013-04-26,8.43167781829834
2013-04-29,8.469544410705566
2013-04-30,8.551590919494629
2013-05-01,8.43167781829834
2013-05-02,8.520035743713379
2013-05-03,8.545756340026855
2013-05-06,8.545756340026855
2013-05-07,8.693652153015137
2013-05-08,8.706511497497559
2013-05-09,8.667928695678711
2013-05-10,8.674359321594238
2013-05-13,8.674359321594238
2013-05-14,8.680789947509766
2013-05-15,8.770812034606934
2013-05-16,8.777241706848145
2013-05-17,8.860834121704102
2013-05-20,8.944425582885742
2013-05-21,8.950860023498535
2013-05-22,8.79653549194336
2013-05-23,8.770812034606934
2013-05-24,8.700080871582031
2013-05-28,8.680789947509766
2013-05-29,8.57790756225586
2013-05-30,8.584338188171387
2013-05-31,8.410719871520996
2013-06-03,8.449300765991211
2013-06-04,8.404290199279785
2013-06-05,8.333559036254883
2013-06-06,8.404290199279785
2013-06-07,8.500744819641113
2013-06-10,8.616485595703125
2013-06-11,8.520035743713379
2013-06-12,8.442872047424316
2013-06-13,8.507173538208008
2013-06-14,8.590765953063965
2013-06-17,8.680789947509766
2013-06-18,8.751523971557617
2013-06-19,8.738661766052246
2013-06-20,8.700080871582031
2013-06-21,8.764383316040039
2013-06-24,8.725799560546875
2013-06-25,8.860834121704102
2013-06-26,8.925138473510742
2013-06-27,9.028020858764648
2013-06-28,9.002301216125488
2013-07-01,9.085896492004395
2013-07-02,9.079465866088867
2013-07-03,9.12447452545166
2013-07-05,9.25950813293457
2013-07-08,9.355964660644531
2013-07-09,9.381684303283691
2013-07-10,9.375251770019531
2013-07-11,9.265937805175781
2013-07-12,9.388113021850586
2013-07-15,9.355964660644531
2013-07-16,9.349533081054688
2013-07-17,9.420263290405273
2013-07-18,9.548869132995605
2013-07-19,9.58745002746582
2013-07-22,9.606742858886719
2013-07-23,9.690333366394043
2013-07-24,9.516718864440918
2013-07-25,9.593878746032715
2013-07-26,9.548869132995605
2013-07-29,9.548869132995605
2013-07-30,9.5552978515625
2013-07-31,9.75463581085205
2013-08-01,10.089007377624512
2013-08-02,10.153308868408203
2013-08-05,9.963833808898926
2013-08-06,10.061838150024414
2013-08-07,10.068371772766113
2013-08-08,10.061838150024414
2013-08-09,10.042234420776367
2013-08-12,10.074905395507812
2013-08-13,9.996500968933105
2013-08-14,10.061838150024414
2013-08-15,10.055303573608398
2013-08-16,10.15330696105957
2013-08-19,10.029170989990234
2013-08-20,10.127171516418457
2013-08-21,9.963833808898926
2013-08-22,10.074905395507812
2013-08-23,10.042234420776367
2013-08-26,9.950765609741211
2013-08-27,9.643682479858398
2013-08-28,9.7743558883667
2013-08-29,9.695952415466309
2013-08-30,9.57181167602539
2013-09-03,9.513012886047363
2013-09-04,9.558745384216309
2013-09-05,9.578347206115723
2013-09-06,9.493408203125
2013-09-09,9.506479263305664
2013-09-10,9.630614280700684
2013-09-11,9.741687774658203
2013-09-12,9.85275936126709
2013-09-13,9.84622573852539
2013-09-16,9.872361183166504
2013-09-17,10.029170989990234
2013-09-18,9.95729923248291
2013-09-19,9.79395580291748
2013-09-20,9.800490379333496
2013-09-23,9.748220443725586
2013-09-24,9.807025909423828
2013-09-25,9.931166648864746
2013-09-26,10.009568214416504
2013-09-27,9.872361183166504
2013-09-30,9.872361183166504
2013-10-01,10.114105224609375
2013-10-02,9.95729923248291
2013-10-03,10.0357027053833
2013-10-04,10.101038932800293
2013-10-07,9.963833808898926
2013-10-08,9.931166648864746
2013-10-09,9.937700271606445
2013-10-10,10.212112426757812
2013-10-11,10.212112426757812
2013-10-14,10.231709480285645
2013-10-15,10.179443359375
2013-10-16,10.316651344299316
2013-10-17,10.388518333435059
2013-10-18,10.336250305175781
2013-10-21,10.310115814208984
2013-10-22,10.329718589782715
2013-10-23,10.3231840133667
2013-10-24,10.479992866516113
2013-10-25,10.506126403808594
2013-10-28,10.512660026550293
2013-10-29,10.636800765991211
2013-10-30,10.551859855651855
2013-10-31,10.591065406799316
2013-11-01,10.571462631225586
2013-11-04,10.649866104125977
2013-11-05,10.556971549987793
2013-11-06,10.649866104125977
2013-11-07,10.643233299255371
2013-11-08,10.815752983093262
2013-11-11,10.90201473236084
2013-11-12,10.888741493225098
2013-11-13,10.955099105834961
2013-11-14,11.028084754943848
2013-11-15,10.915283203125
2013-11-18,10.795845985412598
2013-11-19,10.842294692993164
2013-11-20,10.762669563293457
2013-11-21,10.888741493225098
2013-11-22,10.928556442260742
2013-11-25,10.968368530273438
2013-11-26,10.948461532592773
2013-11-27,10.895377159118652
2013-11-29,10.96173095703125
2013-12-02,10.975004196166992
2013-12-03,10.888741493225098
2013-12-04,10.829020500183105
2013-12-05,10.782574653625488
2013-12-06,10.875471115112305
2013-12-09,10.86883544921875
2013-12-10,10.842294692993164
2013-12-11,10.689679145812988
2013-12-12,10.74276351928711
2013-12-13,10.769303321838379
2013-12-16,10.835658073425293
2013-12-17,10.8223876953125
2013-12-18,10.908646583557129
2013-12-19,10.842294692993164
2013-12-20,10.988273620605469
2013-12-23,11.028084754943848
2013-12-24,11.074535369873047
2013-12-26,11.054627418518066
2013-12-27,11.114344596862793
2013-12-30,11.114344596862793
2013-12-31,11.18070125579834
2014-01-02,11.028084754943848
2014-01-03,11.04135799407959
2014-01-06,10.988273620605469
2014-01-07,11.160796165466309
2014-01-08,11.313407897949219
2014-01-09,11.406307220458984
2014-01-10,11.280234336853027
2014-01-13,11.2404203414917
2014-01-14,11.266963005065918
2014-01-15,11.346586227416992
2014-01-16,11.313407897949219
2014-01-17,11.293501853942871
2014-01-21,11.399669647216797
2014-01-22,11.505836486816406
2014-01-23,11.432847023010254
2014-01-24,11.140888214111328
2014-01-27,11.101076126098633
2014-01-28,11.094442367553711
2014-01-29,10.855565071105957
2014-01-30,10.848930358886719
2014-01-31,10.74276351928711
2014-02-03,10.304823875427246
2014-02-04,10.364542961120605
2014-02-05,10.371180534362793
2014-02-06,10.350947380065918
2014-02-07,10.350947380065918
2014-02-10,10.391408920288086
2014-02-11,10.512786865234375
2014-02-12,10.58696460723877
2014-02-13,10.512786865234375
2014-02-14,10.620680809020996
2014-02-18,10.63416862487793
2014-02-19,10.371179580688477
2014-02-20,10.506047248840332
2014-02-21,10.613935470581055
2014-02-24,10.742060661315918
2014-02-25,10.721829414367676
2014-02-26,10.863438606262207
2014-02-27,10.762289047241211
2014-02-28,10.775776863098145
2014-03-03,10.66788387298584
2014-03-04,10.79600715637207
2014-03-05,10.870182991027832
2014-03-06,10.883667945861816
2014-03-07,10.903899192810059
2014-03-10,10.849953651428223
2014-03-11,10.789261817932129
2014-03-12,10.809493064880371
2014-03-13,10.708344459533691
2014-03-14,10.762289047241211
2014-03-17,10.863438606262207
2014-03-18,10.978074073791504
2014-03-19,10.951102256774902
2014-03-20,10.924129486083984
2014-03-21,10.951102256774902
2014-03-24,10.849953651428223
2014-03-25,10.849953651428223
2014-03-26,10.762289047241211
2014-03-27,10.674625396728516
2014-03-28,10.721829414367676
2014-03-31,10.836465835571289
2014-04-01,10.843209266662598
2014-04-02,10.789261817932129
2014-04-03,10.870182991027832
2014-04-04,10.816237449645996
2014-04-07,10.607194900512695
2014-04-08,10.735318183898926
2014-04-09,10.7016019821167
2014-04-10,10.5330171585083
2014-04-11,10.539761543273926
2014-04-14,10.620680809020996
2014-04-15,10.755544662475586
2014-04-16,10.910642623901367
2014-04-17,10.957843780517578
2014-04-21,10.890412330627441
2014-04-22,10.910642623901367
2014-04-23,10.930870056152344
2014-04-24,10.782520294189453
2014-04-25,10.688114166259766
2014-04-28,10.58696460723877
2014-04-29,10.55324649810791
2014-04-30,10.391408920288086
2014-05-01,10.384665489196777
2014-05-02,10.425125122070312
2014-05-05,10.317231178283691
2014-05-06,10.189109802246094
2014-05-07,10.330717086791992
2014-05-08,10.385560035705566
2014-05-09,10.426691055297852
2014-05-12,10.529518127441406
2014-05-13,10.474678039550781
2014-05-14,10.275876998901367
2014-05-15,10.269020080566406
2014-05-16,10.159340858459473
2014-05-19,10.269020080566406
2014-05-20,10.24846076965332
2014-05-21,10.399271011352539
2014-05-22,10.474678039550781
2014-05-23,10.522665023803711
2014-05-27,10.536371231079102
2014-05-28,10.502098083496094
2014-05-29,10.495244026184082
2014-05-30,10.474678039550781
2014-06-02,10.556941032409668
2014-06-03,10.604928016662598
2014-06-04,10.64605712890625
2014-06-05,10.762595176696777
2014-06-06,10.824289321899414
2014-06-09,10.913410186767578
2014-06-10,10.899697303771973
2014-06-11,10.83800220489502
2014-06-12,10.810583114624023
2014-06-13,10.844856262207031
2014-06-16,10.803725242614746
2014-06-17,10.93397331237793
2014-06-18,10.927116394042969
2014-06-19,10.824289321899414
2014-06-20,10.783159255981445
2014-06-23,10.81743335723877
2014-06-24,10.755738258361816
2014-06-25,10.851710319519043
2014-06-26,10.892840385437012
2014-06-27,10.940829277038574
2014-06-30,10.95453929901123
2014-07-01,11.016234397888184
2014-07-02,10.92026424407959
2014-07-03,11.02994441986084
2014-07-07,11.016234397888184
2014-07-08,10.92026424407959
2014-07-09,10.9956693649292
2014-07-10,10.9956693649292
2014-07-11,10.975105285644531
2014-07-14,11.016234397888184
2014-07-15,11.084785461425781
2014-07-16,10.714607238769531
2014-07-17,10.632344245910645
2014-07-18,10.72146224975586
2014-07-21,10.69404125213623
2014-07-22,10.666620254516602
2014-07-23,10.899697303771973
2014-07-24,10.961394309997559
2014-07-25,11.002523422241211
2014-07-28,10.947683334350586
2014-07-29,10.95453929901123
2014-07-30,11.009378433227539
2014-07-31,10.885987281799316
2014-08-01,10.824289321899414
2014-08-04,10.85856819152832
2014-08-05,10.824289321899414
2014-08-06,10.852153778076172
2014-08-07,10.761601448059082
2014-08-08,10.796428680419922
2014-08-11,10.831257820129395
2014-08-12,10.775535583496094
2014-08-13,10.886979103088379
2014-08-14,10.928771018981934
2014-08-15,10.866082191467285
2014-08-18,10.935738563537598
2014-08-19,10.956633567810059
2014-08-20,10.94966983795166
2014-08-21,11.116839408874512
2014-08-22,11.061116218566895
2014-08-25,11.116839408874512
2014-08-26,11.179526329040527
2014-08-27,11.137735366821289
2014-08-28,11.06808090209961
2014-08-29,11.109872817993164
2014-09-02,11.186491012573242
2014-09-03,11.102906227111816
2014-09-04,11.095942497253418
2014-09-05,11.06808090209961
2014-09-08,11.095942497253418
2014-09-09,11.012358665466309
2014-09-10,11.109872817993164
2014-09-11,11.270078659057617
2014-09-12,11.277044296264648
2014-09-15,11.367595672607422
2014-09-16,11.33276653289795
2014-09-17,11.381526947021484
2014-09-18,11.444214820861816
2014-09-19,11.39545726776123
2014-09-22,11.22828483581543
2014-09-23,11.186491012573242
2014-09-24,11.256148338317871
2014-09-25,11.12380313873291
2014-09-26,11.130770683288574
2014-09-29,11.082011222839355
2014-09-30,11.054150581359863
2014-10-01,10.921806335449219
2014-10-02,10.89394474029541
2014-10-03,10.900909423828125
2014-10-06,10.78249740600586
2014-10-07,10.643187522888184
2014-10-08,10.761601448059082
2014-10-09,10.57353687286377
2014-10-10,10.545674324035645
2014-10-13,10.476017951965332
2014-10-14,10.538707733154297
2014-10-15,10.350640296936035
2014-10-16,10.434223175048828
2014-10-17,10.441190719604492
2014-10-20,10.4690523147583
2014-10-21,10.608362197875977
2014-10-22,10.684980392456055
2014-10-23,10.719807624816895
2014-10-24,10.831257820129395
2014-10-27,10.803393363952637
2014-10-28,10.94966983795166
2014-10-29,10.963598251342773
2014-10-30,10.977531433105469
2014-10-31,11.109872817993164
2014-11-03,11.102906227111816
2014-11-04,11.082011222839355
2014-11-05,11.110321044921875
2014-11-06,11.209392547607422
2014-11-07,11.258927345275879
2014-11-10,11.294312477111816
2014-11-11,11.287233352661133
2014-11-12,11.365074157714844
2014-11-13,11.287233352661133
2014-11-14,11.223546028137207
2014-11-17,11.251852035522461
2014-11-18,11.223546028137207
2014-11-19,11.202313423156738
2014-11-20,11.251852035522461
2014-11-21,11.237696647644043
2014-11-24,11.301385879516602
2014-11-25,11.280157089233398
2014-11-26,11.357999801635742
2014-11-28,11.24477481842041
2014-12-01,11.082011222839355
2014-12-02,11.131546020507812
2014-12-03,11.152778625488281
2014-12-04,11.124472618103027
2014-12-05,11.287233352661133
2014-12-08,11.336771011352539
2014-12-09,11.322616577148438
2014-12-10,11.060783386230469
2014-12-11,11.159856796264648
2014-12-12,11.01832103729248
2014-12-15,10.9121732711792
2014-12-16,10.9121732711792
2014-12-17,11.13862419128418
2014-12-18,11.329693794250488
2014-12-19,11.372153282165527
2014-12-22,11.336771011352539
2014-12-23,11.421689987182617
2014-12-24,11.386308670043945
2014-12-26,11.428767204284668
2014-12-29,11.506610870361328
2014-12-30,11.449996948242188
2014-12-31,11.322616577148438
2015-01-02,11.280157089233398
2015-01-05,11.124472618103027
2015-01-06,10.990015983581543
2015-01-07,11.131546020507812
2015-01-08,11.322616577148438
2015-01-09,11.13862419128418
2015-01-12,11.13862419128418
2015-01-13,11.060783386230469
2015-01-14,10.883866310119629
2015-01-15,10.791871070861816
2015-01-16,10.933401107788086
2015-01-20,10.869712829589844
2015-01-21,10.89094066619873
2015-01-22,11.322616577148438
2015-01-23,11.159856796264648
2015-01-26,11.237696647644043
2015-01-27,11.124472618103027
2015-01-28,10.898019790649414
2015-01-29,10.975860595703125
2015-01-30,10.933401107788086
2015-02-02,11.202313423156738
2015-02-03,11.336771011352539
2015-02-04,11.329693794250488
2015-02-05,11.372825622558594
2015-02-06,11.487850189208984
2015-02-09,11.451904296875
2015-02-10,11.552549362182617
2015-02-11,11.51660442352295
2015-02-12,11.717893600463867
2015-02-13,11.768216133117676
2015-02-17,11.825727462768555
2015-02-18,11.732271194458008
2015-02-19,11.739459991455078
2015-02-20,11.876049995422363
2015-02-23,11.782594680786133
2015-02-24,11.88323974609375
2015-02-25,11.825727462768555
2015-02-26,11.88323974609375
2015-02-27,11.940750122070312
2015-03-02,11.991072654724121
2015-03-03,12.019826889038086
2015-03-04,11.947938919067383
2015-03-05,12.041393280029297
2015-03-06,11.947938919067383
2015-03-09,12.120469093322754
2015-03-10,11.81135082244873
2015-03-11,11.854484558105469
2015-03-12,12.156416893005371
2015-03-13,12.06296157836914
2015-03-16,12.098905563354492
2015-03-17,12.163604736328125
2015-03-18,12.11328411102295
2015-03-19,12.05577278137207
2015-03-20,12.156416893005371
2015-03-23,12.098905563354492
2015-03-24,12.084525108337402
2015-03-25,11.933560371398926
2015-03-26,11.95512580871582
2015-03-27,11.933560371398926
2015-03-30,12.156416893005371
2015-03-31,12.027017593383789
2015-04-01,12.005446434020996
2015-04-02,12.084525108337402
2015-04-06,12.163604736328125
2015-04-07,12.12766170501709
2015-04-08,12.271438598632812
2015-04-09,12.264250755310059
2015-04-10,12.22111988067627
2015-04-13,12.249871253967285
2015-04-14,12.213927268981934
2015-04-15,12.249871253967285
2015-04-16,12.228303909301758
2015-04-17,12.06296157836914
2015-04-20,12.163604736328125
2015-04-21,12.199548721313477
2015-04-22,12.22111988067627
2015-04-23,12.22111988067627
2015-04-24,12.149225234985352
2015-04-27,12.05577278137207
2015-04-28,12.163604736328125
2015-04-29,12.300193786621094
2015-04-30,12.357706069946289
2015-05-01,12.249871253967285
2015-05-04,12.393649101257324
2015-05-05,12.379271507263184
2015-05-06,12.501482963562012
2015-05-07,12.348316192626953
2015-05-08,12.413959503173828
2015-05-11,12.530661582946777
2015-05-12,12.596301078796387
2015-05-13,12.647357940673828
2015-05-14,12.647357940673828
2015-05-15,12.537954330444336
2015-05-18,12.720295906066895
2015-05-19,12.91722583770752
2015-05-20,12.895343780517578
2015-05-21,12.829706192016602
2015-05-22,12.81511402130127
2015-05-26,12.764058113098145
2015-05-27,12.924519538879395
2015-05-28,12.924519538879395
2015-05-29,12.939105987548828
2015-06-01,12.909934997558594
2015-06-02,13.048515319824219
2015-06-03,13.150626182556152
2015-06-04,13.063100814819336
2015-06-05,13.208975791931152
2015-06-08,13.194391250610352
2015-06-09,13.27462387084961
2015-06-10,13.427789688110352
2015-06-11,13.420495986938477
2015-06-12,13.442378044128418
2015-06-15,13.442378044128418
2015-06-16,13.529901504516602
2015-06-17,13.369439125061035
2015-06-18,13.471551895141602
2015-06-19,13.435081481933594
2015-06-22,13.544486999511719
2015-06-23,13.624719619750977
2015-06-24,13.456963539123535
2015-06-25,13.456963539123535
2015-06-26,13.52260971069336
2015-06-29,13.311088562011719
2015-06-30,13.405908584594727
2015-07-01,13.52260971069336
2015-07-02,13.369439125061035
2015-07-06,13.38403034210205
2015-07-07,13.325676918029785
2015-07-08,13.099568367004395
2015-07-09,13.179800033569336
2015-07-10,13.311088562011719
2015-07-13,13.38403034210205
2015-07-14,13.420495986938477
2015-07-15,13.486139297485352
2015-07-16,13.52260971069336
2015-07-17,13.405908584594727
2015-07-20,13.464258193969727
2015-07-21,13.318380355834961
2015-07-22,13.588251113891602
2015-07-23,13.52260971069336
2015-07-24,13.442378044128418
2015-07-27,13.427789688110352
2015-07-28,13.529901504516602
2015-07-29,13.690364837646484
2015-07-30,13.84353256225586
2015-07-31,13.880001068115234
2015-08-03,13.748717308044434
2015-08-04,13.7487154006958
2015-08-05,13.79306697845459
2015-08-06,13.667404174804688
2015-08-07,13.453045845031738
2015-08-10,13.652621269226074
2015-08-11,13.600879669189453
2015-08-12,13.445651054382324
2015-08-13,13.534354209899902
2015-08-14,13.7487154006958
2015-08-17,13.7487154006958
2015-08-18,13.66001033782959
2015-08-19,13.438260078430176
2015-08-20,13.194329261779785
2015-08-21,13.046492576599121
2015-08-24,12.432977676391602
2015-08-25,12.307316780090332
2015-08-26,12.67690372467041
2015-08-27,12.979968070983887
2015-08-28,13.039103507995605
2015-08-31,13.053884506225586
2015-09-01,12.573420524597168
2015-09-02,12.758213996887207
2015-09-03,12.906049728393555
2015-09-04,12.86169719696045
2015-09-08,13.260857582092285
2015-09-09,13.046492576599121
2015-09-10,13.127803802490234
2015-09-11,13.142589569091797
2015-09-14,13.260857582092285
2015-09-15,13.39391040802002
2015-09-16,13.430868148803711
2015-09-17,13.194329261779785
2015-09-18,12.913440704345703
2015-09-21,13.127803802490234
2015-09-22,13.009536743164062
2015-09-23,13.356949806213379
2015-09-24,13.423474311828613
2015-09-25,13.401299476623535
2015-09-28,13.2682466506958
2015-09-29,13.231289863586426
2015-09-30,13.349556922912598
2015-10-01,13.356949806213379
2015-10-02,13.349556922912598
2015-10-05,13.623051643371582
2015-10-06,13.608268737792969
2015-10-07,13.733928680419922
2015-10-08,13.807849884033203
2015-10-09,13.682188034057617
2015-10-12,13.778278350830078
2015-10-13,13.682188034057617
2015-10-14,13.46043586730957
2015-10-15,13.652621269226074
2015-10-16,13.63044261932373
2015-10-19,13.64522647857666
2015-10-20,13.74132251739502
2015-10-21,13.563919067382812
2015-10-22,13.696969985961914
2015-10-23,14.007426261901855
2015-10-26,13.926114082336426
2015-10-27,13.889159202575684
2015-10-28,14.162653923034668
2015-10-29,12.462543487548828
2015-10-30,12.211226463317871
2015-11-02,12.10774040222168
2015-11-03,12.04121208190918
2015-11-04,11.988662719726562
2015-11-05,12.048718452453613
2015-11-06,12.131296157836914
2015-11-09,11.876058578491211
2015-11-10,11.936115264892578
2015-11-11,12.04121208190918
2015-11-12,11.898579597473145
2015-11-13,11.725915908813477
2015-11-16,11.77846908569336
2015-11-17,11.643340110778809
2015-11-18,11.876058578491211
2015-11-19,11.981157302856445
2015-11-20,11.981157302856445
2015-11-23,11.951129913330078
2015-11-24,12.01118278503418
2015-11-25,12.131296157836914
2015-11-27,12.131296157836914
2015-11-30,12.31146240234375
2015-12-01,12.514151573181152
2015-12-02,12.454096794128418
2015-12-03,12.431572914123535
2015-12-04,12.656784057617188
2015-12-07,12.521661758422852
2015-12-08,12.228886604309082
2015-12-09,12.31897258758545
2015-12-10,12.446588516235352
2015-12-11,12.153814315795898
2015-12-14,12.288944244384766
2015-12-15,12.716841697692871
2015-12-16,12.724349021911621
2015-12-17,12.521661758422852
2015-12-18,12.131296157836914
2015-12-21,12.303955078125
2015-12-22,12.24389934539795
2015-12-23,12.46911334991455
2015-12-24,12.431572914123535
2015-12-28,12.431572914123535
2015-12-29,12.559195518493652
2015-12-30,12.364013671875
2015-12-31,12.2514066696167
2016-01-04,11.958637237548828
2016-01-05,12.033706665039062
2016-01-06,11.898579597473145
2016-01-07,11.628328323364258
2016-01-08,11.455665588378906
2016-01-11,11.485694885253906
2016-01-12,11.635834693908691
2016-01-13,11.25297737121582
2016-01-14,11.365583419799805
2016-01-15,11.155386924743652
2016-01-19,11.095333099365234
2016-01-20,11.140374183654785
2016-01-21,11.065302848815918
2016-01-22,11.155386924743652
2016-01-25,10.892642974853516
2016-01-26,11.162895202636719
2016-01-27,11.350569725036621
2016-01-28,11.463173866271973
2016-01-29,11.620820999145508
2016-02-01,11.620820999145508
2016-02-02,11.395611763000488
2016-02-03,11.52323055267334
2016-02-04,11.629504203796387
2016-02-05,11.675050735473633
2016-02-08,11.713005065917969
2016-02-09,11.73577880859375
2016-02-10,11.500454902648926
2016-02-11,11.174040794372559
2016-02-12,11.462502479553223
2016-02-16,11.804098129272461
2016-02-17,11.781326293945312
2016-02-18,11.773734092712402
2016-02-19,11.73577880859375
2016-02-22,11.842053413391113
2016-02-23,11.68264102935791
2016-02-24,11.591547966003418
2016-02-25,11.68264102935791
2016-02-26,11.697823524475098
2016-02-29,11.485273361206055
2016-03-01,11.917964935302734
2016-03-02,12.001466751098633
2016-03-03,12.084967613220215
2016-03-04,12.176060676574707
2016-03-07,12.107742309570312
2016-03-08,11.842053413391113
2016-03-09,11.78891658782959
2016-03-10,11.864828109741211
2016-03-11,12.054604530334473
2016-03-14,11.933145523071289
2016-03-15,11.925556182861328
2016-03-16,11.773734092712402
2016-03-17,11.713005065917969
2016-03-18,11.758551597595215
2016-03-21,11.89519214630127
2016-03-22,12.039420127868652
2016-03-23,11.97110366821289
2016-03-24,11.902782440185547
2016-03-28,11.849645614624023
2016-03-29,12.077375411987305
2016-03-30,12.11533260345459
2016-03-31,12.069786071777344
2016-04-01,11.993876457214355
2016-04-04,11.948328018188477
2016-04-05,11.652277946472168
2016-04-06,11.652277946472168
2016-04-07,11.30308723449707
2016-04-08,11.40936279296875
2016-04-11,11.447319030761719
2016-04-12,11.500454902648926
2016-04-13,11.781326293945312
2016-04-14,11.887600898742676
2016-04-15,11.872419357299805
2016-04-18,11.940739631652832
2016-04-19,12.107742309570312
2016-04-20,11.78891658782959
2016-04-21,11.583958625793457
2016-04-22,11.591547966003418
2016-04-25,11.591547966003418
2016-04-26,11.705416679382324
2016-04-27,11.57636547088623
2016-04-28,11.447319030761719
2016-04-29,11.40936279296875
2016-05-02,11.4700927734375
2016-05-03,11.204404830932617
2016-05-04,11.127610206604004
2016-05-05,11.089214324951172
2016-05-06,11.196725845336914
2016-05-09,11.242802619934082
2016-05-10,11.41943359375
2016-05-11,11.427109718322754
2016-05-12,11.480867385864258
2016-05-13,11.296558380126953
2016-05-16,11.38103199005127
2016-05-17,11.350316047668457
2016-05-18,11.65749740600586
2016-05-19,11.542304992675781
2016-05-20,11.65749740600586
2016-05-23,11.57302188873291
2016-05-24,11.78804874420166
2016-05-25,11.910920143127441
2016-05-26,11.87252426147461
2016-05-27,12.010754585266113
2016-05-31,12.087549209594727
2016-06-01,12.110589027404785
2016-06-02,12.133626937866211
2016-06-03,11.949317932128906
2016-06-06,12.026113510131836
2016-06-07,11.903240203857422
2016-06-08,11.864843368530273
2016-06-09,11.87252426147461
2016-06-10,11.811086654663086
2016-06-13,11.565343856811523
2016-06-14,11.427109718322754
2016-06-15,11.41943359375
2016-06-16,11.365675926208496
2016-06-17,11.480867385864258
2016-06-20,11.649815559387207
2016-06-21,11.634456634521484
2016-06-22,11.611418724060059
2016-06-23,11.857163429260254
2016-06-24,11.34263801574707
2016-06-27,11.05849552154541
2016-06-28,11.250482559204102
2016-06-29,11.388714790344238
2016-06-30,11.51158618927002
2016-07-01,11.465509414672852
2016-07-05,11.28119945526123
2016-07-06,11.265844345092773
2016-07-07,11.265844345092773
2016-07-08,11.311917304992676
2016-07-11,11.404072761535645
2016-07-12,11.557662010192871
2016-07-13,11.427109718322754
2016-07-14,11.480867385864258
2016-07-15,11.526945114135742
2016-07-18,11.503905296325684
2016-07-19,11.503905296325684
2016-07-20,11.350316047668457
2016-07-21,11.242802619934082
2016-07-22,11.34263801574707
2016-07-25,11.27352237701416
2016-07-26,11.288880348205566
2016-07-27,10.958659172058105
2016-07-28,10.935623168945312
2016-07-29,11.096892356872559
2016-08-01,11.081533432006836
2016-08-02,11.035455703735352
2016-08-03,11.112249374389648
2016-08-04,11.15887451171875
2016-08-05,11.267667770385742
2016-08-08,11.15887451171875
2016-08-09,11.073397636413574
2016-08-10,11.120024681091309
2016-08-11,11.065625190734863
2016-08-12,11.042312622070312
2016-08-15,11.088937759399414
2016-08-16,11.15887451171875
2016-08-17,11.127792358398438
2016-08-18,11.166646003723145
2016-08-19,11.19772720336914
2016-08-22,11.189957618713379
2016-08-23,11.1355619430542
2016-08-24,11.151104927062988
2016-08-25,11.19772720336914
2016-08-26,11.337604522705078
2016-08-29,11.485249519348145
2016-08-30,11.702832221984863
2016-08-31,11.74168586730957
2016-09-01,11.718371391296387
2016-09-02,11.935957908630371
2016-09-06,11.772769927978516
2016-09-07,11.96703815460205
2016-09-08,11.982580184936523
2016-09-09,11.803853988647461
2016-09-12,11.94372844696045
2016-09-13,11.81162166595459
2016-09-14,11.516331672668457
2016-09-15,11.399771690368652
2016-09-16,11.221041679382324
2016-09-19,11.174417495727539
2016-09-20,11.1355619430542
2016-09-21,11.182188987731934
2016-09-22,11.205500602722168
2016-09-23,11.4774808883667
2016-09-26,11.252124786376953
2016-09-27,11.27543830871582
2016-09-28,11.205500602722168
2016-09-29,10.95683479309082
2016-09-30,11.057855606079102
2016-10-03,10.925750732421875
2016-10-04,10.93352222442627
2016-10-05,10.995688438415527
2016-10-06,10.980148315429688
2016-10-07,10.886897087097168
2016-10-10,10.93352222442627
2016-10-11,10.925750732421875
2016-10-12,10.917983055114746
2016-10-13,10.793648719787598
2016-10-14,10.816959381103516
2016-10-17,10.762566566467285
2016-10-18,10.82473087310791
2016-10-19,11.073397636413574
2016-10-20,10.902438163757324
2016-10-21,10.871356964111328
2016-10-24,10.964606285095215
2016-10-25,11.166646003723145
2016-10-26,11.314289093017578
2016-10-27,11.182188987731934
2016-10-28,10.97237777709961
2016-10-31,11.15887451171875
2016-11-01,11.034542083740234
2016-11-02,10.871356964111328
2016-11-03,10.839890480041504
2016-11-04,10.847756385803223
2016-11-07,10.997218132019043
2016-11-08,10.950019836425781
2016-11-09,11.64226245880127
2016-11-10,11.681595802307129
2016-11-11,11.956917762756348
2016-11-14,12.22437572479248
2016-11-15,12.2322416305542
2016-11-16,12.082779884338379
2016-11-17,12.365971565246582
2016-11-18,12.483966827392578
2016-11-21,12.483966827392578
2016-11-22,12.53116512298584
2016-11-23,12.53116512298584
2016-11-25,12.594097137451172
2016-11-28,12.413168907165527
2016-11-29,12.53116512298584
2016-11-30,12.570496559143066
2016-12-01,12.751422882080078
2016-12-02,12.64915943145752
2016-12-05,12.767154693603516
2016-12-06,13.034613609313965
2016-12-07,13.286338806152344
2016-12-08,13.475133895874023
2016-12-09,13.404335021972656
2016-12-12,13.231276512145996
2016-12-13,13.349270820617676
2016-12-14,13.262740135192871
2016-12-15,13.435799598693848
2016-12-16,13.514467239379883
2016-12-19,13.608861923217773
2016-12-20,13.176207542419434
2016-12-21,12.53116512298584
2016-12-22,12.51543140411377
2016-12-23,12.421035766601562
2016-12-27,12.46823501586914
2016-12-28,12.46823501586914
2016-12-29,12.413168907165527
2016-12-30,12.51543140411377
2017-01-03,12.523299217224121
2017-01-04,12.759289741516113
2017-01-05,12.617694854736328
2017-01-06,12.51543140411377
2017-01-09,12.405303955078125
2017-01-10,12.46823501586914
2017-01-11,12.483966827392578
2017-01-12,12.350237846374512
2017-01-13,12.373836517333984
2017-01-17,12.271573066711426
2017-01-18,12.38170337677002
2017-01-19,12.342371940612793
2017-01-20,12.436769485473633
2017-01-23,12.60196304321289
2017-01-24,12.696359634399414
2017-01-25,11.84678840637207
2017-01-26,11.901853561401367
2017-01-27,11.949050903320312
2017-01-30,11.917585372924805
2017-01-31,11.949050903320312
2017-02-01,11.783856391906738
2017-02-02,11.744525909423828
2017-02-03,11.911624908447266
2017-02-06,11.887748718261719
2017-02-07,11.77635383605957
2017-02-08,11.696783065795898
2017-02-09,11.784311294555664
2017-02-10,11.887748718261719
2017-02-13,12.015064239501953
2017-02-14,12.174202919006348
2017-02-15,12.182161331176758
2017-02-16,12.174202919006348
2017-02-17,12.086675643920898
2017-02-21,12.198077201843262
2017-02-22,12.213988304138184
2017-02-23,12.30947208404541
2017-02-24,12.25377368927002
2017-02-27,12.357213973999023
2017-02-28,12.158289909362793
2017-03-01,12.245817184448242
2017-03-02,11.919578552246094
2017-03-03,11.935494422912598
2017-03-06,11.688825607299805
2017-03-07,11.601299285888672
2017-03-08,11.497859001159668
2017-03-09,11.505814552307129
2017-03-10,11.458074569702148
2017-03-13,11.450118064880371
2017-03-14,11.450118064880371
2017-03-15,11.410332679748535
2017-03-16,11.426244735717773
2017-03-17,11.450118064880371
2017-03-20,11.251192092895508
2017-03-21,11.123879432678223
2017-03-22,11.020440101623535
2017-03-23,11.060223579406738
2017-03-24,11.060223579406738
2017-03-27,11.147750854492188
2017-03-28,11.227320671081543
2017-03-29,11.068181037902832
2017-03-30,11.330760955810547
2017-03-31,11.115925788879395
2017-04-03,11.028396606445312
2017-04-04,10.94882583618164
2017-04-05,10.813558578491211
2017-04-06,10.89312744140625
2017-04-07,10.853340148925781
2017-04-10,10.901083946228027
2017-04-11,10.972696304321289
2017-04-12,10.916998863220215
2017-04-13,10.686245918273926
2017-04-17,10.821514129638672
2017-04-18,10.781730651855469
2017-04-19,10.757859230041504
2017-04-20,10.924955368041992
2017-04-21,10.988611221313477
2017-04-24,11.012481689453125
2017-04-25,10.932910919189453
2017-04-26,10.574847221374512
2017-04-27,10.65441608428955
2017-04-28,10.574847221374512
2017-05-01,10.543020248413086
2017-05-02,10.527104377746582
2017-05-03,10.471406936645508
2017-05-04,10.568140983581543
2017-05-05,10.672934532165527
2017-05-08,10.697117805480957
2017-05-09,10.543957710266113
2017-05-10,10.576201438903809
2017-05-11,10.511711120605469
2017-05-12,10.414978981018066
2017-05-15,10.487529754638672
2017-05-16,10.487529754638672
2017-05-17,10.318244934082031
2017-05-18,10.39079475402832
2017-05-19,10.471406936645508
2017-05-22,10.519775390625
2017-05-23,10.592324256896973
2017-05-24,10.471406936645508
2017-05-25,10.447223663330078
2017-05-26,10.487529754638672
2017-05-30,10.447223663330078
2017-05-31,10.414978981018066
2017-06-01,10.527833938598633
2017-06-02,10.43916130065918
2017-06-05,10.527833938598633
2017-06-06,10.487529754638672
2017-06-07,10.503650665283203
2017-06-08,10.689057350158691
2017-06-09,11.019560813903809
2017-06-12,11.116296768188477
2017-06-13,11.100175857543945
2017-06-14,10.995380401611328
2017-06-15,10.777729988098145
2017-06-16,10.713241577148438
2017-06-19,10.45528507232666
2017-06-20,10.366610527038574
2017-06-21,10.294061660766602
2017-06-22,10.213451385498047
2017-06-23,10.23763370513916
2017-06-26,10.277937889099121
2017-06-27,10.326306343078613
2017-06-28,10.471406936645508
2017-06-29,10.672934532165527
2017-06-30,10.584261894226074
2017-07-03,10.80997371673584
2017-07-05,10.729362487792969
2017-07-06,10.672934532165527
2017-07-07,10.672934532165527
2017-07-10,10.560078620910645
2017-07-11,10.519775390625
2017-07-12,10.487529754638672
2017-07-13,10.535893440246582
2017-07-14,10.495589256286621
2017-07-17,10.511711120605469
2017-07-18,10.431099891662598
2017-07-19,10.423040390014648
2017-07-20,10.47946834564209
2017-07-21,10.487529754638672
2017-07-24,10.543957710266113
2017-07-25,10.737422943115234
2017-07-26,10.294061660766602
2017-07-27,10.374672889709473
2017-07-28,10.423040390014648
2017-07-31,10.584261894226074
2017-08-01,10.600385665893555
2017-08-02,10.600385665893555
2017-08-03,10.502384185791016
2017-08-04,10.518716812133789
2017-08-07,10.33088207244873
2017-08-08,10.347220420837402
2017-08-09,10.249217987060547
2017-08-10,10.053215026855469
2017-08-11,9.979715347290039
2017-08-14,10.192048072814941
2017-08-15,10.094049453735352
2017-08-16,10.053215026855469
2017-08-17,9.865381240844727
2017-08-18,9.751047134399414
2017-08-21,9.718379020690918
2017-08-22,9.767380714416504
2017-08-23,9.783714294433594
2017-08-24,9.767380714416504
2017-08-25,9.898049354553223
2017-08-28,9.808213233947754
2017-08-29,9.791882514953613
2017-08-30,9.808213233947754
2017-08-31,9.840882301330566
2017-09-01,9.898049354553223
2017-09-05,9.734712600708008
2017-09-06,9.791882514953613
2017-09-07,9.555047035217285
2017-09-08,9.579545974731445
2017-09-11,9.77554702758789
2017-09-12,9.987881660461426
2017-09-13,10.167548179626465
2017-09-14,10.036882400512695
2017-09-15,10.036882400512695
2017-09-18,10.061381340026855
2017-09-19,10.069548606872559
2017-09-20,10.126715660095215
2017-09-21,10.241048812866211
2017-09-22,10.2573823928833
2017-09-25,10.347220420837402
2017-09-26,10.44521713256836
2017-09-27,10.526885032653809
2017-09-28,10.510550498962402
2017-09-29,10.526885032653809
2017-10-02,10.592218399047852
2017-10-03,10.575884819030762
2017-10-04,10.469715118408203
2017-10-05,10.608551025390625
2017-10-06,10.592218399047852
2017-10-09,10.461551666259766
2017-10-10,10.526885032653809
2017-10-11,10.486050605773926
2017-10-12,10.461551666259766
2017-10-13,10.42888355255127
2017-10-16,10.453383445739746
2017-10-17,10.388050079345703
2017-10-18,10.396217346191406
2017-10-19,10.420717239379883
2017-10-20,10.494216918945312
2017-10-23,10.3798828125
2017-10-24,10.42888355255127
2017-10-25,10.20838451385498
2017-10-26,10.388050079345703
2017-10-27,10.494216918945312
2017-10-30,10.241048812866211
2017-10-31,10.2573823928833
2017-11-01,10.200216293334961
2017-11-02,10.290047645568848
2017-11-03,10.281882286071777
2017-11-06,10.273605346679688
2017-11-07,10.091477394104004
2017-11-08,9.975580215454102
2017-11-09,9.934186935424805
2017-11-10,10.033529281616211
2017-11-13,10.579907417297363
2017-11-14,10.737199783325195
2017-11-15,10.546794891357422
2017-11-16,10.48056697845459
2017-11-17,10.521958351135254
2017-11-20,10.712363243103027
2017-11-21,10.654414176940918
2017-11-22,10.6295804977417
2017-11-24,10.555071830749512
2017-11-27,10.530238151550293
2017-11-28,10.786870956420898
2017-11-29,11.159401893615723
2017-11-30,11.043502807617188
2017-12-01,10.977276802062988
2017-12-04,11.283581733703613
2017-12-05,11.167682647705078
2017-12-06,11.035225868225098
2017-12-07,11.060060501098633
2017-12-08,11.051782608032227
2017-12-11,10.919325828552246
2017-12-12,10.952439308166504
2017-12-13,10.803426742553711
2017-12-14,10.67097282409668
2017-12-15,10.861377716064453
2017-12-18,10.977276802062988
2017-12-19,11.01038932800293
2017-12-20,10.977276802062988
2017-12-21,11.051782608032227
2017-12-22,10.9938325881958
2017-12-26,10.927606582641602
2017-12-27,10.844820022583008
2017-12-28,10.86965560913086
2017-12-29,10.77859115600586
2018-01-02,10.819984436035156
2018-01-03,10.894492149353027
2018-01-04,10.886213302612305
2018-01-05,10.819984436035156
2018-01-08,10.77859115600586
2018-01-09,10.86965560913086
2018-01-10,11.217352867126465
2018-01-11,11.407757759094238
2018-01-12,11.291858673095703
2018-01-16,11.225630760192871
2018-01-17,11.333250045776367
2018-01-18,11.358088493347168
2018-01-19,11.507098197937012
2018-01-22,11.57332706451416
2018-01-23,11.515378952026367
2018-01-24,11.4905424118042
2018-01-25,11.548490524291992
2018-01-26,11.589883804321289
2018-01-29,11.67266845703125
2018-01-30,11.540213584899902
2018-01-31,11.72234058380127
2018-02-01,11.755454063415527
2018-02-02,11.523655891418457
2018-02-05,11.192516326904297
2018-02-06,11.267023086547852
2018-02-07,11.291858673095703
2018-02-08,10.96899700164795
2018-02-09,11.250466346740723
2018-02-12,11.267232894897461
2018-02-13,11.351065635681152
2018-02-14,11.610953330993652
2018-02-15,11.761853218078613
2018-02-16,11.879219055175781
2018-02-20,11.812151908874512
2018-02-21,11.837301254272461
2018-02-22,11.661252975463867
2018-02-23,11.795384407043457
2018-02-26,11.795384407043457
2018-02-27,11.745084762573242
2018-02-28,11.418134689331055
2018-03-01,11.560650825500488
2018-03-02,11.86245059967041
2018-03-05,11.937901496887207
2018-03-06,12.038501739501953
2018-03-07,12.088801383972168
2018-03-08,11.971435546875
2018-03-09,12.1391019821167
2018-03-12,12.122335433959961
2018-03-13,12.055267333984375
2018-03-14,11.870835304260254
2018-03-15,11.879219055175781
2018-03-16,11.828919410705566
2018-03-19,11.8037691116333
2018-03-20,11.778617858886719
2018-03-21,11.8037691116333
2018-03-22,11.300765037536621
2018-03-23,10.906749725341797
2018-03-26,11.141483306884766
2018-03-27,10.78938102722168
2018-03-28,10.856449127197266
2018-03-29,10.923515319824219
2018-04-02,10.713930130004883
2018-04-03,10.697165489196777
2018-04-04,10.72231388092041
2018-04-05,10.80614948272705
2018-04-06,10.529497146606445
2018-04-09,10.521113395690918
2018-04-10,10.655247688293457
2018-04-11,10.621715545654297
2018-04-12,10.780997276306152
2018-04-13,10.630098342895508
2018-04-16,10.638480186462402
2018-04-17,10.46242904663086
2018-04-18,10.428895950317383
2018-04-19,10.554648399353027
2018-04-20,10.596565246582031
2018-04-23,10.780997276306152
2018-04-24,10.864831924438477
2018-04-25,10.093563079833984
2018-04-26,9.976195335388184
2018-04-27,10.034880638122559
2018-04-30,9.959428787231445
2018-05-01,9.942663192749023
2018-05-02,10.00973129272461
2018-05-03,9.951045989990234
2018-05-04,10.076797485351562
2018-05-07,9.957745552062988
2018-05-08,9.821687698364258
2018-05-09,9.9407377243042
2018-05-10,9.966248512268066
2018-05-11,9.932235717773438
2018-05-14,10.051286697387695
2018-05-15,10.144826889038086
2018-05-16,10.178840637207031
2018-05-17,10.263875961303711
2018-05-18,10.22986125946045
2018-05-21,10.204349517822266
2018-05-22,10.246870040893555
2018-05-23,10.187342643737793
2018-05-24,10.136321067810059
2018-05-25,10.110812187194824
2018-05-29,9.83869457244873
2018-05-30,9.932235717773438
2018-05-31,9.85570240020752
2018-06-01,9.872708320617676
2018-06-04,10.000264167785645
2018-06-05,9.966248512268066
2018-06-06,10.110812187194824
2018-06-07,10.136321067810059
2018-06-08,10.195846557617188
2018-06-11,10.110812187194824
2018-06-12,10.093805313110352
2018-06-13,9.830192565917969
2018-06-14,9.813183784484863
2018-06-15,9.779170989990234
2018-06-18,9.804679870605469
2018-06-19,9.872708320617676
2018-06-20,9.75365924835205
2018-06-21,9.770666122436523
2018-06-22,9.70263671875
2018-06-25,9.651615142822266
2018-06-26,9.56657886505127
2018-06-27,9.4645357131958
2018-06-28,9.456031799316406
2018-06-29,9.388002395629883
2018-07-02,9.379498481750488
2018-07-03,9.413512229919434
2018-07-05,9.558073997497559
2018-07-06,9.583586692810059
2018-07-09,9.923730850219727
2018-07-10,9.821687698364258
2018-07-11,9.804679870605469
2018-07-12,9.719645500183105
2018-07-13,9.711140632629395
2018-07-16,9.770666122436523
2018-07-17,9.770666122436523
2018-07-18,9.787674903869629
2018-07-19,9.719645500183105
2018-07-20,9.70263671875
2018-07-23,9.813183784484863
2018-07-24,9.70263671875
2018-07-25,8.94581413269043
2018-07-26,8.971324920654297
2018-07-27,9.107382774353027
2018-07-30,9.209427833557129
2018-07-31,9.158406257629395
2018-08-01,9.141397476196289
2018-08-02,9.141397476196289
2018-08-03,9.124391555786133
2018-08-06,9.089828491210938
2018-08-07,9.133030891418457
2018-08-08,9.331764221191406
2018-08-09,9.262639045715332
2018-08-10,9.167593002319336
2018-08-13,9.158952713012695
2018-08-14,9.279919624328613
2018-08-15,9.167593002319336
2018-08-16,9.297201156616211
2018-08-17,9.374964714050293
2018-08-20,9.392247200012207
2018-08-21,9.54777717590332
2018-08-22,9.478652954101562
2018-08-23,9.374964714050293
2018-08-24,9.305842399597168
2018-08-27,9.409527778625488
2018-08-28,9.43544864654541
2018-08-29,9.42680835723877
2018-08-30,9.366325378417969
2018-08-31,9.305842399597168
2018-09-04,9.366325378417969
2018-09-05,9.409527778625488
2018-09-06,9.521854400634766
2018-09-07,9.452729225158691
2018-09-10,9.452729225158691
2018-09-11,9.42680835723877
2018-09-12,9.409527778625488
2018-09-13,9.366325378417969
2018-09-14,9.400886535644531
2018-09-17,9.32312297821045
2018-09-18,9.202155113220215
2018-09-19,9.297201156616211
2018-09-20,9.487292289733887
2018-09-21,9.5045747756958
2018-09-24,9.098466873168945
2018-09-25,9.089828491210938
2018-09-26,8.968860626220703
2018-09-27,8.8651762008667
2018-09-28,8.960220336914062
2018-10-01,8.8651762008667
2018-10-02,8.87381649017334
2018-10-03,9.072547912597656
2018-10-04,9.124390602111816
2018-10-05,9.098466873168945
2018-10-08,9.236717224121094
2018-10-09,9.124390602111816
2018-10-10,9.081188201904297
2018-10-11,8.744208335876465
2018-10-12,8.510912895202637
2018-10-15,8.510912895202637
2018-10-16,8.536835670471191
2018-10-17,8.56275749206543
2018-10-18,8.510912895202637
2018-10-19,8.476350784301758
2018-10-22,8.104809761047363
2018-10-23,8.130732536315918
2018-10-24,7.854234218597412
2018-10-25,7.888796329498291
2018-10-26,8.018402099609375
2018-10-29,8.078888893127441
2018-10-30,8.338103294372559
2018-10-31,8.277620315551758
2018-11-01,8.476350784301758
2018-11-02,8.476350784301758
2018-11-05,8.520317077636719
2018-11-06,8.555488586425781
2018-11-07,8.643416404724121
2018-11-08,8.599452018737793
2018-11-09,8.441180229187012
2018-11-12,8.309286117553711
2018-11-13,8.432387351989746
2018-11-14,8.291701316833496
2018-11-15,8.353252410888672
2018-11-16,8.28290843963623
2018-11-19,8.432387351989746
2018-11-20,8.458765029907227
2018-11-21,8.370837211608887
2018-11-23,8.458765029907227
2018-11-26,8.696173667907715
2018-11-27,8.669795989990234
2018-11-28,8.986340522766113
2018-11-29,9.285297393798828
2018-11-30,9.346848487854004
2018-12-03,9.20616340637207
2018-12-04,8.995133399963379
2018-12-06,9.047890663146973
2018-12-07,8.836860656738281
2018-12-10,8.573074340820312
2018-12-11,8.441180229187012
2018-12-12,8.68738079071045
2018-12-13,8.353252410888672
2018-12-14,8.28290843963623
2018-12-17,8.168601036071777
2018-12-18,8.124634742736816
2018-12-19,7.869641304016113
2018-12-20,7.860848903656006
2018-12-21,7.7201619148254395
2018-12-24,7.702578067779541
2018-12-26,8.027914047241211
2018-12-27,7.922399997711182
2018-12-28,8.098257064819336
2018-12-31,8.274116516113281
2019-01-02,8.406007766723633
2019-01-03,8.511523246765137
2019-01-04,8.740138053894043
2019-01-07,8.696173667907715
2019-01-08,8.828067779541016
2019-01-09,8.880825996398926
2019-01-10,8.933581352233887
2019-01-11,8.889618873596191
2019-01-14,8.942374229431152
2019-01-15,8.907204627990723
2019-01-16,8.942374229431152
2019-01-17,9.135818481445312
2019-01-18,9.29409122467041
2019-01-22,9.285297393798828
2019-01-23,9.311676979064941
2019-01-24,9.320469856262207
2019-01-25,9.408397674560547
2019-01-28,9.549084663391113
2019-01-29,9.557877540588379
2019-01-30,10.050280570983887
2019-01-31,10.217344284057617
2019-02-01,10.525096893310547
2019-02-04,10.41958236694336
2019-02-05,10.393203735351562
2019-02-06,10.577853202819824
2019-02-07,10.542680740356445
2019-02-08,10.533888816833496
2019-02-11,10.542808532714844
2019-02-12,10.658761024475098
2019-02-13,10.756875991821289
2019-02-14,10.623083114624023
2019-02-15,10.747956275939941
2019-02-19,10.926346778869629
2019-02-20,10.926346778869629
2019-02-21,10.917427062988281
2019-02-22,11.006621360778809
2019-02-25,10.96202278137207
2019-02-26,10.917427062988281
2019-02-27,11.09581470489502
2019-02-28,11.158251762390137
2019-03-01,11.283124923706055
2019-03-04,11.247446060180664
2019-03-05,11.211769104003906
2019-03-06,11.042298316955566
2019-03-07,10.89958667755127
2019-03-08,10.89958667755127
2019-03-11,10.721199035644531
2019-03-12,10.7122802734375
2019-03-13,10.7122802734375
2019-03-14,10.73011589050293
2019-03-15,10.73011589050293
2019-03-18,10.890668869018555
2019-03-19,10.667681694030762
2019-03-20,10.337661743164062
2019-03-21,10.453614234924316
2019-03-22,10.25738525390625
2019-03-25,10.159272193908691
2019-03-26,10.417937278747559
2019-03-27,10.400096893310547
2019-03-28,10.507129669189453
2019-03-29,10.31982135772705
2019-04-01,10.516051292419434
2019-04-02,10.400096893310547
2019-04-03,10.462532043457031
2019-04-04,10.533889770507812
2019-04-05,10.551728248596191
2019-04-08,10.560647964477539
2019-04-09,10.471453666687012
2019-04-10,10.587406158447266
2019-04-11,10.649840354919434
2019-04-12,10.70335865020752
2019-04-15,10.623083114624023
2019-04-16,10.649840354919434
2019-04-17,10.17711067199707
2019-04-18,10.150351524353027
2019-04-22,10.08791732788086
2019-04-23,10.096835136413574
2019-04-24,10.150351524353027
2019-04-25,9.998723030090332
2019-04-26,10.1235933303833
2019-04-29,10.186031341552734
2019-04-30,10.373339653015137
2019-05-01,10.150351524353027
2019-05-02,10.248465538024902
2019-05-03,10.337661743164062
2019-05-06,10.301982879638672
2019-05-07,10.11467456817627
2019-05-08,10.025479316711426
2019-05-09,10.03439998626709
2019-05-10,10.078997611999512
2019-05-13,9.87977123260498
2019-05-14,9.961274147033691
2019-05-15,9.662435531616211
2019-05-16,9.553765296936035
2019-05-17,9.48132038116455
2019-05-20,9.318318367004395
2019-05-21,9.381706237792969
2019-05-22,9.273038864135742
2019-05-23,9.209649085998535
2019-05-24,9.218706130981445
2019-05-28,9.073813438415527
2019-05-29,9.318318367004395
2019-05-30,8.99231243133545
2019-05-31,8.99231243133545
2019-06-03,9.164371490478516
2019-06-04,9.273038864135742
2019-06-05,9.309261322021484
2019-06-06,9.22775936126709
2019-06-07,9.146259307861328
2019-06-10,9.209649085998535
2019-06-11,9.399819374084473
2019-06-12,8.82931137084961
2019-06-13,8.738752365112305
2019-06-14,8.729698181152344
2019-06-17,8.711586952209473
2019-06-18,8.657251358032227
2019-06-19,8.684418678283691
2019-06-20,8.639139175415039
2019-06-21,8.66630744934082
2019-06-24,8.693474769592285
2019-06-25,8.874588966369629
2019-06-26,8.82931137084961
2019-06-27,8.910812377929688
2019-06-28,9.037590980529785
2019-07-01,9.155314445495605
2019-07-02,9.146259307861328
2019-07-03,9.273038864135742
2019-07-05,9.245872497558594
2019-07-08,9.191537857055664
2019-07-09,9.245872497558594
2019-07-10,9.245872497558594
2019-07-11,9.345484733581543
2019-07-12,9.526598930358887
2019-07-15,9.499431610107422
2019-07-16,9.553765296936035
2019-07-17,9.599045753479004
2019-07-18,9.580933570861816
2019-07-19,9.608099937438965
2019-07-22,9.617156028747559
2019-07-23,9.698657989501953
2019-07-24,9.870715141296387
2019-07-25,9.680545806884766
2019-07-26,9.843547821044922
2019-07-29,9.888827323913574
2019-07-30,10.142387390136719
2019-07-31,10.441225051879883
2019-08-01,10.495560646057129
2019-08-02,10.459336280822754
2019-08-05,10.359722137451172
2019-08-06,10.441225051879883
2019-08-07,10.432168960571289
2019-08-08,10.61328411102295
2019-08-09,10.558148384094238
2019-08-12,10.438693046569824
2019-08-13,10.493826866149902
2019-08-14,10.264102935791016
2019-08-15,10.227346420288086
2019-08-16,10.57652759552002
2019-08-19,10.686796188354492
2019-08-20,10.447881698608398
2019-08-21,10.521393775939941
2019-08-22,10.650040626525879
2019-08-23,10.484636306762695
2019-08-26,10.54896068572998
2019-08-27,10.383559226989746
2019-08-28,10.365180969238281
2019-08-29,10.447881698608398
2019-08-30,10.604093551635742
2019-09-03,10.530582427978516
2019-09-04,10.640850067138672
2019-09-05,10.9624662399292
2019-09-06,11.155433654785156
2019-09-09,11.58731746673584
2019-09-10,11.761907577514648
2019-09-11,12.08352279663086
2019-09-12,12.074333190917969
2019-09-13,11.835419654846191
2019-09-16,11.798664093017578
2019-09-17,11.771098136901855
2019-09-18,11.660828590393066
2019-09-19,11.541370391845703
2019-09-20,11.46785831451416
2019-09-23,11.633260726928711
2019-09-24,11.58731746673584
2019-09-25,11.761907577514648
2019-09-26,11.725151062011719
2019-09-27,11.651639938354492
2019-09-30,11.532183647155762
2019-10-01,11.486237525939941
2019-10-02,11.5597505569458
2019-10-03,11.670018196105957
2019-10-04,11.761907577514648
2019-10-07,11.752717971801758
2019-10-08,11.651639938354492
2019-10-09,11.725151062011719
2019-10-10,11.936497688293457
2019-10-11,11.964065551757812
2019-10-14,11.918120384216309
2019-10-15,11.964065551757812
2019-10-16,11.964065551757812
2019-10-17,12.010009765625
2019-10-18,12.010009765625
2019-10-21,12.157033920288086
2019-10-22,12.12027645111084
2019-10-23,12.202978134155273
2019-10-24,12.2764892578125
2019-10-25,12.386757850646973
2019-10-28,12.386757850646973
2019-10-29,12.579728126525879
2019-10-30,10.879764556884766
2019-10-31,10.705174446105957
2019-11-01,10.741929054260254
2019-11-04,10.999220848083496
2019-11-05,11.146245002746582
2019-11-06,11.192190170288086
2019-11-07,11.089679718017578
2019-11-08,11.27606201171875
2019-11-11,11.25742244720459
2019-11-12,11.25742244720459
2019-11-13,11.25742244720459
2019-11-14,11.313338279724121
2019-11-15,11.331974983215332
2019-11-18,11.415848731994629
2019-11-19,11.378570556640625
2019-11-20,11.490400314331055
2019-11-21,11.313338279724121
2019-11-22,11.201509475708008
2019-11-25,11.14559555053711
2019-11-26,11.061723709106445
2019-11-27,11.098999977111816
2019-11-29,11.108319282531738
2019-12-02,10.996489524841309
2019-12-03,10.959214210510254
2019-12-04,10.959214210510254
2019-12-05,10.931256294250488
2019-12-06,11.07104206085205
2019-12-09,11.098999977111816
2019-12-10,10.940574645996094
2019-12-11,10.987170219421387
2019-12-12,11.210826873779297
2019-12-13,11.108319282531738
2019-12-16,11.154914855957031
2019-12-17,11.201509475708008
2019-12-18,11.201509475708008
2019-12-19,11.173552513122559
2019-12-20,11.136275291442871
2019-12-23,11.052404403686523
2019-12-24,11.033766746520996
2019-12-26,11.07104206085205
2019-12-27,10.987170219421387
2019-12-30,11.005809783935547
2019-12-31,11.201509475708008
