Date,O
2007-12-31,13.9943208694458
2008-01-02,13.067240715026855
2008-01-03,12.76684284210205
2008-01-04,11.73099136352539
2008-01-07,12.109075546264648
2008-01-08,11.472028732299805
2008-01-09,11.762066841125488
2008-01-10,11.93298053741455
2008-01-11,11.95887565612793
2008-01-14,11.653303146362305
2008-01-15,11.435775756835938
2008-01-16,11.446133613586426
2008-01-17,11.249320030212402
2008-01-18,11.12501335144043
2008-01-22,11.466854095458984
2008-01-23,12.74094009399414
2008-01-24,12.212658882141113
2008-01-25,12.129790306091309
2008-01-28,12.559671401977539
2008-01-29,12.445724487304688
2008-01-30,12.272137641906738
2008-01-31,12.668013572692871
2008-02-01,13.10035228729248
2008-02-04,12.819076538085938
2008-02-05,12.673222541809082
2008-02-06,12.110664367675781
2008-02-07,12.522160530090332
2008-02-08,12.027315139770508
2008-02-11,11.657489776611328
2008-02-12,12.074201583862305
2008-02-13,12.240883827209473
2008-02-14,12.136714935302734
2008-02-15,12.329436302185059
2008-02-19,12.324224472045898
2008-02-20,12.501327514648438
2008-02-21,12.209625244140625
2008-02-22,12.511748313903809
2008-02-25,12.933673858642578
2008-02-26,12.84511947631836
2008-02-27,12.704472541809082
2008-02-28,12.131797790527344
2008-02-29,12.053229331970215
2008-03-03,12.19990348815918
2008-03-04,12.40419864654541
2008-03-05,12.425146102905273
2008-03-06,11.83846378326416
2008-03-07,12.068947792053223
2008-03-10,11.96942138671875
2008-03-11,12.63991641998291
2008-03-12,12.45134162902832
2008-03-13,12.912303924560547
2008-03-14,12.786585807800293
2008-03-17,12.9751615524292
2008-03-18,13.745192527770996
2008-03-19,13.907578468322754
2008-03-20,14.096160888671875
2008-03-24,14.075201034545898
2008-03-25,14.227107048034668
2008-03-26,13.73471450805664
2008-03-27,13.540884971618652
2008-03-28,13.471051216125488
2008-03-31,13.492125511169434
2008-04-01,13.708027839660645
2008-04-02,13.644837379455566
2008-04-03,13.787026405334473
2008-04-04,13.734358787536621
2008-04-07,13.734358787536621
2008-04-08,13.87129020690918
2008-04-09,13.550043106079102
2008-04-10,13.639571189880371
2008-04-11,13.291997909545898
2008-04-14,13.460521697998047
2008-04-15,13.892354965209961
2008-04-16,14.218857765197754
2008-04-17,14.229394912719727
2008-04-18,14.197793960571289
2008-04-21,14.187262535095215
2008-04-22,13.939745903015137
2008-04-23,14.218857765197754
2008-04-24,14.540099143981934
2008-04-25,14.640159606933594
2008-04-28,14.798141479492188
2008-04-29,14.314983367919922
2008-04-30,13.92336368560791
2008-05-01,13.510592460632324
2008-05-02,13.298911094665527
2008-05-05,13.500011444091797
2008-05-06,13.531754493713379
2008-05-07,13.039606094360352
2008-05-08,12.986678123474121
2008-05-09,12.695613861083984
2008-05-12,12.944343566894531
2008-05-13,12.933753967285156
2008-05-14,13.060771942138672
2008-05-15,13.251291275024414
2008-05-16,13.12956714630127
2008-05-19,12.976094245910645
2008-05-20,12.939051628112793
2008-05-21,12.896717071533203
2008-05-22,12.62153148651123
2008-05-23,12.589776992797852
2008-05-27,12.753828048706055
2008-05-28,12.76441764831543
2008-05-29,12.97059154510498
2008-05-30,13.039779663085938
2008-06-02,12.736401557922363
2008-06-03,12.768336296081543
2008-06-04,12.837533950805664
2008-06-05,13.114294052124023
2008-06-06,12.688509941101074
2008-06-09,12.48093032836914
2008-06-10,12.486250877380371
2008-06-11,12.241432189941406
2008-06-12,12.576741218566895
2008-06-13,12.699149131774902
2008-06-16,12.768336296081543
2008-06-17,12.496896743774414
2008-06-18,12.61398696899414
2008-06-19,12.853499412536621
2008-06-20,12.486250877380371
2008-06-23,12.4117431640625
2008-06-24,12.464975357055664
2008-06-25,12.464975357055664
2008-06-26,12.433032989501953
2008-06-27,12.265984535217285
2008-06-30,12.185674667358398
2008-07-01,12.314177513122559
2008-07-02,12.308823585510254
2008-07-03,12.164265632629395
2008-07-07,11.805545806884766
2008-07-08,12.78531551361084
2008-07-09,12.035765647888184
2008-07-10,12.319525718688965
2008-07-11,12.635406494140625
2008-07-14,11.778768539428711
2008-07-15,12.0946626663208
2008-07-16,13.283241271972656
2008-07-17,13.31002426147461
2008-07-18,13.165453910827637
2008-07-21,13.224345207214355
2008-07-22,13.818638801574707
2008-07-23,13.963189125061035
2008-07-24,13.05837631225586
2008-07-25,13.202927589416504
2008-07-28,13.208284378051758
2008-07-29,13.931075096130371
2008-07-30,13.854645729064941
2008-07-31,13.558609962463379
2008-08-01,13.65010929107666
2008-08-04,13.456340789794922
2008-08-05,13.98919677734375
2008-08-06,13.580135345458984
2008-08-07,13.197972297668457
2008-08-08,13.456340789794922
2008-08-11,13.623196601867676
2008-08-12,13.61781120300293
2008-08-13,13.693171501159668
2008-08-14,13.940762519836426
2008-08-15,13.816959381103516
2008-08-18,13.590887069702148
2008-08-19,13.515541076660156
2008-08-20,13.623196601867676
2008-08-21,13.461718559265137
2008-08-22,13.838500022888184
2008-08-25,13.504773139953613
2008-08-26,13.698548316955566
2008-08-27,13.76853084564209
2008-08-28,14.131416320800781
2008-08-29,13.898690223693848
2008-09-02,13.996105194091797
2008-09-03,14.250482559204102
2008-09-04,13.84997844696045
2008-09-05,13.655138969421387
2008-09-08,13.90952205657959
2008-09-09,13.69301700592041
2008-09-10,13.736315727233887
2008-09-11,13.676778793334961
2008-09-12,14.050230026245117
2008-09-15,13.254627227783203
2008-09-16,14.228833198547363
2008-09-17,14.001518249511719
2008-09-18,16.409975051879883
2008-09-19,15.695554733276367
2008-09-22,14.775474548339844
2008-09-23,14.66722583770752
2008-09-24,14.515678405761719
2008-09-25,14.40744400024414
2008-09-26,14.580645561218262
2008-09-29,13.460448265075684
2008-09-30,13.928351402282715
2008-10-01,14.292880058288574
2008-10-02,13.460448265075684
2008-10-03,13.019744873046875
2008-10-06,12.68242359161377
2008-10-07,11.926156997680664
2008-10-08,11.68675708770752
2008-10-09,11.10460376739502
2008-10-10,13.32987117767334
2008-10-13,14.086136817932129
2008-10-14,13.036065101623535
2008-10-15,11.539860725402832
2008-10-16,12.910934448242188
2008-10-17,12.209066390991211
2008-10-20,12.274364471435547
2008-10-21,11.817333221435547
2008-10-22,11.224294662475586
2008-10-23,11.741165161132812
2008-10-24,11.289575576782227
2008-10-27,10.41362476348877
2008-10-28,12.660653114318848
2008-10-29,11.953350067138672
2008-10-30,12.025097846984863
2008-10-31,12.660293579101562
2008-11-03,12.359123229980469
2008-11-04,12.583626747131348
2008-11-05,11.384414672851562
2008-11-06,11.044900894165039
2008-11-07,11.608925819396973
2008-11-10,10.858724594116211
2008-11-11,10.820389747619629
2008-11-12,10.469935417175293
2008-11-13,11.51034927368164
2008-11-14,10.530169486999512
2008-11-17,9.988057136535645
2008-11-18,9.922346115112305
2008-11-19,8.89287281036377
2008-11-20,8.471223831176758
2008-11-21,9.473321914672852
2008-11-24,11.099665641784668
2008-11-25,11.488451957702637
2008-11-26,11.511054039001465
2008-11-28,11.130664825439453
2008-12-01,8.93099308013916
2008-12-02,9.967427253723145
2008-12-03,10.375389099121094
2008-12-04,10.254104614257812
2008-12-05,11.35118579864502
2008-12-08,12.404155731201172
2008-12-09,11.450417518615723
2008-12-10,12.387616157531738
2008-12-11,10.507697105407715
2008-12-12,11.48348617553711
2008-12-15,11.26848030090332
2008-12-16,12.894804954528809
2008-12-17,13.231101036071777
2008-12-18,12.690816879272461
2008-12-19,13.528794288635254
2008-12-22,13.231101036071777
2008-12-23,13.368922233581543
2008-12-24,12.966477394104004
2008-12-26,12.927882194519043
2008-12-29,12.39312744140625
2008-12-30,12.63280200958252
2008-12-31,12.843624114990234
2009-01-02,12.322112083435059
2009-01-05,11.900466918945312
2009-01-06,12.549580574035645
2009-01-07,12.016968727111816
2009-01-08,11.83944320678711
2009-01-09,11.256898880004883
2009-01-12,10.824156761169434
2009-01-13,11.16812801361084
2009-01-14,10.624422073364258
2009-01-15,11.140386581420898
2009-01-16,11.445533752441406
2009-01-20,10.258258819580078
2009-01-21,11.19032096862793
2009-01-22,10.56340217590332
2009-01-23,10.829695701599121
2009-01-26,10.70763874053955
2009-01-27,11.034975051879883
2009-01-28,11.922656059265137
2009-01-29,10.901604652404785
2009-01-30,10.761983871459961
2009-02-02,11.057984352111816
2009-02-03,10.812251091003418
2009-02-04,10.683798789978027
2009-02-05,10.527421951293945
2009-02-06,11.186430931091309
2009-02-09,11.275790214538574
2009-02-10,10.421310424804688
2009-02-11,10.538592338562012
2009-02-12,10.812251091003418
2009-02-13,10.421310424804688
2009-02-17,10.108558654785156
2009-02-18,10.237010955810547
2009-02-19,9.71203899383545
2009-02-20,10.30961799621582
2009-02-23,9.801392555236816
2009-02-24,10.415727615356445
2009-02-25,10.225841522216797
2009-02-26,9.962296485900879
2009-02-27,9.866613388061523
2009-03-02,9.495135307312012
2009-03-03,9.466996192932129
2009-03-04,9.506392478942871
2009-03-05,8.797211647033691
2009-03-06,8.459504127502441
2009-03-09,8.588959693908691
2009-03-10,9.48950481414795
2009-03-11,9.219344139099121
2009-03-12,9.652729988098145
2009-03-13,9.450108528137207
2009-03-16,8.83098030090332
2009-03-17,9.444472312927246
2009-03-18,9.962296485900879
2009-03-19,9.557043075561523
2009-03-20,9.039230346679688
2009-03-23,10.44633674621582
2009-03-24,9.748412132263184
2009-03-25,9.860980987548828
2009-03-26,10.474480628967285
2009-03-27,10.153660774230957
2009-03-30,9.769058227539062
2009-03-31,10.676755905151367
2009-04-01,10.710789680480957
2009-04-02,11.33482551574707
2009-04-03,12.100699424743652
2009-04-06,11.834073066711426
2009-04-07,10.920690536499023
2009-04-08,11.107906341552734
2009-04-09,12.492144584655762
2009-04-13,12.304924964904785
2009-04-14,11.505026817321777
2009-04-15,12.112044334411621
2009-04-16,12.44107723236084
2009-04-17,12.480798721313477
2009-04-20,11.36319637298584
2009-04-21,12.458108901977539
2009-04-22,12.095024108886719
2009-04-23,12.401369094848633
2009-04-24,12.707724571228027
2009-04-27,12.242534637451172
2009-04-28,12.39570140838623
2009-04-29,12.813726425170898
2009-04-30,12.7509126663208
2009-05-01,12.048559188842773
2009-05-04,12.808016777038574
2009-05-05,12.276957511901855
2009-05-06,12.85940170288086
2009-05-07,12.225573539733887
2009-05-08,12.665260314941406
2009-05-11,12.168464660644531
2009-05-12,12.254127502441406
2009-05-13,11.711650848388672
2009-05-14,11.957188606262207
2009-05-15,11.483251571655273
2009-05-18,12.236990928649902
2009-05-19,11.98003101348877
2009-05-20,11.957188606262207
2009-05-21,12.368330955505371
2009-05-22,11.945771217346191
2009-05-26,12.56247329711914
2009-05-27,12.128495216369629
2009-05-28,12.382584571838379
2009-05-29,12.342354774475098
2009-06-01,12.710264205932617
2009-06-02,12.750503540039062
2009-06-03,12.922953605651855
2009-06-04,13.204647064208984
2009-06-05,13.06667709350586
2009-06-08,13.06667709350586
2009-06-09,12.997696876525879
2009-06-10,12.756244659423828
2009-06-11,12.566545486450195
2009-06-12,12.922953605651855
2009-06-15,12.503308296203613
2009-06-16,12.497557640075684
2009-06-17,12.572296142578125
2009-06-18,12.779245376586914
2009-06-19,12.945951461791992
2009-06-22,12.629776954650879
2009-06-23,12.784991264343262
2009-06-24,12.928705215454102
2009-06-25,13.26213264465332
2009-06-26,12.52630615234375
2009-06-29,12.516105651855469
2009-06-30,12.683911323547363
2009-07-01,12.869074821472168
2009-07-02,12.30199909210205
2009-07-06,12.70705795288086
2009-07-07,12.29622745513916
2009-07-08,12.099481582641602
2009-07-09,11.821730613708496
2009-07-10,11.75808048248291
2009-07-13,12.255722045898438
2009-07-14,12.261503219604492
2009-07-15,12.695487976074219
2009-07-16,12.816998481750488
2009-07-17,12.724416732788086
2009-07-20,12.979022026062012
2009-07-21,13.054247856140137
2009-07-22,13.036886215209961
2009-07-23,13.256772994995117
2009-07-24,13.18734073638916
2009-07-27,13.546098709106445
2009-07-28,13.580818176269531
2009-07-29,13.494011878967285
2009-07-30,13.75738525390625
2009-07-31,13.728285789489746
2009-08-03,13.920403480529785
2009-08-04,14.712203025817871
2009-08-05,14.875201225280762
2009-08-06,14.764595031738281
2009-08-07,15.259467124938965
2009-08-10,14.712203025817871
2009-08-11,14.333768844604492
2009-08-12,14.380349159240723
2009-08-13,14.426926612854004
2009-08-14,14.287189483642578
2009-08-17,13.734099388122559
2009-08-18,13.803966522216797
2009-08-19,13.856369972229004
2009-08-20,14.432743072509766
2009-08-21,14.636509895324707
2009-08-24,14.671442985534668
2009-08-25,14.752952575683594
2009-08-26,14.886860847473145
2009-08-27,15.503988265991211
2009-08-28,15.177602767944336
2009-08-31,14.955161094665527
2009-09-01,14.492762565612793
2009-09-02,14.001076698303223
2009-09-03,14.40495777130127
2009-09-04,14.475198745727539
2009-09-08,14.820549011230469
2009-09-09,15.136628150939941
2009-09-10,15.14248275756836
2009-09-11,15.13077163696289
2009-09-14,15.001997947692871
2009-09-15,15.499523162841797
2009-09-16,16.090713500976562
2009-09-17,15.798044204711914
2009-09-18,15.762928009033203
2009-09-21,15.757075309753418
2009-09-22,16.119985580444336
2009-09-23,15.43514633178711
2009-09-24,14.92004680633545
2009-09-25,15.06638240814209
2009-09-28,15.511238098144531
2009-09-29,15.259944915771484
2009-09-30,15.095158576965332
2009-10-01,14.447802543640137
2009-10-02,14.177096366882324
2009-10-05,14.594937324523926
2009-10-06,14.541956901550293
2009-10-07,13.876960754394531
2009-10-08,14.053507804870605
2009-10-09,14.071160316467285
2009-10-12,14.06527042388916
2009-10-13,13.924029350280762
2009-10-14,14.135900497436523
2009-10-15,13.941694259643555
2009-10-16,13.765130043029785
2009-10-19,13.812215805053711
2009-10-20,13.65332317352295
2009-10-21,13.582711219787598
2009-10-22,13.929919242858887
2009-10-23,13.841645240783691
2009-10-26,14.006427764892578
2009-10-27,13.612129211425781
2009-10-28,13.088358879089355
2009-10-29,13.80663776397705
2009-10-30,13.729642868041992
2009-11-02,13.682257652282715
2009-11-03,13.741487503051758
2009-11-04,13.587483406066895
2009-11-05,13.83625316619873
2009-11-06,14.167943954467773
2009-11-09,14.475947380065918
2009-11-10,14.363409042358398
2009-11-11,14.594406127929688
2009-11-12,14.369324684143066
2009-11-13,14.558869361877441
2009-11-16,14.730634689331055
2009-11-17,14.606252670288086
2009-11-18,14.991243362426758
2009-11-19,14.72471809387207
2009-11-20,14.860941886901855
2009-11-23,14.872788429260254
2009-11-24,14.801713943481445
2009-11-25,14.866867065429688
2009-11-27,14.850774765014648
2009-11-30,15.065237998962402
2009-12-01,15.208196640014648
2009-12-02,15.249900817871094
2009-12-03,15.065237998962402
2009-12-04,15.380953788757324
2009-12-07,15.226076126098633
2009-12-08,15.130754470825195
2009-12-09,15.118846893310547
2009-12-10,15.118846893310547
2009-12-11,15.506057739257812
2009-12-14,15.720498085021973
2009-12-15,15.774114608764648
2009-12-16,15.756245613098145
2009-12-17,16.006446838378906
2009-12-18,16.32216453552246
2009-12-21,15.964737892150879
2009-12-22,15.827723503112793
2009-12-23,15.750293731689453
2009-12-24,16.077924728393555
2009-12-28,15.911127090454102
2009-12-29,15.899209976196289
2009-12-30,15.835132598876953
2009-12-31,15.517712593078613
2010-01-04,15.631498336791992
2010-01-05,15.895010948181152
2010-01-06,15.883047103881836
2010-01-07,16.21843147277832
2010-01-08,16.440019607543945
2010-01-11,16.314252853393555
2010-01-12,16.374143600463867
2010-01-13,16.5598087310791
2010-01-14,16.493934631347656
2010-01-15,16.463987350463867
2010-01-19,16.739477157592773
2010-01-20,16.487943649291992
2010-01-21,16.122600555419922
2010-01-22,15.73331356048584
2010-01-25,16.080690383911133
2010-01-26,16.33222770690918
2010-01-27,16.67359161376953
2010-01-28,16.72357177734375
2010-01-29,16.813861846923828
2010-02-01,16.771724700927734
2010-02-02,16.675411224365234
2010-02-03,16.29012680053711
2010-02-04,15.664039611816406
2010-02-05,15.724251747131348
2010-02-08,15.495489120483398
2010-02-09,15.363042831420898
2010-02-10,15.501513481140137
2010-02-11,15.67006778717041
2010-02-12,16.247989654541016
2010-02-16,16.765708923339844
2010-02-17,17.048643112182617
2010-02-18,17.30750846862793
2010-02-19,17.205167770385742
2010-02-22,17.036602020263672
2010-02-23,16.87407112121582
2010-02-24,17.042621612548828
2010-02-25,17.1291446685791
2010-02-26,16.94158172607422
2010-03-01,16.929481506347656
2010-03-02,16.923433303833008
2010-03-03,16.917377471923828
2010-03-04,16.977880477905273
2010-03-05,17.20780372619629
2010-03-08,17.310657501220703
2010-03-09,17.61925506591797
2010-03-10,17.679750442504883
2010-03-11,17.679750442504883
2010-03-12,17.649490356445312
2010-03-15,17.722103118896484
2010-03-16,18.10328483581543
2010-03-17,18.278764724731445
2010-03-18,18.44212532043457
2010-03-19,18.127504348754883
2010-03-22,18.411867141723633
2010-03-23,18.284809112548828
2010-03-24,18.53892707824707
2010-03-25,18.466318130493164
2010-03-26,18.61758804321289
2010-03-29,18.659940719604492
2010-03-30,18.680192947387695
2010-03-31,18.655874252319336
2010-04-01,18.50389862060547
2010-04-05,18.874711990356445
2010-04-06,19.16649627685547
2010-04-07,19.281982421875
2010-04-08,19.245519638061523
2010-04-09,19.300222396850586
2010-04-12,19.08746910095215
2010-04-13,19.440046310424805
2010-04-14,19.78046226501465
2010-04-15,19.379255294799805
2010-04-16,19.105712890625
2010-04-19,19.154338836669922
2010-04-20,19.433961868286133
2010-04-21,19.847320556640625
2010-04-22,20.14518928527832
2010-04-23,20.236364364624023
2010-04-26,20.406572341918945
2010-04-27,19.993213653564453
2010-04-28,20.163408279418945
2010-04-29,20.989643096923828
2010-04-30,20.0189208984375
2010-05-03,20.092182159423828
2010-05-04,19.438926696777344
2010-05-05,19.25576400756836
2010-05-06,18.327787399291992
2010-05-07,18.462093353271484
2010-05-10,19.463350296020508
2010-05-11,19.762483596801758
2010-05-12,19.970083236694336
2010-05-13,19.811338424682617
2010-05-14,19.371767044067383
2010-05-17,19.249662399291992
2010-05-18,19.07261085510254
2010-05-19,18.730716705322266
2010-05-20,18.101884841918945
2010-05-21,18.785675048828125
2010-05-24,18.517044067382812
2010-05-25,18.88945770263672
2010-05-26,18.724620819091797
2010-05-27,19.597644805908203
2010-05-28,19.100811004638672
2010-06-01,18.732789993286133
2010-06-02,19.24802589416504
2010-06-03,19.10695457458496
2010-06-04,18.15619659423828
2010-06-07,18.211402893066406
2010-06-08,18.567176818847656
2010-06-09,18.603973388671875
2010-06-10,19.30323028564453
2010-06-11,19.52405548095703
2010-06-14,19.781667709350586
2010-06-15,20.260114669799805
2010-06-16,19.941160202026367
2010-06-17,20.051565170288086
2010-06-18,19.68354034423828
2010-06-21,19.46885108947754
2010-06-22,18.941328048706055
2010-06-23,19.021074295043945
2010-06-24,18.800254821777344
2010-06-25,19.542444229125977
2010-06-28,19.223491668701172
2010-06-29,18.887035369873047
2010-06-30,18.689842224121094
2010-07-01,18.622066497802734
2010-07-02,18.671363830566406
2010-07-06,18.07362174987793
2010-07-07,19.139686584472656
2010-07-08,19.34304428100586
2010-07-09,19.47243881225586
2010-07-12,19.330711364746094
2010-07-13,19.663469314575195
2010-07-14,19.68195152282715
2010-07-15,19.620336532592773
2010-07-16,18.936330795288086
2010-07-19,19.0965576171875
2010-07-20,19.25676727294922
2010-07-21,18.905519485473633
2010-07-22,19.632659912109375
2010-07-23,19.786718368530273
2010-07-26,20.23655891418457
2010-07-27,20.211894989013672
2010-07-28,20.08864974975586
2010-07-29,19.68858528137207
2010-07-30,19.86188507080078
2010-08-02,20.517976760864258
2010-08-03,20.196123123168945
2010-08-04,20.245637893676758
2010-08-05,19.979482650756836
2010-08-06,20.047574996948242
2010-08-09,20.29515838623047
2010-08-10,20.258007049560547
2010-08-11,20.059953689575195
2010-08-12,19.78143310546875
2010-08-13,20.103282928466797
2010-08-16,20.208499908447266
2010-08-17,20.443700790405273
2010-08-18,20.319921493530273
2010-08-19,19.92378807067871
2010-08-20,19.849515914916992
2010-08-23,19.800003051757812
2010-08-24,19.86188507080078
2010-08-25,20.128042221069336
2010-08-26,20.041385650634766
2010-08-27,20.233261108398438
2010-08-30,20.036579132080078
2010-08-31,20.260377883911133
2010-09-01,20.801240921020508
2010-09-02,21.00017547607422
2010-09-03,21.00017547607422
2010-09-07,20.53392219543457
2010-09-08,20.620948791503906
2010-09-09,20.47174835205078
2010-09-10,20.558780670166016
2010-09-13,20.9566593170166
2010-09-14,21.10585594177246
2010-09-15,21.192895889282227
2010-09-16,21.00017547607422
2010-09-17,21.093425750732422
2010-09-20,21.578327178955078
2010-09-21,21.21154022216797
2010-09-22,21.031253814697266
2010-09-23,20.81989288330078
2010-09-24,21.018814086914062
2010-09-27,20.82610511779785
2010-09-28,21.025039672851562
2010-09-29,21.089937210083008
2010-09-30,21.052473068237305
2010-10-01,21.20854377746582
2010-10-04,21.352149963378906
2010-10-05,21.42706298828125
2010-10-06,21.43331527709961
2010-10-07,21.35839080810547
2010-10-08,21.36463737487793
2010-10-11,21.370882034301758
2010-10-12,21.51447105407715
2010-10-13,21.639333724975586
2010-10-14,21.402088165283203
2010-10-15,21.608137130737305
2010-10-18,21.90157127380371
2010-10-19,21.77045440673828
2010-10-20,22.25742530822754
2010-10-21,22.201244354248047
2010-10-22,22.157546997070312
2010-10-25,22.157546997070312
2010-10-26,21.951509475708008
2010-10-27,21.939023971557617
2010-10-28,21.5778865814209
2010-10-29,21.49011993408203
2010-11-01,21.59669303894043
2010-11-02,21.465049743652344
2010-11-03,21.508928298950195
2010-11-04,22.022993087768555
2010-11-05,22.079421997070312
2010-11-08,21.979103088378906
2010-11-09,21.433698654174805
2010-11-10,21.38355255126953
2010-11-11,21.339658737182617
2010-11-12,21.22681999206543
2010-11-15,21.20174217224121
2010-11-16,20.769184112548828
2010-11-17,21.095186233520508
2010-11-18,20.900836944580078
2010-11-19,21.120258331298828
2010-11-22,21.220552444458008
2010-11-23,21.20174217224121
2010-11-24,21.559080123901367
2010-11-26,21.565349578857422
2010-11-29,21.59934425354004
2010-11-30,21.43566131591797
2010-12-01,21.404190063476562
2010-12-02,21.467153549194336
2010-12-03,21.416778564453125
2010-12-06,21.303466796875
2010-12-07,21.44196128845215
2010-12-08,21.032764434814453
2010-12-09,20.91315269470215
2010-12-10,21.14608383178711
2010-12-13,21.30976104736328
2010-12-14,21.284582138061523
2010-12-15,20.875381469726562
2010-12-16,20.969806671142578
2010-12-17,21.334936141967773
2010-12-20,21.486024856567383
2010-12-21,21.630817413330078
2010-12-22,21.7882137298584
2010-12-23,21.542686462402344
2010-12-27,21.78190803527832
2010-12-28,21.813383102416992
2010-12-29,21.794492721557617
2010-12-30,21.752931594848633
2010-12-31,21.62018585205078
2011-01-03,21.86040687561035
2011-01-04,21.424203872680664
2011-01-05,21.405231475830078
2011-01-06,21.259845733642578
2011-01-07,21.37363624572754
2011-01-10,21.310422897338867
2011-01-11,21.209266662597656
2011-01-12,21.240877151489258
2011-01-13,21.291446685791016
2011-01-14,21.310422897338867
2011-01-18,21.759254455566406
2011-01-19,21.468460083007812
2011-01-20,21.30409049987793
2011-01-21,21.38626480102539
2011-01-24,21.613859176635742
2011-01-25,21.94890594482422
2011-01-26,22.00580406188965
2011-01-27,22.201766967773438
2011-01-28,21.9251708984375
2011-01-31,22.191774368286133
2011-02-01,22.26795196533203
2011-02-02,22.102901458740234
2011-02-03,22.21717071533203
2011-02-04,21.931507110595703
2011-02-07,22.109254837036133
2011-02-08,22.204465866088867
2011-02-09,22.128299713134766
2011-02-10,22.24256134033203
2011-02-11,22.090208053588867
2011-02-14,22.28065299987793
2011-02-15,22.077516555786133
2011-02-16,22.236221313476562
2011-02-17,22.413963317871094
2011-02-18,22.521852493286133
2011-02-22,22.51551628112793
2011-02-23,22.3758602142334
2011-02-24,22.2298641204834
2011-02-25,22.717004776000977
2011-02-28,22.927335739135742
2011-03-01,22.411048889160156
2011-03-02,22.23257827758789
2011-03-03,22.40467071533203
2011-03-04,22.23257827758789
2011-03-07,22.264450073242188
2011-03-08,22.468414306640625
2011-03-09,22.117834091186523
2011-03-10,21.894739151000977
2011-03-11,22.015859603881836
2011-03-14,21.901126861572266
2011-03-15,21.926610946655273
2011-03-16,21.83099937438965
2011-03-17,22.028600692749023
2011-03-18,22.07959747314453
2011-03-21,22.15608787536621
2011-03-22,21.945735931396484
2011-03-23,21.8118839263916
2011-03-24,21.932994842529297
2011-03-25,22.06684684753418
2011-03-28,22.085975646972656
2011-03-29,22.162460327148438
2011-03-30,22.293394088745117
2011-03-31,22.370189666748047
2011-04-01,22.338193893432617
2011-04-04,22.427799224853516
2011-04-05,22.40220832824707
2011-04-06,22.434200286865234
2011-04-07,22.21658706665039
2011-04-08,22.171785354614258
2011-04-11,22.1397705078125
2011-04-12,22.184581756591797
2011-04-13,22.107772827148438
2011-04-14,22.357391357421875
2011-04-15,22.44699478149414
2011-04-18,22.190988540649414
2011-04-19,22.38300132751465
2011-04-20,22.587827682495117
2011-04-21,22.728635787963867
2011-04-25,22.81183624267578
2011-04-26,22.86945152282715
2011-04-27,23.055070877075195
2011-04-28,23.180381774902344
2011-04-29,22.846200942993164
2011-05-02,22.826919555664062
2011-05-03,22.85262680053711
2011-05-04,22.826919555664062
2011-05-05,22.85262680053711
2011-05-06,22.64056396484375
2011-05-09,22.71125030517578
2011-05-10,22.781946182250977
2011-05-11,22.58914566040039
2011-05-12,22.646997451782227
2011-05-13,22.479888916015625
2011-05-16,22.479888916015625
2011-05-17,22.473466873168945
2011-05-18,22.717670440673828
2011-05-19,22.756237030029297
2011-05-20,22.569868087768555
2011-05-23,22.40919303894043
2011-05-24,22.396350860595703
2011-05-25,22.33208465576172
2011-05-26,22.492748260498047
2011-05-27,22.554040908813477
2011-05-31,22.67666244506836
2011-06-01,22.076507568359375
2011-06-02,22.0184326171875
2011-06-03,22.037792205810547
2011-06-06,21.77967643737793
2011-06-07,21.91518211364746
2011-06-08,21.753856658935547
2011-06-09,21.4505615234375
2011-06-10,20.831045150756836
2011-06-13,20.876224517822266
2011-06-14,21.302133560180664
2011-06-15,21.13433837890625
2011-06-16,21.32794189453125
2011-06-17,21.605417251586914
2011-06-20,21.70223045349121
2011-06-21,21.792564392089844
2011-06-22,21.624780654907227
2011-06-23,21.26340675354004
2011-06-24,21.353748321533203
2011-06-27,21.3989200592041
2011-06-28,21.547344207763672
2011-06-29,21.822715759277344
2011-06-30,21.706064224243164
2011-07-01,22.049575805664062
2011-07-05,22.140317916870117
2011-07-06,22.483816146850586
2011-07-07,22.69123077392578
2011-07-08,22.64586067199707
2011-07-11,22.3088321685791
2011-07-12,22.36716079711914
2011-07-13,22.08845329284668
2011-07-14,21.88753318786621
2011-07-15,22.075502395629883
2011-07-18,21.91346549987793
2011-07-19,22.081974029541016
2011-07-20,22.18567657470703
2011-07-21,22.315303802490234
2011-07-22,22.38660430908203
2011-07-25,22.114391326904297
2011-07-26,22.10791015625
2011-07-27,21.53106117248535
2011-07-28,21.26741600036621
2011-07-29,21.130712509155273
2011-08-01,21.156755447387695
2011-08-02,20.59690284729004
2011-08-03,20.544830322265625
2011-08-04,19.906883239746094
2011-08-05,19.535812377929688
2011-08-08,18.25339126586914
2011-08-09,20.401611328125
2011-08-10,20.01754379272461
2011-08-11,20.90937614440918
2011-08-12,20.609926223754883
2011-08-15,21.42365264892578
2011-08-16,21.247888565063477
2011-08-17,21.378080368041992
2011-08-18,21.033065795898438
2011-08-19,20.85730743408203
2011-08-22,21.02656364440918
2011-08-23,21.677534103393555
2011-08-24,22.1462345123291
2011-08-25,21.690553665161133
2011-08-26,21.898868560791016
2011-08-29,22.54334259033203
2011-08-30,22.51078987121582
2011-08-31,22.575885772705078
2011-09-01,22.121482849121094
2011-09-02,21.775009155273438
2011-09-06,21.74885368347168
2011-09-07,22.533315658569336
2011-09-08,22.624845504760742
2011-09-09,21.99073028564453
2011-09-12,22.232595443725586
2011-09-13,22.467939376831055
2011-09-14,22.56599235534668
2011-09-15,22.657512664794922
2011-09-16,22.840551376342773
2011-09-19,22.552928924560547
2011-09-20,22.507156372070312
2011-09-21,21.899215698242188
2011-09-22,21.768474578857422
2011-09-23,21.951507568359375
2011-09-26,22.1083984375
2011-09-27,22.206457138061523
2011-09-28,21.905742645263672
2011-09-29,22.046903610229492
2011-09-30,21.167137145996094
2011-10-03,20.05099868774414
2011-10-04,20.81916046142578
2011-10-05,20.58936309814453
2011-10-06,20.85855484008789
2011-10-07,20.208568572998047
2011-10-10,20.930767059326172
2011-10-11,20.405534744262695
2011-10-12,20.655031204223633
2011-10-13,20.82572364807129
2011-10-14,21.298433303833008
2011-10-17,21.02269172668457
2011-10-18,21.60702133178711
2011-10-19,21.337839126586914
2011-10-20,21.37065887451172
2011-10-21,21.817123413085938
2011-10-24,22.224166870117188
2011-10-25,21.771156311035156
2011-10-26,22.020648956298828
2011-10-27,22.355472564697266
2011-10-28,22.38528060913086
2011-10-31,22.02922821044922
2011-11-01,21.508337020874023
2011-11-02,21.884170532226562
2011-11-03,22.279781341552734
2011-11-04,22.08857536315918
2011-11-07,22.121536254882812
2011-11-08,22.279781341552734
2011-11-09,21.62701416015625
2011-11-10,21.51492691040039
2011-11-11,21.94350814819336
2011-11-14,21.79845428466797
2011-11-15,22.016029357910156
2011-11-16,22.068790435791016
2011-11-17,21.996265411376953
2011-11-18,22.23362159729004
2011-11-21,21.805038452148438
2011-11-22,21.8512020111084
2011-11-23,21.369871139526367
2011-11-25,21.429208755493164
2011-11-28,21.864381790161133
2011-11-29,21.881074905395508
2011-11-30,22.424104690551758
2011-12-01,22.112857818603516
2011-12-02,22.026750564575195
2011-12-05,22.10624122619629
2011-12-06,22.126094818115234
2011-12-07,22.437366485595703
2011-12-08,22.126094818115234
2011-12-09,22.45060157775879
2011-12-12,22.331401824951172
2011-12-13,22.16584014892578
2011-12-14,22.338031768798828
2011-12-15,22.735380172729492
2011-12-16,22.900936126708984
2011-12-19,22.490341186523438
2011-12-20,22.98042106628418
2011-12-21,23.132726669311523
2011-12-22,23.245328903198242
2011-12-23,23.34465217590332
2011-12-27,23.569814682006836
2011-12-28,23.314151763916016
2011-12-29,23.44048500061035
2011-12-30,23.24764060974121
2012-01-03,23.154539108276367
2012-01-04,22.95505714416504
2012-01-05,23.194461822509766
2012-01-06,23.13459587097168
2012-01-09,23.287540435791016
2012-01-10,23.480396270751953
2012-01-11,23.59342384338379
2012-01-12,23.540231704711914
2012-01-13,23.71978187561035
2012-01-17,23.81953239440918
2012-01-18,23.85943031311035
2012-01-19,23.79957389831543
2012-01-20,23.679885864257812
2012-01-23,23.73308753967285
2012-01-24,23.872739791870117
2012-01-25,24.13871192932129
2012-01-26,24.29166603088379
2012-01-27,24.344865798950195
2012-01-30,24.262075424194336
2012-01-31,24.302135467529297
2012-02-01,24.595901489257812
2012-02-02,24.702714920043945
2012-02-03,24.903011322021484
2012-02-06,24.776159286499023
2012-02-07,24.889659881591797
2012-02-08,24.943063735961914
2012-02-09,24.79619026184082
2012-02-10,24.676013946533203
2012-02-13,24.669330596923828
2012-02-14,24.43565559387207
2012-02-15,24.375579833984375
2012-02-16,24.48906898498535
2012-02-17,24.555831909179688
2012-02-21,24.40228271484375
2012-02-22,24.322166442871094
2012-02-23,24.66266441345215
2012-02-24,24.82956886291504
2012-02-27,24.589221954345703
2012-02-28,24.49907684326172
2012-02-29,24.726957321166992
2012-03-01,24.753765106201172
2012-03-02,24.686748504638672
2012-03-05,24.907934188842773
2012-03-06,24.78728485107422
2012-03-07,24.974960327148438
2012-03-08,24.733673095703125
2012-03-09,24.773880004882812
2012-03-12,25.075511932373047
2012-03-13,25.49779510498047
2012-03-14,25.37044334411621
2012-03-15,25.45087432861328
2012-03-16,25.424070358276367
2012-03-19,25.537996292114258
2012-03-20,25.524621963500977
2012-03-21,25.504505157470703
2012-03-22,25.444175720214844
2012-03-23,25.571517944335938
2012-03-26,25.799421310424805
2012-03-27,25.980403900146484
2012-03-28,26.08763313293457
2012-03-29,26.0310115814209
2012-03-30,26.05792808532715
2012-04-02,26.13193130493164
2012-04-03,26.19921875
2012-04-04,25.90317726135254
2012-04-05,25.230361938476562
2012-04-09,25.1025390625
2012-04-10,24.84013557434082
2012-04-11,25.351463317871094
2012-04-12,25.39183807373047
2012-04-13,25.237085342407227
2012-04-16,25.59368133544922
2012-04-17,25.72152328491211
2012-04-18,25.620609283447266
2012-04-19,25.55331802368164
2012-04-20,25.990642547607422
2012-04-23,25.916627883911133
2012-04-24,26.239578247070312
2012-04-25,26.5490665435791
2012-04-26,26.515426635742188
2012-04-27,26.50583839416504
2012-04-30,26.56662940979004
2012-05-01,26.634164810180664
2012-05-02,26.51936149597168
2012-05-03,26.634164810180664
2012-05-04,26.532854080200195
2012-05-07,26.62739372253418
2012-05-08,26.634164810180664
2012-05-09,26.50583839416504
2012-05-10,26.54637336730957
2012-05-11,26.789485931396484
2012-05-14,26.478836059570312
2012-05-15,26.69492530822754
2012-05-16,26.539608001708984
2012-05-17,25.911582946777344
2012-05-18,25.67521858215332
2012-05-21,25.945341110229492
2012-05-22,26.15468978881836
2012-05-23,26.087156295776367
2012-05-24,26.15468978881836
2012-05-25,26.06013298034668
2012-05-29,26.418058395385742
2012-05-30,25.78495216369629
2012-05-31,25.98153305053711
2012-06-01,25.622278213500977
2012-06-04,25.601930618286133
2012-06-05,26.191648483276367
2012-06-06,26.964391708374023
2012-06-07,26.53058433532715
2012-06-08,26.903392791748047
2012-06-11,26.381441116333008
2012-06-12,26.740711212158203
2012-06-13,26.679697036743164
2012-06-14,26.98472785949707
2012-06-15,26.883052825927734
2012-06-18,27.26264762878418
2012-06-19,27.43210792541504
2012-06-20,27.418554306030273
2012-06-21,27.160964965820312
2012-06-22,27.181306838989258
2012-06-25,27.255876541137695
2012-06-26,27.459217071533203
2012-06-27,27.59478759765625
2012-06-28,28.047927856445312
2012-06-29,28.415281295776367
2012-07-02,28.598974227905273
2012-07-03,28.63298797607422
2012-07-05,28.524124145507812
2012-07-06,28.63977813720703
2012-07-09,28.388076782226562
2012-07-10,28.2656192779541
2012-07-11,28.37445831298828
2012-07-12,28.537729263305664
2012-07-13,28.918691635131836
2012-07-16,28.68739891052246
2012-07-17,28.775835037231445
2012-07-18,28.64657974243164
2012-07-19,28.367666244506836
2012-07-20,28.25201988220215
2012-07-23,28.3404483795166
2012-07-24,28.388076782226562
2012-07-25,28.3404483795166
2012-07-26,27.830244064331055
2012-07-27,28.088743209838867
2012-07-30,28.14071273803711
2012-07-31,28.127063751220703
2012-08-01,27.963232040405273
2012-08-02,28.14071273803711
2012-08-03,28.270437240600586
2012-08-06,28.092933654785156
2012-08-07,27.819860458374023
2012-08-08,27.894960403442383
2012-08-09,27.656009674072266
2012-08-10,27.703798294067383
2012-08-13,27.710634231567383
2012-08-14,27.765235900878906
2012-08-15,27.71744155883789
2012-08-16,28.359188079833984
2012-08-17,28.48206901550293
2012-08-20,28.659576416015625
2012-08-21,28.570823669433594
2012-08-22,28.604944229125977
2012-08-23,28.56400489807129
2012-08-24,28.91217041015625
2012-08-27,28.884872436523438
2012-08-28,29.3286075592041
2012-08-29,29.116975784301758
2012-08-30,28.960084915161133
2012-08-31,28.864171981811523
2012-09-04,29.268400192260742
2012-09-05,29.103958129882812
2012-09-06,28.91897964477539
2012-09-07,29.30949592590332
2012-09-10,29.124515533447266
2012-09-11,28.953231811523438
2012-09-12,28.78194236755371
2012-09-13,28.871030807495117
2012-09-14,28.912120819091797
2012-09-17,28.884719848632812
2012-09-18,28.65177345275879
2012-09-19,28.45308494567871
2012-09-20,28.220151901245117
2012-09-21,28.199594497680664
2012-09-24,28.370878219604492
2012-09-25,27.980361938476562
2012-09-26,27.829635620117188
2012-09-27,28.002552032470703
2012-09-28,28.11944007873535
2012-10-01,28.03003692626953
2012-10-02,28.256994247436523
2012-10-03,28.435791015625
2012-10-04,28.401405334472656
2012-10-05,28.360132217407227
2012-10-08,28.263856887817383
2012-10-09,28.140087127685547
2012-10-10,28.28449821472168
2012-10-11,28.22260284423828
2012-10-12,28.195100784301758
2012-10-15,28.4976806640625
2012-10-16,28.422029495239258
2012-10-17,28.291379928588867
2012-10-18,28.422029495239258
2012-10-19,28.153831481933594
2012-10-22,28.153831481933594
2012-10-23,27.940650939941406
2012-10-24,28.02318000793457
2012-10-25,27.631196975708008
2012-10-26,27.23921775817871
2012-10-31,27.108739852905273
2012-11-01,27.30894660949707
2012-11-02,27.23990821838379
2012-11-05,27.115642547607422
2012-11-06,27.136363983154297
2012-11-07,26.805004119873047
2012-11-08,26.646228790283203
2012-11-09,26.50817108154297
2012-11-12,26.245851516723633
2012-11-13,26.121591567993164
2012-11-14,25.859270095825195
2012-11-15,25.886892318725586
2012-11-16,26.50817108154297
2012-11-19,26.521968841552734
2012-11-20,27.129459381103516
2012-11-21,27.191585540771484
2012-11-23,27.15016746520996
2012-11-26,27.274410247802734
2012-11-27,27.232995986938477
2012-11-28,27.136363983154297
2012-11-29,27.262100219726562
2012-11-30,28.190698623657227
2012-12-03,27.892704010009766
2012-12-04,27.948158264160156
2012-12-05,27.837278366088867
2012-12-06,28.17682456970215
2012-12-07,28.162975311279297
2012-12-10,28.107534408569336
2012-12-11,28.114477157592773
2012-12-12,27.962005615234375
2012-12-13,27.91349220275879
2012-12-14,27.96892738342285
2012-12-17,28.26692008972168
2012-12-18,28.384723663330078
2012-12-19,28.14217758178711
2012-12-20,28.329280853271484
2012-12-21,28.211484909057617
2012-12-24,28.246129989624023
2012-12-26,28.128328323364258
2012-12-27,28.100601196289062
2012-12-28,27.920963287353516
2012-12-31,27.96965217590332
2013-01-02,28.595687866210938
2013-01-03,28.5122127532959
2013-01-04,28.74872398376465
2013-01-07,29.040864944458008
2013-01-08,29.16607093811035
2013-01-09,29.36780548095703
2013-01-10,29.7712459564209
2013-01-11,29.84079360961914
2013-01-14,30.06338882446289
2013-01-15,30.13295555114746
2013-01-16,30.20945167541504
2013-01-17,30.55027961730957
2013-01-18,30.63376235961914
2013-01-22,30.63376235961914
2013-01-23,30.39032554626465
2013-01-24,30.397281646728516
2013-01-25,30.24424934387207
2013-01-28,30.70333480834961
2013-01-29,30.30684471130371
2013-01-30,30.426292419433594
2013-01-31,30.510095596313477
2013-02-01,30.314516067504883
2013-02-04,30.328481674194336
2013-02-05,30.35643768310547
2013-02-06,30.35643768310547
2013-02-07,30.377378463745117
2013-02-08,30.174823760986328
2013-02-11,30.475189208984375
2013-02-12,31.082857131958008
2013-02-13,31.117778778076172
2013-02-14,30.93617820739746
2013-02-15,31.054927825927734
2013-02-19,31.222543716430664
2013-02-20,31.159700393676758
2013-02-21,30.943166732788086
2013-02-22,31.061904907226562
2013-02-25,30.985074996948242
2013-02-26,31.362268447875977
2013-02-27,31.82576560974121
2013-02-28,32.01512908935547
2013-03-01,32.10628890991211
2013-03-04,32.330718994140625
2013-03-05,32.69538879394531
2013-03-06,32.29564666748047
2013-03-07,32.26759719848633
2013-03-08,32.19047546386719
2013-03-11,31.601333618164062
2013-03-12,31.327844619750977
2013-03-13,31.166536331176758
2013-03-14,31.390954971313477
2013-03-15,31.376922607421875
2013-03-18,31.166536331176758
2013-03-19,30.89299201965332
2013-03-20,30.9140567779541
2013-03-21,30.949127197265625
2013-03-22,31.180570602416992
2013-03-25,31.00524139404297
2013-03-26,31.517196655273438
2013-03-27,31.686880111694336
2013-03-28,31.933349609375
2013-04-01,32.088260650634766
2013-04-02,32.21500015258789
2013-04-03,32.109378814697266
2013-04-04,32.30653381347656
2013-04-05,32.41215896606445
2013-04-08,32.6727294921875
2013-04-09,32.71494674682617
2013-04-10,32.954368591308594
2013-04-11,33.588104248046875
2013-04-12,33.609230041503906
2013-04-15,33.003662109375
2013-04-16,33.72190856933594
2013-04-17,33.538814544677734
2013-04-18,33.86977767944336
2013-04-19,34.50350570678711
2013-04-22,34.59505081176758
2013-04-23,34.81333541870117
2013-04-24,34.700679779052734
2013-04-25,34.86262512207031
2013-04-26,34.975311279296875
2013-04-29,35.58395004272461
2013-04-30,36.02212142944336
2013-05-01,35.767704010009766
2013-05-02,36.10692596435547
2013-05-03,36.59458923339844
2013-05-06,36.509769439697266
2013-05-07,36.77125549316406
2013-05-08,37.08928680419922
2013-05-09,36.88431167602539
2013-05-10,36.89846420288086
2013-05-13,37.668800354003906
2013-05-14,37.67586898803711
2013-05-15,38.33313751220703
2013-05-16,38.17058181762695
2013-05-17,38.933841705322266
2013-05-20,38.67237091064453
2013-05-21,38.89144515991211
2013-05-22,37.03981018066406
2013-05-23,35.78182601928711
2013-05-24,35.10336685180664
2013-05-28,34.48146057128906
2013-05-29,33.520301818847656
2013-05-30,33.0953254699707
2013-05-31,32.244014739990234
2013-06-03,31.655168533325195
2013-06-04,30.803857803344727
2013-06-05,31.023765563964844
2013-06-06,32.21562576293945
2013-06-07,31.804153442382812
2013-06-10,31.477821350097656
2013-06-11,30.995418548583984
2013-06-12,30.569747924804688
2013-06-13,31.286270141601562
2013-06-14,31.875110626220703
2013-06-17,31.406862258911133
2013-06-18,31.697744369506836
2013-06-19,30.825138092041016
2013-06-20,29.1011962890625
2013-06-21,28.96640396118164
2013-06-24,28.938039779663086
2013-06-25,29.2856388092041
2013-06-26,29.675840377807617
2013-06-27,30.125829696655273
2013-06-28,29.869342803955078
2013-07-01,29.819448471069336
2013-07-02,30.802738189697266
2013-07-03,30.895362854003906
2013-07-05,30.396610260009766
2013-07-08,30.38947105407715
2013-07-09,30.86687469482422
2013-07-10,30.77423667907715
2013-07-11,31.75751495361328
2013-07-12,31.949914932250977
2013-07-15,32.199302673339844
2013-07-16,32.21356201171875
2013-07-17,32.441558837890625
2013-07-18,32.72657012939453
2013-07-19,32.29905319213867
2013-07-22,32.75506591796875
2013-07-23,32.612579345703125
2013-07-24,31.643543243408203
2013-07-25,31.607912063598633
2013-07-26,31.56513023376465
2013-07-29,31.700529098510742
2013-07-30,31.623266220092773
2013-07-31,31.05803680419922
2013-08-01,30.635923385620117
2013-08-02,30.886329650878906
2013-08-05,30.492834091186523
2013-08-06,30.47850799560547
2013-08-07,30.678848266601562
2013-08-08,30.771869659423828
2013-08-09,31.122440338134766
2013-08-12,30.764694213867188
2013-08-13,30.09933853149414
2013-08-14,29.93477439880371
2013-08-15,29.46973419189453
2013-08-16,28.68989372253418
2013-08-19,28.110363006591797
2013-08-20,28.761415481567383
2013-08-21,28.682720184326172
2013-08-22,28.804353713989258
2013-08-23,29.104848861694336
2013-08-26,28.761415481567383
2013-08-27,28.639799118041992
2013-08-28,28.317838668823242
2013-08-29,28.58488655090332
2013-08-30,28.390825271606445
2013-09-03,27.937997817993164
2013-09-04,28.2470645904541
2013-09-05,27.81582260131836
2013-09-06,28.124876022338867
2013-09-09,28.72144317626953
2013-09-10,28.39800453186035
2013-09-11,28.426769256591797
2013-09-12,28.189563751220703
2013-09-13,28.175203323364258
2013-09-16,28.678333282470703
2013-09-17,28.541770935058594
2013-09-18,29.31083869934082
2013-09-19,29.05927276611328
2013-09-20,28.692697525024414
2013-09-23,28.484268188476562
2013-09-24,28.685504913330078
2013-09-25,29.116769790649414
2013-09-26,29.533653259277344
2013-09-27,29.06570816040039
2013-09-30,28.69751739501953
2013-10-01,29.347274780273438
2013-10-02,29.27507972717285
2013-10-03,28.740846633911133
2013-10-04,28.661422729492188
2013-10-07,28.639766693115234
2013-10-08,28.343767166137695
2013-10-09,28.408729553222656
2013-10-10,29.13790512084961
2013-10-11,29.347274780273438
2013-10-14,29.448348999023438
2013-10-15,29.491662979125977
2013-10-16,30.040346145629883
2013-10-17,30.46629524230957
2013-10-18,30.220829010009766
2013-10-21,29.780454635620117
2013-10-22,29.563854217529297
2013-10-23,29.93206024169922
2013-10-24,29.989805221557617
2013-10-25,31.0294132232666
2013-10-28,31.094392776489258
2013-10-29,31.022199630737305
2013-10-30,30.900285720825195
2013-10-31,30.197021484375
2013-11-01,30.414522171020508
2013-11-04,30.34202003479004
2013-11-05,30.052032470703125
2013-11-06,30.371034622192383
2013-11-07,29.9940128326416
2013-11-08,29.04425048828125
2013-11-11,29.04425048828125
2013-11-12,28.928247451782227
2013-11-13,29.073238372802734
2013-11-14,29.41400146484375
2013-11-15,29.595266342163086
2013-11-18,29.10951042175293
2013-11-19,28.812231063842773
2013-11-20,28.203218460083008
2013-11-21,28.21047592163086
2013-11-22,28.116220474243164
2013-11-25,27.75371742248535
2013-11-26,27.463701248168945
2013-11-27,27.924135208129883
2013-11-29,27.76386070251465
2013-12-02,27.581716537475586
2013-12-03,27.392305374145508
2013-12-04,26.860496520996094
2013-12-05,26.722068786621094
2013-12-06,27.013490676879883
2013-12-09,27.19559669494629
2013-12-10,27.290306091308594
2013-12-11,26.918766021728516
2013-12-12,27.08634376525879
2013-12-13,27.865842819213867
2013-12-16,27.836702346801758
2013-12-17,28.41952896118164
2013-12-18,28.94405174255371
2013-12-19,27.712858200073242
2013-12-20,27.42145538330078
2013-12-23,27.56715202331543
2013-12-24,27.77841567993164
2013-12-26,27.77841567993164
2013-12-27,27.581716537475586
2013-12-30,27.45155143737793
2013-12-31,27.460481643676758
2014-01-02,27.47519302368164
2014-01-03,27.754735946655273
2014-01-06,27.901859283447266
2014-01-07,28.041627883911133
2014-01-08,27.717952728271484
2014-01-09,27.791513442993164
2014-01-10,28.36529541015625
2014-01-13,28.16669273376465
2014-01-14,28.46092414855957
2014-01-15,28.519779205322266
2014-01-16,28.36529541015625
2014-01-17,28.254961013793945
2014-01-21,28.909648895263672
2014-01-22,29.086204528808594
2014-01-23,29.086204528808594
2014-01-24,29.086204528808594
2014-01-27,29.18183135986328
2014-01-28,29.82914924621582
2014-01-29,29.82182502746582
2014-01-30,30.126251220703125
2014-01-31,30.133644104003906
2014-02-03,29.350370407104492
2014-02-04,29.498167037963867
2014-02-05,29.682903289794922
2014-02-06,29.74201202392578
2014-02-07,29.971088409423828
2014-02-10,30.288827896118164
2014-02-11,30.31097984313965
2014-02-12,30.436609268188477
2014-02-13,30.650897979736328
2014-02-14,30.828237533569336
2014-02-18,31.352890014648438
2014-02-19,31.471107482910156
2014-02-20,31.70757293701172
2014-02-21,32.07703399658203
2014-02-24,32.453895568847656
2014-02-25,32.80857849121094
2014-02-26,32.88248062133789
2014-02-27,32.95827102661133
2014-02-28,32.95827102661133
2014-03-03,32.683753967285156
2014-03-04,32.8914909362793
2014-03-05,32.38695526123047
2014-03-06,31.71918487548828
2014-03-07,30.85852813720703
2014-03-10,30.747220993041992
2014-03-11,31.066253662109375
2014-03-12,31.259170532226562
2014-03-13,31.400136947631836
2014-03-14,31.400136947631836
2014-03-17,31.489173889160156
2014-03-18,31.355619430541992
2014-03-19,30.353960037231445
2014-03-20,30.220407485961914
2014-03-21,30.494937896728516
2014-03-24,30.250078201293945
2014-03-25,30.606243133544922
2014-03-26,30.257505416870117
2014-03-27,30.2723388671875
2014-03-28,30.37108612060547
2014-03-31,30.453075408935547
2014-04-01,30.207122802734375
2014-04-02,30.34126853942871
2014-04-03,30.110227584838867
2014-04-04,30.363632202148438
2014-04-07,30.93752670288086
2014-04-08,31.24309730529785
2014-04-09,31.161100387573242
2014-04-10,30.7959041595459
2014-04-11,30.87790298461914
2014-04-14,30.87790298461914
2014-04-15,31.727537155151367
2014-04-16,31.884044647216797
2014-04-17,31.22074317932129
2014-04-21,31.25056266784668
2014-04-22,31.615739822387695
2014-04-23,31.51138687133789
2014-04-24,31.85423469543457
2014-04-25,31.966047286987305
2014-04-28,32.48029327392578
2014-04-29,32.4818000793457
2014-04-30,32.51920700073242
2014-05-01,32.33959197998047
2014-05-02,32.33959197998047
2014-05-05,32.57160949707031
2014-05-06,32.399471282958984
2014-05-07,33.08802795410156
2014-05-08,32.92335510253906
2014-05-09,32.766178131103516
2014-05-12,32.99072265625
2014-05-13,32.69133758544922
2014-05-14,32.63147735595703
2014-05-15,32.317138671875
2014-05-16,32.84103775024414
2014-05-19,32.683876037597656
2014-05-20,32.69133758544922
2014-05-21,32.444366455078125
2014-05-22,32.100093841552734
2014-05-23,32.130035400390625
2014-05-27,32.29468536376953
2014-05-28,32.30215835571289
2014-05-29,32.58964920043945
2014-05-30,32.54454040527344
2014-06-02,32.68734359741211
2014-06-03,32.52949905395508
2014-06-04,32.39421844482422
2014-06-05,33.153350830078125
2014-06-06,33.1232795715332
2014-06-09,32.51447296142578
2014-06-10,32.5069580078125
2014-06-11,32.64976501464844
2014-06-12,32.83766555786133
2014-06-13,32.957908630371094
2014-06-16,32.67232131958008
2014-06-17,32.830142974853516
2014-06-18,33.2059440612793
2014-06-19,33.43894958496094
2014-06-20,33.77717590332031
2014-06-23,33.43894958496094
2014-06-24,33.3487663269043
2014-06-25,33.30365753173828
2014-06-26,33.153350830078125
2014-06-27,33.37434387207031
2014-06-30,33.52526092529297
2014-07-01,33.857357025146484
2014-07-02,33.63848114013672
2014-07-03,33.38186264038086
2014-07-07,33.615848541259766
2014-07-08,33.76679611206055
2014-07-09,33.82717514038086
2014-07-10,34.06867218017578
2014-07-11,34.046043395996094
2014-07-14,34.24226379394531
2014-07-15,34.249813079833984
2014-07-16,34.16678237915039
2014-07-17,34.18943405151367
2014-07-18,34.55923843383789
2014-07-21,34.400760650634766
2014-07-22,34.14415740966797
2014-07-23,34.18187713623047
2014-07-24,33.75169372558594
2014-07-25,33.72904968261719
2014-07-28,33.78942108154297
2014-07-29,33.63848114013672
2014-07-30,32.92080307006836
2014-07-31,32.625247955322266
2014-08-01,32.57219314575195
2014-08-04,32.837440490722656
2014-08-05,32.77680969238281
2014-08-06,32.84502029418945
2014-08-07,33.004146575927734
2014-08-08,33.193626403808594
2014-08-11,33.11026382446289
2014-08-12,33.1708869934082
2014-08-13,33.769596099853516
2014-08-14,33.76201629638672
2014-08-15,33.88327407836914
2014-08-18,34.19396209716797
2014-08-19,34.29250717163086
2014-08-20,34.42890167236328
2014-08-21,34.40617370605469
2014-08-22,34.17125701904297
2014-08-25,33.96662139892578
2014-08-26,33.9211540222168
2014-08-27,33.88327407836914
2014-08-28,33.923587799072266
2014-08-29,34.03013610839844
2014-09-02,33.96162796020508
2014-09-03,33.923587799072266
2014-09-04,33.95402526855469
2014-09-05,34.50954818725586
2014-09-08,34.22797775268555
2014-09-09,33.96162796020508
2014-09-10,33.52027893066406
2014-09-11,33.291996002197266
2014-09-12,32.34080123901367
2014-09-15,32.257080078125
2014-09-16,32.59191131591797
2014-09-17,32.37123489379883
2014-09-18,31.777687072753906
2014-09-19,32.051631927490234
2014-09-22,31.68636703491211
2014-09-23,31.28307342529297
2014-09-24,31.115657806396484
2014-09-25,31.16132354736328
2014-09-26,31.52655792236328
2014-09-29,31.41427993774414
2014-09-30,31.17734146118164
2014-10-01,31.31492805480957
2014-10-02,31.31492805480957
2014-10-03,31.41427993774414
2014-10-06,31.551868438720703
2014-10-07,31.421939849853516
2014-10-08,32.23214340209961
2014-10-09,32.683082580566406
2014-10-10,32.50728225708008
2014-10-13,32.55316162109375
2014-10-14,33.057613372802734
2014-10-15,33.455078125
2014-10-16,33.60794448852539
2014-10-17,33.27928161621094
2014-10-20,33.75315475463867
2014-10-21,33.96717834472656
2014-10-22,34.211769104003906
2014-10-23,34.35700225830078
2014-10-24,34.372276306152344
2014-10-27,34.59394454956055
2014-10-28,34.50986099243164
2014-10-29,35.09074783325195
2014-10-30,35.699378967285156
2014-10-31,35.323360443115234
2014-11-03,36.01401138305664
2014-11-04,36.551185607910156
2014-11-05,36.274932861328125
2014-11-06,35.96031188964844
2014-11-07,35.96798324584961
2014-11-10,36.144493103027344
2014-11-11,35.93728256225586
2014-11-12,35.56125259399414
2014-11-13,35.4307975769043
2014-11-14,35.07013702392578
2014-11-17,35.35404586791992
2014-11-18,35.3847541809082
2014-11-19,35.22360610961914
2014-11-20,35.23896408081055
2014-11-21,35.26964569091797
2014-11-24,35.538230895996094
2014-11-25,35.59962463378906
2014-11-26,35.77151107788086
2014-11-28,35.79463577270508
2014-12-01,35.79463577270508
2014-12-02,35.833152770996094
2014-12-03,35.65593719482422
2014-12-04,35.56349182128906
2014-12-05,35.062705993652344
2014-12-08,35.031890869140625
2014-12-09,35.09351348876953
2014-12-10,35.23220443725586
2014-12-11,35.82544708251953
2014-12-12,35.871681213378906
2014-12-15,35.810035705566406
2014-12-16,35.871681213378906
2014-12-17,36.71144104003906
2014-12-18,36.98879623413086
2014-12-19,37.44336700439453
2014-12-22,37.95185089111328
2014-12-23,37.82088088989258
2014-12-24,38.07511901855469
2014-12-26,37.99040222167969
2014-12-29,38.190696716308594
2014-12-30,37.82215118408203
2014-12-31,36.89418029785156
2015-01-02,37.59789276123047
2015-01-05,38.371192932128906
2015-01-06,38.87385177612305
2015-01-07,39.50795364379883
2015-01-08,38.463993072509766
2015-01-09,38.92024612426758
2015-01-12,39.4615478515625
2015-01-13,39.538883209228516
2015-01-14,39.97968292236328
2015-01-15,40.3740348815918
2015-01-16,40.81483459472656
2015-01-20,40.78389358520508
2015-01-21,40.79163360595703
2015-01-22,41.13188171386719
2015-01-23,41.402530670166016
2015-01-26,42.31503677368164
2015-01-27,42.57023239135742
2015-01-28,42.608890533447266
2015-01-29,42.786582946777344
2015-01-30,42.14253234863281
2015-02-02,41.5450439453125
2015-02-03,41.35881042480469
2015-02-04,40.986366271972656
2015-02-05,41.397613525390625
2015-02-06,39.449928283691406
2015-02-09,39.698265075683594
2015-02-10,39.79912567138672
2015-02-11,39.84568786621094
2015-02-12,40.10950469970703
2015-02-13,40.35780715942383
2015-02-17,40.179344177246094
2015-02-18,40.854427337646484
2015-02-19,39.87673568725586
2015-02-20,40.32677459716797
2015-02-23,40.67596435546875
2015-02-24,39.47321319580078
2015-02-25,39.65168762207031
2015-02-26,38.79418182373047
2015-02-27,38.988895416259766
2015-03-02,39.44843292236328
2015-03-03,39.37053680419922
2015-03-04,39.20698165893555
2015-03-05,39.56523895263672
2015-03-06,37.95305252075195
2015-03-09,38.34244918823242
2015-03-10,38.37359619140625
2015-03-11,38.57609558105469
2015-03-12,39.05119323730469
2015-03-13,38.981117248535156
2015-03-16,39.40946578979492
2015-03-17,39.378334045410156
2015-03-18,40.50763702392578
2015-03-19,40.6867790222168
2015-03-20,41.784942626953125
2015-03-23,41.636959075927734
2015-03-24,40.95156478881836
2015-03-25,40.297359466552734
2015-03-26,39.91572189331055
2015-03-27,39.76774215698242
2015-03-30,40.36147689819336
2015-03-31,40.338016510009766
2015-04-01,40.24421310424805
2015-04-02,40.68979263305664
2015-04-06,39.52501678466797
2015-04-07,39.59539031982422
2015-04-08,39.52501678466797
2015-04-09,38.5869140625
2015-04-10,38.704185485839844
2015-04-13,38.3992919921875
2015-04-14,39.04032516479492
2015-04-15,38.579097747802734
2015-04-16,38.5947265625
2015-04-17,38.50873947143555
2015-04-20,38.383670806884766
2015-04-21,38.5869140625
2015-04-22,38.71200180053711
2015-04-23,38.61036682128906
2015-04-24,38.5947265625
2015-04-27,38.485286712646484
2015-04-28,38.32893753051758
2015-04-29,37.528438568115234
2015-04-30,36.861392974853516
2015-05-01,36.88494110107422
2015-05-04,37.01832962036133
2015-05-05,36.155086517333984
2015-05-06,36.037376403808594
2015-05-07,36.50039291381836
2015-05-08,37.159610748291016
2015-05-11,36.51607894897461
2015-05-12,36.790767669677734
2015-05-13,36.312049865722656
2015-05-14,37.12822723388672
2015-05-15,37.591243743896484
2015-05-18,37.26948165893555
2015-05-19,37.12822723388672
2015-05-20,37.159610748291016
2015-05-21,36.869239807128906
2015-05-22,36.853538513183594
2015-05-26,36.40623092651367
2015-05-27,36.44544219970703
2015-05-28,36.27996826171875
2015-05-29,35.90962219238281
2015-06-01,36.177528381347656
2015-06-02,36.09084701538086
2015-06-03,35.657440185546875
2015-06-04,35.93324279785156
2015-06-05,35.657440185546875
2015-06-08,35.94900894165039
2015-06-09,35.46832275390625
2015-06-10,35.58653259277344
2015-06-11,35.92536544799805
2015-06-12,35.72835922241211
2015-06-15,35.51559829711914
2015-06-16,35.704715728759766
2015-06-17,36.1854133605957
2015-06-18,36.752777099609375
2015-06-19,36.30360412597656
2015-06-22,35.84657669067383
2015-06-23,35.547122955322266
2015-06-24,35.28708267211914
2015-06-25,35.00341033935547
2015-06-26,35.413177490234375
2015-06-29,35.11243438720703
2015-06-30,35.12827682495117
2015-07-01,35.69013977050781
2015-07-02,35.91962814331055
2015-07-06,36.346961975097656
2015-07-07,36.66349411010742
2015-07-08,36.616031646728516
2015-07-09,36.362796783447266
2015-07-10,36.68724822998047
2015-07-13,36.52897644042969
2015-07-14,36.758487701416016
2015-07-15,36.96421813964844
2015-07-16,37.351993560791016
2015-07-17,37.185813903808594
2015-07-20,37.34406661987305
2015-07-21,37.193721771240234
2015-07-22,37.40738296508789
2015-07-23,37.01960754394531
2015-07-24,37.257022857666016
2015-07-27,37.36781311035156
2015-07-28,37.52607727050781
2015-07-29,37.850528717041016
2015-07-30,37.82670593261719
2015-07-31,38.36697006225586
2015-08-03,38.75626754760742
2015-08-04,38.247798919677734
2015-08-05,37.64397048950195
2015-08-06,37.76314163208008
2015-08-07,37.70752716064453
2015-08-10,37.628082275390625
2015-08-11,37.699588775634766
2015-08-12,37.83463668823242
2015-08-13,37.771087646484375
2015-08-14,38.009429931640625
2015-08-17,38.152462005615234
2015-08-18,38.50204849243164
2015-08-19,38.17628479003906
2015-08-20,38.21601104736328
2015-08-21,37.83463668823242
2015-08-24,36.40452575683594
2015-08-25,35.33193588256836
2015-08-26,36.126434326171875
2015-08-27,36.83356475830078
2015-08-28,36.650062561035156
2015-08-31,35.65283966064453
2015-09-01,35.05451583862305
2015-09-02,35.2858772277832
2015-09-03,35.23800277709961
2015-09-04,34.60775375366211
2015-09-08,35.34968566894531
2015-09-09,35.07843780517578
2015-09-10,35.26192855834961
2015-09-11,35.963966369628906
2015-09-14,36.17938232421875
2015-09-15,36.53838348388672
2015-09-16,36.92130661010742
2015-09-17,37.407962799072266
2015-09-18,37.886627197265625
2015-09-21,38.03023147583008
2015-09-22,37.60740661621094
2015-09-23,37.75899124145508
2015-09-24,37.47179412841797
2015-09-25,37.54359817504883
2015-09-28,37.20851516723633
2015-09-29,37.73760986328125
2015-09-30,37.96190643310547
2015-10-01,37.929866790771484
2015-10-02,36.84844970703125
2015-10-05,37.73760986328125
2015-10-06,37.641510009765625
2015-10-07,37.993953704833984
2015-10-08,38.17018127441406
2015-10-09,38.26631546020508
2015-10-12,38.57872772216797
2015-10-13,38.5146369934082
2015-10-14,38.1942138671875
2015-10-15,38.859092712402344
2015-10-16,38.939205169677734
2015-10-19,39.155479431152344
2015-10-20,39.21955871582031
2015-10-21,39.155479431152344
2015-10-22,40.2048454284668
2015-10-23,39.972572326660156
2015-10-26,40.25292205810547
2015-10-27,40.300987243652344
2015-10-28,40.533294677734375
2015-10-29,39.946720123291016
2015-10-30,39.769813537597656
2015-11-02,40.678428649902344
2015-11-03,40.316566467285156
2015-11-04,39.76177215576172
2015-11-05,40.204017639160156
2015-11-06,38.1696891784668
2015-11-09,37.30128860473633
2015-11-10,37.74353790283203
2015-11-11,38.145572662353516
2015-11-12,38.145572662353516
2015-11-13,38.145572662353516
2015-11-16,38.74864959716797
2015-11-17,38.949649810791016
2015-11-18,39.576839447021484
2015-11-19,39.697452545166016
2015-11-20,39.938682556152344
2015-11-23,39.97887420654297
2015-11-24,39.76177215576172
2015-11-25,39.89042663574219
2015-11-27,40.383216857910156
2015-11-30,40.052276611328125
2015-12-01,40.85944366455078
2015-12-02,40.04419708251953
2015-12-03,39.37424087524414
2015-12-04,40.367069244384766
2015-12-07,40.576934814453125
2015-12-08,40.47200393676758
2015-12-09,40.052276611328125
2015-12-10,39.50337219238281
2015-12-11,39.269290924072266
2015-12-14,39.826255798339844
2015-12-15,40.310577392578125
2015-12-16,41.35182189941406
2015-12-17,41.16618347167969
2015-12-18,41.230743408203125
2015-12-21,41.230743408203125
2015-12-22,41.31148147583008
2015-12-23,41.57783508300781
2015-12-24,41.408321380615234
2015-12-28,41.77156448364258
2015-12-29,42.118656158447266
2015-12-30,42.06273651123047
2015-12-31,41.827816009521484
2016-01-04,41.4632568359375
2016-01-05,42.362491607666016
2016-01-06,42.613651275634766
2016-01-07,41.876407623291016
2016-01-08,41.45513916015625
2016-01-11,42.34630584716797
2016-01-12,42.47593307495117
2016-01-13,41.99793243408203
2016-01-14,42.330101013183594
2016-01-15,42.28147888183594
2016-01-19,42.94580841064453
2016-01-20,42.022254943847656
2016-01-21,42.54884338378906
2016-01-22,43.780250549316406
2016-01-25,43.65872573852539
2016-01-26,44.720027923583984
2016-01-27,44.6228141784668
2016-01-28,44.61344909667969
2016-01-29,45.36149597167969
2016-02-01,46.06072998046875
2016-02-02,46.52417755126953
2016-02-03,46.6298828125
2016-02-04,46.73557662963867
2016-02-05,45.44280242919922
2016-02-08,45.67045211791992
2016-02-09,45.8249397277832
2016-02-10,46.16642761230469
2016-02-11,48.88211441040039
2016-02-12,49.17481994628906
2016-02-16,48.63818359375
2016-02-17,48.63005065917969
2016-02-18,49.150421142578125
2016-02-19,48.963409423828125
2016-02-22,48.55687713623047
2016-02-23,48.54874801635742
2016-02-24,48.40239715576172
2016-02-25,48.88211441040039
2016-02-26,47.82854080200195
2016-02-29,47.755123138427734
2016-03-01,47.99169158935547
2016-03-02,48.16300964355469
2016-03-03,48.14669418334961
2016-03-04,47.44512939453125
2016-03-07,47.11067581176758
2016-03-08,47.83670425415039
2016-03-09,48.07326889038086
2016-03-10,48.33432388305664
2016-03-11,48.644309997558594
2016-03-14,48.7421875
2016-03-15,48.83193588256836
2016-03-16,49.664024353027344
2016-03-17,50.226898193359375
2016-03-18,49.95770263671875
2016-03-21,49.574283599853516
2016-03-22,49.664024353027344
2016-03-23,50.09638977050781
2016-03-24,50.13717269897461
2016-03-28,50.66742706298828
2016-03-29,51.28740692138672
2016-03-30,50.91014099121094
2016-03-31,51.155635833740234
2016-04-01,50.94287872314453
2016-04-04,50.86921691894531
2016-04-05,51.44206619262695
2016-04-06,51.532100677490234
2016-04-07,51.27021026611328
2016-04-08,51.556644439697266
2016-04-11,51.556644439697266
2016-04-12,52.1622200012207
2016-04-13,51.62211990356445
2016-04-14,51.286582946777344
2016-04-15,51.56483840942383
2016-04-18,51.67939758300781
2016-04-19,51.79395294189453
2016-04-20,50.378204345703125
2016-04-21,48.30775451660156
2016-04-22,48.585994720458984
2016-04-25,49.36344909667969
2016-04-26,48.77422332763672
2016-04-27,48.65144348144531
2016-04-28,48.831295013427734
2016-04-29,48.60958480834961
2016-05-02,49.1104621887207
2016-05-03,49.84944534301758
2016-05-04,51.220706939697266
2016-05-05,51.24534606933594
2016-05-06,52.2060432434082
2016-05-09,52.58375930786133
2016-05-10,52.73154830932617
2016-05-11,51.95148468017578
2016-05-12,52.665863037109375
2016-05-13,52.2388801574707
2016-05-16,52.47700500488281
2016-05-17,51.31924819946289
2016-05-18,49.98082733154297
2016-05-19,48.48640823364258
2016-05-20,48.601375579833984
2016-05-23,48.48640823364258
2016-05-24,48.7984504699707
2016-05-25,48.75739288330078
2016-05-26,49.18435287475586
2016-05-27,49.34829330444336
2016-05-31,49.50482940673828
2016-06-01,50.13095474243164
2016-06-02,50.7076530456543
2016-06-03,51.94341278076172
2016-06-06,51.547969818115234
2016-06-07,52.05875778198242
2016-06-08,52.3223991394043
2016-06-09,52.709590911865234
2016-06-10,52.97323989868164
2016-06-13,52.824920654296875
2016-06-14,53.00617980957031
2016-06-15,53.05560302734375
2016-06-16,53.60759735107422
2016-06-17,52.824920654296875
2016-06-20,52.520111083984375
2016-06-21,52.99794006347656
2016-06-22,53.02265167236328
2016-06-23,53.13800048828125
2016-06-24,54.167789459228516
2016-06-27,55.17289733886719
2016-06-28,56.18621826171875
2016-06-29,56.565895080566406
2016-06-30,57.30954360961914
2016-07-01,57.5408821105957
2016-07-05,59.05293655395508
2016-07-06,58.8381233215332
2016-07-07,57.127742767333984
2016-07-08,57.76397705078125
2016-07-11,58.26798629760742
2016-07-12,57.896156311035156
2016-07-13,58.49934768676758
2016-07-14,58.119266510009766
2016-07-15,57.706119537353516
2016-07-18,57.82179641723633
2016-07-19,58.07795715332031
2016-07-20,57.67308044433594
2016-07-21,57.9044189453125
2016-07-22,58.17710876464844
2016-07-25,58.10274124145508
2016-07-26,57.929222106933594
2016-07-27,57.49955368041992
2016-07-28,58.56809616088867
2016-07-29,59.222721099853516
2016-08-01,59.77792739868164
2016-08-02,58.012901306152344
2016-08-03,57.325138092041016
2016-08-04,57.623451232910156
2016-08-05,56.81137466430664
2016-08-08,56.71193313598633
2016-08-09,57.11796951293945
2016-08-10,57.34999084472656
2016-08-11,56.49649429321289
2016-08-12,56.877681732177734
2016-08-15,56.33903884887695
2016-08-16,55.46897888183594
2016-08-17,56.02418518066406
2016-08-18,56.18989944458008
2016-08-19,55.35299301147461
2016-08-22,55.899871826171875
2016-08-23,55.7590217590332
2016-08-24,55.25354766845703
2016-08-25,55.24525451660156
2016-08-26,54.46635055541992
2016-08-29,55.00493621826172
2016-08-30,54.39154815673828
2016-08-31,54.63261032104492
2016-09-01,54.640899658203125
2016-09-02,55.081424713134766
2016-09-06,55.83778762817383
2016-09-07,56.51101303100586
2016-09-08,56.03725814819336
2016-09-09,53.41077423095703
2016-09-12,54.474674224853516
2016-09-13,52.81232833862305
2016-09-14,53.186363220214844
2016-09-15,53.46895217895508
2016-09-16,53.5853157043457
2016-09-19,54.208709716796875
2016-09-20,54.516231536865234
2016-09-21,55.48869323730469
2016-09-22,56.41958999633789
2016-09-23,56.56089782714844
2016-09-26,57.08453369140625
2016-09-27,56.6689453125
2016-09-28,57.200904846191406
2016-09-29,56.352294921875
2016-09-30,55.79376983642578
2016-10-03,54.50166320800781
2016-10-04,53.092838287353516
2016-10-05,51.61736297607422
2016-10-06,51.342262268066406
2016-10-07,51.2338981628418
2016-10-10,51.77573776245117
2016-10-11,50.692039489746094
2016-10-12,51.40894317626953
2016-10-13,52.275909423828125
2016-10-14,51.71738052368164
2016-10-17,52.22587585449219
2016-10-18,52.234222412109375
2016-10-19,52.13418960571289
2016-10-20,52.05916213989258
2016-10-21,51.60068130493164
2016-10-24,51.93412780761719
2016-10-25,51.93412780761719
2016-10-26,51.108856201171875
2016-10-27,49.27489471435547
2016-10-28,48.95870590209961
2016-10-31,49.5526008605957
2016-11-01,48.29791259765625
2016-11-02,47.43631362915039
2016-11-03,47.302494049072266
2016-11-04,47.99677658081055
2016-11-07,48.891780853271484
2016-11-08,49.30167007446289
2016-11-09,46.524574279785156
2016-11-10,45.40370559692383
2016-11-11,45.4957160949707
2016-11-14,46.524574279785156
2016-11-15,46.56639862060547
2016-11-16,46.9679069519043
2016-11-17,45.897216796875
2016-11-18,46.13145446777344
2016-11-21,46.08124923706055
2016-11-22,47.34431838989258
2016-11-23,46.94282150268555
2016-11-25,47.31922149658203
2016-11-28,47.13520431518555
2016-11-29,47.632171630859375
2016-11-30,46.54084014892578
2016-12-01,44.90385437011719
2016-12-02,45.9448127746582
2016-12-05,45.9448127746582
2016-12-06,45.82728958129883
2016-12-07,46.54923629760742
2016-12-08,46.4484977722168
2016-12-09,46.683563232421875
2016-12-12,47.16205978393555
2016-12-13,47.10329818725586
2016-12-14,45.87765884399414
2016-12-15,45.36558532714844
2016-12-16,46.5660400390625
2016-12-19,48.127471923828125
2016-12-20,47.64897155761719
2016-12-21,47.21244430541992
2016-12-22,47.28798294067383
2016-12-23,47.35514831542969
2016-12-27,47.37193298339844
2016-12-28,47.08650588989258
2016-12-29,47.71250915527344
2016-12-30,48.42866516113281
2017-01-03,48.43708801269531
2017-01-04,49.16165542602539
2017-01-05,50.484432220458984
2017-01-06,50.417030334472656
2017-01-09,50.04631805419922
2017-01-10,49.4481315612793
2017-01-11,49.313323974609375
2017-01-12,50.189552307128906
2017-01-13,49.768287658691406
2017-01-17,50.66136169433594
2017-01-18,50.36647415161133
2017-01-19,49.86097717285156
2017-01-20,50.29065704345703
2017-01-23,50.77090072631836
2017-01-24,50.36647415161133
2017-01-25,50.23167037963867
2017-01-26,50.391754150390625
2017-01-27,50.08002471923828
2017-01-30,50.131614685058594
2017-01-31,50.41908264160156
2017-02-01,49.30298614501953
2017-02-02,50.24152374267578
2017-02-03,50.579750061035156
2017-02-06,50.579750061035156
2017-02-07,50.85875701904297
2017-02-08,51.154701232910156
2017-02-09,51.222328186035156
2017-02-10,51.814212799072266
2017-02-13,52.101688385009766
2017-02-14,51.39144515991211
2017-02-15,51.00250244140625
2017-02-16,51.222328186035156
2017-02-17,51.408355712890625
2017-02-21,52.01713180541992
2017-02-22,51.69583511352539
2017-02-23,53.1501579284668
2017-02-24,53.429176330566406
2017-02-27,53.56535720825195
2017-02-28,51.987388610839844
2017-03-01,51.4105110168457
2017-03-02,51.376583099365234
2017-03-03,51.189937591552734
2017-03-06,50.62154769897461
2017-03-07,50.76575469970703
2017-03-08,48.95026397705078
2017-03-09,48.483665466308594
2017-03-10,48.68727493286133
2017-03-13,49.05207443237305
2017-03-14,48.98421859741211
2017-03-15,50.248268127441406
2017-03-16,50.10404968261719
2017-03-17,50.78272247314453
2017-03-20,50.44337844848633
2017-03-21,50.9354362487793
2017-03-22,50.8505744934082
2017-03-23,50.6300163269043
2017-03-24,50.44337844848633
2017-03-27,50.112518310546875
2017-03-28,49.95981216430664
2017-03-29,50.112518310546875
2017-03-30,50.17296600341797
2017-03-31,50.683807373046875
2017-04-03,50.837059020996094
2017-04-04,50.84556198120117
2017-04-05,50.87112045288086
2017-04-06,51.22870635986328
2017-04-07,51.305335998535156
2017-04-10,51.72251892089844
2017-04-11,52.28445053100586
2017-04-12,52.258907318115234
2017-04-13,52.31850051879883
2017-04-17,52.62500762939453
2017-04-18,52.837860107421875
2017-04-19,52.76974105834961
2017-04-20,52.84636688232422
2017-04-21,52.573917388916016
2017-04-24,51.15208435058594
2017-04-25,50.93922805786133
2017-04-26,50.4113655090332
2017-04-27,50.79671096801758
2017-04-28,49.8568229675293
2017-05-01,50.258419036865234
2017-05-02,50.44639205932617
2017-05-03,49.41250991821289
2017-05-04,47.66089630126953
2017-05-05,48.37863540649414
2017-05-08,47.575469970703125
2017-05-09,46.96026611328125
2017-05-10,47.49003601074219
2017-05-11,46.515960693359375
2017-05-12,46.763736724853516
2017-05-15,46.39632034301758
2017-05-16,45.46497344970703
2017-05-17,45.9349250793457
2017-05-18,45.986202239990234
2017-05-19,46.310882568359375
2017-05-22,46.251068115234375
2017-05-23,46.259620666503906
2017-05-24,46.70392990112305
2017-05-25,47.12260818481445
2017-05-26,47.148250579833984
2017-05-30,47.17482376098633
2017-05-31,47.11479187011719
2017-06-01,47.638004302978516
2017-06-02,48.530033111572266
2017-06-05,47.492183685302734
2017-06-06,47.53508758544922
2017-06-07,47.706607818603516
2017-06-08,47.08047866821289
2017-06-09,47.44071960449219
2017-06-12,48.15263748168945
2017-06-13,48.2727165222168
2017-06-14,48.84739685058594
2017-06-15,48.81308364868164
2017-06-16,48.607242584228516
2017-06-19,48.22125244140625
2017-06-20,48.17837142944336
2017-06-21,47.53508758544922
2017-06-22,47.02042770385742
2017-06-23,47.41499710083008
2017-06-26,48.44426345825195
2017-06-27,48.02397155761719
2017-06-28,48.72730255126953
2017-06-29,48.0140380859375
2017-06-30,47.50608825683594
2017-07-03,48.25509262084961
2017-07-05,47.53190612792969
2017-07-06,46.60211944580078
2017-07-07,47.08422088623047
2017-07-10,46.14582061767578
2017-07-11,46.395477294921875
2017-07-12,47.06700897216797
2017-07-13,47.46303939819336
2017-07-14,48.42728042602539
2017-07-17,48.62527847290039
2017-07-18,48.71139144897461
2017-07-19,49.21072769165039
2017-07-20,49.34846496582031
2017-07-21,49.33985900878906
2017-07-24,49.21932601928711
2017-07-25,49.44318389892578
2017-07-26,49.86502456665039
2017-07-27,49.8908576965332
2017-07-28,49.4255485534668
2017-07-31,49.304588317871094
2017-08-01,49.892154693603516
2017-08-02,49.33913803100586
2017-08-03,49.28730010986328
2017-08-04,49.641571044921875
2017-08-07,49.641571044921875
2017-08-08,49.51197052001953
2017-08-09,49.66749954223633
2017-08-10,49.27001953125
2017-08-11,48.80339813232422
2017-08-14,49.52923583984375
2017-08-15,49.22682189941406
2017-08-16,49.779823303222656
2017-08-17,49.41691207885742
2017-08-18,49.12312316894531
2017-08-21,50.013126373291016
2017-08-22,49.58110046386719
2017-08-23,50.20322799682617
2017-08-24,49.684783935546875
2017-08-25,50.15137481689453
2017-08-28,49.43419647216797
2017-08-29,49.37370681762695
2017-08-30,49.366336822509766
2017-08-31,49.9213981628418
2017-09-01,50.18158721923828
2017-09-05,50.58055114746094
2017-09-06,50.459129333496094
2017-09-07,50.91879653930664
2017-09-08,51.45650100708008
2017-09-11,51.56058883666992
2017-09-12,51.10092544555664
2017-09-13,50.98817825317383
2017-09-14,51.517215728759766
2017-09-15,51.95087814331055
2017-09-18,51.656002044677734
2017-09-19,50.99684143066406
2017-09-20,50.59789276123047
2017-09-21,50.22495651245117
2017-09-22,49.930076599121094
2017-09-25,50.24230194091797
2017-09-26,50.59789276123047
2017-09-27,49.70458221435547
2017-09-28,50.14690017700195
2017-09-29,49.78303909301758
2017-10-02,49.67858123779297
2017-10-03,49.66116714477539
2017-10-04,49.74821853637695
2017-10-05,49.64374923706055
2017-10-06,49.164974212646484
2017-10-09,49.208534240722656
2017-10-10,49.278160095214844
2017-10-11,49.33037185668945
2017-10-12,49.40001678466797
2017-10-13,49.50448989868164
2017-10-16,49.53059387207031
2017-10-17,49.695987701416016
2017-10-18,48.99960708618164
2017-10-19,48.929962158203125
2017-10-20,48.346736907958984
2017-10-23,48.285804748535156
2017-10-24,47.84185791015625
2017-10-25,47.41532516479492
2017-10-26,46.51873016357422
2017-10-27,46.945247650146484
2017-10-30,47.15416717529297
2017-10-31,46.902488708496094
2017-11-01,47.12969207763672
2017-11-02,47.994873046875
2017-11-03,48.22209167480469
2017-11-06,48.2919921875
2017-11-07,49.130943298339844
2017-11-08,49.087249755859375
2017-11-09,49.1659049987793
2017-11-10,49.174644470214844
2017-11-13,49.52418899536133
2017-11-14,49.725196838378906
2017-11-15,49.34942626953125
2017-11-16,49.36689758300781
2017-11-17,49.3581428527832
2017-11-20,49.043548583984375
2017-11-21,49.41059112548828
2017-11-22,49.19212341308594
2017-11-24,49.279518127441406
2017-11-27,49.130943298339844
2017-11-28,48.83382034301758
2017-11-29,48.47551727294922
2017-11-30,48.51236343383789
2017-12-01,48.7316780090332
2017-12-04,48.547462463378906
2017-12-05,48.44218444824219
2017-12-06,47.98601531982422
2017-12-07,48.10005187988281
2017-12-08,48.757999420166016
2017-12-11,48.61763000488281
2017-12-12,48.89836120605469
2017-12-13,49.8896598815918
2017-12-14,49.97738265991211
2017-12-15,50.35460662841797
2017-12-18,50.70550537109375
2017-12-19,49.43347930908203
2017-12-20,48.784305572509766
2017-12-21,48.468505859375
2017-12-22,48.99485778808594
2017-12-26,49.328208923339844
2017-12-27,49.75806427001953
2017-12-28,50.10898208618164
2017-12-29,50.20802688598633
2018-01-02,49.85582733154297
2018-01-03,49.72373962402344
2018-01-04,48.64948272705078
2018-01-05,48.614261627197266
2018-01-08,48.675907135009766
2018-01-09,47.768959045410156
2018-01-10,46.72111892700195
2018-01-11,46.91484069824219
2018-01-12,46.42173767089844
2018-01-16,46.61545181274414
2018-01-17,46.879608154296875
2018-01-18,46.448158264160156
2018-01-19,46.79155731201172
2018-01-22,47.4255485534668
2018-01-23,48.0155029296875
2018-01-24,47.5576171875
2018-01-25,47.93623733520508
2018-01-26,47.733734130859375
2018-01-29,46.71232223510742
2018-01-30,46.19280242919922
2018-01-31,47.031917572021484
2018-02-01,45.61716842651367
2018-02-02,45.3165397644043
2018-02-05,44.29966735839844
2018-02-06,44.27314376831055
2018-02-07,43.256282806396484
2018-02-08,42.053733825683594
2018-02-09,43.23859786987305
2018-02-12,43.0440673828125
2018-02-13,43.318180084228516
2018-02-14,42.53121566772461
2018-02-15,43.57460403442383
2018-02-16,44.17588424682617
2018-02-20,43.68070983886719
2018-02-21,42.78764724731445
2018-02-22,43.5922966003418
2018-02-23,44.38808822631836
2018-02-26,44.741790771484375
2018-02-27,43.65418243408203
2018-02-28,43.6799430847168
2018-03-01,44.06186294555664
2018-03-02,44.16843032836914
2018-03-05,44.68357467651367
2018-03-06,44.88784408569336
2018-03-07,45.163177490234375
2018-03-08,44.92337417602539
2018-03-09,45.18093490600586
2018-03-12,45.51845169067383
2018-03-13,45.69607925415039
2018-03-14,45.642784118652344
2018-03-15,45.42074203491211
2018-03-16,45.713836669921875
2018-03-19,45.20759201049805
2018-03-20,44.834571838378906
2018-03-21,44.31942367553711
2018-03-22,44.29277420043945
2018-03-23,43.81317138671875
2018-03-26,44.36382293701172
2018-03-27,44.69245529174805
2018-03-28,45.971405029296875
2018-03-29,46.140438079833984
2018-04-02,45.64094543457031
2018-04-03,46.149356842041016
2018-04-04,46.78263473510742
2018-04-05,46.711280822753906
2018-04-06,46.45261764526367
2018-04-09,46.28314971923828
2018-04-10,46.13151931762695
2018-04-11,46.22963333129883
2018-04-12,45.221736907958984
2018-04-13,45.319847106933594
2018-04-16,45.5606689453125
2018-04-17,46.03340148925781
2018-04-18,45.87285232543945
2018-04-19,44.74899673461914
2018-04-20,44.17814636230469
2018-04-23,43.82136917114258
2018-04-24,44.13355255126953
2018-04-25,44.24951171875
2018-04-26,44.94522476196289
2018-04-27,45.890689849853516
2018-04-30,45.2457275390625
2018-05-01,45.84589385986328
2018-05-02,45.514461517333984
2018-05-03,45.944435119628906
2018-05-04,46.82229995727539
2018-05-07,47.180606842041016
2018-05-08,46.99249267578125
2018-05-09,47.35976028442383
2018-05-10,47.9420166015625
2018-05-11,47.467262268066406
2018-05-14,47.279144287109375
2018-05-15,46.329620361328125
2018-05-16,46.49085998535156
2018-05-17,46.329620361328125
2018-05-18,46.275875091552734
2018-05-21,46.858123779296875
2018-05-22,46.83125305175781
2018-05-23,47.458290100097656
2018-05-24,47.28810501098633
2018-05-25,47.332881927490234
2018-05-29,47.762855529785156
2018-05-30,48.13013458251953
2018-05-31,47.940792083740234
2018-06-01,47.706932067871094
2018-06-04,47.81488037109375
2018-06-05,47.67096710205078
2018-06-06,47.913814544677734
2018-06-07,47.98576736450195
2018-06-08,47.913814544677734
2018-06-11,48.02174377441406
2018-06-12,48.543426513671875
2018-06-13,47.13130187988281
2018-06-14,47.6619758605957
2018-06-15,47.643978118896484
2018-06-18,47.58102035522461
2018-06-19,47.545047760009766
2018-06-20,48.111698150634766
2018-06-21,48.138675689697266
2018-06-22,48.37253189086914
2018-06-25,48.78627395629883
2018-06-26,48.885223388671875
2018-06-27,49.04713439941406
2018-06-28,48.840248107910156
2018-06-29,48.57834243774414
2018-07-02,48.117767333984375
2018-07-03,48.90345764160156
2018-07-05,49.81561279296875
2018-07-06,50.194923400878906
2018-07-09,49.562744140625
2018-07-10,50.09557342529297
2018-07-11,49.79754638671875
2018-07-12,50.0504150390625
2018-07-13,49.80657958984375
2018-07-16,49.58982849121094
2018-07-17,49.418243408203125
2018-07-18,49.64402389526367
2018-07-19,50.40262985229492
2018-07-20,50.11363220214844
2018-07-23,50.09557342529297
2018-07-24,49.62596130371094
2018-07-25,50.34843444824219
2018-07-26,50.35747146606445
2018-07-27,49.70723342895508
2018-07-30,50.00526428222656
2018-07-31,50.56742858886719
2018-08-01,50.75783157348633
2018-08-02,51.601070404052734
2018-08-03,52.29018783569336
2018-08-06,52.23577117919922
2018-08-07,51.909366607666016
2018-08-08,51.818687438964844
2018-08-09,51.66455078125
2018-08-10,51.23839569091797
2018-08-13,51.42880630493164
2018-08-14,51.755218505859375
2018-08-15,52.23577117919922
2018-08-16,52.770748138427734
2018-08-17,53.3600959777832
2018-08-20,53.296630859375
2018-08-21,53.133419036865234
2018-08-22,53.02461624145508
2018-08-23,52.997413635253906
2018-08-24,53.133419036865234
2018-08-27,52.92487716674805
2018-08-28,53.5595703125
2018-08-29,53.060890197753906
2018-08-30,52.970218658447266
2018-08-31,53.30696487426758
2018-09-04,53.124935150146484
2018-09-05,53.36157989501953
2018-09-06,53.5072021484375
2018-09-07,52.91560745239258
2018-09-10,53.10673141479492
2018-09-11,52.79728317260742
2018-09-12,52.88829803466797
2018-09-13,52.91560745239258
2018-09-14,52.478736877441406
2018-09-17,52.94291305541992
2018-09-18,52.342220306396484
2018-09-19,51.55949401855469
2018-09-20,52.123779296875
2018-09-21,51.86894607543945
2018-09-24,51.08622360229492
2018-09-25,51.386566162109375
2018-09-26,50.8040771484375
2018-09-27,51.077110290527344
2018-09-28,51.9821662902832
2018-10-01,51.71718215942383
2018-10-02,51.90907669067383
2018-10-03,51.86338806152344
2018-10-04,51.6623649597168
2018-10-05,52.13751220703125
2018-10-08,53.069515228271484
2018-10-09,53.51723861694336
2018-10-10,52.36593246459961
2018-10-11,51.13240432739258
2018-10-12,51.031883239746094
2018-10-15,51.32427978515625
2018-10-16,52.58523941040039
2018-10-17,53.0329704284668
2018-10-18,52.9141731262207
2018-10-19,53.45328140258789
2018-10-22,52.73141860961914
2018-10-23,53.425872802734375
2018-10-24,54.64113998413086
2018-10-25,55.043174743652344
2018-10-26,54.577178955078125
2018-10-29,56.0117301940918
2018-10-30,56.103111267089844
2018-10-31,55.26951599121094
2018-11-01,56.11319351196289
2018-11-02,55.260345458984375
2018-11-05,56.369964599609375
2018-11-06,56.452491760253906
2018-11-07,57.12192153930664
2018-11-08,57.2961540222168
2018-11-09,57.55292892456055
2018-11-12,57.67213439941406
2018-11-13,57.62628936767578
2018-11-14,57.92890548706055
2018-11-15,57.479557037353516
2018-11-16,58.497467041015625
2018-11-19,58.662540435791016
2018-11-20,58.56166076660156
2018-11-21,58.31406784057617
2018-11-23,58.139827728271484
2018-11-26,57.80051803588867
2018-11-27,58.3965950012207
2018-11-28,58.35991668701172
2018-11-29,58.56166076660156
2018-11-30,58.976219177246094
2018-12-03,59.3074836730957
2018-12-04,58.93021011352539
2018-12-06,60.92707443237305
2018-12-07,60.669403076171875
2018-12-10,60.42095184326172
2018-12-11,61.00990295410156
2018-12-12,59.97003936767578
2018-12-13,61.02827835083008
2018-12-14,61.046688079833984
2018-12-17,58.9946174621582
2018-12-18,59.86881637573242
2018-12-19,59.463932037353516
2018-12-20,59.06825256347656
2018-12-21,58.70014953613281
2018-12-24,55.461021423339844
2018-12-26,57.89036560058594
2018-12-27,58.258453369140625
2018-12-28,58.29525375366211
2018-12-31,58.21309280395508
2019-01-02,57.18806457519531
2019-01-03,57.69595718383789
2019-01-04,57.677486419677734
2019-01-07,57.511268615722656
2019-01-08,58.35158157348633
2019-01-09,58.1207275390625
2019-01-10,59.03493118286133
2019-01-11,59.367366790771484
2019-01-14,58.94258499145508
2019-01-15,59.810604095458984
2019-01-16,59.699798583984375
2019-01-17,59.8475456237793
2019-01-18,59.699798583984375
2019-01-22,59.810604095458984
2019-01-23,59.4874153137207
2019-01-24,59.339664459228516
2019-01-25,60.226158142089844
2019-01-28,60.937198638916016
2019-01-29,61.57437515258789
2019-01-30,62.396217346191406
2019-01-31,63.643314361572266
2019-02-01,62.84651184082031
2019-02-04,63.773033142089844
2019-02-05,64.22705078125
2019-02-06,64.09732818603516
2019-02-07,64.9497299194336
2019-02-08,64.9311752319336
2019-02-11,65.2369613647461
2019-02-12,64.25482940673828
2019-02-13,64.46794128417969
2019-02-14,64.65323638916016
2019-02-15,64.94046783447266
2019-02-19,64.78296661376953
2019-02-20,63.7545051574707
2019-02-21,64.44943237304688
2019-02-22,64.61617279052734
2019-02-25,64.30116271972656
2019-02-26,64.08805847167969
2019-02-27,63.773033142089844
2019-02-28,64.28988647460938
2019-03-01,64.27129364013672
2019-03-04,64.64313507080078
2019-03-05,64.88480377197266
2019-03-06,64.61524963378906
2019-03-07,64.56875610351562
2019-03-08,64.83834075927734
2019-03-11,65.74932861328125
2019-03-12,66.33494567871094
2019-03-13,66.2791976928711
2019-03-14,66.84623718261719
2019-03-15,66.22342681884766
2019-03-18,66.00962829589844
2019-03-19,65.11721801757812
2019-03-20,65.75861358642578
2019-03-21,67.36680603027344
2019-03-22,67.48766326904297
2019-03-25,68.09188079833984
2019-03-26,68.77046966552734
2019-03-27,68.27778625488281
2019-03-28,68.66822814941406
2019-03-29,68.58990478515625
2019-04-01,67.81596374511719
2019-04-02,67.64813232421875
2019-04-03,67.08867645263672
2019-04-04,66.93948364257812
2019-04-05,67.3963623046875
2019-04-08,67.13530731201172
2019-04-09,66.3800277709961
2019-04-10,66.91150665283203
2019-04-11,66.57584381103516
2019-04-12,66.4919204711914
2019-04-15,66.55718231201172
2019-04-16,64.65501403808594
2019-04-17,63.19110107421875
2019-04-18,63.89973449707031
2019-04-22,63.302982330322266
2019-04-23,64.39392852783203
2019-04-24,65.19584655761719
2019-04-25,65.34500122070312
2019-04-26,65.81124114990234
2019-04-29,64.8042221069336
2019-04-30,65.49272918701172
2019-05-01,65.48336029052734
2019-05-02,65.69853973388672
2019-05-03,65.76398468017578
2019-05-06,65.44593811035156
2019-05-07,62.3307991027832
2019-05-08,62.508544921875
2019-05-09,63.01371765136719
2019-05-10,63.83693313598633
2019-05-13,64.08013916015625
2019-05-14,64.55724334716797
2019-05-15,64.80046844482422
2019-05-16,64.837890625
2019-05-17,64.80046844482422
2019-05-20,63.90240478515625
2019-05-21,64.59466552734375
2019-05-22,65.22144317626953
2019-05-23,66.02593994140625
2019-05-24,65.9791488647461
2019-05-28,65.2401351928711
2019-05-29,64.36078643798828
2019-05-30,64.75370025634766
2019-05-31,65.77295684814453
2019-06-03,66.9367446899414
2019-06-04,66.07328033447266
2019-06-05,68.02544403076172
2019-06-06,68.14744567871094
2019-06-07,68.18499755859375
2019-06-10,67.35906982421875
2019-06-11,67.79082489013672
2019-06-12,68.57919311523438
2019-06-13,68.2319107055664
2019-06-14,68.76689147949219
2019-06-17,68.77628326416016
2019-06-18,68.13806915283203
2019-06-19,68.71995544433594
2019-06-20,68.78564453125
2019-06-21,67.80958557128906
2019-06-24,67.36844635009766
2019-06-25,66.08267974853516
2019-06-26,64.29003143310547
2019-06-27,65.15350341796875
2019-06-28,64.94306182861328
2019-07-01,64.0579605102539
2019-07-02,65.06544494628906
2019-07-03,66.53439331054688
2019-07-05,65.90351104736328
2019-07-08,66.01651763916016
2019-07-09,66.58146667480469
2019-07-10,67.08051300048828
2019-07-11,66.53439331054688
2019-07-12,66.60030364990234
2019-07-15,66.28014373779297
2019-07-16,65.7811050415039
2019-07-17,65.83759307861328
2019-07-18,66.007080078125
2019-07-19,64.72649383544922
2019-07-22,64.50048828125
2019-07-23,65.5362777709961
2019-07-24,65.2537841796875
2019-07-25,64.8582992553711
2019-07-26,65.47978973388672
2019-07-29,66.0824203491211
2019-07-30,65.93175506591797
2019-07-31,65.3810043334961
2019-08-01,65.8155517578125
2019-08-02,66.17455291748047
2019-08-05,65.14483642578125
2019-08-06,66.00450897216797
2019-08-07,67.37427520751953
2019-08-08,68.00720977783203
2019-08-09,68.65904998779297
2019-08-12,68.71571350097656
2019-08-13,68.28117370605469
2019-08-14,67.79936981201172
2019-08-15,68.21503448486328
2019-08-16,68.78184509277344
2019-08-19,69.32975769042969
2019-08-20,68.50788879394531
2019-08-21,68.63069915771484
2019-08-22,69.02745819091797
2019-08-23,68.4889907836914
2019-08-26,69.13136291503906
2019-08-27,69.08413696289062
2019-08-28,69.32975769042969
2019-08-29,69.83988952636719
2019-08-30,69.94081115722656
2019-09-03,71.50430297851562
2019-09-04,72.48030853271484
2019-09-05,71.06841278076172
2019-09-06,71.9686050415039
2019-09-09,71.3052978515625
2019-09-10,69.83656311035156
2019-09-11,69.76075744628906
2019-09-12,70.58515167236328
2019-09-13,68.82264709472656
2019-09-16,70.09241485595703
2019-09-17,71.79804992675781
2019-09-18,71.4190444946289
2019-09-19,71.65593719482422
2019-09-20,71.91175842285156
2019-09-23,72.05390167236328
2019-09-24,72.11075592041016
2019-09-25,72.13917541503906
2019-09-26,73.22889709472656
2019-09-27,73.08675384521484
2019-09-30,72.87481689453125
2019-10-01,73.02688598632812
2019-10-02,72.92234802246094
2019-10-03,73.94874572753906
2019-10-04,74.51898956298828
2019-10-07,73.958251953125
2019-10-08,74.05330657958984
2019-10-09,74.40493774414062
2019-10-10,74.82310485839844
2019-10-11,74.0247802734375
2019-10-14,74.10081481933594
2019-10-15,74.20536041259766
2019-10-16,74.6995620727539
2019-10-17,74.6900405883789
2019-10-18,75.52638244628906
2019-10-21,75.98255157470703
2019-10-22,75.76398468017578
2019-10-23,76.315185546875
2019-10-24,76.837890625
2019-10-25,76.86640167236328
2019-10-28,76.86640167236328
2019-10-29,76.837890625
2019-10-30,77.87380981445312
2019-10-31,77.94719696044922
2019-11-01,77.27054595947266
2019-11-04,76.3937759399414
2019-11-05,74.55445861816406
2019-11-06,75.09767150878906
2019-11-07,73.92545318603516
2019-11-08,72.73419952392578
2019-11-11,72.96290588378906
2019-11-12,72.20051574707031
2019-11-13,73.21068572998047
2019-11-14,73.6109619140625
2019-11-15,73.82061767578125
2019-11-18,74.59255981445312
2019-11-19,74.13511657714844
2019-11-20,74.32572174072266
2019-11-21,72.90572357177734
2019-11-22,72.6388931274414
2019-11-25,72.71511840820312
2019-11-26,73.12492370605469
2019-11-27,74.03980255126953
2019-11-29,73.24362182617188
2019-12-02,72.15400695800781
2019-12-03,72.06797790527344
2019-12-04,72.5841293334961
2019-12-05,72.33560943603516
2019-12-06,72.5841293334961
2019-12-09,72.40252685546875
2019-12-10,72.2686996459961
2019-12-11,71.28421783447266
2019-12-12,69.90785217285156
2019-12-13,69.296142578125
2019-12-16,69.8122787475586
2019-12-17,68.56017303466797
2019-12-18,68.88513946533203
2019-12-19,69.15276336669922
2019-12-20,69.296142578125
2019-12-23,68.77044677734375
2019-12-24,69.1623306274414
2019-12-26,69.62113189697266
2019-12-27,70.01300048828125
2019-12-30,70.01300048828125
2019-12-31,70.59593963623047
