Date,OII
2007-12-31,29.768102645874023
2008-01-02,31.53606414794922
2008-01-03,33.2288932800293
2008-01-04,32.428890228271484
2008-01-07,32.627777099609375
2008-01-08,32.565895080566406
2008-01-09,33.07419204711914
2008-01-10,32.37143325805664
2008-01-11,31.83661460876465
2008-01-14,32.04436111450195
2008-01-15,30.859821319580078
2008-01-16,29.723899841308594
2008-01-17,28.25206756591797
2008-01-18,27.93825340270996
2008-01-22,26.99239158630371
2008-01-23,26.148197174072266
2008-01-24,27.262012481689453
2008-01-25,26.744882583618164
2008-01-28,27.164772033691406
2008-01-29,26.85980224609375
2008-01-30,26.29846954345703
2008-01-31,25.449848175048828
2008-02-01,26.6785831451416
2008-02-04,25.966981887817383
2008-02-05,25.153715133666992
2008-02-06,24.786865234375
2008-02-07,25.595703125
2008-02-08,26.148197174072266
2008-02-11,27.30620765686035
2008-02-12,26.70509910583496
2008-02-13,27.743776321411133
2008-02-14,27.708419799804688
2008-02-15,28.371408462524414
2008-02-19,28.596824645996094
2008-02-20,28.9769344329834
2008-02-21,26.607868194580078
2008-02-22,27.509525299072266
2008-02-25,27.801246643066406
2008-02-26,29.034393310546875
2008-02-27,28.022235870361328
2008-02-28,28.464231491088867
2008-02-29,26.519458770751953
2008-03-03,26.855375289916992
2008-03-04,26.541563034057617
2008-03-05,27.38576316833496
2008-03-06,26.607868194580078
2008-03-07,25.940454483032227
2008-03-10,24.84874153137207
2008-03-11,26.316152572631836
2008-03-12,25.900680541992188
2008-03-13,26.320568084716797
2008-03-14,27.094053268432617
2008-03-17,25.750398635864258
2008-03-18,27.164772033691406
2008-03-19,25.608964920043945
2008-03-20,24.950393676757812
2008-03-24,25.666423797607422
2008-03-25,26.94377899169922
2008-03-26,28.04433822631836
2008-03-27,28.09295654296875
2008-03-28,28.00455665588379
2008-03-31,27.845436096191406
2008-04-01,28.150415420532227
2008-04-02,27.889633178710938
2008-04-03,27.69074249267578
2008-04-04,27.66864013671875
2008-04-07,27.712841033935547
2008-04-08,27.810081481933594
2008-04-09,27.438810348510742
2008-04-10,27.403444290161133
2008-04-11,27.169191360473633
2008-04-14,27.32389259338379
2008-04-15,28.808979034423828
2008-04-16,29.507322311401367
2008-04-17,30.01561737060547
2008-04-18,30.656497955322266
2008-04-21,30.722810745239258
2008-04-22,30.484132766723633
2008-04-23,29.980257034301758
2008-04-24,29.732744216918945
2008-04-25,30.404569625854492
2008-04-28,30.07750129699707
2008-04-29,28.340473175048828
2008-04-30,29.516170501708984
2008-05-01,27.527206420898438
2008-05-02,28.022235870361328
2008-05-05,28.47748565673828
2008-05-06,28.994613647460938
2008-05-07,28.751522064208984
2008-05-08,30.104015350341797
2008-05-09,32.092987060546875
2008-05-12,32.3537483215332
2008-05-13,33.99795150756836
2008-05-14,32.36259078979492
2008-05-15,32.95486068725586
2008-05-16,33.763702392578125
2008-05-19,33.710655212402344
2008-05-20,33.59131622314453
2008-05-21,33.392425537109375
2008-05-22,32.38469314575195
2008-05-23,32.04436111450195
2008-05-27,31.49627685546875
2008-05-28,32.42447280883789
2008-05-29,31.500707626342773
2008-05-30,31.540489196777344
2008-06-02,31.178050994873047
2008-06-03,31.82335662841797
2008-06-04,32.190223693847656
2008-06-05,33.83441925048828
2008-06-06,34.024478912353516
2008-06-09,34.39573669433594
2008-06-10,33.4808349609375
2008-06-11,33.96700668334961
2008-06-12,33.3747444152832
2008-06-13,34.06425857543945
2008-06-16,34.77143478393555
2008-06-17,35.562599182128906
2008-06-18,36.20348358154297
2008-06-19,34.957061767578125
2008-06-20,35.12946319580078
2008-06-23,36.45985412597656
2008-06-24,34.475303649902344
2008-06-25,33.85651779174805
2008-06-26,33.66646194458008
2008-06-27,33.69740295410156
2008-06-30,34.055416107177734
2008-07-01,33.51176071166992
2008-07-02,31.858713150024414
2008-07-03,31.2708740234375
2008-07-07,31.292970657348633
2008-07-08,30.404569625854492
2008-07-09,31.522804260253906
2008-07-10,32.11507797241211
2008-07-11,32.22999572753906
2008-07-14,32.15927505493164
2008-07-15,31.425567626953125
2008-07-16,30.1879940032959
2008-07-17,30.506223678588867
2008-07-18,31.04103660583496
2008-07-21,31.849864959716797
2008-07-22,30.095170974731445
2008-07-23,28.5084285736084
2008-07-24,28.65428352355957
2008-07-25,28.972517013549805
2008-07-28,28.83108139038086
2008-07-29,28.238811492919922
2008-07-30,29.887441635131836
2008-07-31,26.802335739135742
2008-08-01,25.803442001342773
2008-08-04,24.879680633544922
2008-08-05,25.08299446105957
2008-08-06,25.96255874633789
2008-08-07,25.564760208129883
2008-08-08,24.86199378967285
2008-08-11,24.84874153137207
2008-08-12,24.663097381591797
2008-08-13,25.67525863647461
2008-08-14,25.295146942138672
2008-08-15,24.91946029663086
2008-08-18,24.963661193847656
2008-08-19,25.626644134521484
2008-08-20,26.395708084106445
2008-08-21,26.79792022705078
2008-08-22,26.616703033447266
2008-08-25,26.12609100341797
2008-08-26,27.38135528564453
2008-08-27,27.973609924316406
2008-08-28,27.92500114440918
2008-08-29,27.58466911315918
2008-09-02,25.348190307617188
2008-09-03,24.62774658203125
2008-09-04,24.473047256469727
2008-09-05,24.503986358642578
2008-09-08,23.969179153442383
2008-09-09,22.95701789855957
2008-09-10,24.26531219482422
2008-09-11,24.65868377685547
2008-09-12,26.01559829711914
2008-09-15,24.358131408691406
2008-09-16,25.025537490844727
2008-09-17,25.48078727722168
2008-09-18,27.014493942260742
2008-09-19,28.340473175048828
2008-09-22,27.79681968688965
2008-09-23,26.103994369506836
2008-09-24,26.081892013549805
2008-09-25,25.86531639099121
2008-09-26,25.317251205444336
2008-09-29,23.52718734741211
2008-09-30,23.566965103149414
2008-10-01,22.006732940673828
2008-10-02,18.91279411315918
2008-10-03,18.121633529663086
2008-10-06,16.14151954650879
2008-10-07,14.88183879852295
2008-10-08,14.970239639282227
2008-10-09,13.834320068359375
2008-10-10,12.623265266418457
2008-10-13,15.151451110839844
2008-10-14,15.023280143737793
2008-10-15,12.534869194030762
2008-10-16,12.375753402709961
2008-10-17,12.35806941986084
2008-10-20,13.57796573638916
2008-10-21,12.764699935913086
2008-10-22,11.23099422454834
2008-10-23,10.970219612121582
2008-10-24,10.749222755432129
2008-10-27,9.626566886901855
2008-10-28,10.859722137451172
2008-10-29,12.00889778137207
2008-10-30,12.866360664367676
2008-10-31,12.450888633728027
2008-11-03,12.640946388244629
2008-11-04,13.670784950256348
2008-11-05,12.707245826721191
2008-11-06,12.004476547241211
2008-11-07,12.503928184509277
2008-11-10,12.260830879211426
2008-11-11,11.95144271850586
2008-11-12,11.063036918640137
2008-11-13,12.362492561340332
2008-11-14,11.425469398498535
2008-11-17,10.731544494628906
2008-11-18,11.301713943481445
2008-11-19,10.302814483642578
2008-11-20,8.654183387756348
2008-11-21,9.533747673034668
2008-11-24,9.95805835723877
2008-11-25,10.27187442779541
2008-11-26,11.416630744934082
2008-11-28,11.41220760345459
2008-12-01,9.821039199829102
2008-12-02,10.316073417663574
2008-12-03,10.0022611618042
2008-12-04,8.724905014038086
2008-12-05,8.716062545776367
2008-12-08,9.54258918762207
2008-12-09,10.501708030700684
2008-12-10,11.385689735412598
2008-12-11,11.173535346984863
2008-12-12,11.120495796203613
2008-12-15,11.261933326721191
2008-12-16,12.114975929260254
2008-12-17,12.49509048461914
2008-12-18,11.147015571594238
2008-12-19,11.518287658691406
2008-12-22,11.712766647338867
2008-12-23,12.114975929260254
2008-12-24,11.761384010314941
2008-12-26,12.203375816345215
2008-12-29,12.530448913574219
2008-12-30,12.7337646484375
2008-12-31,12.879621505737305
2009-01-02,13.410011291503906
2009-01-05,14.015536308288574
2009-01-06,14.930459022521973
2009-01-07,13.931559562683105
2009-01-08,14.25863265991211
2009-01-09,13.33487319946289
2009-01-12,12.826581001281738
2009-01-13,13.436530113220215
2009-01-14,12.63210678100586
2009-01-15,13.281830787658691
2009-01-16,13.051997184753418
2009-01-20,12.424370765686035
2009-01-21,13.57796573638916
2009-01-22,12.923818588256836
2009-01-23,14.037637710571289
2009-01-26,14.338191032409668
2009-01-27,14.568024635314941
2009-01-28,15.491790771484375
2009-01-29,15.116095542907715
2009-01-30,15.231012344360352
2009-02-02,14.837642669677734
2009-02-03,14.475207328796387
2009-02-04,14.802278518676758
2009-02-05,15.279633522033691
2009-02-06,15.889580726623535
2009-02-09,15.390127182006836
2009-02-10,14.96139907836914
2009-02-11,14.70504379272461
2009-02-12,14.510567665100098
2009-02-13,14.51940631866455
2009-02-17,13.529350280761719
2009-02-18,13.476308822631836
2009-02-19,14.18791389465332
2009-02-20,13.72824478149414
2009-02-23,12.923818588256836
2009-02-24,13.613324165344238
2009-02-25,13.445369720458984
2009-02-26,13.940399169921875
2009-02-27,14.042057991027832
2009-03-02,12.552546501159668
2009-03-03,12.782380104064941
2009-03-04,13.905040740966797
2009-03-05,13.127137184143066
2009-03-06,12.901721000671387
2009-03-09,13.250893592834473
2009-03-10,14.148136138916016
2009-03-11,13.524930000305176
2009-03-12,14.674104690551758
2009-03-13,14.828801155090332
2009-03-16,15.341511726379395
2009-03-17,15.721623420715332
2009-03-18,15.924932479858398
2009-03-19,16.866376876831055
2009-03-20,15.907261848449707
2009-03-23,17.41887092590332
2009-03-24,16.950361251831055
2009-03-25,17.71058464050293
2009-03-26,17.85201644897461
2009-03-27,17.50726890563965
2009-03-30,16.63654136657715
2009-03-31,16.29621124267578
2009-04-01,16.000080108642578
2009-04-02,17.144834518432617
2009-04-03,17.692899703979492
2009-04-06,16.981300354003906
2009-04-07,16.80008888244629
2009-04-08,17.105056762695312
2009-04-09,18.373567581176758
2009-04-13,18.267498016357422
2009-04-14,18.408933639526367
2009-04-15,18.541526794433594
2009-04-16,18.713903427124023
2009-04-17,19.20009422302246
2009-04-20,17.807825088500977
2009-04-21,18.846498489379883
2009-04-22,19.032136917114258
2009-04-23,18.766942977905273
2009-04-24,19.42108917236328
2009-04-27,18.939313888549805
2009-04-28,18.554786682128906
2009-04-29,19.628826141357422
2009-04-30,20.141530990600586
2009-05-01,21.219993591308594
2009-05-04,22.48408317565918
2009-05-05,22.148174285888672
2009-05-06,22.69182777404785
2009-05-07,21.53380584716797
2009-05-08,22.930503845214844
2009-05-11,22.015579223632812
2009-05-12,22.042098999023438
2009-05-13,21.034360885620117
2009-05-14,21.144859313964844
2009-05-15,20.39347267150879
2009-05-18,22.0023193359375
2009-05-19,21.869718551635742
2009-05-20,21.604528427124023
2009-05-21,20.74706268310547
2009-05-22,20.786840438842773
2009-05-26,21.96695899963379
2009-05-27,22.0023193359375
2009-05-28,22.249834060668945
2009-05-29,22.727182388305664
2009-06-01,23.425533294677734
2009-06-02,23.328292846679688
2009-06-03,22.466411590576172
2009-06-04,23.041000366210938
2009-06-05,23.13823890686035
2009-06-08,22.643203735351562
2009-06-09,23.186853408813477
2009-06-10,23.482988357543945
2009-06-11,23.97359848022461
2009-06-12,23.407852172851562
2009-06-15,22.621103286743164
2009-06-16,21.684083938598633
2009-06-17,20.844297409057617
2009-06-18,20.74706268310547
2009-06-19,20.503963470458984
2009-06-22,18.784622192382812
2009-06-23,19.832143783569336
2009-06-24,19.61556625366211
2009-06-25,20.57026481628418
2009-06-26,20.442089080810547
2009-06-29,20.327171325683594
2009-06-30,19.977994918823242
2009-07-01,19.977994918823242
2009-07-02,19.28849220275879
2009-07-06,18.97467803955078
2009-07-07,18.276330947875977
2009-07-08,18.36031150817871
2009-07-09,18.461971282958984
2009-07-10,18.16141700744629
2009-07-13,18.603408813476562
2009-07-14,19.28849220275879
2009-07-15,19.814464569091797
2009-07-16,20.115015029907227
2009-07-17,20.424409866333008
2009-07-20,20.950380325317383
2009-07-21,21.082977294921875
2009-07-22,20.65424346923828
2009-07-23,21.507286071777344
2009-07-24,21.47193145751953
2009-07-27,21.31281280517578
2009-07-28,20.901762008666992
2009-07-29,20.733800888061523
2009-07-30,21.82552146911621
2009-07-31,22.506187438964844
2009-08-03,23.7879638671875
2009-08-04,23.47857093811035
2009-08-05,23.390167236328125
2009-08-06,23.35481071472168
2009-08-07,23.615581512451172
2009-08-10,23.606746673583984
2009-08-11,23.04541778564453
2009-08-12,23.155912399291992
2009-08-13,23.580224990844727
2009-08-14,22.965850830078125
2009-08-17,21.856464385986328
2009-08-18,22.36033058166504
2009-08-19,23.063095092773438
2009-08-20,23.45204734802246
2009-08-21,24.424427032470703
2009-08-24,24.327192306518555
2009-08-25,24.044313430786133
2009-08-26,23.774707794189453
2009-08-27,23.80121612548828
2009-08-28,23.8940372467041
2009-08-31,23.058671951293945
2009-09-01,22.890724182128906
2009-09-02,23.24872589111328
2009-09-03,23.69072151184082
2009-09-04,24.274152755737305
2009-09-08,24.972501754760742
2009-09-09,25.37028694152832
2009-09-10,25.657575607299805
2009-09-11,25.494047164916992
2009-09-14,25.949298858642578
2009-09-15,25.98907470703125
2009-09-16,26.545989990234375
2009-09-17,26.42664909362793
2009-09-18,25.97582244873047
2009-09-21,25.83879852294922
2009-09-22,26.30731201171875
2009-09-23,25.516141891479492
2009-09-24,24.380224227905273
2009-09-25,24.313932418823242
2009-09-28,24.95923614501953
2009-09-29,25.357027053833008
2009-09-30,25.08299446105957
2009-10-01,24.11945152282715
2009-10-02,23.681882858276367
2009-10-05,24.738245010375977
2009-10-06,25.516141891479492
2009-10-07,25.52498435974121
2009-10-08,25.931615829467773
2009-10-09,26.02001953125
2009-10-12,26.285213470458984
2009-10-13,25.97139549255371
2009-10-14,26.28963279724121
2009-10-15,25.940454483032227
2009-10-16,25.55592918395996
2009-10-19,25.72388458251953
2009-10-20,25.467529296875
2009-10-21,25.980234146118164
2009-10-22,26.161453247070312
2009-10-23,25.529399871826172
2009-10-26,25.193496704101562
2009-10-27,24.795705795288086
2009-10-28,23.823322296142578
2009-10-29,23.5537052154541
2009-10-30,22.585744857788086
2009-11-02,22.616682052612305
2009-11-03,23.491830825805664
2009-11-04,23.47857093811035
2009-11-05,23.916139602661133
2009-11-06,24.433265686035156
2009-11-09,25.202335357666016
2009-11-10,25.00343132019043
2009-11-11,24.94597053527832
2009-11-12,24.614486694335938
2009-11-13,24.972501754760742
2009-11-16,25.79901885986328
2009-11-17,25.96255874633789
2009-11-18,25.502883911132812
2009-11-19,24.764760971069336
2009-11-20,24.061996459960938
2009-11-23,24.446533203125
2009-11-24,24.309511184692383
2009-11-25,24.632169723510742
2009-11-27,23.960336685180664
2009-11-30,24.145973205566406
2009-12-01,24.530506134033203
2009-12-02,24.384645462036133
2009-12-03,23.71282196044922
2009-12-04,23.59348487854004
2009-12-07,23.726085662841797
2009-12-08,23.42994499206543
2009-12-09,23.611169815063477
2009-12-10,23.876359939575195
2009-12-11,24.031055450439453
2009-12-14,24.61890411376953
2009-12-15,24.888519287109375
2009-12-16,25.259788513183594
2009-12-17,25.144866943359375
2009-12-18,25.286312103271484
2009-12-21,25.75482749938965
2009-12-22,26.108417510986328
2009-12-23,26.210073471069336
2009-12-24,26.07747459411621
2009-12-28,26.324989318847656
2009-12-29,26.099573135375977
2009-12-30,25.8918399810791
2009-12-31,25.86531639099121
2010-01-04,26.793502807617188
2010-01-05,27.120573043823242
2010-01-06,28.313949584960938
2010-01-07,28.168094635009766
2010-01-08,28.49074363708496
2010-01-11,28.12389373779297
2010-01-12,27.1912899017334
2010-01-13,27.129417419433594
2010-01-14,26.736042022705078
2010-01-15,26.329404830932617
2010-01-19,26.554824829101562
2010-01-20,25.913936614990234
2010-01-21,25.038795471191406
2010-01-22,24.168071746826172
2010-01-25,25.228853225708008
2010-01-26,25.215591430664062
2010-01-27,25.038795471191406
2010-01-28,24.71613883972168
2010-01-29,24.176910400390625
2010-02-01,24.950393676757812
2010-02-02,25.237686157226562
2010-02-03,25.118356704711914
2010-02-04,23.628847122192383
2010-02-05,23.363651275634766
2010-02-08,23.036575317382812
2010-02-09,23.810060501098633
2010-02-10,23.53160858154297
2010-02-11,24.110614776611328
2010-02-12,24.066417694091797
2010-02-16,24.72056007385254
2010-02-17,24.663097381591797
2010-02-18,25.22443389892578
2010-02-19,26.14377784729004
2010-02-22,26.355932235717773
2010-02-23,25.958139419555664
2010-02-24,26.187973022460938
2010-02-25,26.70509910583496
2010-02-26,26.718360900878906
2010-03-01,26.842119216918945
2010-03-02,27.18686866760254
2010-03-03,27.717260360717773
2010-03-04,27.341569900512695
2010-03-05,27.686321258544922
2010-03-08,27.92500114440918
2010-03-09,27.620025634765625
2010-03-10,27.889633178710938
2010-03-11,28.084115982055664
2010-03-12,28.605667114257812
2010-03-15,28.20345115661621
2010-03-16,28.583566665649414
2010-03-17,28.919475555419922
2010-03-18,28.1459903717041
2010-03-19,27.195711135864258
2010-03-22,27.37692642211914
2010-03-23,27.827754974365234
2010-03-24,27.96477699279785
2010-03-25,27.001232147216797
2010-03-26,26.766983032226562
2010-03-29,27.633291244506836
2010-03-30,27.907316207885742
2010-03-31,28.062013626098633
2010-04-01,28.548200607299805
2010-04-05,29.22445297241211
2010-04-06,29.361474990844727
2010-04-07,29.109535217285156
2010-04-08,28.468647003173828
2010-04-09,27.92500114440918
2010-04-12,27.787981033325195
2010-04-13,27.55814552307129
2010-04-14,28.190196990966797
2010-04-15,28.150415420532227
2010-04-16,27.88079833984375
2010-04-19,27.69074249267578
2010-04-20,28.570302963256836
2010-04-21,28.808979034423828
2010-04-22,29.118370056152344
2010-04-23,29.829984664916992
2010-04-26,30.170312881469727
2010-04-27,28.90179443359375
2010-04-28,29.281911849975586
2010-04-29,29.7636775970459
2010-04-30,28.950414657592773
2010-05-03,29.27749252319336
2010-05-04,27.279687881469727
2010-05-05,26.687423706054688
2010-05-06,24.58796501159668
2010-05-07,24.181333541870117
2010-05-10,25.684104919433594
2010-05-11,25.980234146118164
2010-05-12,26.806760787963867
2010-05-13,26.30731201171875
2010-05-14,25.494047164916992
2010-05-17,24.82663917541504
2010-05-18,24.5526065826416
2010-05-19,23.849843978881836
2010-05-20,22.56364631652832
2010-05-21,23.42994499206543
2010-05-24,22.550384521484375
2010-05-25,23.350391387939453
2010-05-26,23.611169815063477
2010-05-27,23.00563621520996
2010-05-28,20.450929641723633
2010-06-01,17.84317970275879
2010-06-02,19.38130760192871
2010-06-03,19.257551193237305
2010-06-04,18.95699691772461
2010-06-07,18.267498016357422
2010-06-08,19.001197814941406
2010-06-09,19.261974334716797
2010-06-10,20.181310653686523
2010-06-11,20.29180908203125
2010-06-14,20.128276824951172
2010-06-15,21.18021583557129
2010-06-16,21.37027359008789
2010-06-17,21.215572357177734
2010-06-18,21.127174377441406
2010-06-21,21.41446876525879
2010-06-22,20.67192268371582
2010-06-23,20.238771438598633
2010-06-24,19.973581314086914
2010-06-25,20.702863693237305
2010-06-28,20.265289306640625
2010-06-29,19.54926109313965
2010-06-30,19.845401763916016
2010-07-01,19.505067825317383
2010-07-02,19.792356491088867
2010-07-06,19.496227264404297
2010-07-07,20.486286163330078
2010-07-08,21.01667594909668
2010-07-09,21.255353927612305
2010-07-12,20.77358055114746
2010-07-13,20.791261672973633
2010-07-14,20.63214683532715
2010-07-15,20.74706268310547
2010-07-16,20.34926986694336
2010-07-19,20.296234130859375
2010-07-20,21.28187370300293
2010-07-21,20.67192268371582
2010-07-22,21.290714263916016
2010-07-23,21.511709213256836
2010-07-26,21.723865509033203
2010-07-27,21.458669662475586
2010-07-28,20.85313606262207
2010-07-29,22.523866653442383
2010-07-30,21.869718551635742
2010-08-02,23.257572174072266
2010-08-03,23.067514419555664
2010-08-04,23.5537052154541
2010-08-05,23.447622299194336
2010-08-06,23.332706451416016
2010-08-09,23.129398345947266
2010-08-10,22.77579689025879
2010-08-11,21.99789810180664
2010-08-12,22.121652603149414
2010-08-13,21.869718551635742
2010-08-16,21.944856643676758
2010-08-17,22.974695205688477
2010-08-18,22.789060592651367
2010-08-19,22.32939338684082
2010-08-20,22.227731704711914
2010-08-23,22.0023193359375
2010-08-24,21.670822143554688
2010-08-25,21.99789810180664
2010-08-26,22.07745361328125
2010-08-27,22.789060592651367
2010-08-30,22.254253387451172
2010-08-31,22.10397720336914
2010-09-01,22.899560928344727
2010-09-02,23.12055778503418
2010-09-03,23.310611724853516
2010-09-07,22.784645080566406
2010-09-08,22.784645080566406
2010-09-09,22.789060592651367
2010-09-10,23.17359161376953
2010-09-13,23.34597396850586
2010-09-14,23.421112060546875
2010-09-15,23.982437133789062
2010-09-16,23.46088981628418
2010-09-17,22.934913635253906
2010-09-20,23.270830154418945
2010-09-21,24.026636123657227
2010-09-22,23.52718734741211
2010-09-23,23.48740577697754
2010-09-24,23.699567794799805
2010-09-27,23.403427124023438
2010-09-28,23.62442398071289
2010-09-29,23.642101287841797
2010-09-30,23.80564308166504
2010-10-01,23.664207458496094
2010-10-04,23.204532623291016
2010-10-05,23.5537052154541
2010-10-06,23.3857479095459
2010-10-07,23.376907348632812
2010-10-08,23.319448471069336
2010-10-11,23.35922622680664
2010-10-12,23.942655563354492
2010-10-13,24.61890411376953
2010-10-14,24.221111297607422
2010-10-15,24.362548828125
2010-10-18,24.039894104003906
2010-10-19,23.288509368896484
2010-10-20,23.443208694458008
2010-10-21,22.98354148864746
2010-10-22,23.611169815063477
2010-10-25,23.876359939575195
2010-10-26,23.995695114135742
2010-10-27,27.761463165283203
2010-10-28,27.549306869506836
2010-10-29,27.345989227294922
2010-11-01,28.185771942138672
2010-11-02,29.20235824584961
2010-11-03,29.57804298400879
2010-11-04,30.055389404296875
2010-11-05,30.15705680847168
2010-11-08,30.448768615722656
2010-11-09,31.200153350830078
2010-11-10,31.253192901611328
2010-11-11,31.593524932861328
2010-11-12,30.466442108154297
2010-11-15,30.32501220703125
2010-11-16,30.068647384643555
2010-11-17,30.408981323242188
2010-11-18,30.873079299926758
2010-11-19,31.372522354125977
2010-11-22,31.376953125
2010-11-23,30.67418098449707
2010-11-24,31.350431442260742
2010-11-26,30.546005249023438
2010-11-29,30.82004737854004
2010-11-30,30.54158592224121
2010-12-01,32.287452697753906
2010-12-02,32.37143325805664
2010-12-03,32.2078857421875
2010-12-06,32.203468322753906
2010-12-07,32.2078857421875
2010-12-08,32.33164978027344
2010-12-09,32.22114944458008
2010-12-10,31.695180892944336
2010-12-13,32.17694854736328
2010-12-14,32.627777099609375
2010-12-15,32.28303909301758
2010-12-16,32.61894226074219
2010-12-17,32.760372161865234
2010-12-20,32.74711990356445
2010-12-21,32.778053283691406
2010-12-22,33.268672943115234
2010-12-23,32.98579025268555
2010-12-27,32.50843811035156
2010-12-28,32.344905853271484
2010-12-29,32.676395416259766
2010-12-30,32.605682373046875
2010-12-31,32.54380416870117
2011-01-03,32.813419342041016
2011-01-04,31.925006866455078
2011-01-05,32.150428771972656
2011-01-06,32.71176528930664
2011-01-07,32.36259078979492
2011-01-10,31.721698760986328
2011-01-11,32.053199768066406
2011-01-12,32.526119232177734
2011-01-13,32.24324417114258
2011-01-14,33.1007080078125
2011-01-18,33.4631462097168
2011-01-19,33.233306884765625
2011-01-20,32.83994674682617
2011-01-21,31.955957412719727
2011-01-24,31.368099212646484
2011-01-25,31.310651779174805
2011-01-26,32.75154495239258
2011-01-27,32.689659118652344
2011-01-28,33.09186935424805
2011-01-31,34.134971618652344
2011-02-01,34.7758674621582
2011-02-02,34.44878387451172
2011-02-03,34.37364959716797
2011-02-04,34.559288024902344
2011-02-07,34.709564208984375
2011-02-08,34.47088623046875
2011-02-09,33.03441619873047
2011-02-10,33.8432502746582
2011-02-11,33.710655212402344
2011-02-14,35.26205062866211
2011-02-15,34.8244743347168
2011-02-16,35.86758041381836
2011-02-17,36.34493637084961
2011-02-18,36.212337493896484
2011-02-22,35.02779769897461
2011-02-23,34.92172622680664
2011-02-24,34.417850494384766
2011-02-25,36.46868133544922
2011-02-28,36.963714599609375
2011-03-01,35.982505798339844
2011-03-02,36.60127639770508
2011-03-03,37.12725067138672
2011-03-04,36.68083953857422
2011-03-07,36.46426010131836
2011-03-08,36.985816955566406
2011-03-09,36.38027572631836
2011-03-10,34.70513916015625
2011-03-11,35.611228942871094
2011-03-14,35.30183410644531
2011-03-15,35.20901107788086
2011-03-16,33.79464340209961
2011-03-17,35.27532196044922
2011-03-18,36.150455474853516
2011-03-21,38.46206283569336
2011-03-22,37.613441467285156
2011-03-23,37.61786651611328
2011-03-24,37.927249908447266
2011-03-25,38.40460968017578
2011-03-28,38.311798095703125
2011-03-29,38.59466552734375
2011-03-30,39.20460510253906
2011-03-31,39.53609848022461
2011-04-01,40.252140045166016
2011-04-04,40.44660949707031
2011-04-05,39.52284240722656
2011-04-06,39.05432891845703
2011-04-07,38.86427688598633
2011-04-08,38.691898345947266
2011-04-11,37.81675338745117
2011-04-12,37.604610443115234
2011-04-13,38.02008056640625
2011-04-14,37.860958099365234
2011-04-15,37.82118225097656
2011-04-18,37.37477111816406
2011-04-19,37.58692169189453
2011-04-20,38.02008056640625
2011-04-21,38.92616271972656
2011-04-25,38.691898345947266
2011-04-26,39.03664779663086
2011-04-27,39.058753967285156
2011-04-28,38.263160705566406
2011-04-29,38.63887023925781
2011-05-02,37.3084716796875
2011-05-03,36.10625076293945
2011-05-04,35.19133377075195
2011-05-05,34.391326904296875
2011-05-06,34.43994140625
2011-05-09,34.74493408203125
2011-05-10,35.42116928100586
2011-05-11,34.347129821777344
2011-05-12,34.501827239990234
2011-05-13,35.51397705078125
2011-05-16,34.95266342163086
2011-05-17,35.1427116394043
2011-05-18,36.039947509765625
2011-05-19,35.575862884521484
2011-05-20,35.97807693481445
2011-05-23,34.94382095336914
2011-05-24,34.678611755371094
2011-05-25,35.147132873535156
2011-05-26,35.61565017700195
2011-05-27,35.46095657348633
2011-05-31,36.02228546142578
2011-06-01,34.64768600463867
2011-06-02,34.30292892456055
2011-06-03,34.320613861083984
2011-06-06,33.17584991455078
2011-06-07,33.35706329345703
2011-06-08,33.5692253112793
2011-06-09,34.01121520996094
2011-06-10,32.87529754638672
2011-06-13,31.743793487548828
2011-06-14,32.61894226074219
2011-06-15,32.26020050048828
2011-06-16,31.77301788330078
2011-06-17,31.941326141357422
2011-06-20,32.322208404541016
2011-06-21,33.44715118408203
2011-06-22,33.588863372802734
2011-06-23,33.509159088134766
2011-06-24,33.28771209716797
2011-06-27,33.11941146850586
2011-06-28,34.403804779052734
2011-06-29,35.49330520629883
2011-06-30,35.87419128417969
2011-07-01,36.44108963012695
2011-07-05,37.007999420166016
2011-07-06,37.22944641113281
2011-07-07,38.02664566040039
2011-07-08,38.00007247924805
2011-07-11,37.57490921020508
2011-07-12,37.7697639465332
2011-07-13,38.56696701049805
2011-07-14,37.86720275878906
2011-07-15,38.150657653808594
2011-07-18,37.67232894897461
2011-07-19,38.992149353027344
2011-07-20,38.655555725097656
2011-07-21,38.78840637207031
2011-07-22,39.107303619384766
2011-07-25,39.03643798828125
2011-07-26,38.903560638427734
2011-07-27,38.017784118652344
2011-07-28,39.03643798828125
2011-07-29,38.26581573486328
2011-08-01,37.760921478271484
2011-08-02,36.34365463256836
2011-08-03,35.989349365234375
2011-08-04,33.11055374145508
2011-08-05,32.54365158081055
2011-08-08,29.372554779052734
2011-08-09,31.241554260253906
2011-08-10,31.587005615234375
2011-08-11,34.09377670288086
2011-08-12,34.430362701416016
2011-08-15,35.18328094482422
2011-08-16,34.36835861206055
2011-08-17,34.37722396850586
2011-08-18,32.437355041503906
2011-08-19,31.41871452331543
2011-08-22,31.285839080810547
2011-08-23,33.62430953979492
2011-08-24,34.554378509521484
2011-08-25,34.563232421875
2011-08-26,35.502159118652344
2011-08-29,37.326881408691406
2011-08-30,37.673561096191406
2011-08-31,37.94913101196289
2011-09-01,37.15797805786133
2011-09-02,36.437931060791016
2011-09-06,36.260135650634766
2011-09-07,37.380218505859375
2011-09-08,37.015750885009766
2011-09-09,35.593441009521484
2011-09-12,36.48237991333008
2011-09-13,36.57126998901367
2011-09-14,36.88241195678711
2011-09-15,37.08686065673828
2011-09-16,36.606842041015625
2011-09-19,36.642391204833984
2011-09-20,36.784629821777344
2011-09-21,34.802268981933594
2011-09-22,33.788875579833984
2011-09-23,33.93999481201172
2011-09-26,33.86888122558594
2011-09-27,33.96665573120117
2011-09-28,32.757686614990234
2011-09-29,32.99769592285156
2011-09-30,31.415382385253906
2011-10-03,29.495258331298828
2011-10-04,30.35753631591797
2011-10-05,31.513164520263672
2011-10-06,33.47774887084961
2011-10-07,33.2643928527832
2011-10-10,33.8599967956543
2011-10-11,34.873382568359375
2011-10-12,35.2645149230957
2011-10-13,35.575653076171875
2011-10-14,37.33575439453125
2011-10-17,36.322364807128906
2011-10-18,37.655792236328125
2011-10-19,36.84685134887695
2011-10-20,37.193538665771484
2011-10-21,37.718013763427734
2011-10-24,39.238121032714844
2011-10-25,37.98469924926758
2011-10-26,38.59807205200195
2011-10-27,39.21145248413086
2011-10-28,38.518070220947266
2011-10-31,37.18465042114258
2011-11-01,35.9223518371582
2011-11-02,37.22020721435547
2011-11-03,38.63361740112305
2011-11-04,38.5713996887207
2011-11-07,38.65140151977539
2011-11-08,39.33589553833008
2011-11-09,37.575782775878906
2011-11-10,38.393611907958984
2011-11-11,39.478126525878906
2011-11-14,39.255889892578125
2011-11-15,39.967041015625
2011-11-16,40.44709014892578
2011-11-17,39.984825134277344
2011-11-18,39.975948333740234
2011-11-21,39.17588424682617
2011-11-22,38.44695281982422
2011-11-23,38.04692459106445
2011-11-25,37.726898193359375
2011-11-28,38.75808334350586
2011-11-29,39.1951789855957
2011-11-30,42.42426681518555
2011-12-01,42.41535186767578
2011-12-02,42.56698989868164
2011-12-05,43.51252365112305
2011-12-06,43.20032501220703
2011-12-07,42.69187545776367
2011-12-08,41.55010223388672
2011-12-09,42.99516296386719
2011-12-12,41.89798355102539
2011-12-13,40.24774932861328
2011-12-14,38.856201171875
2011-12-15,39.159488677978516
2011-12-16,40.70267868041992
2011-12-19,40.01581954956055
2011-12-20,41.425209045410156
2011-12-21,41.567928314208984
2011-12-22,41.746337890625
2011-12-23,42.24586486816406
2011-12-27,42.201263427734375
2011-12-28,41.10408401489258
2011-12-29,41.71065902709961
2011-12-30,41.148685455322266
2012-01-03,42.112060546875
2012-01-04,41.8712158203125
2012-01-05,42.031776428222656
2012-01-06,42.112060546875
2012-01-09,42.022865295410156
2012-01-10,42.51347351074219
2012-01-11,42.28155517578125
2012-01-12,41.85337829589844
2012-01-13,41.300331115722656
2012-01-17,41.469810485839844
2012-01-18,42.745399475097656
2012-01-19,43.15571975708008
2012-01-20,42.63835144042969
2012-01-23,42.433189392089844
2012-01-24,42.49563980102539
2012-01-25,42.79891586303711
2012-01-26,42.01393127441406
2012-01-27,43.29844284057617
2012-01-30,43.36981201171875
2012-01-31,43.343048095703125
2012-02-01,44.948665618896484
2012-02-02,44.86840057373047
2012-02-03,45.69796371459961
2012-02-06,46.62565994262695
2012-02-07,46.79515075683594
2012-02-08,47.18762969970703
2012-02-09,46.786224365234375
2012-02-10,47.0449104309082
2012-02-13,48.329410552978516
2012-02-14,48.213462829589844
2012-02-15,47.71392822265625
2012-02-16,48.409698486328125
2012-02-17,48.96274948120117
2012-02-21,48.980594635009766
2012-02-22,49.961795806884766
2012-02-23,50.66648864746094
2012-02-24,49.93504333496094
2012-02-27,49.28386306762695
2012-02-28,49.14971160888672
2012-02-29,48.54147720336914
2012-03-01,48.87242126464844
2012-03-02,48.29997634887695
2012-03-05,48.613033294677734
2012-03-06,47.718589782714844
2012-03-07,47.9869270324707
2012-03-08,48.44309616088867
2012-03-09,49.06026077270508
2012-03-12,47.76332473754883
2012-03-13,48.69353485107422
2012-03-14,47.915374755859375
2012-03-15,48.30891799926758
2012-03-16,49.71320724487305
2012-03-19,49.63269805908203
2012-03-20,47.94220733642578
2012-03-21,47.450260162353516
2012-03-22,46.75259017944336
2012-03-23,47.799095153808594
2012-03-26,48.27314376831055
2012-03-27,47.69175720214844
2012-03-28,47.62019729614258
2012-03-29,47.539703369140625
2012-03-30,48.20159912109375
2012-04-02,48.63986587524414
2012-04-03,49.06920623779297
2012-04-04,48.6488151550293
2012-04-05,48.21054458618164
2012-04-09,47.87064743041992
2012-04-10,46.063880920410156
2012-04-11,45.61665344238281
2012-04-12,47.77226257324219
2012-04-13,46.940425872802734
2012-04-16,45.53614044189453
2012-04-17,46.15331268310547
2012-04-18,46.430599212646484
2012-04-19,46.10858917236328
2012-04-20,45.858154296875
2012-04-23,45.60770797729492
2012-04-24,45.57192611694336
2012-04-25,46.40375900268555
2012-04-26,45.33042526245117
2012-04-27,45.84026336669922
2012-04-30,46.180145263671875
2012-05-01,46.44849395751953
2012-05-02,46.21592330932617
2012-05-03,44.80271530151367
2012-05-04,43.55047607421875
2012-05-07,43.130088806152344
2012-05-08,44.292869567871094
2012-05-09,44.301822662353516
2012-05-10,44.23920440673828
2012-05-11,44.301822662353516
2012-05-14,43.8903694152832
2012-05-15,43.30897903442383
2012-05-16,43.38053894042969
2012-05-17,42.396663665771484
2012-05-18,41.636375427246094
2012-05-21,42.98698425292969
2012-05-22,42.75442886352539
2012-05-23,43.246376037597656
2012-05-24,42.92436981201172
2012-05-25,42.745487213134766
2012-05-29,43.541534423828125
2012-05-30,42.71559143066406
2012-05-31,41.4946403503418
2012-06-01,39.932525634765625
2012-06-04,39.83377456665039
2012-06-05,40.767452239990234
2012-06-06,42.069210052490234
2012-06-07,41.48566818237305
2012-06-08,41.45873260498047
2012-06-11,40.54301071166992
2012-06-12,41.207359313964844
2012-06-13,39.78889465332031
2012-06-14,39.977413177490234
2012-06-15,40.56096649169922
2012-06-18,40.65971374511719
2012-06-19,41.35996627807617
2012-06-20,41.880680084228516
2012-06-21,39.8966178894043
2012-06-22,40.04025650024414
2012-06-25,39.28614044189453
2012-06-26,40.130043029785156
2012-06-27,40.74051284790039
2012-06-28,41.09962463378906
2012-06-29,42.96697235107422
2012-07-02,43.433807373046875
2012-07-03,44.71760940551758
2012-07-05,44.52010726928711
2012-07-06,43.8647346496582
2012-07-09,44.888179779052734
2012-07-10,44.33156967163086
2012-07-11,44.76249694824219
2012-07-12,44.57395935058594
2012-07-13,45.01387023925781
2012-07-16,44.888179779052734
2012-07-17,44.84329605102539
2012-07-18,45.08568572998047
2012-07-19,44.87023162841797
2012-07-20,45.28319549560547
2012-07-23,44.83431625366211
2012-07-24,44.125083923339844
2012-07-25,43.97246551513672
2012-07-26,44.861244201660156
2012-07-27,46.36949157714844
2012-07-30,46.836326599121094
2012-07-31,46.40540313720703
2012-08-01,47.5904541015625
2012-08-02,47.47374725341797
2012-08-03,48.73958969116211
2012-08-06,48.829368591308594
2012-08-07,49.0897216796875
2012-08-08,49.242340087890625
2012-08-09,49.18846893310547
2012-08-10,49.02687454223633
2012-08-13,49.0717658996582
2012-08-14,49.4039421081543
2012-08-15,49.78099822998047
2012-08-16,50.08624267578125
2012-08-17,50.292720794677734
2012-08-20,49.11664962768555
2012-08-21,49.22438049316406
2012-08-22,49.242340087890625
2012-08-23,49.57451248168945
2012-08-24,49.26029968261719
2012-08-27,49.17949295043945
2012-08-28,49.14358901977539
2012-08-29,49.035491943359375
2012-08-30,47.9636344909668
2012-08-31,48.2248420715332
2012-09-04,48.85536193847656
2012-09-05,48.6932258605957
2012-09-06,49.251670837402344
2012-09-07,49.55792236328125
2012-09-10,49.179622650146484
2012-09-11,50.035308837890625
2012-09-12,51.05312728881836
2012-09-13,51.11616134643555
2012-09-14,51.71965789794922
2012-09-17,50.99006652832031
2012-09-18,50.08934783935547
2012-09-19,50.30551528930664
2012-09-20,50.26948928833008
2012-09-21,50.61176681518555
2012-09-24,50.26047897338867
2012-09-25,50.107357025146484
2012-09-26,49.4047966003418
2012-09-27,50.26948928833008
2012-09-28,49.76508331298828
2012-10-01,49.39579391479492
2012-10-02,48.39598083496094
2012-10-03,47.198020935058594
2012-10-04,48.035701751708984
2012-10-05,47.342132568359375
2012-10-08,47.5402946472168
2012-10-09,46.61254119873047
2012-10-10,46.25225830078125
2012-10-11,47.00886535644531
2012-10-12,46.61254119873047
2012-10-15,46.288272857666016
2012-10-16,47.477237701416016
2012-10-17,48.11675262451172
2012-10-18,48.47705841064453
2012-10-19,47.51327133178711
2012-10-22,47.216033935546875
2012-10-23,46.963836669921875
2012-10-24,46.55849838256836
2012-10-25,46.963836669921875
2012-10-26,47.2520637512207
2012-10-31,47.13496780395508
2012-11-01,49.01748275756836
2012-11-02,47.486244201660156
2012-11-05,48.377960205078125
2012-11-06,48.9454231262207
2012-11-07,47.56731414794922
2012-11-08,47.026878356933594
2012-11-09,47.216033935546875
2012-11-12,47.27007293701172
2012-11-13,47.459228515625
2012-11-14,46.55849838256836
2012-11-15,46.9458122253418
2012-11-16,47.945621490478516
2012-11-19,49.350746154785156
2012-11-20,48.76527786254883
2012-11-21,48.47705841064453
2012-11-23,48.738258361816406
2012-11-26,48.35094451904297
2012-11-27,47.74745559692383
2012-11-28,47.09672164916992
2012-11-29,47.4943962097168
2012-11-30,47.61188507080078
2012-12-03,47.65707778930664
2012-12-04,48.000526428222656
2012-12-05,48.08185958862305
2012-12-06,48.71451950073242
2012-12-07,48.77777862548828
2012-12-10,48.560874938964844
2012-12-11,48.38011169433594
2012-12-12,48.00956726074219
2012-12-13,47.0334587097168
2012-12-14,46.66290283203125
2012-12-17,47.09672164916992
2012-12-18,48.4253044128418
2012-12-19,48.09994125366211
2012-12-20,48.57894515991211
2012-12-21,48.28069305419922
2012-12-24,48.31685256958008
2012-12-26,48.05474853515625
2012-12-27,48.208396911621094
2012-12-28,47.54862976074219
2012-12-31,48.61510467529297
2013-01-02,50.51307678222656
2013-01-03,50.63959884643555
2013-01-04,51.81452560424805
2013-01-07,51.425899505615234
2013-01-08,50.82035446166992
2013-01-09,50.87459182739258
2013-01-10,50.89266586303711
2013-01-11,51.13668441772461
2013-01-14,50.847469329833984
2013-01-15,53.034645080566406
2013-01-16,53.42328643798828
2013-01-17,53.42328643798828
2013-01-18,54.11920928955078
2013-01-22,54.99588394165039
2013-01-23,55.149532318115234
2013-01-24,55.1133918762207
2013-01-25,55.87256622314453
2013-01-28,56.13467025756836
2013-01-29,56.85770797729492
2013-01-30,56.15275573730469
2013-01-31,57.12883758544922
2013-02-01,57.2282600402832
2013-02-04,56.50522232055664
2013-02-05,56.64080047607422
2013-02-06,57.04750061035156
2013-02-07,57.463253021240234
2013-02-08,57.553619384765625
2013-02-11,57.237300872802734
2013-02-12,56.64080047607422
2013-02-13,57.264408111572266
2013-02-14,58.26763153076172
2013-02-15,57.427101135253906
2013-02-19,56.93904495239258
2013-02-20,56.00813674926758
2013-02-21,55.94487380981445
2013-02-22,56.5323371887207
2013-02-25,55.158573150634766
2013-02-26,55.52009582519531
2013-02-27,57.3420524597168
2013-02-28,57.641178131103516
2013-03-01,57.097312927246094
2013-03-04,56.98854446411133
2013-03-05,57.450828552246094
2013-03-06,57.02479934692383
2013-03-07,57.2332763671875
2013-03-08,57.74995803833008
2013-03-11,57.70463943481445
2013-03-12,57.75902557373047
2013-03-13,57.66838455200195
2013-03-14,58.6836051940918
2013-03-15,58.747047424316406
2013-03-18,57.858734130859375
2013-03-19,57.197025299072266
2013-03-20,57.83153533935547
2013-03-21,57.43269729614258
2013-03-22,57.68649673461914
2013-03-25,58.846763610839844
2013-03-26,60.224571228027344
2013-03-27,60.26082229614258
2013-03-28,60.19738006591797
2013-04-01,60.09767532348633
2013-04-02,60.20643615722656
2013-04-03,57.94031524658203
2013-04-04,56.91602325439453
2013-04-05,57.568668365478516
2013-04-08,59.073368072509766
2013-04-09,58.819576263427734
2013-04-10,59.09150314331055
2013-04-11,59.2093391418457
2013-04-12,58.55670166015625
2013-04-15,54.695220947265625
2013-04-16,55.23002243041992
2013-04-17,53.263031005859375
2013-04-18,53.933807373046875
2013-04-19,54.41421890258789
2013-04-22,54.976226806640625
2013-04-23,55.891746520996094
2013-04-24,60.3424072265625
2013-04-25,60.26082229614258
2013-04-26,60.46930694580078
2013-04-29,61.94681930541992
2013-04-30,63.60563278198242
2013-05-01,62.925804138183594
2013-05-02,64.6208724975586
2013-05-03,65.21910858154297
2013-05-06,65.72671508789062
2013-05-07,66.741943359375
2013-05-08,67.07733154296875
2013-05-09,66.9232406616211
2013-05-10,66.89603424072266
2013-05-13,66.5697250366211
2013-05-14,67.0320053100586
2013-05-15,67.23143005371094
2013-05-16,67.08641052246094
2013-05-17,68.6545639038086
2013-05-20,68.88114929199219
2013-05-21,68.82676696777344
2013-05-22,67.35832214355469
2013-05-23,67.13172149658203
2013-05-24,66.86884307861328
2013-05-28,67.51243591308594
2013-05-29,66.94876861572266
2013-05-30,66.56694793701172
2013-05-31,65.89418029785156
2013-06-03,65.44869232177734
2013-06-04,64.92139434814453
2013-06-05,63.87588882446289
2013-06-06,65.24867248535156
2013-06-07,66.70330810546875
2013-06-10,66.26692199707031
2013-06-11,65.05776977539062
2013-06-12,64.66683197021484
2013-06-13,66.0850830078125
2013-06-14,65.4032211303711
2013-06-17,66.67601013183594
2013-06-18,67.41242218017578
2013-06-19,66.69420623779297
2013-06-20,65.4123306274414
2013-06-21,64.74867248535156
2013-06-24,64.05770874023438
2013-06-25,65.2850341796875
2013-06-26,65.24867248535156
2013-06-27,65.46688079833984
2013-06-28,65.63960266113281
2013-07-01,67.68516540527344
2013-07-02,68.70338439941406
2013-07-03,68.2761001586914
2013-07-05,69.99434661865234
2013-07-08,71.09442901611328
2013-07-09,72.7308578491211
2013-07-10,71.60355377197266
2013-07-11,71.97628784179688
2013-07-12,71.92173767089844
2013-07-15,72.07630157470703
2013-07-16,70.88533020019531
2013-07-17,71.62171936035156
2013-07-18,71.89447021484375
2013-07-19,72.9581527709961
2013-07-22,73.21270751953125
2013-07-23,71.18534088134766
2013-07-24,69.78527069091797
2013-07-25,73.28545379638672
2013-07-26,73.36727905273438
2013-07-29,72.5126724243164
2013-07-30,72.23992156982422
2013-07-31,73.72183990478516
2013-08-01,76.11285400390625
2013-08-02,76.74017333984375
2013-08-05,76.73107147216797
2013-08-06,75.11282348632812
2013-08-07,74.91281127929688
2013-08-08,74.81280517578125
2013-08-09,74.16730499267578
2013-08-12,74.04004669189453
2013-08-13,74.06731414794922
2013-08-14,73.43998718261719
2013-08-15,72.05810546875
2013-08-16,72.52176666259766
2013-08-19,71.70354461669922
2013-08-20,72.52176666259766
2013-08-21,72.7490463256836
2013-08-22,73.40364074707031
2013-08-23,73.25819396972656
2013-08-26,73.47635650634766
2013-08-27,72.13082885742188
2013-08-28,73.06073760986328
2013-08-29,71.91203308105469
2013-08-30,70.72689056396484
2013-09-03,71.05506896972656
2013-09-04,73.42540740966797
2013-09-05,73.45275115966797
2013-09-06,73.87213134765625
2013-09-09,75.1484375
2013-09-10,74.92965698242188
2013-09-11,75.19404602050781
2013-09-12,75.25785064697266
2013-09-13,74.9843521118164
2013-09-16,75.64073181152344
2013-09-17,76.05099487304688
2013-09-18,76.60710906982422
2013-09-19,76.27891540527344
2013-09-20,74.94788360595703
2013-09-23,73.60773468017578
2013-09-24,73.35247802734375
2013-09-25,74.01797485351562
2013-09-26,73.37982177734375
2013-09-27,73.26129913330078
2013-09-30,74.0635757446289
2013-10-01,74.3188247680664
2013-10-02,74.8293685913086
2013-10-03,74.96611022949219
2013-10-04,74.99346923828125
2013-10-07,74.30060577392578
2013-10-08,73.29776763916016
2013-10-09,72.2767105102539
2013-10-10,73.56214904785156
2013-10-11,73.75360107421875
2013-10-14,75.39459228515625
2013-10-15,74.70173645019531
2013-10-16,75.47663116455078
2013-10-17,75.5860595703125
2013-10-18,78.64923095703125
2013-10-21,78.35751342773438
2013-10-22,78.4304428100586
2013-10-23,75.6680908203125
2013-10-24,75.85042572021484
2013-10-25,76.2971420288086
2013-10-28,77.07206726074219
2013-10-29,78.7768783569336
2013-10-30,79.02304077148438
2013-10-31,78.29369354248047
2013-11-01,78.53072357177734
2013-11-04,79.02304077148438
2013-11-05,77.95636749267578
2013-11-06,78.32103729248047
2013-11-07,75.16667938232422
2013-11-08,77.27262878417969
2013-11-11,77.628173828125
2013-11-12,75.07551574707031
2013-11-13,75.08463287353516
2013-11-14,76.07835388183594
2013-11-15,76.37919616699219
2013-11-18,74.55587005615234
2013-11-19,73.15190124511719
2013-11-20,72.86929321289062
2013-11-21,72.69607543945312
2013-11-22,72.51374053955078
2013-11-25,70.19811248779297
2013-11-26,70.94781494140625
2013-11-27,70.07926177978516
2013-11-29,70.5729751586914
2013-12-02,71.99925231933594
2013-12-03,72.27351379394531
2013-12-04,72.1363754272461
2013-12-05,72.45637512207031
2013-12-06,72.77637481689453
2013-12-09,72.26437377929688
2013-12-10,71.1581039428711
2013-12-11,69.93296813964844
2013-12-12,70.12496948242188
2013-12-13,70.34439849853516
2013-12-16,72.73979949951172
2013-12-17,71.77067565917969
2013-12-18,71.35009002685547
2013-12-19,70.35354614257812
2013-12-20,71.82552337646484
2013-12-23,71.46896362304688
2013-12-24,71.78895568847656
2013-12-26,71.66094970703125
2013-12-27,71.73410034179688
2013-12-30,71.65180969238281
2013-12-31,72.11809539794922
2014-01-02,69.8141098022461
2014-01-03,71.3318099975586
2014-01-06,70.37181091308594
2014-01-07,69.43013000488281
2014-01-08,70.11582946777344
2014-01-09,69.97869873046875
2014-01-10,70.46326446533203
2014-01-13,67.683837890625
2014-01-14,69.02784729003906
2014-01-15,67.84843444824219
2014-01-16,67.92156982421875
2014-01-17,68.26898956298828
2014-01-21,68.35127258300781
2014-01-22,68.3969955444336
2014-01-23,66.13873291015625
2014-01-24,65.46216583251953
2014-01-27,63.29533386230469
2014-01-28,63.4141845703125
2014-01-29,62.41762924194336
2014-01-30,63.29533386230469
2014-01-31,62.30792236328125
2014-02-03,60.98220443725586
2014-02-04,62.49076843261719
2014-02-05,61.896488189697266
2014-02-06,63.06675338745117
2014-02-07,63.350181579589844
2014-02-10,62.463348388671875
2014-02-11,63.59703063964844
2014-02-12,64.34674835205078
2014-02-13,65.19702911376953
2014-02-14,65.23360443115234
2014-02-18,66.44044494628906
2014-02-19,65.59931945800781
2014-02-20,64.5753173828125
2014-02-21,63.24961471557617
2014-02-24,64.40160369873047
2014-02-25,64.33760070800781
2014-02-26,64.94290924072266
2014-02-27,64.80534362792969
2014-02-28,65.64912414550781
2014-03-03,64.61273956298828
2014-03-04,65.82337188720703
2014-03-05,64.2092056274414
2014-03-06,64.07164001464844
2014-03-07,65.09883880615234
2014-03-10,64.89704895019531
2014-03-11,63.98909378051758
2014-03-12,65.3464584350586
2014-03-13,63.814842224121094
2014-03-14,65.12635040283203
2014-03-17,64.4201431274414
2014-03-18,65.38314819335938
2014-03-19,64.96125030517578
2014-03-20,65.09883880615234
2014-03-21,67.34584045410156
2014-03-24,65.57573699951172
2014-03-25,66.19940948486328
2014-03-26,64.32843780517578
2014-03-27,64.75032043457031
2014-03-28,65.97928619384766
2014-03-31,65.90591430664062
2014-04-01,66.36449432373047
2014-04-02,67.34584045410156
2014-04-03,67.38253021240234
2014-04-04,67.32749938964844
2014-04-07,66.00680541992188
2014-04-08,66.40117645263672
2014-04-09,66.40117645263672
2014-04-10,65.18138885498047
2014-04-11,64.35594177246094
2014-04-14,64.65860748291016
2014-04-15,65.69497680664062
2014-04-16,66.54791259765625
2014-04-17,67.68518829345703
2014-04-21,66.95146942138672
2014-04-22,66.9147720336914
2014-04-23,67.67601013183594
2014-04-24,69.17094421386719
2014-04-25,67.62096405029297
2014-04-28,66.78638458251953
2014-04-29,66.47455596923828
2014-04-30,67.20826721191406
2014-05-01,66.70384216308594
2014-05-02,67.44672393798828
2014-05-05,67.65765380859375
2014-05-06,67.35501098632812
2014-05-07,66.48372650146484
2014-05-08,65.43818664550781
2014-05-09,65.71331024169922
2014-05-12,66.00680541992188
2014-05-13,65.92425537109375
2014-05-14,65.23639678955078
2014-05-15,64.5118408203125
2014-05-16,64.97960662841797
2014-05-19,65.24556732177734
2014-05-20,64.84202575683594
2014-05-21,64.88789367675781
2014-05-22,65.47486114501953
2014-05-23,65.47486114501953
2014-05-27,66.70384216308594
2014-05-28,66.21592712402344
2014-05-29,66.84191131591797
2014-05-30,66.326416015625
2014-06-02,66.11467742919922
2014-06-03,67.18253326416016
2014-06-04,67.50472259521484
2014-06-05,68.0202407836914
2014-06-06,69.69564819335938
2014-06-09,69.53915405273438
2014-06-10,68.92239379882812
2014-06-11,68.97762298583984
2014-06-12,69.23538208007812
2014-06-13,69.9442138671875
2014-06-16,69.55756378173828
2014-06-17,69.28141021728516
2014-06-18,69.57598114013672
2014-06-19,69.6588363647461
2014-06-20,71.13172149658203
2014-06-23,71.17776489257812
2014-06-24,70.1743392944336
2014-06-25,70.34004974365234
2014-06-26,70.6346206665039
2014-06-27,70.8647689819336
2014-06-30,71.92340850830078
2014-07-01,71.92340850830078
2014-07-02,71.47234344482422
2014-07-03,71.2145767211914
2014-07-07,69.93499755859375
2014-07-08,69.64041900634766
2014-07-09,69.35504913330078
2014-07-10,67.79010009765625
2014-07-11,66.92475891113281
2014-07-14,67.4402847290039
2014-07-15,67.35742950439453
2014-07-16,67.86373138427734
2014-07-17,66.66700744628906
2014-07-18,67.1272964477539
2014-07-21,66.29878997802734
2014-07-22,67.07206726074219
2014-07-23,67.35742950439453
2014-07-24,64.55892181396484
2014-07-25,63.94215774536133
2014-07-28,63.969757080078125
2014-07-29,63.684391021728516
2014-07-30,63.46346664428711
2014-07-31,62.51528549194336
2014-08-01,62.45084762573242
2014-08-04,62.95714569091797
2014-08-05,62.57973098754883
2014-08-06,62.80986404418945
2014-08-07,62.137847900390625
2014-08-08,63.35299301147461
2014-08-11,62.855873107910156
2014-08-12,62.45084762573242
2014-08-13,62.634944915771484
2014-08-14,61.90770721435547
2014-08-15,61.981361389160156
2014-08-18,62.67177200317383
2014-08-19,63.22413635253906
2014-08-20,63.067630767822266
2014-08-21,62.874305725097656
2014-08-22,62.80986404418945
2014-08-25,63.21489334106445
2014-08-26,64.12627410888672
2014-08-27,64.06157684326172
2014-08-28,63.83976745605469
2014-08-29,64.28336334228516
2014-09-02,63.79358673095703
2014-09-03,63.59950256347656
2014-09-04,61.06734848022461
2014-09-05,60.74390411376953
2014-09-08,60.39272689819336
2014-09-09,61.07659149169922
2014-09-10,61.224449157714844
2014-09-11,61.54790496826172
2014-09-12,60.62377166748047
2014-09-15,61.00266647338867
2014-09-16,61.122806549072266
2014-09-17,60.39272689819336
2014-09-18,60.44817352294922
2014-09-19,60.3742561340332
2014-09-22,59.71810531616211
2014-09-23,59.856719970703125
2014-09-24,59.79203414916992
2014-09-25,58.66457748413086
2014-09-26,60.133968353271484
2014-09-29,60.43893814086914
2014-09-30,60.22637176513672
2014-10-01,59.542518615722656
2014-10-02,59.182106018066406
2014-10-03,57.83285140991211
2014-10-06,57.879058837890625
2014-10-07,57.527889251708984
2014-10-08,58.01768493652344
2014-10-09,56.49284362792969
2014-10-10,56.19712448120117
2014-10-13,55.679595947265625
2014-10-14,55.18055725097656
2014-10-15,57.55561447143555
2014-10-16,58.193267822265625
2014-10-17,57.888301849365234
2014-10-20,58.86788558959961
2014-10-21,60.494380950927734
2014-10-22,58.84016418457031
2014-10-23,60.531349182128906
2014-10-24,60.47590255737305
2014-10-27,59.0804443359375
2014-10-28,61.08582305908203
2014-10-29,61.187496185302734
2014-10-30,62.74930953979492
2014-10-31,64.93949890136719
2014-11-03,63.46086883544922
2014-11-04,62.2225341796875
2014-11-05,63.45163345336914
2014-11-06,64.59757232666016
2014-11-07,65.91910552978516
2014-11-10,64.44048309326172
2014-11-11,65.75276184082031
2014-11-12,64.87480926513672
2014-11-13,64.0061264038086
2014-11-14,63.802818298339844
2014-11-17,63.488609313964844
2014-11-18,62.99881362915039
2014-11-19,62.6661262512207
2014-11-20,63.05426025390625
2014-11-21,64.71771240234375
2014-11-24,65.26295471191406
2014-11-25,64.53936004638672
2014-11-26,63.35192108154297
2014-11-28,58.17540740966797
2014-12-01,57.93421173095703
2014-12-02,58.667091369628906
2014-12-03,60.262718200683594
2014-12-04,60.8842658996582
2014-12-05,60.55029296875
2014-12-08,57.46108627319336
2014-12-09,58.35167694091797
2014-12-10,56.320030212402344
2014-12-11,56.106658935546875
2014-12-12,54.58525085449219
2014-12-15,53.33287811279297
2014-12-16,54.23273468017578
2014-12-17,54.58525085449219
2014-12-18,54.427547454833984
2014-12-19,54.70584487915039
2014-12-22,54.70584487915039
2014-12-23,55.15113830566406
2014-12-24,54.96561050415039
2014-12-26,55.2995719909668
2014-12-29,55.596435546875
2014-12-30,54.807899475097656
2014-12-31,54.55742263793945
2015-01-02,54.59452438354492
2015-01-05,52.841190338134766
2015-01-06,51.65375518798828
2015-01-07,51.727970123291016
2015-01-08,52.36807632446289
2015-01-09,51.57952880859375
2015-01-12,49.78909683227539
2015-01-13,49.863319396972656
2015-01-14,49.15827560424805
2015-01-15,47.228675842285156
2015-01-16,50.085960388183594
2015-01-20,49.44585418701172
2015-01-21,50.26222229003906
2015-01-22,49.61283493041992
2015-01-23,48.564552307128906
2015-01-26,49.705604553222656
2015-01-27,49.57573318481445
2015-01-28,47.49770736694336
2015-01-29,47.571922302246094
2015-01-30,48.573822021484375
2015-02-02,50.46630859375
2015-02-03,51.58881759643555
2015-02-04,50.06740951538086
2015-02-05,51.59809112548828
2015-02-06,51.802181243896484
2015-02-09,51.625919342041016
2015-02-10,50.80955505371094
2015-02-11,50.52196502685547
2015-02-12,46.27315902709961
2015-02-13,46.820491790771484
2015-02-17,48.2027473449707
2015-02-18,48.30479049682617
2015-02-19,48.610939025878906
2015-02-20,48.824302673339844
2015-02-23,49.39018630981445
2015-02-24,49.844757080078125
2015-02-25,50.41350555419922
2015-02-26,50.385536193847656
2015-02-27,50.8424072265625
2015-03-02,50.506744384765625
2015-03-03,50.180419921875
2015-03-04,50.255008697509766
2015-03-05,49.872737884521484
2015-03-06,48.968326568603516
2015-03-09,49.0988655090332
2015-03-10,48.483489990234375
2015-03-11,48.49281692504883
2015-03-12,47.51381301879883
2015-03-13,46.003379821777344
2015-03-16,45.38800811767578
2015-03-17,46.600093841552734
2015-03-18,49.22938919067383
2015-03-19,49.26668930053711
2015-03-20,48.97765350341797
2015-03-23,49.0988655090332
2015-03-24,49.00562286376953
2015-03-25,49.872737884521484
2015-03-26,49.91934585571289
2015-03-27,49.965965270996094
2015-03-30,50.14311981201172
2015-03-31,50.28297805786133
2015-04-01,50.81443405151367
2015-04-02,50.898345947265625
2015-04-06,52.16637420654297
2015-04-07,51.78409957885742
2015-04-08,51.793418884277344
2015-04-09,52.921592712402344
2015-04-10,53.84464645385742
2015-04-13,51.96125030517578
2015-04-14,53.014835357666016
2015-04-15,55.122005462646484
2015-04-16,54.50663757324219
2015-04-17,52.96821975708008
2015-04-20,53.387786865234375
2015-04-21,51.41115188598633
2015-04-22,53.2945442199707
2015-04-23,51.812068939208984
2015-04-24,50.44148254394531
2015-04-27,51.99855422973633
2015-04-28,50.86104965209961
2015-04-29,50.95429229736328
2015-04-30,51.3831787109375
2015-05-01,51.28062057495117
2015-05-04,50.7678108215332
2015-05-05,50.292293548583984
2015-05-06,50.82374954223633
2015-05-07,49.565040588378906
2015-05-08,50.34823989868164
2015-05-11,49.947322845458984
2015-05-12,50.26432418823242
2015-05-13,49.518428802490234
2015-05-14,49.79814529418945
2015-05-15,49.17345428466797
2015-05-18,49.58369445800781
2015-05-19,48.53010559082031
2015-05-20,48.66064453125
2015-05-21,49.788822174072266
2015-05-22,49.499786376953125
2015-05-26,48.576725006103516
2015-05-27,48.84852600097656
2015-05-28,47.967529296875
2015-05-29,47.611385345458984
2015-06-01,47.817569732666016
2015-06-02,47.94878387451172
2015-06-03,47.63949966430664
2015-06-04,46.43983840942383
2015-06-05,46.82411193847656
2015-06-08,46.34611892700195
2015-06-09,46.52418899536133
2015-06-10,47.442684173583984
2015-06-11,47.31147003173828
2015-06-12,46.43983840942383
2015-06-15,45.92436599731445
2015-06-16,46.12118148803711
2015-06-17,45.896244049072266
2015-06-18,44.92152404785156
2015-06-19,43.712493896484375
2015-06-22,44.24671173095703
2015-06-23,44.302955627441406
2015-06-24,44.602867126464844
2015-06-25,44.527889251708984
2015-06-26,44.4154167175293
2015-06-29,43.243873596191406
2015-06-30,43.6656379699707
2015-07-01,43.12204360961914
2015-07-02,43.38446807861328
2015-07-06,42.606563568115234
2015-07-07,43.365726470947266
2015-07-08,41.99736785888672
2015-07-09,41.941123962402344
2015-07-10,41.519371032714844
2015-07-13,41.96924591064453
2015-07-14,42.10045623779297
2015-07-15,40.35720443725586
2015-07-16,40.08540725708008
2015-07-17,39.24190139770508
2015-07-20,38.613956451416016
2015-07-21,37.69546127319336
2015-07-22,36.38334274291992
2015-07-23,36.69263458251953
2015-07-24,36.673885345458984
2015-07-27,36.111541748046875
2015-07-28,37.04877853393555
2015-07-29,38.707679748535156
2015-07-30,38.34215545654297
2015-07-31,37.50802230834961
2015-08-03,37.34868621826172
2015-08-04,37.47990417480469
2015-08-05,38.501487731933594
2015-08-06,39.185672760009766
2015-08-07,38.876380920410156
2015-08-10,40.366573333740234
2015-08-11,40.15101623535156
2015-08-12,40.8726806640625
2015-08-13,40.09477615356445
2015-08-14,39.51369857788086
2015-08-17,38.89512634277344
2015-08-18,38.27655029296875
2015-08-19,37.489280700683594
2015-08-20,36.767616271972656
2015-08-21,37.254974365234375
2015-08-24,35.33364486694336
2015-08-25,34.73381423950195
2015-08-26,37.943790435791016
2015-08-27,39.85089111328125
2015-08-28,40.832763671875
2015-08-31,41.37091064453125
2015-09-01,38.529136657714844
2015-09-02,38.538578033447266
2015-09-03,38.9256591796875
2015-09-04,39.33163070678711
2015-09-08,40.43623733520508
2015-09-09,38.47248458862305
2015-09-10,38.66131591796875
2015-09-11,38.05708312988281
2015-09-14,37.934349060058594
2015-09-15,38.9823112487793
2015-09-16,40.18132781982422
2015-09-17,40.14356994628906
2015-09-18,38.274227142333984
2015-09-21,38.538578033447266
2015-09-22,38.529136657714844
2015-09-23,37.736087799072266
2015-09-24,37.603904724121094
2015-09-25,37.660560607910156
2015-09-28,37.06576156616211
2015-09-29,37.05632400512695
2015-09-30,37.08464813232422
2015-10-01,37.15073013305664
2015-10-02,40.48344802856445
2015-10-05,41.994022369384766
2015-10-06,42.74930191040039
2015-10-07,42.92869186401367
2015-10-08,44.67529296875
2015-10-09,44.901878356933594
2015-10-12,43.78783416748047
2015-10-13,43.22136306762695
2015-10-14,43.43851089477539
2015-10-15,44.9207649230957
2015-10-16,44.458152770996094
2015-10-19,43.410186767578125
2015-10-20,44.184356689453125
2015-10-21,43.353538513183594
2015-10-22,44.12771224975586
2015-10-23,43.72174835205078
2015-10-26,42.069549560546875
2015-10-27,41.238731384277344
2015-10-28,41.82407760620117
2015-10-29,39.77536392211914
2015-10-30,39.6715087890625
2015-11-02,42.06010437011719
2015-11-03,43.315773010253906
2015-11-04,42.7115478515625
2015-11-05,41.861846923828125
2015-11-06,41.80520248413086
2015-11-09,41.32370376586914
2015-11-10,42.12619400024414
2015-11-11,41.15376663208008
2015-11-12,40.94606018066406
2015-11-13,40.908302307128906
2015-11-16,42.23004913330078
2015-11-17,41.503082275390625
2015-11-18,42.8248405456543
2015-11-19,41.89961242675781
2015-11-20,41.3048210144043
2015-11-23,41.53140640258789
2015-11-24,41.99687576293945
2015-11-25,42.11087417602539
2015-11-27,40.913944244384766
2015-11-30,41.550411224365234
2015-12-01,41.22742462158203
2015-12-02,39.983001708984375
2015-12-03,39.54602813720703
2015-12-04,39.58402633666992
2015-12-07,37.484657287597656
2015-12-08,37.845638275146484
2015-12-09,37.9786262512207
2015-12-10,38.23511505126953
2015-12-11,36.135746002197266
2015-12-14,35.71776580810547
2015-12-15,36.74370574951172
2015-12-16,35.888755798339844
2015-12-17,35.79376983642578
2015-12-18,35.25229263305664
2015-12-21,35.26179504394531
2015-12-22,35.964752197265625
2015-12-23,37.83613586425781
2015-12-24,37.12368392944336
2015-12-28,36.46821975708008
2015-12-29,36.24973678588867
2015-12-30,35.57527542114258
2015-12-31,35.64177322387695
2016-01-04,36.83869934082031
2016-01-05,35.89826202392578
2016-01-06,34.007877349853516
2016-01-07,32.63996124267578
2016-01-08,32.2029914855957
2016-01-11,31.547531127929688
2016-01-12,31.576034545898438
2016-01-13,30.48359489440918
2016-01-14,31.148557662963867
2016-01-15,30.711584091186523
2016-01-19,30.683086395263672
2016-01-20,30.559593200683594
2016-01-21,31.59502601623535
2016-01-22,31.86100959777832
2016-01-25,29.56215476989746
2016-01-26,31.17705535888672
2016-01-27,31.927509307861328
2016-01-28,31.481033325195312
2016-01-29,32.15549087524414
2016-02-01,30.398099899291992
2016-02-02,29.22017478942871
2016-02-03,28.526718139648438
2016-02-04,28.336729049682617
2016-02-05,28.308229446411133
2016-02-08,27.86176109313965
2016-02-09,27.158803939819336
2016-02-10,26.655336380004883
2016-02-11,25.43941307067871
2016-02-12,25.762392044067383
2016-02-16,25.220924377441406
2016-02-17,25.638898849487305
2016-02-18,26.50334358215332
2016-02-19,26.70283317565918
2016-02-22,27.00681495666504
2016-02-23,26.066370010375977
2016-02-24,25.663433074951172
2016-02-25,25.09739875793457
2016-02-26,26.14312171936035
2016-02-29,26.498092651367188
2016-03-01,26.354185104370117
2016-03-02,26.987377166748047
2016-03-03,28.129039764404297
2016-03-04,28.63751220703125
2016-03-07,29.95186424255371
2016-03-08,27.850820541381836
2016-03-09,27.51503562927246
2016-03-10,27.4478816986084
2016-03-11,31.093530654907227
2016-03-14,30.489116668701172
2016-03-15,30.0861759185791
2016-03-16,30.46993064880371
2016-03-17,32.820411682128906
2016-03-18,32.4654426574707
2016-03-21,32.714881896972656
2016-03-22,32.23518753051758
2016-03-23,31.68834114074707
2016-03-24,32.01453399658203
2016-03-28,31.601991653442383
2016-03-29,31.861032485961914
2016-03-30,31.39093589782715
2016-03-31,31.88981819152832
2016-04-01,30.719369888305664
2016-04-04,30.220491409301758
2016-04-05,29.539329528808594
2016-04-06,29.61608123779297
2016-04-07,29.41461181640625
2016-04-08,30.335615158081055
2016-04-11,30.287647247314453
2016-04-12,31.68834114074707
2016-04-13,32.42706298828125
2016-04-14,31.630781173706055
2016-04-15,31.17028045654297
2016-04-18,31.582805633544922
2016-04-19,32.686100006103516
2016-04-20,32.43666076660156
2016-04-21,31.832250595092773
2016-04-22,33.72222900390625
2016-04-25,32.35990905761719
2016-04-26,31.18946075439453
2016-04-27,33.24254608154297
2016-04-28,33.798973083496094
2016-04-29,35.16130447387695
2016-05-02,34.892669677734375
2016-05-03,33.434410095214844
2016-05-04,32.350318908691406
2016-05-05,32.31193923950195
2016-05-06,32.839595794677734
2016-05-09,31.01677894592285
2016-05-10,31.630781173706055
2016-05-11,31.717126846313477
2016-05-12,31.20865249633789
2016-05-13,30.230083465576172
2016-05-16,31.007183074951172
2016-05-17,31.64037322998047
2016-05-18,30.27805519104004
2016-05-19,30.75774383544922
2016-05-20,31.91859245300293
2016-05-23,31.697935104370117
2016-05-24,30.786523818969727
2016-05-25,31.947551727294922
2016-05-26,31.966903686523438
2016-05-27,32.42163848876953
2016-05-31,31.98625373840332
2016-06-01,32.141056060791016
2016-06-02,31.386388778686523
2016-06-03,31.0767822265625
2016-06-06,33.30207443237305
2016-06-07,33.78584289550781
2016-06-08,33.921295166015625
2016-06-09,32.4893684387207
2016-06-10,31.608917236328125
2016-06-13,30.767175674438477
2016-06-14,30.622045516967773
2016-06-15,30.622045516967773
2016-06-16,30.06088638305664
2016-06-17,30.825225830078125
2016-06-20,30.554319381713867
2016-06-21,30.428544998168945
2016-06-22,30.35114288330078
2016-06-23,30.980031967163086
2016-06-24,29.335243225097656
2016-06-27,27.719482421875
2016-06-28,27.690460205078125
2016-06-29,28.561227798461914
2016-06-30,28.89018440246582
2016-07-01,29.461021423339844
2016-07-05,28.25162124633789
2016-07-06,28.464473724365234
2016-07-07,28.396747589111328
2016-07-08,28.812782287597656
2016-07-11,28.48382568359375
2016-07-12,30.206012725830078
2016-07-13,29.722251892089844
2016-07-14,30.012508392333984
2016-07-15,29.88673210144043
2016-07-18,29.596473693847656
2016-07-19,29.112712860107422
2016-07-20,29.38361930847168
2016-07-21,28.93855857849121
2016-07-22,28.019412994384766
2016-07-25,26.316577911376953
2016-07-26,26.84871482849121
2016-07-27,26.60683250427246
2016-07-28,26.76163673400879
2016-07-29,26.974491119384766
2016-08-01,26.045671463012695
2016-08-02,26.074697494506836
2016-08-03,26.693910598754883
2016-08-04,26.829362869262695
2016-08-05,27.351825714111328
2016-08-08,27.893638610839844
2016-08-09,27.564680099487305
2016-08-10,26.829362869262695
2016-08-11,27.671106338500977
2016-08-12,27.48727798461914
2016-08-15,27.86461067199707
2016-08-16,27.429227828979492
2016-08-17,27.66143035888672
2016-08-18,28.33869743347168
2016-08-19,28.764406204223633
2016-08-22,27.293773651123047
2016-08-23,27.245399475097656
2016-08-24,26.717878341674805
2016-08-25,26.336889266967773
2016-08-26,26.141515731811523
2016-08-29,26.415042877197266
2016-08-30,26.336889266967773
2016-08-31,25.907062530517578
2016-09-01,25.135318756103516
2016-09-02,25.311161041259766
2016-09-06,25.379541397094727
2016-09-07,24.842254638671875
2016-09-08,25.838680267333984
2016-09-09,24.90086555480957
2016-09-12,25.535842895507812
2016-09-13,24.930171966552734
2016-09-14,24.793407440185547
2016-09-15,24.832487106323242
2016-09-16,24.676183700561523
2016-09-19,24.5589542388916
2016-09-20,24.050975799560547
2016-09-21,24.725027084350586
2016-09-22,25.018095016479492
2016-09-23,24.607799530029297
2016-09-26,24.519882202148438
2016-09-27,24.236583709716797
2016-09-28,25.965673446655273
2016-09-29,26.571346282958984
2016-09-30,26.874181747436523
2016-10-03,26.444351196289062
2016-10-04,26.229434967041016
2016-10-05,27.333316802978516
2016-10-06,27.128170013427734
2016-10-07,27.17701530456543
2016-10-10,27.70453643798828
2016-10-11,27.431005477905273
2016-10-12,26.97186851501465
2016-10-13,26.981639862060547
2016-10-14,26.805797576904297
2016-10-17,26.23920440673828
2016-10-18,26.024288177490234
2016-10-19,26.61042022705078
2016-10-20,26.4052734375
2016-10-21,26.678802490234375
2016-10-24,26.034055709838867
2016-10-25,25.262313842773438
2016-10-26,24.939943313598633
2016-10-27,24.861791610717773
2016-10-28,23.455074310302734
2016-10-31,23.24992561340332
2016-11-01,23.621143341064453
2016-11-02,23.68952751159668
2016-11-03,23.523456573486328
2016-11-04,22.663793563842773
2016-11-07,22.71263885498047
2016-11-08,22.224193572998047
2016-11-09,22.85917091369629
2016-11-10,23.513687133789062
2016-11-11,22.85917091369629
2016-11-14,23.75790786743164
2016-11-15,24.812946319580078
2016-11-16,24.861791610717773
2016-11-17,24.63710594177246
2016-11-18,24.500341415405273
2016-11-21,25.418617248535156
2016-11-22,25.448091506958008
2016-11-23,25.526697158813477
2016-11-25,25.359663009643555
2016-11-28,24.809436798095703
2016-11-29,24.671876907348633
2016-11-30,26.185007095336914
2016-12-01,26.8138427734375
2016-12-02,26.56820297241211
2016-12-05,26.971050262451172
2016-12-06,27.285465240478516
2016-12-07,27.295291900634766
2016-12-08,28.602087020874023
2016-12-09,29.506032943725586
2016-12-12,30.18399429321289
2016-12-13,30.979862213134766
2016-12-14,29.4176025390625
2016-12-15,30.272422790527344
2016-12-16,30.655620574951172
2016-12-19,30.409982681274414
2016-12-20,30.18399429321289
2016-12-21,29.87940216064453
2016-12-22,29.260395050048828
2016-12-23,28.464527130126953
2016-12-27,28.621734619140625
2016-12-28,27.757091522216797
2016-12-29,27.737438201904297
2016-12-30,27.71778678894043
2017-01-03,28.228715896606445
2017-01-04,28.592260360717773
2017-01-05,28.395750045776367
2017-01-06,28.346620559692383
2017-01-09,27.90447235107422
2017-01-10,27.7963924407959
2017-01-11,28.02237892150879
2017-01-12,27.71778678894043
2017-01-13,27.226511001586914
2017-01-17,27.50162696838379
2017-01-18,27.246164321899414
2017-01-19,26.882619857788086
2017-01-20,27.059478759765625
2017-01-23,26.40117073059082
2017-01-24,27.20686149597168
2017-01-25,28.02237892150879
2017-01-26,28.04203224182129
2017-01-27,27.747264862060547
2017-01-30,26.87279510498047
2017-01-31,27.364070892333984
2017-02-01,26.98087501525879
2017-02-02,26.971050262451172
2017-02-03,27.197036743164062
2017-02-06,26.528902053833008
2017-02-07,26.26361083984375
2017-02-08,25.98849868774414
2017-02-09,26.19483184814453
2017-02-10,26.578027725219727
2017-02-13,26.74506187438965
2017-02-14,27.688312530517578
2017-02-15,27.305118560791016
2017-02-16,27.000526428222656
2017-02-17,26.725412368774414
2017-02-21,28.14028549194336
2017-02-22,27.261211395263672
2017-02-23,27.952619552612305
2017-02-24,28.21930503845215
2017-02-27,28.663780212402344
2017-02-28,27.972373962402344
2017-03-01,28.989728927612305
2017-03-02,27.992128372192383
2017-03-03,27.458755493164062
2017-03-06,27.330352783203125
2017-03-07,26.28336524963379
2017-03-08,26.05618667602539
2017-03-09,25.829010009765625
2017-03-10,25.56232452392578
2017-03-13,25.60183334350586
2017-03-14,25.354902267456055
2017-03-15,26.125329971313477
2017-03-16,25.759868621826172
2017-03-17,25.611711502075195
2017-03-20,25.295639038085938
2017-03-21,25.493183135986328
2017-03-22,24.989442825317383
2017-03-23,25.028953552246094
2017-03-24,24.712881088256836
2017-03-27,24.584474563598633
2017-03-28,25.56232452392578
2017-03-29,26.204347610473633
2017-03-30,26.579681396484375
2017-03-31,26.747594833374023
2017-04-03,26.421646118164062
2017-04-04,26.411767959594727
2017-04-05,26.05618667602539
2017-04-06,26.82661247253418
2017-04-07,26.964893341064453
2017-04-10,27.458755493164062
2017-04-11,27.25133514404297
2017-04-12,27.52789878845215
2017-04-13,26.71796226501465
2017-04-17,26.885875701904297
2017-04-18,26.599435806274414
2017-04-19,25.888273239135742
2017-04-20,25.829010009765625
2017-04-21,25.641342163085938
2017-04-24,25.47342872619629
2017-04-25,26.0956974029541
2017-04-26,25.996923446655273
2017-04-27,26.14508056640625
2017-04-28,26.066062927246094
2017-05-01,25.730236053466797
2017-05-02,25.453676223754883
2017-05-03,25.69072723388672
2017-05-04,24.90054702758789
2017-05-05,25.71048355102539
2017-05-08,25.829010009765625
2017-05-09,25.661096572875977
2017-05-10,26.263608932495117
2017-05-11,26.293241500854492
2017-05-12,25.305517196655273
2017-05-15,25.483306884765625
2017-05-16,25.740114212036133
2017-05-17,25.463552474975586
2017-05-18,25.50305938720703
2017-05-19,26.71796226501465
2017-05-22,26.520418167114258
2017-05-23,26.214223861694336
2017-05-24,26.04535484313965
2017-05-25,24.456012725830078
2017-05-26,24.63481330871582
2017-05-30,24.426212310791016
2017-05-31,24.217609405517578
2017-06-01,24.853347778320312
2017-06-02,24.67454719543457
2017-06-05,25.111616134643555
2017-06-06,25.270551681518555
2017-06-07,24.654680252075195
2017-06-08,24.44607925415039
2017-06-09,24.9427490234375
2017-06-12,24.873214721679688
2017-06-13,25.419551849365234
2017-06-14,24.59507942199707
2017-06-15,24.277212142944336
2017-06-16,24.783815383911133
2017-06-19,24.86328125
2017-06-20,23.60173988342285
2017-06-21,22.31039810180664
2017-06-22,21.346860885620117
2017-06-23,20.889925003051758
2017-06-26,21.277326583862305
2017-06-27,22.14153289794922
2017-06-28,22.389867782592773
2017-06-29,22.50906753540039
2017-06-30,22.687868118286133
2017-07-03,23.025604248046875
2017-07-05,21.94286346435547
2017-07-06,21.615062713623047
2017-07-07,21.87333106994629
2017-07-10,22.260732650756836
2017-07-11,22.50906753540039
2017-07-12,22.379934310913086
2017-07-13,22.69780158996582
2017-07-14,23.68120765686035
2017-07-17,23.8798770904541
2017-07-18,23.552072525024414
2017-07-19,24.605012893676758
2017-07-20,24.515613555908203
2017-07-21,24.287145614624023
2017-07-24,24.47587776184082
2017-07-25,24.535480499267578
2017-07-26,24.694414138793945
2017-07-27,25.310283660888672
2017-07-28,25.489084243774414
2017-07-31,25.479150772094727
2017-08-01,25.17121696472168
2017-08-02,25.131481170654297
2017-08-03,25.43941879272461
2017-08-04,25.866554260253906
2017-08-07,25.340084075927734
2017-08-08,24.396411895751953
2017-08-09,24.13814353942871
2017-08-10,23.19447135925293
2017-08-11,23.035537719726562
2017-08-14,23.0057373046875
2017-08-15,22.558732986450195
2017-08-16,22.032264709472656
2017-08-17,22.09186363220215
2017-08-18,22.419666290283203
2017-08-21,22.439533233642578
2017-08-22,22.3700008392334
2017-08-23,22.329999923706055
2017-08-24,22.280000686645508
2017-08-25,23.309999465942383
2017-08-28,22.360000610351562
2017-08-29,22.600000381469727
2017-08-30,22.3799991607666
2017-08-31,22.549999237060547
2017-09-01,23.0
2017-09-05,23.8700008392334
2017-09-06,24.209999084472656
2017-09-07,24.43000030517578
2017-09-08,24.31999969482422
2017-09-11,24.969999313354492
2017-09-12,25.360000610351562
2017-09-13,25.780000686645508
2017-09-14,26.020000457763672
2017-09-15,25.799999237060547
2017-09-18,25.959999084472656
2017-09-19,26.100000381469727
2017-09-20,26.530000686645508
2017-09-21,25.799999237060547
2017-09-22,25.940000534057617
2017-09-25,26.6299991607666
2017-09-26,26.40999984741211
2017-09-27,26.530000686645508
2017-09-28,26.549999237060547
2017-09-29,26.270000457763672
2017-10-02,25.84000015258789
2017-10-03,25.43000030517578
2017-10-04,25.450000762939453
2017-10-05,25.469999313354492
2017-10-06,25.260000228881836
2017-10-09,25.489999771118164
2017-10-10,25.31999969482422
2017-10-11,25.420000076293945
2017-10-12,25.34000015258789
2017-10-13,25.489999771118164
2017-10-16,25.469999313354492
2017-10-17,25.030000686645508
2017-10-18,24.8700008392334
2017-10-19,24.8700008392334
2017-10-20,24.809999465942383
2017-10-23,24.579999923706055
2017-10-24,24.3700008392334
2017-10-25,23.600000381469727
2017-10-26,19.34000015258789
2017-10-27,19.040000915527344
2017-10-30,19.709999084472656
2017-10-31,20.219999313354492
2017-11-01,20.149999618530273
2017-11-02,20.200000762939453
2017-11-03,20.799999237060547
2017-11-06,22.040000915527344
2017-11-07,21.600000381469727
2017-11-08,21.350000381469727
2017-11-09,21.34000015258789
2017-11-10,20.68000030517578
2017-11-13,20.200000762939453
2017-11-14,19.600000381469727
2017-11-15,19.440000534057617
2017-11-16,18.700000762939453
2017-11-17,19.079999923706055
2017-11-20,18.479999542236328
2017-11-21,18.520000457763672
2017-11-22,18.809999465942383
2017-11-24,19.0
2017-11-27,18.790000915527344
2017-11-28,18.90999984741211
2017-11-29,19.290000915527344
2017-11-30,19.540000915527344
2017-12-01,20.0
2017-12-04,20.139999389648438
2017-12-05,19.270000457763672
2017-12-06,18.280000686645508
2017-12-07,18.43000030517578
2017-12-08,18.84000015258789
2017-12-11,19.309999465942383
2017-12-12,19.260000228881836
2017-12-13,18.3799991607666
2017-12-14,18.59000015258789
2017-12-15,18.420000076293945
2017-12-18,19.399999618530273
2017-12-19,19.3700008392334
2017-12-20,20.06999969482422
2017-12-21,20.549999237060547
2017-12-22,20.5
2017-12-26,20.850000381469727
2017-12-27,20.610000610351562
2017-12-28,20.829999923706055
2017-12-29,21.139999389648438
2018-01-02,21.68000030517578
2018-01-03,22.530000686645508
2018-01-04,23.040000915527344
2018-01-05,23.149999618530273
2018-01-08,23.450000762939453
2018-01-09,22.969999313354492
2018-01-10,22.549999237060547
2018-01-11,23.059999465942383
2018-01-12,22.440000534057617
2018-01-16,22.1299991607666
2018-01-17,22.030000686645508
2018-01-18,21.81999969482422
2018-01-19,22.149999618530273
2018-01-22,22.6299991607666
2018-01-23,22.68000030517578
2018-01-24,22.290000915527344
2018-01-25,21.709999084472656
2018-01-26,21.829999923706055
2018-01-29,21.030000686645508
2018-01-30,20.700000762939453
2018-01-31,20.68000030517578
2018-02-01,20.889999389648438
2018-02-02,20.40999984741211
2018-02-05,19.719999313354492
2018-02-06,20.100000381469727
2018-02-07,19.31999969482422
2018-02-08,18.459999084472656
2018-02-09,17.860000610351562
2018-02-12,18.350000381469727
2018-02-13,17.899999618530273
2018-02-14,18.25
2018-02-15,17.8700008392334
2018-02-16,18.450000762939453
2018-02-20,18.799999237060547
2018-02-21,18.709999084472656
2018-02-22,19.0
2018-02-23,19.920000076293945
2018-02-26,19.299999237060547
2018-02-27,18.709999084472656
2018-02-28,18.3799991607666
2018-03-01,18.0
2018-03-02,18.15999984741211
2018-03-05,18.81999969482422
2018-03-06,18.780000686645508
2018-03-07,18.329999923706055
2018-03-08,18.780000686645508
2018-03-09,19.100000381469727
2018-03-12,19.219999313354492
2018-03-13,18.81999969482422
2018-03-14,19.139999389648438
2018-03-15,18.239999771118164
2018-03-16,19.260000228881836
2018-03-19,18.770000457763672
2018-03-20,19.010000228881836
2018-03-21,20.1200008392334
2018-03-22,19.170000076293945
2018-03-23,19.329999923706055
2018-03-26,19.579999923706055
2018-03-27,18.770000457763672
2018-03-28,17.920000076293945
2018-03-29,18.540000915527344
2018-04-02,17.950000762939453
2018-04-03,18.479999542236328
2018-04-04,18.600000381469727
2018-04-05,19.18000030517578
2018-04-06,18.56999969482422
2018-04-09,18.610000610351562
2018-04-10,19.540000915527344
2018-04-11,20.34000015258789
2018-04-12,20.510000228881836
2018-04-13,20.450000762939453
2018-04-16,20.040000915527344
2018-04-17,19.6200008392334
2018-04-18,20.170000076293945
2018-04-19,20.100000381469727
2018-04-20,20.079999923706055
2018-04-23,20.510000228881836
2018-04-24,20.600000381469727
2018-04-25,21.420000076293945
2018-04-26,20.989999771118164
2018-04-27,21.420000076293945
2018-04-30,21.239999771118164
2018-05-01,20.829999923706055
2018-05-02,21.15999984741211
2018-05-03,20.8799991607666
2018-05-04,21.68000030517578
2018-05-07,21.639999389648438
2018-05-08,22.209999084472656
2018-05-09,23.399999618530273
2018-05-10,23.59000015258789
2018-05-11,23.450000762939453
2018-05-14,23.299999237060547
2018-05-15,23.770000457763672
2018-05-16,23.8700008392334
2018-05-17,24.260000228881836
2018-05-18,24.489999771118164
2018-05-21,24.6299991607666
2018-05-22,23.8799991607666
2018-05-23,23.719999313354492
2018-05-24,23.950000762939453
2018-05-25,22.90999984741211
2018-05-29,23.200000762939453
2018-05-30,23.959999084472656
2018-05-31,23.829999923706055
2018-06-01,23.670000076293945
2018-06-04,23.43000030517578
2018-06-05,23.68000030517578
2018-06-06,23.809999465942383
2018-06-07,24.520000457763672
2018-06-08,24.280000686645508
2018-06-11,24.610000610351562
2018-06-12,24.530000686645508
2018-06-13,24.100000381469727
2018-06-14,23.790000915527344
2018-06-15,22.65999984741211
2018-06-18,23.610000610351562
2018-06-19,23.729999542236328
2018-06-20,23.950000762939453
2018-06-21,23.459999084472656
2018-06-22,24.639999389648438
2018-06-25,23.489999771118164
2018-06-26,24.1299991607666
2018-06-27,24.899999618530273
2018-06-28,25.229999542236328
2018-06-29,25.459999084472656
2018-07-02,24.979999542236328
2018-07-03,25.59000015258789
2018-07-05,25.8700008392334
2018-07-06,26.34000015258789
2018-07-09,26.729999542236328
2018-07-10,26.93000030517578
2018-07-11,25.899999618530273
2018-07-12,25.68000030517578
2018-07-13,26.350000381469727
2018-07-16,26.309999465942383
2018-07-17,26.600000381469727
2018-07-18,26.43000030517578
2018-07-19,26.850000381469727
2018-07-20,26.479999542236328
2018-07-23,26.600000381469727
2018-07-24,26.610000610351562
2018-07-25,26.8700008392334
2018-07-26,26.06999969482422
2018-07-27,26.030000686645508
2018-07-30,27.290000915527344
2018-07-31,27.360000610351562
2018-08-01,26.809999465942383
2018-08-02,26.520000457763672
2018-08-03,26.280000686645508
2018-08-06,26.360000610351562
2018-08-07,26.469999313354492
2018-08-08,26.420000076293945
2018-08-09,26.1299991607666
2018-08-10,26.3799991607666
2018-08-13,25.799999237060547
2018-08-14,26.229999542236328
2018-08-15,25.459999084472656
2018-08-16,25.6299991607666
2018-08-17,25.40999984741211
2018-08-20,25.940000534057617
2018-08-21,26.829999923706055
2018-08-22,27.299999237060547
2018-08-23,27.190000534057617
2018-08-24,27.59000015258789
2018-08-27,28.299999237060547
2018-08-28,28.100000381469727
2018-08-29,28.489999771118164
2018-08-30,28.280000686645508
2018-08-31,28.270000457763672
2018-09-04,28.06999969482422
2018-09-05,27.350000381469727
2018-09-06,26.510000228881836
2018-09-07,26.399999618530273
2018-09-10,26.3700008392334
2018-09-11,26.5
2018-09-12,26.770000457763672
2018-09-13,26.100000381469727
2018-09-14,25.760000228881836
2018-09-17,25.399999618530273
2018-09-18,25.1200008392334
2018-09-19,25.729999542236328
2018-09-20,26.450000762939453
2018-09-21,27.260000228881836
2018-09-24,27.729999542236328
2018-09-25,28.270000457763672
2018-09-26,27.40999984741211
2018-09-27,27.889999389648438
2018-09-28,27.600000381469727
2018-10-01,27.239999771118164
2018-10-02,26.979999542236328
2018-10-03,27.399999618530273
2018-10-04,27.06999969482422
2018-10-05,26.690000534057617
2018-10-08,26.59000015258789
2018-10-09,27.049999237060547
2018-10-10,25.389999389648438
2018-10-11,24.65999984741211
2018-10-12,25.260000228881836
2018-10-15,25.700000762939453
2018-10-16,26.260000228881836
2018-10-17,25.530000686645508
2018-10-18,23.809999465942383
2018-10-19,23.540000915527344
2018-10-22,23.25
2018-10-23,22.43000030517578
2018-10-24,21.18000030517578
2018-10-25,19.260000228881836
2018-10-26,18.799999237060547
2018-10-29,17.739999771118164
2018-10-30,18.860000610351562
2018-10-31,18.940000534057617
2018-11-01,19.040000915527344
2018-11-02,18.959999084472656
2018-11-05,18.579999923706055
2018-11-06,18.989999771118164
2018-11-07,18.969999313354492
2018-11-08,18.56999969482422
2018-11-09,18.489999771118164
2018-11-12,17.709999084472656
2018-11-13,16.780000686645508
2018-11-14,16.920000076293945
2018-11-15,17.290000915527344
2018-11-16,17.40999984741211
2018-11-19,17.43000030517578
2018-11-20,16.93000030517578
2018-11-21,17.40999984741211
2018-11-23,16.639999389648438
2018-11-26,17.280000686645508
2018-11-27,17.020000457763672
2018-11-28,17.450000762939453
2018-11-29,17.229999542236328
2018-11-30,16.790000915527344
2018-12-03,17.559999465942383
2018-12-04,16.489999771118164
2018-12-06,15.739999771118164
2018-12-07,15.59000015258789
2018-12-10,15.050000190734863
2018-12-11,14.649999618530273
2018-12-12,15.220000267028809
2018-12-13,14.579999923706055
2018-12-14,14.3100004196167
2018-12-17,14.569999694824219
2018-12-18,14.210000038146973
2018-12-19,13.9399995803833
2018-12-20,11.65999984741211
2018-12-21,11.289999961853027
2018-12-24,10.960000038146973
2018-12-26,11.800000190734863
2018-12-27,11.90999984741211
2018-12-28,12.029999732971191
2018-12-31,12.100000381469727
2019-01-02,12.640000343322754
2019-01-03,12.800000190734863
2019-01-04,13.579999923706055
2019-01-07,14.470000267028809
2019-01-08,15.050000190734863
2019-01-09,15.430000305175781
2019-01-10,15.470000267028809
2019-01-11,15.760000228881836
2019-01-14,15.8100004196167
2019-01-15,15.789999961853027
2019-01-16,15.390000343322754
2019-01-17,15.609999656677246
2019-01-18,15.899999618530273
2019-01-22,15.970000267028809
2019-01-23,15.050000190734863
2019-01-24,15.600000381469727
2019-01-25,16.18000030517578
2019-01-28,15.399999618530273
2019-01-29,15.489999771118164
2019-01-30,15.800000190734863
2019-01-31,15.6899995803833
2019-02-01,15.880000114440918
2019-02-04,16.010000228881836
2019-02-05,15.640000343322754
2019-02-06,15.710000038146973
2019-02-07,15.029999732971191
2019-02-08,14.829999923706055
2019-02-11,15.180000305175781
2019-02-12,15.260000228881836
2019-02-13,15.460000038146973
2019-02-14,16.1200008392334
2019-02-15,16.649999618530273
2019-02-19,16.239999771118164
2019-02-20,16.610000610351562
2019-02-21,15.960000038146973
2019-02-22,15.800000190734863
2019-02-25,16.1200008392334
2019-02-26,15.989999771118164
2019-02-27,15.6899995803833
2019-02-28,15.449999809265137
2019-03-01,15.470000267028809
2019-03-04,15.279999732971191
2019-03-05,14.960000038146973
2019-03-06,14.800000190734863
2019-03-07,14.359999656677246
2019-03-08,14.069999694824219
2019-03-11,14.4399995803833
2019-03-12,14.949999809265137
2019-03-13,15.220000267028809
2019-03-14,15.600000381469727
2019-03-15,15.8100004196167
2019-03-18,16.8700008392334
2019-03-19,16.489999771118164
2019-03-20,16.670000076293945
2019-03-21,16.81999969482422
2019-03-22,15.5600004196167
2019-03-25,15.739999771118164
2019-03-26,15.989999771118164
2019-03-27,15.630000114440918
2019-03-28,15.989999771118164
2019-03-29,15.770000457763672
2019-04-01,16.149999618530273
2019-04-02,15.770000457763672
2019-04-03,15.25
2019-04-04,15.390000343322754
2019-04-05,16.360000610351562
2019-04-08,16.920000076293945
2019-04-09,16.579999923706055
2019-04-10,16.950000762939453
2019-04-11,16.90999984741211
2019-04-12,16.81999969482422
2019-04-15,16.700000762939453
2019-04-16,17.059999465942383
2019-04-17,17.219999313354492
2019-04-18,17.25
2019-04-22,17.850000381469727
2019-04-23,17.920000076293945
2019-04-24,17.450000762939453
2019-04-25,16.979999542236328
2019-04-26,17.239999771118164
2019-04-29,17.309999465942383
2019-04-30,19.200000762939453
2019-05-01,19.459999084472656
2019-05-02,19.40999984741211
2019-05-03,19.149999618530273
2019-05-06,19.610000610351562
2019-05-07,19.200000762939453
2019-05-08,19.350000381469727
2019-05-09,19.020000457763672
2019-05-10,18.709999084472656
2019-05-13,17.649999618530273
2019-05-14,18.3700008392334
2019-05-15,19.1299991607666
2019-05-16,18.979999542236328
2019-05-17,18.420000076293945
2019-05-20,18.549999237060547
2019-05-21,18.530000686645508
2019-05-22,17.700000762939453
2019-05-23,16.920000076293945
2019-05-24,16.790000915527344
2019-05-28,16.670000076293945
2019-05-29,16.920000076293945
2019-05-30,16.56999969482422
2019-05-31,16.399999618530273
2019-06-03,16.34000015258789
2019-06-04,16.719999313354492
2019-06-05,16.81999969482422
2019-06-06,16.3799991607666
2019-06-07,16.530000686645508
2019-06-10,17.149999618530273
2019-06-11,17.170000076293945
2019-06-12,16.280000686645508
2019-06-13,17.209999084472656
2019-06-14,16.6299991607666
2019-06-17,17.639999389648438
2019-06-18,18.3700008392334
2019-06-19,19.40999984741211
2019-06-20,19.299999237060547
2019-06-21,19.1200008392334
2019-06-24,18.56999969482422
2019-06-25,19.049999237060547
2019-06-26,19.690000534057617
2019-06-27,19.559999465942383
2019-06-28,20.389999389648438
2019-07-01,20.149999618530273
2019-07-02,19.739999771118164
2019-07-03,19.760000228881836
2019-07-05,19.850000381469727
2019-07-08,19.420000076293945
2019-07-09,19.600000381469727
2019-07-10,20.31999969482422
2019-07-11,20.18000030517578
2019-07-12,19.549999237060547
2019-07-15,19.049999237060547
2019-07-16,18.8799991607666
2019-07-17,17.979999542236328
2019-07-18,18.100000381469727
2019-07-19,17.899999618530273
2019-07-22,18.6299991607666
2019-07-23,18.860000610351562
2019-07-24,19.31999969482422
2019-07-25,15.640000343322754
2019-07-26,16.079999923706055
2019-07-29,14.979999542236328
2019-07-30,15.479999542236328
2019-07-31,15.449999809265137
2019-08-01,15.029999732971191
2019-08-02,14.390000343322754
2019-08-05,13.5
2019-08-06,12.970000267028809
2019-08-07,13.020000457763672
2019-08-08,13.09000015258789
2019-08-09,12.350000381469727
2019-08-12,12.380000114440918
2019-08-13,12.59000015258789
2019-08-14,11.930000305175781
2019-08-15,11.579999923706055
2019-08-16,12.069999694824219
2019-08-19,12.720000267028809
2019-08-20,13.010000228881836
2019-08-21,13.279999732971191
2019-08-22,13.279999732971191
2019-08-23,12.550000190734863
2019-08-26,12.4399995803833
2019-08-27,12.289999961853027
2019-08-28,12.640000343322754
2019-08-29,13.180000305175781
2019-08-30,12.960000038146973
2019-09-03,12.390000343322754
2019-09-04,12.9399995803833
2019-09-05,13.5
2019-09-06,13.5
2019-09-09,14.729999542236328
2019-09-10,15.050000190734863
2019-09-11,15.199999809265137
2019-09-12,14.760000228881836
2019-09-13,14.770000457763672
2019-09-16,15.579999923706055
2019-09-17,14.8100004196167
2019-09-18,14.460000038146973
2019-09-19,13.920000076293945
2019-09-20,13.789999961853027
2019-09-23,14.210000038146973
2019-09-24,13.4399995803833
2019-09-25,13.949999809265137
2019-09-26,13.699999809265137
2019-09-27,13.300000190734863
2019-09-30,13.550000190734863
2019-10-01,13.079999923706055
2019-10-02,13.079999923706055
2019-10-03,13.270000457763672
2019-10-04,13.039999961853027
2019-10-07,12.84000015258789
2019-10-08,12.489999771118164
2019-10-09,13.039999961853027
2019-10-10,13.479999542236328
2019-10-11,14.239999771118164
2019-10-14,14.199999809265137
2019-10-15,14.0600004196167
2019-10-16,13.989999771118164
2019-10-17,13.760000228881836
2019-10-18,13.289999961853027
2019-10-21,13.619999885559082
2019-10-22,14.020000457763672
2019-10-23,14.199999809265137
2019-10-24,13.729999542236328
2019-10-25,13.869999885559082
2019-10-28,13.710000038146973
2019-10-29,13.989999771118164
2019-10-30,13.579999923706055
2019-10-31,14.15999984741211
2019-11-01,14.649999618530273
2019-11-04,14.880000114440918
2019-11-05,14.569999694824219
2019-11-06,14.399999618530273
2019-11-07,14.430000305175781
2019-11-08,14.289999961853027
2019-11-11,14.010000228881836
2019-11-12,14.0600004196167
2019-11-13,13.460000038146973
2019-11-14,13.4399995803833
2019-11-15,13.720000267028809
2019-11-18,13.40999984741211
2019-11-19,13.34000015258789
2019-11-20,13.319999694824219
2019-11-21,13.550000190734863
2019-11-22,13.479999542236328
2019-11-25,13.989999771118164
2019-11-26,13.579999923706055
2019-11-27,13.770000457763672
2019-11-29,13.40999984741211
2019-12-02,13.5600004196167
2019-12-03,13.1899995803833
2019-12-04,13.40999984741211
2019-12-05,13.239999771118164
2019-12-06,13.6899995803833
2019-12-09,13.359999656677246
2019-12-10,13.15999984741211
2019-12-11,13.470000267028809
2019-12-12,14.430000305175781
2019-12-13,14.1899995803833
2019-12-16,14.3100004196167
2019-12-17,14.8100004196167
2019-12-18,15.050000190734863
2019-12-19,15.079999923706055
2019-12-20,14.75
2019-12-23,15.09000015258789
2019-12-24,15.140000343322754
2019-12-26,15.09000015258789
2019-12-27,14.880000114440918
2019-12-30,14.899999618530273
2019-12-31,14.90999984741211
