Date,OLN
2007-12-31,11.676366806030273
2008-01-02,11.3864164352417
2008-01-03,11.187082290649414
2008-01-04,10.87297534942627
2008-01-07,10.715922355651855
2008-01-08,10.413893699645996
2008-01-09,10.52866268157959
2008-01-10,10.806526184082031
2008-01-11,10.625311851501465
2008-01-14,11.078351974487305
2008-01-15,10.715922355651855
2008-01-16,10.534704208374023
2008-01-17,10.063542366027832
2008-01-18,9.99709701538086
2008-01-22,9.991052627563477
2008-01-23,10.359528541564941
2008-01-24,10.250798225402832
2008-01-25,10.558869361877441
2008-01-28,10.903175354003906
2008-01-29,12.081086158752441
2008-01-30,11.996516227722168
2008-01-31,12.37707233428955
2008-02-01,12.564329147338867
2008-02-04,12.576407432556152
2008-02-05,12.371028900146484
2008-02-06,12.322702407836914
2008-02-07,12.273903846740723
2008-02-08,12.334904670715332
2008-02-11,12.499617576599121
2008-02-12,12.792430877685547
2008-02-13,12.963237762451172
2008-02-14,12.67652702331543
2008-02-15,12.633817672729492
2008-02-19,12.871742248535156
2008-02-20,13.213357925415039
2008-02-21,12.652122497558594
2008-02-22,11.712671279907227
2008-02-25,12.475214958190918
2008-02-26,12.670426368713379
2008-02-27,12.4691162109375
2008-02-28,12.353205680847168
2008-02-29,11.724869728088379
2008-03-03,11.69437026977539
2008-03-04,11.639466285705566
2008-03-05,11.73707389831543
2008-03-06,11.450357437133789
2008-03-07,11.200240135192871
2008-03-10,10.584107398986816
2008-03-11,11.279547691345215
2008-03-12,11.389350891113281
2008-03-13,11.560165405273438
2008-03-14,10.901325225830078
2008-03-17,10.712214469909668
2008-03-18,11.127037048339844
2008-03-19,10.693910598754883
2008-03-20,10.968429565429688
2008-03-24,11.901782035827637
2008-03-25,12.395913124084473
2008-03-26,12.267803192138672
2008-03-27,11.877379417419434
2008-03-28,11.718769073486328
2008-03-31,12.054290771484375
2008-04-01,12.68262767791748
2008-04-02,12.743631362915039
2008-04-03,12.98154067993164
2008-04-04,13.079153060913086
2008-04-07,12.98154067993164
2008-04-08,13.298758506774902
2008-04-09,12.591119766235352
2008-04-10,12.896137237548828
2008-04-11,12.713125228881836
2008-04-14,12.530117988586426
2008-04-15,12.98154067993164
2008-04-16,13.554973602294922
2008-04-17,13.390266418457031
2008-04-18,13.622084617614746
2008-04-21,13.463469505310059
2008-04-22,13.298758506774902
2008-04-23,13.579376220703125
2008-04-24,13.719685554504395
2008-04-25,14.146712303161621
2008-04-28,14.732343673706055
2008-04-29,13.097453117370605
2008-04-30,12.304404258728027
2008-05-01,12.652122497558594
2008-05-02,12.420309066772461
2008-05-05,12.627721786499023
2008-05-06,12.920538902282715
2008-05-07,12.59414005279541
2008-05-08,12.858952522277832
2008-05-09,12.76657772064209
2008-05-12,13.074499130249023
2008-05-13,13.136090278625488
2008-05-14,13.302367210388184
2008-05-15,13.388591766357422
2008-05-16,13.290051460266113
2008-05-19,13.099128723144531
2008-05-20,13.08681583404541
2008-05-21,12.926698684692383
2008-05-22,13.12993049621582
2008-05-23,12.93901538848877
2008-05-27,13.000602722167969
2008-05-28,13.487123489379883
2008-05-29,13.616450309753418
2008-05-30,13.856633186340332
2008-06-02,13.751941680908203
2008-06-03,13.696508407592773
2008-06-04,13.985954284667969
2008-06-05,14.312362670898438
2008-06-06,14.226140975952148
2008-06-09,14.250774383544922
2008-06-10,14.6079683303833
2008-06-11,14.466323852539062
2008-06-12,14.540223121643066
2008-06-13,15.112969398498535
2008-06-16,15.851984977722168
2008-06-17,15.833511352539062
2008-06-18,15.722661972045898
2008-06-19,15.759608268737793
2008-06-20,16.141435623168945
2008-06-23,16.54174041748047
2008-06-24,16.54174041748047
2008-06-25,16.418569564819336
2008-06-26,15.734975814819336
2008-06-27,15.815035820007324
2008-06-30,16.12296485900879
2008-07-01,16.744972229003906
2008-07-02,16.172224044799805
2008-07-03,15.19919204711914
2008-07-07,15.919731140136719
2008-07-08,16.086008071899414
2008-07-09,16.049057006835938
2008-07-10,16.363147735595703
2008-07-11,16.030580520629883
2008-07-14,15.716500282287598
2008-07-15,15.716500282287598
2008-07-16,16.110645294189453
2008-07-17,17.089847564697266
2008-07-18,17.188385009765625
2008-07-21,17.028261184692383
2008-07-22,17.102161407470703
2008-07-23,16.566375732421875
2008-07-24,16.159908294677734
2008-07-25,17.551733016967773
2008-07-28,17.459354400634766
2008-07-29,17.785755157470703
2008-07-30,18.561731338500977
2008-07-31,18.315383911132812
2008-08-01,17.952035903930664
2008-08-04,17.79807472229004
2008-08-05,17.933565139770508
2008-08-06,18.099838256835938
2008-08-07,17.529375076293945
2008-08-08,17.485971450805664
2008-08-11,17.206939697265625
2008-08-12,17.299945831298828
2008-08-13,17.733999252319336
2008-08-14,17.473573684692383
2008-08-15,17.49837303161621
2008-08-18,17.306156158447266
2008-08-19,16.996116638183594
2008-08-20,16.915510177612305
2008-08-21,16.84729766845703
2008-08-22,17.051929473876953
2008-08-25,16.661279678344727
2008-08-26,16.57447052001953
2008-08-27,16.51246452331543
2008-08-28,16.884504318237305
2008-08-29,16.686077117919922
2008-09-02,16.518659591674805
2008-09-03,16.128019332885742
2008-09-04,14.546838760375977
2008-09-05,14.794867515563965
2008-09-08,14.621245384216309
2008-09-09,13.480321884155273
2008-09-10,13.982572555541992
2008-09-11,14.180998802185059
2008-09-12,14.497235298156738
2008-09-15,13.591935157775879
2008-09-16,13.461719512939453
2008-09-17,12.36419677734375
2008-09-18,13.015266418457031
2008-09-19,14.360817909240723
2008-09-22,13.63533878326416
2008-09-23,13.077274322509766
2008-09-24,13.170284271240234
2008-09-25,13.60433578491211
2008-09-26,13.058673858642578
2008-09-29,11.675918579101562
2008-09-30,12.029353141784668
2008-10-01,11.837136268615723
2008-10-02,10.55979061126709
2008-10-03,10.497783660888672
2008-10-06,10.541187286376953
2008-10-07,9.487070083618164
2008-10-08,9.549073219299316
2008-10-09,9.065423011779785
2008-10-10,8.48875904083252
2008-10-13,10.417173385620117
2008-10-14,10.485379219055176
2008-10-15,9.090226173400879
2008-10-16,10.06993579864502
2008-10-17,9.927322387695312
2008-10-20,10.73961353302002
2008-10-21,10.398573875427246
2008-10-22,9.846709251403809
2008-10-23,10.367568016052246
2008-10-24,10.181548118591309
2008-10-27,9.542877197265625
2008-10-28,10.404770851135254
2008-10-29,10.603195190429688
2008-10-30,10.975237846374512
2008-10-31,11.260472297668457
2008-11-03,11.347277641296387
2008-11-04,11.762726783752441
2008-11-05,11.018643379211426
2008-11-06,10.592193603515625
2008-11-07,10.73016357421875
2008-11-10,11.04999828338623
2008-11-11,10.165743827819824
2008-11-12,9.5323486328125
2008-11-13,10.617280006408691
2008-11-14,10.165743827819824
2008-11-17,9.764385223388672
2008-11-18,9.852184295654297
2008-11-19,8.829962730407715
2008-11-20,7.901817798614502
2008-11-21,8.842506408691406
2008-11-24,9.3065824508667
2008-11-25,9.544891357421875
2008-11-26,10.109310150146484
2008-11-28,10.272357940673828
2008-12-01,8.930307388305664
2008-12-02,9.601332664489746
2008-12-03,9.896082878112793
2008-12-04,9.551163673400879
2008-12-05,10.335071563720703
2008-12-08,10.748977661132812
2008-12-09,10.592193603515625
2008-12-10,11.307119369506836
2008-12-11,10.94338607788086
2008-12-12,11.288309097290039
2008-12-15,11.169151306152344
2008-12-16,11.288309097290039
2008-12-17,11.307119369506836
2008-12-18,10.654908180236816
2008-12-19,10.554567337036133
2008-12-22,10.11557674407959
2008-12-23,10.059137344360352
2008-12-24,10.034050941467285
2008-12-26,10.222187995910645
2008-12-29,10.266087532043457
2008-12-30,10.617280006408691
2008-12-31,11.338479042053223
2009-01-02,11.394915580749512
2009-01-05,11.633228302001953
2009-01-06,12.103572845458984
2009-01-07,11.658313751220703
2009-01-08,11.79001235961914
2009-01-09,11.238136291503906
2009-01-12,10.861862182617188
2009-01-13,10.962202072143555
2009-01-14,10.36642837524414
2009-01-15,10.529483795166016
2009-01-16,10.667449951171875
2009-01-20,9.877269744873047
2009-01-21,10.36642837524414
2009-01-22,10.052868843078613
2009-01-23,10.159478187561035
2009-01-26,10.335071563720703
2009-01-27,8.848780632019043
2009-01-28,9.26268482208252
2009-01-29,9.137256622314453
2009-01-30,8.811152458190918
2009-02-02,8.886404991149902
2009-02-03,8.836236953735352
2009-02-04,8.993017196655273
2009-02-05,8.993017196655273
2009-02-06,9.291936874389648
2009-02-09,9.476375579833984
2009-02-10,8.865817070007324
2009-02-11,8.884899139404297
2009-02-12,8.980300903320312
2009-02-13,9.05025863647461
2009-02-17,8.528740882873535
2009-02-18,8.45241928100586
2009-02-19,8.058099746704102
2009-02-20,7.71466064453125
2009-02-23,7.123183727264404
2009-02-24,7.333060264587402
2009-02-25,6.945102214813232
2009-02-26,6.824263572692871
2009-02-27,6.6398234367370605
2009-03-02,6.39178466796875
2009-03-03,6.309103488922119
2009-03-04,6.455384254455566
2009-03-05,5.755783557891846
2009-03-06,5.902065277099609
2009-03-09,5.7685065269470215
2009-03-10,6.16918420791626
2009-03-11,6.538064002990723
2009-03-12,6.862423896789551
2009-03-13,7.078662872314453
2009-03-16,7.30762243270874
2009-03-17,7.670140266418457
2009-03-18,8.751338005065918
2009-03-19,8.77678108215332
2009-03-20,8.458780288696289
2009-03-23,9.317377090454102
2009-03-24,8.929417610168457
2009-03-25,9.215619087219238
2009-03-26,9.546337127685547
2009-03-27,9.024819374084473
2009-03-30,8.751338005065918
2009-03-31,9.075698852539062
2009-04-01,9.075698852539062
2009-04-02,9.387337684631348
2009-04-03,9.69897747039795
2009-04-06,9.648096084594727
2009-04-07,9.43185806274414
2009-04-08,9.83889389038086
2009-04-09,10.443098068237305
2009-04-13,10.519412994384766
2009-04-14,10.061494827270508
2009-04-15,10.048773765563965
2009-04-16,10.163256645202637
2009-04-17,10.15689754486084
2009-04-20,9.400056838989258
2009-04-21,8.993016242980957
2009-04-22,8.675018310546875
2009-04-23,8.624141693115234
2009-04-24,9.164735794067383
2009-04-27,9.139297485351562
2009-04-28,8.242542266845703
2009-04-29,8.166218757629395
2009-04-30,8.013583183288574
2009-05-01,7.943620681762695
2009-05-04,8.204377174377441
2009-05-05,8.210738182067871
2009-05-06,8.369738578796387
2009-05-07,8.195369720458984
2009-05-08,8.330989837646484
2009-05-11,8.111414909362793
2009-05-12,8.175995826721191
2009-05-13,7.788506984710693
2009-05-14,8.124329566955566
2009-05-15,8.175995826721191
2009-05-18,8.479528427124023
2009-05-19,8.382659912109375
2009-05-20,8.395574569702148
2009-05-21,8.11786937713623
2009-05-22,8.124329566955566
2009-05-26,8.576399803161621
2009-05-27,8.311617851257324
2009-05-28,8.376198768615723
2009-05-29,8.62806510925293
2009-06-01,8.950971603393555
2009-06-02,8.970346450805664
2009-06-03,8.653898239135742
2009-06-04,8.75076675415039
2009-06-05,8.828264236450195
2009-06-08,8.640981674194336
2009-06-09,8.841185569763184
2009-06-10,8.434320449829102
2009-06-11,8.376198768615723
2009-06-12,8.324533462524414
2009-06-15,8.053290367126465
2009-06-16,7.77559232711792
2009-06-17,7.853089332580566
2009-06-18,7.878920555114746
2009-06-19,7.6399712562561035
2009-06-22,6.99415922164917
2009-06-23,6.916659832000732
2009-06-24,6.968327045440674
2009-06-25,7.433309555053711
2009-06-26,7.969336986541748
2009-06-29,7.8272576332092285
2009-06-30,7.6787190437316895
2009-07-01,7.743300914764404
2009-07-02,7.426851749420166
2009-07-06,7.594762802124023
2009-07-07,7.265398979187012
2009-07-08,7.291232585906982
2009-07-09,7.310604572296143
2009-07-10,7.3041486740112305
2009-07-13,7.549556732177734
2009-07-14,7.504350185394287
2009-07-15,7.878920555114746
2009-07-16,8.163078308105469
2009-07-17,8.195369720458984
2009-07-20,8.563482284545898
2009-07-21,8.479528427124023
2009-07-22,8.518278121948242
2009-07-23,8.873475074768066
2009-07-24,9.060760498046875
2009-07-27,9.209297180175781
2009-07-28,8.382659912109375
2009-07-29,8.473072052001953
2009-07-30,8.718481063842773
2009-07-31,8.905763626098633
2009-08-03,9.338459968566895
2009-08-04,9.319083213806152
2009-08-05,9.422417640686035
2009-08-06,9.153953552246094
2009-08-07,9.25871753692627
2009-08-10,9.343838691711426
2009-08-11,9.25871753692627
2009-08-12,9.284910202026367
2009-08-13,9.697425842285156
2009-08-14,9.821837425231934
2009-08-17,9.481345176696777
2009-08-18,9.684331893920898
2009-08-19,9.671236038208008
2009-08-20,9.690878868103027
2009-08-21,9.913507461547852
2009-08-24,9.887316703796387
2009-08-25,9.867671012878418
2009-08-26,9.821837425231934
2009-08-27,11.164154052734375
2009-08-28,10.993912696838379
2009-08-31,10.961169242858887
2009-09-01,10.594487190246582
2009-09-02,10.483174324035645
2009-09-03,10.646868705749512
2009-09-04,10.836755752563477
2009-09-08,10.967720031738281
2009-09-09,10.967720031738281
2009-09-10,10.967720031738281
2009-09-11,10.954623222351074
2009-09-14,10.967720031738281
2009-09-15,11.124869346618652
2009-09-16,11.733818054199219
2009-09-17,11.58321762084961
2009-09-18,11.733818054199219
2009-09-21,11.70108413696289
2009-09-22,11.805849075317383
2009-09-23,11.648697853088379
2009-09-24,11.268917083740234
2009-09-25,11.177247047424316
2009-09-28,11.54393196105957
2009-09-29,11.62905216217041
2009-09-30,11.41952133178711
2009-10-01,11.111770629882812
2009-10-02,10.797472953796387
2009-10-05,11.039742469787598
2009-10-06,11.144511222839355
2009-10-07,11.085578918457031
2009-10-08,10.987360954284668
2009-10-09,10.718894958496094
2009-10-12,10.895686149597168
2009-10-13,10.915334701538086
2009-10-14,11.065935134887695
2009-10-15,11.327853202819824
2009-10-16,11.196893692016602
2009-10-19,11.31475830078125
2009-10-20,11.098673820495605
2009-10-21,10.830209732055664
2009-10-22,11.07248306274414
2009-10-23,10.555198669433594
2009-10-26,10.371857643127441
2009-10-27,10.188517570495605
2009-10-28,9.926602363586426
2009-10-29,10.358763694763184
2009-10-30,9.998628616333008
2009-11-02,10.024822235107422
2009-11-03,10.116488456726074
2009-11-04,9.887316703796387
2009-11-05,10.365309715270996
2009-11-06,10.471416473388672
2009-11-09,11.114690780639648
2009-11-10,11.134589195251465
2009-11-11,11.147850036621094
2009-11-12,10.889214515686035
2009-11-13,10.955530166625977
2009-11-16,11.360061645507812
2009-11-17,11.459540367126465
2009-11-18,11.340167045593262
2009-11-19,11.220795631408691
2009-11-20,11.300374031066895
2009-11-23,11.605438232421875
2009-11-24,11.459540367126465
2009-11-25,11.532487869262695
2009-11-27,11.227428436279297
2009-11-30,11.12132453918457
2009-12-01,11.200902938842773
2009-12-02,11.459540367126465
2009-12-03,11.12795352935791
2009-12-04,11.253955841064453
2009-12-07,11.253955841064453
2009-12-08,11.088162422180176
2009-12-09,11.592169761657715
2009-12-10,11.499327659606934
2009-12-11,11.751328468322754
2009-12-14,11.897229194641113
2009-12-15,11.69164752960205
2009-12-16,11.811015129089355
2009-12-17,11.592169761657715
2009-12-18,11.605438232421875
2009-12-21,11.638591766357422
2009-12-22,11.62532901763916
2009-12-23,11.645221710205078
2009-12-24,11.638591766357422
2009-12-28,11.698277473449707
2009-12-29,11.738068580627441
2009-12-30,11.883962631225586
2009-12-31,11.618703842163086
2010-01-04,12.029861450195312
2010-01-05,11.685015678405762
2010-01-06,11.512592315673828
2010-01-07,11.665120124816895
2010-01-08,11.757959365844727
2010-01-11,11.857437133789062
2010-01-12,11.512592315673828
2010-01-13,11.658489227294922
2010-01-14,11.658489227294922
2010-01-15,11.724808692932129
2010-01-19,12.023229598999023
2010-01-20,11.870701789855957
2010-01-21,11.43301010131836
2010-01-22,11.008580207824707
2010-01-25,11.108061790466309
2010-01-26,11.23405933380127
2010-01-27,11.320269584655762
2010-01-28,11.061636924743652
2010-01-29,10.942264556884766
2010-02-01,11.187640190124512
2010-02-02,11.134589195251465
2010-02-03,11.068267822265625
2010-02-04,10.564261436462402
2010-02-05,10.570895195007324
2010-02-08,10.342549324035645
2010-02-09,10.490301132202148
2010-02-10,10.537314414978027
2010-02-11,10.718646049499512
2010-02-12,11.014147758483887
2010-02-16,11.22233772277832
2010-02-17,11.316362380981445
2010-02-18,11.450678825378418
2010-02-19,11.564852714538574
2010-02-22,11.591715812683105
2010-02-23,11.551421165466309
2010-02-24,11.840208053588867
2010-02-25,11.773049354553223
2010-02-26,11.759613990783691
2010-03-01,12.048401832580566
2010-03-02,12.102126121520996
2010-03-03,12.229731559753418
2010-03-04,12.303606986999512
2010-03-05,12.484935760498047
2010-03-08,12.511800765991211
2010-03-09,12.531949043273926
2010-03-10,12.632691383361816
2010-03-11,12.55210018157959
2010-03-12,12.60582160949707
2010-03-15,12.558812141418457
2010-03-16,12.693130493164062
2010-03-17,12.820734977722168
2010-03-18,12.760285377502441
2010-03-19,12.578960418701172
2010-03-22,12.726707458496094
2010-03-23,12.847600936889648
2010-03-24,12.908040046691895
2010-03-25,12.787158966064453
2010-03-26,12.948334693908691
2010-03-29,12.96848201751709
2010-03-30,13.250557899475098
2010-03-31,13.176681518554688
2010-04-01,13.23040771484375
2010-04-05,13.431884765625
2010-04-06,13.700523376464844
2010-04-07,13.801264762878418
2010-04-08,13.841560363769531
2010-04-09,13.962444305419922
2010-04-12,13.828126907348633
2010-04-13,14.02960205078125
2010-04-14,14.049750328063965
2010-04-15,14.069900512695312
2010-04-16,14.069900512695312
2010-04-19,14.143778800964355
2010-04-20,14.513151168823242
2010-04-21,14.506437301635742
2010-04-22,14.600457191467285
2010-04-23,14.996698379516602
2010-04-26,14.869097709655762
2010-04-27,13.586357116699219
2010-04-28,14.53329849243164
2010-04-29,14.479570388793945
2010-04-30,14.103477478027344
2010-05-03,14.278097152709961
2010-05-04,13.901998519897461
2010-05-05,13.633359909057617
2010-05-06,13.111088752746582
2010-05-07,12.778736114501953
2010-05-10,13.402752876281738
2010-05-11,13.37562370300293
2010-05-12,13.830065727233887
2010-05-13,13.69441032409668
2010-05-14,13.260311126708984
2010-05-17,13.172133445739746
2010-05-18,13.029695510864258
2010-05-19,13.056829452514648
2010-05-20,12.270026206970215
2010-05-21,12.53455638885498
2010-05-24,12.283590316772461
2010-05-25,12.378549575805664
2010-05-26,12.4192476272583
2010-05-27,13.192482948303223
2010-05-28,13.002567291259766
2010-06-01,12.520990371704102
2010-06-02,12.778736114501953
2010-06-03,12.805865287780762
2010-06-04,12.195414543151855
2010-06-07,12.059762001037598
2010-06-08,12.012283325195312
2010-06-09,12.297160148620605
2010-06-10,13.111088752746582
2010-06-11,13.457012176513672
2010-06-14,13.599447250366211
2010-06-15,14.013198852539062
2010-06-16,14.162415504455566
2010-06-17,14.081027030944824
2010-06-18,14.047110557556152
2010-06-21,13.992852210998535
2010-06-22,13.701190948486328
2010-06-23,13.572319030761719
2010-06-24,13.131442070007324
2010-06-25,13.199267387390137
2010-06-28,13.104307174682617
2010-06-29,12.5752534866333
2010-06-30,12.270026206970215
2010-07-01,12.175069808959961
2010-07-02,12.005497932434082
2010-07-06,11.842711448669434
2010-07-07,12.351418495178223
2010-07-08,12.771952629089355
2010-07-09,12.819432258605957
2010-07-12,12.609164237976074
2010-07-13,13.199267387390137
2010-07-14,13.151785850524902
2010-07-15,13.178919792175293
2010-07-16,12.480290412902832
2010-07-19,12.3717679977417
2010-07-20,12.866912841796875
2010-07-21,12.656646728515625
2010-07-22,13.504493713378906
2010-07-23,13.5791015625
2010-07-26,14.013198852539062
2010-07-27,13.782588005065918
2010-07-28,13.58588695526123
2010-07-29,13.85041618347168
2010-07-30,13.769020080566406
2010-08-02,14.148857116699219
2010-08-03,13.830065727233887
2010-08-04,13.9996337890625
2010-08-05,13.925027847290039
2010-08-06,13.801732063293457
2010-08-09,14.171606063842773
2010-08-10,13.767481803894043
2010-08-11,13.055133819580078
2010-08-12,12.952396392822266
2010-08-13,12.883898735046387
2010-08-16,12.904450416564941
2010-08-17,13.020891189575195
2010-08-18,13.116783142089844
2010-08-19,12.568822860717773
2010-08-20,12.520875930786133
2010-08-23,12.356492042541504
2010-08-24,12.075660705566406
2010-08-25,12.16469955444336
2010-08-26,12.075660705566406
2010-08-27,12.644166946411133
2010-08-30,12.068807601928711
2010-08-31,12.267443656921387
2010-09-01,12.918148040771484
2010-09-02,12.781158447265625
2010-09-03,13.137330055236816
2010-09-07,12.781158447265625
2010-09-08,12.952396392822266
2010-09-09,12.835952758789062
2010-09-10,13.226375579833984
2010-09-13,13.527751922607422
2010-09-14,13.308570861816406
2010-09-15,13.349664688110352
2010-09-16,13.342813491821289
2010-09-17,13.486655235290527
2010-09-20,13.952423095703125
2010-09-21,13.972967147827148
2010-09-22,13.7537841796875
2010-09-23,13.383914947509766
2010-09-24,13.49350643157959
2010-09-27,13.664742469787598
2010-09-28,13.911319732666016
2010-09-29,13.856529235839844
2010-09-30,13.80858325958252
2010-10-01,13.904473304748535
2010-10-04,13.514052391052246
2010-10-05,14.096258163452148
2010-10-06,13.979820251464844
2010-10-07,14.123659133911133
2010-10-08,14.411337852478027
2010-10-11,14.274348258972168
2010-10-12,14.370241165161133
2010-10-13,14.479829788208008
2010-10-14,14.4935302734375
2010-10-15,14.445586204528809
2010-10-18,14.630517959594727
2010-10-19,14.171606063842773
2010-10-20,14.260648727416992
2010-10-21,14.30859661102295
2010-10-22,14.212705612182617
2010-10-25,14.603118896484375
2010-10-26,13.733234405517578
2010-10-27,13.781187057495117
2010-10-28,13.925027847290039
2010-10-29,13.692138671875
2010-11-01,13.630494117736816
2010-11-02,13.514052391052246
2010-11-03,13.541451454162598
2010-11-04,13.486655235290527
2010-11-05,13.589397430419922
2010-11-08,13.492528915405273
2010-11-09,13.181160926818848
2010-11-10,13.347224235534668
2010-11-11,13.381823539733887
2010-11-12,13.139649391174316
2010-11-15,13.04277515411377
2010-11-16,12.689894676208496
2010-11-17,12.710653305053711
2010-11-18,12.724492073059082
2010-11-19,12.717569351196289
2010-11-22,12.724492073059082
2010-11-23,12.586109161376953
2010-11-24,12.855958938598633
2010-11-26,12.738332748413086
2010-11-29,12.717569351196289
2010-11-30,12.641461372375488
2010-12-01,13.229593276977539
2010-12-02,13.24343490600586
2010-12-03,13.201920509338379
2010-12-06,13.354141235351562
2010-12-07,13.61707592010498
2010-12-08,13.686271667480469
2010-12-09,13.86616325378418
2010-12-10,14.232889175415039
2010-12-13,14.00455093383789
2010-12-14,14.073741912841797
2010-12-15,14.101422309875488
2010-12-16,14.336673736572266
2010-12-17,14.350513458251953
2010-12-20,14.364348411560059
2010-12-21,14.45429801940918
2010-12-22,14.45429801940918
2010-12-23,14.495818138122559
2010-12-27,14.419707298278809
2010-12-28,14.309001922607422
2010-12-29,14.295162200927734
2010-12-30,14.329753875732422
2010-12-31,14.19828987121582
2011-01-03,14.253644943237305
2011-01-04,13.976871490478516
2011-01-05,14.046065330505371
2011-01-06,14.011468887329102
2011-01-07,13.976871490478516
2011-01-10,13.997633934020996
2011-01-11,13.92151927947998
2011-01-12,14.046065330505371
2011-01-13,14.011468887329102
2011-01-14,14.32283878326416
2011-01-18,14.30207633972168
2011-01-19,14.03914737701416
2011-01-20,13.880008697509766
2011-01-21,13.61707592010498
2011-01-24,13.693191528320312
2011-01-25,13.527125358581543
2011-01-26,13.679344177246094
2011-01-27,13.679344177246094
2011-01-28,13.33338451385498
2011-01-31,13.471771240234375
2011-02-01,13.700105667114258
2011-02-02,13.215757369995117
2011-02-03,13.201920509338379
2011-02-04,12.994342803955078
2011-02-07,13.278035163879395
2011-02-08,13.271038055419922
2011-02-09,13.103228569030762
2011-02-10,13.117216110229492
2011-02-11,13.110225677490234
2011-02-14,13.152173042297363
2011-02-15,13.075262069702148
2011-02-16,13.117216110229492
2011-02-17,13.306000709533691
2011-02-18,13.382913589477539
2011-02-22,13.068268775939941
2011-02-23,12.907444953918457
2011-02-24,12.746627807617188
2011-02-25,12.928425788879395
2011-02-28,13.0123291015625
2011-03-01,13.459827423095703
2011-03-02,13.410881042480469
2011-03-03,13.921305656433105
2011-03-04,13.78845500946045
2011-03-07,13.543730735778809
2011-03-08,13.809432029724121
2011-03-09,13.830412864685059
2011-03-10,13.676583290100098
2011-03-11,13.669589042663574
2011-03-14,13.725529670715332
2011-03-15,13.599671363830566
2011-03-16,13.816428184509277
2011-03-17,13.949273109436035
2011-03-18,14.200989723205566
2011-03-21,14.550593376159668
2011-03-22,14.494665145874023
2011-03-23,14.508639335632324
2011-03-24,14.683446884155273
2011-03-25,14.844265937805176
2011-03-28,14.851261138916016
2011-03-29,15.648359298706055
2011-03-30,15.942028999328613
2011-03-31,16.025928497314453
2011-04-01,16.165781021118164
2011-04-04,16.193744659423828
2011-04-05,17.326461791992188
2011-04-06,17.473304748535156
2011-04-07,17.43134880065918
2011-04-08,17.50826644897461
2011-04-11,17.15166664123535
2011-04-12,16.9139347076416
2011-04-13,16.837020874023438
2011-04-14,17.011821746826172
2011-04-15,17.592164993286133
2011-04-18,17.368419647216797
2011-04-19,17.326461791992188
2011-04-20,18.13755226135254
2011-04-21,18.200483322143555
2011-04-25,18.26341438293457
2011-04-26,18.445201873779297
2011-04-27,18.459190368652344
2011-04-28,18.382278442382812
2011-04-29,17.99770736694336
2011-05-02,18.26341438293457
2011-05-03,17.49427604675293
2011-05-04,17.27752113342285
2011-05-05,17.137676239013672
2011-05-06,17.299827575683594
2011-05-09,17.518367767333984
2011-05-10,17.70165252685547
2011-05-11,17.222278594970703
2011-05-12,16.905040740966797
2011-05-13,16.58075714111328
2011-05-16,16.3128719329834
2011-05-17,16.04498863220215
2011-05-18,16.334026336669922
2011-05-19,16.43976593017578
2011-05-20,16.25647735595703
2011-05-23,15.805299758911133
2011-05-24,15.706602096557617
2011-05-25,16.235326766967773
2011-05-26,16.418617248535156
2011-05-27,16.651260375976562
2011-05-31,16.933237075805664
2011-06-01,16.228282928466797
2011-06-02,16.39041519165039
2011-06-03,15.572656631469727
2011-06-06,15.227226257324219
2011-06-07,15.35412311553955
2011-06-08,15.170832633972168
2011-06-09,15.452813148498535
2011-06-10,15.114428520202637
2011-06-13,15.058037757873535
2011-06-14,15.544463157653809
2011-06-15,15.079185485839844
2011-06-16,14.768998146057129
2011-06-17,14.754900932312012
2011-06-20,15.177877426147461
2011-06-21,15.502161979675293
2011-06-22,15.502161979675293
2011-06-23,15.481014251708984
2011-06-24,15.332971572875977
2011-06-27,15.509210586547852
2011-06-28,15.600861549377441
2011-06-29,15.918094635009766
2011-06-30,15.974491119384766
2011-07-01,16.249425888061523
2011-07-05,16.418617248535156
2011-07-06,16.46091651916504
2011-07-07,16.855693817138672
2011-07-08,16.73585319519043
2011-07-11,16.355175018310547
2011-07-12,16.29877281188965
2011-07-13,16.38336181640625
2011-07-14,15.81234359741211
2011-07-15,15.847596168518066
2011-07-18,15.643157005310059
2011-07-19,16.0308895111084
2011-07-20,16.228282928466797
2011-07-21,16.178922653198242
2011-07-22,15.396419525146484
2011-07-25,15.072135925292969
2011-07-26,15.156730651855469
2011-07-27,14.818350791931152
2011-07-28,14.797199249267578
2011-07-29,14.74079704284668
2011-08-01,14.613912582397461
2011-08-02,14.162734031677246
2011-08-03,14.254374504089355
2011-08-04,13.648109436035156
2011-08-05,13.725656509399414
2011-08-08,12.600249290466309
2011-08-09,13.540459632873535
2011-08-10,12.9207763671875
2011-08-11,13.732776641845703
2011-08-12,13.932218551635742
2011-08-15,14.295477867126465
2011-08-16,14.103161811828613
2011-08-17,13.90372085571289
2011-08-18,13.120211601257324
2011-08-19,12.842423439025879
2011-08-22,12.728459358215332
2011-08-23,13.091723442077637
2011-08-24,13.29827880859375
2011-08-25,13.056108474731445
2011-08-26,13.462109565734863
2011-08-29,14.110282897949219
2011-08-30,14.181509971618652
2011-08-31,14.202881813049316
2011-09-01,13.860986709594727
2011-09-02,13.30540943145752
2011-09-06,13.24842643737793
2011-09-07,13.67579460144043
2011-09-08,13.412248611450195
2011-09-09,13.013371467590332
2011-09-12,13.020495414733887
2011-09-13,13.625932693481445
2011-09-14,13.939339637756348
2011-09-15,14.07467269897461
2011-09-16,14.031935691833496
2011-09-19,13.839617729187012
2011-09-20,13.846746444702148
2011-09-21,13.212813377380371
2011-09-22,12.906529426574707
2011-09-23,12.927899360656738
2011-09-26,13.70428466796875
2011-09-27,13.761268615722656
2011-09-28,13.020495414733887
2011-09-29,13.27691650390625
2011-09-30,12.828179359436035
2011-10-03,11.902216911315918
2011-10-04,12.813937187194824
2011-10-05,13.184317588806152
2011-10-06,13.561830520629883
2011-10-07,13.241300582885742
2011-10-10,13.718534469604492
2011-10-11,13.811124801635742
2011-10-12,14.131650924682617
2011-10-13,14.01768684387207
2011-10-14,14.473549842834473
2011-10-17,13.860986709594727
2011-10-18,14.266986846923828
2011-10-19,13.967830657958984
2011-10-20,13.925091743469238
2011-10-21,14.373828887939453
2011-10-24,14.84393310546875
2011-10-25,14.281230926513672
2011-10-26,14.658742904663086
2011-10-27,15.235686302185059
2011-10-28,13.96070384979248
2011-10-31,13.433618545532227
2011-11-01,13.048985481262207
2011-11-02,13.341023445129395
2011-11-03,13.718534469604492
2011-11-04,14.00344181060791
2011-11-07,14.039056777954102
2011-11-08,14.096625328063965
2011-11-09,13.434602737426758
2011-11-10,13.571329116821289
2011-11-11,13.902338027954102
2011-11-14,13.751225471496582
2011-11-15,14.082232475280762
2011-11-16,13.880748748779297
2011-11-17,13.693657875061035
2011-11-18,13.70085620880127
2011-11-21,13.484975814819336
2011-11-22,13.01005744934082
2011-11-23,12.873333930969238
2011-11-25,12.83735466003418
2011-11-28,13.096407890319824
2011-11-29,12.959683418273926
2011-11-30,13.67206859588623
2011-12-01,13.758419036865234
2011-12-02,13.801593780517578
2011-12-05,13.880748748779297
2011-12-06,13.866360664367676
2011-12-07,13.621698379516602
2011-12-08,13.189949035644531
2011-12-09,13.967100143432617
2011-12-12,14.031861305236816
2011-12-13,13.837575912475586
2011-12-14,13.600110054016113
2011-12-15,13.859164237976074
2011-12-16,13.887944221496582
2011-12-19,13.70085620880127
2011-12-20,14.161382675170898
2011-12-21,14.276517868041992
2011-12-22,14.44922161102295
2011-12-23,14.485198974609375
2011-12-27,14.485198974609375
2011-12-28,14.1038179397583
2011-12-29,14.233346939086914
2011-12-30,14.139799118041992
2012-01-03,14.43482780456543
2012-01-04,14.513983726501465
2012-01-05,14.657896995544434
2012-01-06,14.859381675720215
2012-01-09,14.888167381286621
2012-01-10,14.902556419372559
2012-01-11,14.931339263916016
2012-01-12,15.147210121154785
2012-01-13,15.420655250549316
2012-01-17,15.622138977050781
2012-01-18,15.643725395202637
2012-01-19,15.751667976379395
2012-01-20,15.974737167358398
2012-01-23,15.917165756225586
2012-01-24,15.902777671813965
2012-01-25,15.902777671813965
2012-01-26,15.79483699798584
2012-01-27,16.334524154663086
2012-01-30,15.938756942749023
2012-01-31,15.974737167358398
2012-02-01,16.190608978271484
2012-02-02,16.140239715576172
2012-02-03,16.536008834838867
2012-02-06,16.31293296813965
2012-02-07,16.38490104675293
2012-02-08,16.21066665649414
2012-02-09,16.188884735107422
2012-02-10,15.85494613647461
2012-02-13,15.869466781616211
2012-02-14,15.731532096862793
2012-02-15,15.441152572631836
2012-02-16,15.4048490524292
2012-02-17,15.499227523803711
2012-02-21,15.55004596710205
2012-02-22,15.462925910949707
2012-02-23,15.629899024963379
2012-02-24,15.528260231018066
2012-02-27,15.600859642028809
2012-02-28,15.65893840789795
2012-02-29,15.266916275024414
2012-03-01,15.571822166442871
2012-03-02,15.528260231018066
2012-03-05,15.4048490524292
2012-03-06,15.092690467834473
2012-03-07,15.368555068969727
2012-03-08,15.702498435974121
2012-03-09,15.76782512664795
2012-03-12,15.65893840789795
2012-03-13,15.949318885803223
2012-03-14,15.673460960388184
2012-03-15,15.833173751831055
2012-03-16,15.731532096862793
2012-03-19,15.65893840789795
2012-03-20,15.629899024963379
2012-03-21,15.375813484191895
2012-03-22,15.172544479370117
2012-03-23,15.521000862121582
2012-03-26,15.934800148010254
2012-03-27,15.978355407714844
2012-03-28,15.85494613647461
2012-03-29,15.847686767578125
2012-03-30,15.789616584777832
2012-04-02,16.058212280273438
2012-04-03,15.978355407714844
2012-04-04,15.80412483215332
2012-04-05,15.586338996887207
2012-04-09,15.346772193908691
2012-04-10,15.027344703674316
2012-04-11,15.245142936706543
2012-04-12,15.441152572631836
2012-04-13,15.15076732635498
2012-04-16,15.28143310546875
2012-04-17,15.608118057250977
2012-04-18,15.45566463470459
2012-04-19,15.368555068969727
2012-04-20,15.557304382324219
2012-04-23,15.36129093170166
2012-04-24,15.600859642028809
2012-04-25,15.840423583984375
2012-04-26,15.978355407714844
2012-04-27,15.680719375610352
2012-04-30,15.21609878540039
2012-05-01,14.962013244628906
2012-05-02,15.005577087402344
2012-05-03,14.867647171020508
2012-05-04,14.461104393005371
2012-05-07,14.591774940490723
2012-05-08,14.709097862243652
2012-05-09,14.74576187133789
2012-05-10,14.789755821228027
2012-05-11,14.782418251037598
2012-05-14,14.5551176071167
2012-05-15,14.42313003540039
2012-05-16,14.239814758300781
2012-05-17,13.8585205078125
2012-05-18,13.572550773620605
2012-05-21,13.968511581420898
2012-05-22,13.821857452392578
2012-05-23,14.005168914794922
2012-05-24,14.159158706665039
2012-05-25,14.151822090148926
2012-05-29,14.37180233001709
2012-05-30,14.005168914794922
2012-05-31,14.056498527526855
2012-06-01,13.931844711303711
2012-06-04,14.01983642578125
2012-06-05,14.07116413116455
2012-06-06,14.511119842529297
2012-06-07,14.804418563842773
2012-06-08,14.965736389160156
2012-06-11,14.716429710388184
2012-06-12,14.811751365661621
2012-06-13,14.591774940490723
2012-06-14,14.679769515991211
2012-06-15,14.716429710388184
2012-06-18,14.863083839416504
2012-06-19,15.163716316223145
2012-06-20,15.171048164367676
2012-06-21,14.716429710388184
2012-06-22,14.789755821228027
2012-06-25,14.54778003692627
2012-06-26,14.709097862243652
2012-06-27,14.9804048538208
2012-06-28,15.017069816589355
2012-06-29,15.317705154418945
2012-07-02,15.405689239501953
2012-07-03,15.207714080810547
2012-07-05,15.251703262329102
2012-07-06,15.178373336791992
2012-07-09,15.105058670043945
2012-07-10,15.105058670043945
2012-07-11,15.075725555419922
2012-07-12,14.97307014465332
2012-07-13,15.237045288085938
2012-07-16,15.317705154418945
2012-07-17,15.38369369506836
2012-07-18,15.728323936462402
2012-07-19,15.87497329711914
2012-07-20,15.867639541625977
2012-07-23,15.398360252380371
2012-07-24,14.342472076416016
2012-07-25,14.42313003540039
2012-07-26,14.49645709991455
2012-07-27,14.767754554748535
2012-07-30,14.811751365661621
2012-07-31,14.84107780456543
2012-08-01,14.65043830871582
2012-08-02,14.679769515991211
2012-08-03,15.134385108947754
2012-08-06,15.28836441040039
2012-08-07,15.405689239501953
2012-08-08,15.361270904541016
2012-08-09,15.442708015441895
2012-08-10,15.450106620788574
2012-08-13,15.28724193572998
2012-08-14,15.309452056884766
2012-08-15,15.413091659545898
2012-08-16,15.598166465759277
2012-08-17,15.798049926757812
2012-08-20,15.812856674194336
2012-08-21,15.812856674194336
2012-08-22,15.864681243896484
2012-08-23,15.842469215393066
2012-08-24,15.827656745910645
2012-08-27,15.768436431884766
2012-08-28,15.827656745910645
2012-08-29,15.849871635437012
2012-08-30,15.783243179321289
2012-08-31,15.864681243896484
2012-09-04,15.761035919189453
2012-09-05,15.983125686645508
2012-09-06,16.412500381469727
2012-09-07,16.597579956054688
2012-09-10,16.71602439880371
2012-09-11,16.75303840637207
2012-09-12,16.87889289855957
2012-09-13,17.078771591186523
2012-09-14,17.167606353759766
2012-09-17,16.90850257873535
2012-09-18,16.8566837310791
2012-09-19,16.841880798339844
2012-09-20,16.590177536010742
2012-09-21,16.44951629638672
2012-09-24,16.22742462158203
2012-09-25,16.079368591308594
2012-09-26,16.049755096435547
2012-09-27,16.160799026489258
2012-09-28,16.086769104003906
2012-10-01,15.92389965057373
2012-10-02,15.953510284423828
2012-10-03,15.886885643005371
2012-10-04,16.09416961669922
2012-10-05,16.220022201538086
2012-10-08,16.09416961669922
2012-10-09,15.886885643005371
2012-10-10,15.761035919189453
2012-10-11,15.90909481048584
2012-10-12,15.775836944580078
2012-10-15,16.034948348999023
2012-10-16,16.338470458984375
2012-10-17,16.464323043823242
2012-10-18,16.508743286132812
2012-10-19,15.997933387756348
2012-10-22,16.034948348999023
2012-10-23,15.849871635437012
2012-10-24,15.916500091552734
2012-10-25,16.101577758789062
2012-10-26,15.46491813659668
2012-10-31,15.35387134552002
2012-11-01,15.753630638122559
2012-11-02,15.50192928314209
2012-11-05,15.672201156616211
2012-11-06,15.916500091552734
2012-11-07,15.83430290222168
2012-11-08,15.60264778137207
2012-11-09,15.490564346313477
2012-11-12,15.371005058288574
2012-11-13,15.311223030090332
2012-11-14,15.034741401672363
2012-11-15,14.870342254638672
2012-11-16,14.832984924316406
2012-11-19,15.184191703796387
2012-11-20,15.281332015991211
2012-11-21,15.385952949523926
2012-11-23,15.587708473205566
2012-11-26,15.677379608154297
2012-11-27,15.542868614196777
2012-11-28,15.55034351348877
2012-11-29,15.498039245605469
2012-11-30,15.490564346313477
2012-12-03,15.400894165039062
2012-12-04,15.647489547729492
2012-12-05,15.85671615600586
2012-12-06,15.894083023071289
2012-12-07,15.864190101623535
2012-12-10,16.192981719970703
2012-12-11,16.29759979248047
2012-12-12,16.08836555480957
2012-12-13,15.968805313110352
2012-12-14,16.021116256713867
2012-12-17,16.095840454101562
2012-12-18,15.752102851867676
2012-12-19,15.796937942504883
2012-12-20,15.886609077453613
2012-12-21,15.781991958618164
2012-12-24,15.886609077453613
2012-12-26,15.886609077453613
2012-12-27,15.99122428894043
2012-12-28,15.87166690826416
2012-12-31,16.133201599121094
2013-01-02,16.43210792541504
2013-01-03,16.753427505493164
2013-01-04,16.910343170166016
2013-01-07,16.865507125854492
2013-01-08,16.603971481323242
2013-01-09,16.745952606201172
2013-01-10,16.656282424926758
2013-01-11,16.783313751220703
2013-01-14,16.858034133911133
2013-01-15,16.895401000976562
2013-01-16,16.925289154052734
2013-01-17,17.119577407836914
2013-01-18,17.03738021850586
2013-01-22,17.06726837158203
2013-01-23,17.134523391723633
2013-01-24,17.373640060424805
2013-01-25,17.373640060424805
2013-01-28,17.881776809692383
2013-01-29,16.850563049316406
2013-01-30,16.835617065429688
2013-01-31,17.381122589111328
2013-02-01,17.702436447143555
2013-02-04,17.49319839477539
2013-02-05,17.694965362548828
2013-02-06,17.66507339477539
2013-02-07,17.64246368408203
2013-02-08,17.582170486450195
2013-02-11,17.499277114868164
2013-02-12,17.47666358947754
2013-02-13,17.64246368408203
2013-02-14,17.544490814208984
2013-02-15,17.521879196166992
2013-02-19,17.6726131439209
2013-02-20,17.077241897583008
2013-02-21,16.83608055114746
2013-02-22,17.107385635375977
2013-02-25,16.64767074584961
2013-02-26,16.858688354492188
2013-02-27,17.273183822631836
2013-02-28,17.454051971435547
2013-03-01,17.325939178466797
2013-03-04,17.506807327270508
2013-03-05,17.521879196166992
2013-03-06,17.8157958984375
2013-03-07,17.898696899414062
2013-03-08,18.079570770263672
2013-03-11,18.283044815063477
2013-03-12,18.320730209350586
2013-03-13,18.381023406982422
2013-03-14,18.644786834716797
2013-03-15,18.90856170654297
2013-03-18,18.697546005249023
2013-03-19,18.765369415283203
2013-03-20,18.89348602294922
2013-03-21,18.772907257080078
2013-03-22,18.78797721862793
2013-03-25,18.878414154052734
2013-03-26,19.014066696166992
2013-03-27,18.96884536743164
2013-03-28,19.00653076171875
2013-04-01,18.85580062866211
2013-04-02,18.848268508911133
2013-04-03,18.501604080200195
2013-04-04,18.75029754638672
2013-04-05,18.637252807617188
2013-04-08,18.72014808654785
2013-04-09,18.86334228515625
2013-04-10,19.270299911499023
2013-04-11,19.36073875427246
2013-04-12,19.119579315185547
2013-04-15,18.23783302307129
2013-04-16,18.818124771118164
2013-04-17,18.46392250061035
2013-04-18,18.23783302307129
2013-04-19,18.705080032348633
2013-04-22,18.885950088500977
2013-04-23,19.1346435546875
2013-04-24,19.36073875427246
2013-04-25,19.58682632446289
2013-04-26,18.418701171875
2013-04-29,18.52420997619629
2013-04-30,18.215219497680664
2013-05-01,17.5294189453125
2013-05-02,17.71782684326172
2013-05-03,17.97406005859375
2013-05-06,18.11724853515625
2013-05-07,18.1021785736084
2013-05-08,18.3985595703125
2013-05-09,18.26177215576172
2013-05-10,18.36056137084961
2013-05-13,18.35296630859375
2013-05-14,18.626548767089844
2013-05-15,18.770944595336914
2013-05-16,18.778539657592773
2013-05-17,19.021724700927734
2013-05-20,18.97612762451172
2013-05-21,18.9609317779541
2013-05-22,18.702543258666992
2013-05-23,18.740541458129883
2013-05-24,18.930530548095703
2013-05-28,19.264915466308594
2013-05-29,19.036924362182617
2013-05-30,19.128114700317383
2013-05-31,18.94572639465332
2013-06-03,19.029325485229492
2013-06-04,18.725339889526367
2013-06-05,18.269367218017578
2013-06-06,18.687345504760742
2013-06-07,18.778539657592773
2013-06-10,18.725339889526367
2013-06-11,18.444156646728516
2013-06-12,18.375764846801758
2013-06-13,18.748138427734375
2013-06-14,18.31496238708496
2013-06-17,18.246564865112305
2013-06-18,18.406156539916992
2013-06-19,18.140172958374023
2013-06-20,17.714595794677734
2013-06-21,17.66139793395996
2013-06-24,17.547409057617188
2013-06-25,18.033777236938477
2013-06-26,17.988183975219727
2013-06-27,18.246564865112305
2013-06-28,18.178173065185547
2013-07-01,18.444156646728516
2013-07-02,18.231372833251953
2013-07-03,18.23897361755371
2013-07-05,18.39096450805664
2013-07-08,18.565744400024414
2013-07-09,18.520153045654297
2013-07-10,18.512556076049805
2013-07-11,18.504955291748047
2013-07-12,18.3985595703125
2013-07-15,18.436555862426758
2013-07-16,18.223770141601562
2013-07-17,18.413761138916016
2013-07-18,18.664539337158203
2013-07-19,18.64934730529785
2013-07-22,18.634145736694336
2013-07-23,18.489755630493164
2013-07-24,18.200969696044922
2013-07-25,18.322561264038086
2013-07-26,17.881790161132812
2013-07-29,18.185771942138672
2013-07-30,18.3073673248291
2013-07-31,18.542951583862305
2013-08-01,18.983726501464844
2013-08-02,19.029325485229492
2013-08-05,18.81653594970703
2013-08-06,18.611347198486328
2013-08-07,18.350833892822266
2013-08-08,18.46576499938965
2013-08-09,18.389148712158203
2013-08-12,18.458106994628906
2013-08-13,18.54239273071289
2013-08-14,18.350833892822266
2013-08-15,17.952404022216797
2013-08-16,17.83747100830078
2013-08-19,17.73020362854004
2013-08-20,17.753189086914062
2013-08-21,17.408395767211914
2013-08-22,17.46969223022461
2013-08-23,17.500337600708008
2013-08-26,17.446704864501953
2013-08-27,17.316444396972656
2013-08-28,17.492673873901367
2013-08-29,17.67656707763672
2013-08-30,17.69955062866211
2013-09-03,17.615270614624023
2013-09-04,17.707216262817383
2013-09-05,17.668903350830078
2013-09-06,17.39306640625
2013-09-09,17.553972244262695
2013-09-10,17.69955062866211
2013-09-11,17.69955062866211
2013-09-12,17.85279655456543
2013-09-13,17.59228515625
2013-09-16,17.599945068359375
2013-09-17,17.653579711914062
2013-09-18,17.668903350830078
2013-09-19,17.78383445739746
2013-09-20,17.9217529296875
2013-09-23,17.72254180908203
2013-09-24,17.77617645263672
2013-09-25,17.990711212158203
2013-09-26,17.845134735107422
2013-09-27,17.622934341430664
2013-09-30,17.67656707763672
2013-10-01,17.791501998901367
2013-10-02,17.638254165649414
2013-10-03,17.45436668395996
2013-10-04,17.684228897094727
2013-10-07,17.117231369018555
2013-10-08,16.918012619018555
2013-10-09,17.025283813476562
2013-10-10,17.26280975341797
2013-10-11,17.347095489501953
2013-10-14,17.492673873901367
2013-10-15,17.500337600708008
2013-10-16,17.45436668395996
2013-10-17,17.477354049682617
2013-10-18,17.477354049682617
2013-10-21,17.39306640625
2013-10-22,17.39306640625
2013-10-23,17.224498748779297
2013-10-24,16.963987350463867
2013-10-25,16.895023345947266
2013-10-28,17.04060935974121
2013-10-29,17.806819915771484
2013-10-30,17.37773895263672
2013-10-31,17.247486114501953
2013-11-01,17.285799026489258
2013-11-04,17.66124153137207
2013-11-05,17.845134735107422
2013-11-06,18.006040573120117
2013-11-07,17.921030044555664
2013-11-08,18.253334045410156
2013-11-11,18.36152458190918
2013-11-12,18.56244468688965
2013-11-13,18.724735260009766
2013-11-14,18.887025833129883
2013-11-15,18.97974967956543
2013-11-18,19.057031631469727
2013-11-19,19.111129760742188
2013-11-20,18.840654373168945
2013-11-21,19.149770736694336
2013-11-22,19.265687942504883
2013-11-25,19.38933563232422
2013-11-26,19.180679321289062
2013-11-27,19.126588821411133
2013-11-29,19.18840980529785
2013-12-02,20.67989158630371
2013-12-03,20.502159118652344
2013-12-04,20.363056182861328
2013-12-05,20.84218406677246
2013-12-06,21.058565139770508
2013-12-09,20.989013671875
2013-12-10,21.274944305419922
2013-12-11,21.1667537689209
2013-12-12,20.958101272583008
2013-12-13,21.11265754699707
2013-12-16,21.55314826965332
2013-12-17,22.1481990814209
2013-12-18,22.372312545776367
2013-12-19,22.434131622314453
2013-12-20,21.839086532592773
2013-12-23,21.947277069091797
2013-12-24,22.13274574279785
2013-12-26,22.271848678588867
2013-12-27,22.434131622314453
2013-12-30,22.403221130371094
2013-12-31,22.295032501220703
2014-01-02,22.024559020996094
2014-01-03,22.101829528808594
2014-01-06,22.009098052978516
2014-01-07,21.576337814331055
2014-01-08,21.684528350830078
2014-01-09,21.84681510925293
2014-01-10,21.970458984375
2014-01-13,21.815893173217773
2014-01-14,22.12501335144043
2014-01-15,22.163660049438477
2014-01-16,22.117290496826172
2014-01-17,22.155927658081055
2014-01-21,21.885452270507812
2014-01-22,21.89317512512207
2014-01-23,21.60724449157715
2014-01-24,20.733991622924805
2014-01-27,20.788089752197266
2014-01-28,19.9071044921875
2014-01-29,19.9071044921875
2014-01-30,19.899377822875977
2014-01-31,19.868467330932617
2014-02-03,19.342967987060547
2014-02-04,19.412519454956055
2014-02-05,19.543893814086914
2014-02-06,19.715267181396484
2014-02-07,19.91779327392578
2014-02-10,19.855470657348633
2014-02-11,20.20600128173828
2014-02-12,20.322843551635742
2014-02-13,19.9022159576416
2014-02-14,20.167057037353516
2014-02-18,20.221582412719727
2014-02-19,20.073577880859375
2014-02-20,20.688949584960938
2014-02-21,20.237163543701172
2014-02-24,20.25274085998535
2014-02-25,20.25274085998535
2014-02-26,20.182632446289062
2014-02-27,20.37737274169922
2014-02-28,20.40074348449707
2014-03-03,20.424110412597656
2014-03-04,20.930431365966797
2014-03-05,20.883689880371094
2014-03-06,21.288747787475586
2014-03-07,21.65485382080078
2014-03-10,21.59253692626953
2014-03-11,21.390010833740234
2014-03-12,21.03169059753418
2014-03-13,21.29653549194336
2014-03-14,21.117372512817383
2014-03-17,21.140743255615234
2014-03-18,21.428956985473633
2014-03-19,21.21084976196289
2014-03-20,21.24979591369629
2014-03-21,21.24200439453125
2014-03-24,21.17190170288086
2014-03-25,21.436748504638672
2014-03-26,21.125164031982422
2014-03-27,20.922636032104492
2014-03-28,20.875896453857422
2014-03-31,21.506858825683594
2014-04-01,21.709375381469727
2014-04-02,22.05990219116211
2014-04-03,22.355913162231445
2014-04-04,22.301380157470703
2014-04-07,21.59253692626953
2014-04-08,21.732749938964844
2014-04-09,21.880752563476562
2014-04-10,21.444534301757812
2014-04-11,21.16411590576172
2014-04-14,21.288747787475586
2014-04-15,21.79506492614746
2014-04-16,22.19232940673828
2014-04-17,22.23906898498535
2014-04-21,22.09885597229004
2014-04-22,22.355913162231445
2014-04-23,22.324750900268555
2014-04-24,22.402650833129883
2014-04-25,21.615903854370117
2014-04-28,21.483482360839844
2014-04-29,21.60033416748047
2014-04-30,21.88853645324707
2014-05-01,21.491270065307617
2014-05-02,21.631481170654297
2014-05-05,21.71717071533203
2014-05-06,21.428956985473633
2014-05-07,21.970369338989258
2014-05-08,21.789894104003906
2014-05-09,21.970369338989258
2014-05-12,22.197914123535156
2014-05-13,22.04098892211914
2014-05-14,21.58588981628418
2014-05-15,21.436805725097656
2014-05-16,21.303415298461914
2014-05-19,21.334796905517578
2014-05-20,21.0366268157959
2014-05-21,20.840463638305664
2014-05-22,20.856157302856445
2014-05-23,20.89539337158203
2014-05-27,21.20140838623047
2014-05-28,21.08371353149414
2014-05-29,21.21710205078125
2014-05-30,21.381874084472656
2014-06-02,21.20925521850586
2014-06-03,21.366182327270508
2014-06-04,21.39756965637207
2014-06-05,21.428958892822266
2014-06-06,21.766361236572266
2014-06-09,21.91543960571289
2014-06-10,21.970369338989258
2014-06-11,21.84482192993164
2014-06-12,21.672199249267578
2014-06-13,21.852672576904297
2014-06-16,21.860519409179688
2014-06-17,21.907594680786133
2014-06-18,21.946826934814453
2014-06-19,21.931140899658203
2014-06-20,21.75066566467285
2014-06-23,21.546655654907227
2014-06-24,20.801231384277344
2014-06-25,21.15432357788086
2014-06-26,21.044479370117188
2014-06-27,21.0366268157959
2014-06-30,21.122941970825195
2014-07-01,21.452495574951172
2014-07-02,21.052324295043945
2014-07-03,21.170019149780273
2014-07-07,20.77769660949707
2014-07-08,20.73061180114746
2014-07-09,20.60506820678711
2014-07-10,20.37751579284668
2014-07-11,20.503063201904297
2014-07-14,20.60506820678711
2014-07-15,20.557987213134766
2014-07-16,20.322587966918945
2014-07-17,20.09503936767578
2014-07-18,20.769847869873047
2014-07-21,20.714921951293945
2014-07-22,21.020936965942383
2014-07-23,20.83262062072754
2014-07-24,20.997394561767578
2014-07-25,20.518753051757812
2014-07-28,20.636451721191406
2014-07-29,21.060171127319336
2014-07-30,21.319107055664062
2014-07-31,20.848308563232422
2014-08-01,20.77769660949707
2014-08-04,20.93462371826172
2014-08-05,20.785539627075195
2014-08-06,20.83262062072754
2014-08-07,20.54009437561035
2014-08-08,20.769372940063477
2014-08-11,20.737747192382812
2014-08-12,20.28709602355957
2014-08-13,20.65867805480957
2014-08-14,21.12514305114746
2014-08-15,21.227924346923828
2014-08-18,21.362327575683594
2014-08-19,21.488821029663086
2014-08-20,21.62322998046875
2014-08-21,21.702289581298828
2014-08-22,21.86832046508789
2014-08-25,21.805072784423828
2014-08-26,21.726009368896484
2014-08-27,21.362327575683594
2014-08-28,21.496732711791992
2014-08-29,21.57579803466797
2014-09-02,21.749727249145508
2014-09-03,21.93947410583496
2014-09-04,21.884136199951172
2014-09-05,21.78135108947754
2014-09-08,21.512540817260742
2014-09-09,21.188390731811523
2014-09-10,21.251638412475586
2014-09-11,21.512540817260742
2014-09-12,21.275360107421875
2014-09-15,21.093517303466797
2014-09-16,20.919588088989258
2014-09-17,20.903778076171875
2014-09-18,20.800992965698242
2014-09-19,20.62706184387207
2014-09-22,20.666589736938477
2014-09-23,20.47684097290039
2014-09-24,20.50847053527832
2014-09-25,20.295000076293945
2014-09-26,20.38987159729004
2014-09-29,20.38987159729004
2014-09-30,19.962947845458984
2014-10-01,19.7415714263916
2014-10-02,19.702045440673828
2014-10-03,19.709951400756836
2014-10-06,19.915508270263672
2014-10-07,19.583454132080078
2014-10-08,19.883886337280273
2014-10-09,19.03792953491211
2014-10-10,18.887712478637695
2014-10-13,18.737499237060547
2014-10-14,19.030025482177734
2014-10-15,19.188146591186523
2014-10-16,19.0616455078125
2014-10-17,19.15652084350586
2014-10-20,19.630889892578125
2014-10-21,20.168508529663086
2014-10-22,19.836450576782227
2014-10-23,19.686233520507812
2014-10-24,18.40544319152832
2014-10-27,18.658437728881836
2014-10-28,19.44904899597168
2014-10-29,18.713781356811523
2014-10-30,19.03792953491211
2014-10-31,19.164426803588867
2014-11-03,19.251394271850586
2014-11-04,19.409517288208008
2014-11-05,19.875978469848633
2014-11-06,19.95567512512207
2014-11-07,20.08318519592285
2014-11-10,20.09115219116211
2014-11-11,19.875980377197266
2014-11-12,20.29039764404297
2014-11-13,20.154911041259766
2014-11-14,20.115062713623047
2014-11-17,20.154911041259766
2014-11-18,20.178817749023438
2014-11-19,20.011463165283203
2014-11-20,20.170846939086914
2014-11-21,20.441814422607422
2014-11-24,20.505565643310547
2014-11-25,20.258514404296875
2014-11-26,20.24258041381836
2014-11-28,20.05130386352539
2014-12-01,19.947704315185547
2014-12-02,20.011463165283203
2014-12-03,20.481657028198242
2014-12-04,20.146942138671875
2014-12-05,20.154911041259766
2014-12-08,20.01943016052246
2014-12-09,20.075218200683594
2014-12-10,19.5970458984375
2014-12-11,18.688520431518555
2014-12-12,17.676389694213867
2014-12-15,17.540912628173828
2014-12-16,16.911314010620117
2014-12-17,17.5090274810791
2014-12-18,17.676389694213867
2014-12-19,17.74014663696289
2014-12-22,17.963294982910156
2014-12-23,18.06689453125
2014-12-24,18.146596908569336
2014-12-26,18.401620864868164
2014-12-29,18.54507064819336
2014-12-30,18.513187408447266
2014-12-31,18.146596908569336
2015-01-02,18.329891204833984
2015-01-05,17.891569137573242
2015-01-06,17.652482986450195
2015-01-07,17.724206924438477
2015-01-08,18.06689453125
2015-01-09,17.779991149902344
2015-01-12,18.226289749145508
2015-01-13,18.361770629882812
2015-01-14,18.46537208557129
2015-01-15,18.234254837036133
2015-01-16,18.847911834716797
2015-01-20,18.951513290405273
2015-01-21,19.740495681762695
2015-01-22,20.234601974487305
2015-01-23,20.08318519592285
2015-01-26,20.266483306884766
2015-01-27,20.234601974487305
2015-01-28,19.8201904296875
2015-01-29,20.067243576049805
2015-01-30,19.97957992553711
2015-02-02,20.146942138671875
2015-02-03,20.266483306884766
2015-02-04,19.88394546508789
2015-02-05,20.593233108520508
2015-02-06,21.05103874206543
2015-02-09,21.974681854248047
2015-02-10,21.581134796142578
2015-02-11,21.48474884033203
2015-02-12,21.830116271972656
2015-02-13,21.93453025817871
2015-02-17,21.78995132446289
2015-02-18,21.854206085205078
2015-02-19,22.60115623474121
2015-02-20,22.400362014770508
2015-02-23,22.448558807373047
2015-02-24,22.657373428344727
2015-02-25,23.05093002319336
2015-02-26,22.76178741455078
2015-02-27,22.520841598510742
2015-03-02,22.82604217529297
2015-03-03,22.569026947021484
2015-03-04,24.29584503173828
2015-03-05,24.44844627380371
2015-03-06,24.5126953125
2015-03-09,24.520727157592773
2015-03-10,23.29187774658203
2015-03-11,23.725595474243164
2015-03-12,23.958507537841797
2015-03-13,23.38826560974121
2015-03-16,23.267786026000977
2015-03-17,23.29187774658203
2015-03-18,23.123218536376953
2015-03-19,22.52886962890625
2015-03-20,23.49266815185547
2015-03-23,22.68950080871582
2015-03-24,22.52886962890625
2015-03-25,21.733734130859375
2015-03-26,21.838146209716797
2015-03-27,24.89821434020996
2015-03-30,26.03068733215332
2015-03-31,25.733510971069336
2015-04-01,25.693355560302734
2015-04-02,25.275705337524414
2015-04-06,25.58091163635254
2015-04-07,25.524690628051758
2015-04-08,25.211454391479492
2015-04-09,25.46846580505371
2015-04-10,25.789735794067383
2015-04-13,25.845956802368164
2015-04-14,25.693355560302734
2015-04-15,25.797767639160156
2015-04-16,25.58091163635254
2015-04-17,25.323894500732422
2015-04-20,25.452402114868164
2015-04-21,25.01066017150879
2015-04-22,24.978534698486328
2015-04-23,24.850032806396484
2015-04-24,24.769710540771484
2015-04-27,24.609073638916016
2015-04-28,24.689393997192383
2015-04-29,24.111112594604492
2015-04-30,23.717559814453125
2015-05-01,24.111112594604492
2015-05-04,24.480566024780273
2015-05-05,23.68543243408203
2015-05-06,23.781808853149414
2015-05-07,23.781810760498047
2015-05-08,23.895023345947266
2015-05-11,23.450271606445312
2015-05-12,23.013612747192383
2015-05-13,22.95701026916504
2015-05-14,23.660518646240234
2015-05-15,23.191513061523438
2015-05-18,23.571569442749023
2015-05-19,24.08909034729004
2015-05-20,24.169952392578125
2015-05-21,24.614700317382812
2015-05-22,24.016319274902344
2015-05-26,23.603918075561523
2015-05-27,23.676692962646484
2015-05-28,23.80607032775879
2015-05-29,23.64434814453125
2015-06-01,23.385583877563477
2015-06-02,23.450271606445312
2015-06-03,23.878849029541016
2015-06-04,23.49879264831543
2015-06-05,23.442184448242188
2015-06-08,23.175336837768555
2015-06-09,23.215768814086914
2015-06-10,23.49070930480957
2015-06-11,23.23194694519043
2015-06-12,23.054046630859375
2015-06-15,23.013612747192383
2015-06-16,23.078306198120117
2015-06-17,22.72250747680664
2015-06-18,22.843801498413086
2015-06-19,22.568864822387695
2015-06-22,22.520347595214844
2015-06-23,22.180723190307617
2015-06-24,22.018999099731445
2015-06-25,22.488000869750977
2015-06-26,22.44757080078125
2015-06-29,21.695547103881836
2015-06-30,21.792583465576172
2015-07-01,21.323577880859375
2015-07-02,20.741363525390625
2015-07-06,20.692846298217773
2015-07-07,20.215757369995117
2015-07-08,20.353221893310547
2015-07-09,20.248096466064453
2015-07-10,20.425994873046875
2015-07-13,20.692846298217773
2015-07-14,20.684757232666016
2015-07-15,20.256187438964844
2015-07-16,19.787181854248047
2015-07-17,19.568849563598633
2015-07-20,19.15644645690918
2015-07-21,19.196876525878906
2015-07-22,19.132192611694336
2015-07-23,18.986637115478516
2015-07-24,18.38015365600586
2015-07-27,18.09714126586914
2015-07-28,18.388248443603516
2015-07-29,18.760221481323242
2015-07-30,18.614665985107422
2015-07-31,18.59040641784668
2015-08-03,18.113313674926758
2015-08-04,18.169919967651367
2015-08-05,18.194181442260742
2015-08-06,18.38182830810547
2015-08-07,17.623064041137695
2015-08-10,17.91678237915039
2015-08-11,17.386455535888672
2015-08-12,17.0274658203125
2015-08-13,16.929561614990234
2015-08-14,17.10089683532715
2015-08-17,17.30486488342285
2015-08-18,16.90508460998535
2015-08-19,16.58688735961914
2015-08-20,16.285015106201172
2015-08-21,16.26869773864746
2015-08-24,15.705739974975586
2015-08-25,15.314116477966309
2015-08-26,15.338592529296875
2015-08-27,16.0239315032959
2015-08-28,16.14631462097168
2015-08-31,16.285015106201172
2015-09-01,16.03209114074707
2015-09-02,15.085665702819824
2015-09-03,15.436494827270508
2015-09-04,15.534403800964355
2015-09-08,16.08104133605957
2015-09-09,15.950499534606934
2015-09-10,15.697577476501465
2015-09-11,15.599671363830566
2015-09-14,15.41202163696289
2015-09-15,15.363064765930176
2015-09-16,15.379384994506836
2015-09-17,14.979601860046387
2015-09-18,14.726678848266602
2015-09-21,14.718521118164062
2015-09-22,14.579818725585938
2015-09-23,13.918953895568848
2015-09-24,13.94343090057373
2015-09-25,13.674188613891602
2015-09-28,12.907259941101074
2015-09-29,13.143867492675781
2015-09-30,13.714983940124512
2015-10-01,13.821050643920898
2015-10-02,14.245306968688965
2015-10-05,14.26978588104248
2015-10-06,14.261626243591309
2015-10-07,14.416644096374512
2015-10-08,14.987761497497559
2015-10-09,14.742993354797363
2015-10-12,14.26978588104248
2015-10-13,14.31873893737793
2015-10-14,14.645090103149414
2015-10-15,15.012235641479492
2015-10-16,15.28963851928711
2015-10-19,15.15093994140625
2015-10-20,15.1019868850708
2015-10-21,15.199891090393066
2015-10-22,15.83627986907959
2015-10-23,15.787324905395508
2015-10-26,15.363064765930176
2015-10-27,14.65324592590332
2015-10-28,14.865379333496094
2015-10-29,15.191732406616211
2015-10-30,15.6486234664917
2015-11-02,15.893386840820312
2015-11-03,16.260536193847656
2015-11-04,15.83627986907959
2015-11-05,15.82812213897705
2015-11-06,16.78440284729004
2015-11-09,16.75967025756836
2015-11-10,16.57830810546875
2015-11-11,16.273284912109375
2015-11-12,15.696220397949219
2015-11-13,15.910560607910156
2015-11-16,16.78440284729004
2015-11-17,16.858592987060547
2015-11-18,17.0811767578125
2015-11-19,17.17186164855957
2015-11-20,17.377954483032227
2015-11-23,17.592296600341797
2015-11-24,18.045705795288086
2015-11-25,18.119892120361328
2015-11-27,18.029220581054688
2015-11-30,17.946781158447266
2015-12-01,17.724197387695312
2015-12-02,17.468637466430664
2015-12-03,17.658246994018555
2015-12-04,17.724197387695312
2015-12-07,17.43566131591797
2015-12-08,17.031719207763672
2015-12-09,16.924545288085938
2015-12-10,16.718454360961914
2015-12-11,15.712703704833984
2015-12-14,15.119153022766113
2015-12-15,15.003740310668945
2015-12-16,15.17685604095459
2015-12-17,14.632766723632812
2015-12-18,14.294769287109375
2015-12-21,14.278284072875977
2015-12-22,14.847105979919434
2015-12-23,15.539586067199707
2015-12-24,15.275788307189941
2015-12-28,15.218079566955566
2015-12-29,14.99549674987793
2015-12-30,14.509108543395996
2015-12-31,14.228819847106934
2016-01-04,14.492623329162598
2016-01-05,14.443161010742188
2016-01-06,13.899067878723145
2016-01-07,13.552828788757324
2016-01-08,13.874336242675781
2016-01-11,13.618778228759766
2016-01-12,13.264293670654297
2016-01-13,12.951030731201172
2016-01-14,13.511608123779297
2016-01-15,13.04171085357666
2016-01-19,12.291522979736328
2016-01-20,11.961771011352539
2016-01-21,12.060697555541992
2016-01-22,12.258548736572266
2016-01-25,11.607287406921387
2016-01-26,11.986501693725586
2016-01-27,11.953527450561523
2016-01-28,12.143133163452148
2016-01-29,13.965020179748535
2016-02-01,13.396194458007812
2016-02-02,12.909808158874512
2016-02-03,11.294021606445312
2016-02-04,11.37646198272705
2016-02-05,11.129146575927734
2016-02-08,10.811168670654297
2016-02-09,10.79443645477295
2016-02-10,10.694022178649902
2016-02-11,10.919953346252441
2016-02-12,10.894848823547363
2016-02-16,11.564271926879883
2016-02-17,11.999395370483398
2016-02-18,12.07470417022705
2016-02-19,12.208590507507324
2016-02-22,12.95332145690918
2016-02-23,12.31737232208252
2016-02-24,12.601875305175781
2016-02-25,12.57677173614502
2016-02-26,12.618608474731445
2016-02-29,12.685554504394531
2016-03-01,12.928218841552734
2016-03-02,13.25456428527832
2016-03-03,13.589272499084473
2016-03-04,13.54743480682373
2016-03-07,13.98255729675293
2016-03-08,12.91148567199707
2016-03-09,12.719024658203125
2016-03-10,12.71065902709961
2016-03-11,13.447020530700684
2016-03-14,13.405182838439941
2016-03-15,12.978425979614258
2016-03-16,13.29640007019043
2016-03-17,13.882144927978516
2016-03-18,14.492993354797363
2016-03-21,14.551566123962402
2016-03-22,14.250326156616211
2016-03-23,13.65621566772461
2016-03-24,13.65621566772461
2016-03-28,13.848675727844238
2016-03-29,14.208487510681152
2016-03-30,14.601773262023926
2016-03-31,14.534833908081055
2016-04-01,14.668717384338379
2016-04-04,14.350739479064941
2016-04-05,14.116446495056152
2016-04-06,14.350739479064941
2016-04-07,14.16664981842041
2016-04-08,14.292166709899902
2016-04-11,14.241962432861328
2016-04-12,14.995059967041016
2016-04-13,14.953225135803223
2016-04-14,14.794235229492188
2016-04-15,15.78162956237793
2016-04-18,15.790000915527344
2016-04-19,16.38411521911621
2016-04-20,16.576570510864258
2016-04-21,17.388246536254883
2016-04-22,17.99909210205078
2016-04-25,17.672752380371094
2016-04-26,18.25849723815918
2016-04-27,18.609941482543945
2016-04-28,18.275230407714844
2016-04-29,18.233394622802734
2016-05-02,18.275230407714844
2016-05-03,18.55136489868164
2016-05-04,18.609941482543945
2016-05-05,18.216655731201172
2016-05-06,18.56292152404785
2016-05-09,18.1322021484375
2016-05-10,18.436233520507812
2016-05-11,18.419343948364258
2016-05-12,18.18287467956543
2016-05-13,17.92106819152832
2016-05-16,18.309555053710938
2016-05-17,18.039304733276367
2016-05-18,17.51569366455078
2016-05-19,17.346784591674805
2016-05-20,17.541025161743164
2016-05-23,17.718379974365234
2016-05-24,18.360225677490234
2016-05-25,18.92607307434082
2016-05-26,19.002077102661133
2016-05-27,19.196319580078125
2016-05-31,19.432785034179688
2016-06-01,19.255435943603516
2016-06-02,19.272327423095703
2016-06-03,19.306108474731445
2016-06-06,20.03240966796875
2016-06-07,20.108417510986328
2016-06-08,20.142200469970703
2016-06-09,19.956401824951172
2016-06-10,20.919172286987305
2016-06-13,20.741819381713867
2016-06-14,20.336441040039062
2016-06-15,20.311107635498047
2016-06-16,20.066192626953125
2016-06-17,20.235097885131836
2016-06-20,20.167537689208984
2016-06-21,20.29421615600586
2016-06-22,20.53068733215332
2016-06-23,21.079635620117188
2016-06-24,19.407453536987305
2016-06-27,18.208209991455078
2016-06-28,19.47501564025879
2016-06-29,20.30265998840332
2016-06-30,20.97829246520996
2016-07-01,21.020517349243164
2016-07-05,20.52224349975586
2016-07-06,20.277326583862305
2016-07-07,20.513792037963867
2016-07-08,21.130306243896484
2016-07-11,21.366775512695312
2016-07-12,21.90728187561035
2016-07-13,21.628582000732422
2016-07-14,21.620140075683594
2016-07-15,21.763710021972656
2016-07-18,21.89038848876953
2016-07-19,21.941062927246094
2016-07-20,22.19442367553711
2016-07-21,22.025514602661133
2016-07-22,17.431238174438477
2016-07-25,17.600143432617188
2016-07-26,17.82817268371582
2016-07-27,18.02241325378418
2016-07-28,17.87039566040039
2016-07-29,17.65081787109375
2016-08-01,17.608591079711914
2016-08-02,17.48190689086914
2016-08-03,17.811277389526367
2016-08-04,17.608591079711914
2016-08-05,17.600143432617188
2016-08-08,17.86448860168457
2016-08-09,17.907123565673828
2016-08-10,17.634258270263672
2016-08-11,17.62572479248047
2016-08-12,17.09703826904297
2016-08-15,17.659832000732422
2016-08-16,17.378437042236328
2016-08-17,17.361385345458984
2016-08-18,17.557506561279297
2016-08-19,18.188526153564453
2016-08-22,18.23967933654785
2016-08-23,18.47844696044922
2016-08-24,18.12883186340332
2016-08-25,18.23967933654785
2016-08-26,18.29937171936035
2016-08-29,18.614877700805664
2016-08-30,18.384645462036133
2016-08-31,18.452865600585938
2016-09-01,18.521080017089844
2016-09-02,19.00713348388672
2016-09-06,18.546667098999023
2016-09-07,17.472238540649414
2016-09-08,17.31022071838379
2016-09-09,16.576879501342773
2016-09-12,16.730369567871094
2016-09-13,16.235795974731445
2016-09-14,16.03114128112793
2016-09-15,16.218738555908203
2016-09-16,15.894705772399902
2016-09-19,15.997030258178711
2016-09-20,15.57919692993164
2016-09-21,16.073774337768555
2016-09-22,16.24432373046875
2016-09-23,16.107881546020508
2016-09-26,16.014083862304688
2016-09-27,16.32958984375
2016-09-28,16.858278274536133
2016-09-29,17.071456909179688
2016-09-30,17.497814178466797
2016-10-03,17.634258270263672
2016-10-04,17.182313919067383
2016-10-05,17.60014533996582
2016-10-06,17.966812133789062
2016-10-07,17.28463363647461
2016-10-10,17.659832000732422
2016-10-11,17.122621536254883
2016-10-12,17.344324111938477
2016-10-13,17.190837860107422
2016-10-14,17.173782348632812
2016-10-17,17.634258270263672
2016-10-18,18.00945281982422
2016-10-19,18.504026412963867
2016-10-20,18.674570083618164
2016-10-21,18.623409271240234
2016-10-24,18.495502471923828
2016-10-25,18.410228729248047
2016-10-26,18.72573471069336
2016-10-27,18.964494705200195
2016-10-28,18.72573471069336
2016-10-31,18.700153350830078
2016-11-01,18.70867919921875
2016-11-02,18.580774307250977
2016-11-03,18.23967933654785
2016-11-04,18.162940979003906
2016-11-07,19.16914939880371
2016-11-08,19.315414428710938
2016-11-09,20.115564346313477
2016-11-10,20.88990020751953
2016-11-11,20.99314308166504
2016-11-14,20.932918548583984
2016-11-15,21.51797866821289
2016-11-16,21.37171173095703
2016-11-17,21.466354370117188
2016-11-18,21.638427734375
2016-11-21,21.870729446411133
2016-11-22,22.060009002685547
2016-11-23,22.111631393432617
2016-11-25,22.103031158447266
2016-11-28,21.819107055664062
2016-11-29,21.784690856933594
2016-11-30,22.3697509765625
2016-12-01,22.550424575805664
2016-12-02,22.318126678466797
2016-12-05,22.748308181762695
2016-12-06,23.0838565826416
2016-12-07,22.90317726135254
2016-12-08,22.825742721557617
2016-12-09,22.25790023803711
2016-12-12,21.819107055664062
2016-12-13,22.034198760986328
2016-12-14,21.84491539001465
2016-12-15,22.197675704956055
2016-12-16,21.870729446411133
2016-12-19,22.05140495300293
2016-12-20,22.292312622070312
2016-12-21,22.154651641845703
2016-12-22,22.08582305908203
2016-12-23,22.550424575805664
2016-12-27,22.438575744628906
2016-12-28,22.25790023803711
2016-12-29,22.404159545898438
2016-12-30,22.034198760986328
2017-01-03,22.3525390625
2017-01-04,23.0666446685791
2017-01-05,22.739704132080078
2017-01-06,22.705291748046875
2017-01-09,22.997819900512695
2017-01-10,23.80657196044922
2017-01-11,23.53125
2017-01-12,23.152687072753906
2017-01-13,23.29034423828125
2017-01-17,22.80853271484375
2017-01-18,22.877368927001953
2017-01-19,22.44717788696289
2017-01-20,22.92038345336914
2017-01-23,22.868759155273438
2017-01-24,23.634492874145508
2017-01-25,23.48823356628418
2017-01-26,22.92038345336914
2017-01-27,22.963401794433594
2017-01-30,22.50740623474121
2017-01-31,22.550424575805664
2017-02-01,25.234790802001953
2017-02-02,25.707998275756836
2017-02-03,26.52535629272461
2017-02-06,26.052148818969727
2017-02-07,25.381052017211914
2017-02-08,25.311756134033203
2017-02-09,25.35506820678711
2017-02-10,25.82284164428711
2017-02-13,25.926795959472656
2017-02-14,25.944120407104492
2017-02-15,26.741064071655273
2017-02-16,26.489852905273438
2017-02-17,26.732406616210938
2017-02-21,28.144390106201172
2017-02-22,27.63330078125
2017-02-23,27.182849884033203
2017-02-24,26.680429458618164
2017-02-27,26.767053604125977
2017-02-28,26.922975540161133
2017-03-01,27.919164657592773
2017-03-02,27.434062957763672
2017-03-03,28.014448165893555
2017-03-06,27.71126365661621
2017-03-07,27.659286499023438
2017-03-08,27.615976333618164
2017-03-09,27.338773727416992
2017-03-10,27.460052490234375
2017-03-13,28.049097061157227
2017-03-14,27.83254051208496
2017-03-15,28.69878578186035
2017-03-16,28.646812438964844
2017-03-17,28.646812438964844
2017-03-20,28.68146324157715
2017-03-21,27.780561447143555
2017-03-22,28.170373916625977
2017-03-23,28.560192108154297
2017-03-24,28.38693618774414
2017-03-27,28.39559555053711
2017-03-28,28.88069725036621
2017-03-29,28.040433883666992
2017-03-30,28.101072311401367
2017-03-31,28.47355842590332
2017-04-03,27.96247100830078
2017-04-04,27.58132553100586
2017-04-05,27.13088035583496
2017-04-06,27.60730743408203
2017-04-07,27.54667091369629
2017-04-10,27.078903198242188
2017-04-11,26.758392333984375
2017-04-12,26.663103103637695
2017-04-13,26.247299194335938
2017-04-17,26.33392906188965
2017-04-18,26.463865280151367
2017-04-19,27.33011245727539
2017-04-20,27.91050148010254
2017-04-21,27.91050148010254
2017-04-24,28.707447052001953
2017-04-25,29.05394744873047
2017-04-26,28.846046447753906
2017-04-27,28.22235107421875
2017-04-28,27.83254051208496
2017-05-01,28.014448165893555
2017-05-02,27.659286499023438
2017-05-03,26.619789123535156
2017-05-04,25.450353622436523
2017-05-05,25.74488067626953
2017-05-08,25.91930389404297
2017-05-09,25.736154556274414
2017-05-10,26.80886459350586
2017-05-11,26.843748092651367
2017-05-12,27.349576950073242
2017-05-15,27.785634994506836
2017-05-16,28.134479522705078
2017-05-17,26.704206466674805
2017-05-18,26.826305389404297
2017-05-19,27.21004295349121
2017-05-22,27.114105224609375
2017-05-23,26.90479850769043
2017-05-24,26.625715255737305
2017-05-25,26.425127029418945
2017-05-26,26.294315338134766
2017-05-30,25.91930389404297
2017-05-31,25.587900161743164
2017-06-01,25.98035430908203
2017-06-02,25.570453643798828
2017-06-05,25.282657623291016
2017-06-06,25.396032333374023
2017-06-07,25.265216827392578
2017-06-08,25.945466995239258
2017-06-09,26.7652587890625
2017-06-12,26.48617935180664
2017-06-13,26.686769485473633
2017-06-14,25.67510986328125
2017-06-15,25.413475036621094
2017-06-16,25.70999526977539
2017-06-19,25.962909698486328
2017-06-20,26.30303192138672
2017-06-21,25.003582000732422
2017-06-22,24.628570556640625
2017-06-23,24.646015167236328
2017-06-26,25.308822631835938
2017-06-27,25.561731338500977
2017-06-28,26.372804641723633
2017-06-29,26.050121307373047
2017-06-30,26.407690048217773
2017-07-03,26.407690048217773
2017-07-05,26.067564010620117
2017-07-06,25.84081268310547
2017-07-07,26.250707626342773
2017-07-10,26.17221450805664
2017-07-11,26.215824127197266
2017-07-12,26.948402404785156
2017-07-13,26.90479850769043
2017-07-14,27.340850830078125
2017-07-17,27.314693450927734
2017-07-18,26.65188217163086
2017-07-19,27.192590713500977
2017-07-20,26.922237396240234
2017-07-21,27.253644943237305
2017-07-24,27.02688980102539
2017-07-25,27.53272247314453
2017-07-26,27.131547927856445
2017-07-27,26.582111358642578
2017-07-28,26.38152503967285
2017-07-31,25.70999526977539
2017-08-01,26.329195022583008
2017-08-02,27.122825622558594
2017-08-03,27.035614013671875
2017-08-04,27.28852653503418
2017-08-07,27.131547927856445
2017-08-08,26.48200225830078
2017-08-09,25.999235153198242
2017-08-10,25.121475219726562
2017-08-11,25.613021850585938
2017-08-14,25.99045753479004
2017-08-15,26.771663665771484
2017-08-16,26.83310317993164
2017-08-17,25.999235153198242
2017-08-18,26.350337982177734
2017-08-21,26.67510986328125
2017-08-22,26.859439849853516
2017-08-23,26.41178321838379
2017-08-24,26.271343231201172
2017-08-25,26.324005126953125
2017-08-28,27.078880310058594
2017-08-29,27.131546020507812
2017-08-30,28.14097023010254
2017-08-31,28.290189743041992
2017-09-01,28.114635467529297
2017-09-05,27.526535034179688
2017-09-06,27.271987915039062
2017-09-07,27.096437454223633
2017-09-08,26.868221282958984
2017-09-11,27.026216506958008
2017-09-12,27.60553550720215
2017-09-13,27.60553550720215
2017-09-14,27.289539337158203
2017-09-15,28.342853546142578
2017-09-18,29.369831085205078
2017-09-19,29.58926773071289
2017-09-20,29.72970962524414
2017-09-21,29.791154861450195
2017-09-22,29.650714874267578
2017-09-25,29.59804916381836
2017-09-26,29.650714874267578
2017-09-27,29.747268676757812
2017-09-28,30.309032440185547
2017-09-29,30.06326675415039
2017-10-02,32.05577850341797
2017-10-03,32.0469970703125
2017-10-04,31.950448989868164
2017-10-05,32.196224212646484
2017-10-06,32.1347770690918
2017-10-09,32.01189422607422
2017-10-10,31.64322853088379
2017-10-11,31.35356903076172
2017-10-12,31.16923713684082
2017-10-13,31.195575714111328
2017-10-16,31.12534523010254
2017-10-17,30.554813385009766
2017-10-18,30.06326675415039
2017-10-19,30.809356689453125
2017-10-20,30.835693359375
2017-10-23,30.326587677001953
2017-10-24,30.99368667602539
2017-10-25,31.090238571166992
2017-10-26,31.028797149658203
2017-10-27,31.07268524169922
2017-10-30,31.362348556518555
2017-10-31,32.064544677734375
2017-11-01,31.77489471435547
2017-11-02,31.406230926513672
2017-11-03,31.134126663208008
2017-11-06,31.476451873779297
2017-11-07,31.546676635742188
2017-11-08,32.275211334228516
2017-11-09,31.93983268737793
2017-11-10,32.24873733520508
2017-11-13,32.24873733520508
2017-11-14,31.41912841796875
2017-11-15,31.207321166992188
2017-11-16,31.83393669128418
2017-11-17,31.975147247314453
2017-11-20,31.983972549438477
2017-11-21,32.7870979309082
2017-11-22,32.58411407470703
2017-11-24,32.5223274230957
2017-11-27,32.38113021850586
2017-11-28,31.73685646057129
2017-11-29,31.18083953857422
2017-11-30,31.454431533813477
2017-12-01,30.871946334838867
2017-12-04,30.51892852783203
2017-12-05,30.854293823242188
2017-12-06,31.163188934326172
2017-12-07,31.18083953857422
2017-12-08,30.70425796508789
2017-12-11,30.75721549987793
2017-12-12,30.262981414794922
2017-12-13,30.342405319213867
2017-12-14,29.74227523803711
2017-12-15,29.892301559448242
2017-12-18,30.21002960205078
2017-12-19,30.03351402282715
2017-12-20,30.827817916870117
2017-12-21,30.64247703552246
2017-12-22,30.527751922607422
2017-12-26,30.845470428466797
2017-12-27,31.08376693725586
2017-12-28,31.436786651611328
2017-12-29,31.40148162841797
2018-01-02,32.3193473815918
2018-01-03,33.01655960083008
2018-01-04,33.29898452758789
2018-01-05,34.06681442260742
2018-01-08,33.80204391479492
2018-01-09,33.3166389465332
2018-01-10,32.928306579589844
2018-01-11,33.49314880371094
2018-01-12,33.59905242919922
2018-01-16,33.3166389465332
2018-01-17,32.213436126708984
2018-01-18,32.33699417114258
2018-01-19,32.54881286621094
2018-01-22,32.601768493652344
2018-01-23,32.098697662353516
2018-01-24,32.99891662597656
2018-01-25,33.59905242919922
2018-01-26,33.2636833190918
2018-01-29,33.23720169067383
2018-01-30,32.55763626098633
2018-01-31,32.90183639526367
2018-02-01,32.610591888427734
2018-02-02,31.825105667114258
2018-02-05,31.24262046813965
2018-02-06,31.728031158447266
2018-02-07,29.34511375427246
2018-02-08,27.4982852935791
2018-02-09,27.1253662109375
2018-02-12,27.809051513671875
2018-02-13,28.65255355834961
2018-02-14,29.05211067199707
2018-02-15,29.504940032958984
2018-02-16,29.007713317871094
2018-02-20,29.345111846923828
2018-02-21,29.496061325073242
2018-02-22,29.433910369873047
2018-02-23,29.478303909301758
2018-02-26,29.398393630981445
2018-02-27,28.51049041748047
2018-02-28,28.85677146911621
2018-03-01,28.128694534301758
2018-03-02,27.809051513671875
2018-03-05,28.59927749633789
2018-03-06,29.26520347595215
2018-03-07,29.16753578186035
2018-03-08,28.79462242126465
2018-03-09,29.30960464477539
2018-03-12,29.425024032592773
2018-03-13,29.105382919311523
2018-03-14,28.00438690185547
2018-03-15,27.791290283203125
2018-03-16,27.64923095703125
2018-03-19,26.67254066467285
2018-03-20,26.441680908203125
2018-03-21,27.329580307006836
2018-03-22,27.169763565063477
2018-03-23,26.94778823852539
2018-03-26,27.640348434448242
2018-03-27,26.60150146484375
2018-03-28,26.47719955444336
2018-03-29,26.983301162719727
2018-04-02,26.18419075012207
2018-04-03,26.64590072631836
2018-04-04,26.139799118041992
2018-04-05,26.894512176513672
2018-04-06,26.19306755065918
2018-04-09,26.210826873779297
2018-04-10,26.530473709106445
2018-04-11,26.15755271911621
2018-04-12,26.8234806060791
2018-04-13,26.64590072631836
2018-04-16,26.983301162719727
2018-04-17,27.267427444458008
2018-04-18,27.320703506469727
2018-04-19,27.080970764160156
2018-04-20,26.210826873779297
2018-04-23,26.930028915405273
2018-04-24,26.51271629333496
2018-04-25,26.5837459564209
2018-04-26,27.231914520263672
2018-04-27,27.152000427246094
2018-04-30,26.805721282958984
2018-05-01,26.38840675354004
2018-05-02,27.34734344482422
2018-05-03,27.249675750732422
2018-05-04,28.093175888061523
2018-05-07,28.350669860839844
2018-05-08,28.634798049926758
2018-05-09,29.787336349487305
2018-05-10,29.51930046081543
2018-05-11,29.438892364501953
2018-05-14,29.42995834350586
2018-05-15,29.170860290527344
2018-05-16,29.64438247680664
2018-05-17,29.6533260345459
2018-05-18,29.680126190185547
2018-05-21,30.53782844543457
2018-05-22,30.18938636779785
2018-05-23,30.207258224487305
2018-05-24,29.849876403808594
2018-05-25,29.778406143188477
2018-05-29,29.295944213867188
2018-05-30,29.474634170532227
2018-05-31,28.884963989257812
2018-06-01,28.786684036254883
2018-06-04,28.867095947265625
2018-06-05,28.956436157226562
2018-06-06,29.626514434814453
2018-06-07,29.367416381835938
2018-06-08,29.53717613220215
2018-06-11,28.527587890625
2018-06-12,27.75029182434082
2018-06-13,27.419719696044922
2018-06-14,27.1695556640625
2018-06-15,27.142749786376953
2018-06-18,27.071273803710938
2018-06-19,25.963407516479492
2018-06-20,25.882997512817383
2018-06-21,25.93660545349121
2018-06-22,26.11529541015625
2018-06-25,25.891929626464844
2018-06-26,25.58816146850586
2018-06-27,25.248655319213867
2018-06-28,25.338001251220703
2018-06-29,25.659637451171875
2018-07-02,25.731111526489258
2018-07-03,25.48988151550293
2018-07-05,25.80259132385254
2018-07-06,25.93660545349121
2018-07-09,26.78537368774414
2018-07-10,27.017669677734375
2018-07-11,26.008079528808594
2018-07-12,26.168899536132812
2018-07-13,26.10635757446289
2018-07-16,25.5792293548584
2018-07-17,25.891929626464844
2018-07-18,26.195703506469727
2018-07-19,25.945537567138672
2018-07-20,25.731111526489258
2018-07-23,25.606029510498047
2018-07-24,25.570295333862305
2018-07-25,25.614965438842773
2018-07-26,25.74898338317871
2018-07-27,25.793657302856445
2018-07-30,25.77578353881836
2018-07-31,26.36545753479004
2018-08-01,26.392257690429688
2018-08-02,26.15996742248535
2018-08-03,26.883651733398438
2018-08-06,27.03553581237793
2018-08-07,27.017669677734375
2018-08-08,27.178485870361328
2018-08-09,27.27741813659668
2018-08-10,26.539945602416992
2018-08-13,26.18920135498047
2018-08-14,26.530954360961914
2018-08-15,25.9373779296875
2018-08-16,26.61189842224121
2018-08-17,26.710824966430664
2018-08-20,26.836734771728516
2018-08-21,27.385337829589844
2018-08-22,27.619171142578125
2018-08-23,27.41231918334961
2018-08-24,27.610179901123047
2018-08-27,28.194759368896484
2018-08-28,28.401609420776367
2018-08-29,28.383621215820312
2018-08-30,27.790050506591797
2018-08-31,27.637157440185547
2018-09-04,27.22345733642578
2018-09-05,27.83501625061035
2018-09-06,27.996896743774414
2018-09-07,27.71809959411621
2018-09-10,27.142515182495117
2018-09-11,27.034589767456055
2018-09-12,26.6028995513916
2018-09-13,26.243160247802734
2018-09-14,26.009328842163086
2018-09-17,25.757505416870117
2018-09-18,24.93909454345703
2018-09-19,24.777212142944336
2018-09-20,25.02903175354004
2018-09-21,24.831172943115234
2018-09-24,24.82218360900879
2018-09-25,24.62432098388672
2018-09-26,24.192630767822266
2018-09-27,23.787921905517578
2018-09-28,23.09541893005371
2018-10-01,22.834606170654297
2018-10-02,22.81662368774414
2018-10-03,22.393922805786133
2018-10-04,22.4478816986084
2018-10-05,22.286001205444336
2018-10-08,22.65473747253418
2018-10-09,21.665449142456055
2018-10-10,21.053884506225586
2018-10-11,21.080867767333984
2018-10-12,21.287715911865234
2018-10-15,20.865020751953125
2018-10-16,21.044891357421875
2018-10-17,20.667160034179688
2018-10-18,20.280441284179688
2018-10-19,20.136545181274414
2018-10-22,19.515993118286133
2018-10-23,19.093292236328125
2018-10-24,17.91514015197754
2018-10-25,18.40079116821289
2018-10-26,18.12198829650879
2018-10-29,17.897153854370117
2018-10-30,17.69929313659668
2018-10-31,18.16695785522461
2018-11-01,19.462024688720703
2018-11-02,19.24618148803711
2018-11-05,19.533977508544922
2018-11-06,19.560958862304688
2018-11-07,19.83076286315918
2018-11-08,19.095619201660156
2018-11-09,18.877798080444336
2018-11-12,18.51476287841797
2018-11-13,18.423999786376953
2018-11-14,18.968555450439453
2018-11-15,19.258981704711914
2018-11-16,19.122844696044922
2018-11-19,18.197105407714844
2018-11-20,18.03374481201172
2018-11-21,18.886873245239258
2018-11-23,18.541990280151367
2018-11-26,19.0865421295166
2018-11-27,19.20452880859375
2018-11-28,19.422348022460938
2018-11-29,19.631093978881836
2018-11-30,19.540334701538086
2018-12-03,19.776309967041016
2018-12-04,18.560142517089844
2018-12-06,18.151729583740234
2018-12-07,18.315092086791992
2018-12-10,18.442157745361328
2018-12-11,19.05023765563965
2018-12-12,19.02301025390625
2018-12-13,18.632747650146484
2018-12-14,18.169879913330078
2018-12-17,17.888526916503906
2018-12-18,17.761465072631836
2018-12-19,17.598100662231445
2018-12-20,17.289518356323242
2018-12-21,16.95371437072754
2018-12-24,16.418237686157227
2018-12-26,17.661632537841797
2018-12-27,17.95206069946289
2018-12-28,17.71608543395996
2018-12-31,18.251562118530273
2019-01-02,18.768888473510742
2019-01-03,18.24248695373535
2019-01-04,19.413272857666016
2019-01-07,19.476802825927734
2019-01-08,19.730928421020508
2019-01-09,20.184720993041992
2019-01-10,20.584060668945312
2019-01-11,20.77465057373047
2019-01-14,20.139341354370117
2019-01-15,19.676475524902344
2019-01-16,20.64759063720703
2019-01-17,20.92894172668457
2019-01-18,21.409963607788086
2019-01-22,20.965246200561523
2019-01-23,20.874486923217773
2019-01-24,20.94709587097168
2019-01-25,21.537023544311523
2019-01-28,21.319204330444336
2019-01-29,21.691312789916992
2019-01-30,21.872833251953125
2019-01-31,21.428115844726562
2019-02-01,21.963590621948242
2019-02-04,21.836528778076172
2019-02-05,23.74245834350586
2019-02-06,22.94378662109375
2019-02-07,22.444612503051758
2019-02-08,22.48120880126953
2019-02-11,22.6916561126709
2019-02-12,23.37789535522461
2019-02-13,23.570045471191406
2019-02-14,23.341299057006836
2019-02-15,24.137338638305664
2019-02-19,24.256282806396484
2019-02-20,24.814424514770508
2019-02-21,24.054990768432617
2019-02-22,24.091585159301758
2019-02-25,24.119037628173828
2019-02-26,23.83538818359375
2019-02-27,23.9543399810791
2019-02-28,23.661542892456055
2019-03-01,22.883804321289062
2019-03-04,22.59100914001465
2019-03-05,22.05116844177246
2019-03-06,22.261613845825195
2019-03-07,22.225017547607422
2019-03-08,21.932218551635742
2019-03-11,22.170116424560547
2019-03-12,21.776670455932617
2019-03-13,21.913923263549805
2019-03-14,21.38322639465332
2019-03-15,21.2642822265625
2019-03-18,21.666873931884766
2019-03-19,21.245981216430664
2019-03-20,21.017234802246094
2019-03-21,21.493026733398438
2019-03-22,20.614641189575195
2019-03-25,20.12055015563965
2019-03-26,21.27342987060547
2019-03-27,21.28257942199707
2019-03-28,21.37407875061035
2019-03-29,21.17277717590332
2019-04-01,21.630271911621094
2019-04-02,21.364927291870117
2019-04-03,21.99627113342285
2019-04-04,22.426313400268555
2019-04-05,22.56355857849121
2019-04-08,22.801454544067383
2019-04-09,22.142667770385742
2019-04-10,22.133516311645508
2019-04-11,22.261613845825195
2019-04-12,22.71910858154297
2019-04-15,23.057653427124023
2019-04-16,22.89295768737793
2019-04-17,22.700807571411133
2019-04-18,22.270763397216797
2019-04-22,21.8773193359375
2019-04-23,21.859020233154297
2019-04-24,21.127031326293945
2019-04-25,20.64208984375
2019-04-26,20.825088500976562
2019-04-29,20.55059242248535
2019-04-30,19.846052169799805
2019-05-01,19.324508666992188
2019-05-02,18.88531494140625
2019-05-03,19.525806427001953
2019-05-06,19.150663375854492
2019-05-07,19.214710235595703
2019-05-08,18.940214157104492
2019-05-09,19.32826042175293
2019-05-10,19.614669799804688
2019-05-13,18.75543212890625
2019-05-14,19.300539016723633
2019-05-15,19.605432510375977
2019-05-16,20.455429077148438
2019-05-17,20.122825622558594
2019-05-20,20.372278213500977
2019-05-21,21.000539779663086
2019-05-22,20.6309757232666
2019-05-23,19.854890823364258
2019-05-24,19.494564056396484
2019-05-28,19.383689880371094
2019-05-29,19.124996185302734
2019-05-30,18.746192932128906
2019-05-31,18.11793327331543
2019-06-03,19.088043212890625
2019-06-04,20.47391128540039
2019-06-05,20.372278213500977
2019-06-06,20.47391128540039
2019-06-07,20.464672088623047
2019-06-10,20.538583755493164
2019-06-11,20.5108699798584
2019-06-12,20.381519317626953
2019-06-13,20.769563674926758
2019-06-14,20.215213775634766
2019-06-17,20.04891014099121
2019-06-18,20.187496185302734
2019-06-19,19.023366928100586
2019-06-20,19.383689880371094
2019-06-21,19.974998474121094
2019-06-24,19.836408615112305
2019-06-25,19.77173614501953
2019-06-26,19.882604598999023
2019-06-27,20.09510612487793
2019-06-28,20.242931365966797
2019-07-01,20.085866928100586
2019-07-02,19.429887771606445
2019-07-03,19.753257751464844
2019-07-05,20.085866928100586
2019-07-08,19.707063674926758
2019-07-09,19.300539016723633
2019-07-10,19.20815086364746
2019-07-11,19.088043212890625
2019-07-12,19.873367309570312
2019-07-15,19.577714920043945
2019-07-16,20.113584518432617
2019-07-17,19.688583374023438
2019-07-18,19.79021453857422
2019-07-19,19.540756225585938
2019-07-22,19.25434684753418
2019-07-23,19.873367309570312
2019-07-24,20.113584518432617
2019-07-25,19.77173614501953
2019-07-26,19.725540161132812
2019-07-29,18.866300582885742
2019-07-30,19.069562911987305
2019-07-31,18.542932510375977
2019-08-01,17.6467342376709
2019-08-02,17.05543327331543
2019-08-05,16.77825927734375
2019-08-06,16.916847229003906
2019-08-07,16.75977897644043
2019-08-08,16.657018661499023
2019-08-09,16.507545471191406
2019-08-12,15.769513130187988
2019-08-13,16.208593368530273
2019-08-14,15.704119682312012
2019-08-15,15.22767162322998
2019-08-16,15.386487007141113
2019-08-19,15.629383087158203
2019-08-20,15.377144813537598
2019-08-21,15.255698204040527
2019-08-22,15.0501708984375
2019-08-23,14.396221160888672
2019-08-26,14.498985290527344
2019-08-27,14.498985290527344
2019-08-28,14.882012367248535
2019-08-29,15.554646492004395
2019-08-30,15.862933158874512
2019-09-03,15.554646492004395
2019-09-04,15.620039939880371
2019-09-05,15.99372673034668
2019-09-06,15.947015762329102
2019-09-09,17.180173873901367
2019-09-10,17.535179138183594
2019-09-11,18.198469161987305
2019-09-12,17.488466262817383
2019-09-13,17.591230392456055
2019-09-16,18.011625289916992
2019-09-17,17.42306900024414
2019-09-18,17.180173873901367
2019-09-19,17.357677459716797
2019-09-20,17.404386520385742
2019-09-23,17.693994522094727
2019-09-24,17.105438232421875
2019-09-25,17.637941360473633
2019-09-26,17.357677459716797
2019-09-27,17.51649284362793
2019-09-30,17.488466262817383
2019-10-01,16.74109649658203
2019-10-02,16.610307693481445
2019-10-03,16.41412353515625
2019-10-04,16.685043334960938
2019-10-07,16.80649185180664
2019-10-08,16.47017478942871
2019-10-09,16.38609504699707
2019-10-10,16.99333381652832
2019-10-11,17.73136329650879
2019-10-14,17.282939910888672
2019-10-15,17.07741355895996
2019-10-16,17.049386978149414
2019-10-17,16.85320472717285
2019-10-18,17.00267791748047
2019-10-21,17.133466720581055
2019-10-22,17.329647064208984
2019-10-23,17.245569229125977
2019-10-24,17.19886016845703
2019-10-25,17.899518966674805
2019-10-28,18.142414093017578
2019-10-29,17.918203353881836
2019-10-30,18.011625289916992
2019-10-31,17.133466720581055
2019-11-01,17.086755752563477
2019-11-04,17.488466262817383
2019-11-05,18.011625289916992
2019-11-06,17.254913330078125
2019-11-07,17.890178680419922
2019-11-08,18.26780891418457
2019-11-11,18.239484786987305
2019-11-12,17.64472007751465
2019-11-13,17.19156265258789
2019-11-14,17.172683715820312
2019-11-15,16.955547332763672
2019-11-18,16.511829376220703
2019-11-19,16.162525177001953
2019-11-20,15.954828262329102
2019-11-21,15.91706657409668
2019-11-22,15.91706657409668
2019-11-25,16.43630599975586
2019-11-26,16.370222091674805
2019-11-27,16.530712127685547
2019-11-29,16.54015350341797
2019-12-02,16.35133934020996
2019-12-03,15.926506042480469
2019-12-04,15.90762710571289
2019-12-05,15.879303932189941
2019-12-06,16.256933212280273
2019-12-09,16.426864624023438
2019-12-10,16.190845489501953
2019-12-11,16.370222091674805
2019-12-12,16.804494857788086
2019-12-13,16.190845489501953
2019-12-16,16.474069595336914
2019-12-17,16.11532211303711
2019-12-18,16.455188751220703
2019-12-19,16.502389907836914
2019-12-20,16.417423248291016
2019-12-23,16.511829376220703
2019-12-24,16.662883758544922
2019-12-26,16.568477630615234
2019-12-27,16.266372680664062
2019-12-30,16.22861099243164
2019-12-31,16.285253524780273
