Date,PAYX
2007-12-31,22.555137634277344
2008-01-02,21.7891845703125
2008-01-03,21.882593154907227
2008-01-04,21.17891502380371
2008-01-07,21.60236358642578
2008-01-08,20.898677825927734
2008-01-09,20.86754608154297
2008-01-10,21.09172248840332
2008-01-11,21.035682678222656
2008-01-14,20.543733596801758
2008-01-15,20.587318420410156
2008-01-16,20.948505401611328
2008-01-17,20.568635940551758
2008-01-18,20.680728912353516
2008-01-22,20.001956939697266
2008-01-23,20.761680603027344
2008-01-24,20.60600471496582
2008-01-25,20.63714027404785
2008-01-28,20.98586082458496
2008-01-29,21.371952056884766
2008-01-30,20.70604705810547
2008-01-31,20.555273056030273
2008-02-01,21.277719497680664
2008-02-04,21.07041358947754
2008-02-05,20.49873161315918
2008-02-06,20.109237670898438
2008-02-07,20.172061920166016
2008-02-08,20.197187423706055
2008-02-11,20.373088836669922
2008-02-12,20.98874282836914
2008-02-13,21.65464973449707
2008-02-14,21.4661808013916
2008-02-15,21.152076721191406
2008-02-19,21.13951301574707
2008-02-20,21.485034942626953
2008-02-21,21.290287017822266
2008-02-22,20.75002098083496
2008-02-25,20.91963768005371
2008-02-26,20.624380111694336
2008-02-27,20.561552047729492
2008-02-28,20.197187423706055
2008-02-29,19.763723373413086
2008-03-03,19.663204193115234
2008-03-04,20.058979034423828
2008-03-05,20.00872802734375
2008-03-06,19.449613571166992
2008-03-07,19.16063690185547
2008-03-10,19.1480655670166
2008-03-11,19.870515823364258
2008-03-12,19.88936424255371
2008-03-13,19.795129776000977
2008-03-14,19.53755760192871
2008-03-17,19.481021881103516
2008-03-18,20.14693260192871
2008-03-19,20.00872802734375
2008-03-20,20.72489356994629
2008-03-24,21.33426284790039
2008-03-25,20.913352966308594
2008-03-26,20.655792236328125
2008-03-27,20.951051712036133
2008-03-28,21.013872146606445
2008-03-31,21.522729873657227
2008-04-01,22.39594841003418
2008-04-02,22.515310287475586
2008-04-03,22.471336364746094
2008-04-04,22.860837936401367
2008-04-07,22.603271484375
2008-04-08,22.4964656829834
2008-04-09,22.169790267944336
2008-04-10,22.521595001220703
2008-04-11,22.333126068115234
2008-04-14,22.27031135559082
2008-04-15,22.389667510986328
2008-04-16,22.87339210510254
2008-04-17,22.904808044433594
2008-04-18,23.086986541748047
2008-04-21,22.911094665527344
2008-04-22,22.728900909423828
2008-04-23,22.785444259643555
2008-04-24,22.898521423339844
2008-04-25,22.929933547973633
2008-04-28,22.798011779785156
2008-04-29,22.836021423339844
2008-04-30,23.03872299194336
2008-05-01,23.570825576782227
2008-05-02,23.507469177246094
2008-05-05,23.133743286132812
2008-05-06,23.08939552307129
2008-05-07,22.658647537231445
2008-05-08,22.994382858276367
2008-05-09,22.772676467895508
2008-05-12,23.184419631958008
2008-05-13,23.00704574584961
2008-05-14,23.03872299194336
2008-05-15,23.336444854736328
2008-05-16,23.146413803100586
2008-05-19,22.97537612915039
2008-05-20,22.918363571166992
2008-05-21,22.905698776245117
2008-05-22,22.088539123535156
2008-05-23,21.607112884521484
2008-05-27,21.923839569091797
2008-05-28,21.822490692138672
2008-05-29,22.177223205566406
2008-05-30,21.885833740234375
2008-06-02,21.404403686523438
2008-06-03,21.303062438964844
2008-06-04,21.290393829345703
2008-06-05,21.537437438964844
2008-06-06,21.011661529541016
2008-06-09,21.119354248046875
2008-06-10,21.081342697143555
2008-06-11,20.59992218017578
2008-06-12,20.821630477905273
2008-06-13,21.315725326538086
2008-06-16,21.32839012145996
2008-06-17,20.929319381713867
2008-06-18,20.650596618652344
2008-06-19,21.068679809570312
2008-06-20,20.517576217651367
2008-06-23,20.270523071289062
2008-06-24,20.017141342163086
2008-06-25,20.327543258666992
2008-06-26,20.295867919921875
2008-06-27,20.00447654724121
2008-06-30,19.81443977355957
2008-07-01,20.112163543701172
2008-07-02,19.535720825195312
2008-07-03,19.662412643432617
2008-07-07,19.649744033813477
2008-07-08,20.35287857055664
2008-07-09,19.979141235351562
2008-07-10,20.238849639892578
2008-07-11,19.84610939025879
2008-07-14,19.421693801879883
2008-07-15,19.472379684448242
2008-07-16,20.270523071289062
2008-07-17,20.707612991333008
2008-07-18,20.878644943237305
2008-07-21,21.024337768554688
2008-07-22,21.341062545776367
2008-07-23,21.35373306274414
2008-07-24,20.827970504760742
2008-07-25,20.834299087524414
2008-07-28,20.485897064208984
2008-07-29,20.91665267944336
2008-07-30,20.986989974975586
2008-07-31,21.050933837890625
2008-08-01,20.95502281188965
2008-08-04,20.884679794311523
2008-08-05,21.52412986755371
2008-08-06,21.74795150756836
2008-08-07,21.223587036132812
2008-08-08,22.093252182006836
2008-08-11,22.297876358032227
2008-08-12,22.25950813293457
2008-08-13,22.189172744750977
2008-08-14,22.41297721862793
2008-08-15,22.3938045501709
2008-08-18,22.444957733154297
2008-08-19,21.997337341308594
2008-08-20,22.074066162109375
2008-08-21,22.054885864257812
2008-08-22,22.3938045501709
2008-08-25,21.773523330688477
2008-08-26,21.843868255615234
2008-08-27,22.24672508239746
2008-08-28,22.317068099975586
2008-08-29,21.792705535888672
2008-09-02,22.48971939086914
2008-09-03,22.265905380249023
2008-09-04,21.735153198242188
2008-09-05,21.32590103149414
2008-09-08,21.607261657714844
2008-09-09,21.070119857788086
2008-09-10,21.166046142578125
2008-09-11,21.741554260253906
2008-09-12,21.74795150756836
2008-09-15,21.21720314025879
2008-09-16,20.839916229248047
2008-09-17,20.277193069458008
2008-09-18,20.520191192626953
2008-09-19,21.031753540039062
2008-09-22,20.130115509033203
2008-09-23,20.12371826171875
2008-09-24,20.654470443725586
2008-09-25,20.283584594726562
2008-09-26,21.32590103149414
2008-09-29,20.974205017089844
2008-09-30,21.12127685546875
2008-10-01,20.87188720703125
2008-10-02,20.142911911010742
2008-10-03,19.84236717224121
2008-10-06,19.228485107421875
2008-10-07,18.48671531677246
2008-10-08,17.99433135986328
2008-10-09,17.559497833251953
2008-10-10,18.12221908569336
2008-10-13,19.375566482543945
2008-10-14,18.40998077392578
2008-10-15,17.3037166595459
2008-10-16,17.399633407592773
2008-10-17,17.009565353393555
2008-10-20,17.904808044433594
2008-10-21,16.70262908935547
2008-10-22,15.973642349243164
2008-10-23,16.139904022216797
2008-10-24,15.647517204284668
2008-10-27,15.513239860534668
2008-10-28,17.163036346435547
2008-10-29,17.117753982543945
2008-10-30,18.15930938720703
2008-10-31,18.46336555480957
2008-11-03,18.69625473022461
2008-11-04,18.94856071472168
2008-11-05,18.03639030456543
2008-11-06,17.24066925048828
2008-11-07,17.39593505859375
2008-11-10,17.318307876586914
2008-11-11,16.878385543823242
2008-11-12,16.237926483154297
2008-11-13,17.415342330932617
2008-11-14,16.626089096069336
2008-11-17,16.490230560302734
2008-11-18,16.65196418762207
2008-11-19,15.927395820617676
2008-11-20,15.396920204162598
2008-11-21,16.21851921081543
2008-11-24,17.59001350402832
2008-11-25,17.822906494140625
2008-11-26,18.346914291381836
2008-11-28,18.282228469848633
2008-12-01,16.833101272583008
2008-12-02,17.23419761657715
2008-12-03,17.57707405090332
2008-12-04,16.833101272583008
2008-12-05,17.150102615356445
2008-12-08,17.74527359008789
2008-12-09,17.27301597595215
2008-12-10,17.027177810668945
2008-12-11,16.561397552490234
2008-12-12,16.878385543823242
2008-12-15,16.3479061126709
2008-12-16,17.22125816345215
2008-12-17,17.214794158935547
2008-12-18,16.748998641967773
2008-12-19,16.98189353942871
2008-12-22,16.587265014648438
2008-12-23,16.360849380493164
2008-12-24,16.212047576904297
2008-12-26,16.296154022216797
2008-12-29,15.992093086242676
2008-12-30,16.684309005737305
2008-12-31,17.001304626464844
2009-01-02,17.42827606201172
2009-01-05,17.091876983642578
2009-01-06,17.078937530517578
2009-01-07,16.871915817260742
2009-01-08,16.936613082885742
2009-01-09,16.373783111572266
2009-01-12,16.257333755493164
2009-01-13,16.46435546875
2009-01-14,15.907995223999023
2009-01-15,16.10207176208496
2009-01-16,16.451416015625
2009-01-20,15.966215133666992
2009-01-21,16.237926483154297
2009-01-22,15.940337181091309
2009-01-23,15.791545867919922
2009-01-26,16.3802547454834
2009-01-27,16.309085845947266
2009-01-28,16.557985305786133
2009-01-29,16.276344299316406
2009-01-30,15.909549713134766
2009-02-02,16.02090072631836
2009-02-03,16.70207977294922
2009-02-04,16.584184646606445
2009-02-05,17.036123275756836
2009-02-06,17.638708114624023
2009-02-09,17.3767147064209
2009-02-10,16.485937118530273
2009-02-11,16.62348175048828
2009-02-12,16.636577606201172
2009-02-13,16.394237518310547
2009-02-17,15.726156234741211
2009-02-18,16.099491119384766
2009-02-19,15.641005516052246
2009-02-20,15.699954986572266
2009-02-23,15.234915733337402
2009-02-24,15.660659790039062
2009-02-25,15.457611083984375
2009-02-26,15.012225151062012
2009-02-27,14.448936462402344
2009-03-02,13.56470775604248
2009-03-03,13.708805084228516
2009-03-04,14.08869743347168
2009-03-05,13.787409782409668
2009-03-06,13.715357780456543
2009-03-09,13.381312370300293
2009-03-10,14.20659351348877
2009-03-11,14.062495231628418
2009-03-12,14.612683296203613
2009-03-13,14.90087604522705
2009-03-16,14.671630859375
2009-03-17,15.175968170166016
2009-03-18,15.228365898132324
2009-03-19,15.16286849975586
2009-03-20,15.084274291992188
2009-03-23,15.883349418640137
2009-03-24,15.916099548339844
2009-03-25,15.470708847045898
2009-03-26,16.950969696044922
2009-03-27,16.60383415222168
2009-03-30,16.49248695373535
2009-03-31,16.813426971435547
2009-04-01,16.81998062133789
2009-04-02,17.44221305847168
2009-04-03,17.907243728637695
2009-04-06,17.625608444213867
2009-04-07,17.140920639038086
2009-04-08,17.383262634277344
2009-04-09,17.691104888916016
2009-04-13,17.704206466674805
2009-04-14,17.42910385131836
2009-04-15,17.527359008789062
2009-04-16,18.051347732543945
2009-04-17,17.953094482421875
2009-04-20,17.468414306640625
2009-04-21,17.887596130371094
2009-04-22,17.815553665161133
2009-04-23,17.651809692382812
2009-04-24,17.98584747314453
2009-04-27,17.56665802001953
2009-04-28,17.664905548095703
2009-04-29,18.181739807128906
2009-04-30,17.89681625366211
2009-05-01,17.843809127807617
2009-05-04,18.069093704223633
2009-05-05,18.320880889892578
2009-05-06,18.47327995300293
2009-05-07,17.91669464111328
2009-05-08,18.466655731201172
2009-05-11,18.267871856689453
2009-05-12,18.340757369995117
2009-05-13,17.770925521850586
2009-05-14,17.73116683959961
2009-05-15,17.704662322998047
2009-05-18,18.287752151489258
2009-05-19,18.108848571777344
2009-05-20,18.095592498779297
2009-05-21,17.598649978637695
2009-05-22,17.638404846191406
2009-05-26,18.214866638183594
2009-05-27,17.843809127807617
2009-05-28,18.002836227416992
2009-05-29,18.1154727935791
2009-06-01,18.85758399963379
2009-06-02,18.71181869506836
2009-06-03,18.18836212158203
2009-06-04,18.18836212158203
2009-06-05,18.33413314819336
2009-06-08,18.261241912841797
2009-06-09,18.320880889892578
2009-06-10,18.45339584350586
2009-06-11,18.76482391357422
2009-06-12,18.267871856689453
2009-06-15,18.06245994567871
2009-06-16,17.94319725036621
2009-06-17,17.817306518554688
2009-06-18,17.757671356201172
2009-06-19,17.698034286499023
2009-06-22,17.505884170532227
2009-06-23,17.320358276367188
2009-06-24,17.698034286499023
2009-06-25,16.604745864868164
2009-06-26,16.87641143798828
2009-06-29,16.816781997680664
2009-06-30,16.697513580322266
2009-07-01,16.955923080444336
2009-07-02,16.452350616455078
2009-07-06,16.611370086669922
2009-07-07,16.081289291381836
2009-07-08,16.16080665588379
2009-07-09,16.041536331176758
2009-07-10,16.068038940429688
2009-07-13,16.313201904296875
2009-07-14,16.32645034790039
2009-07-15,16.763769149780273
2009-07-16,16.796905517578125
2009-07-17,16.803524017333984
2009-07-20,16.96255111694336
2009-07-21,16.989051818847656
2009-07-22,16.936044692993164
2009-07-23,17.287220001220703
2009-07-24,17.3601131439209
2009-07-27,17.565523147583008
2009-07-28,17.6450252532959
2009-07-29,17.87031364440918
2009-07-30,17.669221878051758
2009-07-31,17.7630615234375
2009-08-03,17.7630615234375
2009-08-04,17.91053009033203
2009-08-05,17.72285270690918
2009-08-06,17.575374603271484
2009-08-07,18.63446617126465
2009-08-10,18.486997604370117
2009-08-11,18.352930068969727
2009-08-12,18.674680709838867
2009-08-13,18.936098098754883
2009-08-14,18.781930923461914
2009-08-17,18.32611656188965
2009-08-18,18.473581314086914
2009-08-19,18.647872924804688
2009-08-20,18.768518447875977
2009-08-21,19.03664207458496
2009-08-24,19.117082595825195
2009-08-25,19.063453674316406
2009-08-26,18.956205368041992
2009-08-27,19.050046920776367
2009-08-28,19.050046920776367
2009-08-31,18.96291160583496
2009-09-01,18.426668167114258
2009-09-02,18.426668167114258
2009-09-03,18.58753776550293
2009-09-04,18.79533576965332
2009-09-08,18.76181983947754
2009-09-09,18.96291160583496
2009-09-10,19.050046920776367
2009-09-11,19.150598526000977
2009-09-14,19.371795654296875
2009-09-15,19.284656524658203
2009-09-16,19.733762741088867
2009-09-17,19.93484878540039
2009-09-18,19.894634246826172
2009-09-21,20.021991729736328
2009-09-22,20.578346252441406
2009-09-23,20.806241989135742
2009-09-24,19.525964736938477
2009-09-25,19.291364669799805
2009-09-28,19.633220672607422
2009-09-29,19.338279724121094
2009-09-30,19.472341537475586
2009-10-01,19.023235321044922
2009-10-02,18.808744430541992
2009-10-05,18.96291160583496
2009-10-06,19.157297134399414
2009-10-07,19.19751739501953
2009-10-08,19.291364669799805
2009-10-09,19.237730026245117
2009-10-12,19.19751739501953
2009-10-13,19.123783111572266
2009-10-14,19.458932876586914
2009-10-15,19.38520050048828
2009-10-16,19.271249771118164
2009-10-19,19.318174362182617
2009-10-20,19.143898010253906
2009-10-21,19.163997650146484
2009-10-22,19.38520050048828
2009-10-23,19.117082595825195
2009-10-26,19.5728816986084
2009-10-27,19.539363861083984
2009-10-28,19.465641021728516
2009-10-29,19.424985885620117
2009-10-30,19.248825073242188
2009-11-02,19.248825073242188
2009-11-03,19.391111373901367
2009-11-04,19.743423461914062
2009-11-05,20.570026397705078
2009-11-06,20.576797485351562
2009-11-09,20.969770431518555
2009-11-10,20.962995529174805
2009-11-11,20.983322143554688
2009-11-12,21.003646850585938
2009-11-13,21.01719856262207
2009-11-16,21.32209587097168
2009-11-17,21.383066177368164
2009-11-18,21.213685989379883
2009-11-19,20.969770431518555
2009-11-20,21.03752326965332
2009-11-23,21.471149444580078
2009-11-24,21.423723220825195
2009-11-25,21.471149444580078
2009-11-27,21.227235794067383
2009-11-30,21.24077796936035
2009-12-01,21.498247146606445
2009-12-02,21.742162704467773
2009-12-03,21.511802673339844
2009-12-04,21.918325424194336
2009-12-07,22.019947052001953
2009-12-08,21.559223175048828
2009-12-09,21.477928161621094
2009-12-10,21.57277488708496
2009-12-11,21.57277488708496
2009-12-14,21.681182861328125
2009-12-15,21.559223175048828
2009-12-16,21.34241485595703
2009-12-17,20.915565490722656
2009-12-18,20.949445724487305
2009-12-21,20.97654151916504
2009-12-22,20.97654151916504
2009-12-23,20.902015686035156
2009-12-24,21.02397346496582
2009-12-28,21.003646850585938
2009-12-29,20.97654151916504
2009-12-30,20.935890197753906
2009-12-31,20.759737014770508
2010-01-04,20.881689071655273
2010-01-05,20.868135452270508
2010-01-06,21.03752326965332
2010-01-07,21.369522094726562
2010-01-08,21.383066177368164
2010-01-11,21.511802673339844
2010-01-12,21.437271118164062
2010-01-13,21.450822830200195
2010-01-14,21.24077796936035
2010-01-15,20.780059814453125
2010-01-19,20.617448806762695
2010-01-20,20.63100242614746
2010-01-21,20.4819393157959
2010-01-22,20.082195281982422
2010-01-25,19.987346649169922
2010-01-26,19.89925765991211
2010-01-27,19.90603256225586
2010-01-28,19.769086837768555
2010-01-29,19.851253509521484
2010-02-01,20.077234268188477
2010-02-02,20.207332611083984
2010-02-03,20.186790466308594
2010-02-04,19.844409942626953
2010-02-05,19.817014694213867
2010-02-08,19.76223373413086
2010-02-09,19.93343162536621
2010-02-10,19.912887573242188
2010-02-11,20.152549743652344
2010-02-12,20.221027374267578
2010-02-16,20.453847885131836
2010-02-17,20.59764289855957
2010-02-18,20.65242576599121
2010-02-19,20.70035743713379
2010-02-22,20.7414493560791
2010-02-23,20.60449981689453
2010-02-24,20.755144119262695
2010-02-25,20.405908584594727
2010-02-26,20.50178337097168
2010-03-01,20.7414493560791
2010-03-02,20.536022186279297
2010-03-03,20.78938102722168
2010-03-04,20.768835067749023
2010-03-05,21.309799194335938
2010-03-08,21.398818969726562
2010-03-09,21.570011138916016
2010-03-10,21.76858901977539
2010-03-11,21.830217361450195
2010-03-12,22.00141143798828
2010-03-15,22.21367835998535
2010-03-16,22.1109676361084
2010-03-17,22.206838607788086
2010-03-18,22.234230041503906
2010-03-19,22.028797149658203
2010-03-22,22.247926712036133
2010-03-23,22.432809829711914
2010-03-24,22.14521026611328
2010-03-25,21.27556037902832
2010-03-26,21.371427536010742
2010-03-29,21.357730865478516
2010-03-30,21.268707275390625
2010-03-31,21.035898208618164
2010-04-01,21.035898208618164
2010-04-05,21.28240966796875
2010-04-06,21.213932037353516
2010-04-07,20.987960815429688
2010-04-08,21.159149169921875
2010-04-09,21.378278732299805
2010-04-12,21.302953720092773
2010-04-13,21.323497772216797
2010-04-14,21.49468421936035
2010-04-15,21.378278732299805
2010-04-16,21.104368209838867
2010-04-19,21.28240966796875
2010-04-20,21.487836837768555
2010-04-21,21.501529693603516
2010-04-22,21.590553283691406
2010-04-23,21.720657348632812
2010-04-26,21.748046875
2010-04-27,21.398818969726562
2010-04-28,21.309799194335938
2010-04-29,21.365129470825195
2010-04-30,21.143802642822266
2010-05-03,21.40662956237793
2010-05-04,21.05388832092285
2010-05-05,20.860225677490234
2010-05-06,20.230823516845703
2010-05-07,20.02332878112793
2010-05-10,21.012388229370117
2010-05-11,20.922473907470703
2010-05-12,21.157638549804688
2010-05-13,20.8187255859375
2010-05-14,20.376068115234375
2010-05-17,20.742647171020508
2010-05-18,20.57664680480957
2010-05-19,20.472900390625
2010-05-20,20.002574920654297
2010-05-21,20.369150161743164
2010-05-24,20.05099105834961
2010-05-25,19.919580459594727
2010-05-26,19.608335494995117
2010-05-27,19.919580459594727
2010-05-28,19.739749908447266
2010-06-01,19.51842498779297
2010-06-02,19.96107292175293
2010-06-03,20.106327056884766
2010-06-04,19.34550666809082
2010-06-07,19.103429794311523
2010-06-08,19.30401039123535
2010-06-09,19.331674575805664
2010-06-10,19.774330139160156
2010-06-11,19.615249633789062
2010-06-14,19.525339126586914
2010-06-15,20.037158966064453
2010-06-16,19.97490882873535
2010-06-17,19.829666137695312
2010-06-18,19.594501495361328
2010-06-21,19.470003128051758
2010-06-22,19.17951202392578
2010-06-23,18.965099334716797
2010-06-24,18.522441864013672
2010-06-25,18.3356990814209
2010-06-28,18.397945404052734
2010-06-29,17.98295783996582
2010-06-30,17.962203979492188
2010-07-01,17.97603988647461
2010-07-02,17.616378784179688
2010-07-06,17.401966094970703
2010-07-07,17.996789932250977
2010-07-08,18.148948669433594
2010-07-09,18.176616668701172
2010-07-12,17.81004524230957
2010-07-13,18.02444839477539
2010-07-14,18.231948852539062
2010-07-15,18.3356990814209
2010-07-16,17.754709243774414
2010-07-19,18.003698348999023
2010-07-20,18.20427703857422
2010-07-21,17.830791473388672
2010-07-22,18.20427703857422
2010-07-23,18.42560577392578
2010-07-26,18.626188278198242
2010-07-27,18.729934692382812
2010-07-28,18.626188278198242
2010-07-29,18.27634048461914
2010-07-30,18.18537712097168
2010-08-02,18.27634048461914
2010-08-03,18.157386779785156
2010-08-04,18.129396438598633
2010-08-05,18.059425354003906
2010-08-06,17.88450050354004
2010-08-09,18.01744842529297
2010-08-10,17.919483184814453
2010-08-11,17.471675872802734
2010-08-12,17.338727951049805
2010-08-13,17.471675872802734
2010-08-16,17.506662368774414
2010-08-17,17.828516006469727
2010-08-18,17.828516006469727
2010-08-19,17.674583435058594
2010-08-20,17.75855255126953
2010-08-23,17.75855255126953
2010-08-24,17.471675872802734
2010-08-25,17.63260841369629
2010-08-26,17.6466064453125
2010-08-27,17.751558303833008
2010-08-30,17.48567008972168
2010-08-31,17.415695190429688
2010-09-01,17.842517852783203
2010-09-02,18.1923770904541
2010-09-03,18.381290435791016
2010-09-07,17.982460021972656
2010-09-08,18.024438858032227
2010-09-09,18.045434951782227
2010-09-10,18.087417602539062
2010-09-13,18.17837905883789
2010-09-14,18.087417602539062
2010-09-15,18.101411819458008
2010-09-16,18.101411819458008
2010-09-17,18.157386779785156
2010-09-20,18.654178619384766
2010-09-21,18.437271118164062
2010-09-22,18.542221069335938
2010-09-23,18.36729621887207
2010-09-24,19.053010940551758
2010-09-27,18.843095779418945
2010-09-28,19.011030197143555
2010-09-29,19.067007064819336
2010-09-30,19.23493766784668
2010-10-01,19.073997497558594
2010-10-04,19.0460205078125
2010-10-05,19.304906845092773
2010-10-06,19.241926193237305
2010-10-07,19.29790687561035
2010-10-08,19.22793197631836
2010-10-11,19.171964645385742
2010-10-12,19.087997436523438
2010-10-13,19.332897186279297
2010-10-14,19.31190299987793
2010-10-15,19.318899154663086
2010-10-18,19.332897186279297
2010-10-19,19.16496467590332
2010-10-20,19.423856735229492
2010-10-21,19.53580665588379
2010-10-22,19.59178352355957
2010-10-25,19.619773864746094
2010-10-26,19.640764236450195
2010-10-27,19.45184898376465
2010-10-28,19.60043716430664
2010-10-29,19.628742218017578
2010-11-01,19.59336280822754
2010-11-02,19.82686996459961
2010-11-03,19.904705047607422
2010-11-04,20.003768920898438
2010-11-05,19.954233169555664
2010-11-08,19.720733642578125
2010-11-09,19.64997100830078
2010-11-10,19.635818481445312
2010-11-11,19.64997100830078
2010-11-12,19.635818481445312
2010-11-15,19.82686996459961
2010-11-16,19.529682159423828
2010-11-17,19.678272247314453
2010-11-18,19.933013916015625
2010-11-19,20.07452964782715
2010-11-22,20.15943717956543
2010-11-23,19.954233169555664
2010-11-24,20.38587188720703
2010-11-26,20.27972984313965
2010-11-29,20.30803108215332
2010-11-30,20.19481658935547
2010-12-01,20.739667892456055
2010-12-02,20.94487190246582
2010-12-03,21.001483917236328
2010-12-06,20.859960556030273
2010-12-07,21.319896697998047
2010-12-08,21.58878517150879
2010-12-09,21.242063522338867
2010-12-10,21.475568771362305
2010-12-13,21.581707000732422
2010-12-14,21.617084503173828
2010-12-15,21.418970108032227
2010-12-16,21.779836654663086
2010-12-17,21.949663162231445
2010-12-20,21.70907974243164
2010-12-21,21.702003479003906
2010-12-22,21.97088623046875
2010-12-23,21.80106544494629
2010-12-27,21.73030662536621
2010-12-28,21.808137893676758
2010-12-29,21.864748001098633
2010-12-30,21.914281845092773
2010-12-31,21.871822357177734
2011-01-03,22.211471557617188
2011-01-04,21.758607864379883
2011-01-05,22.317615509033203
2011-01-06,22.558189392089844
2011-01-07,22.551115036010742
2011-01-10,22.643104553222656
2011-01-11,22.628952026367188
2011-01-12,22.834156036376953
2011-01-13,22.706790924072266
2011-01-14,22.862459182739258
2011-01-18,23.06766128540039
2011-01-19,22.919069290161133
2011-01-20,22.94737434387207
2011-01-21,23.06766128540039
2011-01-24,23.44269371032715
2011-01-25,23.364858627319336
2011-01-26,23.21626091003418
2011-01-27,23.081811904907227
2011-01-28,22.638898849487305
2011-01-31,22.8603515625
2011-02-01,23.389007568359375
2011-02-02,23.489015579223633
2011-02-03,23.58188247680664
2011-02-04,23.760480880737305
2011-02-07,23.78191566467285
2011-02-08,23.86764144897461
2011-02-09,23.574739456176758
2011-02-10,23.789058685302734
2011-02-11,23.81049156188965
2011-02-14,23.696184158325195
2011-02-15,23.674760818481445
2011-02-16,23.646181106567383
2011-02-17,23.896215438842773
2011-02-18,24.003374099731445
2011-02-22,23.524738311767578
2011-02-23,23.210407257080078
2011-02-24,23.24612808227539
2011-02-25,23.6247501373291
2011-02-28,24.02480125427246
2011-03-01,23.474727630615234
2011-03-02,23.567604064941406
2011-03-03,23.896215438842773
2011-03-04,23.789058685302734
2011-03-07,23.61046028137207
2011-03-08,24.05337905883789
2011-03-09,24.11767578125
2011-03-10,23.910507202148438
2011-03-11,23.724756240844727
2011-03-14,23.567604064941406
2011-03-15,22.874645233154297
2011-03-16,22.52459716796875
2011-03-17,22.503164291381836
2011-03-18,22.574602127075195
2011-03-21,22.981800079345703
2011-03-22,22.81035041809082
2011-03-23,23.031808853149414
2011-03-24,22.11739158630371
2011-03-25,22.160261154174805
2011-03-28,22.09596824645996
2011-03-29,22.260271072387695
2011-03-30,22.367429733276367
2011-03-31,22.42458152770996
2011-04-01,22.738908767700195
2011-04-04,22.910362243652344
2011-04-05,22.83892250061035
2011-04-06,22.946088790893555
2011-04-07,23.003232955932617
2011-04-08,22.831775665283203
2011-04-11,23.07467269897461
2011-04-12,23.053239822387695
2011-04-13,23.110395431518555
2011-04-14,23.146106719970703
2011-04-15,23.13896942138672
2011-04-18,22.831775665283203
2011-04-19,22.803205490112305
2011-04-20,23.3389949798584
2011-04-21,23.303272247314453
2011-04-25,23.34613609313965
2011-04-26,23.639041900634766
2011-04-27,23.931936264038086
2011-04-28,23.78772735595703
2011-04-29,23.585826873779297
2011-05-02,23.693988800048828
2011-05-03,23.78050994873047
2011-05-04,23.600248336791992
2011-05-05,23.189241409301758
2011-05-06,23.066667556762695
2011-05-09,23.275772094726562
2011-05-10,23.506513595581055
2011-05-11,23.52092933654785
2011-05-12,23.63630485534668
2011-05-13,23.376720428466797
2011-05-16,22.915237426757812
2011-05-17,23.008981704711914
2011-05-18,23.008981704711914
2011-05-19,23.030616760253906
2011-05-20,23.008981704711914
2011-05-23,22.742191314697266
2011-05-24,22.79987907409668
2011-05-25,22.857563018798828
2011-05-26,23.008981704711914
2011-05-27,23.030616760253906
2011-05-31,23.290193557739258
2011-06-01,22.75660514831543
2011-06-02,22.518667221069336
2011-06-03,22.021129608154297
2011-06-06,21.87691879272461
2011-06-07,21.927391052246094
2011-06-08,21.884130477905273
2011-06-09,21.7976016998291
2011-06-10,21.422653198242188
2011-06-13,21.53801918029785
2011-06-14,21.7976016998291
2011-06-15,21.083755493164062
2011-06-16,21.285654067993164
2011-06-17,21.364967346191406
2011-06-20,21.39380645751953
2011-06-21,21.61012840270996
2011-06-22,21.422653198242188
2011-06-23,22.042762756347656
2011-06-24,21.624549865722656
2011-06-27,21.718286514282227
2011-06-28,21.884130477905273
2011-06-29,21.86249542236328
2011-06-30,22.150924682617188
2011-07-01,22.388872146606445
2011-07-05,22.323972702026367
2011-07-06,22.597978591918945
2011-07-07,22.807083129882812
2011-07-08,22.590768814086914
2011-07-11,22.323972702026367
2011-07-12,22.287921905517578
2011-07-13,22.136503219604492
2011-07-14,21.99949836730957
2011-07-15,21.68222427368164
2011-07-18,21.199119567871094
2011-07-19,21.451496124267578
2011-07-20,21.285654067993164
2011-07-21,21.53801918029785
2011-07-22,21.552444458007812
2011-07-25,21.480337142944336
2011-07-26,21.292863845825195
2011-07-27,20.759275436401367
2011-07-28,20.649944305419922
2011-07-29,20.57705307006836
2011-08-01,20.336509704589844
2011-08-02,19.498271942138672
2011-08-03,19.950197219848633
2011-08-04,19.469112396240234
2011-08-05,19.746095657348633
2011-08-08,18.75478172302246
2011-08-09,19.490985870361328
2011-08-10,18.59442138671875
2011-08-11,19.301464080810547
2011-08-12,19.432666778564453
2011-08-15,19.848142623901367
2011-08-16,19.702362060546875
2011-08-17,19.563867568969727
2011-08-18,18.791231155395508
2011-08-19,18.47779655456543
2011-08-22,18.41948699951172
2011-08-23,18.915143966674805
2011-08-24,19.18484115600586
2011-08-25,18.864120483398438
2011-08-26,19.119234085083008
2011-08-29,19.29417610168457
2011-08-30,19.5711612701416
2011-08-31,19.665918350219727
2011-09-01,19.505556106567383
2011-09-02,19.002609252929688
2011-09-06,18.783939361572266
2011-09-07,19.5711612701416
2011-09-08,19.410802841186523
2011-09-09,18.900564193725586
2011-09-12,19.090078353881836
2011-09-13,19.148395538330078
2011-09-14,19.250436782836914
2011-09-15,19.818986892700195
2011-09-16,19.738800048828125
2011-09-19,19.83356475830078
2011-09-20,19.797122955322266
2011-09-21,19.228574752807617
2011-09-22,18.87870216369629
2011-09-23,19.111942291259766
2011-09-26,19.374351501464844
2011-09-27,19.454530715942383
2011-09-28,19.6221866607666
2011-09-29,19.76067352294922
2011-09-30,19.221288681030273
2011-10-03,18.623579025268555
2011-10-04,18.87870216369629
2011-10-05,19.126522064208984
2011-10-06,19.512849807739258
2011-10-07,19.76067352294922
2011-10-10,20.227169036865234
2011-10-11,20.300065994262695
2011-10-12,20.620786666870117
2011-10-13,20.584339141845703
2011-10-14,20.77385139465332
2011-10-17,20.45313835144043
2011-10-18,20.817588806152344
2011-10-19,20.489582061767578
2011-10-20,20.613500595092773
2011-10-21,20.977949142456055
2011-10-24,21.269514083862305
2011-10-25,20.854032516479492
2011-10-26,21.072702407836914
2011-10-27,21.80890464782715
2011-10-28,21.6320743560791
2011-10-31,21.469980239868164
2011-11-01,20.961597442626953
2011-11-02,21.145797729492188
2011-11-03,21.77943229675293
2011-11-04,21.668912887573242
2011-11-07,21.7352237701416
2011-11-08,21.794166564941406
2011-11-09,21.079486846923828
2011-11-10,21.197370529174805
2011-11-11,21.661544799804688
2011-11-14,21.455244064331055
2011-11-15,21.661544799804688
2011-11-16,21.167896270751953
2011-11-17,20.865819931030273
2011-11-18,20.79213523864746
2011-11-21,20.548999786376953
2011-11-22,20.44584846496582
2011-11-23,20.06271743774414
2011-11-25,20.136394500732422
2011-11-28,20.5416316986084
2011-11-29,20.68161964416504
2011-11-30,21.447877883911133
2011-12-01,21.49208641052246
2011-12-02,21.528928756713867
2011-12-05,21.882585525512695
2011-12-06,21.882585525512695
2011-12-07,21.831008911132812
2011-12-08,21.668912887573242
2011-12-09,22.147825241088867
2011-12-12,21.926786422729492
2011-12-13,21.7352237701416
2011-12-14,21.55838966369629
2011-12-15,21.624704360961914
2011-12-16,21.801532745361328
2011-12-19,21.808902740478516
2011-12-20,22.28045082092285
2011-12-21,21.705751419067383
2011-12-22,21.720487594604492
2011-12-23,21.993104934692383
2011-12-27,22.155195236206055
2011-12-28,22.02256965637207
2011-12-29,22.236242294311523
2011-12-30,22.18466567993164
2012-01-03,22.420434951782227
2012-01-04,22.2730770111084
2012-01-05,22.66357421875
2012-01-06,22.685680389404297
2012-01-09,22.93619155883789
2012-01-10,22.914085388183594
2012-01-11,22.928821563720703
2012-01-12,22.928821563720703
2012-01-13,22.833038330078125
2012-01-17,22.98776626586914
2012-01-18,23.334054946899414
2012-01-19,23.82033348083496
2012-01-20,23.805599212646484
2012-01-23,23.761390686035156
2012-01-24,23.827699661254883
2012-01-25,23.91611671447754
2012-01-26,23.989795684814453
2012-01-27,23.717180252075195
2012-01-30,23.493927001953125
2012-01-31,23.44927215576172
2012-02-01,23.672527313232422
2012-02-02,23.516254425048828
2012-02-03,23.776721954345703
2012-02-06,23.61299705505371
2012-02-07,23.590669631958008
2012-02-08,23.5534610748291
2012-02-09,23.575786590576172
2012-02-10,23.30043601989746
2012-02-13,23.30043601989746
2012-02-14,23.23345947265625
2012-02-15,23.20369529724121
2012-02-16,23.516254425048828
2012-02-17,23.42695426940918
2012-02-21,23.30043601989746
2012-02-22,23.270671844482422
2012-02-23,23.307880401611328
2012-02-24,23.382299423217773
2012-02-27,23.24090576171875
2012-02-28,23.382299423217773
2012-02-29,23.29299545288086
2012-03-01,23.508813858032227
2012-03-02,23.29299545288086
2012-03-05,23.38974380493164
2012-03-06,23.092065811157227
2012-03-07,23.159046173095703
2012-03-08,23.29299545288086
2012-03-09,23.43438720703125
2012-03-12,23.479045867919922
2012-03-13,23.73206329345703
2012-03-14,23.627880096435547
2012-03-15,23.64276695251465
2012-03-16,23.687414169311523
2012-03-19,23.717182159423828
2012-03-20,23.679977416992188
2012-03-21,23.776721954345703
2012-03-22,23.799043655395508
2012-03-23,23.620441436767578
2012-03-26,23.910675048828125
2012-03-27,23.888341903686523
2012-03-28,23.799043655395508
2012-03-29,23.3302059173584
2012-03-30,23.062299728393555
2012-04-02,23.635326385498047
2012-04-03,23.82880973815918
2012-04-04,23.45671844482422
2012-04-05,23.479045867919922
2012-04-09,23.106948852539062
2012-04-10,22.794391632080078
2012-04-11,23.03997039794922
2012-04-12,23.22601890563965
2012-04-13,22.94322967529297
2012-04-16,23.025089263916016
2012-04-17,23.20369529724121
2012-04-18,23.04741859436035
2012-04-19,22.898576736450195
2012-04-20,22.89113426208496
2012-04-23,22.757183074951172
2012-04-24,22.690204620361328
2012-04-25,22.995328903198242
2012-04-26,23.151601791381836
2012-04-27,23.17392921447754
2012-04-30,23.054859161376953
2012-05-01,22.995328903198242
2012-05-02,22.876249313354492
2012-05-03,22.794391632080078
2012-05-04,22.5010986328125
2012-05-07,22.41837501525879
2012-05-08,22.628944396972656
2012-05-09,22.493576049804688
2012-05-10,22.45597267150879
2012-05-11,22.493576049804688
2012-05-14,22.478530883789062
2012-05-15,22.606380462646484
2012-05-16,22.756790161132812
2012-05-17,22.493576049804688
2012-05-18,22.1175537109375
2012-05-21,22.388288497924805
2012-05-22,22.48605728149414
2012-05-23,22.704147338867188
2012-05-24,22.877117156982422
2012-05-25,22.77935028076172
2012-05-29,22.884639739990234
2012-05-30,22.63646125793457
2012-05-31,22.538698196411133
2012-06-01,22.019792556762695
2012-06-04,22.094995498657227
2012-06-05,22.19275665283203
2012-06-06,22.839513778686523
2012-06-07,23.057607650756836
2012-06-08,23.32082176208496
2012-06-11,23.177936553955078
2012-06-12,23.36594581604004
2012-06-13,23.358423233032227
2012-06-14,23.85477066040039
2012-06-15,24.08790397644043
2012-06-18,24.313520431518555
2012-06-19,24.501529693603516
2012-06-20,24.463926315307617
2012-06-21,24.148069381713867
2012-06-22,24.260875701904297
2012-06-25,23.86229133605957
2012-06-26,23.88486099243164
2012-06-27,24.01270294189453
2012-06-28,23.29825782775879
2012-06-29,23.62163734436035
2012-07-02,23.599077224731445
2012-07-03,23.614116668701172
2012-07-05,23.869813919067383
2012-07-06,23.42610740661621
2012-07-09,23.644203186035156
2012-07-10,23.561479568481445
2012-07-11,23.8021297454834
2012-07-12,23.689327239990234
2012-07-13,23.967578887939453
2012-07-16,24.08790397644043
2012-07-17,24.433847427368164
2012-07-18,24.96027183532715
2012-07-19,24.614337921142578
2012-07-20,24.388723373413086
2012-07-23,24.193185806274414
2012-07-24,24.050302505493164
2012-07-25,24.057823181152344
2012-07-26,24.47144317626953
2012-07-27,24.877548217773438
2012-07-30,24.968671798706055
2012-07-31,24.824390411376953
2012-08-01,24.588991165161133
2012-08-02,24.345979690551758
2012-08-03,24.763643264770508
2012-08-06,24.626951217651367
2012-08-07,24.725677490234375
2012-08-08,24.999052047729492
2012-08-09,24.999052047729492
2012-08-10,25.196496963500977
2012-08-13,25.166118621826172
2012-08-14,25.037017822265625
2012-08-15,24.938295364379883
2012-08-16,25.27243423461914
2012-08-17,25.24205780029297
2012-08-20,24.885143280029297
2012-08-21,24.983869552612305
2012-08-22,24.953489303588867
2012-08-23,25.044612884521484
2012-08-24,25.204082489013672
2012-08-27,25.234460830688477
2012-08-28,25.234460830688477
2012-08-29,25.24205780029297
2012-08-30,25.21168327331543
2012-08-31,25.25724220275879
2012-09-04,25.416717529296875
2012-09-05,25.439496994018555
2012-09-06,25.986251831054688
2012-09-07,25.986251831054688
2012-09-10,25.917909622192383
2012-09-11,25.902719497680664
2012-09-12,25.60655975341797
2012-09-13,25.925506591796875
2012-09-14,26.16851043701172
2012-09-17,26.00144386291504
2012-09-18,26.047008514404297
2012-09-19,26.183700561523438
2012-09-20,26.176103591918945
2012-09-21,26.236854553222656
2012-09-24,26.107759475708008
2012-09-25,25.371152877807617
2012-09-26,25.18889617919922
2012-09-27,25.21168327331543
2012-09-28,25.2800235748291
2012-10-01,24.839576721191406
2012-10-02,25.06739616394043
2012-10-03,25.26483917236328
2012-10-04,25.34077262878418
2012-10-05,25.492652893066406
2012-10-08,25.32558250427246
2012-10-09,25.037017822265625
2012-10-10,24.877546310424805
2012-10-11,24.831985473632812
2012-10-12,24.778831481933594
2012-10-15,24.938295364379883
2012-10-16,25.037017822265625
2012-10-17,25.112960815429688
2012-10-18,25.029428482055664
2012-10-19,24.71807861328125
2012-10-22,24.78642463684082
2012-10-23,24.877546310424805
2012-10-24,24.885143280029297
2012-10-25,24.9155216217041
2012-10-26,25.006649017333984
2012-10-31,24.86857032775879
2012-11-01,25.543596267700195
2012-11-02,25.267446517944336
2012-11-05,25.121707916259766
2012-11-06,25.328819274902344
2012-11-07,25.044998168945312
2012-11-08,24.715158462524414
2012-11-09,24.669132232666016
2012-11-12,24.715158462524414
2012-11-13,24.638450622558594
2012-11-14,24.201217651367188
2012-11-15,24.216562271118164
2012-11-16,24.34696388244629
2012-11-19,24.492704391479492
2012-11-20,24.55406951904297
2012-11-21,24.646127700805664
2012-11-23,24.883909225463867
2012-11-26,24.730491638183594
2012-11-27,24.607770919799805
2012-11-28,24.730491638183594
2012-11-29,24.883909225463867
2012-11-30,24.960617065429688
2012-12-03,24.91459846496582
2012-12-04,25.152389526367188
2012-12-05,25.290462493896484
2012-12-06,25.413196563720703
2012-12-07,25.45921516418457
2012-12-10,25.512916564941406
2012-12-11,26.00384521484375
2012-12-12,25.94247817993164
2012-12-13,25.858097076416016
2012-12-14,25.858097076416016
2012-12-17,26.019180297851562
2012-12-18,25.94095802307129
2012-12-19,25.854902267456055
2012-12-20,25.33858871459961
2012-12-21,24.564109802246094
2012-12-24,24.642345428466797
2012-12-26,24.36853790283203
2012-12-27,24.33725357055664
2012-12-28,24.157318115234375
2012-12-31,24.329425811767578
2013-01-02,24.916149139404297
2013-01-03,24.955265045166016
2013-01-04,25.166481018066406
2013-01-07,25.049135208129883
2013-01-08,24.994375228881836
2013-01-09,25.002201080322266
2013-01-10,24.916149139404297
2013-01-11,24.861385345458984
2013-01-14,25.244712829589844
2013-01-15,25.0960750579834
2013-01-16,24.994375228881836
2013-01-17,25.049135208129883
2013-01-18,25.330768585205078
2013-01-22,25.401172637939453
2013-01-23,25.252534866333008
2013-01-24,24.83009910583496
2013-01-25,24.908321380615234
2013-01-28,24.994375228881836
2013-01-29,25.487224578857422
2013-01-30,25.252534866333008
2013-01-31,25.54198455810547
2013-02-01,25.70627212524414
2013-02-04,25.588918685913086
2013-02-05,26.089588165283203
2013-02-06,26.027008056640625
2013-02-07,25.987892150878906
2013-02-08,26.066125869750977
2013-02-11,26.066125869750977
2013-02-12,26.159996032714844
2013-02-13,26.23040771484375
2013-02-14,26.379043579101562
2013-02-15,26.574613571166992
2013-02-19,26.5433292388916
2013-02-20,26.3712158203125
2013-02-21,25.8236083984375
2013-02-22,25.9096622467041
2013-02-25,25.8236083984375
2013-02-26,25.80797004699707
2013-02-27,25.948772430419922
2013-02-28,25.901840209960938
2013-03-01,26.089588165283203
2013-03-04,26.222583770751953
2013-03-05,26.551143646240234
2013-03-06,26.42597770690918
2013-03-07,26.6450252532959
2013-03-08,26.590267181396484
2013-03-11,26.558979034423828
2013-03-12,26.51203727722168
2013-03-13,26.69196128845215
2013-03-14,26.793659210205078
2013-03-15,26.590267181396484
2013-03-18,26.433807373046875
2013-03-19,26.527681350708008
2013-03-20,26.90318489074707
2013-03-21,26.72325897216797
2013-03-22,26.942293167114258
2013-03-25,26.87188720703125
2013-03-26,27.25521469116211
2013-03-27,27.192628860473633
2013-03-28,27.427322387695312
2013-04-01,27.63854217529297
2013-04-02,28.06097984313965
2013-04-03,27.740232467651367
2013-04-04,27.857585906982422
2013-04-05,27.294326782226562
2013-04-08,27.427322387695312
2013-04-09,27.552490234375
2013-04-10,28.006223678588867
2013-04-11,28.23308753967285
2013-04-12,28.272199630737305
2013-04-15,27.646366119384766
2013-04-16,27.896692276000977
2013-04-17,27.87322998046875
2013-04-18,27.63854217529297
2013-04-19,27.693300247192383
2013-04-22,27.81846809387207
2013-04-23,28.201791763305664
2013-04-24,28.193967819213867
2013-04-25,28.381723403930664
2013-04-26,28.06097984313965
2013-04-29,28.264379501342773
2013-04-30,28.48342514038086
2013-05-01,28.397363662719727
2013-05-02,28.866744995117188
2013-05-03,29.23443031311035
2013-05-06,29.031030654907227
2013-05-07,29.007568359375
2013-05-08,29.085784912109375
2013-05-09,29.27354621887207
2013-05-10,29.52387809753418
2013-05-13,29.359586715698242
2013-05-14,29.88373374938965
2013-05-15,30.235763549804688
2013-05-16,29.680330276489258
2013-05-17,30.13406753540039
2013-05-20,29.868080139160156
2013-05-21,29.88373374938965
2013-05-22,29.71162986755371
2013-05-23,29.688161849975586
2013-05-24,29.61774253845215
2013-05-28,29.9306697845459
2013-05-29,29.59428596496582
2013-05-30,29.539520263671875
2013-05-31,29.12490463256836
2013-06-03,29.242246627807617
2013-06-04,29.02320098876953
2013-06-05,28.678991317749023
2013-06-06,28.725929260253906
2013-06-07,29.062320709228516
2013-06-10,29.007568359375
2013-06-11,28.741580963134766
2013-06-12,28.60076332092285
2013-06-13,29.031030654907227
2013-06-14,29.05449104309082
2013-06-17,29.602108001708984
2013-06-18,29.570812225341797
2013-06-19,29.22659683227539
2013-06-20,28.741580963134766
2013-06-21,29.07796287536621
2013-06-24,29.132728576660156
2013-06-25,29.437824249267578
2013-06-26,29.719444274902344
2013-06-27,28.632055282592773
2013-06-28,28.5616512298584
2013-07-01,28.678991317749023
2013-07-02,28.898038864135742
2013-07-03,29.070146560668945
2013-07-05,29.42217445373535
2013-07-08,29.75856590270996
2013-07-09,29.844621658325195
2013-07-10,30.10277557373047
2013-07-11,30.42350959777832
2013-07-12,30.822484970092773
2013-07-15,30.525217056274414
2013-07-16,30.55651092529297
2013-07-17,30.666030883789062
2013-07-18,30.79120635986328
2013-07-19,30.783369064331055
2013-07-22,30.822484970092773
2013-07-23,30.666030883789062
2013-07-24,30.68167495727539
2013-07-25,30.69731903076172
2013-07-26,30.72079086303711
2013-07-29,30.72079086303711
2013-07-30,30.689218521118164
2013-07-31,31.131240844726562
2013-08-01,31.920570373535156
2013-08-02,32.18104553222656
2013-08-05,31.97581672668457
2013-08-06,31.983718872070312
2013-08-07,31.833749771118164
2013-08-08,31.770601272583008
2013-08-09,31.888994216918945
2013-08-12,31.8574275970459
2013-08-13,31.817949295043945
2013-08-14,31.589052200317383
2013-08-15,31.210172653198242
2013-08-16,31.036521911621094
2013-08-19,31.06810188293457
2013-08-20,31.210172653198242
2013-08-21,30.926010131835938
2013-08-22,31.139135360717773
2013-08-23,31.02861785888672
2013-08-26,30.886550903320312
2013-08-27,30.365589141845703
2013-08-28,30.420846939086914
2013-08-29,30.460311889648438
2013-08-30,30.531347274780273
2013-09-03,30.44451904296875
2013-09-04,30.657644271850586
2013-09-05,30.74446678161621
2013-09-06,30.918123245239258
2013-09-09,31.210172653198242
2013-09-10,31.56538200378418
2013-09-11,31.960052490234375
2013-09-12,31.794282913208008
2013-09-13,31.833749771118164
2013-09-16,32.08633041381836
2013-09-17,32.14158630371094
2013-09-18,32.29945755004883
2013-09-19,32.449424743652344
2013-09-20,32.35470962524414
2013-09-23,32.10211944580078
2013-09-24,32.133689880371094
2013-09-25,32.03896713256836
2013-09-26,32.204715728759766
2013-09-27,31.849533081054688
2013-09-30,32.078433990478516
2013-10-01,31.557483673095703
2013-10-02,31.525903701782227
2013-10-03,31.194387435913086
2013-10-04,31.218063354492188
2013-10-07,31.304885864257812
2013-10-08,31.225963592529297
2013-10-09,31.11545181274414
2013-10-10,31.723241806030273
2013-10-11,32.15736770629883
2013-10-14,32.283668518066406
2013-10-15,32.14158630371094
2013-10-16,32.496795654296875
2013-10-17,32.67833709716797
2013-10-18,32.85987854003906
2013-10-21,33.35716247558594
2013-10-22,33.72025680541992
2013-10-23,33.67288589477539
2013-10-24,33.82285690307617
2013-10-25,33.94126510620117
2013-10-28,34.154388427734375
2013-10-29,34.154388427734375
2013-10-30,33.661006927490234
2013-10-31,33.63713073730469
2013-11-01,33.414310455322266
2013-11-04,33.422271728515625
2013-11-05,33.35066223144531
2013-11-06,33.35066223144531
2013-11-07,33.25516128540039
2013-11-08,33.589393615722656
2013-11-11,33.446144104003906
2013-11-12,33.58142852783203
2013-11-13,34.03501510620117
2013-11-14,34.31353759765625
2013-11-15,34.48064422607422
2013-11-18,34.56023025512695
2013-11-19,34.68754577636719
2013-11-20,34.4647331237793
2013-11-21,34.71937561035156
2013-11-22,34.61592102050781
2013-11-25,34.61592102050781
2013-11-26,34.80691146850586
2013-11-27,34.81487274169922
2013-11-29,34.798946380615234
2013-12-02,34.68754577636719
2013-12-03,34.798946380615234
2013-12-04,34.600006103515625
2013-12-05,33.96339416503906
2013-12-06,34.51247787475586
2013-12-09,34.60797119140625
2013-12-10,34.52043151855469
2013-12-11,34.21805191040039
2013-12-12,34.22599792480469
2013-12-13,33.923614501953125
2013-12-16,34.35332489013672
2013-12-17,34.13847351074219
2013-12-18,34.47270202636719
2013-12-19,35.730003356933594
2013-12-20,35.92894744873047
2013-12-23,36.19154739379883
2013-12-24,36.151763916015625
2013-12-26,36.318870544433594
2013-12-27,36.271121978759766
2013-12-30,36.34274673461914
2013-12-31,36.23133850097656
2014-01-02,35.857330322265625
2014-01-03,35.98464584350586
2014-01-06,35.67430114746094
2014-01-07,35.88119888305664
2014-01-08,35.61859893798828
2014-01-09,35.435569763183594
2014-01-10,35.30824661254883
2014-01-13,34.679588317871094
2014-01-14,34.82282638549805
2014-01-15,34.72733688354492
2014-01-16,34.97401428222656
2014-01-17,35.0933837890625
2014-01-21,34.838741302490234
2014-01-22,34.78304672241211
2014-01-23,34.44881820678711
2014-01-24,33.48593521118164
2014-01-27,33.326786041259766
2014-01-28,33.653053283691406
2014-01-29,33.43818664550781
2014-01-30,33.92768859863281
2014-01-31,33.558555603027344
2014-02-03,32.4190788269043
2014-02-04,32.764137268066406
2014-02-05,32.691898345947266
2014-02-06,32.908565521240234
2014-02-07,32.820308685302734
2014-02-10,32.68388748168945
2014-02-11,33.03696823120117
2014-02-12,33.27770233154297
2014-02-13,33.33386993408203
2014-02-14,33.37398910522461
2014-02-18,33.31781768798828
2014-02-19,33.30979537963867
2014-02-20,33.117218017578125
2014-02-21,33.18140411376953
2014-02-24,33.32584762573242
2014-02-25,33.117218017578125
2014-02-26,33.41411209106445
2014-02-27,33.341896057128906
2014-02-28,33.510406494140625
2014-03-03,33.04498291015625
2014-03-04,33.9758415222168
2014-03-05,33.735103607177734
2014-03-06,33.71904754638672
2014-03-07,34.216556549072266
2014-03-10,34.048057556152344
2014-03-11,33.95175552368164
2014-03-12,34.023983001708984
2014-03-13,33.45423126220703
2014-03-14,33.558555603027344
2014-03-17,33.895591735839844
2014-03-18,34.248661041259766
2014-03-19,34.160396575927734
2014-03-20,34.44125747680664
2014-03-21,34.37706756591797
2014-03-24,33.983863830566406
2014-03-25,34.08015441894531
2014-03-26,33.6388053894043
2014-03-27,34.12028503417969
2014-03-28,34.15237808227539
2014-03-31,34.18447494506836
2014-04-01,34.10423278808594
2014-04-02,34.352989196777344
2014-04-03,34.3449592590332
2014-04-04,33.27770233154297
2014-04-07,33.17337417602539
2014-04-08,33.14127731323242
2014-04-09,33.09314727783203
2014-04-10,32.603641510009766
2014-04-11,32.03390121459961
2014-04-14,32.33883285522461
2014-04-15,32.64376449584961
2014-04-16,32.80426025390625
2014-04-17,32.84437942504883
2014-04-21,32.772159576416016
2014-04-22,32.89252471923828
2014-04-23,32.80426025390625
2014-04-24,32.83635711669922
2014-04-25,32.41105651855469
2014-04-28,32.64376449584961
2014-04-29,32.812286376953125
2014-04-30,33.550537109375
2014-05-01,33.22956085205078
2014-05-02,33.221534729003906
2014-05-05,33.29375076293945
2014-05-06,32.740055084228516
2014-05-07,32.45919418334961
2014-05-08,33.00153350830078
2014-05-09,33.09866714477539
2014-05-12,33.43864822387695
2014-05-13,33.47102737426758
2014-05-14,33.09059143066406
2014-05-15,32.718231201171875
2014-05-16,33.06629943847656
2014-05-19,33.23627853393555
2014-05-20,33.01772689819336
2014-05-21,32.7991828918457
2014-05-22,32.71012878417969
2014-05-23,33.04200744628906
2014-05-27,33.28483581542969
2014-05-28,33.24436950683594
2014-05-29,33.54386901855469
2014-05-30,33.276756286621094
2014-06-02,33.09059143066406
2014-06-03,32.74251174926758
2014-06-04,33.050113677978516
2014-06-05,33.276756286621094
2014-06-06,33.34960174560547
2014-06-09,33.47102737426758
2014-06-10,33.29294204711914
2014-06-11,33.163421630859375
2014-06-12,33.04200744628906
2014-06-13,33.2686653137207
2014-06-16,33.228179931640625
2014-06-17,33.35771179199219
2014-06-18,33.51958465576172
2014-06-19,33.36579132080078
2014-06-20,33.70575714111328
2014-06-23,33.657196044921875
2014-06-24,33.551979064941406
2014-06-25,33.50340270996094
2014-06-26,33.398170471191406
2014-06-27,33.35771179199219
2014-06-30,33.6410026550293
2014-07-01,34.1024055480957
2014-07-02,33.30913162231445
2014-07-03,33.63291931152344
2014-07-07,33.53577423095703
2014-07-08,33.883846282958984
2014-07-09,33.754337310791016
2014-07-10,33.932411193847656
2014-07-11,33.932411193847656
2014-07-14,34.126686096191406
2014-07-15,34.27238082885742
2014-07-16,34.14286422729492
2014-07-17,33.6895751953125
2014-07-18,34.086212158203125
2014-07-21,34.013362884521484
2014-07-22,34.150970458984375
2014-07-23,34.04573059082031
2014-07-24,34.45045852661133
2014-07-25,34.30475997924805
2014-07-28,34.183345794677734
2014-07-29,33.891929626464844
2014-07-30,33.88376998901367
2014-07-31,33.499839782714844
2014-08-01,33.50801467895508
2014-08-04,33.37730407714844
2014-08-05,33.09956741333008
2014-08-06,33.22209930419922
2014-08-07,33.04239273071289
2014-08-08,33.7694091796875
2014-08-11,33.973628997802734
2014-08-12,33.82658767700195
2014-08-13,33.95728302001953
2014-08-14,34.0716552734375
2014-08-15,33.94095230102539
2014-08-18,34.38206481933594
2014-08-19,34.44740676879883
2014-08-20,34.18601608276367
2014-08-21,34.38206481933594
2014-08-22,34.25136184692383
2014-08-25,34.235023498535156
2014-08-26,34.292205810546875
2014-08-27,34.27585983276367
2014-08-28,34.12883377075195
2014-08-29,34.02264404296875
2014-09-02,34.22685241699219
2014-09-03,34.49643325805664
2014-09-04,34.586273193359375
2014-09-05,34.57811737060547
2014-09-08,34.69247817993164
2014-09-09,34.341217041015625
2014-09-10,34.37388610839844
2014-09-11,34.33304977416992
2014-09-12,34.28403091430664
2014-09-15,34.39839553833008
2014-09-16,34.22685241699219
2014-09-17,34.75782012939453
2014-09-18,35.10906219482422
2014-09-19,35.092742919921875
2014-09-22,34.70064163208008
2014-09-23,34.64346694946289
2014-09-24,35.84425735473633
2014-09-25,35.68088150024414
2014-09-26,35.942283630371094
2014-09-29,36.130157470703125
2014-09-30,36.105655670166016
2014-10-01,35.517513275146484
2014-10-02,35.37863540649414
2014-10-03,36.20367431640625
2014-10-06,36.49774932861328
2014-10-07,35.84425735473633
2014-10-08,36.22002410888672
2014-10-09,35.80341339111328
2014-10-10,35.460330963134766
2014-10-13,35.354129791259766
2014-10-14,35.56652069091797
2014-10-15,35.166263580322266
2014-10-16,35.198936462402344
2014-10-17,35.53385925292969
2014-10-20,35.73806381225586
2014-10-21,36.49774932861328
2014-10-22,36.52225875854492
2014-10-23,36.76731872558594
2014-10-24,37.159427642822266
2014-10-27,37.38813781738281
2014-10-28,37.57602310180664
2014-10-29,37.57602310180664
2014-10-30,38.0125732421875
2014-10-31,38.66327667236328
2014-11-03,38.76210403442383
2014-11-04,38.91862106323242
2014-11-05,39.346920013427734
2014-11-06,39.182186126708984
2014-11-07,38.984500885009766
2014-11-10,39.12453842163086
2014-11-11,38.94331359863281
2014-11-12,39.116294860839844
2014-11-13,39.066871643066406
2014-11-14,38.902130126953125
2014-11-17,38.902130126953125
2014-11-18,39.116294860839844
2014-11-19,39.009220123291016
2014-11-20,38.984500885009766
2014-11-21,38.97626876831055
2014-11-24,39.066871643066406
2014-11-25,39.03392028808594
2014-11-26,39.000980377197266
2014-11-28,39.05040740966797
2014-12-01,38.95979690551758
2014-12-02,39.05040740966797
2014-12-03,39.02568817138672
2014-12-04,38.984500885009766
2014-12-05,39.04216766357422
2014-12-08,38.80329895019531
2014-12-09,38.473819732666016
2014-12-10,38.3914680480957
2014-12-11,38.60560989379883
2014-12-12,37.97138595581055
2014-12-15,38.3090934753418
2014-12-16,38.24319839477539
2014-12-17,38.860958099365234
2014-12-18,39.3304443359375
2014-12-19,38.1361198425293
2014-12-22,38.73740005493164
2014-12-23,39.017452239990234
2014-12-24,38.76210403442383
2014-12-26,38.86918258666992
2014-12-29,38.753875732421875
2014-12-30,38.59739303588867
2014-12-31,38.02904510498047
2015-01-02,38.086700439453125
2015-01-05,38.15259552001953
2015-01-06,37.88078308105469
2015-01-07,38.57267761230469
2015-01-08,39.17394256591797
2015-01-09,38.827999114990234
2015-01-12,38.77859115600586
2015-01-13,38.77859115600586
2015-01-14,38.827999114990234
2015-01-15,38.77859115600586
2015-01-16,38.95979690551758
2015-01-20,39.15747833251953
2015-01-21,39.000980377197266
2015-01-22,39.503421783447266
2015-01-23,39.849369049072266
2015-01-26,39.68461990356445
2015-01-27,39.26455307006836
2015-01-28,38.61385726928711
2015-01-29,38.51420593261719
2015-01-30,37.584144592285156
2015-02-02,38.16542434692383
2015-02-03,38.954315185546875
2015-02-04,39.087188720703125
2015-02-05,39.435951232910156
2015-02-06,39.6352424621582
2015-02-09,39.394432067871094
2015-02-10,39.80133056640625
2015-02-11,39.9923210144043
2015-02-12,40.199928283691406
2015-02-13,40.49056625366211
2015-02-17,40.49056625366211
2015-02-18,40.656646728515625
2015-02-19,40.8808479309082
2015-02-20,41.1548957824707
2015-02-23,41.12997817993164
2015-02-24,41.49535369873047
2015-02-25,41.45383071899414
2015-02-26,41.47043991088867
2015-02-27,41.387413024902344
2015-03-02,41.85243225097656
2015-03-03,40.963897705078125
2015-03-04,40.51548385620117
2015-03-05,40.839324951171875
2015-03-06,40.64834976196289
2015-03-09,40.92237854003906
2015-03-10,40.68987274169922
2015-03-11,40.68156051635742
2015-03-12,41.73617172241211
2015-03-13,41.45383071899414
2015-03-16,42.358978271484375
2015-03-17,42.358978271484375
2015-03-18,42.59980010986328
2015-03-19,42.54997634887695
2015-03-20,42.86552047729492
2015-03-23,42.566585540771484
2015-03-24,42.59980010986328
2015-03-25,40.855953216552734
2015-03-26,40.69816589355469
2015-03-27,41.146583557128906
2015-03-30,41.52857971191406
2015-03-31,41.20471954345703
2015-04-01,41.10505676269531
2015-04-02,40.8974723815918
2015-04-06,40.864253997802734
2015-04-07,40.806121826171875
2015-04-08,40.97219467163086
2015-04-09,41.01371765136719
2015-04-10,40.92237854003906
2015-04-13,40.73969268798828
2015-04-14,40.60683059692383
2015-04-15,40.67325973510742
2015-04-16,40.723079681396484
2015-04-17,40.09197235107422
2015-04-20,40.67325973510742
2015-04-21,40.73969268798828
2015-04-22,40.92237854003906
2015-04-23,41.121673583984375
2015-04-24,40.8808479309082
2015-04-27,40.92237854003906
2015-04-28,40.91407775878906
2015-04-29,40.557003021240234
2015-04-30,40.183319091796875
2015-05-01,40.5653076171875
2015-05-04,41.01371765136719
2015-05-05,40.76459884643555
2015-05-06,40.68987274169922
2015-05-07,40.84050750732422
2015-05-08,41.11669158935547
2015-05-11,41.066471099853516
2015-05-12,41.016258239746094
2015-05-13,40.9827766418457
2015-05-14,41.78619384765625
2015-05-15,41.66903305053711
2015-05-18,41.945213317871094
2015-05-19,42.1209602355957
2015-05-20,42.07910919189453
2015-05-21,42.0623664855957
2015-05-22,41.72761154174805
2015-05-26,41.2673225402832
2015-05-27,41.61045455932617
2015-05-28,41.493289947509766
2015-05-29,41.351016998291016
2015-06-01,41.351016998291016
2015-06-02,41.141788482666016
2015-06-03,41.00788879394531
2015-06-04,40.33000183105469
2015-06-05,40.530853271484375
2015-06-08,40.2212028503418
2015-06-09,39.91155242919922
2015-06-10,40.254669189453125
2015-06-11,40.38021469116211
2015-06-12,40.17098617553711
2015-06-15,39.74417495727539
2015-06-16,39.92829132080078
2015-06-17,40.003604888916016
2015-06-18,40.37185287475586
2015-06-19,40.254669189453125
2015-06-22,40.83213424682617
2015-06-23,40.84050750732422
2015-06-24,40.29652404785156
2015-06-25,40.363468170166016
2015-06-26,40.16263198852539
2015-06-29,39.166717529296875
2015-06-30,39.233665466308594
2015-07-01,39.59353256225586
2015-07-02,39.878082275390625
2015-07-06,40.313262939453125
2015-07-07,40.17935562133789
2015-07-08,39.601905822753906
2015-07-09,39.69395446777344
2015-07-10,39.98687744140625
2015-07-13,40.49738311767578
2015-07-14,40.313262939453125
2015-07-15,39.97013473510742
2015-07-16,40.09567642211914
2015-07-17,39.710693359375
2015-07-20,39.58516311645508
2015-07-21,39.56005096435547
2015-07-22,39.56005096435547
2015-07-23,39.04118728637695
2015-07-24,38.58924865722656
2015-07-27,38.731529235839844
2015-07-28,39.007713317871094
2015-07-29,39.09138488769531
2015-07-30,39.04072570800781
2015-07-31,39.18429183959961
2015-08-03,40.1301155090332
2015-08-04,40.273677825927734
2015-08-05,40.763484954833984
2015-08-06,40.16389465332031
2015-08-07,40.214569091796875
2015-08-10,40.619911193847656
2015-08-11,40.434139251708984
2015-08-12,40.3750114440918
2015-08-13,40.64525604248047
2015-08-14,40.788818359375
2015-08-17,40.84792709350586
2015-08-18,40.91549301147461
2015-08-19,40.543914794921875
2015-08-20,39.944332122802734
2015-08-21,38.5847053527832
2015-08-24,37.149078369140625
2015-08-25,36.24546813964844
2015-08-26,37.681095123291016
2015-08-27,38.21312713623047
2015-08-28,37.95977783203125
2015-08-31,37.71488571166992
2015-09-01,36.70148849487305
2015-09-02,37.57132339477539
2015-09-03,37.7486572265625
2015-09-04,37.41931915283203
2015-09-08,38.4918098449707
2015-09-09,38.289127349853516
2015-09-10,38.25535583496094
2015-09-11,38.601585388183594
2015-09-14,38.26380157470703
2015-09-15,38.82115936279297
2015-09-16,39.08294677734375
2015-09-17,39.42918395996094
2015-09-18,39.2940673828125
2015-09-21,39.395416259765625
2015-09-22,38.871826171875
2015-09-23,39.17584228515625
2015-09-24,39.13361358642578
2015-09-25,39.42918395996094
2015-09-28,38.64381408691406
2015-09-29,38.85493087768555
2015-09-30,40.22301483154297
2015-10-01,40.6536979675293
2015-10-02,40.34123992919922
2015-10-05,41.10972213745117
2015-10-06,40.98304748535156
2015-10-07,41.77687072753906
2015-10-08,42.19066619873047
2015-10-09,42.275123596191406
2015-10-12,42.486236572265625
2015-10-13,42.03865432739258
2015-10-14,41.83597946166992
2015-10-15,42.11466979980469
2015-10-16,42.41868591308594
2015-10-19,42.612918853759766
2015-10-20,42.57068634033203
2015-10-21,42.486236572265625
2015-10-22,43.57563018798828
2015-10-23,43.736087799072266
2015-10-26,44.04010009765625
2015-10-27,43.98943328857422
2015-10-28,44.11610794067383
2015-10-29,44.065025329589844
2015-10-30,43.91178894042969
2015-11-02,44.192718505859375
2015-11-03,44.04800033569336
2015-11-04,44.11611557006836
2015-11-05,44.72906494140625
2015-11-06,44.950416564941406
2015-11-09,44.890811920166016
2015-11-10,45.21432113647461
2015-11-11,45.265403747558594
2015-11-12,44.992977142333984
2015-11-13,44.57582092285156
2015-11-16,45.42715072631836
2015-11-17,45.401615142822266
2015-11-18,45.912418365478516
2015-11-19,46.01457977294922
2015-11-20,46.346595764160156
2015-11-23,46.235923767089844
2015-11-24,46.12525939941406
2015-11-25,46.31254577636719
2015-11-27,46.02309799194336
2015-11-30,46.184852600097656
2015-12-01,46.09971237182617
2015-12-02,45.89539337158203
2015-12-03,44.822715759277344
2015-12-04,45.725120544433594
2015-12-07,45.55485916137695
2015-12-08,45.529319763183594
2015-12-09,45.112159729003906
2015-12-10,45.21432113647461
2015-12-11,44.482173919677734
2015-12-14,44.933387756347656
2015-12-15,45.188785552978516
2015-12-16,46.02309799194336
2015-12-17,45.41864013671875
2015-12-18,44.65245056152344
2015-12-21,44.7801399230957
2015-12-22,44.87379455566406
2015-12-23,45.92945098876953
2015-12-24,45.81877136230469
2015-12-28,45.79323196411133
2015-12-29,46.19335174560547
2015-12-30,45.78472137451172
2015-12-31,45.02703094482422
2016-01-04,43.886253356933594
2016-01-05,43.85218811035156
2016-01-06,43.2307014465332
2016-01-07,41.23008346557617
2016-01-08,40.48942184448242
2016-01-11,40.370235443115234
2016-01-12,40.404296875
2016-01-13,39.4848518371582
2016-01-14,40.28510284423828
2016-01-15,39.75727462768555
2016-01-19,40.43833541870117
2016-01-20,39.7147102355957
2016-01-21,40.344696044921875
2016-01-22,41.025760650634766
2016-01-25,40.361724853515625
2016-01-26,40.617130279541016
2016-01-27,40.02119064331055
2016-01-28,39.88375473022461
2016-01-29,41.11213302612305
2016-02-01,41.53303909301758
2016-02-02,41.53303909301758
2016-02-03,41.31829071044922
2016-02-04,41.180843353271484
2016-02-05,40.40774917602539
2016-02-08,40.21017837524414
2016-02-09,40.081321716308594
2016-02-10,40.34761047363281
2016-02-11,41.00905227661133
2016-02-12,42.039852142333984
2016-02-16,42.94182205200195
2016-02-17,43.474403381347656
2016-02-18,43.680564880371094
2016-02-19,44.024166107177734
2016-02-22,44.59970474243164
2016-02-23,44.170204162597656
2016-02-24,44.350589752197266
2016-02-25,44.78868103027344
2016-02-26,44.3935432434082
2016-02-29,44.144432067871094
2016-03-01,45.19241714477539
2016-03-02,44.84881591796875
2016-03-03,45.05498504638672
2016-03-04,45.166648864746094
2016-03-07,45.17524337768555
2016-03-08,44.70277786254883
2016-03-09,44.77150344848633
2016-03-10,44.55674743652344
2016-03-11,45.48448181152344
2016-03-14,45.5360221862793
2016-03-15,45.63910675048828
2016-03-16,45.78513717651367
2016-03-17,46.584014892578125
2016-03-18,46.37784957885742
2016-03-21,46.601200103759766
2016-03-22,46.42939376831055
2016-03-23,46.3434944152832
2016-03-24,46.37784957885742
2016-03-28,46.532470703125
2016-03-29,46.80735778808594
2016-03-30,45.77654266357422
2016-03-31,46.39503479003906
2016-04-01,46.532470703125
2016-04-04,45.91399002075195
2016-04-05,45.621917724609375
2016-04-06,46.07719421386719
2016-04-07,45.41576385498047
2016-04-08,45.561798095703125
2016-04-11,45.25254821777344
2016-04-12,45.6047477722168
2016-04-13,45.578983306884766
2016-04-14,45.467308044433594
2016-04-15,45.41576385498047
2016-04-18,45.888214111328125
2016-04-19,46.008480072021484
2016-04-20,45.86244201660156
2016-04-21,44.91754150390625
2016-04-22,44.90035629272461
2016-04-25,45.158058166503906
2016-04-26,45.226783752441406
2016-04-27,45.63051223754883
2016-04-28,45.37281036376953
2016-04-29,44.77150344848633
2016-05-02,45.18382263183594
2016-05-03,45.012027740478516
2016-05-04,44.91754150390625
2016-05-05,44.32868194580078
2016-05-06,44.95218276977539
2016-05-09,45.02145767211914
2016-05-10,45.80081558227539
2016-05-11,45.21195983886719
2016-05-12,45.1253662109375
2016-05-13,44.77898406982422
2016-05-16,45.082069396972656
2016-05-17,44.57115936279297
2016-05-18,44.796295166015625
2016-05-19,44.77898406982422
2016-05-20,45.05609130859375
2016-05-23,44.796295166015625
2016-05-24,45.965354919433594
2016-05-25,46.47627639770508
2016-05-26,46.736061096191406
2016-05-27,47.047813415527344
2016-05-31,46.952552795410156
2016-06-01,47.16038513183594
2016-06-02,47.576045989990234
2016-06-03,47.376869201660156
2016-06-06,47.5587272644043
2016-06-07,47.7232666015625
2016-06-08,47.731910705566406
2016-06-09,47.80985641479492
2016-06-10,47.24698257446289
2016-06-13,46.96120834350586
2016-06-14,47.26430130004883
2016-06-15,47.212345123291016
2016-06-16,47.541412353515625
2016-06-17,47.272953033447266
2016-06-20,47.85315704345703
2016-06-21,48.069637298583984
2016-06-22,47.89645004272461
2016-06-23,48.745094299316406
2016-06-24,47.316253662109375
2016-06-27,46.995853424072266
2016-06-28,48.08695983886719
2016-06-29,48.61520004272461
2016-06-30,51.52484130859375
2016-07-01,51.472877502441406
2016-07-05,52.035770416259766
2016-07-06,52.68523025512695
2016-07-07,52.4687385559082
2016-07-08,53.10955047607422
2016-07-11,53.0316162109375
2016-07-12,52.83244323730469
2016-07-13,52.91904830932617
2016-07-14,52.927703857421875
2016-07-15,52.7545051574707
2016-07-18,52.615943908691406
2016-07-19,52.56399917602539
2016-07-20,52.399452209472656
2016-07-21,52.252254486083984
2016-07-22,52.598636627197266
2016-07-25,52.615943908691406
2016-07-26,53.00564193725586
2016-07-27,52.1743049621582
2016-07-28,51.65945816040039
2016-07-29,51.72927474975586
2016-08-01,51.71182632446289
2016-08-02,51.38023376464844
2016-08-03,51.057350158691406
2016-08-04,51.17079162597656
2016-08-05,51.79908752441406
2016-08-08,51.55475616455078
2016-08-09,51.87762451171875
2016-08-10,51.92998504638672
2016-08-11,52.27031326293945
2016-08-12,52.38374710083008
2016-08-15,52.444820404052734
2016-08-16,51.738006591796875
2016-08-17,51.89507293701172
2016-08-18,52.20921325683594
2016-08-19,52.488460540771484
2016-08-22,52.68916320800781
2016-08-23,52.924781799316406
2016-08-24,52.95968246459961
2016-08-25,52.99457931518555
2016-08-26,52.793880462646484
2016-08-29,52.924781799316406
2016-08-30,53.020755767822266
2016-08-31,52.942222595214844
2016-09-01,53.22146224975586
2016-09-02,53.33490753173828
2016-09-06,53.43962478637695
2016-09-07,53.70140075683594
2016-09-08,53.2912712097168
2016-09-09,51.738006591796875
2016-09-12,52.2266731262207
2016-09-13,51.057350158691406
2016-09-14,50.94390869140625
2016-09-15,51.4936637878418
2016-09-16,50.813011169433594
2016-09-19,51.14460754394531
2016-09-20,51.67692565917969
2016-09-21,52.07832717895508
2016-09-22,52.68043899536133
2016-09-23,52.27902603149414
2016-09-26,52.07832717895508
2016-09-27,52.59317398071289
2016-09-28,50.176002502441406
2016-09-29,49.87931442260742
2016-09-30,50.498870849609375
2016-10-03,50.1411018371582
2016-10-04,49.792049407958984
2016-10-05,49.565162658691406
2016-10-06,49.5128059387207
2016-10-07,49.320831298828125
2016-10-10,49.451725006103516
2016-10-11,48.89324188232422
2016-10-12,49.015403747558594
2016-10-13,49.07648849487305
2016-10-14,49.041595458984375
2016-10-17,48.64018630981445
2016-10-18,48.98922348022461
2016-10-19,49.146297454833984
2016-10-20,49.07648849487305
2016-10-21,48.867061614990234
2016-10-24,49.015403747558594
2016-10-25,48.72743606567383
2016-10-26,48.4918327331543
2016-10-27,48.212589263916016
2016-10-28,48.44138717651367
2016-10-31,48.57337188720703
2016-11-01,47.7550163269043
2016-11-02,47.816612243652344
2016-11-03,47.36783981323242
2016-11-04,47.20945358276367
2016-11-07,47.9310188293457
2016-11-08,47.68462371826172
2016-11-09,48.55576705932617
2016-11-10,49.277339935302734
2016-11-11,49.875709533691406
2016-11-14,49.54131317138672
2016-11-15,48.995750427246094
2016-11-16,49.06615447998047
2016-11-17,49.20693588256836
2016-11-18,49.215736389160156
2016-11-21,50.28048324584961
2016-11-22,50.597267150878906
2016-11-23,51.081241607666016
2016-11-25,51.019649505615234
2016-11-28,51.028446197509766
2016-11-29,52.32196807861328
2016-11-30,51.873199462890625
2016-12-01,51.6356086730957
2016-12-02,51.33642578125
2016-12-05,51.767608642578125
2016-12-06,51.626808166503906
2016-12-07,53.008338928222656
2016-12-08,53.03472900390625
2016-12-09,52.93793487548828
2016-12-12,52.964332580566406
2016-12-13,53.01713180541992
2016-12-14,53.21951675415039
2016-12-15,53.44831466674805
2016-12-16,53.88829040527344
2016-12-19,54.161067962646484
2016-12-20,54.49545669555664
2016-12-21,54.02028274536133
2016-12-22,54.11708068847656
2016-12-23,54.3194694519043
2016-12-27,54.24906539916992
2016-12-28,53.976280212402344
2016-12-29,54.02908706665039
2016-12-30,53.571502685546875
2017-01-03,53.729896545410156
2017-01-04,53.932281494140625
2017-01-05,53.545108795166016
2017-01-06,53.91468048095703
2017-01-09,53.69469451904297
2017-01-10,53.509910583496094
2017-01-11,53.8090934753418
2017-01-12,53.976280212402344
2017-01-13,54.09067916870117
2017-01-17,53.545108795166016
2017-01-18,53.71229934692383
2017-01-19,53.589107513427734
2017-01-20,54.09067916870117
2017-01-23,53.77388381958008
2017-01-24,54.44266128540039
2017-01-25,54.22267150878906
2017-01-26,54.073081970214844
2017-01-27,53.826690673828125
2017-01-30,53.91535568237305
2017-01-31,53.45431137084961
2017-02-01,51.8849983215332
2017-02-02,51.91158676147461
2017-02-03,51.3973503112793
2017-02-06,51.0870361328125
2017-02-07,51.04270553588867
2017-02-08,51.11362838745117
2017-02-09,51.8583984375
2017-02-10,51.831790924072266
2017-02-13,52.34603500366211
2017-02-14,52.54995346069336
2017-02-15,52.647491455078125
2017-02-16,52.745018005371094
2017-02-17,52.42583084106445
2017-02-21,52.399234771728516
2017-02-22,52.84253692626953
2017-02-23,53.560707092285156
2017-02-24,54.80197525024414
2017-02-27,54.55371856689453
2017-02-28,54.45619583129883
2017-03-01,55.688594818115234
2017-03-02,55.28961181640625
2017-03-03,55.41374588012695
2017-03-06,55.33394241333008
2017-03-07,55.11228942871094
2017-03-08,55.25414276123047
2017-03-09,55.07682418823242
2017-03-10,55.30735397338867
2017-03-13,55.46694564819336
2017-03-14,55.24528884887695
2017-03-15,55.73292541503906
2017-03-16,55.52900314331055
2017-03-17,55.715187072753906
2017-03-20,55.24528884887695
2017-03-21,54.6778450012207
2017-03-22,54.970428466796875
2017-03-23,54.54485321044922
2017-03-24,54.633514404296875
2017-03-27,53.98627471923828
2017-03-28,53.711429595947266
2017-03-29,52.36376953125
2017-03-30,52.42583084106445
2017-03-31,52.22190856933594
2017-04-03,51.81406021118164
2017-04-04,51.477149963378906
2017-04-05,51.68993377685547
2017-04-06,51.55694580078125
2017-04-07,51.5924072265625
2017-04-10,51.63673782348633
2017-04-11,52.062320709228516
2017-04-12,51.82292556762695
2017-04-13,51.32642364501953
2017-04-17,51.477149963378906
2017-04-18,51.6190071105957
2017-04-19,51.49488067626953
2017-04-20,52.00025177001953
2017-04-21,52.43470001220703
2017-04-24,52.68294906616211
2017-04-25,52.79821014404297
2017-04-26,52.93119812011719
2017-04-27,53.05532455444336
2017-04-28,52.55881881713867
2017-05-01,52.45242691040039
2017-05-02,52.5322265625
2017-05-03,51.33529281616211
2017-05-04,52.026851654052734
2017-05-05,52.19530487060547
2017-05-08,51.88254928588867
2017-05-09,51.8468017578125
2017-05-10,51.417869567871094
2017-05-11,51.105106353759766
2017-05-12,51.05149459838867
2017-05-15,51.48042297363281
2017-05-16,51.07830047607422
2017-05-17,50.8817138671875
2017-05-18,51.319583892822266
2017-05-19,51.39106750488281
2017-05-22,51.668087005615234
2017-05-23,51.87361145019531
2017-05-24,52.186378479003906
2017-05-25,52.820831298828125
2017-05-26,52.972740173339844
2017-05-30,52.820831298828125
2017-05-31,52.928062438964844
2017-06-01,53.32124328613281
2017-06-02,52.963809967041016
2017-06-05,53.25869369506836
2017-06-06,52.776145935058594
2017-06-07,52.99954605102539
2017-06-08,52.642120361328125
2017-06-09,52.3293571472168
2017-06-12,53.2944450378418
2017-06-13,54.071868896484375
2017-06-14,53.696563720703125
2017-06-15,54.26847457885742
2017-06-16,54.599098205566406
2017-06-19,54.62590408325195
2017-06-20,53.62507247924805
2017-06-21,53.55358123779297
2017-06-22,53.07997131347656
2017-06-23,52.9370002746582
2017-06-26,52.9370002746582
2017-06-27,52.38296127319336
2017-06-28,51.516170501708984
2017-06-29,50.6583137512207
2017-06-30,50.8817138671875
2017-07-03,50.51533508300781
2017-07-05,51.37319564819336
2017-07-06,50.90851974487305
2017-07-07,51.31064224243164
2017-07-10,51.68595504760742
2017-07-11,50.57788848876953
2017-07-12,51.14979934692383
2017-07-13,51.114044189453125
2017-07-14,51.02468490600586
2017-07-17,50.828094482421875
2017-07-18,50.73872756958008
2017-07-19,50.81023406982422
2017-07-20,51.105106353759766
2017-07-21,51.114044189453125
2017-07-24,50.8817138671875
2017-07-25,51.319583892822266
2017-07-26,51.92722702026367
2017-07-27,53.741233825683594
2017-07-28,52.04718017578125
2017-07-31,52.12828063964844
2017-08-01,51.200157165527344
2017-08-02,50.98390197753906
2017-08-03,50.5964241027832
2017-08-04,50.542354583740234
2017-08-07,50.40719223022461
2017-08-08,49.5962028503418
2017-08-09,49.479068756103516
2017-08-10,49.36193084716797
2017-08-11,48.875335693359375
2017-08-14,49.488075256347656
2017-08-15,50.09181213378906
2017-08-16,50.677528381347656
2017-08-17,49.542144775390625
2017-08-18,49.551151275634766
2017-08-21,50.25400161743164
2017-08-22,50.56037902832031
2017-08-23,50.25400161743164
2017-08-24,50.046756744384766
2017-08-25,50.65950393676758
2017-08-28,50.90279769897461
2017-08-29,50.9929084777832
2017-08-30,51.019935607910156
2017-08-31,51.38938903808594
2017-09-01,51.42543029785156
2017-09-05,51.10103225708008
2017-09-06,51.54256820678711
2017-09-07,51.37136459350586
2017-09-08,51.27225112915039
2017-09-11,51.65970993041992
2017-09-12,52.407623291015625
2017-09-13,52.29949188232422
2017-09-14,51.82190704345703
2017-09-15,52.12828063964844
2017-09-18,52.335533142089844
2017-09-19,52.32653045654297
2017-09-20,52.72300720214844
2017-09-21,52.43465805053711
2017-09-22,53.840362548828125
2017-09-25,54.0926628112793
2017-09-26,54.01156997680664
2017-09-27,54.381011962890625
2017-09-28,54.299922943115234
2017-09-29,54.02958679199219
2017-10-02,53.89442825317383
2017-10-03,55.85881805419922
2017-10-04,56.41749572753906
2017-10-05,56.99419021606445
2017-10-06,57.32759475708008
2017-10-09,57.3546257019043
2017-10-10,57.408695220947266
2017-10-11,57.20144271850586
2017-10-12,58.04846954345703
2017-10-13,57.44473648071289
2017-10-16,57.17441177368164
2017-10-17,56.678810119628906
2017-10-18,56.79594802856445
2017-10-19,57.22846984863281
2017-10-20,57.70604705810547
2017-10-23,57.97637939453125
2017-10-24,57.561885833740234
2017-10-25,57.742095947265625
2017-10-26,58.201656341552734
2017-10-27,58.93154525756836
2017-10-30,58.09352493286133
2017-10-31,57.93006134033203
2017-11-01,58.24789810180664
2017-11-02,58.61116027832031
2017-11-03,58.11167907714844
2017-11-06,58.12077331542969
2017-11-07,58.36595916748047
2017-11-08,58.6202507019043
2017-11-09,58.81096267700195
2017-11-10,58.63840103149414
2017-11-13,59.119712829589844
2017-11-14,59.36492156982422
2017-11-15,58.64748001098633
2017-11-16,59.610103607177734
2017-11-17,58.95624923706055
2017-11-20,59.19236755371094
2017-11-21,59.13788604736328
2017-11-22,58.73830795288086
2017-11-24,58.74739074707031
2017-11-27,58.73830795288086
2017-11-28,59.75542068481445
2017-11-29,60.46376419067383
2017-11-30,61.12670135498047
2017-12-01,60.72711181640625
2017-12-04,61.39913558959961
2017-12-05,61.698822021484375
2017-12-06,62.12565231323242
2017-12-07,62.234615325927734
2017-12-08,62.67054748535156
2017-12-11,62.67961120605469
2017-12-12,62.39809036254883
2017-12-13,62.49797439575195
2017-12-14,62.05300521850586
2017-12-15,63.3607177734375
2017-12-18,63.796627044677734
2017-12-19,62.89756393432617
2017-12-20,62.843082427978516
2017-12-21,62.334529876708984
2017-12-22,61.99849319458008
2017-12-26,62.525230407714844
2017-12-27,62.11656951904297
2017-12-28,62.062076568603516
2017-12-29,61.82596206665039
2018-01-02,61.12670135498047
2018-01-03,62.007598876953125
2018-01-04,62.58880615234375
2018-01-05,62.39809036254883
2018-01-08,62.007598876953125
2018-01-09,61.589847564697266
2018-01-10,61.335575103759766
2018-01-11,60.718040466308594
2018-01-12,61.44454574584961
2018-01-16,61.98942947387695
2018-01-17,63.24264907836914
2018-01-18,62.57972717285156
2018-01-19,63.1064338684082
2018-01-22,63.297149658203125
2018-01-23,63.560508728027344
2018-01-24,61.7714729309082
2018-01-25,62.325439453125
2018-01-26,63.57866287231445
2018-01-29,62.507057189941406
2018-01-30,62.26187515258789
2018-01-31,62.43568420410156
2018-02-01,61.31962203979492
2018-02-02,60.92624282836914
2018-02-05,59.02344512939453
2018-02-06,58.75816345214844
2018-02-07,59.224700927734375
2018-02-08,56.590057373046875
2018-02-09,58.694129943847656
2018-02-12,59.178977966308594
2018-02-13,59.12407684326172
2018-02-14,59.80104064941406
2018-02-15,60.80733108520508
2018-02-16,61.11836242675781
2018-02-20,59.83762741088867
2018-02-21,59.53575134277344
2018-02-22,59.50830078125
2018-02-23,60.80733108520508
2018-02-26,61.136661529541016
2018-02-27,60.30418014526367
2018-02-28,59.581478118896484
2018-03-01,58.136077880859375
2018-03-02,58.35564422607422
2018-03-05,59.499141693115234
2018-03-06,59.544883728027344
2018-03-07,59.29789733886719
2018-03-08,59.81932830810547
2018-03-09,60.85306167602539
2018-03-12,60.83476638793945
2018-03-13,61.03602600097656
2018-03-14,60.27674102783203
2018-03-15,60.7432861328125
2018-03-16,60.514583587646484
2018-03-19,59.764442443847656
2018-03-20,59.92911148071289
2018-03-21,59.965702056884766
2018-03-22,58.08119583129883
2018-03-23,56.47113037109375
2018-03-26,56.004581451416016
2018-03-27,54.74214172363281
2018-03-28,55.437400817871094
2018-03-29,56.34305953979492
2018-04-02,55.18125534057617
2018-04-03,55.82161331176758
2018-04-04,56.5443229675293
2018-04-05,56.8462028503418
2018-04-06,55.54718017578125
2018-04-09,55.748435974121094
2018-04-10,56.69068908691406
2018-04-11,56.41624450683594
2018-04-12,56.39795684814453
2018-04-13,56.25157928466797
2018-04-16,56.937686920166016
2018-04-17,55.9222526550293
2018-04-18,55.83076477050781
2018-04-19,55.739288330078125
2018-04-20,55.19955062866211
2018-04-23,54.75129699707031
2018-04-24,54.842777252197266
2018-04-25,54.88851547241211
2018-04-26,55.574623107910156
2018-04-27,56.33391189575195
2018-04-30,55.409950256347656
2018-05-01,56.004581451416016
2018-05-02,55.63865661621094
2018-05-03,56.41624450683594
2018-05-04,57.09320831298828
2018-05-07,57.23042297363281
2018-05-08,56.851966857910156
2018-05-09,57.42427062988281
2018-05-10,58.14426040649414
2018-05-11,58.467342376708984
2018-05-14,58.64271926879883
2018-05-15,59.3257942199707
2018-05-16,59.96271514892578
2018-05-17,59.46425247192383
2018-05-18,59.83348846435547
2018-05-21,60.11040496826172
2018-05-22,60.387325286865234
2018-05-23,60.52579116821289
2018-05-24,60.80271530151367
2018-05-25,60.830406188964844
2018-05-29,60.562713623046875
2018-05-30,60.88578414916992
2018-05-31,60.53502655029297
2018-06-01,61.36579132080078
2018-06-04,61.688865661621094
2018-06-05,61.938087463378906
2018-06-06,62.83346176147461
2018-06-07,62.42731475830078
2018-06-08,62.92577362060547
2018-06-11,62.8980827331543
2018-06-12,64.1072998046875
2018-06-13,64.15345001220703
2018-06-14,64.00577545166016
2018-06-15,64.41191101074219
2018-06-18,64.1072998046875
2018-06-19,64.1072998046875
2018-06-20,64.54114532470703
2018-06-21,64.34729766845703
2018-06-22,64.81807708740234
2018-06-25,64.31961822509766
2018-06-26,63.69192886352539
2018-06-27,61.74424743652344
2018-06-28,62.731929779052734
2018-06-29,63.09192657470703
2018-07-02,62.80577850341797
2018-07-03,62.56578063964844
2018-07-05,63.765777587890625
2018-07-06,64.42113494873047
2018-07-09,64.5965347290039
2018-07-10,64.32884979248047
2018-07-11,64.19039154052734
2018-07-12,64.95652770996094
2018-07-13,65.11345672607422
2018-07-16,64.5965347290039
2018-07-17,65.03960418701172
2018-07-18,64.52268981933594
2018-07-19,65.06729888916016
2018-07-20,65.12269592285156
2018-07-23,65.40885162353516
2018-07-24,65.74114990234375
2018-07-25,66.46112823486328
2018-07-26,66.17498779296875
2018-07-27,65.47345733642578
2018-07-30,63.85807418823242
2018-07-31,64.23031616210938
2018-08-01,63.90460205078125
2018-08-02,64.50019073486328
2018-08-03,64.90036010742188
2018-08-06,65.51456451416016
2018-08-07,66.2497329711914
2018-08-08,66.16597747802734
2018-08-09,66.30554962158203
2018-08-10,66.0915298461914
2018-08-13,66.22181701660156
2018-08-14,66.00778198242188
2018-08-15,66.20320129394531
2018-08-16,66.9011459350586
2018-08-17,67.30132293701172
2018-08-20,67.31991577148438
2018-08-21,67.47813415527344
2018-08-22,67.55257415771484
2018-08-23,67.69216918945312
2018-08-24,67.92481231689453
2018-08-27,67.58979797363281
2018-08-28,67.36646270751953
2018-08-29,67.841064453125
2018-08-30,67.81314849853516
2018-08-31,68.16677856445312
2018-09-04,68.00857543945312
2018-09-05,68.69721221923828
2018-09-06,69.43241119384766
2018-09-07,68.9019546508789
2018-09-10,69.06016540527344
2018-09-11,69.3765640258789
2018-09-12,68.97640228271484
2018-09-13,69.46031188964844
2018-09-14,69.21835327148438
2018-09-17,69.07876586914062
2018-09-18,69.45101165771484
2018-09-19,68.85543060302734
2018-09-20,69.57198333740234
2018-09-21,70.02799224853516
2018-09-24,69.36726379394531
2018-09-25,68.60416412353516
2018-09-26,68.48318481445312
2018-09-27,68.35289764404297
2018-09-28,68.53901672363281
2018-10-01,68.60416412353516
2018-10-02,69.59058380126953
2018-10-03,68.12024688720703
2018-10-04,67.36646270751953
2018-10-05,67.87828826904297
2018-10-08,67.33853149414062
2018-10-09,67.46881866455078
2018-10-10,64.68631744384766
2018-10-11,62.84372329711914
2018-10-12,63.52305603027344
2018-10-15,63.29970932006836
2018-10-16,64.1093521118164
2018-10-17,64.1093521118164
2018-10-18,63.30902099609375
2018-10-19,63.22526931762695
2018-10-22,62.880943298339844
2018-10-23,61.55948257446289
2018-10-24,59.70758819580078
2018-10-25,60.41484069824219
2018-10-26,59.567996978759766
2018-10-29,59.48423767089844
2018-10-30,60.14496612548828
2018-10-31,61.477970123291016
2018-11-01,61.00860595703125
2018-11-02,61.477970123291016
2018-11-05,62.21957778930664
2018-11-06,63.064449310302734
2018-11-07,64.28480529785156
2018-11-08,64.77295684814453
2018-11-09,64.79171752929688
2018-11-12,63.796661376953125
2018-11-13,63.59952163696289
2018-11-14,62.63262176513672
2018-11-15,63.77788543701172
2018-11-16,64.63214111328125
2018-11-19,64.21908569335938
2018-11-20,63.177093505859375
2018-11-21,63.20524978637695
2018-11-23,63.13954162597656
2018-11-26,64.21908569335938
2018-11-27,64.92314147949219
2018-11-28,66.50960540771484
2018-11-29,65.6365737915039
2018-11-30,66.42514038085938
2018-12-03,66.6598129272461
2018-12-04,65.05457305908203
2018-12-06,64.93252563476562
2018-12-07,63.53382110595703
2018-12-10,63.94685745239258
2018-12-11,63.965633392333984
2018-12-12,63.94685745239258
2018-12-13,63.252193450927734
2018-12-14,61.862857818603516
2018-12-17,60.9710578918457
2018-12-18,60.37965393066406
2018-12-19,60.79270553588867
2018-12-20,60.98044967651367
2018-12-21,59.929054260253906
2018-12-24,57.86383056640625
2018-12-26,60.37965393066406
2018-12-27,61.20573806762695
2018-12-28,60.70820999145508
2018-12-31,61.158817291259766
2019-01-02,61.083709716796875
2019-01-03,60.05109405517578
2019-01-04,62.14448165893555
2019-01-07,61.815921783447266
2019-01-08,62.285301208496094
2019-01-09,62.247737884521484
2019-01-10,63.28036117553711
2019-01-11,63.167701721191406
2019-01-14,63.111392974853516
2019-01-15,63.965633392333984
2019-01-16,64.28480529785156
2019-01-17,64.53826904296875
2019-01-18,65.61781311035156
2019-01-22,65.14845275878906
2019-01-23,65.56148529052734
2019-01-24,65.35497283935547
2019-01-25,66.07779693603516
2019-01-28,65.7116928100586
2019-01-29,65.45822143554688
2019-01-30,66.78184509277344
2019-01-31,66.9900131225586
2019-02-01,68.01187896728516
2019-02-04,68.57014465332031
2019-02-05,69.77179718017578
2019-02-06,69.73394012451172
2019-02-07,69.79071807861328
2019-02-08,70.2638168334961
2019-02-11,70.06511688232422
2019-02-12,70.80314636230469
2019-02-13,71.2005386352539
2019-02-14,71.1248550415039
2019-02-15,71.7020263671875
2019-02-19,71.08699035644531
2019-02-20,71.26677703857422
2019-02-21,71.29515838623047
2019-02-22,71.80609893798828
2019-02-25,71.7587890625
2019-02-26,71.98587036132812
2019-02-27,72.40219116210938
2019-02-28,72.87528228759766
2019-03-01,73.26322174072266
2019-03-04,72.38328552246094
2019-03-05,72.86582946777344
2019-03-06,72.68605041503906
2019-03-07,72.09941101074219
2019-03-08,72.23188018798828
2019-03-11,73.34838104248047
2019-03-12,73.55654907226562
2019-03-13,74.05802154541016
2019-03-14,74.73927307128906
2019-03-15,74.96636962890625
2019-03-18,75.05152130126953
2019-03-19,74.85282135009766
2019-03-20,74.20941162109375
2019-03-21,75.2407455444336
2019-03-22,74.21888732910156
2019-03-25,74.50273132324219
2019-03-26,75.78955078125
2019-03-27,74.99474334716797
2019-03-28,74.7960433959961
2019-03-29,75.88416290283203
2019-04-01,76.57487487792969
2019-04-02,76.66004180908203
2019-04-03,76.71681213378906
2019-04-04,76.07340240478516
2019-04-05,76.39510345458984
2019-04-08,76.47079467773438
2019-04-09,76.4045639038086
2019-04-10,76.77357482910156
2019-04-11,76.97227478027344
2019-04-12,77.73869323730469
2019-04-15,77.9373779296875
2019-04-16,77.19935607910156
2019-04-17,77.17097473144531
2019-04-18,77.19935607910156
2019-04-22,77.2182846069336
2019-04-23,79.08226776123047
2019-04-24,78.98765563964844
2019-04-25,78.75110626220703
2019-04-26,79.28096771240234
2019-04-29,79.11066436767578
2019-04-30,79.77298736572266
2019-05-01,77.55891418457031
2019-05-02,78.32532501220703
2019-05-03,80.05684661865234
2019-05-06,80.11360931396484
2019-05-07,78.98765563964844
2019-05-08,79.6594467163086
2019-05-09,79.77298736572266
2019-05-10,80.5015640258789
2019-05-13,79.0633544921875
2019-05-14,80.25492858886719
2019-05-15,81.07473754882812
2019-05-16,82.59041595458984
2019-05-17,82.23770904541016
2019-05-20,82.13285064697266
2019-05-21,83.03843688964844
2019-05-22,83.07658386230469
2019-05-23,82.03752136230469
2019-05-24,82.14238739013672
2019-05-28,82.14238739013672
2019-05-29,81.67528533935547
2019-05-30,82.20909881591797
2019-05-31,81.78013610839844
2019-06-03,80.48371887207031
2019-06-04,81.3702392578125
2019-06-05,82.39022064208984
2019-06-06,83.01937103271484
2019-06-07,83.50554656982422
2019-06-10,83.6961898803711
2019-06-11,82.98125457763672
2019-06-12,83.19097137451172
2019-06-13,82.86685943603516
2019-06-14,82.62854766845703
2019-06-17,82.24723052978516
2019-06-18,82.80013275146484
2019-06-19,83.06704711914062
2019-06-20,83.46741485595703
2019-06-21,82.47602081298828
2019-06-24,82.15192413330078
2019-06-25,80.83641815185547
2019-06-26,77.94803619384766
2019-06-27,78.26261138916016
2019-06-28,78.44373321533203
2019-07-01,79.60670471191406
2019-07-02,79.72109985351562
2019-07-03,80.64575958251953
2019-07-05,81.32258605957031
2019-07-08,80.88408660888672
2019-07-09,81.22724914550781
2019-07-10,81.46556091308594
2019-07-11,81.34163665771484
2019-07-12,81.71342468261719
2019-07-15,81.72294616699219
2019-07-16,81.65621948242188
2019-07-17,81.24630737304688
2019-07-18,81.58948516845703
2019-07-19,80.60762786865234
2019-07-22,80.15959930419922
2019-07-23,80.66483306884766
2019-07-24,81.07473754882812
2019-07-25,81.42742919921875
2019-07-26,82.5332260131836
2019-07-29,82.1995849609375
2019-07-30,82.11378479003906
2019-07-31,79.74215698242188
2019-08-01,80.53910064697266
2019-08-02,80.58710479736328
2019-08-05,77.65858459472656
2019-08-06,78.99322509765625
2019-08-07,78.97401428222656
2019-08-08,81.04798889160156
2019-08-09,80.22225189208984
2019-08-12,79.50211334228516
2019-08-13,80.39508056640625
2019-08-14,77.8314208984375
2019-08-15,76.90005493164062
2019-08-16,78.22508239746094
2019-08-19,79.0124282836914
2019-08-20,78.68596649169922
2019-08-21,79.23326110839844
2019-08-22,78.97401428222656
2019-08-23,76.54478454589844
2019-08-26,77.24571228027344
2019-08-27,77.44734954833984
2019-08-28,77.8026123046875
2019-08-29,78.59956359863281
2019-08-30,78.4459228515625
2019-09-03,77.77381134033203
2019-09-04,79.10844421386719
2019-09-05,80.46229553222656
2019-09-06,80.7215347290039
2019-09-09,78.55154418945312
2019-09-10,77.52416229248047
2019-09-11,78.01385498046875
2019-09-12,78.43632507324219
2019-09-13,78.36911010742188
2019-09-16,77.8314208984375
2019-09-17,79.2620849609375
2019-09-18,79.47331237792969
2019-09-19,79.21406555175781
2019-09-20,79.25248718261719
2019-09-23,78.92601776123047
2019-09-24,78.41712188720703
2019-09-25,78.98362731933594
2019-09-26,79.2812728881836
2019-09-27,78.27310180664062
2019-09-30,79.47331237792969
2019-10-01,78.62835693359375
2019-10-02,80.03021240234375
2019-10-03,79.27167510986328
2019-10-04,80.9903793334961
2019-10-07,79.62693786621094
2019-10-08,78.81079864501953
2019-10-09,79.79016876220703
2019-10-10,80.59671783447266
2019-10-11,81.25923156738281
2019-10-14,81.3264389038086
2019-10-15,81.48006439208984
2019-10-16,81.37445068359375
2019-10-17,81.3552474975586
2019-10-18,80.89436340332031
2019-10-21,81.30723571777344
2019-10-22,79.9533920288086
2019-10-23,80.7215347290039
2019-10-24,81.3264389038086
2019-10-25,81.1632080078125
2019-10-28,81.0575942993164
2019-10-29,81.18241119384766
2019-10-30,81.2784423828125
2019-10-31,80.90119934082031
2019-11-01,81.14301300048828
2019-11-04,80.72709655761719
2019-11-05,79.88557434082031
2019-11-06,79.95330047607422
2019-11-07,80.16609191894531
2019-11-08,80.52397155761719
2019-11-11,80.11772918701172
2019-11-12,80.32084655761719
2019-11-13,80.79480743408203
2019-11-14,81.70401763916016
2019-11-15,81.9264907836914
2019-11-18,82.27470397949219
2019-11-19,82.98079681396484
2019-11-20,82.9421157836914
2019-11-21,82.177978515625
2019-11-22,81.86846160888672
2019-11-25,82.08125305175781
2019-11-26,83.29999542236328
2019-11-27,83.65787506103516
2019-11-29,83.29999542236328
2019-12-02,81.9264907836914
2019-12-03,81.71369934082031
2019-12-04,81.79107666015625
2019-12-05,81.6556625366211
2019-12-06,82.3424072265625
2019-12-09,81.91681671142578
2019-12-10,81.74272155761719
2019-12-11,81.51056671142578
2019-12-12,81.96517944335938
2019-12-13,82.29405212402344
2019-12-16,82.12962341308594
2019-12-17,82.41978454589844
2019-12-18,81.99420166015625
2019-12-19,82.21666717529297
2019-12-20,82.72931671142578
2019-12-23,82.12962341308594
2019-12-24,81.87814331054688
2019-12-26,81.93617248535156
2019-12-27,82.33274841308594
2019-12-30,82.11026763916016
2019-12-31,82.27470397949219
