Date,PEP
2007-12-31,51.800106048583984
2008-01-02,51.383785247802734
2008-01-03,51.71819305419922
2008-01-04,51.56121826171875
2008-01-07,52.76923751831055
2008-01-08,53.19234848022461
2008-01-09,53.73833084106445
2008-01-10,54.304786682128906
2008-01-11,53.08314514160156
2008-01-14,52.496219635009766
2008-01-15,51.06983947753906
2008-01-16,50.18946838378906
2008-01-17,49.206695556640625
2008-01-18,48.7698860168457
2008-01-22,47.39129638671875
2008-01-23,48.11471939086914
2008-01-24,47.58922576904297
2008-01-25,47.036407470703125
2008-01-28,47.95774841308594
2008-01-29,46.8384895324707
2008-01-30,45.99220275878906
2008-01-31,46.442665100097656
2008-02-01,46.97499465942383
2008-02-04,47.24116134643555
2008-02-05,46.3743782043457
2008-02-06,45.54177474975586
2008-02-07,48.05329895019531
2008-02-08,47.64381408691406
2008-02-11,48.42865753173828
2008-02-12,49.11113739013672
2008-02-13,48.88591766357422
2008-02-14,48.84498977661133
2008-02-15,48.954166412353516
2008-02-19,48.5515022277832
2008-02-20,48.5378532409668
2008-02-21,48.510562896728516
2008-02-22,48.715293884277344
2008-02-25,48.858619689941406
2008-02-26,48.68117904663086
2008-02-27,48.59245681762695
2008-02-28,48.496891021728516
2008-02-29,47.473175048828125
2008-03-03,47.88949203491211
2008-03-04,47.80078125
2008-03-05,48.2227668762207
2008-03-06,48.112972259521484
2008-03-07,47.74930953979492
2008-03-10,47.358211517333984
2008-03-11,47.996337890625
2008-03-12,47.728729248046875
2008-03-13,47.5091667175293
2008-03-14,46.96711349487305
2008-03-17,47.447418212890625
2008-03-18,48.04435348510742
2008-03-19,48.15413284301758
2008-03-20,48.84716033935547
2008-03-24,49.02554702758789
2008-03-25,49.08732223510742
2008-03-26,48.826576232910156
2008-03-27,48.84716033935547
2008-03-28,49.10103988647461
2008-03-31,49.5401725769043
2008-04-01,49.49214172363281
2008-04-02,49.004981994628906
2008-04-03,48.99126434326172
2008-04-04,49.08042907714844
2008-04-07,49.306884765625
2008-04-08,48.908912658691406
2008-04-09,48.69621276855469
2008-04-10,49.197105407714844
2008-04-11,48.99126434326172
2008-04-14,48.68247985839844
2008-04-15,48.86772918701172
2008-04-16,48.79227828979492
2008-04-17,48.5589714050293
2008-04-18,48.442325592041016
2008-04-21,47.962032318115234
2008-04-22,47.413108825683594
2008-04-23,47.474857330322266
2008-04-24,46.6583366394043
2008-04-25,46.39760971069336
2008-04-28,46.76811981201172
2008-04-29,46.79557418823242
2008-04-30,47.021995544433594
2008-05-01,47.001407623291016
2008-05-02,47.413108825683594
2008-05-05,47.04944610595703
2008-05-06,47.04944610595703
2008-05-07,46.66520690917969
2008-05-08,46.34271240234375
2008-05-09,46.32212448120117
2008-05-12,46.21234893798828
2008-05-13,46.14372634887695
2008-05-14,46.04079818725586
2008-05-15,46.70637130737305
2008-05-16,46.56914520263672
2008-05-19,46.678924560546875
2008-05-20,46.287803649902344
2008-05-21,46.157447814941406
2008-05-22,46.9190788269043
2008-05-23,46.83673095703125
2008-05-27,47.35134506225586
2008-05-28,46.610313415527344
2008-05-29,47.22785949707031
2008-05-30,46.86418533325195
2008-06-02,46.34955978393555
2008-06-03,46.006500244140625
2008-06-04,46.03756332397461
2008-06-05,46.46569061279297
2008-06-06,45.24346160888672
2008-06-09,45.139869689941406
2008-06-10,46.665950775146484
2008-06-11,46.60378646850586
2008-06-12,46.92142868041992
2008-06-13,46.638328552246094
2008-06-16,45.60252380371094
2008-06-17,45.485145568847656
2008-06-18,44.92580795288086
2008-06-19,45.49895095825195
2008-06-20,44.93962860107422
2008-06-23,44.62887191772461
2008-06-24,44.20765686035156
2008-06-25,45.24346160888672
2008-06-26,44.72556686401367
2008-06-27,44.14550018310547
2008-06-30,43.910728454589844
2008-07-01,44.47006607055664
2008-07-02,45.4091682434082
2008-07-03,46.10660934448242
2008-07-07,46.0030403137207
2008-07-08,45.45752716064453
2008-07-09,45.12606430053711
2008-07-10,45.29177474975586
2008-07-11,44.649593353271484
2008-07-14,44.822242736816406
2008-07-15,45.27799606323242
2008-07-16,45.637054443359375
2008-07-17,45.250370025634766
2008-07-18,45.16749572753906
2008-07-21,44.50458908081055
2008-07-22,45.706111907958984
2008-07-23,46.76262283325195
2008-07-24,46.54164123535156
2008-07-25,46.417354583740234
2008-07-28,46.06517791748047
2008-07-29,46.25163650512695
2008-07-30,46.20330047607422
2008-07-31,45.96159744262695
2008-08-01,46.00993728637695
2008-08-04,46.72808837890625
2008-08-05,47.31505584716797
2008-08-06,47.32886505126953
2008-08-07,46.92142868041992
2008-08-08,47.88817596435547
2008-08-11,47.83295440673828
2008-08-12,48.074607849121094
2008-08-13,48.15749740600586
2008-08-14,48.295589447021484
2008-08-15,48.47514343261719
2008-08-18,48.205841064453125
2008-08-19,48.406070709228516
2008-08-20,48.23345947265625
2008-08-21,47.91579818725586
2008-08-22,48.26797866821289
2008-08-25,47.681026458740234
2008-08-26,47.439334869384766
2008-08-27,47.78460693359375
2008-08-28,47.7776985168457
2008-08-29,47.287437438964844
2008-09-02,47.96414566040039
2008-09-03,48.071834564208984
2008-09-04,47.51601791381836
2008-09-05,47.88424301147461
2008-09-08,48.87083053588867
2008-09-09,49.32937240600586
2008-09-10,49.90605163574219
2008-09-11,50.45491409301758
2008-09-12,50.82313919067383
2008-09-15,50.2673454284668
2008-09-16,50.70504379272461
2008-09-17,49.801822662353516
2008-09-18,50.87874984741211
2008-09-19,50.85094451904297
2008-09-22,49.384979248046875
2008-09-23,49.15568923950195
2008-09-24,48.70407485961914
2008-09-25,49.537803649902344
2008-09-26,49.82266616821289
2008-09-29,48.39838409423828
2008-09-30,49.51697540283203
2008-10-01,49.7740478515625
2008-10-02,49.26685333251953
2008-10-03,47.93982696533203
2008-10-06,46.30015563964844
2008-10-07,45.24407196044922
2008-10-08,44.194950103759766
2008-10-09,41.35330581665039
2008-10-10,40.15829086303711
2008-10-13,42.91656494140625
2008-10-14,37.7960319519043
2008-10-15,35.60749053955078
2008-10-16,36.87892532348633
2008-10-17,37.43474578857422
2008-10-20,39.43571472167969
2008-10-21,38.212913513183594
2008-10-22,37.26801300048828
2008-10-23,37.15684127807617
2008-10-24,35.96181106567383
2008-10-27,35.774227142333984
2008-10-28,38.789573669433594
2008-10-29,38.212913513183594
2008-10-30,39.65804672241211
2008-10-31,39.60940933227539
2008-11-03,39.929012298583984
2008-11-04,40.53346633911133
2008-11-05,39.60940933227539
2008-11-06,38.108673095703125
2008-11-07,38.463016510009766
2008-11-10,37.941932678222656
2008-11-11,38.26847839355469
2008-11-12,36.892818450927734
2008-11-13,38.62283706665039
2008-11-14,37.18463134765625
2008-11-17,36.8025016784668
2008-11-18,36.92061233520508
2008-11-19,36.19804763793945
2008-11-20,34.94049072265625
2008-11-21,37.928043365478516
2008-11-24,38.67145919799805
2008-11-25,37.51812744140625
2008-11-26,38.16426086425781
2008-11-28,39.3940315246582
2008-12-01,37.26801300048828
2008-12-02,37.83076858520508
2008-12-03,37.869285583496094
2008-12-04,36.64385986328125
2008-12-05,37.37211227416992
2008-12-08,37.53316879272461
2008-12-09,36.60184097290039
2008-12-10,37.120033264160156
2008-12-11,36.90995407104492
2008-12-12,36.43378448486328
2008-12-15,36.70687484741211
2008-12-16,37.96033477783203
2008-12-17,38.04435348510742
2008-12-18,38.31044006347656
2008-12-19,37.87629699707031
2008-12-22,37.6381950378418
2008-12-23,37.93231201171875
2008-12-24,38.191402435302734
2008-12-26,38.20540237426758
2008-12-29,37.86228561401367
2008-12-30,38.429473876953125
2008-12-31,38.352447509765625
2009-01-02,39.1927604675293
2009-01-05,38.93367004394531
2009-01-06,39.00368118286133
2009-01-07,37.73623275756836
2009-01-08,37.288082122802734
2009-01-09,36.81192398071289
2009-01-12,35.985618591308594
2009-01-13,36.57383346557617
2009-01-14,35.78255081176758
2009-01-15,35.38341522216797
2009-01-16,35.97160720825195
2009-01-20,35.313392639160156
2009-01-21,35.32040023803711
2009-01-22,35.25736618041992
2009-01-23,35.446441650390625
2009-01-26,36.006649017333984
2009-01-27,36.16068649291992
2009-01-28,36.440799713134766
2009-01-29,36.18869400024414
2009-01-30,35.17335510253906
2009-02-02,35.10332489013672
2009-02-03,36.076663970947266
2009-02-04,36.055660247802734
2009-02-05,36.65786361694336
2009-02-06,37.48414611816406
2009-02-09,36.01363754272461
2009-02-10,34.683170318603516
2009-02-11,35.43943405151367
2009-02-12,36.41278076171875
2009-02-13,36.81192398071289
2009-02-17,36.2867317199707
2009-02-18,36.083648681640625
2009-02-19,36.55282211303711
2009-02-20,36.02764892578125
2009-02-23,35.12431335449219
2009-02-24,36.18869400024414
2009-02-25,35.51646423339844
2009-02-26,34.606143951416016
2009-02-27,33.709815979003906
2009-03-02,32.80651092529297
2009-03-03,33.940921783447266
2009-03-04,33.62655258178711
2009-03-05,32.47504806518555
2009-03-06,33.2733154296875
2009-03-09,32.362022399902344
2009-03-10,32.92009353637695
2009-03-11,33.499366760253906
2009-03-12,34.11398696899414
2009-03-13,34.347110748291016
2009-03-16,34.42482376098633
2009-03-17,34.79218292236328
2009-03-18,34.947593688964844
2009-03-19,34.608489990234375
2009-03-20,35.336143493652344
2009-03-23,36.47349548339844
2009-03-24,36.4028434753418
2009-03-25,37.06690979003906
2009-03-26,37.554344177246094
2009-03-27,37.01039123535156
2009-03-30,36.586524963378906
2009-03-31,36.36753845214844
2009-04-01,36.890296936035156
2009-04-02,37.34241485595703
2009-04-03,37.22232437133789
2009-04-06,37.20819091796875
2009-04-07,36.91149139404297
2009-04-08,36.93267822265625
2009-04-09,36.8055305480957
2009-04-13,36.374603271484375
2009-04-14,35.71760940551758
2009-04-15,36.76314926147461
2009-04-16,36.706626892089844
2009-04-17,36.826725006103516
2009-04-20,35.22310256958008
2009-04-21,34.862815856933594
2009-04-22,33.8950080871582
2009-04-23,33.83140563964844
2009-04-24,34.27646255493164
2009-04-27,34.693267822265625
2009-04-28,35.35026168823242
2009-04-29,35.63990783691406
2009-04-30,35.15244674682617
2009-05-01,35.173641204833984
2009-05-04,34.686214447021484
2009-05-05,35.131256103515625
2009-05-06,35.12419509887695
2009-05-07,34.96171569824219
2009-05-08,35.1453971862793
2009-05-11,35.02529525756836
2009-05-12,34.806297302246094
2009-05-13,35.08180618286133
2009-05-14,35.93659973144531
2009-05-15,35.54805374145508
2009-05-18,36.14854431152344
2009-05-19,36.459373474121094
2009-05-20,36.777278900146484
2009-05-21,36.374603271484375
2009-05-22,36.43109893798828
2009-05-26,36.22624969482422
2009-05-27,35.329078674316406
2009-05-28,36.042572021484375
2009-05-29,36.770206451416016
2009-06-01,37.53315353393555
2009-06-02,39.11558151245117
2009-06-03,38.65263366699219
2009-06-04,39.04435729980469
2009-06-05,39.087100982666016
2009-06-08,38.56717300415039
2009-06-09,38.08997344970703
2009-06-10,38.00450134277344
2009-06-11,37.726741790771484
2009-06-12,38.2110595703125
2009-06-15,37.66264343261719
2009-06-16,37.27803421020508
2009-06-17,37.726741790771484
2009-06-18,38.80931854248047
2009-06-19,38.396244049072266
2009-06-22,38.09709548950195
2009-06-23,37.75523376464844
2009-06-24,37.78371047973633
2009-06-25,38.45322799682617
2009-06-26,38.958892822265625
2009-06-29,39.058597564697266
2009-06-30,39.14406967163086
2009-07-01,40.25514602661133
2009-07-02,40.134063720703125
2009-07-06,40.689613342285156
2009-07-07,39.884788513183594
2009-07-08,39.06572341918945
2009-07-09,38.94464874267578
2009-07-10,38.96601486206055
2009-07-13,39.64974594116211
2009-07-14,39.948890686035156
2009-07-15,40.796443939208984
2009-07-16,40.782196044921875
2009-07-17,40.354862213134766
2009-07-20,39.94176483154297
2009-07-21,40.16968536376953
2009-07-22,39.806453704833984
2009-07-23,40.24089813232422
2009-07-24,40.176815032958984
2009-07-27,40.126956939697266
2009-07-28,39.8634147644043
2009-07-29,40.11983108520508
2009-07-30,40.31212615966797
2009-07-31,40.418968200683594
2009-08-03,40.0272331237793
2009-08-04,42.064208984375
2009-08-05,41.58702087402344
2009-08-06,41.188175201416016
2009-08-07,41.12407302856445
2009-08-10,40.8890266418457
2009-08-11,40.53291702270508
2009-08-12,40.36911392211914
2009-08-13,40.23377227783203
2009-08-14,40.283634185791016
2009-08-17,40.012996673583984
2009-08-18,40.05572509765625
2009-08-19,40.20529556274414
2009-08-20,40.48305892944336
2009-08-21,40.94601821899414
2009-08-24,40.91752243041992
2009-08-25,40.80356216430664
2009-08-26,41.22377395629883
2009-08-27,41.13831329345703
2009-08-28,40.426082611083984
2009-08-31,40.361976623535156
2009-09-01,40.06285095214844
2009-09-02,40.45773696899414
2009-09-03,40.66594314575195
2009-09-04,41.31212615966797
2009-09-08,41.84341049194336
2009-09-09,41.67110824584961
2009-09-10,41.5418701171875
2009-09-11,42.22394561767578
2009-09-14,42.14496612548828
2009-09-15,41.8505973815918
2009-09-16,41.88648986816406
2009-09-17,42.216766357421875
2009-09-18,42.97781753540039
2009-09-21,42.37472915649414
2009-09-22,42.05881118774414
2009-09-23,41.97983932495117
2009-09-24,42.03010177612305
2009-09-25,42.1306037902832
2009-09-28,42.38188934326172
2009-09-29,42.00856018066406
2009-09-30,42.11624526977539
2009-10-01,41.97264862060547
2009-10-02,43.724510192871094
2009-10-05,43.68860626220703
2009-10-06,43.70297622680664
2009-10-07,43.91836929321289
2009-10-08,43.35834503173828
2009-10-09,43.5019416809082
2009-10-12,43.738868713378906
2009-10-13,43.50911331176758
2009-10-14,44.2414436340332
2009-10-15,45.002506256103516
2009-10-16,44.72248458862305
2009-10-19,44.550174713134766
2009-10-20,44.212738037109375
2009-10-21,44.39939498901367
2009-10-22,44.15528106689453
2009-10-23,43.81784439086914
2009-10-26,43.41576385498047
2009-10-27,43.79629135131836
2009-10-28,43.789119720458984
2009-10-29,44.076316833496094
2009-10-30,43.47320556640625
2009-11-02,43.50911331176758
2009-11-03,43.121402740478516
2009-11-04,43.351165771484375
2009-11-05,43.961429595947266
2009-11-06,44.34196853637695
2009-11-09,44.71529006958008
2009-11-10,44.57171630859375
2009-11-11,44.94505310058594
2009-11-12,43.99015808105469
2009-11-13,44.471187591552734
2009-11-16,44.822994232177734
2009-11-17,44.94505310058594
2009-11-18,44.72966384887695
2009-11-19,44.42811965942383
2009-11-20,44.57171630859375
2009-11-23,44.8660888671875
2009-11-24,44.87326431274414
2009-11-25,45.3686637878418
2009-11-27,44.72966384887695
2009-11-30,44.67222213745117
2009-12-01,45.85688781738281
2009-12-02,46.023197174072266
2009-12-03,45.3796501159668
2009-12-04,46.167808532714844
2009-12-07,46.44257736206055
2009-12-08,45.90026092529297
2009-12-09,44.685508728027344
2009-12-10,44.71442794799805
2009-12-11,44.30229949951172
2009-12-14,44.09259796142578
2009-12-15,44.099830627441406
2009-12-16,43.875675201416016
2009-12-17,43.41291427612305
2009-12-18,43.00801086425781
2009-12-21,43.731075286865234
2009-12-22,43.83952331542969
2009-12-23,43.875675201416016
2009-12-24,44.07814407348633
2009-12-28,44.22275924682617
2009-12-29,44.17936325073242
2009-12-30,44.33121871948242
2009-12-31,43.96244812011719
2010-01-04,44.280601501464844
2010-01-05,44.81565856933594
2010-01-06,44.367366790771484
2010-01-07,44.08537292480469
2010-01-08,43.940757751464844
2010-01-11,43.8901481628418
2010-01-12,44.50475311279297
2010-01-13,44.86628723144531
2010-01-14,45.40857696533203
2010-01-15,45.03981018066406
2010-01-19,45.06874465942383
2010-01-20,44.79397201538086
2010-01-21,44.06367492675781
2010-01-22,43.66598892211914
2010-01-25,43.55030059814453
2010-01-26,43.56476974487305
2010-01-27,43.593692779541016
2010-01-28,43.19599151611328
2010-01-29,43.10923385620117
2010-02-01,43.8901481628418
2010-02-02,44.21553039550781
2010-02-03,44.31675338745117
2010-02-04,43.123687744140625
2010-02-05,43.029693603515625
2010-02-08,42.631996154785156
2010-02-09,43.42015075683594
2010-02-10,43.65876770019531
2010-02-11,44.244449615478516
2010-02-12,44.049217224121094
2010-02-16,44.33121871948242
2010-02-17,44.909664154052734
2010-02-18,45.21334457397461
2010-02-19,45.3073616027832
2010-02-22,45.12657928466797
2010-02-23,44.67106246948242
2010-02-24,44.88797378540039
2010-02-25,45.04703903198242
2010-02-26,45.16996765136719
2010-03-01,45.86411666870117
2010-03-02,46.131656646728516
2010-03-03,46.59042739868164
2010-03-04,46.68508529663086
2010-03-05,46.874427795410156
2010-03-08,46.71420669555664
2010-03-09,46.86713409423828
2010-03-10,46.91810989379883
2010-03-11,47.31133270263672
2010-03-12,47.40599822998047
2010-03-15,48.170631408691406
2010-03-16,48.11235427856445
2010-03-17,48.47645950317383
2010-03-18,48.440040588378906
2010-03-19,48.46917724609375
2010-03-22,48.28712463378906
2010-03-23,48.68764114379883
2010-03-24,48.25072479248047
2010-03-25,48.46190643310547
2010-03-26,48.491024017333984
2010-03-29,48.46190643310547
2010-03-30,48.62209701538086
2010-03-31,48.17790985107422
2010-04-01,48.55657958984375
2010-04-05,48.04682922363281
2010-04-06,48.34539031982422
2010-04-07,48.054100036621094
2010-04-08,48.03954315185547
2010-04-09,48.32353591918945
2010-04-12,48.29441452026367
2010-04-13,48.34539031982422
2010-04-14,48.27256774902344
2010-04-15,48.25799560546875
2010-04-16,48.1633415222168
2010-04-19,48.148773193359375
2010-04-20,47.98857116699219
2010-04-21,48.04682922363281
2010-04-22,47.158424377441406
2010-04-23,47.12200164794922
2010-04-26,47.3477668762207
2010-04-27,46.77247619628906
2010-04-28,47.1511344909668
2010-04-29,47.47882843017578
2010-04-30,47.4933967590332
2010-05-03,47.83565139770508
2010-05-04,47.64631652832031
2010-05-05,47.47882843017578
2010-05-06,47.11471939086914
2010-05-07,47.020057678222656
2010-05-10,48.359947204589844
2010-05-11,48.46190643310547
2010-05-12,48.74588394165039
2010-05-13,48.410926818847656
2010-05-14,48.11235427856445
2010-05-17,48.607540130615234
2010-05-18,48.44732666015625
2010-05-19,48.090492248535156
2010-05-20,46.503021240234375
2010-05-21,46.299137115478516
2010-05-24,46.10982131958008
2010-05-25,45.796669006347656
2010-05-26,44.587852478027344
2010-05-27,45.80396270751953
2010-05-28,45.796669006347656
2010-06-01,45.702003479003906
2010-06-02,46.56792449951172
2010-06-03,46.501869201660156
2010-06-04,45.085601806640625
2010-06-07,45.29840087890625
2010-06-08,45.97352981567383
2010-06-09,45.856117248535156
2010-06-10,46.846736907958984
2010-06-11,46.641292572021484
2010-06-14,46.85410690307617
2010-06-15,47.140281677246094
2010-06-16,46.898128509521484
2010-06-17,47.32373046875
2010-06-18,47.02288055419922
2010-06-21,46.978851318359375
2010-06-22,46.45049285888672
2010-06-23,46.032230377197266
2010-06-24,45.790069580078125
2010-06-25,44.59395217895508
2010-06-28,45.46718215942383
2010-06-29,44.93149948120117
2010-06-30,44.72603225708008
2010-07-01,45.14431381225586
2010-07-02,45.15164566040039
2010-07-06,45.23234939575195
2010-07-07,46.17899703979492
2010-07-08,46.964168548583984
2010-07-09,46.5972785949707
2010-07-12,46.773380279541016
2010-07-13,46.54590606689453
2010-07-14,46.641292572021484
2010-07-15,46.34776306152344
2010-07-16,45.826759338378906
2010-07-19,45.533233642578125
2010-07-20,47.4998664855957
2010-07-21,46.927486419677734
2010-07-22,47.1182746887207
2010-07-23,47.294403076171875
2010-07-26,47.683319091796875
2010-07-27,48.20432662963867
2010-07-28,47.84475326538086
2010-07-29,47.61726379394531
2010-07-30,47.63194274902344
2010-08-02,47.896114349365234
2010-08-03,48.26301956176758
2010-08-04,48.556549072265625
2010-08-05,48.12360763549805
2010-08-06,48.35842514038086
2010-08-09,48.74000930786133
2010-08-10,48.820716857910156
2010-08-11,48.02820587158203
2010-08-12,47.83006286621094
2010-08-13,48.108924865722656
2010-08-16,48.01353073120117
2010-08-17,48.101585388183594
2010-08-18,48.0795783996582
2010-08-19,47.4484977722168
2010-08-20,47.55123519897461
2010-08-23,47.56590270996094
2010-08-24,47.53654861450195
2010-08-25,47.3824462890625
2010-08-26,47.059574127197266
2010-08-27,47.05222702026367
2010-08-30,46.67063522338867
2010-08-31,47.09626007080078
2010-09-01,47.97607421875
2010-09-02,48.035221099853516
2010-09-03,48.47882843017578
2010-09-07,48.412296295166016
2010-09-08,48.375328063964844
2010-09-09,49.23186492919922
2010-09-10,49.462745666503906
2010-09-13,49.34357452392578
2010-09-14,49.142486572265625
2010-09-15,49.52977752685547
2010-09-16,49.61170959472656
2010-09-17,49.24674987792969
2010-09-20,49.82025146484375
2010-09-21,49.4999885559082
2010-09-22,49.64895248413086
2010-09-23,49.0009651184082
2010-09-24,49.25420379638672
2010-09-27,49.43294906616211
2010-09-28,49.73832321166992
2010-09-29,49.71598434448242
2010-09-30,49.48509216308594
2010-10-01,49.90217590332031
2010-10-04,49.80536651611328
2010-10-05,50.468231201171875
2010-10-06,50.728912353515625
2010-10-07,49.23186492919922
2010-10-08,48.97116470336914
2010-10-11,48.799861907958984
2010-10-12,49.21695327758789
2010-10-13,49.45529556274414
2010-10-14,49.63405227661133
2010-10-15,49.663856506347656
2010-10-18,49.52977752685547
2010-10-19,48.717933654785156
2010-10-20,48.390220642089844
2010-10-21,48.5466194152832
2010-10-22,48.420013427734375
2010-10-25,48.44981384277344
2010-10-26,48.256168365478516
2010-10-27,47.86884307861328
2010-10-28,48.420013427734375
2010-10-29,48.6359977722168
2010-11-01,48.822208404541016
2010-11-02,49.0084228515625
2010-11-03,48.5615234375
2010-11-04,48.673248291015625
2010-11-05,48.47216033935547
2010-11-08,48.49449920654297
2010-11-09,48.6359977722168
2010-11-10,48.59877014160156
2010-11-11,48.33806610107422
2010-11-12,48.144432067871094
2010-11-15,47.98058319091797
2010-11-16,47.697547912597656
2010-11-17,47.623069763183594
2010-11-18,48.24126434326172
2010-11-19,48.19657516479492
2010-11-22,48.18912887573242
2010-11-23,47.5858268737793
2010-11-24,47.913551330566406
2010-11-26,47.59327697753906
2010-11-29,47.67521286010742
2010-11-30,48.13698196411133
2010-12-01,49.24755096435547
2010-12-02,48.924888610839844
2010-12-03,48.90237045288086
2010-12-06,48.57221984863281
2010-12-07,48.53468704223633
2010-12-08,48.49717330932617
2010-12-09,48.564701080322266
2010-12-10,48.69976043701172
2010-12-13,49.17251205444336
2010-12-14,49.217525482177734
2010-12-15,48.95490264892578
2010-12-16,49.337589263916016
2010-12-17,49.502685546875
2010-12-20,49.75780487060547
2010-12-21,49.07496643066406
2010-12-22,49.285064697265625
2010-12-23,49.292579650878906
2010-12-27,49.089969635009766
2010-12-28,48.984928131103516
2010-12-29,49.02244186401367
2010-12-30,48.8648567199707
2010-12-31,49.02244186401367
2011-01-03,49.337589263916016
2011-01-04,49.08246994018555
2011-01-05,49.967926025390625
2011-01-06,50.155513763427734
2011-01-07,49.81784439086914
2011-01-10,49.56270980834961
2011-01-11,49.77281188964844
2011-01-12,50.07297134399414
2011-01-13,50.20804977416992
2011-01-14,50.110496520996094
2011-01-18,49.952919006347656
2011-01-19,49.450157165527344
2011-01-20,49.450157165527344
2011-01-21,49.42763900756836
2011-01-24,49.6602668762207
2011-01-25,49.35260009765625
2011-01-26,49.420143127441406
2011-01-27,49.19502258300781
2011-01-28,48.3245849609375
2011-01-31,48.257049560546875
2011-02-01,48.812339782714844
2011-02-02,48.512176513671875
2011-02-03,48.15950393676758
2011-02-04,47.904354095458984
2011-02-07,47.78432083129883
2011-02-08,48.15199279785156
2011-02-09,48.339599609375
2011-02-10,47.544189453125
2011-02-11,47.926883697509766
2011-02-14,47.52918243408203
2011-02-15,48.28706359863281
2011-02-16,47.99441146850586
2011-02-17,48.549705505371094
2011-02-18,47.58170700073242
2011-02-22,47.38660430908203
2011-02-23,47.22152328491211
2011-02-24,47.296566009521484
2011-02-25,47.724266052246094
2011-02-28,47.589202880859375
2011-03-01,47.43161392211914
2011-03-02,47.59041976928711
2011-03-03,48.2028694152832
2011-03-04,47.938236236572266
2011-03-07,47.99116516113281
2011-03-08,48.23311996459961
2011-03-09,48.883392333984375
2011-03-10,48.71703338623047
2011-03-11,48.883392333984375
2011-03-14,48.49777603149414
2011-03-15,47.643333435058594
2011-03-16,47.11405944824219
2011-03-17,47.696266174316406
2011-03-18,47.817256927490234
2011-03-21,48.4675178527832
2011-03-22,48.346534729003906
2011-03-23,48.54313278198242
2011-03-24,48.54313278198242
2011-03-25,48.37678909301758
2011-03-28,48.64898681640625
2011-03-29,48.51289749145508
2011-03-30,49.18584442138672
2011-03-31,48.70191955566406
2011-04-01,49.31438446044922
2011-04-04,49.21608352661133
2011-04-05,49.58658218383789
2011-04-06,49.715110778808594
2011-04-07,49.84365463256836
2011-04-08,49.70001220703125
2011-04-11,49.93437576293945
2011-04-12,50.33513259887695
2011-04-13,50.244407653808594
2011-04-14,50.43343734741211
2011-04-15,50.74345016479492
2011-04-18,50.7736930847168
2011-04-19,50.516605377197266
2011-04-20,50.9098014831543
2011-04-21,50.97029495239258
2011-04-25,50.68296813964844
2011-04-26,51.1971321105957
2011-04-27,51.36347579956055
2011-04-28,52.716941833496094
2011-04-29,52.0893440246582
2011-05-02,52.40690994262695
2011-05-03,52.61863327026367
2011-05-04,52.800113677978516
2011-05-05,52.04397964477539
2011-05-06,52.37666702270508
2011-05-09,52.79254150390625
2011-05-10,52.951332092285156
2011-05-11,53.079864501953125
2011-05-12,53.65452575683594
2011-05-13,53.352073669433594
2011-05-16,53.47306823730469
2011-05-17,53.767940521240234
2011-05-18,53.888919830322266
2011-05-19,54.2745475769043
2011-05-20,53.91160583496094
2011-05-23,53.71501541137695
2011-05-24,53.6696662902832
2011-05-25,53.26890563964844
2011-05-26,53.24620819091797
2011-05-27,53.23109817504883
2011-05-31,53.7755126953125
2011-06-01,53.53558349609375
2011-06-02,52.941505432128906
2011-06-03,52.530216217041016
2011-06-06,52.46929168701172
2011-06-07,52.4997673034668
2011-06-08,52.43122100830078
2011-06-09,52.941505432128906
2011-06-10,52.31697082519531
2011-06-13,52.59877014160156
2011-06-14,52.987213134765625
2011-06-15,52.15703201293945
2011-06-16,52.46929168701172
2011-06-17,52.33980941772461
2011-06-20,52.537841796875
2011-06-21,52.4997673034668
2011-06-22,52.38552474975586
2011-06-23,51.776206970214844
2011-06-24,52.13416290283203
2011-06-27,52.591163635253906
2011-06-28,53.0252799987793
2011-06-29,53.28425979614258
2011-06-30,53.64222717285156
2011-07-01,53.459407806396484
2011-07-05,53.13954544067383
2011-07-06,53.44417953491211
2011-07-07,53.710758209228516
2011-07-08,53.26139831542969
2011-07-11,52.78158187866211
2011-07-12,52.560691833496094
2011-07-13,52.46929168701172
2011-07-14,52.248416900634766
2011-07-15,52.195098876953125
2011-07-18,51.79144287109375
2011-07-19,52.20271301269531
2011-07-20,52.164634704589844
2011-07-21,50.39764404296875
2011-07-22,50.08537292480469
2011-07-25,49.02669906616211
2011-07-26,48.798194885253906
2011-07-27,48.63825225830078
2011-07-28,48.66111373901367
2011-07-29,48.77534103393555
2011-08-01,48.63825225830078
2011-08-02,48.120338439941406
2011-08-03,49.1104736328125
2011-08-04,48.249813079833984
2011-08-05,49.25517272949219
2011-08-08,47.960391998291016
2011-08-09,48.05179214477539
2011-08-10,45.94205093383789
2011-08-11,47.88423156738281
2011-08-12,48.120338439941406
2011-08-15,48.417388916015625
2011-08-16,48.56208801269531
2011-08-17,49.21710205078125
2011-08-18,48.05179214477539
2011-08-19,47.27492141723633
2011-08-22,47.16067123413086
2011-08-23,48.34883117675781
2011-08-24,48.51639175415039
2011-08-25,47.998470306396484
2011-08-26,48.105106353759766
2011-08-29,48.86675262451172
2011-08-30,49.14093017578125
2011-08-31,49.46722412109375
2011-09-01,49.252262115478516
2011-09-02,48.59965133666992
2011-09-06,47.947059631347656
2011-09-07,47.3098030090332
2011-09-08,47.094844818115234
2011-09-09,46.058353424072266
2011-09-12,46.17350769042969
2011-09-13,46.480621337890625
2011-09-14,47.27911376953125
2011-09-15,48.538238525390625
2011-09-16,47.63994598388672
2011-09-19,46.4959716796875
2011-09-20,46.36545944213867
2011-09-21,46.67255401611328
2011-09-22,46.772369384765625
2011-09-23,46.32706832885742
2011-09-26,47.51710891723633
2011-09-27,47.93169403076172
2011-09-28,47.578529357910156
2011-09-29,48.04685592651367
2011-09-30,47.524784088134766
2011-10-03,46.28867721557617
2011-10-04,46.411521911621094
2011-10-05,46.28867721557617
2011-10-06,46.50365447998047
2011-10-07,46.84914779663086
2011-10-10,47.50174331665039
2011-10-11,46.795406341552734
2011-10-12,48.13898849487305
2011-10-13,47.87796401977539
2011-10-14,47.78582763671875
2011-10-17,47.51710891723633
2011-10-18,47.91634750366211
2011-10-19,47.68600845336914
2011-10-20,47.69369888305664
2011-10-21,47.8165397644043
2011-10-24,47.67832565307617
2011-10-25,47.46337127685547
2011-10-26,47.60923767089844
2011-10-27,48.277191162109375
2011-10-28,48.52288055419922
2011-10-31,48.3309440612793
2011-11-01,47.77814483642578
2011-11-02,47.91634750366211
2011-11-03,48.21577072143555
2011-11-04,47.59389114379883
2011-11-07,47.98544692993164
2011-11-08,48.87604904174805
2011-11-09,47.8165397644043
2011-11-10,48.33860778808594
2011-11-11,48.58430862426758
2011-11-14,48.21577072143555
2011-11-15,49.5209846496582
2011-11-16,49.97397232055664
2011-11-17,49.20619583129883
2011-11-18,49.052650451660156
2011-11-21,48.484493255615234
2011-11-22,48.50752258300781
2011-11-23,47.90867233276367
2011-11-25,47.97776794433594
2011-11-28,48.36164855957031
2011-11-29,48.87604904174805
2011-11-30,49.5378532409668
2011-12-01,49.607513427734375
2011-12-02,49.75457763671875
2011-12-05,49.84746170043945
2011-12-06,50.04096603393555
2011-12-07,50.242218017578125
2011-12-08,49.79328918457031
2011-12-09,50.45894241333008
2011-12-12,50.0487060546875
2011-12-13,49.75457763671875
2011-12-14,49.522377014160156
2011-12-15,50.19576644897461
2011-12-16,50.08740997314453
2011-12-19,49.82423782348633
2011-12-20,50.72210693359375
2011-12-21,51.11686325073242
2011-12-22,51.11686325073242
2011-12-23,51.52709197998047
2011-12-27,51.38003921508789
2011-12-28,51.016239166259766
2011-12-29,51.5038948059082
2011-12-30,51.35681915283203
2012-01-03,51.39551544189453
2012-01-04,51.6586799621582
2012-01-05,51.25620651245117
2012-01-06,50.61374282836914
2012-01-09,50.87691879272461
2012-01-10,50.82273864746094
2012-01-11,50.31962203979492
2012-01-12,50.017757415771484
2012-01-13,49.84746170043945
2012-01-17,50.04096603393555
2012-01-18,50.19576644897461
2012-01-19,51.016239166259766
2012-01-20,51.30263900756836
2012-01-23,51.163307189941406
2012-01-24,51.240699768066406
2012-01-25,51.62772750854492
2012-01-26,51.488407135009766
2012-01-27,50.938846588134766
2012-01-30,50.62922668457031
2012-01-31,50.830482482910156
2012-02-01,51.38003921508789
2012-02-02,51.39551544189453
2012-02-03,51.59678268432617
2012-02-06,51.488407135009766
2012-02-07,51.67417907714844
2012-02-08,51.6586799621582
2012-02-09,49.7468376159668
2012-02-10,49.4991455078125
2012-02-13,49.29789733886719
2012-02-14,49.166316986083984
2012-02-15,48.81800842285156
2012-02-16,48.55483627319336
2012-02-17,48.516136169433594
2012-02-21,48.87218475341797
2012-02-22,48.84122085571289
2012-02-23,48.864437103271484
2012-02-24,49.00377655029297
2012-02-27,49.011512756347656
2012-02-28,49.011512756347656
2012-02-29,49.116844177246094
2012-03-01,48.81251525878906
2012-03-02,48.78911590576172
2012-03-05,48.99980163574219
2012-03-06,48.60181427001953
2012-03-07,48.86714172363281
2012-03-08,49.12466049194336
2012-03-09,49.280723571777344
2012-03-12,49.89723587036133
2012-03-13,50.209381103515625
2012-03-14,49.99087905883789
2012-03-15,50.07670974731445
2012-03-16,50.31083679199219
2012-03-19,50.51372528076172
2012-03-20,50.94293975830078
2012-03-21,51.00537872314453
2012-03-22,51.028785705566406
2012-03-23,50.95854949951172
2012-03-26,51.33313751220703
2012-03-27,51.51262283325195
2012-03-28,51.4501838684082
2012-03-29,51.52041244506836
2012-03-30,51.7779426574707
2012-04-02,52.08229064941406
2012-04-03,51.94180679321289
2012-04-04,51.770145416259766
2012-04-05,51.62187957763672
2012-04-09,50.997562408447266
2012-04-10,50.60737228393555
2012-04-11,50.841487884521484
2012-04-12,51.02098083496094
2012-04-13,50.7712516784668
2012-04-16,51.49700927734375
2012-04-17,51.816959381103516
2012-04-18,51.66868209838867
2012-04-19,51.62187957763672
2012-04-20,51.99644470214844
2012-04-23,51.64528274536133
2012-04-24,51.902809143066406
2012-04-25,52.02766799926758
2012-04-26,51.793540954589844
2012-04-27,51.582855224609375
2012-04-30,51.50480270385742
2012-05-01,51.887184143066406
2012-05-02,52.15254211425781
2012-05-03,52.21495056152344
2012-05-04,51.42677688598633
2012-05-07,51.98866271972656
2012-05-08,51.91059875488281
2012-05-09,51.45800018310547
2012-05-10,52.12130355834961
2012-05-11,52.129119873046875
2012-05-14,52.4022331237793
2012-05-15,52.948509216308594
2012-05-16,53.65083694458008
2012-05-17,53.666446685791016
2012-05-18,53.15920639038086
2012-05-21,53.04996871948242
2012-05-22,53.12798309326172
2012-05-23,53.0655632019043
2012-05-24,53.697662353515625
2012-05-25,53.565006256103516
2012-05-29,54.10345458984375
2012-05-30,53.653594970703125
2012-05-31,53.36259841918945
2012-06-01,53.095191955566406
2012-06-04,53.07160186767578
2012-06-05,52.694087982177734
2012-06-06,53.079471588134766
2012-06-07,53.2288932800293
2012-06-08,53.7243766784668
2012-06-11,53.5198974609375
2012-06-12,53.795166015625
2012-06-13,53.91313934326172
2012-06-14,54.479393005371094
2012-06-15,54.64455032348633
2012-06-18,54.73893737792969
2012-06-19,54.510841369628906
2012-06-20,54.196266174316406
2012-06-21,53.87381362915039
2012-06-22,54.031105041503906
2012-06-25,53.96031951904297
2012-06-26,54.219852447509766
2012-06-27,54.85691833496094
2012-06-28,54.73893737792969
2012-06-29,55.57260513305664
2012-07-02,55.65125274658203
2012-07-03,55.65125274658203
2012-07-05,55.1872444152832
2012-07-06,55.226558685302734
2012-07-09,55.04566955566406
2012-07-10,54.95127487182617
2012-07-11,55.15576171875
2012-07-12,54.935550689697266
2012-07-13,55.37598419189453
2012-07-16,55.32879638671875
2012-07-17,55.31307601928711
2012-07-18,55.35237503051758
2012-07-19,55.38384246826172
2012-07-20,55.02206802368164
2012-07-23,54.534461975097656
2012-07-24,54.10189437866211
2012-07-25,55.28948211669922
2012-07-26,56.01303482055664
2012-07-27,56.83097457885742
2012-07-30,57.216346740722656
2012-07-31,57.200626373291016
2012-08-01,56.941078186035156
2012-08-02,56.469181060791016
2012-08-03,57.31073760986328
2012-08-06,57.00400161743164
2012-08-07,56.85455322265625
2012-08-08,57.074790954589844
2012-08-09,56.73659896850586
2012-08-10,56.72872543334961
2012-08-13,56.61862564086914
2012-08-14,56.81523895263672
2012-08-15,57.11410140991211
2012-08-16,57.86912155151367
2012-08-17,57.71969223022461
2012-08-20,57.672515869140625
2012-08-21,57.42084503173828
2012-08-22,57.32646179199219
2012-08-23,57.14556121826172
2012-08-24,57.46015930175781
2012-08-27,57.546661376953125
2012-08-28,57.507328033447266
2012-08-29,57.23994827270508
2012-08-30,56.768028259277344
2012-08-31,56.96467971801758
2012-09-04,57.00400161743164
2012-09-05,56.685482025146484
2012-09-06,57.16881561279297
2012-09-07,57.129180908203125
2012-09-10,56.92316436767578
2012-09-11,56.71717071533203
2012-09-12,55.51276779174805
2012-09-13,56.162513732910156
2012-09-14,55.82972717285156
2012-09-17,55.77425765991211
2012-09-18,56.04365539550781
2012-09-19,56.13873291015625
2012-09-20,56.44776153564453
2012-09-21,55.901031494140625
2012-09-24,56.01988220214844
2012-09-25,55.7425651550293
2012-09-26,55.79802322387695
2012-09-27,55.97233963012695
2012-09-28,56.075347900390625
2012-10-01,55.98026657104492
2012-10-02,55.95649719238281
2012-10-03,56.01988220214844
2012-10-04,56.15459060668945
2012-10-05,56.33683776855469
2012-10-08,56.408145904541016
2012-10-09,56.34474182128906
2012-10-10,55.69500732421875
2012-10-11,55.3226203918457
2012-10-12,55.504844665527344
2012-10-15,55.734622955322266
2012-10-16,55.702945709228516
2012-10-17,55.54447555541992
2012-10-18,56.06743240356445
2012-10-19,55.370140075683594
2012-10-22,55.148284912109375
2012-10-23,54.29254150390625
2012-10-24,54.19746398925781
2012-10-25,54.585723876953125
2012-10-26,54.65703201293945
2012-10-31,54.863059997558594
2012-11-01,55.02151107788086
2012-11-02,54.712501525878906
2012-11-05,54.67286682128906
2012-11-06,54.950199127197266
2012-11-07,54.66493606567383
2012-11-08,54.50648498535156
2012-11-09,54.55401611328125
2012-11-12,54.363853454589844
2012-11-13,54.34007263183594
2012-11-14,54.01521682739258
2012-11-15,54.03106689453125
2012-11-16,54.12614822387695
2012-11-19,54.49855422973633
2012-11-20,54.6015625
2012-11-21,54.91849136352539
2012-11-23,55.615779876708984
2012-11-26,55.465240478515625
2012-11-27,55.55238342285156
2012-11-28,55.7425651550293
2012-11-29,55.710880279541016
2012-11-30,55.631614685058594
2012-12-03,55.362213134765625
2012-12-04,55.35429382324219
2012-12-05,55.66332244873047
2012-12-06,55.91084671020508
2012-12-07,56.10249710083008
2012-12-10,56.06255340576172
2012-12-11,56.23025894165039
2012-12-12,56.08651351928711
2012-12-13,56.06255340576172
2012-12-14,56.022647857666016
2012-12-17,56.19032669067383
2012-12-18,56.31809616088867
2012-12-19,55.7990608215332
2012-12-20,55.98271942138672
2012-12-21,55.59944534301758
2012-12-24,55.43973922729492
2012-12-26,54.9686393737793
2012-12-27,54.83287048339844
2012-12-28,54.31385803222656
2012-12-31,54.64124298095703
2013-01-02,55.35987854003906
2013-01-03,55.383846282958984
2013-01-04,55.46369552612305
2013-01-07,55.455718994140625
2013-01-08,55.62339782714844
2013-01-09,55.90287780761719
2013-01-10,56.54166793823242
2013-01-11,56.59756851196289
2013-01-14,56.92495346069336
2013-01-15,57.172481536865234
2013-01-16,57.07667922973633
2013-01-17,57.835227966308594
2013-01-18,57.87515640258789
2013-01-22,57.65157699584961
2013-01-23,57.34016036987305
2013-01-24,57.67555236816406
2013-01-25,57.88315200805664
2013-01-28,57.97896957397461
2013-01-29,58.24247360229492
2013-01-30,58.458065032958984
2013-01-31,58.17059326171875
2013-02-01,58.0268669128418
2013-02-04,57.85120391845703
2013-02-05,58.41016387939453
2013-02-06,58.10673522949219
2013-02-07,58.13866424560547
2013-02-08,57.97098159790039
2013-02-11,57.77933883666992
2013-02-12,57.627628326416016
2013-02-13,57.09264373779297
2013-02-14,57.71546936035156
2013-02-15,58.83336639404297
2013-02-19,60.286617279052734
2013-02-20,60.22273635864258
2013-02-21,60.17482376098633
2013-02-22,60.3425178527832
2013-02-25,60.03909683227539
2013-02-26,60.3824577331543
2013-02-27,60.701717376708984
2013-02-28,60.9349365234375
2013-03-01,61.0635986328125
2013-03-04,61.60243225097656
2013-03-05,61.843685150146484
2013-03-06,61.763275146484375
2013-03-07,62.03669357299805
2013-03-08,62.08493423461914
2013-03-11,61.803470611572266
2013-03-12,61.835636138916016
2013-03-13,61.88391876220703
2013-03-14,62.07691192626953
2013-03-15,61.956275939941406
2013-03-18,61.6667594909668
2013-03-19,61.658729553222656
2013-03-20,61.377262115478516
2013-03-21,61.24055480957031
2013-03-22,63.24302673339844
2013-03-25,62.59160614013672
2013-03-26,63.46818923950195
2013-03-27,62.96152877807617
2013-03-28,63.62099838256836
2013-04-01,63.61296463012695
2013-04-02,64.12763977050781
2013-04-03,63.50037384033203
2013-04-04,63.95875930786133
2013-04-05,63.20280456542969
2013-04-08,63.93463134765625
2013-04-09,63.70144271850586
2013-04-10,64.3849868774414
2013-04-11,64.3045654296875
2013-04-12,64.32869720458984
2013-04-15,63.46818923950195
2013-04-16,64.33675384521484
2013-04-17,63.41191101074219
2013-04-18,65.34200286865234
2013-04-19,66.56440734863281
2013-04-22,67.05496978759766
2013-04-23,67.63399505615234
2013-04-24,66.21857452392578
2013-04-25,66.60462188720703
2013-04-26,66.35530853271484
2013-04-29,66.46790313720703
2013-04-30,66.32313537597656
2013-05-01,66.11405181884766
2013-05-02,66.3955307006836
2013-05-03,66.6126708984375
2013-05-06,66.3472671508789
2013-05-07,67.0228042602539
2013-05-08,66.9504165649414
2013-05-09,66.62870788574219
2013-05-10,66.74935913085938
2013-05-13,66.77350616455078
2013-05-14,67.15147399902344
2013-05-15,67.754638671875
2013-05-16,67.344482421875
2013-05-17,67.39273071289062
2013-05-20,66.41963195800781
2013-05-21,66.45182800292969
2013-05-22,66.72523498535156
2013-05-23,66.04166412353516
2013-05-24,66.41158294677734
2013-05-28,66.29096221923828
2013-05-29,65.23746490478516
2013-05-30,65.31786346435547
2013-05-31,64.9559555053711
2013-06-03,65.4626235961914
2013-06-04,65.64759063720703
2013-06-05,65.7593765258789
2013-06-06,66.13188934326172
2013-06-07,66.82026672363281
2013-06-10,67.0955810546875
2013-06-11,66.83646392822266
2013-06-12,66.49630737304688
2013-06-13,66.39105224609375
2013-06-14,66.51251220703125
2013-06-17,66.85266876220703
2013-06-18,66.86884307861328
2013-06-19,65.50830078125
2013-06-20,63.90481185913086
2013-06-21,64.892822265625
2013-06-24,64.892822265625
2013-06-25,64.81996154785156
2013-06-26,65.8403549194336
2013-06-27,66.1966781616211
2013-06-28,66.2371826171875
2013-07-01,66.43962860107422
2013-07-02,66.1480941772461
2013-07-03,65.37873840332031
2013-07-05,65.43543243408203
2013-07-08,66.22907257080078
2013-07-09,67.03082275390625
2013-07-10,67.20899200439453
2013-07-11,68.47235107421875
2013-07-12,68.28607940673828
2013-07-15,68.61001586914062
2013-07-16,68.04312896728516
2013-07-17,69.03113555908203
2013-07-18,70.29450225830078
2013-07-19,69.9786605834961
2013-07-22,69.97056579589844
2013-07-23,69.80857849121094
2013-07-24,69.35505676269531
2013-07-25,69.28218078613281
2013-07-26,69.08782958984375
2013-07-29,69.03924560546875
2013-07-30,68.92585754394531
2013-07-31,67.6543960571289
2013-08-01,68.18889617919922
2013-08-02,68.26179504394531
2013-08-05,68.41566467285156
2013-08-06,68.87725830078125
2013-08-07,68.64240264892578
2013-08-08,68.57762145996094
2013-08-09,68.30226135253906
2013-08-12,67.873046875
2013-08-13,67.53292846679688
2013-08-14,67.01461791992188
2013-08-15,65.52450561523438
2013-08-16,64.9333267211914
2013-08-19,65.5002212524414
2013-08-20,65.02239990234375
2013-08-21,64.04248046875
2013-08-22,64.18016052246094
2013-08-23,64.66606903076172
2013-08-26,64.5364990234375
2013-08-27,64.02629089355469
2013-08-28,64.2773208618164
2013-08-29,64.24495697021484
2013-08-30,64.56890106201172
2013-09-03,64.94950866699219
2013-09-04,64.86634063720703
2013-09-05,64.49114990234375
2013-09-06,64.64611053466797
2013-09-09,64.7439956665039
2013-09-10,64.78477478027344
2013-09-11,65.1273193359375
2013-09-12,65.14363861083984
2013-09-13,65.51067352294922
2013-09-16,66.08160400390625
2013-09-17,66.60360717773438
2013-09-18,67.59866333007812
2013-09-19,66.73409271240234
2013-09-20,66.6688461303711
2013-09-23,66.08160400390625
2013-09-24,65.69010162353516
2013-09-25,65.42094421386719
2013-09-26,65.69010162353516
2013-09-27,65.41280364990234
2013-09-30,64.84185028076172
2013-10-01,65.10284423828125
2013-10-02,64.89080047607422
2013-10-03,64.79293060302734
2013-10-04,64.93971252441406
2013-10-07,64.48298645019531
2013-10-08,64.37693786621094
2013-10-09,64.84185028076172
2013-10-10,65.81243896484375
2013-10-11,65.92662811279297
2013-10-14,66.1386947631836
2013-10-15,65.73905181884766
2013-10-16,67.10111236572266
2013-10-17,67.35395812988281
2013-10-18,67.7046890258789
2013-10-21,67.18268585205078
2013-10-22,68.05538940429688
2013-10-23,67.96569061279297
2013-10-24,67.32134246826172
2013-10-25,67.98201751708984
2013-10-28,69.0096664428711
2013-10-29,69.72742462158203
2013-10-30,69.09940338134766
2013-10-31,68.5855712890625
2013-11-01,68.96891021728516
2013-11-04,68.8139419555664
2013-11-05,69.01782989501953
2013-11-06,70.6980209350586
2013-11-07,69.57246398925781
2013-11-08,70.02105712890625
2013-11-11,69.6948013305664
2013-11-12,69.84976196289062
2013-11-13,70.10261535644531
2013-11-14,70.46149444580078
2013-11-15,70.16786193847656
2013-11-18,70.02921295166016
2013-11-19,69.56430053710938
2013-11-20,69.4338150024414
2013-11-21,69.83345031738281
2013-11-22,69.93132781982422
2013-11-25,69.62955474853516
2013-11-26,68.83023834228516
2013-11-27,68.8547134399414
2013-11-29,68.88734436035156
2013-12-02,68.2674560546875
2013-12-03,68.34901428222656
2013-12-04,67.87108612060547
2013-12-05,67.25523376464844
2013-12-06,68.28169250488281
2013-12-09,67.9039535522461
2013-12-10,67.66580200195312
2013-12-11,67.88750457763672
2013-12-12,66.74606323242188
2013-12-13,66.45866394042969
2013-12-16,66.51614379882812
2013-12-17,66.07267761230469
2013-12-18,66.86102294921875
2013-12-19,67.0581283569336
2013-12-20,67.18131256103516
2013-12-23,67.22235870361328
2013-12-24,67.37018585205078
2013-12-26,67.70686340332031
2013-12-27,67.92036437988281
2013-12-30,68.08460998535156
2013-12-31,68.1092300415039
2014-01-02,67.41943359375
2014-01-03,67.53439331054688
2014-01-06,67.5672378540039
2014-01-07,68.55268859863281
2014-01-08,68.35559844970703
2014-01-09,68.03532409667969
2014-01-10,68.56910705566406
2014-01-13,67.64115905761719
2014-01-14,67.64115905761719
2014-01-15,68.06817626953125
2014-01-16,68.04354858398438
2014-01-17,67.50154113769531
2014-01-21,68.09281158447266
2014-01-22,68.03532409667969
2014-01-23,67.69043731689453
2014-01-24,66.86924743652344
2014-01-27,67.38658142089844
2014-01-28,67.60009765625
2014-01-29,65.8756332397461
2014-01-30,66.58184051513672
2014-01-31,65.99057006835938
2014-02-03,64.5206527709961
2014-02-04,64.7259521484375
2014-02-05,65.2186508178711
2014-02-06,65.19403076171875
2014-02-07,65.8756332397461
2014-02-10,66.18767547607422
2014-02-11,66.721435546875
2014-02-12,66.91851043701172
2014-02-13,65.44038391113281
2014-02-14,64.1264877319336
2014-02-18,64.20039367675781
2014-02-19,63.313507080078125
2014-02-20,64.060791015625
2014-02-21,64.23324584960938
2014-02-24,64.77523040771484
2014-02-25,65.06263732910156
2014-02-26,64.58636474609375
2014-02-27,64.93125915527344
2014-02-28,65.75244903564453
2014-03-03,65.3007583618164
2014-03-04,66.39295196533203
2014-03-05,67.07769775390625
2014-03-06,67.25965118408203
2014-03-07,67.44986724853516
2014-03-10,67.59044647216797
2014-03-11,68.48360443115234
2014-03-12,67.93779754638672
2014-03-13,67.64835357666016
2014-03-14,66.98674011230469
2014-03-17,67.85508728027344
2014-03-18,67.77239990234375
2014-03-19,67.29273223876953
2014-03-20,67.69796752929688
2014-03-21,67.92953491210938
2014-03-24,67.7227783203125
2014-03-25,68.14453887939453
2014-03-26,68.53323364257812
2014-03-27,68.26031494140625
2014-03-28,68.5993881225586
2014-03-31,69.0542221069336
2014-04-01,68.54149627685547
2014-04-02,68.41744995117188
2014-04-03,68.5663070678711
2014-04-04,68.30167388916016
2014-04-07,69.393310546875
2014-04-08,69.02942657470703
2014-04-09,69.393310546875
2014-04-10,69.15348052978516
2014-04-11,68.7647933959961
2014-04-14,69.0955810546875
2014-04-15,69.43464660644531
2014-04-16,70.10450744628906
2014-04-17,70.74958801269531
2014-04-21,71.04729461669922
2014-04-22,70.41051483154297
2014-04-23,70.63379669189453
2014-04-24,70.72478485107422
2014-04-25,70.50147247314453
2014-04-28,71.79986572265625
2014-04-29,70.92326354980469
2014-04-30,71.03075408935547
2014-05-01,70.76612091064453
2014-05-02,70.72478485107422
2014-05-05,71.04729461669922
2014-05-06,70.6007080078125
2014-05-07,71.78331756591797
2014-05-08,71.66755676269531
2014-05-09,72.08928680419922
2014-05-12,71.89083862304688
2014-05-13,72.13893127441406
2014-05-14,71.81639099121094
2014-05-15,70.90670013427734
2014-05-16,71.56832122802734
2014-05-19,71.20443725585938
2014-05-20,70.83229064941406
2014-05-21,71.20443725585938
2014-05-22,70.77439880371094
2014-05-23,70.98114776611328
2014-05-27,71.5600357055664
2014-05-28,72.00660705566406
2014-05-29,72.55242919921875
2014-05-30,73.04862976074219
2014-06-02,72.668212890625
2014-06-03,72.9576644897461
2014-06-04,72.84516906738281
2014-06-05,73.12012481689453
2014-06-06,73.24510955810547
2014-06-09,73.32010650634766
2014-06-10,73.67001342773438
2014-06-11,73.13680267333984
2014-06-12,72.67019653320312
2014-06-13,72.64521789550781
2014-06-16,72.9451904296875
2014-06-17,72.72020721435547
2014-06-18,74.0699462890625
2014-06-19,75.06976318359375
2014-06-20,74.23660278320312
2014-06-23,73.6450424194336
2014-06-24,73.36174011230469
2014-06-25,73.80335235595703
2014-06-26,73.82832336425781
2014-06-27,73.95331573486328
2014-06-30,74.43655395507812
2014-07-01,74.26161193847656
2014-07-02,74.7115249633789
2014-07-03,75.00313568115234
2014-07-07,74.86981201171875
2014-07-08,74.7614974975586
2014-07-09,74.7948226928711
2014-07-10,75.06976318359375
2014-07-11,74.86148834228516
2014-07-14,75.88629150390625
2014-07-15,75.26973724365234
2014-07-16,75.40303802490234
2014-07-17,74.97813415527344
2014-07-18,75.06143188476562
2014-07-21,74.91145324707031
2014-07-22,74.2948989868164
2014-07-23,75.66964721679688
2014-07-24,76.57784271240234
2014-07-25,76.27791595458984
2014-07-28,75.7946548461914
2014-07-29,75.10310363769531
2014-07-30,74.07828521728516
2014-07-31,73.4034194946289
2014-08-01,73.4117431640625
2014-08-04,74.7281723022461
2014-08-05,74.31990814208984
2014-08-06,75.4113998413086
2014-08-07,74.90316009521484
2014-08-08,75.22808074951172
2014-08-11,76.47786712646484
2014-08-12,75.9946060180664
2014-08-13,76.43619537353516
2014-08-14,76.47786712646484
2014-08-15,76.52783966064453
2014-08-18,76.77781677246094
2014-08-19,76.53618621826172
2014-08-20,76.84446716308594
2014-08-21,76.69446563720703
2014-08-22,76.31954193115234
2014-08-25,77.64431762695312
2014-08-26,77.1527328491211
2014-08-27,76.84446716308594
2014-08-28,77.1360855102539
2014-08-29,77.06106567382812
2014-09-02,77.0527572631836
2014-09-03,77.82894134521484
2014-09-04,77.07372283935547
2014-09-05,76.98980712890625
2014-09-08,77.0821304321289
2014-09-09,76.71289825439453
2014-09-10,77.02339172363281
2014-09-11,76.90589904785156
2014-09-12,76.25139617919922
2014-09-15,76.52831268310547
2014-09-16,77.67790222167969
2014-09-17,77.91284942626953
2014-09-18,78.34921264648438
2014-09-19,78.70164489746094
2014-09-22,78.52542114257812
2014-09-23,77.97999572753906
2014-09-24,78.45829772949219
2014-09-25,77.76181030273438
2014-09-26,78.14781951904297
2014-09-29,78.16459655761719
2014-09-30,78.1142578125
2014-10-01,77.74505615234375
2014-10-02,77.68630981445312
2014-10-03,78.45829772949219
2014-10-06,78.34921264648438
2014-10-07,78.12264251708984
2014-10-08,78.82750701904297
2014-10-09,78.51705169677734
2014-10-10,79.42330169677734
2014-10-13,78.82750701904297
2014-10-14,78.04712677001953
2014-10-15,77.00659942626953
2014-10-16,76.18424987792969
2014-10-17,76.78844451904297
2014-10-20,78.50025177001953
2014-10-21,78.65129089355469
2014-10-22,79.26384735107422
2014-10-23,78.67648315429688
2014-10-24,79.38133239746094
2014-10-27,79.39810943603516
2014-10-28,79.93516540527344
2014-10-29,79.45687103271484
2014-10-30,80.26241302490234
2014-10-31,80.69876098632812
2014-11-03,80.41345977783203
2014-11-04,81.16867065429688
2014-11-05,81.30293273925781
2014-11-06,81.23580169677734
2014-11-07,81.22740173339844
2014-11-10,81.37004852294922
2014-11-11,81.14348602294922
2014-11-12,81.52949523925781
2014-11-13,82.6875
2014-11-14,81.99939727783203
2014-11-17,82.5867919921875
2014-11-18,82.18401336669922
2014-11-19,82.57842254638672
2014-11-20,82.2846908569336
2014-11-21,82.9811782836914
2014-11-24,82.80496215820312
2014-11-25,83.0147476196289
2014-11-26,83.36717987060547
2014-11-28,83.99652862548828
2014-12-01,83.63571166992188
2014-12-02,84.23987579345703
2014-12-03,83.04470825195312
2014-12-04,82.56328582763672
2014-12-05,82.57172393798828
2014-12-08,82.58860778808594
2014-12-09,82.03958129882812
2014-12-10,81.23719024658203
2014-12-11,81.33011627197266
2014-12-12,80.0208969116211
2014-12-15,79.51412200927734
2014-12-16,78.20494079589844
2014-12-17,79.15937805175781
2014-12-18,80.54458618164062
2014-12-19,80.6121597290039
2014-12-22,81.60884094238281
2014-12-23,82.23384857177734
2014-12-24,82.00581359863281
2014-12-26,81.97201538085938
2014-12-29,81.70175170898438
2014-12-30,81.0513687133789
2014-12-31,79.86888122558594
2015-01-02,79.76753997802734
2015-01-05,79.1678237915039
2015-01-06,78.5681381225586
2015-01-07,80.86553192138672
2015-01-08,82.33523559570312
2015-01-09,81.77777099609375
2015-01-12,81.43989562988281
2015-01-13,81.38078308105469
2015-01-14,81.65106964111328
2015-01-15,81.65106964111328
2015-01-16,82.17472076416016
2015-01-20,82.36055755615234
2015-01-21,82.26763916015625
2015-01-22,83.53459930419922
2015-01-23,83.22208404541016
2015-01-26,83.35723876953125
2015-01-27,81.69327545166016
2015-01-28,80.84864807128906
2015-01-29,81.11048889160156
2015-01-30,79.21005249023438
2015-02-02,80.51924133300781
2015-02-03,81.25406646728516
2015-02-04,81.59193420410156
2015-02-05,81.60037994384766
2015-02-06,81.68484497070312
2015-02-09,81.05982208251953
2015-02-10,82.76596069335938
2015-02-11,84.80155944824219
2015-02-12,84.69175720214844
2015-02-13,83.7288589477539
2015-02-17,83.0784912109375
2015-02-18,83.8978042602539
2015-02-19,83.38256072998047
2015-02-20,83.66973876953125
2015-02-23,83.9991226196289
2015-02-24,84.10896301269531
2015-02-25,84.04137420654297
2015-02-26,83.67819213867188
2015-02-27,83.6021728515625
2015-03-02,83.61905670166016
2015-03-03,83.11228942871094
2015-03-04,82.784912109375
2015-03-05,82.67440032958984
2015-03-06,81.77306365966797
2015-03-09,81.66253662109375
2015-03-10,80.2935562133789
2015-03-11,79.61331176757812
2015-03-12,81.3819351196289
2015-03-13,80.20002746582031
2015-03-16,81.16083526611328
2015-03-17,80.03846740722656
2015-03-18,80.47209930419922
2015-03-19,80.01294708251953
2015-03-20,81.06731414794922
2015-03-23,81.5009765625
2015-03-24,81.50947570800781
2015-03-25,80.99929809570312
2015-03-26,81.31391906738281
2015-03-27,81.58599853515625
2015-03-30,82.07066345214844
2015-03-31,81.30540466308594
2015-04-01,80.854736328125
2015-04-02,81.36492156982422
2015-04-06,82.03665161132812
2015-04-07,81.80708312988281
2015-04-08,81.65402221679688
2015-04-09,81.9261245727539
2015-04-10,81.7985610961914
2015-04-13,81.2288589477539
2015-04-14,82.0451431274414
2015-04-15,82.16419219970703
2015-04-16,82.01114654541016
2015-04-17,81.46697235107422
2015-04-20,82.05366516113281
2015-04-21,82.29174041748047
2015-04-22,82.7168960571289
2015-04-23,81.39894104003906
2015-04-24,80.92276000976562
2015-04-27,80.34457397460938
2015-04-28,80.2850341796875
2015-04-29,80.25101470947266
2015-04-30,80.88025665283203
2015-05-01,81.25437927246094
2015-05-04,81.58599853515625
2015-05-05,81.1353530883789
2015-05-06,81.18637084960938
2015-05-07,80.90576171875
2015-05-08,82.09619903564453
2015-05-11,81.9261245727539
2015-05-12,81.7985610961914
2015-05-13,81.97713470458984
2015-05-14,83.32911682128906
2015-05-15,83.51618194580078
2015-05-18,83.37162780761719
2015-05-19,83.2865982055664
2015-05-20,83.0655288696289
2015-05-21,82.64888000488281
2015-05-22,81.8495864868164
2015-05-26,81.44996643066406
2015-05-27,81.95164489746094
2015-05-28,82.52983093261719
2015-05-29,81.994140625
2015-06-01,81.60299682617188
2015-06-02,81.67102813720703
2015-06-03,81.63075256347656
2015-06-04,80.63714599609375
2015-06-05,79.7035140991211
2015-06-08,79.52361297607422
2015-06-09,79.72063446044922
2015-06-10,80.25169372558594
2015-06-11,80.59432220458984
2015-06-12,80.29454040527344
2015-06-15,79.3523178100586
2015-06-16,80.13178253173828
2015-06-17,80.56007385253906
2015-06-18,81.57083129882812
2015-06-19,81.25386810302734
2015-06-22,81.88774871826172
2015-06-23,81.88774871826172
2015-06-24,81.62220001220703
2015-06-25,81.22818756103516
2015-06-26,81.29671478271484
2015-06-29,80.25169372558594
2015-06-30,79.951904296875
2015-07-01,80.962646484375
2015-07-02,81.08258056640625
2015-07-06,80.85987091064453
2015-07-07,82.572998046875
2015-07-08,81.89630126953125
2015-07-09,81.02259826660156
2015-07-10,81.84490203857422
2015-07-13,83.275390625
2015-07-14,83.19828033447266
2015-07-15,82.53016662597656
2015-07-16,83.00128936767578
2015-07-17,82.89848327636719
2015-07-20,83.35247802734375
2015-07-21,83.02696990966797
2015-07-22,83.23253631591797
2015-07-23,82.9755859375
2015-07-24,82.38455200195312
2015-07-27,81.93911743164062
2015-07-28,82.3245849609375
2015-07-29,82.68435668945312
2015-07-30,82.7699966430664
2015-07-31,82.53016662597656
2015-08-03,83.4723892211914
2015-08-04,83.78076934814453
2015-08-05,84.96282196044922
2015-08-06,84.9285659790039
2015-08-07,84.8857421875
2015-08-10,84.87714385986328
2015-08-11,84.4745864868164
2015-08-12,84.26898956298828
2015-08-13,84.62019348144531
2015-08-14,84.99707794189453
2015-08-17,85.53671264648438
2015-08-18,85.4596176147461
2015-08-19,84.79149627685547
2015-08-20,83.92636108398438
2015-08-21,82.44450378417969
2015-08-24,78.65849304199219
2015-08-25,76.78260040283203
2015-08-26,79.22380828857422
2015-08-27,80.17460632324219
2015-08-28,80.11466217041016
2015-08-31,79.60072326660156
2015-09-01,78.23020935058594
2015-09-02,79.10462951660156
2015-09-03,79.5276107788086
2015-09-04,78.4831314086914
2015-09-08,79.73479461669922
2015-09-09,78.40542602539062
2015-09-10,78.60396575927734
2015-09-11,79.08735656738281
2015-09-14,78.72482299804688
2015-09-15,79.46717071533203
2015-09-16,80.33905029296875
2015-09-17,80.5979995727539
2015-09-18,80.32176208496094
2015-09-21,80.89146423339844
2015-09-22,79.73479461669922
2015-09-23,79.76068115234375
2015-09-24,79.82110595703125
2015-09-25,80.68431854248047
2015-09-28,79.82110595703125
2015-09-29,80.31311798095703
2015-09-30,81.40076446533203
2015-10-01,81.01232147216797
2015-10-02,81.27992248535156
2015-10-05,82.7042236328125
2015-10-06,83.79187774658203
2015-10-07,85.04351806640625
2015-10-08,85.4319839477539
2015-10-09,85.86357116699219
2015-10-12,85.57872772216797
2015-10-13,84.52559661865234
2015-10-14,84.15441131591797
2015-10-15,84.83634185791016
2015-10-16,86.0621109008789
2015-10-19,86.4764404296875
2015-10-20,86.55413818359375
2015-10-21,86.53687286376953
2015-10-22,88.97976684570312
2015-10-23,88.41867065429688
2015-10-26,88.51363372802734
2015-10-27,88.85891723632812
2015-10-28,88.68628692626953
2015-10-29,88.73806762695312
2015-10-30,88.21150970458984
2015-11-02,87.52957916259766
2015-11-03,87.115234375
2015-11-04,86.85626983642578
2015-11-05,86.8476333618164
2015-11-06,86.07939147949219
2015-11-09,85.35427856445312
2015-11-10,85.31111907958984
2015-11-11,85.82904052734375
2015-11-12,84.91404724121094
2015-11-13,84.62920379638672
2015-11-16,85.9412612915039
2015-11-17,85.31111907958984
2015-11-18,86.55413818359375
2015-11-19,87.12385559082031
2015-11-20,86.40737915039062
2015-11-23,87.05479431152344
2015-11-24,86.86491394042969
2015-11-25,86.75267791748047
2015-11-27,86.9598617553711
2015-11-30,86.45919036865234
2015-12-01,87.23605346679688
2015-12-02,86.4737548828125
2015-12-03,86.13471221923828
2015-12-04,87.8471450805664
2015-12-07,87.5081558227539
2015-12-08,87.07353210449219
2015-12-09,86.16950225830078
2015-12-10,85.9695816040039
2015-12-11,84.99600982666016
2015-12-14,85.1437759399414
2015-12-15,86.3955078125
2015-12-16,87.86454772949219
2015-12-17,87.0995864868164
2015-12-18,85.10031127929688
2015-12-21,85.7261962890625
2015-12-22,86.75191497802734
2015-12-23,87.48207092285156
2015-12-24,87.39514923095703
2015-12-28,87.516845703125
2015-12-29,88.1861801147461
2015-12-30,87.92540740966797
2015-12-31,86.8562240600586
2016-01-04,85.85658264160156
2016-01-05,86.44764709472656
2016-01-06,86.4737548828125
2016-01-07,84.81346130371094
2016-01-08,84.50051879882812
2016-01-11,84.70046997070312
2016-01-12,84.85691833496094
2016-01-13,83.88335418701172
2016-01-14,83.2835693359375
2016-01-15,81.64936828613281
2016-01-19,83.2488021850586
2016-01-20,81.5102767944336
2016-01-21,82.11875915527344
2016-01-22,83.31832885742188
2016-01-25,83.39656829833984
2016-01-26,83.72689056396484
2016-01-27,83.39656829833984
2016-01-28,84.70914459228516
2016-01-29,86.31727600097656
2016-02-01,86.08258056640625
2016-02-02,85.36978912353516
2016-02-03,85.8130874633789
2016-02-04,84.6570053100586
2016-02-05,84.59613800048828
2016-02-08,84.77000427246094
2016-02-09,85.43061828613281
2016-02-10,84.85691833496094
2016-02-11,84.23106384277344
2016-02-12,85.61318969726562
2016-02-16,85.70878601074219
2016-02-17,86.53459167480469
2016-02-18,86.59544372558594
2016-02-19,86.56067657470703
2016-02-22,86.812744140625
2016-02-23,86.52588653564453
2016-02-24,86.64759826660156
2016-02-25,87.5081558227539
2016-02-26,85.50017547607422
2016-02-29,85.0307846069336
2016-03-01,86.13471221923828
2016-03-02,86.08484649658203
2016-03-03,86.81146240234375
2016-03-04,87.54686737060547
2016-03-07,86.89027404785156
2016-03-08,87.31922149658203
2016-03-09,87.72195434570312
2016-03-10,88.22972869873047
2016-03-11,88.69373321533203
2016-03-14,88.11592102050781
2016-03-15,88.55365753173828
2016-03-16,88.27349853515625
2016-03-17,89.18397521972656
2016-03-18,88.67620849609375
2016-03-21,88.89508056640625
2016-03-22,88.2209701538086
2016-03-23,88.2559814453125
2016-03-24,88.14216613769531
2016-03-28,88.4048080444336
2016-03-29,88.74625396728516
2016-03-30,89.90187072753906
2016-03-31,89.71802520751953
2016-04-01,90.85613250732422
2016-04-04,90.89114379882812
2016-04-05,90.26080322265625
2016-04-06,90.97869110107422
2016-04-07,90.69854736328125
2016-04-08,91.9942626953125
2016-04-11,91.31138610839844
2016-04-12,91.84541320800781
2016-04-13,91.15379333496094
2016-04-14,90.31333923339844
2016-04-15,90.84737396240234
2016-04-18,90.80360412597656
2016-04-19,91.32889556884766
2016-04-20,89.68301391601562
2016-04-21,88.41356658935547
2016-04-22,89.28030395507812
2016-04-25,89.99818420410156
2016-04-26,89.82308197021484
2016-04-27,89.84934997558594
2016-04-28,90.14701843261719
2016-04-29,90.13825225830078
2016-05-02,90.54972076416016
2016-05-03,90.66354370117188
2016-05-04,91.06623840332031
2016-05-05,91.23258972167969
2016-05-06,91.88919830322266
2016-05-09,92.1693344116211
2016-05-10,93.29869842529297
2016-05-11,92.55453491210938
2016-05-12,92.88721466064453
2016-05-13,91.20632934570312
2016-05-16,91.16255187988281
2016-05-17,89.62171936035156
2016-05-18,88.34355926513672
2016-05-19,88.71123504638672
2016-05-20,87.63440704345703
2016-05-23,87.91455841064453
2016-05-24,88.50111389160156
2016-05-25,88.50111389160156
2016-05-26,89.21027374267578
2016-05-27,89.26277160644531
2016-05-31,88.5711669921875
2016-06-01,89.58814239501953
2016-06-02,89.96742248535156
2016-06-03,90.43490600585938
2016-06-06,90.5848388671875
2016-06-07,90.39960479736328
2016-06-08,91.00821685791016
2016-06-09,91.43157958984375
2016-06-10,91.12287139892578
2016-06-13,90.9023666381836
2016-06-14,91.05233001708984
2016-06-15,90.7259750366211
2016-06-16,91.59918975830078
2016-06-17,91.21107482910156
2016-06-20,91.17581176757812
2016-06-21,91.80205535888672
2016-06-22,91.50215148925781
2016-06-23,92.11956787109375
2016-06-24,89.94979095458984
2016-06-27,90.08207702636719
2016-06-28,90.09089660644531
2016-06-29,90.95528411865234
2016-06-30,93.442626953125
2016-07-01,93.16919708251953
2016-07-05,93.86599731445312
2016-07-06,93.42498779296875
2016-07-07,94.80976104736328
2016-07-08,95.49775695800781
2016-07-11,96.0622787475586
2016-07-12,95.95643615722656
2016-07-13,96.94430541992188
2016-07-14,96.9884033203125
2016-07-15,96.72380065917969
2016-07-18,96.32687377929688
2016-07-19,96.60912322998047
2016-07-20,96.07109069824219
2016-07-21,95.77122497558594
2016-07-22,96.30924224853516
2016-07-25,96.15929412841797
2016-07-26,95.43600463867188
2016-07-27,94.80096435546875
2016-07-28,95.37428283691406
2016-07-29,96.07109069824219
2016-08-01,96.07990264892578
2016-08-02,95.89469146728516
2016-08-03,95.2948989868164
2016-08-04,95.63005828857422
2016-08-05,95.84175109863281
2016-08-08,95.38310241699219
2016-08-09,95.50658416748047
2016-08-10,95.98289489746094
2016-08-11,95.68299865722656
2016-08-12,95.7800064086914
2016-08-15,95.89469146728516
2016-08-16,95.2596206665039
2016-08-17,95.6741714477539
2016-08-18,95.50658416748047
2016-08-19,95.40955352783203
2016-08-22,95.22433471679688
2016-08-23,95.1537857055664
2016-08-24,95.35665130615234
2016-08-25,95.1537857055664
2016-08-26,94.77450561523438
2016-08-29,95.25079345703125
2016-08-30,94.56281280517578
2016-08-31,94.82307434082031
2016-09-01,95.30274963378906
2016-09-02,95.81793975830078
2016-09-06,95.86236572265625
2016-09-07,95.23168182373047
2016-09-08,94.93856048583984
2016-09-09,92.42475128173828
2016-09-12,94.17462158203125
2016-09-13,92.90440368652344
2016-09-14,93.31300354003906
2016-09-15,93.69498443603516
2016-09-16,93.51730346679688
2016-09-19,93.86373138427734
2016-09-20,94.42334747314453
2016-09-21,95.16061401367188
2016-09-22,95.77352905273438
2016-09-23,95.34712982177734
2016-09-26,95.07178497314453
2016-09-27,95.48039245605469
2016-09-28,95.3826904296875
2016-09-29,95.72023010253906
2016-09-30,96.61737823486328
2016-10-03,96.15548706054688
2016-10-04,95.13396453857422
2016-10-05,94.16576385498047
2016-10-06,94.5121841430664
2016-10-07,94.14798736572266
2016-10-10,94.352294921875
2016-10-11,93.77491760253906
2016-10-12,94.2279281616211
2016-10-13,94.08582305908203
2016-10-14,94.89413452148438
2016-10-17,94.9118881225586
2016-10-18,95.00072479248047
2016-10-19,94.38780975341797
2016-10-20,94.04138946533203
2016-10-21,93.81932830810547
2016-10-24,95.32051849365234
2016-10-25,95.24943542480469
2016-10-26,95.10731506347656
2016-10-27,94.71649169921875
2016-10-28,95.10731506347656
2016-10-31,95.22280883789062
2016-11-01,94.78754425048828
2016-11-02,94.78754425048828
2016-11-03,94.71649169921875
2016-11-04,93.98810577392578
2016-11-07,95.00959777832031
2016-11-08,96.57296752929688
2016-11-09,95.26720428466797
2016-11-10,91.71412658691406
2016-11-11,91.66082000732422
2016-11-14,90.06192016601562
2016-11-15,90.47053527832031
2016-11-16,90.34618377685547
2016-11-17,90.26622772216797
2016-11-18,89.9908676147461
2016-11-21,90.83474731445312
2016-11-22,91.39434814453125
2016-11-23,90.18628692626953
2016-11-25,90.75479125976562
2016-11-28,91.3055191040039
2016-11-29,91.08345031738281
2016-11-30,89.57384490966797
2016-12-01,88.61637878417969
2016-12-02,90.02127075195312
2016-12-05,90.11969757080078
2016-12-06,90.87139129638672
2016-12-07,91.9988784790039
2016-12-08,91.40827941894531
2016-12-09,92.678955078125
2016-12-12,93.70802307128906
2016-12-13,94.52232360839844
2016-12-14,93.48432159423828
2016-12-15,94.2270278930664
2016-12-16,94.73710632324219
2016-12-19,94.3254623413086
2016-12-20,93.86908721923828
2016-12-21,93.69013214111328
2016-12-22,94.27177429199219
2016-12-23,94.03911590576172
2016-12-27,94.07491302490234
2016-12-28,93.6185531616211
2016-12-29,93.94963073730469
2016-12-30,93.62749481201172
2017-01-03,93.6453857421875
2017-01-04,93.82434844970703
2017-01-05,93.6990737915039
2017-01-06,93.56483459472656
2017-01-09,92.58052825927734
2017-01-10,91.24720764160156
2017-01-11,91.10401916503906
2017-01-12,91.13086700439453
2017-01-13,90.87139129638672
2017-01-17,91.4440689086914
2017-01-18,91.93621826171875
2017-01-19,91.59619903564453
2017-01-20,92.3836441040039
2017-01-23,93.07268524169922
2017-01-24,93.6990737915039
2017-01-25,93.60958862304688
2017-01-26,93.18902587890625
2017-01-27,92.59842681884766
2017-01-30,92.78633880615234
2017-01-31,92.86685943603516
2017-02-01,92.17784881591797
2017-02-02,93.090576171875
2017-02-03,94.05701446533203
2017-02-06,93.57379913330078
2017-02-07,94.50443267822266
2017-02-08,94.57603454589844
2017-02-09,94.82657623291016
2017-02-10,94.94290924072266
2017-02-13,95.31873321533203
2017-02-14,95.67668151855469
2017-02-15,95.50666809082031
2017-02-16,96.7505111694336
2017-02-17,96.77733612060547
2017-02-21,97.8600845336914
2017-02-22,97.90484619140625
2017-02-23,98.02117919921875
2017-02-24,98.28067779541016
2017-02-27,97.7795639038086
2017-02-28,98.7728271484375
2017-03-01,98.86563873291016
2017-03-02,99.20801544189453
2017-03-03,99.61344909667969
2017-03-06,98.7755355834961
2017-03-07,98.49623107910156
2017-03-08,98.47822570800781
2017-03-09,98.22594451904297
2017-03-10,98.73949432373047
2017-03-13,98.57732391357422
2017-03-14,98.51425170898438
2017-03-15,100.1090087890625
2017-03-16,100.13603210449219
2017-03-17,100.36128234863281
2017-03-20,100.1450424194336
2017-03-21,100.70365142822266
2017-03-22,100.92891693115234
2017-03-23,100.7126693725586
2017-03-24,101.01900482177734
2017-03-27,100.75773620605469
2017-03-28,101.31632995605469
2017-03-29,101.2983169555664
2017-03-30,101.07305908203125
2017-03-31,100.78474426269531
2017-04-03,100.78474426269531
2017-04-04,100.98296356201172
2017-04-05,100.85682678222656
2017-04-06,100.53247833251953
2017-04-07,100.55950164794922
2017-04-10,100.92891693115234
2017-04-11,100.6676254272461
2017-04-12,102.3614730834961
2017-04-13,101.5235595703125
2017-04-17,102.10020446777344
2017-04-18,102.96514129638672
2017-04-19,102.37049102783203
2017-04-20,102.34346771240234
2017-04-21,102.1993179321289
2017-04-24,103.00118255615234
2017-04-25,102.85704040527344
2017-04-26,102.10919952392578
2017-04-27,101.48754119873047
2017-04-28,102.06414794921875
2017-05-01,101.16316223144531
2017-05-02,101.17218017578125
2017-05-03,100.72168731689453
2017-05-04,101.77582550048828
2017-05-05,102.01008605957031
2017-05-08,102.01008605957031
2017-05-09,101.55960845947266
2017-05-10,101.6677017211914
2017-05-11,101.84791564941406
2017-05-12,101.73078918457031
2017-05-15,102.65880584716797
2017-05-16,102.5236587524414
2017-05-17,102.47859954833984
2017-05-18,102.73989868164062
2017-05-19,102.43355560302734
2017-05-22,103.34355163574219
2017-05-23,103.65889739990234
2017-05-24,104.56890869140625
2017-05-25,105.89335632324219
2017-05-26,106.23573303222656
2017-05-30,106.32583618164062
2017-05-31,106.02193450927734
2017-06-01,106.34851837158203
2017-06-02,106.74767303466797
2017-06-05,106.93817138671875
2017-06-06,106.77489471435547
2017-06-07,106.18522644042969
2017-06-08,105.13290405273438
2017-06-09,105.17826080322266
2017-06-12,105.44134521484375
2017-06-13,105.52297973632812
2017-06-14,106.47553253173828
2017-06-15,106.33036804199219
2017-06-16,106.01287078857422
2017-06-19,106.4029312133789
2017-06-20,107.00167846679688
2017-06-21,106.5208740234375
2017-06-22,105.36876678466797
2017-06-23,106.10358428955078
2017-06-26,106.24871826171875
2017-06-27,105.17826080322266
2017-06-28,105.57740783691406
2017-06-29,104.4887924194336
2017-06-30,104.77001953125
2017-07-03,104.72466278076172
2017-07-05,104.59766387939453
2017-07-06,104.44344329833984
2017-07-07,104.78817749023438
2017-07-10,103.66327667236328
2017-07-11,103.18245697021484
2017-07-12,104.1168441772461
2017-07-13,103.43647003173828
2017-07-14,104.26200866699219
2017-07-17,104.26200866699219
2017-07-18,104.3345947265625
2017-07-19,104.63394165039062
2017-07-20,104.78817749023438
2017-07-21,105.80421447753906
2017-07-24,105.35061645507812
2017-07-25,105.64092254638672
2017-07-26,106.31222534179688
2017-07-27,106.44828796386719
2017-07-28,105.78606414794922
2017-07-31,105.78606414794922
2017-08-01,105.16011047363281
2017-08-02,104.87889099121094
2017-08-03,105.50485229492188
2017-08-04,105.56834411621094
2017-08-07,106.10358428955078
2017-08-08,105.87678527832031
2017-08-09,105.80421447753906
2017-08-10,105.57740783691406
2017-08-11,105.69534301757812
2017-08-14,106.90190887451172
2017-08-15,107.927001953125
2017-08-16,108.04493713378906
2017-08-17,107.40084838867188
2017-08-18,106.68415832519531
2017-08-21,107.28290557861328
2017-08-22,106.97447967529297
2017-08-23,106.4029312133789
2017-08-24,105.43226623535156
2017-08-25,105.09661865234375
2017-08-28,104.81539154052734
2017-08-29,105.08753967285156
2017-08-30,105.19258880615234
2017-08-31,105.7224349975586
2017-09-01,105.82292175292969
2017-09-05,105.85033416748047
2017-09-06,106.28882598876953
2017-09-07,106.87348937988281
2017-09-08,105.09210968017578
2017-09-11,105.68589782714844
2017-09-12,105.0555648803711
2017-09-13,104.55311584472656
2017-09-14,104.31562805175781
2017-09-15,104.91852569580078
2017-09-18,105.04641723632812
2017-09-19,104.58966064453125
2017-09-20,103.75836944580078
2017-09-21,103.04580688476562
2017-09-22,102.1779556274414
2017-09-25,102.26016998291016
2017-09-26,102.14139556884766
2017-09-27,101.49281311035156
2017-09-28,101.98612213134766
2017-09-29,101.79426574707031
2017-10-02,99.68402099609375
2017-10-03,99.69315338134766
2017-10-04,99.885009765625
2017-10-05,100.89900207519531
2017-10-06,100.85334014892578
2017-10-09,100.49706268310547
2017-10-10,101.20048522949219
2017-10-11,101.86736297607422
2017-10-12,102.72606658935547
2017-10-13,102.8813705444336
2017-10-16,103.74920654296875
2017-10-17,102.48855590820312
2017-10-18,102.26930236816406
2017-10-19,102.92705535888672
2017-10-20,101.9587173461914
2017-10-23,102.03179931640625
2017-10-24,101.17308807373047
2017-10-25,100.55188751220703
2017-10-26,101.15480041503906
2017-10-27,101.03604125976562
2017-10-30,100.16820526123047
2017-10-31,100.69803619384766
2017-11-01,100.606689453125
2017-11-02,100.53360748291016
2017-11-03,100.68891906738281
2017-11-06,99.81192779541016
2017-11-07,100.91729736328125
2017-11-08,102.31497192382812
2017-11-09,101.8399429321289
2017-11-10,103.00013732910156
2017-11-13,104.17857360839844
2017-11-14,105.7498550415039
2017-11-15,105.14691925048828
2017-11-16,105.26567840576172
2017-11-17,104.76323699951172
2017-11-20,104.97335815429688
2017-11-21,106.01476287841797
2017-11-22,105.1286392211914
2017-11-24,105.87774658203125
2017-11-27,105.83206939697266
2017-11-28,106.67250061035156
2017-11-29,106.73643493652344
2017-11-30,107.18258666992188
2017-12-01,107.42176818847656
2017-12-04,108.04725646972656
2017-12-05,108.1668472290039
2017-12-06,109.3718490600586
2017-12-07,107.3757553100586
2017-12-08,107.22859191894531
2017-12-11,107.98287200927734
2017-12-12,107.9920654296875
2017-12-13,108.36001586914062
2017-12-14,108.5623779296875
2017-12-15,109.66622161865234
2017-12-18,108.5899887084961
2017-12-19,109.10509490966797
2017-12-20,109.48223876953125
2017-12-21,108.78314971923828
2017-12-22,109.09590911865234
2017-12-26,109.36267852783203
2017-12-27,109.73982238769531
2017-12-28,109.78581237792969
2017-12-29,110.31011199951172
2018-01-02,108.59916687011719
2018-01-03,108.31401062011719
2018-01-04,108.8475341796875
2018-01-05,109.16029357910156
2018-01-08,108.53477478027344
2018-01-09,108.6175765991211
2018-01-10,108.06565856933594
2018-01-11,107.51374816894531
2018-01-12,107.97366333007812
2018-01-16,108.41520690917969
2018-01-17,109.62943267822266
2018-01-18,109.50984954833984
2018-01-19,110.54008483886719
2018-01-22,111.77272033691406
2018-01-23,111.57954406738281
2018-01-24,111.43236541748047
2018-01-25,111.21158599853516
2018-01-26,112.00267028808594
2018-01-29,110.08016967773438
2018-01-30,110.28252410888672
2018-01-31,110.65967559814453
2018-02-01,110.65967559814453
2018-02-02,109.16029357910156
2018-02-05,105.28767395019531
2018-02-06,104.45979309082031
2018-02-07,104.40459442138672
2018-02-08,101.32303619384766
2018-02-09,102.27052307128906
2018-02-12,102.96041870117188
2018-02-13,103.15359497070312
2018-02-14,100.36638641357422
2018-02-15,102.07733917236328
2018-02-16,102.16012573242188
2018-02-20,100.70675659179688
2018-02-21,99.34534454345703
2018-02-22,100.50437927246094
2018-02-23,100.89071655273438
2018-02-26,102.04973602294922
2018-02-27,102.00374603271484
2018-02-28,100.93672180175781
2018-03-01,100.19074249267578
2018-03-02,101.04327392578125
2018-03-05,101.40467834472656
2018-03-06,101.54369354248047
2018-03-07,101.78459930419922
2018-03-08,103.86032104492188
2018-03-09,104.2865982055664
2018-03-12,104.48118591308594
2018-03-13,105.26885986328125
2018-03-14,104.3514633178711
2018-03-15,103.77692413330078
2018-03-16,103.45260620117188
2018-03-19,102.26646423339844
2018-03-20,101.84020233154297
2018-03-21,100.76526641845703
2018-03-22,100.02394104003906
2018-03-23,98.36521911621094
2018-03-26,98.97682189941406
2018-03-27,99.74596405029297
2018-03-28,101.17301940917969
2018-03-29,101.14521789550781
2018-04-02,99.19921112060547
2018-04-03,100.25562286376953
2018-04-04,102.09966278076172
2018-04-05,102.4610595703125
2018-04-06,101.28421783447266
2018-04-09,101.35834503173828
2018-04-10,101.37687683105469
2018-04-11,100.70967864990234
2018-04-12,100.36681365966797
2018-04-13,101.24713897705078
2018-04-16,101.85873413085938
2018-04-17,100.8857421875
2018-04-18,99.13434600830078
2018-04-19,97.8277587890625
2018-04-20,94.9643783569336
2018-04-23,95.0570297241211
2018-04-24,94.00064849853516
2018-04-25,93.73190307617188
2018-04-26,95.68717193603516
2018-04-27,94.25083923339844
2018-04-30,93.53731536865234
2018-05-01,91.86005401611328
2018-05-02,90.09939575195312
2018-05-03,90.4422607421875
2018-05-04,91.73031616210938
2018-05-07,91.02606964111328
2018-05-08,89.69165802001953
2018-05-09,89.10787200927734
2018-05-10,90.1364517211914
2018-05-11,90.28472137451172
2018-05-14,90.02526092529297
2018-05-15,89.70092010498047
2018-05-16,90.06232452392578
2018-05-17,90.7387924194336
2018-05-18,90.35885620117188
2018-05-21,92.2121810913086
2018-05-22,92.60138702392578
2018-05-23,93.08324432373047
2018-05-24,92.83304595947266
2018-05-25,92.95352172851562
2018-05-29,93.68558502197266
2018-05-30,94.36204528808594
2018-05-31,93.7522964477539
2018-06-01,93.7522964477539
2018-06-04,93.63072967529297
2018-06-05,93.71489715576172
2018-06-06,94.29471588134766
2018-06-07,94.60331726074219
2018-06-08,95.84711456298828
2018-06-11,96.52044677734375
2018-06-12,97.70813751220703
2018-06-13,98.4469223022461
2018-06-14,98.31599426269531
2018-06-15,100.63526153564453
2018-06-18,98.54979705810547
2018-06-19,99.09220123291016
2018-06-20,98.95191955566406
2018-06-21,100.28925323486328
2018-06-22,101.34600830078125
2018-06-25,101.92581939697266
2018-06-26,101.04674530029297
2018-06-27,101.25247955322266
2018-06-28,101.63591766357422
2018-06-29,101.81359100341797
2018-07-02,102.4308090209961
2018-07-03,101.7481460571289
2018-07-05,102.44952392578125
2018-07-06,102.45887756347656
2018-07-09,100.77554321289062
2018-07-10,105.57303619384766
2018-07-11,105.24573516845703
2018-07-12,104.30119323730469
2018-07-13,105.38600158691406
2018-07-16,105.63851165771484
2018-07-17,107.4340591430664
2018-07-18,107.38729858398438
2018-07-19,108.26636505126953
2018-07-20,108.49081420898438
2018-07-23,106.97582244873047
2018-07-24,107.30313110351562
2018-07-25,107.74267578125
2018-07-26,107.5462875366211
2018-07-27,106.87295532226562
2018-07-30,106.77942657470703
2018-07-31,107.5462875366211
2018-08-01,106.24636840820312
2018-08-02,107.2563705444336
2018-08-03,108.76202392578125
2018-08-06,109.77202606201172
2018-08-07,106.81684875488281
2018-08-08,106.13414764404297
2018-08-09,106.3305435180664
2018-08-10,105.55433654785156
2018-08-13,105.69461822509766
2018-08-14,105.7694320678711
2018-08-15,106.09674835205078
2018-08-16,106.84489440917969
2018-08-17,107.5088882446289
2018-08-20,107.39663696289062
2018-08-21,106.34925079345703
2018-08-22,104.96517181396484
2018-08-23,104.67526245117188
2018-08-24,104.88101196289062
2018-08-27,105.12415313720703
2018-08-28,103.96451568603516
2018-08-29,104.78748321533203
2018-08-30,104.70331573486328
2018-08-31,104.75008392333984
2018-09-04,103.8055419921875
2018-09-05,105.78813171386719
2018-09-06,107.02146911621094
2018-09-07,106.30484008789062
2018-09-10,107.08747863769531
2018-09-11,106.86117553710938
2018-09-12,107.35149383544922
2018-09-13,108.42642211914062
2018-09-14,108.03038787841797
2018-09-17,108.81303405761719
2018-09-18,107.47408294677734
2018-09-19,107.27605438232422
2018-09-20,108.64329528808594
2018-09-21,108.35099029541016
2018-09-24,105.8616714477539
2018-09-25,105.57881164550781
2018-09-26,105.13562774658203
2018-09-27,104.7113265991211
2018-09-28,105.41851043701172
2018-10-01,104.3907241821289
2018-10-02,102.51432800292969
2018-10-03,101.3828125
2018-10-04,100.5247573852539
2018-10-05,100.4115982055664
2018-10-08,102.01456451416016
2018-10-09,101.94856262207031
2018-10-10,101.21308135986328
2018-10-11,99.06322479248047
2018-10-12,99.27066802978516
2018-10-15,99.6006851196289
2018-10-16,101.2602310180664
2018-10-17,102.1277084350586
2018-10-18,101.76939392089844
2018-10-19,103.99471282958984
2018-10-22,103.15550231933594
2018-10-23,103.84382629394531
2018-10-24,106.51229858398438
2018-10-25,106.40856170654297
2018-10-26,104.14556121826172
2018-10-29,106.4462890625
2018-10-30,107.27605438232422
2018-10-31,105.96539306640625
2018-11-01,105.14507293701172
2018-11-02,104.824462890625
2018-11-05,107.86067199707031
2018-11-06,108.63385772705078
2018-11-07,109.01102447509766
2018-11-08,109.43534851074219
2018-11-09,110.77429962158203
2018-11-12,110.29341888427734
2018-11-13,110.45370483398438
2018-11-14,109.99166870117188
2018-11-15,110.13311767578125
2018-11-16,111.59464263916016
2018-11-19,112.21696472167969
2018-11-20,109.3787841796875
2018-11-21,108.69985961914062
2018-11-23,108.82244873046875
2018-11-26,109.24676513671875
2018-11-27,109.79365539550781
2018-11-28,111.73607635498047
2018-11-29,111.51920318603516
2018-11-30,114.97972106933594
2018-12-03,112.18868255615234
2018-12-04,111.0760498046875
2018-12-06,111.04561614990234
2018-12-07,110.07620239257812
2018-12-10,110.42786407470703
2018-12-11,111.47329711914062
2018-12-12,111.19768524169922
2018-12-13,112.48072814941406
2018-12-14,108.29894256591797
2018-12-17,107.27250671386719
2018-12-18,106.2935791015625
2018-12-19,104.58284759521484
2018-12-20,104.74441528320312
2018-12-21,103.99359893798828
2018-12-24,100.77171325683594
2018-12-26,102.95764923095703
2018-12-27,103.99359893798828
2018-12-28,104.88697814941406
2018-12-31,105.00102996826172
2019-01-02,103.86053466796875
2019-01-03,102.89112091064453
2019-01-04,105.00102996826172
2019-01-07,104.09813690185547
2019-01-08,105.09606170654297
2019-01-09,102.15930938720703
2019-01-10,102.78657531738281
2019-01-11,102.79608154296875
2019-01-14,101.99774932861328
2019-01-15,103.58492279052734
2019-01-16,102.9671630859375
2019-01-17,103.80351257324219
2019-01-18,104.61135864257812
2019-01-22,104.45930480957031
2019-01-23,105.2386245727539
2019-01-24,104.06964111328125
2019-01-25,103.92707061767578
2019-01-28,103.42335510253906
2019-01-29,103.59442138671875
2019-01-30,105.32417297363281
2019-01-31,107.0824203491211
2019-02-01,106.62622833251953
2019-02-04,107.4815902709961
2019-02-05,107.30101013183594
2019-02-06,107.4435806274414
2019-02-07,107.4815902709961
2019-02-08,107.4150619506836
2019-02-11,107.36753845214844
2019-02-12,108.14688110351562
2019-02-13,108.46051025390625
2019-02-14,107.00638580322266
2019-02-15,110.16175079345703
2019-02-19,110.18075561523438
2019-02-20,110.0857162475586
2019-02-21,110.3423080444336
2019-02-22,110.96958923339844
2019-02-25,110.30431365966797
2019-02-26,110.21876525878906
2019-02-27,109.64852142333984
2019-02-28,110.79634094238281
2019-03-01,111.31372833251953
2019-03-04,111.30414581298828
2019-03-05,111.17001342773438
2019-03-06,111.77361297607422
2019-03-07,111.2370834350586
2019-03-08,110.40351867675781
2019-03-11,111.70655059814453
2019-03-12,111.68738555908203
2019-03-13,111.69697570800781
2019-03-14,110.6622085571289
2019-03-15,110.81550598144531
2019-03-18,112.35806274414062
2019-03-19,113.14371490478516
2019-03-20,113.36408996582031
2019-03-21,114.43717193603516
2019-03-22,115.66357421875
2019-03-25,115.78812408447266
2019-03-26,116.90910339355469
2019-03-27,116.78455352783203
2019-03-28,116.73664855957031
2019-03-29,117.41690826416016
2019-04-01,116.88996124267578
2019-04-02,116.5833511352539
2019-04-03,116.4683837890625
2019-04-04,116.38214874267578
2019-04-05,116.5258560180664
2019-04-08,116.88996124267578
2019-04-09,117.0528335571289
2019-04-10,116.92827606201172
2019-04-11,116.57377624511719
2019-04-12,117.11032104492188
2019-04-15,118.48042297363281
2019-04-16,117.28279113769531
2019-04-17,121.69010162353516
2019-04-18,121.7667465209961
2019-04-22,121.14397430419922
2019-04-23,121.7667465209961
2019-04-24,121.60387420654297
2019-04-25,120.84696960449219
2019-04-26,121.10565185546875
2019-04-29,121.38350677490234
2019-04-30,122.6865463256836
2019-05-01,121.91046905517578
2019-05-02,121.51764678955078
2019-05-03,122.32245635986328
2019-05-06,121.93920135498047
2019-05-07,120.7032470703125
2019-05-08,120.74156188964844
2019-05-09,120.77032470703125
2019-05-10,122.64820861816406
2019-05-13,121.83381652832031
2019-05-14,122.07335662841797
2019-05-15,123.93209075927734
2019-05-16,124.81356048583984
2019-05-17,125.04349517822266
2019-05-20,124.5452880859375
2019-05-21,123.64466094970703
2019-05-22,124.6219482421875
2019-05-23,124.526123046875
2019-05-24,124.0758056640625
2019-05-28,122.28413391113281
2019-05-29,122.801513671875
2019-05-30,123.22308349609375
2019-05-31,122.63864135742188
2019-06-03,123.57758331298828
2019-06-04,123.66383361816406
2019-06-05,125.88665771484375
2019-06-06,127.37776184082031
2019-06-07,128.81582641601562
2019-06-10,128.93162536621094
2019-06-11,128.5552215576172
2019-06-12,128.497314453125
2019-06-13,128.30429077148438
2019-06-14,128.10159301757812
2019-06-17,127.89894104003906
2019-06-18,127.45498657226562
2019-06-19,128.2174530029297
2019-06-20,129.48175048828125
2019-06-21,129.28872680664062
2019-06-24,129.4624481201172
2019-06-25,129.14395141601562
2019-06-26,127.70592498779297
2019-06-27,127.09788513183594
2019-06-28,126.55741882324219
2019-07-01,127.27159118652344
2019-07-02,127.81206512451172
2019-07-03,129.31768798828125
2019-07-05,128.3815155029297
2019-07-08,127.93755340576172
2019-07-09,127.14614868164062
2019-07-10,129.72305297851562
2019-07-11,129.66514587402344
2019-07-12,128.6324462890625
2019-07-15,129.4720916748047
2019-07-16,129.13429260253906
2019-07-17,128.14987182617188
2019-07-18,128.24639892578125
2019-07-19,125.55367279052734
2019-07-22,125.73705291748047
2019-07-23,126.1810073852539
2019-07-24,124.7043685913086
2019-07-25,124.49203491210938
2019-07-26,126.64427185058594
2019-07-29,126.94345092773438
2019-07-30,125.93006896972656
2019-07-31,123.3531723022461
2019-08-01,122.70654296875
2019-08-02,123.45934295654297
2019-08-05,120.06208038330078
2019-08-06,122.04059600830078
2019-08-07,123.32423400878906
2019-08-08,124.95529174804688
2019-08-09,124.11564636230469
2019-08-12,123.87435913085938
2019-08-13,125.39924621582031
2019-08-14,124.61749267578125
2019-08-15,126.16171264648438
2019-08-16,127.16545104980469
2019-08-19,127.94720458984375
2019-08-20,127.45498657226562
2019-08-21,127.72521209716797
2019-08-22,128.03407287597656
2019-08-23,125.72740173339844
2019-08-26,129.07640075683594
2019-08-27,130.06082153320312
2019-08-28,130.47584533691406
2019-08-29,131.27691650390625
2019-08-30,131.96212768554688
2019-09-03,132.66668701171875
2019-09-04,134.29774475097656
2019-09-05,132.14520263671875
2019-09-06,133.49600219726562
2019-09-09,132.5533447265625
2019-09-10,132.02859497070312
2019-09-11,132.51449584960938
2019-09-12,133.41827392578125
2019-09-13,132.59225463867188
2019-09-16,131.07623291015625
2019-09-17,131.87310791015625
2019-09-18,131.67874145507812
2019-09-19,131.65931701660156
2019-09-20,130.91104125976562
2019-09-23,131.6204376220703
2019-09-24,131.54269409179688
2019-09-25,131.2803192138672
2019-09-26,131.89254760742188
2019-09-27,131.77593994140625
2019-09-30,133.23362731933594
2019-10-01,133.49600219726562
2019-10-02,130.16275024414062
2019-10-03,134.0402069091797
2019-10-04,136.32394409179688
2019-10-07,134.43865966796875
2019-10-08,133.36968994140625
2019-10-09,133.9624786376953
2019-10-10,134.0013427734375
2019-10-11,133.75839233398438
2019-10-14,133.57376098632812
2019-10-15,132.48533630371094
2019-10-16,132.57281494140625
2019-10-17,133.0975799560547
2019-10-18,132.40760803222656
2019-10-21,132.28126525878906
2019-10-22,132.8060302734375
2019-10-23,133.57376098632812
2019-10-24,134.0013427734375
2019-10-25,132.78660583496094
2019-10-28,132.7185821533203
2019-10-29,132.24240112304688
2019-10-30,133.03927612304688
2019-10-31,133.3016357421875
2019-11-01,133.06842041015625
2019-11-04,131.3483428955078
2019-11-05,130.23077392578125
2019-11-06,130.64865112304688
2019-11-07,129.5602264404297
2019-11-08,129.37557983398438
2019-11-11,128.6564483642578
2019-11-12,128.2580108642578
2019-11-13,129.53106689453125
2019-11-14,129.5699462890625
2019-11-15,130.03640747070312
2019-11-18,130.2793426513672
2019-11-19,130.7749786376953
2019-11-20,129.9683837890625
2019-11-21,130.1335906982422
2019-11-22,130.28909301757812
2019-11-25,130.05584716796875
2019-11-26,131.87310791015625
2019-11-27,132.0771942138672
2019-11-29,131.9994354248047
2019-12-02,132.04803466796875
2019-12-03,131.63987731933594
2019-12-04,133.42799377441406
2019-12-05,133.42308044433594
2019-12-06,134.42127990722656
2019-12-09,134.22555541992188
2019-12-10,133.35459899902344
2019-12-11,134.16683959960938
2019-12-12,134.2451171875
2019-12-13,134.98886108398438
2019-12-16,134.127685546875
2019-12-17,133.25672912597656
2019-12-18,133.06100463867188
2019-12-19,133.55030822753906
2019-12-20,134.9692840576172
2019-12-23,134.1081085205078
2019-12-24,133.96131896972656
2019-12-26,133.765625
2019-12-27,134.59742736816406
2019-12-30,133.88304138183594
2019-12-31,133.74603271484375
