Date,PNR
2007-12-31,17.881601333618164
2008-01-02,17.55797576904297
2008-01-03,17.53228759765625
2008-01-04,16.9364070892334
2008-01-07,16.96209144592285
2008-01-08,16.206968307495117
2008-01-09,15.7086820602417
2008-01-10,15.81655502319336
2008-01-11,15.811418533325195
2008-01-14,15.57512378692627
2008-01-15,15.153901100158691
2008-01-16,14.948419570922852
2008-01-17,14.403911590576172
2008-01-18,14.27034854888916
2008-01-22,14.280623435974121
2008-01-23,14.714775085449219
2008-01-24,14.978372573852539
2008-01-25,15.412525177001953
2008-01-28,15.981066703796387
2008-01-29,16.115442276000977
2008-01-30,16.017240524291992
2008-01-31,16.41522216796875
2008-02-01,16.658143997192383
2008-02-04,16.849376678466797
2008-02-05,17.00959587097168
2008-02-06,16.937244415283203
2008-02-07,17.185333251953125
2008-02-08,17.381736755371094
2008-02-11,17.479934692382812
2008-02-12,17.4385929107666
2008-02-13,17.69701385498047
2008-02-14,17.49544334411621
2008-02-15,17.39206886291504
2008-02-19,17.355892181396484
2008-02-20,17.70217514038086
2008-02-21,17.13880729675293
2008-02-22,17.30937385559082
2008-02-25,17.629825592041016
2008-02-26,17.84173011779785
2008-02-27,17.722858428955078
2008-02-28,17.68151092529297
2008-02-29,16.85971450805664
2008-03-03,16.746009826660156
2008-03-04,16.46173858642578
2008-03-05,16.596120834350586
2008-03-06,16.120616912841797
2008-03-07,16.022415161132812
2008-03-10,15.670952796936035
2008-03-11,16.296348571777344
2008-03-12,16.337682723999023
2008-03-13,16.472064971923828
2008-03-14,16.198143005371094
2008-03-17,15.944886207580566
2008-03-18,16.420387268066406
2008-03-19,16.218822479248047
2008-03-20,16.306684494018555
2008-03-24,16.652971267700195
2008-03-25,16.994094848632812
2008-03-26,16.808034896850586
2008-03-27,16.523761749267578
2008-03-28,16.270496368408203
2008-03-31,16.48758316040039
2008-04-01,17.242176055908203
2008-04-02,17.355892181396484
2008-04-03,17.366230010986328
2008-04-04,17.7125186920166
2008-04-07,17.180160522460938
2008-04-08,17.206008911132812
2008-04-09,17.035446166992188
2008-04-10,17.293872833251953
2008-04-11,16.85454559326172
2008-04-14,17.092300415039062
2008-04-15,17.45409393310547
2008-04-16,18.255216598510742
2008-04-17,18.31723976135254
2008-04-18,18.787572860717773
2008-04-21,18.901277542114258
2008-04-22,19.12352752685547
2008-04-23,18.708131790161133
2008-04-24,18.952173233032227
2008-04-25,18.99890899658203
2008-04-28,19.159870147705078
2008-04-29,19.336414337158203
2008-04-30,19.12352752685547
2008-05-01,19.518138885498047
2008-05-02,19.575271606445312
2008-05-05,19.435068130493164
2008-05-06,19.471412658691406
2008-05-07,18.957366943359375
2008-05-08,19.097558975219727
2008-05-09,19.07160186767578
2008-05-12,19.216989517211914
2008-05-13,19.237751007080078
2008-05-14,19.367555618286133
2008-05-15,19.284488677978516
2008-05-16,19.34160804748535
2008-05-19,19.367555618286133
2008-05-20,19.326025009155273
2008-05-21,18.848331451416016
2008-05-22,18.869098663330078
2008-05-23,18.552364349365234
2008-05-27,18.573139190673828
2008-05-28,19.185832977294922
2008-05-29,19.4143009185791
2008-05-30,19.435068130493164
2008-06-02,19.263715744018555
2008-06-03,19.315643310546875
2008-06-04,18.962562561035156
2008-06-05,19.32082748413086
2008-06-06,18.858720779418945
2008-06-09,18.614673614501953
2008-06-10,18.474477767944336
2008-06-11,18.001970291137695
2008-06-12,17.903318405151367
2008-06-13,17.763124465942383
2008-06-16,17.94485855102539
2008-06-17,17.820236206054688
2008-06-18,17.58658218383789
2008-06-19,18.178516387939453
2008-06-20,17.882545471191406
2008-06-23,18.12139320373535
2008-06-24,18.033124923706055
2008-06-25,18.07985496520996
2008-06-26,17.643693923950195
2008-06-27,17.58658218383789
2008-06-30,18.183704376220703
2008-07-01,18.07985496520996
2008-07-02,17.12446403503418
2008-07-03,17.191959381103516
2008-07-07,17.249074935913086
2008-07-08,17.49312400817871
2008-07-09,17.223108291625977
2008-07-10,16.792146682739258
2008-07-11,16.631181716918945
2008-07-14,16.83368682861328
2008-07-15,16.942724227905273
2008-07-16,17.451576232910156
2008-07-17,17.960439682006836
2008-07-18,18.048702239990234
2008-07-21,19.13910484313965
2008-07-22,17.877357482910156
2008-07-23,18.263500213623047
2008-07-24,18.20609474182129
2008-07-25,18.27393341064453
2008-07-28,18.143476486206055
2008-07-29,18.27393341064453
2008-07-30,18.73313331604004
2008-07-31,18.065204620361328
2008-08-01,17.590356826782227
2008-08-04,17.292926788330078
2008-08-05,17.814739227294922
2008-08-06,18.425256729125977
2008-08-07,18.148691177368164
2008-08-08,18.915760040283203
2008-08-11,19.38018035888672
2008-08-12,19.260162353515625
2008-08-13,19.31234359741211
2008-08-14,19.505416870117188
2008-08-15,19.479320526123047
2008-08-18,19.411487579345703
2008-08-19,19.281034469604492
2008-08-20,19.41670036315918
2008-08-21,19.31234359741211
2008-08-22,19.421920776367188
2008-08-25,19.072307586669922
2008-08-26,18.915760040283203
2008-08-27,19.218416213989258
2008-08-28,19.46888542175293
2008-08-29,19.176671981811523
2008-09-02,19.103618621826172
2008-09-03,19.093181610107422
2008-09-04,18.34699058532715
2008-09-05,18.34177017211914
2008-09-08,19.254941940307617
2008-09-09,18.618335723876953
2008-09-10,18.89488983154297
2008-09-11,19.025348663330078
2008-09-12,19.176671981811523
2008-09-15,18.4409122467041
2008-09-16,19.046215057373047
2008-09-17,19.32799530029297
2008-09-18,19.823719024658203
2008-09-19,20.59600257873535
2008-09-22,19.573253631591797
2008-09-23,20.089847564697266
2008-09-24,19.928085327148438
2008-09-25,20.2150821685791
2008-09-26,20.10027503967285
2008-09-29,18.086082458496094
2008-09-30,18.03911590576172
2008-10-01,17.971281051635742
2008-10-02,17.0372314453125
2008-10-03,16.78676986694336
2008-10-06,16.489322662353516
2008-10-07,15.670079231262207
2008-10-08,15.863151550292969
2008-10-09,14.814305305480957
2008-10-10,14.96562671661377
2008-10-13,16.44236946105957
2008-10-14,15.680519104003906
2008-10-15,14.000273704528809
2008-10-16,14.339448928833008
2008-10-17,14.344672203063965
2008-10-20,15.143046379089355
2008-10-21,15.41439151763916
2008-10-22,13.881875991821289
2008-10-23,14.007837295532227
2008-10-24,13.126110076904297
2008-10-27,12.863698959350586
2008-10-28,13.692930221557617
2008-10-29,13.635205268859863
2008-10-30,13.986839294433594
2008-10-31,14.506427764892578
2008-11-03,14.700613975524902
2008-11-04,15.02601432800293
2008-11-05,14.233510971069336
2008-11-06,13.619455337524414
2008-11-07,13.619455337524414
2008-11-10,13.16285228729248
2008-11-11,12.700994491577148
2008-11-12,12.165665626525879
2008-11-13,13.047388076782227
2008-11-14,12.21815013885498
2008-11-17,12.21815013885498
2008-11-18,12.244393348693848
2008-11-19,11.13698673248291
2008-11-20,10.045333862304688
2008-11-21,10.428464889526367
2008-11-24,11.289192199707031
2008-11-25,12.055450439453125
2008-11-26,12.643267631530762
2008-11-28,13.047388076782227
2008-12-01,11.71430778503418
2008-12-02,11.99246883392334
2008-12-03,11.99246883392334
2008-12-04,11.52536678314209
2008-12-05,12.165665626525879
2008-12-08,12.365102767944336
2008-12-09,12.601278305053711
2008-12-10,12.973909378051758
2008-12-11,11.924241065979004
2008-12-12,12.45957088470459
2008-12-15,12.386099815368652
2008-12-16,13.084124565124512
2008-12-17,13.063133239746094
2008-12-18,12.46481704711914
2008-12-19,12.260136604309082
2008-12-22,12.323118209838867
2008-12-23,12.018712043762207
2008-12-24,12.212898254394531
2008-12-26,12.344108581542969
2008-12-29,11.939987182617188
2008-12-30,12.244393348693848
2008-12-31,12.422836303710938
2009-01-02,13.005404472351074
2009-01-05,13.278313636779785
2009-01-06,13.761159896850586
2009-01-07,13.278313636779785
2009-01-08,13.456758499145508
2009-01-09,13.199586868286133
2009-01-12,12.417587280273438
2009-01-13,12.396590232849121
2009-01-14,11.871756553649902
2009-01-15,12.139426231384277
2009-01-16,12.46481704711914
2009-01-20,11.835018157958984
2009-01-21,12.260136604309082
2009-01-22,12.071196556091309
2009-01-23,12.092187881469727
2009-01-26,12.51205825805664
2009-01-27,12.816462516784668
2009-01-28,13.112552642822266
2009-01-29,12.705429077148438
2009-01-30,12.092098236083984
2009-02-02,11.996930122375488
2009-02-03,12.58910846710205
2009-02-04,12.943357467651367
2009-02-05,13.117839813232422
2009-02-06,13.63071060180664
2009-02-09,13.725878715515137
2009-02-10,13.128412246704102
2009-02-11,13.223589897155762
2009-02-12,13.038528442382812
2009-02-13,13.25002670288086
2009-02-17,12.509800910949707
2009-02-18,12.324746131896973
2009-02-19,12.033940315246582
2009-02-20,11.74842357635498
2009-02-23,11.082221984863281
2009-02-24,11.616243362426758
2009-02-25,11.235556602478027
2009-02-26,10.913025856018066
2009-02-27,11.034636497497559
2009-03-02,10.304986000061035
2009-03-03,10.114645004272461
2009-03-04,10.611649513244629
2009-03-05,9.876712799072266
2009-03-06,9.490738868713379
2009-03-09,9.305685043334961
2009-03-10,9.739245414733887
2009-03-11,10.003606796264648
2009-03-12,10.236251831054688
2009-03-13,10.125219345092773
2009-03-16,10.072342872619629
2009-03-17,10.7015380859375
2009-03-18,11.198545455932617
2009-03-19,11.145668983459473
2009-03-20,10.74911880493164
2009-03-23,11.621529579162598
2009-03-24,11.330724716186523
2009-03-25,11.330724716186523
2009-03-26,11.870033264160156
2009-03-27,11.658541679382324
2009-03-30,11.341302871704102
2009-03-31,11.457619667053223
2009-04-01,11.949341773986816
2009-04-02,12.768877983093262
2009-04-03,13.054393768310547
2009-04-06,12.63669204711914
2009-04-07,12.076236724853516
2009-04-08,12.139683723449707
2009-04-09,12.742440223693848
2009-04-13,12.716001510620117
2009-04-14,12.578534126281738
2009-04-15,12.573247909545898
2009-04-16,13.012097358703613
2009-04-17,13.2553129196167
2009-04-20,12.388190269470215
2009-04-21,12.33003044128418
2009-04-22,13.239446640014648
2009-04-23,13.32404899597168
2009-04-24,14.180597305297852
2009-04-27,13.926800727844238
2009-04-28,13.72059154510498
2009-04-29,14.215754508972168
2009-04-30,14.183809280395508
2009-05-01,14.199780464172363
2009-05-04,14.934532165527344
2009-05-05,14.524560928344727
2009-05-06,14.577803611755371
2009-05-07,14.247695922851562
2009-05-08,14.854662895202637
2009-05-11,14.306264877319336
2009-05-12,13.9655122756958
2009-05-13,13.252063751220703
2009-05-14,13.390494346618652
2009-05-15,13.44905948638916
2009-05-18,13.757865905761719
2009-05-19,13.60878849029541
2009-05-20,13.220115661621094
2009-05-21,12.810150146484375
2009-05-22,12.788854598999023
2009-05-26,13.268033981323242
2009-05-27,13.465028762817383
2009-05-28,13.502298355102539
2009-05-29,13.326600074768066
2009-06-01,13.960189819335938
2009-06-02,14.476641654968262
2009-06-03,14.040048599243164
2009-06-04,14.540531158447266
2009-06-05,14.875953674316406
2009-06-08,15.152816772460938
2009-06-09,15.152816772460938
2009-06-10,14.934532165527344
2009-06-11,15.307220458984375
2009-06-12,14.89193344116211
2009-06-15,14.348862648010254
2009-06-16,13.853705406188965
2009-06-17,13.550217628479004
2009-06-18,13.635407447814941
2009-06-19,13.619434356689453
2009-06-22,13.289335250854492
2009-06-23,13.071036338806152
2009-06-24,13.198822975158691
2009-06-25,13.491656303405762
2009-06-26,13.598137855529785
2009-06-29,13.731245994567871
2009-06-30,13.640734672546387
2009-07-01,13.693974494934082
2009-07-02,13.230767250061035
2009-07-06,12.874041557312012
2009-07-07,12.623804092407227
2009-07-08,12.50134563446045
2009-07-09,12.650420188903809
2009-07-10,12.783528327941895
2009-07-13,13.150903701782227
2009-07-14,13.273356437683105
2009-07-15,13.784486770629883
2009-07-16,14.306264877319336
2009-07-17,14.354182243347168
2009-07-20,14.90257740020752
2009-07-21,14.17847728729248
2009-07-22,14.439369201660156
2009-07-23,15.041006088256836
2009-07-24,15.056985855102539
2009-07-27,15.115554809570312
2009-07-28,14.742856979370117
2009-07-29,14.458828926086426
2009-07-30,14.76965045928955
2009-07-31,14.64103889465332
2009-08-03,14.930427551269531
2009-08-04,14.994733810424805
2009-08-05,14.533855438232422
2009-08-06,14.555288314819336
2009-08-07,14.796445846557617
2009-08-10,14.753578186035156
2009-08-11,14.523138046264648
2009-08-12,14.726780891418457
2009-08-13,14.828598976135254
2009-08-14,14.560648918151855
2009-08-17,13.944355010986328
2009-08-18,14.587445259094238
2009-08-19,14.592803955078125
2009-08-20,14.598162651062012
2009-08-21,15.026886940002441
2009-08-24,14.930427551269531
2009-08-25,15.203736305236816
2009-08-26,15.278767585754395
2009-08-27,15.391302108764648
2009-08-28,15.35915756225586
2009-08-31,15.182302474975586
2009-09-01,14.957221984863281
2009-09-02,14.860754013061523
2009-09-03,15.026886940002441
2009-09-04,15.686059951782227
2009-09-08,15.568157196044922
2009-09-09,15.659257888793945
2009-09-10,15.868268013000488
2009-09-11,16.286279678344727
2009-09-14,16.527441024780273
2009-09-15,16.897212982177734
2009-09-16,16.83289909362793
2009-09-17,16.64533042907715
2009-09-18,16.44704246520996
2009-09-21,16.2380428314209
2009-09-22,16.200529098510742
2009-09-23,16.01296043395996
2009-09-24,15.900419235229492
2009-09-25,15.680699348449707
2009-09-28,15.89506721496582
2009-09-29,15.986157417297363
2009-09-30,15.82003402709961
2009-10-01,15.332357406616211
2009-10-02,15.289482116699219
2009-10-05,15.728925704956055
2009-10-06,15.846832275390625
2009-10-07,15.825393676757812
2009-10-08,16.40416717529297
2009-10-09,16.586381912231445
2009-10-12,16.773948669433594
2009-10-13,16.84897804260254
2009-10-14,17.293785095214844
2009-10-15,17.390254974365234
2009-10-16,17.54030418395996
2009-10-19,18.02262306213379
2009-10-20,17.44919776916504
2009-10-21,18.017257690429688
2009-10-22,17.379531860351562
2009-10-23,17.175888061523438
2009-10-26,17.07942008972168
2009-10-27,16.779315948486328
2009-10-28,16.213348388671875
2009-10-29,16.36966323852539
2009-10-30,15.685129165649414
2009-11-02,15.906122207641602
2009-11-03,16.057050704956055
2009-11-04,16.003141403198242
2009-11-05,16.623001098632812
2009-11-06,16.547542572021484
2009-11-09,16.962574005126953
2009-11-10,16.95178985595703
2009-11-11,16.946407318115234
2009-11-12,16.63916778564453
2009-11-13,16.82782554626465
2009-11-16,17.264419555664062
2009-11-17,17.14044952392578
2009-11-18,16.95178985595703
2009-11-19,16.5313663482666
2009-11-20,16.439729690551758
2009-11-23,16.466691970825195
2009-11-24,16.41278839111328
2009-11-25,16.655338287353516
2009-11-27,16.353500366210938
2009-11-30,16.224138259887695
2009-12-01,16.536762237548828
2009-12-02,16.547542572021484
2009-12-03,16.52058982849121
2009-12-04,16.784698486328125
2009-12-07,17.07577133178711
2009-12-08,16.768537521362305
2009-12-09,16.61222267150879
2009-12-10,16.773921966552734
2009-12-11,16.967966079711914
2009-12-14,17.334489822387695
2009-12-15,17.35605239868164
2009-12-16,17.431514739990234
2009-12-17,17.307540893554688
2009-12-18,17.178178787231445
2009-12-21,17.409954071044922
2009-12-22,17.36143684387207
2009-12-23,17.69023895263672
2009-12-24,17.722576141357422
2009-12-28,17.717187881469727
2009-12-29,17.7441349029541
2009-12-30,17.647113800048828
2009-12-31,17.409954071044922
2010-01-04,17.99208641052246
2010-01-05,17.652503967285156
2010-01-06,17.70640754699707
2010-01-07,18.186132431030273
2010-01-08,18.32087516784668
2010-01-11,18.26158332824707
2010-01-12,17.922008514404297
2010-01-13,18.013639450073242
2010-01-14,18.062152862548828
2010-01-15,17.6417236328125
2010-01-19,17.94356918334961
2010-01-20,17.582433700561523
2010-01-21,17.442289352416992
2010-01-22,17.081151962280273
2010-01-25,16.924842834472656
2010-01-26,16.817039489746094
2010-01-27,16.784509658813477
2010-01-28,16.697736740112305
2010-01-29,16.562150955200195
2010-02-01,17.001428604125977
2010-02-02,16.82246208190918
2010-02-03,16.941770553588867
2010-02-04,16.53504180908203
2010-02-05,16.442842483520508
2010-02-08,16.432003021240234
2010-02-09,16.697736740112305
2010-02-10,16.464534759521484
2010-02-11,16.648923873901367
2010-02-12,16.882118225097656
2010-02-16,17.16412353515625
2010-02-17,17.21834945678711
2010-02-18,17.315967559814453
2010-02-19,17.565431594848633
2010-02-22,17.695581436157227
2010-02-23,17.456972122192383
2010-02-24,17.57085418701172
2010-02-25,17.587116241455078
2010-02-26,17.657629013061523
2010-03-01,18.61208724975586
2010-03-02,18.563283920288086
2010-03-03,18.47650718688965
2010-03-04,18.525318145751953
2010-03-05,18.622940063476562
2010-03-08,18.460248947143555
2010-03-09,18.56870460510254
2010-03-10,18.61751365661621
2010-03-11,18.601242065429688
2010-03-12,18.525318145751953
2010-03-15,18.76393699645996
2010-03-16,19.094738006591797
2010-03-17,19.154401779174805
2010-03-18,19.16524887084961
2010-03-19,18.509048461914062
2010-03-22,18.574121475219727
2010-03-23,19.1815128326416
2010-03-24,18.834434509277344
2010-03-25,18.747669219970703
2010-03-26,18.785627365112305
2010-03-29,18.970016479492188
2010-03-30,19.30624771118164
2010-03-31,19.31709098815918
2010-04-01,19.566553115844727
2010-04-05,19.77805519104004
2010-04-06,19.67501449584961
2010-04-07,19.485212326049805
2010-04-08,19.59366798400879
2010-04-09,19.848556518554688
2010-04-12,19.59909439086914
2010-04-13,19.59366798400879
2010-04-14,19.79432487487793
2010-04-15,19.935331344604492
2010-04-16,19.77263832092285
2010-04-19,19.64790153503418
2010-04-20,19.9461727142334
2010-04-21,20.33121109008789
2010-04-22,20.526445388793945
2010-04-23,20.98198127746582
2010-04-26,21.139251708984375
2010-04-27,19.902782440185547
2010-04-28,19.853727340698242
2010-04-29,20.2462158203125
2010-04-30,19.71198844909668
2010-05-03,20.148099899291992
2010-05-04,19.15595245361328
2010-05-05,18.7362060546875
2010-05-06,17.994823455810547
2010-05-07,17.466041564941406
2010-05-10,18.51814842224121
2010-05-11,18.64898109436035
2010-05-12,19.37401008605957
2010-05-13,19.308591842651367
2010-05-14,18.850685119628906
2010-05-17,18.82341957092285
2010-05-18,18.621721267700195
2010-05-19,18.234683990478516
2010-05-20,17.258892059326172
2010-05-21,17.711347579956055
2010-05-24,17.787675857543945
2010-05-25,17.88579750061035
2010-05-26,17.96211051940918
2010-05-27,18.8779354095459
2010-05-28,18.730743408203125
2010-06-01,18.267391204833984
2010-06-02,18.621721267700195
2010-06-03,18.550857543945312
2010-06-04,17.91850471496582
2010-06-07,17.237085342407227
2010-06-08,17.36247444152832
2010-06-09,17.32975959777832
2010-06-10,18.103849411010742
2010-06-11,18.25103187561035
2010-06-14,18.43637466430664
2010-06-15,18.981510162353516
2010-06-16,18.785261154174805
2010-06-17,18.616273880004883
2010-06-18,18.7034912109375
2010-06-21,18.550857543945312
2010-06-22,18.109302520751953
2010-06-23,18.120208740234375
2010-06-24,17.749509811401367
2010-06-25,18.196521759033203
2010-06-28,18.332799911499023
2010-06-29,17.64048957824707
2010-06-30,17.553266525268555
2010-07-01,17.269798278808594
2010-07-02,17.2098331451416
2010-07-06,17.117164611816406
2010-07-07,17.629581451416016
2010-07-08,17.956663131713867
2010-07-09,18.01662254333496
2010-07-12,17.673194885253906
2010-07-13,18.174711227416992
2010-07-14,18.109302520751953
2010-07-15,17.913053512573242
2010-07-16,17.400625228881836
2010-07-19,17.662290573120117
2010-07-20,17.787675857543945
2010-07-21,17.716800689697266
2010-07-22,18.321903228759766
2010-07-23,18.730743408203125
2010-07-26,18.807065963745117
2010-07-27,18.681692123413086
2010-07-28,18.63783073425293
2010-07-29,18.58302116394043
2010-07-30,18.747468948364258
2010-08-02,19.186004638671875
2010-08-03,19.010587692260742
2010-08-04,19.07088851928711
2010-08-05,18.922880172729492
2010-08-06,18.626863479614258
2010-08-09,18.654279708862305
2010-08-10,18.31989097595215
2010-08-11,17.54697608947754
2010-08-12,17.437334060668945
2010-08-13,17.333179473876953
2010-08-16,17.40445327758789
2010-08-17,17.79364776611328
2010-08-18,17.700458526611328
2010-08-19,17.020729064941406
2010-08-20,17.053617477416992
2010-08-23,16.823387145996094
2010-08-24,16.423215866088867
2010-08-25,16.63701057434082
2010-08-26,16.609600067138672
2010-08-27,17.004281997680664
2010-08-30,16.69182777404785
2010-08-31,16.49995994567871
2010-09-01,17.015243530273438
2010-09-02,17.212587356567383
2010-09-03,17.44281768798828
2010-09-07,17.185171127319336
2010-09-08,17.431856155395508
2010-09-09,17.689495086669922
2010-09-10,17.700458526611328
2010-09-13,17.9416561126709
2010-09-14,17.89780044555664
2010-09-15,17.94713592529297
2010-09-16,17.936174392700195
2010-09-17,17.99647331237793
2010-09-20,18.265071868896484
2010-09-21,18.144479751586914
2010-09-22,18.001951217651367
2010-09-23,17.826534271240234
2010-09-24,18.199289321899414
2010-09-27,18.106101989746094
2010-09-28,18.111589431762695
2010-09-29,18.39115333557129
2010-09-30,18.43501091003418
2010-10-01,18.402118682861328
2010-10-04,18.073219299316406
2010-10-05,18.824214935302734
2010-10-06,18.90096092224121
2010-10-07,18.862586975097656
2010-10-08,19.005111694335938
2010-10-11,19.032512664794922
2010-10-12,18.747468948364258
2010-10-13,19.142147064208984
2010-10-14,19.02155876159668
2010-10-15,19.02155876159668
2010-10-18,19.180526733398438
2010-10-19,18.681692123413086
2010-10-20,18.917400360107422
2010-10-21,18.961254119873047
2010-10-22,18.85161781311035
2010-10-25,19.43268394470215
2010-10-26,18.204782485961914
2010-10-27,18.033863067626953
2010-10-28,17.862953186035156
2010-10-29,18.044893264770508
2010-11-01,17.962190628051758
2010-11-02,18.27644920349121
2010-11-03,18.419797897338867
2010-11-04,18.711990356445312
2010-11-05,18.673398971557617
2010-11-08,18.530059814453125
2010-11-09,18.160673141479492
2010-11-10,18.2544002532959
2010-11-11,18.24888038635254
2010-11-12,18.094511032104492
2010-11-15,18.111051559448242
2010-11-16,17.901548385620117
2010-11-17,17.818843841552734
2010-11-18,17.95667839050293
2010-11-19,17.93462371826172
2010-11-22,17.98975372314453
2010-11-23,17.923599243164062
2010-11-24,18.243371963500977
2010-11-26,18.2544002532959
2010-11-29,18.077970504760742
2010-11-30,18.138614654541016
2010-12-01,18.47492790222168
2010-12-02,18.734050750732422
2010-12-03,18.767126083374023
2010-12-06,18.89392852783203
2010-12-07,19.213701248168945
2010-12-08,19.296405792236328
2010-12-09,19.406661987304688
2010-12-10,19.572065353393555
2010-12-13,19.781564712524414
2010-12-14,19.726430892944336
2010-12-15,19.621681213378906
2010-12-16,20.05722427368164
2010-12-17,20.062742233276367
2010-12-20,20.084796905517578
2010-12-21,20.481752395629883
2010-12-22,20.123390197753906
2010-12-23,20.156463623046875
2010-12-27,20.17300796508789
2010-12-28,20.26122283935547
2010-12-29,20.189552307128906
2010-12-30,20.266733169555664
2010-12-31,20.1289005279541
2011-01-03,20.38802146911621
2011-01-04,20.062742233276367
2011-01-05,20.073768615722656
2011-01-06,20.16749382019043
2011-01-07,20.134414672851562
2011-01-10,19.875288009643555
2011-01-11,20.1289005279541
2011-01-12,20.34391975402832
2011-01-13,20.426616668701172
2011-01-14,20.38802146911621
2011-01-18,20.470722198486328
2011-01-19,20.117874145507812
2011-01-20,19.748489379882812
2011-01-21,19.61065673828125
2011-01-24,20.0958251953125
2011-01-25,20.200572967529297
2011-01-26,20.32253646850586
2011-01-27,20.18948745727539
2011-01-28,19.829164505004883
2011-01-31,20.0509033203125
2011-02-01,20.666231155395508
2011-02-02,20.87688446044922
2011-02-03,20.90460205078125
2011-02-04,21.165151596069336
2011-02-07,21.131887435913086
2011-02-08,21.109716415405273
2011-02-09,20.910144805908203
2011-02-10,21.043197631835938
2011-02-11,21.142972946166992
2011-02-14,21.159610748291016
2011-02-15,21.093082427978516
2011-02-16,21.093082427978516
2011-02-17,21.364713668823242
2011-02-18,21.386892318725586
2011-02-22,20.67732048034668
2011-02-23,20.40568733215332
2011-02-24,20.25046730041504
2011-02-25,20.627429962158203
2011-02-28,20.55536651611328
2011-03-01,20.195032119750977
2011-03-02,20.25046730041504
2011-03-03,20.705041885375977
2011-03-04,20.34470558166504
2011-03-07,19.978836059570312
2011-03-08,20.56644630432129
2011-03-09,20.450035095214844
2011-03-10,19.923402786254883
2011-03-11,20.045360565185547
2011-03-14,19.945573806762695
2011-03-15,19.801443099975586
2011-03-16,19.646228790283203
2011-03-17,19.89567756652832
2011-03-18,20.0231876373291
2011-03-21,20.55536651611328
2011-03-22,20.55536651611328
2011-03-23,20.43340492248535
2011-03-24,20.638513565063477
2011-03-25,20.671781539916992
2011-03-28,20.682857513427734
2011-03-29,20.865793228149414
2011-03-30,20.915681838989258
2011-03-31,20.948951721191406
2011-04-01,21.065364837646484
2011-04-04,21.34253692626953
2011-04-05,21.7583065032959
2011-04-06,21.885805130004883
2011-04-07,21.75275993347168
2011-04-08,21.55874252319336
2011-04-11,21.420146942138672
2011-04-12,21.070907592773438
2011-04-13,21.048730850219727
2011-04-14,20.899057388305664
2011-04-15,20.976667404174805
2011-04-18,20.511014938354492
2011-04-19,20.799278259277344
2011-04-20,21.2205810546875
2011-04-21,21.46450424194336
2011-04-25,21.57537078857422
2011-04-26,21.991130828857422
2011-04-27,22.06913948059082
2011-04-28,22.253000259399414
2011-04-29,22.375574111938477
2011-05-02,22.425716400146484
2011-05-03,22.186140060424805
2011-05-04,21.90755271911621
2011-05-05,21.72369956970215
2011-05-06,21.768268585205078
2011-05-09,21.968852996826172
2011-05-10,22.28643035888672
2011-05-11,21.929847717285156
2011-05-12,22.2474308013916
2011-05-13,21.957704544067383
2011-05-16,21.840696334838867
2011-05-17,21.64569854736328
2011-05-18,21.94098663330078
2011-05-19,22.04684829711914
2011-05-20,21.734840393066406
2011-05-23,21.433975219726562
2011-05-24,21.383825302124023
2011-05-25,21.957704544067383
2011-05-26,21.929847717285156
2011-05-27,22.202848434448242
2011-05-31,22.55386734008789
2011-06-01,21.701406478881836
2011-06-02,21.667984008789062
2011-06-03,21.31696891784668
2011-06-06,20.9993896484375
2011-06-07,20.87681007385254
2011-06-08,20.754240036010742
2011-06-09,21.071821212768555
2011-06-10,20.614946365356445
2011-06-13,20.676233291625977
2011-06-14,21.110820770263672
2011-06-15,20.882381439208984
2011-06-16,20.94367027282715
2011-06-17,21.055105209350586
2011-06-20,21.272397994995117
2011-06-21,21.712553024291992
2011-06-22,21.673553466796875
2011-06-23,21.840696334838867
2011-06-24,21.584402084350586
2011-06-27,21.634552001953125
2011-06-28,21.929847717285156
2011-06-29,22.04684829711914
2011-06-30,22.487009048461914
2011-07-01,22.994022369384766
2011-07-05,23.094318389892578
2011-07-06,23.094318389892578
2011-07-07,23.540037155151367
2011-07-08,23.434179306030273
2011-07-11,22.966161727905273
2011-07-12,22.849163055419922
2011-07-13,22.849163055419922
2011-07-14,22.487009048461914
2011-07-15,22.58172607421875
2011-07-18,22.230709075927734
2011-07-19,22.6820125579834
2011-07-20,22.63743782043457
2011-07-21,22.698726654052734
2011-07-22,22.55386734008789
2011-07-25,22.693161010742188
2011-07-26,21.673553466796875
2011-07-27,21.21432113647461
2011-07-28,20.844696044921875
2011-07-29,20.615079879760742
2011-08-01,20.47506332397461
2011-08-02,19.80862045288086
2011-08-03,19.887027740478516
2011-08-04,18.906957626342773
2011-08-05,18.77814483642578
2011-08-08,16.84600257873535
2011-08-09,17.915687561035156
2011-08-10,17.131624221801758
2011-08-11,18.22930908203125
2011-08-12,18.391719818115234
2011-08-15,18.8509521484375
2011-08-16,18.509328842163086
2011-08-17,18.352510452270508
2011-08-18,17.333242416381836
2011-08-19,16.94681167602539
2011-08-22,17.238037109375
2011-08-23,17.982891082763672
2011-08-24,18.436519622802734
2011-08-25,17.85967254638672
2011-08-26,18.486919403076172
2011-08-29,19.349382400512695
2011-08-30,19.38858985900879
2011-08-31,19.2205753326416
2011-09-01,18.705339431762695
2011-09-02,18.00529670715332
2011-09-06,17.910079956054688
2011-09-07,18.64933204650879
2011-09-08,18.251708984375
2011-09-09,17.534854888916016
2011-09-12,17.730876922607422
2011-09-13,18.178905487060547
2011-09-14,18.66053581237793
2011-09-15,19.12537384033203
2011-09-16,19.024560928344727
2011-09-19,19.01335906982422
2011-09-20,18.822954177856445
2011-09-21,18.352510452270508
2011-09-22,17.686067581176758
2011-09-23,17.730876922607422
2011-09-26,18.22930908203125
2011-09-27,18.64933204650879
2011-09-28,18.089290618896484
2011-09-29,18.240501403808594
2011-09-30,17.9268856048584
2011-10-03,17.344436645507812
2011-10-04,18.32451057434082
2011-10-05,18.80054473876953
2011-10-06,19.310182571411133
2011-10-07,19.12537384033203
2011-10-10,19.62940216064453
2011-10-11,19.78061294555664
2011-10-12,20.251054763793945
2011-10-13,19.803020477294922
2011-10-14,20.35186004638672
2011-10-17,19.719011306762695
2011-10-18,19.965425491333008
2011-10-19,19.80862045288086
2011-10-20,19.713415145874023
2011-10-21,20.33506202697754
2011-10-24,20.990297317504883
2011-10-25,20.51987075805664
2011-10-26,20.71695899963379
2011-10-27,20.90842056274414
2011-10-28,20.739484786987305
2011-10-31,20.24394989013672
2011-11-01,19.410533905029297
2011-11-02,19.855398178100586
2011-11-03,20.840850830078125
2011-11-04,20.812686920166016
2011-11-07,20.79016876220703
2011-11-08,21.071720123291016
2011-11-09,20.311521530151367
2011-11-10,20.53676986694336
2011-11-11,21.26318359375
2011-11-14,21.094247817993164
2011-11-15,21.471534729003906
2011-11-16,21.18434715270996
2011-11-17,20.660648345947266
2011-11-18,20.739484786987305
2011-11-21,20.30025291442871
2011-11-22,20.255205154418945
2011-11-23,19.478113174438477
2011-11-25,19.46685218811035
2011-11-28,20.035594940185547
2011-11-29,20.176372528076172
2011-11-30,21.415224075317383
2011-12-01,20.964731216430664
2011-12-02,20.897157669067383
2011-12-05,21.03230857849121
2011-12-06,20.82395362854004
2011-12-07,20.73386001586914
2011-12-08,20.29463005065918
2011-12-09,20.688806533813477
2011-12-12,20.35093116760254
2011-12-13,20.27773094177246
2011-12-14,19.100826263427734
2011-12-15,18.886844635009766
2011-12-16,18.689746856689453
2011-12-19,18.368776321411133
2011-12-20,18.824899673461914
2011-12-21,18.689746856689453
2011-12-22,18.548973083496094
2011-12-23,18.869949340820312
2011-12-27,18.898101806640625
2011-12-28,18.53771209716797
2011-12-29,18.892467498779297
2011-12-30,18.746063232421875
2012-01-03,19.213443756103516
2012-01-04,19.478113174438477
2012-01-05,19.968021392822266
2012-01-06,19.849767684936523
2012-01-09,20.046855926513672
2012-01-10,20.317153930664062
2012-01-11,20.469188690185547
2012-01-12,20.7000675201416
2012-01-13,20.542388916015625
2012-01-17,20.767642974853516
2012-01-18,20.947837829589844
2012-01-19,21.189983367919922
2012-01-20,20.95909881591797
2012-01-23,20.812686920166016
2012-01-24,20.75074577331543
2012-01-25,21.079317092895508
2012-01-26,20.77907371520996
2012-01-27,20.78473472595215
2012-01-30,20.977346420288086
2012-01-31,20.858386993408203
2012-02-01,21.49285888671875
2012-02-02,21.328577041625977
2012-02-03,21.674135208129883
2012-02-06,21.56650161743164
2012-02-07,21.77610206604004
2012-02-08,21.84408950805664
2012-02-09,21.90073585510254
2012-02-10,21.56650161743164
2012-02-13,21.883739471435547
2012-02-14,21.997039794921875
2012-02-15,21.866744995117188
2012-02-16,22.121660232543945
2012-02-17,22.1669921875
2012-02-21,22.16132164001465
2012-02-22,21.883739471435547
2012-02-23,22.110342025756836
2012-02-24,21.997039794921875
2012-02-27,22.251962661743164
2012-02-28,22.002708435058594
2012-02-29,21.810094833374023
2012-03-01,21.883739471435547
2012-03-02,21.730785369873047
2012-03-05,21.62881851196289
2012-03-06,21.04532814025879
2012-03-07,21.260589599609375
2012-03-08,21.662805557250977
2012-03-09,21.917724609375
2012-03-12,22.053688049316406
2012-03-13,22.518218994140625
2012-03-14,22.370925903320312
2012-03-15,22.60318374633789
2012-03-16,22.563535690307617
2012-03-19,22.648515701293945
2012-03-20,22.399248123168945
2012-03-21,22.342599868774414
2012-03-22,22.13866424560547
2012-03-23,22.019699096679688
2012-03-26,22.597522735595703
2012-03-27,22.807125091552734
2012-03-28,26.240093231201172
2012-03-29,26.70461654663086
2012-03-30,26.97087860107422
2012-04-02,26.69329071044922
2012-04-03,26.461023330688477
2012-04-04,26.121131896972656
2012-04-05,25.9228515625
2012-04-09,25.548967361450195
2012-04-10,24.670900344848633
2012-04-11,24.80685806274414
2012-04-12,25.01645851135254
2012-04-13,24.954145431518555
2012-04-16,24.886171340942383
2012-04-17,24.99947166442871
2012-04-18,25.152420043945312
2012-04-19,25.061779022216797
2012-04-20,25.379018783569336
2012-04-23,24.988142013549805
2012-04-24,24.954145431518555
2012-04-25,25.22173500061035
2012-04-26,24.959842681884766
2012-04-27,24.84597396850586
2012-04-30,24.67517852783203
2012-05-01,24.703638076782227
2012-05-02,24.806123733520508
2012-05-03,24.63531494140625
2012-05-04,24.293712615966797
2012-05-07,24.253864288330078
2012-05-08,24.498680114746094
2012-05-09,24.28801727294922
2012-05-10,24.299406051635742
2012-05-11,24.749181747436523
2012-05-14,23.94641876220703
2012-05-15,24.157066345214844
2012-05-16,23.695907592773438
2012-05-17,23.041168212890625
2012-05-18,23.07532501220703
2012-05-21,23.388460159301758
2012-05-22,24.100141525268555
2012-05-23,24.310791015625
2012-05-24,24.253864288330078
2012-05-25,23.684526443481445
2012-05-29,23.917949676513672
2012-05-30,23.263212203979492
2012-05-31,23.20627784729004
2012-06-01,22.688180923461914
2012-06-04,22.278249740600586
2012-06-05,22.289640426635742
2012-06-06,22.500288009643555
2012-06-07,22.346572875976562
2012-06-08,22.665401458740234
2012-06-11,22.158689498901367
2012-06-12,22.51738166809082
2012-06-13,22.11314582824707
2012-06-14,22.192853927612305
2012-06-15,22.192853927612305
2012-06-18,22.40920066833496
2012-06-19,22.8248233795166
2012-06-20,22.699562072753906
2012-06-21,22.19854164123535
2012-06-22,21.97081184387207
2012-06-25,21.298988342285156
2012-06-26,21.150964736938477
2012-06-27,21.264827728271484
2012-06-28,21.12818717956543
2012-06-29,21.7943115234375
2012-07-02,22.044822692871094
2012-07-03,22.636938095092773
2012-07-05,22.8248233795166
2012-07-06,22.36935043334961
2012-07-09,22.51738166809082
2012-07-10,21.805700302124023
2012-07-11,21.62351417541504
2012-07-12,21.62351417541504
2012-07-13,22.118839263916016
2012-07-16,21.77153968811035
2012-07-17,22.26687240600586
2012-07-18,22.739423751831055
2012-07-19,23.16073226928711
2012-07-20,22.631242752075195
2012-07-23,22.55153465270996
2012-07-24,23.604812622070312
2012-07-25,23.66205406188965
2012-07-26,24.617921829223633
2012-07-27,25.613853454589844
2012-07-30,25.34483528137207
2012-07-31,25.0872745513916
2012-08-01,24.652259826660156
2012-08-02,24.56068229675293
2012-08-03,25.007139205932617
2012-08-06,24.898386001586914
2012-08-07,25.133052825927734
2012-08-08,24.875490188598633
2012-08-09,24.59502601623535
2012-08-10,24.53778839111328
2012-08-13,24.337451934814453
2012-08-14,24.18291473388672
2012-08-15,24.320287704467773
2012-08-16,24.669435501098633
2012-08-17,25.070098876953125
2012-08-20,25.25897979736328
2012-08-21,25.482210159301758
2012-08-22,25.442142486572266
2012-08-23,24.829702377319336
2012-08-24,24.70949935913086
2012-08-27,24.388975143432617
2012-08-28,24.14284896850586
2012-08-29,24.05699348449707
2012-08-30,23.976858139038086
2012-08-31,24.326007843017578
2012-09-04,24.846872329711914
2012-09-05,24.549230575561523
2012-09-06,24.869770050048828
2012-09-07,24.78390884399414
2012-09-10,24.738113403320312
2012-09-11,24.62936782836914
2012-09-12,25.121610641479492
2012-09-13,24.829702377319336
2012-09-14,24.60647201538086
2012-09-17,24.240150451660156
2012-09-18,24.480554580688477
2012-09-19,25.27616310119629
2012-09-20,24.978515625
2012-09-21,25.20746612548828
2012-09-24,24.955617904663086
2012-09-25,24.45765495300293
2012-09-26,23.976858139038086
2012-09-27,24.829702377319336
2012-09-28,25.476482391357422
2012-10-01,24.314563751220703
2012-10-02,24.63509178161621
2012-10-03,25.304771423339844
2012-10-04,25.48793601989746
2012-10-05,26.020246505737305
2012-10-08,25.945831298828125
2012-10-09,25.407794952392578
2012-10-10,24.944171905517578
2012-10-11,25.01858139038086
2012-10-12,24.97279167175293
2012-10-15,25.133052825927734
2012-10-16,25.092992782592773
2012-10-17,24.984237670898438
2012-10-18,24.692331314086914
2012-10-19,24.371797561645508
2012-10-22,24.13140106201172
2012-10-23,23.438825607299805
2012-10-24,23.51938819885254
2012-10-25,23.73807144165039
2012-10-26,23.645992279052734
2012-10-31,24.307790756225586
2012-11-01,26.195316314697266
2012-11-02,26.327674865722656
2012-11-05,26.206823348999023
2012-11-06,26.477296829223633
2012-11-07,25.901824951171875
2012-11-08,25.58531951904297
2012-11-09,25.556547164916992
2012-11-12,25.429946899414062
2012-11-13,25.401172637939453
2012-11-14,25.17098617553711
2012-11-15,25.055892944335938
2012-11-16,25.803997039794922
2012-11-19,26.206823348999023
2012-11-20,26.51182746887207
2012-11-21,26.60965347290039
2012-11-23,27.426820755004883
2012-11-26,27.507381439208984
2012-11-27,27.392292022705078
2012-11-28,27.36927604675293
2012-11-29,28.151906967163086
2012-11-30,27.904462814331055
2012-12-03,27.576448440551758
2012-12-04,27.81813621520996
2012-12-05,27.743324279785156
2012-12-06,27.44408416748047
2012-12-07,27.64550018310547
2012-12-10,27.720304489135742
2012-12-11,27.5706844329834
2012-12-12,27.58219337463379
2012-12-13,27.530397415161133
2012-12-14,27.599462509155273
2012-12-17,28.186437606811523
2012-12-18,28.341806411743164
2012-12-19,28.082853317260742
2012-12-20,28.07134246826172
2012-12-21,27.754837036132812
2012-12-24,27.841156005859375
2012-12-26,27.777854919433594
2012-12-27,27.7260684967041
2012-12-28,27.340497970581055
2012-12-31,28.284263610839844
2013-01-02,29.12445068359375
2013-01-03,28.865495681762695
2013-01-04,28.7388916015625
2013-01-07,28.7388916015625
2013-01-08,28.572002410888672
2013-01-09,29.10142707824707
2013-01-10,29.11870574951172
2013-01-11,28.99784278869629
2013-01-14,28.969078063964844
2013-01-15,28.951812744140625
2013-01-16,29.251047134399414
2013-01-17,29.838029861450195
2013-01-18,30.258115768432617
2013-01-22,30.48255157470703
2013-01-23,30.59237289428711
2013-01-24,30.54613494873047
2013-01-25,30.77733039855957
2013-01-28,30.534582138061523
2013-01-29,29.67917251586914
2013-01-30,28.841100692749023
2013-01-31,29.29192543029785
2013-02-01,29.482662200927734
2013-02-04,29.47687339782715
2013-02-05,29.725399017333984
2013-02-06,29.46531867980957
2013-02-07,29.20522689819336
2013-02-08,29.50577735900879
2013-02-11,29.60403060913086
2013-02-12,30.07219886779785
2013-02-13,30.62127685546875
2013-02-14,30.534582138061523
2013-02-15,30.58081817626953
2013-02-19,30.413204193115234
2013-02-20,29.760082244873047
2013-02-21,29.395965576171875
2013-02-22,29.800546646118164
2013-02-25,29.34394645690918
2013-02-26,29.32660675048828
2013-02-27,30.413204193115234
2013-02-28,30.78888702392578
2013-03-01,30.18779182434082
2013-03-04,30.049072265625
2013-03-05,30.430543899536133
2013-03-06,30.00861930847168
2013-03-07,29.817890167236328
2013-03-08,29.875680923461914
2013-03-11,29.817890167236328
2013-03-12,29.430641174316406
2013-03-13,29.812108993530273
2013-03-14,30.274494171142578
2013-03-15,30.45366096496582
2013-03-18,30.505680084228516
2013-03-19,30.80622100830078
2013-03-20,30.91604995727539
2013-03-21,30.742645263671875
2013-03-22,30.858251571655273
2013-03-25,30.037511825561523
2013-03-26,29.852558135986328
2013-03-27,29.800546646118164
2013-03-28,30.48834228515625
2013-04-01,29.829448699951172
2013-04-02,29.99128532409668
2013-04-03,29.945035934448242
2013-04-04,30.505680084228516
2013-04-05,30.049072265625
2013-04-08,30.575031280517578
2013-04-09,30.794668197631836
2013-04-10,31.239709854125977
2013-04-11,31.176132202148438
2013-04-12,30.835126876831055
2013-04-15,29.817890167236328
2013-04-16,30.355411529541016
2013-04-17,29.97393226623535
2013-04-18,29.245691299438477
2013-04-19,29.037612915039062
2013-04-22,28.92780113220215
2013-04-23,30.598155975341797
2013-04-24,31.56178855895996
2013-04-25,31.56178855895996
2013-04-26,31.23090362548828
2013-04-29,31.66047477722168
2013-04-30,31.55017852783203
2013-05-01,31.056758880615234
2013-05-02,30.911632537841797
2013-05-03,31.47471809387207
2013-05-06,31.63725471496582
2013-05-07,32.136478424072266
2013-05-08,32.206138610839844
2013-05-09,32.39191436767578
2013-05-10,32.362884521484375
2013-05-13,32.653133392333984
2013-05-14,33.08849334716797
2013-05-15,33.5296745300293
2013-05-16,33.39617156982422
2013-05-17,33.56450653076172
2013-05-20,33.7154426574707
2013-05-21,33.599342346191406
2013-05-22,33.12334060668945
2013-05-23,32.75762176513672
2013-05-24,33.36133575439453
2013-05-28,33.494850158691406
2013-05-29,33.599342346191406
2013-05-30,34.04051971435547
2013-05-31,33.808311462402344
2013-06-03,33.81993103027344
2013-06-04,33.535484313964844
2013-06-05,33.187191009521484
2013-06-06,33.79090881347656
2013-06-07,34.278533935546875
2013-06-10,34.51653289794922
2013-06-11,34.046329498291016
2013-06-12,33.69802474975586
2013-06-13,34.47590637207031
2013-06-14,34.6674690246582
2013-06-17,34.13920593261719
2013-06-18,34.58038330078125
2013-06-19,34.05793380737305
2013-06-20,32.920169830322266
2013-06-21,33.01303482055664
2013-06-24,32.39191436767578
2013-06-25,32.85629653930664
2013-06-26,33.216217041015625
2013-06-27,33.93022155761719
2013-06-28,33.48906326293945
2013-07-01,33.81414031982422
2013-07-02,33.634185791015625
2013-07-03,33.628360748291016
2013-07-05,34.121795654296875
2013-07-08,34.13920593261719
2013-07-09,34.18564987182617
2013-07-10,34.16242980957031
2013-07-11,35.20734405517578
2013-07-12,35.39308166503906
2013-07-15,35.34083938598633
2013-07-16,34.940303802490234
2013-07-17,34.96350860595703
2013-07-18,35.09123992919922
2013-07-19,35.25957107543945
2013-07-22,35.07961654663086
2013-07-23,34.783565521240234
2013-07-24,34.905982971191406
2013-07-25,35.43644714355469
2013-07-26,35.343177795410156
2013-07-29,35.185791015625
2013-07-30,35.48891830444336
2013-07-31,35.60549545288086
2013-08-01,36.40994644165039
2013-08-02,36.45075607299805
2013-08-05,36.84714126586914
2013-08-06,36.85879898071289
2013-08-07,36.87629699707031
2013-08-08,37.08032989501953
2013-08-09,36.97539520263672
2013-08-12,37.226051330566406
2013-08-13,37.40675735473633
2013-08-14,36.992881774902344
2013-08-15,36.392452239990234
2013-08-16,36.205928802490234
2013-08-19,35.961090087890625
2013-08-20,36.09516143798828
2013-08-21,35.69876480102539
2013-08-22,36.205928802490234
2013-08-23,36.00773239135742
2013-08-26,35.93777084350586
2013-08-27,35.203285217285156
2013-08-28,35.31402587890625
2013-08-29,35.54721450805664
2013-08-30,35.04005432128906
2013-09-03,35.343177795410156
2013-09-04,35.926109313964844
2013-09-05,36.28170394897461
2013-09-06,35.931941986083984
2013-09-09,36.60813903808594
2013-09-10,37.494205474853516
2013-09-11,37.569984436035156
2013-09-12,37.371788024902344
2013-09-13,37.36012649536133
2013-09-16,37.51169204711914
2013-09-17,37.64576721191406
2013-09-18,37.96636962890625
2013-09-19,38.14125061035156
2013-09-20,38.36860656738281
2013-09-23,37.69822692871094
2013-09-24,37.93722915649414
2013-09-25,38.182071685791016
2013-09-26,38.426883697509766
2013-09-27,38.1937141418457
2013-09-30,37.85561752319336
2013-10-01,38.46186447143555
2013-10-02,38.63091278076172
2013-10-03,38.22869110107422
2013-10-04,38.654232025146484
2013-10-07,38.036312103271484
2013-10-08,37.208553314208984
2013-10-09,37.191078186035156
2013-10-10,38.13542938232422
2013-10-11,38.700862884521484
2013-10-14,38.46770095825195
2013-10-15,37.73903274536133
2013-10-16,37.98386764526367
2013-10-17,37.63410949707031
2013-10-18,38.030494689941406
2013-10-21,38.29866027832031
2013-10-22,37.70405578613281
2013-10-23,38.101993560791016
2013-10-24,38.494075775146484
2013-10-25,39.014892578125
2013-10-28,38.83933639526367
2013-10-29,39.58253479003906
2013-10-30,39.29579162597656
2013-10-31,39.26067352294922
2013-11-01,39.4889030456543
2013-11-04,39.705421447753906
2013-11-05,39.886837005615234
2013-11-06,39.804908752441406
2013-11-07,38.82177734375
2013-11-08,39.41867446899414
2013-11-11,39.734683990478516
2013-11-12,39.82246017456055
2013-11-13,40.05653762817383
2013-11-14,40.81144714355469
2013-11-15,41.244483947753906
2013-11-18,41.133296966552734
2013-11-19,40.72951126098633
2013-11-20,40.75291442871094
2013-11-21,41.20936965942383
2013-11-22,41.180110931396484
2013-11-25,41.431758880615234
2013-11-26,41.51366424560547
2013-11-27,41.706787109375
2013-11-29,41.384925842285156
2013-12-02,41.21522903442383
2013-12-03,40.95774459838867
2013-12-04,40.834842681884766
2013-12-05,40.81730651855469
2013-12-06,41.5195198059082
2013-12-09,41.689231872558594
2013-12-10,41.92331314086914
2013-12-11,41.10988235473633
2013-12-12,40.94603729248047
2013-12-13,40.969444274902344
2013-12-16,41.899898529052734
2013-12-17,42.61968994140625
2013-12-18,43.94223403930664
2013-12-19,43.825191497802734
2013-12-20,44.12363815307617
2013-12-23,44.42793655395508
2013-12-24,44.796607971191406
2013-12-26,45.28817367553711
2013-12-27,45.393524169921875
2013-12-30,45.28817367553711
2013-12-31,45.4520263671875
2014-01-02,44.98387908935547
2014-01-03,44.84342575073242
2014-01-06,44.562530517578125
2014-01-07,45.04239273071289
2014-01-08,45.21210861206055
2014-01-09,45.24135208129883
2014-01-10,45.0716552734375
2014-01-13,43.936370849609375
2014-01-14,44.35771179199219
2014-01-15,45.171142578125
2014-01-16,45.165279388427734
2014-01-17,45.411067962646484
2014-01-21,45.498844146728516
2014-01-22,45.42839813232422
2014-01-23,44.44796371459961
2014-01-24,42.39905548095703
2014-01-27,42.2757682800293
2014-01-28,43.91373062133789
2014-01-29,43.43232345581055
2014-01-30,43.878501892089844
2014-01-31,43.637786865234375
2014-02-03,42.01746368408203
2014-02-04,43.35599136352539
2014-02-05,43.91959762573242
2014-02-06,43.99591064453125
2014-02-07,44.83544158935547
2014-02-10,44.94111633300781
2014-02-11,45.38728713989258
2014-02-12,45.5986442565918
2014-02-13,45.75129699707031
2014-02-14,46.015472412109375
2014-02-18,46.40882110595703
2014-02-19,45.69258117675781
2014-02-20,46.37359619140625
2014-02-21,46.479270935058594
2014-02-24,46.68474578857422
2014-02-25,47.07223129272461
2014-02-26,47.19551467895508
2014-02-27,47.51841354370117
2014-02-28,47.44209671020508
2014-03-03,47.13093566894531
2014-03-04,48.09374237060547
2014-03-05,48.0878791809082
2014-03-06,48.563419342041016
2014-03-07,48.61626052856445
2014-03-10,48.36381912231445
2014-03-11,47.75910949707031
2014-03-12,47.10745620727539
2014-03-13,46.12702941894531
2014-03-14,45.457767486572266
2014-03-17,46.42644119262695
2014-03-18,46.64951705932617
2014-03-19,46.15050506591797
2014-03-20,46.39120864868164
2014-03-21,45.93915557861328
2014-03-24,45.933284759521484
2014-03-25,46.162254333496094
2014-03-26,45.34619903564453
2014-03-27,44.92350769042969
2014-03-28,45.5927734375
2014-03-31,46.57907485961914
2014-04-01,47.10745620727539
2014-04-02,47.28945541381836
2014-04-03,46.966552734375
2014-04-04,45.92741775512695
2014-04-07,45.040924072265625
2014-04-08,46.056575775146484
2014-04-09,47.0252571105957
2014-04-10,45.86870574951172
2014-04-11,45.234657287597656
2014-04-14,45.451873779296875
2014-04-15,45.633872985839844
2014-04-16,46.96067810058594
2014-04-17,46.702369689941406
2014-04-21,47.24835968017578
2014-04-22,44.00178909301758
2014-04-23,44.28453826904297
2014-04-24,44.08426284790039
2014-04-25,43.48931121826172
2014-04-28,43.065208435058594
2014-04-29,43.35383987426758
2014-04-30,43.76028060913086
2014-05-01,43.7131462097168
2014-05-02,44.00178909301758
2014-05-05,44.13138198852539
2014-05-06,44.096038818359375
2014-05-07,44.260963439941406
2014-05-08,44.51426315307617
2014-05-09,44.16082763671875
2014-05-12,45.01495361328125
2014-05-13,44.97959518432617
2014-05-14,44.30809783935547
2014-05-15,43.64836502075195
2014-05-16,43.21246337890625
2014-05-19,43.80150604248047
2014-05-20,43.01219177246094
2014-05-21,43.45987319946289
2014-05-22,43.64836502075195
2014-05-23,44.01356887817383
2014-05-27,44.260963439941406
2014-05-28,43.94878005981445
2014-05-29,43.82506561279297
2014-05-30,43.9664421081543
2014-06-02,44.15493392944336
2014-06-03,43.76028060913086
2014-06-04,43.90753936767578
2014-06-05,44.87358093261719
2014-06-06,45.59221267700195
2014-06-09,46.240169525146484
2014-06-10,45.98099136352539
2014-06-11,45.6039924621582
2014-06-12,44.38466262817383
2014-06-13,44.28453826904297
2014-06-16,44.46125411987305
2014-06-17,44.449462890625
2014-06-18,44.11959457397461
2014-06-19,43.984127044677734
2014-06-20,44.39645004272461
2014-06-23,44.425899505615234
2014-06-24,44.143150329589844
2014-06-25,43.67192077636719
2014-06-26,43.100555419921875
2014-06-27,42.85904312133789
2014-06-30,42.48204803466797
2014-07-01,42.70589065551758
2014-07-02,42.35246276855469
2014-07-03,42.52916717529297
2014-07-07,41.85176467895508
2014-07-08,41.374637603759766
2014-07-09,41.80464172363281
2014-07-10,41.516014099121094
2014-07-11,41.72806930541992
2014-07-14,42.552734375
2014-07-15,42.70589065551758
2014-07-16,43.12999725341797
2014-07-17,42.1580810546875
2014-07-18,42.63520812988281
2014-07-21,42.76478958129883
2014-07-22,42.65877151489258
2014-07-23,42.49313735961914
2014-07-24,42.45766067504883
2014-07-25,42.74749755859375
2014-07-28,42.469486236572266
2014-07-29,41.38113021850586
2014-07-30,41.16227722167969
2014-07-31,37.8972053527832
2014-08-01,37.64878463745117
2014-08-04,38.494625091552734
2014-08-05,38.27577590942383
2014-08-06,38.494625091552734
2014-08-07,39.364131927490234
2014-08-08,39.719024658203125
2014-08-11,40.43474578857422
2014-08-12,40.487972259521484
2014-08-13,40.53529739379883
2014-08-14,40.517539978027344
2014-08-15,40.18630599975586
2014-08-18,41.043975830078125
2014-08-19,41.30423355102539
2014-08-20,41.41071319580078
2014-08-21,41.416622161865234
2014-08-22,41.049896240234375
2014-08-25,41.339725494384766
2014-08-26,40.62993240356445
2014-08-27,40.60036087036133
2014-08-28,40.523468017578125
2014-08-29,40.26321029663086
2014-09-02,40.03843307495117
2014-09-03,39.955623626708984
2014-09-04,39.63621520996094
2014-09-05,39.819580078125
2014-09-08,39.58297348022461
2014-09-09,39.819580078125
2014-09-10,39.7426872253418
2014-09-11,40.09757614135742
2014-09-12,39.86098098754883
2014-09-15,39.82550048828125
2014-09-16,39.84324264526367
2014-09-17,39.84324264526367
2014-09-18,40.03843307495117
2014-09-19,40.16264724731445
2014-09-22,39.67169952392578
2014-09-23,39.51791763305664
2014-09-24,39.795921325683594
2014-09-25,39.50608444213867
2014-09-26,39.8728141784668
2014-09-29,39.13936233520508
2014-09-30,38.73713684082031
2014-10-01,38.21662139892578
2014-10-02,38.2462043762207
2014-10-03,38.530113220214844
2014-10-06,38.648414611816406
2014-10-07,37.767093658447266
2014-10-08,38.37632751464844
2014-10-09,37.09869384765625
2014-10-10,36.76153564453125
2014-10-13,36.26469802856445
2014-10-14,36.56043243408203
2014-10-15,35.99259567260742
2014-10-16,36.56043243408203
2014-10-17,37.702022552490234
2014-10-20,37.99186325073242
2014-10-21,38.447303771972656
2014-10-22,38.42354965209961
2014-10-23,39.42779541015625
2014-10-24,39.7724609375
2014-10-27,39.24952697753906
2014-10-28,40.01016616821289
2014-10-29,39.72493362426758
2014-10-30,39.926963806152344
2014-10-31,39.843772888183594
2014-11-03,39.65361022949219
2014-11-04,39.32085037231445
2014-11-05,39.90913772583008
2014-11-06,40.336971282958984
2014-11-07,40.455833435058594
2014-11-10,40.58062744140625
2014-11-11,40.4796142578125
2014-11-12,40.66975784301758
2014-11-13,40.687591552734375
2014-11-14,40.800506591796875
2014-11-17,41.002532958984375
2014-11-18,40.711368560791016
2014-11-19,40.19438171386719
2014-11-20,40.289451599121094
2014-11-21,40.74701690673828
2014-11-24,40.89558410644531
2014-11-25,41.050079345703125
2014-11-26,40.4261360168457
2014-11-28,38.453243255615234
2014-12-01,37.288536071777344
2014-12-02,37.324188232421875
2014-12-03,38.274986267089844
2014-12-04,38.14424133300781
2014-12-05,37.5619010925293
2014-12-08,36.504150390625
2014-12-09,37.288536071777344
2014-12-10,36.141658782958984
2014-12-11,36.46254348754883
2014-12-12,35.666263580322266
2014-12-15,35.559303283691406
2014-12-16,36.224853515625
2014-12-17,37.85901641845703
2014-12-18,38.64934539794922
2014-12-19,39.582305908203125
2014-12-22,39.730865478515625
2014-12-23,39.86159896850586
2014-12-24,39.808109283447266
2014-12-26,39.885372161865234
2014-12-29,39.962615966796875
2014-12-30,39.89131164550781
2014-12-31,39.46940231323242
2015-01-02,39.623905181884766
2015-01-05,38.007572174072266
2015-01-06,37.68074035644531
2015-01-07,37.96597671508789
2015-01-08,38.95241165161133
2015-01-09,38.696895599365234
2015-01-12,38.40571212768555
2015-01-13,38.625572204589844
2015-01-14,38.8098030090332
2015-01-15,38.601810455322266
2015-01-16,38.31658172607422
2015-01-20,38.52456283569336
2015-01-21,39.404029846191406
2015-01-22,39.404029846191406
2015-01-23,38.179901123046875
2015-01-26,38.019447326660156
2015-01-27,37.258827209472656
2015-01-28,36.649600982666016
2015-01-29,37.25285720825195
2015-01-30,36.91838455200195
2015-02-02,38.3936767578125
2015-02-03,39.235843658447266
2015-02-04,37.945701599121094
2015-02-05,38.19656753540039
2015-02-06,38.417572021484375
2015-02-09,39.10445022583008
2015-02-10,38.85359191894531
2015-02-11,38.60870361328125
2015-02-12,39.28961181640625
2015-02-13,39.94064712524414
2015-02-17,40.05414962768555
2015-02-18,39.9346809387207
2015-02-19,39.988441467285156
2015-02-20,40.633514404296875
2015-02-23,39.988441467285156
2015-02-24,40.39459991455078
2015-02-25,40.3408317565918
2015-02-26,40.221378326416016
2015-02-27,39.70173263549805
2015-03-02,39.54644012451172
2015-03-03,39.3433723449707
2015-03-04,38.45937728881836
2015-03-05,38.70427703857422
2015-03-06,37.87403869628906
2015-03-09,38.37575912475586
2015-03-10,37.545528411865234
2015-03-11,37.33051300048828
2015-03-12,38.33992385864258
2015-03-13,38.08308792114258
2015-03-16,38.51910400390625
2015-03-17,38.59078598022461
2015-03-18,39.45685577392578
2015-03-19,38.45341491699219
2015-03-20,38.60870361328125
2015-03-23,38.28019714355469
2015-03-24,38.351863861083984
2015-03-25,37.52164077758789
2015-03-26,37.545528411865234
2015-03-27,37.26481246948242
2015-03-30,37.945701599121094
2015-03-31,37.56344223022461
2015-04-01,37.623165130615234
2015-04-02,38.02933120727539
2015-04-06,39.235843658447266
2015-04-07,38.50117874145508
2015-04-08,37.15728759765625
2015-04-09,37.22896194458008
2015-04-10,37.426063537597656
2015-04-13,37.372318267822266
2015-04-14,38.07114791870117
2015-04-15,38.75205612182617
2015-04-16,38.60870361328125
2015-04-17,37.98155212402344
2015-04-20,38.2324104309082
2015-04-21,36.89448928833008
2015-04-22,36.330116271972656
2015-04-23,36.80442810058594
2015-04-24,36.93651580810547
2015-04-27,37.524906158447266
2015-04-28,37.48887634277344
2015-04-29,37.62697219848633
2015-04-30,37.31477355957031
2015-05-01,37.302772521972656
2015-05-04,37.44684982299805
2015-05-05,37.1046257019043
2015-05-06,37.22471237182617
2015-05-07,37.1946907043457
2015-05-08,37.27273178100586
2015-05-11,37.320762634277344
2015-05-12,37.62697219848633
2015-05-13,37.96919631958008
2015-05-14,38.61763381958008
2015-05-15,38.425514221191406
2015-05-18,38.425514221191406
2015-05-19,38.45552062988281
2015-05-20,38.539581298828125
2015-05-21,39.59027099609375
2015-05-22,39.037906646728516
2015-05-26,38.6896858215332
2015-05-27,38.80976486206055
2015-05-28,38.713687896728516
2015-05-29,38.443504333496094
2015-06-01,38.119293212890625
2015-06-02,38.341453552246094
2015-06-03,38.233375549316406
2015-06-04,37.320762634277344
2015-06-05,37.4528694152832
2015-06-08,36.948524475097656
2015-06-09,36.75639724731445
2015-06-10,37.1946907043457
2015-06-11,37.338775634765625
2015-06-12,37.27873992919922
2015-06-15,36.66633224487305
2015-06-16,36.978546142578125
2015-06-17,36.80442810058594
2015-06-18,37.06260299682617
2015-06-19,36.870460510253906
2015-06-22,37.31477355957031
2015-06-23,37.7170295715332
2015-06-24,38.305423736572266
2015-06-25,38.233375549316406
2015-06-26,38.275394439697266
2015-06-29,38.68366622924805
2015-06-30,41.27738571166992
2015-07-01,41.25338363647461
2015-07-02,40.79105758666992
2015-07-06,39.656314849853516
2015-07-07,39.9024772644043
2015-07-08,39.127967834472656
2015-07-09,38.75571823120117
2015-07-10,38.36545944213867
2015-07-13,39.127967834472656
2015-07-14,39.20600891113281
2015-07-15,38.24538040161133
2015-07-16,38.653656005859375
2015-07-17,38.32343292236328
2015-07-20,38.473533630371094
2015-07-21,36.98455047607422
2015-07-22,36.88194274902344
2015-07-23,37.34062957763672
2015-07-24,36.718990325927734
2015-07-27,35.457603454589844
2015-07-28,35.88008499145508
2015-07-29,36.69485855102539
2015-07-30,36.65863037109375
2015-07-31,36.70088577270508
2015-08-03,36.33876419067383
2015-08-04,36.16373825073242
2015-08-05,36.73106384277344
2015-08-06,36.797447204589844
2015-08-07,36.90005111694336
2015-08-10,37.642398834228516
2015-08-11,36.875919342041016
2015-08-12,36.9905891418457
2015-08-13,36.9362678527832
2015-08-14,37.21992492675781
2015-08-17,37.781219482421875
2015-08-18,37.582054138183594
2015-08-19,36.67070388793945
2015-08-20,35.54814529418945
2015-08-21,34.419532775878906
2015-08-24,32.98311233520508
2015-08-25,31.981250762939453
2015-08-26,32.753780364990234
2015-08-27,33.647003173828125
2015-08-28,33.779781341552734
2015-08-31,33.369384765625
2015-09-01,32.28302764892578
2015-09-02,32.50028610229492
2015-09-03,32.72963333129883
2015-09-04,32.101959228515625
2015-09-08,32.94086837768555
2015-09-09,32.63911056518555
2015-09-10,32.717567443847656
2015-09-11,32.8382682800293
2015-09-14,32.28302764892578
2015-09-15,32.614959716796875
2015-09-16,33.12192916870117
2015-09-17,32.11402893066406
2015-09-18,30.780223846435547
2015-09-21,30.45431900024414
2015-09-22,30.943180084228516
2015-09-23,30.526735305786133
2015-09-24,30.822463989257812
2015-09-25,31.371686935424805
2015-09-28,30.943180084228516
2015-09-29,30.653474807739258
2015-09-30,30.80436134338379
2015-10-01,29.90509605407715
2015-10-02,30.991453170776367
2015-10-05,32.89863204956055
2015-10-06,32.80809783935547
2015-10-07,33.309024810791016
2015-10-08,34.721290588378906
2015-10-09,34.491966247558594
2015-10-12,34.329002380371094
2015-10-13,33.97291946411133
2015-10-14,33.48405075073242
2015-10-15,34.190189361572266
2015-10-16,33.538368225097656
2015-10-19,33.321102142333984
2015-10-20,32.82016372680664
2015-10-21,32.75944900512695
2015-10-22,33.797603607177734
2015-10-23,33.870460510253906
2015-10-26,33.40298843383789
2015-10-27,33.15407943725586
2015-10-28,33.29977798461914
2015-10-29,33.597259521484375
2015-10-30,33.949378967285156
2015-11-02,34.520057678222656
2015-11-03,35.49142837524414
2015-11-04,35.618919372558594
2015-11-05,36.062103271484375
2015-11-06,34.76289367675781
2015-11-09,34.186153411865234
2015-11-10,34.59291076660156
2015-11-11,34.44721221923828
2015-11-12,33.05692672729492
2015-11-13,33.317989349365234
2015-11-16,33.724754333496094
2015-11-17,33.33012771606445
2015-11-18,34.14972686767578
2015-11-19,34.465423583984375
2015-11-20,34.41077423095703
2015-11-23,34.26507568359375
2015-11-24,34.32579803466797
2015-11-25,34.10723114013672
2015-11-27,34.23472595214844
2015-11-30,34.42292404174805
2015-12-01,34.653621673583984
2015-12-02,34.004032135009766
2015-12-03,33.894752502441406
2015-12-04,33.894752502441406
2015-12-07,33.37870407104492
2015-12-08,31.945940017700195
2015-12-09,31.873077392578125
2015-12-10,32.34055709838867
2015-12-11,31.405607223510742
2015-12-14,31.721298217773438
2015-12-15,30.865285873413086
2015-12-16,31.435964584350586
2015-12-17,30.100330352783203
2015-12-18,29.268587112426758
2015-12-21,29.52964210510254
2015-12-22,29.906049728393555
2015-12-23,30.592082977294922
2015-12-24,30.525300979614258
2015-12-28,30.112478256225586
2015-12-29,30.646726608276367
2015-12-30,30.355310440063477
2015-12-31,30.069976806640625
2016-01-04,29.918195724487305
2016-01-05,29.663211822509766
2016-01-06,28.983253479003906
2016-01-07,28.218303680419922
2016-01-08,27.70832633972168
2016-01-11,27.623332977294922
2016-01-12,27.999746322631836
2016-01-13,27.36227798461914
2016-01-14,27.629404067993164
2016-01-15,27.089080810546875
2016-01-19,26.761245727539062
2016-01-20,26.099498748779297
2016-01-21,26.336267471313477
2016-01-22,26.77338409423828
2016-01-25,26.45769500732422
2016-01-26,27.50798797607422
2016-01-27,27.593608856201172
2016-01-28,27.807655334472656
2016-01-29,28.816728591918945
2016-02-01,28.51706314086914
2016-02-02,27.27559471130371
2016-02-03,27.795425415039062
2016-02-04,28.627147674560547
2016-02-05,28.2846736907959
2016-02-08,27.90550422668457
2016-02-09,27.64253044128418
2016-02-10,26.22371482849121
2016-02-11,26.34602165222168
2016-02-12,27.15328598022461
2016-02-16,27.972776412963867
2016-02-17,29.04300880432129
2016-02-18,29.520021438598633
2016-02-19,29.36101531982422
2016-02-22,30.045969009399414
2016-02-23,29.195899963378906
2016-02-24,29.281511306762695
2016-02-25,29.293752670288086
2016-02-26,29.685148239135742
2016-02-29,29.177553176879883
2016-03-01,30.06431007385254
2016-03-02,30.951074600219727
2016-03-03,31.116201400756836
2016-03-04,30.90826416015625
2016-03-07,31.727752685546875
2016-03-08,30.535213470458984
2016-03-09,30.700334548950195
2016-03-10,30.260009765625
2016-03-11,30.822649002075195
2016-03-14,30.9327335357666
2016-03-15,30.730911254882812
2016-03-16,31.64825439453125
2016-03-17,32.9080696105957
2016-03-18,32.901954650878906
2016-03-21,33.06095886230469
2016-03-22,32.99369812011719
2016-03-23,32.37601089477539
2016-03-24,32.19866180419922
2016-03-28,32.19866180419922
2016-03-29,32.663448333740234
2016-03-30,33.06707000732422
2016-03-31,33.18327331542969
2016-04-01,32.74905776977539
2016-04-04,32.492218017578125
2016-04-05,31.409740447998047
2016-04-06,31.299663543701172
2016-04-07,31.006118774414062
2016-04-08,31.501482009887695
2016-04-11,31.617673873901367
2016-04-12,32.479976654052734
2016-04-13,33.64806365966797
2016-04-14,33.825408935546875
2016-04-15,33.70309829711914
2016-04-18,33.73979568481445
2016-04-19,34.406394958496094
2016-04-20,34.689369201660156
2016-04-21,34.72012710571289
2016-04-22,35.23687744140625
2016-04-25,34.52942657470703
2016-04-26,35.864341735839844
2016-04-27,36.873226165771484
2016-04-28,36.10426712036133
2016-04-29,35.729000091552734
2016-05-02,36.288814544677734
2016-05-03,35.673641204833984
2016-05-04,34.99080276489258
2016-05-05,35.003116607666016
2016-05-06,35.76591873168945
2016-05-09,35.3845100402832
2016-05-10,35.87049865722656
2016-05-11,36.23345184326172
2016-05-12,36.4303092956543
2016-05-13,35.46448516845703
2016-05-16,36.03044128417969
2016-05-17,35.78437042236328
2016-05-18,36.4610710144043
2016-05-19,35.90125274658203
2016-05-20,35.97507095336914
2016-05-23,36.48566436767578
2016-05-24,36.9593505859375
2016-05-25,37.740604400634766
2016-05-26,37.426876068115234
2016-05-27,37.28539276123047
2016-05-31,37.05778121948242
2016-06-01,37.02701187133789
2016-06-02,37.37152099609375
2016-06-03,36.910125732421875
2016-06-06,37.35304641723633
2016-06-07,37.568363189697266
2016-06-08,37.4883918762207
2016-06-09,37.00856018066406
2016-06-10,36.52872085571289
2016-06-13,36.005836486816406
2016-06-14,36.40570068359375
2016-06-15,36.787109375
2016-06-16,37.08238983154297
2016-06-17,37.648338317871094
2016-06-20,38.31270980834961
2016-06-21,37.826725006103516
2016-06-22,37.29153823852539
2016-06-23,37.83904266357422
2016-06-24,35.57522201538086
2016-06-27,34.62171173095703
2016-06-28,34.72012710571289
2016-06-29,35.49524688720703
2016-06-30,35.85820007324219
2016-07-01,36.19039535522461
2016-07-05,35.61827850341797
2016-07-06,36.13502502441406
2016-07-07,36.491817474365234
2016-07-08,37.789825439453125
2016-07-11,38.263511657714844
2016-07-12,39.12473678588867
2016-07-13,38.903282165527344
2016-07-14,39.00785446166992
2016-07-15,39.106285095214844
2016-07-18,38.737186431884766
2016-07-19,38.4542121887207
2016-07-20,38.596473693847656
2016-07-21,38.33668518066406
2016-07-22,38.72636413574219
2016-07-25,38.38616943359375
2016-07-26,39.140777587890625
2016-07-27,39.4438591003418
2016-07-28,39.51190185546875
2016-07-29,39.474788665771484
2016-08-01,38.5284309387207
2016-08-02,37.81093215942383
2016-08-03,38.55936050415039
2016-08-04,38.503700256347656
2016-08-05,39.93250274658203
2016-08-08,39.8211669921875
2016-08-09,39.901573181152344
2016-08-10,39.81498336791992
2016-08-11,40.71804428100586
2016-08-12,40.59432601928711
2016-08-15,41.29945755004883
2016-08-16,41.0582275390625
2016-08-17,41.1881217956543
2016-08-18,41.1510124206543
2016-08-19,40.69330596923828
2016-08-22,40.35310745239258
2016-08-23,40.27888107299805
2016-08-24,39.901573181152344
2016-08-25,39.57374572753906
2016-08-26,39.40055465698242
2016-08-29,40.06857681274414
2016-08-30,39.685089111328125
2016-08-31,39.61705017089844
2016-09-01,39.09748458862305
2016-09-02,39.59849548339844
2016-09-06,39.468597412109375
2016-09-07,39.20262145996094
2016-09-08,38.45420837402344
2016-09-09,37.043949127197266
2016-09-12,37.476924896240234
2016-09-13,36.375938415527344
2016-09-14,36.357383728027344
2016-09-15,36.499637603759766
2016-09-16,36.74086380004883
2016-09-19,36.99446105957031
2016-09-20,36.8212776184082
2016-09-21,37.42744445800781
2016-09-22,38.503700256347656
2016-09-23,37.89133834838867
2016-09-26,37.71196365356445
2016-09-27,38.015045166015625
2016-09-28,39.140777587890625
2016-09-29,38.93666076660156
2016-09-30,39.73456954956055
2016-10-03,39.58610916137695
2016-10-04,38.46039581298828
2016-10-05,38.49132537841797
2016-10-06,38.08308029174805
2016-10-07,37.25425338745117
2016-10-10,36.97591781616211
2016-10-11,36.586238861083984
2016-10-12,36.87694549560547
2016-10-13,36.375938415527344
2016-10-14,36.332645416259766
2016-10-17,36.49345397949219
2016-10-18,36.76560974121094
2016-10-19,36.67230224609375
2016-10-20,36.25548553466797
2016-10-21,36.311485290527344
2016-10-24,36.66606903076172
2016-10-25,34.787353515625
2016-10-26,34.4638671875
2016-10-27,34.109283447265625
2016-10-28,34.308345794677734
2016-10-31,34.29591369628906
2016-11-01,34.16526794433594
2016-11-02,33.54317855834961
2016-11-03,33.68626022338867
2016-11-04,34.02840805053711
2016-11-07,34.519866943359375
2016-11-08,34.793575286865234
2016-11-09,35.645843505859375
2016-11-10,37.474796295166016
2016-11-11,36.98334884643555
2016-11-14,37.288169860839844
2016-11-15,36.641197204589844
2016-11-16,36.26171875
2016-11-17,36.05020523071289
2016-11-18,35.95689010620117
2016-11-21,36.21816635131836
2016-11-22,36.0750846862793
2016-11-23,35.975555419921875
2016-11-25,36.11862564086914
2016-11-28,35.49654006958008
2016-11-29,34.96776580810547
2016-11-30,35.74537658691406
2016-12-01,36.585208892822266
2016-12-02,36.56654357910156
2016-12-05,37.126426696777344
2016-12-06,37.40636444091797
2016-12-07,38.165313720703125
2016-12-08,37.72362518310547
2016-12-09,37.474796295166016
2016-12-12,37.2508430480957
2016-12-13,36.67852020263672
2016-12-14,35.91334915161133
2016-12-15,35.45921325683594
2016-12-16,35.17927932739258
2016-12-19,35.55253601074219
2016-12-20,35.53386688232422
2016-12-21,35.49654006958008
2016-12-22,35.34724426269531
2016-12-23,35.34724426269531
2016-12-27,35.63340377807617
2016-12-28,34.998878479003906
2016-12-29,35.15439224243164
2016-12-30,34.88066864013672
2017-01-03,36.05020523071289
2017-01-04,36.174625396728516
2017-01-05,36.124847412109375
2017-01-06,36.0875244140625
2017-01-09,35.19171905517578
2017-01-10,35.41566848754883
2017-01-11,35.7515983581543
2017-01-12,35.6271858215332
2017-01-13,36.522987365722656
2017-01-17,36.39235305786133
2017-01-18,36.541664123535156
2017-01-19,36.65986633300781
2017-01-20,36.5789794921875
2017-01-23,36.5789794921875
2017-01-24,37.46857452392578
2017-01-25,38.479042053222656
2017-01-26,38.05982971191406
2017-01-27,38.19748306274414
2017-01-30,38.01603317260742
2017-01-31,36.683353424072266
2017-02-01,36.3642578125
2017-02-02,36.17655563354492
2017-02-03,36.53319549560547
2017-02-06,36.22035598754883
2017-02-07,36.376773834228516
2017-02-08,36.26414489746094
2017-02-09,36.47687530517578
2017-02-10,36.73966598510742
2017-02-13,37.21517562866211
2017-02-14,36.677093505859375
2017-02-15,37.008705139160156
2017-02-16,36.62704086303711
2017-02-17,36.37051010131836
2017-02-21,37.12757873535156
2017-02-22,36.85228729248047
2017-02-23,36.58949661254883
2017-02-24,36.38302993774414
2017-02-27,36.677093505859375
2017-02-28,36.32670974731445
2017-03-01,37.45293426513672
2017-03-02,36.77095413208008
2017-03-03,37.008705139160156
2017-03-06,36.82725524902344
2017-03-07,36.85228729248047
2017-03-08,37.10881042480469
2017-03-09,37.03998565673828
2017-03-10,37.60935592651367
2017-03-13,38.047325134277344
2017-03-14,37.79079818725586
2017-03-15,39.23611068725586
2017-03-16,39.19230651855469
2017-03-17,39.336212158203125
2017-03-20,38.91701889038086
2017-03-21,38.09737777709961
2017-03-22,38.128662109375
2017-03-23,38.14116668701172
2017-03-24,37.99100875854492
2017-03-27,38.203739166259766
2017-03-28,39.26739501953125
2017-03-29,39.46135711669922
2017-03-30,39.348731994628906
2017-03-31,39.27991485595703
2017-04-03,38.96080780029297
2017-04-04,39.31744384765625
2017-04-05,39.02963638305664
2017-04-06,39.304927825927734
2017-04-07,39.286163330078125
2017-04-10,39.492637634277344
2017-04-11,39.692848205566406
2017-04-12,39.010868072509766
2017-04-13,38.89198684692383
2017-04-17,39.61151123046875
2017-04-18,39.38001251220703
2017-04-19,39.14409637451172
2017-04-20,39.50898361206055
2017-04-21,39.36428451538086
2017-04-24,39.80466842651367
2017-04-25,40.67915725708008
2017-04-26,40.874183654785156
2017-04-27,40.67915725708008
2017-04-28,40.584781646728516
2017-05-01,40.47154235839844
2017-05-02,40.723182678222656
2017-05-03,41.1761589050293
2017-05-04,41.075496673583984
2017-05-05,41.792701721191406
2017-05-08,41.57879638671875
2017-05-09,42.610565185546875
2017-05-10,41.509605407714844
2017-05-11,40.930809020996094
2017-05-12,40.666568756103516
2017-05-15,41.20132827758789
2017-05-16,41.20762634277344
2017-05-17,41.03145980834961
2017-05-18,41.49072265625
2017-05-19,42.22050476074219
2017-05-22,42.56023406982422
2017-05-23,41.616546630859375
2017-05-24,41.893367767333984
2017-05-25,41.86819839477539
2017-05-26,41.67946243286133
2017-05-30,41.931114196777344
2017-05-31,41.66059112548828
2017-06-01,41.67316818237305
2017-06-02,41.64800262451172
2017-06-05,41.119537353515625
2017-06-06,40.698036193847656
2017-06-07,40.49041748046875
2017-06-08,40.7294807434082
2017-06-09,41.68575668334961
2017-06-12,41.72978591918945
2017-06-13,41.855613708496094
2017-06-14,41.83674240112305
2017-06-15,41.742366790771484
2017-06-16,41.94998550415039
2017-06-19,42.30229949951172
2017-06-20,41.830448150634766
2017-06-21,40.84273147583008
2017-06-22,40.86788558959961
2017-06-23,41.289398193359375
2017-06-26,41.29570007324219
2017-06-27,40.949676513671875
2017-06-28,41.55363845825195
2017-06-29,41.28311538696289
2017-06-30,41.86191177368164
2017-07-03,42.17017364501953
2017-07-05,41.95627212524414
2017-07-06,41.276824951171875
2017-07-07,41.91852569580078
2017-07-10,42.06322479248047
2017-07-11,41.905941009521484
2017-07-12,42.34633255004883
2017-07-13,42.01919174194336
2017-07-14,41.86819839477539
2017-07-17,41.86191177368164
2017-07-18,41.69833755493164
2017-07-19,41.79003143310547
2017-07-20,41.18923568725586
2017-07-21,40.96157455444336
2017-07-24,40.841407775878906
2017-07-25,40.01294708251953
2017-07-26,39.44377517700195
2017-07-27,39.5259895324707
2017-07-28,40.01294708251953
2017-07-31,39.886474609375
2017-08-01,39.500694274902344
2017-08-02,39.62717056274414
2017-08-03,39.74734115600586
2017-08-04,39.94337844848633
2017-08-07,39.734683990478516
2017-08-08,39.399497985839844
2017-08-09,39.44377517700195
2017-08-10,38.906219482421875
2017-08-11,38.93783950805664
2017-08-14,39.532310485839844
2017-08-15,39.228755950927734
2017-08-16,39.450096130371094
2017-08-17,38.80503845214844
2017-08-18,38.55839157104492
2017-08-21,38.49515151977539
2017-08-22,38.83032989501953
2017-08-23,38.412933349609375
2017-08-24,38.55839157104492
2017-08-25,38.89989471435547
2017-08-28,38.545745849609375
2017-08-29,38.61530685424805
2017-08-30,38.57103729248047
2017-08-31,39.24140167236328
2017-09-01,39.513336181640625
2017-09-05,38.93783950805664
2017-09-06,39.045352935791016
2017-09-07,38.98210525512695
2017-09-08,39.22243118286133
2017-09-11,40.253273010253906
2017-09-12,40.7402229309082
2017-09-13,40.81611251831055
2017-09-14,41.08173370361328
2017-09-15,40.85406494140625
2017-09-18,41.44852828979492
2017-09-19,42.118892669677734
2017-09-20,42.43510055541992
2017-09-21,42.23272705078125
2017-09-22,42.40347671508789
2017-09-25,42.35921096801758
2017-09-26,41.967105865478516
2017-09-27,42.38450622558594
2017-09-28,42.4793701171875
2017-09-29,42.978981018066406
2017-10-02,43.84538269042969
2017-10-03,44.035118103027344
2017-10-04,44.29439926147461
2017-10-05,44.00349426269531
2017-10-06,44.28175354003906
2017-10-09,44.26911163330078
2017-10-10,44.237491607666016
2017-10-11,44.237491607666016
2017-10-12,44.19953918457031
2017-10-13,44.2564582824707
2017-10-16,44.96476364135742
2017-10-17,44.53472137451172
2017-10-18,44.5853157043457
2017-10-19,44.93803405761719
2017-10-20,45.23037338256836
2017-10-23,45.0079460144043
2017-10-24,44.85541534423828
2017-10-25,45.084197998046875
2017-10-26,45.224021911621094
2017-10-27,44.56943893432617
2017-10-30,44.55036163330078
2017-10-31,44.77915573120117
2017-11-01,44.01652145385742
2017-11-02,44.442325592041016
2017-11-03,44.080074310302734
2017-11-06,44.15633773803711
2017-11-07,43.813148498535156
2017-11-08,43.95931625366211
2017-11-09,43.32379913330078
2017-11-10,43.247535705566406
2017-11-13,43.387351989746094
2017-11-14,43.22846984863281
2017-11-15,42.87892532348633
2017-11-16,43.3619270324707
2017-11-17,43.495384216308594
2017-11-20,43.952964782714844
2017-11-21,44.0737190246582
2017-11-22,44.1754035949707
2017-11-24,43.952964782714844
2017-11-27,43.92119598388672
2017-11-28,44.054649353027344
2017-11-29,44.054649353027344
2017-11-30,45.224021911621094
2017-12-01,44.60755920410156
2017-12-04,43.952964782714844
2017-12-05,43.56529235839844
2017-12-06,43.99745559692383
2017-12-07,44.11820602416992
2017-12-08,44.45503616333008
2017-12-11,44.340641021728516
2017-12-12,44.283443450927734
2017-12-13,44.258026123046875
2017-12-14,43.74960708618164
2017-12-15,43.32379913330078
2017-12-18,43.781375885009766
2017-12-19,43.9720344543457
2017-12-20,44.346988677978516
2017-12-21,44.5948486328125
2017-12-22,44.31521987915039
2017-12-26,44.09278869628906
2017-12-27,44.10549545288086
2017-12-28,44.57577896118164
2017-12-29,44.88083267211914
2018-01-02,44.63298034667969
2018-01-03,44.995235443115234
2018-01-04,46.107398986816406
2018-01-05,46.177310943603516
2018-01-08,46.13282012939453
2018-01-09,46.3171272277832
2018-01-10,46.65394592285156
2018-01-11,47.11152648925781
2018-01-12,46.87638854980469
2018-01-16,46.74927520751953
2018-01-17,46.76198959350586
2018-01-18,46.74927520751953
2018-01-19,47.016204833984375
2018-01-22,46.99078369140625
2018-01-23,46.50143051147461
2018-01-24,46.679378509521484
2018-01-25,46.83902359008789
2018-01-26,47.26686477661133
2018-01-29,47.13275909423828
2018-01-30,45.75345230102539
2018-01-31,45.65766525268555
2018-02-01,46.07912063598633
2018-02-02,45.491641998291016
2018-02-05,43.601478576660156
2018-02-06,43.72918701171875
2018-02-07,43.83774185180664
2018-02-08,42.57338333129883
2018-02-09,42.841583251953125
2018-02-12,44.080406188964844
2018-02-13,44.310279846191406
2018-02-14,45.21705627441406
2018-02-15,45.11488723754883
2018-02-16,45.22983169555664
2018-02-20,45.07657241821289
2018-02-21,45.108497619628906
2018-02-22,45.39584732055664
2018-02-23,45.587425231933594
2018-02-26,45.56187438964844
2018-02-27,45.044647216796875
2018-02-28,43.86329650878906
2018-03-01,42.758567810058594
2018-03-02,42.93098068237305
2018-03-05,43.20555877685547
2018-03-06,43.75472640991211
2018-03-07,44.26558303833008
2018-03-08,44.872222900390625
2018-03-09,45.86200714111328
2018-03-12,45.459716796875
2018-03-13,44.680660247802734
2018-03-14,45.108497619628906
2018-03-15,46.05996322631836
2018-03-16,46.449485778808594
2018-03-19,45.77899932861328
2018-03-20,45.84284591674805
2018-03-21,45.81731033325195
2018-03-22,44.450775146484375
2018-03-23,42.98206329345703
2018-03-26,44.1697998046875
2018-03-27,43.601478576660156
2018-03-28,43.35243606567383
2018-03-29,43.50569152832031
2018-04-02,42.950138092041016
2018-04-03,44.00376892089844
2018-04-04,44.62957000732422
2018-04-05,44.98717498779297
2018-04-06,43.4737663269043
2018-04-09,43.697265625
2018-04-10,44.52739715576172
2018-04-11,44.39329528808594
2018-04-12,44.97733688354492
2018-04-13,44.93241882324219
2018-04-16,45.14419937133789
2018-04-17,45.70257568359375
2018-04-18,46.145423889160156
2018-04-19,45.65764617919922
2018-04-20,45.214805603027344
2018-04-23,44.47673034667969
2018-04-24,43.071189880371094
2018-04-25,43.411346435546875
2018-04-26,43.37284469604492
2018-04-27,43.1674690246582
2018-04-30,43.1802978515625
2018-05-01,42.831790924072266
2018-05-02,43.40517044067383
2018-05-03,41.99082565307617
2018-05-04,42.33485412597656
2018-05-07,42.45909118652344
2018-05-08,42.46864700317383
2018-05-09,42.57376480102539
2018-05-10,42.420867919921875
2018-05-11,42.688438415527344
2018-05-14,42.841346740722656
2018-05-15,43.00379943847656
2018-05-16,43.5963020324707
2018-05-17,43.691871643066406
2018-05-18,43.97856140136719
2018-05-21,44.4372673034668
2018-05-22,43.816097259521484
2018-05-23,43.46250915527344
2018-05-24,43.40517044067383
2018-05-25,43.032474517822266
2018-05-29,42.21062088012695
2018-05-30,42.73623275756836
2018-05-31,41.704139709472656
2018-06-01,41.91437911987305
2018-06-04,41.71369552612305
2018-06-05,41.88570785522461
2018-06-06,42.35396957397461
2018-06-07,42.85090255737305
2018-06-08,43.00379943847656
2018-06-11,42.898685455322266
2018-06-12,42.20106506347656
2018-06-13,41.637237548828125
2018-06-14,41.837921142578125
2018-06-15,41.91437911987305
2018-06-18,41.93349075317383
2018-06-19,41.21676254272461
2018-06-20,41.474788665771484
2018-06-21,40.280235290527344
2018-06-22,40.68159484863281
2018-06-25,40.47135925292969
2018-06-26,40.31846237182617
2018-06-27,39.99353790283203
2018-06-28,39.888423919677734
2018-06-29,40.21333312988281
2018-07-02,40.098655700683594
2018-07-03,40.46180725097656
2018-07-05,40.57647705078125
2018-07-06,40.40446472167969
2018-07-09,41.360103607177734
2018-07-10,41.58946228027344
2018-07-11,40.719825744628906
2018-07-12,40.949180603027344
2018-07-13,41.58946228027344
2018-07-16,41.159420013427734
2018-07-17,41.245426177978516
2018-07-18,41.837921142578125
2018-07-19,41.948265075683594
2018-07-20,42.11137771606445
2018-07-23,42.072994232177734
2018-07-24,42.38962173461914
2018-07-25,40.211612701416016
2018-07-26,41.497318267822266
2018-07-27,41.506900787353516
2018-07-30,41.612449645996094
2018-07-31,42.840579986572266
2018-08-01,41.449337005615234
2018-08-02,41.58366394042969
2018-08-03,42.17853546142578
2018-08-06,42.140159606933594
2018-08-07,42.312862396240234
2018-08-08,42.072994232177734
2018-08-09,41.90988540649414
2018-08-10,41.52609634399414
2018-08-13,40.90243911743164
2018-08-14,40.77770233154297
2018-08-15,40.25959014892578
2018-08-16,40.44188690185547
2018-08-17,41.065547943115234
2018-08-20,41.51650619506836
2018-08-21,41.75637435913086
2018-08-22,41.1614990234375
2018-08-23,40.93122863769531
2018-08-24,41.142303466796875
2018-08-27,41.6412353515625
2018-08-28,41.689205169677734
2018-08-29,41.957862854003906
2018-08-30,41.60285568237305
2018-08-31,41.71799087524414
2018-09-04,41.1614990234375
2018-09-05,41.708396911621094
2018-09-06,41.71799087524414
2018-09-07,41.34379196166992
2018-09-10,41.813941955566406
2018-09-11,41.046356201171875
2018-09-12,41.15190505981445
2018-09-13,41.449337005615234
2018-09-14,42.284080505371094
2018-09-17,42.56233215332031
2018-09-18,43.47383499145508
2018-09-19,43.262752532958984
2018-09-20,42.95571517944336
2018-09-21,43.06126403808594
2018-09-24,42.06339645385742
2018-09-25,41.948265075683594
2018-09-26,41.89069747924805
2018-09-27,41.71799087524414
2018-09-28,41.59326171875
2018-10-01,41.55488586425781
2018-10-02,41.670021057128906
2018-10-03,41.65082931518555
2018-10-04,41.93867492675781
2018-10-05,40.99837875366211
2018-10-08,40.921627044677734
2018-10-09,40.01972198486328
2018-10-10,38.83956527709961
2018-10-11,37.61143493652344
2018-10-12,37.41954040527344
2018-10-15,37.40034866333008
2018-10-16,37.9184684753418
2018-10-17,37.58264923095703
2018-10-18,37.365806579589844
2018-10-19,37.01884460449219
2018-10-22,36.6622428894043
2018-10-23,37.35615921020508
2018-10-24,36.720062255859375
2018-10-25,37.433265686035156
2018-10-26,37.9247932434082
2018-10-29,37.65494155883789
2018-10-30,38.37777328491211
2018-10-31,38.695823669433594
2018-11-01,39.64996337890625
2018-11-02,40.12221908569336
2018-11-05,40.33424377441406
2018-11-06,40.835418701171875
2018-11-07,41.48115158081055
2018-11-08,41.69317626953125
2018-11-09,40.9896240234375
2018-11-12,40.324607849121094
2018-11-13,40.30533218383789
2018-11-14,40.324607849121094
2018-11-15,40.9607048034668
2018-11-16,40.75831604003906
2018-11-19,40.469181060791016
2018-11-20,39.852359771728516
2018-11-21,40.08367156982422
2018-11-23,40.276424407958984
2018-11-26,40.257144927978516
2018-11-27,40.12221908569336
2018-11-28,41.336585998535156
2018-11-29,40.93179702758789
2018-11-30,41.15346145629883
2018-12-03,40.9607048034668
2018-12-04,39.11024856567383
2018-12-06,38.82110595703125
2018-12-07,38.28139877319336
2018-12-10,38.24284744262695
2018-12-11,38.310306549072266
2018-12-12,38.15610885620117
2018-12-13,38.25248336791992
2018-12-14,37.69348907470703
2018-12-17,36.932098388671875
2018-12-18,37.17304992675781
2018-12-19,36.777889251708984
2018-12-20,36.18998718261719
2018-12-21,35.399688720703125
2018-12-24,34.51301193237305
2018-12-26,35.6791877746582
2018-12-27,36.08396530151367
2018-12-28,35.95868682861328
2018-12-31,36.41165542602539
2019-01-02,36.40202713012695
2019-01-03,35.31293869018555
2019-01-04,36.76826477050781
2019-01-07,37.144134521484375
2019-01-08,38.223567962646484
2019-01-09,38.782562255859375
2019-01-10,39.004234313964844
2019-01-11,38.984954833984375
2019-01-14,38.91748809814453
2019-01-15,38.81147766113281
2019-01-16,38.71509552001953
2019-01-17,38.89821243286133
2019-01-18,39.67887496948242
2019-01-22,38.7054557800293
2019-01-23,38.782562255859375
2019-01-24,39.169803619384766
2019-01-25,39.750675201416016
2019-01-28,39.247257232666016
2019-01-29,39.67322540283203
2019-01-30,39.876522064208984
2019-01-31,39.876522064208984
2019-02-01,39.69258499145508
2019-02-04,39.876522064208984
2019-02-05,40.1475944519043
2019-02-06,40.17664337158203
2019-02-07,39.634498596191406
2019-02-08,39.69258499145508
2019-02-11,39.77971267700195
2019-02-12,40.467071533203125
2019-02-13,40.883365631103516
2019-02-14,40.49612045288086
2019-02-15,41.35773849487305
2019-02-19,41.125389099121094
2019-02-20,41.42550277709961
2019-02-21,41.183475494384766
2019-02-22,41.677215576171875
2019-02-25,41.890201568603516
2019-02-26,41.60944366455078
2019-02-27,41.69657897949219
2019-02-28,41.183475494384766
2019-03-01,41.31901550292969
2019-03-04,41.502952575683594
2019-03-05,41.19316101074219
2019-03-06,40.883365631103516
2019-03-07,40.41866683959961
2019-03-08,40.312171936035156
2019-03-11,41.33837890625
2019-03-12,41.173797607421875
2019-03-13,41.42550277709961
2019-03-14,41.20283508300781
2019-03-15,41.260929107666016
2019-03-18,42.19999313354492
2019-03-19,42.2484016418457
2019-03-20,41.79338455200195
2019-03-21,42.12254333496094
2019-03-22,40.91240692138672
2019-03-25,41.222198486328125
2019-03-26,41.91923904418945
2019-03-27,42.045101165771484
2019-03-28,42.529151916503906
2019-03-29,43.09065628051758
2019-04-01,44.03940963745117
2019-04-02,43.62311935424805
2019-04-03,43.468223571777344
2019-04-04,43.67152786254883
2019-04-05,43.76832962036133
2019-04-08,43.81673812866211
2019-04-09,37.8822135925293
2019-04-10,37.979026794433594
2019-04-11,38.70511245727539
2019-04-12,38.782562255859375
2019-04-15,38.61798095703125
2019-04-16,39.17948913574219
2019-04-17,37.29296112060547
2019-04-18,37.166542053222656
2019-04-22,36.60252380371094
2019-04-23,37.02067184448242
2019-04-24,37.001224517822266
2019-04-25,36.47610855102539
2019-04-26,37.35131072998047
2019-04-29,37.78890609741211
2019-04-30,37.91531753540039
2019-05-01,37.76945114135742
2019-05-02,37.91531753540039
2019-05-03,38.391807556152344
2019-05-06,37.55551528930664
2019-05-07,36.85536193847656
2019-05-08,36.50529098510742
2019-05-09,36.67060089111328
2019-05-10,36.92343521118164
2019-05-13,35.766231536865234
2019-05-14,35.75650405883789
2019-05-15,35.737056732177734
2019-05-16,35.600921630859375
2019-05-17,35.017452239990234
2019-05-20,34.71600341796875
2019-05-21,35.600921630859375
2019-05-22,35.338356018066406
2019-05-23,34.61875534057617
2019-05-24,35.25083541870117
2019-05-28,34.375648498535156
2019-05-29,34.53123474121094
2019-05-30,34.52151107788086
2019-05-31,33.86025619506836
2019-06-03,34.404823303222656
2019-06-04,35.348087310791016
2019-06-05,35.21194076538086
2019-06-06,35.11470413208008
2019-06-07,35.43560791015625
2019-06-10,35.21194076538086
2019-06-11,34.51179122924805
2019-06-12,34.385372161865234
2019-06-13,35.0758056640625
2019-06-14,34.638206481933594
2019-06-17,34.735450744628906
2019-06-18,35.16332244873047
2019-06-19,35.357810974121094
2019-06-20,36.15521240234375
2019-06-21,35.600921630859375
2019-06-24,35.55229568481445
2019-06-25,35.47450256347656
2019-06-26,35.19248962402344
2019-06-27,35.48422622680664
2019-06-28,36.174659729003906
2019-07-01,36.369144439697266
2019-07-02,36.60252380371094
2019-07-03,37.205440521240234
2019-07-05,37.12763977050781
2019-07-08,36.67060089111328
2019-07-09,35.95099639892578
2019-07-10,35.79541015625
2019-07-11,36.019065856933594
2019-07-12,36.91371154785156
2019-07-15,37.001224517822266
2019-07-16,37.429100036621094
2019-07-17,36.63169860839844
2019-07-18,36.24085998535156
2019-07-19,36.52422332763672
2019-07-22,36.73918533325195
2019-07-23,38.41980743408203
2019-07-24,38.38071823120117
2019-07-25,38.15598678588867
2019-07-26,38.312320709228516
2019-07-29,38.05827713012695
2019-07-30,38.04850387573242
2019-07-31,37.92148208618164
2019-08-01,37.78468322753906
2019-08-02,36.397193908691406
2019-08-05,35.24421310424805
2019-08-06,35.7620735168457
2019-08-07,35.79138946533203
2019-08-08,36.55353546142578
2019-08-09,36.00634765625
2019-08-12,35.52757263183594
2019-08-13,36.221317291259766
2019-08-14,34.76543045043945
2019-08-15,34.61886215209961
2019-08-16,35.35169219970703
2019-08-19,35.88909912109375
2019-08-20,35.508026123046875
2019-08-21,35.69368362426758
2019-08-22,35.52757263183594
2019-08-23,34.32572937011719
2019-08-26,34.38435745239258
2019-08-27,33.93488693237305
2019-08-28,34.39413070678711
2019-08-29,35.08787536621094
2019-08-30,35.0976448059082
2019-09-03,34.12053680419922
2019-09-04,34.687259674072266
2019-09-05,35.40054702758789
2019-09-06,35.488487243652344
2019-09-09,36.01612091064453
2019-09-10,37.08116912841797
2019-09-11,37.21796417236328
2019-09-12,36.88574981689453
2019-09-13,36.973690032958984
2019-09-16,36.79780578613281
2019-09-17,37.06163024902344
2019-09-18,37.247276306152344
2019-09-19,36.75872802734375
2019-09-20,35.79138946533203
2019-09-23,36.13337326049805
2019-09-24,35.92818069458008
2019-09-25,36.52422332763672
2019-09-26,36.397193908691406
2019-09-27,36.79780578613281
2019-09-30,36.934600830078125
2019-10-01,35.879337310791016
2019-10-02,34.8729133605957
2019-10-03,35.28329849243164
2019-10-04,35.71322250366211
2019-10-07,35.30284118652344
2019-10-08,34.355045318603516
2019-10-09,34.77519607543945
2019-10-10,35.30284118652344
2019-10-11,36.504676818847656
2019-10-14,36.319026947021484
2019-10-15,36.944374084472656
2019-10-16,36.95414733886719
2019-10-17,37.75920486450195
2019-10-18,37.847564697265625
2019-10-21,38.289363861083984
2019-10-22,38.67225646972656
2019-10-23,40.714359283447266
2019-10-24,40.84198760986328
2019-10-25,40.488548278808594
2019-10-28,40.79289627075195
2019-10-29,41.0383415222168
2019-10-30,41.02853012084961
2019-10-31,40.714359283447266
2019-11-01,41.627410888671875
2019-11-04,41.971031188964844
2019-11-05,42.36375045776367
2019-11-06,42.14775466918945
2019-11-07,42.36375045776367
2019-11-08,42.579734802246094
2019-11-11,42.3441162109375
2019-11-12,42.35392761230469
2019-11-13,42.26556396484375
2019-11-14,42.30483627319336
2019-11-15,42.6877326965332
2019-11-18,42.579734802246094
2019-11-19,42.51101303100586
2019-11-20,42.3931999206543
2019-11-21,42.56991958618164
2019-11-22,42.93317413330078
2019-11-25,43.217891693115234
2019-11-26,43.64006042480469
2019-11-27,43.53205871582031
2019-11-29,43.5418815612793
2019-12-02,42.992088317871094
2019-12-03,42.82518005371094
2019-12-04,43.15898895263672
2019-12-05,43.64987564086914
2019-12-06,43.9738655090332
2019-12-09,44.22911834716797
2019-12-10,44.337120056152344
2019-12-11,44.67092514038086
2019-12-12,45.132362365722656
2019-12-13,45.01454544067383
2019-12-16,45.083274841308594
2019-12-17,44.5531120300293
2019-12-18,44.68074035644531
2019-12-19,44.6218376159668
2019-12-20,44.68074035644531
2019-12-23,45.083274841308594
2019-12-24,45.073455810546875
2019-12-26,45.04399871826172
2019-12-27,44.945823669433594
2019-12-30,44.9850959777832
2019-12-31,45.0341796875
