Date,QAI
2009-03-25,22.415517807006836
2009-03-26,22.424413681030273
2009-03-27,22.21974754333496
2009-03-30,22.023977279663086
2009-03-31,22.166357040405273
2009-04-01,22.104066848754883
2009-04-02,22.344331741333008
2009-04-03,22.24644660949707
2009-04-06,22.353227615356445
2009-04-07,22.344331741333008
2009-04-08,22.362125396728516
2009-04-09,22.522296905517578
2009-04-13,22.5845890045166
2009-04-14,22.522296905517578
2009-04-15,22.557893753051758
2009-04-16,22.575693130493164
2009-04-17,22.593490600585938
2009-04-20,22.335430145263672
2009-04-21,22.45111083984375
2009-04-22,22.45111083984375
2009-04-23,22.468908309936523
2009-04-24,22.540096282958984
2009-04-27,22.388824462890625
2009-04-28,22.424413681030273
2009-04-29,22.522296905517578
2009-04-30,22.673574447631836
2009-05-01,22.63797950744629
2009-05-04,22.949432373046875
2009-05-05,22.92273712158203
2009-05-06,22.96722984313965
2009-05-07,23.020618438720703
2009-05-08,22.958328247070312
2009-05-11,22.896039962768555
2009-05-12,22.97612762451172
2009-05-13,22.896039962768555
2009-05-14,22.949432373046875
2009-05-15,22.90494155883789
2009-05-18,23.056211471557617
2009-05-19,23.100706100463867
2009-05-20,23.22528648376465
2009-05-21,23.056211471557617
2009-05-22,23.109603881835938
2009-05-26,23.047313690185547
2009-05-27,23.011720657348633
2009-05-28,23.483348846435547
2009-05-29,23.305376052856445
2009-06-01,23.376562118530273
2009-06-02,23.358762741088867
2009-06-03,23.189693450927734
2009-06-04,23.22528648376465
2009-06-05,23.22528648376465
2009-06-08,23.08291244506836
2009-06-09,23.136301040649414
2009-06-10,23.198591232299805
2009-06-11,23.305376052856445
2009-06-12,23.22528648376465
2009-06-15,23.136301040649414
2009-06-16,23.118499755859375
2009-06-17,23.07400894165039
2009-06-18,23.02951431274414
2009-06-19,23.02951431274414
2009-06-22,22.869346618652344
2009-06-23,22.92273712158203
2009-06-24,23.065113067626953
2009-06-25,23.109603881835938
2009-06-26,23.198591232299805
2009-06-29,23.251981735229492
2009-06-30,23.22528648376465
2009-07-01,23.198591232299805
2009-07-02,23.207490921020508
2009-07-06,23.154098510742188
2009-07-07,23.109603881835938
2009-07-08,23.091812133789062
2009-07-09,23.22528648376465
2009-07-10,23.047313690185547
2009-07-13,23.020618438720703
2009-07-14,23.08291244506836
2009-07-15,23.243083953857422
2009-07-16,23.198591232299805
2009-07-17,23.243083953857422
2009-07-20,23.501144409179688
2009-07-21,23.54563331604004
2009-07-22,23.38546371459961
2009-07-23,23.54563331604004
2009-07-24,23.52783966064453
2009-07-27,23.563434600830078
2009-07-28,23.510042190551758
2009-07-29,23.394357681274414
2009-07-30,23.518939971923828
2009-07-31,23.58123207092285
2009-08-03,23.750303268432617
2009-08-04,23.68801498413086
2009-08-05,23.652420043945312
2009-08-06,23.58123207092285
2009-08-07,23.518939971923828
2009-08-10,23.670217514038086
2009-08-11,23.49224281311035
2009-08-12,23.554534912109375
2009-08-13,23.616825103759766
2009-08-14,23.501144409179688
2009-08-17,23.367664337158203
2009-08-18,23.501144409179688
2009-08-19,23.510042190551758
2009-08-20,23.563434600830078
2009-08-21,23.58123207092285
2009-08-24,23.625722885131836
2009-08-25,23.554534912109375
2009-08-26,23.58123207092285
2009-08-27,23.572330474853516
2009-08-28,23.58123207092285
2009-08-31,23.483348846435547
2009-09-01,23.314273834228516
2009-09-02,23.536739349365234
2009-09-03,23.616825103759766
2009-09-04,23.750303268432617
2009-09-08,23.83039093017578
2009-09-09,23.80369758605957
2009-09-10,23.83039093017578
2009-09-11,23.839290618896484
2009-09-14,23.7947940826416
2009-09-15,23.839290618896484
2009-09-16,23.990564346313477
2009-09-17,23.946073532104492
2009-09-18,23.93717384338379
2009-09-21,23.892681121826172
2009-09-22,23.946073532104492
2009-09-23,23.928274154663086
2009-09-24,23.8748836517334
2009-09-25,23.93717384338379
2009-09-28,23.963871002197266
2009-09-29,23.910476684570312
2009-09-30,24.070650100708008
2009-10-01,23.883785247802734
2009-10-02,24.00836181640625
2009-10-05,24.221925735473633
2009-10-06,24.18633460998535
2009-10-07,24.124042510986328
2009-10-08,24.230825424194336
2009-10-09,24.13294219970703
2009-10-12,24.221925735473633
2009-10-13,24.24862289428711
2009-10-14,24.44439125061035
2009-10-15,24.355405807495117
2009-10-16,24.310911178588867
2009-10-19,24.426593780517578
2009-10-20,24.36430549621582
2009-10-21,24.373205184936523
2009-10-22,24.453290939331055
2009-10-23,24.399898529052734
2009-10-26,24.27532196044922
2009-10-27,24.26641845703125
2009-10-28,23.981670379638672
2009-10-29,24.29311752319336
2009-10-30,23.946073532104492
2009-11-02,24.14183807373047
2009-11-03,24.115144729614258
2009-11-04,24.239723205566406
2009-11-05,24.29311752319336
2009-11-06,24.239723205566406
2009-11-09,24.462188720703125
2009-11-10,24.497785568237305
2009-11-11,24.506685256958008
2009-11-12,24.417695999145508
2009-11-13,24.560073852539062
2009-11-16,24.640159606933594
2009-11-17,24.62236213684082
2009-11-18,24.5689697265625
2009-11-19,24.497785568237305
2009-11-20,24.462188720703125
2009-11-23,24.560073852539062
2009-11-24,24.44439125061035
2009-11-25,24.631261825561523
2009-11-27,24.337608337402344
2009-11-30,24.43549346923828
2009-12-01,24.497785568237305
2009-12-02,24.560073852539062
2009-12-03,24.5689697265625
2009-12-04,24.43549346923828
2009-12-07,24.497785568237305
2009-12-08,24.38210105895996
2009-12-09,24.38210105895996
2009-12-10,24.44439125061035
2009-12-11,24.44439125061035
2009-12-14,24.4888858795166
2009-12-15,24.31981086730957
2009-12-16,24.453290939331055
2009-12-17,24.29311752319336
2009-12-18,24.257522583007812
2009-12-21,24.159639358520508
2009-12-22,24.17743682861328
2009-12-23,24.34885597229004
2009-12-24,24.205257415771484
2009-12-28,24.178329467773438
2009-12-29,24.295005798339844
2009-12-30,24.330907821655273
2009-12-31,24.34885597229004
2010-01-04,24.618101119995117
2010-01-05,24.68092918395996
2010-01-06,24.725799560546875
2010-01-07,24.66297721862793
2010-01-08,24.725799560546875
2010-01-11,24.71682357788086
2010-01-12,24.618101119995117
2010-01-13,24.636051177978516
2010-01-14,24.6270751953125
2010-01-15,24.528352737426758
2010-01-19,24.6450252532959
2010-01-20,24.44757652282715
2010-01-21,24.24115562438965
2010-01-22,24.061660766601562
2010-01-25,24.205257415771484
2010-01-26,24.070629119873047
2010-01-27,24.0257568359375
2010-01-28,23.989858627319336
2010-01-29,23.962936401367188
2010-02-01,24.09756088256836
2010-02-02,24.15140724182129
2010-02-03,24.106534957885742
2010-02-04,23.765487670898438
2010-02-05,23.675737380981445
2010-02-08,23.612913131713867
2010-02-09,23.90011215209961
2010-02-10,23.79241371154785
2010-02-11,23.918062210083008
2010-02-12,23.85523796081543
2010-02-16,24.0257568359375
2010-02-17,23.998836517333984
2010-02-18,24.061660766601562
2010-02-19,23.962936401367188
2010-02-22,24.007808685302734
2010-02-23,23.86421012878418
2010-02-24,23.944984436035156
2010-02-25,23.873188018798828
2010-02-26,23.953960418701172
2010-03-01,24.04370880126953
2010-03-02,24.214231491088867
2010-03-03,24.250131607055664
2010-03-04,24.18730926513672
2010-03-05,24.321928024291992
2010-03-08,24.321928024291992
2010-03-09,24.330907821655273
2010-03-10,24.39373207092285
2010-03-11,24.384754180908203
2010-03-12,24.411680221557617
2010-03-15,24.330907821655273
2010-03-16,24.420650482177734
2010-03-17,24.49245262145996
2010-03-18,24.4386043548584
2010-03-19,24.330907821655273
2010-03-22,24.321928024291992
2010-03-23,24.420650482177734
2010-03-24,24.1962833404541
2010-03-25,24.115507125854492
2010-03-26,24.223203659057617
2010-03-29,24.31295394897461
2010-03-30,24.39373207092285
2010-03-31,24.411680221557617
2010-04-01,24.582202911376953
2010-04-05,24.519376754760742
2010-04-06,24.51040267944336
2010-04-07,24.501428604125977
2010-04-08,24.555274963378906
2010-04-09,24.591175079345703
2010-04-12,24.600154876708984
2010-04-13,24.591175079345703
2010-04-14,24.70785140991211
2010-04-15,24.725799560546875
2010-04-16,24.53732681274414
2010-04-19,24.528352737426758
2010-04-20,24.591175079345703
2010-04-21,24.582202911376953
2010-04-22,24.46552848815918
2010-04-23,24.528352737426758
2010-04-26,24.49245262145996
2010-04-27,24.214231491088867
2010-04-28,24.30398178100586
2010-04-29,24.42962646484375
2010-04-30,24.366806030273438
2010-05-03,24.420650482177734
2010-05-04,24.115507125854492
2010-05-05,23.90908432006836
2010-05-06,23.487266540527344
2010-05-07,23.451364517211914
2010-05-10,23.944984436035156
2010-05-11,23.837284088134766
2010-05-12,23.801387786865234
2010-05-13,23.828310012817383
2010-05-14,23.621889114379883
2010-05-17,23.603939056396484
2010-05-18,23.58599090576172
2010-05-19,23.541114807128906
2010-05-20,23.128273010253906
2010-05-21,23.34366798400879
2010-05-24,23.37059211730957
2010-05-25,23.325716018676758
2010-05-26,23.200071334838867
2010-05-27,23.47829246520996
2010-05-28,23.352645874023438
2010-06-01,23.34366798400879
2010-06-02,23.514190673828125
2010-06-03,23.49624252319336
2010-06-04,23.30776596069336
2010-06-07,23.379568099975586
2010-06-08,23.559064865112305
2010-06-09,23.53213882446289
2010-06-10,23.603939056396484
2010-06-11,23.6308650970459
2010-06-14,23.55008888244629
2010-06-15,23.70266342163086
2010-06-16,23.675737380981445
2010-06-17,23.711639404296875
2010-06-18,23.819337844848633
2010-06-21,23.88216209411621
2010-06-22,23.88216209411621
2010-06-23,23.944984436035156
2010-06-24,23.828310012817383
2010-06-25,23.944984436035156
2010-06-28,23.927034378051758
2010-06-29,23.783437728881836
2010-06-30,23.70266342163086
2010-07-01,23.801387786865234
2010-07-02,23.88216209411621
2010-07-06,23.989858627319336
2010-07-07,23.944984436035156
2010-07-08,24.007808685302734
2010-07-09,24.007808685302734
2010-07-12,24.007808685302734
2010-07-13,24.079608917236328
2010-07-14,24.04370880126953
2010-07-15,24.0257568359375
2010-07-16,24.016786575317383
2010-07-19,24.016786575317383
2010-07-20,24.124483108520508
2010-07-21,24.115507125854492
2010-07-22,24.232181549072266
2010-07-23,24.268083572387695
2010-07-26,24.28603172302246
2010-07-27,24.25910758972168
2010-07-28,24.214231491088867
2010-07-29,24.25910758972168
2010-07-30,24.321928024291992
2010-08-02,24.277053833007812
2010-08-03,24.34885597229004
2010-08-04,24.35782814025879
2010-08-05,24.384754180908203
2010-08-06,24.411680221557617
2010-08-09,24.4386043548584
2010-08-10,24.39373207092285
2010-08-11,24.268083572387695
2010-08-12,24.25910758972168
2010-08-13,24.37578010559082
2010-08-16,24.519376754760742
2010-08-17,24.474504470825195
2010-08-18,24.44757652282715
2010-08-19,24.501428604125977
2010-08-20,24.49245262145996
2010-08-23,24.48348045349121
2010-08-24,24.42962646484375
2010-08-25,24.39373207092285
2010-08-26,24.37578010559082
2010-08-27,24.37578010559082
2010-08-30,24.295005798339844
2010-08-31,24.366806030273438
2010-09-01,24.4386043548584
2010-09-02,24.4386043548584
2010-09-03,24.4386043548584
2010-09-07,24.366806030273438
2010-09-08,24.42962646484375
2010-09-09,24.42962646484375
2010-09-10,24.4386043548584
2010-09-13,24.582202911376953
2010-09-14,24.564250946044922
2010-09-15,24.591175079345703
2010-09-16,24.546302795410156
2010-09-17,24.582202911376953
2010-09-20,24.618101119995117
2010-09-21,24.698875427246094
2010-09-22,24.71682357788086
2010-09-23,24.70785140991211
2010-09-24,24.743751525878906
2010-09-27,24.76169776916504
2010-09-28,24.833498001098633
2010-09-29,24.860422134399414
2010-09-30,24.923246383666992
2010-10-01,24.968122482299805
2010-10-04,24.98607063293457
2010-10-05,25.06684684753418
2010-10-06,25.10274314880371
2010-10-07,25.012998580932617
2010-10-08,25.12069320678711
2010-10-11,25.13864517211914
2010-10-12,25.093769073486328
2010-10-13,25.13864517211914
2010-10-14,25.03094482421875
2010-10-15,24.95914649963379
2010-10-18,24.97709846496582
2010-10-19,24.905296325683594
2010-10-20,25.03094482421875
2010-10-21,24.91427230834961
2010-10-22,24.99504852294922
2010-10-25,25.084796905517578
2010-10-26,25.084796905517578
2010-10-27,24.98607063293457
2010-10-28,24.98607063293457
2010-10-29,25.075822830200195
2010-11-01,25.13864517211914
2010-11-02,25.2283935546875
2010-11-03,25.27326774597168
2010-11-04,25.327116012573242
2010-11-05,25.30916976928711
2010-11-08,25.300195693969727
2010-11-09,25.25531578063965
2010-11-10,25.19249153137207
2010-11-11,25.165569305419922
2010-11-12,24.97709846496582
2010-11-15,24.851449966430664
2010-11-16,24.779647827148438
2010-11-17,24.860422134399414
2010-11-18,24.950170516967773
2010-11-19,25.021968841552734
2010-11-22,24.968122482299805
2010-11-23,24.779647827148438
2010-11-24,24.860422134399414
2010-11-26,24.66297721862793
2010-11-29,24.770673751831055
2010-11-30,24.725799560546875
2010-12-01,24.779647827148438
2010-12-02,24.860422134399414
2010-12-03,24.932226181030273
2010-12-06,24.950170516967773
2010-12-07,24.770673751831055
2010-12-08,24.76169776916504
2010-12-09,24.770673751831055
2010-12-10,24.725799560546875
2010-12-13,24.734773635864258
2010-12-14,24.75272560119629
2010-12-15,24.65399742126465
2010-12-16,24.6450252532959
2010-12-17,24.743751525878906
2010-12-20,24.689899444580078
2010-12-21,24.725799560546875
2010-12-22,24.79759979248047
2010-12-23,24.764799118041992
2010-12-27,24.81035614013672
2010-12-28,24.764799118041992
2010-12-29,24.773908615112305
2010-12-30,24.91058349609375
2010-12-31,24.974361419677734
2011-01-03,24.983470916748047
2011-01-04,24.93791389465332
2011-01-05,24.965248107910156
2011-01-06,24.901470184326172
2011-01-07,24.974361419677734
2011-01-10,24.883243560791016
2011-01-11,24.928802490234375
2011-01-12,25.047250747680664
2011-01-13,25.047250747680664
2011-01-14,25.03813934326172
2011-01-18,24.992584228515625
2011-01-19,24.91058349609375
2011-01-20,24.8468017578125
2011-01-21,24.81035614013672
2011-01-24,24.82857894897461
2011-01-25,24.764799118041992
2011-01-26,24.837688446044922
2011-01-27,24.81946563720703
2011-01-28,24.637239456176758
2011-01-31,24.69190788269043
2011-02-01,24.792129516601562
2011-02-02,24.719240188598633
2011-02-03,24.68279457092285
2011-02-04,24.655460357666016
2011-02-07,24.637239456176758
2011-02-08,24.628128051757812
2011-02-09,24.53701400756836
2011-02-10,24.482343673706055
2011-02-11,24.57345962524414
2011-02-14,24.58256721496582
2011-02-15,24.555238723754883
2011-02-16,24.68279457092285
2011-02-17,24.728351593017578
2011-02-18,24.773908615112305
2011-02-22,24.518787384033203
2011-02-23,24.564346313476562
2011-02-24,24.600793838500977
2011-02-25,24.719240188598633
2011-02-28,24.755685806274414
2011-03-01,24.68279457092285
2011-03-02,24.81035614013672
2011-03-03,24.86502456665039
2011-03-04,24.91058349609375
2011-03-07,24.837688446044922
2011-03-08,24.82857894897461
2011-03-09,24.8468017578125
2011-03-10,24.701019287109375
2011-03-11,24.701019287109375
2011-03-14,24.655460357666016
2011-03-15,24.436784744262695
2011-03-16,24.272781372070312
2011-03-17,24.482343673706055
2011-03-18,24.60990333557129
2011-03-21,24.728351593017578
2011-03-22,24.737464904785156
2011-03-23,24.773908615112305
2011-03-24,24.81946563720703
2011-03-25,24.773908615112305
2011-03-28,24.755685806274414
2011-03-29,24.755685806274414
2011-03-30,24.855911254882812
2011-03-31,24.892356872558594
2011-04-01,24.965248107910156
2011-04-04,25.092809677124023
2011-04-05,25.047250747680664
2011-04-06,25.00169563293457
2011-04-07,25.010807037353516
2011-04-08,25.010807037353516
2011-04-11,24.947025299072266
2011-04-12,24.919692993164062
2011-04-13,25.00169563293457
2011-04-14,24.983470916748047
2011-04-15,25.02902603149414
2011-04-18,25.019916534423828
2011-04-19,25.047250747680664
2011-04-20,25.14747428894043
2011-04-21,25.165700912475586
2011-04-25,25.202144622802734
2011-04-26,25.22947883605957
2011-04-27,25.329702377319336
2011-04-28,25.311485290527344
2011-04-29,25.366151809692383
2011-05-02,25.320594787597656
2011-05-03,25.24770164489746
2011-05-04,25.202144622802734
2011-05-05,25.074586868286133
2011-05-06,25.101919174194336
2011-05-09,25.24770164489746
2011-05-10,25.22947883605957
2011-05-11,25.183923721313477
2011-05-12,25.17481231689453
2011-05-13,25.138364791870117
2011-05-16,25.101919174194336
2011-05-17,25.129253387451172
2011-05-18,25.17481231689453
2011-05-19,25.101919174194336
2011-05-20,25.101919174194336
2011-05-23,25.065473556518555
2011-05-24,25.05636215209961
2011-05-25,25.083698272705078
2011-05-26,25.14747428894043
2011-05-27,25.27503776550293
2011-05-31,25.366151809692383
2011-06-01,25.238588333129883
2011-06-02,25.22947883605957
2011-06-03,25.19303321838379
2011-06-06,25.111032485961914
2011-06-07,25.14747428894043
2011-06-08,25.083698272705078
2011-06-09,25.165700912475586
2011-06-10,25.010807037353516
2011-06-13,25.010807037353516
2011-06-14,25.047250747680664
2011-06-15,25.00169563293457
2011-06-16,24.947025299072266
2011-06-17,24.983470916748047
2011-06-20,24.965248107910156
2011-06-21,25.05636215209961
2011-06-22,25.03813934326172
2011-06-23,25.010807037353516
2011-06-24,25.010807037353516
2011-06-27,25.010807037353516
2011-06-28,24.992584228515625
2011-06-29,25.019916534423828
2011-06-30,25.092809677124023
2011-07-01,25.138364791870117
2011-07-05,25.202144622802734
2011-07-06,25.14747428894043
2011-07-07,25.24770164489746
2011-07-08,25.311485290527344
2011-07-11,25.183923721313477
2011-07-12,25.220369338989258
2011-07-13,25.284147262573242
2011-07-14,25.220369338989258
2011-07-15,25.27503776550293
2011-07-18,25.183923721313477
2011-07-19,25.320594787597656
2011-07-20,25.311485290527344
2011-07-21,25.302371978759766
2011-07-22,25.375263214111328
2011-07-25,25.284147262573242
2011-07-26,25.357040405273438
2011-07-27,25.202144622802734
2011-07-28,25.238588333129883
2011-07-29,25.265926361083984
2011-08-01,25.29326057434082
2011-08-02,25.24770164489746
2011-08-03,25.329702377319336
2011-08-04,25.019916534423828
2011-08-05,24.95613670349121
2011-08-08,24.628128051757812
2011-08-09,24.81946563720703
2011-08-10,24.68279457092285
2011-08-11,24.737464904785156
2011-08-12,24.883243560791016
2011-08-15,25.02902603149414
2011-08-16,25.010807037353516
2011-08-17,24.992584228515625
2011-08-18,24.792129516601562
2011-08-19,24.8468017578125
2011-08-22,24.837688446044922
2011-08-23,24.892356872558594
2011-08-24,24.773908615112305
2011-08-25,24.783021926879883
2011-08-26,24.901470184326172
2011-08-29,24.992584228515625
2011-08-30,25.092809677124023
2011-08-31,25.101919174194336
2011-09-01,25.065473556518555
2011-09-02,25.047250747680664
2011-09-06,25.074586868286133
2011-09-07,25.14747428894043
2011-09-08,25.129253387451172
2011-09-09,25.010807037353516
2011-09-12,24.93791389465332
2011-09-13,24.919692993164062
2011-09-14,25.047250747680664
2011-09-15,25.074586868286133
2011-09-16,25.074586868286133
2011-09-19,25.05636215209961
2011-09-20,25.03813934326172
2011-09-21,24.95613670349121
2011-09-22,24.764799118041992
2011-09-23,24.64634895324707
2011-09-26,24.755685806274414
2011-09-27,24.74657440185547
2011-09-28,24.69190788269043
2011-09-29,24.5916805267334
2011-09-30,24.546123504638672
2011-10-03,24.445899963378906
2011-10-04,24.46412467956543
2011-10-05,24.619014739990234
2011-10-06,24.728351593017578
2011-10-07,24.701019287109375
2011-10-10,24.737464904785156
2011-10-11,24.81035614013672
2011-10-12,24.928802490234375
2011-10-13,24.965248107910156
2011-10-14,25.019916534423828
2011-10-17,24.81946563720703
2011-10-18,24.992584228515625
2011-10-19,24.901470184326172
2011-10-20,24.947025299072266
2011-10-21,25.019916534423828
2011-10-24,25.165700912475586
2011-10-25,25.19303321838379
2011-10-26,25.183923721313477
2011-10-27,25.448152542114258
2011-10-28,25.42081642150879
2011-10-31,25.165700912475586
2011-11-01,24.983470916748047
2011-11-02,25.24770164489746
2011-11-03,25.24770164489746
2011-11-04,25.284147262573242
2011-11-07,25.302371978759766
2011-11-08,25.29326057434082
2011-11-09,25.111032485961914
2011-11-10,25.111032485961914
2011-11-11,25.156587600708008
2011-11-14,25.211257934570312
2011-11-15,25.138364791870117
2011-11-16,25.019916534423828
2011-11-17,24.901470184326172
2011-11-18,25.00169563293457
2011-11-21,24.855911254882812
2011-11-22,24.80124282836914
2011-11-23,24.655460357666016
2011-11-25,24.60990333557129
2011-11-28,24.80124282836914
2011-11-29,24.792129516601562
2011-11-30,24.965248107910156
2011-12-01,24.95613670349121
2011-12-02,25.02902603149414
2011-12-05,25.05636215209961
2011-12-06,25.074586868286133
2011-12-07,25.138364791870117
2011-12-08,25.010807037353516
2011-12-09,25.03813934326172
2011-12-12,24.95613670349121
2011-12-13,24.947025299072266
2011-12-14,24.855911254882812
2011-12-15,24.883243560791016
2011-12-16,24.901470184326172
2011-12-19,24.947025299072266
2011-12-20,24.93791389465332
2011-12-21,24.947025299072266
2011-12-22,25.05636215209961
2011-12-23,25.03813934326172
2011-12-27,25.05636215209961
2011-12-28,24.99263572692871
2011-12-29,24.900272369384766
2011-12-30,25.0111083984375
2012-01-03,25.15888023376465
2012-01-04,25.09423065185547
2012-01-05,25.121938705444336
2012-01-06,25.10346794128418
2012-01-09,25.121938705444336
2012-01-10,25.140409469604492
2012-01-11,25.17735481262207
2012-01-12,25.22353172302246
2012-01-13,25.242006301879883
2012-01-17,25.260478973388672
2012-01-18,25.27895164489746
2012-01-19,25.306655883789062
2012-01-20,25.297422409057617
2012-01-23,25.306655883789062
2012-01-24,25.306655883789062
2012-01-25,25.38978385925293
2012-01-26,25.371309280395508
2012-01-27,25.39902114868164
2012-01-30,25.408254623413086
2012-01-31,25.435962677001953
2012-02-01,25.54679298400879
2012-02-02,25.62067985534668
2012-02-03,25.657629013061523
2012-02-06,25.6668643951416
2012-02-07,25.676097869873047
2012-02-08,25.68533706665039
2012-02-09,25.62991714477539
2012-02-10,25.583740234375
2012-02-13,25.6668643951416
2012-02-14,25.68533706665039
2012-02-15,25.6668643951416
2012-02-16,25.722278594970703
2012-02-17,25.69457244873047
2012-02-21,25.70380973815918
2012-02-22,25.78693199157715
2012-02-23,25.796167373657227
2012-02-24,25.805404663085938
2012-02-27,25.805404663085938
2012-02-28,25.88852882385254
2012-02-29,25.768457412719727
2012-03-01,25.805404663085938
2012-03-02,25.796167373657227
2012-03-05,25.722278594970703
2012-03-06,25.62067985534668
2012-03-07,25.6668643951416
2012-03-08,25.713043212890625
2012-03-09,25.713043212890625
2012-03-12,25.70380973815918
2012-03-13,25.731515884399414
2012-03-14,25.5560302734375
2012-03-15,25.574504852294922
2012-03-16,25.565269470214844
2012-03-19,25.565269470214844
2012-03-20,25.519084930419922
2012-03-21,25.574504852294922
2012-03-22,25.5006160736084
2012-03-23,25.54679298400879
2012-03-26,25.62991714477539
2012-03-27,25.6668643951416
2012-03-28,25.62067985534668
2012-03-29,25.60221290588379
2012-03-30,25.611448287963867
2012-04-02,25.657629013061523
2012-04-03,25.509851455688477
2012-04-04,25.472909927368164
2012-04-05,25.48214340209961
2012-04-09,25.491378784179688
2012-04-10,25.435962677001953
2012-04-11,25.463672637939453
2012-04-12,25.574504852294922
2012-04-13,25.565269470214844
2012-04-16,25.519084930419922
2012-04-17,25.574504852294922
2012-04-18,25.583740234375
2012-04-19,25.54679298400879
2012-04-20,25.54679298400879
2012-04-23,25.48214340209961
2012-04-24,25.5006160736084
2012-04-25,25.5560302734375
2012-04-26,25.53755760192871
2012-04-27,25.583740234375
2012-04-30,25.53755760192871
2012-05-01,25.528322219848633
2012-05-02,25.60221290588379
2012-05-03,25.54679298400879
2012-05-04,25.48214340209961
2012-05-07,25.472909927368164
2012-05-08,25.435962677001953
2012-05-09,25.39902114868164
2012-05-10,25.371309280395508
2012-05-11,25.343603134155273
2012-05-14,25.28818702697754
2012-05-15,25.260478973388672
2012-05-16,25.214296340942383
2012-05-17,25.121938705444336
2012-05-18,25.084997177124023
2012-05-21,25.195829391479492
2012-05-22,25.17735481262207
2012-05-23,25.15888023376465
2012-05-24,25.121938705444336
2012-05-25,25.140409469604492
2012-05-29,25.195829391479492
2012-05-30,25.149646759033203
2012-05-31,25.214296340942383
2012-06-01,25.121938705444336
2012-06-04,25.09423065185547
2012-06-05,25.13117218017578
2012-06-06,25.149646759033203
2012-06-07,25.15888023376465
2012-06-08,25.15888023376465
2012-06-11,25.18659210205078
2012-06-12,25.16811752319336
2012-06-13,25.18659210205078
2012-06-14,25.195829391479492
2012-06-15,25.251243591308594
2012-06-18,25.269716262817383
2012-06-19,25.269716262817383
2012-06-20,25.315895080566406
2012-06-21,25.20506477355957
2012-06-22,25.269716262817383
2012-06-25,25.251243591308594
2012-06-26,25.242006301879883
2012-06-27,25.297422409057617
2012-06-28,25.315895080566406
2012-06-29,25.39902114868164
2012-07-02,25.62991714477539
2012-07-03,25.491378784179688
2012-07-05,25.491378784179688
2012-07-06,25.426725387573242
2012-07-09,25.463672637939453
2012-07-10,26.627405166625977
2012-07-11,25.472909927368164
2012-07-12,25.41748809814453
2012-07-13,25.5006160736084
2012-07-16,25.54679298400879
2012-07-17,25.53755760192871
2012-07-18,25.53755760192871
2012-07-19,25.676097869873047
2012-07-20,25.62067985534668
2012-07-23,25.5560302734375
2012-07-24,25.528322219848633
2012-07-25,25.5560302734375
2012-07-26,25.611448287963867
2012-07-27,25.69457244873047
2012-07-30,25.731515884399414
2012-07-31,25.713043212890625
2012-08-01,25.731515884399414
2012-08-02,25.611448287963867
2012-08-03,25.768457412719727
2012-08-06,25.713043212890625
2012-08-07,25.805404663085938
2012-08-08,25.777694702148438
2012-08-09,25.83310890197754
2012-08-10,25.768457412719727
2012-08-13,25.731515884399414
2012-08-14,25.768457412719727
2012-08-15,25.731515884399414
2012-08-16,25.68533706665039
2012-08-17,25.731515884399414
2012-08-20,25.70380973815918
2012-08-21,25.823875427246094
2012-08-22,25.796167373657227
2012-08-23,25.768457412719727
2012-08-24,25.777694702148438
2012-08-27,25.879291534423828
2012-08-28,25.86081886291504
2012-08-29,25.84234619140625
2012-08-30,25.805404663085938
2012-08-31,25.88852882385254
2012-09-04,25.87005615234375
2012-09-05,25.84234619140625
2012-09-06,25.906999588012695
2012-09-07,25.97165298461914
2012-09-10,25.94394302368164
2012-09-11,25.97165298461914
2012-09-12,25.94394302368164
2012-09-13,26.02706527709961
2012-09-14,25.980886459350586
2012-09-17,25.962417602539062
2012-09-18,26.008594512939453
2012-09-19,26.054773330688477
2012-09-20,26.02706527709961
2012-09-21,26.08248519897461
2012-09-24,26.054773330688477
2012-09-25,26.01782989501953
2012-09-26,26.02706527709961
2012-09-27,26.054773330688477
2012-09-28,26.008594512939453
2012-10-01,26.054773330688477
2012-10-02,26.01782989501953
2012-10-03,26.064010620117188
2012-10-04,26.02706527709961
2012-10-05,26.02706527709961
2012-10-08,26.073246002197266
2012-10-09,26.036304473876953
2012-10-10,26.02706527709961
2012-10-11,26.064010620117188
2012-10-12,26.04553985595703
2012-10-15,26.091720581054688
2012-10-16,26.110191345214844
2012-10-17,26.11942481994629
2012-10-18,26.073246002197266
2012-10-19,26.01782989501953
2012-10-22,26.008594512939453
2012-10-23,25.990121841430664
2012-10-24,25.97165298461914
2012-10-25,25.962417602539062
2012-10-26,26.02706527709961
2012-10-31,26.04553985595703
2012-11-01,26.16560935974121
2012-11-02,26.04553985595703
2012-11-05,26.073246002197266
2012-11-06,26.04553985595703
2012-11-07,25.999359130859375
2012-11-08,25.95318031311035
2012-11-09,25.95318031311035
2012-11-12,25.94394302368164
2012-11-13,25.92547035217285
2012-11-14,25.879291534423828
2012-11-15,25.94394302368164
2012-11-16,25.88852882385254
2012-11-19,25.980886459350586
2012-11-20,25.92547035217285
2012-11-21,25.94394302368164
2012-11-23,25.95318031311035
2012-11-26,25.97165298461914
2012-11-27,26.008594512939453
2012-11-28,26.008594512939453
2012-11-29,26.064010620117188
2012-11-30,26.091720581054688
2012-12-03,25.999359130859375
2012-12-04,26.02706527709961
2012-12-05,26.054773330688477
2012-12-06,26.064010620117188
2012-12-07,26.01782989501953
2012-12-10,26.04553985595703
2012-12-11,26.01782989501953
2012-12-12,25.962417602539062
2012-12-13,25.93470573425293
2012-12-14,25.92547035217285
2012-12-17,25.93470573425293
2012-12-18,25.92547035217285
2012-12-19,26.036304473876953
2012-12-20,25.93470573425293
2012-12-21,26.008594512939453
2012-12-24,25.91623306274414
2012-12-26,25.92547035217285
2012-12-27,25.95255470275879
2012-12-28,25.980571746826172
2012-12-31,25.971233367919922
2013-01-02,26.120649337768555
2013-01-03,26.064619064331055
2013-01-04,26.09263801574707
2013-01-07,26.055278778076172
2013-01-08,26.00858497619629
2013-01-09,26.083297729492188
2013-01-10,26.120649337768555
2013-01-11,26.055278778076172
2013-01-14,26.14866828918457
2013-01-15,26.073959350585938
2013-01-16,26.083297729492188
2013-01-17,26.101974487304688
2013-01-18,26.186025619506836
2013-01-22,26.167346954345703
2013-01-23,26.120649337768555
2013-01-24,26.111312866210938
2013-01-25,26.111312866210938
2013-01-28,26.045942306518555
2013-01-29,26.101974487304688
2013-01-30,26.045942306518555
2013-01-31,26.120649337768555
2013-02-01,26.111312866210938
2013-02-04,26.101974487304688
2013-02-05,26.083297729492188
2013-02-06,26.111312866210938
2013-02-07,26.083297729492188
2013-02-08,26.129989624023438
2013-02-11,26.111312866210938
2013-02-12,26.111312866210938
2013-02-13,26.120649337768555
2013-02-14,26.101974487304688
2013-02-15,26.167346954345703
2013-02-19,26.186025619506836
2013-02-20,26.055278778076172
2013-02-21,25.99924659729004
2013-02-22,26.073959350585938
2013-02-25,25.971233367919922
2013-02-26,26.036602020263672
2013-02-27,26.09263801574707
2013-02-28,26.111312866210938
2013-03-01,26.129989624023438
2013-03-04,26.111312866210938
2013-03-05,26.214038848876953
2013-03-06,26.167346954345703
2013-03-07,26.167346954345703
2013-03-08,26.158010482788086
2013-03-11,26.24205780029297
2013-03-12,26.232717514038086
2013-03-13,26.223377227783203
2013-03-14,26.214038848876953
2013-03-15,26.27941131591797
2013-03-18,26.223377227783203
2013-03-19,26.195363998413086
2013-03-20,26.195363998413086
2013-03-21,26.14866828918457
2013-03-22,26.214038848876953
2013-03-25,26.158010482788086
2013-03-26,26.27007293701172
2013-03-27,26.214038848876953
2013-03-28,26.30742835998535
2013-04-01,26.167346954345703
2013-04-02,26.158010482788086
2013-04-03,26.129989624023438
2013-04-04,26.195363998413086
2013-04-05,26.195363998413086
2013-04-08,26.223377227783203
2013-04-09,26.186025619506836
2013-04-10,26.372802734375
2013-04-11,26.38214111328125
2013-04-12,26.466190338134766
2013-04-15,26.3354434967041
2013-04-16,26.3354434967041
2013-04-17,26.204700469970703
2013-04-18,26.158010482788086
2013-04-19,26.27007293701172
2013-04-22,26.27941131591797
2013-04-23,26.41949462890625
2013-04-24,26.41949462890625
2013-04-25,26.466190338134766
2013-04-26,26.475528717041016
2013-04-29,26.550235748291016
2013-04-30,26.5595760345459
2013-05-01,26.4848690032959
2013-05-02,26.587594985961914
2013-05-03,26.5595760345459
2013-05-06,26.643625259399414
2013-05-07,26.662302017211914
2013-05-08,26.699661254882812
2013-05-09,26.662302017211914
2013-05-10,26.671642303466797
2013-05-13,27.381393432617188
2013-05-14,26.643625259399414
2013-05-15,26.80238914489746
2013-05-16,26.671642303466797
2013-05-17,26.755693435668945
2013-05-20,26.933130264282227
2013-05-21,26.80238914489746
2013-05-22,26.65296745300293
2013-05-23,26.596933364868164
2013-05-24,26.5595760345459
2013-05-28,26.550235748291016
2013-05-29,26.4848690032959
2013-05-30,26.550235748291016
2013-05-31,26.57825469970703
2013-06-03,26.391481399536133
2013-06-04,26.326108932495117
2013-06-05,26.176687240600586
2013-06-06,26.204700469970703
2013-06-07,26.28875160217285
2013-06-10,26.24205780029297
2013-06-11,26.120649337768555
2013-06-12,26.027265548706055
2013-06-13,26.167346954345703
2013-06-14,26.14866828918457
2013-06-17,26.214038848876953
2013-06-18,26.27941131591797
2013-06-19,26.80238914489746
2013-06-20,25.681730270385742
2013-06-21,25.597679138183594
2013-06-24,25.410900115966797
2013-06-25,25.550987243652344
2013-06-26,25.719083786010742
2013-06-27,25.859167098999023
2013-06-28,25.840486526489258
2013-07-01,25.924537658691406
2013-07-02,25.90585708618164
2013-07-03,25.90585708618164
2013-07-05,25.849828720092773
2013-07-08,25.933876037597656
2013-07-09,26.017925262451172
2013-07-10,25.989912033081055
2013-07-11,26.214038848876953
2013-07-12,26.204700469970703
2013-07-15,26.27941131591797
2013-07-16,26.27007293701172
2013-07-17,26.3167667388916
2013-07-18,26.34478187561035
2013-07-19,26.38214111328125
2013-07-22,26.41949462890625
2013-07-23,26.400815963745117
2013-07-24,26.3354434967041
2013-07-25,26.38214111328125
2013-07-26,26.372802734375
2013-07-29,26.30742835998535
2013-07-30,26.3167667388916
2013-07-31,26.354122161865234
2013-08-01,26.456850051879883
2013-08-02,26.466190338134766
2013-08-05,26.475528717041016
2013-08-06,26.43817138671875
2013-08-07,26.41949462890625
2013-08-08,26.494205474853516
2013-08-09,26.503541946411133
2013-08-12,26.494205474853516
2013-08-13,26.456850051879883
2013-08-14,26.466190338134766
2013-08-15,26.3354434967041
2013-08-16,26.2980899810791
2013-08-19,26.204700469970703
2013-08-20,26.214038848876953
2013-08-21,26.083297729492188
2013-08-22,26.195363998413086
2013-08-23,26.25139808654785
2013-08-26,26.24205780029297
2013-08-27,26.120649337768555
2013-08-28,26.363460540771484
2013-08-29,26.120649337768555
2013-08-30,26.083297729492188
2013-09-03,26.158010482788086
2013-09-04,26.223377227783203
2013-09-05,26.176687240600586
2013-09-06,26.195363998413086
2013-09-09,26.354122161865234
2013-09-10,26.363460540771484
2013-09-11,26.447509765625
2013-09-12,26.41949462890625
2013-09-13,26.466190338134766
2013-09-16,26.550235748291016
2013-09-17,26.596933364868164
2013-09-18,26.80238914489746
2013-09-19,26.80238914489746
2013-09-20,26.634286880493164
2013-09-23,26.765029907226562
2013-09-24,26.72767448425293
2013-09-25,26.72767448425293
2013-09-26,26.793048858642578
2013-09-27,26.718334197998047
2013-09-30,26.68098258972168
2013-10-01,26.72767448425293
2013-10-02,26.73701286315918
2013-10-03,26.662302017211914
2013-10-04,26.72767448425293
2013-10-07,26.634286880493164
2013-10-08,26.512880325317383
2013-10-09,26.512880325317383
2013-10-10,26.69032096862793
2013-10-11,26.73701286315918
2013-10-14,26.774368286132812
2013-10-15,26.671642303466797
2013-10-16,26.839738845825195
2013-10-17,26.933130264282227
2013-10-18,27.026517868041992
2013-10-21,27.01717758178711
2013-10-22,27.11056900024414
2013-10-23,27.01717758178711
2013-10-24,27.063871383666992
2013-10-25,27.082551956176758
2013-10-28,27.082551956176758
2013-10-29,27.119903564453125
2013-10-30,27.082551956176758
2013-10-31,27.073211669921875
2013-11-01,27.01717758178711
2013-11-04,27.063871383666992
2013-11-05,27.01717758178711
2013-11-06,27.04519271850586
2013-11-07,26.91444969177246
2013-11-08,27.01717758178711
2013-11-11,26.97048568725586
2013-11-12,26.98916244506836
2013-11-13,27.04519271850586
2013-11-14,27.11056900024414
2013-11-15,27.157258987426758
2013-11-18,27.14792251586914
2013-11-19,27.091890335083008
2013-11-20,27.035858154296875
2013-11-21,27.166601181030273
2013-11-22,27.194618225097656
2013-11-25,27.175939559936523
2013-11-26,27.203954696655273
2013-11-27,27.269325256347656
2013-11-29,27.25065040588379
2013-12-02,27.14792251586914
2013-12-03,27.119903564453125
2013-12-04,27.05453109741211
2013-12-05,27.01717758178711
2013-12-06,27.119903564453125
2013-12-09,27.119903564453125
2013-12-10,27.11056900024414
2013-12-11,26.99850082397461
2013-12-12,26.942466735839844
2013-12-13,26.96114730834961
2013-12-16,27.026517868041992
2013-12-17,27.007841110229492
2013-12-18,27.14792251586914
2013-12-19,27.10123062133789
2013-12-20,27.213293075561523
2013-12-23,27.278663635253906
2013-12-24,27.28800392150879
2013-12-26,27.316024780273438
2013-12-27,27.302780151367188
2013-12-30,27.340606689453125
2013-12-31,27.397350311279297
2014-01-02,27.283864974975586
2014-01-03,27.283864974975586
2014-01-06,27.283864974975586
2014-01-07,27.340606689453125
2014-01-08,27.33115005493164
2014-01-09,27.350065231323242
2014-01-10,27.435178756713867
2014-01-13,27.283864974975586
2014-01-14,27.4162654876709
2014-01-15,27.473007202148438
2014-01-16,27.501379013061523
2014-01-17,27.482465744018555
2014-01-21,27.529748916625977
2014-01-22,27.520294189453125
2014-01-23,27.45409393310547
2014-01-24,27.21766471862793
2014-01-27,27.113637924194336
2014-01-28,27.2365779876709
2014-01-29,27.16092300415039
2014-01-30,27.2744083404541
2014-01-31,27.189294815063477
2014-02-03,27.00960922241211
2014-02-04,27.037979125976562
2014-02-05,27.028522491455078
2014-02-06,27.094722747802734
2014-02-07,27.2744083404541
2014-02-10,27.2554931640625
2014-02-11,27.33115005493164
2014-02-12,27.36897850036621
2014-02-13,27.463550567626953
2014-02-14,27.49192237854004
2014-02-18,27.577037811279297
2014-02-19,27.49192237854004
2014-02-20,27.54866600036621
2014-02-21,27.56757926940918
2014-02-24,27.633777618408203
2014-02-25,27.66214942932129
2014-02-26,27.699981689453125
2014-02-27,27.80401039123535
2014-02-28,27.756723403930664
2014-03-03,27.681066513061523
2014-03-04,27.80401039123535
2014-03-05,27.80401039123535
2014-03-06,27.80401039123535
2014-03-07,27.747264862060547
2014-03-10,27.70943832397461
2014-03-11,27.633777618408203
2014-03-12,27.671607971191406
2014-03-13,27.54866600036621
2014-03-14,27.539207458496094
2014-03-17,27.58649253845215
2014-03-18,27.70943832397461
2014-03-19,27.577037811279297
2014-03-20,27.58649253845215
2014-03-21,27.501379013061523
2014-03-24,27.539207458496094
2014-03-25,27.463550567626953
2014-03-26,27.501379013061523
2014-03-27,27.473007202148438
2014-03-28,27.529748916625977
2014-03-31,27.633777618408203
2014-04-01,27.70943832397461
2014-04-02,27.70943832397461
2014-04-03,27.699981689453125
2014-04-04,27.520294189453125
2014-04-07,27.378437042236328
2014-04-08,27.44463539123535
2014-04-09,27.56757926940918
2014-04-10,27.321693420410156
2014-04-11,27.246036529541016
2014-04-14,27.671607971191406
2014-04-15,27.302780151367188
2014-04-16,27.473007202148438
2014-04-17,27.482465744018555
2014-04-21,27.520294189453125
2014-04-22,27.64323616027832
2014-04-23,27.62432098388672
2014-04-24,27.64323616027832
2014-04-25,27.49192237854004
2014-04-28,27.49192237854004
2014-04-29,27.595951080322266
2014-04-30,27.699981689453125
2014-05-01,27.737808227539062
2014-05-02,27.747264862060547
2014-05-05,27.78509521484375
2014-05-06,27.690521240234375
2014-05-07,27.775638580322266
2014-05-08,27.699981689453125
2014-05-09,27.690521240234375
2014-05-12,27.82292366027832
2014-05-13,27.82292366027832
2014-05-14,27.82292366027832
2014-05-15,27.71889305114746
2014-05-16,27.78509521484375
2014-05-19,27.86075210571289
2014-05-20,27.775638580322266
2014-05-21,27.870210647583008
2014-05-22,27.917495727539062
2014-05-23,27.964780807495117
2014-05-27,28.049894332885742
2014-05-28,28.078266143798828
2014-05-29,28.11609649658203
2014-05-30,28.097179412841797
2014-06-02,28.05935287475586
2014-06-03,28.05935287475586
2014-06-04,28.144466400146484
2014-06-05,28.182294845581055
2014-06-06,28.22957992553711
2014-06-09,28.201208114624023
2014-06-10,28.15392303466797
2014-06-11,28.17283821105957
2014-06-12,28.106637954711914
2014-06-13,28.135007858276367
2014-06-16,28.11609649658203
2014-06-17,28.19175148010254
2014-06-18,28.276866912841797
2014-06-19,28.276866912841797
2014-06-20,28.305238723754883
2014-06-23,28.28632354736328
2014-06-24,28.248497009277344
2014-06-25,28.28632354736328
2014-06-26,28.295780181884766
2014-06-27,28.314695358276367
2014-06-30,28.36197853088379
2014-07-01,28.475467681884766
2014-07-02,28.45655059814453
2014-07-03,28.54166603088379
2014-07-07,28.390350341796875
2014-07-08,28.239036560058594
2014-07-09,28.352521896362305
2014-07-10,28.220125198364258
2014-07-11,28.28632354736328
2014-07-14,28.34306526184082
2014-07-15,28.28632354736328
2014-07-16,28.314695358276367
2014-07-17,28.15392303466797
2014-07-18,28.257949829101562
2014-07-21,28.239036560058594
2014-07-22,28.333608627319336
2014-07-23,28.352521896362305
2014-07-24,28.36197853088379
2014-07-25,28.314695358276367
2014-07-28,28.305238723754883
2014-07-29,28.257949829101562
2014-07-30,28.257949829101562
2014-07-31,27.993152618408203
2014-08-01,27.964780807495117
2014-08-04,28.040435791015625
2014-08-05,27.926952362060547
2014-08-06,27.917495727539062
2014-08-07,27.832380294799805
2014-08-08,27.964780807495117
2014-08-11,28.030981063842773
2014-08-12,27.993152618408203
2014-08-13,28.06880760192871
2014-08-14,28.163379669189453
2014-08-15,28.182294845581055
2014-08-18,28.276866912841797
2014-08-19,28.324153900146484
2014-08-20,28.333608627319336
2014-08-21,28.352521896362305
2014-08-22,28.36197853088379
2014-08-25,28.447092056274414
2014-08-26,28.48492431640625
2014-08-27,28.494380950927734
2014-08-28,28.475467681884766
2014-08-29,28.52275276184082
2014-09-02,28.48492431640625
2014-09-03,28.50383758544922
2014-09-04,28.41872215270996
2014-09-05,28.50383758544922
2014-09-08,28.447092056274414
2014-09-09,28.333608627319336
2014-09-10,28.380895614624023
2014-09-11,28.371437072753906
2014-09-12,28.257949829101562
2014-09-15,28.19175148010254
2014-09-16,28.295780181884766
2014-09-17,28.305238723754883
2014-09-18,28.352521896362305
2014-09-19,28.305238723754883
2014-09-22,28.19175148010254
2014-09-23,28.15392303466797
2014-09-24,28.276866912841797
2014-09-25,28.078266143798828
2014-09-26,28.144466400146484
2014-09-29,28.106637954711914
2014-09-30,28.05935287475586
2014-10-01,27.889123916625977
2014-10-02,27.870210647583008
2014-10-03,27.945865631103516
2014-10-06,27.955324172973633
2014-10-07,27.80401039123535
2014-10-08,27.993152618408203
2014-10-09,27.70943832397461
2014-10-10,27.482465744018555
2014-10-13,27.302780151367188
2014-10-14,27.302780151367188
2014-10-15,27.21766471862793
2014-10-16,27.208208084106445
2014-10-17,27.44463539123535
2014-10-20,27.539207458496094
2014-10-21,27.794551849365234
2014-10-22,27.681066513061523
2014-10-23,27.813467025756836
2014-10-24,27.908037185668945
2014-10-27,27.87966537475586
2014-10-28,28.040435791015625
2014-10-29,27.945865631103516
2014-10-30,28.030981063842773
2014-10-31,28.163379669189453
2014-11-03,28.15392303466797
2014-11-04,28.087726593017578
2014-11-05,28.11609649658203
2014-11-06,28.106637954711914
2014-11-07,28.078266143798828
2014-11-10,28.125553131103516
2014-11-11,28.15392303466797
2014-11-12,28.11609649658203
2014-11-13,28.125553131103516
2014-11-14,28.125553131103516
2014-11-17,28.15392303466797
2014-11-18,28.305238723754883
2014-11-19,28.248497009277344
2014-11-20,28.26740837097168
2014-11-21,28.380895614624023
2014-11-24,28.447092056274414
2014-11-25,28.46600914001465
2014-11-26,28.54166603088379
2014-11-28,28.50383758544922
2014-12-01,28.380895614624023
2014-12-02,28.399810791015625
2014-12-03,28.399810791015625
2014-12-04,28.399810791015625
2014-12-05,28.380895614624023
2014-12-08,28.26740837097168
2014-12-09,28.257949829101562
2014-12-10,28.078266143798828
2014-12-11,28.087726593017578
2014-12-12,27.945865631103516
2014-12-15,27.71889305114746
2014-12-16,27.728349685668945
2014-12-17,27.9742374420166
2014-12-18,28.163379669189453
2014-12-19,28.276866912841797
2014-12-22,28.314695358276367
2014-12-23,28.22957992553711
2014-12-24,28.22957992553711
2014-12-26,28.314695358276367
2014-12-29,28.299362182617188
2014-12-30,28.232275009155273
2014-12-31,28.16519546508789
2015-01-02,28.098112106323242
2015-01-05,27.88728141784668
2015-01-06,27.88728141784668
2015-01-07,28.059778213500977
2015-01-08,28.232275009155273
2015-01-09,28.184362411499023
2015-01-12,28.088529586791992
2015-01-13,28.098112106323242
2015-01-14,28.088529586791992
2015-01-15,27.944780349731445
2015-01-16,28.222694396972656
2015-01-20,28.184362411499023
2015-01-21,28.25144386291504
2015-01-22,28.395193099975586
2015-01-23,28.376026153564453
2015-01-26,28.481443405151367
2015-01-27,28.38561248779297
2015-01-28,28.21311378479004
2015-01-29,28.34727668762207
2015-01-30,27.79144859313965
2015-02-02,28.30894660949707
2015-02-03,28.462276458740234
2015-02-04,28.38561248779297
2015-02-05,28.51019287109375
2015-02-06,28.376026153564453
2015-02-09,28.318527221679688
2015-02-10,28.38561248779297
2015-02-11,28.38561248779297
2015-02-12,28.529361724853516
2015-02-13,28.64435577392578
2015-02-17,28.567691802978516
2015-02-18,28.663524627685547
2015-02-19,28.63477325439453
2015-02-20,28.759357452392578
2015-02-23,28.749773025512695
2015-02-24,28.826440811157227
2015-02-25,28.836023330688477
2015-02-26,28.797691345214844
2015-02-27,28.740188598632812
2015-03-02,28.81685447692871
2015-03-03,28.730607986450195
2015-03-04,28.701858520507812
2015-03-05,28.701858520507812
2015-03-06,28.481443405151367
2015-03-09,28.51019287109375
2015-03-10,28.366443634033203
2015-03-11,28.356861114501953
2015-03-12,28.538942337036133
2015-03-13,28.41436004638672
2015-03-16,28.5964412689209
2015-03-17,28.58685874938965
2015-03-18,28.81685447692871
2015-03-19,28.749773025512695
2015-03-20,28.893522262573242
2015-03-23,28.903106689453125
2015-03-24,28.86477279663086
2015-03-25,28.673107147216797
2015-03-26,28.60602569580078
2015-03-27,28.68269157409668
2015-03-30,28.78810691833496
2015-03-31,28.69227409362793
2015-04-01,28.663524627685547
2015-04-02,28.759357452392578
2015-04-06,28.85519027709961
2015-04-07,28.807273864746094
2015-04-08,28.836023330688477
2015-04-09,28.84560775756836
2015-04-10,28.86477279663086
2015-04-13,28.826440811157227
2015-04-14,28.85519027709961
2015-04-15,28.88393783569336
2015-04-16,28.951021194458008
2015-04-17,28.807273864746094
2015-04-20,28.826440811157227
2015-04-21,28.836023330688477
2015-04-22,28.85519027709961
2015-04-23,28.922273635864258
2015-04-24,28.931856155395508
2015-04-27,28.903106689453125
2015-04-28,28.931856155395508
2015-04-29,28.826440811157227
2015-04-30,28.749773025512695
2015-05-01,28.807273864746094
2015-05-04,28.807273864746094
2015-05-05,28.673107147216797
2015-05-06,28.615610122680664
2015-05-07,28.64435577392578
2015-05-08,28.77852439880371
2015-05-11,28.68269157409668
2015-05-12,28.663524627685547
2015-05-13,28.701858520507812
2015-05-14,28.807273864746094
2015-05-15,28.836023330688477
2015-05-18,28.807273864746094
2015-05-19,28.81685447692871
2015-05-20,28.807273864746094
2015-05-21,28.826440811157227
2015-05-22,28.81685447692871
2015-05-26,28.730607986450195
2015-05-27,28.807273864746094
2015-05-28,28.77852439880371
2015-05-29,28.740188598632812
2015-06-01,28.759357452392578
2015-06-02,28.730607986450195
2015-06-03,28.69227409362793
2015-06-04,28.68269157409668
2015-06-05,28.548524856567383
2015-06-08,28.529361724853516
2015-06-09,28.491025924682617
2015-06-10,28.5772762298584
2015-06-11,28.58685874938965
2015-06-12,28.548524856567383
2015-06-15,28.491025924682617
2015-06-16,28.500608444213867
2015-06-17,28.558107376098633
2015-06-18,28.625194549560547
2015-06-19,28.615610122680664
2015-06-22,28.615610122680664
2015-06-23,28.5772762298584
2015-06-24,28.58685874938965
2015-06-25,28.538942337036133
2015-06-26,28.42394256591797
2015-06-29,28.328109741210938
2015-06-30,28.34727668762207
2015-07-01,28.34727668762207
2015-07-02,28.366443634033203
2015-07-06,28.241859436035156
2015-07-07,28.203529357910156
2015-07-08,28.107694625854492
2015-07-09,28.146028518676758
2015-07-10,28.25144386291504
2015-07-13,28.241859436035156
2015-07-14,28.318527221679688
2015-07-15,28.280193328857422
2015-07-16,28.395193099975586
2015-07-17,28.356861114501953
2015-07-20,28.38561248779297
2015-07-21,28.356861114501953
2015-07-22,28.328109741210938
2015-07-23,28.328109741210938
2015-07-24,28.25144386291504
2015-07-27,28.232275009155273
2015-07-28,28.30894660949707
2015-07-29,28.30894660949707
2015-07-30,28.280193328857422
2015-07-31,28.337692260742188
2015-08-03,28.30894660949707
2015-08-04,28.289777755737305
2015-08-05,28.30894660949707
2015-08-06,28.299362182617188
2015-08-07,28.318527221679688
2015-08-10,28.376026153564453
2015-08-11,28.366443634033203
2015-08-12,28.328109741210938
2015-08-13,28.30894660949707
2015-08-14,28.289777755737305
2015-08-17,28.328109741210938
2015-08-18,28.241859436035156
2015-08-19,28.222694396972656
2015-08-20,28.098112106323242
2015-08-21,28.031028747558594
2015-08-24,27.848947525024414
2015-08-25,27.80103302001953
2015-08-26,27.85852813720703
2015-08-27,27.98311424255371
2015-08-28,27.944780349731445
2015-08-31,27.85852813720703
2015-09-01,27.762697219848633
2015-09-02,27.772281646728516
2015-09-03,27.79144859313965
2015-09-04,27.695615768432617
2015-09-08,27.82978057861328
2015-09-09,27.772281646728516
2015-09-10,27.80103302001953
2015-09-11,27.868114471435547
2015-09-14,27.82978057861328
2015-09-15,27.81061363220215
2015-09-16,27.896865844726562
2015-09-17,28.00227928161621
2015-09-18,27.925613403320312
2015-09-21,27.83936309814453
2015-09-22,27.724365234375
2015-09-23,27.71478271484375
2015-09-24,27.676448822021484
2015-09-25,27.628530502319336
2015-09-28,27.484785079956055
2015-09-29,27.46561622619629
2015-09-30,27.599782943725586
2015-10-01,27.61894989013672
2015-10-02,27.772281646728516
2015-10-05,27.85852813720703
2015-10-06,27.85852813720703
2015-10-07,27.868114471435547
2015-10-08,27.848947525024414
2015-10-09,27.88728141784668
2015-10-12,27.896865844726562
2015-10-13,27.80103302001953
2015-10-14,27.88728141784668
2015-10-15,27.896865844726562
2015-10-16,27.935195922851562
2015-10-19,27.88728141784668
2015-10-20,27.83936309814453
2015-10-21,27.877696990966797
2015-10-22,27.944780349731445
2015-10-23,27.906448364257812
2015-10-26,27.906448364257812
2015-10-27,27.935195922851562
2015-10-28,27.954362869262695
2015-10-29,27.79144859313965
2015-10-30,27.83936309814453
2015-11-02,27.82978057861328
2015-11-03,27.88728141784668
2015-11-04,27.820199966430664
2015-11-05,27.80103302001953
2015-11-06,27.73394775390625
2015-11-09,27.666866302490234
2015-11-10,27.7052001953125
2015-11-11,27.580617904663086
2015-11-12,27.542282104492188
2015-11-13,27.484785079956055
2015-11-16,27.60936737060547
2015-11-17,27.580617904663086
2015-11-18,27.7052001953125
2015-11-19,27.695615768432617
2015-11-20,27.686031341552734
2015-11-23,27.7052001953125
2015-11-24,27.724365234375
2015-11-25,27.772281646728516
2015-11-27,27.781864166259766
2015-11-30,27.695615768432617
2015-12-01,27.848947525024414
2015-12-02,27.848947525024414
2015-12-03,27.599782943725586
2015-12-04,27.666866302490234
2015-12-07,27.6476993560791
2015-12-08,27.580617904663086
2015-12-09,27.542282104492188
2015-12-10,27.56144905090332
2015-12-11,27.523115158081055
2015-12-14,27.360200881958008
2015-12-15,27.312286376953125
2015-12-16,27.42728614807129
2015-12-17,27.398534774780273
2015-12-18,27.341035842895508
2015-12-21,27.398534774780273
2015-12-22,27.446447372436523
2015-12-23,27.46561622619629
2015-12-24,27.494367599487305
2015-12-28,27.503952026367188
2015-12-29,27.48276710510254
2015-12-30,27.424985885620117
2015-12-31,27.405729293823242
2016-01-04,27.319063186645508
2016-01-05,27.29017448425293
2016-01-06,27.2998046875
2016-01-07,27.164987564086914
2016-01-08,27.12647247314453
2016-01-11,27.059064865112305
2016-01-12,27.1361026763916
2016-01-13,27.020544052124023
2016-01-14,27.059064865112305
2016-01-15,26.904993057250977
2016-01-19,26.856843948364258
2016-01-20,26.856843948364258
2016-01-21,26.847213745117188
2016-01-22,26.933879852294922
2016-01-25,26.885732650756836
2016-01-26,26.953140258789062
2016-01-27,26.876102447509766
2016-01-28,26.92424964904785
2016-01-29,27.020544052124023
2016-02-01,27.049434661865234
2016-02-02,26.98202896118164
2016-02-03,27.010915756225586
2016-02-04,27.078325271606445
2016-02-05,26.876102447509766
2016-02-08,26.770177841186523
2016-02-09,26.7990665435791
2016-02-10,26.7990665435791
2016-02-11,26.731658935546875
2016-02-12,26.770177841186523
2016-02-16,26.78943634033203
2016-02-17,26.92424964904785
2016-02-18,26.953140258789062
2016-02-19,26.99165916442871
2016-02-22,27.068695068359375
2016-02-23,27.030174255371094
2016-02-24,27.11684226989746
2016-02-25,27.184247970581055
2016-02-26,27.193878173828125
2016-02-29,27.11684226989746
2016-03-01,27.232397079467773
2016-03-02,27.25165557861328
2016-03-03,27.319063186645508
2016-03-04,27.347949981689453
2016-03-07,27.347949981689453
2016-03-08,27.367210388183594
2016-03-09,27.367210388183594
2016-03-10,27.367210388183594
2016-03-11,27.47313690185547
2016-03-14,27.4635066986084
2016-03-15,27.502025604248047
2016-03-16,27.550172805786133
2016-03-17,27.61758041381836
2016-03-18,27.646467208862305
2016-03-21,27.58868980407715
2016-03-22,27.59832000732422
2016-03-23,27.550172805786133
2016-03-24,27.492395401000977
2016-03-28,27.540542602539062
2016-03-29,27.665727615356445
2016-03-30,27.72350311279297
2016-03-31,27.752391815185547
2016-04-01,27.781282424926758
2016-04-04,27.8005428314209
2016-04-05,27.733131408691406
2016-04-06,27.790912628173828
2016-04-07,27.762022018432617
2016-04-08,27.8005428314209
2016-04-11,27.733131408691406
2016-04-12,27.790912628173828
2016-04-13,27.887205123901367
2016-04-14,27.877578735351562
2016-04-15,27.877578735351562
2016-04-18,27.944984436035156
2016-04-19,28.04128074645996
2016-04-20,27.993131637573242
2016-04-21,28.002761840820312
2016-04-22,28.04128074645996
2016-04-25,27.944984436035156
2016-04-26,27.954614639282227
2016-04-27,28.03165054321289
2016-04-28,27.983501434326172
2016-04-29,27.983501434326172
2016-05-02,28.03165054321289
2016-05-03,27.954614639282227
2016-05-04,27.887205123901367
2016-05-05,27.858318328857422
2016-05-06,27.83905792236328
2016-05-09,27.83905792236328
2016-05-10,27.954614639282227
2016-05-11,27.887205123901367
2016-05-12,27.858318328857422
2016-05-13,27.83905792236328
2016-05-16,27.84868812561035
2016-05-17,27.819801330566406
2016-05-18,27.742761611938477
2016-05-19,27.733131408691406
2016-05-20,27.8005428314209
2016-05-23,27.762022018432617
2016-05-24,27.829429626464844
2016-05-25,27.896835327148438
2016-05-26,27.916095733642578
2016-05-27,27.896835327148438
2016-05-31,27.887205123901367
2016-06-01,27.906465530395508
2016-06-02,27.935354232788086
2016-06-03,28.012392044067383
2016-06-06,28.002761840820312
2016-06-07,28.03165054321289
2016-06-08,28.0509090423584
2016-06-09,28.079797744750977
2016-06-10,28.002761840820312
2016-06-13,28.002761840820312
2016-06-14,27.896835327148438
2016-06-15,27.964244842529297
2016-06-16,28.03165054321289
2016-06-17,27.925724029541016
2016-06-20,27.964244842529297
2016-06-21,27.964244842529297
2016-06-22,27.9738712310791
2016-06-23,28.0509090423584
2016-06-24,27.819801330566406
2016-06-27,27.8005428314209
2016-06-28,27.877578735351562
2016-06-29,27.964244842529297
2016-06-30,28.079797744750977
2016-07-01,28.127944946289062
2016-07-05,28.108686447143555
2016-07-06,28.127944946289062
2016-07-07,28.118316650390625
2016-07-08,28.17609405517578
2016-07-11,28.233871459960938
2016-07-12,28.204984664916992
2016-07-13,28.2242431640625
2016-07-14,28.21461296081543
2016-07-15,27.925724029541016
2016-07-18,28.127944946289062
2016-07-19,28.14720344543457
2016-07-20,28.18572425842285
2016-07-21,28.15683364868164
2016-07-22,28.18572425842285
2016-07-25,28.14720344543457
2016-07-26,28.16646385192871
2016-07-27,28.243499755859375
2016-07-28,28.233871459960938
2016-07-29,28.30127716064453
2016-08-01,28.233871459960938
2016-08-02,28.15683364868164
2016-08-03,28.099058151245117
2016-08-04,28.16646385192871
2016-08-05,28.099058151245117
2016-08-08,28.118316650390625
2016-08-09,28.195354461669922
2016-08-10,28.243499755859375
2016-08-11,28.21461296081543
2016-08-12,28.272388458251953
2016-08-15,28.272388458251953
2016-08-16,28.204984664916992
2016-08-17,28.253129959106445
2016-08-18,28.262758255004883
2016-08-19,28.204984664916992
2016-08-22,28.253129959106445
2016-08-23,28.30127716064453
2016-08-24,28.29164695739746
2016-08-25,28.233871459960938
2016-08-26,28.195354461669922
2016-08-29,28.253129959106445
2016-08-30,28.2242431640625
2016-08-31,28.2242431640625
2016-09-01,28.272388458251953
2016-09-02,28.262758255004883
2016-09-06,28.330167770385742
2016-09-07,28.320537567138672
2016-09-08,28.243499755859375
2016-09-09,28.06053924560547
2016-09-12,28.15683364868164
2016-09-13,28.0509090423584
2016-09-14,28.07016944885254
2016-09-15,28.099058151245117
2016-09-16,28.06053924560547
2016-09-19,28.079797744750977
2016-09-20,28.079797744750977
2016-09-21,28.1375732421875
2016-09-22,28.272388458251953
2016-09-23,28.233871459960938
2016-09-26,28.21461296081543
2016-09-27,28.262758255004883
2016-09-28,28.253129959106445
2016-09-29,28.195354461669922
2016-09-30,28.21461296081543
2016-10-03,28.195354461669922
2016-10-04,28.14720344543457
2016-10-05,28.127944946289062
2016-10-06,28.089427947998047
2016-10-07,28.04128074645996
2016-10-10,28.089427947998047
2016-10-11,27.906465530395508
2016-10-12,27.916095733642578
2016-10-13,27.877578735351562
2016-10-14,27.858318328857422
2016-10-17,27.83905792236328
2016-10-18,27.925724029541016
2016-10-19,27.935354232788086
2016-10-20,27.944984436035156
2016-10-21,27.925724029541016
2016-10-24,27.9738712310791
2016-10-25,27.954614639282227
2016-10-26,27.877578735351562
2016-10-27,27.83905792236328
2016-10-28,27.810171127319336
2016-10-31,27.829429626464844
2016-11-01,27.742761611938477
2016-11-02,27.694616317749023
2016-11-03,27.627208709716797
2016-11-04,27.58868980407715
2016-11-07,27.675357818603516
2016-11-08,27.665727615356445
2016-11-09,27.58868980407715
2016-11-10,27.550172805786133
2016-11-11,27.521282196044922
2016-11-14,27.444246292114258
2016-11-15,27.502025604248047
2016-11-16,27.47313690185547
2016-11-17,27.502025604248047
2016-11-18,27.424985885620117
2016-11-21,27.434616088867188
2016-11-22,27.4635066986084
2016-11-23,27.453876495361328
2016-11-25,27.4635066986084
2016-11-28,27.434616088867188
2016-11-29,27.492395401000977
2016-11-30,27.453876495361328
2016-12-01,27.367210388183594
2016-12-02,27.396100997924805
2016-12-05,27.453876495361328
2016-12-06,27.47313690185547
2016-12-07,27.569429397583008
2016-12-08,27.59832000732422
2016-12-09,27.59832000732422
2016-12-12,27.502025604248047
2016-12-13,27.59832000732422
2016-12-14,27.48276710510254
2016-12-15,27.48276710510254
2016-12-16,27.492395401000977
2016-12-19,27.55980110168457
2016-12-20,27.59832000732422
2016-12-21,27.627208709716797
2016-12-22,27.60795021057129
2016-12-23,27.646467208862305
2016-12-27,27.646467208862305
2016-12-28,27.579559326171875
2016-12-29,27.608449935913086
2016-12-30,27.608449935913086
2017-01-03,27.618080139160156
2017-01-04,27.70474624633789
2017-01-05,27.74326515197754
2017-01-06,27.70474624633789
2017-01-09,27.74326515197754
2017-01-10,27.73363494873047
2017-01-11,27.76252555847168
2017-01-12,27.72400665283203
2017-01-13,27.75289535522461
2017-01-17,27.71437644958496
2017-01-18,27.675859451293945
2017-01-19,27.618080139160156
2017-01-20,27.666229248046875
2017-01-23,27.675859451293945
2017-01-24,27.675859451293945
2017-01-25,27.73363494873047
2017-01-26,27.71437644958496
2017-01-27,27.73363494873047
2017-01-30,27.666229248046875
2017-01-31,27.666229248046875
2017-02-01,27.69511604309082
2017-02-02,27.69511604309082
2017-02-03,27.74326515197754
2017-02-06,27.74326515197754
2017-02-07,27.8106746673584
2017-02-08,27.82030487060547
2017-02-09,27.858821868896484
2017-02-10,27.82030487060547
2017-02-13,27.839563369750977
2017-02-14,27.868452072143555
2017-02-15,27.858821868896484
2017-02-16,27.897340774536133
2017-02-17,27.926231384277344
2017-02-21,27.99363899230957
2017-02-22,28.02252960205078
2017-02-23,28.00326919555664
2017-02-24,28.04178810119629
2017-02-27,28.03215980529785
2017-02-28,28.01289939880371
2017-03-01,28.061046600341797
2017-03-02,27.97437858581543
2017-03-03,27.99363899230957
2017-03-06,27.935861587524414
2017-03-07,27.878082275390625
2017-03-08,27.858821868896484
2017-03-09,27.829933166503906
2017-03-10,27.906970977783203
2017-03-13,27.887710571289062
2017-03-14,27.829933166503906
2017-03-15,27.935861587524414
2017-03-16,27.935861587524414
2017-03-17,27.955121994018555
2017-03-20,27.964750289916992
2017-03-21,27.849193572998047
2017-03-22,27.906970977783203
2017-03-23,27.906970977783203
2017-03-24,27.926231384277344
2017-03-27,27.955121994018555
2017-03-28,27.964750289916992
2017-03-29,28.03215980529785
2017-03-30,28.00326919555664
2017-03-31,28.01289939880371
2017-04-03,28.04178810119629
2017-04-04,28.02252960205078
2017-04-05,27.9840087890625
2017-04-06,27.945491790771484
2017-04-07,27.916601181030273
2017-04-10,27.964750289916992
2017-04-11,27.926231384277344
2017-04-12,27.926231384277344
2017-04-13,27.868452072143555
2017-04-17,27.897340774536133
2017-04-18,27.868452072143555
2017-04-19,27.839563369750977
2017-04-20,27.916601181030273
2017-04-21,27.897340774536133
2017-04-24,28.04178810119629
2017-04-25,28.070676803588867
2017-04-26,28.080307006835938
2017-04-27,28.099565505981445
2017-04-28,28.080307006835938
2017-05-01,28.099565505981445
2017-05-02,28.128454208374023
2017-05-03,28.070676803588867
2017-05-04,28.02252960205078
2017-05-05,28.109195709228516
2017-05-08,28.061046600341797
2017-05-09,28.051416397094727
2017-05-10,28.099565505981445
2017-05-11,28.109195709228516
2017-05-12,28.147714614868164
2017-05-15,28.215124130249023
2017-05-16,28.195865631103516
2017-05-17,28.01289939880371
2017-05-18,28.03215980529785
2017-05-19,28.099565505981445
2017-05-22,28.118825912475586
2017-05-23,28.138084411621094
2017-05-24,28.176605224609375
2017-05-25,28.2343807220459
2017-05-26,28.215124130249023
2017-05-30,28.22475242614746
2017-05-31,28.205495834350586
2017-06-01,28.33068084716797
2017-06-02,28.417346954345703
2017-06-05,28.35957145690918
2017-06-06,28.369197845458984
2017-06-07,28.369197845458984
2017-06-08,28.436607360839844
2017-06-09,28.388458251953125
2017-06-12,28.34994125366211
2017-06-13,28.378828048706055
2017-06-14,28.388458251953125
2017-06-15,28.33068084716797
2017-06-16,28.34031105041504
2017-06-19,28.45586585998535
2017-06-20,28.407716751098633
2017-06-21,28.378828048706055
2017-06-22,28.436607360839844
2017-06-23,28.436607360839844
2017-06-26,28.50401496887207
2017-06-27,28.369197845458984
2017-06-28,28.426977157592773
2017-06-29,28.26327133178711
2017-06-30,28.3210506439209
2017-07-03,28.34031105041504
2017-07-05,28.388458251953125
2017-07-06,28.2343807220459
2017-07-07,28.28253173828125
2017-07-10,28.35957145690918
2017-07-11,28.35957145690918
2017-07-12,28.51364517211914
2017-07-13,28.484756469726562
2017-07-14,28.55216407775879
2017-07-17,28.51364517211914
2017-07-18,28.53290367126465
2017-07-19,28.609941482543945
2017-07-20,28.590682983398438
2017-07-21,28.600313186645508
2017-07-24,28.54253387451172
2017-07-25,28.57142448425293
2017-07-26,28.638830184936523
2017-07-27,28.590682983398438
2017-07-28,28.600313186645508
2017-07-31,28.581052780151367
2017-08-01,28.619571685791016
2017-08-02,28.581052780151367
2017-08-03,28.581052780151367
2017-08-04,28.600313186645508
2017-08-07,28.648460388183594
2017-08-08,28.56179428100586
2017-08-09,28.581052780151367
2017-08-10,28.369197845458984
2017-08-11,28.398086547851562
2017-08-14,28.484756469726562
2017-08-15,28.475126266479492
2017-08-16,28.56179428100586
2017-08-17,28.484756469726562
2017-08-18,28.465496063232422
2017-08-21,28.484756469726562
2017-08-22,28.56179428100586
2017-08-23,28.54253387451172
2017-08-24,28.54253387451172
2017-08-25,28.55216407775879
2017-08-28,28.54253387451172
2017-08-29,28.55216407775879
2017-08-30,28.619571685791016
2017-08-31,28.725500106811523
2017-09-01,28.735130310058594
2017-09-05,28.648460388183594
2017-09-06,28.667720794677734
2017-09-07,28.715869903564453
2017-09-08,28.677350997924805
2017-09-11,28.7543888092041
2017-09-12,28.764019012451172
2017-09-13,28.706239700317383
2017-09-14,28.706239700317383
2017-09-15,28.735130310058594
2017-09-18,28.735130310058594
2017-09-19,28.792905807495117
2017-09-20,28.764019012451172
2017-09-21,28.764019012451172
2017-09-22,28.744760513305664
2017-09-25,28.706239700317383
2017-09-26,28.677350997924805
2017-09-27,28.725500106811523
2017-09-28,28.715869903564453
2017-09-29,28.773645401000977
2017-10-02,28.802536010742188
2017-10-03,28.898834228515625
2017-10-04,28.889205932617188
2017-10-05,28.898834228515625
2017-10-06,28.908464431762695
2017-10-09,28.898834228515625
2017-10-10,28.918094635009766
2017-10-11,28.918094635009766
2017-10-12,28.93735122680664
2017-10-13,28.995132446289062
2017-10-16,29.004762649536133
2017-10-17,28.96624183654785
2017-10-18,29.004762649536133
2017-10-19,28.927724838256836
2017-10-20,28.975872039794922
2017-10-23,28.96624183654785
2017-10-24,28.975872039794922
2017-10-25,28.927724838256836
2017-10-26,28.927724838256836
2017-10-27,28.975872039794922
2017-10-30,29.02402114868164
2017-10-31,29.01439094543457
2017-11-01,29.05290985107422
2017-11-02,29.03365135192871
2017-11-03,29.07217025756836
2017-11-06,29.06254005432129
2017-11-07,29.05290985107422
2017-11-08,29.08180046081543
2017-11-09,28.985502243041992
2017-11-10,28.95661163330078
2017-11-13,28.95661163330078
2017-11-14,28.908464431762695
2017-11-15,28.918094635009766
2017-11-16,28.995132446289062
2017-11-17,28.96624183654785
2017-11-20,28.995132446289062
2017-11-21,29.08180046081543
2017-11-22,29.158838272094727
2017-11-24,29.158838272094727
2017-11-27,29.149208068847656
2017-11-28,29.226245880126953
2017-11-29,29.158838272094727
2017-11-30,29.187725067138672
2017-12-01,29.139577865600586
2017-12-04,29.120317459106445
2017-12-05,29.110689163208008
2017-12-06,29.08180046081543
2017-12-07,29.110689163208008
2017-12-08,29.149208068847656
2017-12-11,29.149208068847656
2017-12-12,29.158838272094727
2017-12-13,29.206985473632812
2017-12-14,29.1780948638916
2017-12-15,29.187725067138672
2017-12-18,29.303281784057617
2017-12-19,29.226245880126953
2017-12-20,29.1780948638916
2017-12-21,29.274394989013672
2017-12-22,29.284025192260742
2017-12-26,29.274394989013672
2017-12-27,29.322542190551758
2017-12-28,29.341800689697266
2017-12-29,29.312911987304688
2018-01-02,29.418840408325195
2018-01-03,29.486248016357422
2018-01-04,29.55365753173828
2018-01-05,29.621065139770508
2018-01-08,29.64032554626465
2018-01-09,29.630695343017578
2018-01-10,29.572914123535156
2018-01-11,29.659582138061523
2018-01-12,29.784770965576172
2018-01-16,29.74625015258789
2018-01-17,29.82328987121582
2018-01-18,29.75588035583496
2018-01-19,29.832918167114258
2018-01-22,29.929216384887695
2018-01-23,29.958106994628906
2018-01-24,29.967737197875977
2018-01-25,29.967737197875977
2018-01-26,30.09292221069336
2018-01-29,29.97736358642578
2018-01-30,29.852176666259766
2018-01-31,29.900325775146484
2018-02-01,29.82328987121582
2018-02-02,29.659582138061523
2018-02-05,29.332170486450195
2018-02-06,29.486248016357422
2018-02-07,29.351430892944336
2018-02-08,29.101058959960938
2018-02-09,29.139577865600586
2018-02-12,29.284025192260742
2018-02-13,29.274394989013672
2018-02-14,29.361061096191406
2018-02-15,29.54402732849121
2018-02-16,29.53439712524414
2018-02-20,29.49587631225586
2018-02-21,29.438098907470703
2018-02-22,29.438098907470703
2018-02-23,29.582544326782227
2018-02-26,29.678842544555664
2018-02-27,29.572914123535156
2018-02-28,29.49587631225586
2018-03-01,29.370691299438477
2018-03-02,29.380321502685547
2018-03-05,29.438098907470703
2018-03-06,29.486248016357422
2018-03-07,29.52476692199707
2018-03-08,29.54402732849121
2018-03-09,29.669212341308594
2018-03-12,29.688472747802734
2018-03-13,29.64032554626465
2018-03-14,29.630695343017578
2018-03-15,29.659582138061523
2018-03-16,29.611434936523438
2018-03-19,29.52476692199707
2018-03-20,29.54402732849121
2018-03-21,29.52476692199707
2018-03-22,29.322542190551758
2018-03-23,29.091428756713867
2018-03-26,29.351430892944336
2018-03-27,29.2647647857666
2018-03-28,29.206985473632812
2018-03-29,29.351430892944336
2018-04-02,29.187725067138672
2018-04-03,29.2647647857666
2018-04-04,29.29365348815918
2018-04-05,29.351430892944336
2018-04-06,29.187725067138672
2018-04-09,29.274394989013672
2018-04-10,29.389951705932617
2018-04-11,29.370691299438477
2018-04-12,29.466989517211914
2018-04-13,29.447729110717773
2018-04-16,29.457359313964844
2018-04-17,29.53439712524414
2018-04-18,29.54402732849121
2018-04-19,29.447729110717773
2018-04-20,29.341800689697266
2018-04-23,29.312911987304688
2018-04-24,29.226245880126953
2018-04-25,29.187725067138672
2018-04-26,29.274394989013672
2018-04-27,29.332170486450195
2018-04-30,29.274394989013672
2018-05-01,29.2647647857666
2018-05-02,29.226245880126953
2018-05-03,29.197355270385742
2018-05-04,29.274394989013672
2018-05-07,29.341800689697266
2018-05-08,29.361061096191406
2018-05-09,29.418840408325195
2018-05-10,29.486248016357422
2018-05-11,29.53439712524414
2018-05-14,29.51513671875
2018-05-15,29.389951705932617
2018-05-16,29.457359313964844
2018-05-17,29.457359313964844
2018-05-18,29.428470611572266
2018-05-21,29.486248016357422
2018-05-22,29.466989517211914
2018-05-23,29.47661781311035
2018-05-24,29.47661781311035
2018-05-25,29.49587631225586
2018-05-29,29.418840408325195
2018-05-30,29.49587631225586
2018-05-31,29.466989517211914
2018-06-01,29.52476692199707
2018-06-04,29.54402732849121
2018-06-05,29.572914123535156
2018-06-06,29.649953842163086
2018-06-07,29.621065139770508
2018-06-08,29.630695343017578
2018-06-11,29.659582138061523
2018-06-12,29.669212341308594
2018-06-13,29.621065139770508
2018-06-14,29.621065139770508
2018-06-15,29.582544326782227
2018-06-18,29.572914123535156
2018-06-19,29.50550651550293
2018-06-20,29.50550651550293
2018-06-21,29.399581909179688
2018-06-22,29.438098907470703
2018-06-25,29.25513458251953
2018-06-26,29.312911987304688
2018-06-27,29.168466567993164
2018-06-28,29.206985473632812
2018-06-29,29.2647647857666
2018-07-02,29.226245880126953
2018-07-03,29.226245880126953
2018-07-05,29.284025192260742
2018-07-06,29.399581909179688
2018-07-09,29.457359313964844
2018-07-10,29.47661781311035
2018-07-11,29.361061096191406
2018-07-12,29.447729110717773
2018-07-13,29.47661781311035
2018-07-16,29.447729110717773
2018-07-17,29.47661781311035
2018-07-18,29.47661781311035
2018-07-19,29.457359313964844
2018-07-20,29.47661781311035
2018-07-23,29.466989517211914
2018-07-24,29.47661781311035
2018-07-25,29.582544326782227
2018-07-26,29.592174530029297
2018-07-27,29.53439712524414
2018-07-30,29.47661781311035
2018-07-31,29.52476692199707
2018-08-01,29.466989517211914
2018-08-02,29.466989517211914
2018-08-03,29.52476692199707
2018-08-06,29.50550651550293
2018-08-07,29.52476692199707
2018-08-08,29.52476692199707
2018-08-09,29.51513671875
2018-08-10,29.457359313964844
2018-08-13,29.351430892944336
2018-08-14,29.370691299438477
2018-08-15,29.25513458251953
2018-08-16,29.322542190551758
2018-08-17,29.361061096191406
2018-08-20,29.428470611572266
2018-08-21,29.50550651550293
2018-08-22,29.49587631225586
2018-08-23,29.466989517211914
2018-08-24,29.55365753173828
2018-08-27,29.659582138061523
2018-08-28,29.630695343017578
2018-08-29,29.669212341308594
2018-08-30,29.572914123535156
2018-08-31,29.601804733276367
2018-09-04,29.54402732849121
2018-09-05,29.438098907470703
2018-09-06,29.409212112426758
2018-09-07,29.341800689697266
2018-09-10,29.341800689697266
2018-09-11,29.380321502685547
2018-09-12,29.409212112426758
2018-09-13,29.447729110717773
2018-09-14,29.49587631225586
2018-09-17,29.447729110717773
2018-09-18,29.51513671875
2018-09-19,29.49587631225586
2018-09-20,29.611434936523438
2018-09-21,29.621065139770508
2018-09-24,29.53439712524414
2018-09-25,29.592174530029297
2018-09-26,29.601804733276367
2018-09-27,29.572914123535156
2018-09-28,29.582544326782227
2018-10-01,29.55365753173828
2018-10-02,29.54402732849121
2018-10-03,29.50550651550293
2018-10-04,29.341800689697266
2018-10-05,29.25513458251953
2018-10-08,29.197355270385742
2018-10-09,29.1780948638916
2018-10-10,28.908464431762695
2018-10-11,28.860315322875977
2018-10-12,28.908464431762695
2018-10-15,28.927724838256836
2018-10-16,29.129947662353516
2018-10-17,29.08180046081543
2018-10-18,28.889205932617188
2018-10-19,28.918094635009766
2018-10-22,28.927724838256836
2018-10-23,28.802536010742188
2018-10-24,28.619571685791016
2018-10-25,28.677350997924805
2018-10-26,28.590682983398438
2018-10-29,28.56179428100586
2018-10-30,28.638830184936523
2018-10-31,28.764019012451172
2018-11-01,28.908464431762695
2018-11-02,28.908464431762695
2018-11-05,28.908464431762695
2018-11-06,28.918094635009766
2018-11-07,29.03365135192871
2018-11-08,28.985502243041992
2018-11-09,28.860315322875977
2018-11-12,28.725500106811523
2018-11-13,28.783275604248047
2018-11-14,28.792905807495117
2018-11-15,28.812166213989258
2018-11-16,28.812166213989258
2018-11-19,28.686981201171875
2018-11-20,28.619571685791016
2018-11-21,28.696609497070312
2018-11-23,28.609941482543945
2018-11-26,28.735130310058594
2018-11-27,28.725500106811523
2018-11-28,28.869945526123047
2018-11-29,28.860315322875977
2018-11-30,28.84105682373047
2018-12-03,29.004762649536133
2018-12-04,28.802536010742188
2018-12-06,28.715869903564453
2018-12-07,28.600313186645508
2018-12-10,28.57142448425293
2018-12-11,28.600313186645508
2018-12-12,28.658090591430664
2018-12-13,28.638830184936523
2018-12-14,28.55216407775879
2018-12-17,28.484756469726562
2018-12-18,28.475126266479492
2018-12-19,28.34994125366211
2018-12-20,28.27290153503418
2018-12-21,28.186235427856445
2018-12-24,28.109195709228516
2018-12-26,28.311420440673828
2018-12-27,28.27118682861328
2018-12-28,28.39875602722168
2018-12-31,28.33987808227539
2019-01-02,28.36931800842285
2019-01-03,28.33987808227539
2019-01-04,28.585201263427734
2019-01-07,28.644081115722656
2019-01-08,28.693145751953125
2019-01-09,28.791275024414062
2019-01-10,28.791275024414062
2019-01-11,28.771648406982422
2019-01-14,28.702959060668945
2019-01-15,28.7618350982666
2019-01-16,28.810901641845703
2019-01-17,28.85015296936035
2019-01-18,28.91884422302246
2019-01-22,28.820714950561523
2019-01-23,28.85015296936035
2019-01-24,28.92865753173828
2019-01-25,29.007160186767578
2019-01-28,28.92865753173828
2019-01-29,28.95809555053711
2019-01-30,29.085664749145508
2019-01-31,29.124916076660156
2019-02-01,29.134729385375977
2019-02-04,29.154354095458984
2019-02-05,29.232860565185547
2019-02-06,29.203420639038086
2019-02-07,29.11510467529297
2019-02-08,29.10529136657715
2019-02-11,29.075851440429688
2019-02-12,29.164167404174805
2019-02-13,29.154354095458984
2019-02-14,29.193607330322266
2019-02-15,29.252485275268555
2019-02-19,29.291738510131836
2019-02-20,29.311363220214844
2019-02-21,29.291738510131836
2019-02-22,29.389867782592773
2019-02-25,29.389867782592773
2019-02-26,29.438932418823242
2019-02-27,29.39967918395996
2019-02-28,29.380054473876953
2019-03-01,29.40949249267578
2019-03-04,29.389867782592773
2019-03-05,29.4193058013916
2019-03-06,29.380054473876953
2019-03-07,29.291738510131836
2019-03-08,29.262298583984375
2019-03-11,29.340801239013672
2019-03-12,29.370241165161133
2019-03-13,29.4193058013916
2019-03-14,29.39967918395996
2019-03-15,29.458559036254883
2019-03-18,29.50762176513672
2019-03-19,29.50762176513672
2019-03-20,29.576313018798828
2019-03-21,29.576313018798828
2019-03-22,29.40949249267578
2019-03-25,29.429119110107422
2019-03-26,29.458559036254883
2019-03-27,29.468372344970703
2019-03-28,29.468372344970703
2019-03-29,29.50762176513672
2019-04-01,29.566499710083008
2019-04-02,29.576313018798828
2019-04-03,29.61556625366211
2019-04-04,29.645004272460938
2019-04-05,29.674442291259766
2019-04-08,29.703882217407227
2019-04-09,29.645004272460938
2019-04-10,29.694068908691406
2019-04-11,29.664630889892578
2019-04-12,29.694068908691406
2019-04-15,29.723508834838867
2019-04-16,29.713695526123047
2019-04-17,29.723508834838867
2019-04-18,29.703882217407227
2019-04-22,29.703882217407227
2019-04-23,29.752946853637695
2019-04-24,29.703882217407227
2019-04-25,29.674442291259766
2019-04-26,29.694068908691406
2019-04-29,29.733320236206055
2019-04-30,29.703882217407227
2019-05-01,29.654817581176758
2019-05-02,29.645004272460938
2019-05-03,29.762760162353516
2019-05-06,29.694068908691406
2019-05-07,29.55668830871582
2019-05-08,29.51743507385254
2019-05-09,29.458559036254883
2019-05-10,29.51743507385254
2019-05-13,29.311363220214844
2019-05-14,29.438932418823242
2019-05-15,29.478185653686523
2019-05-16,29.468372344970703
2019-05-17,29.39967918395996
2019-05-20,29.360427856445312
2019-05-21,29.39967918395996
2019-05-22,29.370241165161133
2019-05-23,29.33098793029785
2019-05-24,29.340801239013672
2019-05-28,29.340801239013672
2019-05-29,29.311363220214844
2019-05-30,29.340801239013672
2019-05-31,29.32117462158203
2019-06-03,29.32117462158203
2019-06-04,29.448745727539062
2019-06-05,29.40949249267578
2019-06-06,29.438932418823242
2019-06-07,29.53706169128418
2019-06-10,29.576313018798828
2019-06-11,29.61556625366211
2019-06-12,29.53706169128418
2019-06-13,29.566499710083008
2019-06-14,29.51743507385254
2019-06-17,29.51743507385254
2019-06-18,29.664630889892578
2019-06-19,29.752946853637695
2019-06-20,29.831451416015625
2019-06-21,29.782386779785156
2019-06-24,29.811824798583984
2019-06-25,29.762760162353516
2019-06-26,29.752946853637695
2019-06-27,29.831451416015625
2019-06-28,29.851076126098633
2019-07-01,29.959020614624023
2019-07-02,29.959020614624023
2019-07-03,30.008085250854492
2019-07-05,29.919767379760742
2019-07-08,29.860889434814453
2019-07-09,29.841264724731445
2019-07-10,29.860889434814453
2019-07-11,29.841264724731445
2019-07-12,29.860889434814453
2019-07-15,29.89032745361328
2019-07-16,29.860889434814453
2019-07-17,29.870702743530273
2019-07-18,29.919767379760742
2019-07-19,29.880516052246094
2019-07-22,29.9001407623291
2019-07-23,29.949207305908203
2019-07-24,29.959020614624023
2019-07-25,29.909954071044922
2019-07-26,29.909954071044922
2019-07-29,29.9001407623291
2019-07-30,29.831451416015625
2019-07-31,29.811824798583984
2019-08-01,29.752946853637695
2019-08-02,29.684255599975586
2019-08-05,29.487995147705078
2019-08-06,29.566499710083008
2019-08-07,29.63519287109375
2019-08-08,29.694068908691406
2019-08-09,29.61556625366211
2019-08-12,29.55668830871582
2019-08-13,29.63519287109375
2019-08-14,29.468372344970703
2019-08-15,29.51743507385254
2019-08-16,29.58612632751465
2019-08-19,29.62537956237793
2019-08-20,29.62537956237793
2019-08-21,29.694068908691406
2019-08-22,29.674442291259766
2019-08-23,29.58612632751465
2019-08-26,29.63519287109375
2019-08-27,29.674442291259766
2019-08-28,29.694068908691406
2019-08-29,29.703882217407227
2019-08-30,29.723508834838867
2019-09-03,29.723508834838867
2019-09-04,29.841264724731445
2019-09-05,29.860889434814453
2019-09-06,29.870702743530273
2019-09-09,29.870702743530273
2019-09-10,29.831451416015625
2019-09-11,29.909954071044922
2019-09-12,29.939393997192383
2019-09-13,29.949207305908203
2019-09-16,29.919767379760742
2019-09-17,29.949207305908203
2019-09-18,29.968833923339844
2019-09-19,29.949207305908203
2019-09-20,29.998271942138672
2019-09-23,29.959020614624023
2019-09-24,29.929580688476562
2019-09-25,29.880516052246094
2019-09-26,29.89032745361328
2019-09-27,29.811824798583984
2019-09-30,29.851076126098633
2019-10-01,29.802013397216797
2019-10-02,29.723508834838867
2019-10-03,29.811824798583984
2019-10-04,29.880516052246094
2019-10-07,29.841264724731445
2019-10-08,29.782386779785156
2019-10-09,29.841264724731445
2019-10-10,29.851076126098633
2019-10-11,29.98845863342285
2019-10-14,29.929580688476562
2019-10-15,30.027711868286133
2019-10-16,30.008085250854492
2019-10-17,30.06696128845215
2019-10-18,30.03752326965332
2019-10-21,30.06696128845215
2019-10-22,30.04733657836914
2019-10-23,30.08658790588379
2019-10-24,30.11602783203125
2019-10-25,30.135652542114258
2019-10-28,30.16509246826172
2019-10-29,30.12584114074707
2019-10-30,30.145465850830078
2019-10-31,30.135652542114258
2019-11-01,30.263221740722656
2019-11-04,30.292661666870117
2019-11-05,30.292661666870117
2019-11-06,30.282848358154297
2019-11-07,30.302473068237305
2019-11-08,30.282848358154297
2019-11-11,30.292661666870117
2019-11-12,30.243595123291016
2019-11-13,30.214157104492188
2019-11-14,30.204345703125
2019-11-15,30.263221740722656
2019-11-18,30.292661666870117
2019-11-19,30.292661666870117
2019-11-20,30.233781814575195
2019-11-21,30.233781814575195
2019-11-22,30.263221740722656
2019-11-25,30.361352920532227
2019-11-26,30.341726303100586
2019-11-27,30.371166229248047
2019-11-29,30.282848358154297
2019-12-02,30.223968505859375
2019-12-03,30.263221740722656
2019-12-04,30.322099685668945
2019-12-05,30.351539611816406
2019-12-06,30.420228958129883
2019-12-09,30.371166229248047
2019-12-10,30.420228958129883
2019-12-11,30.449668884277344
2019-12-12,30.567424774169922
2019-12-13,30.60667610168457
2019-12-16,30.69499397277832
2019-12-17,30.70480728149414
2019-12-18,30.67536735534668
2019-12-19,30.72443199157715
2019-12-20,30.74405860900879
2019-12-23,30.75387191772461
2019-12-24,30.763683319091797
2019-12-26,30.822561264038086
2019-12-27,30.852001190185547
2019-12-30,30.799999237060547
2019-12-31,30.799999237060547
