Date,RAD
2007-12-31,55.79999923706055
2008-01-02,53.79999923706055
2008-01-03,45.599998474121094
2008-01-04,43.0
2008-01-07,42.20000076293945
2008-01-08,41.400001525878906
2008-01-09,39.0
2008-01-10,43.79999923706055
2008-01-11,44.400001525878906
2008-01-14,43.599998474121094
2008-01-15,42.599998474121094
2008-01-16,40.20000076293945
2008-01-17,39.599998474121094
2008-01-18,41.0
2008-01-22,40.79999923706055
2008-01-23,43.79999923706055
2008-01-24,47.79999923706055
2008-01-25,45.400001525878906
2008-01-28,49.20000076293945
2008-01-29,52.0
2008-01-30,54.400001525878906
2008-01-31,59.0
2008-02-01,64.80000305175781
2008-02-04,62.20000076293945
2008-02-05,59.400001525878906
2008-02-06,52.0
2008-02-07,54.599998474121094
2008-02-08,53.0
2008-02-11,53.0
2008-02-12,54.0
2008-02-13,54.0
2008-02-14,51.20000076293945
2008-02-15,50.599998474121094
2008-02-19,50.599998474121094
2008-02-20,52.20000076293945
2008-02-21,51.599998474121094
2008-02-22,52.20000076293945
2008-02-25,52.20000076293945
2008-02-26,55.599998474121094
2008-02-27,54.400001525878906
2008-02-28,55.400001525878906
2008-02-29,53.400001525878906
2008-03-03,53.20000076293945
2008-03-04,53.400001525878906
2008-03-05,56.599998474121094
2008-03-06,52.0
2008-03-07,50.0
2008-03-10,49.79999923706055
2008-03-11,49.79999923706055
2008-03-12,50.400001525878906
2008-03-13,51.0
2008-03-14,49.20000076293945
2008-03-17,47.20000076293945
2008-03-18,49.400001525878906
2008-03-19,50.0
2008-03-20,50.79999923706055
2008-03-24,53.0
2008-03-25,56.0
2008-03-26,59.79999923706055
2008-03-27,55.400001525878906
2008-03-28,58.20000076293945
2008-03-31,58.79999923706055
2008-04-01,58.599998474121094
2008-04-02,59.599998474121094
2008-04-03,57.79999923706055
2008-04-04,59.79999923706055
2008-04-07,59.20000076293945
2008-04-08,56.599998474121094
2008-04-09,54.79999923706055
2008-04-10,52.0
2008-04-11,50.599998474121094
2008-04-14,45.79999923706055
2008-04-15,48.599998474121094
2008-04-16,49.79999923706055
2008-04-17,50.20000076293945
2008-04-18,50.400001525878906
2008-04-21,50.0
2008-04-22,51.599998474121094
2008-04-23,52.599998474121094
2008-04-24,52.20000076293945
2008-04-25,52.0
2008-04-28,53.0
2008-04-29,52.599998474121094
2008-04-30,54.0
2008-05-01,52.599998474121094
2008-05-02,50.0
2008-05-05,53.0
2008-05-06,53.20000076293945
2008-05-07,51.20000076293945
2008-05-08,50.400001525878906
2008-05-09,47.400001525878906
2008-05-12,46.400001525878906
2008-05-13,48.0
2008-05-14,48.599998474121094
2008-05-15,47.79999923706055
2008-05-16,48.79999923706055
2008-05-19,47.0
2008-05-20,47.0
2008-05-21,46.0
2008-05-22,40.599998474121094
2008-05-23,42.0
2008-05-27,44.0
2008-05-28,43.20000076293945
2008-05-29,42.79999923706055
2008-05-30,45.0
2008-06-02,44.400001525878906
2008-06-03,44.400001525878906
2008-06-04,43.79999923706055
2008-06-05,46.400001525878906
2008-06-06,44.400001525878906
2008-06-09,43.0
2008-06-10,43.20000076293945
2008-06-11,40.79999923706055
2008-06-12,41.0
2008-06-13,41.599998474121094
2008-06-16,41.20000076293945
2008-06-17,40.599998474121094
2008-06-18,39.0
2008-06-19,38.20000076293945
2008-06-20,39.20000076293945
2008-06-23,37.0
2008-06-24,34.400001525878906
2008-06-25,35.0
2008-06-26,27.0
2008-06-27,29.600000381469727
2008-06-30,31.799999237060547
2008-07-01,31.200000762939453
2008-07-02,27.200000762939453
2008-07-03,27.0
2008-07-07,25.600000381469727
2008-07-08,25.799999237060547
2008-07-09,26.0
2008-07-10,24.0
2008-07-11,20.600000381469727
2008-07-14,20.200000762939453
2008-07-15,23.0
2008-07-16,28.399999618530273
2008-07-17,29.0
2008-07-18,26.0
2008-07-21,27.200000762939453
2008-07-22,28.200000762939453
2008-07-23,28.399999618530273
2008-07-24,26.600000381469727
2008-07-25,24.0
2008-07-28,25.200000762939453
2008-07-29,26.0
2008-07-30,24.399999618530273
2008-07-31,25.600000381469727
2008-08-01,26.399999618530273
2008-08-04,26.399999618530273
2008-08-05,26.600000381469727
2008-08-06,25.600000381469727
2008-08-07,26.200000762939453
2008-08-08,26.799999237060547
2008-08-11,26.600000381469727
2008-08-12,25.600000381469727
2008-08-13,25.799999237060547
2008-08-14,25.0
2008-08-15,25.399999618530273
2008-08-18,25.600000381469727
2008-08-19,25.0
2008-08-20,24.600000381469727
2008-08-21,24.0
2008-08-22,24.200000762939453
2008-08-25,23.799999237060547
2008-08-26,24.200000762939453
2008-08-27,24.0
2008-08-28,24.0
2008-08-29,24.200000762939453
2008-09-02,24.200000762939453
2008-09-03,24.0
2008-09-04,23.399999618530273
2008-09-05,22.200000762939453
2008-09-08,22.0
2008-09-09,22.0
2008-09-10,20.0
2008-09-11,19.600000381469727
2008-09-12,19.799999237060547
2008-09-15,20.0
2008-09-16,19.799999237060547
2008-09-17,18.600000381469727
2008-09-18,20.0
2008-09-19,20.600000381469727
2008-09-22,19.600000381469727
2008-09-23,19.200000762939453
2008-09-24,19.200000762939453
2008-09-25,18.399999618530273
2008-09-26,18.200000762939453
2008-09-29,16.200000762939453
2008-09-30,16.799999237060547
2008-10-01,19.0
2008-10-02,17.799999237060547
2008-10-03,17.200000762939453
2008-10-06,17.200000762939453
2008-10-07,15.0
2008-10-08,13.800000190734863
2008-10-09,10.399999618530273
2008-10-10,11.0
2008-10-13,13.399999618530273
2008-10-14,17.200000762939453
2008-10-15,15.800000190734863
2008-10-16,15.600000381469727
2008-10-17,14.199999809265137
2008-10-20,14.600000381469727
2008-10-21,12.600000381469727
2008-10-22,11.0
2008-10-23,11.0
2008-10-24,9.800000190734863
2008-10-27,9.0
2008-10-28,10.0
2008-10-29,9.399999618530273
2008-10-30,9.800000190734863
2008-10-31,9.800000190734863
2008-11-03,10.199999809265137
2008-11-04,10.0
2008-11-05,10.0
2008-11-06,8.800000190734863
2008-11-07,8.600000381469727
2008-11-10,8.600000381469727
2008-11-11,8.0
2008-11-12,7.400000095367432
2008-11-13,7.400000095367432
2008-11-14,7.0
2008-11-17,6.400000095367432
2008-11-18,7.800000190734863
2008-11-19,6.400000095367432
2008-11-20,6.0
2008-11-21,6.199999809265137
2008-11-24,7.400000095367432
2008-11-25,8.199999809265137
2008-11-26,9.399999618530273
2008-11-28,10.399999618530273
2008-12-01,7.800000190734863
2008-12-02,9.399999618530273
2008-12-03,9.399999618530273
2008-12-04,9.199999809265137
2008-12-05,8.0
2008-12-08,9.0
2008-12-09,8.600000381469727
2008-12-10,9.399999618530273
2008-12-11,9.399999618530273
2008-12-12,9.199999809265137
2008-12-15,9.399999618530273
2008-12-16,9.600000381469727
2008-12-17,10.199999809265137
2008-12-18,9.399999618530273
2008-12-19,7.0
2008-12-22,7.800000190734863
2008-12-23,7.199999809265137
2008-12-24,7.0
2008-12-26,6.599999904632568
2008-12-29,6.599999904632568
2008-12-30,6.599999904632568
2008-12-31,6.199999809265137
2009-01-02,6.800000190734863
2009-01-05,7.0
2009-01-06,7.0
2009-01-07,7.0
2009-01-08,7.0
2009-01-09,6.800000190734863
2009-01-12,6.599999904632568
2009-01-13,7.400000095367432
2009-01-14,7.0
2009-01-15,6.599999904632568
2009-01-16,8.600000381469727
2009-01-20,6.599999904632568
2009-01-21,6.199999809265137
2009-01-22,6.0
2009-01-23,6.199999809265137
2009-01-26,6.199999809265137
2009-01-27,6.0
2009-01-28,6.0
2009-01-29,5.400000095367432
2009-01-30,5.599999904632568
2009-02-02,5.199999809265137
2009-02-03,5.400000095367432
2009-02-04,5.0
2009-02-05,5.199999809265137
2009-02-06,6.0
2009-02-09,5.599999904632568
2009-02-10,5.599999904632568
2009-02-11,5.800000190734863
2009-02-12,5.800000190734863
2009-02-13,5.599999904632568
2009-02-17,5.0
2009-02-18,4.800000190734863
2009-02-19,5.199999809265137
2009-02-20,4.599999904632568
2009-02-23,4.0
2009-02-24,5.199999809265137
2009-02-25,5.0
2009-02-26,4.599999904632568
2009-02-27,5.599999904632568
2009-03-02,4.599999904632568
2009-03-03,4.800000190734863
2009-03-04,5.199999809265137
2009-03-05,4.199999809265137
2009-03-06,4.400000095367432
2009-03-09,4.199999809265137
2009-03-10,5.0
2009-03-11,4.400000095367432
2009-03-12,5.0
2009-03-13,4.800000190734863
2009-03-16,5.400000095367432
2009-03-17,5.400000095367432
2009-03-18,6.0
2009-03-19,7.0
2009-03-20,7.599999904632568
2009-03-23,8.399999618530273
2009-03-24,8.0
2009-03-25,8.600000381469727
2009-03-26,8.600000381469727
2009-03-27,8.199999809265137
2009-03-30,7.0
2009-03-31,7.199999809265137
2009-04-01,7.800000190734863
2009-04-02,9.0
2009-04-03,9.199999809265137
2009-04-06,8.600000381469727
2009-04-07,8.0
2009-04-08,8.399999618530273
2009-04-09,8.800000190734863
2009-04-13,8.399999618530273
2009-04-14,8.199999809265137
2009-04-15,8.199999809265137
2009-04-16,9.399999618530273
2009-04-17,13.199999809265137
2009-04-20,12.199999809265137
2009-04-21,12.199999809265137
2009-04-22,12.399999618530273
2009-04-23,13.399999618530273
2009-04-24,17.600000381469727
2009-04-27,19.0
2009-04-28,17.0
2009-04-29,17.200000762939453
2009-04-30,18.0
2009-05-01,18.399999618530273
2009-05-04,19.0
2009-05-05,18.600000381469727
2009-05-06,18.799999237060547
2009-05-07,17.600000381469727
2009-05-08,18.0
2009-05-11,21.200000762939453
2009-05-12,23.0
2009-05-13,21.799999237060547
2009-05-14,20.0
2009-05-15,20.799999237060547
2009-05-18,20.799999237060547
2009-05-19,20.799999237060547
2009-05-20,21.0
2009-05-21,20.600000381469727
2009-05-22,20.0
2009-05-26,20.600000381469727
2009-05-27,21.399999618530273
2009-05-28,24.399999618530273
2009-05-29,23.200000762939453
2009-06-01,26.0
2009-06-02,28.600000381469727
2009-06-03,27.799999237060547
2009-06-04,33.20000076293945
2009-06-05,34.79999923706055
2009-06-08,32.79999923706055
2009-06-09,32.0
2009-06-10,30.399999618530273
2009-06-11,31.399999618530273
2009-06-12,30.799999237060547
2009-06-15,28.799999237060547
2009-06-16,29.0
2009-06-17,26.799999237060547
2009-06-18,24.799999237060547
2009-06-19,25.799999237060547
2009-06-22,25.200000762939453
2009-06-23,25.200000762939453
2009-06-24,24.399999618530273
2009-06-25,24.799999237060547
2009-06-26,24.799999237060547
2009-06-29,29.0
2009-06-30,30.200000762939453
2009-07-01,30.799999237060547
2009-07-02,27.0
2009-07-06,26.799999237060547
2009-07-07,26.0
2009-07-08,26.200000762939453
2009-07-09,26.200000762939453
2009-07-10,25.200000762939453
2009-07-13,26.799999237060547
2009-07-14,26.0
2009-07-15,26.600000381469727
2009-07-16,26.799999237060547
2009-07-17,25.399999618530273
2009-07-20,25.600000381469727
2009-07-21,26.0
2009-07-22,26.399999618530273
2009-07-23,27.200000762939453
2009-07-24,26.799999237060547
2009-07-27,28.799999237060547
2009-07-28,28.399999618530273
2009-07-29,27.799999237060547
2009-07-30,31.0
2009-07-31,29.200000762939453
2009-08-03,34.0
2009-08-04,33.0
2009-08-05,32.20000076293945
2009-08-06,31.200000762939453
2009-08-07,33.0
2009-08-10,33.0
2009-08-11,31.399999618530273
2009-08-12,32.0
2009-08-13,33.20000076293945
2009-08-14,34.0
2009-08-17,31.399999618530273
2009-08-18,32.20000076293945
2009-08-19,32.20000076293945
2009-08-20,31.600000381469727
2009-08-21,32.0
2009-08-24,31.200000762939453
2009-08-25,31.399999618530273
2009-08-26,31.600000381469727
2009-08-27,32.0
2009-08-28,31.399999618530273
2009-08-31,30.799999237060547
2009-09-01,30.399999618530273
2009-09-02,30.799999237060547
2009-09-03,31.399999618530273
2009-09-04,30.399999618530273
2009-09-08,29.799999237060547
2009-09-09,33.0
2009-09-10,34.20000076293945
2009-09-11,34.0
2009-09-14,34.79999923706055
2009-09-15,36.400001525878906
2009-09-16,41.599998474121094
2009-09-17,44.79999923706055
2009-09-18,43.400001525878906
2009-09-21,41.599998474121094
2009-09-22,39.79999923706055
2009-09-23,39.0
2009-09-24,34.20000076293945
2009-09-25,31.399999618530273
2009-09-28,31.600000381469727
2009-09-29,32.599998474121094
2009-09-30,32.79999923706055
2009-10-01,30.200000762939453
2009-10-02,28.200000762939453
2009-10-05,29.600000381469727
2009-10-06,30.0
2009-10-07,30.0
2009-10-08,32.0
2009-10-09,31.200000762939453
2009-10-12,30.200000762939453
2009-10-13,31.0
2009-10-14,31.600000381469727
2009-10-15,31.799999237060547
2009-10-16,31.600000381469727
2009-10-19,31.0
2009-10-20,29.799999237060547
2009-10-21,28.600000381469727
2009-10-22,28.0
2009-10-23,26.200000762939453
2009-10-26,26.0
2009-10-27,26.600000381469727
2009-10-28,25.200000762939453
2009-10-29,26.600000381469727
2009-10-30,25.799999237060547
2009-11-02,25.399999618530273
2009-11-03,25.600000381469727
2009-11-04,26.399999618530273
2009-11-05,26.399999618530273
2009-11-06,27.0
2009-11-09,27.600000381469727
2009-11-10,27.200000762939453
2009-11-11,26.399999618530273
2009-11-12,25.600000381469727
2009-11-13,25.799999237060547
2009-11-16,26.399999618530273
2009-11-17,26.600000381469727
2009-11-18,26.600000381469727
2009-11-19,26.799999237060547
2009-11-20,25.600000381469727
2009-11-23,25.600000381469727
2009-11-24,26.399999618530273
2009-11-25,26.0
2009-11-27,25.399999618530273
2009-11-30,25.600000381469727
2009-12-01,25.399999618530273
2009-12-02,25.399999618530273
2009-12-03,26.0
2009-12-04,26.200000762939453
2009-12-07,25.600000381469727
2009-12-08,25.600000381469727
2009-12-09,25.200000762939453
2009-12-10,26.200000762939453
2009-12-11,25.799999237060547
2009-12-14,25.799999237060547
2009-12-15,26.799999237060547
2009-12-16,26.600000381469727
2009-12-17,30.0
2009-12-18,30.799999237060547
2009-12-21,30.600000381469727
2009-12-22,30.799999237060547
2009-12-23,29.600000381469727
2009-12-24,29.0
2009-12-28,28.399999618530273
2009-12-29,30.200000762939453
2009-12-30,29.600000381469727
2009-12-31,30.200000762939453
2010-01-04,29.799999237060547
2010-01-05,31.399999618530273
2010-01-06,33.20000076293945
2010-01-07,32.599998474121094
2010-01-08,32.599998474121094
2010-01-11,32.0
2010-01-12,30.600000381469727
2010-01-13,30.200000762939453
2010-01-14,30.399999618530273
2010-01-15,30.799999237060547
2010-01-19,30.200000762939453
2010-01-20,30.0
2010-01-21,30.399999618530273
2010-01-22,29.200000762939453
2010-01-25,28.399999618530273
2010-01-26,28.0
2010-01-27,27.600000381469727
2010-01-28,27.0
2010-01-29,27.200000762939453
2010-02-01,27.0
2010-02-02,27.0
2010-02-03,27.0
2010-02-04,26.600000381469727
2010-02-05,26.200000762939453
2010-02-08,25.799999237060547
2010-02-09,26.200000762939453
2010-02-10,26.600000381469727
2010-02-11,26.0
2010-02-12,26.600000381469727
2010-02-16,26.200000762939453
2010-02-17,27.799999237060547
2010-02-18,30.799999237060547
2010-02-19,30.600000381469727
2010-02-22,30.600000381469727
2010-02-23,30.200000762939453
2010-02-24,30.0
2010-02-25,30.200000762939453
2010-02-26,30.399999618530273
2010-03-01,30.200000762939453
2010-03-02,31.200000762939453
2010-03-03,30.600000381469727
2010-03-04,30.200000762939453
2010-03-05,30.200000762939453
2010-03-08,30.0
2010-03-09,30.399999618530273
2010-03-10,30.799999237060547
2010-03-11,31.399999618530273
2010-03-12,31.600000381469727
2010-03-15,31.399999618530273
2010-03-16,31.399999618530273
2010-03-17,31.200000762939453
2010-03-18,31.200000762939453
2010-03-19,33.0
2010-03-22,32.79999923706055
2010-03-23,33.20000076293945
2010-03-24,34.400001525878906
2010-03-25,33.0
2010-03-26,33.599998474121094
2010-03-29,34.79999923706055
2010-03-30,33.79999923706055
2010-03-31,30.0
2010-04-01,29.799999237060547
2010-04-05,28.799999237060547
2010-04-06,29.0
2010-04-07,28.399999618530273
2010-04-08,27.0
2010-04-09,27.200000762939453
2010-04-12,27.0
2010-04-13,26.799999237060547
2010-04-14,27.200000762939453
2010-04-15,27.600000381469727
2010-04-16,27.200000762939453
2010-04-19,27.399999618530273
2010-04-20,28.0
2010-04-21,28.399999618530273
2010-04-22,28.600000381469727
2010-04-23,28.399999618530273
2010-04-26,29.0
2010-04-27,28.600000381469727
2010-04-28,28.799999237060547
2010-04-29,29.600000381469727
2010-04-30,29.600000381469727
2010-05-03,29.399999618530273
2010-05-04,28.200000762939453
2010-05-05,28.200000762939453
2010-05-06,26.600000381469727
2010-05-07,25.799999237060547
2010-05-10,26.799999237060547
2010-05-11,27.0
2010-05-12,27.0
2010-05-13,26.0
2010-05-14,25.200000762939453
2010-05-17,24.799999237060547
2010-05-18,24.799999237060547
2010-05-19,24.0
2010-05-20,22.0
2010-05-21,22.600000381469727
2010-05-24,22.200000762939453
2010-05-25,21.600000381469727
2010-05-26,22.600000381469727
2010-05-27,23.799999237060547
2010-05-28,23.0
2010-06-01,23.0
2010-06-02,23.600000381469727
2010-06-03,23.600000381469727
2010-06-04,22.200000762939453
2010-06-07,21.399999618530273
2010-06-08,21.399999618530273
2010-06-09,22.200000762939453
2010-06-10,22.200000762939453
2010-06-11,22.799999237060547
2010-06-14,22.0
2010-06-15,22.600000381469727
2010-06-16,22.200000762939453
2010-06-17,22.0
2010-06-18,22.0
2010-06-21,20.799999237060547
2010-06-22,20.200000762939453
2010-06-23,21.399999618530273
2010-06-24,20.399999618530273
2010-06-25,20.200000762939453
2010-06-28,21.200000762939453
2010-06-29,20.0
2010-06-30,19.600000381469727
2010-07-01,18.600000381469727
2010-07-02,18.399999618530273
2010-07-06,17.600000381469727
2010-07-07,17.799999237060547
2010-07-08,19.0
2010-07-09,19.399999618530273
2010-07-12,19.399999618530273
2010-07-13,19.799999237060547
2010-07-14,19.600000381469727
2010-07-15,19.600000381469727
2010-07-16,19.0
2010-07-19,18.600000381469727
2010-07-20,18.399999618530273
2010-07-21,18.200000762939453
2010-07-22,18.200000762939453
2010-07-23,19.600000381469727
2010-07-26,19.799999237060547
2010-07-27,19.600000381469727
2010-07-28,19.399999618530273
2010-07-29,19.200000762939453
2010-07-30,19.799999237060547
2010-08-02,20.0
2010-08-03,19.399999618530273
2010-08-04,19.0
2010-08-05,19.399999618530273
2010-08-06,19.200000762939453
2010-08-09,21.0
2010-08-10,20.0
2010-08-11,19.600000381469727
2010-08-12,18.600000381469727
2010-08-13,19.0
2010-08-16,18.600000381469727
2010-08-17,18.799999237060547
2010-08-18,19.600000381469727
2010-08-19,19.0
2010-08-20,19.0
2010-08-23,18.399999618530273
2010-08-24,18.200000762939453
2010-08-25,18.200000762939453
2010-08-26,17.799999237060547
2010-08-27,17.799999237060547
2010-08-30,17.399999618530273
2010-08-31,17.399999618530273
2010-09-01,18.0
2010-09-02,18.200000762939453
2010-09-03,18.799999237060547
2010-09-07,18.799999237060547
2010-09-08,19.0
2010-09-09,19.399999618530273
2010-09-10,20.0
2010-09-13,20.799999237060547
2010-09-14,20.200000762939453
2010-09-15,20.399999618530273
2010-09-16,20.0
2010-09-17,20.200000762939453
2010-09-20,20.399999618530273
2010-09-21,20.799999237060547
2010-09-22,22.0
2010-09-23,19.0
2010-09-24,19.0
2010-09-27,18.799999237060547
2010-09-28,18.799999237060547
2010-09-29,18.799999237060547
2010-09-30,18.799999237060547
2010-10-01,18.799999237060547
2010-10-04,18.200000762939453
2010-10-05,18.799999237060547
2010-10-06,18.600000381469727
2010-10-07,18.600000381469727
2010-10-08,19.0
2010-10-11,18.600000381469727
2010-10-12,18.600000381469727
2010-10-13,17.799999237060547
2010-10-14,17.799999237060547
2010-10-15,17.799999237060547
2010-10-18,18.0
2010-10-19,18.0
2010-10-20,18.200000762939453
2010-10-21,19.0
2010-10-22,19.200000762939453
2010-10-25,19.200000762939453
2010-10-26,18.399999618530273
2010-10-27,18.600000381469727
2010-10-28,18.399999618530273
2010-10-29,18.200000762939453
2010-11-01,18.399999618530273
2010-11-02,18.799999237060547
2010-11-03,18.799999237060547
2010-11-04,19.200000762939453
2010-11-05,19.200000762939453
2010-11-08,19.399999618530273
2010-11-09,19.0
2010-11-10,19.200000762939453
2010-11-11,19.200000762939453
2010-11-12,18.600000381469727
2010-11-15,18.399999618530273
2010-11-16,18.200000762939453
2010-11-17,18.200000762939453
2010-11-18,18.399999618530273
2010-11-19,18.200000762939453
2010-11-22,18.600000381469727
2010-11-23,18.600000381469727
2010-11-24,19.0
2010-11-26,18.799999237060547
2010-11-29,18.399999618530273
2010-11-30,18.799999237060547
2010-12-01,18.600000381469727
2010-12-02,19.200000762939453
2010-12-03,18.799999237060547
2010-12-06,18.799999237060547
2010-12-07,18.799999237060547
2010-12-08,18.399999618530273
2010-12-09,18.399999618530273
2010-12-10,18.200000762939453
2010-12-13,18.200000762939453
2010-12-14,18.399999618530273
2010-12-15,18.200000762939453
2010-12-16,18.399999618530273
2010-12-17,18.399999618530273
2010-12-20,18.200000762939453
2010-12-21,18.399999618530273
2010-12-22,18.0
2010-12-23,18.200000762939453
2010-12-27,18.399999618530273
2010-12-28,18.0
2010-12-29,18.0
2010-12-30,17.799999237060547
2010-12-31,17.600000381469727
2011-01-03,18.0
2011-01-04,18.399999618530273
2011-01-05,19.200000762939453
2011-01-06,20.0
2011-01-07,19.399999618530273
2011-01-10,19.399999618530273
2011-01-11,19.399999618530273
2011-01-12,19.799999237060547
2011-01-13,20.200000762939453
2011-01-14,20.799999237060547
2011-01-18,21.200000762939453
2011-01-19,20.600000381469727
2011-01-20,20.200000762939453
2011-01-21,20.0
2011-01-24,20.600000381469727
2011-01-25,21.200000762939453
2011-01-26,22.0
2011-01-27,25.399999618530273
2011-01-28,24.399999618530273
2011-01-31,25.600000381469727
2011-02-01,25.200000762939453
2011-02-02,24.799999237060547
2011-02-03,25.200000762939453
2011-02-04,25.0
2011-02-07,25.0
2011-02-08,25.0
2011-02-09,25.0
2011-02-10,25.799999237060547
2011-02-11,27.600000381469727
2011-02-14,28.200000762939453
2011-02-15,27.0
2011-02-16,27.600000381469727
2011-02-17,27.399999618530273
2011-02-18,27.799999237060547
2011-02-22,27.399999618530273
2011-02-23,26.200000762939453
2011-02-24,24.799999237060547
2011-02-25,25.600000381469727
2011-02-28,26.200000762939453
2011-03-01,25.399999618530273
2011-03-02,25.0
2011-03-03,25.799999237060547
2011-03-04,24.399999618530273
2011-03-07,24.0
2011-03-08,24.200000762939453
2011-03-09,24.399999618530273
2011-03-10,24.200000762939453
2011-03-11,24.200000762939453
2011-03-14,22.200000762939453
2011-03-15,21.200000762939453
2011-03-16,20.799999237060547
2011-03-17,20.399999618530273
2011-03-18,19.600000381469727
2011-03-21,21.399999618530273
2011-03-22,20.600000381469727
2011-03-23,20.600000381469727
2011-03-24,20.799999237060547
2011-03-25,21.0
2011-03-28,20.799999237060547
2011-03-29,21.600000381469727
2011-03-30,21.600000381469727
2011-03-31,21.200000762939453
2011-04-01,21.0
2011-04-04,21.0
2011-04-05,21.399999618530273
2011-04-06,21.200000762939453
2011-04-07,21.600000381469727
2011-04-08,21.0
2011-04-11,20.600000381469727
2011-04-12,21.200000762939453
2011-04-13,20.799999237060547
2011-04-14,20.799999237060547
2011-04-15,20.799999237060547
2011-04-18,20.200000762939453
2011-04-19,20.399999618530273
2011-04-20,20.600000381469727
2011-04-21,20.600000381469727
2011-04-25,20.600000381469727
2011-04-26,22.0
2011-04-27,23.0
2011-04-28,22.399999618530273
2011-04-29,22.200000762939453
2011-05-02,22.200000762939453
2011-05-03,22.600000381469727
2011-05-04,23.200000762939453
2011-05-05,22.799999237060547
2011-05-06,23.0
2011-05-09,23.0
2011-05-10,24.0
2011-05-11,25.0
2011-05-12,25.0
2011-05-13,24.200000762939453
2011-05-16,23.399999618530273
2011-05-17,23.600000381469727
2011-05-18,23.399999618530273
2011-05-19,23.399999618530273
2011-05-20,22.399999618530273
2011-05-23,22.399999618530273
2011-05-24,22.600000381469727
2011-05-25,21.600000381469727
2011-05-26,21.600000381469727
2011-05-27,21.200000762939453
2011-05-31,21.0
2011-06-01,21.200000762939453
2011-06-02,22.0
2011-06-03,21.600000381469727
2011-06-06,21.399999618530273
2011-06-07,21.799999237060547
2011-06-08,21.200000762939453
2011-06-09,21.600000381469727
2011-06-10,20.799999237060547
2011-06-13,20.600000381469727
2011-06-14,21.0
2011-06-15,20.799999237060547
2011-06-16,20.600000381469727
2011-06-17,21.399999618530273
2011-06-20,22.0
2011-06-21,22.200000762939453
2011-06-22,22.0
2011-06-23,23.399999618530273
2011-06-24,24.0
2011-06-27,24.799999237060547
2011-06-28,25.600000381469727
2011-06-29,25.200000762939453
2011-06-30,26.600000381469727
2011-07-01,26.799999237060547
2011-07-05,25.399999618530273
2011-07-06,26.0
2011-07-07,26.600000381469727
2011-07-08,26.0
2011-07-11,25.600000381469727
2011-07-12,25.399999618530273
2011-07-13,25.799999237060547
2011-07-14,25.600000381469727
2011-07-15,25.600000381469727
2011-07-18,24.799999237060547
2011-07-19,27.0
2011-07-20,26.0
2011-07-21,27.0
2011-07-22,26.200000762939453
2011-07-25,25.600000381469727
2011-07-26,25.600000381469727
2011-07-27,24.200000762939453
2011-07-28,25.600000381469727
2011-07-29,26.0
2011-08-01,26.200000762939453
2011-08-02,24.799999237060547
2011-08-03,25.200000762939453
2011-08-04,24.0
2011-08-05,24.0
2011-08-08,20.600000381469727
2011-08-09,22.200000762939453
2011-08-10,21.0
2011-08-11,22.0
2011-08-12,21.399999618530273
2011-08-15,22.0
2011-08-16,21.600000381469727
2011-08-17,21.399999618530273
2011-08-18,20.0
2011-08-19,19.799999237060547
2011-08-22,19.399999618530273
2011-08-23,20.600000381469727
2011-08-24,21.0
2011-08-25,20.200000762939453
2011-08-26,20.600000381469727
2011-08-29,21.399999618530273
2011-08-30,21.399999618530273
2011-08-31,22.0
2011-09-01,21.0
2011-09-02,20.399999618530273
2011-09-06,20.399999618530273
2011-09-07,22.399999618530273
2011-09-08,22.0
2011-09-09,21.399999618530273
2011-09-12,21.799999237060547
2011-09-13,23.0
2011-09-14,22.799999237060547
2011-09-15,22.0
2011-09-16,22.399999618530273
2011-09-19,22.799999237060547
2011-09-20,22.200000762939453
2011-09-21,21.399999618530273
2011-09-22,20.399999618530273
2011-09-23,21.0
2011-09-26,20.799999237060547
2011-09-27,21.399999618530273
2011-09-28,20.0
2011-09-29,20.399999618530273
2011-09-30,19.600000381469727
2011-10-03,18.200000762939453
2011-10-04,19.200000762939453
2011-10-05,19.799999237060547
2011-10-06,20.399999618530273
2011-10-07,18.600000381469727
2011-10-10,19.200000762939453
2011-10-11,19.799999237060547
2011-10-12,20.600000381469727
2011-10-13,20.600000381469727
2011-10-14,21.200000762939453
2011-10-17,20.600000381469727
2011-10-18,21.399999618530273
2011-10-19,20.600000381469727
2011-10-20,21.200000762939453
2011-10-21,21.799999237060547
2011-10-24,21.600000381469727
2011-10-25,20.799999237060547
2011-10-26,21.399999618530273
2011-10-27,23.799999237060547
2011-10-28,23.799999237060547
2011-10-31,23.200000762939453
2011-11-01,22.399999618530273
2011-11-02,22.799999237060547
2011-11-03,22.600000381469727
2011-11-04,22.0
2011-11-07,22.200000762939453
2011-11-08,22.600000381469727
2011-11-09,23.0
2011-11-10,24.0
2011-11-11,26.600000381469727
2011-11-14,25.600000381469727
2011-11-15,25.600000381469727
2011-11-16,23.799999237060547
2011-11-17,23.200000762939453
2011-11-18,23.399999618530273
2011-11-21,22.799999237060547
2011-11-22,23.200000762939453
2011-11-23,22.399999618530273
2011-11-25,22.0
2011-11-28,23.600000381469727
2011-11-29,23.399999618530273
2011-11-30,24.399999618530273
2011-12-01,24.0
2011-12-02,24.0
2011-12-05,24.0
2011-12-06,23.799999237060547
2011-12-07,24.200000762939453
2011-12-08,23.799999237060547
2011-12-09,25.0
2011-12-12,24.600000381469727
2011-12-13,24.0
2011-12-14,22.799999237060547
2011-12-15,23.600000381469727
2011-12-16,24.399999618530273
2011-12-19,23.200000762939453
2011-12-20,24.200000762939453
2011-12-21,24.0
2011-12-22,24.399999618530273
2011-12-23,24.200000762939453
2011-12-27,25.0
2011-12-28,24.0
2011-12-29,24.799999237060547
2011-12-30,25.200000762939453
2012-01-03,25.799999237060547
2012-01-04,25.0
2012-01-05,26.200000762939453
2012-01-06,26.799999237060547
2012-01-09,27.0
2012-01-10,26.200000762939453
2012-01-11,26.799999237060547
2012-01-12,26.399999618530273
2012-01-13,25.799999237060547
2012-01-17,26.600000381469727
2012-01-18,27.600000381469727
2012-01-19,27.399999618530273
2012-01-20,27.600000381469727
2012-01-23,28.0
2012-01-24,27.399999618530273
2012-01-25,27.399999618530273
2012-01-26,28.200000762939453
2012-01-27,28.0
2012-01-30,27.799999237060547
2012-01-31,27.799999237060547
2012-02-01,28.0
2012-02-02,30.0
2012-02-03,30.0
2012-02-06,30.200000762939453
2012-02-07,30.799999237060547
2012-02-08,31.600000381469727
2012-02-09,31.799999237060547
2012-02-10,30.799999237060547
2012-02-13,29.200000762939453
2012-02-14,32.20000076293945
2012-02-15,31.399999618530273
2012-02-16,32.20000076293945
2012-02-17,32.0
2012-02-21,31.399999618530273
2012-02-22,30.799999237060547
2012-02-23,32.20000076293945
2012-02-24,30.799999237060547
2012-02-27,31.399999618530273
2012-02-28,31.600000381469727
2012-02-29,30.799999237060547
2012-03-01,30.600000381469727
2012-03-02,33.400001525878906
2012-03-05,33.20000076293945
2012-03-06,33.20000076293945
2012-03-07,33.79999923706055
2012-03-08,35.400001525878906
2012-03-09,36.79999923706055
2012-03-12,37.20000076293945
2012-03-13,37.599998474121094
2012-03-14,41.0
2012-03-15,39.79999923706055
2012-03-16,40.0
2012-03-19,39.0
2012-03-20,38.20000076293945
2012-03-21,37.20000076293945
2012-03-22,35.599998474121094
2012-03-23,35.79999923706055
2012-03-26,36.599998474121094
2012-03-27,36.20000076293945
2012-03-28,36.20000076293945
2012-03-29,35.400001525878906
2012-03-30,34.79999923706055
2012-04-02,35.599998474121094
2012-04-03,35.0
2012-04-04,34.20000076293945
2012-04-05,34.599998474121094
2012-04-09,33.79999923706055
2012-04-10,33.0
2012-04-11,34.0
2012-04-12,34.400001525878906
2012-04-13,33.20000076293945
2012-04-16,31.0
2012-04-17,31.0
2012-04-18,29.799999237060547
2012-04-19,30.600000381469727
2012-04-20,31.0
2012-04-23,29.600000381469727
2012-04-24,28.200000762939453
2012-04-25,28.600000381469727
2012-04-26,28.799999237060547
2012-04-27,29.600000381469727
2012-04-30,29.0
2012-05-01,28.600000381469727
2012-05-02,28.799999237060547
2012-05-03,30.200000762939453
2012-05-04,29.799999237060547
2012-05-07,29.0
2012-05-08,28.799999237060547
2012-05-09,27.799999237060547
2012-05-10,28.600000381469727
2012-05-11,28.200000762939453
2012-05-14,27.399999618530273
2012-05-15,26.600000381469727
2012-05-16,24.600000381469727
2012-05-17,23.600000381469727
2012-05-18,24.200000762939453
2012-05-21,25.200000762939453
2012-05-22,26.600000381469727
2012-05-23,26.600000381469727
2012-05-24,26.799999237060547
2012-05-25,26.200000762939453
2012-05-29,26.0
2012-05-30,26.200000762939453
2012-05-31,26.0
2012-06-01,24.399999618530273
2012-06-04,25.399999618530273
2012-06-05,25.0
2012-06-06,25.799999237060547
2012-06-07,24.799999237060547
2012-06-08,24.600000381469727
2012-06-11,23.600000381469727
2012-06-12,24.399999618530273
2012-06-13,23.399999618530273
2012-06-14,24.399999618530273
2012-06-15,23.600000381469727
2012-06-18,24.399999618530273
2012-06-19,24.0
2012-06-20,23.399999618530273
2012-06-21,25.0
2012-06-22,26.799999237060547
2012-06-25,26.399999618530273
2012-06-26,26.399999618530273
2012-06-27,27.0
2012-06-28,27.0
2012-06-29,28.0
2012-07-02,29.0
2012-07-03,29.0
2012-07-05,28.0
2012-07-06,28.200000762939453
2012-07-09,27.600000381469727
2012-07-10,28.200000762939453
2012-07-11,27.0
2012-07-12,26.600000381469727
2012-07-13,26.799999237060547
2012-07-16,26.0
2012-07-17,25.200000762939453
2012-07-18,25.600000381469727
2012-07-19,24.0
2012-07-20,24.0
2012-07-23,23.799999237060547
2012-07-24,23.399999618530273
2012-07-25,23.0
2012-07-26,23.600000381469727
2012-07-27,23.399999618530273
2012-07-30,23.200000762939453
2012-07-31,23.200000762939453
2012-08-01,22.399999618530273
2012-08-02,23.0
2012-08-03,23.600000381469727
2012-08-06,23.0
2012-08-07,23.600000381469727
2012-08-08,23.799999237060547
2012-08-09,23.0
2012-08-10,23.600000381469727
2012-08-13,23.799999237060547
2012-08-14,23.399999618530273
2012-08-15,24.0
2012-08-16,24.399999618530273
2012-08-17,25.0
2012-08-20,25.0
2012-08-21,24.200000762939453
2012-08-22,24.399999618530273
2012-08-23,24.200000762939453
2012-08-24,24.600000381469727
2012-08-27,24.600000381469727
2012-08-28,24.600000381469727
2012-08-29,24.399999618530273
2012-08-30,23.799999237060547
2012-08-31,23.799999237060547
2012-09-04,24.200000762939453
2012-09-05,24.399999618530273
2012-09-06,25.200000762939453
2012-09-07,25.399999618530273
2012-09-10,25.399999618530273
2012-09-11,25.600000381469727
2012-09-12,25.799999237060547
2012-09-13,26.0
2012-09-14,26.600000381469727
2012-09-17,26.399999618530273
2012-09-18,26.0
2012-09-19,26.200000762939453
2012-09-20,25.399999618530273
2012-09-21,25.600000381469727
2012-09-24,25.399999618530273
2012-09-25,24.600000381469727
2012-09-26,24.200000762939453
2012-09-27,24.0
2012-09-28,23.399999618530273
2012-10-01,23.200000762939453
2012-10-02,23.0
2012-10-03,23.200000762939453
2012-10-04,24.0
2012-10-05,24.0
2012-10-08,23.600000381469727
2012-10-09,23.200000762939453
2012-10-10,22.799999237060547
2012-10-11,23.600000381469727
2012-10-12,23.200000762939453
2012-10-15,23.0
2012-10-16,23.399999618530273
2012-10-17,23.600000381469727
2012-10-18,23.399999618530273
2012-10-19,23.0
2012-10-22,23.0
2012-10-23,22.600000381469727
2012-10-24,22.600000381469727
2012-10-25,22.399999618530273
2012-10-26,22.0
2012-10-31,23.200000762939453
2012-11-01,22.200000762939453
2012-11-02,22.600000381469727
2012-11-05,22.399999618530273
2012-11-06,22.399999618530273
2012-11-07,21.799999237060547
2012-11-08,21.799999237060547
2012-11-09,21.0
2012-11-12,21.799999237060547
2012-11-13,21.399999618530273
2012-11-14,20.200000762939453
2012-11-15,20.399999618530273
2012-11-16,20.200000762939453
2012-11-19,21.0
2012-11-20,20.399999618530273
2012-11-21,20.799999237060547
2012-11-23,21.0
2012-11-26,20.200000762939453
2012-11-27,20.0
2012-11-28,20.0
2012-11-29,20.200000762939453
2012-11-30,20.200000762939453
2012-12-03,20.200000762939453
2012-12-04,19.799999237060547
2012-12-05,19.799999237060547
2012-12-06,19.399999618530273
2012-12-07,20.799999237060547
2012-12-10,20.600000381469727
2012-12-11,20.799999237060547
2012-12-12,21.200000762939453
2012-12-13,20.799999237060547
2012-12-14,20.600000381469727
2012-12-17,21.0
2012-12-18,21.200000762939453
2012-12-19,20.799999237060547
2012-12-20,24.200000762939453
2012-12-21,24.600000381469727
2012-12-24,26.200000762939453
2012-12-26,28.200000762939453
2012-12-27,28.799999237060547
2012-12-28,27.799999237060547
2012-12-31,27.200000762939453
2013-01-02,28.0
2013-01-03,27.600000381469727
2013-01-04,27.200000762939453
2013-01-07,25.799999237060547
2013-01-08,26.600000381469727
2013-01-09,27.399999618530273
2013-01-10,27.799999237060547
2013-01-11,28.799999237060547
2013-01-14,29.0
2013-01-15,30.200000762939453
2013-01-16,31.200000762939453
2013-01-17,31.399999618530273
2013-01-18,32.0
2013-01-22,31.600000381469727
2013-01-23,31.200000762939453
2013-01-24,30.600000381469727
2013-01-25,31.200000762939453
2013-01-28,31.399999618530273
2013-01-29,31.600000381469727
2013-01-30,31.200000762939453
2013-01-31,32.0
2013-02-01,34.0
2013-02-04,33.0
2013-02-05,34.0
2013-02-06,33.599998474121094
2013-02-07,33.599998474121094
2013-02-08,33.20000076293945
2013-02-11,33.400001525878906
2013-02-12,33.599998474121094
2013-02-13,32.79999923706055
2013-02-14,32.20000076293945
2013-02-15,31.399999618530273
2013-02-19,33.79999923706055
2013-02-20,33.0
2013-02-21,32.20000076293945
2013-02-22,32.599998474121094
2013-02-25,31.399999618530273
2013-02-26,32.0
2013-02-27,32.400001525878906
2013-02-28,32.79999923706055
2013-03-01,33.599998474121094
2013-03-04,33.599998474121094
2013-03-05,34.0
2013-03-06,34.20000076293945
2013-03-07,33.400001525878906
2013-03-08,33.0
2013-03-11,33.400001525878906
2013-03-12,33.599998474121094
2013-03-13,35.0
2013-03-14,37.20000076293945
2013-03-15,38.400001525878906
2013-03-18,37.20000076293945
2013-03-19,37.20000076293945
2013-03-20,38.79999923706055
2013-03-21,38.400001525878906
2013-03-22,38.20000076293945
2013-03-25,38.0
2013-03-26,38.79999923706055
2013-03-27,38.0
2013-03-28,38.0
2013-04-01,37.79999923706055
2013-04-02,36.400001525878906
2013-04-03,35.0
2013-04-04,34.400001525878906
2013-04-05,34.20000076293945
2013-04-08,36.0
2013-04-09,35.599998474121094
2013-04-10,35.79999923706055
2013-04-11,42.400001525878906
2013-04-12,46.20000076293945
2013-04-15,44.599998474121094
2013-04-16,45.0
2013-04-17,45.0
2013-04-18,47.79999923706055
2013-04-19,49.20000076293945
2013-04-22,49.0
2013-04-23,49.79999923706055
2013-04-24,51.599998474121094
2013-04-25,51.20000076293945
2013-04-26,50.79999923706055
2013-04-29,52.20000076293945
2013-04-30,53.0
2013-05-01,51.599998474121094
2013-05-02,51.79999923706055
2013-05-03,51.400001525878906
2013-05-06,51.79999923706055
2013-05-07,50.400001525878906
2013-05-08,51.20000076293945
2013-05-09,50.599998474121094
2013-05-10,51.20000076293945
2013-05-13,51.0
2013-05-14,50.599998474121094
2013-05-15,51.0
2013-05-16,52.0
2013-05-17,55.79999923706055
2013-05-20,56.0
2013-05-21,57.79999923706055
2013-05-22,56.400001525878906
2013-05-23,58.400001525878906
2013-05-24,58.20000076293945
2013-05-28,59.0
2013-05-29,59.400001525878906
2013-05-30,58.599998474121094
2013-05-31,58.79999923706055
2013-06-03,58.79999923706055
2013-06-04,57.599998474121094
2013-06-05,57.20000076293945
2013-06-06,58.0
2013-06-07,60.599998474121094
2013-06-10,61.79999923706055
2013-06-11,60.0
2013-06-12,60.400001525878906
2013-06-13,63.0
2013-06-14,61.79999923706055
2013-06-17,62.79999923706055
2013-06-18,62.599998474121094
2013-06-19,62.20000076293945
2013-06-20,57.599998474121094
2013-06-21,57.20000076293945
2013-06-24,55.20000076293945
2013-06-25,56.20000076293945
2013-06-26,55.20000076293945
2013-06-27,56.400001525878906
2013-06-28,57.20000076293945
2013-07-01,55.79999923706055
2013-07-02,54.79999923706055
2013-07-03,55.20000076293945
2013-07-05,55.400001525878906
2013-07-08,56.20000076293945
2013-07-09,55.599998474121094
2013-07-10,55.20000076293945
2013-07-11,55.79999923706055
2013-07-12,56.0
2013-07-15,56.599998474121094
2013-07-16,61.20000076293945
2013-07-17,60.20000076293945
2013-07-18,60.0
2013-07-19,60.20000076293945
2013-07-22,59.599998474121094
2013-07-23,57.400001525878906
2013-07-24,58.0
2013-07-25,58.0
2013-07-26,59.599998474121094
2013-07-29,58.79999923706055
2013-07-30,59.79999923706055
2013-07-31,60.0
2013-08-01,62.599998474121094
2013-08-02,65.4000015258789
2013-08-05,64.19999694824219
2013-08-06,63.400001525878906
2013-08-07,62.20000076293945
2013-08-08,62.79999923706055
2013-08-09,63.0
2013-08-12,65.5999984741211
2013-08-13,68.19999694824219
2013-08-14,69.4000015258789
2013-08-15,69.5999984741211
2013-08-16,70.4000015258789
2013-08-19,68.0
2013-08-20,69.5999984741211
2013-08-21,68.80000305175781
2013-08-22,68.80000305175781
2013-08-23,68.5999984741211
2013-08-26,69.5999984741211
2013-08-27,67.80000305175781
2013-08-28,67.0
2013-08-29,68.0
2013-08-30,69.19999694824219
2013-09-03,70.80000305175781
2013-09-04,69.19999694824219
2013-09-05,70.19999694824219
2013-09-06,69.80000305175781
2013-09-09,71.5999984741211
2013-09-10,73.5999984741211
2013-09-11,73.19999694824219
2013-09-12,72.19999694824219
2013-09-13,71.5999984741211
2013-09-16,72.0
2013-09-17,74.0
2013-09-18,74.19999694824219
2013-09-19,91.5999984741211
2013-09-20,93.4000015258789
2013-09-23,96.5999984741211
2013-09-24,98.80000305175781
2013-09-25,97.80000305175781
2013-09-26,95.5999984741211
2013-09-27,94.0
2013-09-30,95.19999694824219
2013-10-01,98.80000305175781
2013-10-02,100.19999694824219
2013-10-03,101.5999984741211
2013-10-04,103.80000305175781
2013-10-07,104.0
2013-10-08,100.0
2013-10-09,96.5999984741211
2013-10-10,100.0
2013-10-11,99.80000305175781
2013-10-14,101.4000015258789
2013-10-15,102.19999694824219
2013-10-16,102.80000305175781
2013-10-17,107.0
2013-10-18,106.0
2013-10-21,105.0
2013-10-22,103.19999694824219
2013-10-23,102.4000015258789
2013-10-24,104.4000015258789
2013-10-25,102.4000015258789
2013-10-28,100.5999984741211
2013-10-29,103.5999984741211
2013-10-30,104.19999694824219
2013-10-31,106.5999984741211
2013-11-01,105.4000015258789
2013-11-04,107.4000015258789
2013-11-05,106.19999694824219
2013-11-06,103.0
2013-11-07,102.5999984741211
2013-11-08,105.0
2013-11-11,104.4000015258789
2013-11-12,104.4000015258789
2013-11-13,105.19999694824219
2013-11-14,104.4000015258789
2013-11-15,105.19999694824219
2013-11-18,103.5999984741211
2013-11-19,101.4000015258789
2013-11-20,102.0
2013-11-21,105.5999984741211
2013-11-22,108.0
2013-11-25,111.0
2013-11-26,115.19999694824219
2013-11-27,116.5999984741211
2013-11-29,118.4000015258789
2013-12-02,120.5999984741211
2013-12-03,122.19999694824219
2013-12-04,120.0
2013-12-05,112.4000015258789
2013-12-06,115.0
2013-12-09,113.80000305175781
2013-12-10,114.0
2013-12-11,111.0
2013-12-12,111.80000305175781
2013-12-13,111.19999694824219
2013-12-16,116.0
2013-12-17,113.5999984741211
2013-12-18,115.19999694824219
2013-12-19,103.4000015258789
2013-12-20,99.80000305175781
2013-12-23,104.80000305175781
2013-12-24,103.5999984741211
2013-12-26,103.4000015258789
2013-12-27,101.80000305175781
2013-12-30,101.0
2013-12-31,101.19999694824219
2014-01-02,100.80000305175781
2014-01-03,109.4000015258789
2014-01-06,107.4000015258789
2014-01-07,106.19999694824219
2014-01-08,113.0
2014-01-09,113.5999984741211
2014-01-10,112.0
2014-01-13,111.19999694824219
2014-01-14,112.80000305175781
2014-01-15,110.0
2014-01-16,111.80000305175781
2014-01-17,117.0
2014-01-21,115.4000015258789
2014-01-22,116.4000015258789
2014-01-23,114.4000015258789
2014-01-24,109.4000015258789
2014-01-27,108.5999984741211
2014-01-28,111.0
2014-01-29,107.19999694824219
2014-01-30,113.4000015258789
2014-01-31,111.0
2014-02-03,106.5999984741211
2014-02-04,106.80000305175781
2014-02-05,109.0
2014-02-06,112.0
2014-02-07,114.0
2014-02-10,112.80000305175781
2014-02-11,115.0
2014-02-12,116.19999694824219
2014-02-13,119.19999694824219
2014-02-14,118.4000015258789
2014-02-18,125.4000015258789
2014-02-19,128.1999969482422
2014-02-20,130.60000610351562
2014-02-21,133.39999389648438
2014-02-24,130.60000610351562
2014-02-25,134.0
2014-02-26,132.60000610351562
2014-02-27,134.8000030517578
2014-02-28,131.8000030517578
2014-03-03,131.60000610351562
2014-03-04,135.39999389648438
2014-03-05,134.60000610351562
2014-03-06,132.8000030517578
2014-03-07,131.1999969482422
2014-03-10,128.60000610351562
2014-03-11,128.8000030517578
2014-03-12,138.39999389648438
2014-03-13,135.39999389648438
2014-03-14,136.1999969482422
2014-03-17,137.39999389648438
2014-03-18,137.60000610351562
2014-03-19,136.60000610351562
2014-03-20,137.39999389648438
2014-03-21,132.8000030517578
2014-03-24,130.39999389648438
2014-03-25,133.39999389648438
2014-03-26,130.0
2014-03-27,127.5999984741211
2014-03-28,128.60000610351562
2014-03-31,125.4000015258789
2014-04-01,127.80000305175781
2014-04-02,127.19999694824219
2014-04-03,129.8000030517578
2014-04-04,124.0
2014-04-07,121.0
2014-04-08,122.19999694824219
2014-04-09,128.0
2014-04-10,138.8000030517578
2014-04-11,140.8000030517578
2014-04-14,142.0
2014-04-15,141.1999969482422
2014-04-16,142.39999389648438
2014-04-17,143.1999969482422
2014-04-21,140.8000030517578
2014-04-22,145.0
2014-04-23,142.60000610351562
2014-04-24,142.39999389648438
2014-04-25,139.8000030517578
2014-04-28,139.0
2014-04-29,141.8000030517578
2014-04-30,146.0
2014-05-01,154.0
2014-05-02,157.39999389648438
2014-05-05,157.1999969482422
2014-05-06,155.39999389648438
2014-05-07,154.1999969482422
2014-05-08,151.39999389648438
2014-05-09,152.39999389648438
2014-05-12,157.39999389648438
2014-05-13,156.39999389648438
2014-05-14,155.39999389648438
2014-05-15,154.0
2014-05-16,151.60000610351562
2014-05-19,156.0
2014-05-20,154.39999389648438
2014-05-21,156.39999389648438
2014-05-22,155.1999969482422
2014-05-23,162.39999389648438
2014-05-27,165.39999389648438
2014-05-28,166.1999969482422
2014-05-29,167.60000610351562
2014-05-30,167.1999969482422
2014-06-02,166.0
2014-06-03,165.39999389648438
2014-06-04,170.0
2014-06-05,157.39999389648438
2014-06-06,154.39999389648438
2014-06-09,147.60000610351562
2014-06-10,145.60000610351562
2014-06-11,151.1999969482422
2014-06-12,146.8000030517578
2014-06-13,144.1999969482422
2014-06-16,139.8000030517578
2014-06-17,143.1999969482422
2014-06-18,148.8000030517578
2014-06-19,143.60000610351562
2014-06-20,142.8000030517578
2014-06-23,141.60000610351562
2014-06-24,140.60000610351562
2014-06-25,144.1999969482422
2014-06-26,145.8000030517578
2014-06-27,143.60000610351562
2014-06-30,143.39999389648438
2014-07-01,142.1999969482422
2014-07-02,143.39999389648438
2014-07-03,151.39999389648438
2014-07-07,149.60000610351562
2014-07-08,145.39999389648438
2014-07-09,146.39999389648438
2014-07-10,147.60000610351562
2014-07-11,146.0
2014-07-14,143.8000030517578
2014-07-15,141.60000610351562
2014-07-16,141.8000030517578
2014-07-17,139.60000610351562
2014-07-18,141.60000610351562
2014-07-21,141.8000030517578
2014-07-22,145.60000610351562
2014-07-23,145.8000030517578
2014-07-24,147.60000610351562
2014-07-25,141.0
2014-07-28,133.8000030517578
2014-07-29,131.1999969482422
2014-07-30,133.60000610351562
2014-07-31,133.8000030517578
2014-08-01,135.1999969482422
2014-08-04,132.60000610351562
2014-08-05,131.0
2014-08-06,119.5999984741211
2014-08-07,119.80000305175781
2014-08-08,121.5999984741211
2014-08-11,123.5999984741211
2014-08-12,124.19999694824219
2014-08-13,125.0
2014-08-14,124.4000015258789
2014-08-15,126.5999984741211
2014-08-18,126.0
2014-08-19,129.1999969482422
2014-08-20,128.60000610351562
2014-08-21,128.0
2014-08-22,128.0
2014-08-25,129.39999389648438
2014-08-26,128.60000610351562
2014-08-27,126.80000305175781
2014-08-28,126.4000015258789
2014-08-29,124.4000015258789
2014-09-02,127.4000015258789
2014-09-03,124.4000015258789
2014-09-04,123.0
2014-09-05,129.8000030517578
2014-09-08,129.1999969482422
2014-09-09,126.0
2014-09-10,129.1999969482422
2014-09-11,131.0
2014-09-12,131.0
2014-09-15,128.39999389648438
2014-09-16,128.1999969482422
2014-09-17,132.8000030517578
2014-09-18,108.19999694824219
2014-09-19,107.0
2014-09-22,102.19999694824219
2014-09-23,106.19999694824219
2014-09-24,102.80000305175781
2014-09-25,102.0
2014-09-26,104.4000015258789
2014-09-29,99.0
2014-09-30,96.80000305175781
2014-10-01,96.19999694824219
2014-10-02,99.80000305175781
2014-10-03,100.5999984741211
2014-10-06,101.80000305175781
2014-10-07,100.0
2014-10-08,100.19999694824219
2014-10-09,98.80000305175781
2014-10-10,97.0
2014-10-13,90.19999694824219
2014-10-14,95.19999694824219
2014-10-15,93.4000015258789
2014-10-16,92.19999694824219
2014-10-17,93.5999984741211
2014-10-20,95.19999694824219
2014-10-21,96.80000305175781
2014-10-22,97.5999984741211
2014-10-23,97.19999694824219
2014-10-24,95.19999694824219
2014-10-27,96.0
2014-10-28,101.19999694824219
2014-10-29,105.0
2014-10-30,103.5999984741211
2014-10-31,105.0
2014-11-03,107.4000015258789
2014-11-04,105.19999694824219
2014-11-05,103.80000305175781
2014-11-06,107.0
2014-11-07,108.19999694824219
2014-11-10,109.19999694824219
2014-11-11,110.4000015258789
2014-11-12,110.5999984741211
2014-11-13,107.80000305175781
2014-11-14,110.5999984741211
2014-11-17,109.19999694824219
2014-11-18,112.5999984741211
2014-11-19,110.4000015258789
2014-11-20,110.4000015258789
2014-11-21,111.0
2014-11-24,112.5999984741211
2014-11-25,111.80000305175781
2014-11-26,112.0
2014-11-28,109.5999984741211
2014-12-01,107.80000305175781
2014-12-02,108.80000305175781
2014-12-03,109.19999694824219
2014-12-04,111.5999984741211
2014-12-05,113.80000305175781
2014-12-08,112.19999694824219
2014-12-09,113.80000305175781
2014-12-10,112.19999694824219
2014-12-11,112.5999984741211
2014-12-12,113.80000305175781
2014-12-15,113.19999694824219
2014-12-16,116.19999694824219
2014-12-17,121.19999694824219
2014-12-18,135.60000610351562
2014-12-19,135.39999389648438
2014-12-22,143.0
2014-12-23,147.0
2014-12-24,145.1999969482422
2014-12-26,148.1999969482422
2014-12-29,151.0
2014-12-30,151.1999969482422
2014-12-31,150.39999389648438
2015-01-02,152.60000610351562
2015-01-05,150.39999389648438
2015-01-06,154.1999969482422
2015-01-07,155.1999969482422
2015-01-08,157.0
2015-01-09,156.60000610351562
2015-01-12,155.8000030517578
2015-01-13,151.39999389648438
2015-01-14,151.0
2015-01-15,146.8000030517578
2015-01-16,148.0
2015-01-20,146.39999389648438
2015-01-21,146.39999389648438
2015-01-22,149.0
2015-01-23,150.1999969482422
2015-01-26,153.0
2015-01-27,151.60000610351562
2015-01-28,148.39999389648438
2015-01-29,145.1999969482422
2015-01-30,139.60000610351562
2015-02-02,141.0
2015-02-03,145.8000030517578
2015-02-04,145.60000610351562
2015-02-05,147.0
2015-02-06,147.0
2015-02-09,147.8000030517578
2015-02-10,151.60000610351562
2015-02-11,161.60000610351562
2015-02-12,161.8000030517578
2015-02-13,166.8000030517578
2015-02-17,164.0
2015-02-18,163.8000030517578
2015-02-19,159.8000030517578
2015-02-20,163.0
2015-02-23,165.1999969482422
2015-02-24,163.8000030517578
2015-02-25,163.0
2015-02-26,163.39999389648438
2015-02-27,159.60000610351562
2015-03-02,163.1999969482422
2015-03-03,162.0
2015-03-04,161.0
2015-03-05,153.60000610351562
2015-03-06,153.0
2015-03-09,150.1999969482422
2015-03-10,147.8000030517578
2015-03-11,146.1999969482422
2015-03-12,150.60000610351562
2015-03-13,149.0
2015-03-16,149.1999969482422
2015-03-17,157.60000610351562
2015-03-18,160.39999389648438
2015-03-19,164.60000610351562
2015-03-20,161.0
2015-03-23,162.8000030517578
2015-03-24,164.1999969482422
2015-03-25,167.1999969482422
2015-03-26,164.0
2015-03-27,171.39999389648438
2015-03-30,175.1999969482422
2015-03-31,173.8000030517578
2015-04-01,171.39999389648438
2015-04-02,175.8000030517578
2015-04-06,176.8000030517578
2015-04-07,173.8000030517578
2015-04-08,177.39999389648438
2015-04-09,169.8000030517578
2015-04-10,167.0
2015-04-13,168.0
2015-04-14,167.1999969482422
2015-04-15,165.60000610351562
2015-04-16,164.1999969482422
2015-04-17,160.0
2015-04-20,158.39999389648438
2015-04-21,158.60000610351562
2015-04-22,166.39999389648438
2015-04-23,165.1999969482422
2015-04-24,165.0
2015-04-27,161.8000030517578
2015-04-28,162.60000610351562
2015-04-29,158.1999969482422
2015-04-30,154.1999969482422
2015-05-01,159.39999389648438
2015-05-04,162.60000610351562
2015-05-05,157.60000610351562
2015-05-06,156.1999969482422
2015-05-07,157.39999389648438
2015-05-08,159.60000610351562
2015-05-11,158.8000030517578
2015-05-12,156.60000610351562
2015-05-13,159.8000030517578
2015-05-14,158.60000610351562
2015-05-15,165.8000030517578
2015-05-18,168.60000610351562
2015-05-19,164.60000610351562
2015-05-20,167.1999969482422
2015-05-21,169.60000610351562
2015-05-22,171.1999969482422
2015-05-26,172.60000610351562
2015-05-27,174.8000030517578
2015-05-28,174.0
2015-05-29,174.39999389648438
2015-06-01,173.1999969482422
2015-06-02,170.1999969482422
2015-06-03,173.39999389648438
2015-06-04,166.8000030517578
2015-06-05,166.1999969482422
2015-06-08,166.60000610351562
2015-06-09,169.0
2015-06-10,172.8000030517578
2015-06-11,179.1999969482422
2015-06-12,179.0
2015-06-15,175.1999969482422
2015-06-16,179.0
2015-06-17,178.39999389648438
2015-06-18,172.0
2015-06-19,174.39999389648438
2015-06-22,173.8000030517578
2015-06-23,177.8000030517578
2015-06-24,173.60000610351562
2015-06-25,172.0
2015-06-26,171.1999969482422
2015-06-29,166.39999389648438
2015-06-30,167.0
2015-07-01,168.1999969482422
2015-07-02,167.8000030517578
2015-07-06,165.8000030517578
2015-07-07,170.60000610351562
2015-07-08,165.39999389648438
2015-07-09,173.60000610351562
2015-07-10,174.1999969482422
2015-07-13,177.8000030517578
2015-07-14,176.39999389648438
2015-07-15,174.60000610351562
2015-07-16,179.0
2015-07-17,178.1999969482422
2015-07-20,176.39999389648438
2015-07-21,173.8000030517578
2015-07-22,176.60000610351562
2015-07-23,175.8000030517578
2015-07-24,174.39999389648438
2015-07-27,171.8000030517578
2015-07-28,175.0
2015-07-29,177.39999389648438
2015-07-30,179.1999969482422
2015-07-31,178.1999969482422
2015-08-03,176.60000610351562
2015-08-04,181.60000610351562
2015-08-05,186.39999389648438
2015-08-06,182.39999389648438
2015-08-07,177.60000610351562
2015-08-10,178.8000030517578
2015-08-11,176.8000030517578
2015-08-12,178.0
2015-08-13,180.8000030517578
2015-08-14,181.60000610351562
2015-08-17,183.1999969482422
2015-08-18,176.39999389648438
2015-08-19,174.39999389648438
2015-08-20,168.1999969482422
2015-08-21,158.8000030517578
2015-08-24,155.8000030517578
2015-08-25,155.0
2015-08-26,159.1999969482422
2015-08-27,164.8000030517578
2015-08-28,164.8000030517578
2015-08-31,165.0
2015-09-01,160.0
2015-09-02,163.1999969482422
2015-09-03,163.8000030517578
2015-09-04,164.0
2015-09-08,165.39999389648438
2015-09-09,163.0
2015-09-10,170.0
2015-09-11,172.1999969482422
2015-09-14,169.1999969482422
2015-09-15,170.8000030517578
2015-09-16,171.8000030517578
2015-09-17,153.1999969482422
2015-09-18,150.1999969482422
2015-09-21,146.60000610351562
2015-09-22,143.39999389648438
2015-09-23,140.0
2015-09-24,136.60000610351562
2015-09-25,136.0
2015-09-28,124.0
2015-09-29,122.0
2015-09-30,121.4000015258789
2015-10-01,123.5999984741211
2015-10-02,125.19999694824219
2015-10-05,127.19999694824219
2015-10-06,121.80000305175781
2015-10-07,123.4000015258789
2015-10-08,125.0
2015-10-09,125.5999984741211
2015-10-12,125.19999694824219
2015-10-13,122.5999984741211
2015-10-14,121.0
2015-10-15,126.19999694824219
2015-10-16,126.4000015258789
2015-10-19,130.0
2015-10-20,126.5999984741211
2015-10-21,124.4000015258789
2015-10-22,122.19999694824219
2015-10-23,123.5999984741211
2015-10-26,121.5999984741211
2015-10-27,173.39999389648438
2015-10-28,161.1999969482422
2015-10-29,157.60000610351562
2015-10-30,157.60000610351562
2015-11-02,158.60000610351562
2015-11-03,157.8000030517578
2015-11-04,158.39999389648438
2015-11-05,156.60000610351562
2015-11-06,156.8000030517578
2015-11-09,156.60000610351562
2015-11-10,156.0
2015-11-11,155.60000610351562
2015-11-12,153.60000610351562
2015-11-13,152.0
2015-11-16,154.8000030517578
2015-11-17,154.39999389648438
2015-11-18,154.39999389648438
2015-11-19,153.39999389648438
2015-11-20,154.1999969482422
2015-11-23,154.1999969482422
2015-11-24,157.60000610351562
2015-11-25,158.1999969482422
2015-11-27,157.1999969482422
2015-11-30,157.60000610351562
2015-12-01,157.8000030517578
2015-12-02,157.8000030517578
2015-12-03,158.1999969482422
2015-12-04,158.0
2015-12-07,158.60000610351562
2015-12-08,159.0
2015-12-09,159.0
2015-12-10,157.60000610351562
2015-12-11,156.0
2015-12-14,155.1999969482422
2015-12-15,156.0
2015-12-16,158.0
2015-12-17,157.60000610351562
2015-12-18,156.8000030517578
2015-12-21,157.39999389648438
2015-12-22,157.0
2015-12-23,157.8000030517578
2015-12-24,157.1999969482422
2015-12-28,156.8000030517578
2015-12-29,157.1999969482422
2015-12-30,156.8000030517578
2015-12-31,156.8000030517578
2016-01-04,158.0
2016-01-05,157.8000030517578
2016-01-06,157.60000610351562
2016-01-07,156.1999969482422
2016-01-08,155.1999969482422
2016-01-11,154.8000030517578
2016-01-12,155.0
2016-01-13,153.60000610351562
2016-01-14,153.60000610351562
2016-01-15,152.8000030517578
2016-01-19,152.8000030517578
2016-01-20,151.60000610351562
2016-01-21,154.1999969482422
2016-01-22,156.0
2016-01-25,154.1999969482422
2016-01-26,155.60000610351562
2016-01-27,154.60000610351562
2016-01-28,153.60000610351562
2016-01-29,155.8000030517578
2016-02-01,158.39999389648438
2016-02-02,157.39999389648438
2016-02-03,157.0
2016-02-04,157.0
2016-02-05,158.1999969482422
2016-02-08,155.0
2016-02-09,155.1999969482422
2016-02-10,155.60000610351562
2016-02-11,155.0
2016-02-12,156.39999389648438
2016-02-16,156.60000610351562
2016-02-17,157.39999389648438
2016-02-18,157.8000030517578
2016-02-19,158.60000610351562
2016-02-22,159.0
2016-02-23,158.8000030517578
2016-02-24,159.0
2016-02-25,159.1999969482422
2016-02-26,159.1999969482422
2016-02-29,159.0
2016-03-01,158.8000030517578
2016-03-02,159.39999389648438
2016-03-03,159.39999389648438
2016-03-04,160.60000610351562
2016-03-07,160.1999969482422
2016-03-08,160.0
2016-03-09,160.39999389648438
2016-03-10,159.8000030517578
2016-03-11,159.39999389648438
2016-03-14,159.39999389648438
2016-03-15,159.1999969482422
2016-03-16,159.60000610351562
2016-03-17,159.8000030517578
2016-03-18,159.39999389648438
2016-03-21,159.8000030517578
2016-03-22,159.60000610351562
2016-03-23,160.0
2016-03-24,161.39999389648438
2016-03-28,162.39999389648438
2016-03-29,162.8000030517578
2016-03-30,162.1999969482422
2016-03-31,163.0
2016-04-01,163.8000030517578
2016-04-04,163.60000610351562
2016-04-05,162.8000030517578
2016-04-06,162.60000610351562
2016-04-07,161.8000030517578
2016-04-08,160.39999389648438
2016-04-11,161.0
2016-04-12,160.8000030517578
2016-04-13,160.1999969482422
2016-04-14,160.0
2016-04-15,159.39999389648438
2016-04-18,160.60000610351562
2016-04-19,160.8000030517578
2016-04-20,161.8000030517578
2016-04-21,160.8000030517578
2016-04-22,160.8000030517578
2016-04-25,161.39999389648438
2016-04-26,161.1999969482422
2016-04-27,161.60000610351562
2016-04-28,160.8000030517578
2016-04-29,161.0
2016-05-02,160.8000030517578
2016-05-03,160.60000610351562
2016-05-04,160.1999969482422
2016-05-05,160.0
2016-05-06,159.0
2016-05-09,161.39999389648438
2016-05-10,162.0
2016-05-11,160.0
2016-05-12,160.1999969482422
2016-05-13,159.0
2016-05-16,159.39999389648438
2016-05-17,157.39999389648438
2016-05-18,157.1999969482422
2016-05-19,154.39999389648438
2016-05-20,153.1999969482422
2016-05-23,153.39999389648438
2016-05-24,152.60000610351562
2016-05-25,153.1999969482422
2016-05-26,156.60000610351562
2016-05-27,155.0
2016-05-31,154.0
2016-06-01,154.8000030517578
2016-06-02,155.39999389648438
2016-06-03,154.39999389648438
2016-06-06,155.39999389648438
2016-06-07,154.1999969482422
2016-06-08,152.1999969482422
2016-06-09,151.39999389648438
2016-06-10,156.60000610351562
2016-06-13,156.8000030517578
2016-06-14,156.60000610351562
2016-06-15,156.39999389648438
2016-06-16,156.1999969482422
2016-06-17,155.60000610351562
2016-06-20,154.8000030517578
2016-06-21,154.8000030517578
2016-06-22,154.60000610351562
2016-06-23,155.39999389648438
2016-06-24,154.1999969482422
2016-06-27,151.0
2016-06-28,152.60000610351562
2016-06-29,153.0
2016-06-30,149.8000030517578
2016-07-01,146.1999969482422
2016-07-05,146.0
2016-07-06,148.1999969482422
2016-07-07,145.8000030517578
2016-07-08,142.0
2016-07-11,137.60000610351562
2016-07-12,137.39999389648438
2016-07-13,137.0
2016-07-14,140.39999389648438
2016-07-15,143.8000030517578
2016-07-18,140.1999969482422
2016-07-19,141.39999389648438
2016-07-20,137.8000030517578
2016-07-21,137.1999969482422
2016-07-22,136.39999389648438
2016-07-25,138.39999389648438
2016-07-26,139.39999389648438
2016-07-27,139.39999389648438
2016-07-28,139.39999389648438
2016-07-29,140.0
2016-08-01,140.39999389648438
2016-08-02,140.1999969482422
2016-08-03,139.60000610351562
2016-08-04,138.39999389648438
2016-08-05,139.60000610351562
2016-08-08,140.39999389648438
2016-08-09,141.1999969482422
2016-08-10,149.60000610351562
2016-08-11,151.1999969482422
2016-08-12,151.0
2016-08-15,152.1999969482422
2016-08-16,154.0
2016-08-17,152.60000610351562
2016-08-18,154.39999389648438
2016-08-19,155.0
2016-08-22,154.60000610351562
2016-08-23,153.0
2016-08-24,149.39999389648438
2016-08-25,149.39999389648438
2016-08-26,148.60000610351562
2016-08-29,148.39999389648438
2016-08-30,149.0
2016-08-31,150.60000610351562
2016-09-01,150.8000030517578
2016-09-02,151.8000030517578
2016-09-06,151.1999969482422
2016-09-07,155.0
2016-09-08,164.1999969482422
2016-09-09,163.0
2016-09-12,162.39999389648438
2016-09-13,162.60000610351562
2016-09-14,161.60000610351562
2016-09-15,161.1999969482422
2016-09-16,160.60000610351562
2016-09-19,160.1999969482422
2016-09-20,160.8000030517578
2016-09-21,162.0
2016-09-22,162.39999389648438
2016-09-23,161.8000030517578
2016-09-26,160.8000030517578
2016-09-27,161.39999389648438
2016-09-28,154.39999389648438
2016-09-29,151.39999389648438
2016-09-30,153.8000030517578
2016-10-03,153.60000610351562
2016-10-04,151.8000030517578
2016-10-05,151.60000610351562
2016-10-06,147.39999389648438
2016-10-07,148.1999969482422
2016-10-10,146.8000030517578
2016-10-11,147.39999389648438
2016-10-12,142.8000030517578
2016-10-13,144.0
2016-10-14,141.1999969482422
2016-10-17,140.8000030517578
2016-10-18,140.39999389648438
2016-10-19,133.1999969482422
2016-10-20,142.1999969482422
2016-10-21,140.8000030517578
2016-10-24,140.60000610351562
2016-10-25,140.1999969482422
2016-10-26,135.8000030517578
2016-10-27,133.8000030517578
2016-10-28,132.60000610351562
2016-10-31,134.1999969482422
2016-11-01,130.1999969482422
2016-11-02,130.1999969482422
2016-11-03,128.60000610351562
2016-11-04,129.0
2016-11-07,130.1999969482422
2016-11-08,137.1999969482422
2016-11-09,133.39999389648438
2016-11-10,140.8000030517578
2016-11-11,145.39999389648438
2016-11-14,145.1999969482422
2016-11-15,149.60000610351562
2016-11-16,156.39999389648438
2016-11-17,152.1999969482422
2016-11-18,153.39999389648438
2016-11-21,154.8000030517578
2016-11-22,153.0
2016-11-23,156.0
2016-11-25,157.0
2016-11-28,155.1999969482422
2016-11-29,161.0
2016-11-30,159.1999969482422
2016-12-01,159.60000610351562
2016-12-02,160.1999969482422
2016-12-05,161.1999969482422
2016-12-06,162.39999389648438
2016-12-07,161.60000610351562
2016-12-08,163.0
2016-12-09,168.8000030517578
2016-12-12,165.60000610351562
2016-12-13,167.39999389648438
2016-12-14,166.8000030517578
2016-12-15,167.60000610351562
2016-12-16,164.60000610351562
2016-12-19,163.39999389648438
2016-12-20,172.1999969482422
2016-12-21,169.39999389648438
2016-12-22,168.8000030517578
2016-12-23,167.8000030517578
2016-12-27,166.39999389648438
2016-12-28,165.0
2016-12-29,165.0
2016-12-30,164.8000030517578
2017-01-03,163.60000610351562
2017-01-04,165.39999389648438
2017-01-05,163.8000030517578
2017-01-06,168.0
2017-01-09,169.0
2017-01-10,166.39999389648438
2017-01-11,172.0
2017-01-12,174.0
2017-01-13,173.1999969482422
2017-01-17,173.39999389648438
2017-01-18,173.0
2017-01-19,172.0
2017-01-20,149.1999969482422
2017-01-23,138.0
2017-01-24,139.0
2017-01-25,138.0
2017-01-26,135.60000610351562
2017-01-27,138.60000610351562
2017-01-30,114.4000015258789
2017-01-31,112.4000015258789
2017-02-01,105.4000015258789
2017-02-02,105.0
2017-02-03,105.4000015258789
2017-02-06,105.80000305175781
2017-02-07,105.80000305175781
2017-02-08,106.5999984741211
2017-02-09,109.5999984741211
2017-02-10,112.19999694824219
2017-02-13,114.0
2017-02-14,114.4000015258789
2017-02-15,115.80000305175781
2017-02-16,117.4000015258789
2017-02-17,118.80000305175781
2017-02-21,119.0
2017-02-22,119.19999694824219
2017-02-23,118.19999694824219
2017-02-24,119.4000015258789
2017-02-27,120.0
2017-02-28,120.0
2017-03-01,118.4000015258789
2017-03-02,115.4000015258789
2017-03-03,109.0
2017-03-06,104.5999984741211
2017-03-07,100.19999694824219
2017-03-08,93.0
2017-03-09,93.19999694824219
2017-03-10,96.5999984741211
2017-03-13,94.5999984741211
2017-03-14,97.4000015258789
2017-03-15,98.4000015258789
2017-03-16,100.80000305175781
2017-03-17,97.0
2017-03-20,94.19999694824219
2017-03-21,89.5999984741211
2017-03-22,89.0
2017-03-23,91.19999694824219
2017-03-24,91.4000015258789
2017-03-27,92.0
2017-03-28,90.5999984741211
2017-03-29,89.5999984741211
2017-03-30,88.4000015258789
2017-03-31,85.0
2017-04-03,83.80000305175781
2017-04-04,84.19999694824219
2017-04-05,85.19999694824219
2017-04-06,91.80000305175781
2017-04-07,92.0
2017-04-10,92.19999694824219
2017-04-11,95.0
2017-04-12,91.4000015258789
2017-04-13,90.80000305175781
2017-04-17,91.4000015258789
2017-04-18,89.4000015258789
2017-04-19,81.5999984741211
2017-04-20,79.4000015258789
2017-04-21,76.0
2017-04-24,74.5999984741211
2017-04-25,79.4000015258789
2017-04-26,80.0
2017-04-27,79.0
2017-04-28,80.0
2017-05-01,84.80000305175781
2017-05-02,82.19999694824219
2017-05-03,81.19999694824219
2017-05-04,79.5999984741211
2017-05-05,82.19999694824219
2017-05-08,81.0
2017-05-09,81.4000015258789
2017-05-10,82.19999694824219
2017-05-11,80.19999694824219
2017-05-12,79.0
2017-05-15,82.19999694824219
2017-05-16,75.5999984741211
2017-05-17,73.4000015258789
2017-05-18,68.5999984741211
2017-05-19,69.19999694824219
2017-05-22,72.0
2017-05-23,70.80000305175781
2017-05-24,73.19999694824219
2017-05-25,74.0
2017-05-26,73.4000015258789
2017-05-30,69.19999694824219
2017-05-31,68.19999694824219
2017-06-01,70.5999984741211
2017-06-02,73.5999984741211
2017-06-05,75.0
2017-06-06,68.19999694824219
2017-06-07,68.19999694824219
2017-06-08,70.5999984741211
2017-06-09,60.0
2017-06-12,60.400001525878906
2017-06-13,62.20000076293945
2017-06-14,61.400001525878906
2017-06-15,59.0
2017-06-16,60.0
2017-06-19,67.19999694824219
2017-06-20,65.4000015258789
2017-06-21,63.79999923706055
2017-06-22,61.599998474121094
2017-06-23,62.20000076293945
2017-06-26,81.0
2017-06-27,74.80000305175781
2017-06-28,78.5999984741211
2017-06-29,57.79999923706055
2017-06-30,59.0
2017-07-03,53.79999923706055
2017-07-05,49.599998474121094
2017-07-06,47.20000076293945
2017-07-07,47.400001525878906
2017-07-10,46.79999923706055
2017-07-11,45.0
2017-07-12,45.0
2017-07-13,44.599998474121094
2017-07-14,46.599998474121094
2017-07-17,46.20000076293945
2017-07-18,51.599998474121094
2017-07-19,52.599998474121094
2017-07-20,50.79999923706055
2017-07-21,49.599998474121094
2017-07-24,49.79999923706055
2017-07-25,48.79999923706055
2017-07-26,47.79999923706055
2017-07-27,46.400001525878906
2017-07-28,45.599998474121094
2017-07-31,44.79999923706055
2017-08-01,47.400001525878906
2017-08-02,48.0
2017-08-03,47.79999923706055
2017-08-04,46.599998474121094
2017-08-07,48.79999923706055
2017-08-08,47.0
2017-08-09,47.0
2017-08-10,45.0
2017-08-11,46.20000076293945
2017-08-14,46.599998474121094
2017-08-15,46.20000076293945
2017-08-16,45.599998474121094
2017-08-17,44.599998474121094
2017-08-18,44.400001525878906
2017-08-21,45.0
2017-08-22,44.79999923706055
2017-08-23,45.0
2017-08-24,45.20000076293945
2017-08-25,45.400001525878906
2017-08-28,45.20000076293945
2017-08-29,46.79999923706055
2017-08-30,47.20000076293945
2017-08-31,48.400001525878906
2017-09-01,48.400001525878906
2017-09-05,48.400001525878906
2017-09-06,48.400001525878906
2017-09-07,50.400001525878906
2017-09-08,50.0
2017-09-11,49.79999923706055
2017-09-12,47.79999923706055
2017-09-13,50.20000076293945
2017-09-14,50.0
2017-09-15,52.599998474121094
2017-09-18,54.599998474121094
2017-09-19,48.0
2017-09-20,48.79999923706055
2017-09-21,48.400001525878906
2017-09-22,47.79999923706055
2017-09-25,47.599998474121094
2017-09-26,45.79999923706055
2017-09-27,45.599998474121094
2017-09-28,40.599998474121094
2017-09-29,39.20000076293945
2017-10-02,41.0
2017-10-03,42.0
2017-10-04,41.79999923706055
2017-10-05,41.599998474121094
2017-10-06,39.20000076293945
2017-10-09,37.79999923706055
2017-10-10,37.20000076293945
2017-10-11,35.599998474121094
2017-10-12,33.0
2017-10-13,34.79999923706055
2017-10-16,37.20000076293945
2017-10-17,36.20000076293945
2017-10-18,37.0
2017-10-19,36.599998474121094
2017-10-20,35.599998474121094
2017-10-23,35.599998474121094
2017-10-24,35.79999923706055
2017-10-25,35.599998474121094
2017-10-26,33.400001525878906
2017-10-27,31.399999618530273
2017-10-30,32.20000076293945
2017-10-31,33.0
2017-11-01,33.599998474121094
2017-11-02,31.799999237060547
2017-11-03,30.799999237060547
2017-11-06,31.600000381469727
2017-11-07,30.600000381469727
2017-11-08,30.399999618530273
2017-11-09,28.600000381469727
2017-11-10,31.399999618530273
2017-11-13,31.799999237060547
2017-11-14,30.0
2017-11-15,29.600000381469727
2017-11-16,30.799999237060547
2017-11-17,31.799999237060547
2017-11-20,31.200000762939453
2017-11-21,32.79999923706055
2017-11-22,33.79999923706055
2017-11-24,32.79999923706055
2017-11-27,32.599998474121094
2017-11-28,37.79999923706055
2017-11-29,43.20000076293945
2017-11-30,40.20000076293945
2017-12-01,38.400001525878906
2017-12-04,37.599998474121094
2017-12-05,35.20000076293945
2017-12-06,35.79999923706055
2017-12-07,35.79999923706055
2017-12-08,38.0
2017-12-11,37.599998474121094
2017-12-12,36.20000076293945
2017-12-13,36.599998474121094
2017-12-14,36.20000076293945
2017-12-15,37.0
2017-12-18,38.400001525878906
2017-12-19,38.599998474121094
2017-12-20,38.599998474121094
2017-12-21,39.79999923706055
2017-12-22,40.20000076293945
2017-12-26,40.400001525878906
2017-12-27,40.20000076293945
2017-12-28,40.0
2017-12-29,39.400001525878906
2018-01-02,42.599998474121094
2018-01-03,42.20000076293945
2018-01-04,41.599998474121094
2018-01-05,40.599998474121094
2018-01-08,39.599998474121094
2018-01-09,41.0
2018-01-10,42.79999923706055
2018-01-11,46.79999923706055
2018-01-12,47.79999923706055
2018-01-16,44.599998474121094
2018-01-17,46.0
2018-01-18,46.20000076293945
2018-01-19,46.20000076293945
2018-01-22,45.79999923706055
2018-01-23,46.400001525878906
2018-01-24,44.400001525878906
2018-01-25,44.599998474121094
2018-01-26,44.599998474121094
2018-01-29,44.599998474121094
2018-01-30,41.599998474121094
2018-01-31,43.599998474121094
2018-02-01,42.599998474121094
2018-02-02,41.20000076293945
2018-02-05,40.0
2018-02-06,41.400001525878906
2018-02-07,41.599998474121094
2018-02-08,40.0
2018-02-09,40.20000076293945
2018-02-12,40.0
2018-02-13,40.79999923706055
2018-02-14,41.0
2018-02-15,41.599998474121094
2018-02-16,42.599998474121094
2018-02-20,44.0
2018-02-21,40.400001525878906
2018-02-22,42.599998474121094
2018-02-23,41.79999923706055
2018-02-26,41.599998474121094
2018-02-27,40.599998474121094
2018-02-28,39.400001525878906
2018-03-01,37.599998474121094
2018-03-02,38.20000076293945
2018-03-05,39.0
2018-03-06,38.0
2018-03-07,36.0
2018-03-08,35.20000076293945
2018-03-09,34.79999923706055
2018-03-12,34.0
2018-03-13,34.20000076293945
2018-03-14,32.599998474121094
2018-03-15,33.400001525878906
2018-03-16,32.20000076293945
2018-03-19,31.600000381469727
2018-03-20,30.399999618530273
2018-03-21,30.799999237060547
2018-03-22,30.799999237060547
2018-03-23,29.799999237060547
2018-03-26,29.799999237060547
2018-03-27,29.600000381469727
2018-03-28,33.400001525878906
2018-03-29,33.599998474121094
2018-04-02,32.599998474121094
2018-04-03,33.0
2018-04-04,32.400001525878906
2018-04-05,33.0
2018-04-06,32.20000076293945
2018-04-09,32.20000076293945
2018-04-10,33.0
2018-04-11,32.79999923706055
2018-04-12,32.599998474121094
2018-04-13,33.599998474121094
2018-04-16,34.20000076293945
2018-04-17,34.20000076293945
2018-04-18,33.0
2018-04-19,32.0
2018-04-20,31.600000381469727
2018-04-23,31.0
2018-04-24,32.400001525878906
2018-04-25,31.799999237060547
2018-04-26,33.400001525878906
2018-04-27,32.400001525878906
2018-04-30,33.400001525878906
2018-05-01,32.79999923706055
2018-05-02,33.0
2018-05-03,32.400001525878906
2018-05-04,32.599998474121094
2018-05-07,33.0
2018-05-08,32.599998474121094
2018-05-09,32.599998474121094
2018-05-10,32.20000076293945
2018-05-11,32.20000076293945
2018-05-14,32.79999923706055
2018-05-15,33.400001525878906
2018-05-16,35.599998474121094
2018-05-17,33.79999923706055
2018-05-18,33.79999923706055
2018-05-21,34.0
2018-05-22,33.20000076293945
2018-05-23,33.599998474121094
2018-05-24,33.20000076293945
2018-05-25,33.20000076293945
2018-05-29,32.79999923706055
2018-05-30,32.79999923706055
2018-05-31,32.0
2018-06-01,31.399999618530273
2018-06-04,31.799999237060547
2018-06-05,33.0
2018-06-06,33.599998474121094
2018-06-07,33.400001525878906
2018-06-08,34.0
2018-06-11,34.79999923706055
2018-06-12,34.400001525878906
2018-06-13,34.0
2018-06-14,35.400001525878906
2018-06-15,35.599998474121094
2018-06-18,38.0
2018-06-19,38.400001525878906
2018-06-20,39.0
2018-06-21,39.400001525878906
2018-06-22,40.400001525878906
2018-06-25,42.20000076293945
2018-06-26,39.20000076293945
2018-06-27,39.599998474121094
2018-06-28,35.20000076293945
2018-06-29,34.599998474121094
2018-07-02,33.599998474121094
2018-07-03,34.0
2018-07-05,33.79999923706055
2018-07-06,34.79999923706055
2018-07-09,33.79999923706055
2018-07-10,34.0
2018-07-11,33.599998474121094
2018-07-12,33.0
2018-07-13,33.0
2018-07-16,32.79999923706055
2018-07-17,33.400001525878906
2018-07-18,35.20000076293945
2018-07-19,36.20000076293945
2018-07-20,36.400001525878906
2018-07-23,36.599998474121094
2018-07-24,36.400001525878906
2018-07-25,37.79999923706055
2018-07-26,38.0
2018-07-27,38.79999923706055
2018-07-30,39.20000076293945
2018-07-31,40.20000076293945
2018-08-01,37.79999923706055
2018-08-02,38.0
2018-08-03,36.79999923706055
2018-08-06,33.20000076293945
2018-08-07,34.400001525878906
2018-08-08,34.79999923706055
2018-08-09,30.799999237060547
2018-08-10,29.600000381469727
2018-08-13,28.0
2018-08-14,26.799999237060547
2018-08-15,27.0
2018-08-16,28.200000762939453
2018-08-17,29.200000762939453
2018-08-20,29.0
2018-08-21,28.799999237060547
2018-08-22,29.799999237060547
2018-08-23,29.399999618530273
2018-08-24,29.399999618530273
2018-08-27,28.799999237060547
2018-08-28,28.799999237060547
2018-08-29,28.200000762939453
2018-08-30,28.0
2018-08-31,27.399999618530273
2018-09-04,27.399999618530273
2018-09-05,27.0
2018-09-06,24.799999237060547
2018-09-07,25.799999237060547
2018-09-10,25.0
2018-09-11,26.799999237060547
2018-09-12,26.600000381469727
2018-09-13,26.0
2018-09-14,25.799999237060547
2018-09-17,26.600000381469727
2018-09-18,26.600000381469727
2018-09-19,26.600000381469727
2018-09-20,26.399999618530273
2018-09-21,25.0
2018-09-24,24.799999237060547
2018-09-25,24.600000381469727
2018-09-26,25.600000381469727
2018-09-27,25.0
2018-09-28,25.600000381469727
2018-10-01,24.200000762939453
2018-10-02,23.0
2018-10-03,23.0
2018-10-04,23.0
2018-10-05,23.0
2018-10-08,22.399999618530273
2018-10-09,22.799999237060547
2018-10-10,22.200000762939453
2018-10-11,20.799999237060547
2018-10-12,21.200000762939453
2018-10-15,21.0
2018-10-16,21.600000381469727
2018-10-17,21.399999618530273
2018-10-18,21.0
2018-10-19,20.200000762939453
2018-10-22,20.600000381469727
2018-10-23,20.799999237060547
2018-10-24,20.200000762939453
2018-10-25,21.0
2018-10-26,21.0
2018-10-29,21.200000762939453
2018-10-30,22.200000762939453
2018-10-31,24.0
2018-11-01,23.200000762939453
2018-11-02,23.799999237060547
2018-11-05,24.600000381469727
2018-11-06,24.799999237060547
2018-11-07,25.200000762939453
2018-11-08,26.399999618530273
2018-11-09,25.799999237060547
2018-11-12,26.0
2018-11-13,26.200000762939453
2018-11-14,26.399999618530273
2018-11-15,24.0
2018-11-16,24.200000762939453
2018-11-19,23.600000381469727
2018-11-20,21.399999618530273
2018-11-21,22.0
2018-11-23,22.0
2018-11-26,22.0
2018-11-27,22.0
2018-11-28,22.600000381469727
2018-11-29,22.600000381469727
2018-11-30,22.200000762939453
2018-12-03,22.200000762939453
2018-12-04,20.799999237060547
2018-12-06,20.600000381469727
2018-12-07,20.200000762939453
2018-12-10,19.600000381469727
2018-12-11,19.399999618530273
2018-12-12,19.600000381469727
2018-12-13,18.200000762939453
2018-12-14,17.799999237060547
2018-12-17,16.399999618530273
2018-12-18,17.0
2018-12-19,16.200000762939453
2018-12-20,15.800000190734863
2018-12-21,14.199999809265137
2018-12-24,13.600000381469727
2018-12-26,13.199999809265137
2018-12-27,12.800000190734863
2018-12-28,13.800000190734863
2018-12-31,14.199999809265137
2019-01-02,15.399999618530273
2019-01-03,15.0
2019-01-04,15.399999618530273
2019-01-07,16.799999237060547
2019-01-08,16.200000762939453
2019-01-09,16.200000762939453
2019-01-10,16.0
2019-01-11,16.200000762939453
2019-01-14,16.200000762939453
2019-01-15,17.799999237060547
2019-01-16,17.799999237060547
2019-01-17,18.0
2019-01-18,19.399999618530273
2019-01-22,18.600000381469727
2019-01-23,19.0
2019-01-24,19.0
2019-01-25,19.0
2019-01-28,18.399999618530273
2019-01-29,17.200000762939453
2019-01-30,16.600000381469727
2019-01-31,16.0
2019-02-01,15.0
2019-02-04,15.399999618530273
2019-02-05,15.800000190734863
2019-02-06,16.0
2019-02-07,15.800000190734863
2019-02-08,15.600000381469727
2019-02-11,15.800000190734863
2019-02-12,15.800000190734863
2019-02-13,16.0
2019-02-14,15.600000381469727
2019-02-15,16.0
2019-02-19,15.600000381469727
2019-02-20,15.399999618530273
2019-02-21,15.0
2019-02-22,14.800000190734863
2019-02-25,15.399999618530273
2019-02-26,15.0
2019-02-27,15.199999809265137
2019-02-28,14.800000190734863
2019-03-01,14.600000381469727
2019-03-04,13.800000190734863
2019-03-05,13.600000381469727
2019-03-06,13.0
2019-03-07,13.399999618530273
2019-03-08,13.800000190734863
2019-03-11,13.800000190734863
2019-03-12,13.600000381469727
2019-03-13,14.399999618530273
2019-03-14,14.600000381469727
2019-03-15,13.800000190734863
2019-03-18,14.0
2019-03-19,14.0
2019-03-20,14.0
2019-03-21,14.0
2019-03-22,13.399999618530273
2019-03-25,13.0
2019-03-26,13.399999618530273
2019-03-27,12.800000190734863
2019-03-28,13.0
2019-03-29,12.800000190734863
2019-04-01,12.399999618530273
2019-04-02,11.399999618530273
2019-04-03,10.800000190734863
2019-04-04,11.0
2019-04-05,11.600000381469727
2019-04-08,11.399999618530273
2019-04-09,11.199999809265137
2019-04-10,11.399999618530273
2019-04-11,10.199999809265137
2019-04-12,10.0
2019-04-15,8.800000190734863
2019-04-16,9.0
2019-04-17,9.600000381469727
2019-04-18,9.800000190734863
2019-04-22,10.75
2019-04-23,9.920000076293945
2019-04-24,9.619999885559082
2019-04-25,8.989999771118164
2019-04-26,9.079999923706055
2019-04-29,9.0600004196167
2019-04-30,9.15999984741211
2019-05-01,8.880000114440918
2019-05-02,8.800000190734863
2019-05-03,8.770000457763672
2019-05-06,8.5
2019-05-07,8.130000114440918
2019-05-08,8.09000015258789
2019-05-09,7.900000095367432
2019-05-10,7.989999771118164
2019-05-13,8.239999771118164
2019-05-14,8.789999961853027
2019-05-15,8.949999809265137
2019-05-16,9.170000076293945
2019-05-17,9.130000114440918
2019-05-20,9.020000457763672
2019-05-21,8.739999771118164
2019-05-22,8.100000381469727
2019-05-23,7.449999809265137
2019-05-24,7.340000152587891
2019-05-28,7.590000152587891
2019-05-29,7.239999771118164
2019-05-30,7.769999980926514
2019-05-31,7.659999847412109
2019-06-03,7.670000076293945
2019-06-04,8.380000114440918
2019-06-05,7.840000152587891
2019-06-06,7.760000228881836
2019-06-07,7.760000228881836
2019-06-10,7.5
2019-06-11,7.170000076293945
2019-06-12,6.909999847412109
2019-06-13,7.119999885559082
2019-06-14,7.059999942779541
2019-06-17,6.860000133514404
2019-06-18,6.889999866485596
2019-06-19,6.75
2019-06-20,6.699999809265137
2019-06-21,6.670000076293945
2019-06-24,6.300000190734863
2019-06-25,6.849999904632568
2019-06-26,7.110000133514404
2019-06-27,8.569999694824219
2019-06-28,8.010000228881836
2019-07-01,8.579999923706055
2019-07-02,8.600000381469727
2019-07-03,8.609999656677246
2019-07-05,9.109999656677246
2019-07-08,9.0600004196167
2019-07-09,9.109999656677246
2019-07-10,9.239999771118164
2019-07-11,9.039999961853027
2019-07-12,8.8100004196167
2019-07-15,8.430000305175781
2019-07-16,8.369999885559082
2019-07-17,7.789999961853027
2019-07-18,7.190000057220459
2019-07-19,6.789999961853027
2019-07-22,6.309999942779541
2019-07-23,6.510000228881836
2019-07-24,6.730000019073486
2019-07-25,6.559999942779541
2019-07-26,6.690000057220459
2019-07-29,6.71999979019165
2019-07-30,6.889999866485596
2019-07-31,6.96999979019165
2019-08-01,6.940000057220459
2019-08-02,6.989999771118164
2019-08-05,6.880000114440918
2019-08-06,6.800000190734863
2019-08-07,7.070000171661377
2019-08-08,7.400000095367432
2019-08-09,7.190000057220459
2019-08-12,7.019999980926514
2019-08-13,6.550000190734863
2019-08-14,5.809999942779541
2019-08-15,5.360000133514404
2019-08-16,5.670000076293945
2019-08-19,5.78000020980835
2019-08-20,5.619999885559082
2019-08-21,5.590000152587891
2019-08-22,5.650000095367432
2019-08-23,5.309999942779541
2019-08-26,5.380000114440918
2019-08-27,5.179999828338623
2019-08-28,5.429999828338623
2019-08-29,5.760000228881836
2019-08-30,6.460000038146973
2019-09-03,6.400000095367432
2019-09-04,6.760000228881836
2019-09-05,7.019999980926514
2019-09-06,7.130000114440918
2019-09-09,8.220000267028809
2019-09-10,9.050000190734863
2019-09-11,9.680000305175781
2019-09-12,7.619999885559082
2019-09-13,7.809999942779541
2019-09-16,7.510000228881836
2019-09-17,7.079999923706055
2019-09-18,6.900000095367432
2019-09-19,7.199999809265137
2019-09-20,7.400000095367432
2019-09-23,7.840000152587891
2019-09-24,8.0
2019-09-25,7.690000057220459
2019-09-26,7.829999923706055
2019-09-27,7.28000020980835
2019-09-30,6.949999809265137
2019-10-01,6.940000057220459
2019-10-02,6.860000133514404
2019-10-03,7.019999980926514
2019-10-04,7.590000152587891
2019-10-07,8.100000381469727
2019-10-08,8.149999618530273
2019-10-09,8.199999809265137
2019-10-10,8.569999694824219
2019-10-11,9.130000114440918
2019-10-14,9.220000267028809
2019-10-15,9.210000038146973
2019-10-16,8.869999885559082
2019-10-17,8.869999885559082
2019-10-18,8.920000076293945
2019-10-21,8.890000343322754
2019-10-22,8.800000190734863
2019-10-23,8.5600004196167
2019-10-24,8.149999618530273
2019-10-25,8.529999732971191
2019-10-28,9.0600004196167
2019-10-29,9.170000076293945
2019-10-30,9.329999923706055
2019-10-31,9.199999809265137
2019-11-01,9.920000076293945
2019-11-04,11.130000114440918
2019-11-05,11.010000228881836
2019-11-06,10.619999885559082
2019-11-07,10.350000381469727
2019-11-08,9.84000015258789
2019-11-11,9.640000343322754
2019-11-12,9.970000267028809
2019-11-13,9.600000381469727
2019-11-14,9.600000381469727
2019-11-15,9.899999618530273
2019-11-18,9.960000038146973
2019-11-19,9.9399995803833
2019-11-20,9.680000305175781
2019-11-21,9.600000381469727
2019-11-22,9.609999656677246
2019-11-25,9.539999961853027
2019-11-26,9.569999694824219
2019-11-27,9.300000190734863
2019-11-29,9.0600004196167
2019-12-02,8.8100004196167
2019-12-03,8.609999656677246
2019-12-04,8.4399995803833
2019-12-05,8.039999961853027
2019-12-06,8.289999961853027
2019-12-09,8.100000381469727
2019-12-10,8.079999923706055
2019-12-11,7.659999847412109
2019-12-12,7.860000133514404
2019-12-13,7.570000171661377
2019-12-16,7.699999809265137
2019-12-17,7.670000076293945
2019-12-18,8.319999694824219
2019-12-19,11.84000015258789
2019-12-20,14.029999732971191
2019-12-23,15.010000228881836
2019-12-24,16.139999389648438
2019-12-26,19.190000534057617
2019-12-27,20.299999237060547
2019-12-30,15.989999771118164
2019-12-31,15.470000267028809
