Date,RES
2007-12-31,4.2183990478515625
2008-01-02,4.3697004318237305
2008-01-03,4.312063694000244
2008-01-04,4.124737739562988
2008-01-07,4.070703029632568
2008-01-08,3.941016912460327
2008-01-09,4.002257823944092
2008-01-10,4.077907085418701
2008-01-11,3.987847328186035
2008-01-14,4.103124618530273
2008-01-15,3.919402599334717
2008-01-16,3.912198066711426
2008-01-17,3.609597682952881
2008-01-18,3.33221173286438
2008-01-22,3.5339462757110596
2008-01-23,3.750089406967163
2008-01-24,3.598789691925049
2008-01-25,3.6708364486694336
2008-01-28,3.858161449432373
2008-01-29,3.897787570953369
2008-01-30,3.822138547897339
2008-01-31,3.876173496246338
2008-02-01,3.959028959274292
2008-02-04,3.959028959274292
2008-02-05,3.850956678390503
2008-02-06,3.865450620651245
2008-02-07,3.919790744781494
2008-02-08,3.9342830181121826
2008-02-11,4.129909992218018
2008-02-12,4.140777587890625
2008-02-13,4.361763954162598
2008-02-14,4.329158782958984
2008-02-15,4.372631072998047
2008-02-19,4.477692127227783
2008-02-20,4.742149829864502
2008-02-21,4.550145626068115
2008-02-22,4.709544658660889
2008-02-25,5.042835235595703
2008-02-26,5.010232925415039
2008-02-27,4.999363899230957
2008-02-28,4.999363899230957
2008-02-29,4.771132469177246
2008-03-03,4.829094886779785
2008-03-04,4.753016948699951
2008-03-05,4.897927284240723
2008-03-06,4.803737163543701
2008-03-07,4.633468151092529
2008-03-10,4.405235767364502
2008-03-11,4.705922603607178
2008-03-12,4.58275032043457
2008-03-13,4.7240376472473145
2008-03-14,4.633468151092529
2008-03-17,4.532032489776611
2008-03-18,4.749395370483398
2008-03-19,4.492181301116943
2008-03-20,4.662450790405273
2008-03-24,4.7820000648498535
2008-03-25,5.002986431121826
2008-03-26,5.064572811126709
2008-03-27,5.289181709289551
2008-03-28,5.361636638641357
2008-03-31,5.502923011779785
2008-04-01,5.760136604309082
2008-04-02,5.781872749328613
2008-04-03,5.655076503753662
2008-04-04,5.676814556121826
2008-04-07,5.676814556121826
2008-04-08,5.760136604309082
2008-04-09,5.713040828704834
2008-04-10,5.742023468017578
2008-04-11,5.658700466156006
2008-04-14,5.861573696136475
2008-04-15,5.948517799377441
2008-04-16,6.162258625030518
2008-04-17,6.151390075683594
2008-04-18,6.285430431365967
2008-04-21,6.423096179962158
2008-04-22,6.111539363861084
2008-04-23,5.10804557800293
2008-04-24,5.064572811126709
2008-04-25,5.02109956741333
2008-04-28,4.883435249328613
2008-04-29,4.713170051574707
2008-04-30,4.626222610473633
2008-05-01,4.608108997344971
2008-05-02,4.553768157958984
2008-05-05,4.644336223602295
2008-05-06,4.829094886779785
2008-05-07,4.683534622192383
2008-05-08,4.770872592926025
2008-05-09,4.738121032714844
2008-05-12,4.778149604797363
2008-05-13,4.949188709259033
2008-05-14,4.872767925262451
2008-05-15,4.920076370239258
2008-05-16,5.145700931549072
2008-05-19,5.251236438751221
2008-05-20,5.251236438751221
2008-05-21,5.309462070465088
2008-05-22,5.334933280944824
2008-05-23,5.182092189788818
2008-05-27,5.225763320922852
2008-05-28,5.374965190887451
2008-05-29,5.389521598815918
2008-05-30,5.447747707366943
2008-06-02,5.455024242401123
2008-06-03,5.531445026397705
2008-06-04,5.484138011932373
2008-06-05,5.822574615478516
2008-06-06,5.644258975982666
2008-06-09,5.662455081939697
2008-06-10,5.465942859649658
2008-06-11,5.487777233123779
2008-06-12,5.3968000411987305
2008-06-13,5.487777233123779
2008-06-16,5.571476936340332
2008-06-17,5.6333417892456055
2008-06-18,5.669734477996826
2008-06-19,5.611506938934326
2008-06-20,5.564199447631836
2008-06-23,6.004531383514404
2008-06-24,5.888079643249512
2008-06-25,5.97177791595459
2008-06-26,5.993614673614502
2008-06-27,6.091869354248047
2008-06-30,6.113704681396484
2008-07-01,6.20468282699585
2008-07-02,6.233794212341309
2008-07-03,6.059117794036865
2008-07-07,5.808019161224365
2008-07-08,5.818936347961426
2008-07-09,5.673372268676758
2008-07-10,5.735236167907715
2008-07-11,6.095509052276611
2008-07-14,6.251990795135498
2008-07-15,6.011809825897217
2008-07-16,6.131899833679199
2008-07-17,5.9244704246521
2008-07-18,6.0190887451171875
2008-07-21,6.219239234924316
2008-07-22,6.339328765869141
2008-07-23,6.197404384613037
2008-07-24,5.7716264724731445
2008-07-25,6.4157490730285645
2008-07-28,6.335689544677734
2008-07-29,6.2301554679870605
2008-07-30,6.481253623962402
2008-07-31,6.25562858581543
2008-08-01,6.350247383117676
2008-08-04,6.102787494659424
2008-08-05,6.037283897399902
2008-08-06,6.179726600646973
2008-08-07,6.285643577575684
2008-08-08,6.271033763885498
2008-08-11,6.534001350402832
2008-08-12,6.5303473472595215
2008-08-13,6.727574348449707
2008-08-14,6.720269680023193
2008-08-15,6.413474082946777
2008-08-18,6.325819492340088
2008-08-19,6.4280853271484375
2008-08-20,6.727574348449707
2008-08-21,6.702008247375488
2008-08-22,6.512088298797607
2008-08-25,6.464605808258057
2008-08-26,6.628961563110352
2008-08-27,6.7933173179626465
2008-08-28,6.818882942199707
2008-08-29,6.65817928314209
2008-09-02,6.110331058502197
2008-09-03,5.920411586761475
2008-09-04,5.781622886657715
2008-09-05,5.712231636047363
2008-09-08,5.588050842285156
2008-09-09,5.262993335723877
2008-09-10,5.284908294677734
2008-09-11,5.20090389251709
2008-09-12,5.818144798278809
2008-09-15,5.314126014709473
2008-09-16,5.719534397125244
2008-09-17,5.441957950592041
2008-09-18,6.205292224884033
2008-09-19,6.446346282958984
2008-09-22,6.355037689208984
2008-09-23,5.829104423522949
2008-09-24,5.7341437339782715
2008-09-25,5.7450995445251465
2008-09-26,5.507699489593506
2008-09-29,4.886806011199951
2008-09-30,5.135161399841309
2008-10-01,4.883152484893799
2008-10-02,4.4448747634887695
2008-10-03,4.302433490753174
2008-10-06,4.21112585067749
2008-10-07,3.8385891914367676
2008-10-08,3.922590970993042
2008-10-09,3.5390987396240234
2008-10-10,3.5135319232940674
2008-10-13,4.167297840118408
2008-10-14,4.013899803161621
2008-10-15,3.5975351333618164
2008-10-16,3.758237838745117
2008-10-17,3.4733569622039795
2008-10-20,3.926244020462036
2008-10-21,3.6377112865448
2008-10-22,3.2542178630828857
2008-10-23,3.217694044113159
2008-10-24,3.009511947631836
2008-10-27,2.71002197265625
2008-10-28,2.943770170211792
2008-10-29,3.287088394165039
2008-10-30,3.582926034927368
2008-10-31,3.8678064346313477
2008-11-03,3.5537071228027344
2008-11-04,3.9554636478424072
2008-11-05,3.663276433944702
2008-11-06,3.358314037322998
2008-11-07,3.4648683071136475
2008-11-10,3.420776128768921
2008-11-11,3.3436155319213867
2008-11-12,3.0864148139953613
2008-11-13,3.6669554710388184
2008-11-14,3.1635749340057373
2008-11-17,3.009254217147827
2008-11-18,2.9431169033050537
2008-11-19,2.6969387531280518
2008-11-20,2.2303013801574707
2008-11-21,2.744704008102417
2008-11-24,2.9394421577453613
2008-11-25,2.884328842163086
2008-11-26,3.178272008895874
2008-11-28,3.1599013805389404
2008-12-01,3.042323112487793
2008-12-02,3.196643352508545
2008-12-03,3.200317859649658
2008-12-04,2.891676425933838
2008-12-05,2.8990256786346436
2008-12-08,3.29217529296875
2008-12-09,3.3178956508636475
2008-12-10,3.538353204727173
2008-12-11,3.310547351837158
2008-12-12,3.420776128768921
2008-12-15,3.347289800643921
2008-12-16,3.7147209644317627
2008-12-17,3.6743035316467285
2008-12-18,3.4134280681610107
2008-12-19,3.5052855014801025
2008-12-22,3.288501501083374
2008-12-23,3.0570199489593506
2008-12-24,3.1562271118164062
2008-12-26,3.229712724685669
2008-12-29,3.406078815460205
2008-12-30,3.5052855014801025
2008-12-31,3.5861196517944336
2009-01-02,3.8139266967773438
2009-01-05,4.056430339813232
2009-01-06,4.052757263183594
2009-01-07,3.729417324066162
2009-01-08,3.949875831604004
2009-01-09,3.6890006065368652
2009-01-12,3.5750973224639893
2009-01-13,3.531005620956421
2009-01-14,3.237060785293579
2009-01-15,3.369335412979126
2009-01-16,3.0680432319641113
2009-01-20,2.6822409629821777
2009-01-21,3.08273983001709
2009-01-22,2.9063737392425537
2009-01-23,3.042323112487793
2009-01-26,3.137854814529419
2009-01-27,3.141529083251953
2009-01-28,3.1709234714508057
2009-01-29,2.924745559692383
2009-01-30,2.7336816787719727
2009-02-02,2.7483787536621094
2009-02-03,2.6675446033477783
2009-02-04,2.5830347537994385
2009-02-05,2.60508131980896
2009-02-06,2.705275774002075
2009-02-09,2.686720371246338
2009-02-10,2.4937522411346436
2009-02-11,2.4529316425323486
2009-02-12,2.4380884170532227
2009-02-13,2.408400297164917
2009-02-17,2.2228524684906006
2009-02-18,2.259962558746338
2009-02-19,2.182032823562622
2009-02-20,2.144922971725464
2009-02-23,1.9630869626998901
2009-02-24,2.1894547939300537
2009-02-25,2.1226582527160645
2009-02-26,2.130079984664917
2009-02-27,2.163477897644043
2009-03-02,2.0484390258789062
2009-03-03,2.096681594848633
2009-03-04,2.141211748123169
2009-03-05,2.000196933746338
2009-03-06,2.0113298892974854
2009-03-09,2.029884099960327
2009-03-10,2.1560561656951904
2009-03-11,2.1189470291137695
2009-03-12,2.297072172164917
2009-03-13,2.2673845291137695
2009-03-16,2.341603994369507
2009-03-17,2.423243761062622
2009-03-18,2.504884719848633
2009-03-19,2.504884719848633
2009-03-20,2.426955461502075
2009-03-23,2.6162126064300537
2009-03-24,2.571681499481201
2009-03-25,2.6570332050323486
2009-03-26,2.6830103397369385
2009-03-27,2.423243761062622
2009-03-30,2.4714860916137695
2009-03-31,2.4603540897369385
2009-04-01,2.486330032348633
2009-04-02,2.7349624633789062
2009-04-03,2.720118522644043
2009-04-06,2.653322696685791
2009-04-07,2.486330032348633
2009-04-08,2.534571647644043
2009-04-09,2.727540969848633
2009-04-13,2.7089860439300537
2009-04-14,2.6607444286346436
2009-04-15,2.798049211502075
2009-04-16,3.317580461502075
2009-04-17,3.584768295288086
2009-04-20,3.339846134185791
2009-04-21,3.5699238777160645
2009-04-22,3.5142600536346436
2009-04-23,3.5736355781555176
2009-04-24,3.785158395767212
2009-04-27,3.4957056045532227
2009-04-28,3.5736355781555176
2009-04-29,3.9150421619415283
2009-04-30,3.970705986022949
2009-05-01,4.267581462860107
2009-05-04,4.3009796142578125
2009-05-05,4.263871669769287
2009-05-06,4.3310747146606445
2009-05-07,4.099586486816406
2009-05-08,4.383347034454346
2009-05-11,4.017446517944336
2009-05-12,4.009978771209717
2009-05-13,3.662745952606201
2009-05-14,3.4909965991973877
2009-05-15,3.5059313774108887
2009-05-18,3.785957098007202
2009-05-19,3.733686685562134
2009-05-20,3.785957098007202
2009-05-21,3.60300612449646
2009-05-22,3.5507349967956543
2009-05-26,3.6926157474517822
2009-05-27,3.632876396179199
2009-05-28,3.804625988006592
2009-05-29,3.8643648624420166
2009-06-01,3.901700973510742
2009-06-02,3.983842372894287
2009-06-03,3.9726428985595703
2009-06-04,4.0398478507995605
2009-06-05,3.9166367053985596
2009-06-08,3.7560880184173584
2009-06-09,3.741154432296753
2009-06-10,3.76728892326355
2009-06-11,3.782224178314209
2009-06-12,3.752354860305786
2009-06-15,3.632876396179199
2009-06-16,3.4685943126678467
2009-06-17,3.3453829288482666
2009-06-18,3.3117787837982178
2009-06-19,3.2781763076782227
2009-06-22,2.975748062133789
2009-06-23,2.9720137119293213
2009-06-24,3.069089651107788
2009-06-25,3.259507894515991
2009-06-26,3.214703321456909
2009-06-29,3.1586978435516357
2009-06-30,3.1176278591156006
2009-07-01,3.0877583026885986
2009-07-02,3.024285316467285
2009-07-06,2.9309444427490234
2009-07-07,2.777862310409546
2009-07-08,2.8413352966308594
2009-07-09,2.8712046146392822
2009-07-10,2.8637373447418213
2009-07-13,2.994415760040283
2009-07-14,3.042954444885254
2009-07-15,3.27070951461792
2009-07-16,3.3080458641052246
2009-07-17,3.4051215648651123
2009-07-20,3.3379149436950684
2009-07-21,3.25577449798584
2009-07-22,3.2221715450286865
2009-07-23,3.3603169918060303
2009-07-24,3.4461922645568848
2009-07-27,3.304311752319336
2009-07-28,3.1848342418670654
2009-07-29,3.024285316467285
2009-07-30,3.050421953201294
2009-07-31,3.069089651107788
2009-08-03,3.2408390045166016
2009-08-04,3.2632415294647217
2009-08-05,3.2221715450286865
2009-08-06,3.192164421081543
2009-08-07,3.2446789741516113
2009-08-10,3.225923776626587
2009-08-11,3.1208934783935547
2009-08-12,3.147150993347168
2009-08-13,3.1058895587921143
2009-08-14,2.9783530235290527
2009-08-17,2.8470652103424072
2009-08-18,2.8995797634124756
2009-08-19,2.9671003818511963
2009-08-20,2.937091588973999
2009-08-21,3.0683789253234863
2009-08-24,3.057126522064209
2009-08-25,2.9821038246154785
2009-08-26,2.9933571815490723
2009-08-27,3.049623489379883
2009-08-28,3.0983872413635254
2009-08-31,3.4284818172454834
2009-09-01,3.0908849239349365
2009-09-02,3.0233664512634277
2009-09-03,3.225923776626587
2009-09-04,3.368464946746826
2009-09-08,3.4622414112091064
2009-09-09,3.5372631549835205
2009-09-10,3.657297134399414
2009-09-11,3.7060608863830566
2009-09-14,3.7398202419281006
2009-09-15,3.8373494148254395
2009-09-16,4.0549116134643555
2009-09-17,3.908618927001953
2009-09-18,3.784834146499634
2009-09-21,3.856104612350464
2009-09-22,3.9348769187927246
2009-09-23,3.897366762161255
2009-09-24,3.897366762161255
2009-09-25,3.871108055114746
2009-09-28,4.024903297424316
2009-09-29,3.9348769187927246
2009-09-30,3.9311270713806152
2009-10-01,3.7623279094696045
2009-10-02,3.6873064041137695
2009-10-05,3.8373494148254395
2009-10-06,3.9161217212677
2009-10-07,3.9498813152313232
2009-10-08,4.0474090576171875
2009-10-09,4.006148815155029
2009-10-12,4.0023956298828125
2009-10-13,3.9798905849456787
2009-10-14,4.066164970397949
2009-10-15,4.208706378936768
2009-10-16,4.216207504272461
2009-10-19,4.197453022003174
2009-10-20,4.096174240112305
2009-10-21,4.024903297424316
2009-10-22,4.156191349029541
2009-10-23,3.957382917404175
2009-10-26,3.747324228286743
2009-10-27,3.84485125541687
2009-10-28,3.514756202697754
2009-10-29,3.736069440841675
2009-10-30,3.507254123687744
2009-11-02,3.507254123687744
2009-11-03,3.556018829345703
2009-11-04,3.4359843730926514
2009-11-05,3.634791135787964
2009-11-06,3.668691873550415
2009-11-09,3.7101247310638428
2009-11-10,3.811824083328247
2009-11-11,3.875856637954712
2009-11-12,3.7101247310638428
2009-11-13,3.6762256622314453
2009-11-16,3.826890468597412
2009-11-17,3.8570237159729004
2009-11-18,3.774158477783203
2009-11-19,3.6046595573425293
2009-11-20,3.570760488510132
2009-11-23,3.7779250144958496
2009-11-24,3.7779250144958496
2009-11-25,3.8005244731903076
2009-11-27,3.615959644317627
2009-11-30,3.638559579849243
2009-12-01,3.687525510787964
2009-12-02,3.6611592769622803
2009-12-03,3.687525510787964
2009-12-04,3.815591335296631
2009-12-07,3.936122179031372
2009-12-08,3.732724905014038
2009-12-09,3.5782923698425293
2009-12-10,3.5820600986480713
2009-12-11,3.668691873550415
2009-12-14,3.834423542022705
2009-12-15,3.936122179031372
2009-12-16,4.049120903015137
2009-12-17,3.977555274963379
2009-12-18,4.105621337890625
2009-12-21,4.090554237365723
2009-12-22,4.045354843139648
2009-12-23,4.0830230712890625
2009-12-24,4.007687091827393
2009-12-28,4.060421466827393
2009-12-29,4.071721076965332
2009-12-30,4.030287742614746
2009-12-31,3.917290687561035
2010-01-04,4.124453067779541
2010-01-05,4.40318489074707
2010-01-06,4.550081729888916
2010-01-07,4.723348140716553
2010-01-08,4.708280563354492
2010-01-11,4.644248962402344
2010-01-12,4.557616233825684
2010-01-13,4.636715412139893
2010-01-14,4.640480995178223
2010-01-15,4.59151554107666
2010-01-19,4.670615196228027
2010-01-20,4.59528112411499
2010-01-21,4.5463151931762695
2010-01-22,4.4333176612854
2010-01-25,4.538782596588135
2010-01-26,4.636715412139893
2010-01-27,4.7836127281188965
2010-01-28,4.727113723754883
2010-01-29,4.65178108215332
2010-02-01,4.708280563354492
2010-02-02,4.7647809982299805
2010-02-03,4.65178108215332
2010-02-04,4.40318489074707
2010-02-05,4.3692851066589355
2010-02-08,4.2747955322265625
2010-02-09,4.391964912414551
2010-02-10,4.497795581817627
2010-02-11,4.626303195953369
2010-02-12,4.7699294090271
2010-02-16,4.826624870300293
2010-02-17,4.803946495056152
2010-02-18,4.905998229980469
2010-02-19,4.9135565757751465
2010-02-22,4.83418607711792
2010-02-23,4.664100646972656
2010-02-24,4.7699294090271
2010-02-25,4.7321343421936035
2010-02-26,4.671660423278809
2010-03-01,4.739693641662598
2010-03-02,4.898440837860107
2010-03-03,4.936234474182129
2010-03-04,4.819065570831299
2010-03-05,4.777489185333252
2010-03-08,4.788827896118164
2010-03-09,4.800168037414551
2010-03-10,4.671660423278809
2010-03-11,4.671660423278809
2010-03-12,4.675438404083252
2010-03-15,4.652760028839111
2010-03-16,4.690558910369873
2010-03-17,4.819065570831299
2010-03-18,4.497795581817627
2010-03-19,4.365507125854492
2010-03-22,4.425981044769287
2010-03-23,4.467557907104492
2010-03-24,4.384406089782715
2010-03-25,4.271014213562012
2010-03-26,4.1236090660095215
2010-03-29,4.1160502433776855
2010-03-30,4.23699951171875
2010-03-31,4.206761360168457
2010-04-01,4.346607208251953
2010-04-05,4.45999813079834
2010-04-06,4.395744800567627
2010-04-07,4.350389003753662
2010-04-08,4.395744800567627
2010-04-09,4.403303146362305
2010-04-12,4.497795581817627
2010-04-13,4.467557907104492
2010-04-14,4.660322189331055
2010-04-15,4.5847272872924805
2010-04-16,4.535591125488281
2010-04-19,4.452438831329346
2010-04-20,4.7359137535095215
2010-04-21,4.792608737945557
2010-04-22,5.068523406982422
2010-04-23,5.0458455085754395
2010-04-26,4.9929304122924805
2010-04-27,4.860642433166504
2010-04-28,5.193253040313721
2010-04-29,5.31797981262207
2010-04-30,5.159234523773193
2010-05-03,5.204591751098633
2010-05-04,5.023168087005615
2010-05-05,4.758591175079346
2010-05-06,4.625884056091309
2010-05-07,4.345297336578369
2010-05-10,4.686552047729492
2010-05-11,4.660008430480957
2010-05-12,4.879928112030029
2010-05-13,4.815468788146973
2010-05-14,4.6486334800720215
2010-05-17,4.515924453735352
2010-05-18,4.542466163635254
2010-05-19,4.37183952331543
2010-05-20,4.01541805267334
2010-05-21,4.095044136047363
2010-05-24,3.977501630783081
2010-05-25,3.9699175357818604
2010-05-26,4.189836025238037
2010-05-27,4.383214473724365
2010-05-28,4.280839920043945
2010-06-01,4.064711570739746
2010-06-02,4.273252964019775
2010-06-03,4.436298847198486
2010-06-04,4.368047714233398
2010-06-07,4.3870062828063965
2010-06-08,4.515924453735352
2010-06-09,4.716883659362793
2010-06-10,5.042971134185791
2010-06-11,5.187056064605713
2010-06-14,5.240140914916992
2010-06-15,5.406975746154785
2010-06-16,5.4107666015625
2010-06-17,5.441100597381592
2010-06-18,5.585186004638672
2010-06-21,5.535893440246582
2010-06-22,5.365267276763916
2010-06-23,5.323557376861572
2010-06-24,5.194640159606934
2010-06-25,5.418349266052246
2010-06-28,5.4638519287109375
2010-06-29,5.217390060424805
2010-06-30,5.175681114196777
2010-07-01,5.1605143547058105
2010-07-02,5.266683578491211
2010-07-06,5.179473400115967
2010-07-07,5.251515865325928
2010-07-08,5.33493185043335
2010-07-09,5.304599761962891
2010-07-12,5.2363481521606445
2010-07-13,5.600353240966797
2010-07-14,6.017440319061279
2010-07-15,5.964356899261475
2010-07-16,5.7596049308776855
2010-07-19,5.736854553222656
2010-07-20,6.002273082733154
2010-07-21,6.1274003982543945
2010-07-22,6.248735427856445
2010-07-23,6.442112445831299
2010-07-26,6.71132230758667
2010-07-27,6.58998966217041
2010-07-28,6.847825050354004
2010-07-29,6.635488986968994
2010-07-30,6.324568748474121
2010-08-02,6.521737575531006
2010-08-03,6.859199047088623
2010-08-04,6.889532566070557
2010-08-05,6.749240875244141
2010-08-06,6.703588485717773
2010-08-09,7.049800395965576
2010-08-10,6.928055286407471
2010-08-11,6.646518707275391
2010-08-12,6.486730098724365
2010-08-13,6.467706680297852
2010-08-16,6.54760217666626
2010-08-17,6.798701286315918
2010-08-18,6.638912200927734
2010-08-19,6.235631465911865
2010-08-20,6.129103183746338
2010-08-23,6.151931285858154
2010-08-24,6.201391220092773
2010-08-25,6.292698860168457
2010-08-26,6.357377052307129
2010-08-27,6.532383918762207
2010-08-30,6.345962047576904
2010-08-31,6.205195426940918
2010-09-01,6.513362407684326
2010-09-02,6.517167091369629
2010-09-03,6.745438098907471
2010-09-07,6.69217586517334
2010-09-08,6.753048896789551
2010-09-09,6.901423454284668
2010-09-10,7.396012783050537
2010-09-13,7.536779880523682
2010-09-14,7.494931221008301
2010-09-15,7.494931221008301
2010-09-16,7.3884053230285645
2010-09-17,7.4644975662231445
2010-09-20,7.875380516052246
2010-09-21,7.7764692306518555
2010-09-22,7.669939994812012
2010-09-23,7.300898551940918
2010-09-24,7.586241245269775
2010-09-27,7.700376510620117
2010-09-28,7.886796474456787
2010-09-29,8.0313720703125
2010-09-30,8.050394058227539
2010-10-01,7.928647994995117
2010-10-04,7.882993221282959
2010-10-05,8.16833209991455
2010-10-06,8.278664588928223
2010-10-07,8.217791557312012
2010-10-08,8.541177749633789
2010-10-11,8.613463401794434
2010-10-12,8.583028793334961
2010-10-13,8.875977516174316
2010-10-14,8.845540046691895
2010-10-15,9.039571762084961
2010-10-18,9.00152587890625
2010-10-19,8.487914085388184
2010-10-20,8.754233360290527
2010-10-21,8.5906400680542
2010-10-22,8.803690910339355
2010-10-25,8.868366241455078
2010-10-26,8.944458961486816
2010-10-27,8.739012718200684
2010-10-28,8.487914085388184
2010-10-29,8.373777389526367
2010-11-01,8.602048873901367
2010-11-02,8.678144454956055
2010-11-03,8.784669876098633
2010-11-04,9.343935012817383
2010-11-05,9.534160614013672
2010-11-08,10.091176986694336
2010-11-09,9.904234886169434
2010-11-10,10.297199249267578
2010-11-11,10.102621078491211
2010-11-12,9.881341934204102
2010-11-15,10.140778541564941
2010-11-16,9.92712688446045
2010-11-17,10.365873336791992
2010-11-18,10.87329387664795
2010-11-19,10.289567947387695
2010-11-22,10.598600387573242
2010-11-23,10.358242988586426
2010-11-24,10.575706481933594
2010-11-26,10.697794914245605
2010-11-29,11.018269538879395
2010-11-30,11.178507804870605
2010-12-01,11.533318519592285
2010-12-02,11.97969913482666
2010-12-03,11.716449737548828
2010-12-06,12.212424278259277
2010-12-07,12.368844985961914
2010-12-08,11.96062183380127
2010-12-09,11.79656982421875
2010-12-10,12.067445755004883
2010-12-13,11.96634578704834
2010-12-14,11.256721496582031
2010-12-15,10.58715534210205
2010-12-16,10.507035255432129
2010-12-17,10.495588302612305
2010-12-20,10.438359260559082
2010-12-21,11.18232250213623
2010-12-22,10.99919319152832
2010-12-23,10.924798011779785
2010-12-27,10.770282745361328
2010-12-28,10.369688034057617
2010-12-29,10.375410079956055
2010-12-30,10.198003768920898
2010-12-31,10.369688034057617
2011-01-03,10.615765571594238
2011-01-04,10.363965034484863
2011-01-05,10.535648345947266
2011-01-06,9.40253734588623
2011-01-07,9.597110748291016
2011-01-10,9.820300102233887
2011-01-11,9.986261367797852
2011-01-12,10.043487548828125
2011-01-13,9.78596305847168
2011-01-14,10.089269638061523
2011-01-18,9.929031372070312
2011-01-19,9.929031372070312
2011-01-20,9.923309326171875
2011-01-21,9.78596305847168
2011-01-24,9.67150592803955
2011-01-25,9.951925277709961
2011-01-26,9.774518013000488
2011-01-27,10.140778541564941
2011-01-28,9.883251190185547
2011-01-31,10.060656547546387
2011-02-01,10.152222633361816
2011-02-02,10.238061904907227
2011-02-03,10.335350036621094
2011-02-04,10.00915241241455
2011-02-07,10.060656547546387
2011-02-08,10.043421745300293
2011-02-09,9.865306854248047
2011-02-10,9.928509712219238
2011-02-11,10.008949279785156
2011-02-14,10.106621742248535
2011-02-15,10.054912567138672
2011-02-16,10.135354042053223
2011-02-17,10.508821487426758
2011-02-18,10.738648414611816
2011-02-22,10.640972137451172
2011-02-23,10.514566421508789
2011-02-24,10.491583824157715
2011-02-25,10.87079906463623
2011-02-28,11.250011444091797
2011-03-01,10.985711097717285
2011-03-02,11.295978546142578
2011-03-03,11.726901054382324
2011-03-04,11.818831443786621
2011-03-07,12.140591621398926
2011-03-08,12.094625473022461
2011-03-09,11.905016899108887
2011-03-10,11.261505126953125
2011-03-11,11.456855773925781
2011-03-14,11.468347549438477
2011-03-15,11.508567810058594
2011-03-16,11.502821922302246
2011-03-17,11.922256469726562
2011-03-18,12.28997802734375
2011-03-21,12.916253089904785
2011-03-22,12.830070495605469
2011-03-23,12.985204696655273
2011-03-24,13.289721488952637
2011-03-25,13.78384780883789
2011-03-28,14.01942253112793
2011-03-29,14.053895950317383
2011-03-30,14.553771018981934
2011-03-31,14.548023223876953
2011-04-01,13.743629455566406
2011-04-04,14.35267162322998
2011-04-05,14.329687118530273
2011-04-06,13.772357940673828
2011-04-07,13.479329109191895
2011-04-08,13.58849811553955
2011-04-11,13.071386337280273
2011-04-12,12.634716033935547
2011-04-13,12.881780624389648
2011-04-14,13.059898376464844
2011-04-15,13.36441421508789
2011-04-18,13.485075950622559
2011-04-19,14.450345993041992
2011-04-20,14.611226081848145
2011-04-21,15.145569801330566
2011-04-25,15.300700187683105
2011-04-26,15.283468246459961
2011-04-27,15.070879936218262
2011-04-28,15.438602447509766
2011-04-29,15.542021751403809
2011-05-02,14.93298053741455
2011-05-03,13.938984870910645
2011-05-04,13.41612720489502
2011-05-05,13.335687637329102
2011-05-06,13.289586067199707
2011-05-09,14.182859420776367
2011-05-10,13.992679595947266
2011-05-11,13.387557029724121
2011-05-12,13.116695404052734
2011-05-13,13.168563842773438
2011-05-16,13.197380065917969
2011-05-17,12.713282585144043
2011-05-18,13.456714630126953
2011-05-19,13.399087905883789
2011-05-20,13.537396430969238
2011-05-23,13.272299766540527
2011-05-24,13.272299766540527
2011-05-25,14.165569305419922
2011-05-26,14.40761947631836
2011-05-27,14.30388355255127
2011-05-31,14.511351585388184
2011-06-01,13.923521041870117
2011-06-02,14.286595344543457
2011-06-03,14.522880554199219
2011-06-06,13.675713539123535
2011-06-07,13.739103317260742
2011-06-08,13.531637191772461
2011-06-09,13.779444694519043
2011-06-10,13.318403244018555
2011-06-13,12.96109390258789
2011-06-14,13.243484497070312
2011-06-15,12.886175155639648
2011-06-16,12.64988899230957
2011-06-17,12.425130844116211
2011-06-20,12.33292007446289
2011-06-21,13.03024959564209
2011-06-22,13.376031875610352
2011-06-23,13.157038688659668
2011-06-24,12.989907264709473
2011-06-27,13.249248504638672
2011-06-28,13.548925399780273
2011-06-29,13.854366302490234
2011-06-30,14.1425199508667
2011-07-01,14.234724998474121
2011-07-05,14.615087509155273
2011-07-06,14.615087509155273
2011-07-07,14.926295280456543
2011-07-08,14.851377487182617
2011-07-11,14.332698822021484
2011-07-12,14.298121452331543
2011-07-13,14.776456832885742
2011-07-14,14.787978172302246
2011-07-15,15.21444320678711
2011-07-18,15.053080558776855
2011-07-19,15.427680969238281
2011-07-20,15.110709190368652
2011-07-21,15.053080558776855
2011-07-22,15.542940139770508
2011-07-25,15.473786354064941
2011-07-26,15.427680969238281
2011-07-27,13.992679595947266
2011-07-28,13.92928695678711
2011-07-29,13.612316131591797
2011-08-01,13.462477684020996
2011-08-02,12.984146118164062
2011-08-03,13.01296329498291
2011-08-04,11.629830360412598
2011-08-05,11.255229949951172
2011-08-08,11.20893383026123
2011-08-09,12.447299003601074
2011-08-10,13.1359224319458
2011-08-11,13.882411003112793
2011-08-12,14.009719848632812
2011-08-15,14.472661972045898
2011-08-16,14.108095169067383
2011-08-17,13.841907501220703
2011-08-18,12.863945007324219
2011-08-19,12.441511154174805
2011-08-22,12.105880737304688
2011-08-23,12.944960594177246
2011-08-24,13.025976181030273
2011-08-25,12.95653247833252
2011-08-26,13.344244003295898
2011-08-29,14.432154655456543
2011-08-30,14.698343276977539
2011-08-31,14.987682342529297
2011-09-01,14.478450775146484
2011-09-02,14.229619026184082
2011-09-06,13.789824485778809
2011-09-07,14.351139068603516
2011-09-08,14.142817497253418
2011-09-09,13.459980964660645
2011-09-12,13.216938972473145
2011-09-13,13.4079008102417
2011-09-14,13.03754711151123
2011-09-15,12.96810531616211
2011-09-16,12.655622482299805
2011-09-19,13.049121856689453
2011-09-20,12.759785652160645
2011-09-21,12.279484748840332
2011-09-22,10.798075675964355
2011-09-23,10.103666305541992
2011-09-26,11.046905517578125
2011-09-27,10.902238845825195
2011-09-28,10.37564468383789
2011-09-29,10.213615417480469
2011-09-30,9.443974494934082
2011-10-03,8.749567985534668
2011-10-04,9.415044784545898
2011-10-05,9.999504089355469
2011-10-06,10.097878456115723
2011-10-07,9.773820877075195
2011-10-10,10.32934856414795
2011-10-11,10.31198787689209
2011-10-12,10.37564468383789
2011-10-13,10.989038467407227
2011-10-14,11.376750946044922
2011-10-17,10.439298629760742
2011-10-18,10.786500930786133
2011-10-19,10.32934856414795
2011-10-20,10.306200981140137
2011-10-21,10.219400405883789
2011-10-24,10.294628143310547
2011-10-25,9.9647855758667
2011-10-26,10.184680938720703
2011-10-27,10.994827270507812
2011-10-28,10.87330436706543
2011-10-31,10.745996475219727
2011-11-01,10.398788452148438
2011-11-02,10.844368934631348
2011-11-03,11.66608715057373
2011-11-04,11.85705280303955
2011-11-07,12.01908016204834
2011-11-08,12.501704216003418
2011-11-09,11.867898941040039
2011-11-10,12.309820175170898
2011-11-11,12.484262466430664
2011-11-14,12.29819107055664
2011-11-15,12.484262466430664
2011-11-16,12.740110397338867
2011-11-17,12.164450645446777
2011-11-18,11.8737154006958
2011-11-21,11.367830276489258
2011-11-22,10.902649879455566
2011-11-23,10.30954647064209
2011-11-25,10.15255069732666
2011-11-28,10.652617454528809
2011-11-29,10.518878936767578
2011-11-30,11.350387573242188
2011-12-01,11.22246265411377
2011-12-02,11.466683387756348
2011-12-05,11.443422317504883
2011-12-06,11.268980026245117
2011-12-07,10.914281845092773
2011-12-08,10.425841331481934
2011-12-09,10.670062065124512
2011-12-12,10.297917366027832
2011-12-13,10.117661476135254
2011-12-14,9.92577075958252
2011-12-15,9.652480125427246
2011-12-16,9.931587219238281
2011-12-19,9.565260887145996
2011-12-20,10.687505722045898
2011-12-21,10.925911903381348
2011-12-22,10.943354606628418
2011-12-23,11.077094078063965
2011-12-27,11.036392211914062
2011-12-28,10.658431053161621
2011-12-29,10.803799629211426
2011-12-30,10.611913681030273
2012-01-03,11.926046371459961
2012-01-04,11.833009719848633
2012-01-05,11.8737154006958
2012-01-06,11.606234550476074
2012-01-09,11.838825225830078
2012-01-10,12.164450645446777
2012-01-11,11.362017631530762
2012-01-12,11.164316177368164
2012-01-13,10.67587661743164
2012-01-17,10.37350845336914
2012-01-18,10.361878395080566
2012-01-19,10.40839672088623
2012-01-20,10.402583122253418
2012-01-23,10.135102272033691
2012-01-24,10.193252563476562
2012-01-25,9.321041107177734
2012-01-26,8.838414192199707
2012-01-27,8.861677169799805
2012-01-30,8.966340065002441
2012-01-31,8.867488861083984
2012-02-01,8.919824600219727
2012-02-02,8.850045204162598
2012-02-03,8.977970123291016
2012-02-06,9.018674850463867
2012-02-07,8.914008140563965
2012-02-08,8.761630058288574
2012-02-09,8.767492294311523
2012-02-10,8.275198936462402
2012-02-13,8.304503440856934
2012-02-14,8.351387977600098
2012-02-15,8.620976448059082
2012-02-16,8.966752052307129
2012-02-17,9.242202758789062
2012-02-21,9.722773551940918
2012-02-22,9.582118034362793
2012-02-23,9.57625675201416
2012-02-24,9.646584510803223
2012-02-27,9.57039737701416
2012-02-28,9.371136665344238
2012-02-29,9.382857322692871
2012-03-01,9.459044456481934
2012-03-02,9.089825630187988
2012-03-05,8.49204158782959
2012-03-06,8.351387977600098
2012-03-07,8.497902870178223
2012-03-08,8.908146858215332
2012-03-09,9.207039833068848
2012-03-12,8.940381050109863
2012-03-13,9.274436950683594
2012-03-14,8.922799110412598
2012-03-15,8.949172973632812
2012-03-16,9.353551864624023
2012-03-19,9.212897300720215
2012-03-20,9.151365280151367
2012-03-21,8.922799110412598
2012-03-22,8.773351669311523
2012-03-23,8.993125915527344
2012-03-26,9.054664611816406
2012-03-27,9.160154342651367
2012-03-28,9.696399688720703
2012-03-29,9.872220039367676
2012-03-30,9.327181816101074
2012-04-02,9.142570495605469
2012-04-03,9.04587173461914
2012-04-04,8.914008140563965
2012-04-05,8.843679428100586
2012-04-09,8.615114212036133
2012-04-10,8.184359550476074
2012-04-11,8.201940536499023
2012-04-12,8.342596054077148
2012-04-13,7.9645867347717285
2012-04-16,7.903049945831299
2012-04-17,7.9645867347717285
2012-04-18,7.876675605773926
2012-04-19,7.973379135131836
2012-04-20,7.973379135131836
2012-04-23,7.990959644317627
2012-04-24,8.210732460021973
2012-04-25,8.474459648132324
2012-04-26,8.966752052307129
2012-04-27,8.984333038330078
2012-04-30,9.089825630187988
2012-05-01,9.204108238220215
2012-05-02,9.309599876403809
2012-05-03,9.195316314697266
2012-05-04,9.142570495605469
2012-05-07,9.142570495605469
2012-05-08,9.656396865844727
2012-05-09,10.099353790283203
2012-05-10,10.382843971252441
2012-05-11,10.17022705078125
2012-05-14,9.851299285888672
2012-05-15,9.434920310974121
2012-05-16,9.275458335876465
2012-05-17,8.965389251708984
2012-05-18,8.912236213684082
2012-05-21,9.381766319274902
2012-05-22,9.222304344177246
2012-05-23,9.674117088317871
2012-05-24,9.550087928771973
2012-05-25,9.461499214172363
2012-05-29,9.656396865844727
2012-05-30,9.426063537597656
2012-05-31,9.195727348327637
2012-06-01,9.39062786102295
2012-06-04,9.346331596374512
2012-06-05,9.736128807067871
2012-06-06,9.815861701965332
2012-06-07,9.558948516845703
2012-06-08,9.29317569732666
2012-06-11,9.036263465881348
2012-06-12,9.080559730529785
2012-06-13,8.956530570983887
2012-06-14,8.99196720123291
2012-06-15,8.983109474182129
2012-06-18,9.05398178100586
2012-06-19,9.550087928771973
2012-06-20,9.612103462219238
2012-06-21,9.231164932250977
2012-06-22,9.160287857055664
2012-06-25,8.974251747131348
2012-06-26,8.974251747131348
2012-06-27,9.647540092468262
2012-06-28,10.134787559509277
2012-06-29,10.533449172973633
2012-07-02,10.506871223449707
2012-07-03,10.639755249023438
2012-07-05,10.462577819824219
2012-07-06,10.373984336853027
2012-07-09,10.746066093444824
2012-07-10,10.489152908325195
2012-07-11,10.187944412231445
2012-07-12,9.984187126159668
2012-07-13,10.214521408081055
2012-07-16,10.0462007522583
2012-07-17,10.435997009277344
2012-07-18,11.03841495513916
2012-07-19,10.8966703414917
2012-07-20,11.03841495513916
2012-07-23,11.020695686340332
2012-07-24,10.816936492919922
2012-07-25,11.286469459533691
2012-07-26,11.729423522949219
2012-07-27,12.331840515136719
2012-07-30,12.500163078308105
2012-07-31,11.915464401245117
2012-08-01,12.234390258789062
2012-08-02,12.65076732635498
2012-08-03,12.801374435424805
2012-08-06,12.190096855163574
2012-08-07,12.252108573913574
2012-08-08,11.895684242248535
2012-08-09,11.58381175994873
2012-08-10,11.38778018951416
2012-08-13,11.227388381958008
2012-08-14,11.289763450622559
2012-08-15,11.084815979003906
2012-08-16,11.120457649230957
2012-08-17,11.459062576293945
2012-08-20,11.726383209228516
2012-08-21,11.459062576293945
2012-08-22,11.441242218017578
2012-08-23,11.245207786560059
2012-08-24,11.32540512084961
2012-08-27,11.343225479125977
2012-08-28,11.396687507629395
2012-08-29,11.093728065490723
2012-08-30,10.870962142944336
2012-08-31,10.91551399230957
2012-09-04,10.888782501220703
2012-09-05,10.995712280273438
2012-09-06,11.138280868530273
2012-09-07,11.32540512084961
2012-09-10,11.681827545166016
2012-09-11,11.824399948120117
2012-09-12,11.762024879455566
2012-09-13,12.332305908203125
2012-09-14,12.581803321838379
2012-09-17,12.17191219329834
2012-09-18,11.753114700317383
2012-09-19,11.343225479125977
2012-09-20,11.254118919372559
2012-09-21,11.11154842376709
2012-09-24,11.156100273132324
2012-09-25,10.862051010131836
2012-09-26,10.683838844299316
2012-09-27,10.7462158203125
2012-09-28,10.594734191894531
2012-10-01,10.630374908447266
2012-10-02,10.906604766845703
2012-10-03,10.674925804138184
2012-10-04,10.853140830993652
2012-10-05,10.674925804138184
2012-10-08,10.398699760437012
2012-10-09,10.63928508758545
2012-10-10,10.167022705078125
2012-10-11,10.354146003723145
2012-10-12,10.336324691772461
2012-10-15,10.371968269348145
2012-10-16,10.452162742614746
2012-10-17,10.77294635772705
2012-10-18,11.200654983520508
2012-10-19,10.835318565368652
2012-10-22,10.6927490234375
2012-10-23,10.398699760437012
2012-10-24,10.131380081176758
2012-10-25,10.265042304992676
2012-10-26,10.184845924377441
2012-10-31,10.211576461791992
2012-11-01,10.25612735748291
2012-11-02,10.131380081176758
2012-11-05,10.184845924377441
2012-11-06,10.167022705078125
2012-11-07,9.951658248901367
2012-11-08,9.808084487915039
2012-11-09,9.610664367675781
2012-11-12,9.619634628295898
2012-11-13,9.73629379272461
2012-11-14,9.682450294494629
2012-11-15,9.682450294494629
2012-11-16,9.691427230834961
2012-11-19,9.960633277893066
2012-11-20,9.924738883972168
2012-11-21,10.032419204711914
2012-11-23,10.02344799041748
2012-11-26,9.996526718139648
2012-11-27,9.915762901306152
2012-11-28,9.826027870178223
2012-11-29,9.924738883972168
2012-11-30,10.37341594696045
2012-12-03,10.463151931762695
2012-12-04,10.543911933898926
2012-12-05,10.60672378540039
2012-12-06,10.669543266296387
2012-12-07,10.651593208312988
2012-12-10,10.76824951171875
2012-12-11,10.965667724609375
2012-12-12,11.010539054870605
2012-12-13,10.795170783996582
2012-12-14,10.786198616027832
2012-12-17,10.849013328552246
2012-12-18,11.028484344482422
2012-12-19,11.172060012817383
2012-12-20,11.181032180786133
2012-12-21,11.172060012817383
2012-12-24,11.136164665222168
2012-12-26,10.974639892578125
2012-12-27,10.983614921569824
2012-12-28,10.875932693481445
2012-12-31,10.983614921569824
2013-01-02,11.38742446899414
2013-01-03,11.468189239501953
2013-01-04,11.89891529083252
2013-01-07,12.069415092468262
2013-01-08,11.871994972229004
2013-01-09,11.98865032196045
2013-01-10,12.248883247375488
2013-01-11,12.392461776733398
2013-01-14,12.266830444335938
2013-01-15,12.491170883178711
2013-01-16,12.302725791931152
2013-01-17,12.356566429138184
2013-01-18,12.42835521697998
2013-01-22,12.275806427001953
2013-01-23,12.796270370483398
2013-01-24,13.029582023620605
2013-01-25,13.056503295898438
2013-01-28,13.209054946899414
2013-01-29,13.218029022216797
2013-01-30,13.16418743133545
2013-01-31,13.433392524719238
2013-02-01,13.63978385925293
2013-02-04,13.684652328491211
2013-02-05,13.648756980895996
2013-02-06,13.838448524475098
2013-02-07,14.091373443603516
2013-02-08,14.651412010192871
2013-02-11,14.660445213317871
2013-02-12,14.814004898071289
2013-02-13,15.04886245727539
2013-02-14,15.572772979736328
2013-02-15,15.03982925415039
2013-02-19,15.10306167602539
2013-02-20,15.03982925415039
2013-02-21,14.461721420288086
2013-02-22,14.52495288848877
2013-02-25,14.019108772277832
2013-02-26,14.2087984085083
2013-02-27,14.57914924621582
2013-02-28,14.61528205871582
2013-03-01,14.777873992919922
2013-03-04,14.452688217163086
2013-03-05,14.841104507446289
2013-03-06,14.841104507446289
2013-03-07,14.624312400817871
2013-03-08,14.841104507446289
2013-03-11,14.886269569396973
2013-03-12,14.741740226745605
2013-03-13,14.732707977294922
2013-03-14,14.768839836120605
2013-03-15,15.00369930267334
2013-03-18,14.841104507446289
2013-03-19,14.317195892333984
2013-03-20,14.1816987991333
2013-03-21,14.244932174682617
2013-03-22,14.353325843811035
2013-03-25,14.118471145629883
2013-03-26,14.308160781860352
2013-03-27,14.1907320022583
2013-03-28,13.702956199645996
2013-04-01,13.639723777770996
2013-04-02,13.386801719665527
2013-04-03,12.61900520324707
2013-04-04,12.899023056030273
2013-04-05,13.197111129760742
2013-04-08,13.115815162658691
2013-04-09,13.350669860839844
2013-04-10,13.739086151123047
2013-04-11,13.675856590270996
2013-04-12,13.188076972961426
2013-04-15,12.637070655822754
2013-04-16,13.133879661560059
2013-04-17,12.600937843322754
2013-04-18,12.808693885803223
2013-04-19,12.646100997924805
2013-04-22,13.04355239868164
2013-04-23,13.233241081237793
2013-04-24,11.607315063476562
2013-04-25,11.553115844726562
2013-04-26,11.715710639953613
2013-04-29,11.905404090881348
2013-04-30,11.959600448608398
2013-05-01,11.986700057983398
2013-05-02,12.1221923828125
2013-05-03,11.995732307434082
2013-05-06,11.932499885559082
2013-05-07,11.860237121582031
2013-05-08,12.042282104492188
2013-05-09,12.042282104492188
2013-05-10,12.014976501464844
2013-05-13,11.869339942932129
2013-05-14,11.923954010009766
2013-05-15,11.914852142333984
2013-05-16,11.93305492401123
2013-05-17,12.096896171569824
2013-05-20,12.160612106323242
2013-05-21,12.16971492767334
2013-05-22,12.115100860595703
2013-05-23,12.26073932647705
2013-05-24,12.105998992919922
2013-05-28,12.233429908752441
2013-05-29,11.951260566711426
2013-05-30,11.751011848449707
2013-05-31,11.45974063873291
2013-06-03,11.532557487487793
2013-06-04,11.396020889282227
2013-06-05,11.923954010009766
2013-06-06,12.024076461791992
2013-06-07,12.297146797180176
2013-06-10,12.178814888000488
2013-06-11,11.914852142333984
2013-06-12,12.35175895690918
2013-06-13,12.552009582519531
2013-06-14,12.624829292297363
2013-06-17,12.988916397094727
2013-06-18,12.970711708068848
2013-06-19,12.834179878234863
2013-06-20,12.197019577026367
2013-06-21,12.315351486206055
2013-06-24,12.415473937988281
2013-06-25,12.852384567260742
2013-06-26,12.834179878234863
2013-06-27,12.552009582519531
2013-06-28,12.570212364196777
2013-07-01,12.379066467285156
2013-07-02,12.506499290466309
2013-07-03,12.451883316040039
2013-07-05,12.797769546508789
2013-07-08,12.925201416015625
2013-07-09,13.052633285522461
2013-07-10,12.961609840393066
2013-07-11,12.94340705871582
2013-07-12,12.925201416015625
2013-07-15,12.906994819641113
2013-07-16,13.19826889038086
2013-07-17,13.380313873291016
2013-07-18,13.653380393981934
2013-07-19,13.908245086669922
2013-07-22,13.953756332397461
2013-07-23,13.926450729370117
2013-07-24,13.19826889038086
2013-07-25,13.207372665405273
2013-07-26,12.988916397094727
2013-07-29,12.815975189208984
2013-07-30,12.906994819641113
2013-07-31,13.034427642822266
2013-08-01,13.325700759887695
2013-08-02,13.635177612304688
2013-08-05,13.480439186096191
2013-08-06,13.280189514160156
2013-08-07,13.490986824035645
2013-08-08,13.51848030090332
2013-08-09,13.536812782287598
2013-08-12,13.362676620483398
2013-08-13,13.307683944702148
2013-08-14,13.417664527893066
2013-08-15,13.179375648498535
2013-08-16,13.124382019042969
2013-08-19,13.051060676574707
2013-08-20,13.252692222595215
2013-08-21,13.161043167114258
2013-08-22,13.47265625
2013-08-23,13.381003379821777
2013-08-26,13.417664527893066
2013-08-27,13.28935432434082
2013-08-28,13.33517837524414
2013-08-29,13.271023750305176
2013-08-30,13.08772087097168
2013-09-03,13.316847801208496
2013-09-04,13.271023750305176
2013-09-05,13.33517837524414
2013-09-06,13.316847801208496
2013-09-09,13.509316444396973
2013-09-10,13.665122032165527
2013-09-11,13.738444328308105
2013-09-12,13.646791458129883
2013-09-13,13.701783180236816
2013-09-16,13.655956268310547
2013-09-17,13.600968360900879
2013-09-18,13.582636833190918
2013-09-19,13.79343318939209
2013-09-20,13.97673511505127
2013-09-23,13.894248008728027
2013-09-24,14.06838607788086
2013-09-25,14.306676864624023
2013-09-26,14.4441556930542
2013-09-27,14.270015716552734
2013-09-30,14.178366661071777
2013-10-01,14.361666679382324
2013-10-02,14.35250186920166
2013-10-03,14.480813980102539
2013-10-04,14.829087257385254
2013-10-07,14.673280715942383
2013-10-08,14.416656494140625
2013-10-09,14.21502685546875
2013-10-10,14.645783424377441
2013-10-11,14.893242835998535
2013-10-14,15.012385368347168
2013-10-15,14.893242835998535
2013-10-16,15.10403823852539
2013-10-17,15.122370719909668
2013-10-18,15.214021682739258
2013-10-21,14.939065933227539
2013-10-22,14.929903984069824
2013-10-23,15.479806900024414
2013-10-24,15.892233848571777
2013-10-25,16.240509033203125
2013-10-28,16.368818283081055
2013-10-29,16.359649658203125
2013-10-30,16.359649658203125
2013-10-31,16.808746337890625
2013-11-01,16.781246185302734
2013-11-04,16.90955924987793
2013-11-05,16.772079467773438
2013-11-06,16.633846282958984
2013-11-07,16.265230178833008
2013-11-08,16.44953727722168
2013-11-11,16.91031265258789
2013-11-12,16.440322875976562
2013-11-13,16.68914031982422
2013-11-14,16.716787338256836
2013-11-15,16.65227699279785
2013-11-18,16.947172164916992
2013-11-19,16.670711517333984
2013-11-20,16.726001739501953
2013-11-21,16.85502052307129
2013-11-22,17.10383415222168
2013-11-25,16.643064498901367
2013-11-26,16.808940887451172
2013-11-27,16.357393264770508
2013-11-29,16.283666610717773
2013-12-02,16.37582015991211
2013-12-03,16.43111228942871
2013-12-04,16.366601943969727
2013-12-05,16.412683486938477
2013-12-06,16.44953727722168
2013-12-09,16.440322875976562
2013-12-10,16.412683486938477
2013-12-11,16.265230178833008
2013-12-12,16.37582015991211
2013-12-13,16.228370666503906
2013-12-16,16.440322875976562
2013-12-17,16.237592697143555
2013-12-18,16.20993995666504
2013-12-19,16.385034561157227
2013-12-20,16.541698455810547
2013-12-23,16.458757400512695
2013-12-24,16.633846282958984
2013-12-26,16.541698455810547
2013-12-27,16.643064498901367
2013-12-30,16.596986770629883
2013-12-31,16.44953727722168
2014-01-02,16.338956832885742
2014-01-03,16.808940887451172
2014-01-06,16.50483512878418
2014-01-07,16.643064498901367
2014-01-08,16.320528030395508
2014-01-09,16.311315536499023
2014-01-10,16.5877742767334
2014-01-13,16.366601943969727
2014-01-14,16.85502052307129
2014-01-15,16.827375411987305
2014-01-16,16.845808029174805
2014-01-17,17.42637825012207
2014-01-21,17.380300521850586
2014-01-22,17.583038330078125
2014-01-23,17.26971435546875
2014-01-24,17.168346405029297
2014-01-27,16.956388473510742
2014-01-28,17.36186981201172
2014-01-29,16.246801376342773
2014-01-30,15.739952087402344
2014-01-31,15.693877220153809
2014-02-03,15.021148681640625
2014-02-04,15.002718925476074
2014-02-05,15.021148681640625
2014-02-06,15.443171501159668
2014-02-07,15.322593688964844
2014-02-10,15.860552787780762
2014-02-11,16.556190490722656
2014-02-12,16.25011444091797
2014-02-13,16.769519805908203
2014-02-14,16.66749382019043
2014-02-18,17.03850555419922
2014-02-19,17.233278274536133
2014-02-20,17.437334060668945
2014-02-21,17.53008460998535
2014-02-24,18.11442756652832
2014-02-25,17.873268127441406
2014-02-26,17.33530616760254
2014-02-27,17.01995086669922
2014-02-28,17.07560157775879
2014-03-03,16.75096893310547
2014-03-04,16.806621551513672
2014-03-05,16.788068771362305
2014-03-06,16.992128372192383
2014-03-07,17.455881118774414
2014-03-10,17.465158462524414
2014-03-11,17.288930892944336
2014-03-12,17.242555618286133
2014-03-13,17.066326141357422
2014-03-14,17.511537551879883
2014-03-17,17.938196182250977
2014-03-18,18.32775115966797
2014-03-19,18.318477630615234
2014-03-20,18.244274139404297
2014-03-21,18.689481735229492
2014-03-24,18.2906494140625
2014-03-25,18.698759078979492
2014-03-26,18.59673309326172
2014-03-27,18.837886810302734
2014-03-28,19.18106460571289
2014-03-31,18.939912796020508
2014-04-01,19.097591400146484
2014-04-02,19.014114379882812
2014-04-03,18.513254165649414
2014-04-04,18.392675399780273
2014-04-07,17.947471618652344
2014-04-08,18.411224365234375
2014-04-09,18.643108367919922
2014-04-10,18.151517868041992
2014-04-11,18.2721004486084
2014-04-14,18.606006622314453
2014-04-15,19.014114379882812
2014-04-16,19.459321975708008
2014-04-17,19.514976501464844
2014-04-21,19.904529571533203
2014-04-22,19.95090675354004
2014-04-23,20.859872817993164
2014-04-24,20.702199935913086
2014-04-25,20.563068389892578
2014-04-28,20.69291877746582
2014-04-29,20.655820846557617
2014-04-30,20.61872100830078
2014-05-01,20.18278694152832
2014-05-02,20.33119010925293
2014-05-05,20.507417678833008
2014-05-06,20.461044311523438
2014-05-07,20.79188346862793
2014-05-08,20.428421020507812
2014-05-09,20.288633346557617
2014-05-12,20.419105529785156
2014-05-13,20.48434066772461
2014-05-14,20.316587448120117
2014-05-15,19.99972152709961
2014-05-16,20.027685165405273
2014-05-19,20.120878219604492
2014-05-20,20.335229873657227
2014-05-21,20.670730590820312
2014-05-22,20.521615982055664
2014-05-23,20.269989013671875
2014-05-27,20.419105529785156
2014-05-28,20.437744140625
2014-05-29,20.689373016357422
2014-05-30,20.586854934692383
2014-06-02,20.512300491333008
2014-06-03,20.72665023803711
2014-06-04,20.754606246948242
2014-06-05,21.36969566345215
2014-06-06,21.770435333251953
2014-06-09,21.509490966796875
2014-06-10,21.55608558654785
2014-06-11,21.742481231689453
2014-06-12,21.78907585144043
2014-06-13,21.779756546020508
2014-06-16,21.72383689880371
2014-06-17,21.85431480407715
2014-06-18,21.63995933532715
2014-06-19,21.509490966796875
2014-06-20,21.975467681884766
2014-06-23,21.807714462280273
2014-06-24,21.201946258544922
2014-06-25,21.714513778686523
2014-06-26,21.817031860351562
2014-06-27,21.695878982543945
2014-06-30,21.89158821105957
2014-07-01,21.90091323852539
2014-07-02,21.714513778686523
2014-07-03,21.863632202148438
2014-07-07,21.41629409790039
2014-07-08,21.257862091064453
2014-07-09,21.863632202148438
2014-07-10,21.45357322692871
2014-07-11,21.239225387573242
2014-07-14,21.714513778686523
2014-07-15,21.733158111572266
2014-07-16,22.357566833496094
2014-07-17,21.649282455444336
2014-07-18,21.37901496887207
2014-07-21,21.192623138427734
2014-07-22,21.42561149597168
2014-07-23,23.214963912963867
2014-07-24,22.721027374267578
2014-07-25,22.786266326904297
2014-07-28,22.38552474975586
2014-07-29,21.88227081298828
2014-07-30,21.66792106628418
2014-07-31,20.968955993652344
2014-08-01,20.521615982055664
2014-08-04,20.763927459716797
2014-08-05,20.04631996154785
2014-08-06,20.107192993164062
2014-08-07,20.172754287719727
2014-08-08,20.884510040283203
2014-08-11,21.06245231628418
2014-08-12,20.912609100341797
2014-08-13,21.231027603149414
2014-08-14,20.77212905883789
2014-08-15,21.221660614013672
2014-08-18,21.343412399291992
2014-08-19,21.06245231628418
2014-08-20,20.659748077392578
2014-08-21,21.268489837646484
2014-08-22,20.950071334838867
2014-08-25,21.24039077758789
2014-08-26,21.202926635742188
2014-08-27,21.06245231628418
2014-08-28,20.90324592590332
2014-08-29,21.324676513671875
2014-09-02,20.650381088256836
2014-09-03,20.706573486328125
2014-09-04,20.097827911376953
2014-09-05,20.36942481994629
2014-09-08,19.947986602783203
2014-09-09,19.6763973236084
2014-09-10,19.85433578491211
2014-09-11,20.06037139892578
2014-09-12,19.667030334472656
2014-09-15,19.82623863220215
2014-09-16,20.097827911376953
2014-09-17,19.873062133789062
2014-09-18,20.107192993164062
2014-09-19,20.107192993164062
2014-09-22,19.57337760925293
2014-09-23,20.0135440826416
2014-09-24,20.350692749023438
2014-09-25,19.71385383605957
2014-09-26,20.950071334838867
2014-09-29,20.82832145690918
2014-09-30,20.566091537475586
2014-10-01,19.929258346557617
2014-10-02,19.648298263549805
2014-10-03,19.273693084716797
2014-10-06,19.048921585083008
2014-10-07,18.730504989624023
2014-10-08,18.346529006958008
2014-10-09,17.18523597717285
2014-10-10,16.117597579956055
2014-10-13,15.078057289123535
2014-10-14,14.22581958770752
2014-10-15,14.562967300415039
2014-10-16,15.639974594116211
2014-10-17,15.321550369262695
2014-10-20,15.583781242370605
2014-10-21,16.229984283447266
2014-10-22,16.201881408691406
2014-10-23,16.080137252807617
2014-10-24,15.799182891845703
2014-10-27,15.134247779846191
2014-10-28,15.499492645263672
2014-10-29,15.003135681152344
2014-10-30,15.012500762939453
2014-10-31,15.35901165008545
2014-11-03,15.143611907958984
2014-11-04,14.13216495513916
2014-11-05,14.534873008728027
2014-11-06,14.775311470031738
2014-11-07,15.2279052734375
2014-11-10,14.813027381896973
2014-11-11,14.935606002807617
2014-11-12,14.813027381896973
2014-11-13,14.699880599975586
2014-11-14,15.067611694335938
2014-11-17,14.709309577941895
2014-11-18,14.492440223693848
2014-11-19,14.643304824829102
2014-11-20,15.190189361572266
2014-11-21,15.520208358764648
2014-11-24,15.350482940673828
2014-11-25,14.935606002807617
2014-11-26,14.6244478225708
2014-11-28,12.531198501586914
2014-12-01,12.059746742248535
2014-12-02,12.210612297058105
2014-12-03,12.276616096496582
2014-12-04,11.95602798461914
2014-12-05,11.899454116821289
2014-12-08,11.201704025268555
2014-12-09,11.64487075805664
2014-12-10,11.427999496459961
2014-12-11,11.248847961425781
2014-12-12,11.182847023010254
2014-12-15,11.418570518493652
2014-12-16,11.786303520202637
2014-12-17,12.427480697631836
2014-12-18,12.757497787475586
2014-12-19,13.304378509521484
2014-12-22,12.757497787475586
2014-12-23,12.832928657531738
2014-12-24,12.502913475036621
2014-12-26,12.568916320800781
2014-12-29,12.814070701599121
2014-12-30,12.568916320800781
2014-12-31,12.295473098754883
2015-01-02,12.540628433227539
2015-01-05,11.682585716247559
2015-01-06,11.107413291931152
2015-01-07,11.107413291931152
2015-01-08,11.465717315673828
2015-01-09,11.16398811340332
2015-01-12,10.692537307739258
2015-01-13,10.371949195861816
2015-01-14,10.541670799255371
2015-01-15,9.985359191894531
2015-01-16,10.61710262298584
2015-01-20,10.598245620727539
2015-01-21,11.39028549194336
2015-01-22,11.62601089477539
2015-01-23,11.154558181762695
2015-01-26,11.3431396484375
2015-01-27,11.597725868225098
2015-01-28,11.229991912841797
2015-01-29,11.097987174987793
2015-01-30,11.758016586303711
2015-02-02,12.333189010620117
2015-02-03,12.955507278442383
2015-02-04,12.286044120788574
2015-02-05,12.521769523620605
2015-02-06,12.507515907287598
2015-02-09,12.773630142211914
2015-02-10,11.937264442443848
2015-02-11,11.86122989654541
2015-02-12,11.813708305358887
2015-02-13,12.697596549987793
2015-02-17,13.030243873596191
2015-02-18,12.830657005310059
2015-02-19,13.087270736694336
2015-02-20,12.982722282409668
2015-02-23,12.431480407714844
2015-02-24,12.326934814453125
2015-02-25,12.754623413085938
2015-02-26,12.22238826751709
2015-02-27,12.773630142211914
2015-03-02,12.992227554321289
2015-03-03,13.087270736694336
2015-03-04,13.18231201171875
2015-03-05,13.011236190795898
2015-03-06,12.707101821899414
2015-03-09,12.079825401306152
2015-03-10,11.794699668884277
2015-03-11,11.927759170532227
2015-03-12,11.86122989654541
2015-03-13,11.328993797302246
2015-03-16,11.157919883728027
2015-03-17,11.33849811553955
2015-03-18,11.633129119873047
2015-03-19,11.214943885803223
2015-03-20,11.224451065063477
2015-03-23,11.633129119873047
2015-03-24,11.614119529724121
2015-03-25,12.041808128356934
2015-03-26,12.165362358093262
2015-03-27,11.984783172607422
2015-03-30,11.975281715393066
2015-03-31,12.174867630004883
2015-04-01,12.355446815490723
2015-04-02,12.707101821899414
2015-04-06,13.514957427978516
2015-04-07,13.714546203613281
2015-04-08,13.610001564025879
2015-04-09,14.256285667419434
2015-04-10,14.132731437683105
2015-04-13,13.733553886413574
2015-04-14,13.97115707397461
2015-04-15,14.74100112915039
2015-04-16,14.969098091125488
2015-04-17,14.37033462524414
2015-04-20,14.313310623168945
2015-04-21,14.009177207946777
2015-04-22,14.626948356628418
2015-04-23,14.645955085754395
2015-04-24,14.512897491455078
2015-04-27,14.855048179626465
2015-04-28,14.807527542114258
2015-04-29,15.463316917419434
2015-04-30,15.121166229248047
2015-05-01,15.273233413696289
2015-05-04,14.874058723449707
2015-05-05,15.035628318786621
2015-05-06,14.836040496826172
2015-05-07,14.349769592285156
2015-05-08,14.693018913269043
2015-05-11,14.073264122009277
2015-05-12,14.330699920654297
2015-05-13,14.168610572814941
2015-05-14,13.834895133972168
2015-05-15,13.76815128326416
2015-05-18,13.806289672851562
2015-05-19,13.272344589233398
2015-05-20,13.463038444519043
2015-05-21,14.263957977294922
2015-05-22,14.073264122009277
2015-05-26,13.586990356445312
2015-05-27,13.90163803100586
2015-05-28,13.815825462341309
2015-05-29,13.787220001220703
2015-06-01,13.567920684814453
2015-06-02,13.863497734069824
2015-06-03,13.911172866821289
2015-06-04,13.720477104187012
2015-06-05,14.216282844543457
2015-06-08,14.159074783325195
2015-06-09,14.044657707214355
2015-06-10,14.597672462463379
2015-06-11,14.635810852050781
2015-06-12,14.197213172912598
2015-06-15,14.168610572814941
2015-06-16,14.09233283996582
2015-06-17,14.006519317626953
2015-06-18,13.758617401123047
2015-06-19,13.510713577270508
2015-06-22,13.577455520629883
2015-06-23,13.691872596740723
2015-06-24,13.54885196685791
2015-06-25,13.234206199645996
2015-06-26,13.196067810058594
2015-06-29,12.900489807128906
2015-06-30,13.186532974243164
2015-07-01,12.757469177246094
2015-07-02,12.91002368927002
2015-07-06,12.490497589111328
2015-07-07,12.585844993591309
2015-07-08,11.927947998046875
2015-07-09,12.156781196594238
2015-07-10,12.318872451782227
2015-07-13,12.395149230957031
2015-07-14,12.671656608581543
2015-07-15,12.22352409362793
2015-07-16,12.137711524963379
2015-07-17,11.632370948791504
2015-07-20,11.603767395019531
2015-07-21,11.660974502563477
2015-07-22,11.222378730773926
2015-07-23,11.670510292053223
2015-07-24,11.317723274230957
2015-07-27,11.117496490478516
2015-07-28,11.603767395019531
2015-07-29,12.099574089050293
2015-07-30,11.823065757751465
2015-07-31,11.7277193069458
2015-08-03,11.470280647277832
2015-08-04,11.584696769714355
2015-08-05,11.374934196472168
2015-08-06,11.870739936828613
2015-08-07,11.231912612915039
2015-08-10,11.880273818969727
2015-08-11,11.565627098083496
2015-08-12,11.68004322052002
2015-08-13,11.260518074035645
2015-08-14,11.136566162109375
2015-08-17,11.241447448730469
2015-08-18,11.07935619354248
2015-08-19,10.450065612792969
2015-08-20,9.944725036621094
2015-08-21,9.41077995300293
2015-08-24,9.105669021606445
2015-08-25,9.172410011291504
2015-08-26,9.52519702911377
2015-08-27,10.31657886505127
2015-08-28,10.74564266204834
2015-08-31,11.07935619354248
2015-09-01,10.535876274108887
2015-09-02,10.39285659790039
2015-09-03,10.583551406860352
2015-09-04,10.087746620178223
2015-09-08,10.173558235168457
2015-09-09,9.830309867858887
2015-09-10,9.706355094909668
2015-09-11,9.324966430664062
2015-09-14,9.363105773925781
2015-09-15,9.7540283203125
2015-09-16,10.450065612792969
2015-09-17,10.507275581359863
2015-09-18,9.944725036621094
2015-09-21,9.830309867858887
2015-09-22,9.849376678466797
2015-09-23,9.658682823181152
2015-09-24,9.811239242553711
2015-09-25,9.363105773925781
2015-09-28,8.8291597366333
2015-09-29,8.752882957458496
2015-09-30,8.438238143920898
2015-10-01,8.142661094665527
2015-10-02,9.019854545593262
2015-10-05,9.706355094909668
2015-10-06,10.459600448608398
2015-10-07,10.879128456115723
2015-10-08,11.41307258605957
2015-10-09,11.470280647277832
2015-10-12,11.07935619354248
2015-10-13,10.936336517333984
2015-10-14,10.926802635192871
2015-10-15,11.260518074035645
2015-10-16,10.802848815917969
2015-10-19,10.554945945739746
2015-10-20,10.755175590515137
2015-10-21,10.554945945739746
2015-10-22,10.993544578552246
2015-10-23,10.888662338256836
2015-10-26,10.783781051635742
2015-10-27,10.154487609863281
2015-10-28,11.041217803955078
2015-10-29,10.421460151672363
2015-10-30,10.516806602478027
2015-11-02,11.09842586517334
2015-11-03,11.803997039794922
2015-11-04,11.498886108398438
2015-11-05,11.432141304016113
2015-11-06,11.880273818969727
2015-11-09,11.937481880187988
2015-11-10,12.137711524963379
2015-11-11,11.718183517456055
2015-11-12,11.460748672485352
2015-11-13,11.432141304016113
2015-11-16,11.746788024902344
2015-11-17,11.355864524841309
2015-11-18,12.175851821899414
2015-11-19,11.422607421875
2015-11-20,11.317723274230957
2015-11-23,11.803997039794922
2015-11-24,12.519103050231934
2015-11-25,12.480962753295898
2015-11-27,12.252130508422852
2015-11-30,12.633517265319824
2015-12-01,12.528637886047363
2015-12-02,12.614447593688965
2015-12-03,12.719330787658691
2015-12-04,12.213990211486816
2015-12-07,11.603767395019531
2015-12-08,11.546557426452637
2015-12-09,11.765857696533203
2015-12-10,12.175851821899414
2015-12-11,11.794464111328125
2015-12-14,11.78492546081543
2015-12-15,12.500031471252441
2015-12-16,12.19491958618164
2015-12-17,11.870739936828613
2015-12-18,11.527488708496094
2015-12-21,10.993544578552246
2015-12-22,11.613302230834961
2015-12-23,12.30933952331543
2015-12-24,12.175851821899414
2015-12-28,11.708649635314941
2015-12-29,11.594232559204102
2015-12-30,11.384466171264648
2015-12-31,11.394003868103027
2016-01-04,11.327260971069336
2016-01-05,10.964940071105957
2016-01-06,10.898197174072266
2016-01-07,10.497737884521484
2016-01-08,10.20216178894043
2016-01-11,10.030538558959961
2016-01-12,10.421460151672363
2016-01-13,10.297510147094727
2016-01-14,10.86959171295166
2016-01-15,10.764710426330566
2016-01-19,10.221232414245605
2016-01-20,9.868447303771973
2016-01-21,9.963793754577637
2016-01-22,10.335648536682129
2016-01-25,9.916119575500488
2016-01-26,10.268905639648438
2016-01-27,11.250982284545898
2016-01-28,11.174704551696777
2016-01-29,11.889809608459473
2016-02-01,11.489351272583008
2016-02-02,11.260518074035645
2016-02-03,11.603767395019531
2016-02-04,12.252130508422852
2016-02-05,12.185384750366211
2016-02-08,12.147245407104492
2016-02-09,12.080503463745117
2016-02-10,11.365398406982422
2016-02-11,11.41307258605957
2016-02-12,12.252130508422852
2016-02-16,12.042366027832031
2016-02-17,13.005373001098633
2016-02-18,12.976768493652344
2016-02-19,12.29980182647705
2016-02-22,12.795608520507812
2016-02-23,12.185384750366211
2016-02-24,11.908879280090332
2016-02-25,11.813532829284668
2016-02-26,12.738399505615234
2016-02-29,12.938630104064941
2016-03-01,12.948163986206055
2016-03-02,13.501178741455078
2016-03-03,13.863497734069824
2016-03-04,13.949310302734375
2016-03-07,13.701408386230469
2016-03-08,13.167463302612305
2016-03-09,13.615594863891602
2016-03-10,13.586990356445312
2016-03-11,13.606061935424805
2016-03-14,13.253274917602539
2016-03-15,13.148393630981445
2016-03-16,13.577455520629883
2016-03-17,13.148393630981445
2016-03-18,12.74793529510498
2016-03-21,13.148393630981445
2016-03-22,13.091185569763184
2016-03-23,12.98630428314209
2016-03-24,13.072115898132324
2016-03-28,13.148393630981445
2016-03-29,13.148393630981445
2016-03-30,13.844429016113281
2016-03-31,13.520247459411621
2016-04-01,13.358159065246582
2016-04-04,13.110254287719727
2016-04-05,13.129323959350586
2016-04-06,13.482109069824219
2016-04-07,12.862351417541504
2016-04-08,13.472575187683105
2016-04-11,13.415366172790527
2016-04-12,13.996984481811523
2016-04-13,14.225818634033203
2016-04-14,14.178144454956055
2016-04-15,13.96838092803955
2016-04-18,14.082797050476074
2016-04-19,14.168610572814941
2016-04-20,13.977914810180664
2016-04-21,13.930240631103516
2016-04-22,14.09233283996582
2016-04-25,13.567920684814453
2016-04-26,13.691872596740723
2016-04-27,14.302096366882324
2016-04-28,14.3688383102417
2016-04-29,14.416511535644531
2016-05-02,13.939776420593262
2016-05-03,13.234206199645996
2016-05-04,12.681191444396973
2016-05-05,13.119789123535156
2016-05-06,13.062580108642578
2016-05-09,12.776538848876953
2016-05-10,13.062580108642578
2016-05-11,13.148393630981445
2016-05-12,13.243741989135742
2016-05-13,12.776538848876953
2016-05-16,13.396297454833984
2016-05-17,13.33908748626709
2016-05-18,13.196067810058594
2016-05-19,12.938630104064941
2016-05-20,13.32001781463623
2016-05-23,13.424901008605957
2016-05-24,13.520247459411621
2016-05-25,13.939776420593262
2016-05-26,13.987449645996094
2016-05-27,13.939776420593262
2016-05-31,14.063727378845215
2016-06-01,13.911172866821289
2016-06-02,13.491644859313965
2016-06-03,14.044657707214355
2016-06-06,15.57021427154541
2016-06-07,15.675097465515137
2016-06-08,15.789515495300293
2016-06-09,15.465332984924316
2016-06-10,15.255569458007812
2016-06-13,15.169755935668945
2016-06-14,14.864645004272461
2016-06-15,14.740694999694824
2016-06-16,14.349769592285156
2016-06-17,14.912317276000977
2016-06-20,14.693018913269043
2016-06-21,14.864645004272461
2016-06-22,14.750229835510254
2016-06-23,15.131617546081543
2016-06-24,14.321166038513184
2016-06-27,13.567920684814453
2016-06-28,14.054194450378418
2016-06-29,14.426047325134277
2016-06-30,14.8074369430542
2016-07-01,15.007667541503906
2016-07-05,14.607207298278809
2016-07-06,14.559534072875977
2016-07-07,14.445116996765137
2016-07-08,14.750229835510254
2016-07-11,14.588139533996582
2016-07-12,14.912317276000977
2016-07-13,14.31163215637207
2016-07-14,14.406978607177734
2016-07-15,14.397442817687988
2016-07-18,14.273493766784668
2016-07-19,13.863497734069824
2016-07-20,13.911172866821289
2016-07-21,13.606061935424805
2016-07-22,13.66326904296875
2016-07-25,13.386760711669922
2016-07-26,13.710942268371582
2016-07-27,13.853962898254395
2016-07-28,13.510713577270508
2016-07-29,13.815825462341309
2016-08-01,13.243741989135742
2016-08-02,13.091185569763184
2016-08-03,13.520247459411621
2016-08-04,13.710942268371582
2016-08-05,14.10186767578125
2016-08-08,14.492792129516602
2016-08-09,14.483255386352539
2016-08-10,14.435582160949707
2016-08-11,14.68348503112793
2016-08-12,14.740694999694824
2016-08-15,14.912317276000977
2016-08-16,14.836040496826172
2016-08-17,15.083944320678711
2016-08-18,15.45579719543457
2016-08-19,15.58928394317627
2016-08-22,15.188825607299805
2016-08-23,15.160222053527832
2016-08-24,14.845574378967285
2016-08-25,14.931386947631836
2016-08-26,14.969527244567871
2016-08-29,14.68348503112793
2016-08-30,14.68348503112793
2016-08-31,14.616742134094238
2016-09-01,14.235352516174316
2016-09-02,14.454651832580566
2016-09-06,14.550000190734863
2016-09-07,14.521395683288574
2016-09-08,15.112546920776367
2016-09-09,14.626276969909668
2016-09-12,14.550000190734863
2016-09-13,13.930240631103516
2016-09-14,13.758617401123047
2016-09-15,13.844429016113281
2016-09-16,13.920707702636719
2016-09-19,14.168610572814941
2016-09-20,14.159074783325195
2016-09-21,14.721625328063965
2016-09-22,15.131617546081543
2016-09-23,14.845574378967285
2016-09-26,14.969527244567871
2016-09-27,14.883713722229004
2016-09-28,15.69416618347168
2016-09-29,15.675097465515137
2016-09-30,16.018346786499023
2016-10-03,16.170900344848633
2016-10-04,15.980206489562988
2016-10-05,16.6953125
2016-10-06,16.981353759765625
2016-10-07,17.048095703125
2016-10-10,17.32460594177246
2016-10-11,17.200651168823242
2016-10-12,17.343677520751953
2016-10-13,17.61064910888672
2016-10-14,17.582042694091797
2016-10-17,17.334138870239258
2016-10-18,17.772735595703125
2016-10-19,18.096920013427734
2016-10-20,17.763202667236328
2016-10-21,17.725065231323242
2016-10-24,17.56297492980957
2016-10-25,17.1339111328125
2016-10-26,16.94321632385254
2016-10-27,17.200651168823242
2016-10-28,16.857406616210938
2016-10-31,16.46647834777832
2016-11-01,16.313926696777344
2016-11-02,16.037416458129883
2016-11-03,15.980206489562988
2016-11-04,15.932535171508789
2016-11-07,16.29485511779785
2016-11-08,16.180103302001953
2016-11-09,16.801673889160156
2016-11-10,16.476545333862305
2016-11-11,16.084474563598633
2016-11-14,16.208789825439453
2016-11-15,17.212875366210938
2016-11-16,16.99293327331543
2016-11-17,17.212875366210938
2016-11-18,17.098119735717773
2016-11-21,17.46150779724121
2016-11-22,17.423254013061523
2016-11-23,17.60494613647461
2016-11-25,17.48063087463379
2016-11-28,17.3276309967041
2016-11-29,16.97380828857422
2016-11-30,19.201919555664062
2016-12-01,19.813932418823242
2016-12-02,20.387691497802734
2016-12-05,20.68413543701172
2016-12-06,20.454631805419922
2016-12-07,20.31119155883789
2016-12-08,20.445070266723633
2016-12-09,20.253816604614258
2016-12-12,20.292064666748047
2016-12-13,19.957374572753906
2016-12-14,19.421857833862305
2016-12-15,19.240171432495117
2016-12-16,18.809846878051758
2016-12-19,18.752473831176758
2016-12-20,19.0584774017334
2016-12-21,19.364484786987305
2016-12-22,19.383607864379883
2016-12-23,19.0584774017334
2016-12-27,19.29754638671875
2016-12-28,19.106292724609375
2016-12-29,18.800283432006836
2016-12-30,18.943723678588867
2017-01-03,19.58442497253418
2017-01-04,19.995622634887695
2017-01-05,20.263378143310547
2017-01-06,20.59807586669922
2017-01-09,20.435508728027344
2017-01-10,19.96693229675293
2017-01-11,20.014747619628906
2017-01-12,20.425945281982422
2017-01-13,20.349443435668945
2017-01-17,20.98058319091797
2017-01-18,20.751079559326172
2017-01-19,20.66501235961914
2017-01-20,21.114459991455078
2017-01-23,20.3016300201416
2017-01-24,20.712825775146484
2017-01-25,21.439592361450195
2017-01-26,20.827579498291016
2017-01-27,20.703266143798828
2017-01-30,20.445070266723633
2017-01-31,20.57894515991211
2017-02-01,20.59807586669922
2017-02-02,20.435508728027344
2017-02-03,20.961458206176758
2017-02-06,20.65544891357422
2017-02-07,20.483318328857422
2017-02-08,20.378129959106445
2017-02-09,20.818016052246094
2017-02-10,20.77020263671875
2017-02-13,20.559823989868164
2017-02-14,20.89451789855957
2017-02-15,20.320756912231445
2017-02-16,20.263378143310547
2017-02-17,19.947811126708984
2017-02-21,19.574861526489258
2017-02-22,19.240171432495117
2017-02-23,18.962848663330078
2017-02-24,18.628156661987305
2017-02-27,18.876785278320312
2017-02-28,19.125417709350586
2017-03-01,19.861745834350586
2017-03-02,19.44098663330078
2017-03-03,19.15410614013672
2017-03-06,18.924602508544922
2017-03-07,18.59946632385254
2017-03-08,17.62407112121582
2017-03-09,17.70057487487793
2017-03-10,17.691011428833008
2017-03-13,17.652759552001953
2017-03-14,17.509319305419922
2017-03-15,18.169147491455078
2017-03-16,17.872699737548828
2017-03-17,17.518878936767578
2017-03-20,17.318065643310547
2017-03-21,17.145936965942383
2017-03-22,16.6773624420166
2017-03-23,16.629549026489258
2017-03-24,16.457420349121094
2017-03-27,16.094036102294922
2017-03-28,16.486106872558594
2017-03-29,16.88774299621582
2017-03-30,16.983369827270508
2017-03-31,17.509319305419922
2017-04-03,17.538007736206055
2017-04-04,17.882266998291016
2017-04-05,18.13089370727539
2017-04-06,18.56121826171875
2017-04-07,18.398649215698242
2017-04-10,18.85765838623047
2017-04-11,18.69509506225586
2017-04-12,18.341272354125977
2017-04-13,18.044830322265625
2017-04-17,17.95876693725586
2017-04-18,17.681446075439453
2017-04-19,17.10768699645996
2017-04-20,17.088563919067383
2017-04-21,16.7921142578125
2017-04-24,16.78255271911621
2017-04-25,17.117244720458984
2017-04-26,17.85357666015625
2017-04-27,17.48063087463379
2017-04-28,17.375442504882812
2017-05-01,17.509319305419922
2017-05-02,17.36587905883789
2017-05-03,17.375442504882812
2017-05-04,16.371356964111328
2017-05-05,16.897306442260742
2017-05-08,16.925994873046875
2017-05-09,16.78255271911621
2017-05-10,17.528444290161133
2017-05-11,17.308500289916992
2017-05-12,17.26068687438965
2017-05-15,17.920515060424805
2017-05-16,17.95876693725586
2017-05-17,17.375442504882812
2017-05-18,18.10220718383789
2017-05-19,19.15410614013672
2017-05-22,19.010663986206055
2017-05-23,19.374048233032227
2017-05-24,19.345359802246094
2017-05-25,18.360401153564453
2017-05-26,18.494279861450195
2017-05-30,18.121334075927734
2017-05-31,17.96833038330078
2017-06-01,18.303024291992188
2017-06-02,17.90138816833496
2017-06-05,18.188270568847656
2017-06-06,19.06804084777832
2017-06-07,18.28390121459961
2017-06-08,18.52297019958496
2017-06-09,19.45054817199707
2017-06-12,19.670490264892578
2017-06-13,20.31119155883789
2017-06-14,19.689617156982422
2017-06-15,19.374048233032227
2017-06-16,20.091249465942383
2017-06-19,20.100811004638672
2017-06-20,19.326231002807617
2017-06-21,18.159582138061523
2017-06-22,17.97789192199707
2017-06-23,17.96833038330078
2017-06-26,18.43690299987793
2017-06-27,18.637718200683594
2017-06-28,19.268857955932617
2017-06-29,19.287982940673828
2017-06-30,19.326231002807617
2017-07-03,19.899995803833008
2017-07-05,18.82897186279297
2017-07-06,18.341272354125977
2017-07-07,18.073518753051758
2017-07-10,18.666406631469727
2017-07-11,19.106292724609375
2017-07-12,19.287982940673828
2017-07-13,19.78524398803711
2017-07-14,20.04343605041504
2017-07-17,20.24425506591797
2017-07-18,19.91912078857422
2017-07-19,20.636323928833008
2017-07-20,20.445070266723633
2017-07-21,19.79480743408203
2017-07-24,19.31667137145996
2017-07-25,20.07212257385254
2017-07-26,20.31119155883789
2017-07-27,20.49288558959961
2017-07-28,20.607633590698242
2017-07-31,19.80436897277832
2017-08-01,19.813932418823242
2017-08-02,20.20600128173828
2017-08-03,20.129497528076172
2017-08-04,20.464195251464844
2017-08-07,19.603551864624023
2017-08-08,19.699460983276367
2017-08-09,19.852914810180664
2017-08-10,19.315826416015625
2017-08-11,18.893835067749023
2017-08-14,18.682838439941406
2017-08-15,17.91557502746582
2017-08-16,17.608671188354492
2017-08-17,17.877208709716797
2017-08-18,17.848440170288086
2017-08-21,17.31135368347168
2017-08-22,17.599079132080078
2017-08-23,17.694988250732422
2017-08-24,17.762121200561523
2017-08-25,17.92516326904297
2017-08-28,18.155344009399414
2017-08-29,18.212886810302734
2017-08-30,18.04984474182129
2017-08-31,18.61570167541504
2017-09-01,18.567747116088867
2017-09-05,19.584373474121094
2017-09-06,19.958410263061523
2017-09-07,20.08308982849121
2017-09-08,19.507644653320312
2017-09-11,20.274906158447266
2017-09-12,20.811992645263672
2017-09-13,21.31070899963379
2017-09-14,21.34907341003418
2017-09-15,21.761478424072266
2017-09-18,21.771066665649414
2017-09-19,21.780658721923828
2017-09-20,22.116336822509766
2017-09-21,22.452014923095703
2017-09-22,22.76850700378418
2017-09-25,23.037050247192383
2017-09-26,23.33436393737793
2017-09-27,23.305591583251953
2017-09-28,23.564546585083008
2017-09-29,23.775541305541992
2017-10-02,23.708402633666992
2017-10-03,23.33436393737793
2017-10-04,23.094594955444336
2017-10-05,22.998687744140625
2017-10-06,22.14510726928711
2017-10-09,22.116336822509766
2017-10-10,21.79983901977539
2017-10-11,21.953292846679688
2017-10-12,21.83820152282715
2017-10-13,21.83820152282715
2017-10-16,21.9628849029541
2017-10-17,21.79983901977539
2017-10-18,21.71352195739746
2017-10-19,21.492935180664062
2017-10-20,21.83820152282715
2017-10-23,21.579252243041992
2017-10-24,21.320302963256836
2017-10-25,21.26275634765625
2017-10-26,21.953292846679688
2017-10-27,22.46160316467285
2017-10-30,22.816463470458984
2017-10-31,23.315183639526367
2017-11-01,23.92899513244629
2017-11-02,24.197534561157227
2017-11-03,24.456483840942383
2017-11-06,25.185386657714844
2017-11-07,24.571577072143555
2017-11-08,24.629121780395508
2017-11-09,24.368751525878906
2017-11-10,23.87693977355957
2017-11-13,23.2886962890625
2017-11-14,22.411148071289062
2017-11-15,22.044702529907227
2017-11-16,22.063987731933594
2017-11-17,22.469005584716797
2017-11-20,22.05434799194336
2017-11-21,22.411148071289062
2017-11-22,22.266496658325195
2017-11-24,22.343645095825195
2017-11-27,22.430435180664062
2017-11-28,22.719736099243164
2017-11-29,22.70045280456543
2017-11-30,23.182621002197266
2017-12-01,23.983016967773438
2017-12-04,24.23374366760254
2017-12-05,23.645496368408203
2017-12-06,23.057252883911133
2017-12-07,23.14404296875
2017-12-08,23.4526309967041
2017-12-11,23.954086303710938
2017-12-12,23.770862579345703
2017-12-13,23.597278594970703
2017-12-14,23.230833053588867
2017-12-15,23.394771575927734
2017-12-18,23.954086303710938
2017-12-19,24.320533752441406
2017-12-20,25.16914939880371
2017-12-21,25.77667808532715
2017-12-22,25.255937576293945
2017-12-26,25.48737907409668
2017-12-27,25.236650466918945
2017-12-28,24.53268814086914
2017-12-29,24.619478225708008
2018-01-02,25.09200096130371
2018-01-03,24.773771286010742
2018-01-04,25.236650466918945
2018-01-05,25.294511795043945
2018-01-08,25.641672134399414
2018-01-09,25.120929718017578
2018-01-10,23.404415130615234
2018-01-11,24.359106063842773
2018-01-12,23.6647891998291
2018-01-16,23.5008487701416
2018-01-17,23.780508041381836
2018-01-18,23.4622745513916
2018-01-19,23.770862579345703
2018-01-22,24.503755569458008
2018-01-23,24.23374366760254
2018-01-24,21.543249130249023
2018-01-25,20.59819984436035
2018-01-26,20.01959800720215
2018-01-29,19.527788162231445
2018-01-30,19.63386344909668
2018-01-31,19.479572296142578
2018-02-01,20.386045455932617
2018-02-02,19.37349510192871
2018-02-05,18.929899215698242
2018-02-06,19.576004028320312
2018-02-07,19.016687393188477
2018-02-08,17.960206985473633
2018-02-09,17.13634490966797
2018-02-12,17.969900131225586
2018-02-13,17.688817977905273
2018-02-14,18.221904754638672
2018-02-15,17.872974395751953
2018-02-16,18.2025203704834
2018-02-20,18.047439575195312
2018-02-21,18.338214874267578
2018-02-22,19.103919982910156
2018-02-23,19.36562156677246
2018-02-26,19.103919982910156
2018-02-27,19.016691207885742
2018-02-28,19.036073684692383
2018-03-01,19.055458068847656
2018-03-02,19.220232009887695
2018-03-05,19.259002685546875
2018-03-06,19.123306274414062
2018-03-07,18.696836471557617
2018-03-08,19.394699096679688
2018-03-09,19.83085823059082
2018-03-12,19.976247787475586
2018-03-13,19.73393440246582
2018-03-14,19.239614486694336
2018-03-15,18.803457260131836
2018-03-16,19.627317428588867
2018-03-19,18.987613677978516
2018-03-20,19.268693923950195
2018-03-21,19.69516372680664
2018-03-22,18.716218948364258
2018-03-23,17.562816619873047
2018-03-26,17.7178955078125
2018-03-27,17.242961883544922
2018-03-28,16.52571678161621
2018-03-29,17.475582122802734
2018-04-02,16.69049072265625
2018-04-03,16.97157096862793
2018-04-04,17.02972412109375
2018-04-05,17.698511123657227
2018-04-06,16.680795669555664
2018-04-09,16.244632720947266
2018-04-10,17.60158348083496
2018-04-11,17.688817977905273
2018-04-12,17.834203720092773
2018-04-13,17.611278533935547
2018-04-16,17.88266944885254
2018-04-17,18.01836395263672
2018-04-18,18.65806770324707
2018-04-19,18.667760848999023
2018-04-20,18.60960578918457
2018-04-23,18.667760848999023
2018-04-24,18.2025203704834
2018-04-25,17.3786563873291
2018-04-26,17.291425704956055
2018-04-27,17.436809539794922
2018-04-30,17.45619773864746
2018-05-01,17.5240421295166
2018-05-02,18.183137893676758
2018-05-03,17.9117431640625
2018-05-04,17.737279891967773
2018-05-07,18.163747787475586
2018-05-08,18.289752960205078
2018-05-09,18.465147018432617
2018-05-10,18.621051788330078
2018-05-11,18.4943790435791
2018-05-14,18.806190490722656
2018-05-15,18.767215728759766
2018-05-16,18.83542251586914
2018-05-17,19.059537887573242
2018-05-18,18.192310333251953
2018-05-21,18.533353805541992
2018-05-22,18.250774383544922
2018-05-23,18.241029739379883
2018-05-24,17.597915649414062
2018-05-25,16.457853317260742
2018-05-29,16.60401725769043
2018-05-30,16.984037399291992
2018-05-31,15.999878883361816
2018-06-01,15.51267147064209
2018-06-04,15.171626091003418
2018-06-05,15.152138710021973
2018-06-06,14.830582618713379
2018-06-07,14.772116661071777
2018-06-08,13.748981475830078
2018-06-11,13.778215408325195
2018-06-12,14.236188888549805
2018-06-13,14.109514236450195
2018-06-14,13.826934814453125
2018-06-15,13.79770278930664
2018-06-18,13.904888153076172
2018-06-19,13.690518379211426
2018-06-20,13.729494094848633
2018-06-21,13.602819442749023
2018-06-22,13.817191123962402
2018-06-25,13.300750732421875
2018-06-26,13.5638427734375
2018-06-27,14.236188888549805
2018-06-28,14.255678176879883
2018-06-29,14.197211265563965
2018-07-02,13.856167793273926
2018-07-03,14.4213285446167
2018-07-05,14.674674987792969
2018-07-06,14.850069999694824
2018-07-09,15.239834785461426
2018-07-10,14.69416332244873
2018-07-11,14.577234268188477
2018-07-12,14.538257598876953
2018-07-13,14.742883682250977
2018-07-16,14.353117942810059
2018-07-17,14.586978912353516
2018-07-18,14.460304260253906
2018-07-19,14.226445198059082
2018-07-20,14.655187606811523
2018-07-23,13.885398864746094
2018-07-24,13.641796112060547
2018-07-25,13.398192405700684
2018-07-26,13.885398864746094
2018-07-27,14.440814971923828
2018-07-30,14.655187606811523
2018-07-31,14.4213285446167
2018-08-01,14.245933532714844
2018-08-02,14.37260627746582
2018-08-03,14.37260627746582
2018-08-06,14.470047950744629
2018-08-07,14.489537239074707
2018-08-08,14.655187606811523
2018-08-09,14.409953117370605
2018-08-10,14.831754684448242
2018-08-13,14.498237609863281
2018-08-14,14.674806594848633
2018-08-15,13.831201553344727
2018-08-16,14.007768630981445
2018-08-17,14.429572105407715
2018-08-20,14.655187606811523
2018-08-21,14.939659118652344
2018-08-22,14.674806594848633
2018-08-23,14.076435089111328
2018-08-24,14.2235746383667
2018-08-27,14.35109806060791
2018-08-28,14.135292053222656
2018-08-29,14.11567211151123
2018-08-30,13.1543550491333
2018-08-31,13.419207572937012
2018-09-04,13.3603515625
2018-09-05,13.203401565551758
2018-09-06,13.075879096984863
2018-09-07,13.036642074584961
2018-09-10,13.301495552062988
2018-09-11,13.684060096740723
2018-09-12,14.174529075622559
2018-09-13,14.017579078674316
2018-09-14,14.635568618774414
2018-09-17,14.62575912475586
2018-09-18,15.067180633544922
2018-09-19,15.086799621582031
2018-09-20,15.165274620056152
2018-09-21,15.36146068572998
2018-09-24,15.538030624389648
2018-09-25,15.714599609375
2018-09-26,15.116226196289062
2018-09-27,15.253559112548828
2018-09-28,15.184892654418945
2018-10-01,15.430127143859863
2018-10-02,15.92059326171875
2018-10-03,16.489538192749023
2018-10-04,16.558202743530273
2018-10-05,16.587631225585938
2018-10-08,16.538583755493164
2018-10-09,16.568012237548828
2018-10-10,15.459556579589844
2018-10-11,15.155465126037598
2018-10-12,15.00832462310791
2018-10-15,15.086799621582031
2018-10-16,15.29279613494873
2018-10-17,15.224130630493164
2018-10-18,14.606141090393066
2018-10-19,14.468809127807617
2018-10-22,14.282431602478027
2018-10-23,13.674250602722168
2018-10-24,12.77178955078125
2018-10-25,13.409398078918457
2018-10-26,14.096053123474121
2018-10-29,13.860629081726074
2018-10-30,14.70423412322998
2018-10-31,14.596331596374512
2018-11-01,14.557093620300293
2018-11-02,14.51785659790039
2018-11-05,14.714043617248535
2018-11-06,14.321669578552246
2018-11-07,14.35109806060791
2018-11-08,13.996262550354004
2018-11-09,13.641427993774414
2018-11-12,13.20773983001709
2018-11-13,12.685345649719238
2018-11-14,12.971184730529785
2018-11-15,13.247166633605957
2018-11-16,13.808989524841309
2018-11-19,14.213106155395508
2018-11-20,13.69071102142334
2018-11-21,13.88784122467041
2018-11-23,13.503436088562012
2018-11-26,13.838558197021484
2018-11-27,14.02583122253418
2018-11-28,14.045544624328613
2018-11-29,13.838558197021484
2018-11-30,12.892332077026367
2018-12-03,13.404870986938477
2018-12-04,12.586779594421387
2018-12-06,11.99538803100586
2018-12-07,11.689835548400879
2018-12-10,11.502561569213867
2018-12-11,11.17729663848877
2018-12-12,11.335001945495605
2018-12-13,11.039305686950684
2018-12-14,10.871744155883789
2018-12-17,10.881601333618164
2018-12-18,10.990022659301758
2018-12-19,10.280353546142578
2018-12-20,9.984657287597656
2018-12-21,9.669249534606934
2018-12-24,9.393265724182129
2018-12-26,10.09307861328125
2018-12-27,9.856523513793945
2018-12-28,9.787527084350586
2018-12-31,9.728387832641602
2019-01-02,10.191644668579102
2019-01-03,10.319779396057129
2019-01-04,10.398632049560547
2019-01-07,10.66475772857666
2019-01-08,10.398632049560547
2019-01-09,10.674614906311035
2019-01-10,10.960453987121582
2019-01-11,10.842175483703613
2019-01-14,10.930883407592773
2019-01-15,11.12801456451416
2019-01-16,11.344858169555664
2019-01-17,11.21672248840332
2019-01-18,11.374427795410156
2019-01-22,11.226579666137695
2019-01-23,10.536623001098633
2019-01-24,10.753466606140137
2019-01-25,11.43356704711914
2019-01-28,10.704183578491211
2019-01-29,10.812605857849121
2019-01-30,10.704183578491211
2019-01-31,10.635188102722168
2019-02-01,10.73375415802002
2019-02-04,10.891457557678223
2019-02-05,10.97031021118164
2019-02-06,10.881601333618164
2019-02-07,10.497196197509766
2019-02-08,10.337998390197754
2019-02-11,10.626546859741211
2019-02-12,10.606646537780762
2019-02-13,10.536996841430664
2019-02-14,10.517096519470215
2019-02-15,10.527047157287598
2019-02-19,10.586747169494629
2019-02-20,11.024544715881348
2019-02-21,10.716096878051758
2019-02-22,10.73599624633789
2019-02-25,10.745945930480957
2019-02-26,10.387747764587402
2019-02-27,10.805644989013672
2019-02-28,10.696196556091309
2019-03-01,10.67629623413086
2019-03-04,10.75589656829834
2019-03-05,10.4573974609375
2019-03-06,9.880300521850586
2019-03-07,9.790750503540039
2019-03-08,9.621602058410645
2019-03-11,9.731050491333008
2019-03-12,9.74100112915039
2019-03-13,9.830551147460938
2019-03-14,9.920100212097168
2019-03-15,9.85045051574707
2019-03-18,10.208648681640625
2019-03-19,10.148948669433594
2019-03-20,10.427547454833984
2019-03-21,10.43749713897705
2019-03-22,10.019598960876465
2019-03-25,10.138998985290527
2019-03-26,10.775795936584473
2019-03-27,10.984745025634766
2019-03-28,11.323042869567871
2019-03-29,11.352892875671387
2019-04-01,11.959840774536133
2019-04-02,11.76084041595459
2019-04-03,11.601641654968262
2019-04-04,12.238438606262207
2019-04-05,12.64638614654541
2019-04-08,12.805585861206055
2019-04-09,12.308088302612305
2019-04-10,12.507086753845215
2019-04-11,12.387687683105469
2019-04-12,12.467287063598633
2019-04-15,12.377737045288086
2019-04-16,12.656336784362793
2019-04-17,12.606586456298828
2019-04-18,12.397637367248535
2019-04-22,12.656336784362793
2019-04-23,12.825486183166504
2019-04-24,10.546947479248047
2019-04-25,10.477296829223633
2019-04-26,10.646446228027344
2019-04-29,10.576796531677246
2019-04-30,10.23849868774414
2019-05-01,10.089249610900879
2019-05-02,10.208648681640625
2019-05-03,10.288248062133789
2019-05-06,10.36784839630127
2019-05-07,10.308147430419922
2019-05-08,9.9399995803833
2019-05-09,9.890000343322754
2019-05-10,9.630000114440918
2019-05-13,9.25
2019-05-14,9.630000114440918
2019-05-15,9.710000038146973
2019-05-16,9.65999984741211
2019-05-17,9.119999885559082
2019-05-20,9.0
2019-05-21,9.029999732971191
2019-05-22,8.470000267028809
2019-05-23,8.0600004196167
2019-05-24,8.010000228881836
2019-05-28,7.960000038146973
2019-05-29,7.909999847412109
2019-05-30,7.619999885559082
2019-05-31,7.440000057220459
2019-06-03,7.5
2019-06-04,7.690000057220459
2019-06-05,7.599999904632568
2019-06-06,7.489999771118164
2019-06-07,7.53000020980835
2019-06-10,7.320000171661377
2019-06-11,7.349999904632568
2019-06-12,6.829999923706055
2019-06-13,7.150000095367432
2019-06-14,6.840000152587891
2019-06-17,7.130000114440918
2019-06-18,7.039999961853027
2019-06-19,6.920000076293945
2019-06-20,7.010000228881836
2019-06-21,7.03000020980835
2019-06-24,7.059999942779541
2019-06-25,7.110000133514404
2019-06-26,7.170000076293945
2019-06-27,7.119999885559082
2019-06-28,7.210000038146973
2019-07-01,7.25
2019-07-02,6.829999923706055
2019-07-03,6.809999942779541
2019-07-05,6.980000019073486
2019-07-08,6.960000038146973
2019-07-09,6.679999828338623
2019-07-10,6.789999961853027
2019-07-11,6.679999828338623
2019-07-12,6.639999866485596
2019-07-15,6.380000114440918
2019-07-16,6.360000133514404
2019-07-17,6.21999979019165
2019-07-18,6.110000133514404
2019-07-19,6.360000133514404
2019-07-22,6.5
2019-07-23,6.590000152587891
2019-07-24,5.949999809265137
2019-07-25,5.940000057220459
2019-07-26,5.78000020980835
2019-07-29,5.539999961853027
2019-07-30,6.090000152587891
2019-07-31,6.179999828338623
2019-08-01,5.96999979019165
2019-08-02,5.78000020980835
2019-08-05,5.71999979019165
2019-08-06,5.829999923706055
2019-08-07,6.050000190734863
2019-08-08,6.059999942779541
2019-08-09,5.75
2019-08-12,5.929999828338623
2019-08-13,6.010000228881836
2019-08-14,5.880000114440918
2019-08-15,5.940000057220459
2019-08-16,6.099999904632568
2019-08-19,6.179999828338623
2019-08-20,6.03000020980835
2019-08-21,5.840000152587891
2019-08-22,5.590000152587891
2019-08-23,5.239999771118164
2019-08-26,5.269999980926514
2019-08-27,5.25
2019-08-28,5.369999885559082
2019-08-29,5.420000076293945
2019-08-30,5.309999942779541
2019-09-03,5.190000057220459
2019-09-04,4.900000095367432
2019-09-05,5.230000019073486
2019-09-06,5.320000171661377
2019-09-09,5.650000095367432
2019-09-10,5.699999809265137
2019-09-11,5.889999866485596
2019-09-12,5.590000152587891
2019-09-13,5.659999847412109
2019-09-16,6.75
2019-09-17,6.199999809265137
2019-09-18,5.739999771118164
2019-09-19,5.699999809265137
2019-09-20,5.699999809265137
2019-09-23,5.820000171661377
2019-09-24,5.489999771118164
2019-09-25,5.230000019073486
2019-09-26,5.170000076293945
2019-09-27,5.409999847412109
2019-09-30,5.610000133514404
2019-10-01,5.230000019073486
2019-10-02,5.179999828338623
2019-10-03,5.360000133514404
2019-10-04,5.239999771118164
2019-10-07,5.21999979019165
2019-10-08,5.179999828338623
2019-10-09,4.670000076293945
2019-10-10,4.75
2019-10-11,4.949999809265137
2019-10-14,4.809999942779541
2019-10-15,4.75
2019-10-16,4.690000057220459
2019-10-17,4.550000190734863
2019-10-18,4.610000133514404
2019-10-21,4.989999771118164
2019-10-22,5.090000152587891
2019-10-23,4.630000114440918
2019-10-24,4.650000095367432
2019-10-25,4.809999942779541
2019-10-28,4.5
2019-10-29,4.559999942779541
2019-10-30,4.159999847412109
2019-10-31,4.139999866485596
2019-11-01,4.269999980926514
2019-11-04,4.46999979019165
2019-11-05,4.400000095367432
2019-11-06,4.320000171661377
2019-11-07,4.320000171661377
2019-11-08,4.360000133514404
2019-11-11,4.349999904632568
2019-11-12,4.199999809265137
2019-11-13,4.010000228881836
2019-11-14,3.9700000286102295
2019-11-15,4.119999885559082
2019-11-18,3.8299999237060547
2019-11-19,3.8299999237060547
2019-11-20,3.450000047683716
2019-11-21,3.490000009536743
2019-11-22,3.509999990463257
2019-11-25,3.799999952316284
2019-11-26,3.700000047683716
2019-11-27,3.9100000858306885
2019-11-29,3.859999895095825
2019-12-02,3.890000104904175
2019-12-03,3.6600000858306885
2019-12-04,3.9100000858306885
2019-12-05,3.930000066757202
2019-12-06,4.139999866485596
2019-12-09,4.099999904632568
2019-12-10,4.269999980926514
2019-12-11,4.460000038146973
2019-12-12,4.550000190734863
2019-12-13,4.429999828338623
2019-12-16,4.650000095367432
2019-12-17,4.769999980926514
2019-12-18,4.920000076293945
2019-12-19,4.989999771118164
2019-12-20,4.800000190734863
2019-12-23,5.050000190734863
2019-12-24,5.03000020980835
2019-12-26,5.110000133514404
2019-12-27,5.019999980926514
2019-12-30,5.210000038146973
2019-12-31,5.239999771118164
