Date,RMD
2007-12-31,22.77942657470703
2008-01-02,22.25037384033203
2008-01-03,22.120285034179688
2008-01-04,21.48716163635254
2008-01-07,21.105546951293945
2008-01-08,21.23997688293457
2008-01-09,21.387418746948242
2008-01-10,21.543537139892578
2008-01-11,21.326709747314453
2008-01-14,21.439453125
2008-01-15,21.21395492553711
2008-01-16,21.096878051757812
2008-01-17,20.72394371032715
2008-01-18,19.986740112304688
2008-01-22,19.782922744750977
2008-01-23,19.704875946044922
2008-01-24,19.704875946044922
2008-01-25,19.700536727905273
2008-01-28,20.051794052124023
2008-01-29,20.16453742980957
2008-01-30,19.71354103088379
2008-01-31,20.142858505249023
2008-02-01,20.576501846313477
2008-02-04,20.203567504882812
2008-02-05,19.37096405029297
2008-02-06,19.197507858276367
2008-02-07,19.223520278930664
2008-02-08,18.80289077758789
2008-02-11,18.581729888916016
2008-02-12,18.425617218017578
2008-02-13,18.295520782470703
2008-02-14,18.109052658081055
2008-02-15,17.99631118774414
2008-02-19,18.070032119750977
2008-02-20,18.156753540039062
2008-02-21,17.757802963256836
2008-02-22,17.809837341308594
2008-02-25,17.844533920288086
2008-02-26,18.0396728515625
2008-02-27,18.44729232788086
2008-02-28,18.217470169067383
2008-02-29,17.55832862854004
2008-03-03,17.77948760986328
2008-03-04,17.65372657775879
2008-03-05,17.519298553466797
2008-03-06,17.267784118652344
2008-03-07,17.133352279663086
2008-03-10,16.99892234802246
2008-03-11,17.467260360717773
2008-03-12,17.636383056640625
2008-03-13,18.00064468383789
2008-03-14,18.16542625427246
2008-03-17,17.28946304321289
2008-03-18,18.312862396240234
2008-03-19,18.004976272583008
2008-03-20,18.07436752319336
2008-03-24,18.078704833984375
2008-03-25,18.36056137084961
2008-03-26,17.987634658813477
2008-03-27,17.974624633789062
2008-03-28,18.221805572509766
2008-03-31,18.291189193725586
2008-04-01,18.898290634155273
2008-04-02,18.94598960876465
2008-04-03,19.40566062927246
2008-04-04,19.583454132080078
2008-04-07,19.652833938598633
2008-04-08,19.540084838867188
2008-04-09,19.245201110839844
2008-04-10,18.781208038330078
2008-04-11,18.34756088256836
2008-04-14,18.23481559753418
2008-04-15,18.3215389251709
2008-04-16,18.412607192993164
2008-04-17,18.36056137084961
2008-04-18,18.364904403686523
2008-04-21,18.278181076049805
2008-04-22,18.217470169067383
2008-04-23,18.295520782470703
2008-04-24,18.317209243774414
2008-04-25,18.338882446289062
2008-04-28,18.62510108947754
2008-04-29,18.82023811340332
2008-04-30,18.698810577392578
2008-05-01,18.2131290435791
2008-05-02,17.99631118774414
2008-05-05,17.345836639404297
2008-05-06,17.666736602783203
2008-05-07,17.488943099975586
2008-05-08,17.428234100341797
2008-05-09,17.467260360717773
2008-05-12,17.65372657775879
2008-05-13,17.74913215637207
2008-05-14,17.974624633789062
2008-05-15,17.710098266601562
2008-05-16,17.81417465209961
2008-05-19,17.857540130615234
2008-05-20,17.74913215637207
2008-05-21,17.692752838134766
2008-05-22,17.35451316833496
2008-05-23,17.280790328979492
2008-05-27,16.91219139099121
2008-05-28,16.925203323364258
2008-05-29,17.085647583007812
2008-05-30,17.081317901611328
2008-06-02,16.751747131347656
2008-06-03,16.825464248657227
2008-06-04,17.18539047241211
2008-06-05,17.562660217285156
2008-06-06,17.627710342407227
2008-06-09,17.35451316833496
2008-06-10,16.825464248657227
2008-06-11,16.795106887817383
2008-06-12,16.565275192260742
2008-06-13,16.59996795654297
2008-06-16,16.47854995727539
2008-06-17,15.880112648010254
2008-06-18,15.528863906860352
2008-06-19,15.472490310668945
2008-06-20,15.246992111206055
2008-06-23,15.10389232635498
2008-06-24,14.826358795166016
2008-06-25,14.973798751831055
2008-06-26,14.965123176574707
2008-06-27,15.177605628967285
2008-06-30,15.49850845336914
2008-07-01,16.612974166870117
2008-07-02,16.508901596069336
2008-07-03,16.83413314819336
2008-07-07,16.28340721130371
2008-07-08,16.547927856445312
2008-07-09,16.42650604248047
2008-07-10,16.452529907226562
2008-07-11,16.370132446289062
2008-07-14,15.710992813110352
2008-07-15,15.489831924438477
2008-07-16,15.40744400024414
2008-07-17,15.481159210205078
2008-07-18,15.619925498962402
2008-07-21,16.044902801513672
2008-07-22,15.70666217803955
2008-07-23,16.02755355834961
2008-07-24,16.09693717956543
2008-07-25,16.005882263183594
2008-07-28,16.044902801513672
2008-07-29,16.396154403686523
2008-07-30,16.326766967773438
2008-07-31,16.400489807128906
2008-08-01,16.192340850830078
2008-08-04,16.188003540039062
2008-08-05,16.586957931518555
2008-08-06,18.685806274414062
2008-08-07,19.34928321838379
2008-08-08,19.23653221130371
2008-08-11,19.2061824798584
2008-08-12,19.275558471679688
2008-08-13,19.37096405029297
2008-08-14,19.336267471313477
2008-08-15,19.089094161987305
2008-08-18,19.19316291809082
2008-08-19,19.16714859008789
2008-08-20,18.841920852661133
2008-08-21,18.993694305419922
2008-08-22,19.4620361328125
2008-08-25,19.587787628173828
2008-08-26,19.89134407043457
2008-08-27,20.255605697631836
2008-08-28,20.442073822021484
2008-08-29,20.29463005065918
2008-09-02,20.11249542236328
2008-09-03,19.743900299072266
2008-09-04,19.436012268066406
2008-09-05,19.25388526916504
2008-09-08,19.609472274780273
2008-09-09,19.739559173583984
2008-09-10,19.86531639099121
2008-09-11,20.377025604248047
2008-09-12,20.80633544921875
2008-09-15,20.559154510498047
2008-09-16,20.554819107055664
2008-09-17,19.88265609741211
2008-09-18,19.869661331176758
2008-09-19,19.908687591552734
2008-09-22,19.501062393188477
2008-09-23,19.36663246154785
2008-09-24,19.68752670288086
2008-09-25,19.769920349121094
2008-09-26,19.540084838867188
2008-09-29,18.356233596801758
2008-09-30,18.646774291992188
2008-10-01,18.798553466796875
2008-10-02,18.55571174621582
2008-10-03,18.5773983001709
2008-10-06,17.5106258392334
2008-10-07,16.881834030151367
2008-10-08,16.075254440307617
2008-10-09,15.515851020812988
2008-10-10,14.700600624084473
2008-10-13,15.84542465209961
2008-10-14,15.763031959533691
2008-10-15,15.37275218963623
2008-10-16,14.991143226623535
2008-10-17,15.359742164611816
2008-10-20,15.793386459350586
2008-10-21,15.207968711853027
2008-10-22,14.991143226623535
2008-10-23,14.540145874023438
2008-10-24,13.646836280822754
2008-10-27,12.935662269592285
2008-10-28,13.642498970031738
2008-10-29,14.154204368591309
2008-10-30,14.726613998413086
2008-10-31,14.856708526611328
2008-11-03,15.567890167236328
2008-11-04,15.82807731628418
2008-11-05,15.489831924438477
2008-11-06,14.05880355834961
2008-11-07,15.463814735412598
2008-11-10,15.14725399017334
2008-11-11,15.108222007751465
2008-11-12,14.279962539672852
2008-11-13,15.693647384643555
2008-11-14,14.887072563171387
2008-11-17,15.212300300598145
2008-11-18,15.550543785095215
2008-11-19,14.800338745117188
2008-11-20,13.460372924804688
2008-11-21,14.314652442932129
2008-11-24,15.004148483276367
2008-11-25,14.618205070495605
2008-11-26,15.325050354003906
2008-11-28,15.758695602416992
2008-12-01,14.531474113464355
2008-12-02,15.090877532958984
2008-12-03,15.68064022064209
2008-12-04,15.312041282653809
2008-12-05,16.049232482910156
2008-12-08,16.02322006225586
2008-12-09,15.476821899414062
2008-12-10,15.346732139587402
2008-12-11,15.524524688720703
2008-12-12,15.819406509399414
2008-12-15,15.446468353271484
2008-12-16,16.374469757080078
2008-12-17,16.12729263305664
2008-12-18,15.49850845336914
2008-12-19,15.355401992797852
2008-12-22,15.598249435424805
2008-12-23,15.173269271850586
2008-12-24,15.489831924438477
2008-12-26,15.511517524719238
2008-12-29,15.346732139587402
2008-12-30,15.767366409301758
2008-12-31,16.253047943115234
2009-01-02,16.643339157104492
2009-01-05,16.396154403686523
2009-01-06,16.248714447021484
2009-01-07,15.854098320007324
2009-01-08,15.871442794799805
2009-01-09,15.793386459350586
2009-01-12,15.854098320007324
2009-01-13,16.30508804321289
2009-01-14,16.521909713745117
2009-01-15,16.665023803710938
2009-01-16,16.829801559448242
2009-01-20,16.391815185546875
2009-01-21,17.00325584411621
2009-01-22,16.96856689453125
2009-01-23,16.94255256652832
2009-01-26,17.345836639404297
2009-01-27,17.770809173583984
2009-01-28,17.90090560913086
2009-01-29,17.49761199951172
2009-01-30,17.302480697631836
2009-02-02,17.31982421875
2009-02-03,17.87055206298828
2009-02-04,17.54531478881836
2009-02-05,17.428234100341797
2009-02-06,18.56438636779785
2009-02-09,17.918254852294922
2009-02-10,17.65806770324707
2009-02-11,18.191448211669922
2009-02-12,18.44729232788086
2009-02-13,18.434289932250977
2009-02-17,18.221805572509766
2009-02-18,17.757802963256836
2009-02-19,17.81417465209961
2009-02-20,17.714435577392578
2009-02-23,17.53230857849121
2009-02-24,17.736116409301758
2009-02-25,17.224422454833984
2009-02-26,17.07263946533203
2009-02-27,15.9928617477417
2009-03-02,14.726613998413086
2009-03-03,15.40310001373291
2009-03-04,15.871442794799805
2009-03-05,15.15158748626709
2009-03-06,15.40744400024414
2009-03-09,14.743964195251465
2009-03-10,15.112560272216797
2009-03-11,14.973798751831055
2009-03-12,15.59390640258789
2009-03-13,15.667628288269043
2009-03-16,15.645946502685547
2009-03-17,14.605196952819824
2009-03-18,14.973798751831055
2009-03-19,14.618205070495605
2009-03-20,14.006765365600586
2009-03-23,14.605196952819824
2009-03-24,13.798614501953125
2009-03-25,14.223590850830078
2009-03-26,15.264335632324219
2009-03-27,15.181941986083984
2009-03-30,14.960784912109375
2009-03-31,15.325050354003906
2009-04-01,14.826358795166016
2009-04-02,15.125575065612793
2009-04-03,15.168937683105469
2009-04-06,15.034507751464844
2009-04-07,15.034507751464844
2009-04-08,15.090877532958984
2009-04-09,15.463814735412598
2009-04-13,15.693647384643555
2009-04-14,15.854098320007324
2009-04-15,15.997199058532715
2009-04-16,16.19667625427246
2009-04-17,16.543590545654297
2009-04-20,16.1619873046875
2009-04-21,16.34845542907715
2009-04-22,16.435184478759766
2009-04-23,16.183664321899414
2009-04-24,16.374469757080078
2009-04-27,16.422176361083984
2009-04-28,16.25739288330078
2009-04-29,16.665023803710938
2009-04-30,16.673688888549805
2009-05-01,16.504562377929688
2009-05-04,16.612974166870117
2009-05-05,16.69970703125
2009-05-06,16.556608200073242
2009-05-07,16.907859802246094
2009-05-08,17.67107582092285
2009-05-11,17.280790328979492
2009-05-12,17.020599365234375
2009-05-13,16.790775299072266
2009-05-14,16.647668838500977
2009-05-15,16.725723266601562
2009-05-18,16.842815399169922
2009-05-19,16.586957931518555
2009-05-20,16.42650604248047
2009-05-21,16.040563583374023
2009-05-22,16.140296936035156
2009-05-26,16.02322006225586
2009-05-27,15.836750984191895
2009-05-28,15.663289070129395
2009-05-29,16.075254440307617
2009-06-01,16.1619873046875
2009-06-02,16.760414123535156
2009-06-03,16.777755737304688
2009-06-04,16.60430145263672
2009-06-05,16.803781509399414
2009-06-08,16.682363510131836
2009-06-09,16.66067886352539
2009-06-10,16.665023803710938
2009-06-11,17.06396484375
2009-06-12,17.393543243408203
2009-06-15,17.159366607666016
2009-06-16,16.86015510559082
2009-06-17,17.089982986450195
2009-06-18,17.2460994720459
2009-06-19,17.311141967773438
2009-06-22,16.825464248657227
2009-06-23,16.747406005859375
2009-06-24,16.99892234802246
2009-06-25,17.514963150024414
2009-06-26,17.83152198791504
2009-06-29,18.022327423095703
2009-06-30,17.662399291992188
2009-07-01,17.514963150024414
2009-07-02,17.181047439575195
2009-07-06,17.03361701965332
2009-07-07,17.15070152282715
2009-07-08,17.116012573242188
2009-07-09,17.211406707763672
2009-07-10,17.315481185913086
2009-07-13,17.215747833251953
2009-07-14,17.285133361816406
2009-07-15,17.293800354003906
2009-07-16,17.562660217285156
2009-07-17,17.181047439575195
2009-07-20,17.042293548583984
2009-07-21,17.129016876220703
2009-07-22,17.094324111938477
2009-07-23,17.16804313659668
2009-07-24,17.267784118652344
2009-07-27,17.519298553466797
2009-07-28,17.389202117919922
2009-07-29,17.328493118286133
2009-07-30,17.53664207458496
2009-07-31,17.77948760986328
2009-08-03,18.20879364013672
2009-08-04,18.282514572143555
2009-08-05,18.377918243408203
2009-08-06,18.20879364013672
2009-08-07,19.622478485107422
2009-08-10,19.544422149658203
2009-08-11,19.583454132080078
2009-08-12,19.71354103088379
2009-08-13,19.652833938598633
2009-08-14,19.77859115600586
2009-08-17,19.59212875366211
2009-08-18,19.544422149658203
2009-08-19,19.717884063720703
2009-08-20,19.574783325195312
2009-08-21,19.600801467895508
2009-08-24,19.743900299072266
2009-08-25,19.93903350830078
2009-08-26,19.808948516845703
2009-08-27,19.74823760986328
2009-08-28,19.85664176940918
2009-08-31,19.908687591552734
2009-09-01,19.691864013671875
2009-09-02,19.65717315673828
2009-09-03,19.81761932373047
2009-09-04,19.75257110595703
2009-09-08,19.80461311340332
2009-09-09,20.034442901611328
2009-09-10,19.99541473388672
2009-09-11,19.89134407043457
2009-09-14,19.843643188476562
2009-09-15,19.847978591918945
2009-09-16,19.93036651611328
2009-09-17,19.631149291992188
2009-09-18,19.739559173583984
2009-09-21,19.743900299072266
2009-09-22,19.665842056274414
2009-09-23,19.635486602783203
2009-09-24,19.518404006958008
2009-09-25,19.071744918823242
2009-09-28,19.34061050415039
2009-09-29,19.50973129272461
2009-09-30,19.600801467895508
2009-10-01,19.11077880859375
2009-10-02,19.223520278930664
2009-10-05,18.724830627441406
2009-10-06,19.050065994262695
2009-10-07,18.863595962524414
2009-10-08,19.383974075317383
2009-10-09,19.83496856689453
2009-10-12,20.316314697265625
2009-10-13,20.619861602783203
2009-10-14,20.624202728271484
2009-10-15,20.971118927001953
2009-10-16,21.105546951293945
2009-10-19,21.305023193359375
2009-10-20,21.361398696899414
2009-10-21,21.365734100341797
2009-10-22,21.534860610961914
2009-10-23,21.5391902923584
2009-10-26,21.621593475341797
2009-10-27,21.452465057373047
2009-10-28,21.044836044311523
2009-10-29,21.495832443237305
2009-10-30,21.339719772338867
2009-11-02,21.495832443237305
2009-11-03,21.244319915771484
2009-11-04,21.400426864624023
2009-11-05,21.703983306884766
2009-11-06,20.567827224731445
2009-11-09,21.348392486572266
2009-11-10,21.23997688293457
2009-11-11,21.200952529907227
2009-11-12,21.248645782470703
2009-11-13,21.912132263183594
2009-11-16,22.194002151489258
2009-11-17,22.08125114440918
2009-11-18,22.055234909057617
2009-11-19,21.972841262817383
2009-11-20,21.790712356567383
2009-11-23,21.8861083984375
2009-11-24,22.05089569091797
2009-11-25,22.649324417114258
2009-11-27,21.85576057434082
2009-11-30,21.799381256103516
2009-12-01,22.172313690185547
2009-12-02,22.519237518310547
2009-12-03,22.341442108154297
2009-12-04,22.658002853393555
2009-12-07,22.658002853393555
2009-12-08,22.324098587036133
2009-12-09,22.536584854125977
2009-12-10,22.91818618774414
2009-12-11,22.91818618774414
2009-12-14,22.96155548095703
2009-12-15,22.905179977416992
2009-12-16,22.63631820678711
2009-12-17,22.150638580322266
2009-12-18,22.133291244506836
2009-12-21,22.462860107421875
2009-12-22,22.649324417114258
2009-12-23,22.7620792388916
2009-12-24,22.731718063354492
2009-12-28,22.84880256652832
2009-12-29,23.013591766357422
2009-12-30,22.879154205322266
2009-12-31,22.666677474975586
2010-01-04,22.892169952392578
2010-01-05,21.92080307006836
2010-01-06,22.623308181762695
2010-01-07,22.66233253479004
2010-01-08,22.649324417114258
2010-01-11,22.913854598999023
2010-01-12,22.306751251220703
2010-01-13,22.63631820678711
2010-01-14,22.792428970336914
2010-01-15,22.618972778320312
2010-01-19,22.948543548583984
2010-01-20,22.952892303466797
2010-01-21,22.523569107055664
2010-01-22,22.536584854125977
2010-01-25,22.996244430541992
2010-01-26,23.18705177307129
2010-01-27,22.84012794494629
2010-01-28,22.59295654296875
2010-01-29,22.176652908325195
2010-02-01,22.31975746154785
2010-02-02,22.640655517578125
2010-02-03,22.618972778320312
2010-02-04,22.085590362548828
2010-02-05,23.80716323852539
2010-02-08,23.781143188476562
2010-02-09,23.53396987915039
2010-02-10,23.538299560546875
2010-02-11,24.06734848022461
2010-02-12,24.275503158569336
2010-02-16,24.04566764831543
2010-02-17,24.19310760498047
2010-02-18,24.904287338256836
2010-02-19,24.921632766723633
2010-02-22,25.12978172302246
2010-02-23,24.691804885864258
2010-02-24,24.943313598632812
2010-02-25,24.95199203491211
2010-02-26,24.75251007080078
2010-03-01,25.225191116333008
2010-03-02,25.541749954223633
2010-03-03,25.69786262512207
2010-03-04,25.624141693115234
2010-03-05,25.801931381225586
2010-03-08,25.663169860839844
2010-03-09,25.741222381591797
2010-03-10,26.096817016601562
2010-03-11,26.296287536621094
2010-03-12,26.317974090576172
2010-03-15,26.291950225830078
2010-03-16,26.452404022216797
2010-03-17,26.79931640625
2010-03-18,27.189598083496094
2010-03-19,26.964111328125
2010-03-22,27.072519302368164
2010-03-23,27.245975494384766
2010-03-24,27.49748992919922
2010-03-25,27.402084350585938
2010-03-26,27.30234718322754
2010-03-29,27.532182693481445
2010-03-30,27.69696807861328
2010-03-31,27.601564407348633
2010-04-01,27.636253356933594
2010-04-05,27.56687355041504
2010-04-06,27.41075897216797
2010-04-07,27.1635799407959
2010-04-08,26.6171875
2010-04-09,26.703916549682617
2010-04-12,26.71259117126465
2010-04-13,26.842687606811523
2010-04-14,26.951093673706055
2010-04-15,26.860031127929688
2010-04-16,26.72126579284668
2010-04-19,26.82967758178711
2010-04-20,27.553865432739258
2010-04-21,27.467134475708008
2010-04-22,27.64492416381836
2010-04-23,27.584217071533203
2010-04-26,27.41075897216797
2010-04-27,26.42638397216797
2010-04-28,26.877378463745117
2010-04-29,26.75162124633789
2010-04-30,29.674392700195312
2010-05-03,29.782798767089844
2010-05-04,29.362157821655273
2010-05-05,29.31012725830078
2010-05-06,28.4862060546875
2010-05-07,27.5928955078125
2010-05-10,28.802762985229492
2010-05-11,29.30145835876465
2010-05-12,29.82183265686035
2010-05-13,29.84351348876953
2010-05-14,29.613672256469727
2010-05-17,29.80014991760254
2010-05-18,28.811437606811523
2010-05-19,28.061235427856445
2010-05-20,27.128887176513672
2010-05-21,26.50877571105957
2010-05-24,26.929412841796875
2010-05-25,26.890382766723633
2010-05-26,26.513113021850586
2010-05-27,27.636253356933594
2010-05-28,27.271997451782227
2010-06-01,27.449790954589844
2010-06-02,28.178312301635742
2010-06-03,28.41248893737793
2010-06-04,27.939807891845703
2010-06-07,27.293672561645508
2010-06-08,27.245975494384766
2010-06-09,27.18526268005371
2010-06-10,27.605899810791016
2010-06-11,27.918128967285156
2010-06-14,28.23903465270996
2010-06-15,28.6596622467041
2010-06-16,28.386457443237305
2010-06-17,28.056888580322266
2010-06-18,27.48014259338379
2010-06-21,27.601564407348633
2010-06-22,27.441118240356445
2010-06-23,26.864368438720703
2010-06-24,26.62152099609375
2010-06-25,26.75162124633789
2010-06-28,26.729938507080078
2010-06-29,26.24859046936035
2010-06-30,26.370004653930664
2010-07-01,25.84963607788086
2010-07-02,26.526121139526367
2010-07-06,26.864368438720703
2010-07-07,27.76201629638672
2010-07-08,28.186983108520508
2010-07-09,28.156631469726562
2010-07-12,28.338762283325195
2010-07-13,28.720378875732422
2010-07-14,28.971874237060547
2010-07-15,28.984901428222656
2010-07-16,28.82010841369629
2010-07-19,28.061235427856445
2010-07-20,28.0395565032959
2010-07-21,27.402084350585938
2010-07-22,27.879098892211914
2010-07-23,28.481870651245117
2010-07-26,28.052560806274414
2010-07-27,27.749006271362305
2010-07-28,27.662277221679688
2010-07-29,27.753337860107422
2010-07-30,28.4862060546875
2010-08-02,29.028263092041016
2010-08-03,29.223403930664062
2010-08-04,29.353492736816406
2010-08-05,29.500934600830078
2010-08-06,28.178312301635742
2010-08-09,28.408151626586914
2010-08-10,27.866086959838867
2010-08-11,27.462800979614258
2010-08-12,26.925079345703125
2010-08-13,27.211280822753906
2010-08-16,27.237302780151367
2010-08-17,27.835731506347656
2010-08-18,27.571212768554688
2010-08-19,27.506160736083984
2010-08-20,27.21995735168457
2010-08-23,27.193939208984375
2010-08-24,26.391691207885742
2010-08-25,26.309297561645508
2010-08-26,25.910348892211914
2010-08-27,26.53479766845703
2010-08-30,26.18354034423828
2010-08-31,26.140174865722656
2010-09-01,26.738615036010742
2010-09-02,27.311017990112305
2010-09-03,27.952821731567383
2010-09-07,27.796703338623047
2010-09-08,27.484485626220703
2010-09-09,28.074241638183594
2010-09-10,28.02220344543457
2010-09-13,28.672672271728516
2010-09-14,28.707366943359375
2010-09-15,28.993572235107422
2010-09-16,28.854795455932617
2010-09-17,28.672672271728516
2010-09-20,28.759395599365234
2010-09-21,28.11760711669922
2010-09-22,28.28238868713379
2010-09-23,28.056888580322266
2010-09-24,28.473196029663086
2010-09-27,28.49921989440918
2010-09-28,28.559925079345703
2010-09-29,27.94414520263672
2010-09-30,28.455854415893555
2010-10-01,28.473196029663086
2010-10-04,28.126277923583984
2010-10-05,28.733381271362305
2010-10-06,28.82878303527832
2010-10-07,28.36911392211914
2010-10-08,28.325759887695312
2010-10-11,28.100261688232422
2010-10-12,27.987506866455078
2010-10-13,27.50182342529297
2010-10-14,27.475811004638672
2010-10-15,27.397754669189453
2010-10-18,27.276334762573242
2010-10-19,26.461078643798828
2010-10-20,26.834009170532227
2010-10-21,27.198278427124023
2010-10-22,27.397754669189453
2010-10-25,27.250308990478516
2010-10-26,27.3196964263916
2010-10-27,27.840070724487305
2010-10-28,27.76201629638672
2010-10-29,27.64059829711914
2010-11-01,27.224294662475586
2010-11-02,27.380403518676758
2010-11-03,27.744665145874023
2010-11-04,28.360448837280273
2010-11-05,28.967552185058594
2010-11-08,28.733381271362305
2010-11-09,28.603286743164062
2010-11-10,28.993572235107422
2010-11-11,29.227737426757812
2010-11-12,28.906848907470703
2010-11-15,29.00225067138672
2010-11-16,28.429828643798828
2010-11-17,28.41248893737793
2010-11-18,28.429828643798828
2010-11-19,28.317081451416016
2010-11-22,28.013530731201172
2010-11-23,27.66661262512207
2010-11-24,28.256376266479492
2010-11-26,27.909456253051758
2010-11-29,28.108928680419922
2010-11-30,27.709976196289062
2010-12-01,28.51656150817871
2010-12-02,29.00225067138672
2010-12-03,29.088970184326172
2010-12-06,28.967552185058594
2010-12-07,28.72471046447754
2010-12-08,28.733381271362305
2010-12-09,28.932857513427734
2010-12-10,28.941532135009766
2010-12-13,28.950204849243164
2010-12-14,29.94759750366211
2010-12-15,30.225120544433594
2010-12-16,30.164417266845703
2010-12-17,30.849580764770508
2010-12-20,30.56336784362793
2010-12-21,30.450626373291016
2010-12-22,30.884267807006836
2010-12-23,30.875591278076172
2010-12-27,30.61540985107422
2010-12-28,30.49398422241211
2010-12-29,30.407257080078125
2010-12-30,30.719484329223633
2010-12-31,30.042991638183594
2011-01-03,30.3725643157959
2011-01-04,30.59806251525879
2011-01-05,29.98228645324707
2011-01-06,29.912906646728516
2011-01-07,29.253753662109375
2011-01-10,28.932857513427734
2011-01-11,28.325759887695312
2011-01-12,28.768068313598633
2011-01-13,28.646648406982422
2011-01-14,28.61196517944336
2011-01-18,28.82010841369629
2011-01-19,28.256376266479492
2011-01-20,27.822731018066406
2011-01-21,27.753337860107422
2011-01-24,27.952821731567383
2011-01-25,27.6839599609375
2011-01-26,27.76201629638672
2011-01-27,28.664003372192383
2011-01-28,26.955432891845703
2011-01-31,27.311017990112305
2011-02-01,26.68657112121582
2011-02-02,27.3370418548584
2011-02-03,27.76201629638672
2011-02-04,27.926801681518555
2011-02-07,28.082916259765625
2011-02-08,28.308408737182617
2011-02-09,27.987506866455078
2011-02-10,27.996177673339844
2011-02-11,28.11760711669922
2011-02-14,27.866086959838867
2011-02-15,28.056888580322266
2011-02-16,28.386457443237305
2011-02-17,28.386457443237305
2011-02-18,28.481870651245117
2011-02-22,27.744665145874023
2011-02-23,27.30234718322754
2011-02-24,26.9727783203125
2011-02-25,27.284997940063477
2011-02-28,27.40642738342285
2011-03-01,27.293672561645508
2011-03-02,27.458457946777344
2011-03-03,28.21299934387207
2011-03-04,27.70130157470703
2011-03-07,27.571212768554688
2011-03-08,27.883434295654297
2011-03-09,27.26766014099121
2011-03-10,26.851356506347656
2011-03-11,27.00746726989746
2011-03-14,26.56515121459961
2011-03-15,26.0794677734375
2011-03-16,25.92335319519043
2011-03-17,26.174869537353516
2011-03-18,26.088150024414062
2011-03-21,26.478425979614258
2011-03-22,26.41771125793457
2011-03-23,25.775915145874023
2011-03-24,25.741222381591797
2011-03-25,26.062122344970703
2011-03-28,26.044780731201172
2011-03-29,26.096817016601562
2011-03-30,25.975393295288086
2011-03-31,26.018756866455078
2011-04-01,25.87132453918457
2011-04-04,25.68918800354004
2011-04-05,26.044780731201172
2011-04-06,27.04216194152832
2011-04-07,26.886051177978516
2011-04-08,27.137569427490234
2011-04-11,27.24164390563965
2011-04-12,27.536514282226562
2011-04-13,27.926801681518555
2011-04-14,28.02220344543457
2011-04-15,28.256376266479492
2011-04-18,28.325759887695312
2011-04-19,28.455854415893555
2011-04-20,28.794092178344727
2011-04-21,29.01958656311035
2011-04-25,28.750728607177734
2011-04-26,29.045608520507812
2011-04-27,29.418533325195312
2011-04-28,29.149682998657227
2011-04-29,27.657941818237305
2011-05-02,27.753337860107422
2011-05-03,27.70130157470703
2011-05-04,27.50182342529297
2011-05-05,27.52784538269043
2011-05-06,28.013530731201172
2011-05-09,27.94414520263672
2011-05-10,28.186983108520508
2011-05-11,27.935470581054688
2011-05-12,28.14362335205078
2011-05-13,27.3370418548584
2011-05-16,27.276334762573242
2011-05-17,27.284997940063477
2011-05-18,27.328369140625
2011-05-19,27.50182342529297
2011-05-20,27.17225456237793
2011-05-23,26.660554885864258
2011-05-24,27.024818420410156
2011-05-25,27.189598083496094
2011-05-26,27.779356002807617
2011-05-27,27.822731018066406
2011-05-31,27.926801681518555
2011-06-01,27.3370418548584
2011-06-02,27.258981704711914
2011-06-03,27.553865432739258
2011-06-06,26.955432891845703
2011-06-07,26.981454849243164
2011-06-08,26.886051177978516
2011-06-09,26.834009170532227
2011-06-10,26.513113021850586
2011-06-13,26.530460357666016
2011-06-14,27.059505462646484
2011-06-15,26.409042358398438
2011-06-16,26.608518600463867
2011-06-17,26.903398513793945
2011-06-20,27.128887176513672
2011-06-21,27.649267196655273
2011-06-22,26.62586212158203
2011-06-23,26.313631057739258
2011-06-24,26.062122344970703
2011-06-27,25.975393295288086
2011-06-28,26.15752410888672
2011-06-29,26.573822021484375
2011-06-30,26.842687606811523
2011-07-01,26.903398513793945
2011-07-05,26.912067413330078
2011-07-06,26.877378463745117
2011-07-07,26.86870002746582
2011-07-08,26.573822021484375
2011-07-11,26.18354034423828
2011-07-12,26.32230567932129
2011-07-13,27.883434295654297
2011-07-14,28.768068313598633
2011-07-15,28.637981414794922
2011-07-18,27.996177673339844
2011-07-19,28.056888580322266
2011-07-20,28.0395565032959
2011-07-21,27.796703338623047
2011-07-22,27.727323532104492
2011-07-25,27.293672561645508
2011-07-26,27.180925369262695
2011-07-27,26.556480407714844
2011-07-28,26.41771125793457
2011-07-29,26.270275115966797
2011-08-01,26.174869537353516
2011-08-02,25.437667846679688
2011-08-03,25.489709854125977
2011-08-04,24.388248443603516
2011-08-05,24.43161392211914
2011-08-08,22.341442108154297
2011-08-09,23.503612518310547
2011-08-10,23.13935089111328
2011-08-11,24.466304779052734
2011-08-12,24.882606506347656
2011-08-15,25.3769588470459
2011-08-16,25.246864318847656
2011-08-17,25.194828033447266
2011-08-18,23.893888473510742
2011-08-19,24.1193904876709
2011-08-22,24.466304779052734
2011-08-23,25.402978897094727
2011-08-24,25.758569717407227
2011-08-25,25.151466369628906
2011-08-26,25.654497146606445
2011-08-29,26.174869537353516
2011-08-30,26.383024215698242
2011-08-31,26.860031127929688
2011-09-01,26.94675636291504
2011-09-02,26.05345344543457
2011-09-06,25.472368240356445
2011-09-07,26.278947830200195
2011-09-08,25.81060218811035
2011-09-09,25.082080841064453
2011-09-12,24.899953842163086
2011-09-13,25.48103141784668
2011-09-14,25.585111618041992
2011-09-15,25.498382568359375
2011-09-16,25.82794952392578
2011-09-19,25.20350456237793
2011-09-20,25.14278793334961
2011-09-21,24.821895599365234
2011-09-22,24.19744110107422
2011-09-23,24.865262985229492
2011-09-26,24.92597198486328
2011-09-27,25.593782424926758
2011-09-28,25.0213680267334
2011-09-29,25.298906326293945
2011-09-30,24.96933364868164
2011-10-03,23.46023941040039
2011-10-04,24.06734848022461
2011-10-05,24.717819213867188
2011-10-06,25.949378967285156
2011-10-07,25.7325439453125
2011-10-10,26.200889587402344
2011-10-11,25.68918800354004
2011-10-12,26.209564208984375
2011-10-13,26.252925872802734
2011-10-14,26.37434959411621
2011-10-17,25.723875045776367
2011-10-18,26.21823501586914
2011-10-19,25.992738723754883
2011-10-20,26.21823501586914
2011-10-21,26.964111328125
2011-10-24,27.493148803710938
2011-10-25,23.73778533935547
2011-10-26,23.642379760742188
2011-10-27,24.8305606842041
2011-10-28,25.246864318847656
2011-10-31,24.544357299804688
2011-11-01,24.154075622558594
2011-11-02,24.49232292175293
2011-11-03,24.917299270629883
2011-11-04,25.35094451904297
2011-11-07,25.50705337524414
2011-11-08,25.593782424926758
2011-11-09,24.448959350585938
2011-11-10,24.102046966552734
2011-11-11,24.318864822387695
2011-11-14,24.041330337524414
2011-11-15,24.171424865722656
2011-11-16,23.919918060302734
2011-11-17,23.191383361816406
2011-11-18,22.965892791748047
2011-11-21,22.45418930053711
2011-11-22,22.185327529907227
2011-11-23,21.873104095458984
2011-11-25,21.673620223999023
2011-11-28,22.45418930053711
2011-11-29,22.020536422729492
2011-11-30,22.59295654296875
2011-12-01,22.384801864624023
2011-12-02,22.35878562927246
2011-12-05,22.514904022216797
2011-12-06,22.046558380126953
2011-12-07,22.055234909057617
2011-12-08,21.673620223999023
2011-12-09,21.760358810424805
2011-12-12,21.370080947875977
2011-12-13,20.867046356201172
2011-12-14,20.346670150756836
2011-12-15,21.049175262451172
2011-12-16,21.439453125
2011-12-19,21.101211547851562
2011-12-20,22.029216766357422
2011-12-21,21.98584747314453
2011-12-22,22.06390953063965
2011-12-23,21.925140380859375
2011-12-27,21.890443801879883
2011-12-28,21.673620223999023
2011-12-29,21.959840774536133
2011-12-30,22.029216766357422
2012-01-03,22.211349487304688
2012-01-04,21.664949417114258
2012-01-05,21.51751708984375
2012-01-06,21.612916946411133
2012-01-09,21.526187896728516
2012-01-10,22.67100715637207
2012-01-11,22.957210540771484
2012-01-12,22.59295654296875
2012-01-13,22.376129150390625
2012-01-17,22.66233253479004
2012-01-18,22.549589157104492
2012-01-19,22.8704891204834
2012-01-20,22.575607299804688
2012-01-23,23.165367126464844
2012-01-24,23.295461654663086
2012-01-25,23.755126953125
2012-01-26,23.599010467529297
2012-01-27,26.070798873901367
2012-01-30,25.402978897094727
2012-01-31,25.1774845123291
2012-02-01,25.272884368896484
2012-02-02,25.30758285522461
2012-02-03,25.671842575073242
2012-02-06,25.45502281188965
2012-02-07,25.741222381591797
2012-02-08,25.784589767456055
2012-02-09,25.949378967285156
2012-02-10,25.784589767456055
2012-02-13,25.914682388305664
2012-02-14,25.45502281188965
2012-02-15,25.498382568359375
2012-02-16,25.50705337524414
2012-02-17,25.246864318847656
2012-02-21,25.099435806274414
2012-02-22,25.125450134277344
2012-02-23,25.04738426208496
2012-02-24,25.51572036743164
2012-02-27,25.51572036743164
2012-02-28,25.533079147338867
2012-02-29,25.411651611328125
2012-03-01,25.888668060302734
2012-03-02,26.070798873901367
2012-03-05,25.836627960205078
2012-03-06,25.194828033447266
2012-03-07,25.3682918548584
2012-03-08,25.87132453918457
2012-03-09,26.001413345336914
2012-03-12,26.140174865722656
2012-03-13,26.886051177978516
2012-03-14,27.293672561645508
2012-03-15,27.40642738342285
2012-03-16,27.371736526489258
2012-03-19,27.727323532104492
2012-03-20,27.63192367553711
2012-03-21,27.441118240356445
2012-03-22,27.258981704711914
2012-03-23,27.493148803710938
2012-03-26,27.744665145874023
2012-03-27,27.3196964263916
2012-03-28,26.851356506347656
2012-03-29,26.877378463745117
2012-03-30,26.807992935180664
2012-04-02,26.94675636291504
2012-04-03,27.3370418548584
2012-04-04,26.755958557128906
2012-04-05,26.660554885864258
2012-04-09,26.33966064453125
2012-04-10,25.879985809326172
2012-04-11,26.469749450683594
2012-04-12,26.738615036010742
2012-04-13,26.270275115966797
2012-04-16,26.010086059570312
2012-04-17,26.435056686401367
2012-04-18,26.391691207885742
2012-04-19,26.21823501586914
2012-04-20,26.452404022216797
2012-04-23,26.42638397216797
2012-04-24,27.10287094116211
2012-04-25,27.50182342529297
2012-04-26,27.796703338623047
2012-04-27,29.583335876464844
2012-04-30,29.496599197387695
2012-05-01,29.869537353515625
2012-05-02,30.36388397216797
2012-05-03,29.834854125976562
2012-05-04,29.323148727416992
2012-05-07,29.31446647644043
2012-05-08,28.984901428222656
2012-05-09,29.1063175201416
2012-05-10,29.66138458251953
2012-05-11,29.23641014099121
2012-05-14,28.932857513427734
2012-05-15,29.513935089111328
2012-05-16,28.802762985229492
2012-05-17,27.840070724487305
2012-05-18,27.449790954589844
2012-05-21,27.94414520263672
2012-05-22,27.900779724121094
2012-05-23,27.874757766723633
2012-05-24,27.83139991760254
2012-05-25,27.389081954956055
2012-05-29,27.224294662475586
2012-05-30,26.99012565612793
2012-05-31,26.86870002746582
2012-06-01,26.504438400268555
2012-06-04,26.383024215698242
2012-06-05,26.773303985595703
2012-06-06,27.545190811157227
2012-06-07,27.718647003173828
2012-06-08,27.796703338623047
2012-06-11,27.467134475708008
2012-06-12,27.900779724121094
2012-06-13,27.727323532104492
2012-06-14,27.571212768554688
2012-06-15,27.571212768554688
2012-06-18,27.805376052856445
2012-06-19,28.152305603027344
2012-06-20,28.065568923950195
2012-06-21,26.86870002746582
2012-06-22,27.258981704711914
2012-06-25,26.487098693847656
2012-06-26,26.435056686401367
2012-06-27,26.487098693847656
2012-06-28,26.21823501586914
2012-06-29,27.059505462646484
2012-07-02,27.050832748413086
2012-07-03,26.834009170532227
2012-07-05,26.825345993041992
2012-07-06,26.764623641967773
2012-07-09,26.894723892211914
2012-07-10,26.755958557128906
2012-07-11,27.12021827697754
2012-07-12,27.24164390563965
2012-07-13,27.64059829711914
2012-07-16,27.475811004638672
2012-07-17,28.074241638183594
2012-07-18,28.013530731201172
2012-07-19,27.6839599609375
2012-07-20,27.1549129486084
2012-07-23,26.56515121459961
2012-07-24,26.608518600463867
2012-07-25,26.773303985595703
2012-07-26,26.608518600463867
2012-07-27,27.63192367553711
2012-07-30,27.510501861572266
2012-07-31,27.371736526489258
2012-08-01,27.415102005004883
2012-08-02,27.605899810791016
2012-08-03,30.918954849243164
2012-08-06,30.606740951538086
2012-08-07,31.031702041625977
2012-08-08,30.86691665649414
2012-08-09,31.014358520507812
2012-08-10,31.127105712890625
2012-08-13,31.448007583618164
2012-08-14,31.612791061401367
2012-08-15,31.90766716003418
2012-08-16,31.9857234954834
2012-08-17,32.003055572509766
2012-08-20,32.22856903076172
2012-08-21,32.61885452270508
2012-08-22,32.14183807373047
2012-08-23,31.90766716003418
2012-08-24,32.289283752441406
2012-08-27,32.39335250854492
2012-08-28,32.53212356567383
2012-08-29,32.73160934448242
2012-08-30,32.462730407714844
2012-08-31,32.58414840698242
2012-09-04,33.98917007446289
2012-09-05,33.492652893066406
2012-09-06,34.433414459228516
2012-09-07,34.58150100708008
2012-09-10,34.31146240234375
2012-09-11,34.415985107421875
2012-09-12,34.40729522705078
2012-09-13,34.651180267333984
2012-09-14,34.511810302734375
2012-09-17,33.97174835205078
2012-09-18,33.97174835205078
2012-09-19,34.21565246582031
2012-09-20,34.25920486450195
2012-09-21,34.21565246582031
2012-09-24,34.58150100708008
2012-09-25,34.85153579711914
2012-09-26,34.85153579711914
2012-09-27,35.1041374206543
2012-09-28,35.252227783203125
2012-10-01,35.173828125
2012-10-02,35.783573150634766
2012-10-03,35.574520111083984
2012-10-04,35.644203186035156
2012-10-05,35.65291976928711
2012-10-08,35.48740768432617
2012-10-09,34.773136138916016
2012-10-10,34.70344543457031
2012-10-11,34.95604705810547
2012-10-12,34.93864059448242
2012-10-15,35.20867919921875
2012-10-16,35.65291976928711
2012-10-17,35.757442474365234
2012-10-18,35.409019470214844
2012-10-19,34.93864059448242
2012-10-22,35.217384338378906
2012-10-23,35.45256805419922
2012-10-24,36.4891471862793
2012-10-25,36.01005935668945
2012-10-26,34.773136138916016
2012-10-31,34.79055404663086
2012-11-01,35.504825592041016
2012-11-02,35.12156295776367
2012-11-05,35.52225112915039
2012-11-06,36.19298553466797
2012-11-07,35.818416595458984
2012-11-08,35.313194274902344
2012-11-09,35.478694915771484
2012-11-12,34.73828887939453
2012-11-13,34.294044494628906
2012-11-14,33.8149528503418
2012-11-15,33.95432662963867
2012-11-16,34.208045959472656
2012-11-19,35.625362396240234
2012-11-20,35.16167068481445
2012-11-21,35.04794692993164
2012-11-23,35.43288803100586
2012-11-26,35.441627502441406
2012-11-27,35.992820739746094
2012-11-28,36.019065856933594
2012-11-29,36.11530303955078
2012-11-30,35.949058532714844
2012-12-03,35.59036636352539
2012-12-04,35.747859954833984
2012-12-05,35.60786056518555
2012-12-06,35.98406982421875
2012-12-07,36.33401870727539
2012-12-10,36.3427734375
2012-12-11,36.815208435058594
2012-12-12,37.165157318115234
2012-12-13,36.46525955200195
2012-12-14,36.718963623046875
2012-12-17,37.12141799926758
2012-12-18,37.41887664794922
2012-12-19,36.850196838378906
2012-12-20,36.955196380615234
2012-12-21,36.32526397705078
2012-12-24,36.30778121948242
2012-12-26,35.98406982421875
2012-12-27,36.062801361083984
2012-12-28,35.791587829589844
2012-12-31,36.369014739990234
2013-01-02,37.165157318115234
2013-01-03,37.36637878417969
2013-01-04,37.497615814208984
2013-01-07,37.62009811401367
2013-01-08,38.022552490234375
2013-01-09,38.328758239746094
2013-01-10,38.5474739074707
2013-01-11,38.1975212097168
2013-01-14,38.27626419067383
2013-01-15,38.44248962402344
2013-01-16,38.976173400878906
2013-01-17,38.81869888305664
2013-01-18,39.011173248291016
2013-01-22,39.36988067626953
2013-01-23,39.48361587524414
2013-01-24,39.781070709228516
2013-01-25,42.2657356262207
2013-01-28,42.3182373046875
2013-01-29,41.600833892822266
2013-01-30,40.97966003417969
2013-01-31,38.320011138916016
2013-02-01,38.90618896484375
2013-02-04,38.83618927001953
2013-02-05,38.7574577331543
2013-02-06,38.792442321777344
2013-02-07,38.713706970214844
2013-02-08,38.57373046875
2013-02-11,38.14501953125
2013-02-12,38.18878173828125
2013-02-13,38.092533111572266
2013-02-14,37.925662994384766
2013-02-15,37.46891784667969
2013-02-19,37.97835922241211
2013-02-20,37.67095947265625
2013-02-21,37.205448150634766
2013-02-22,37.88174819946289
2013-02-25,37.583126068115234
2013-02-26,37.89053726196289
2013-02-27,38.38238525390625
2013-02-28,39.07625961303711
2013-03-01,38.320899963378906
2013-03-04,38.742496490478516
2013-03-05,39.67350769042969
2013-03-06,39.532981872558594
2013-03-07,38.356040954589844
2013-03-08,38.426300048828125
2013-03-11,38.51413345336914
2013-03-12,38.38238525390625
2013-03-13,38.110103607177734
2013-03-14,38.41751480102539
2013-03-15,38.09253692626953
2013-03-18,38.285770416259766
2013-03-19,38.58440017700195
2013-03-20,39.2167854309082
2013-03-21,38.95329284667969
2013-03-22,38.78641128540039
2013-03-25,38.250640869140625
2013-03-26,39.77891159057617
2013-03-27,40.288333892822266
2013-03-28,40.71870422363281
2013-04-01,40.709930419921875
2013-04-02,40.75383377075195
2013-04-03,40.428863525390625
2013-04-04,40.83289337158203
2013-04-05,41.07881546020508
2013-04-08,40.73627471923828
2013-04-09,40.64842987060547
2013-04-10,40.39373779296875
2013-04-11,40.55182647705078
2013-04-12,40.16535568237305
2013-04-15,38.68101501464844
2013-04-16,39.42757797241211
2013-04-17,39.085044860839844
2013-04-18,38.68101501464844
2013-04-19,38.6634521484375
2013-04-22,39.93700408935547
2013-04-23,40.60453414916992
2013-04-24,40.18292236328125
2013-04-25,39.980918884277344
2013-04-26,40.534263610839844
2013-04-29,41.438926696777344
2013-04-30,42.17671203613281
2013-05-01,41.63215255737305
2013-05-02,41.82537078857422
2013-05-03,42.062530517578125
2013-05-06,41.711204528808594
2013-05-07,41.98347091674805
2013-05-08,43.766456604003906
2013-05-09,44.04751968383789
2013-05-10,44.59207534790039
2013-05-13,44.697471618652344
2013-05-14,44.943397521972656
2013-05-15,44.39006805419922
2013-05-16,43.740108489990234
2013-05-17,44.127891540527344
2013-05-20,44.04856491088867
2013-05-21,44.13671112060547
2013-05-22,43.819435119628906
2013-05-23,44.083824157714844
2013-05-24,43.563838958740234
2013-05-28,43.863502502441406
2013-05-29,43.84587097167969
2013-05-30,43.9251823425293
2013-05-31,42.303550720214844
2013-06-03,41.616111755371094
2013-06-04,41.88932418823242
2013-06-05,41.18427658081055
2013-06-06,40.135498046875
2013-06-07,40.311767578125
2013-06-10,40.461578369140625
2013-06-11,41.24595642089844
2013-06-12,41.219520568847656
2013-06-13,42.13610076904297
2013-06-14,41.72188186645508
2013-06-17,42.18017578125
2013-06-18,42.00389099121094
2013-06-19,41.72188186645508
2013-06-20,41.63374328613281
2013-06-21,42.629642486572266
2013-06-24,42.40048599243164
2013-06-25,41.63374328613281
2013-06-26,41.527984619140625
2013-06-27,41.19306945800781
2013-06-28,39.774147033691406
2013-07-01,39.3863639831543
2013-07-02,39.49212646484375
2013-07-03,39.29823303222656
2013-07-05,39.58027267456055
2013-07-08,39.3863639831543
2013-07-09,38.59318161010742
2013-07-10,38.12607192993164
2013-07-11,39.086708068847656
2013-07-12,39.333492279052734
2013-07-15,39.6948356628418
2013-07-16,39.782958984375
2013-07-17,39.774147033691406
2013-07-18,39.474510192871094
2013-07-19,40.082618713378906
2013-07-22,40.10023498535156
2013-07-23,40.197181701660156
2013-07-24,39.315860748291016
2013-07-25,40.082618713378906
2013-07-26,40.36463165283203
2013-07-29,40.67311477661133
2013-07-30,41.27241516113281
2013-07-31,41.99509048461914
2013-08-01,42.6384391784668
2013-08-02,42.20661544799805
2013-08-05,41.580867767333984
2013-08-06,42.277103424072266
2013-08-07,42.60319900512695
2013-08-08,43.96925354003906
2013-08-09,44.27771759033203
2013-08-12,43.801795959472656
2013-08-13,43.33470153808594
2013-08-14,42.938114166259766
2013-08-15,42.9469108581543
2013-08-16,43.86821746826172
2013-08-19,43.85935592651367
2013-08-20,43.6910514831543
2013-08-21,43.29240417480469
2013-08-22,43.531585693359375
2013-08-23,43.56702423095703
2013-08-26,43.65560531616211
2013-08-27,43.221534729003906
2013-08-28,42.69887924194336
2013-08-29,42.72544860839844
2013-08-30,41.84843444824219
2013-09-03,42.069908142089844
2013-09-04,42.46855545043945
2013-09-05,43.57588195800781
2013-09-06,43.54044723510742
2013-09-09,44.886962890625
2013-09-10,46.295494079589844
2013-09-11,46.074031829833984
2013-09-12,46.401798248291016
2013-09-13,46.66755676269531
2013-09-16,47.323097229003906
2013-09-17,47.59772491455078
2013-09-18,48.155818939208984
2013-09-19,47.65088653564453
2013-09-20,46.685279846191406
2013-09-23,46.79157638549805
2013-09-24,46.55241012573242
2013-09-25,46.685279846191406
2013-09-26,46.86246109008789
2013-09-27,46.685279846191406
2013-09-30,46.79157638549805
2013-10-01,47.31425476074219
2013-10-02,47.119354248046875
2013-10-03,47.27882385253906
2013-10-04,47.84576416015625
2013-10-07,47.55344009399414
2013-10-08,46.86246109008789
2013-10-09,48.10268020629883
2013-10-10,49.52891540527344
2013-10-11,49.7326774597168
2013-10-14,49.63522720336914
2013-10-15,48.873382568359375
2013-10-16,49.52891540527344
2013-10-17,49.49348068237305
2013-10-18,49.80354309082031
2013-10-21,49.90985107421875
2013-10-22,50.4147834777832
2013-10-23,50.59196472167969
2013-10-24,49.883262634277344
2013-10-25,43.89480209350586
2013-10-28,44.408592224121094
2013-10-29,44.904685974121094
2013-10-30,45.577945709228516
2013-10-31,45.8348503112793
2013-11-01,45.090721130371094
2013-11-04,44.984413146972656
2013-11-05,44.64778518676758
2013-11-06,44.1871337890625
2013-11-07,43.67332458496094
2013-11-08,44.83380889892578
2013-11-11,44.94898223876953
2013-11-12,44.26686477661133
2013-11-13,45.40077590942383
2013-11-14,45.62223815917969
2013-11-15,45.44419479370117
2013-11-18,45.15933609008789
2013-11-19,45.30176544189453
2013-11-20,45.62223815917969
2013-11-21,45.23056411743164
2013-11-22,45.47092056274414
2013-11-25,45.15933609008789
2013-11-26,44.126731872558594
2013-11-27,43.3255500793457
2013-11-29,43.450172424316406
2013-12-02,43.47688674926758
2013-12-03,43.37006759643555
2013-12-04,42.01697540283203
2013-12-05,42.04368209838867
2013-12-06,42.62229537963867
2013-12-09,42.844844818115234
2013-12-10,42.212799072265625
2013-12-11,40.494754791259766
2013-12-12,40.3790283203125
2013-12-13,41.35822296142578
2013-12-16,41.08226776123047
2013-12-17,40.824127197265625
2013-12-18,40.743995666503906
2013-12-19,40.63718032836914
2013-12-20,41.02886199951172
2013-12-23,41.49176025390625
2013-12-24,41.7944221496582
2013-12-26,42.08817672729492
2013-12-27,41.80332565307617
2013-12-30,42.02587127685547
2013-12-31,41.91013717651367
2014-01-02,41.12677764892578
2014-01-03,41.61639404296875
2014-01-06,41.23360824584961
2014-01-07,42.20391082763672
2014-01-08,42.542179107666016
2014-01-09,42.56888961791992
2014-01-10,42.53327560424805
2014-01-13,41.68759536743164
2014-01-14,40.83301544189453
2014-01-15,41.56298065185547
2014-01-16,40.77961349487305
2014-01-17,40.619380950927734
2014-01-21,41.03775405883789
2014-01-22,41.41164016723633
2014-01-23,41.73210906982422
2014-01-24,39.06154251098633
2014-01-27,38.99923324584961
2014-01-28,39.257381439208984
2014-01-29,38.821189880371094
2014-01-30,39.11494827270508
2014-01-31,38.821189880371094
2014-02-03,37.4146842956543
2014-02-04,38.3760986328125
2014-02-05,38.70546340942383
2014-02-06,38.89240264892578
2014-02-07,38.874595642089844
2014-02-10,40.57487106323242
2014-02-11,40.53035354614258
2014-02-12,40.88643264770508
2014-02-13,40.92203903198242
2014-02-14,40.93994140625
2014-02-18,41.28901290893555
2014-02-19,41.297969818115234
2014-02-20,41.65598678588867
2014-02-21,41.40536117553711
2014-02-24,41.41432571411133
2014-02-25,39.96432876586914
2014-02-26,39.2214241027832
2014-02-27,39.570499420166016
2014-02-28,39.400428771972656
2014-03-03,38.92607116699219
2014-03-04,39.48099136352539
2014-03-05,39.579444885253906
2014-03-06,39.39148712158203
2014-03-07,39.570499420166016
2014-03-10,39.85692596435547
2014-03-11,39.82111358642578
2014-03-12,40.37606430053711
2014-03-13,39.355690002441406
2014-03-14,38.76494598388672
2014-03-17,39.140869140625
2014-03-18,39.59735870361328
2014-03-19,39.865867614746094
2014-03-20,39.26618194580078
2014-03-21,38.97976303100586
2014-03-24,38.46062469482422
2014-03-25,39.051368713378906
2014-03-26,38.988712310791016
2014-03-27,39.114013671875
2014-03-28,39.28407669067383
2014-03-31,40.000125885009766
2014-04-01,40.49241256713867
2014-04-02,40.59086608886719
2014-04-03,40.0806884765625
2014-04-04,40.107540130615234
2014-04-07,40.28655242919922
2014-04-08,40.55506134033203
2014-04-09,40.67142868041992
2014-04-10,40.456607818603516
2014-04-11,39.76741027832031
2014-04-14,41.127899169921875
2014-04-15,41.93345260620117
2014-04-16,41.61124038696289
2014-04-17,42.4615364074707
2014-04-21,42.40782928466797
2014-04-22,42.604740142822266
2014-04-23,41.84394836425781
2014-04-24,42.43468475341797
2014-04-25,42.81061935424805
2014-04-28,43.097023010253906
2014-04-29,44.77077865600586
2014-04-30,44.618621826171875
2014-05-01,44.645477294921875
2014-05-02,44.654422760009766
2014-05-05,44.87819290161133
2014-05-06,44.582828521728516
2014-05-07,44.726036071777344
2014-05-08,44.743934631347656
2014-05-09,45.334678649902344
2014-05-12,46.03282165527344
2014-05-13,45.647945404052734
2014-05-14,45.28992462158203
2014-05-15,44.83344650268555
2014-05-16,45.490116119384766
2014-05-19,45.562076568603516
2014-05-20,45.03134536743164
2014-05-21,45.193260192871094
2014-05-22,45.81393814086914
2014-05-23,45.01335144042969
2014-05-27,44.635536193847656
2014-05-28,44.62653732299805
2014-05-29,45.16626739501953
2014-05-30,45.03134536743164
2014-06-02,44.851436614990234
2014-06-03,44.752479553222656
2014-06-04,45.15727996826172
2014-06-05,46.137779235839844
2014-06-06,46.16477584838867
2014-06-09,46.4166374206543
2014-06-10,47.28920364379883
2014-06-11,47.67600631713867
2014-06-12,48.35966491699219
2014-06-13,47.81093978881836
2014-06-16,47.69400405883789
2014-06-17,47.39714431762695
2014-06-18,47.729984283447266
2014-06-19,47.84691619873047
2014-06-20,46.36266326904297
2014-06-23,46.67750930786133
2014-06-24,46.05683135986328
2014-06-25,46.40764236450195
2014-06-26,46.63252639770508
2014-06-27,47.19024658203125
2014-06-30,45.5440788269043
2014-07-01,44.851436614990234
2014-07-02,45.42714309692383
2014-07-03,45.04933166503906
2014-07-07,44.62653732299805
2014-07-08,44.032833099365234
2014-07-09,44.40165710449219
2014-07-10,44.60855484008789
2014-07-11,44.311702728271484
2014-07-14,44.365665435791016
2014-07-15,44.20375061035156
2014-07-16,43.798954010009766
2014-07-17,43.76297378540039
2014-07-18,44.4646110534668
2014-07-21,44.01485061645508
2014-07-22,44.752479553222656
2014-07-23,45.130287170410156
2014-07-24,45.22924041748047
2014-07-25,45.96686553955078
2014-07-28,45.876922607421875
2014-07-29,46.23674011230469
2014-07-30,46.5965461730957
2014-07-31,46.54257583618164
2014-08-01,44.689510345458984
2014-08-04,44.41065216064453
2014-08-05,44.44663619995117
2014-08-06,45.16626739501953
2014-08-07,44.95038604736328
2014-08-08,45.32818603515625
2014-08-11,46.218746185302734
2014-08-12,46.0118408203125
2014-08-13,46.18276596069336
2014-08-14,46.36266326904297
2014-08-15,46.23674011230469
2014-08-18,46.47061538696289
2014-08-19,46.606285095214844
2014-08-20,47.09467697143555
2014-08-21,46.805267333984375
2014-08-22,46.92283248901367
2014-08-25,46.53391647338867
2014-08-26,47.13990783691406
2014-08-27,47.483604431152344
2014-08-28,47.87251281738281
2014-08-29,47.98104476928711
2014-09-02,47.836326599121094
2014-09-03,48.207157135009766
2014-09-04,48.25237274169922
2014-09-05,47.9177360534668
2014-09-08,47.76398468017578
2014-09-09,47.483604431152344
2014-09-10,47.58308029174805
2014-09-11,47.745887756347656
2014-09-12,47.483604431152344
2014-09-15,47.42028045654297
2014-09-16,47.1218147277832
2014-09-17,46.63341522216797
2014-09-18,46.651512145996094
2014-09-19,46.38920974731445
2014-09-22,45.58426284790039
2014-09-23,45.36717987060547
2014-09-24,45.340057373046875
2014-09-25,45.06871795654297
2014-09-26,45.01445007324219
2014-09-29,45.19534683227539
2014-09-30,44.56222152709961
2014-10-01,44.77024459838867
2014-10-02,45.0777473449707
2014-10-03,45.43049621582031
2014-10-06,46.42538833618164
2014-10-07,45.8646354675293
2014-10-08,46.00029373168945
2014-10-09,44.26375961303711
2014-10-10,43.90199279785156
2014-10-13,43.82962417602539
2014-10-14,43.24172592163086
2014-10-15,42.37347412109375
2014-10-16,41.830787658691406
2014-10-17,42.30109786987305
2014-10-20,42.5452995300293
2014-10-21,43.43166732788086
2014-10-22,42.96134567260742
2014-10-23,43.142242431640625
2014-10-24,47.04945373535156
2014-10-27,46.62436294555664
2014-10-28,47.33888244628906
2014-10-29,46.85952377319336
2014-10-30,47.130863189697266
2014-10-31,47.2303466796875
2014-11-03,46.76908493041992
2014-11-04,46.85952377319336
2014-11-05,46.53391647338867
2014-11-06,46.6424674987793
2014-11-07,46.253543853759766
2014-11-10,46.1450080871582
2014-11-11,46.26258850097656
2014-11-12,47.23939514160156
2014-11-13,47.02233123779297
2014-11-14,47.36602020263672
2014-11-17,47.275569915771484
2014-11-18,47.575645446777344
2014-11-19,47.30284881591797
2014-11-20,47.73933410644531
2014-11-21,48.05759048461914
2014-11-24,48.039398193359375
2014-11-25,48.239463806152344
2014-11-26,48.78505325317383
2014-11-28,48.3758544921875
2014-12-01,48.45769500732422
2014-12-02,48.73049545288086
2014-12-03,49.121498107910156
2014-12-04,49.33063507080078
2014-12-05,49.53068161010742
2014-12-08,49.78529739379883
2014-12-09,49.51250076293945
2014-12-10,48.51224136352539
2014-12-11,48.73049545288086
2014-12-12,48.612274169921875
2014-12-15,48.51224136352539
2014-12-16,49.53068161010742
2014-12-17,49.96714782714844
2014-12-18,50.84919738769531
2014-12-19,51.14019775390625
2014-12-22,51.64030838012695
2014-12-23,51.822174072265625
2014-12-24,52.18589401245117
2014-12-26,52.15861129760742
2014-12-29,51.74032974243164
2014-12-30,51.594852447509766
2014-12-31,50.97649383544922
2015-01-02,51.98585510253906
2015-01-05,51.88582992553711
2015-01-06,51.513004302978516
2015-01-07,51.85854721069336
2015-01-08,52.73149871826172
2015-01-09,52.88608169555664
2015-01-12,53.36801528930664
2015-01-13,54.40464782714844
2015-01-14,54.8502082824707
2015-01-15,54.80474853515625
2015-01-16,55.22303009033203
2015-01-20,54.75928497314453
2015-01-21,54.65016174316406
2015-01-22,56.250572204589844
2015-01-23,59.324066162109375
2015-01-26,61.079044342041016
2015-01-27,59.287689208984375
2015-01-28,57.57816696166992
2015-01-29,57.31446838378906
2015-01-30,56.80525588989258
2015-02-02,56.91437530517578
2015-02-03,57.76913070678711
2015-02-04,57.39630889892578
2015-02-05,58.1055793762207
2015-02-06,58.04193115234375
2015-02-09,57.5145149230957
2015-02-10,58.25434494018555
2015-02-11,59.459991455078125
2015-02-12,59.78879928588867
2015-02-13,60.51035690307617
2015-02-17,60.67476272583008
2015-02-18,60.26375961303711
2015-02-19,59.51479721069336
2015-02-20,60.08107376098633
2015-02-23,60.11760330200195
2015-02-24,59.715728759765625
2015-02-25,59.61524963378906
2015-02-26,58.674495697021484
2015-02-27,58.784095764160156
2015-03-02,59.149444580078125
2015-03-03,58.902835845947266
2015-03-04,59.22250747680664
2015-03-05,60.017147064208984
2015-03-06,60.144996643066406
2015-03-09,61.469390869140625
2015-03-10,60.53773880004883
2015-03-11,61.72512435913086
2015-03-12,62.74808883666992
2015-03-13,61.916934967041016
2015-03-16,64.86711120605469
2015-03-17,64.73011016845703
2015-03-18,66.16409301757812
2015-03-19,65.47906494140625
2015-03-20,65.53386688232422
2015-03-23,66.03619384765625
2015-03-24,65.15937042236328
2015-03-25,64.28254699707031
2015-03-26,64.16380310058594
2015-03-27,65.35118865966797
2015-03-30,65.44252014160156
2015-03-31,65.5612564086914
2015-04-01,65.20503234863281
2015-04-02,66.23714447021484
2015-04-06,67.48846435546875
2015-04-07,66.13668060302734
2015-04-08,66.62075805664062
2015-04-09,67.44277954101562
2015-04-10,68.33788299560547
2015-04-13,68.30136108398438
2015-04-14,67.3971176147461
2015-04-15,66.70293426513672
2015-04-16,65.99056243896484
2015-04-17,65.65258026123047
2015-04-20,66.60248565673828
2015-04-21,66.7760238647461
2015-04-22,66.93131256103516
2015-04-23,67.02263641357422
2015-04-24,60.00800323486328
2015-04-27,58.957645416259766
2015-04-28,59.07637023925781
2015-04-29,58.53748321533203
2015-04-30,58.40049362182617
2015-05-01,59.16770935058594
2015-05-04,59.962345123291016
2015-05-05,59.0124397277832
2015-05-06,59.21337127685547
2015-05-07,59.52391815185547
2015-05-08,59.934940338134766
2015-05-11,59.91667175292969
2015-05-12,59.70659255981445
2015-05-13,50.673431396484375
2015-05-14,51.56852340698242
2015-05-15,51.33104705810547
2015-05-18,51.888206481933594
2015-05-19,52.163570404052734
2015-05-20,52.549076080322266
2015-05-21,52.61333084106445
2015-05-22,52.393028259277344
2015-05-26,52.70512390136719
2015-05-27,53.32927703857422
2015-05-28,53.83412551879883
2015-05-29,53.99016189575195
2015-06-01,54.46746826171875
2015-06-02,54.7795524597168
2015-06-03,54.69694137573242
2015-06-04,54.69694137573242
2015-06-05,54.76118850708008
2015-06-08,54.091129302978516
2015-06-09,53.88002014160156
2015-06-10,53.971805572509766
2015-06-11,54.247169494628906
2015-06-12,53.75151824951172
2015-06-15,53.74232482910156
2015-06-16,53.0172004699707
2015-06-17,52.4572868347168
2015-06-18,52.5031852722168
2015-06-19,52.8336296081543
2015-06-22,53.246665954589844
2015-06-23,52.09931945800781
2015-06-24,51.67707443237305
2015-06-25,51.576114654541016
2015-06-26,51.300750732421875
2015-06-29,50.88770294189453
2015-06-30,51.74134063720703
2015-07-01,50.75919723510742
2015-07-02,50.76838302612305
2015-07-06,50.8326301574707
2015-07-07,51.97998046875
2015-07-08,51.41089630126953
2015-07-09,52.10849380493164
2015-07-10,52.36550521850586
2015-07-13,52.68677520751953
2015-07-14,52.851985931396484
2015-07-15,52.585792541503906
2015-07-16,53.044742584228516
2015-07-17,52.631683349609375
2015-07-20,52.429744720458984
2015-07-21,52.09931945800781
2015-07-22,51.906558990478516
2015-07-23,51.64955520629883
2015-07-24,51.32828903198242
2015-07-27,50.63987731933594
2015-07-28,52.04423904418945
2015-07-29,51.32828903198242
2015-07-30,51.51186752319336
2015-07-31,53.19160079956055
2015-08-03,50.850990295410156
2015-08-04,51.30992889404297
2015-08-05,50.98866653442383
2015-08-06,50.32779312133789
2015-08-07,50.37369155883789
2015-08-10,50.88770294189453
2015-08-11,50.63069534301758
2015-08-12,50.6490478515625
2015-08-13,50.75919723510742
2015-08-14,51.26404571533203
2015-08-17,50.75919723510742
2015-08-18,50.65768051147461
2015-08-19,50.260833740234375
2015-08-20,49.77169418334961
2015-08-21,48.45196533203125
2015-08-24,45.72019577026367
2015-08-25,46.624637603759766
2015-08-26,47.815162658691406
2015-08-27,47.66749954223633
2015-08-28,48.42428207397461
2015-08-31,47.93513488769531
2015-09-01,46.83689880371094
2015-09-02,47.90745544433594
2015-09-03,47.649044036865234
2015-09-04,47.22451400756836
2015-09-08,47.90745544433594
2015-09-09,46.523109436035156
2015-09-10,46.809207916259766
2015-09-11,47.5106086730957
2015-09-14,47.02147674560547
2015-09-15,46.97533416748047
2015-09-16,46.97533416748047
2015-09-17,47.29834747314453
2015-09-18,47.0676155090332
2015-09-21,46.39390563964844
2015-09-22,45.95091247558594
2015-09-23,45.9047737121582
2015-09-24,47.73210906982422
2015-09-25,46.624637603759766
2015-09-28,45.618682861328125
2015-09-29,46.716915130615234
2015-09-30,47.030696868896484
2015-10-01,47.29834747314453
2015-10-02,47.68596267700195
2015-10-05,48.59962463378906
2015-10-06,48.839576721191406
2015-10-07,49.90090560913086
2015-10-08,49.75324630737305
2015-10-09,50.11317443847656
2015-10-12,50.34388732910156
2015-10-13,50.31621551513672
2015-10-14,50.98992919921875
2015-10-15,51.986656188964844
2015-10-16,52.14353942871094
2015-10-19,53.426361083984375
2015-10-20,52.10662841796875
2015-10-21,51.87589645385742
2015-10-22,51.22064208984375
2015-10-23,51.912811279296875
2015-10-26,51.903594970703125
2015-10-27,52.983375549316406
2015-10-28,53.251007080078125
2015-10-29,52.89109802246094
2015-10-30,53.16794967651367
2015-11-02,53.73091506958008
2015-11-03,54.044700622558594
2015-11-04,54.01701354980469
2015-11-05,53.97086715698242
2015-11-06,53.86013412475586
2015-11-09,53.50020217895508
2015-11-10,53.43559646606445
2015-11-11,53.86935043334961
2015-11-12,52.93723678588867
2015-11-13,52.90031433105469
2015-11-16,53.0018310546875
2015-11-17,53.419315338134766
2015-11-18,53.938846588134766
2015-11-19,54.031620025634766
2015-11-20,54.8480339050293
2015-11-23,54.22645568847656
2015-11-24,54.82020568847656
2015-11-25,55.2376823425293
2015-11-27,55.68300247192383
2015-11-30,55.26552200317383
2015-12-01,55.59950637817383
2015-12-02,55.56239700317383
2015-12-03,54.10585021972656
2015-12-04,53.62342071533203
2015-12-07,52.445186614990234
2015-12-08,52.343135833740234
2015-12-09,51.081417083740234
2015-12-10,51.6566162109375
2015-12-11,51.3133430480957
2015-12-14,51.63805389404297
2015-12-15,51.684452056884766
2015-12-16,52.074092864990234
2015-12-17,51.20201873779297
2015-12-18,50.0980110168457
2015-12-21,49.086769104003906
2015-12-22,49.6712532043457
2015-12-23,50.20933532714844
2015-12-24,50.02377700805664
2015-12-28,50.20933532714844
2015-12-29,50.5618782043457
2015-12-30,50.44126510620117
2015-12-31,49.81040573120117
2016-01-04,48.43734359741211
2016-01-05,48.65072250366211
2016-01-06,47.685890197753906
2016-01-07,48.112640380859375
2016-01-08,48.35384750366211
2016-01-11,48.539398193359375
2016-01-12,49.29087448120117
2016-01-13,49.28159713745117
2016-01-14,50.25571060180664
2016-01-15,49.43931579589844
2016-01-19,49.78257369995117
2016-01-20,49.87533950805664
2016-01-21,50.13511657714844
2016-01-22,53.410037994384766
2016-01-25,54.421287536621094
2016-01-26,54.7552604675293
2016-01-27,53.410037994384766
2016-01-28,52.18541717529297
2016-01-29,52.602909088134766
2016-02-01,53.094608306884766
2016-02-02,52.927616119384766
2016-02-03,53.419315338134766
2016-02-04,53.64197540283203
2016-02-05,53.27088165283203
2016-02-08,52.918331146240234
2016-02-09,53.32870864868164
2016-02-10,53.850990295410156
2016-02-11,53.27273941040039
2016-02-12,53.98155212402344
2016-02-16,55.05409622192383
2016-02-17,55.259273529052734
2016-02-18,55.212642669677734
2016-02-19,54.9328498840332
2016-02-22,55.26860809326172
2016-02-23,54.08414840698242
2016-02-24,53.89760971069336
2016-02-25,53.53388595581055
2016-02-26,53.850990295410156
2016-02-29,53.0768928527832
2016-03-01,53.46860122680664
2016-03-02,53.39398193359375
2016-03-03,53.56186294555664
2016-03-04,53.95356750488281
2016-03-07,54.18673324584961
2016-03-08,54.046844482421875
2016-03-09,54.08414840698242
2016-03-10,54.8395881652832
2016-03-11,56.29451370239258
2016-03-14,55.11005401611328
2016-03-15,54.82093811035156
2016-03-16,53.440608978271484
2016-03-17,52.22817611694336
2016-03-18,52.54528045654297
2016-03-21,52.40537643432617
2016-03-22,52.57325744628906
2016-03-23,52.55461120605469
2016-03-24,51.73388671875
2016-03-28,52.2002067565918
2016-03-29,52.47066879272461
2016-03-30,53.058231353759766
2016-03-31,53.925594329833984
2016-04-01,55.01679229736328
2016-04-04,54.82093811035156
2016-04-05,54.2613525390625
2016-04-06,55.51108169555664
2016-04-07,55.02611541748047
2016-04-08,54.63441848754883
2016-04-11,54.76497268676758
2016-04-12,55.40849685668945
2016-04-13,56.13596725463867
2016-04-14,55.455142974853516
2016-04-15,55.72559356689453
2016-04-18,55.86549758911133
2016-04-19,55.65099334716797
2016-04-20,55.97740936279297
2016-04-21,56.36912536621094
2016-04-22,56.630271911621094
2016-04-25,57.040626525878906
2016-04-26,56.84477996826172
2016-04-27,52.83439254760742
2016-04-28,52.69449996948242
2016-04-29,52.04164505004883
2016-05-02,52.349422454833984
2016-05-03,51.892417907714844
2016-05-04,52.256160736083984
2016-05-05,52.61056137084961
2016-05-06,52.67584991455078
2016-05-09,53.011592864990234
2016-05-10,53.67377471923828
2016-05-11,53.67377471923828
2016-05-12,53.91626739501953
2016-05-13,53.57118606567383
2016-05-16,54.17740249633789
2016-05-17,53.65241622924805
2016-05-18,53.34304428100586
2016-05-19,53.28678894042969
2016-05-20,54.018035888671875
2016-05-23,53.83053207397461
2016-05-24,54.49615478515625
2016-05-25,54.111785888671875
2016-05-26,54.580528259277344
2016-05-27,54.786781311035156
2016-05-31,55.36802673339844
2016-06-01,55.47114181518555
2016-06-02,55.8273811340332
2016-06-03,55.8180046081543
2016-06-06,56.118003845214844
2016-06-07,56.13676452636719
2016-06-08,56.464881896972656
2016-06-09,56.71799850463867
2016-06-10,56.06174850463867
2016-06-13,55.518009185791016
2016-06-14,55.85551071166992
2016-06-15,55.29301452636719
2016-06-16,55.06801223754883
2016-06-17,54.7117805480957
2016-06-20,56.10863494873047
2016-06-21,57.91797637939453
2016-06-22,58.4336051940918
2016-06-23,60.07419967651367
2016-06-24,56.73675537109375
2016-06-27,55.518009185791016
2016-06-28,56.567996978759766
2016-06-29,58.152347564697266
2016-06-30,59.277339935302734
2016-07-01,59.55858612060547
2016-07-05,59.624210357666016
2016-07-06,59.91483688354492
2016-07-07,59.389827728271484
2016-07-08,60.477333068847656
2016-07-11,60.261695861816406
2016-07-12,60.0179557800293
2016-07-13,60.40232467651367
2016-07-14,61.03044128417969
2016-07-15,60.74919509887695
2016-07-18,61.761680603027344
2016-07-19,61.414817810058594
2016-07-20,61.99604034423828
2016-07-21,61.77104568481445
2016-07-22,61.808555603027344
2016-07-25,61.414817810058594
2016-07-26,61.827308654785156
2016-07-27,61.058555603027344
2016-07-28,61.592933654785156
2016-07-29,64.57415771484375
2016-08-01,65.4834976196289
2016-08-02,65.04288482666016
2016-08-03,64.49913787841797
2016-08-04,64.7803955078125
2016-08-05,65.4834976196289
2016-08-08,66.15849304199219
2016-08-09,66.25225067138672
2016-08-10,65.78350067138672
2016-08-11,66.10224914550781
2016-08-12,66.01788330078125
2016-08-15,66.18663024902344
2016-08-16,65.07518768310547
2016-08-17,64.5006332397461
2016-08-18,65.52729034423828
2016-08-19,65.99825286865234
2016-08-22,65.72508239746094
2016-08-23,63.40803909301758
2016-08-24,64.04851531982422
2016-08-25,64.46295928955078
2016-08-26,65.01868438720703
2016-08-29,63.95433807373047
2016-08-30,63.31385803222656
2016-08-31,62.81465148925781
2016-09-01,63.21967315673828
2016-09-02,63.163150787353516
2016-09-06,63.549320220947266
2016-09-07,63.67177200317383
2016-09-08,63.163150787353516
2016-09-09,61.646705627441406
2016-09-12,61.82567596435547
2016-09-13,60.95912551879883
2016-09-14,61.10041427612305
2016-09-15,61.1851806640625
2016-09-16,60.7142333984375
2016-09-19,60.02665710449219
2016-09-20,59.7629280090332
2016-09-21,60.09259796142578
2016-09-22,60.26213073730469
2016-09-23,59.574554443359375
2016-09-26,59.89479446411133
2016-09-27,60.75191879272461
2016-09-28,60.977970123291016
2016-09-29,60.47876739501953
2016-09-30,61.02506637573242
2016-10-03,60.591796875
2016-10-04,60.39399337768555
2016-10-05,60.196197509765625
2016-10-06,60.75191879272461
2016-10-07,60.215030670166016
2016-10-10,61.37356185913086
2016-10-11,60.356319427490234
2016-10-12,60.33747482299805
2016-10-13,60.139686584472656
2016-10-14,60.89319610595703
2016-10-17,60.45051574707031
2016-10-18,61.213443756103516
2016-10-19,60.7707405090332
2016-10-20,59.885372161865234
2016-10-21,60.017234802246094
2016-10-24,60.05491638183594
2016-10-25,60.40340805053711
2016-10-26,57.03144836425781
2016-10-27,56.353294372558594
2016-10-28,56.84307098388672
2016-10-31,56.29676818847656
2016-11-01,54.79916763305664
2016-11-02,54.20577621459961
2016-11-03,54.00797653198242
2016-11-04,54.08332824707031
2016-11-07,54.59195327758789
2016-11-08,54.55406188964844
2016-11-09,55.283470153808594
2016-11-10,56.19286346435547
2016-11-11,56.69492721557617
2016-11-14,55.472930908203125
2016-11-15,55.435035705566406
2016-11-16,54.71510696411133
2016-11-17,55.69080352783203
2016-11-18,55.44449996948242
2016-11-21,55.435035705566406
2016-11-22,55.008750915527344
2016-11-23,55.16032409667969
2016-11-25,55.918148040771484
2016-11-28,57.41485595703125
2016-11-29,58.835784912109375
2016-11-30,58.23899841308594
2016-12-01,56.420204162597656
2016-12-02,56.382320404052734
2016-12-05,56.770713806152344
2016-12-06,56.62860870361328
2016-12-07,57.15908432006836
2016-12-08,58.134796142578125
2016-12-09,58.949462890625
2016-12-12,59.46099090576172
2016-12-13,59.33784484863281
2016-12-14,58.930511474609375
2016-12-15,59.025238037109375
2016-12-16,59.23365020751953
2016-12-19,59.015769958496094
2016-12-20,58.75999450683594
2016-12-21,58.37160873413086
2016-12-22,58.37160873413086
2016-12-23,58.75999450683594
2016-12-27,58.59895324707031
2016-12-28,58.42845916748047
2016-12-29,59.14839172363281
2016-12-30,58.778934478759766
2017-01-03,58.68422317504883
2017-01-04,59.06312942504883
2017-01-05,58.60843276977539
2017-01-06,58.86419677734375
2017-01-09,59.9251594543457
2017-01-10,60.86296844482422
2017-01-11,60.730350494384766
2017-01-12,60.87244415283203
2017-01-13,61.88603973388672
2017-01-17,60.79666519165039
2017-01-18,59.95357894897461
2017-01-19,59.584144592285156
2017-01-20,60.29460525512695
2017-01-23,60.24723815917969
2017-01-24,66.04461669921875
2017-01-25,66.16775512695312
2017-01-26,64.78472900390625
2017-01-27,64.54789733886719
2017-01-30,64.13109588623047
2017-01-31,63.979549407958984
2017-02-01,63.42064666748047
2017-02-02,63.46799850463867
2017-02-03,64.61420440673828
2017-02-06,65.06890869140625
2017-02-07,65.61145782470703
2017-02-08,66.02078247070312
2017-02-09,66.4395751953125
2017-02-10,66.84888458251953
2017-02-13,67.44854736328125
2017-02-14,67.6484375
2017-02-15,68.24810028076172
2017-02-16,68.45751953125
2017-02-17,68.79065704345703
2017-02-21,68.73356628417969
2017-02-22,68.89537048339844
2017-02-23,68.17196655273438
2017-02-24,68.49559020996094
2017-02-27,68.55269622802734
2017-02-28,68.56221008300781
2017-03-01,69.43794250488281
2017-03-02,68.99057006835938
2017-03-03,68.89537048339844
2017-03-06,68.36234283447266
2017-03-07,68.0767822265625
2017-03-08,67.32479858398438
2017-03-09,67.37239837646484
2017-03-10,68.00062561035156
2017-03-13,68.22908020019531
2017-03-14,67.58182525634766
2017-03-15,68.0482177734375
2017-03-16,67.84834289550781
2017-03-17,68.19100189208984
2017-03-20,67.87687683105469
2017-03-21,67.3153076171875
2017-03-22,67.85784912109375
2017-03-23,67.87687683105469
2017-03-24,68.12437438964844
2017-03-27,68.22908020019531
2017-03-28,68.49559020996094
2017-03-29,68.99057006835938
2017-03-30,68.0767822265625
2017-03-31,68.50511169433594
2017-04-03,67.94351196289062
2017-04-04,67.15348052978516
2017-04-05,65.92559051513672
2017-04-06,65.72570037841797
2017-04-07,65.70664978027344
2017-04-10,65.6590576171875
2017-04-11,66.0873794555664
2017-04-12,65.11650085449219
2017-04-13,64.84046936035156
2017-04-17,65.91606140136719
2017-04-18,65.3449478149414
2017-04-19,65.7732925415039
2017-04-20,66.26824951171875
2017-04-21,66.47765350341797
2017-04-24,67.33433532714844
2017-04-25,67.52469635009766
2017-04-26,68.29570007324219
2017-04-27,69.34273529052734
2017-04-28,64.71671295166016
2017-05-01,65.60194396972656
2017-05-02,66.4300765991211
2017-05-03,65.63050842285156
2017-05-04,65.67808532714844
2017-05-05,66.04931640625
2017-05-08,65.24976348876953
2017-05-09,64.5228500366211
2017-05-10,65.23062896728516
2017-05-11,64.97239685058594
2017-05-12,65.38367462158203
2017-05-15,65.89058685302734
2017-05-16,65.4984359741211
2017-05-17,64.7141342163086
2017-05-18,64.56112670898438
2017-05-19,65.42192077636719
2017-05-22,66.48361206054688
2017-05-23,66.56967163085938
2017-05-24,66.88529968261719
2017-05-25,67.0000991821289
2017-05-26,67.01920318603516
2017-05-30,66.95225524902344
2017-05-31,68.00436401367188
2017-06-01,68.76953125
2017-06-02,68.8269271850586
2017-06-05,69.58252716064453
2017-06-06,69.3912353515625
2017-06-07,70.12770080566406
2017-06-08,70.07989501953125
2017-06-09,70.28074645996094
2017-06-12,69.85989379882812
2017-06-13,71.88760375976562
2017-06-14,72.0693359375
2017-06-15,72.8536148071289
2017-06-16,73.7431411743164
2017-06-19,75.47431945800781
2017-06-20,75.05349731445312
2017-06-21,74.97696685791016
2017-06-22,74.25005340576172
2017-06-23,75.02479553222656
2017-06-26,74.30745697021484
2017-06-27,73.6666030883789
2017-06-28,73.81008911132812
2017-06-29,73.73356628417969
2017-06-30,74.47960662841797
2017-07-03,74.4030990600586
2017-07-05,73.72400665283203
2017-07-06,72.72928619384766
2017-07-07,73.47532653808594
2017-07-10,73.47532653808594
2017-07-11,73.10230255126953
2017-07-12,73.7431411743164
2017-07-13,73.76226806640625
2017-07-14,74.2117919921875
2017-07-17,74.24049377441406
2017-07-18,74.14484405517578
2017-07-19,74.66133880615234
2017-07-20,74.63264465332031
2017-07-21,73.64749908447266
2017-07-24,73.82921600341797
2017-07-25,74.29786682128906
2017-07-26,74.27876281738281
2017-07-27,74.08745574951172
2017-07-28,74.0205078125
2017-07-31,73.76226806640625
2017-08-01,74.1065902709961
2017-08-02,69.35298156738281
2017-08-03,70.25205993652344
2017-08-04,71.82064056396484
2017-08-07,71.78240203857422
2017-08-08,71.16069030761719
2017-08-09,70.89289093017578
2017-08-10,69.45819091796875
2017-08-11,69.40080261230469
2017-08-14,70.41465759277344
2017-08-15,69.61699676513672
2017-08-16,69.86685943603516
2017-08-17,69.95336151123047
2017-08-18,70.22244262695312
2017-08-21,70.5780258178711
2017-08-22,71.6447525024414
2017-08-23,71.02970886230469
2017-08-24,71.02008819580078
2017-08-25,71.30839538574219
2017-08-28,72.59619140625
2017-08-29,72.0291748046875
2017-08-30,72.6346206665039
2017-08-31,74.55668640136719
2017-09-01,74.56629943847656
2017-09-05,73.61488342285156
2017-09-06,74.63359832763672
2017-09-07,75.74835968017578
2017-09-08,76.72860717773438
2017-09-11,78.20860290527344
2017-09-12,77.72807312011719
2017-09-13,76.50757598876953
2017-09-14,77.41094207763672
2017-09-15,76.14240264892578
2017-09-18,76.43070220947266
2017-09-19,76.35381317138672
2017-09-20,76.49797821044922
2017-09-21,74.30682373046875
2017-09-22,74.36448669433594
2017-09-25,74.19148254394531
2017-09-26,73.32658386230469
2017-09-27,73.19202423095703
2017-09-28,73.14397430419922
2017-09-29,73.96086120605469
2017-10-02,74.393310546875
2017-10-03,73.54761505126953
2017-10-04,74.25875854492188
2017-10-05,74.28760528564453
2017-10-06,74.23954010009766
2017-10-09,73.17279052734375
2017-10-10,73.2400894165039
2017-10-11,73.56683349609375
2017-10-12,74.56629943847656
2017-10-13,74.604736328125
2017-10-16,74.70084381103516
2017-10-17,75.36396026611328
2017-10-18,75.79641723632812
2017-10-19,75.71954345703125
2017-10-20,75.92134857177734
2017-10-23,76.70939636230469
2017-10-24,75.96939849853516
2017-10-25,75.34474182128906
2017-10-26,75.54653930664062
2017-10-27,81.13014221191406
2017-10-30,79.75584411621094
2017-10-31,80.89949035644531
2017-11-01,82.42753601074219
2017-11-02,79.63093566894531
2017-11-03,79.88079071044922
2017-11-06,79.99612426757812
2017-11-07,79.27534484863281
2017-11-08,79.3236083984375
2017-11-09,79.83512115478516
2017-11-10,80.16324615478516
2017-11-13,81.07047271728516
2017-11-14,81.28282928466797
2017-11-15,81.31175994873047
2017-11-16,82.01631927490234
2017-11-17,81.67849731445312
2017-11-20,81.75570678710938
2017-11-21,82.67259216308594
2017-11-22,82.29618835449219
2017-11-24,82.14176940917969
2017-11-27,81.72676086425781
2017-11-28,82.21897888183594
2017-11-29,82.27688598632812
2017-11-30,82.4216537475586
2017-12-01,81.31175994873047
2017-12-04,80.65547943115234
2017-12-05,81.40827178955078
2017-12-06,82.20932006835938
2017-12-07,82.77875518798828
2017-12-08,83.35782623291016
2017-12-11,83.4253921508789
2017-12-12,82.8463134765625
2017-12-13,82.04524993896484
2017-12-14,81.0029067993164
2017-12-15,82.31549835205078
2017-12-18,82.71118927001953
2017-12-19,83.11654663085938
2017-12-20,82.58572387695312
2017-12-21,82.01631927490234
2017-12-22,82.14176940917969
2017-12-26,82.60503387451172
2017-12-27,82.76910400390625
2017-12-28,83.25167083740234
2017-12-29,81.73641204833984
2018-01-02,82.54712677001953
2018-01-03,83.40606689453125
2018-01-04,83.52190399169922
2018-01-05,84.63179779052734
2018-01-08,85.11436462402344
2018-01-09,84.93096923828125
2018-01-10,84.06234741210938
2018-01-11,84.00446319580078
2018-01-12,84.71864318847656
2018-01-16,84.79586029052734
2018-01-17,85.63552856445312
2018-01-18,85.69342803955078
2018-01-19,85.58724212646484
2018-01-22,84.45806884765625
2018-01-23,96.85025787353516
2018-01-24,96.72480773925781
2018-01-25,98.07598114013672
2018-01-26,99.21482849121094
2018-01-29,99.234130859375
2018-01-30,97.15911102294922
2018-01-31,97.2749252319336
2018-02-01,96.1746826171875
2018-02-02,93.58815002441406
2018-02-05,90.07508850097656
2018-02-06,91.735107421875
2018-02-07,89.69116973876953
2018-02-08,86.46543884277344
2018-02-09,88.19938659667969
2018-02-12,88.85809326171875
2018-02-13,88.65465545654297
2018-02-14,90.54360961914062
2018-02-15,91.24107360839844
2018-02-16,90.87296295166016
2018-02-20,89.92365264892578
2018-02-21,90.28205871582031
2018-02-22,90.84391021728516
2018-02-23,92.43255615234375
2018-02-26,93.38187408447266
2018-02-27,92.51005554199219
2018-02-28,92.2872543334961
2018-03-01,91.01826477050781
2018-03-02,91.94821166992188
2018-03-05,92.45194244384766
2018-03-06,93.16877746582031
2018-03-07,93.62406921386719
2018-03-08,94.55399322509766
2018-03-09,96.55918884277344
2018-03-12,96.42357635498047
2018-03-13,95.7939224243164
2018-03-14,95.50330352783203
2018-03-15,95.03834533691406
2018-03-16,95.1158447265625
2018-03-19,94.68961334228516
2018-03-20,95.10614013671875
2018-03-21,95.25144958496094
2018-03-22,93.45938110351562
2018-03-23,92.48098754882812
2018-03-26,95.19332885742188
2018-03-27,94.23432922363281
2018-03-28,93.236572265625
2018-03-29,95.38706970214844
2018-04-02,92.80066680908203
2018-04-03,93.8855972290039
2018-04-04,92.83940124511719
2018-04-05,92.22914123535156
2018-04-06,90.68892669677734
2018-04-09,91.68668365478516
2018-04-10,93.63374328613281
2018-04-11,93.42063903808594
2018-04-12,95.41612243652344
2018-04-13,95.75518035888672
2018-04-16,96.57856750488281
2018-04-17,97.56661987304688
2018-04-18,98.0025405883789
2018-04-19,97.22759246826172
2018-04-20,95.70674896240234
2018-04-23,94.87367248535156
2018-04-24,93.53687286376953
2018-04-25,93.43030548095703
2018-04-26,94.15682983398438
2018-04-27,91.43480682373047
2018-04-30,91.67698669433594
2018-05-01,92.14195251464844
2018-05-02,92.82003784179688
2018-05-03,93.9437255859375
2018-05-04,94.66053771972656
2018-05-07,94.78648376464844
2018-05-08,94.76710510253906
2018-05-09,95.4281997680664
2018-05-10,98.2572021484375
2018-05-11,99.15159606933594
2018-05-14,99.3071517944336
2018-05-15,98.3641357421875
2018-05-16,99.54045867919922
2018-05-17,98.60718536376953
2018-05-18,98.8016128540039
2018-05-21,99.98765563964844
2018-05-22,99.20021057128906
2018-05-23,99.86128234863281
2018-05-24,100.25985717773438
2018-05-25,100.25015258789062
2018-05-29,98.28636169433594
2018-05-30,99.71546173095703
2018-05-31,99.94876861572266
2018-06-01,100.67790985107422
2018-06-04,102.2042007446289
2018-06-05,102.62223815917969
2018-06-06,103.69163513183594
2018-06-07,102.9625015258789
2018-06-08,103.8180160522461
2018-06-11,103.59442138671875
2018-06-12,103.97356414794922
2018-06-13,103.82772827148438
2018-06-14,103.78885650634766
2018-06-15,102.85557556152344
2018-06-18,103.32219696044922
2018-06-19,103.147216796875
2018-06-20,103.83745574951172
2018-06-21,104.05133056640625
2018-06-22,104.92628479003906
2018-06-25,102.58335876464844
2018-06-26,103.41941833496094
2018-06-27,100.55152130126953
2018-06-28,101.18344116210938
2018-06-29,100.69735717773438
2018-07-02,100.89179229736328
2018-07-03,100.63900756835938
2018-07-05,102.3305892944336
2018-07-06,103.84718322753906
2018-07-09,104.24577331542969
2018-07-10,104.99435424804688
2018-07-11,104.57630157470703
2018-07-12,105.9859390258789
2018-07-13,106.08316802978516
2018-07-16,105.9373550415039
2018-07-17,106.33594512939453
2018-07-18,105.49987030029297
2018-07-19,105.78179931640625
2018-07-20,106.2873306274414
2018-07-23,106.01512145996094
2018-07-24,105.94706726074219
2018-07-25,106.2873306274414
2018-07-26,105.63597106933594
2018-07-27,103.51664733886719
2018-07-30,101.73756408691406
2018-07-31,102.83612823486328
2018-08-01,104.00273132324219
2018-08-02,105.58736419677734
2018-08-03,101.82504272460938
2018-08-06,103.82772827148438
2018-08-07,104.74156188964844
2018-08-08,104.91655731201172
2018-08-09,105.08183288574219
2018-08-10,104.78045654296875
2018-08-13,103.75968170166016
2018-08-14,105.24710845947266
2018-08-15,104.51546478271484
2018-08-16,104.22281646728516
2018-08-17,104.18379974365234
2018-08-20,103.79359436035156
2018-08-21,104.25209045410156
2018-08-22,104.62278747558594
2018-08-23,105.59828186035156
2018-08-24,106.23236083984375
2018-08-27,108.02728271484375
2018-08-28,108.79792785644531
2018-08-29,109.62710571289062
2018-08-30,109.64661407470703
2018-08-31,108.68087768554688
2018-09-04,109.11009979248047
2018-09-05,109.23690795898438
2018-09-06,109.18814086914062
2018-09-07,109.29544067382812
2018-09-10,109.26617431640625
2018-09-11,108.60284423828125
2018-09-12,108.91500091552734
2018-09-13,111.28546905517578
2018-09-14,111.43177795410156
2018-09-17,109.997802734375
2018-09-18,110.65138244628906
2018-09-19,109.85147857666016
2018-09-20,110.7001724243164
2018-09-21,111.04158020019531
2018-09-24,111.19766235351562
2018-09-25,112.53411102294922
2018-09-26,112.71946716308594
2018-09-27,111.782958984375
2018-09-28,112.51458740234375
2018-10-01,112.34876251220703
2018-10-02,111.08061218261719
2018-10-03,109.01254272460938
2018-10-04,107.10055541992188
2018-10-05,107.12006378173828
2018-10-08,105.22759246826172
2018-10-09,103.696044921875
2018-10-10,100.63296508789062
2018-10-11,99.34528350830078
2018-10-12,100.72076416015625
2018-10-15,100.17447662353516
2018-10-16,103.41316986083984
2018-10-17,104.04722595214844
2018-10-18,102.4571533203125
2018-10-19,100.45738983154297
2018-10-22,100.11595153808594
2018-10-23,98.1649398803711
2018-10-24,95.65789794921875
2018-10-25,96.08712005615234
2018-10-26,101.5499496459961
2018-10-29,100.63296508789062
2018-10-30,102.61324310302734
2018-10-31,103.32536315917969
2018-11-01,103.40339660644531
2018-11-02,103.12049865722656
2018-11-05,102.42788696289062
2018-11-06,102.41812896728516
2018-11-07,105.32562255859375
2018-11-08,106.23605346679688
2018-11-09,104.6893081665039
2018-11-12,101.5566635131836
2018-11-13,99.55958557128906
2018-11-14,99.5008544921875
2018-11-15,102.03634643554688
2018-11-16,101.98739624023438
2018-11-19,100.41128540039062
2018-11-20,99.47147369384766
2018-11-21,100.68539428710938
2018-11-23,101.50772094726562
2018-11-26,102.53560638427734
2018-11-27,103.36771392822266
2018-11-28,106.57868957519531
2018-11-29,108.17438507080078
2018-11-30,109.4372329711914
2018-12-03,110.65113830566406
2018-12-04,109.77007293701172
2018-12-06,109.98544311523438
2018-12-07,107.67511749267578
2018-12-10,110.52388000488281
2018-12-11,111.54198455810547
2018-12-12,112.73631286621094
2018-12-13,112.9027328491211
2018-12-14,110.5532455444336
2018-12-17,108.42890930175781
2018-12-18,109.30017852783203
2018-12-19,107.22480010986328
2018-12-20,105.20814514160156
2018-12-21,104.20962524414062
2018-12-24,101.34127807617188
2018-12-26,106.58847045898438
2018-12-27,108.80091857910156
2018-12-28,109.68196105957031
2018-12-31,111.47345733642578
2019-01-02,109.41765594482422
2019-01-03,104.23899841308594
2019-01-04,107.87091827392578
2019-01-07,108.87923431396484
2019-01-08,111.12104034423828
2019-01-09,112.13915252685547
2019-01-10,112.96146392822266
2019-01-11,112.39366912841797
2019-01-14,111.18956756591797
2019-01-15,113.2355728149414
2019-01-16,114.42989349365234
2019-01-17,114.93894958496094
2019-01-18,115.35989379882812
2019-01-22,114.99768829345703
2019-01-23,114.75296020507812
2019-01-24,114.83126068115234
2019-01-25,92.56985473632812
2019-01-28,89.63300323486328
2019-01-29,90.1029052734375
2019-01-30,91.76712799072266
2019-01-31,93.16702270507812
2019-02-01,91.64965057373047
2019-02-04,92.34471130371094
2019-02-05,93.15723419189453
2019-02-06,93.94345092773438
2019-02-07,94.07122039794922
2019-02-08,95.14244079589844
2019-02-11,95.5355453491211
2019-02-12,96.5183334350586
2019-02-13,97.22591400146484
2019-02-14,97.72714233398438
2019-02-15,98.71974182128906
2019-02-19,98.03179168701172
2019-02-20,98.05145263671875
2019-02-21,98.37576293945312
2019-02-22,99.49612426757812
2019-02-25,99.90890502929688
2019-02-26,99.06371307373047
2019-02-27,100.0661392211914
2019-02-28,100.66563415527344
2019-03-01,101.33391571044922
2019-03-04,100.14476776123047
2019-03-05,100.66563415527344
2019-03-06,98.87698364257812
2019-03-07,98.75904083251953
2019-03-08,99.26026153564453
2019-03-11,99.65337371826172
2019-03-12,100.99977111816406
2019-03-13,100.8621826171875
2019-03-14,99.26026153564453
2019-03-15,98.64112091064453
2019-03-18,95.72227478027344
2019-03-19,96.21366119384766
2019-03-20,97.10798645019531
2019-03-21,99.23078155517578
2019-03-22,98.41507720947266
2019-03-25,99.67301940917969
2019-03-26,100.5575180053711
2019-03-27,99.75165557861328
2019-03-28,100.93099975585938
2019-03-29,102.17910766601562
2019-04-01,102.86705017089844
2019-04-02,103.20120239257812
2019-04-03,101.22582244873047
2019-04-04,99.55510711669922
2019-04-05,99.17182922363281
2019-04-08,99.71234130859375
2019-04-09,99.60423278808594
2019-04-10,99.86959075927734
2019-04-11,99.10301208496094
2019-04-12,100.51821899414062
2019-04-15,101.32408142089844
2019-04-16,100.09561157226562
2019-04-17,95.69278717041016
2019-04-18,97.51093292236328
2019-04-22,98.28732299804688
2019-04-23,99.7418212890625
2019-04-24,99.97769165039062
2019-04-25,100.48873901367188
2019-04-26,102.14962768554688
2019-04-29,101.29459381103516
2019-04-30,102.70980072021484
2019-05-01,102.65084075927734
2019-05-02,103.91861724853516
2019-05-03,110.73907470703125
2019-05-06,110.68993377685547
2019-05-07,110.4049301147461
2019-05-08,109.86262512207031
2019-05-09,110.48381805419922
2019-05-10,110.52325439453125
2019-05-13,109.30058288574219
2019-05-14,110.49366760253906
2019-05-15,111.24304962158203
2019-05-16,111.84451293945312
2019-05-17,111.20361328125
2019-05-20,110.49366760253906
2019-05-21,110.91767120361328
2019-05-22,111.53886413574219
2019-05-23,111.16417694091797
2019-05-24,112.29808807373047
2019-05-28,111.79522705078125
2019-05-29,110.60213470458984
2019-05-30,111.71634674072266
2019-05-31,112.5248794555664
2019-06-03,111.18389129638672
2019-06-04,112.4755859375
2019-06-05,113.52076721191406
2019-06-06,115.25615692138672
2019-06-07,115.75904083251953
2019-06-10,116.67604064941406
2019-06-11,116.53800201416016
2019-06-12,117.85926818847656
2019-06-13,117.77052307128906
2019-06-14,116.43939208984375
2019-06-17,116.84365844726562
2019-06-18,117.95787048339844
2019-06-19,118.85514831542969
2019-06-20,121.54698944091797
2019-06-21,118.39170837402344
2019-06-24,119.47633361816406
2019-06-25,118.21424102783203
2019-06-26,117.82968139648438
2019-06-27,118.91431427001953
2019-06-28,120.32432556152344
2019-07-01,122.0301513671875
2019-07-02,121.64559173583984
2019-07-03,122.1484603881836
2019-07-05,122.59217834472656
2019-07-08,122.07943725585938
2019-07-09,122.2864990234375
2019-07-10,122.26678466796875
2019-07-11,122.97673034667969
2019-07-12,122.65133666992188
2019-07-15,122.02027893066406
2019-07-16,121.64559173583984
2019-07-17,122.04985809326172
2019-07-18,123.01616668701172
2019-07-19,121.73432922363281
2019-07-22,121.91181182861328
2019-07-23,122.09915161132812
2019-07-24,123.70638275146484
2019-07-25,122.1090087890625
2019-07-26,125.09667205810547
2019-07-29,127.60116577148438
2019-07-30,128.3998260498047
2019-07-31,126.90108489990234
2019-08-01,129.7112579345703
2019-08-02,128.458984375
2019-08-05,125.12625122070312
2019-08-06,127.62088775634766
2019-08-07,127.19688415527344
2019-08-08,129.57321166992188
2019-08-09,129.5633544921875
2019-08-12,129.7704315185547
2019-08-13,133.10316467285156
2019-08-14,129.69154357910156
2019-08-15,130.8583984375
2019-08-16,132.9449462890625
2019-08-19,134.4875946044922
2019-08-20,133.815185546875
2019-08-21,135.04136657714844
2019-08-22,134.5271453857422
2019-08-23,130.7100830078125
2019-08-26,133.61737060546875
2019-08-27,134.46780395507812
2019-08-28,135.5061492919922
2019-08-29,136.84112548828125
2019-08-30,137.75091552734375
2019-09-03,136.2379150390625
2019-09-04,136.2972412109375
2019-09-05,138.7694549560547
2019-09-06,138.73977661132812
2019-09-09,133.60751342773438
2019-09-10,132.86582946777344
2019-09-11,132.2032928466797
2019-09-12,132.47027587890625
2019-09-13,130.71998596191406
2019-09-16,129.25645446777344
2019-09-17,132.4406280517578
2019-09-18,131.1056365966797
2019-09-19,132.02529907226562
2019-09-20,133.03395080566406
2019-09-23,134.00303649902344
2019-09-24,134.11181640625
2019-09-25,134.4974822998047
2019-09-26,133.11305236816406
2019-09-27,132.1143035888672
2019-09-30,133.60751342773438
2019-10-01,132.10438537597656
2019-10-02,127.44678497314453
2019-10-03,128.8411102294922
2019-10-04,130.92762756347656
2019-10-07,130.7100830078125
2019-10-08,128.78176879882812
2019-10-09,130.7100830078125
2019-10-10,129.01910400390625
2019-10-11,128.21810913085938
2019-10-14,127.78299713134766
2019-10-15,128.9993133544922
2019-10-16,129.70143127441406
2019-10-17,130.1661834716797
2019-10-18,129.75086975097656
2019-10-21,129.06854248046875
2019-10-22,125.11302947998047
2019-10-23,125.33057403564453
2019-10-24,126.30957794189453
2019-10-25,142.65573120117188
2019-10-28,143.83251953125
2019-10-29,145.048828125
2019-10-30,145.59271240234375
2019-10-31,146.27503967285156
2019-11-01,145.79049682617188
2019-11-04,145.84982299804688
2019-11-05,142.77442932128906
2019-11-06,142.0406494140625
2019-11-07,140.9796905517578
2019-11-08,142.63560485839844
2019-11-11,142.66534423828125
2019-11-12,142.9330596923828
2019-11-13,144.05352783203125
2019-11-14,144.1923370361328
2019-11-15,145.85816955566406
2019-11-18,146.53240966796875
2019-11-19,148.12881469726562
2019-11-20,148.37672424316406
2019-11-21,145.10458374023438
2019-11-22,144.02377319335938
2019-11-25,145.07481384277344
2019-11-26,148.31723022460938
2019-11-27,149.5566864013672
2019-11-29,148.33705139160156
2019-12-02,147.7520294189453
2019-12-03,148.20814514160156
2019-12-04,148.8824005126953
2019-12-05,148.9121551513672
2019-12-06,149.31869506835938
2019-12-09,148.05943298339844
2019-12-10,147.72227478027344
2019-12-11,149.20960998535156
2019-12-12,150.96469116210938
2019-12-13,152.33302307128906
2019-12-16,154.68301391601562
2019-12-17,155.15896606445312
2019-12-18,154.7028350830078
2019-12-19,154.72267150878906
2019-12-20,154.6136016845703
2019-12-23,154.3756561279297
2019-12-24,155.3771209716797
2019-12-26,154.4747772216797
2019-12-27,154.88133239746094
2019-12-30,153.28492736816406
2019-12-31,153.66171264648438
