Date,RP
2010-08-12,14.520000457763672
2010-08-13,15.0
2010-08-16,16.25
2010-08-17,16.209999084472656
2010-08-18,16.75
2010-08-19,17.040000915527344
2010-08-20,17.09000015258789
2010-08-23,17.440000534057617
2010-08-24,17.0
2010-08-25,17.06999969482422
2010-08-26,16.899999618530273
2010-08-27,16.989999771118164
2010-08-30,16.93000030517578
2010-08-31,16.739999771118164
2010-09-01,16.6200008392334
2010-09-02,16.989999771118164
2010-09-03,17.170000076293945
2010-09-07,17.209999084472656
2010-09-08,17.59000015258789
2010-09-09,17.229999542236328
2010-09-10,16.450000762939453
2010-09-13,16.559999465942383
2010-09-14,17.75
2010-09-15,18.0
2010-09-16,19.049999237060547
2010-09-17,19.040000915527344
2010-09-20,19.3799991607666
2010-09-21,19.700000762939453
2010-09-22,19.719999313354492
2010-09-23,19.0
2010-09-24,18.729999542236328
2010-09-27,18.360000610351562
2010-09-28,18.270000457763672
2010-09-29,19.229999542236328
2010-09-30,19.079999923706055
2010-10-01,19.459999084472656
2010-10-04,19.43000030517578
2010-10-05,19.700000762939453
2010-10-06,19.530000686645508
2010-10-07,19.43000030517578
2010-10-08,20.8799991607666
2010-10-11,20.510000228881836
2010-10-12,21.899999618530273
2010-10-13,22.0
2010-10-14,22.040000915527344
2010-10-15,21.219999313354492
2010-10-18,21.600000381469727
2010-10-19,20.719999313354492
2010-10-20,22.34000015258789
2010-10-21,21.979999542236328
2010-10-22,21.950000762939453
2010-10-25,22.1200008392334
2010-10-26,21.989999771118164
2010-10-27,23.06999969482422
2010-10-28,23.950000762939453
2010-10-29,23.079999923706055
2010-11-01,23.0
2010-11-02,24.229999542236328
2010-11-03,24.440000534057617
2010-11-04,26.90999984741211
2010-11-05,26.739999771118164
2010-11-08,27.18000030517578
2010-11-09,27.8799991607666
2010-11-10,29.56999969482422
2010-11-11,31.09000015258789
2010-11-12,30.170000076293945
2010-11-15,29.450000762939453
2010-11-16,27.079999923706055
2010-11-17,26.059999465942383
2010-11-18,27.770000457763672
2010-11-19,28.510000228881836
2010-11-22,28.25
2010-11-23,27.110000610351562
2010-11-24,27.309999465942383
2010-11-26,27.170000076293945
2010-11-29,27.209999084472656
2010-11-30,27.399999618530273
2010-12-01,28.950000762939453
2010-12-02,29.1299991607666
2010-12-03,28.040000915527344
2010-12-06,25.850000381469727
2010-12-07,28.5
2010-12-08,28.479999542236328
2010-12-09,30.719999313354492
2010-12-10,28.829999923706055
2010-12-13,28.0
2010-12-14,27.899999618530273
2010-12-15,29.059999465942383
2010-12-16,29.079999923706055
2010-12-17,30.670000076293945
2010-12-20,32.63999938964844
2010-12-21,32.7599983215332
2010-12-22,32.79999923706055
2010-12-23,32.5099983215332
2010-12-27,32.16999816894531
2010-12-28,31.06999969482422
2010-12-29,30.059999465942383
2010-12-30,29.6299991607666
2010-12-31,30.93000030517578
2011-01-03,30.110000610351562
2011-01-04,29.75
2011-01-05,29.700000762939453
2011-01-06,29.34000015258789
2011-01-07,29.450000762939453
2011-01-10,29.0
2011-01-11,29.290000915527344
2011-01-12,28.989999771118164
2011-01-13,28.020000457763672
2011-01-14,27.670000076293945
2011-01-18,27.360000610351562
2011-01-19,27.850000381469727
2011-01-20,26.209999084472656
2011-01-21,26.399999618530273
2011-01-24,26.68000030517578
2011-01-25,27.040000915527344
2011-01-26,27.969999313354492
2011-01-27,28.290000915527344
2011-01-28,27.200000762939453
2011-01-31,27.389999389648438
2011-02-01,27.31999969482422
2011-02-02,27.110000610351562
2011-02-03,27.15999984741211
2011-02-04,27.479999542236328
2011-02-07,26.40999984741211
2011-02-08,27.459999084472656
2011-02-09,27.049999237060547
2011-02-10,27.530000686645508
2011-02-11,28.530000686645508
2011-02-14,28.719999313354492
2011-02-15,27.709999084472656
2011-02-16,27.110000610351562
2011-02-17,27.68000030517578
2011-02-18,27.850000381469727
2011-02-22,27.59000015258789
2011-02-23,26.520000457763672
2011-02-24,27.030000686645508
2011-02-25,24.639999389648438
2011-02-28,24.799999237060547
2011-03-01,24.030000686645508
2011-03-02,23.260000228881836
2011-03-03,23.989999771118164
2011-03-04,24.389999389648438
2011-03-07,23.780000686645508
2011-03-08,25.010000228881836
2011-03-09,25.0
2011-03-10,24.709999084472656
2011-03-11,24.760000228881836
2011-03-14,24.420000076293945
2011-03-15,24.469999313354492
2011-03-16,24.299999237060547
2011-03-17,24.0
2011-03-18,23.969999313354492
2011-03-21,25.3799991607666
2011-03-22,25.8700008392334
2011-03-23,25.6200008392334
2011-03-24,25.440000534057617
2011-03-25,26.190000534057617
2011-03-28,26.920000076293945
2011-03-29,27.93000030517578
2011-03-30,28.0
2011-03-31,27.729999542236328
2011-04-01,28.520000457763672
2011-04-04,28.420000076293945
2011-04-05,27.940000534057617
2011-04-06,27.670000076293945
2011-04-07,27.670000076293945
2011-04-08,27.0
2011-04-11,26.690000534057617
2011-04-12,26.790000915527344
2011-04-13,27.290000915527344
2011-04-14,28.25
2011-04-15,28.3799991607666
2011-04-18,28.059999465942383
2011-04-19,28.799999237060547
2011-04-20,30.09000015258789
2011-04-21,31.729999542236328
2011-04-25,31.760000228881836
2011-04-26,31.829999923706055
2011-04-27,31.860000610351562
2011-04-28,31.68000030517578
2011-04-29,31.899999618530273
2011-05-02,30.969999313354492
2011-05-03,29.600000381469727
2011-05-04,29.950000762939453
2011-05-05,29.459999084472656
2011-05-06,30.920000076293945
2011-05-09,29.420000076293945
2011-05-10,29.5
2011-05-11,28.760000228881836
2011-05-12,28.950000762939453
2011-05-13,29.420000076293945
2011-05-16,28.809999465942383
2011-05-17,29.270000457763672
2011-05-18,29.399999618530273
2011-05-19,29.010000228881836
2011-05-20,29.030000686645508
2011-05-23,29.219999313354492
2011-05-24,27.790000915527344
2011-05-25,28.469999313354492
2011-05-26,27.989999771118164
2011-05-27,28.56999969482422
2011-05-31,29.450000762939453
2011-06-01,27.43000030517578
2011-06-02,27.270000457763672
2011-06-03,26.600000381469727
2011-06-06,26.020000457763672
2011-06-07,25.81999969482422
2011-06-08,25.15999984741211
2011-06-09,24.790000915527344
2011-06-10,24.81999969482422
2011-06-13,24.8700008392334
2011-06-14,24.969999313354492
2011-06-15,25.06999969482422
2011-06-16,24.8799991607666
2011-06-17,24.5
2011-06-20,24.399999618530273
2011-06-21,25.639999389648438
2011-06-22,25.690000534057617
2011-06-23,25.25
2011-06-24,24.920000076293945
2011-06-27,26.139999389648438
2011-06-28,26.790000915527344
2011-06-29,26.790000915527344
2011-06-30,26.469999313354492
2011-07-01,26.5
2011-07-05,25.309999465942383
2011-07-06,26.09000015258789
2011-07-07,26.1299991607666
2011-07-08,26.399999618530273
2011-07-11,25.6299991607666
2011-07-12,24.809999465942383
2011-07-13,25.979999542236328
2011-07-14,25.329999923706055
2011-07-15,25.510000228881836
2011-07-18,25.149999618530273
2011-07-19,25.010000228881836
2011-07-20,24.5
2011-07-21,24.959999084472656
2011-07-22,25.309999465942383
2011-07-25,25.030000686645508
2011-07-26,24.790000915527344
2011-07-27,23.860000610351562
2011-07-28,24.420000076293945
2011-07-29,24.049999237060547
2011-08-01,23.690000534057617
2011-08-02,23.34000015258789
2011-08-03,24.25
2011-08-04,22.260000228881836
2011-08-05,21.0
2011-08-08,21.31999969482422
2011-08-09,24.030000686645508
2011-08-10,23.5
2011-08-11,24.34000015258789
2011-08-12,24.440000534057617
2011-08-15,25.239999771118164
2011-08-16,24.290000915527344
2011-08-17,24.0
2011-08-18,23.299999237060547
2011-08-19,21.639999389648438
2011-08-22,21.25
2011-08-23,18.81999969482422
2011-08-24,20.010000228881836
2011-08-25,18.979999542236328
2011-08-26,19.799999237060547
2011-08-29,19.729999542236328
2011-08-30,20.360000610351562
2011-08-31,20.81999969482422
2011-09-01,20.030000686645508
2011-09-02,19.510000228881836
2011-09-06,20.350000381469727
2011-09-07,21.360000610351562
2011-09-08,19.520000457763672
2011-09-09,18.56999969482422
2011-09-12,19.110000610351562
2011-09-13,19.600000381469727
2011-09-14,20.540000915527344
2011-09-15,21.239999771118164
2011-09-16,21.030000686645508
2011-09-19,20.06999969482422
2011-09-20,19.5
2011-09-21,18.93000030517578
2011-09-22,19.049999237060547
2011-09-23,19.700000762939453
2011-09-26,20.059999465942383
2011-09-27,20.770000457763672
2011-09-28,20.43000030517578
2011-09-29,20.75
2011-09-30,20.450000762939453
2011-10-03,19.600000381469727
2011-10-04,20.989999771118164
2011-10-05,21.75
2011-10-06,21.920000076293945
2011-10-07,21.15999984741211
2011-10-10,21.889999389648438
2011-10-11,21.979999542236328
2011-10-12,22.770000457763672
2011-10-13,22.860000610351562
2011-10-14,24.020000457763672
2011-10-17,23.540000915527344
2011-10-18,23.979999542236328
2011-10-19,23.43000030517578
2011-10-20,23.15999984741211
2011-10-21,24.31999969482422
2011-10-24,26.110000610351562
2011-10-25,25.889999389648438
2011-10-26,26.479999542236328
2011-10-27,27.079999923706055
2011-10-28,27.90999984741211
2011-10-31,26.350000381469727
2011-11-01,25.0
2011-11-02,24.969999313354492
2011-11-03,25.079999923706055
2011-11-04,25.239999771118164
2011-11-07,25.290000915527344
2011-11-08,25.799999237060547
2011-11-09,24.65999984741211
2011-11-10,24.209999084472656
2011-11-11,24.639999389648438
2011-11-14,25.020000457763672
2011-11-15,25.309999465942383
2011-11-16,25.200000762939453
2011-11-17,25.110000610351562
2011-11-18,24.440000534057617
2011-11-21,23.110000610351562
2011-11-22,23.059999465942383
2011-11-23,22.110000610351562
2011-11-25,22.18000030517578
2011-11-28,23.719999313354492
2011-11-29,23.770000457763672
2011-11-30,25.030000686645508
2011-12-01,24.68000030517578
2011-12-02,24.969999313354492
2011-12-05,25.760000228881836
2011-12-06,25.940000534057617
2011-12-07,25.90999984741211
2011-12-08,25.6299991607666
2011-12-09,25.979999542236328
2011-12-12,25.809999465942383
2011-12-13,25.520000457763672
2011-12-14,24.93000030517578
2011-12-15,25.18000030517578
2011-12-16,25.489999771118164
2011-12-19,24.829999923706055
2011-12-20,26.010000228881836
2011-12-21,25.5
2011-12-22,25.579999923706055
2011-12-23,25.59000015258789
2011-12-27,25.770000457763672
2011-12-28,25.290000915527344
2011-12-29,25.3700008392334
2011-12-30,25.270000457763672
2012-01-03,25.780000686645508
2012-01-04,25.329999923706055
2012-01-05,25.1299991607666
2012-01-06,25.350000381469727
2012-01-09,25.290000915527344
2012-01-10,25.420000076293945
2012-01-11,25.5
2012-01-12,25.809999465942383
2012-01-13,25.6299991607666
2012-01-17,26.18000030517578
2012-01-18,26.889999389648438
2012-01-19,27.200000762939453
2012-01-20,27.020000457763672
2012-01-23,27.329999923706055
2012-01-24,27.299999237060547
2012-01-25,27.420000076293945
2012-01-26,27.149999618530273
2012-01-27,27.510000228881836
2012-01-30,26.25
2012-01-31,25.719999313354492
2012-02-01,26.06999969482422
2012-02-02,27.440000534057617
2012-02-03,28.65999984741211
2012-02-06,28.530000686645508
2012-02-07,28.110000610351562
2012-02-08,27.059999465942383
2012-02-09,27.06999969482422
2012-02-10,27.100000381469727
2012-02-13,27.229999542236328
2012-02-14,26.899999618530273
2012-02-15,26.6299991607666
2012-02-16,24.190000534057617
2012-02-17,20.709999084472656
2012-02-21,20.530000686645508
2012-02-22,20.010000228881836
2012-02-23,20.3799991607666
2012-02-24,20.299999237060547
2012-02-27,20.459999084472656
2012-02-28,20.09000015258789
2012-02-29,19.829999923706055
2012-03-01,20.059999465942383
2012-03-02,19.899999618530273
2012-03-05,19.670000076293945
2012-03-06,19.8700008392334
2012-03-07,19.739999771118164
2012-03-08,20.149999618530273
2012-03-09,21.559999465942383
2012-03-12,21.520000457763672
2012-03-13,21.8700008392334
2012-03-14,20.850000381469727
2012-03-15,21.219999313354492
2012-03-16,20.3799991607666
2012-03-19,19.770000457763672
2012-03-20,19.280000686645508
2012-03-21,18.81999969482422
2012-03-22,18.65999984741211
2012-03-23,18.639999389648438
2012-03-26,19.1299991607666
2012-03-27,19.139999389648438
2012-03-28,19.1299991607666
2012-03-29,19.09000015258789
2012-03-30,19.170000076293945
2012-04-02,19.020000457763672
2012-04-03,18.59000015258789
2012-04-04,18.079999923706055
2012-04-05,18.420000076293945
2012-04-09,18.110000610351562
2012-04-10,18.149999618530273
2012-04-11,18.559999465942383
2012-04-12,18.690000534057617
2012-04-13,18.600000381469727
2012-04-16,18.149999618530273
2012-04-17,18.739999771118164
2012-04-18,18.030000686645508
2012-04-19,17.850000381469727
2012-04-20,17.540000915527344
2012-04-23,17.610000610351562
2012-04-24,17.81999969482422
2012-04-25,17.899999618530273
2012-04-26,18.030000686645508
2012-04-27,17.989999771118164
2012-04-30,18.149999618530273
2012-05-01,18.510000228881836
2012-05-02,18.6200008392334
2012-05-03,17.3799991607666
2012-05-04,17.700000762939453
2012-05-07,17.959999084472656
2012-05-08,18.100000381469727
2012-05-09,18.1200008392334
2012-05-10,18.40999984741211
2012-05-11,18.639999389648438
2012-05-14,18.399999618530273
2012-05-15,18.299999237060547
2012-05-16,18.290000915527344
2012-05-17,18.280000686645508
2012-05-18,18.399999618530273
2012-05-21,18.90999984741211
2012-05-22,18.65999984741211
2012-05-23,19.399999618530273
2012-05-24,19.010000228881836
2012-05-25,18.8799991607666
2012-05-29,18.579999923706055
2012-05-30,18.049999237060547
2012-05-31,17.850000381469727
2012-06-01,17.329999923706055
2012-06-04,17.780000686645508
2012-06-05,18.170000076293945
2012-06-06,17.260000228881836
2012-06-07,16.920000076293945
2012-06-08,17.1200008392334
2012-06-11,17.040000915527344
2012-06-12,17.68000030517578
2012-06-13,17.90999984741211
2012-06-14,17.719999313354492
2012-06-15,18.920000076293945
2012-06-18,19.1200008392334
2012-06-19,20.0
2012-06-20,20.110000610351562
2012-06-21,20.15999984741211
2012-06-22,21.010000228881836
2012-06-25,21.020000457763672
2012-06-26,21.65999984741211
2012-06-27,21.68000030517578
2012-06-28,21.790000915527344
2012-06-29,23.15999984741211
2012-07-02,23.100000381469727
2012-07-03,22.920000076293945
2012-07-05,22.920000076293945
2012-07-06,22.260000228881836
2012-07-09,21.799999237060547
2012-07-10,21.040000915527344
2012-07-11,21.260000228881836
2012-07-12,21.170000076293945
2012-07-13,21.770000457763672
2012-07-16,21.690000534057617
2012-07-17,22.469999313354492
2012-07-18,22.81999969482422
2012-07-19,22.209999084472656
2012-07-20,21.59000015258789
2012-07-23,21.40999984741211
2012-07-24,20.809999465942383
2012-07-25,21.020000457763672
2012-07-26,21.68000030517578
2012-07-27,22.260000228881836
2012-07-30,21.979999542236328
2012-07-31,22.219999313354492
2012-08-01,22.0
2012-08-02,22.229999542236328
2012-08-03,24.010000228881836
2012-08-06,24.510000228881836
2012-08-07,24.639999389648438
2012-08-08,24.940000534057617
2012-08-09,25.329999923706055
2012-08-10,25.530000686645508
2012-08-13,25.15999984741211
2012-08-14,25.190000534057617
2012-08-15,25.489999771118164
2012-08-16,25.799999237060547
2012-08-17,25.799999237060547
2012-08-20,25.579999923706055
2012-08-21,25.479999542236328
2012-08-22,25.489999771118164
2012-08-23,25.540000915527344
2012-08-24,26.059999465942383
2012-08-27,25.729999542236328
2012-08-28,25.59000015258789
2012-08-29,25.450000762939453
2012-08-30,24.920000076293945
2012-08-31,25.510000228881836
2012-09-04,25.520000457763672
2012-09-05,25.479999542236328
2012-09-06,25.6299991607666
2012-09-07,25.239999771118164
2012-09-10,25.049999237060547
2012-09-11,25.5
2012-09-12,26.260000228881836
2012-09-13,26.010000228881836
2012-09-14,24.1299991607666
2012-09-17,24.40999984741211
2012-09-18,24.389999389648438
2012-09-19,24.290000915527344
2012-09-20,23.709999084472656
2012-09-21,23.920000076293945
2012-09-24,23.40999984741211
2012-09-25,22.8700008392334
2012-09-26,23.020000457763672
2012-09-27,23.0
2012-09-28,22.600000381469727
2012-10-01,22.329999923706055
2012-10-02,22.559999465942383
2012-10-03,23.0
2012-10-04,23.100000381469727
2012-10-05,23.0
2012-10-08,22.790000915527344
2012-10-09,22.309999465942383
2012-10-10,22.770000457763672
2012-10-11,22.940000534057617
2012-10-12,22.739999771118164
2012-10-15,23.020000457763672
2012-10-16,23.149999618530273
2012-10-17,22.690000534057617
2012-10-18,22.290000915527344
2012-10-19,21.329999923706055
2012-10-22,20.989999771118164
2012-10-23,21.399999618530273
2012-10-24,21.040000915527344
2012-10-25,21.18000030517578
2012-10-26,20.989999771118164
2012-10-31,21.829999923706055
2012-11-01,21.850000381469727
2012-11-02,21.56999969482422
2012-11-05,21.239999771118164
2012-11-06,20.780000686645508
2012-11-07,20.290000915527344
2012-11-08,18.709999084472656
2012-11-09,18.90999984741211
2012-11-12,17.489999771118164
2012-11-13,17.670000076293945
2012-11-14,17.799999237060547
2012-11-15,18.56999969482422
2012-11-16,19.1200008392334
2012-11-19,19.3799991607666
2012-11-20,19.299999237060547
2012-11-21,19.350000381469727
2012-11-23,19.510000228881836
2012-11-26,19.670000076293945
2012-11-27,19.540000915527344
2012-11-28,19.649999618530273
2012-11-29,20.06999969482422
2012-11-30,19.790000915527344
2012-12-03,19.65999984741211
2012-12-04,19.520000457763672
2012-12-05,19.850000381469727
2012-12-06,19.8700008392334
2012-12-07,19.8700008392334
2012-12-10,19.850000381469727
2012-12-11,20.059999465942383
2012-12-12,20.139999389648438
2012-12-13,20.510000228881836
2012-12-14,20.3700008392334
2012-12-17,20.610000610351562
2012-12-18,21.260000228881836
2012-12-19,21.0
2012-12-20,21.610000610351562
2012-12-21,21.56999969482422
2012-12-24,21.610000610351562
2012-12-26,21.520000457763672
2012-12-27,21.559999465942383
2012-12-28,21.1299991607666
2012-12-31,21.56999969482422
2013-01-02,21.760000228881836
2013-01-03,21.450000762939453
2013-01-04,21.75
2013-01-07,21.559999465942383
2013-01-08,21.43000030517578
2013-01-09,21.600000381469727
2013-01-10,21.549999237060547
2013-01-11,22.040000915527344
2013-01-14,22.43000030517578
2013-01-15,22.270000457763672
2013-01-16,21.920000076293945
2013-01-17,22.15999984741211
2013-01-18,22.520000457763672
2013-01-22,23.040000915527344
2013-01-23,23.010000228881836
2013-01-24,23.219999313354492
2013-01-25,23.059999465942383
2013-01-28,22.81999969482422
2013-01-29,22.93000030517578
2013-01-30,22.979999542236328
2013-01-31,23.34000015258789
2013-02-01,23.649999618530273
2013-02-04,23.219999313354492
2013-02-05,23.420000076293945
2013-02-06,23.469999313354492
2013-02-07,23.360000610351562
2013-02-08,23.469999313354492
2013-02-11,23.3700008392334
2013-02-12,23.809999465942383
2013-02-13,23.850000381469727
2013-02-14,23.959999084472656
2013-02-15,23.610000610351562
2013-02-19,22.479999542236328
2013-02-20,21.170000076293945
2013-02-21,20.829999923706055
2013-02-22,21.68000030517578
2013-02-25,21.600000381469727
2013-02-26,21.389999389648438
2013-02-27,21.489999771118164
2013-02-28,21.65999984741211
2013-03-01,21.299999237060547
2013-03-04,20.950000762939453
2013-03-05,21.079999923706055
2013-03-06,21.190000534057617
2013-03-07,20.700000762939453
2013-03-08,20.770000457763672
2013-03-11,21.0
2013-03-12,19.940000534057617
2013-03-13,19.780000686645508
2013-03-14,19.81999969482422
2013-03-15,19.5
2013-03-18,19.389999389648438
2013-03-19,19.389999389648438
2013-03-20,19.8799991607666
2013-03-21,20.030000686645508
2013-03-22,20.040000915527344
2013-03-25,20.049999237060547
2013-03-26,20.280000686645508
2013-03-27,20.399999618530273
2013-03-28,20.709999084472656
2013-04-01,20.3700008392334
2013-04-02,20.34000015258789
2013-04-03,19.959999084472656
2013-04-04,19.959999084472656
2013-04-05,19.989999771118164
2013-04-08,19.690000534057617
2013-04-09,19.84000015258789
2013-04-10,20.420000076293945
2013-04-11,20.06999969482422
2013-04-12,19.979999542236328
2013-04-15,19.479999542236328
2013-04-16,20.18000030517578
2013-04-17,19.860000610351562
2013-04-18,19.56999969482422
2013-04-19,19.75
2013-04-22,19.739999771118164
2013-04-23,20.09000015258789
2013-04-24,20.1299991607666
2013-04-25,20.34000015258789
2013-04-26,20.450000762939453
2013-04-29,20.34000015258789
2013-04-30,20.399999618530273
2013-05-01,19.600000381469727
2013-05-02,19.75
2013-05-03,19.100000381469727
2013-05-06,19.43000030517578
2013-05-07,19.780000686645508
2013-05-08,19.719999313354492
2013-05-09,19.510000228881836
2013-05-10,20.010000228881836
2013-05-13,19.809999465942383
2013-05-14,20.350000381469727
2013-05-15,19.31999969482422
2013-05-16,19.360000610351562
2013-05-17,19.5
2013-05-20,19.360000610351562
2013-05-21,19.520000457763672
2013-05-22,19.270000457763672
2013-05-23,19.65999984741211
2013-05-24,19.690000534057617
2013-05-28,19.389999389648438
2013-05-29,19.1299991607666
2013-05-30,19.239999771118164
2013-05-31,19.040000915527344
2013-06-03,18.649999618530273
2013-06-04,18.389999389648438
2013-06-05,17.729999542236328
2013-06-06,17.610000610351562
2013-06-07,17.239999771118164
2013-06-10,17.209999084472656
2013-06-11,17.059999465942383
2013-06-12,17.170000076293945
2013-06-13,17.459999084472656
2013-06-14,17.18000030517578
2013-06-17,17.31999969482422
2013-06-18,17.56999969482422
2013-06-19,17.899999618530273
2013-06-20,18.25
2013-06-21,18.190000534057617
2013-06-24,18.010000228881836
2013-06-25,17.959999084472656
2013-06-26,18.110000610351562
2013-06-27,18.729999542236328
2013-06-28,18.34000015258789
2013-07-01,18.709999084472656
2013-07-02,18.81999969482422
2013-07-03,18.510000228881836
2013-07-05,18.719999313354492
2013-07-08,19.3700008392334
2013-07-09,19.670000076293945
2013-07-10,19.799999237060547
2013-07-11,20.010000228881836
2013-07-12,20.15999984741211
2013-07-15,20.270000457763672
2013-07-16,20.06999969482422
2013-07-17,20.3799991607666
2013-07-18,20.170000076293945
2013-07-19,20.3799991607666
2013-07-22,20.299999237060547
2013-07-23,20.219999313354492
2013-07-24,20.170000076293945
2013-07-25,20.299999237060547
2013-07-26,20.149999618530273
2013-07-29,19.90999984741211
2013-07-30,20.079999923706055
2013-07-31,20.15999984741211
2013-08-01,20.540000915527344
2013-08-02,21.920000076293945
2013-08-05,21.40999984741211
2013-08-06,21.110000610351562
2013-08-07,20.979999542236328
2013-08-08,21.0
2013-08-09,21.100000381469727
2013-08-12,20.81999969482422
2013-08-13,20.81999969482422
2013-08-14,20.68000030517578
2013-08-15,20.219999313354492
2013-08-16,19.959999084472656
2013-08-19,19.8700008392334
2013-08-20,20.34000015258789
2013-08-21,20.329999923706055
2013-08-22,20.690000534057617
2013-08-23,20.65999984741211
2013-08-26,20.889999389648438
2013-08-27,20.489999771118164
2013-08-28,20.770000457763672
2013-08-29,20.860000610351562
2013-08-30,20.709999084472656
2013-09-03,20.90999984741211
2013-09-04,20.950000762939453
2013-09-05,20.899999618530273
2013-09-06,21.100000381469727
2013-09-09,21.440000534057617
2013-09-10,21.8799991607666
2013-09-11,21.889999389648438
2013-09-12,22.190000534057617
2013-09-13,22.239999771118164
2013-09-16,22.15999984741211
2013-09-17,23.059999465942383
2013-09-18,23.809999465942383
2013-09-19,23.360000610351562
2013-09-20,23.389999389648438
2013-09-23,23.360000610351562
2013-09-24,23.3799991607666
2013-09-25,23.18000030517578
2013-09-26,23.350000381469727
2013-09-27,23.399999618530273
2013-09-30,23.110000610351562
2013-10-01,24.360000610351562
2013-10-02,24.770000457763672
2013-10-03,24.399999618530273
2013-10-04,24.700000762939453
2013-10-07,24.260000228881836
2013-10-08,23.969999313354492
2013-10-09,23.829999923706055
2013-10-10,24.030000686645508
2013-10-11,24.43000030517578
2013-10-14,24.700000762939453
2013-10-15,24.389999389648438
2013-10-16,24.850000381469727
2013-10-17,25.290000915527344
2013-10-18,25.65999984741211
2013-10-21,25.290000915527344
2013-10-22,25.290000915527344
2013-10-23,24.90999984741211
2013-10-24,25.389999389648438
2013-10-25,25.18000030517578
2013-10-28,25.219999313354492
2013-10-29,25.139999389648438
2013-10-30,24.739999771118164
2013-10-31,24.530000686645508
2013-11-01,23.979999542236328
2013-11-04,24.34000015258789
2013-11-05,24.079999923706055
2013-11-06,24.459999084472656
2013-11-07,24.040000915527344
2013-11-08,25.889999389648438
2013-11-11,25.639999389648438
2013-11-12,25.700000762939453
2013-11-13,25.780000686645508
2013-11-14,25.40999984741211
2013-11-15,25.739999771118164
2013-11-18,24.719999313354492
2013-11-19,24.110000610351562
2013-11-20,24.1200008392334
2013-11-21,24.299999237060547
2013-11-22,24.0
2013-11-25,23.200000762939453
2013-11-26,22.75
2013-11-27,22.459999084472656
2013-11-29,22.40999984741211
2013-12-02,21.979999542236328
2013-12-03,21.989999771118164
2013-12-04,21.889999389648438
2013-12-05,21.850000381469727
2013-12-06,21.709999084472656
2013-12-09,21.790000915527344
2013-12-10,21.40999984741211
2013-12-11,21.270000457763672
2013-12-12,21.219999313354492
2013-12-13,21.739999771118164
2013-12-16,22.170000076293945
2013-12-17,22.260000228881836
2013-12-18,22.479999542236328
2013-12-19,22.18000030517578
2013-12-20,22.610000610351562
2013-12-23,22.709999084472656
2013-12-24,22.68000030517578
2013-12-26,22.59000015258789
2013-12-27,22.639999389648438
2013-12-30,22.649999618530273
2013-12-31,23.3799991607666
2014-01-02,22.399999618530273
2014-01-03,22.469999313354492
2014-01-06,21.950000762939453
2014-01-07,22.18000030517578
2014-01-08,21.700000762939453
2014-01-09,21.399999618530273
2014-01-10,21.139999389648438
2014-01-13,20.540000915527344
2014-01-14,20.709999084472656
2014-01-15,21.309999465942383
2014-01-16,21.020000457763672
2014-01-17,21.639999389648438
2014-01-21,21.610000610351562
2014-01-22,21.889999389648438
2014-01-23,21.8700008392334
2014-01-24,21.440000534057617
2014-01-27,21.34000015258789
2014-01-28,21.600000381469727
2014-01-29,21.489999771118164
2014-01-30,22.149999618530273
2014-01-31,22.479999542236328
2014-02-03,21.510000228881836
2014-02-04,20.950000762939453
2014-02-05,20.600000381469727
2014-02-06,20.729999542236328
2014-02-07,20.90999984741211
2014-02-10,21.049999237060547
2014-02-11,21.06999969482422
2014-02-12,21.239999771118164
2014-02-13,21.6299991607666
2014-02-14,21.5
2014-02-18,21.299999237060547
2014-02-19,20.600000381469727
2014-02-20,20.420000076293945
2014-02-21,20.700000762939453
2014-02-24,20.719999313354492
2014-02-25,16.030000686645508
2014-02-26,16.309999465942383
2014-02-27,17.75
2014-02-28,17.700000762939453
2014-03-03,18.06999969482422
2014-03-04,18.68000030517578
2014-03-05,18.360000610351562
2014-03-06,18.479999542236328
2014-03-07,18.459999084472656
2014-03-10,18.489999771118164
2014-03-11,18.479999542236328
2014-03-12,18.649999618530273
2014-03-13,18.530000686645508
2014-03-14,18.770000457763672
2014-03-17,18.899999618530273
2014-03-18,19.079999923706055
2014-03-19,19.020000457763672
2014-03-20,19.06999969482422
2014-03-21,18.709999084472656
2014-03-24,18.469999313354492
2014-03-25,18.25
2014-03-26,18.100000381469727
2014-03-27,17.8799991607666
2014-03-28,17.8700008392334
2014-03-31,18.15999984741211
2014-04-01,18.389999389648438
2014-04-02,18.260000228881836
2014-04-03,18.149999618530273
2014-04-04,17.440000534057617
2014-04-07,17.420000076293945
2014-04-08,17.68000030517578
2014-04-09,18.139999389648438
2014-04-10,17.559999465942383
2014-04-11,17.139999389648438
2014-04-14,17.420000076293945
2014-04-15,17.799999237060547
2014-04-16,18.079999923706055
2014-04-17,18.09000015258789
2014-04-21,18.139999389648438
2014-04-22,18.450000762939453
2014-04-23,18.31999969482422
2014-04-24,18.219999313354492
2014-04-25,17.520000457763672
2014-04-28,17.510000228881836
2014-04-29,17.780000686645508
2014-04-30,17.75
2014-05-01,17.649999618530273
2014-05-02,17.510000228881836
2014-05-05,17.59000015258789
2014-05-06,17.3700008392334
2014-05-07,18.530000686645508
2014-05-08,18.459999084472656
2014-05-09,18.709999084472656
2014-05-12,19.25
2014-05-13,18.93000030517578
2014-05-14,18.729999542236328
2014-05-15,18.959999084472656
2014-05-16,19.459999084472656
2014-05-19,20.020000457763672
2014-05-20,20.31999969482422
2014-05-21,20.610000610351562
2014-05-22,21.010000228881836
2014-05-23,21.09000015258789
2014-05-27,21.719999313354492
2014-05-28,21.3799991607666
2014-05-29,21.350000381469727
2014-05-30,21.209999084472656
2014-06-02,21.06999969482422
2014-06-03,21.690000534057617
2014-06-04,21.31999969482422
2014-06-05,21.43000030517578
2014-06-06,21.760000228881836
2014-06-09,21.479999542236328
2014-06-10,21.420000076293945
2014-06-11,21.3799991607666
2014-06-12,21.18000030517578
2014-06-13,21.219999313354492
2014-06-16,21.950000762939453
2014-06-17,21.799999237060547
2014-06-18,21.860000610351562
2014-06-19,21.940000534057617
2014-06-20,22.15999984741211
2014-06-23,22.030000686645508
2014-06-24,21.68000030517578
2014-06-25,21.790000915527344
2014-06-26,22.0
2014-06-27,22.360000610351562
2014-06-30,22.479999542236328
2014-07-01,22.670000076293945
2014-07-02,22.6299991607666
2014-07-03,22.81999969482422
2014-07-07,22.290000915527344
2014-07-08,22.31999969482422
2014-07-09,22.549999237060547
2014-07-10,22.1200008392334
2014-07-11,21.709999084472656
2014-07-14,22.09000015258789
2014-07-15,22.170000076293945
2014-07-16,22.059999465942383
2014-07-17,21.420000076293945
2014-07-18,16.68000030517578
2014-07-21,16.479999542236328
2014-07-22,16.3700008392334
2014-07-23,16.440000534057617
2014-07-24,16.479999542236328
2014-07-25,16.3700008392334
2014-07-28,16.209999084472656
2014-07-29,16.25
2014-07-30,16.309999465942383
2014-07-31,16.110000610351562
2014-08-01,15.9399995803833
2014-08-04,15.920000076293945
2014-08-05,15.0
2014-08-06,15.289999961853027
2014-08-07,15.1899995803833
2014-08-08,15.520000457763672
2014-08-11,15.65999984741211
2014-08-12,15.579999923706055
2014-08-13,15.710000038146973
2014-08-14,15.720000267028809
2014-08-15,15.539999961853027
2014-08-18,16.100000381469727
2014-08-19,16.1299991607666
2014-08-20,15.850000381469727
2014-08-21,16.049999237060547
2014-08-22,16.100000381469727
2014-08-25,15.899999618530273
2014-08-26,16.31999969482422
2014-08-27,16.3799991607666
2014-08-28,15.920000076293945
2014-08-29,16.1200008392334
2014-09-02,16.059999465942383
2014-09-03,16.0
2014-09-04,15.90999984741211
2014-09-05,15.869999885559082
2014-09-08,15.890000343322754
2014-09-09,15.8100004196167
2014-09-10,16.030000686645508
2014-09-11,16.06999969482422
2014-09-12,15.899999618530273
2014-09-15,15.609999656677246
2014-09-16,15.460000038146973
2014-09-17,15.569999694824219
2014-09-18,15.720000267028809
2014-09-19,15.40999984741211
2014-09-22,15.40999984741211
2014-09-23,15.300000190734863
2014-09-24,15.420000076293945
2014-09-25,15.260000228881836
2014-09-26,15.4399995803833
2014-09-29,15.489999771118164
2014-09-30,15.5
2014-10-01,15.510000228881836
2014-10-02,16.329999923706055
2014-10-03,16.270000457763672
2014-10-06,16.299999237060547
2014-10-07,15.6899995803833
2014-10-08,16.229999542236328
2014-10-09,15.859999656677246
2014-10-10,15.65999984741211
2014-10-13,15.75
2014-10-14,16.209999084472656
2014-10-15,16.739999771118164
2014-10-16,16.700000762939453
2014-10-17,16.290000915527344
2014-10-20,16.270000457763672
2014-10-21,16.270000457763672
2014-10-22,15.859999656677246
2014-10-23,16.1200008392334
2014-10-24,18.350000381469727
2014-10-27,17.90999984741211
2014-10-28,18.040000915527344
2014-10-29,17.989999771118164
2014-10-30,18.100000381469727
2014-10-31,19.8700008392334
2014-11-03,20.84000015258789
2014-11-04,20.799999237060547
2014-11-05,21.75
2014-11-06,21.360000610351562
2014-11-07,21.540000915527344
2014-11-10,21.510000228881836
2014-11-11,22.469999313354492
2014-11-12,22.459999084472656
2014-11-13,21.75
2014-11-14,21.979999542236328
2014-11-17,21.690000534057617
2014-11-18,21.270000457763672
2014-11-19,20.940000534057617
2014-11-20,21.520000457763672
2014-11-21,21.079999923706055
2014-11-24,20.959999084472656
2014-11-25,20.860000610351562
2014-11-26,20.5
2014-11-28,20.559999465942383
2014-12-01,20.850000381469727
2014-12-02,21.149999618530273
2014-12-03,21.200000762939453
2014-12-04,20.90999984741211
2014-12-05,21.010000228881836
2014-12-08,21.0
2014-12-09,21.469999313354492
2014-12-10,21.229999542236328
2014-12-11,21.5
2014-12-12,21.510000228881836
2014-12-15,21.5
2014-12-16,21.549999237060547
2014-12-17,22.3799991607666
2014-12-18,22.920000076293945
2014-12-19,22.5
2014-12-22,22.190000534057617
2014-12-23,22.3700008392334
2014-12-24,22.510000228881836
2014-12-26,22.670000076293945
2014-12-29,22.360000610351562
2014-12-30,21.719999313354492
2014-12-31,21.959999084472656
2015-01-02,21.5
2015-01-05,21.190000534057617
2015-01-06,20.459999084472656
2015-01-07,20.219999313354492
2015-01-08,20.489999771118164
2015-01-09,20.1200008392334
2015-01-12,19.6200008392334
2015-01-13,19.579999923706055
2015-01-14,19.299999237060547
2015-01-15,19.56999969482422
2015-01-16,20.030000686645508
2015-01-20,20.25
2015-01-21,19.760000228881836
2015-01-22,20.329999923706055
2015-01-23,20.3700008392334
2015-01-26,20.0
2015-01-27,19.15999984741211
2015-01-28,18.540000915527344
2015-01-29,18.59000015258789
2015-01-30,18.010000228881836
2015-02-02,19.100000381469727
2015-02-03,19.899999618530273
2015-02-04,19.850000381469727
2015-02-05,19.6200008392334
2015-02-06,19.600000381469727
2015-02-09,19.459999084472656
2015-02-10,19.520000457763672
2015-02-11,18.989999771118164
2015-02-12,18.809999465942383
2015-02-13,19.299999237060547
2015-02-17,19.440000534057617
2015-02-18,19.399999618530273
2015-02-19,19.40999984741211
2015-02-20,19.700000762939453
2015-02-23,19.489999771118164
2015-02-24,19.739999771118164
2015-02-25,19.65999984741211
2015-02-26,19.65999984741211
2015-02-27,20.229999542236328
2015-03-02,19.940000534057617
2015-03-03,19.760000228881836
2015-03-04,19.780000686645508
2015-03-05,19.920000076293945
2015-03-06,19.850000381469727
2015-03-09,19.68000030517578
2015-03-10,19.920000076293945
2015-03-11,20.049999237060547
2015-03-12,19.290000915527344
2015-03-13,19.260000228881836
2015-03-16,19.979999542236328
2015-03-17,20.079999923706055
2015-03-18,20.219999313354492
2015-03-19,20.239999771118164
2015-03-20,20.25
2015-03-23,20.170000076293945
2015-03-24,20.149999618530273
2015-03-25,19.350000381469727
2015-03-26,19.610000610351562
2015-03-27,19.950000762939453
2015-03-30,20.25
2015-03-31,20.139999389648438
2015-04-01,19.90999984741211
2015-04-02,19.799999237060547
2015-04-06,19.850000381469727
2015-04-07,19.59000015258789
2015-04-08,19.639999389648438
2015-04-09,19.3799991607666
2015-04-10,19.200000762939453
2015-04-13,19.1299991607666
2015-04-14,19.059999465942383
2015-04-15,19.139999389648438
2015-04-16,19.110000610351562
2015-04-17,18.459999084472656
2015-04-20,18.920000076293945
2015-04-21,19.030000686645508
2015-04-22,19.0
2015-04-23,19.520000457763672
2015-04-24,19.760000228881836
2015-04-27,19.989999771118164
2015-04-28,20.280000686645508
2015-04-29,20.25
2015-04-30,19.84000015258789
2015-05-01,19.309999465942383
2015-05-04,19.020000457763672
2015-05-05,18.93000030517578
2015-05-06,19.899999618530273
2015-05-07,19.889999389648438
2015-05-08,19.84000015258789
2015-05-11,19.670000076293945
2015-05-12,19.540000915527344
2015-05-13,19.5
2015-05-14,19.600000381469727
2015-05-15,19.309999465942383
2015-05-18,19.3799991607666
2015-05-19,19.59000015258789
2015-05-20,19.540000915527344
2015-05-21,19.270000457763672
2015-05-22,18.8700008392334
2015-05-26,18.5
2015-05-27,18.979999542236328
2015-05-28,19.030000686645508
2015-05-29,18.260000228881836
2015-06-01,18.280000686645508
2015-06-02,17.75
2015-06-03,18.40999984741211
2015-06-04,18.639999389648438
2015-06-05,19.190000534057617
2015-06-08,19.010000228881836
2015-06-09,18.940000534057617
2015-06-10,19.100000381469727
2015-06-11,19.350000381469727
2015-06-12,19.450000762939453
2015-06-15,19.450000762939453
2015-06-16,19.829999923706055
2015-06-17,19.940000534057617
2015-06-18,20.1200008392334
2015-06-19,20.09000015258789
2015-06-22,20.190000534057617
2015-06-23,20.219999313354492
2015-06-24,19.84000015258789
2015-06-25,19.6299991607666
2015-06-26,19.43000030517578
2015-06-29,19.040000915527344
2015-06-30,19.06999969482422
2015-07-01,19.15999984741211
2015-07-02,19.149999618530273
2015-07-06,19.110000610351562
2015-07-07,19.309999465942383
2015-07-08,19.239999771118164
2015-07-09,19.040000915527344
2015-07-10,19.229999542236328
2015-07-13,19.309999465942383
2015-07-14,19.479999542236328
2015-07-15,19.270000457763672
2015-07-16,19.350000381469727
2015-07-17,19.09000015258789
2015-07-20,19.0
2015-07-21,19.219999313354492
2015-07-22,19.31999969482422
2015-07-23,19.010000228881836
2015-07-24,19.15999984741211
2015-07-27,18.989999771118164
2015-07-28,18.979999542236328
2015-07-29,19.010000228881836
2015-07-30,19.229999542236328
2015-07-31,19.200000762939453
2015-08-03,19.280000686645508
2015-08-04,19.3799991607666
2015-08-05,19.3799991607666
2015-08-06,19.299999237060547
2015-08-07,18.350000381469727
2015-08-10,18.790000915527344
2015-08-11,18.959999084472656
2015-08-12,19.110000610351562
2015-08-13,19.0
2015-08-14,19.309999465942383
2015-08-17,19.709999084472656
2015-08-18,19.309999465942383
2015-08-19,19.350000381469727
2015-08-20,19.0
2015-08-21,18.8799991607666
2015-08-24,18.299999237060547
2015-08-25,18.049999237060547
2015-08-26,18.399999618530273
2015-08-27,18.579999923706055
2015-08-28,18.719999313354492
2015-08-31,18.40999984741211
2015-09-01,17.65999984741211
2015-09-02,17.899999618530273
2015-09-03,17.799999237060547
2015-09-04,17.6299991607666
2015-09-08,17.959999084472656
2015-09-09,17.81999969482422
2015-09-10,17.979999542236328
2015-09-11,18.0
2015-09-14,18.1299991607666
2015-09-15,18.329999923706055
2015-09-16,18.0
2015-09-17,17.8700008392334
2015-09-18,17.639999389648438
2015-09-21,17.559999465942383
2015-09-22,17.489999771118164
2015-09-23,17.280000686645508
2015-09-24,17.200000762939453
2015-09-25,17.1299991607666
2015-09-28,17.200000762939453
2015-09-29,16.809999465942383
2015-09-30,16.6200008392334
2015-10-01,16.56999969482422
2015-10-02,16.959999084472656
2015-10-05,17.389999389648438
2015-10-06,17.34000015258789
2015-10-07,17.40999984741211
2015-10-08,17.850000381469727
2015-10-09,17.940000534057617
2015-10-12,17.8799991607666
2015-10-13,17.690000534057617
2015-10-14,17.219999313354492
2015-10-15,17.920000076293945
2015-10-16,17.719999313354492
2015-10-19,17.799999237060547
2015-10-20,17.690000534057617
2015-10-21,17.489999771118164
2015-10-22,18.139999389648438
2015-10-23,18.229999542236328
2015-10-26,17.889999389648438
2015-10-27,17.239999771118164
2015-10-28,17.34000015258789
2015-10-29,17.239999771118164
2015-10-30,16.899999618530273
2015-11-02,17.600000381469727
2015-11-03,17.709999084472656
2015-11-04,20.0
2015-11-05,19.920000076293945
2015-11-06,20.34000015258789
2015-11-09,20.299999237060547
2015-11-10,20.350000381469727
2015-11-11,20.850000381469727
2015-11-12,20.780000686645508
2015-11-13,20.829999923706055
2015-11-16,21.09000015258789
2015-11-17,21.229999542236328
2015-11-18,21.43000030517578
2015-11-19,21.25
2015-11-20,21.299999237060547
2015-11-23,21.190000534057617
2015-11-24,21.209999084472656
2015-11-25,21.549999237060547
2015-11-27,21.829999923706055
2015-11-30,22.209999084472656
2015-12-01,22.200000762939453
2015-12-02,22.299999237060547
2015-12-03,22.290000915527344
2015-12-04,22.889999389648438
2015-12-07,23.1200008392334
2015-12-08,23.290000915527344
2015-12-09,23.290000915527344
2015-12-10,23.100000381469727
2015-12-11,23.059999465942383
2015-12-14,22.8799991607666
2015-12-15,23.450000762939453
2015-12-16,23.559999465942383
2015-12-17,23.209999084472656
2015-12-18,22.690000534057617
2015-12-21,22.90999984741211
2015-12-22,22.84000015258789
2015-12-23,22.780000686645508
2015-12-24,22.860000610351562
2015-12-28,22.549999237060547
2015-12-29,22.649999618530273
2015-12-30,22.440000534057617
2015-12-31,22.450000762939453
2016-01-04,22.100000381469727
2016-01-05,22.280000686645508
2016-01-06,22.06999969482422
2016-01-07,21.75
2016-01-08,21.959999084472656
2016-01-11,22.059999465942383
2016-01-12,22.190000534057617
2016-01-13,21.329999923706055
2016-01-14,21.670000076293945
2016-01-15,20.739999771118164
2016-01-19,20.510000228881836
2016-01-20,20.59000015258789
2016-01-21,20.049999237060547
2016-01-22,20.209999084472656
2016-01-25,19.84000015258789
2016-01-26,19.920000076293945
2016-01-27,19.299999237060547
2016-01-28,19.239999771118164
2016-01-29,19.290000915527344
2016-02-01,19.350000381469727
2016-02-02,18.65999984741211
2016-02-03,18.299999237060547
2016-02-04,18.360000610351562
2016-02-05,17.959999084472656
2016-02-08,17.25
2016-02-09,16.649999618530273
2016-02-10,16.540000915527344
2016-02-11,16.309999465942383
2016-02-12,16.459999084472656
2016-02-16,16.809999465942383
2016-02-17,17.0
2016-02-18,16.81999969482422
2016-02-19,17.229999542236328
2016-02-22,18.09000015258789
2016-02-23,17.90999984741211
2016-02-24,19.770000457763672
2016-02-25,19.56999969482422
2016-02-26,19.84000015258789
2016-02-29,20.049999237060547
2016-03-01,20.81999969482422
2016-03-02,20.850000381469727
2016-03-03,20.5
2016-03-04,20.8700008392334
2016-03-07,21.260000228881836
2016-03-08,20.479999542236328
2016-03-09,20.350000381469727
2016-03-10,20.510000228881836
2016-03-11,20.959999084472656
2016-03-14,21.25
2016-03-15,20.549999237060547
2016-03-16,20.489999771118164
2016-03-17,20.459999084472656
2016-03-18,20.65999984741211
2016-03-21,20.389999389648438
2016-03-22,20.3799991607666
2016-03-23,19.989999771118164
2016-03-24,19.969999313354492
2016-03-28,20.059999465942383
2016-03-29,20.600000381469727
2016-03-30,20.790000915527344
2016-03-31,20.84000015258789
2016-04-01,20.770000457763672
2016-04-04,20.56999969482422
2016-04-05,20.639999389648438
2016-04-06,20.56999969482422
2016-04-07,20.190000534057617
2016-04-08,20.280000686645508
2016-04-11,19.809999465942383
2016-04-12,20.020000457763672
2016-04-13,20.239999771118164
2016-04-14,20.040000915527344
2016-04-15,20.1299991607666
2016-04-18,20.65999984741211
2016-04-19,20.530000686645508
2016-04-20,20.709999084472656
2016-04-21,21.1200008392334
2016-04-22,21.3700008392334
2016-04-25,21.559999465942383
2016-04-26,21.719999313354492
2016-04-27,22.059999465942383
2016-04-28,22.18000030517578
2016-04-29,21.989999771118164
2016-05-02,22.540000915527344
2016-05-03,21.510000228881836
2016-05-04,21.81999969482422
2016-05-05,22.030000686645508
2016-05-06,20.780000686645508
2016-05-09,21.989999771118164
2016-05-10,21.989999771118164
2016-05-11,21.719999313354492
2016-05-12,21.690000534057617
2016-05-13,21.739999771118164
2016-05-16,21.600000381469727
2016-05-17,21.049999237060547
2016-05-18,21.34000015258789
2016-05-19,21.15999984741211
2016-05-20,21.209999084472656
2016-05-23,21.190000534057617
2016-05-24,21.68000030517578
2016-05-25,21.5
2016-05-26,21.56999969482422
2016-05-27,21.450000762939453
2016-05-31,21.75
2016-06-01,21.75
2016-06-02,22.790000915527344
2016-06-03,22.700000762939453
2016-06-06,22.790000915527344
2016-06-07,22.549999237060547
2016-06-08,23.270000457763672
2016-06-09,23.030000686645508
2016-06-10,22.75
2016-06-13,22.899999618530273
2016-06-14,22.84000015258789
2016-06-15,22.950000762939453
2016-06-16,22.75
2016-06-17,22.25
2016-06-20,22.489999771118164
2016-06-21,22.520000457763672
2016-06-22,22.229999542236328
2016-06-23,22.59000015258789
2016-06-24,22.030000686645508
2016-06-27,21.18000030517578
2016-06-28,21.739999771118164
2016-06-29,22.0
2016-06-30,22.329999923706055
2016-07-01,22.209999084472656
2016-07-05,21.959999084472656
2016-07-06,22.18000030517578
2016-07-07,22.200000762939453
2016-07-08,22.200000762939453
2016-07-11,22.899999618530273
2016-07-12,23.459999084472656
2016-07-13,23.700000762939453
2016-07-14,23.989999771118164
2016-07-15,23.8700008392334
2016-07-18,23.6299991607666
2016-07-19,24.110000610351562
2016-07-20,24.760000228881836
2016-07-21,24.729999542236328
2016-07-22,25.09000015258789
2016-07-25,25.030000686645508
2016-07-26,25.020000457763672
2016-07-27,25.209999084472656
2016-07-28,25.059999465942383
2016-07-29,25.149999618530273
2016-08-01,25.190000534057617
2016-08-02,24.780000686645508
2016-08-03,25.030000686645508
2016-08-04,24.8700008392334
2016-08-05,25.200000762939453
2016-08-08,24.81999969482422
2016-08-09,25.43000030517578
2016-08-10,24.93000030517578
2016-08-11,24.760000228881836
2016-08-12,25.049999237060547
2016-08-15,25.18000030517578
2016-08-16,24.93000030517578
2016-08-17,24.829999923706055
2016-08-18,25.459999084472656
2016-08-19,25.40999984741211
2016-08-22,25.469999313354492
2016-08-23,25.90999984741211
2016-08-24,25.790000915527344
2016-08-25,25.559999465942383
2016-08-26,25.799999237060547
2016-08-29,25.950000762939453
2016-08-30,25.760000228881836
2016-08-31,25.739999771118164
2016-09-01,25.389999389648438
2016-09-02,25.360000610351562
2016-09-06,25.799999237060547
2016-09-07,25.549999237060547
2016-09-08,25.829999923706055
2016-09-09,25.190000534057617
2016-09-12,25.139999389648438
2016-09-13,24.799999237060547
2016-09-14,24.6299991607666
2016-09-15,24.8799991607666
2016-09-16,25.209999084472656
2016-09-19,25.079999923706055
2016-09-20,25.229999542236328
2016-09-21,25.719999313354492
2016-09-22,26.40999984741211
2016-09-23,25.889999389648438
2016-09-26,25.549999237060547
2016-09-27,25.700000762939453
2016-09-28,25.799999237060547
2016-09-29,25.56999969482422
2016-09-30,25.700000762939453
2016-10-03,25.68000030517578
2016-10-04,25.260000228881836
2016-10-05,24.6299991607666
2016-10-06,24.450000762939453
2016-10-07,24.34000015258789
2016-10-10,24.780000686645508
2016-10-11,24.350000381469727
2016-10-12,24.299999237060547
2016-10-13,24.079999923706055
2016-10-14,24.260000228881836
2016-10-17,24.450000762939453
2016-10-18,24.600000381469727
2016-10-19,25.450000762939453
2016-10-20,25.450000762939453
2016-10-21,25.979999542236328
2016-10-24,27.5
2016-10-25,27.850000381469727
2016-10-26,27.5
2016-10-27,26.700000762939453
2016-10-28,27.0
2016-10-31,27.200000762939453
2016-11-01,27.700000762939453
2016-11-02,27.899999618530273
2016-11-03,28.0
2016-11-04,27.850000381469727
2016-11-07,28.200000762939453
2016-11-08,27.799999237060547
2016-11-09,28.100000381469727
2016-11-10,27.75
2016-11-11,28.299999237060547
2016-11-14,28.299999237060547
2016-11-15,28.149999618530273
2016-11-16,28.399999618530273
2016-11-17,28.799999237060547
2016-11-18,28.950000762939453
2016-11-21,29.450000762939453
2016-11-22,29.350000381469727
2016-11-23,29.049999237060547
2016-11-25,28.700000762939453
2016-11-28,28.799999237060547
2016-11-29,29.399999618530273
2016-11-30,28.600000381469727
2016-12-01,28.450000762939453
2016-12-02,28.549999237060547
2016-12-05,28.799999237060547
2016-12-06,29.350000381469727
2016-12-07,29.75
2016-12-08,30.549999237060547
2016-12-09,30.5
2016-12-12,29.75
2016-12-13,29.649999618530273
2016-12-14,29.049999237060547
2016-12-15,29.450000762939453
2016-12-16,29.350000381469727
2016-12-19,29.950000762939453
2016-12-20,30.149999618530273
2016-12-21,30.450000762939453
2016-12-22,30.350000381469727
2016-12-23,30.649999618530273
2016-12-27,30.75
2016-12-28,29.850000381469727
2016-12-29,29.950000762939453
2016-12-30,30.0
2017-01-03,29.75
2017-01-04,29.950000762939453
2017-01-05,29.299999237060547
2017-01-06,29.200000762939453
2017-01-09,29.049999237060547
2017-01-10,29.100000381469727
2017-01-11,29.049999237060547
2017-01-12,28.549999237060547
2017-01-13,29.049999237060547
2017-01-17,28.25
2017-01-18,28.450000762939453
2017-01-19,28.25
2017-01-20,28.899999618530273
2017-01-23,28.850000381469727
2017-01-24,29.899999618530273
2017-01-25,30.5
2017-01-26,30.450000762939453
2017-01-27,30.399999618530273
2017-01-30,30.25
2017-01-31,30.600000381469727
2017-02-01,31.0
2017-02-02,31.350000381469727
2017-02-03,31.600000381469727
2017-02-06,31.899999618530273
2017-02-07,32.099998474121094
2017-02-08,32.150001525878906
2017-02-09,32.349998474121094
2017-02-10,32.29999923706055
2017-02-13,33.150001525878906
2017-02-14,33.54999923706055
2017-02-15,33.75
2017-02-16,34.04999923706055
2017-02-17,34.54999923706055
2017-02-21,34.349998474121094
2017-02-22,34.20000076293945
2017-02-23,33.70000076293945
2017-02-24,33.5
2017-02-27,33.5
2017-02-28,33.75
2017-03-01,35.29999923706055
2017-03-02,35.599998474121094
2017-03-03,35.150001525878906
2017-03-06,34.70000076293945
2017-03-07,34.79999923706055
2017-03-08,34.70000076293945
2017-03-09,34.20000076293945
2017-03-10,34.75
2017-03-13,35.150001525878906
2017-03-14,35.54999923706055
2017-03-15,36.20000076293945
2017-03-16,36.900001525878906
2017-03-17,36.79999923706055
2017-03-20,36.45000076293945
2017-03-21,35.099998474121094
2017-03-22,35.0
2017-03-23,34.900001525878906
2017-03-24,34.849998474121094
2017-03-27,34.79999923706055
2017-03-28,34.599998474121094
2017-03-29,34.599998474121094
2017-03-30,34.900001525878906
2017-03-31,34.900001525878906
2017-04-03,34.75
2017-04-04,35.29999923706055
2017-04-05,35.400001525878906
2017-04-06,35.650001525878906
2017-04-07,35.70000076293945
2017-04-10,36.150001525878906
2017-04-11,36.150001525878906
2017-04-12,36.150001525878906
2017-04-13,35.95000076293945
2017-04-17,36.650001525878906
2017-04-18,36.900001525878906
2017-04-19,36.75
2017-04-20,37.150001525878906
2017-04-21,36.95000076293945
2017-04-24,36.849998474121094
2017-04-25,37.0
2017-04-26,36.70000076293945
2017-04-27,36.849998474121094
2017-04-28,37.04999923706055
2017-05-01,37.400001525878906
2017-05-02,37.29999923706055
2017-05-03,36.75
2017-05-04,37.70000076293945
2017-05-05,35.650001525878906
2017-05-08,36.0
2017-05-09,36.25
2017-05-10,35.29999923706055
2017-05-11,35.04999923706055
2017-05-12,35.099998474121094
2017-05-15,34.95000076293945
2017-05-16,34.75
2017-05-17,32.900001525878906
2017-05-18,33.5
2017-05-19,33.70000076293945
2017-05-22,34.599998474121094
2017-05-23,34.599998474121094
2017-05-24,33.900001525878906
2017-05-25,34.650001525878906
2017-05-26,35.29999923706055
2017-05-30,35.150001525878906
2017-05-31,34.599998474121094
2017-06-01,34.349998474121094
2017-06-02,35.099998474121094
2017-06-05,34.900001525878906
2017-06-06,34.099998474121094
2017-06-07,34.20000076293945
2017-06-08,35.45000076293945
2017-06-09,35.0
2017-06-12,34.900001525878906
2017-06-13,35.099998474121094
2017-06-14,34.20000076293945
2017-06-15,35.400001525878906
2017-06-16,35.29999923706055
2017-06-19,37.099998474121094
2017-06-20,36.349998474121094
2017-06-21,36.54999923706055
2017-06-22,36.29999923706055
2017-06-23,37.70000076293945
2017-06-26,36.900001525878906
2017-06-27,36.849998474121094
2017-06-28,37.70000076293945
2017-06-29,36.04999923706055
2017-06-30,35.95000076293945
2017-07-03,35.849998474121094
2017-07-05,36.099998474121094
2017-07-06,36.650001525878906
2017-07-07,38.0
2017-07-10,37.70000076293945
2017-07-11,38.29999923706055
2017-07-12,37.849998474121094
2017-07-13,37.0
2017-07-14,37.45000076293945
2017-07-17,37.400001525878906
2017-07-18,38.79999923706055
2017-07-19,39.650001525878906
2017-07-20,39.650001525878906
2017-07-21,39.150001525878906
2017-07-24,39.29999923706055
2017-07-25,39.45000076293945
2017-07-26,39.95000076293945
2017-07-27,38.900001525878906
2017-07-28,39.0
2017-07-31,38.75
2017-08-01,38.54999923706055
2017-08-02,39.25
2017-08-03,40.04999923706055
2017-08-04,40.099998474121094
2017-08-07,39.79999923706055
2017-08-08,39.75
2017-08-09,39.150001525878906
2017-08-10,38.04999923706055
2017-08-11,39.900001525878906
2017-08-14,40.650001525878906
2017-08-15,41.650001525878906
2017-08-16,41.79999923706055
2017-08-17,41.25
2017-08-18,41.70000076293945
2017-08-21,41.599998474121094
2017-08-22,41.45000076293945
2017-08-23,41.400001525878906
2017-08-24,41.25
2017-08-25,41.0
2017-08-28,41.25
2017-08-29,41.099998474121094
2017-08-30,42.20000076293945
2017-08-31,43.099998474121094
2017-09-01,43.29999923706055
2017-09-05,42.79999923706055
2017-09-06,41.5
2017-09-07,41.45000076293945
2017-09-08,41.849998474121094
2017-09-11,42.400001525878906
2017-09-12,40.349998474121094
2017-09-13,39.400001525878906
2017-09-14,40.150001525878906
2017-09-15,39.349998474121094
2017-09-18,39.650001525878906
2017-09-19,40.5
2017-09-20,39.45000076293945
2017-09-21,39.349998474121094
2017-09-22,39.900001525878906
2017-09-25,39.29999923706055
2017-09-26,38.75
2017-09-27,40.650001525878906
2017-09-28,40.150001525878906
2017-09-29,39.900001525878906
2017-10-02,40.45000076293945
2017-10-03,41.04999923706055
2017-10-04,41.79999923706055
2017-10-05,41.79999923706055
2017-10-06,42.0
2017-10-09,41.95000076293945
2017-10-10,42.099998474121094
2017-10-11,42.04999923706055
2017-10-12,42.5
2017-10-13,42.95000076293945
2017-10-16,43.150001525878906
2017-10-17,41.95000076293945
2017-10-18,41.849998474121094
2017-10-19,41.54999923706055
2017-10-20,42.20000076293945
2017-10-23,42.400001525878906
2017-10-24,43.349998474121094
2017-10-25,43.29999923706055
2017-10-26,43.099998474121094
2017-10-27,43.20000076293945
2017-10-30,43.08000183105469
2017-10-31,43.29999923706055
2017-11-01,44.0
2017-11-02,43.70000076293945
2017-11-03,44.599998474121094
2017-11-06,43.650001525878906
2017-11-07,44.04999923706055
2017-11-08,44.650001525878906
2017-11-09,44.04999923706055
2017-11-10,44.099998474121094
2017-11-13,43.54999923706055
2017-11-14,43.900001525878906
2017-11-15,43.349998474121094
2017-11-16,44.099998474121094
2017-11-17,44.04999923706055
2017-11-20,44.54999923706055
2017-11-21,45.04999923706055
2017-11-22,44.0
2017-11-24,44.25
2017-11-27,44.400001525878906
2017-11-28,45.95000076293945
2017-11-29,45.150001525878906
2017-11-30,45.349998474121094
2017-12-01,44.95000076293945
2017-12-04,44.20000076293945
2017-12-05,43.5
2017-12-06,43.849998474121094
2017-12-07,44.849998474121094
2017-12-08,44.349998474121094
2017-12-11,44.150001525878906
2017-12-12,44.25
2017-12-13,44.5
2017-12-14,44.04999923706055
2017-12-15,45.54999923706055
2017-12-18,45.54999923706055
2017-12-19,44.75
2017-12-20,44.5
2017-12-21,44.0
2017-12-22,43.849998474121094
2017-12-26,44.349998474121094
2017-12-27,44.29999923706055
2017-12-28,44.599998474121094
2017-12-29,44.29999923706055
2018-01-02,45.349998474121094
2018-01-03,45.29999923706055
2018-01-04,45.79999923706055
2018-01-05,45.400001525878906
2018-01-08,46.400001525878906
2018-01-09,47.150001525878906
2018-01-10,46.900001525878906
2018-01-11,47.79999923706055
2018-01-12,48.45000076293945
2018-01-16,47.900001525878906
2018-01-17,48.20000076293945
2018-01-18,48.599998474121094
2018-01-19,48.5
2018-01-22,48.650001525878906
2018-01-23,49.29999923706055
2018-01-24,47.849998474121094
2018-01-25,48.54999923706055
2018-01-26,49.20000076293945
2018-01-29,48.75
2018-01-30,50.0
2018-01-31,49.75
2018-02-01,49.650001525878906
2018-02-02,48.95000076293945
2018-02-05,46.75
2018-02-06,48.45000076293945
2018-02-07,49.04999923706055
2018-02-08,47.0
2018-02-09,48.04999923706055
2018-02-12,47.29999923706055
2018-02-13,47.70000076293945
2018-02-14,49.25
2018-02-15,49.70000076293945
2018-02-16,50.45000076293945
2018-02-20,50.400001525878906
2018-02-21,50.349998474121094
2018-02-22,49.75
2018-02-23,50.95000076293945
2018-02-26,50.95000076293945
2018-02-27,49.900001525878906
2018-02-28,52.25
2018-03-01,51.75
2018-03-02,52.650001525878906
2018-03-05,52.150001525878906
2018-03-06,52.400001525878906
2018-03-07,52.849998474121094
2018-03-08,53.349998474121094
2018-03-09,53.599998474121094
2018-03-12,53.400001525878906
2018-03-13,53.0
2018-03-14,52.900001525878906
2018-03-15,52.79999923706055
2018-03-16,53.349998474121094
2018-03-19,52.79999923706055
2018-03-20,53.29999923706055
2018-03-21,53.95000076293945
2018-03-22,53.20000076293945
2018-03-23,51.349998474121094
2018-03-26,53.349998474121094
2018-03-27,52.099998474121094
2018-03-28,51.099998474121094
2018-03-29,51.5
2018-04-02,49.900001525878906
2018-04-03,50.650001525878906
2018-04-04,51.54999923706055
2018-04-05,52.099998474121094
2018-04-06,51.349998474121094
2018-04-09,51.849998474121094
2018-04-10,51.70000076293945
2018-04-11,52.5
2018-04-12,53.04999923706055
2018-04-13,52.900001525878906
2018-04-16,53.79999923706055
2018-04-17,54.650001525878906
2018-04-18,55.25
2018-04-19,55.20000076293945
2018-04-20,54.75
2018-04-23,53.95000076293945
2018-04-24,53.25
2018-04-25,52.900001525878906
2018-04-26,53.70000076293945
2018-04-27,53.849998474121094
2018-04-30,53.5
2018-05-01,54.04999923706055
2018-05-02,54.20000076293945
2018-05-03,54.849998474121094
2018-05-04,58.650001525878906
2018-05-07,60.29999923706055
2018-05-08,61.5
2018-05-09,60.130001068115234
2018-05-10,60.849998474121094
2018-05-11,60.70000076293945
2018-05-14,58.900001525878906
2018-05-15,58.75
2018-05-16,58.75
2018-05-17,58.79999923706055
2018-05-18,59.54999923706055
2018-05-21,59.5
2018-05-22,58.29999923706055
2018-05-23,58.5
2018-05-24,58.54999923706055
2018-05-25,59.20000076293945
2018-05-29,59.20000076293945
2018-05-30,58.79999923706055
2018-05-31,58.75
2018-06-01,59.95000076293945
2018-06-04,61.04999923706055
2018-06-05,60.54999923706055
2018-06-06,59.04999923706055
2018-06-07,56.79999923706055
2018-06-08,56.25
2018-06-11,56.70000076293945
2018-06-12,58.95000076293945
2018-06-13,59.349998474121094
2018-06-14,59.900001525878906
2018-06-15,59.95000076293945
2018-06-18,60.650001525878906
2018-06-19,59.29999923706055
2018-06-20,58.150001525878906
2018-06-21,56.349998474121094
2018-06-22,54.95000076293945
2018-06-25,54.599998474121094
2018-06-26,55.29999923706055
2018-06-27,53.849998474121094
2018-06-28,54.95000076293945
2018-06-29,55.099998474121094
2018-07-02,56.0
2018-07-03,55.650001525878906
2018-07-05,55.5
2018-07-06,56.5
2018-07-09,57.04999923706055
2018-07-10,56.79999923706055
2018-07-11,56.70000076293945
2018-07-12,58.150001525878906
2018-07-13,57.45000076293945
2018-07-16,57.20000076293945
2018-07-17,58.20000076293945
2018-07-18,59.75
2018-07-19,59.20000076293945
2018-07-20,59.349998474121094
2018-07-23,59.95000076293945
2018-07-24,58.849998474121094
2018-07-25,59.349998474121094
2018-07-26,59.150001525878906
2018-07-27,57.650001525878906
2018-07-30,54.400001525878906
2018-07-31,55.099998474121094
2018-08-01,55.900001525878906
2018-08-02,57.95000076293945
2018-08-03,56.650001525878906
2018-08-06,56.5
2018-08-07,57.20000076293945
2018-08-08,58.650001525878906
2018-08-09,59.150001525878906
2018-08-10,59.5
2018-08-13,58.95000076293945
2018-08-14,59.54999923706055
2018-08-15,58.79999923706055
2018-08-16,58.45000076293945
2018-08-17,58.04999923706055
2018-08-20,57.650001525878906
2018-08-21,58.0
2018-08-22,58.29999923706055
2018-08-23,59.45000076293945
2018-08-24,60.849998474121094
2018-08-27,60.70000076293945
2018-08-28,61.04999923706055
2018-08-29,61.650001525878906
2018-08-30,61.400001525878906
2018-08-31,62.400001525878906
2018-09-04,63.349998474121094
2018-09-05,59.849998474121094
2018-09-06,60.95000076293945
2018-09-07,61.099998474121094
2018-09-10,61.54999923706055
2018-09-11,62.0
2018-09-12,62.20000076293945
2018-09-13,62.5
2018-09-14,63.650001525878906
2018-09-17,62.5
2018-09-18,63.099998474121094
2018-09-19,61.25
2018-09-20,62.650001525878906
2018-09-21,62.29999923706055
2018-09-24,63.650001525878906
2018-09-25,64.80000305175781
2018-09-26,64.44999694824219
2018-09-27,65.0999984741211
2018-09-28,65.9000015258789
2018-10-01,61.7400016784668
2018-10-02,61.060001373291016
2018-10-03,61.61000061035156
2018-10-04,61.56999969482422
2018-10-05,61.029998779296875
2018-10-08,58.13999938964844
2018-10-09,57.90999984741211
2018-10-10,55.2599983215332
2018-10-11,54.959999084472656
2018-10-12,56.959999084472656
2018-10-15,56.25
2018-10-16,58.880001068115234
2018-10-17,59.279998779296875
2018-10-18,57.58000183105469
2018-10-19,55.720001220703125
2018-10-22,56.560001373291016
2018-10-23,56.36000061035156
2018-10-24,53.65999984741211
2018-10-25,55.33000183105469
2018-10-26,53.0
2018-10-29,53.2400016784668
2018-10-30,51.68000030517578
2018-10-31,53.0
2018-11-01,54.88999938964844
2018-11-02,55.29999923706055
2018-11-05,52.88999938964844
2018-11-06,51.599998474121094
2018-11-07,54.58000183105469
2018-11-08,53.099998474121094
2018-11-09,51.029998779296875
2018-11-12,49.47999954223633
2018-11-13,49.560001373291016
2018-11-14,48.18000030517578
2018-11-15,48.83000183105469
2018-11-16,48.720001220703125
2018-11-19,45.58000183105469
2018-11-20,45.75
2018-11-21,47.40999984741211
2018-11-23,47.59000015258789
2018-11-26,48.779998779296875
2018-11-27,48.36000061035156
2018-11-28,50.25
2018-11-29,50.40999984741211
2018-11-30,51.58000183105469
2018-12-03,52.97999954223633
2018-12-04,50.40999984741211
2018-12-06,51.16999816894531
2018-12-07,50.630001068115234
2018-12-10,51.15999984741211
2018-12-11,51.4900016784668
2018-12-12,51.529998779296875
2018-12-13,50.4900016784668
2018-12-14,48.11000061035156
2018-12-17,46.91999816894531
2018-12-18,47.02000045776367
2018-12-19,47.400001525878906
2018-12-20,46.56999969482422
2018-12-21,45.150001525878906
2018-12-24,44.65999984741211
2018-12-26,47.18000030517578
2018-12-27,47.61000061035156
2018-12-28,47.900001525878906
2018-12-31,48.189998626708984
2019-01-02,47.290000915527344
2019-01-03,47.27000045776367
2019-01-04,48.88999938964844
2019-01-07,51.56999969482422
2019-01-08,51.439998626708984
2019-01-09,51.720001220703125
2019-01-10,53.220001220703125
2019-01-11,53.349998474121094
2019-01-14,52.90999984741211
2019-01-15,53.58000183105469
2019-01-16,52.79999923706055
2019-01-17,53.0
2019-01-18,54.13999938964844
2019-01-22,54.11000061035156
2019-01-23,52.970001220703125
2019-01-24,53.400001525878906
2019-01-25,54.86000061035156
2019-01-28,54.54999923706055
2019-01-29,54.18000030517578
2019-01-30,54.97999954223633
2019-01-31,55.77000045776367
2019-02-01,56.880001068115234
2019-02-04,57.75
2019-02-05,58.869998931884766
2019-02-06,57.91999816894531
2019-02-07,57.400001525878906
2019-02-08,58.20000076293945
2019-02-11,57.41999816894531
2019-02-12,58.7400016784668
2019-02-13,57.88999938964844
2019-02-14,58.81999969482422
2019-02-15,59.20000076293945
2019-02-19,58.86000061035156
2019-02-20,58.95000076293945
2019-02-21,59.119998931884766
2019-02-22,59.900001525878906
2019-02-25,60.93000030517578
2019-02-26,60.06999969482422
2019-02-27,61.060001373291016
2019-02-28,61.209999084472656
2019-03-01,61.38999938964844
2019-03-04,59.099998474121094
2019-03-05,58.880001068115234
2019-03-06,58.34000015258789
2019-03-07,58.72999954223633
2019-03-08,58.45000076293945
2019-03-11,59.630001068115234
2019-03-12,60.22999954223633
2019-03-13,60.630001068115234
2019-03-14,60.970001220703125
2019-03-15,61.349998474121094
2019-03-18,62.27000045776367
2019-03-19,62.61000061035156
2019-03-20,61.77000045776367
2019-03-21,63.0099983215332
2019-03-22,60.689998626708984
2019-03-25,60.63999938964844
2019-03-26,61.2599983215332
2019-03-27,60.79999923706055
2019-03-28,60.439998626708984
2019-03-29,60.689998626708984
2019-04-01,61.900001525878906
2019-04-02,62.91999816894531
2019-04-03,63.38999938964844
2019-04-04,62.2400016784668
2019-04-05,62.310001373291016
2019-04-08,62.560001373291016
2019-04-09,62.400001525878906
2019-04-10,62.72999954223633
2019-04-11,63.65999984741211
2019-04-12,63.650001525878906
2019-04-15,63.91999816894531
2019-04-16,63.540000915527344
2019-04-17,62.470001220703125
2019-04-18,62.619998931884766
2019-04-22,63.34000015258789
2019-04-23,63.689998626708984
2019-04-24,63.4900016784668
2019-04-25,63.5
2019-04-26,64.19000244140625
2019-04-29,65.31999969482422
2019-04-30,65.20999908447266
2019-05-01,64.13999938964844
2019-05-02,63.18000030517578
2019-05-03,63.5
2019-05-06,63.209999084472656
2019-05-07,59.72999954223633
2019-05-08,58.68000030517578
2019-05-09,59.18000030517578
2019-05-10,59.41999816894531
2019-05-13,58.0
2019-05-14,59.34000015258789
2019-05-15,60.04999923706055
2019-05-16,61.40999984741211
2019-05-17,60.849998474121094
2019-05-20,59.7599983215332
2019-05-21,59.81999969482422
2019-05-22,59.56999969482422
2019-05-23,58.189998626708984
2019-05-24,58.72999954223633
2019-05-28,59.060001373291016
2019-05-29,57.970001220703125
2019-05-30,58.29999923706055
2019-05-31,58.31999969482422
2019-06-03,55.650001525878906
2019-06-04,57.13999938964844
2019-06-05,58.709999084472656
2019-06-06,59.75
2019-06-07,59.630001068115234
2019-06-10,59.5099983215332
2019-06-11,58.29999923706055
2019-06-12,57.939998626708984
2019-06-13,58.150001525878906
2019-06-14,57.58000183105469
2019-06-17,57.52000045776367
2019-06-18,59.15999984741211
2019-06-19,59.439998626708984
2019-06-20,59.58000183105469
2019-06-21,58.900001525878906
2019-06-24,57.959999084472656
2019-06-25,56.93000030517578
2019-06-26,57.220001220703125
2019-06-27,57.95000076293945
2019-06-28,58.849998474121094
2019-07-01,59.290000915527344
2019-07-02,60.099998474121094
2019-07-03,61.29999923706055
2019-07-05,61.599998474121094
2019-07-08,61.630001068115234
2019-07-09,62.88999938964844
2019-07-10,63.540000915527344
2019-07-11,64.6500015258789
2019-07-12,64.56999969482422
2019-07-15,64.25
2019-07-16,63.529998779296875
2019-07-17,63.470001220703125
2019-07-18,63.56999969482422
2019-07-19,63.209999084472656
2019-07-22,63.36000061035156
2019-07-23,63.41999816894531
2019-07-24,64.08000183105469
2019-07-25,64.19999694824219
2019-07-26,64.80000305175781
2019-07-29,64.29000091552734
2019-07-30,63.630001068115234
2019-07-31,62.47999954223633
2019-08-01,62.349998474121094
2019-08-02,60.880001068115234
2019-08-05,57.18000030517578
2019-08-06,58.790000915527344
2019-08-07,59.81999969482422
2019-08-08,61.70000076293945
2019-08-09,61.810001373291016
2019-08-12,60.880001068115234
2019-08-13,61.02000045776367
2019-08-14,59.619998931884766
2019-08-15,59.90999984741211
2019-08-16,61.59000015258789
2019-08-19,62.2599983215332
2019-08-20,62.27000045776367
2019-08-21,63.5099983215332
2019-08-22,64.20999908447266
2019-08-23,63.70000076293945
2019-08-26,63.41999816894531
2019-08-27,62.900001525878906
2019-08-28,62.150001525878906
2019-08-29,64.2300033569336
2019-08-30,63.66999816894531
2019-09-03,63.15999984741211
2019-09-04,63.63999938964844
2019-09-05,64.0999984741211
2019-09-06,63.97999954223633
2019-09-09,61.650001525878906
2019-09-10,61.63999938964844
2019-09-11,62.970001220703125
2019-09-12,62.90999984741211
2019-09-13,61.40999984741211
2019-09-16,62.2400016784668
2019-09-17,63.18000030517578
2019-09-18,63.5099983215332
2019-09-19,64.20999908447266
2019-09-20,64.63999938964844
2019-09-23,64.43000030517578
2019-09-24,63.130001068115234
2019-09-25,63.650001525878906
2019-09-26,63.72999954223633
2019-09-27,61.720001220703125
2019-09-30,62.86000061035156
2019-10-01,62.040000915527344
2019-10-02,61.310001373291016
2019-10-03,61.38999938964844
2019-10-04,62.20000076293945
2019-10-07,62.33000183105469
2019-10-08,60.5099983215332
2019-10-09,61.619998931884766
2019-10-10,61.15999984741211
2019-10-11,62.099998474121094
2019-10-14,61.91999816894531
2019-10-15,61.9900016784668
2019-10-16,61.400001525878906
2019-10-17,61.810001373291016
2019-10-18,59.88999938964844
2019-10-21,60.58000183105469
2019-10-22,59.70000076293945
2019-10-23,60.060001373291016
2019-10-24,60.709999084472656
2019-10-25,60.650001525878906
2019-10-28,60.91999816894531
2019-10-29,61.08000183105469
2019-10-30,61.95000076293945
2019-10-31,60.54999923706055
2019-11-01,61.5099983215332
2019-11-04,61.150001525878906
2019-11-05,61.150001525878906
2019-11-06,59.7400016784668
2019-11-07,53.36000061035156
2019-11-08,54.11000061035156
2019-11-11,55.119998931884766
2019-11-12,54.13999938964844
2019-11-13,54.02000045776367
2019-11-14,53.470001220703125
2019-11-15,53.54999923706055
2019-11-18,52.86000061035156
2019-11-19,52.79999923706055
2019-11-20,52.9900016784668
2019-11-21,53.720001220703125
2019-11-22,54.38999938964844
2019-11-25,54.65999984741211
2019-11-26,54.290000915527344
2019-11-27,55.040000915527344
2019-11-29,55.029998779296875
2019-12-02,54.2599983215332
2019-12-03,54.77000045776367
2019-12-04,55.29999923706055
2019-12-05,54.9900016784668
2019-12-06,55.209999084472656
2019-12-09,54.939998626708984
2019-12-10,54.709999084472656
2019-12-11,53.720001220703125
2019-12-12,53.5
2019-12-13,53.61000061035156
2019-12-16,53.63999938964844
2019-12-17,53.9900016784668
2019-12-18,53.04999923706055
2019-12-19,52.900001525878906
2019-12-20,53.5
2019-12-23,53.790000915527344
2019-12-24,53.5
2019-12-26,53.13999938964844
2019-12-27,53.41999816894531
2019-12-30,53.43000030517578
2019-12-31,53.75
