Date,SAVE
2011-05-26,11.550000190734863
2011-05-27,11.479999542236328
2011-05-31,11.800000190734863
2011-06-01,11.59000015258789
2011-06-02,11.899999618530273
2011-06-03,11.960000038146973
2011-06-06,11.989999771118164
2011-06-07,12.020000457763672
2011-06-08,12.09000015258789
2011-06-09,12.170000076293945
2011-06-10,12.039999961853027
2011-06-13,12.029999732971191
2011-06-14,12.0
2011-06-15,12.0
2011-06-16,11.890000343322754
2011-06-17,11.899999618530273
2011-06-20,12.0
2011-06-21,12.050000190734863
2011-06-22,12.029999732971191
2011-06-23,12.050000190734863
2011-06-24,12.0
2011-06-27,12.0
2011-06-28,12.300000190734863
2011-06-29,12.260000228881836
2011-06-30,11.989999771118164
2011-07-01,12.399999618530273
2011-07-05,12.149999618530273
2011-07-06,13.170000076293945
2011-07-07,12.899999618530273
2011-07-08,13.710000038146973
2011-07-11,13.40999984741211
2011-07-12,13.539999961853027
2011-07-13,14.09000015258789
2011-07-14,14.289999961853027
2011-07-15,14.229999542236328
2011-07-18,13.65999984741211
2011-07-19,14.0
2011-07-20,13.390000343322754
2011-07-21,13.800000190734863
2011-07-22,13.520000457763672
2011-07-25,13.140000343322754
2011-07-26,12.770000457763672
2011-07-27,12.640000343322754
2011-07-28,13.239999771118164
2011-07-29,13.100000381469727
2011-08-01,13.029999732971191
2011-08-02,12.9399995803833
2011-08-03,13.239999771118164
2011-08-04,12.609999656677246
2011-08-05,12.609999656677246
2011-08-08,11.3100004196167
2011-08-09,11.609999656677246
2011-08-10,10.979999542236328
2011-08-11,11.920000076293945
2011-08-12,11.619999885559082
2011-08-15,12.09000015258789
2011-08-16,12.130000114440918
2011-08-17,12.109999656677246
2011-08-18,11.010000228881836
2011-08-19,10.550000190734863
2011-08-22,10.4399995803833
2011-08-23,11.640000343322754
2011-08-24,11.90999984741211
2011-08-25,11.569999694824219
2011-08-26,12.140000343322754
2011-08-29,12.4399995803833
2011-08-30,12.069999694824219
2011-08-31,12.079999923706055
2011-09-01,11.949999809265137
2011-09-02,11.739999771118164
2011-09-06,11.670000076293945
2011-09-07,11.880000114440918
2011-09-08,11.489999771118164
2011-09-09,11.369999885559082
2011-09-12,11.15999984741211
2011-09-13,11.460000038146973
2011-09-14,12.40999984741211
2011-09-15,12.770000457763672
2011-09-16,12.770000457763672
2011-09-19,12.550000190734863
2011-09-20,11.949999809265137
2011-09-21,11.569999694824219
2011-09-22,11.239999771118164
2011-09-23,11.630000114440918
2011-09-26,11.880000114440918
2011-09-27,12.199999809265137
2011-09-28,12.130000114440918
2011-09-29,12.729999542236328
2011-09-30,12.5
2011-10-03,11.699999809265137
2011-10-04,12.430000305175781
2011-10-05,12.729999542236328
2011-10-06,13.140000343322754
2011-10-07,13.100000381469727
2011-10-10,13.430000305175781
2011-10-11,13.710000038146973
2011-10-12,14.520000457763672
2011-10-13,15.899999618530273
2011-10-14,15.630000114440918
2011-10-17,14.819999694824219
2011-10-18,14.90999984741211
2011-10-19,14.489999771118164
2011-10-20,14.1899995803833
2011-10-21,14.930000305175781
2011-10-24,15.869999885559082
2011-10-25,15.029999732971191
2011-10-26,15.210000038146973
2011-10-27,16.209999084472656
2011-10-28,16.510000228881836
2011-10-31,16.459999084472656
2011-11-01,15.369999885559082
2011-11-02,15.729999542236328
2011-11-03,16.40999984741211
2011-11-04,16.200000762939453
2011-11-07,16.459999084472656
2011-11-08,16.399999618530273
2011-11-09,15.449999809265137
2011-11-10,15.710000038146973
2011-11-11,16.190000534057617
2011-11-14,16.90999984741211
2011-11-15,16.739999771118164
2011-11-16,16.579999923706055
2011-11-17,16.030000686645508
2011-11-18,15.949999809265137
2011-11-21,16.489999771118164
2011-11-22,16.540000915527344
2011-11-23,16.360000610351562
2011-11-25,16.309999465942383
2011-11-28,17.030000686645508
2011-11-29,16.110000610351562
2011-11-30,16.1299991607666
2011-12-01,16.030000686645508
2011-12-02,16.200000762939453
2011-12-05,16.18000030517578
2011-12-06,15.369999885559082
2011-12-07,16.0
2011-12-08,15.65999984741211
2011-12-09,15.8100004196167
2011-12-12,15.789999961853027
2011-12-13,15.239999771118164
2011-12-14,15.449999809265137
2011-12-15,15.569999694824219
2011-12-16,15.329999923706055
2011-12-19,15.25
2011-12-20,15.4399995803833
2011-12-21,15.520000457763672
2011-12-22,15.779999732971191
2011-12-23,15.6899995803833
2011-12-27,15.6899995803833
2011-12-28,15.279999732971191
2011-12-29,15.380000114440918
2011-12-30,15.600000381469727
2012-01-03,15.069999694824219
2012-01-04,14.619999885559082
2012-01-05,14.460000038146973
2012-01-06,14.579999923706055
2012-01-09,14.930000305175781
2012-01-10,14.989999771118164
2012-01-11,15.489999771118164
2012-01-12,15.15999984741211
2012-01-13,15.020000457763672
2012-01-17,14.1899995803833
2012-01-18,14.479999542236328
2012-01-19,14.670000076293945
2012-01-20,15.539999961853027
2012-01-23,15.800000190734863
2012-01-24,15.75
2012-01-25,16.25
2012-01-26,15.800000190734863
2012-01-27,16.229999542236328
2012-01-30,16.510000228881836
2012-01-31,16.790000915527344
2012-02-01,17.190000534057617
2012-02-02,18.079999923706055
2012-02-03,19.209999084472656
2012-02-06,18.989999771118164
2012-02-07,18.6299991607666
2012-02-08,18.420000076293945
2012-02-09,18.239999771118164
2012-02-10,18.299999237060547
2012-02-13,19.729999542236328
2012-02-14,19.489999771118164
2012-02-15,19.229999542236328
2012-02-16,19.219999313354492
2012-02-17,19.829999923706055
2012-02-21,19.110000610351562
2012-02-22,19.290000915527344
2012-02-23,19.09000015258789
2012-02-24,18.649999618530273
2012-02-27,18.860000610351562
2012-02-28,19.219999313354492
2012-02-29,19.530000686645508
2012-03-01,19.25
2012-03-02,18.489999771118164
2012-03-05,19.170000076293945
2012-03-06,18.920000076293945
2012-03-07,18.940000534057617
2012-03-08,19.110000610351562
2012-03-09,19.350000381469727
2012-03-12,19.420000076293945
2012-03-13,20.149999618530273
2012-03-14,20.1299991607666
2012-03-15,19.84000015258789
2012-03-16,19.270000457763672
2012-03-19,19.6200008392334
2012-03-20,19.31999969482422
2012-03-21,19.670000076293945
2012-03-22,19.65999984741211
2012-03-23,19.649999618530273
2012-03-26,19.93000030517578
2012-03-27,19.489999771118164
2012-03-28,19.420000076293945
2012-03-29,19.8700008392334
2012-03-30,20.06999969482422
2012-04-02,20.649999618530273
2012-04-03,21.149999618530273
2012-04-04,21.100000381469727
2012-04-05,20.90999984741211
2012-04-09,21.040000915527344
2012-04-10,20.09000015258789
2012-04-11,20.68000030517578
2012-04-12,21.149999618530273
2012-04-13,21.530000686645508
2012-04-16,22.049999237060547
2012-04-17,22.59000015258789
2012-04-18,23.15999984741211
2012-04-19,23.1200008392334
2012-04-20,22.75
2012-04-23,22.440000534057617
2012-04-24,22.780000686645508
2012-04-25,23.040000915527344
2012-04-26,23.6299991607666
2012-04-27,23.860000610351562
2012-04-30,24.020000457763672
2012-05-01,22.989999771118164
2012-05-02,24.110000610351562
2012-05-03,22.899999618530273
2012-05-04,22.530000686645508
2012-05-07,23.09000015258789
2012-05-08,22.329999923706055
2012-05-09,22.200000762939453
2012-05-10,22.350000381469727
2012-05-11,22.610000610351562
2012-05-14,22.6200008392334
2012-05-15,22.100000381469727
2012-05-16,21.899999618530273
2012-05-17,20.25
2012-05-18,20.15999984741211
2012-05-21,20.780000686645508
2012-05-22,20.799999237060547
2012-05-23,20.290000915527344
2012-05-24,20.649999618530273
2012-05-25,20.8700008392334
2012-05-29,20.780000686645508
2012-05-30,20.6299991607666
2012-05-31,20.610000610351562
2012-06-01,18.8700008392334
2012-06-04,17.920000076293945
2012-06-05,18.170000076293945
2012-06-06,19.15999984741211
2012-06-07,18.520000457763672
2012-06-08,19.360000610351562
2012-06-11,17.940000534057617
2012-06-12,18.600000381469727
2012-06-13,18.649999618530273
2012-06-14,18.850000381469727
2012-06-15,19.030000686645508
2012-06-18,19.309999465942383
2012-06-19,20.15999984741211
2012-06-20,20.479999542236328
2012-06-21,20.479999542236328
2012-06-22,20.719999313354492
2012-06-25,19.40999984741211
2012-06-26,19.860000610351562
2012-06-27,20.100000381469727
2012-06-28,19.020000457763672
2012-06-29,19.459999084472656
2012-07-02,20.309999465942383
2012-07-03,20.489999771118164
2012-07-05,21.399999618530273
2012-07-06,21.510000228881836
2012-07-09,21.969999313354492
2012-07-10,21.6200008392334
2012-07-11,22.149999618530273
2012-07-12,22.18000030517578
2012-07-13,22.75
2012-07-16,22.65999984741211
2012-07-17,22.350000381469727
2012-07-18,21.700000762939453
2012-07-19,21.229999542236328
2012-07-20,20.290000915527344
2012-07-23,20.149999618530273
2012-07-24,19.440000534057617
2012-07-25,19.6299991607666
2012-07-26,20.010000228881836
2012-07-27,20.690000534057617
2012-07-30,21.350000381469727
2012-07-31,21.510000228881836
2012-08-01,20.020000457763672
2012-08-02,20.40999984741211
2012-08-03,20.489999771118164
2012-08-06,20.389999389648438
2012-08-07,20.530000686645508
2012-08-08,20.510000228881836
2012-08-09,20.100000381469727
2012-08-10,19.639999389648438
2012-08-13,20.020000457763672
2012-08-14,20.31999969482422
2012-08-15,20.31999969482422
2012-08-16,20.260000228881836
2012-08-17,20.469999313354492
2012-08-20,20.6200008392334
2012-08-21,20.450000762939453
2012-08-22,19.790000915527344
2012-08-23,19.360000610351562
2012-08-24,19.200000762939453
2012-08-27,19.440000534057617
2012-08-28,19.459999084472656
2012-08-29,19.670000076293945
2012-08-30,19.530000686645508
2012-08-31,19.549999237060547
2012-09-04,19.110000610351562
2012-09-05,19.520000457763672
2012-09-06,19.600000381469727
2012-09-07,19.729999542236328
2012-09-10,19.739999771118164
2012-09-11,19.649999618530273
2012-09-12,19.770000457763672
2012-09-13,19.65999984741211
2012-09-14,16.579999923706055
2012-09-17,16.860000610351562
2012-09-18,16.110000610351562
2012-09-19,17.190000534057617
2012-09-20,17.09000015258789
2012-09-21,17.219999313354492
2012-09-24,17.549999237060547
2012-09-25,17.190000534057617
2012-09-26,17.239999771118164
2012-09-27,17.360000610351562
2012-09-28,17.079999923706055
2012-10-01,17.200000762939453
2012-10-02,17.299999237060547
2012-10-03,17.479999542236328
2012-10-04,17.450000762939453
2012-10-05,17.440000534057617
2012-10-08,17.65999984741211
2012-10-09,17.520000457763672
2012-10-10,17.459999084472656
2012-10-11,17.610000610351562
2012-10-12,17.600000381469727
2012-10-15,17.610000610351562
2012-10-16,17.719999313354492
2012-10-17,17.799999237060547
2012-10-18,17.6299991607666
2012-10-19,17.360000610351562
2012-10-22,17.649999618530273
2012-10-23,17.450000762939453
2012-10-24,17.18000030517578
2012-10-25,17.420000076293945
2012-10-26,17.030000686645508
2012-10-31,17.68000030517578
2012-11-01,17.399999618530273
2012-11-02,17.049999237060547
2012-11-05,17.350000381469727
2012-11-06,17.6200008392334
2012-11-07,17.329999923706055
2012-11-08,17.579999923706055
2012-11-09,17.1299991607666
2012-11-12,16.950000762939453
2012-11-13,16.34000015258789
2012-11-14,15.710000038146973
2012-11-15,16.989999771118164
2012-11-16,16.31999969482422
2012-11-19,16.739999771118164
2012-11-20,16.5
2012-11-21,16.690000534057617
2012-11-23,16.850000381469727
2012-11-26,16.530000686645508
2012-11-27,16.31999969482422
2012-11-28,16.510000228881836
2012-11-29,16.889999389648438
2012-11-30,16.780000686645508
2012-12-03,16.6299991607666
2012-12-04,16.719999313354492
2012-12-05,16.81999969482422
2012-12-06,16.979999542236328
2012-12-07,17.139999389648438
2012-12-10,17.09000015258789
2012-12-11,17.219999313354492
2012-12-12,16.520000457763672
2012-12-13,16.719999313354492
2012-12-14,16.610000610351562
2012-12-17,16.709999084472656
2012-12-18,16.75
2012-12-19,17.100000381469727
2012-12-20,17.25
2012-12-21,17.25
2012-12-24,17.280000686645508
2012-12-26,17.079999923706055
2012-12-27,17.709999084472656
2012-12-28,17.68000030517578
2012-12-31,17.729999542236328
2013-01-02,17.959999084472656
2013-01-03,17.5
2013-01-04,18.100000381469727
2013-01-07,18.239999771118164
2013-01-08,18.5
2013-01-09,18.510000228881836
2013-01-10,18.209999084472656
2013-01-11,18.270000457763672
2013-01-14,19.219999313354492
2013-01-15,19.18000030517578
2013-01-16,18.729999542236328
2013-01-17,19.0
2013-01-18,19.25
2013-01-22,19.75
2013-01-23,19.729999542236328
2013-01-24,19.770000457763672
2013-01-25,19.75
2013-01-28,19.56999969482422
2013-01-29,19.56999969482422
2013-01-30,19.209999084472656
2013-01-31,19.389999389648438
2013-02-01,19.209999084472656
2013-02-04,18.989999771118164
2013-02-05,19.389999389648438
2013-02-06,19.459999084472656
2013-02-07,19.280000686645508
2013-02-08,19.510000228881836
2013-02-11,19.469999313354492
2013-02-12,19.270000457763672
2013-02-13,19.799999237060547
2013-02-14,19.489999771118164
2013-02-15,19.3799991607666
2013-02-19,20.270000457763672
2013-02-20,20.40999984741211
2013-02-21,20.260000228881836
2013-02-22,21.010000228881836
2013-02-25,20.079999923706055
2013-02-26,20.459999084472656
2013-02-27,20.920000076293945
2013-02-28,20.25
2013-03-01,20.700000762939453
2013-03-04,21.639999389648438
2013-03-05,22.489999771118164
2013-03-06,22.920000076293945
2013-03-07,23.309999465942383
2013-03-08,23.799999237060547
2013-03-11,23.790000915527344
2013-03-12,23.610000610351562
2013-03-13,24.09000015258789
2013-03-14,24.75
2013-03-15,24.729999542236328
2013-03-18,25.3799991607666
2013-03-19,25.940000534057617
2013-03-20,26.6200008392334
2013-03-21,26.520000457763672
2013-03-22,26.34000015258789
2013-03-25,25.950000762939453
2013-03-26,25.530000686645508
2013-03-27,25.3700008392334
2013-03-28,25.360000610351562
2013-04-01,24.610000610351562
2013-04-02,24.790000915527344
2013-04-03,24.84000015258789
2013-04-04,25.510000228881836
2013-04-05,25.299999237060547
2013-04-08,25.489999771118164
2013-04-09,25.06999969482422
2013-04-10,25.6200008392334
2013-04-11,25.31999969482422
2013-04-12,26.229999542236328
2013-04-15,25.360000610351562
2013-04-16,26.780000686645508
2013-04-17,26.309999465942383
2013-04-18,26.200000762939453
2013-04-19,26.56999969482422
2013-04-22,26.18000030517578
2013-04-23,26.200000762939453
2013-04-24,26.1200008392334
2013-04-25,26.030000686645508
2013-04-26,25.850000381469727
2013-04-29,25.360000610351562
2013-04-30,26.700000762939453
2013-05-01,27.389999389648438
2013-05-02,27.56999969482422
2013-05-03,27.719999313354492
2013-05-06,28.790000915527344
2013-05-07,29.010000228881836
2013-05-08,29.549999237060547
2013-05-09,29.1200008392334
2013-05-10,29.18000030517578
2013-05-13,28.290000915527344
2013-05-14,28.25
2013-05-15,28.649999618530273
2013-05-16,28.65999984741211
2013-05-17,28.5
2013-05-20,28.780000686645508
2013-05-21,29.31999969482422
2013-05-22,29.610000610351562
2013-05-23,29.790000915527344
2013-05-24,29.780000686645508
2013-05-28,30.079999923706055
2013-05-29,30.309999465942383
2013-05-30,30.479999542236328
2013-05-31,30.43000030517578
2013-06-03,30.149999618530273
2013-06-04,30.510000228881836
2013-06-05,30.15999984741211
2013-06-06,30.639999389648438
2013-06-07,31.06999969482422
2013-06-10,32.290000915527344
2013-06-11,32.16999816894531
2013-06-12,31.450000762939453
2013-06-13,32.29999923706055
2013-06-14,32.119998931884766
2013-06-17,32.56999969482422
2013-06-18,32.9900016784668
2013-06-19,33.43000030517578
2013-06-20,32.70000076293945
2013-06-21,32.599998474121094
2013-06-24,32.43000030517578
2013-06-25,30.489999771118164
2013-06-26,30.790000915527344
2013-06-27,31.25
2013-06-28,31.719999313354492
2013-07-01,32.540000915527344
2013-07-02,32.0
2013-07-03,32.02000045776367
2013-07-05,32.349998474121094
2013-07-08,32.29999923706055
2013-07-09,32.130001068115234
2013-07-10,32.709999084472656
2013-07-11,33.47999954223633
2013-07-12,33.45000076293945
2013-07-15,33.939998626708984
2013-07-16,33.56999969482422
2013-07-17,33.869998931884766
2013-07-18,34.16999816894531
2013-07-19,34.709999084472656
2013-07-22,34.83000183105469
2013-07-23,34.93000030517578
2013-07-24,35.41999816894531
2013-07-25,35.689998626708984
2013-07-26,35.56999969482422
2013-07-29,35.38999938964844
2013-07-30,32.45000076293945
2013-07-31,33.04999923706055
2013-08-01,33.47999954223633
2013-08-02,34.099998474121094
2013-08-05,34.83000183105469
2013-08-06,34.349998474121094
2013-08-07,34.099998474121094
2013-08-08,34.36000061035156
2013-08-09,34.349998474121094
2013-08-12,34.369998931884766
2013-08-13,32.689998626708984
2013-08-14,31.690000534057617
2013-08-15,30.940000534057617
2013-08-16,31.229999542236328
2013-08-19,30.270000457763672
2013-08-20,30.719999313354492
2013-08-21,30.8700008392334
2013-08-22,31.329999923706055
2013-08-23,31.59000015258789
2013-08-26,31.260000228881836
2013-08-27,30.489999771118164
2013-08-28,30.239999771118164
2013-08-29,31.520000457763672
2013-08-30,31.170000076293945
2013-09-03,31.56999969482422
2013-09-04,31.739999771118164
2013-09-05,31.56999969482422
2013-09-06,31.190000534057617
2013-09-09,31.809999465942383
2013-09-10,32.75
2013-09-11,32.959999084472656
2013-09-12,32.810001373291016
2013-09-13,33.13999938964844
2013-09-16,33.7599983215332
2013-09-17,34.18000030517578
2013-09-18,34.22999954223633
2013-09-19,34.52000045776367
2013-09-20,34.900001525878906
2013-09-23,34.630001068115234
2013-09-24,34.5
2013-09-25,34.310001373291016
2013-09-26,34.689998626708984
2013-09-27,34.400001525878906
2013-09-30,34.27000045776367
2013-10-01,35.029998779296875
2013-10-02,35.040000915527344
2013-10-03,34.959999084472656
2013-10-04,34.79999923706055
2013-10-07,34.20000076293945
2013-10-08,33.09000015258789
2013-10-09,33.150001525878906
2013-10-10,34.060001373291016
2013-10-11,39.11000061035156
2013-10-14,40.349998474121094
2013-10-15,40.400001525878906
2013-10-16,41.290000915527344
2013-10-17,43.279998779296875
2013-10-18,43.04999923706055
2013-10-21,42.66999816894531
2013-10-22,42.52000045776367
2013-10-23,41.97999954223633
2013-10-24,42.029998779296875
2013-10-25,41.90999984741211
2013-10-28,42.36000061035156
2013-10-29,43.04999923706055
2013-10-30,42.7599983215332
2013-10-31,43.150001525878906
2013-11-01,42.88999938964844
2013-11-04,44.0099983215332
2013-11-05,44.380001068115234
2013-11-06,43.619998931884766
2013-11-07,41.52000045776367
2013-11-08,43.29999923706055
2013-11-11,43.59000015258789
2013-11-12,44.02000045776367
2013-11-13,44.689998626708984
2013-11-14,44.84000015258789
2013-11-15,44.529998779296875
2013-11-18,44.29999923706055
2013-11-19,43.7599983215332
2013-11-20,43.470001220703125
2013-11-21,44.66999816894531
2013-11-22,44.619998931884766
2013-11-25,45.4900016784668
2013-11-26,45.619998931884766
2013-11-27,46.45000076293945
2013-11-29,45.869998931884766
2013-12-02,45.2400016784668
2013-12-03,44.58000183105469
2013-12-04,43.900001525878906
2013-12-05,43.810001373291016
2013-12-06,44.16999816894531
2013-12-09,45.0099983215332
2013-12-10,43.400001525878906
2013-12-11,42.380001068115234
2013-12-12,43.36000061035156
2013-12-13,43.040000915527344
2013-12-16,43.2400016784668
2013-12-17,42.91999816894531
2013-12-18,44.41999816894531
2013-12-19,44.2400016784668
2013-12-20,46.060001373291016
2013-12-23,46.13999938964844
2013-12-24,45.939998626708984
2013-12-26,46.029998779296875
2013-12-27,44.880001068115234
2013-12-30,45.150001525878906
2013-12-31,45.40999984741211
2014-01-02,45.650001525878906
2014-01-03,47.58000183105469
2014-01-06,46.0
2014-01-07,46.41999816894531
2014-01-08,46.70000076293945
2014-01-09,48.06999969482422
2014-01-10,47.91999816894531
2014-01-13,46.709999084472656
2014-01-14,47.810001373291016
2014-01-15,48.29999923706055
2014-01-16,50.0
2014-01-17,50.0
2014-01-21,49.9900016784668
2014-01-22,51.220001220703125
2014-01-23,49.970001220703125
2014-01-24,47.68000030517578
2014-01-27,46.02000045776367
2014-01-28,47.349998474121094
2014-01-29,46.060001373291016
2014-01-30,47.2599983215332
2014-01-31,46.900001525878906
2014-02-03,45.029998779296875
2014-02-04,45.29999923706055
2014-02-05,44.7599983215332
2014-02-06,45.529998779296875
2014-02-07,46.0
2014-02-10,46.33000183105469
2014-02-11,46.189998626708984
2014-02-12,46.209999084472656
2014-02-13,46.70000076293945
2014-02-14,47.060001373291016
2014-02-18,47.65999984741211
2014-02-19,50.59000015258789
2014-02-20,52.400001525878906
2014-02-21,54.290000915527344
2014-02-24,55.290000915527344
2014-02-25,54.7599983215332
2014-02-26,55.40999984741211
2014-02-27,56.189998626708984
2014-02-28,56.47999954223633
2014-03-03,57.13999938964844
2014-03-04,59.0099983215332
2014-03-05,58.86000061035156
2014-03-06,58.25
2014-03-07,57.689998626708984
2014-03-10,59.650001525878906
2014-03-11,60.5
2014-03-12,59.84000015258789
2014-03-13,59.36000061035156
2014-03-14,59.22999954223633
2014-03-17,60.880001068115234
2014-03-18,63.04999923706055
2014-03-19,62.9900016784668
2014-03-20,61.97999954223633
2014-03-21,59.79999923706055
2014-03-24,60.31999969482422
2014-03-25,61.790000915527344
2014-03-26,60.11000061035156
2014-03-27,57.630001068115234
2014-03-28,57.599998474121094
2014-03-31,59.400001525878906
2014-04-01,61.189998626708984
2014-04-02,62.06999969482422
2014-04-03,61.95000076293945
2014-04-04,58.900001525878906
2014-04-07,58.560001373291016
2014-04-08,56.619998931884766
2014-04-09,59.209999084472656
2014-04-10,58.16999816894531
2014-04-11,57.25
2014-04-14,55.61000061035156
2014-04-15,55.06999969482422
2014-04-16,56.41999816894531
2014-04-17,56.029998779296875
2014-04-21,56.81999969482422
2014-04-22,58.9900016784668
2014-04-23,59.869998931884766
2014-04-24,60.61000061035156
2014-04-25,58.650001525878906
2014-04-28,58.43000030517578
2014-04-29,56.689998626708984
2014-04-30,56.84000015258789
2014-05-01,56.9900016784668
2014-05-02,56.9900016784668
2014-05-05,55.849998474121094
2014-05-06,55.209999084472656
2014-05-07,55.97999954223633
2014-05-08,55.93000030517578
2014-05-09,55.47999954223633
2014-05-12,57.29999923706055
2014-05-13,57.2599983215332
2014-05-14,55.90999984741211
2014-05-15,55.15999984741211
2014-05-16,54.220001220703125
2014-05-19,56.31999969482422
2014-05-20,55.70000076293945
2014-05-21,56.06999969482422
2014-05-22,56.40999984741211
2014-05-23,57.4900016784668
2014-05-27,59.02000045776367
2014-05-28,59.40999984741211
2014-05-29,59.54999923706055
2014-05-30,59.08000183105469
2014-06-02,59.849998474121094
2014-06-03,60.02000045776367
2014-06-04,60.619998931884766
2014-06-05,61.83000183105469
2014-06-06,63.09000015258789
2014-06-09,62.40999984741211
2014-06-10,61.77000045776367
2014-06-11,61.459999084472656
2014-06-12,60.06999969482422
2014-06-13,61.41999816894531
2014-06-16,61.31999969482422
2014-06-17,62.40999984741211
2014-06-18,62.540000915527344
2014-06-19,63.06999969482422
2014-06-20,63.79999923706055
2014-06-23,63.5
2014-06-24,62.52000045776367
2014-06-25,62.83000183105469
2014-06-26,62.45000076293945
2014-06-27,63.0
2014-06-30,63.2400016784668
2014-07-01,64.77999877929688
2014-07-02,64.05999755859375
2014-07-03,64.37000274658203
2014-07-07,63.349998474121094
2014-07-08,62.40999984741211
2014-07-09,63.52000045776367
2014-07-10,64.31999969482422
2014-07-11,63.779998779296875
2014-07-14,64.0
2014-07-15,65.69000244140625
2014-07-16,66.51000213623047
2014-07-17,65.72000122070312
2014-07-18,67.51000213623047
2014-07-21,67.55999755859375
2014-07-22,67.5
2014-07-23,68.56999969482422
2014-07-24,67.3499984741211
2014-07-25,67.91999816894531
2014-07-28,67.72000122070312
2014-07-29,66.54000091552734
2014-07-30,67.12000274658203
2014-07-31,65.41999816894531
2014-08-01,65.55000305175781
2014-08-04,65.62999725341797
2014-08-05,64.55999755859375
2014-08-06,65.26000213623047
2014-08-07,65.0199966430664
2014-08-08,66.5
2014-08-11,67.93000030517578
2014-08-12,67.27999877929688
2014-08-13,68.95999908447266
2014-08-14,69.45999908447266
2014-08-15,69.26000213623047
2014-08-18,71.69999694824219
2014-08-19,70.5
2014-08-20,71.91000366210938
2014-08-21,71.0999984741211
2014-08-22,72.7699966430664
2014-08-25,73.30999755859375
2014-08-26,72.58000183105469
2014-08-27,71.91000366210938
2014-08-28,71.26000213623047
2014-08-29,70.38999938964844
2014-09-02,72.62000274658203
2014-09-03,72.47000122070312
2014-09-04,72.30000305175781
2014-09-05,73.19999694824219
2014-09-08,73.23999786376953
2014-09-09,71.87999725341797
2014-09-10,71.33000183105469
2014-09-11,70.56999969482422
2014-09-12,70.16999816894531
2014-09-15,68.36000061035156
2014-09-16,68.98999786376953
2014-09-17,69.26000213623047
2014-09-18,71.87999725341797
2014-09-19,71.70999908447266
2014-09-22,68.55999755859375
2014-09-23,67.0
2014-09-24,69.52999877929688
2014-09-25,69.4000015258789
2014-09-26,71.58999633789062
2014-09-29,70.27999877929688
2014-09-30,69.13999938964844
2014-10-01,66.81999969482422
2014-10-02,65.80000305175781
2014-10-03,67.37000274658203
2014-10-06,65.55000305175781
2014-10-07,63.52000045776367
2014-10-08,60.16999816894531
2014-10-09,60.189998626708984
2014-10-10,58.75
2014-10-13,53.310001373291016
2014-10-14,55.369998931884766
2014-10-15,53.970001220703125
2014-10-16,55.65999984741211
2014-10-17,56.790000915527344
2014-10-20,58.959999084472656
2014-10-21,63.20000076293945
2014-10-22,62.529998779296875
2014-10-23,63.52000045776367
2014-10-24,64.37999725341797
2014-10-27,66.37000274658203
2014-10-28,71.05999755859375
2014-10-29,71.54000091552734
2014-10-30,70.9000015258789
2014-10-31,73.11000061035156
2014-11-03,74.5
2014-11-04,76.62000274658203
2014-11-05,75.41000366210938
2014-11-06,77.80000305175781
2014-11-07,77.30999755859375
2014-11-10,79.05000305175781
2014-11-11,78.80000305175781
2014-11-12,78.36000061035156
2014-11-13,78.0999984741211
2014-11-14,76.1500015258789
2014-11-17,75.11000061035156
2014-11-18,76.33000183105469
2014-11-19,75.58000183105469
2014-11-20,75.05000305175781
2014-11-21,74.7699966430664
2014-11-24,77.29000091552734
2014-11-25,77.22000122070312
2014-11-26,78.19999694824219
2014-11-28,82.69000244140625
2014-12-01,80.7699966430664
2014-12-02,81.22000122070312
2014-12-03,81.61000061035156
2014-12-04,83.2300033569336
2014-12-05,84.25
2014-12-08,84.47000122070312
2014-12-09,73.7699966430664
2014-12-10,73.56999969482422
2014-12-11,69.0
2014-12-12,68.12000274658203
2014-12-15,68.58999633789062
2014-12-16,68.69999694824219
2014-12-17,71.80999755859375
2014-12-18,72.70999908447266
2014-12-19,75.01000213623047
2014-12-22,75.83999633789062
2014-12-23,74.16000366210938
2014-12-24,75.68000030517578
2014-12-26,75.83999633789062
2014-12-29,75.98999786376953
2014-12-30,76.43000030517578
2014-12-31,75.58000183105469
2015-01-02,74.23999786376953
2015-01-05,74.37999725341797
2015-01-06,73.18000030517578
2015-01-07,74.76000213623047
2015-01-08,75.77999877929688
2015-01-09,73.11000061035156
2015-01-12,69.63999938964844
2015-01-13,70.98999786376953
2015-01-14,70.44000244140625
2015-01-15,70.36000061035156
2015-01-16,70.94000244140625
2015-01-20,73.9000015258789
2015-01-21,74.69999694824219
2015-01-22,79.9800033569336
2015-01-23,78.38999938964844
2015-01-26,79.18000030517578
2015-01-27,78.87000274658203
2015-01-28,76.91000366210938
2015-01-29,79.80000305175781
2015-01-30,74.13999938964844
2015-02-02,75.86000061035156
2015-02-03,74.51000213623047
2015-02-04,77.30999755859375
2015-02-05,77.37999725341797
2015-02-06,77.44000244140625
2015-02-09,76.01000213623047
2015-02-10,80.05000305175781
2015-02-11,79.23999786376953
2015-02-12,80.12000274658203
2015-02-13,79.31999969482422
2015-02-17,78.29000091552734
2015-02-18,79.94999694824219
2015-02-19,80.55000305175781
2015-02-20,81.7699966430664
2015-02-23,81.0
2015-02-24,82.02999877929688
2015-02-25,79.68000030517578
2015-02-26,79.61000061035156
2015-02-27,77.77999877929688
2015-03-02,76.58999633789062
2015-03-03,76.25
2015-03-04,76.37999725341797
2015-03-05,76.31999969482422
2015-03-06,75.0999984741211
2015-03-09,74.86000061035156
2015-03-10,73.19000244140625
2015-03-11,74.36000061035156
2015-03-12,76.61000061035156
2015-03-13,76.58000183105469
2015-03-16,78.6500015258789
2015-03-17,79.51000213623047
2015-03-18,79.47000122070312
2015-03-19,79.94999694824219
2015-03-20,79.79000091552734
2015-03-23,77.70999908447266
2015-03-24,77.20999908447266
2015-03-25,74.1500015258789
2015-03-26,73.66999816894531
2015-03-27,76.63999938964844
2015-03-30,78.30000305175781
2015-03-31,77.36000061035156
2015-04-01,75.1500015258789
2015-04-02,75.70999908447266
2015-04-06,73.86000061035156
2015-04-07,74.05000305175781
2015-04-08,75.55000305175781
2015-04-09,74.58999633789062
2015-04-10,74.95999908447266
2015-04-13,75.61000061035156
2015-04-14,75.75
2015-04-15,76.55000305175781
2015-04-16,75.72000122070312
2015-04-17,75.08000183105469
2015-04-20,75.97000122070312
2015-04-21,77.05999755859375
2015-04-22,77.26000213623047
2015-04-23,76.98999786376953
2015-04-24,77.41999816894531
2015-04-27,77.3499984741211
2015-04-28,77.87999725341797
2015-04-29,70.66000366210938
2015-04-30,68.47000122070312
2015-05-01,69.48999786376953
2015-05-04,69.06999969482422
2015-05-05,66.79000091552734
2015-05-06,66.77999877929688
2015-05-07,68.08999633789062
2015-05-08,68.13999938964844
2015-05-11,68.0199966430664
2015-05-12,67.5999984741211
2015-05-13,66.81999969482422
2015-05-14,67.94999694824219
2015-05-15,67.11000061035156
2015-05-18,68.16000366210938
2015-05-19,67.0999984741211
2015-05-20,62.619998931884766
2015-05-21,62.900001525878906
2015-05-22,62.34000015258789
2015-05-26,59.97999954223633
2015-05-27,61.599998474121094
2015-05-28,61.29999923706055
2015-05-29,63.56999969482422
2015-06-01,65.36000061035156
2015-06-02,64.43000030517578
2015-06-03,65.66000366210938
2015-06-04,64.95999908447266
2015-06-05,65.37000274658203
2015-06-08,63.849998474121094
2015-06-09,62.20000076293945
2015-06-10,62.279998779296875
2015-06-11,63.099998474121094
2015-06-12,63.849998474121094
2015-06-15,63.029998779296875
2015-06-16,62.7599983215332
2015-06-17,62.41999816894531
2015-06-18,62.41999816894531
2015-06-19,62.33000183105469
2015-06-22,64.52999877929688
2015-06-23,65.37999725341797
2015-06-24,64.1500015258789
2015-06-25,63.4900016784668
2015-06-26,62.29999923706055
2015-06-29,61.279998779296875
2015-06-30,62.099998474121094
2015-07-01,61.86000061035156
2015-07-02,60.959999084472656
2015-07-06,61.0
2015-07-07,61.72999954223633
2015-07-08,60.45000076293945
2015-07-09,60.90999984741211
2015-07-10,63.279998779296875
2015-07-13,63.540000915527344
2015-07-14,58.810001373291016
2015-07-15,59.349998474121094
2015-07-16,59.470001220703125
2015-07-17,60.15999984741211
2015-07-20,60.09000015258789
2015-07-21,60.0099983215332
2015-07-22,60.04999923706055
2015-07-23,61.369998931884766
2015-07-24,60.33000183105469
2015-07-27,59.779998779296875
2015-07-28,61.20000076293945
2015-07-29,60.529998779296875
2015-07-30,59.709999084472656
2015-07-31,59.81999969482422
2015-08-03,59.959999084472656
2015-08-04,59.540000915527344
2015-08-05,61.08000183105469
2015-08-06,60.2599983215332
2015-08-07,59.08000183105469
2015-08-10,59.470001220703125
2015-08-11,61.15999984741211
2015-08-12,60.540000915527344
2015-08-13,59.959999084472656
2015-08-14,60.27000045776367
2015-08-17,62.099998474121094
2015-08-18,61.33000183105469
2015-08-19,60.63999938964844
2015-08-20,57.310001373291016
2015-08-21,55.029998779296875
2015-08-24,53.970001220703125
2015-08-25,51.540000915527344
2015-08-26,51.08000183105469
2015-08-27,51.150001525878906
2015-08-28,50.63999938964844
2015-08-31,51.25
2015-09-01,50.40999984741211
2015-09-02,51.779998779296875
2015-09-03,50.81999969482422
2015-09-04,51.20000076293945
2015-09-08,51.13999938964844
2015-09-09,50.58000183105469
2015-09-10,49.5
2015-09-11,48.790000915527344
2015-09-14,48.61000061035156
2015-09-15,49.18000030517578
2015-09-16,49.209999084472656
2015-09-17,52.4900016784668
2015-09-18,50.70000076293945
2015-09-21,50.7599983215332
2015-09-22,49.5
2015-09-23,49.189998626708984
2015-09-24,48.290000915527344
2015-09-25,48.720001220703125
2015-09-28,47.290000915527344
2015-09-29,46.95000076293945
2015-09-30,47.29999923706055
2015-10-01,47.27000045776367
2015-10-02,47.70000076293945
2015-10-05,48.720001220703125
2015-10-06,47.40999984741211
2015-10-07,48.61000061035156
2015-10-08,48.79999923706055
2015-10-09,50.79999923706055
2015-10-12,50.11000061035156
2015-10-13,49.47999954223633
2015-10-14,50.15999984741211
2015-10-15,50.060001373291016
2015-10-16,42.380001068115234
2015-10-19,43.08000183105469
2015-10-20,43.959999084472656
2015-10-21,43.380001068115234
2015-10-22,43.040000915527344
2015-10-23,39.790000915527344
2015-10-26,37.869998931884766
2015-10-27,34.65999984741211
2015-10-28,34.63999938964844
2015-10-29,37.130001068115234
2015-10-30,37.119998931884766
2015-11-02,35.22999954223633
2015-11-03,35.36000061035156
2015-11-04,34.650001525878906
2015-11-05,35.959999084472656
2015-11-06,36.560001373291016
2015-11-09,36.02000045776367
2015-11-10,35.220001220703125
2015-11-11,34.650001525878906
2015-11-12,34.29999923706055
2015-11-13,33.77000045776367
2015-11-16,33.56999969482422
2015-11-17,35.2599983215332
2015-11-18,35.84000015258789
2015-11-19,36.83000183105469
2015-11-20,36.15999984741211
2015-11-23,36.7599983215332
2015-11-24,35.630001068115234
2015-11-25,36.0099983215332
2015-11-27,36.20000076293945
2015-11-30,36.77000045776367
2015-12-01,38.400001525878906
2015-12-02,40.43000030517578
2015-12-03,41.59000015258789
2015-12-04,43.0099983215332
2015-12-07,42.66999816894531
2015-12-08,40.7400016784668
2015-12-09,41.22999954223633
2015-12-10,42.380001068115234
2015-12-11,41.59000015258789
2015-12-14,41.86000061035156
2015-12-15,43.099998474121094
2015-12-16,41.470001220703125
2015-12-17,40.43000030517578
2015-12-18,40.40999984741211
2015-12-21,41.119998931884766
2015-12-22,42.349998474121094
2015-12-23,42.33000183105469
2015-12-24,43.33000183105469
2015-12-28,42.20000076293945
2015-12-29,42.459999084472656
2015-12-30,41.13999938964844
2015-12-31,39.849998474121094
2016-01-04,39.18000030517578
2016-01-05,41.5
2016-01-06,41.27000045776367
2016-01-07,40.06999969482422
2016-01-08,38.540000915527344
2016-01-11,37.86000061035156
2016-01-12,38.88999938964844
2016-01-13,36.529998779296875
2016-01-14,39.0
2016-01-15,38.58000183105469
2016-01-19,37.900001525878906
2016-01-20,42.0
2016-01-21,44.459999084472656
2016-01-22,43.400001525878906
2016-01-25,41.540000915527344
2016-01-26,42.31999969482422
2016-01-27,41.060001373291016
2016-01-28,39.5
2016-01-29,41.79999923706055
2016-02-01,44.72999954223633
2016-02-02,42.459999084472656
2016-02-03,43.61000061035156
2016-02-04,45.400001525878906
2016-02-05,42.43000030517578
2016-02-08,40.380001068115234
2016-02-09,42.72999954223633
2016-02-10,43.15999984741211
2016-02-11,42.650001525878906
2016-02-12,44.43000030517578
2016-02-16,46.02000045776367
2016-02-17,46.790000915527344
2016-02-18,46.75
2016-02-19,46.869998931884766
2016-02-22,47.540000915527344
2016-02-23,46.689998626708984
2016-02-24,47.029998779296875
2016-02-25,47.5
2016-02-26,48.06999969482422
2016-02-29,47.75
2016-03-01,49.0099983215332
2016-03-02,49.91999816894531
2016-03-03,50.13999938964844
2016-03-04,49.7400016784668
2016-03-07,49.66999816894531
2016-03-08,47.439998626708984
2016-03-09,47.099998474121094
2016-03-10,47.970001220703125
2016-03-11,47.709999084472656
2016-03-14,47.150001525878906
2016-03-15,46.689998626708984
2016-03-16,47.70000076293945
2016-03-17,47.869998931884766
2016-03-18,49.31999969482422
2016-03-21,48.95000076293945
2016-03-22,47.54999923706055
2016-03-23,47.09000015258789
2016-03-24,47.279998779296875
2016-03-28,47.15999984741211
2016-03-29,48.45000076293945
2016-03-30,48.33000183105469
2016-03-31,47.97999954223633
2016-04-01,47.0
2016-04-04,48.41999816894531
2016-04-05,46.709999084472656
2016-04-06,46.2599983215332
2016-04-07,45.90999984741211
2016-04-08,46.720001220703125
2016-04-11,45.88999938964844
2016-04-12,45.59000015258789
2016-04-13,48.0
2016-04-14,49.13999938964844
2016-04-15,50.11000061035156
2016-04-18,50.04999923706055
2016-04-19,52.959999084472656
2016-04-20,51.38999938964844
2016-04-21,50.349998474121094
2016-04-22,49.70000076293945
2016-04-25,49.58000183105469
2016-04-26,47.43000030517578
2016-04-27,46.2400016784668
2016-04-28,44.66999816894531
2016-04-29,43.93000030517578
2016-05-02,43.81999969482422
2016-05-03,43.150001525878906
2016-05-04,41.349998474121094
2016-05-05,41.88999938964844
2016-05-06,41.08000183105469
2016-05-09,40.84000015258789
2016-05-10,41.630001068115234
2016-05-11,40.61000061035156
2016-05-12,39.369998931884766
2016-05-13,40.029998779296875
2016-05-16,40.86000061035156
2016-05-17,41.75
2016-05-18,41.95000076293945
2016-05-19,41.81999969482422
2016-05-20,42.31999969482422
2016-05-23,41.720001220703125
2016-05-24,42.63999938964844
2016-05-25,42.790000915527344
2016-05-26,42.689998626708984
2016-05-27,43.540000915527344
2016-05-31,43.470001220703125
2016-06-01,43.41999816894531
2016-06-02,43.77000045776367
2016-06-03,42.939998626708984
2016-06-06,42.81999969482422
2016-06-07,44.20000076293945
2016-06-08,45.4900016784668
2016-06-09,46.779998779296875
2016-06-10,45.810001373291016
2016-06-13,44.29999923706055
2016-06-14,42.7599983215332
2016-06-15,42.939998626708984
2016-06-16,42.33000183105469
2016-06-17,42.47999954223633
2016-06-20,43.849998474121094
2016-06-21,43.56999969482422
2016-06-22,43.97999954223633
2016-06-23,43.88999938964844
2016-06-24,42.290000915527344
2016-06-27,41.310001373291016
2016-06-28,42.16999816894531
2016-06-29,44.09000015258789
2016-06-30,44.869998931884766
2016-07-01,46.060001373291016
2016-07-05,44.310001373291016
2016-07-06,43.63999938964844
2016-07-07,45.18000030517578
2016-07-08,46.029998779296875
2016-07-11,46.959999084472656
2016-07-12,48.93000030517578
2016-07-13,47.540000915527344
2016-07-14,47.54999923706055
2016-07-15,47.459999084472656
2016-07-18,47.810001373291016
2016-07-19,44.88999938964844
2016-07-20,43.810001373291016
2016-07-21,42.25
2016-07-22,43.7599983215332
2016-07-25,42.93000030517578
2016-07-26,44.0099983215332
2016-07-27,43.72999954223633
2016-07-28,42.54999923706055
2016-07-29,42.75
2016-08-01,41.59000015258789
2016-08-02,39.540000915527344
2016-08-03,39.529998779296875
2016-08-04,40.43000030517578
2016-08-05,40.90999984741211
2016-08-08,40.709999084472656
2016-08-09,40.650001525878906
2016-08-10,40.4900016784668
2016-08-11,40.439998626708984
2016-08-12,39.97999954223633
2016-08-15,40.27000045776367
2016-08-16,39.95000076293945
2016-08-17,40.04999923706055
2016-08-18,40.09000015258789
2016-08-19,39.75
2016-08-22,39.79999923706055
2016-08-23,39.900001525878906
2016-08-24,39.970001220703125
2016-08-25,39.790000915527344
2016-08-26,39.279998779296875
2016-08-29,39.38999938964844
2016-08-30,39.959999084472656
2016-08-31,39.9900016784668
2016-09-01,39.529998779296875
2016-09-02,39.810001373291016
2016-09-06,39.939998626708984
2016-09-07,40.81999969482422
2016-09-08,40.38999938964844
2016-09-09,38.36000061035156
2016-09-12,39.209999084472656
2016-09-13,38.40999984741211
2016-09-14,37.97999954223633
2016-09-15,37.880001068115234
2016-09-16,37.22999954223633
2016-09-19,37.439998626708984
2016-09-20,37.90999984741211
2016-09-21,38.25
2016-09-22,38.5
2016-09-23,39.720001220703125
2016-09-26,41.130001068115234
2016-09-27,41.95000076293945
2016-09-28,41.880001068115234
2016-09-29,41.65999984741211
2016-09-30,42.529998779296875
2016-10-03,43.7400016784668
2016-10-04,43.63999938964844
2016-10-05,43.15999984741211
2016-10-06,42.9900016784668
2016-10-07,42.2400016784668
2016-10-10,42.880001068115234
2016-10-11,42.119998931884766
2016-10-12,42.16999816894531
2016-10-13,43.58000183105469
2016-10-14,43.779998779296875
2016-10-17,43.81999969482422
2016-10-18,45.20000076293945
2016-10-19,47.0099983215332
2016-10-20,47.5
2016-10-21,47.5099983215332
2016-10-24,46.84000015258789
2016-10-25,48.65999984741211
2016-10-26,48.09000015258789
2016-10-27,48.2400016784668
2016-10-28,48.04999923706055
2016-10-31,47.93000030517578
2016-11-01,47.81999969482422
2016-11-02,47.060001373291016
2016-11-03,46.97999954223633
2016-11-04,47.02000045776367
2016-11-07,47.630001068115234
2016-11-08,48.2400016784668
2016-11-09,49.630001068115234
2016-11-10,51.47999954223633
2016-11-11,51.900001525878906
2016-11-14,53.38999938964844
2016-11-15,52.880001068115234
2016-11-16,53.310001373291016
2016-11-17,53.869998931884766
2016-11-18,53.7400016784668
2016-11-21,52.900001525878906
2016-11-22,53.599998474121094
2016-11-23,54.29999923706055
2016-11-25,54.220001220703125
2016-11-28,53.540000915527344
2016-11-29,54.52000045776367
2016-11-30,55.599998474121094
2016-12-01,55.209999084472656
2016-12-02,56.25
2016-12-05,55.599998474121094
2016-12-06,57.0
2016-12-07,58.75
2016-12-08,58.70000076293945
2016-12-09,59.060001373291016
2016-12-12,56.97999954223633
2016-12-13,57.58000183105469
2016-12-14,57.310001373291016
2016-12-15,59.2400016784668
2016-12-16,57.400001525878906
2016-12-19,57.849998474121094
2016-12-20,59.150001525878906
2016-12-21,59.5
2016-12-22,58.5099983215332
2016-12-23,58.779998779296875
2016-12-27,58.5099983215332
2016-12-28,57.720001220703125
2016-12-29,57.40999984741211
2016-12-30,57.86000061035156
2017-01-03,57.09000015258789
2017-01-04,58.099998474121094
2017-01-05,58.06999969482422
2017-01-06,56.27000045776367
2017-01-09,56.130001068115234
2017-01-10,58.04999923706055
2017-01-11,56.08000183105469
2017-01-12,56.31999969482422
2017-01-13,56.58000183105469
2017-01-17,55.220001220703125
2017-01-18,56.400001525878906
2017-01-19,55.810001373291016
2017-01-20,56.68000030517578
2017-01-23,55.81999969482422
2017-01-24,55.5
2017-01-25,56.08000183105469
2017-01-26,57.0099983215332
2017-01-27,54.25
2017-01-30,53.77000045776367
2017-01-31,54.040000915527344
2017-02-01,53.880001068115234
2017-02-02,53.29999923706055
2017-02-03,54.939998626708984
2017-02-06,55.65999984741211
2017-02-07,54.04999923706055
2017-02-08,52.66999816894531
2017-02-09,53.7400016784668
2017-02-10,53.880001068115234
2017-02-13,54.36000061035156
2017-02-14,53.08000183105469
2017-02-15,53.2400016784668
2017-02-16,52.349998474121094
2017-02-17,51.380001068115234
2017-02-21,51.7400016784668
2017-02-22,51.650001525878906
2017-02-23,51.43000030517578
2017-02-24,51.91999816894531
2017-02-27,53.15999984741211
2017-02-28,52.209999084472656
2017-03-01,53.79999923706055
2017-03-02,51.150001525878906
2017-03-03,52.619998931884766
2017-03-06,52.77000045776367
2017-03-07,51.40999984741211
2017-03-08,52.18000030517578
2017-03-09,51.52000045776367
2017-03-10,52.0099983215332
2017-03-13,51.25
2017-03-14,49.529998779296875
2017-03-15,50.83000183105469
2017-03-16,51.11000061035156
2017-03-17,50.90999984741211
2017-03-20,51.099998474121094
2017-03-21,50.09000015258789
2017-03-22,50.47999954223633
2017-03-23,50.29999923706055
2017-03-24,50.70000076293945
2017-03-27,50.97999954223633
2017-03-28,52.02000045776367
2017-03-29,51.529998779296875
2017-03-30,52.189998626708984
2017-03-31,53.06999969482422
2017-04-03,53.15999984741211
2017-04-04,51.40999984741211
2017-04-05,50.900001525878906
2017-04-06,51.75
2017-04-07,51.849998474121094
2017-04-10,51.810001373291016
2017-04-11,52.650001525878906
2017-04-12,54.029998779296875
2017-04-13,53.5099983215332
2017-04-17,53.83000183105469
2017-04-18,56.220001220703125
2017-04-19,57.720001220703125
2017-04-20,58.5
2017-04-21,58.459999084472656
2017-04-24,58.0
2017-04-25,57.869998931884766
2017-04-26,57.95000076293945
2017-04-27,57.529998779296875
2017-04-28,57.27000045776367
2017-05-01,57.599998474121094
2017-05-02,59.5099983215332
2017-05-03,59.7400016784668
2017-05-04,59.279998779296875
2017-05-05,59.189998626708984
2017-05-08,57.43000030517578
2017-05-09,56.11000061035156
2017-05-10,55.77000045776367
2017-05-11,55.31999969482422
2017-05-12,55.09000015258789
2017-05-15,55.47999954223633
2017-05-16,54.97999954223633
2017-05-17,53.630001068115234
2017-05-18,53.7599983215332
2017-05-19,53.81999969482422
2017-05-22,53.0
2017-05-23,53.119998931884766
2017-05-24,52.06999969482422
2017-05-25,54.150001525878906
2017-05-26,54.2599983215332
2017-05-30,53.119998931884766
2017-05-31,53.099998474121094
2017-06-01,54.36000061035156
2017-06-02,55.83000183105469
2017-06-05,56.31999969482422
2017-06-06,56.41999816894531
2017-06-07,55.40999984741211
2017-06-08,55.849998474121094
2017-06-09,54.779998779296875
2017-06-12,54.20000076293945
2017-06-13,54.209999084472656
2017-06-14,53.900001525878906
2017-06-15,52.83000183105469
2017-06-16,52.709999084472656
2017-06-19,53.95000076293945
2017-06-20,52.95000076293945
2017-06-21,52.810001373291016
2017-06-22,52.529998779296875
2017-06-23,52.54999923706055
2017-06-26,52.34000015258789
2017-06-27,52.58000183105469
2017-06-28,52.369998931884766
2017-06-29,52.09000015258789
2017-06-30,51.650001525878906
2017-07-03,51.04999923706055
2017-07-05,51.75
2017-07-06,51.2599983215332
2017-07-07,53.459999084472656
2017-07-10,52.18000030517578
2017-07-11,52.279998779296875
2017-07-12,53.0099983215332
2017-07-13,53.220001220703125
2017-07-14,53.16999816894531
2017-07-17,53.400001525878906
2017-07-18,52.060001373291016
2017-07-19,51.95000076293945
2017-07-20,50.56999969482422
2017-07-21,50.119998931884766
2017-07-24,49.02000045776367
2017-07-25,48.65999984741211
2017-07-26,48.849998474121094
2017-07-27,40.06999969482422
2017-07-28,39.709999084472656
2017-07-31,38.849998474121094
2017-08-01,40.790000915527344
2017-08-02,40.599998474121094
2017-08-03,39.279998779296875
2017-08-04,39.04999923706055
2017-08-07,38.400001525878906
2017-08-08,38.08000183105469
2017-08-09,38.0
2017-08-10,37.61000061035156
2017-08-11,38.25
2017-08-14,38.220001220703125
2017-08-15,37.869998931884766
2017-08-16,38.279998779296875
2017-08-17,36.810001373291016
2017-08-18,36.70000076293945
2017-08-21,36.540000915527344
2017-08-22,35.849998474121094
2017-08-23,34.75
2017-08-24,34.34000015258789
2017-08-25,35.779998779296875
2017-08-28,35.7599983215332
2017-08-29,35.4900016784668
2017-08-30,34.459999084472656
2017-08-31,34.04999923706055
2017-09-01,34.029998779296875
2017-09-05,32.5099983215332
2017-09-06,32.09000015258789
2017-09-07,32.31999969482422
2017-09-08,33.099998474121094
2017-09-11,34.630001068115234
2017-09-12,34.88999938964844
2017-09-13,34.90999984741211
2017-09-14,34.83000183105469
2017-09-15,33.689998626708984
2017-09-18,32.95000076293945
2017-09-19,32.630001068115234
2017-09-20,32.70000076293945
2017-09-21,34.0099983215332
2017-09-22,33.709999084472656
2017-09-25,34.150001525878906
2017-09-26,33.66999816894531
2017-09-27,33.5
2017-09-28,33.529998779296875
2017-09-29,33.40999984741211
2017-10-02,33.66999816894531
2017-10-03,36.060001373291016
2017-10-04,35.560001373291016
2017-10-05,35.189998626708984
2017-10-06,35.2400016784668
2017-10-09,35.02000045776367
2017-10-10,35.0
2017-10-11,34.650001525878906
2017-10-12,33.84000015258789
2017-10-13,33.79999923706055
2017-10-16,33.470001220703125
2017-10-17,34.869998931884766
2017-10-18,34.83000183105469
2017-10-19,33.68000030517578
2017-10-20,33.810001373291016
2017-10-23,34.11000061035156
2017-10-24,34.40999984741211
2017-10-25,33.7400016784668
2017-10-26,36.08000183105469
2017-10-27,36.939998626708984
2017-10-30,36.91999816894531
2017-10-31,37.09000015258789
2017-11-01,36.63999938964844
2017-11-02,35.52000045776367
2017-11-03,36.130001068115234
2017-11-06,36.290000915527344
2017-11-07,35.04999923706055
2017-11-08,34.790000915527344
2017-11-09,34.95000076293945
2017-11-10,35.81999969482422
2017-11-13,35.279998779296875
2017-11-14,36.2599983215332
2017-11-15,37.2400016784668
2017-11-16,37.15999984741211
2017-11-17,36.38999938964844
2017-11-20,36.349998474121094
2017-11-21,37.38999938964844
2017-11-22,37.599998474121094
2017-11-24,38.16999816894531
2017-11-27,38.08000183105469
2017-11-28,39.119998931884766
2017-11-29,40.86000061035156
2017-11-30,42.630001068115234
2017-12-01,42.619998931884766
2017-12-04,43.40999984741211
2017-12-05,42.869998931884766
2017-12-06,42.20000076293945
2017-12-07,42.88999938964844
2017-12-08,43.63999938964844
2017-12-11,42.88999938964844
2017-12-12,43.33000183105469
2017-12-13,43.29999923706055
2017-12-14,42.84000015258789
2017-12-15,43.189998626708984
2017-12-18,44.869998931884766
2017-12-19,44.220001220703125
2017-12-20,44.4900016784668
2017-12-21,45.20000076293945
2017-12-22,45.220001220703125
2017-12-26,45.29999923706055
2017-12-27,44.9900016784668
2017-12-28,45.290000915527344
2017-12-29,44.849998474121094
2018-01-02,45.599998474121094
2018-01-03,44.13999938964844
2018-01-04,43.5
2018-01-05,43.630001068115234
2018-01-08,43.22999954223633
2018-01-09,43.59000015258789
2018-01-10,44.90999984741211
2018-01-11,47.56999969482422
2018-01-12,48.2599983215332
2018-01-16,46.209999084472656
2018-01-17,44.88999938964844
2018-01-18,44.959999084472656
2018-01-19,45.189998626708984
2018-01-22,43.33000183105469
2018-01-23,44.59000015258789
2018-01-24,41.529998779296875
2018-01-25,40.18000030517578
2018-01-26,41.47999954223633
2018-01-29,41.41999816894531
2018-01-30,41.83000183105469
2018-01-31,42.119998931884766
2018-02-01,42.02000045776367
2018-02-02,41.06999969482422
2018-02-05,39.880001068115234
2018-02-06,40.41999816894531
2018-02-07,40.29999923706055
2018-02-08,39.060001373291016
2018-02-09,39.25
2018-02-12,39.90999984741211
2018-02-13,39.09000015258789
2018-02-14,39.52000045776367
2018-02-15,39.63999938964844
2018-02-16,39.720001220703125
2018-02-20,38.900001525878906
2018-02-21,39.90999984741211
2018-02-22,39.47999954223633
2018-02-23,39.4900016784668
2018-02-26,40.08000183105469
2018-02-27,38.75
2018-02-28,39.84000015258789
2018-03-01,40.5
2018-03-02,41.849998474121094
2018-03-05,41.720001220703125
2018-03-06,42.15999984741211
2018-03-07,41.91999816894531
2018-03-08,42.970001220703125
2018-03-09,43.0
2018-03-12,43.279998779296875
2018-03-13,45.09000015258789
2018-03-14,44.41999816894531
2018-03-15,44.279998779296875
2018-03-16,45.119998931884766
2018-03-19,44.439998626708984
2018-03-20,44.81999969482422
2018-03-21,43.189998626708984
2018-03-22,41.27000045776367
2018-03-23,39.959999084472656
2018-03-26,38.27000045776367
2018-03-27,37.189998626708984
2018-03-28,36.9900016784668
2018-03-29,37.779998779296875
2018-04-02,36.349998474121094
2018-04-03,37.220001220703125
2018-04-04,37.70000076293945
2018-04-05,38.29999923706055
2018-04-06,37.7400016784668
2018-04-09,35.75
2018-04-10,35.25
2018-04-11,35.75
2018-04-12,36.290000915527344
2018-04-13,36.150001525878906
2018-04-16,37.09000015258789
2018-04-17,36.84000015258789
2018-04-18,38.2400016784668
2018-04-19,38.0
2018-04-20,38.43000030517578
2018-04-23,38.81999969482422
2018-04-24,38.2400016784668
2018-04-25,37.630001068115234
2018-04-26,35.400001525878906
2018-04-27,35.4900016784668
2018-04-30,35.720001220703125
2018-05-01,36.369998931884766
2018-05-02,35.72999954223633
2018-05-03,34.97999954223633
2018-05-04,36.38999938964844
2018-05-07,36.7400016784668
2018-05-08,36.77000045776367
2018-05-09,35.900001525878906
2018-05-10,36.33000183105469
2018-05-11,36.630001068115234
2018-05-14,35.959999084472656
2018-05-15,36.09000015258789
2018-05-16,36.939998626708984
2018-05-17,37.130001068115234
2018-05-18,37.150001525878906
2018-05-21,37.369998931884766
2018-05-22,36.38999938964844
2018-05-23,36.38999938964844
2018-05-24,36.68000030517578
2018-05-25,38.029998779296875
2018-05-29,37.310001373291016
2018-05-30,36.77000045776367
2018-05-31,36.689998626708984
2018-06-01,37.040000915527344
2018-06-04,37.90999984741211
2018-06-05,36.959999084472656
2018-06-06,37.209999084472656
2018-06-07,37.18000030517578
2018-06-08,37.04999923706055
2018-06-11,37.83000183105469
2018-06-12,37.63999938964844
2018-06-13,37.439998626708984
2018-06-14,38.16999816894531
2018-06-15,39.61000061035156
2018-06-18,39.41999816894531
2018-06-19,38.54999923706055
2018-06-20,38.790000915527344
2018-06-21,38.630001068115234
2018-06-22,38.599998474121094
2018-06-25,36.33000183105469
2018-06-26,35.59000015258789
2018-06-27,35.400001525878906
2018-06-28,35.369998931884766
2018-06-29,36.349998474121094
2018-07-02,37.119998931884766
2018-07-03,37.060001373291016
2018-07-05,37.5
2018-07-06,37.65999984741211
2018-07-09,37.880001068115234
2018-07-10,37.400001525878906
2018-07-11,36.130001068115234
2018-07-12,39.83000183105469
2018-07-13,41.02000045776367
2018-07-16,39.040000915527344
2018-07-17,40.060001373291016
2018-07-18,41.0099983215332
2018-07-19,40.4900016784668
2018-07-20,40.279998779296875
2018-07-23,41.63999938964844
2018-07-24,40.56999969482422
2018-07-25,41.40999984741211
2018-07-26,42.849998474121094
2018-07-27,42.939998626708984
2018-07-30,42.689998626708984
2018-07-31,43.439998626708984
2018-08-01,42.66999816894531
2018-08-02,43.11000061035156
2018-08-03,42.599998474121094
2018-08-06,43.310001373291016
2018-08-07,43.33000183105469
2018-08-08,43.880001068115234
2018-08-09,43.849998474121094
2018-08-10,43.939998626708984
2018-08-13,43.79999923706055
2018-08-14,44.54999923706055
2018-08-15,44.56999969482422
2018-08-16,43.900001525878906
2018-08-17,44.70000076293945
2018-08-20,45.86000061035156
2018-08-21,46.650001525878906
2018-08-22,45.20000076293945
2018-08-23,45.88999938964844
2018-08-24,45.650001525878906
2018-08-27,46.08000183105469
2018-08-28,47.220001220703125
2018-08-29,47.52000045776367
2018-08-30,47.54999923706055
2018-08-31,47.52000045776367
2018-09-04,47.849998474121094
2018-09-05,47.5099983215332
2018-09-06,47.5
2018-09-07,47.59000015258789
2018-09-10,48.27000045776367
2018-09-11,48.470001220703125
2018-09-12,48.790000915527344
2018-09-13,49.09000015258789
2018-09-14,49.20000076293945
2018-09-17,49.27000045776367
2018-09-18,48.33000183105469
2018-09-19,49.0099983215332
2018-09-20,48.47999954223633
2018-09-21,48.290000915527344
2018-09-24,46.45000076293945
2018-09-25,46.83000183105469
2018-09-26,47.27000045776367
2018-09-27,47.58000183105469
2018-09-28,46.970001220703125
2018-10-01,45.540000915527344
2018-10-02,44.540000915527344
2018-10-03,44.849998474121094
2018-10-04,44.43000030517578
2018-10-05,44.38999938964844
2018-10-08,43.95000076293945
2018-10-09,43.83000183105469
2018-10-10,44.90999984741211
2018-10-11,46.5
2018-10-12,47.06999969482422
2018-10-15,48.9900016784668
2018-10-16,50.369998931884766
2018-10-17,50.970001220703125
2018-10-18,49.79999923706055
2018-10-19,50.779998779296875
2018-10-22,51.029998779296875
2018-10-23,50.59000015258789
2018-10-24,47.689998626708984
2018-10-25,53.22999954223633
2018-10-26,52.52000045776367
2018-10-29,52.09000015258789
2018-10-30,52.7599983215332
2018-10-31,51.900001525878906
2018-11-01,52.380001068115234
2018-11-02,53.689998626708984
2018-11-05,53.90999984741211
2018-11-06,53.630001068115234
2018-11-07,53.400001525878906
2018-11-08,53.33000183105469
2018-11-09,52.9900016784668
2018-11-12,52.959999084472656
2018-11-13,53.40999984741211
2018-11-14,52.75
2018-11-15,53.099998474121094
2018-11-16,52.439998626708984
2018-11-19,51.189998626708984
2018-11-20,49.13999938964844
2018-11-21,50.849998474121094
2018-11-23,51.560001373291016
2018-11-26,50.97999954223633
2018-11-27,58.7599983215332
2018-11-28,62.43000030517578
2018-11-29,62.0
2018-11-30,64.12000274658203
2018-12-03,64.55999755859375
2018-12-04,63.130001068115234
2018-12-06,64.58999633789062
2018-12-07,59.66999816894531
2018-12-10,60.41999816894531
2018-12-11,61.43000030517578
2018-12-12,60.970001220703125
2018-12-13,60.65999984741211
2018-12-14,59.0099983215332
2018-12-17,58.13999938964844
2018-12-18,58.54999923706055
2018-12-19,57.790000915527344
2018-12-20,56.0099983215332
2018-12-21,54.790000915527344
2018-12-24,54.279998779296875
2018-12-26,57.7599983215332
2018-12-27,57.099998474121094
2018-12-28,57.52000045776367
2018-12-31,57.91999816894531
2019-01-02,57.84000015258789
2019-01-03,53.959999084472656
2019-01-04,56.099998474121094
2019-01-07,57.66999816894531
2019-01-08,57.060001373291016
2019-01-09,59.45000076293945
2019-01-10,60.75
2019-01-11,60.11000061035156
2019-01-14,58.83000183105469
2019-01-15,58.560001373291016
2019-01-16,60.7599983215332
2019-01-17,60.310001373291016
2019-01-18,59.36000061035156
2019-01-22,58.060001373291016
2019-01-23,57.41999816894531
2019-01-24,57.459999084472656
2019-01-25,57.959999084472656
2019-01-28,58.4900016784668
2019-01-29,57.63999938964844
2019-01-30,59.43000030517578
2019-01-31,58.81999969482422
2019-02-01,61.130001068115234
2019-02-04,62.779998779296875
2019-02-05,62.95000076293945
2019-02-06,60.900001525878906
2019-02-07,62.709999084472656
2019-02-08,61.439998626708984
2019-02-11,63.060001373291016
2019-02-12,61.650001525878906
2019-02-13,60.93000030517578
2019-02-14,61.41999816894531
2019-02-15,61.66999816894531
2019-02-19,62.34000015258789
2019-02-20,58.0099983215332
2019-02-21,59.58000183105469
2019-02-22,60.119998931884766
2019-02-25,60.59000015258789
2019-02-26,61.0099983215332
2019-02-27,58.56999969482422
2019-02-28,56.25
2019-03-01,56.61000061035156
2019-03-04,57.060001373291016
2019-03-05,56.209999084472656
2019-03-06,53.29999923706055
2019-03-07,52.790000915527344
2019-03-08,51.68000030517578
2019-03-11,53.06999969482422
2019-03-12,52.810001373291016
2019-03-13,54.77000045776367
2019-03-14,55.150001525878906
2019-03-15,54.20000076293945
2019-03-18,52.849998474121094
2019-03-19,53.70000076293945
2019-03-20,52.599998474121094
2019-03-21,53.9900016784668
2019-03-22,53.04999923706055
2019-03-25,51.54999923706055
2019-03-26,52.45000076293945
2019-03-27,53.209999084472656
2019-03-28,51.75
2019-03-29,52.86000061035156
2019-04-01,53.22999954223633
2019-04-02,53.81999969482422
2019-04-03,54.279998779296875
2019-04-04,54.29999923706055
2019-04-05,54.439998626708984
2019-04-08,54.70000076293945
2019-04-09,54.810001373291016
2019-04-10,56.84000015258789
2019-04-11,56.91999816894531
2019-04-12,56.220001220703125
2019-04-15,55.16999816894531
2019-04-16,54.97999954223633
2019-04-17,55.560001373291016
2019-04-18,56.189998626708984
2019-04-22,55.650001525878906
2019-04-23,57.4900016784668
2019-04-24,58.29999923706055
2019-04-25,52.880001068115234
2019-04-26,52.70000076293945
2019-04-29,53.790000915527344
2019-04-30,54.380001068115234
2019-05-01,52.560001373291016
2019-05-02,52.52000045776367
2019-05-03,52.5
2019-05-06,51.560001373291016
2019-05-07,50.77000045776367
2019-05-08,49.900001525878906
2019-05-09,49.41999816894531
2019-05-10,49.65999984741211
2019-05-13,47.810001373291016
2019-05-14,48.209999084472656
2019-05-15,48.470001220703125
2019-05-16,48.529998779296875
2019-05-17,47.63999938964844
2019-05-20,47.029998779296875
2019-05-21,48.77000045776367
2019-05-22,47.939998626708984
2019-05-23,48.29999923706055
2019-05-24,47.20000076293945
2019-05-28,46.900001525878906
2019-05-29,46.7599983215332
2019-05-30,47.02000045776367
2019-05-31,46.08000183105469
2019-06-03,47.220001220703125
2019-06-04,49.33000183105469
2019-06-05,50.43000030517578
2019-06-06,49.939998626708984
2019-06-07,49.119998931884766
2019-06-10,49.060001373291016
2019-06-11,49.66999816894531
2019-06-12,49.68000030517578
2019-06-13,51.400001525878906
2019-06-14,50.31999969482422
2019-06-17,49.9900016784668
2019-06-18,50.560001373291016
2019-06-19,49.630001068115234
2019-06-20,48.68000030517578
2019-06-21,47.7400016784668
2019-06-24,47.58000183105469
2019-06-25,46.959999084472656
2019-06-26,45.95000076293945
2019-06-27,46.95000076293945
2019-06-28,47.72999954223633
2019-07-01,48.939998626708984
2019-07-02,48.900001525878906
2019-07-03,50.470001220703125
2019-07-05,50.869998931884766
2019-07-08,51.689998626708984
2019-07-09,50.77000045776367
2019-07-10,51.40999984741211
2019-07-11,52.220001220703125
2019-07-12,50.810001373291016
2019-07-15,50.90999984741211
2019-07-16,51.41999816894531
2019-07-17,50.650001525878906
2019-07-18,51.279998779296875
2019-07-19,50.88999938964844
2019-07-22,52.380001068115234
2019-07-23,53.720001220703125
2019-07-24,55.04999923706055
2019-07-25,42.0099983215332
2019-07-26,43.560001373291016
2019-07-29,42.369998931884766
2019-07-30,42.189998626708984
2019-07-31,42.43000030517578
2019-08-01,42.369998931884766
2019-08-02,42.11000061035156
2019-08-05,41.36000061035156
2019-08-06,41.29999923706055
2019-08-07,40.79999923706055
2019-08-08,40.83000183105469
2019-08-09,39.970001220703125
2019-08-12,39.0099983215332
2019-08-13,38.939998626708984
2019-08-14,37.470001220703125
2019-08-15,37.310001373291016
2019-08-16,38.400001525878906
2019-08-19,38.59000015258789
2019-08-20,38.599998474121094
2019-08-21,38.52000045776367
2019-08-22,38.79999923706055
2019-08-23,37.72999954223633
2019-08-26,37.54999923706055
2019-08-27,36.029998779296875
2019-08-28,36.97999954223633
2019-08-29,37.810001373291016
2019-08-30,37.540000915527344
2019-09-03,36.09000015258789
2019-09-04,36.130001068115234
2019-09-05,37.31999969482422
2019-09-06,37.060001373291016
2019-09-09,36.13999938964844
2019-09-10,37.880001068115234
2019-09-11,38.75
2019-09-12,38.27000045776367
2019-09-13,38.7599983215332
2019-09-16,38.380001068115234
2019-09-17,38.689998626708984
2019-09-18,38.290000915527344
2019-09-19,37.91999816894531
2019-09-20,38.029998779296875
2019-09-23,37.2599983215332
2019-09-24,36.529998779296875
2019-09-25,36.95000076293945
2019-09-26,37.02000045776367
2019-09-27,36.310001373291016
2019-09-30,36.29999923706055
2019-10-01,35.880001068115234
2019-10-02,34.70000076293945
2019-10-03,33.63999938964844
2019-10-04,33.9900016784668
2019-10-07,34.029998779296875
2019-10-08,33.099998474121094
2019-10-09,33.70000076293945
2019-10-10,33.9900016784668
2019-10-11,36.04999923706055
2019-10-14,35.83000183105469
2019-10-15,36.88999938964844
2019-10-16,36.04999923706055
2019-10-17,36.77000045776367
2019-10-18,36.779998779296875
2019-10-21,37.880001068115234
2019-10-22,37.22999954223633
2019-10-23,37.75
2019-10-24,37.2599983215332
2019-10-25,37.93000030517578
2019-10-28,38.13999938964844
2019-10-29,37.16999816894531
2019-10-30,37.689998626708984
2019-10-31,37.560001373291016
2019-11-01,38.06999969482422
2019-11-04,38.47999954223633
2019-11-05,38.93000030517578
2019-11-06,39.189998626708984
2019-11-07,39.400001525878906
2019-11-08,38.97999954223633
2019-11-11,38.720001220703125
2019-11-12,37.86000061035156
2019-11-13,37.47999954223633
2019-11-14,37.689998626708984
2019-11-15,38.22999954223633
2019-11-18,37.90999984741211
2019-11-19,38.81999969482422
2019-11-20,38.130001068115234
2019-11-21,37.66999816894531
2019-11-22,38.470001220703125
2019-11-25,39.91999816894531
2019-11-26,39.099998474121094
2019-11-27,39.189998626708984
2019-11-29,39.06999969482422
2019-12-02,39.59000015258789
2019-12-03,38.02000045776367
2019-12-04,38.189998626708984
2019-12-05,38.06999969482422
2019-12-06,39.209999084472656
2019-12-09,38.4900016784668
2019-12-10,38.220001220703125
2019-12-11,37.970001220703125
2019-12-12,38.36000061035156
2019-12-13,38.2400016784668
2019-12-16,39.16999816894531
2019-12-17,40.959999084472656
2019-12-18,40.41999816894531
2019-12-19,41.290000915527344
2019-12-20,41.369998931884766
2019-12-23,41.029998779296875
2019-12-24,41.189998626708984
2019-12-26,41.220001220703125
2019-12-27,40.58000183105469
2019-12-30,39.79999923706055
2019-12-31,40.310001373291016
