Date,SBNY
2007-12-31,32.1226921081543
2008-01-02,31.494510650634766
2008-01-03,31.294635772705078
2008-01-04,30.77115821838379
2008-01-07,32.03702926635742
2008-01-08,31.63728141784668
2008-01-09,31.913293838500977
2008-01-10,32.7984504699707
2008-01-11,32.39871597290039
2008-01-14,32.42726135253906
2008-01-15,31.53258514404297
2008-01-16,31.53258514404297
2008-01-17,30.123943328857422
2008-01-18,30.47610855102539
2008-01-22,31.504032135009766
2008-01-23,34.50214767456055
2008-01-24,34.768646240234375
2008-01-25,32.83652877807617
2008-01-28,33.474220275878906
2008-01-29,33.502777099609375
2008-01-30,33.00784683227539
2008-01-31,31.894264221191406
2008-02-01,32.76038360595703
2008-02-04,31.399333953857422
2008-02-05,30.62839126586914
2008-02-06,29.838411331176758
2008-02-07,30.752124786376953
2008-02-08,30.285747528076172
2008-02-11,29.505287170410156
2008-02-12,29.762266159057617
2008-02-13,29.838411331176758
2008-02-14,27.60171890258789
2008-02-15,26.868844985961914
2008-02-19,26.80221939086914
2008-02-20,27.12582778930664
2008-02-21,26.68800926208496
2008-02-22,26.7451114654541
2008-02-25,26.61186408996582
2008-02-26,26.773666381835938
2008-02-27,26.60234832763672
2008-02-28,25.993207931518555
2008-02-29,25.222259521484375
2008-03-03,24.870100021362305
2008-03-04,24.460832595825195
2008-03-05,23.8516902923584
2008-03-06,22.290769577026367
2008-03-07,22.42401885986328
2008-03-10,22.13848114013672
2008-03-11,23.8516902923584
2008-03-12,23.842174530029297
2008-03-13,24.75588607788086
2008-03-14,24.06108283996582
2008-03-17,23.785064697265625
2008-03-18,24.86058235168457
2008-03-19,24.498905181884766
2008-03-20,26.00271987915039
2008-03-24,26.031278610229492
2008-03-25,25.955135345458984
2008-03-26,24.97479820251465
2008-03-27,24.508426666259766
2008-03-28,24.127708435058594
2008-03-31,24.270477294921875
2008-04-01,25.72670555114746
2008-04-02,25.7838134765625
2008-04-03,25.507795333862305
2008-04-04,25.231781005859375
2008-04-07,24.080120086669922
2008-04-08,24.184816360473633
2008-04-09,23.623262405395508
2008-04-10,23.870729446411133
2008-04-11,23.8612117767334
2008-04-14,23.347248077392578
2008-04-15,23.965906143188477
2008-04-16,25.336477279663086
2008-04-17,25.250818252563477
2008-04-18,25.526830673217773
2008-04-21,24.793954849243164
2008-04-22,23.82314109802246
2008-04-23,23.670854568481445
2008-04-24,24.632158279418945
2008-04-25,25.031904220581055
2008-04-28,25.774295806884766
2008-04-29,25.4792423248291
2008-04-30,25.108043670654297
2008-05-01,27.963396072387695
2008-05-02,27.620756149291992
2008-05-05,27.83966636657715
2008-05-06,28.306041717529297
2008-05-07,27.15438461303711
2008-05-08,27.17341423034668
2008-05-09,26.783187866210938
2008-05-12,27.41136360168457
2008-05-13,27.135343551635742
2008-05-14,27.306665420532227
2008-05-15,27.754003524780273
2008-05-16,27.33521842956543
2008-05-19,26.89739990234375
2008-05-20,26.64041519165039
2008-05-21,26.145488739013672
2008-05-22,26.126455307006836
2008-05-23,25.736223220825195
2008-05-27,26.85932731628418
2008-05-28,26.516685485839844
2008-05-29,27.221010208129883
2008-05-30,27.163898468017578
2008-06-02,26.697525024414062
2008-06-03,26.392953872680664
2008-06-04,26.021757125854492
2008-06-05,26.983060836791992
2008-06-06,25.698148727416992
2008-06-09,25.212743759155273
2008-06-10,25.64104652404785
2008-06-11,25.32695770263672
2008-06-12,24.908172607421875
2008-06-13,23.8516902923584
2008-06-16,24.45131492614746
2008-06-17,24.137229919433594
2008-06-18,23.242551803588867
2008-06-19,25.983686447143555
2008-06-20,25.793333053588867
2008-06-23,24.68926239013672
2008-06-24,24.870100021362305
2008-06-25,25.403100967407227
2008-06-26,25.250818252563477
2008-06-27,25.755258560180664
2008-06-30,24.517942428588867
2008-07-01,24.260957717895508
2008-07-02,23.623262405395508
2008-07-03,23.071229934692383
2008-07-07,22.2622127532959
2008-07-08,24.460832595825195
2008-07-09,23.66133689880371
2008-07-10,24.584562301635742
2008-07-11,24.346620559692383
2008-07-14,23.328210830688477
2008-07-15,22.024267196655273
2008-07-16,24.337099075317383
2008-07-17,27.316184997558594
2008-07-18,26.67848777770996
2008-07-21,25.736223220825195
2008-07-22,26.57379150390625
2008-07-23,25.774295806884766
2008-07-24,23.918312072753906
2008-07-25,25.022384643554688
2008-07-28,23.832656860351562
2008-07-29,26.155010223388672
2008-07-30,25.32695770263672
2008-07-31,28.010986328125
2008-08-01,28.93421745300293
2008-08-04,30.257192611694336
2008-08-05,30.942476272583008
2008-08-06,30.2286434173584
2008-08-07,30.247676849365234
2008-08-08,31.170909881591797
2008-08-11,31.589698791503906
2008-08-12,30.761638641357422
2008-08-13,29.78130340576172
2008-08-14,29.543357849121094
2008-08-15,30.257192611694336
2008-08-18,29.486249923706055
2008-08-19,29.038915634155273
2008-08-20,28.81048583984375
2008-08-21,28.306041717529297
2008-08-22,29.076980590820312
2008-08-25,27.487503051757812
2008-08-26,27.535093307495117
2008-08-27,27.91580581665039
2008-08-28,28.886627197265625
2008-08-29,28.144235610961914
2008-09-02,27.754003524780273
2008-09-03,28.524946212768555
2008-09-04,27.15438461303711
2008-09-05,27.58268165588379
2008-09-08,28.620128631591797
2008-09-09,30.961515426635742
2008-09-10,30.923446655273438
2008-09-11,31.894264221191406
2008-09-12,32.71279525756836
2008-09-15,32.550994873046875
2008-09-16,34.121429443359375
2008-09-17,33.321937561035156
2008-09-18,34.121429443359375
2008-09-19,35.21598815917969
2008-09-22,33.883487701416016
2008-09-23,34.121429443359375
2008-09-24,33.61698532104492
2008-09-25,33.55987548828125
2008-09-26,34.02625274658203
2008-09-29,31.380298614501953
2008-09-30,33.198204040527344
2008-10-01,34.25468826293945
2008-10-02,33.87397384643555
2008-10-03,31.2089786529541
2008-10-06,33.0744743347168
2008-10-07,29.20071792602539
2008-10-08,26.773666381835938
2008-10-09,26.649938583374023
2008-10-10,28.17279052734375
2008-10-13,28.46784210205078
2008-10-14,29.45769691467285
2008-10-15,28.382183074951172
2008-10-16,29.648054122924805
2008-10-17,29.743234634399414
2008-10-20,30.923446655273438
2008-10-21,28.972288131713867
2008-10-22,26.57379150390625
2008-10-23,25.155635833740234
2008-10-24,25.450685501098633
2008-10-27,25.898029327392578
2008-10-28,27.734968185424805
2008-10-29,27.163898468017578
2008-10-30,29.172161102294922
2008-10-31,31.009103775024414
2008-11-03,31.63728141784668
2008-11-04,32.67472839355469
2008-11-05,30.13346290588379
2008-11-06,28.943735122680664
2008-11-07,28.439287185668945
2008-11-10,28.429771423339844
2008-11-11,28.886627197265625
2008-11-12,26.516685485839844
2008-11-13,29.191194534301758
2008-11-14,28.74386215209961
2008-11-17,28.420251846313477
2008-11-18,27.87773895263672
2008-11-19,26.307292938232422
2008-11-20,24.546493530273438
2008-11-21,25.365026473999023
2008-11-24,27.259077072143555
2008-11-25,28.258453369140625
2008-11-26,28.458324432373047
2008-11-28,28.363143920898438
2008-12-01,25.612491607666016
2008-12-02,27.525577545166016
2008-12-03,28.524946212768555
2008-12-04,26.716564178466797
2008-12-05,27.29714584350586
2008-12-08,27.754003524780273
2008-12-09,26.097902297973633
2008-12-10,26.43102264404297
2008-12-11,24.517942428588867
2008-12-12,24.36565399169922
2008-12-15,24.1943359375
2008-12-16,25.602975845336914
2008-12-17,25.526830673217773
2008-12-18,24.765409469604492
2008-12-19,25.374549865722656
2008-12-22,24.97479820251465
2008-12-23,24.289512634277344
2008-12-24,24.822509765625
2008-12-26,25.336477279663086
2008-12-29,24.432281494140625
2008-12-30,25.526830673217773
2008-12-31,27.306665420532227
2009-01-02,26.7451114654541
2009-01-05,25.336477279663086
2009-01-06,24.632158279418945
2009-01-07,23.328210830688477
2009-01-08,23.670854568481445
2009-01-09,23.14737319946289
2009-01-12,22.595335006713867
2009-01-13,22.690515518188477
2009-01-14,21.87198257446289
2009-01-15,21.852947235107422
2009-01-16,21.862464904785156
2009-01-20,20.06359100341797
2009-01-21,21.082002639770508
2009-01-22,20.23491859436035
2009-01-23,20.79646873474121
2009-01-26,20.625146865844727
2009-01-27,21.49127197265625
2009-01-28,22.985567092895508
2009-01-29,24.68926239013672
2009-01-30,24.45131492614746
2009-02-02,25.66008186340332
2009-02-03,24.241924285888672
2009-02-04,24.498905181884766
2009-02-05,25.165157318115234
2009-02-06,27.763525009155273
2009-02-09,27.497020721435547
2009-02-10,26.7451114654541
2009-02-11,27.611234664916992
2009-02-12,27.58268165588379
2009-02-13,26.212116241455078
2009-02-17,24.99382972717285
2009-02-18,24.546493530273438
2009-02-19,23.480497360229492
2009-02-20,22.62389373779297
2009-02-23,22.871353149414062
2009-02-24,24.375173568725586
2009-02-25,24.346620559692383
2009-02-26,24.77492332458496
2009-02-27,23.804101943969727
2009-03-02,23.185443878173828
2009-03-03,22.3002872467041
2009-03-04,22.357391357421875
2009-03-05,19.825651168823242
2009-03-06,19.57818603515625
2009-03-09,18.70254135131836
2009-03-10,21.481748580932617
2009-03-11,22.10041046142578
2009-03-12,24.460832595825195
2009-03-13,24.394210815429688
2009-03-16,24.02301597595215
2009-03-17,24.632158279418945
2009-03-18,24.98431396484375
2009-03-19,23.832656860351562
2009-03-20,22.823768615722656
2009-03-23,26.526206970214844
2009-03-24,25.098529815673828
2009-03-25,25.507795333862305
2009-03-26,26.135969161987305
2009-03-27,25.098529815673828
2009-03-30,25.441173553466797
2009-03-31,26.868844985961914
2009-04-01,26.354883193969727
2009-04-02,26.240671157836914
2009-04-03,26.126455307006836
2009-04-06,24.460832595825195
2009-04-07,23.756511688232422
2009-04-08,24.080120086669922
2009-04-09,25.793333053588867
2009-04-13,26.735599517822266
2009-04-14,24.803476333618164
2009-04-15,25.612491607666016
2009-04-16,26.240671157836914
2009-04-17,26.925954818725586
2009-04-20,25.155635833740234
2009-04-21,26.00271987915039
2009-04-22,25.688634872436523
2009-04-23,26.29777717590332
2009-04-24,27.70641326904297
2009-04-27,26.878360748291016
2009-04-28,26.345365524291992
2009-04-29,27.12582778930664
2009-04-30,25.878992080688477
2009-05-01,25.108043670654297
2009-05-04,26.783187866210938
2009-05-05,26.57379150390625
2009-05-06,27.525577545166016
2009-05-07,26.830774307250977
2009-05-08,28.401216506958008
2009-05-11,27.92532730102539
2009-05-12,26.887882232666016
2009-05-13,25.907543182373047
2009-05-14,26.373916625976562
2009-05-15,26.145488739013672
2009-05-18,27.201967239379883
2009-05-19,25.93609619140625
2009-05-20,24.793954849243164
2009-05-21,23.775550842285156
2009-05-22,24.327585220336914
2009-05-26,25.7838134765625
2009-05-27,24.75588607788086
2009-05-28,25.231781005859375
2009-05-29,25.717187881469727
2009-06-01,25.72670555114746
2009-06-02,24.908172607421875
2009-06-03,25.488759994506836
2009-06-04,26.345365524291992
2009-06-05,25.7838134765625
2009-06-08,25.80284881591797
2009-06-09,25.65056037902832
2009-06-10,25.184188842773438
2009-06-11,25.545867919921875
2009-06-12,25.793333053588867
2009-06-15,24.832029342651367
2009-06-16,24.8129940032959
2009-06-17,25.003353118896484
2009-06-18,25.117565155029297
2009-06-19,25.612491607666016
2009-06-22,25.155635833740234
2009-06-23,24.879619598388672
2009-06-24,24.77492332458496
2009-06-25,25.545867919921875
2009-06-26,26.05982780456543
2009-06-29,25.80284881591797
2009-06-30,25.955135345458984
2009-07-01,26.155010223388672
2009-07-02,25.422134399414062
2009-07-06,25.736223220825195
2009-07-07,25.345993041992188
2009-07-08,25.63152503967285
2009-07-09,26.1169376373291
2009-07-10,26.183561325073242
2009-07-13,27.325700759887695
2009-07-14,27.0401668548584
2009-07-15,27.92532730102539
2009-07-16,28.11568260192871
2009-07-17,27.07823944091797
2009-07-20,27.306665420532227
2009-07-21,26.830774307250977
2009-07-22,27.097274780273438
2009-07-23,28.382183074951172
2009-07-24,28.372665405273438
2009-07-27,29.210233688354492
2009-07-28,29.876482009887695
2009-07-29,28.325075149536133
2009-07-30,28.315555572509766
2009-07-31,28.058574676513672
2009-08-03,28.677234649658203
2009-08-04,29.10553741455078
2009-08-05,28.83903694152832
2009-08-06,28.306041717529297
2009-08-07,28.3441104888916
2009-08-10,28.601089477539062
2009-08-11,27.535093307495117
2009-08-12,28.191829681396484
2009-08-13,28.267969131469727
2009-08-14,27.60171890258789
2009-08-17,27.17341423034668
2009-08-18,27.135343551635742
2009-08-19,27.487503051757812
2009-08-20,27.54461097717285
2009-08-21,28.591571807861328
2009-08-24,28.058574676513672
2009-08-25,28.306041717529297
2009-08-26,28.81048583984375
2009-08-27,28.543987274169922
2009-08-28,28.648677825927734
2009-08-31,28.89614486694336
2009-09-01,28.363143920898438
2009-09-02,27.744487762451172
2009-09-03,27.906288146972656
2009-09-04,27.906288146972656
2009-09-08,27.972915649414062
2009-09-09,28.153751373291016
2009-09-10,28.372665405273438
2009-09-11,28.125198364257812
2009-09-14,27.734968185424805
2009-09-15,27.99195098876953
2009-09-16,29.029394149780273
2009-09-17,29.276857376098633
2009-09-18,29.295894622802734
2009-09-21,29.153125762939453
2009-09-22,29.400592803955078
2009-09-23,28.867589950561523
2009-09-24,28.353628158569336
2009-09-25,27.982431411743164
2009-09-28,28.020505905151367
2009-09-29,27.792076110839844
2009-09-30,27.60171890258789
2009-10-01,27.116308212280273
2009-10-02,26.81174087524414
2009-10-05,26.878360748291016
2009-10-06,27.02113151550293
2009-10-07,26.75463104248047
2009-10-08,26.697525024414062
2009-10-09,27.934843063354492
2009-10-12,27.734968185424805
2009-10-13,28.306041717529297
2009-10-14,29.372039794921875
2009-10-15,29.609983444213867
2009-10-16,29.58142852783203
2009-10-19,29.486249923706055
2009-10-20,28.50591468811035
2009-10-21,27.972915649414062
2009-10-22,28.582056045532227
2009-10-23,28.010986328125
2009-10-26,27.906288146972656
2009-10-27,28.915180206298828
2009-10-28,29.524322509765625
2009-10-29,30.247676849365234
2009-10-30,30.038284301757812
2009-11-02,29.78130340576172
2009-11-03,29.733713150024414
2009-11-04,29.22926902770996
2009-11-05,29.61949920654297
2009-11-06,29.743234634399414
2009-11-09,30.2381591796875
2009-11-10,30.20008659362793
2009-11-11,30.495141983032227
2009-11-12,29.885995864868164
2009-11-13,29.78130340576172
2009-11-16,29.876482009887695
2009-11-17,30.190568923950195
2009-11-18,29.79081916809082
2009-11-19,29.343482971191406
2009-11-20,29.314931869506836
2009-11-23,29.667089462280273
2009-11-24,29.648054122924805
2009-11-25,29.524322509765625
2009-11-27,28.82952308654785
2009-11-30,29.486249923706055
2009-12-01,29.78130340576172
2009-12-02,29.95262336730957
2009-12-03,29.343482971191406
2009-12-04,29.752750396728516
2009-12-07,29.372039794921875
2009-12-08,29.41962432861328
2009-12-09,29.172161102294922
2009-12-10,29.42914390563965
2009-12-11,29.61949920654297
2009-12-14,29.885995864868164
2009-12-15,29.657573699951172
2009-12-16,29.809858322143555
2009-12-17,29.667089462280273
2009-12-18,30.457069396972656
2009-12-21,30.61886978149414
2009-12-22,30.780677795410156
2009-12-23,31.113800048828125
2009-12-24,31.189939498901367
2009-12-28,30.999582290649414
2009-12-29,30.818748474121094
2009-12-30,30.47610855102539
2009-12-31,30.361892700195312
2010-01-04,30.761638641357422
2010-01-05,30.457069396972656
2010-01-06,30.333337783813477
2010-01-07,30.61886978149414
2010-01-08,30.695016860961914
2010-01-11,30.162017822265625
2010-01-12,29.933591842651367
2010-01-13,30.104907989501953
2010-01-14,30.504657745361328
2010-01-15,30.428516387939453
2010-01-19,31.009103775024414
2010-01-20,30.61886978149414
2010-01-21,32.217872619628906
2010-01-22,31.97040367126465
2010-01-25,31.894264221191406
2010-01-26,32.67472839355469
2010-01-27,33.69313049316406
2010-01-28,33.236270904541016
2010-01-29,32.91267395019531
2010-02-01,33.14110565185547
2010-02-02,33.455196380615234
2010-02-03,32.99833297729492
2010-02-04,32.35111999511719
2010-02-05,33.10302734375
2010-02-08,32.484371185302734
2010-02-09,32.4938850402832
2010-02-10,32.52243423461914
2010-02-11,32.589073181152344
2010-02-12,32.589073181152344
2010-02-16,33.198204040527344
2010-02-17,33.16965103149414
2010-02-18,33.264835357666016
2010-02-19,33.72168731689453
2010-02-22,34.768646240234375
2010-02-23,34.997074127197266
2010-02-24,35.78705596923828
2010-02-25,35.901275634765625
2010-02-26,35.43490219116211
2010-03-01,36.044036865234375
2010-03-02,36.43427276611328
2010-03-03,36.45330810546875
2010-03-04,36.510414123535156
2010-03-05,37.16714096069336
2010-03-08,36.78643035888672
2010-03-09,36.78643035888672
2010-03-10,36.88161087036133
2010-03-11,37.11003875732422
2010-03-12,36.88161087036133
2010-03-15,36.76739501953125
2010-03-16,36.586551666259766
2010-03-17,36.62462615966797
2010-03-18,36.205841064453125
2010-03-19,36.262943267822266
2010-03-22,36.377166748046875
2010-03-23,36.186805725097656
2010-03-24,35.93933868408203
2010-03-25,35.50152587890625
2010-03-26,34.920936584472656
2010-03-29,35.396820068359375
2010-03-30,35.406341552734375
2010-03-31,35.26357650756836
2010-04-01,35.58717727661133
2010-04-05,35.472965240478516
2010-04-06,35.84416198730469
2010-04-07,35.97740936279297
2010-04-08,36.70077133178711
2010-04-09,36.74836349487305
2010-04-12,36.93871307373047
2010-04-13,36.16777038574219
2010-04-14,36.6055908203125
2010-04-15,36.87208938598633
2010-04-16,37.05292510986328
2010-04-19,36.92919158935547
2010-04-20,36.92919158935547
2010-04-21,37.11955261230469
2010-04-22,38.01422882080078
2010-04-23,38.5472297668457
2010-04-26,37.70966339111328
2010-04-27,39.72743606567383
2010-04-28,38.68048095703125
2010-04-29,39.78455352783203
2010-04-30,38.433021545410156
2010-05-03,38.68048095703125
2010-05-04,38.07133102416992
2010-05-05,38.17603302001953
2010-05-06,37.35750198364258
2010-05-07,36.14873123168945
2010-05-10,38.39494323730469
2010-05-11,38.95649719238281
2010-05-12,40.34610366821289
2010-05-13,39.62274169921875
2010-05-14,38.461570739746094
2010-05-17,38.252174377441406
2010-05-18,37.2337646484375
2010-05-19,36.72932052612305
2010-05-20,35.472965240478516
2010-05-21,35.806095123291016
2010-05-24,35.063697814941406
2010-05-25,35.653804779052734
2010-05-26,36.09162902832031
2010-05-27,36.25342559814453
2010-05-28,36.01548385620117
2010-06-01,35.492000579833984
2010-06-02,36.08210754394531
2010-06-03,36.491371154785156
2010-06-04,34.768646240234375
2010-06-07,35.0446662902832
2010-06-08,35.2921257019043
2010-06-09,35.13984298706055
2010-06-10,35.63477325439453
2010-06-11,35.758506774902344
2010-06-14,35.396820068359375
2010-06-15,35.596702575683594
2010-06-16,35.94886016845703
2010-06-17,35.55862808227539
2010-06-18,35.6252555847168
2010-06-21,36.21535110473633
2010-06-22,36.139217376708984
2010-06-23,36.358123779296875
2010-06-24,35.663326263427734
2010-06-25,36.586551666259766
2010-06-28,37.60496139526367
2010-06-29,36.710289001464844
2010-06-30,36.17729568481445
2010-07-01,35.88223648071289
2010-07-02,35.57766342163086
2010-07-06,35.396820068359375
2010-07-07,36.32005310058594
2010-07-08,36.186805725097656
2010-07-09,36.76739501953125
2010-07-12,36.43427276611328
2010-07-13,37.2908821105957
2010-07-14,36.71980667114258
2010-07-15,36.339088439941406
2010-07-16,35.19694900512695
2010-07-19,34.96852493286133
2010-07-20,35.387306213378906
2010-07-21,34.86383056640625
2010-07-22,36.06306457519531
2010-07-23,36.834022521972656
2010-07-26,37.5954475402832
2010-07-27,36.834022521972656
2010-07-28,37.40508270263672
2010-07-29,37.414608001708984
2010-07-30,36.586551666259766
2010-08-02,37.40508270263672
2010-08-03,37.081478118896484
2010-08-04,37.04341125488281
2010-08-05,36.71980667114258
2010-08-06,36.46282196044922
2010-08-09,37.462196350097656
2010-08-10,38.185550689697266
2010-08-11,36.62462615966797
2010-08-12,36.01548385620117
2010-08-13,35.98693084716797
2010-08-16,36.339088439941406
2010-08-17,36.76739501953125
2010-08-18,37.129066467285156
2010-08-19,36.824501037597656
2010-08-20,35.653804779052734
2010-08-23,35.44441223144531
2010-08-24,34.96852493286133
2010-08-25,35.30164337158203
2010-08-26,35.15887451171875
2010-08-27,35.58717727661133
2010-08-30,34.397457122802734
2010-08-31,34.77817153930664
2010-09-01,35.6823616027832
2010-09-02,35.853675842285156
2010-09-03,36.110660552978516
2010-09-07,35.52055358886719
2010-09-08,35.6823616027832
2010-09-09,35.701393127441406
2010-09-10,35.6823616027832
2010-09-13,36.39619445800781
2010-09-14,35.45393371582031
2010-09-15,35.729949951171875
2010-09-16,35.415863037109375
2010-09-17,35.739471435546875
2010-09-20,37.30038833618164
2010-09-21,36.738834381103516
2010-09-22,36.25342559814453
2010-09-23,35.653804779052734
2010-09-24,36.55799865722656
2010-09-27,36.10115051269531
2010-09-28,36.72932052612305
2010-09-29,36.98630142211914
2010-09-30,36.96726989746094
2010-10-01,37.01485824584961
2010-10-04,36.86256790161133
2010-10-05,37.309913635253906
2010-10-06,36.98630142211914
2010-10-07,36.75787353515625
2010-10-08,36.78643035888672
2010-10-11,36.55799865722656
2010-10-12,36.79594421386719
2010-10-13,37.33845901489258
2010-10-14,37.062442779541016
2010-10-15,36.88161087036133
2010-10-18,37.462196350097656
2010-10-19,37.414608001708984
2010-10-20,37.2623176574707
2010-10-21,37.2718391418457
2010-10-22,37.5954475402832
2010-10-25,37.33845901489258
2010-10-26,40.19381332397461
2010-10-27,40.13670349121094
2010-10-28,40.62211990356445
2010-10-29,40.20333480834961
2010-11-01,39.955867767333984
2010-11-02,40.22236251831055
2010-11-03,40.54597091674805
2010-11-04,41.9736442565918
2010-11-05,42.64942169189453
2010-11-08,42.28773880004883
2010-11-09,41.12656021118164
2010-11-10,42.173526763916016
2010-11-11,42.10689926147461
2010-11-12,41.6976318359375
2010-11-15,41.3740234375
2010-11-16,41.14559555053711
2010-11-17,40.7839241027832
2010-11-18,42.192562103271484
2010-11-19,42.14497756958008
2010-11-22,42.021240234375
2010-11-23,41.74522399902344
2010-11-24,42.26870346069336
2010-11-26,41.621490478515625
2010-11-29,41.89751052856445
2010-11-30,41.78328323364258
2010-12-01,43.106266021728516
2010-12-02,43.30614471435547
2010-12-03,43.18241500854492
2010-12-06,43.391807556152344
2010-12-07,43.74396514892578
2010-12-08,44.162750244140625
2010-12-09,44.44828796386719
2010-12-10,45.285858154296875
2010-12-13,45.47620391845703
2010-12-14,45.038394927978516
2010-12-15,45.24778747558594
2010-12-16,46.52317428588867
2010-12-17,46.65642166137695
2010-12-20,46.36137771606445
2010-12-21,47.25605392456055
2010-12-22,48.50287628173828
2010-12-23,48.71227264404297
2010-12-27,48.3505973815918
2010-12-28,48.0269889831543
2010-12-29,47.789039611816406
2010-12-30,47.92229461669922
2010-12-31,47.64628219604492
2011-01-03,48.6646842956543
2011-01-04,48.50287628173828
2011-01-05,48.141212463378906
2011-01-06,46.62787628173828
2011-01-07,45.69512176513672
2011-01-10,46.13294219970703
2011-01-11,46.07583236694336
2011-01-12,45.790306091308594
2011-01-13,46.38040542602539
2011-01-14,47.988914489746094
2011-01-18,47.99843978881836
2011-01-19,47.484474182128906
2011-01-20,47.28459548950195
2011-01-21,47.3988151550293
2011-01-24,47.598690032958984
2011-01-25,51.177391052246094
2011-01-26,50.96800231933594
2011-01-27,51.2630500793457
2011-01-28,50.03525161743164
2011-01-31,49.72116470336914
2011-02-01,51.30112075805664
2011-02-02,49.997188568115234
2011-02-03,49.74020004272461
2011-02-04,49.81634521484375
2011-02-07,50.606327056884766
2011-02-08,50.33982467651367
2011-02-09,50.47307586669922
2011-02-10,50.454036712646484
2011-02-11,51.358238220214844
2011-02-14,51.71038818359375
2011-02-15,50.30175018310547
2011-02-16,50.844268798828125
2011-02-17,50.758609771728516
2011-02-18,51.75798416137695
2011-02-22,50.24464416503906
2011-02-23,49.87345886230469
2011-02-24,49.131065368652344
2011-02-25,50.08284378051758
2011-02-28,49.38804626464844
2011-03-01,49.092987060546875
2011-03-02,48.88359451293945
2011-03-03,50.33982467651367
2011-03-04,52.01496887207031
2011-03-07,51.957855224609375
2011-03-08,53.29987716674805
2011-03-09,53.1856575012207
2011-03-10,51.8721923828125
2011-03-11,51.02510452270508
2011-03-14,50.96800231933594
2011-03-15,50.492103576660156
2011-03-16,50.20657730102539
2011-03-17,50.39693832397461
2011-03-18,51.47244644165039
2011-03-21,51.96737289428711
2011-03-22,51.40582275390625
2011-03-23,51.396297454833984
2011-03-24,51.78654098510742
2011-03-25,52.63362503051758
2011-03-28,52.624107360839844
2011-03-29,52.70976638793945
2011-03-30,53.44264221191406
2011-03-31,53.68058395385742
2011-04-01,54.55622482299805
2011-04-04,54.68947982788086
2011-04-05,54.51815414428711
2011-04-06,54.4229736328125
2011-04-07,53.47119903564453
2011-04-08,53.47119903564453
2011-04-11,53.28083038330078
2011-04-12,52.86204528808594
2011-04-13,52.747833251953125
2011-04-14,52.833492279052734
2011-04-15,53.53781509399414
2011-04-18,52.89060592651367
2011-04-19,52.65266036987305
2011-04-20,53.10951232910156
2011-04-21,53.44264221191406
2011-04-25,54.47056198120117
2011-04-26,54.4229736328125
2011-04-27,55.4318733215332
2011-04-28,55.50800704956055
2011-04-29,55.403316497802734
2011-05-02,54.78465270996094
2011-05-03,54.47056198120117
2011-05-04,53.642520904541016
2011-05-05,52.34809112548828
2011-05-06,52.38616180419922
2011-05-09,52.566993713378906
2011-05-10,53.01433563232422
2011-05-11,52.38616180419922
2011-05-12,52.88108825683594
2011-05-13,51.96737289428711
2011-05-16,52.043514251708984
2011-05-17,52.624107360839844
2011-05-18,53.004817962646484
2011-05-19,52.88108825683594
2011-05-20,52.27193832397461
2011-05-23,52.100624084472656
2011-05-24,52.17677307128906
2011-05-25,52.38616180419922
2011-05-26,52.928680419921875
2011-05-27,53.03337097167969
2011-05-31,54.17551040649414
2011-06-01,52.34809112548828
2011-06-02,52.37664031982422
2011-06-03,51.89122772216797
2011-06-06,51.52954864501953
2011-06-07,51.77701950073242
2011-06-08,51.500999450683594
2011-06-09,51.8626823425293
2011-06-10,51.02510452270508
2011-06-13,51.23450469970703
2011-06-14,51.42485809326172
2011-06-15,51.21546936035156
2011-06-16,52.05303955078125
2011-06-17,52.4908561706543
2011-06-20,52.77639389038086
2011-06-21,52.97627258300781
2011-06-22,52.50037384033203
2011-06-23,52.995296478271484
2011-06-24,53.11903762817383
2011-06-27,53.17613983154297
2011-06-28,53.233245849609375
2011-06-29,53.785282135009766
2011-06-30,54.442020416259766
2011-07-01,55.251033782958984
2011-07-05,55.7078857421875
2011-07-06,54.679954528808594
2011-07-07,55.00356674194336
2011-07-08,54.79417037963867
2011-07-11,54.76561737060547
2011-07-12,54.88934326171875
2011-07-13,55.33668518066406
2011-07-14,54.7275505065918
2011-07-15,54.88934326171875
2011-07-18,55.20343780517578
2011-07-19,56.56448745727539
2011-07-20,57.71614074707031
2011-07-21,57.506752014160156
2011-07-22,57.763736724853516
2011-07-25,57.3259162902832
2011-07-26,57.183143615722656
2011-07-27,56.117149353027344
2011-07-28,55.77450942993164
2011-07-29,56.30750274658203
2011-08-01,56.53593826293945
2011-08-02,55.764991760253906
2011-08-03,56.16473388671875
2011-08-04,53.69009780883789
2011-08-05,53.128543853759766
2011-08-08,48.7408332824707
2011-08-09,53.870941162109375
2011-08-10,49.84489059448242
2011-08-11,51.8626823425293
2011-08-12,50.10188293457031
2011-08-15,51.738948822021484
2011-08-16,50.46356201171875
2011-08-17,50.901371002197266
2011-08-18,47.34170913696289
2011-08-19,45.38103103637695
2011-08-22,46.304264068603516
2011-08-23,49.11201858520508
2011-08-24,49.892486572265625
2011-08-25,48.22686004638672
2011-08-26,50.073326110839844
2011-08-29,51.9293098449707
2011-08-30,51.948341369628906
2011-08-31,52.93819046020508
2011-09-01,51.77701950073242
2011-09-02,49.749717712402344
2011-09-06,49.63550567626953
2011-09-07,53.36650085449219
2011-09-08,50.41597366333008
2011-09-09,48.12216567993164
2011-09-12,48.88359451293945
2011-09-13,49.654537200927734
2011-09-14,50.58728790283203
2011-09-15,51.08221435546875
2011-09-16,50.435001373291016
2011-09-19,49.45466613769531
2011-09-20,48.44578170776367
2011-09-21,45.124053955078125
2011-09-22,44.162750244140625
2011-09-23,45.21923065185547
2011-09-26,46.551727294921875
2011-09-27,47.69386672973633
2011-09-28,45.68560791015625
2011-09-29,46.89436721801758
2011-09-30,45.41910171508789
2011-10-03,42.57327651977539
2011-10-04,46.932437896728516
2011-10-05,47.90325927734375
2011-10-06,49.51177215576172
2011-10-07,47.160865783691406
2011-10-10,48.99781036376953
2011-10-11,48.959739685058594
2011-10-12,49.87345886230469
2011-10-13,48.99781036376953
2011-10-14,48.6646842956543
2011-10-17,45.98066329956055
2011-10-18,47.33218765258789
2011-10-19,47.503509521484375
2011-10-20,48.264930725097656
2011-10-21,49.81634521484375
2011-10-24,50.872825622558594
2011-10-25,49.759239196777344
2011-10-26,51.12980651855469
2011-10-27,54.68947982788086
2011-10-28,53.81383514404297
2011-10-31,53.02385711669922
2011-11-01,52.205318450927734
2011-11-02,54.15647888183594
2011-11-03,55.270057678222656
2011-11-04,54.489601135253906
2011-11-07,54.91790771484375
2011-11-08,55.241512298583984
2011-11-09,52.63362503051758
2011-11-10,53.07144546508789
2011-11-11,54.86079788208008
2011-11-14,52.71928024291992
2011-11-15,54.62285614013672
2011-11-16,53.32842254638672
2011-11-17,52.814456939697266
2011-11-18,52.8715705871582
2011-11-21,51.30112075805664
2011-11-22,50.72053527832031
2011-11-23,49.37852478027344
2011-11-25,49.0549201965332
2011-11-28,51.78654098510742
2011-11-29,50.987037658691406
2011-11-30,55.612701416015625
2011-12-01,54.679954528808594
2011-12-02,55.81257629394531
2011-12-05,56.20280456542969
2011-12-06,56.497867584228516
2011-12-07,55.641258239746094
2011-12-08,54.20406723022461
2011-12-09,56.250396728515625
2011-12-12,55.070186614990234
2011-12-13,54.17551040649414
2011-12-14,54.07081985473633
2011-12-15,54.955970764160156
2011-12-16,55.26054763793945
2011-12-19,54.746578216552734
2011-12-20,56.735801696777344
2011-12-21,57.14508056640625
2011-12-22,58.2586555480957
2011-12-23,57.82084274291992
2011-12-27,58.62986373901367
2011-12-28,57.925533294677734
2011-12-29,57.830360412597656
2011-12-30,57.09748840332031
2012-01-03,57.93506622314453
2012-01-04,57.33543395996094
2012-01-05,58.144447326660156
2012-01-06,58.21107482910156
2012-01-09,59.72440719604492
2012-01-10,59.79103469848633
2012-01-11,59.36273193359375
2012-01-12,59.41032028198242
2012-01-13,59.55309295654297
2012-01-17,58.99153518676758
2012-01-18,59.2294807434082
2012-01-19,59.47694396972656
2012-01-20,59.27707290649414
2012-01-23,58.9153938293457
2012-01-24,57.14508056640625
2012-01-25,57.02134323120117
2012-01-26,55.374759674072266
2012-01-27,55.574642181396484
2012-01-30,55.365238189697266
2012-01-31,55.34620666503906
2012-02-01,56.240882873535156
2012-02-02,55.84113311767578
2012-02-03,56.669189453125
2012-02-06,55.641258239746094
2012-02-07,56.240882873535156
2012-02-08,55.784019470214844
2012-02-09,55.14632797241211
2012-02-10,54.87031173706055
2012-02-13,55.82209777832031
2012-02-14,55.86016845703125
2012-02-15,55.72692108154297
2012-02-16,56.612083435058594
2012-02-17,56.593040466308594
2012-02-21,56.84050369262695
2012-02-22,55.59366989135742
2012-02-23,56.48834228515625
2012-02-24,56.992794036865234
2012-02-27,56.94520568847656
2012-02-28,56.69773864746094
2012-02-29,56.497867584228516
2012-03-01,56.9642333984375
2012-03-02,56.28847122192383
2012-03-05,56.6882209777832
2012-03-06,56.041011810302734
2012-03-07,56.56448745727539
2012-03-08,57.459163665771484
2012-03-09,58.5442008972168
2012-03-12,58.620338439941406
2012-03-13,60.114646911621094
2012-03-14,59.695858001708984
2012-03-15,61.180641174316406
2012-03-16,61.32340621948242
2012-03-19,62.06580352783203
2012-03-20,61.504249572753906
2012-03-21,60.866554260253906
2012-03-22,60.48583984375
2012-03-23,60.28596496582031
2012-03-26,61.83737564086914
2012-03-27,61.09498596191406
2012-03-28,60.90462875366211
2012-03-29,60.571495056152344
2012-03-30,60.000423431396484
2012-04-02,60.55246353149414
2012-04-03,60.790401458740234
2012-04-04,60.48583984375
2012-04-05,60.58102035522461
2012-04-09,59.867183685302734
2012-04-10,59.695858001708984
2012-04-11,61.01883316040039
2012-04-12,61.494728088378906
2012-04-13,60.7618522644043
2012-04-16,61.21870803833008
2012-04-17,62.06580352783203
2012-04-18,61.085453033447266
2012-04-19,60.92365646362305
2012-04-20,61.114017486572266
2012-04-23,61.275814056396484
2012-04-24,60.942684173583984
2012-04-25,61.409061431884766
2012-04-26,62.541683197021484
2012-04-27,63.3506965637207
2012-04-30,62.52265548706055
2012-05-01,62.45602798461914
2012-05-02,61.96110916137695
2012-05-03,61.64701843261719
2012-05-04,61.09498596191406
2012-05-07,61.342437744140625
2012-05-08,60.87606430053711
2012-05-09,59.610198974609375
2012-05-10,60.40969467163086
2012-05-11,60.371620178222656
2012-05-14,59.18189239501953
2012-05-15,58.51564025878906
2012-05-16,58.315773010253906
2012-05-17,57.52579116821289
2012-05-18,56.583526611328125
2012-05-21,56.90713119506836
2012-05-22,58.06830978393555
2012-05-23,57.88747024536133
2012-05-24,59.16285705566406
2012-05-25,58.90587615966797
2012-05-29,59.46742630004883
2012-05-30,58.97249984741211
2012-05-31,58.44902038574219
2012-06-01,55.869686126708984
2012-06-04,55.641258239746094
2012-06-05,55.59366989135742
2012-06-06,56.03148651123047
2012-06-07,56.9642333984375
2012-06-08,57.42109680175781
2012-06-11,57.37350082397461
2012-06-12,57.09748840332031
2012-06-13,56.26943588256836
2012-06-14,56.55496597290039
2012-06-15,57.53531265258789
2012-06-18,56.46931457519531
2012-06-19,56.9737548828125
2012-06-20,56.94520568847656
2012-06-21,55.44138717651367
2012-06-22,55.90775680541992
2012-06-25,55.52705001831055
2012-06-26,55.536563873291016
2012-06-27,55.764991760253906
2012-06-28,56.393165588378906
2012-06-29,58.03023910522461
2012-07-02,57.916015625
2012-07-03,58.84876251220703
2012-07-05,58.182525634765625
2012-07-06,57.99216079711914
2012-07-09,57.78276824951172
2012-07-10,57.6590461730957
2012-07-11,57.63048553466797
2012-07-12,57.41157531738281
2012-07-13,59.191410064697266
2012-07-16,57.81132888793945
2012-07-17,57.916015625
2012-07-18,57.82084274291992
2012-07-19,57.09748840332031
2012-07-20,56.402687072753906
2012-07-23,55.27958297729492
2012-07-24,57.221221923828125
2012-07-25,58.29673385620117
2012-07-26,60.49535369873047
2012-07-27,61.751705169677734
2012-07-30,61.61844253540039
2012-07-31,61.39003372192383
2012-08-01,60.82848358154297
2012-08-02,60.7618522644043
2012-08-03,61.37099838256836
2012-08-06,61.05691146850586
2012-08-07,61.25678253173828
2012-08-08,61.24726104736328
2012-08-09,60.68571472167969
2012-08-10,60.40969467163086
2012-08-13,60.419212341308594
2012-08-14,60.818965911865234
2012-08-15,61.21870803833008
2012-08-16,61.228233337402344
2012-08-17,61.4471321105957
2012-08-20,61.361473083496094
2012-08-21,60.590538024902344
2012-08-22,60.55246353149414
2012-08-23,60.466796875
2012-08-24,60.35258865356445
2012-08-27,60.42873001098633
2012-08-28,61.23773956298828
2012-08-29,61.342437744140625
2012-08-30,61.25678253173828
2012-08-31,61.51376724243164
2012-09-04,62.237125396728516
2012-09-05,61.4281005859375
2012-09-06,61.504249572753906
2012-09-07,62.24663543701172
2012-09-10,62.26567459106445
2012-09-11,62.50361633300781
2012-09-12,62.96999740600586
2012-09-13,63.53154373168945
2012-09-14,65.68256378173828
2012-09-17,64.19778442382812
2012-09-18,63.883705139160156
2012-09-19,63.560096740722656
2012-09-20,63.16035461425781
2012-09-21,62.693973541259766
2012-09-24,63.750450134277344
2012-09-25,63.293601989746094
2012-09-26,63.293601989746094
2012-09-27,63.95984649658203
2012-09-28,63.84562683105469
2012-10-01,63.37924575805664
2012-10-02,63.90273666381836
2012-10-03,63.95033264160156
2012-10-04,64.2549057006836
2012-10-05,64.27394104003906
2012-10-08,64.78790283203125
2012-10-09,63.99791717529297
2012-10-10,64.6070556640625
2012-10-11,65.04486846923828
2012-10-12,63.70286178588867
2012-10-15,63.3221549987793
2012-10-16,62.941429138183594
2012-10-17,62.941429138183594
2012-10-18,62.893856048583984
2012-10-19,62.98902130126953
2012-10-22,63.13178634643555
2012-10-23,66.48206329345703
2012-10-24,68.1762466430664
2012-10-25,68.3856430053711
2012-10-26,68.28094482421875
2012-10-31,67.80504608154297
2012-11-01,68.64262390136719
2012-11-02,67.58614349365234
2012-11-05,68.03348541259766
2012-11-06,68.61405181884766
2012-11-07,66.23461151123047
2012-11-08,65.93002319335938
2012-11-09,65.64450073242188
2012-11-12,65.96810150146484
2012-11-13,65.17814636230469
2012-11-14,64.99729919433594
2012-11-15,65.53028869628906
2012-11-16,65.19717407226562
2012-11-19,65.6540298461914
2012-11-20,67.17688751220703
2012-11-21,66.94844055175781
2012-11-23,68.52840423583984
2012-11-26,67.88119506835938
2012-11-27,67.79553985595703
2012-11-28,67.5195083618164
2012-11-29,66.87229919433594
2012-11-30,66.77713012695312
2012-12-03,67.13880157470703
2012-12-04,66.834228515625
2012-12-05,67.35770416259766
2012-12-06,67.45291137695312
2012-12-07,66.85325622558594
2012-12-10,66.87229919433594
2012-12-11,67.41481018066406
2012-12-12,67.39576721191406
2012-12-13,66.10135650634766
2012-12-14,65.27330780029297
2012-12-17,65.86341857910156
2012-12-18,67.81455993652344
2012-12-19,68.10011291503906
2012-12-20,69.08995056152344
2012-12-21,68.57599639892578
2012-12-24,68.28094482421875
2012-12-26,67.90974426269531
2012-12-27,67.32916259765625
2012-12-28,67.57662200927734
2012-12-31,67.90023803710938
2013-01-02,68.96623229980469
2013-01-03,68.90911102294922
2013-01-04,70.24161529541016
2013-01-07,70.71751403808594
2013-01-08,69.80379486083984
2013-01-09,70.01319122314453
2013-01-10,70.77461242675781
2013-01-11,69.52777862548828
2013-01-14,69.7657241821289
2013-01-15,70.43197631835938
2013-01-16,70.71751403808594
2013-01-17,71.38375091552734
2013-01-18,70.79364013671875
2013-01-22,71.48845672607422
2013-01-23,72.05951690673828
2013-01-24,71.55508422851562
2013-01-25,71.31712341308594
2013-01-28,71.27906036376953
2013-01-29,70.76509857177734
2013-01-30,70.42245483398438
2013-01-31,70.36534881591797
2013-02-01,71.38375091552734
2013-02-04,70.60328674316406
2013-02-05,71.92627716064453
2013-02-06,71.63121795654297
2013-02-07,71.37423706054688
2013-02-08,71.87867736816406
2013-02-11,71.88821411132812
2013-02-12,72.69721221923828
2013-02-13,72.47832489013672
2013-02-14,71.76447296142578
2013-02-15,71.40278625488281
2013-02-19,71.82158660888672
2013-02-20,71.21243286132812
2013-02-21,70.51762390136719
2013-02-22,71.21243286132812
2013-02-25,69.22320556640625
2013-02-26,69.54682922363281
2013-02-27,70.36534881591797
2013-02-28,70.68895721435547
2013-03-01,70.16547393798828
2013-03-04,70.91737365722656
2013-03-05,71.47894287109375
2013-03-06,71.93579864501953
2013-03-07,72.13565063476562
2013-03-08,71.78350067138672
2013-03-11,72.14518737792969
2013-03-12,71.80255126953125
2013-03-13,72.20230102539062
2013-03-14,72.66866302490234
2013-03-15,73.55382537841797
2013-03-18,73.14456176757812
2013-03-19,73.67755126953125
2013-03-20,74.05826568603516
2013-03-21,73.63948059082031
2013-03-22,74.4199447631836
2013-03-25,74.91487121582031
2013-03-26,74.8672866821289
2013-03-27,75.17185974121094
2013-03-28,74.96244812011719
2013-04-01,75.29558563232422
2013-04-02,75.1337890625
2013-04-03,73.7536849975586
2013-04-04,73.35394287109375
2013-04-05,73.42057800292969
2013-04-08,73.94406127929688
2013-04-09,73.7917709350586
2013-04-10,74.60077667236328
2013-04-11,74.64836883544922
2013-04-12,74.5436782836914
2013-04-15,72.8399887084961
2013-04-16,74.20104217529297
2013-04-17,73.2873306274414
2013-04-18,72.50685119628906
2013-04-19,73.1540756225586
2013-04-22,72.6496353149414
2013-04-23,69.87994384765625
2013-04-24,69.48018646240234
2013-04-25,69.0614013671875
2013-04-26,68.8329849243164
2013-04-29,67.7764892578125
2013-04-30,68.1572036743164
2013-05-01,67.7764892578125
2013-05-02,68.16674041748047
2013-05-03,69.08995056152344
2013-05-06,70.14643859863281
2013-05-07,71.65025329589844
2013-05-08,72.82095336914062
2013-05-09,72.89708709716797
2013-05-10,72.91613006591797
2013-05-13,72.96371459960938
2013-05-14,73.2873306274414
2013-05-15,73.42057800292969
2013-05-16,73.34442138671875
2013-05-17,74.7530746459961
2013-05-20,74.48657989501953
2013-05-21,74.42945861816406
2013-05-22,73.62044525146484
2013-05-23,73.42057800292969
2013-05-24,73.94406127929688
2013-05-28,73.69659423828125
2013-05-29,73.20166015625
2013-05-30,73.74417877197266
2013-05-31,73.4586410522461
2013-06-03,73.2682876586914
2013-06-04,73.29684448242188
2013-06-05,72.20230102539062
2013-06-06,73.01131439208984
2013-06-07,74.0963363647461
2013-06-10,75.095703125
2013-06-11,73.68706512451172
2013-06-12,73.230224609375
2013-06-13,74.22957611083984
2013-06-14,75.23847961425781
2013-06-17,75.23847961425781
2013-06-18,75.4383544921875
2013-06-19,74.92439270019531
2013-06-20,75.57160186767578
2013-06-21,75.96183013916016
2013-06-24,75.87617492675781
2013-06-25,78.44599151611328
2013-06-26,78.21757507324219
2013-06-27,79.83560180664062
2013-06-28,79.01705932617188
2013-07-01,80.55895233154297
2013-07-02,80.9015884399414
2013-07-03,79.9402847290039
2013-07-05,82.93841552734375
2013-07-08,83.60466003417969
2013-07-09,84.23281860351562
2013-07-10,84.12814331054688
2013-07-11,83.35719299316406
2013-07-12,84.52789306640625
2013-07-15,84.9371566772461
2013-07-16,84.48979949951172
2013-07-17,85.19413757324219
2013-07-18,86.4980697631836
2013-07-19,86.19349670410156
2013-07-22,86.81217193603516
2013-07-23,87.24047088623047
2013-07-24,88.68716430664062
2013-07-25,89.03934478759766
2013-07-26,88.14466857910156
2013-07-29,86.8407211303711
2013-07-30,87.07866668701172
2013-07-31,87.13577270507812
2013-08-01,89.83882904052734
2013-08-02,89.18209838867188
2013-08-05,89.4105453491211
2013-08-06,88.70621490478516
2013-08-07,87.43083190917969
2013-08-08,87.82105255126953
2013-08-09,86.90733337402344
2013-08-12,86.40289306640625
2013-08-13,86.86925506591797
2013-08-14,86.2315902709961
2013-08-15,85.41303253173828
2013-08-16,85.24172973632812
2013-08-19,85.39400482177734
2013-08-20,86.6598892211914
2013-08-21,87.1643295288086
2013-08-22,87.6021499633789
2013-08-23,87.06914520263672
2013-08-26,86.45999145507812
2013-08-27,83.29056549072266
2013-08-28,84.23281860351562
2013-08-29,85.29884338378906
2013-08-30,83.49044799804688
2013-09-03,83.30007934570312
2013-09-04,84.42318725585938
2013-09-05,84.86100769042969
2013-09-06,84.75630950927734
2013-09-09,84.32801055908203
2013-09-10,85.01329040527344
2013-09-11,84.9085922241211
2013-09-12,85.2512435913086
2013-09-13,85.74616241455078
2013-09-16,86.3077163696289
2013-09-17,87.96382141113281
2013-09-18,87.00251770019531
2013-09-19,84.54692077636719
2013-09-20,85.24172973632812
2013-09-23,84.4136734008789
2013-09-24,84.60401916503906
2013-09-25,86.05074310302734
2013-09-26,86.12688446044922
2013-09-27,86.13640594482422
2013-09-30,87.10721588134766
2013-10-01,88.4873046875
2013-10-02,87.72586059570312
2013-10-03,87.90672302246094
2013-10-04,88.2303237915039
2013-10-07,86.71699523925781
2013-10-08,86.39337921142578
2013-10-09,86.90733337402344
2013-10-10,88.37310028076172
2013-10-11,89.87690734863281
2013-10-14,90.57171630859375
2013-10-15,90.0958251953125
2013-10-16,91.76143646240234
2013-10-17,92.23733520507812
2013-10-18,93.05585479736328
2013-10-21,91.22842407226562
2013-10-22,96.11109161376953
2013-10-23,97.05335235595703
2013-10-24,96.85347747802734
2013-10-25,98.28116607666016
2013-10-28,98.16694641113281
2013-10-29,97.98609924316406
2013-10-30,98.08128356933594
2013-10-31,96.91059112548828
2013-11-01,96.74878692626953
2013-11-04,96.45372009277344
2013-11-05,96.53939056396484
2013-11-06,97.06287384033203
2013-11-07,96.55842590332031
2013-11-08,100.40363311767578
2013-11-11,100.47026062011719
2013-11-12,98.9569320678711
2013-11-13,100.33700561523438
2013-11-14,101.07939910888672
2013-11-15,100.55592346191406
2013-11-18,100.8509750366211
2013-11-19,100.01341247558594
2013-11-20,100.10857391357422
2013-11-21,102.61177062988281
2013-11-22,103.15426635742188
2013-11-25,102.42141723632812
2013-11-26,102.90682220458984
2013-11-27,101.37445831298828
2013-11-29,101.12699890136719
2013-12-02,100.95567321777344
2013-12-03,98.86174774169922
2013-12-04,98.31922912597656
2013-12-05,99.46137237548828
2013-12-06,99.937255859375
2013-12-09,99.68978118896484
2013-12-10,98.50958251953125
2013-12-11,97.15805053710938
2013-12-12,99.94677734375
2013-12-13,99.2329330444336
2013-12-16,100.11810302734375
2013-12-17,99.36619567871094
2013-12-18,101.56480407714844
2013-12-19,100.72724151611328
2013-12-20,102.66887664794922
2013-12-23,103.144775390625
2013-12-24,102.70694732666016
2013-12-26,102.66887664794922
2013-12-27,102.44996643066406
2013-12-30,101.90744018554688
2013-12-31,102.2405776977539
2014-01-02,100.9176025390625
2014-01-03,100.9366455078125
2014-01-06,100.9271240234375
2014-01-07,102.63080596923828
2014-01-08,103.52547454833984
2014-01-09,104.57244110107422
2014-01-10,104.66761779785156
2014-01-13,103.40174865722656
2014-01-14,104.43919372558594
2014-01-15,104.81038665771484
2014-01-16,104.56292724609375
2014-01-17,104.79135131835938
2014-01-21,119.04906463623047
2014-01-22,122.49452209472656
2014-01-23,120.32447052001953
2014-01-24,118.00212097167969
2014-01-27,117.07889556884766
2014-01-28,116.42214965820312
2014-01-29,115.47988891601562
2014-01-30,115.879638671875
2014-01-31,116.1746826171875
2014-02-03,111.55854034423828
2014-02-04,114.52810668945312
2014-02-05,114.54714965820312
2014-02-06,114.60425567626953
2014-02-07,115.70831298828125
2014-02-10,116.22227478027344
2014-02-11,116.76477813720703
2014-02-12,117.32634735107422
2014-02-13,117.92595672607422
2014-02-14,118.30667877197266
2014-02-18,119.05858612060547
2014-02-19,115.92721557617188
2014-02-20,116.66961669921875
2014-02-21,117.32634735107422
2014-02-24,119.78193664550781
2014-02-25,120.01036834716797
2014-02-26,123.22740173339844
2014-02-27,122.62776947021484
2014-02-28,124.61701202392578
2014-03-03,124.112548828125
2014-03-04,124.68363952636719
2014-03-05,122.32321166992188
2014-03-06,122.08527374267578
2014-03-07,122.99895477294922
2014-03-10,123.1607666015625
2014-03-11,122.01863098144531
2014-03-12,122.03766632080078
2014-03-13,120.95263671875
2014-03-14,121.3047866821289
2014-03-17,122.5230712890625
2014-03-18,123.42727661132812
2014-03-19,123.43680572509766
2014-03-20,123.97930908203125
2014-03-21,121.90443420410156
2014-03-24,121.79019927978516
2014-03-25,120.3910903930664
2014-03-26,118.54463958740234
2014-03-27,116.47924041748047
2014-03-28,116.55540466308594
2014-03-31,119.53448486328125
2014-04-01,123.05607604980469
2014-04-02,120.84794616699219
2014-04-03,121.25720977783203
2014-04-04,119.00149536132812
2014-04-07,118.93485260009766
2014-04-08,118.78256225585938
2014-04-09,118.71595764160156
2014-04-10,116.1175765991211
2014-04-11,115.40373992919922
2014-04-14,115.841552734375
2014-04-15,116.97418212890625
2014-04-16,118.24958038330078
2014-04-17,118.87776184082031
2014-04-21,118.65882873535156
2014-04-22,117.01225280761719
2014-04-23,117.33586120605469
2014-04-24,114.06172180175781
2014-04-25,110.5210952758789
2014-04-28,111.49190521240234
2014-04-29,112.3389892578125
2014-04-30,113.09090423583984
2014-05-01,115.6226577758789
2014-05-02,116.31744384765625
2014-05-05,114.18546295166016
2014-05-06,110.63530731201172
2014-05-07,111.42530059814453
2014-05-08,110.76856231689453
2014-05-09,112.51032257080078
2014-05-12,113.34788513183594
2014-05-13,110.37832641601562
2014-05-14,108.08452606201172
2014-05-15,106.65684509277344
2014-05-16,106.19047546386719
2014-05-19,106.44745635986328
2014-05-20,105.71458435058594
2014-05-21,107.15178680419922
2014-05-22,107.5610580444336
2014-05-23,108.227294921875
2014-05-27,109.23617553710938
2014-05-28,108.5509033203125
2014-05-29,110.1974868774414
2014-05-30,110.23555755615234
2014-06-02,111.76793670654297
2014-06-03,113.48114013671875
2014-06-04,114.15691375732422
2014-06-05,115.44181060791016
2014-06-06,117.33586120605469
2014-06-09,118.56365966796875
2014-06-10,116.30792236328125
2014-06-11,115.45133209228516
2014-06-12,114.70893859863281
2014-06-13,113.86185455322266
2014-06-16,115.00399780273438
2014-06-17,117.01225280761719
2014-06-18,116.74575805664062
2014-06-19,116.23178100585938
2014-06-20,116.98371124267578
2014-06-23,116.59346771240234
2014-06-24,117.18357849121094
2014-06-25,117.97355651855469
2014-06-26,119.57254791259766
2014-06-27,119.80098724365234
2014-06-30,120.09603118896484
2014-07-01,120.5624008178711
2014-07-02,118.86823272705078
2014-07-03,120.26734924316406
2014-07-07,120.05796813964844
2014-07-08,117.49766540527344
2014-07-09,117.4881591796875
2014-07-10,116.5173110961914
2014-07-11,116.46023559570312
2014-07-14,117.00273132324219
2014-07-15,118.00212097167969
2014-07-16,115.69879150390625
2014-07-17,115.18482971191406
2014-07-18,115.2800064086914
2014-07-21,115.28952026367188
2014-07-22,111.32059478759766
2014-07-23,110.76856231689453
2014-07-24,113.3669204711914
2014-07-25,112.053466796875
2014-07-28,110.7019271850586
2014-07-29,110.74951934814453
2014-07-30,110.66385650634766
2014-07-31,108.87451934814453
2014-08-01,108.50331115722656
2014-08-04,108.70318603515625
2014-08-05,107.38019561767578
2014-08-06,107.9417724609375
2014-08-07,107.16129302978516
2014-08-08,108.5128402709961
2014-08-11,108.68415832519531
2014-08-12,108.56991577148438
2014-08-13,108.96016693115234
2014-08-14,108.53185272216797
2014-08-15,108.56040954589844
2014-08-18,110.33072662353516
2014-08-19,110.35929107666016
2014-08-20,111.0064926147461
2014-08-21,112.84344482421875
2014-08-22,112.672119140625
2014-08-25,113.41451263427734
2014-08-26,113.9189453125
2014-08-27,112.88150024414062
2014-08-28,111.84407043457031
2014-08-29,112.74826049804688
2014-09-02,114.16641235351562
2014-09-03,114.55665588378906
2014-09-04,113.9094467163086
2014-09-05,110.44493865966797
2014-09-08,110.22603607177734
2014-09-09,109.42655181884766
2014-09-10,110.73047637939453
2014-09-11,111.23493957519531
2014-09-12,111.89166259765625
2014-09-15,111.69178009033203
2014-09-16,110.28314208984375
2014-09-17,109.98808288574219
2014-09-18,112.71971893310547
2014-09-19,111.91069793701172
2014-09-22,110.39735412597656
2014-09-23,108.73173522949219
2014-09-24,108.91256713867188
2014-09-25,106.80912780761719
2014-09-26,108.23681640625
2014-09-29,107.70381927490234
2014-09-30,106.65684509277344
2014-10-01,106.5997543334961
2014-10-02,107.54199981689453
2014-10-03,107.95127868652344
2014-10-06,106.94239807128906
2014-10-07,104.73424530029297
2014-10-08,106.80912780761719
2014-10-09,103.52547454833984
2014-10-10,102.55467987060547
2014-10-13,102.1073226928711
2014-10-14,101.58385467529297
2014-10-15,98.6999282836914
2014-10-16,101.04132843017578
2014-10-17,101.84082794189453
2014-10-20,101.84082794189453
2014-10-21,111.10167694091797
2014-10-22,111.1587905883789
2014-10-23,111.1207046508789
2014-10-24,110.88277435302734
2014-10-27,111.58708953857422
2014-10-28,113.9094467163086
2014-10-29,114.76603698730469
2014-10-30,114.11883544921875
2014-10-31,115.28952026367188
2014-11-03,116.1366195678711
2014-11-04,116.20323181152344
2014-11-05,116.52685546875
2014-11-06,117.25972747802734
2014-11-07,117.7260971069336
2014-11-10,118.52558898925781
2014-11-11,118.19246673583984
2014-11-12,119.31555938720703
2014-11-13,117.55477142333984
2014-11-14,116.42214965820312
2014-11-17,115.841552734375
2014-11-18,115.64168548583984
2014-11-19,115.83203125
2014-11-20,116.55540466308594
2014-11-21,114.5090560913086
2014-11-24,117.49766540527344
2014-11-25,117.96402740478516
2014-11-26,117.44054412841797
2014-11-28,115.42277526855469
2014-12-01,113.97607421875
2014-12-02,116.10804748535156
2014-12-03,117.41200256347656
2014-12-04,116.31744384765625
2014-12-05,119.92471313476562
2014-12-08,119.50592803955078
2014-12-09,119.23943328857422
2014-12-10,115.20386505126953
2014-12-11,114.8897705078125
2014-12-12,113.15752410888672
2014-12-15,112.54837036132812
2014-12-16,113.82376098632812
2014-12-17,115.30854797363281
2014-12-18,117.63092041015625
2014-12-19,117.69752502441406
2014-12-22,118.63029479980469
2014-12-23,120.61951446533203
2014-12-24,120.09603118896484
2014-12-26,120.38157653808594
2014-12-29,120.73372650146484
2014-12-30,120.71469116210938
2014-12-31,119.88662719726562
2015-01-02,119.21086883544922
2015-01-05,115.93673706054688
2015-01-06,114.55665588378906
2015-01-07,115.13724517822266
2015-01-08,118.0972900390625
2015-01-09,114.53760528564453
2015-01-12,113.96653747558594
2015-01-13,113.71908569335938
2015-01-14,111.27299499511719
2015-01-15,109.43606567382812
2015-01-16,111.0445785522461
2015-01-20,111.32059478759766
2015-01-21,112.07250213623047
2015-01-22,118.44945526123047
2015-01-23,115.85106658935547
2015-01-26,116.80287170410156
2015-01-27,114.60425567626953
2015-01-28,111.71082305908203
2015-01-29,113.23368072509766
2015-01-30,111.48239135742188
2015-02-02,114.51858520507812
2015-02-03,116.94562530517578
2015-02-04,115.19434356689453
2015-02-05,117.4881591796875
2015-02-06,119.53448486328125
2015-02-09,117.4881591796875
2015-02-10,118.88726043701172
2015-02-11,118.19246673583984
2015-02-12,119.52496337890625
2015-02-13,119.63917541503906
2015-02-17,120.61951446533203
2015-02-18,118.46849822998047
2015-02-19,117.91646575927734
2015-02-20,119.63917541503906
2015-02-23,119.9532699584961
2015-02-24,119.58206939697266
2015-02-25,118.28765106201172
2015-02-26,117.85934448242188
2015-02-27,117.40247344970703
2015-03-02,118.61125183105469
2015-03-03,118.40184783935547
2015-03-04,118.73499298095703
2015-03-05,118.85870361328125
2015-03-06,120.18169403076172
2015-03-09,120.41011810302734
2015-03-10,117.37393188476562
2015-03-11,119.3822021484375
2015-03-12,122.99895477294922
2015-03-13,124.98820495605469
2015-03-16,126.12083435058594
2015-03-17,125.25470733642578
2015-03-18,125.18807220458984
2015-03-19,124.64555358886719
2015-03-20,125.54023742675781
2015-03-23,123.59861755371094
2015-03-24,122.91329956054688
2015-03-25,120.0198974609375
2015-03-26,121.42852783203125
2015-03-27,121.12396240234375
2015-03-30,123.05607604980469
2015-03-31,123.33209228515625
2015-04-01,124.10304260253906
2015-04-02,124.95963287353516
2015-04-06,125.12144470214844
2015-04-07,125.54023742675781
2015-04-08,124.66459655761719
2015-04-09,124.4456787109375
2015-04-10,124.24580383300781
2015-04-13,125.1404800415039
2015-04-14,124.05542755126953
2015-04-15,124.92156219482422
2015-04-16,124.91205596923828
2015-04-17,122.69440460205078
2015-04-20,122.74199676513672
2015-04-21,129.77565002441406
2015-04-22,128.65257263183594
2015-04-23,128.1385955810547
2015-04-24,126.11131286621094
2015-04-27,124.75025177001953
2015-04-28,126.61575317382812
2015-04-29,127.68171691894531
2015-04-30,127.62464141845703
2015-05-01,127.54851531982422
2015-05-04,130.52757263183594
2015-05-05,130.18495178222656
2015-05-06,131.4603271484375
2015-05-07,130.64178466796875
2015-05-08,131.38418579101562
2015-05-11,132.16464233398438
2015-05-12,132.7261962890625
2015-05-13,133.33534240722656
2015-05-14,134.36325073242188
2015-05-15,132.04090881347656
2015-05-18,134.09677124023438
2015-05-19,135.35313415527344
2015-05-20,134.8105926513672
2015-05-21,135.2388916015625
2015-05-22,134.98193359375
2015-05-26,133.55426025390625
2015-05-27,134.39181518554688
2015-05-28,134.55360412597656
2015-05-29,132.9165496826172
2015-06-01,131.8981475830078
2015-06-02,132.46922302246094
2015-06-03,132.8880157470703
2015-06-04,132.80235290527344
2015-06-05,133.59234619140625
2015-06-08,135.4197540283203
2015-06-09,137.44705200195312
2015-06-10,139.5219268798828
2015-06-11,139.7884063720703
2015-06-12,139.65516662597656
2015-06-15,139.36013793945312
2015-06-16,141.15899658203125
2015-06-17,138.48448181152344
2015-06-18,139.24591064453125
2015-06-19,139.42677307128906
2015-06-22,140.86395263671875
2015-06-23,141.30177307128906
2015-06-24,140.01686096191406
2015-06-25,139.94073486328125
2015-06-26,141.73960876464844
2015-06-29,138.54159545898438
2015-06-30,139.33155822753906
2015-07-01,141.7300567626953
2015-07-02,140.6165008544922
2015-07-06,139.66470336914062
2015-07-07,137.38995361328125
2015-07-08,136.99020385742188
2015-07-09,138.85569763183594
2015-07-10,140.34046936035156
2015-07-13,141.33982849121094
2015-07-14,141.45404052734375
2015-07-15,143.56700134277344
2015-07-16,144.8614044189453
2015-07-17,143.95724487304688
2015-07-20,144.79483032226562
2015-07-21,139.0460205078125
2015-07-22,142.59620666503906
2015-07-23,142.32969665527344
2015-07-24,141.14947509765625
2015-07-27,139.41722106933594
2015-07-28,139.19834899902344
2015-07-29,139.40773010253906
2015-07-30,139.5600128173828
2015-07-31,138.57015991210938
2015-08-03,138.77952575683594
2015-08-04,139.2363739013672
2015-08-05,142.3011474609375
2015-08-06,139.46481323242188
2015-08-07,138.94134521484375
2015-08-10,139.58856201171875
2015-08-11,137.03778076171875
2015-08-12,133.4971160888672
2015-08-13,134.5631561279297
2015-08-14,136.39056396484375
2015-08-17,137.0092315673828
2015-08-18,136.5714111328125
2015-08-19,133.59234619140625
2015-08-20,129.96603393554688
2015-08-21,128.3765411376953
2015-08-24,122.48501586914062
2015-08-25,121.2286605834961
2015-08-26,124.42664337158203
2015-08-27,126.50153350830078
2015-08-28,126.63479614257812
2015-08-31,127.05359649658203
2015-09-01,120.82890319824219
2015-09-02,122.62776947021484
2015-09-03,124.77881622314453
2015-09-04,123.80797576904297
2015-09-08,128.31947326660156
2015-09-09,127.21539306640625
2015-09-10,129.28074645996094
2015-09-11,130.55612182617188
2015-09-14,131.1748046875
2015-09-15,132.2883758544922
2015-09-16,132.0694580078125
2015-09-17,132.46922302246094
2015-09-18,130.08973693847656
2015-09-21,132.0980224609375
2015-09-22,131.35562133789062
2015-09-23,132.14561462402344
2015-09-24,131.44129943847656
2015-09-25,131.9362030029297
2015-09-28,129.2902374267578
2015-09-29,129.30931091308594
2015-09-30,130.92733764648438
2015-10-01,132.6976318359375
2015-10-02,129.3188018798828
2015-10-05,133.4971160888672
2015-10-06,132.15513610839844
2015-10-07,134.14437866210938
2015-10-08,135.2388916015625
2015-10-09,134.06822204589844
2015-10-12,135.1913299560547
2015-10-13,134.67735290527344
2015-10-14,131.48886108398438
2015-10-15,134.2300262451172
2015-10-16,133.97300720214844
2015-10-19,136.84744262695312
2015-10-20,139.1602783203125
2015-10-21,137.0568084716797
2015-10-22,138.20846557617188
2015-10-23,141.88235473632812
2015-10-26,140.67356872558594
2015-10-27,139.98829650878906
2015-10-28,146.19393920898438
2015-10-29,144.5854034423828
2015-10-30,141.73960876464844
2015-11-02,143.9857940673828
2015-11-03,142.02513122558594
2015-11-04,143.0435028076172
2015-11-05,144.4521942138672
2015-11-06,149.1349334716797
2015-11-09,149.41098022460938
2015-11-10,148.57339477539062
2015-11-11,148.5353240966797
2015-11-12,145.40396118164062
2015-11-13,144.0143280029297
2015-11-16,145.88937377929688
2015-11-17,145.6133575439453
2015-11-18,147.91665649414062
2015-11-19,148.09751892089844
2015-11-20,149.62033081054688
2015-11-23,151.3906707763672
2015-11-24,152.694580078125
2015-11-25,152.98011779785156
2015-11-27,152.48521423339844
2015-11-30,150.5245361328125
2015-12-01,150.60069274902344
2015-12-02,149.0492706298828
2015-12-03,146.55563354492188
2015-12-04,149.99156188964844
2015-12-07,147.94520568847656
2015-12-08,147.4883575439453
2015-12-09,145.9845428466797
2015-12-10,146.16537475585938
2015-12-11,144.1381072998047
2015-12-14,143.843017578125
2015-12-15,148.0499267578125
2015-12-16,149.7631378173828
2015-12-17,147.2408905029297
2015-12-18,143.900146484375
2015-12-21,144.33795166015625
2015-12-22,144.09999084472656
2015-12-23,145.5943145751953
2015-12-24,146.21298217773438
2015-12-28,147.37413024902344
2015-12-29,148.66856384277344
2015-12-30,146.8792266845703
2015-12-31,145.97503662109375
2016-01-04,138.2845916748047
2016-01-05,138.65579223632812
2016-01-06,136.26683044433594
2016-01-07,132.23126220703125
2016-01-08,129.34735107421875
2016-01-11,129.91845703125
2016-01-12,131.184326171875
2016-01-13,127.98632049560547
2016-01-14,129.89938354492188
2016-01-15,128.23377990722656
2016-01-19,129.18557739257812
2016-01-20,130.11831665039062
2016-01-21,132.38356018066406
2016-01-22,128.83340454101562
2016-01-25,122.45646667480469
2016-01-26,126.75849151611328
2016-01-27,126.80611419677734
2016-01-28,129.156982421875
2016-01-29,132.6215057373047
2016-02-01,134.51553344726562
2016-02-02,131.1938018798828
2016-02-03,132.84042358398438
2016-02-04,132.84042358398438
2016-02-05,129.99459838867188
2016-02-08,123.40824127197266
2016-02-09,121.65696716308594
2016-02-10,122.72294616699219
2016-02-11,114.10931396484375
2016-02-12,120.32447052001953
2016-02-16,124.7978286743164
2016-02-17,125.22612762451172
2016-02-18,123.36064910888672
2016-02-19,125.00723266601562
2016-02-22,126.13034057617188
2016-02-23,122.92283630371094
2016-02-24,122.12332916259766
2016-02-25,124.30292510986328
2016-02-26,125.58782196044922
2016-02-29,123.30355072021484
2016-03-01,128.2623291015625
2016-03-02,129.86134338378906
2016-03-03,135.58154296875
2016-03-04,135.4578399658203
2016-03-07,135.9337158203125
2016-03-08,133.87786865234375
2016-03-09,130.87020874023438
2016-03-10,132.14561462402344
2016-03-11,135.27699279785156
2016-03-14,135.0390167236328
2016-03-15,135.2388916015625
2016-03-16,133.53521728515625
2016-03-17,133.67800903320312
2016-03-18,133.5256805419922
2016-03-21,134.5060272216797
2016-03-22,133.91592407226562
2016-03-23,131.22238159179688
2016-03-24,131.56503295898438
2016-03-28,131.26995849609375
2016-03-29,130.83213806152344
2016-03-30,131.59356689453125
2016-03-31,129.55674743652344
2016-04-01,129.04281616210938
2016-04-04,130.10879516601562
2016-04-05,127.84353637695312
2016-04-06,128.8048858642578
2016-04-07,126.18745422363281
2016-04-08,127.59606170654297
2016-04-11,127.08213806152344
2016-04-12,129.5758056640625
2016-04-13,133.84930419921875
2016-04-14,135.60060119628906
2016-04-15,135.85757446289062
2016-04-18,136.7141571044922
2016-04-19,139.8074493408203
2016-04-20,134.42037963867188
2016-04-21,131.41275024414062
2016-04-22,134.88674926757812
2016-04-25,135.60060119628906
2016-04-26,136.9140625
2016-04-27,136.27635192871094
2016-04-28,132.65005493164062
2016-04-29,131.184326171875
2016-05-02,130.94635009765625
2016-05-03,128.06246948242188
2016-05-04,125.43553924560547
2016-05-05,124.41712951660156
2016-05-06,125.24516296386719
2016-05-09,124.41712951660156
2016-05-10,125.74010467529297
2016-05-11,126.75849151611328
2016-05-12,126.29212951660156
2016-05-13,124.77881622314453
2016-05-16,125.77818298339844
2016-05-17,123.5890884399414
2016-05-18,127.6722183227539
2016-05-19,126.88224029541016
2016-05-20,127.75789642333984
2016-05-23,127.53899383544922
2016-05-24,130.45143127441406
2016-05-25,132.07899475097656
2016-05-26,129.65194702148438
2016-05-27,130.75599670410156
2016-05-31,128.4907684326172
2016-06-01,128.6715850830078
2016-06-02,128.40512084960938
2016-06-03,126.79658508300781
2016-06-06,127.90066528320312
2016-06-07,127.05359649658203
2016-06-08,127.9101791381836
2016-06-09,125.95901489257812
2016-06-10,124.92156219482422
2016-06-13,122.77055358886719
2016-06-14,119.59159088134766
2016-06-15,120.02940368652344
2016-06-16,118.62075805664062
2016-06-17,118.7445068359375
2016-06-20,119.87711334228516
2016-06-21,121.77117156982422
2016-06-22,122.34222412109375
2016-06-23,125.0928955078125
2016-06-24,116.58394622802734
2016-06-27,109.44557189941406
2016-06-28,115.71781921386719
2016-06-29,117.0693588256836
2016-06-30,118.89678192138672
2016-07-01,117.37393188476562
2016-07-05,114.74700164794922
2016-07-06,116.5173110961914
2016-07-07,118.05921173095703
2016-07-08,119.96278381347656
2016-07-11,121.16204071044922
2016-07-12,123.29403686523438
2016-07-13,122.2565689086914
2016-07-14,124.37903594970703
2016-07-15,124.12207794189453
2016-07-18,122.884765625
2016-07-19,123.68424987792969
2016-07-20,118.05921173095703
2016-07-21,117.04080200195312
2016-07-22,118.08776092529297
2016-07-25,116.67912292480469
2016-07-26,116.61250305175781
2016-07-27,115.49893188476562
2016-07-28,114.9563980102539
2016-07-29,114.44244384765625
2016-08-01,113.82376098632812
2016-08-02,112.29141998291016
2016-08-03,114.06172180175781
2016-08-04,113.73811340332031
2016-08-05,118.14488220214844
2016-08-08,114.74700164794922
2016-08-09,114.5090560913086
2016-08-10,112.51032257080078
2016-08-11,112.49128723144531
2016-08-12,111.92972564697266
2016-08-15,113.30982208251953
2016-08-16,111.87262725830078
2016-08-17,111.6537094116211
2016-08-18,111.71082305908203
2016-08-19,111.64419555664062
2016-08-22,111.74888610839844
2016-08-23,111.52998352050781
2016-08-24,112.16767883300781
2016-08-25,112.77681732177734
2016-08-26,113.75714874267578
2016-08-29,114.88025665283203
2016-08-30,115.74638366699219
2016-08-31,116.12709045410156
2016-09-01,115.01350402832031
2016-09-02,116.20323181152344
2016-09-06,113.0433120727539
2016-09-07,113.89041137695312
2016-09-08,113.05282592773438
2016-09-09,112.691162109375
2016-09-12,112.82440948486328
2016-09-13,112.14864349365234
2016-09-14,110.44493865966797
2016-09-15,110.14037322998047
2016-09-16,110.2070083618164
2016-09-19,110.26409912109375
2016-09-20,109.37895965576172
2016-09-21,109.4551010131836
2016-09-22,110.27361297607422
2016-09-23,110.62580108642578
2016-09-26,109.28376770019531
2016-09-27,110.36880493164062
2016-09-28,113.34788513183594
2016-09-29,111.61563873291016
2016-09-30,112.73873901367188
2016-10-03,111.71082305908203
2016-10-04,113.88088989257812
2016-10-05,116.74575805664062
2016-10-06,116.39359283447266
2016-10-07,117.37393188476562
2016-10-10,116.84093475341797
2016-10-11,115.12772369384766
2016-10-12,114.62328338623047
2016-10-13,111.7298583984375
2016-10-14,111.69178009033203
2016-10-17,109.93099212646484
2016-10-18,109.93099212646484
2016-10-19,113.85233306884766
2016-10-20,111.02554321289062
2016-10-21,111.13023376464844
2016-10-24,113.0052490234375
2016-10-25,110.62580108642578
2016-10-26,111.47286987304688
2016-10-27,113.22416687011719
2016-10-28,112.57694244384766
2016-10-31,114.74700164794922
2016-11-01,115.44181060791016
2016-11-02,113.47160339355469
2016-11-03,114.44244384765625
2016-11-04,114.67086791992188
2016-11-07,117.81175231933594
2016-11-08,116.14612579345703
2016-11-09,124.6931381225586
2016-11-10,132.66909790039062
2016-11-11,135.39122009277344
2016-11-14,141.0162353515625
2016-11-15,140.8829803466797
2016-11-16,139.9311981201172
2016-11-17,141.57778930664062
2016-11-18,142.14883422851562
2016-11-21,142.47244262695312
2016-11-22,142.74847412109375
2016-11-23,143.1006317138672
2016-11-25,142.96739196777344
2016-11-28,141.51113891601562
2016-11-29,142.3011474609375
2016-11-30,142.6818389892578
2016-12-01,147.02197265625
2016-12-02,143.3576202392578
2016-12-05,143.95724487304688
2016-12-06,145.31829833984375
2016-12-07,146.7459716796875
2016-12-08,148.4877166748047
2016-12-09,147.49786376953125
2016-12-12,144.0809783935547
2016-12-13,143.47183227539062
2016-12-14,140.29287719726562
2016-12-15,141.78717041015625
2016-12-16,138.6748504638672
2016-12-19,139.5980682373047
2016-12-20,142.8531951904297
2016-12-21,141.21612548828125
2016-12-22,143.02450561523438
2016-12-23,143.1006317138672
2016-12-27,144.03338623046875
2016-12-28,142.38681030273438
2016-12-29,142.1583709716797
2016-12-30,142.9578857421875
2017-01-03,141.69198608398438
2017-01-04,144.9851837158203
2017-01-05,142.71990966796875
2017-01-06,143.24342346191406
2017-01-09,142.7770233154297
2017-01-10,143.900146484375
2017-01-11,146.23199462890625
2017-01-12,143.5479736328125
2017-01-13,145.34686279296875
2017-01-17,141.37791442871094
2017-01-18,143.1577606201172
2017-01-19,143.69076538085938
2017-01-20,147.00294494628906
2017-01-23,146.47946166992188
2017-01-24,149.7631378173828
2017-01-25,153.68446350097656
2017-01-26,155.378662109375
2017-01-27,152.68511962890625
2017-01-30,149.7060089111328
2017-01-31,149.92489624023438
2017-02-01,148.52581787109375
2017-02-02,146.5746612548828
2017-02-03,149.9630126953125
2017-02-06,149.22061157226562
2017-02-07,148.0784454345703
2017-02-08,146.6127166748047
2017-02-09,149.36337280273438
2017-02-10,149.24916076660156
2017-02-13,149.93443298339844
2017-02-14,152.10450744628906
2017-02-15,152.22824096679688
2017-02-16,153.20860290527344
2017-02-17,151.61912536621094
2017-02-21,152.44712829589844
2017-02-22,151.8380126953125
2017-02-23,150.8671875
2017-02-24,149.3538360595703
2017-02-27,151.48583984375
2017-02-28,149.9154052734375
2017-03-01,154.87417602539062
2017-03-02,151.76187133789062
2017-03-03,154.4173583984375
2017-03-06,153.25619506835938
2017-03-07,152.75172424316406
2017-03-08,150.61021423339844
2017-03-09,151.8856201171875
2017-03-10,151.0480194091797
2017-03-13,150.33419799804688
2017-03-14,149.8202362060547
2017-03-15,148.10702514648438
2017-03-16,148.08798217773438
2017-03-17,147.17425537109375
2017-03-20,145.73709106445312
2017-03-21,139.6742401123047
2017-03-22,138.27508544921875
2017-03-23,137.5993194580078
2017-03-24,137.76113891601562
2017-03-27,136.5809326171875
2017-03-28,138.3798065185547
2017-03-29,139.0365447998047
2017-03-30,142.63424682617188
2017-03-31,141.23513793945312
2017-04-03,140.12155151367188
2017-04-04,138.9794158935547
2017-04-05,135.8290252685547
2017-04-06,135.85757446289062
2017-04-07,134.61073303222656
2017-04-10,134.05870056152344
2017-04-11,135.4578399658203
2017-04-12,133.62086486816406
2017-04-13,129.93748474121094
2017-04-17,131.5840606689453
2017-04-18,132.23126220703125
2017-04-19,132.43113708496094
2017-04-20,133.20208740234375
2017-04-21,133.33534240722656
2017-04-24,134.87722778320312
2017-04-25,134.64883422851562
2017-04-26,134.73446655273438
2017-04-27,133.4685821533203
2017-04-28,131.7744140625
2017-05-01,132.85943603515625
2017-05-02,130.87973022460938
2017-05-03,130.39434814453125
2017-05-04,130.86070251464844
2017-05-05,130.37530517578125
2017-05-08,130.63229370117188
2017-05-09,129.82325744628906
2017-05-10,133.34486389160156
2017-05-11,132.48828125
2017-05-12,134.5631561279297
2017-05-15,135.3816680908203
2017-05-16,135.4673309326172
2017-05-17,131.20333862304688
2017-05-18,132.54534912109375
2017-05-19,132.5548858642578
2017-05-22,133.53521728515625
2017-05-23,134.0111083984375
2017-05-24,136.0479278564453
2017-05-25,137.6374053955078
2017-05-26,138.17990112304688
2017-05-30,136.98068237304688
2017-05-31,136.1240692138672
2017-06-01,139.13168334960938
2017-06-02,137.93246459960938
2017-06-05,138.50355529785156
2017-06-06,135.9527130126953
2017-06-07,136.9140625
2017-06-08,140.12155151367188
2017-06-09,145.3278045654297
2017-06-12,145.58477783203125
2017-06-13,145.4324951171875
2017-06-14,143.900146484375
2017-06-15,139.17929077148438
2017-06-16,137.1234588623047
2017-06-19,135.26747131347656
2017-06-20,133.33534240722656
2017-06-21,130.29913330078125
2017-06-22,130.08973693847656
2017-06-23,129.4996337890625
2017-06-26,130.35629272460938
2017-06-27,132.421630859375
2017-06-28,134.85821533203125
2017-06-29,137.1234588623047
2017-06-30,136.6094512939453
2017-07-03,138.07522583007812
2017-07-05,136.83790588378906
2017-07-06,135.20083618164062
2017-07-07,135.0580596923828
2017-07-10,134.8105926513672
2017-07-11,134.34422302246094
2017-07-12,132.22177124023438
2017-07-13,132.8880157470703
2017-07-14,132.80235290527344
2017-07-17,132.83091735839844
2017-07-18,131.69827270507812
2017-07-19,129.13796997070312
2017-07-20,127.60560607910156
2017-07-21,125.58782196044922
2017-07-24,127.82450866699219
2017-07-25,131.07009887695312
2017-07-26,129.17605590820312
2017-07-27,130.21348571777344
2017-07-28,129.94696044921875
2017-07-31,131.8981475830078
2017-08-01,132.421630859375
2017-08-02,131.48886108398438
2017-08-03,129.50917053222656
2017-08-04,129.889892578125
2017-08-07,129.40447998046875
2017-08-08,129.34735107421875
2017-08-09,127.21539306640625
2017-08-10,122.80860137939453
2017-08-11,122.2756118774414
2017-08-14,125.06432342529297
2017-08-15,124.8263931274414
2017-08-16,124.14109802246094
2017-08-17,121.89490509033203
2017-08-18,121.54273223876953
2017-08-21,122.33272552490234
2017-08-22,122.97039794921875
2017-08-23,123.09416198730469
2017-08-24,124.34097290039062
2017-08-25,124.67411041259766
2017-08-28,123.57955169677734
2017-08-29,122.26610565185547
2017-08-30,122.34222412109375
2017-08-31,122.15187072753906
2017-09-01,122.42790985107422
2017-09-05,119.24894714355469
2017-09-06,119.79145050048828
2017-09-07,116.22227478027344
2017-09-08,117.74513244628906
2017-09-11,119.85809326171875
2017-09-12,122.67536926269531
2017-09-13,116.63154602050781
2017-09-14,114.09027862548828
2017-09-15,113.18608093261719
2017-09-18,114.15691375732422
2017-09-19,114.3567886352539
2017-09-20,114.42341613769531
2017-09-21,116.00337219238281
2017-09-22,115.87013244628906
2017-09-25,115.99385833740234
2017-09-26,118.0401840209961
2017-09-27,121.05733489990234
2017-09-28,120.58143615722656
2017-09-29,121.86634063720703
2017-10-02,123.00849914550781
2017-10-03,122.18997192382812
2017-10-04,118.63980865478516
2017-10-05,119.69628143310547
2017-10-06,119.32508850097656
2017-10-09,118.0401840209961
2017-10-10,121.02877044677734
2017-10-11,119.6201400756836
2017-10-12,118.55414581298828
2017-10-13,117.55477142333984
2017-10-16,118.7254638671875
2017-10-17,117.7546615600586
2017-10-18,118.7254638671875
2017-10-19,120.03892517089844
2017-10-20,127.6627197265625
2017-10-23,127.17730712890625
2017-10-24,129.32833862304688
2017-10-25,127.45332336425781
2017-10-26,127.85308074951172
2017-10-27,126.76802825927734
2017-10-30,124.21725463867188
2017-10-31,123.7413558959961
2017-11-01,123.44630432128906
2017-11-02,124.1791763305664
2017-11-03,125.25470733642578
2017-11-06,124.03641510009766
2017-11-07,120.6861343383789
2017-11-08,118.411376953125
2017-11-09,118.37330627441406
2017-11-10,118.90631103515625
2017-11-13,121.05733489990234
2017-11-14,124.70266723632812
2017-11-15,124.06497192382812
2017-11-16,123.53195190429688
2017-11-17,123.65569305419922
2017-11-20,124.91205596923828
2017-11-21,125.02627563476562
2017-11-22,124.23628234863281
2017-11-24,123.32259368896484
2017-11-27,123.12271118164062
2017-11-28,127.8816146850586
2017-11-29,132.04090881347656
2017-11-30,130.6608428955078
2017-12-01,129.6709747314453
2017-12-04,131.82200622558594
2017-12-05,131.22238159179688
2017-12-06,129.59486389160156
2017-12-07,130.6227569580078
2017-12-08,130.9368438720703
2017-12-11,129.813720703125
2017-12-12,129.90895080566406
2017-12-13,128.32896423339844
2017-12-14,126.99646759033203
2017-12-15,128.55738830566406
2017-12-18,132.23126220703125
2017-12-19,130.83213806152344
2017-12-20,130.4990234375
2017-12-21,132.45968627929688
2017-12-22,132.402587890625
2017-12-26,131.28900146484375
2017-12-27,130.6227569580078
2017-12-28,130.84165954589844
2017-12-29,130.64178466796875
2018-01-02,131.3461151123047
2018-01-03,133.8873748779297
2018-01-04,135.0771026611328
2018-01-05,134.73446655273438
2018-01-08,132.402587890625
2018-01-09,135.1627655029297
2018-01-10,137.6469268798828
2018-01-11,140.40708923339844
2018-01-12,140.89248657226562
2018-01-16,140.4451446533203
2018-01-17,140.91152954101562
2018-01-18,146.04165649414062
2018-01-19,152.12353515625
2018-01-22,150.64828491210938
2018-01-23,148.92555236816406
2018-01-24,147.5264434814453
2018-01-25,147.91665649414062
2018-01-26,147.78341674804688
2018-01-29,146.76499938964844
2018-01-30,145.2611846923828
2018-01-31,146.5746612548828
2018-02-01,149.53468322753906
2018-02-02,150.18191528320312
2018-02-05,143.3480987548828
2018-02-06,142.9483642578125
2018-02-07,144.81385803222656
2018-02-08,139.30303955078125
2018-02-09,142.1774139404297
2018-02-12,142.23451232910156
2018-02-13,143.65267944335938
2018-02-14,145.62286376953125
2018-02-15,147.05056762695312
2018-02-16,147.32656860351562
2018-02-20,143.79544067382812
2018-02-21,145.37539672851562
2018-02-22,142.1012725830078
2018-02-23,145.137451171875
2018-02-26,146.79356384277344
2018-02-27,144.56637573242188
2018-02-28,139.1412353515625
2018-03-01,140.31190490722656
2018-03-02,145.3373260498047
2018-03-05,148.3544464111328
2018-03-06,149.03976440429688
2018-03-07,149.3538360595703
2018-03-08,147.02197265625
2018-03-09,149.89637756347656
2018-03-12,149.63938903808594
2018-03-13,149.7631378173828
2018-03-14,145.137451171875
2018-03-15,147.01246643066406
2018-03-16,148.1165313720703
2018-03-19,147.0791015625
2018-03-20,145.64190673828125
2018-03-21,145.9083709716797
2018-03-22,139.70274353027344
2018-03-23,133.82078552246094
2018-03-26,137.9609832763672
2018-03-27,134.91529846191406
2018-03-28,134.35377502441406
2018-03-29,135.1056365966797
2018-04-02,131.2794647216797
2018-04-03,131.7173309326172
2018-04-04,133.097412109375
2018-04-05,133.39242553710938
2018-04-06,129.46160888671875
2018-04-09,128.81439208984375
2018-04-10,130.24203491210938
2018-04-11,131.04153442382812
2018-04-12,133.1354522705078
2018-04-13,131.6125946044922
2018-04-16,133.92544555664062
2018-04-17,130.432373046875
2018-04-18,128.60496520996094
2018-04-19,124.61701202392578
2018-04-20,123.06558990478516
2018-04-23,122.2946548461914
2018-04-24,122.1423568725586
2018-04-25,122.32321166992188
2018-04-26,123.66520690917969
2018-04-27,123.9412612915039
2018-04-30,121.01927185058594
2018-05-01,124.03641510009766
2018-05-02,122.70391082763672
2018-05-03,120.78132629394531
2018-05-04,122.06622314453125
2018-05-07,123.20835876464844
2018-05-08,122.80860137939453
2018-05-09,123.96028137207031
2018-05-10,124.08399963378906
2018-05-11,124.32192993164062
2018-05-14,124.63604736328125
2018-05-15,125.18807220458984
2018-05-16,125.28324890136719
2018-05-17,123.79847717285156
2018-05-18,123.07510375976562
2018-05-21,124.8359146118164
2018-05-22,125.65444946289062
2018-05-23,124.15064239501953
2018-05-24,123.9222183227539
2018-05-25,123.93171691894531
2018-05-29,121.5617904663086
2018-05-30,123.00849914550781
2018-05-31,121.34286499023438
2018-06-01,121.85682678222656
2018-06-04,123.04655456542969
2018-06-05,122.09477233886719
2018-06-06,125.7210693359375
2018-06-07,125.54023742675781
2018-06-08,124.34097290039062
2018-06-11,120.981201171875
2018-06-12,119.70579528808594
2018-06-13,120.18169403076172
2018-06-14,119.98182678222656
2018-06-15,120.20072937011719
2018-06-18,122.36128234863281
2018-06-19,123.47486877441406
2018-06-20,124.7312240600586
2018-06-21,125.61637878417969
2018-06-22,126.34923553466797
2018-06-25,124.36955261230469
2018-06-26,122.40885162353516
2018-06-27,120.80987548828125
2018-06-28,121.10492706298828
2018-06-29,121.71406555175781
2018-07-02,122.78006744384766
2018-07-03,121.16204071044922
2018-07-05,120.71469116210938
2018-07-06,122.32321166992188
2018-07-09,126.48249816894531
2018-07-10,123.22740173339844
2018-07-11,122.39935302734375
2018-07-12,118.7254638671875
2018-07-13,117.47863006591797
2018-07-16,117.8783950805664
2018-07-17,118.62075805664062
2018-07-18,119.23943328857422
2018-07-19,112.9862060546875
2018-07-20,114.09027862548828
2018-07-23,111.51095581054688
2018-07-24,109.52172088623047
2018-07-25,108.96968078613281
2018-07-26,107.8941650390625
2018-07-27,106.47602081298828
2018-07-30,106.11434173583984
2018-07-31,104.9472885131836
2018-08-01,105.48297882080078
2018-08-02,106.1812973022461
2018-08-03,105.12906646728516
2018-08-06,104.88034057617188
2018-08-07,104.81336975097656
2018-08-08,106.40130615234375
2018-08-09,106.92742156982422
2018-08-10,106.70742797851562
2018-08-13,106.14303588867188
2018-08-14,109.19454193115234
2018-08-15,107.85531616210938
2018-08-16,112.42781829833984
2018-08-17,112.43739318847656
2018-08-20,112.83914947509766
2018-08-21,114.5418701171875
2018-08-22,114.01576232910156
2018-08-23,113.71920776367188
2018-08-24,112.65740203857422
2018-08-27,112.65740203857422
2018-08-28,112.08345031738281
2018-08-29,111.89212799072266
2018-08-30,110.51464080810547
2018-08-31,110.71552276611328
2018-09-04,112.13126373291016
2018-09-05,112.31303405761719
2018-09-06,113.97748565673828
2018-09-07,113.776611328125
2018-09-10,113.70008087158203
2018-09-11,114.18793487548828
2018-09-12,111.98780059814453
2018-09-13,112.67654418945312
2018-09-14,114.4653549194336
2018-09-17,114.08272552490234
2018-09-18,112.76261901855469
2018-09-19,114.25489807128906
2018-09-20,114.76190185546875
2018-09-21,113.25048828125
2018-09-24,109.71111297607422
2018-09-25,110.29462432861328
2018-09-26,107.66402435302734
2018-09-27,108.93626403808594
2018-09-28,109.85458374023438
2018-10-01,108.55364227294922
2018-10-02,108.75452423095703
2018-10-03,110.88771057128906
2018-10-04,110.6963882446289
2018-10-05,109.73023986816406
2018-10-08,110.96424102783203
2018-10-09,111.3564453125
2018-10-10,110.51464080810547
2018-10-11,107.0135269165039
2018-10-12,104.49771118164062
2018-10-15,106.55437469482422
2018-10-16,107.099609375
2018-10-17,107.73096466064453
2018-10-18,111.20338439941406
2018-10-19,107.90316772460938
2018-10-22,103.13935089111328
2018-10-23,103.40718078613281
2018-10-24,101.48445129394531
2018-10-25,103.29239654541016
2018-10-26,103.34980010986328
2018-10-29,108.47711181640625
2018-10-30,107.252685546875
2018-10-31,105.65677642822266
2018-11-01,106.87773132324219
2018-11-02,106.6566162109375
2018-11-05,110.7713623046875
2018-11-06,110.11761474609375
2018-11-07,110.03108215332031
2018-11-08,111.7519760131836
2018-11-09,111.27127838134766
2018-11-12,109.47349548339844
2018-11-13,111.10784912109375
2018-11-14,110.06954193115234
2018-11-15,111.58853912353516
2018-11-16,113.14599609375
2018-11-19,112.56916809082031
2018-11-20,110.7617416381836
2018-11-21,111.65584564208984
2018-11-23,110.88671875
2018-11-26,113.76128387451172
2018-11-27,111.69429779052734
2018-11-28,114.33811950683594
2018-11-29,117.8568115234375
2018-11-30,118.56824493408203
2018-12-03,117.57801055908203
2018-12-04,112.67491912841797
2018-12-06,112.05961608886719
2018-12-07,111.77120971679688
2018-12-10,109.80036163330078
2018-12-11,109.26197814941406
2018-12-12,110.41563415527344
2018-12-13,106.7335205078125
2018-12-14,104.69537353515625
2018-12-17,103.80127716064453
2018-12-18,103.33020782470703
2018-12-19,98.84050750732422
2018-12-20,98.60016632080078
2018-12-21,98.33097839355469
2018-12-24,96.55240631103516
2018-12-26,100.90750122070312
2018-12-27,97.92719268798828
2018-12-28,97.96563720703125
2018-12-31,98.84050750732422
2019-01-02,100.46527099609375
2019-01-03,101.58047485351562
2019-01-04,103.08023834228516
2019-01-07,105.0799331665039
2019-01-08,107.0988540649414
2019-01-09,106.6566162109375
2019-01-10,105.02225494384766
2019-01-11,106.80081939697266
2019-01-14,106.61814880371094
2019-01-15,105.95480346679688
2019-01-16,108.117919921875
2019-01-17,116.63583374023438
2019-01-18,119.59691619873047
2019-01-22,119.78919982910156
2019-01-23,120.5102310180664
2019-01-24,119.5873031616211
2019-01-25,121.06785583496094
2019-01-28,120.6352310180664
2019-01-29,120.82749938964844
2019-01-30,122.24075317382812
2019-01-31,122.93600463867188
2019-02-01,123.60230255126953
2019-02-04,126.2674560546875
2019-02-05,126.68269348144531
2019-02-06,127.04000091552734
2019-02-07,127.99596405029297
2019-02-08,127.61936950683594
2019-02-11,129.52169799804688
2019-02-12,130.82530212402344
2019-02-13,130.13003540039062
2019-02-14,128.40151977539062
2019-02-15,129.0581817626953
2019-02-19,131.22120666503906
2019-02-20,130.94119262695312
2019-02-21,130.38113403320312
2019-02-22,131.25021362304688
2019-02-25,131.08602905273438
2019-02-26,130.70944213867188
2019-02-27,131.76199340820312
2019-02-28,131.09568786621094
2019-03-01,131.50123596191406
2019-03-04,131.30813598632812
2019-03-05,131.94546508789062
2019-03-06,129.0388641357422
2019-03-07,128.46914672851562
2019-03-08,128.82644653320312
2019-03-11,130.0431365966797
2019-03-12,129.09681701660156
2019-03-13,128.66226196289062
2019-03-14,129.33824157714844
2019-03-15,129.8403778076172
2019-03-18,131.8682098388672
2019-03-19,127.35865020751953
2019-03-20,124.2203140258789
2019-03-21,125.60118103027344
2019-03-22,121.767578125
2019-03-25,119.7686996459961
2019-03-26,123.48641967773438
2019-03-27,123.4960708618164
2019-03-28,125.38874816894531
2019-03-29,123.6698989868164
2019-04-01,126.0743408203125
2019-04-02,125.53358459472656
2019-04-03,124.35549926757812
2019-04-04,125.71707916259766
2019-04-05,125.52394104003906
2019-04-08,126.11297607421875
2019-04-09,124.35549926757812
2019-04-10,126.0743408203125
2019-04-11,127.57109832763672
2019-04-12,130.5935516357422
2019-04-15,129.96588134765625
2019-04-16,131.4240264892578
2019-04-17,123.66024017333984
2019-04-18,122.03795623779297
2019-04-22,122.89737701416016
2019-04-23,125.86188507080078
2019-04-24,126.41232299804688
2019-04-25,126.92411804199219
2019-04-26,128.1697998046875
2019-04-29,128.41122436523438
2019-04-30,128.07179260253906
2019-05-01,125.79293823242188
2019-05-02,127.78089904785156
2019-05-03,128.9445343017578
2019-05-06,129.4875946044922
2019-05-07,126.31658935546875
2019-05-08,125.07534790039062
2019-05-09,123.88258361816406
2019-05-10,123.08740234375
2019-05-13,119.24728393554688
2019-05-14,120.59520721435547
2019-05-15,114.59260559082031
2019-05-16,111.80949401855469
2019-05-17,113.1283187866211
2019-05-20,114.00106811523438
2019-05-21,115.09687042236328
2019-05-22,114.47624969482422
2019-05-23,113.48711395263672
2019-05-24,114.45684051513672
2019-05-28,113.64226531982422
2019-05-29,115.96961975097656
2019-05-30,112.20706939697266
2019-05-31,111.08219909667969
2019-06-03,114.0107650756836
2019-06-04,117.58906555175781
2019-06-05,115.24231719970703
2019-06-06,113.84591674804688
2019-06-07,113.1283187866211
2019-06-10,113.82652282714844
2019-06-11,116.6775131225586
2019-06-12,112.34283447265625
2019-06-13,113.66165161132812
2019-06-14,112.77921295166016
2019-06-17,110.66520690917969
2019-06-18,110.36459350585938
2019-06-19,112.75981903076172
2019-06-20,114.66047668457031
2019-06-21,113.55499267578125
2019-06-24,111.93555450439453
2019-06-25,113.1089096069336
2019-06-26,112.00343322753906
2019-06-27,115.37808227539062
2019-06-28,117.18177032470703
2019-07-01,119.50911712646484
2019-07-02,118.0157241821289
2019-07-03,120.2170181274414
2019-07-05,120.75037384033203
2019-07-08,120.50792694091797
2019-07-09,121.30311584472656
2019-07-10,120.63400268554688
2019-07-11,122.32132720947266
2019-07-12,123.73712158203125
2019-07-15,122.14676666259766
2019-07-16,121.60372161865234
2019-07-17,121.2158432006836
2019-07-18,119.06303405761719
2019-07-19,120.12004852294922
2019-07-22,120.44004821777344
2019-07-23,121.42916870117188
2019-07-24,123.08740234375
2019-07-25,120.22672271728516
2019-07-26,122.6898193359375
2019-07-29,122.80618286132812
2019-07-30,124.46443176269531
2019-07-31,124.14300537109375
2019-08-01,119.984130859375
2019-08-02,118.51342010498047
2019-08-05,116.40962982177734
2019-08-06,116.82843780517578
2019-08-07,116.25379943847656
2019-08-08,116.56546783447266
2019-08-09,117.74398040771484
2019-08-12,116.86740112304688
2019-08-13,117.03298950195312
2019-08-14,113.76042938232422
2019-08-15,112.84487915039062
2019-08-16,116.30250549316406
2019-08-19,117.1401138305664
2019-08-20,115.74732208251953
2019-08-21,115.76681518554688
2019-08-22,115.29930114746094
2019-08-23,111.64689636230469
2019-08-26,112.09491729736328
2019-08-27,109.8255615234375
2019-08-28,110.39045715332031
2019-08-29,112.55268859863281
2019-08-30,113.61432647705078
2019-09-03,110.84823608398438
2019-09-04,110.76057434082031
2019-09-05,113.38057708740234
2019-09-06,114.4129867553711
2019-09-09,116.8187026977539
2019-09-10,118.12384033203125
2019-09-11,117.66606903076172
2019-09-12,118.0069580078125
2019-09-13,118.0069580078125
2019-09-16,118.73743438720703
2019-09-17,117.34465026855469
2019-09-18,117.56866455078125
2019-09-19,118.16279602050781
2019-09-20,116.5362548828125
2019-09-23,118.61082458496094
2019-09-24,116.59468078613281
2019-09-25,117.09142303466797
2019-09-26,117.23751831054688
2019-09-27,117.16934967041016
2019-09-30,116.11744689941406
2019-10-01,113.53641510009766
2019-10-02,113.09811401367188
2019-10-03,113.59484100341797
2019-10-04,116.21484375
2019-10-07,115.06554412841797
2019-10-08,112.45528411865234
2019-10-09,112.82540130615234
2019-10-10,113.91625213623047
2019-10-11,114.4227294921875
2019-10-14,114.55908203125
2019-10-15,115.58174896240234
2019-10-16,115.60123443603516
2019-10-17,117.7829360961914
2019-10-18,119.51660919189453
2019-10-21,119.38025665283203
2019-10-22,120.49059295654297
2019-10-23,119.7503662109375
2019-10-24,118.04591369628906
2019-10-25,118.40628051757812
2019-10-28,119.86725616455078
2019-10-29,121.26004028320312
2019-10-30,116.39015197753906
2019-10-31,115.78343963623047
2019-11-01,118.50384521484375
2019-11-04,120.94046020507812
2019-11-05,121.81138610839844
2019-11-06,121.79181671142578
2019-11-07,122.02666473388672
2019-11-08,123.20094299316406
2019-11-11,122.11474609375
2019-11-12,123.33794403076172
2019-11-13,121.52760314941406
2019-11-14,122.84866333007812
2019-11-15,121.33187866210938
2019-11-18,121.51781463623047
2019-11-19,122.74102020263672
2019-11-20,122.26152038574219
2019-11-21,121.86032104492188
2019-11-22,121.07746124267578
2019-11-25,121.7526626586914
2019-11-26,121.72331237792969
2019-11-27,121.81138610839844
2019-11-29,120.71539306640625
2019-12-02,119.32584381103516
2019-12-03,120.39247131347656
2019-12-04,122.08539581298828
2019-12-05,122.60401916503906
2019-12-06,123.5630111694336
2019-12-09,123.43579864501953
2019-12-10,123.35751342773438
2019-12-11,127.16411590576172
2019-12-12,131.7340087890625
2019-12-13,132.0960693359375
2019-12-16,132.8397674560547
2019-12-17,134.2880401611328
2019-12-18,132.52662658691406
2019-12-19,132.2526397705078
2019-12-20,134.3076171875
2019-12-23,133.02572631835938
2019-12-24,133.49542236328125
2019-12-26,134.25868225097656
2019-12-27,133.60304260253906
2019-12-30,133.63241577148438
2019-12-31,133.6813507080078
