Date,SRCL
2007-12-31,59.400001525878906
2008-01-02,57.84000015258789
2008-01-03,59.04999923706055
2008-01-04,57.33000183105469
2008-01-07,58.060001373291016
2008-01-08,57.58000183105469
2008-01-09,56.439998626708984
2008-01-10,57.16999816894531
2008-01-11,58.130001068115234
2008-01-14,58.939998626708984
2008-01-15,59.77000045776367
2008-01-16,62.130001068115234
2008-01-17,58.43000030517578
2008-01-18,60.349998474121094
2008-01-22,56.150001525878906
2008-01-23,55.470001220703125
2008-01-24,56.150001525878906
2008-01-25,55.9900016784668
2008-01-28,56.790000915527344
2008-01-29,57.45000076293945
2008-01-30,57.709999084472656
2008-01-31,59.2599983215332
2008-02-01,58.900001525878906
2008-02-04,58.7400016784668
2008-02-05,56.279998779296875
2008-02-06,54.88999938964844
2008-02-07,56.150001525878906
2008-02-08,55.84000015258789
2008-02-11,54.560001373291016
2008-02-12,55.16999816894531
2008-02-13,55.869998931884766
2008-02-14,54.31999969482422
2008-02-15,53.150001525878906
2008-02-19,54.029998779296875
2008-02-20,54.650001525878906
2008-02-21,54.06999969482422
2008-02-22,54.41999816894531
2008-02-25,55.45000076293945
2008-02-26,56.47999954223633
2008-02-27,56.59000015258789
2008-02-28,55.880001068115234
2008-02-29,53.88999938964844
2008-03-03,54.619998931884766
2008-03-04,54.91999816894531
2008-03-05,55.939998626708984
2008-03-06,54.09000015258789
2008-03-07,54.0
2008-03-10,52.650001525878906
2008-03-11,53.77000045776367
2008-03-12,53.9900016784668
2008-03-13,53.400001525878906
2008-03-14,51.41999816894531
2008-03-17,50.88999938964844
2008-03-18,51.540000915527344
2008-03-19,51.18000030517578
2008-03-20,50.9900016784668
2008-03-24,50.380001068115234
2008-03-25,50.56999969482422
2008-03-26,51.380001068115234
2008-03-27,50.529998779296875
2008-03-28,51.47999954223633
2008-03-31,51.5
2008-04-01,51.5099983215332
2008-04-02,52.11000061035156
2008-04-03,52.84000015258789
2008-04-04,53.9900016784668
2008-04-07,52.790000915527344
2008-04-08,53.20000076293945
2008-04-09,53.86000061035156
2008-04-10,54.2599983215332
2008-04-11,53.83000183105469
2008-04-14,53.810001373291016
2008-04-15,53.0
2008-04-16,53.720001220703125
2008-04-17,53.529998779296875
2008-04-18,56.54999923706055
2008-04-21,55.529998779296875
2008-04-22,54.150001525878906
2008-04-23,54.810001373291016
2008-04-24,56.0
2008-04-25,55.66999816894531
2008-04-28,54.09000015258789
2008-04-29,53.43000030517578
2008-04-30,53.380001068115234
2008-05-01,54.119998931884766
2008-05-02,53.470001220703125
2008-05-05,52.58000183105469
2008-05-06,52.959999084472656
2008-05-07,51.630001068115234
2008-05-08,52.33000183105469
2008-05-09,51.810001373291016
2008-05-12,52.599998474121094
2008-05-13,52.15999984741211
2008-05-14,52.41999816894531
2008-05-15,52.68000030517578
2008-05-16,56.68000030517578
2008-05-19,56.619998931884766
2008-05-20,56.61000061035156
2008-05-21,57.7599983215332
2008-05-22,58.369998931884766
2008-05-23,57.470001220703125
2008-05-27,58.70000076293945
2008-05-28,58.65999984741211
2008-05-29,58.81999969482422
2008-05-30,58.29999923706055
2008-06-02,57.65999984741211
2008-06-03,56.88999938964844
2008-06-04,57.88999938964844
2008-06-05,58.90999984741211
2008-06-06,57.060001373291016
2008-06-09,57.81999969482422
2008-06-10,56.86000061035156
2008-06-11,55.4900016784668
2008-06-12,55.2599983215332
2008-06-13,56.709999084472656
2008-06-16,56.58000183105469
2008-06-17,56.380001068115234
2008-06-18,54.59000015258789
2008-06-19,54.209999084472656
2008-06-20,53.70000076293945
2008-06-23,53.75
2008-06-24,51.59000015258789
2008-06-25,51.040000915527344
2008-06-26,51.400001525878906
2008-06-27,50.81999969482422
2008-06-30,51.70000076293945
2008-07-01,51.16999816894531
2008-07-02,50.02000045776367
2008-07-03,50.029998779296875
2008-07-07,49.720001220703125
2008-07-08,51.029998779296875
2008-07-09,50.41999816894531
2008-07-10,52.61000061035156
2008-07-11,53.650001525878906
2008-07-14,54.2400016784668
2008-07-15,54.709999084472656
2008-07-16,55.709999084472656
2008-07-17,56.47999954223633
2008-07-18,57.56999969482422
2008-07-21,57.779998779296875
2008-07-22,60.150001525878906
2008-07-23,59.70000076293945
2008-07-24,58.849998474121094
2008-07-25,60.939998626708984
2008-07-28,60.349998474121094
2008-07-29,60.689998626708984
2008-07-30,60.279998779296875
2008-07-31,59.75
2008-08-01,59.33000183105469
2008-08-04,59.310001373291016
2008-08-05,59.400001525878906
2008-08-06,59.33000183105469
2008-08-07,58.2599983215332
2008-08-08,59.04999923706055
2008-08-11,59.29999923706055
2008-08-12,59.209999084472656
2008-08-13,59.529998779296875
2008-08-14,60.22999954223633
2008-08-15,60.77000045776367
2008-08-18,60.279998779296875
2008-08-19,60.0
2008-08-20,60.529998779296875
2008-08-21,59.880001068115234
2008-08-22,61.119998931884766
2008-08-25,59.41999816894531
2008-08-26,59.15999984741211
2008-08-27,60.209999084472656
2008-08-28,60.810001373291016
2008-08-29,59.29999923706055
2008-09-02,58.93000030517578
2008-09-03,58.630001068115234
2008-09-04,56.849998474121094
2008-09-05,57.369998931884766
2008-09-08,57.31999969482422
2008-09-09,56.08000183105469
2008-09-10,57.439998626708984
2008-09-11,58.849998474121094
2008-09-12,60.150001525878906
2008-09-15,59.91999816894531
2008-09-16,62.529998779296875
2008-09-17,61.040000915527344
2008-09-18,64.7699966430664
2008-09-19,63.86000061035156
2008-09-22,63.0099983215332
2008-09-23,62.88999938964844
2008-09-24,62.20000076293945
2008-09-25,62.34000015258789
2008-09-26,63.2400016784668
2008-09-29,59.61000061035156
2008-09-30,58.90999984741211
2008-10-01,58.06999969482422
2008-10-02,57.41999816894531
2008-10-03,56.52000045776367
2008-10-06,54.41999816894531
2008-10-07,52.95000076293945
2008-10-08,51.4900016784668
2008-10-09,48.83000183105469
2008-10-10,49.220001220703125
2008-10-13,54.40999984741211
2008-10-14,54.2599983215332
2008-10-15,50.709999084472656
2008-10-16,54.52000045776367
2008-10-17,55.27000045776367
2008-10-20,56.439998626708984
2008-10-21,53.380001068115234
2008-10-22,52.099998474121094
2008-10-23,51.97999954223633
2008-10-24,50.400001525878906
2008-10-27,49.380001068115234
2008-10-28,52.08000183105469
2008-10-29,53.279998779296875
2008-10-30,56.81999969482422
2008-10-31,58.43000030517578
2008-11-03,57.90999984741211
2008-11-04,57.95000076293945
2008-11-05,56.20000076293945
2008-11-06,54.599998474121094
2008-11-07,55.95000076293945
2008-11-10,56.060001373291016
2008-11-11,56.61000061035156
2008-11-12,54.9900016784668
2008-11-13,58.720001220703125
2008-11-14,58.0099983215332
2008-11-17,58.869998931884766
2008-11-18,61.130001068115234
2008-11-19,59.2400016784668
2008-11-20,54.9900016784668
2008-11-21,55.189998626708984
2008-11-24,56.150001525878906
2008-11-25,57.29999923706055
2008-11-26,55.5099983215332
2008-11-28,57.29999923706055
2008-12-01,51.16999816894531
2008-12-02,53.220001220703125
2008-12-03,53.189998626708984
2008-12-04,51.220001220703125
2008-12-05,53.22999954223633
2008-12-08,54.13999938964844
2008-12-09,52.61000061035156
2008-12-10,53.279998779296875
2008-12-11,52.130001068115234
2008-12-12,52.79999923706055
2008-12-15,52.20000076293945
2008-12-16,54.790000915527344
2008-12-17,54.4900016784668
2008-12-18,54.349998474121094
2008-12-19,52.869998931884766
2008-12-22,51.41999816894531
2008-12-23,50.9900016784668
2008-12-24,51.59000015258789
2008-12-26,51.15999984741211
2008-12-29,51.0099983215332
2008-12-30,51.58000183105469
2008-12-31,52.08000183105469
2009-01-02,52.65999984741211
2009-01-05,52.459999084472656
2009-01-06,51.2400016784668
2009-01-07,51.099998474121094
2009-01-08,51.59000015258789
2009-01-09,50.29999923706055
2009-01-12,48.75
2009-01-13,48.22999954223633
2009-01-14,45.81999969482422
2009-01-15,48.45000076293945
2009-01-16,50.689998626708984
2009-01-20,48.58000183105469
2009-01-21,49.09000015258789
2009-01-22,48.66999816894531
2009-01-23,48.650001525878906
2009-01-26,49.060001373291016
2009-01-27,49.459999084472656
2009-01-28,49.9900016784668
2009-01-29,49.63999938964844
2009-01-30,48.91999816894531
2009-02-02,48.619998931884766
2009-02-03,49.66999816894531
2009-02-04,49.72999954223633
2009-02-05,50.900001525878906
2009-02-06,47.97999954223633
2009-02-09,48.380001068115234
2009-02-10,46.83000183105469
2009-02-11,46.060001373291016
2009-02-12,46.81999969482422
2009-02-13,46.869998931884766
2009-02-17,46.189998626708984
2009-02-18,46.880001068115234
2009-02-19,47.130001068115234
2009-02-20,48.349998474121094
2009-02-23,46.560001373291016
2009-02-24,47.36000061035156
2009-02-25,48.040000915527344
2009-02-26,47.56999969482422
2009-02-27,47.97999954223633
2009-03-02,47.2400016784668
2009-03-03,47.63999938964844
2009-03-04,49.18000030517578
2009-03-05,47.68000030517578
2009-03-06,47.7400016784668
2009-03-09,46.56999969482422
2009-03-10,47.7400016784668
2009-03-11,48.380001068115234
2009-03-12,50.58000183105469
2009-03-13,48.41999816894531
2009-03-16,47.54999923706055
2009-03-17,48.560001373291016
2009-03-18,48.27000045776367
2009-03-19,48.11000061035156
2009-03-20,47.15999984741211
2009-03-23,48.040000915527344
2009-03-24,47.29999923706055
2009-03-25,47.0
2009-03-26,49.0099983215332
2009-03-27,47.90999984741211
2009-03-30,47.13999938964844
2009-03-31,47.72999954223633
2009-04-01,48.959999084472656
2009-04-02,50.40999984741211
2009-04-03,51.150001525878906
2009-04-06,52.04999923706055
2009-04-07,51.27000045776367
2009-04-08,51.79999923706055
2009-04-09,49.70000076293945
2009-04-13,49.58000183105469
2009-04-14,50.59000015258789
2009-04-15,51.31999969482422
2009-04-16,51.029998779296875
2009-04-17,50.88999938964844
2009-04-20,50.189998626708984
2009-04-21,50.88999938964844
2009-04-22,49.4900016784668
2009-04-23,48.029998779296875
2009-04-24,48.400001525878906
2009-04-27,48.84000015258789
2009-04-28,49.5099983215332
2009-04-29,46.7400016784668
2009-04-30,47.08000183105469
2009-05-01,47.779998779296875
2009-05-04,47.849998474121094
2009-05-05,47.41999816894531
2009-05-06,47.099998474121094
2009-05-07,46.11000061035156
2009-05-08,46.7599983215332
2009-05-11,49.34000015258789
2009-05-12,48.43000030517578
2009-05-13,48.130001068115234
2009-05-14,50.060001373291016
2009-05-15,52.09000015258789
2009-05-18,52.540000915527344
2009-05-19,51.939998626708984
2009-05-20,51.45000076293945
2009-05-21,50.279998779296875
2009-05-22,50.16999816894531
2009-05-26,51.130001068115234
2009-05-27,49.88999938964844
2009-05-28,49.7599983215332
2009-05-29,49.97999954223633
2009-06-01,51.040000915527344
2009-06-02,50.59000015258789
2009-06-03,50.650001525878906
2009-06-04,50.439998626708984
2009-06-05,50.08000183105469
2009-06-08,49.470001220703125
2009-06-09,49.869998931884766
2009-06-10,48.959999084472656
2009-06-11,50.119998931884766
2009-06-12,49.689998626708984
2009-06-15,49.279998779296875
2009-06-16,49.650001525878906
2009-06-17,50.20000076293945
2009-06-18,50.72999954223633
2009-06-19,51.20000076293945
2009-06-22,49.66999816894531
2009-06-23,49.47999954223633
2009-06-24,49.970001220703125
2009-06-25,51.189998626708984
2009-06-26,50.709999084472656
2009-06-29,51.79999923706055
2009-06-30,51.529998779296875
2009-07-01,50.75
2009-07-02,50.220001220703125
2009-07-06,50.380001068115234
2009-07-07,49.619998931884766
2009-07-08,49.31999969482422
2009-07-09,49.06999969482422
2009-07-10,48.97999954223633
2009-07-13,49.56999969482422
2009-07-14,49.95000076293945
2009-07-15,50.849998474121094
2009-07-16,50.77000045776367
2009-07-17,51.119998931884766
2009-07-20,50.4900016784668
2009-07-21,50.040000915527344
2009-07-22,50.02000045776367
2009-07-23,51.59000015258789
2009-07-24,51.58000183105469
2009-07-27,53.02000045776367
2009-07-28,53.18000030517578
2009-07-29,51.970001220703125
2009-07-30,51.40999984741211
2009-07-31,51.20000076293945
2009-08-03,51.75
2009-08-04,51.86000061035156
2009-08-05,51.27000045776367
2009-08-06,49.90999984741211
2009-08-07,51.09000015258789
2009-08-10,50.43000030517578
2009-08-11,50.29999923706055
2009-08-12,51.27000045776367
2009-08-13,50.029998779296875
2009-08-14,49.84000015258789
2009-08-17,49.27000045776367
2009-08-18,49.369998931884766
2009-08-19,49.599998474121094
2009-08-20,50.150001525878906
2009-08-21,51.5
2009-08-24,51.290000915527344
2009-08-25,50.81999969482422
2009-08-26,49.970001220703125
2009-08-27,50.310001373291016
2009-08-28,49.83000183105469
2009-08-31,49.52000045776367
2009-09-01,48.970001220703125
2009-09-02,49.13999938964844
2009-09-03,49.4900016784668
2009-09-04,49.619998931884766
2009-09-08,49.47999954223633
2009-09-09,49.0
2009-09-10,49.08000183105469
2009-09-11,48.43000030517578
2009-09-14,49.189998626708984
2009-09-15,48.56999969482422
2009-09-16,48.040000915527344
2009-09-17,47.939998626708984
2009-09-18,48.029998779296875
2009-09-21,48.459999084472656
2009-09-22,47.90999984741211
2009-09-23,47.61000061035156
2009-09-24,47.47999954223633
2009-09-25,47.459999084472656
2009-09-28,48.560001373291016
2009-09-29,48.5099983215332
2009-09-30,48.439998626708984
2009-10-01,47.58000183105469
2009-10-02,47.72999954223633
2009-10-05,47.84000015258789
2009-10-06,48.38999938964844
2009-10-07,48.029998779296875
2009-10-08,48.279998779296875
2009-10-09,48.349998474121094
2009-10-12,48.54999923706055
2009-10-13,48.599998474121094
2009-10-14,49.630001068115234
2009-10-15,52.119998931884766
2009-10-16,52.2400016784668
2009-10-19,52.66999816894531
2009-10-20,52.47999954223633
2009-10-21,52.88999938964844
2009-10-22,53.209999084472656
2009-10-23,53.16999816894531
2009-10-26,52.27000045776367
2009-10-27,53.349998474121094
2009-10-28,53.15999984741211
2009-10-29,52.959999084472656
2009-10-30,52.369998931884766
2009-11-02,52.63999938964844
2009-11-03,52.970001220703125
2009-11-04,53.040000915527344
2009-11-05,53.869998931884766
2009-11-06,54.29999923706055
2009-11-09,55.34000015258789
2009-11-10,54.560001373291016
2009-11-11,54.4900016784668
2009-11-12,54.04999923706055
2009-11-13,54.38999938964844
2009-11-16,55.20000076293945
2009-11-17,55.290000915527344
2009-11-18,54.939998626708984
2009-11-19,54.150001525878906
2009-11-20,54.099998474121094
2009-11-23,55.0
2009-11-24,54.790000915527344
2009-11-25,55.150001525878906
2009-11-27,54.130001068115234
2009-11-30,54.72999954223633
2009-12-01,55.86000061035156
2009-12-02,56.02000045776367
2009-12-03,55.90999984741211
2009-12-04,56.90999984741211
2009-12-07,58.099998474121094
2009-12-08,57.619998931884766
2009-12-09,57.849998474121094
2009-12-10,57.63999938964844
2009-12-11,57.2400016784668
2009-12-14,57.689998626708984
2009-12-15,56.84000015258789
2009-12-16,56.060001373291016
2009-12-17,55.25
2009-12-18,55.15999984741211
2009-12-21,55.5099983215332
2009-12-22,55.560001373291016
2009-12-23,55.720001220703125
2009-12-24,55.720001220703125
2009-12-28,55.599998474121094
2009-12-29,55.369998931884766
2009-12-30,55.33000183105469
2009-12-31,55.16999816894531
2010-01-04,55.15999984741211
2010-01-05,54.66999816894531
2010-01-06,54.630001068115234
2010-01-07,54.720001220703125
2010-01-08,55.34000015258789
2010-01-11,55.349998474121094
2010-01-12,54.869998931884766
2010-01-13,55.779998779296875
2010-01-14,55.52000045776367
2010-01-15,54.810001373291016
2010-01-19,56.119998931884766
2010-01-20,55.189998626708984
2010-01-21,55.0099983215332
2010-01-22,54.79999923706055
2010-01-25,54.27000045776367
2010-01-26,53.810001373291016
2010-01-27,53.77000045776367
2010-01-28,53.41999816894531
2010-01-29,52.90999984741211
2010-02-01,53.47999954223633
2010-02-02,53.59000015258789
2010-02-03,54.47999954223633
2010-02-04,52.9900016784668
2010-02-05,52.0
2010-02-08,51.15999984741211
2010-02-09,51.54999923706055
2010-02-10,51.20000076293945
2010-02-11,51.650001525878906
2010-02-12,51.36000061035156
2010-02-16,52.45000076293945
2010-02-17,53.02000045776367
2010-02-18,53.5
2010-02-19,54.29999923706055
2010-02-22,54.599998474121094
2010-02-23,53.97999954223633
2010-02-24,54.83000183105469
2010-02-25,55.93000030517578
2010-02-26,55.18000030517578
2010-03-01,55.56999969482422
2010-03-02,56.13999938964844
2010-03-03,55.779998779296875
2010-03-04,55.29999923706055
2010-03-05,55.349998474121094
2010-03-08,54.68000030517578
2010-03-09,54.650001525878906
2010-03-10,54.380001068115234
2010-03-11,54.560001373291016
2010-03-12,54.4900016784668
2010-03-15,54.93000030517578
2010-03-16,55.27000045776367
2010-03-17,55.4900016784668
2010-03-18,55.4900016784668
2010-03-19,55.61000061035156
2010-03-22,56.099998474121094
2010-03-23,56.380001068115234
2010-03-24,54.709999084472656
2010-03-25,54.5
2010-03-26,54.5
2010-03-29,55.040000915527344
2010-03-30,54.900001525878906
2010-03-31,54.5
2010-04-01,54.77000045776367
2010-04-05,55.08000183105469
2010-04-06,55.13999938964844
2010-04-07,54.56999969482422
2010-04-08,54.349998474121094
2010-04-09,54.58000183105469
2010-04-12,55.56999969482422
2010-04-13,55.810001373291016
2010-04-14,55.900001525878906
2010-04-15,55.75
2010-04-16,55.65999984741211
2010-04-19,55.86000061035156
2010-04-20,56.119998931884766
2010-04-21,55.75
2010-04-22,56.560001373291016
2010-04-23,57.0
2010-04-26,57.15999984741211
2010-04-27,56.0
2010-04-28,57.06999969482422
2010-04-29,58.099998474121094
2010-04-30,58.900001525878906
2010-05-03,58.61000061035156
2010-05-04,57.439998626708984
2010-05-05,57.439998626708984
2010-05-06,56.029998779296875
2010-05-07,55.529998779296875
2010-05-10,57.63999938964844
2010-05-11,57.56999969482422
2010-05-12,57.77000045776367
2010-05-13,57.189998626708984
2010-05-14,56.70000076293945
2010-05-17,57.439998626708984
2010-05-18,58.060001373291016
2010-05-19,58.36000061035156
2010-05-20,56.90999984741211
2010-05-21,57.540000915527344
2010-05-24,56.7599983215332
2010-05-25,56.70000076293945
2010-05-26,56.439998626708984
2010-05-27,57.939998626708984
2010-05-28,58.619998931884766
2010-06-01,58.43000030517578
2010-06-02,59.52000045776367
2010-06-03,59.939998626708984
2010-06-04,58.25
2010-06-07,57.29999923706055
2010-06-08,58.790000915527344
2010-06-09,61.459999084472656
2010-06-10,63.189998626708984
2010-06-11,63.56999969482422
2010-06-14,63.720001220703125
2010-06-15,64.51000213623047
2010-06-16,64.68000030517578
2010-06-17,65.08000183105469
2010-06-18,65.44000244140625
2010-06-21,65.2699966430664
2010-06-22,64.80000305175781
2010-06-23,64.45999908447266
2010-06-24,64.58999633789062
2010-06-25,66.0
2010-06-28,66.56999969482422
2010-06-29,65.94000244140625
2010-06-30,65.58000183105469
2010-07-01,65.23999786376953
2010-07-02,64.5199966430664
2010-07-06,63.970001220703125
2010-07-07,65.25
2010-07-08,65.30999755859375
2010-07-09,65.54000091552734
2010-07-12,65.94999694824219
2010-07-13,66.2300033569336
2010-07-14,66.20999908447266
2010-07-15,65.87000274658203
2010-07-16,64.56999969482422
2010-07-19,64.95999908447266
2010-07-20,65.81999969482422
2010-07-21,63.90999984741211
2010-07-22,63.45000076293945
2010-07-23,64.7699966430664
2010-07-26,65.41000366210938
2010-07-27,64.51000213623047
2010-07-28,63.88999938964844
2010-07-29,62.56999969482422
2010-07-30,63.0
2010-08-02,63.56999969482422
2010-08-03,63.66999816894531
2010-08-04,64.37999725341797
2010-08-05,64.16000366210938
2010-08-06,64.26000213623047
2010-08-09,64.93000030517578
2010-08-10,64.56999969482422
2010-08-11,63.619998931884766
2010-08-12,64.5199966430664
2010-08-13,64.76000213623047
2010-08-16,65.76000213623047
2010-08-17,67.0
2010-08-18,67.05999755859375
2010-08-19,66.12000274658203
2010-08-20,65.91999816894531
2010-08-23,65.81999969482422
2010-08-24,65.19999694824219
2010-08-25,64.87999725341797
2010-08-26,64.58000183105469
2010-08-27,66.04000091552734
2010-08-30,66.25
2010-08-31,65.5
2010-09-01,66.55999755859375
2010-09-02,66.5
2010-09-03,66.52999877929688
2010-09-07,66.30999755859375
2010-09-08,67.48999786376953
2010-09-09,68.12999725341797
2010-09-10,69.0
2010-09-13,69.33000183105469
2010-09-14,69.86000061035156
2010-09-15,70.08999633789062
2010-09-16,69.66000366210938
2010-09-17,69.97000122070312
2010-09-20,69.77999877929688
2010-09-21,70.36000061035156
2010-09-22,70.19000244140625
2010-09-23,68.61000061035156
2010-09-24,69.86000061035156
2010-09-27,68.56999969482422
2010-09-28,68.94999694824219
2010-09-29,69.75
2010-09-30,69.4800033569336
2010-10-01,70.7300033569336
2010-10-04,69.75
2010-10-05,71.7699966430664
2010-10-06,71.91000366210938
2010-10-07,71.45999908447266
2010-10-08,71.6500015258789
2010-10-11,71.16000366210938
2010-10-12,70.81999969482422
2010-10-13,72.19000244140625
2010-10-14,71.9000015258789
2010-10-15,71.9000015258789
2010-10-18,72.62000274658203
2010-10-19,71.18000030517578
2010-10-20,72.2699966430664
2010-10-21,72.20999908447266
2010-10-22,72.20999908447266
2010-10-25,72.5999984741211
2010-10-26,72.77999877929688
2010-10-27,71.94000244140625
2010-10-28,71.06999969482422
2010-10-29,71.73999786376953
2010-11-01,71.4800033569336
2010-11-02,72.43000030517578
2010-11-03,72.19999694824219
2010-11-04,72.68000030517578
2010-11-05,72.38999938964844
2010-11-08,71.48999786376953
2010-11-09,71.61000061035156
2010-11-10,71.83000183105469
2010-11-11,72.08000183105469
2010-11-12,71.23999786376953
2010-11-15,71.33999633789062
2010-11-16,70.55000305175781
2010-11-17,70.26000213623047
2010-11-18,71.51000213623047
2010-11-19,72.5
2010-11-22,72.77999877929688
2010-11-23,72.12000274658203
2010-11-24,73.80000305175781
2010-11-26,72.69000244140625
2010-11-29,73.4000015258789
2010-11-30,73.9000015258789
2010-12-01,75.54000091552734
2010-12-02,77.25
2010-12-03,77.12000274658203
2010-12-06,77.37999725341797
2010-12-07,77.36000061035156
2010-12-08,77.22000122070312
2010-12-09,77.77999877929688
2010-12-10,78.58999633789062
2010-12-13,79.5
2010-12-14,80.4000015258789
2010-12-15,79.63999938964844
2010-12-16,78.69000244140625
2010-12-17,78.91000366210938
2010-12-20,79.5
2010-12-21,79.61000061035156
2010-12-22,79.94000244140625
2010-12-23,79.44999694824219
2010-12-27,80.08999633789062
2010-12-28,80.45999908447266
2010-12-29,81.77999877929688
2010-12-30,81.41999816894531
2010-12-31,80.91999816894531
2011-01-03,81.6500015258789
2011-01-04,79.26000213623047
2011-01-05,79.25
2011-01-06,78.56999969482422
2011-01-07,77.73999786376953
2011-01-10,77.0
2011-01-11,77.30000305175781
2011-01-12,78.04000091552734
2011-01-13,77.31999969482422
2011-01-14,78.12999725341797
2011-01-18,78.77999877929688
2011-01-19,79.0199966430664
2011-01-20,78.63999938964844
2011-01-21,79.19999694824219
2011-01-24,80.2699966430664
2011-01-25,79.9000015258789
2011-01-26,79.33999633789062
2011-01-27,79.25
2011-01-28,78.44000244140625
2011-01-31,78.48999786376953
2011-02-01,79.69999694824219
2011-02-02,78.4000015258789
2011-02-03,79.06999969482422
2011-02-04,83.62999725341797
2011-02-07,84.91000366210938
2011-02-08,85.0
2011-02-09,84.30999755859375
2011-02-10,84.45999908447266
2011-02-11,84.27999877929688
2011-02-14,84.83000183105469
2011-02-15,84.9000015258789
2011-02-16,85.51000213623047
2011-02-17,86.27999877929688
2011-02-18,87.37999725341797
2011-02-22,86.30999755859375
2011-02-23,84.66000366210938
2011-02-24,84.45999908447266
2011-02-25,85.86000061035156
2011-02-28,86.41999816894531
2011-03-01,83.87999725341797
2011-03-02,85.54000091552734
2011-03-03,86.97000122070312
2011-03-04,85.9000015258789
2011-03-07,84.70999908447266
2011-03-08,87.55000305175781
2011-03-09,87.69000244140625
2011-03-10,86.3499984741211
2011-03-11,86.87000274658203
2011-03-14,87.91999816894531
2011-03-15,86.54000091552734
2011-03-16,84.80999755859375
2011-03-17,85.4800033569336
2011-03-18,85.2300033569336
2011-03-21,86.0199966430664
2011-03-22,85.69999694824219
2011-03-23,86.51000213623047
2011-03-24,87.9000015258789
2011-03-25,88.81999969482422
2011-03-28,87.69000244140625
2011-03-29,88.30000305175781
2011-03-30,88.18000030517578
2011-03-31,88.66999816894531
2011-04-01,91.02999877929688
2011-04-04,92.22000122070312
2011-04-05,92.55999755859375
2011-04-06,92.27999877929688
2011-04-07,90.5
2011-04-08,89.69999694824219
2011-04-11,90.3499984741211
2011-04-12,90.43000030517578
2011-04-13,90.69000244140625
2011-04-14,90.66000366210938
2011-04-15,91.93000030517578
2011-04-18,90.44000244140625
2011-04-19,90.66000366210938
2011-04-20,92.91000366210938
2011-04-21,93.16000366210938
2011-04-25,94.23999786376953
2011-04-26,93.43000030517578
2011-04-27,94.29000091552734
2011-04-28,91.12000274658203
2011-04-29,91.27999877929688
2011-05-02,90.66999816894531
2011-05-03,89.75
2011-05-04,89.76000213623047
2011-05-05,89.3499984741211
2011-05-06,90.30000305175781
2011-05-09,90.97000122070312
2011-05-10,91.88999938964844
2011-05-11,91.66999816894531
2011-05-12,93.73999786376953
2011-05-13,93.0199966430664
2011-05-16,91.3499984741211
2011-05-17,91.79000091552734
2011-05-18,92.66000366210938
2011-05-19,92.72000122070312
2011-05-20,91.61000061035156
2011-05-23,88.7699966430664
2011-05-24,87.80000305175781
2011-05-25,87.7699966430664
2011-05-26,89.1500015258789
2011-05-27,88.33999633789062
2011-05-31,89.08999633789062
2011-06-01,87.31999969482422
2011-06-02,87.61000061035156
2011-06-03,85.69000244140625
2011-06-06,85.55000305175781
2011-06-07,85.69999694824219
2011-06-08,85.27999877929688
2011-06-09,86.08000183105469
2011-06-10,84.9000015258789
2011-06-13,85.05000305175781
2011-06-14,85.73999786376953
2011-06-15,84.38999938964844
2011-06-16,85.68000030517578
2011-06-17,86.41000366210938
2011-06-20,86.8499984741211
2011-06-21,87.30999755859375
2011-06-22,87.97000122070312
2011-06-23,86.9800033569336
2011-06-24,85.61000061035156
2011-06-27,86.83000183105469
2011-06-28,87.7699966430664
2011-06-29,88.1500015258789
2011-06-30,89.12000274658203
2011-07-01,91.22000122070312
2011-07-05,91.72000122070312
2011-07-06,92.5
2011-07-07,93.0
2011-07-08,92.91000366210938
2011-07-11,91.4000015258789
2011-07-12,91.33000183105469
2011-07-13,91.48999786376953
2011-07-14,89.9000015258789
2011-07-15,90.91000366210938
2011-07-18,89.80000305175781
2011-07-19,92.08999633789062
2011-07-20,91.3499984741211
2011-07-21,92.5999984741211
2011-07-22,92.19000244140625
2011-07-25,92.11000061035156
2011-07-26,91.5199966430664
2011-07-27,89.45999908447266
2011-07-28,84.36000061035156
2011-07-29,82.12000274658203
2011-08-01,81.48999786376953
2011-08-02,80.44000244140625
2011-08-03,82.63999938964844
2011-08-04,78.04000091552734
2011-08-05,78.80999755859375
2011-08-08,74.08999633789062
2011-08-09,78.72000122070312
2011-08-10,74.44999694824219
2011-08-11,79.22000122070312
2011-08-12,79.91000366210938
2011-08-15,80.83999633789062
2011-08-16,80.44000244140625
2011-08-17,80.80000305175781
2011-08-18,79.22000122070312
2011-08-19,79.95999908447266
2011-08-22,81.12000274658203
2011-08-23,83.6500015258789
2011-08-24,84.41000366210938
2011-08-25,83.1500015258789
2011-08-26,84.33999633789062
2011-08-29,87.36000061035156
2011-08-30,87.4000015258789
2011-08-31,87.70999908447266
2011-09-01,85.5
2011-09-02,82.83000183105469
2011-09-06,82.68000030517578
2011-09-07,84.30000305175781
2011-09-08,83.69999694824219
2011-09-09,80.18000030517578
2011-09-12,80.87000274658203
2011-09-13,81.61000061035156
2011-09-14,83.30000305175781
2011-09-15,83.81999969482422
2011-09-16,83.91999816894531
2011-09-19,83.08999633789062
2011-09-20,83.95999908447266
2011-09-21,81.33999633789062
2011-09-22,78.7300033569336
2011-09-23,80.3499984741211
2011-09-26,83.41999816894531
2011-09-27,83.93000030517578
2011-09-28,81.56999969482422
2011-09-29,81.20999908447266
2011-09-30,80.72000122070312
2011-10-03,78.69999694824219
2011-10-04,80.2300033569336
2011-10-05,80.31999969482422
2011-10-06,81.22000122070312
2011-10-07,80.55999755859375
2011-10-10,83.73999786376953
2011-10-11,83.26000213623047
2011-10-12,83.44000244140625
2011-10-13,83.56999969482422
2011-10-14,84.81999969482422
2011-10-17,83.43000030517578
2011-10-18,84.94999694824219
2011-10-19,83.0199966430664
2011-10-20,82.44999694824219
2011-10-21,84.04000091552734
2011-10-24,85.86000061035156
2011-10-25,84.19999694824219
2011-10-26,85.45999908447266
2011-10-27,88.41000366210938
2011-10-28,84.33999633789062
2011-10-31,83.58000183105469
2011-11-01,80.70999908447266
2011-11-02,81.06999969482422
2011-11-03,82.13999938964844
2011-11-04,81.08999633789062
2011-11-07,81.4800033569336
2011-11-08,81.4000015258789
2011-11-09,78.22000122070312
2011-11-10,77.8499984741211
2011-11-11,79.73999786376953
2011-11-14,78.4800033569336
2011-11-15,79.31999969482422
2011-11-16,77.52999877929688
2011-11-17,77.1500015258789
2011-11-18,77.87000274658203
2011-11-21,76.75
2011-11-22,77.33000183105469
2011-11-23,76.48999786376953
2011-11-25,77.06999969482422
2011-11-28,77.94999694824219
2011-11-29,77.44000244140625
2011-11-30,81.0199966430664
2011-12-01,80.52999877929688
2011-12-02,79.66999816894531
2011-12-05,80.7699966430664
2011-12-06,80.23999786376953
2011-12-07,78.94000244140625
2011-12-08,77.2300033569336
2011-12-09,79.18000030517578
2011-12-12,78.98999786376953
2011-12-13,77.7699966430664
2011-12-14,76.41000366210938
2011-12-15,76.22000122070312
2011-12-16,76.51000213623047
2011-12-19,76.37999725341797
2011-12-20,78.37000274658203
2011-12-21,78.38999938964844
2011-12-22,78.19999694824219
2011-12-23,78.20999908447266
2011-12-27,78.55999755859375
2011-12-28,78.27999877929688
2011-12-29,78.51000213623047
2011-12-30,77.91999816894531
2012-01-03,77.48999786376953
2012-01-04,76.72000122070312
2012-01-05,76.93000030517578
2012-01-06,77.44999694824219
2012-01-09,77.36000061035156
2012-01-10,79.80999755859375
2012-01-11,80.7699966430664
2012-01-12,83.66000366210938
2012-01-13,84.05999755859375
2012-01-17,84.16999816894531
2012-01-18,84.05999755859375
2012-01-19,83.55999755859375
2012-01-20,84.30000305175781
2012-01-23,84.11000061035156
2012-01-24,84.29000091552734
2012-01-25,84.16999816894531
2012-01-26,83.72000122070312
2012-01-27,83.5
2012-01-30,82.88999938964844
2012-01-31,84.0199966430664
2012-02-01,85.0199966430664
2012-02-02,85.30000305175781
2012-02-03,86.9000015258789
2012-02-06,86.13999938964844
2012-02-07,84.76000213623047
2012-02-08,84.79000091552734
2012-02-09,85.2699966430664
2012-02-10,84.52999877929688
2012-02-13,86.23999786376953
2012-02-14,87.94000244140625
2012-02-15,86.91000366210938
2012-02-16,87.58999633789062
2012-02-17,88.05000305175781
2012-02-21,88.08999633789062
2012-02-22,87.91000366210938
2012-02-23,89.2699966430664
2012-02-24,89.2300033569336
2012-02-27,87.95999908447266
2012-02-28,86.87000274658203
2012-02-29,86.7699966430664
2012-03-01,86.58999633789062
2012-03-02,85.94000244140625
2012-03-05,86.23999786376953
2012-03-06,85.41000366210938
2012-03-07,85.44999694824219
2012-03-08,86.66999816894531
2012-03-09,87.75
2012-03-12,87.80000305175781
2012-03-13,87.86000061035156
2012-03-14,87.0
2012-03-15,86.44000244140625
2012-03-16,86.87999725341797
2012-03-19,86.80999755859375
2012-03-20,85.38999938964844
2012-03-21,85.43000030517578
2012-03-22,85.43000030517578
2012-03-23,84.66000366210938
2012-03-26,85.9000015258789
2012-03-27,85.47000122070312
2012-03-28,84.94000244140625
2012-03-29,84.18000030517578
2012-03-30,83.63999938964844
2012-04-02,84.19999694824219
2012-04-03,84.43000030517578
2012-04-04,84.6500015258789
2012-04-05,85.56999969482422
2012-04-09,84.7699966430664
2012-04-10,84.44000244140625
2012-04-11,85.56999969482422
2012-04-12,86.66999816894531
2012-04-13,86.0999984741211
2012-04-16,86.12000274658203
2012-04-17,87.0199966430664
2012-04-18,87.75
2012-04-19,87.27999877929688
2012-04-20,87.91000366210938
2012-04-23,87.11000061035156
2012-04-24,87.22000122070312
2012-04-25,87.0999984741211
2012-04-26,85.97000122070312
2012-04-27,87.63999938964844
2012-04-30,86.5999984741211
2012-05-01,87.54000091552734
2012-05-02,87.37999725341797
2012-05-03,86.52999877929688
2012-05-04,84.62000274658203
2012-05-07,85.22000122070312
2012-05-08,84.87000274658203
2012-05-09,83.19000244140625
2012-05-10,83.31999969482422
2012-05-11,83.23999786376953
2012-05-14,81.44999694824219
2012-05-15,81.77999877929688
2012-05-16,83.06999969482422
2012-05-17,82.4000015258789
2012-05-18,81.37000274658203
2012-05-21,82.81999969482422
2012-05-22,83.94999694824219
2012-05-23,85.76000213623047
2012-05-24,86.80000305175781
2012-05-25,86.30999755859375
2012-05-29,87.01000213623047
2012-05-30,86.93000030517578
2012-05-31,87.26000213623047
2012-06-01,85.76000213623047
2012-06-04,85.83999633789062
2012-06-05,85.83000183105469
2012-06-06,86.72000122070312
2012-06-07,86.04000091552734
2012-06-08,87.54000091552734
2012-06-11,87.70999908447266
2012-06-12,88.04000091552734
2012-06-13,87.55999755859375
2012-06-14,88.0199966430664
2012-06-15,87.7699966430664
2012-06-18,89.18000030517578
2012-06-19,90.75
2012-06-20,90.36000061035156
2012-06-21,88.68000030517578
2012-06-22,88.47000122070312
2012-06-25,88.4000015258789
2012-06-26,88.76000213623047
2012-06-27,89.77999877929688
2012-06-28,89.55000305175781
2012-06-29,91.66999816894531
2012-07-02,92.55999755859375
2012-07-03,92.93000030517578
2012-07-05,92.81999969482422
2012-07-06,92.47000122070312
2012-07-09,92.51000213623047
2012-07-10,93.41999816894531
2012-07-11,92.37999725341797
2012-07-12,92.52999877929688
2012-07-13,92.81999969482422
2012-07-16,93.0199966430664
2012-07-17,93.31999969482422
2012-07-18,93.16000366210938
2012-07-19,94.16999816894531
2012-07-20,93.33999633789062
2012-07-23,92.62999725341797
2012-07-24,91.37999725341797
2012-07-25,91.72000122070312
2012-07-26,92.22000122070312
2012-07-27,94.5199966430664
2012-07-30,93.98999786376953
2012-07-31,92.8499984741211
2012-08-01,91.8499984741211
2012-08-02,90.4000015258789
2012-08-03,91.83999633789062
2012-08-06,91.41999816894531
2012-08-07,90.3499984741211
2012-08-08,89.66999816894531
2012-08-09,89.05999755859375
2012-08-10,89.81999969482422
2012-08-13,89.7699966430664
2012-08-14,90.0
2012-08-15,90.12999725341797
2012-08-16,91.51000213623047
2012-08-17,91.47000122070312
2012-08-20,90.55999755859375
2012-08-21,90.2300033569336
2012-08-22,90.29000091552734
2012-08-23,90.23999786376953
2012-08-24,91.26000213623047
2012-08-27,91.0999984741211
2012-08-28,91.30000305175781
2012-08-29,92.41999816894531
2012-08-30,91.55000305175781
2012-08-31,91.5199966430664
2012-09-04,91.51000213623047
2012-09-05,91.97000122070312
2012-09-06,93.4000015258789
2012-09-07,93.5999984741211
2012-09-10,93.02999877929688
2012-09-11,93.19000244140625
2012-09-12,93.27999877929688
2012-09-13,93.31999969482422
2012-09-14,93.16999816894531
2012-09-17,93.9000015258789
2012-09-18,94.43000030517578
2012-09-19,93.66000366210938
2012-09-20,91.43000030517578
2012-09-21,91.5999984741211
2012-09-24,92.0
2012-09-25,91.44000244140625
2012-09-26,90.05000305175781
2012-09-27,90.0
2012-09-28,90.4800033569336
2012-10-01,90.63999938964844
2012-10-02,91.02999877929688
2012-10-03,91.05999755859375
2012-10-04,92.02999877929688
2012-10-05,91.76000213623047
2012-10-08,91.16999816894531
2012-10-09,89.6500015258789
2012-10-10,89.95999908447266
2012-10-11,90.23999786376953
2012-10-12,89.98999786376953
2012-10-15,91.27999877929688
2012-10-16,92.06999969482422
2012-10-17,93.13999938964844
2012-10-18,93.61000061035156
2012-10-19,91.87000274658203
2012-10-22,92.16000366210938
2012-10-23,92.19999694824219
2012-10-24,89.05999755859375
2012-10-25,95.20999908447266
2012-10-26,94.56999969482422
2012-10-31,94.76000213623047
2012-11-01,95.76000213623047
2012-11-02,94.7699966430664
2012-11-05,94.5199966430664
2012-11-06,94.80999755859375
2012-11-07,93.69999694824219
2012-11-08,91.97000122070312
2012-11-09,92.41000366210938
2012-11-12,92.37999725341797
2012-11-13,92.33000183105469
2012-11-14,90.48999786376953
2012-11-15,90.37000274658203
2012-11-16,90.06999969482422
2012-11-19,89.9000015258789
2012-11-20,90.54000091552734
2012-11-21,91.69000244140625
2012-11-23,92.16000366210938
2012-11-26,92.44999694824219
2012-11-27,93.41000366210938
2012-11-28,92.93000030517578
2012-11-29,93.79000091552734
2012-11-30,93.47000122070312
2012-12-03,93.2300033569336
2012-12-04,93.41999816894531
2012-12-05,93.95999908447266
2012-12-06,94.36000061035156
2012-12-07,94.26000213623047
2012-12-10,94.9000015258789
2012-12-11,94.58999633789062
2012-12-12,93.87000274658203
2012-12-13,93.30000305175781
2012-12-14,93.26000213623047
2012-12-17,93.6500015258789
2012-12-18,94.02999877929688
2012-12-19,92.47000122070312
2012-12-20,92.69000244140625
2012-12-21,91.66000366210938
2012-12-24,91.91999816894531
2012-12-26,91.47000122070312
2012-12-27,92.19000244140625
2012-12-28,91.9000015258789
2012-12-31,93.27999877929688
2013-01-02,94.06999969482422
2013-01-03,95.02999877929688
2013-01-04,95.23999786376953
2013-01-07,95.81999969482422
2013-01-08,95.44000244140625
2013-01-09,95.4000015258789
2013-01-10,95.23999786376953
2013-01-11,94.8499984741211
2013-01-14,94.45999908447266
2013-01-15,94.19999694824219
2013-01-16,93.91000366210938
2013-01-17,94.1500015258789
2013-01-18,95.0
2013-01-22,94.69000244140625
2013-01-23,94.91000366210938
2013-01-24,94.55000305175781
2013-01-25,94.5
2013-01-28,94.30000305175781
2013-01-29,94.87999725341797
2013-01-30,94.76000213623047
2013-01-31,94.3499984741211
2013-02-01,95.19000244140625
2013-02-04,94.20999908447266
2013-02-05,95.25
2013-02-06,95.12000274658203
2013-02-07,98.19000244140625
2013-02-08,96.80000305175781
2013-02-11,96.25
2013-02-12,96.33999633789062
2013-02-13,96.12999725341797
2013-02-14,96.44000244140625
2013-02-15,97.12000274658203
2013-02-19,96.69999694824219
2013-02-20,95.87000274658203
2013-02-21,95.6500015258789
2013-02-22,96.08999633789062
2013-02-25,94.98999786376953
2013-02-26,95.02999877929688
2013-02-27,96.0
2013-02-28,95.91999816894531
2013-03-01,95.54000091552734
2013-03-04,97.66999816894531
2013-03-05,98.16999816894531
2013-03-06,97.69999694824219
2013-03-07,97.36000061035156
2013-03-08,98.48999786376953
2013-03-11,99.12999725341797
2013-03-12,98.6500015258789
2013-03-13,100.62999725341797
2013-03-14,101.19999694824219
2013-03-15,102.04000091552734
2013-03-18,101.0999984741211
2013-03-19,101.54000091552734
2013-03-20,102.4000015258789
2013-03-21,102.25
2013-03-22,104.23999786376953
2013-03-25,103.73999786376953
2013-03-26,104.62999725341797
2013-03-27,104.75
2013-03-28,106.18000030517578
2013-04-01,104.76000213623047
2013-04-02,105.33000183105469
2013-04-03,104.94999694824219
2013-04-04,105.16000366210938
2013-04-05,104.12999725341797
2013-04-08,105.12000274658203
2013-04-09,105.4800033569336
2013-04-10,107.4000015258789
2013-04-11,108.54000091552734
2013-04-12,109.19999694824219
2013-04-15,106.83999633789062
2013-04-16,109.20999908447266
2013-04-17,106.87000274658203
2013-04-18,106.87999725341797
2013-04-19,107.66999816894531
2013-04-22,107.97000122070312
2013-04-23,108.54000091552734
2013-04-24,109.01000213623047
2013-04-25,108.05999755859375
2013-04-26,108.58000183105469
2013-04-29,108.41000366210938
2013-04-30,108.31999969482422
2013-05-01,107.76000213623047
2013-05-02,108.0
2013-05-03,109.02999877929688
2013-05-06,109.20999908447266
2013-05-07,110.88999938964844
2013-05-08,110.80000305175781
2013-05-09,110.38999938964844
2013-05-10,110.6500015258789
2013-05-13,110.0
2013-05-14,110.76000213623047
2013-05-15,112.04000091552734
2013-05-16,111.19999694824219
2013-05-17,113.01000213623047
2013-05-20,111.41000366210938
2013-05-21,111.88999938964844
2013-05-22,110.91999816894531
2013-05-23,111.27999877929688
2013-05-24,111.48999786376953
2013-05-28,111.08000183105469
2013-05-29,108.66000366210938
2013-05-30,109.6500015258789
2013-05-31,109.76000213623047
2013-06-03,110.2699966430664
2013-06-04,108.0199966430664
2013-06-05,107.19999694824219
2013-06-06,107.56999969482422
2013-06-07,108.44999694824219
2013-06-10,108.47000122070312
2013-06-11,106.44999694824219
2013-06-12,105.80999755859375
2013-06-13,106.87000274658203
2013-06-14,106.41000366210938
2013-06-17,109.33000183105469
2013-06-18,110.87999725341797
2013-06-19,108.58999633789062
2013-06-20,106.68000030517578
2013-06-21,107.51000213623047
2013-06-24,107.4800033569336
2013-06-25,108.55999755859375
2013-06-26,109.88999938964844
2013-06-27,110.98999786376953
2013-06-28,110.43000030517578
2013-07-01,111.44999694824219
2013-07-02,110.87000274658203
2013-07-03,111.06999969482422
2013-07-05,112.43000030517578
2013-07-08,113.9800033569336
2013-07-09,114.0999984741211
2013-07-10,115.30999755859375
2013-07-11,116.58999633789062
2013-07-12,117.30999755859375
2013-07-15,116.44000244140625
2013-07-16,115.91000366210938
2013-07-17,115.95999908447266
2013-07-18,117.41000366210938
2013-07-19,117.93000030517578
2013-07-22,118.70999908447266
2013-07-23,118.72000122070312
2013-07-24,117.37000274658203
2013-07-25,116.91000366210938
2013-07-26,116.7699966430664
2013-07-29,115.48999786376953
2013-07-30,116.0999984741211
2013-07-31,115.94000244140625
2013-08-01,116.70999908447266
2013-08-02,117.19000244140625
2013-08-05,117.37999725341797
2013-08-06,116.95999908447266
2013-08-07,116.47000122070312
2013-08-08,117.69000244140625
2013-08-09,117.0
2013-08-12,117.30999755859375
2013-08-13,117.11000061035156
2013-08-14,116.81999969482422
2013-08-15,114.51000213623047
2013-08-16,114.54000091552734
2013-08-19,114.77999877929688
2013-08-20,115.5
2013-08-21,114.23999786376953
2013-08-22,115.22000122070312
2013-08-23,115.91999816894531
2013-08-26,115.47000122070312
2013-08-27,113.48999786376953
2013-08-28,112.94000244140625
2013-08-29,112.75
2013-08-30,112.55999755859375
2013-09-03,111.55999755859375
2013-09-04,112.97000122070312
2013-09-05,112.37999725341797
2013-09-06,112.4800033569336
2013-09-09,113.9800033569336
2013-09-10,114.77999877929688
2013-09-11,115.20999908447266
2013-09-12,114.70999908447266
2013-09-13,114.58999633789062
2013-09-16,115.8499984741211
2013-09-17,115.75
2013-09-18,117.05000305175781
2013-09-19,117.11000061035156
2013-09-20,116.4000015258789
2013-09-23,115.56999969482422
2013-09-24,113.98999786376953
2013-09-25,114.5999984741211
2013-09-26,115.6500015258789
2013-09-27,115.66999816894531
2013-09-30,115.4000015258789
2013-10-01,116.98999786376953
2013-10-02,115.62999725341797
2013-10-03,114.22000122070312
2013-10-04,115.83000183105469
2013-10-07,115.37999725341797
2013-10-08,114.31999969482422
2013-10-09,113.73999786376953
2013-10-10,115.97000122070312
2013-10-11,116.87999725341797
2013-10-14,117.0999984741211
2013-10-15,116.75
2013-10-16,118.88999938964844
2013-10-17,119.58999633789062
2013-10-18,118.69000244140625
2013-10-21,119.19000244140625
2013-10-22,120.97000122070312
2013-10-23,120.87000274658203
2013-10-24,114.54000091552734
2013-10-25,116.8499984741211
2013-10-28,115.91000366210938
2013-10-29,116.18000030517578
2013-10-30,115.45999908447266
2013-10-31,116.19999694824219
2013-11-01,116.68000030517578
2013-11-04,116.23999786376953
2013-11-05,116.18000030517578
2013-11-06,115.80000305175781
2013-11-07,115.33999633789062
2013-11-08,116.56999969482422
2013-11-11,115.51000213623047
2013-11-12,116.38999938964844
2013-11-13,117.38999938964844
2013-11-14,117.87000274658203
2013-11-15,119.12000274658203
2013-11-18,118.94000244140625
2013-11-19,118.33000183105469
2013-11-20,118.27999877929688
2013-11-21,118.66000366210938
2013-11-22,119.81999969482422
2013-11-25,118.44000244140625
2013-11-26,118.81999969482422
2013-11-27,118.37999725341797
2013-11-29,117.4800033569336
2013-12-02,118.26000213623047
2013-12-03,115.94999694824219
2013-12-04,115.5999984741211
2013-12-05,116.18000030517578
2013-12-06,117.3499984741211
2013-12-09,116.0999984741211
2013-12-10,115.33000183105469
2013-12-11,114.58000183105469
2013-12-12,114.29000091552734
2013-12-13,114.58000183105469
2013-12-16,115.36000061035156
2013-12-17,114.5999984741211
2013-12-18,114.83000183105469
2013-12-19,114.52999877929688
2013-12-20,113.69000244140625
2013-12-23,114.52999877929688
2013-12-24,115.54000091552734
2013-12-26,115.30999755859375
2013-12-27,115.56999969482422
2013-12-30,115.77999877929688
2013-12-31,116.16999816894531
2014-01-02,114.87999725341797
2014-01-03,115.05000305175781
2014-01-06,114.75
2014-01-07,116.05999755859375
2014-01-08,115.91000366210938
2014-01-09,116.01000213623047
2014-01-10,115.41999816894531
2014-01-13,115.0199966430664
2014-01-14,116.55000305175781
2014-01-15,117.72000122070312
2014-01-16,118.4000015258789
2014-01-17,120.08999633789062
2014-01-21,119.62000274658203
2014-01-22,119.58999633789062
2014-01-23,118.12000274658203
2014-01-24,116.36000061035156
2014-01-27,115.81999969482422
2014-01-28,115.18000030517578
2014-01-29,115.5
2014-01-30,117.47000122070312
2014-01-31,117.05999755859375
2014-02-03,115.9000015258789
2014-02-04,116.44999694824219
2014-02-05,116.4800033569336
2014-02-06,114.76000213623047
2014-02-07,116.33000183105469
2014-02-10,116.05000305175781
2014-02-11,115.69000244140625
2014-02-12,115.70999908447266
2014-02-13,115.75
2014-02-14,116.87000274658203
2014-02-18,116.36000061035156
2014-02-19,115.5
2014-02-20,115.98999786376953
2014-02-21,114.6500015258789
2014-02-24,115.22000122070312
2014-02-25,114.48999786376953
2014-02-26,113.45999908447266
2014-02-27,112.9800033569336
2014-02-28,114.0
2014-03-03,114.11000061035156
2014-03-04,115.38999938964844
2014-03-05,115.7699966430664
2014-03-06,116.77999877929688
2014-03-07,117.69999694824219
2014-03-10,116.69999694824219
2014-03-11,116.29000091552734
2014-03-12,115.7699966430664
2014-03-13,115.61000061035156
2014-03-14,115.08999633789062
2014-03-17,115.16000366210938
2014-03-18,115.37999725341797
2014-03-19,115.33000183105469
2014-03-20,114.37999725341797
2014-03-21,114.37000274658203
2014-03-24,112.41999816894531
2014-03-25,112.91999816894531
2014-03-26,111.95999908447266
2014-03-27,112.1500015258789
2014-03-28,111.98999786376953
2014-03-31,113.62000274658203
2014-04-01,113.73999786376953
2014-04-02,113.75
2014-04-03,114.23999786376953
2014-04-04,112.58000183105469
2014-04-07,112.29000091552734
2014-04-08,113.87999725341797
2014-04-09,113.30999755859375
2014-04-10,111.62000274658203
2014-04-11,109.33000183105469
2014-04-14,110.13999938964844
2014-04-15,109.91999816894531
2014-04-16,110.81999969482422
2014-04-17,111.1500015258789
2014-04-21,111.63999938964844
2014-04-22,111.62999725341797
2014-04-23,112.88999938964844
2014-04-24,113.11000061035156
2014-04-25,113.95999908447266
2014-04-28,115.25
2014-04-29,115.86000061035156
2014-04-30,116.44000244140625
2014-05-01,115.98999786376953
2014-05-02,115.52999877929688
2014-05-05,115.4800033569336
2014-05-06,114.93000030517578
2014-05-07,114.75
2014-05-08,114.23999786376953
2014-05-09,113.9000015258789
2014-05-12,114.2699966430664
2014-05-13,114.08999633789062
2014-05-14,113.3499984741211
2014-05-15,112.44999694824219
2014-05-16,112.87000274658203
2014-05-19,112.97000122070312
2014-05-20,111.80000305175781
2014-05-21,112.26000213623047
2014-05-22,112.13999938964844
2014-05-23,112.4800033569336
2014-05-27,113.05000305175781
2014-05-28,112.69999694824219
2014-05-29,112.62000274658203
2014-05-30,114.37000274658203
2014-06-02,114.55000305175781
2014-06-03,114.5
2014-06-04,115.26000213623047
2014-06-05,115.20999908447266
2014-06-06,115.76000213623047
2014-06-09,116.08000183105469
2014-06-10,115.94999694824219
2014-06-11,115.25
2014-06-12,114.97000122070312
2014-06-13,118.47000122070312
2014-06-16,117.45999908447266
2014-06-17,117.47000122070312
2014-06-18,117.75
2014-06-19,117.69999694824219
2014-06-20,118.9000015258789
2014-06-23,118.62000274658203
2014-06-24,118.43000030517578
2014-06-25,118.66000366210938
2014-06-26,118.33999633789062
2014-06-27,118.44000244140625
2014-06-30,118.41999816894531
2014-07-01,119.1500015258789
2014-07-02,119.06999969482422
2014-07-03,119.2300033569336
2014-07-07,119.4800033569336
2014-07-08,118.94999694824219
2014-07-09,119.43000030517578
2014-07-10,118.69999694824219
2014-07-11,119.01000213623047
2014-07-14,119.12000274658203
2014-07-15,119.30999755859375
2014-07-16,119.44000244140625
2014-07-17,118.12000274658203
2014-07-18,118.81999969482422
2014-07-21,118.29000091552734
2014-07-22,117.91000366210938
2014-07-23,117.7300033569336
2014-07-24,117.7699966430664
2014-07-25,118.25
2014-07-28,118.18000030517578
2014-07-29,118.80000305175781
2014-07-30,119.6500015258789
2014-07-31,117.6500015258789
2014-08-01,116.80999755859375
2014-08-04,117.26000213623047
2014-08-05,117.36000061035156
2014-08-06,116.66000366210938
2014-08-07,117.37000274658203
2014-08-08,118.69999694824219
2014-08-11,117.69000244140625
2014-08-12,118.13999938964844
2014-08-13,117.94000244140625
2014-08-14,118.87000274658203
2014-08-15,118.62000274658203
2014-08-18,119.0
2014-08-19,119.41000366210938
2014-08-20,119.7699966430664
2014-08-21,119.9800033569336
2014-08-22,119.44000244140625
2014-08-25,119.0199966430664
2014-08-26,119.05999755859375
2014-08-27,118.79000091552734
2014-08-28,118.80000305175781
2014-08-29,118.8499984741211
2014-09-02,119.41000366210938
2014-09-03,117.81999969482422
2014-09-04,117.81999969482422
2014-09-05,118.30999755859375
2014-09-08,118.45999908447266
2014-09-09,117.5
2014-09-10,117.9000015258789
2014-09-11,117.48999786376953
2014-09-12,117.11000061035156
2014-09-15,117.29000091552734
2014-09-16,117.23999786376953
2014-09-17,116.88999938964844
2014-09-18,116.94000244140625
2014-09-19,117.20999908447266
2014-09-22,116.5
2014-09-23,115.55000305175781
2014-09-24,115.73999786376953
2014-09-25,115.30999755859375
2014-09-26,115.44000244140625
2014-09-29,116.19000244140625
2014-09-30,116.55999755859375
2014-10-01,116.37000274658203
2014-10-02,116.68000030517578
2014-10-03,117.25
2014-10-06,117.94000244140625
2014-10-07,116.91000366210938
2014-10-08,118.69999694824219
2014-10-09,117.88999938964844
2014-10-10,116.88999938964844
2014-10-13,116.98999786376953
2014-10-14,117.58000183105469
2014-10-15,116.1500015258789
2014-10-16,117.12000274658203
2014-10-17,118.33000183105469
2014-10-20,118.95999908447266
2014-10-21,122.38999938964844
2014-10-22,122.58999633789062
2014-10-23,123.80000305175781
2014-10-24,123.05000305175781
2014-10-27,123.13999938964844
2014-10-28,124.05000305175781
2014-10-29,122.77999877929688
2014-10-30,123.7300033569336
2014-10-31,126.0
2014-11-03,126.52999877929688
2014-11-04,125.87999725341797
2014-11-05,126.52999877929688
2014-11-06,127.58999633789062
2014-11-07,127.54000091552734
2014-11-10,127.73999786376953
2014-11-11,127.62999725341797
2014-11-12,127.69000244140625
2014-11-13,127.94000244140625
2014-11-14,127.4800033569336
2014-11-17,127.47000122070312
2014-11-18,127.19000244140625
2014-11-19,127.05000305175781
2014-11-20,126.76000213623047
2014-11-21,126.9800033569336
2014-11-24,127.43000030517578
2014-11-25,128.72999572753906
2014-11-26,128.10000610351562
2014-11-28,128.9199981689453
2014-12-01,129.61000061035156
2014-12-02,130.02999877929688
2014-12-03,130.5800018310547
2014-12-04,130.25999450683594
2014-12-05,130.86000061035156
2014-12-08,130.91000366210938
2014-12-09,130.97999572753906
2014-12-10,130.11000061035156
2014-12-11,130.52999877929688
2014-12-12,128.0
2014-12-15,128.07000732421875
2014-12-16,127.7699966430664
2014-12-17,128.47999572753906
2014-12-18,132.5
2014-12-19,132.07000732421875
2014-12-22,132.9499969482422
2014-12-23,133.42999267578125
2014-12-24,133.27000427246094
2014-12-26,133.08999633789062
2014-12-29,133.27999877929688
2014-12-30,132.58999633789062
2014-12-31,131.0800018310547
2015-01-02,131.63999938964844
2015-01-05,130.10000610351562
2015-01-06,130.5
2015-01-07,131.3000030517578
2015-01-08,133.27000427246094
2015-01-09,131.9199981689453
2015-01-12,132.32000732421875
2015-01-13,135.2100067138672
2015-01-14,134.75
2015-01-15,133.50999450683594
2015-01-16,134.14999389648438
2015-01-20,134.1999969482422
2015-01-21,134.2899932861328
2015-01-22,135.36000061035156
2015-01-23,135.10000610351562
2015-01-26,135.27999877929688
2015-01-27,134.44000244140625
2015-01-28,133.4499969482422
2015-01-29,133.3300018310547
2015-01-30,131.2899932861328
2015-02-02,131.97999572753906
2015-02-03,133.49000549316406
2015-02-04,133.33999633789062
2015-02-05,134.97000122070312
2015-02-06,130.19000244140625
2015-02-09,130.8300018310547
2015-02-10,131.47000122070312
2015-02-11,131.58999633789062
2015-02-12,131.80999755859375
2015-02-13,131.07000732421875
2015-02-17,131.91000366210938
2015-02-18,134.64999389648438
2015-02-19,134.08999633789062
2015-02-20,134.61000061035156
2015-02-23,134.86000061035156
2015-02-24,134.57000732421875
2015-02-25,135.39999389648438
2015-02-26,135.0
2015-02-27,134.97000122070312
2015-03-02,137.14999389648438
2015-03-03,136.2899932861328
2015-03-04,135.11000061035156
2015-03-05,136.2899932861328
2015-03-06,136.19000244140625
2015-03-09,137.5399932861328
2015-03-10,136.05999755859375
2015-03-11,135.6699981689453
2015-03-12,136.8800048828125
2015-03-13,136.41000366210938
2015-03-16,138.67999267578125
2015-03-17,138.80999755859375
2015-03-18,140.50999450683594
2015-03-19,140.0
2015-03-20,139.7899932861328
2015-03-23,140.52999877929688
2015-03-24,140.33999633789062
2015-03-25,138.60000610351562
2015-03-26,138.2899932861328
2015-03-27,138.9600067138672
2015-03-30,140.86000061035156
2015-03-31,140.42999267578125
2015-04-01,138.8000030517578
2015-04-02,140.13999938964844
2015-04-06,141.2899932861328
2015-04-07,139.9199981689453
2015-04-08,140.66000366210938
2015-04-09,141.5399932861328
2015-04-10,141.92999267578125
2015-04-13,141.55999755859375
2015-04-14,140.80999755859375
2015-04-15,141.19000244140625
2015-04-16,140.8300018310547
2015-04-17,138.05999755859375
2015-04-20,138.9199981689453
2015-04-21,139.3800048828125
2015-04-22,139.66000366210938
2015-04-23,140.5
2015-04-24,136.94000244140625
2015-04-27,135.05999755859375
2015-04-28,135.2899932861328
2015-04-29,134.07000732421875
2015-04-30,133.42999267578125
2015-05-01,134.17999267578125
2015-05-04,135.24000549316406
2015-05-05,132.75999450683594
2015-05-06,132.8000030517578
2015-05-07,133.10000610351562
2015-05-08,134.00999450683594
2015-05-11,133.57000732421875
2015-05-12,134.33999633789062
2015-05-13,134.4199981689453
2015-05-14,136.7100067138672
2015-05-15,136.8000030517578
2015-05-18,138.1999969482422
2015-05-19,138.4600067138672
2015-05-20,137.8000030517578
2015-05-21,138.25
2015-05-22,138.24000549316406
2015-05-26,137.36000061035156
2015-05-27,138.4499969482422
2015-05-28,138.1699981689453
2015-05-29,137.3000030517578
2015-06-01,137.5800018310547
2015-06-02,136.8800048828125
2015-06-03,137.52999877929688
2015-06-04,136.72000122070312
2015-06-05,136.39999389648438
2015-06-08,136.39999389648438
2015-06-09,135.33999633789062
2015-06-10,136.61000061035156
2015-06-11,137.08999633789062
2015-06-12,135.82000732421875
2015-06-15,134.75
2015-06-16,135.4600067138672
2015-06-17,135.61000061035156
2015-06-18,137.47999572753906
2015-06-19,137.08999633789062
2015-06-22,137.52000427246094
2015-06-23,137.38999938964844
2015-06-24,135.7100067138672
2015-06-25,135.00999450683594
2015-06-26,135.72999572753906
2015-06-29,133.27000427246094
2015-06-30,133.91000366210938
2015-07-01,134.85000610351562
2015-07-02,134.63999938964844
2015-07-06,136.92999267578125
2015-07-07,136.35000610351562
2015-07-08,133.7899932861328
2015-07-09,133.85000610351562
2015-07-10,134.77000427246094
2015-07-13,135.52000427246094
2015-07-14,135.16000366210938
2015-07-15,134.55999755859375
2015-07-16,138.9199981689453
2015-07-17,136.4199981689453
2015-07-20,135.17999267578125
2015-07-21,133.4199981689453
2015-07-22,133.24000549316406
2015-07-23,132.6300048828125
2015-07-24,132.9199981689453
2015-07-27,132.3300018310547
2015-07-28,134.61000061035156
2015-07-29,140.25999450683594
2015-07-30,140.41000366210938
2015-07-31,140.97000122070312
2015-08-03,140.92999267578125
2015-08-04,141.6300048828125
2015-08-05,143.3000030517578
2015-08-06,141.86000061035156
2015-08-07,142.9499969482422
2015-08-10,144.3000030517578
2015-08-11,144.27999877929688
2015-08-12,144.77999877929688
2015-08-13,144.97000122070312
2015-08-14,145.52999877929688
2015-08-17,146.6199951171875
2015-08-18,148.25
2015-08-19,148.25999450683594
2015-08-20,146.6199951171875
2015-08-21,143.42999267578125
2015-08-24,138.02999877929688
2015-08-25,135.67999267578125
2015-08-26,139.25
2015-08-27,141.83999633789062
2015-08-28,142.0
2015-08-31,141.13999938964844
2015-09-01,139.07000732421875
2015-09-02,141.22000122070312
2015-09-03,142.10000610351562
2015-09-04,141.55999755859375
2015-09-08,145.61000061035156
2015-09-09,136.25
2015-09-10,138.50999450683594
2015-09-11,140.02000427246094
2015-09-14,137.05999755859375
2015-09-15,138.33999633789062
2015-09-16,137.14999389648438
2015-09-17,138.17999267578125
2015-09-18,137.0500030517578
2015-09-21,139.07000732421875
2015-09-22,138.2899932861328
2015-09-23,138.5
2015-09-24,138.88999938964844
2015-09-25,140.0500030517578
2015-09-28,138.25999450683594
2015-09-29,138.2100067138672
2015-09-30,139.30999755859375
2015-10-01,140.47999572753906
2015-10-02,141.8699951171875
2015-10-05,144.1300048828125
2015-10-06,143.27999877929688
2015-10-07,144.6999969482422
2015-10-08,146.8300018310547
2015-10-09,148.6300048828125
2015-10-12,149.6199951171875
2015-10-13,149.27999877929688
2015-10-14,147.50999450683594
2015-10-15,148.52000427246094
2015-10-16,149.47999572753906
2015-10-19,150.83999633789062
2015-10-20,149.92999267578125
2015-10-21,148.91000366210938
2015-10-22,149.0399932861328
2015-10-23,120.30999755859375
2015-10-26,123.08999633789062
2015-10-27,121.91999816894531
2015-10-28,121.5
2015-10-29,122.44999694824219
2015-10-30,121.37000274658203
2015-11-02,124.31999969482422
2015-11-03,125.0
2015-11-04,123.91999816894531
2015-11-05,124.08999633789062
2015-11-06,125.87999725341797
2015-11-09,123.94000244140625
2015-11-10,124.52999877929688
2015-11-11,123.97000122070312
2015-11-12,122.98999786376953
2015-11-13,122.7699966430664
2015-11-16,122.80999755859375
2015-11-17,122.30999755859375
2015-11-18,122.20999908447266
2015-11-19,120.81999969482422
2015-11-20,121.91000366210938
2015-11-23,123.30000305175781
2015-11-24,123.5999984741211
2015-11-25,122.41000366210938
2015-11-27,120.69000244140625
2015-11-30,120.72000122070312
2015-12-01,120.62999725341797
2015-12-02,118.7699966430664
2015-12-03,113.63999938964844
2015-12-04,116.63999938964844
2015-12-07,115.98999786376953
2015-12-08,115.95999908447266
2015-12-09,116.55000305175781
2015-12-10,117.58000183105469
2015-12-11,116.19999694824219
2015-12-14,117.08999633789062
2015-12-15,118.52999877929688
2015-12-16,118.61000061035156
2015-12-17,118.66000366210938
2015-12-18,116.75
2015-12-21,118.29000091552734
2015-12-22,119.66000366210938
2015-12-23,121.18000030517578
2015-12-24,120.98999786376953
2015-12-28,121.63999938964844
2015-12-29,123.1500015258789
2015-12-30,121.77999877929688
2015-12-31,120.5999984741211
2016-01-04,117.87000274658203
2016-01-05,120.52999877929688
2016-01-06,120.01000213623047
2016-01-07,119.51000213623047
2016-01-08,118.23999786376953
2016-01-11,119.41999816894531
2016-01-12,121.0199966430664
2016-01-13,116.30999755859375
2016-01-14,116.41000366210938
2016-01-15,115.16000366210938
2016-01-19,115.81999969482422
2016-01-20,115.12000274658203
2016-01-21,114.98999786376953
2016-01-22,117.94999694824219
2016-01-25,116.91000366210938
2016-01-26,118.16999816894531
2016-01-27,117.87000274658203
2016-01-28,116.93000030517578
2016-01-29,120.3499984741211
2016-02-01,120.6500015258789
2016-02-02,118.31999969482422
2016-02-03,117.19999694824219
2016-02-04,115.94000244140625
2016-02-05,111.12000274658203
2016-02-08,105.98999786376953
2016-02-09,106.02999877929688
2016-02-10,107.91000366210938
2016-02-11,106.05000305175781
2016-02-12,106.91999816894531
2016-02-16,109.47000122070312
2016-02-17,111.41000366210938
2016-02-18,111.54000091552734
2016-02-19,109.66000366210938
2016-02-22,111.23999786376953
2016-02-23,112.30000305175781
2016-02-24,113.13999938964844
2016-02-25,114.5199966430664
2016-02-26,115.54000091552734
2016-02-29,113.93000030517578
2016-03-01,117.94999694824219
2016-03-02,114.6500015258789
2016-03-03,115.55000305175781
2016-03-04,114.87000274658203
2016-03-07,114.70999908447266
2016-03-08,113.72000122070312
2016-03-09,114.08999633789062
2016-03-10,113.5199966430664
2016-03-11,116.01000213623047
2016-03-14,115.94999694824219
2016-03-15,118.45999908447266
2016-03-16,118.87999725341797
2016-03-17,120.69000244140625
2016-03-18,122.0999984741211
2016-03-21,123.0
2016-03-22,123.62000274658203
2016-03-23,123.80999755859375
2016-03-24,124.11000061035156
2016-03-28,124.33999633789062
2016-03-29,125.33000183105469
2016-03-30,125.68000030517578
2016-03-31,126.19000244140625
2016-04-01,127.62999725341797
2016-04-04,127.4800033569336
2016-04-05,126.80000305175781
2016-04-06,127.25
2016-04-07,127.23999786376953
2016-04-08,128.1999969482422
2016-04-11,126.0999984741211
2016-04-12,125.52999877929688
2016-04-13,126.33999633789062
2016-04-14,125.37000274658203
2016-04-15,125.41999816894531
2016-04-18,125.8499984741211
2016-04-19,125.37000274658203
2016-04-20,125.44000244140625
2016-04-21,123.70999908447266
2016-04-22,123.9800033569336
2016-04-25,122.80000305175781
2016-04-26,122.5999984741211
2016-04-27,122.98999786376953
2016-04-28,121.73999786376953
2016-04-29,95.55999755859375
2016-05-02,95.73999786376953
2016-05-03,94.55000305175781
2016-05-04,97.58999633789062
2016-05-05,95.0999984741211
2016-05-06,95.16000366210938
2016-05-09,96.01000213623047
2016-05-10,96.04000091552734
2016-05-11,94.51000213623047
2016-05-12,93.2699966430664
2016-05-13,93.69999694824219
2016-05-16,95.47000122070312
2016-05-17,97.66999816894531
2016-05-18,98.37000274658203
2016-05-19,97.30000305175781
2016-05-20,96.41000366210938
2016-05-23,96.11000061035156
2016-05-24,97.9800033569336
2016-05-25,97.47000122070312
2016-05-26,98.33999633789062
2016-05-27,97.56999969482422
2016-05-31,97.98999786376953
2016-06-01,98.55999755859375
2016-06-02,98.7300033569336
2016-06-03,98.55000305175781
2016-06-06,99.36000061035156
2016-06-07,102.0
2016-06-08,102.13999938964844
2016-06-09,100.86000061035156
2016-06-10,100.08000183105469
2016-06-13,100.37000274658203
2016-06-14,100.56999969482422
2016-06-15,101.20999908447266
2016-06-16,102.88999938964844
2016-06-17,101.4800033569336
2016-06-20,101.97000122070312
2016-06-21,101.41000366210938
2016-06-22,101.87999725341797
2016-06-23,103.37999725341797
2016-06-24,100.72000122070312
2016-06-27,99.16999816894531
2016-06-28,99.94999694824219
2016-06-29,101.9800033569336
2016-06-30,104.12000274658203
2016-07-01,104.33000183105469
2016-07-05,102.55000305175781
2016-07-06,102.81999969482422
2016-07-07,102.05999755859375
2016-07-08,104.69999694824219
2016-07-11,104.41999816894531
2016-07-12,105.20999908447266
2016-07-13,104.9000015258789
2016-07-14,106.19000244140625
2016-07-15,105.91000366210938
2016-07-18,105.86000061035156
2016-07-19,106.37000274658203
2016-07-20,106.5199966430664
2016-07-21,106.2699966430664
2016-07-22,107.25
2016-07-25,106.41000366210938
2016-07-26,107.08000183105469
2016-07-27,106.4800033569336
2016-07-28,105.93000030517578
2016-07-29,90.2699966430664
2016-08-01,89.37000274658203
2016-08-02,87.69000244140625
2016-08-03,87.98999786376953
2016-08-04,88.19000244140625
2016-08-05,89.94000244140625
2016-08-08,89.48999786376953
2016-08-09,87.66999816894531
2016-08-10,87.8499984741211
2016-08-11,86.95999908447266
2016-08-12,87.0199966430664
2016-08-15,87.04000091552734
2016-08-16,85.87999725341797
2016-08-17,85.55999755859375
2016-08-18,84.98999786376953
2016-08-19,85.12999725341797
2016-08-22,85.79000091552734
2016-08-23,85.3499984741211
2016-08-24,84.94000244140625
2016-08-25,84.70999908447266
2016-08-26,83.6500015258789
2016-08-29,84.68000030517578
2016-08-30,84.83999633789062
2016-08-31,85.9800033569336
2016-09-01,85.36000061035156
2016-09-02,84.1500015258789
2016-09-06,83.48999786376953
2016-09-07,82.79000091552734
2016-09-08,82.63999938964844
2016-09-09,82.06999969482422
2016-09-12,82.88999938964844
2016-09-13,82.13999938964844
2016-09-14,81.5999984741211
2016-09-15,81.76000213623047
2016-09-16,81.23999786376953
2016-09-19,78.0
2016-09-20,77.01000213623047
2016-09-21,78.0
2016-09-22,79.26000213623047
2016-09-23,79.54000091552734
2016-09-26,79.73999786376953
2016-09-27,80.26000213623047
2016-09-28,81.52999877929688
2016-09-29,80.5
2016-09-30,80.13999938964844
2016-10-03,79.76000213623047
2016-10-04,77.33999633789062
2016-10-05,76.58000183105469
2016-10-06,76.4000015258789
2016-10-07,75.0999984741211
2016-10-10,76.86000061035156
2016-10-11,76.16000366210938
2016-10-12,75.12999725341797
2016-10-13,74.37999725341797
2016-10-14,75.47000122070312
2016-10-17,74.19000244140625
2016-10-18,74.8499984741211
2016-10-19,75.05000305175781
2016-10-20,74.68000030517578
2016-10-21,74.77999877929688
2016-10-24,74.47000122070312
2016-10-25,75.9000015258789
2016-10-26,76.56999969482422
2016-10-27,73.95999908447266
2016-10-28,79.7300033569336
2016-10-31,80.08999633789062
2016-11-01,77.87000274658203
2016-11-02,76.02999877929688
2016-11-03,73.05000305175781
2016-11-04,72.63999938964844
2016-11-07,73.91000366210938
2016-11-08,74.2300033569336
2016-11-09,74.08000183105469
2016-11-10,74.72000122070312
2016-11-11,75.0
2016-11-14,74.87999725341797
2016-11-15,75.20999908447266
2016-11-16,74.88999938964844
2016-11-17,75.2699966430664
2016-11-18,76.08999633789062
2016-11-21,75.80999755859375
2016-11-22,75.62999725341797
2016-11-23,75.58999633789062
2016-11-25,76.7699966430664
2016-11-28,76.06999969482422
2016-11-29,75.83000183105469
2016-11-30,72.97000122070312
2016-12-01,73.44000244140625
2016-12-02,72.48999786376953
2016-12-05,71.61000061035156
2016-12-06,71.81999969482422
2016-12-07,72.0
2016-12-08,73.48999786376953
2016-12-09,74.37000274658203
2016-12-12,74.91999816894531
2016-12-13,76.27999877929688
2016-12-14,75.43000030517578
2016-12-15,77.5
2016-12-16,77.16000366210938
2016-12-19,77.12000274658203
2016-12-20,76.87999725341797
2016-12-21,76.51000213623047
2016-12-22,77.27999877929688
2016-12-23,77.45999908447266
2016-12-27,77.16999816894531
2016-12-28,76.11000061035156
2016-12-29,76.86000061035156
2016-12-30,77.04000091552734
2017-01-03,75.83999633789062
2017-01-04,77.83999633789062
2017-01-05,77.6500015258789
2017-01-06,79.37999725341797
2017-01-09,78.83999633789062
2017-01-10,78.04000091552734
2017-01-11,80.16000366210938
2017-01-12,79.52999877929688
2017-01-13,79.66000366210938
2017-01-17,80.62999725341797
2017-01-18,80.51000213623047
2017-01-19,79.95999908447266
2017-01-20,80.3499984741211
2017-01-23,79.91999816894531
2017-01-24,80.9000015258789
2017-01-25,81.51000213623047
2017-01-26,80.98999786376953
2017-01-27,77.58000183105469
2017-01-30,76.30000305175781
2017-01-31,77.13999938964844
2017-02-01,76.4800033569336
2017-02-02,76.80000305175781
2017-02-03,73.70999908447266
2017-02-06,75.30999755859375
2017-02-07,74.83999633789062
2017-02-08,75.44999694824219
2017-02-09,76.18000030517578
2017-02-10,76.7699966430664
2017-02-13,78.19000244140625
2017-02-14,77.55999755859375
2017-02-15,77.38999938964844
2017-02-16,83.3499984741211
2017-02-17,85.1500015258789
2017-02-21,85.76000213623047
2017-02-22,85.41000366210938
2017-02-23,84.69000244140625
2017-02-24,82.93000030517578
2017-02-27,83.41999816894531
2017-02-28,82.87999725341797
2017-03-01,82.63999938964844
2017-03-02,82.12999725341797
2017-03-03,80.7300033569336
2017-03-06,79.8499984741211
2017-03-07,80.86000061035156
2017-03-08,81.63999938964844
2017-03-09,81.76000213623047
2017-03-10,81.81999969482422
2017-03-13,82.2300033569336
2017-03-14,82.30999755859375
2017-03-15,83.02999877929688
2017-03-16,83.27999877929688
2017-03-17,84.1500015258789
2017-03-20,83.51000213623047
2017-03-21,82.37999725341797
2017-03-22,82.08999633789062
2017-03-23,82.04000091552734
2017-03-24,82.05000305175781
2017-03-27,81.61000061035156
2017-03-28,81.12999725341797
2017-03-29,80.6500015258789
2017-03-30,81.36000061035156
2017-03-31,82.88999938964844
2017-04-03,81.8499984741211
2017-04-04,81.06999969482422
2017-04-05,82.30000305175781
2017-04-06,82.51000213623047
2017-04-07,81.87000274658203
2017-04-10,82.56999969482422
2017-04-11,81.81999969482422
2017-04-12,81.2699966430664
2017-04-13,81.91999816894531
2017-04-17,82.94999694824219
2017-04-18,83.26000213623047
2017-04-19,83.81999969482422
2017-04-20,85.12000274658203
2017-04-21,85.55999755859375
2017-04-24,86.19999694824219
2017-04-25,86.79000091552734
2017-04-26,86.54000091552734
2017-04-27,85.62999725341797
2017-04-28,85.33999633789062
2017-05-01,85.9800033569336
2017-05-02,86.2699966430664
2017-05-03,85.58999633789062
2017-05-04,85.7300033569336
2017-05-05,87.0
2017-05-08,85.75
2017-05-09,86.2699966430664
2017-05-10,85.75
2017-05-11,84.9800033569336
2017-05-12,84.47000122070312
2017-05-15,84.13999938964844
2017-05-16,83.75
2017-05-17,83.31999969482422
2017-05-18,83.76000213623047
2017-05-19,83.55999755859375
2017-05-22,84.18000030517578
2017-05-23,83.05000305175781
2017-05-24,82.98999786376953
2017-05-25,83.3499984741211
2017-05-26,82.4000015258789
2017-05-30,81.4800033569336
2017-05-31,81.7699966430664
2017-06-01,84.19000244140625
2017-06-02,82.31999969482422
2017-06-05,81.16000366210938
2017-06-06,79.2300033569336
2017-06-07,80.4800033569336
2017-06-08,78.9800033569336
2017-06-09,79.01000213623047
2017-06-12,79.1500015258789
2017-06-13,78.69999694824219
2017-06-14,78.23999786376953
2017-06-15,78.16999816894531
2017-06-16,78.43000030517578
2017-06-19,79.06999969482422
2017-06-20,78.12999725341797
2017-06-21,76.33999633789062
2017-06-22,77.20999908447266
2017-06-23,76.87999725341797
2017-06-26,78.25
2017-06-27,77.23999786376953
2017-06-28,77.72000122070312
2017-06-29,77.22000122070312
2017-06-30,76.31999969482422
2017-07-03,76.37000274658203
2017-07-05,75.6500015258789
2017-07-06,75.2300033569336
2017-07-07,76.4800033569336
2017-07-10,75.38999938964844
2017-07-11,75.7300033569336
2017-07-12,75.6500015258789
2017-07-13,75.97000122070312
2017-07-14,76.30000305175781
2017-07-17,75.4800033569336
2017-07-18,75.88999938964844
2017-07-19,76.19999694824219
2017-07-20,76.6500015258789
2017-07-21,77.54000091552734
2017-07-24,76.41000366210938
2017-07-25,77.45999908447266
2017-07-26,76.55000305175781
2017-07-27,76.55999755859375
2017-07-28,75.93000030517578
2017-07-31,77.08000183105469
2017-08-01,77.05999755859375
2017-08-02,76.0199966430664
2017-08-03,82.76000213623047
2017-08-04,78.44999694824219
2017-08-07,78.66000366210938
2017-08-08,77.05999755859375
2017-08-09,75.05999755859375
2017-08-10,71.44000244140625
2017-08-11,71.02999877929688
2017-08-14,71.94999694824219
2017-08-15,72.06999969482422
2017-08-16,72.2699966430664
2017-08-17,71.05000305175781
2017-08-18,70.69999694824219
2017-08-21,71.30000305175781
2017-08-22,71.9000015258789
2017-08-23,70.91000366210938
2017-08-24,71.41000366210938
2017-08-25,71.72000122070312
2017-08-28,72.0999984741211
2017-08-29,72.0199966430664
2017-08-30,72.26000213623047
2017-08-31,71.88999938964844
2017-09-01,71.73999786376953
2017-09-05,70.33999633789062
2017-09-06,70.5
2017-09-07,69.0
2017-09-08,70.26000213623047
2017-09-11,70.94999694824219
2017-09-12,72.18000030517578
2017-09-13,72.12999725341797
2017-09-14,71.87000274658203
2017-09-15,72.12000274658203
2017-09-18,71.0
2017-09-19,70.19000244140625
2017-09-20,70.0199966430664
2017-09-21,69.97000122070312
2017-09-22,70.33999633789062
2017-09-25,70.7300033569336
2017-09-26,71.11000061035156
2017-09-27,71.9000015258789
2017-09-28,71.72000122070312
2017-09-29,71.62000274658203
2017-10-02,72.66000366210938
2017-10-03,71.81999969482422
2017-10-04,71.4800033569336
2017-10-05,71.63999938964844
2017-10-06,71.58000183105469
2017-10-09,70.2699966430664
2017-10-10,70.80000305175781
2017-10-11,70.70999908447266
2017-10-12,71.2699966430664
2017-10-13,70.5999984741211
2017-10-16,70.06999969482422
2017-10-17,71.2699966430664
2017-10-18,71.6500015258789
2017-10-19,71.9000015258789
2017-10-20,72.69000244140625
2017-10-23,72.63999938964844
2017-10-24,72.08000183105469
2017-10-25,71.4000015258789
2017-10-26,71.77999877929688
2017-10-27,71.0
2017-10-30,70.8499984741211
2017-10-31,70.8499984741211
2017-11-01,68.70999908447266
2017-11-02,67.91999816894531
2017-11-03,67.31999969482422
2017-11-06,67.26000213623047
2017-11-07,67.16000366210938
2017-11-08,67.0999984741211
2017-11-09,64.05999755859375
2017-11-10,64.0199966430664
2017-11-13,64.05999755859375
2017-11-14,63.540000915527344
2017-11-15,63.060001373291016
2017-11-16,62.68000030517578
2017-11-17,62.7599983215332
2017-11-20,62.5
2017-11-21,62.75
2017-11-22,62.81999969482422
2017-11-24,63.04999923706055
2017-11-27,63.36000061035156
2017-11-28,63.86000061035156
2017-11-29,65.29000091552734
2017-11-30,66.30999755859375
2017-12-01,66.94000244140625
2017-12-04,67.36000061035156
2017-12-05,66.5
2017-12-06,65.77999877929688
2017-12-07,66.94999694824219
2017-12-08,66.58000183105469
2017-12-11,67.16999816894531
2017-12-12,67.30000305175781
2017-12-13,66.04000091552734
2017-12-14,65.86000061035156
2017-12-15,66.87999725341797
2017-12-18,67.83000183105469
2017-12-19,67.77999877929688
2017-12-20,68.76000213623047
2017-12-21,68.83000183105469
2017-12-22,68.30999755859375
2017-12-26,67.83999633789062
2017-12-27,67.81999969482422
2017-12-28,67.87000274658203
2017-12-29,67.98999786376953
2018-01-02,68.55999755859375
2018-01-03,67.62999725341797
2018-01-04,70.8499984741211
2018-01-05,71.16999816894531
2018-01-08,70.76000213623047
2018-01-09,70.12999725341797
2018-01-10,70.2699966430664
2018-01-11,71.58000183105469
2018-01-12,71.5999984741211
2018-01-16,72.16000366210938
2018-01-17,72.19999694824219
2018-01-18,71.52999877929688
2018-01-19,72.0
2018-01-22,70.98999786376953
2018-01-23,70.55999755859375
2018-01-24,70.69000244140625
2018-01-25,70.4800033569336
2018-01-26,72.0
2018-01-29,73.01000213623047
2018-01-30,72.45999908447266
2018-01-31,75.36000061035156
2018-02-01,74.25
2018-02-02,73.37999725341797
2018-02-05,70.72000122070312
2018-02-06,71.30999755859375
2018-02-07,72.83999633789062
2018-02-08,70.55000305175781
2018-02-09,70.1500015258789
2018-02-12,71.37000274658203
2018-02-13,72.16999816894531
2018-02-14,74.29000091552734
2018-02-15,75.62000274658203
2018-02-16,76.0199966430664
2018-02-20,75.22000122070312
2018-02-21,74.91000366210938
2018-02-22,60.630001068115234
2018-02-23,60.04999923706055
2018-02-26,61.90999984741211
2018-02-27,62.540000915527344
2018-02-28,62.66999816894531
2018-03-01,62.040000915527344
2018-03-02,61.31999969482422
2018-03-05,63.0
2018-03-06,63.119998931884766
2018-03-07,63.7599983215332
2018-03-08,63.810001373291016
2018-03-09,64.66999816894531
2018-03-12,64.87000274658203
2018-03-13,64.62000274658203
2018-03-14,64.37999725341797
2018-03-15,63.310001373291016
2018-03-16,63.59000015258789
2018-03-19,62.970001220703125
2018-03-20,62.290000915527344
2018-03-21,61.689998626708984
2018-03-22,59.40999984741211
2018-03-23,58.4900016784668
2018-03-26,58.84000015258789
2018-03-27,58.939998626708984
2018-03-28,58.75
2018-03-29,58.529998779296875
2018-04-02,57.939998626708984
2018-04-03,57.93000030517578
2018-04-04,58.310001373291016
2018-04-05,58.56999969482422
2018-04-06,58.06999969482422
2018-04-09,57.11000061035156
2018-04-10,57.810001373291016
2018-04-11,58.150001525878906
2018-04-12,58.7400016784668
2018-04-13,58.9900016784668
2018-04-16,60.18000030517578
2018-04-17,60.47999954223633
2018-04-18,61.470001220703125
2018-04-19,60.849998474121094
2018-04-20,60.36000061035156
2018-04-23,60.9900016784668
2018-04-24,61.06999969482422
2018-04-25,60.79999923706055
2018-04-26,61.25
2018-04-27,61.099998474121094
2018-04-30,58.709999084472656
2018-05-01,58.689998626708984
2018-05-02,59.41999816894531
2018-05-03,59.08000183105469
2018-05-04,63.84000015258789
2018-05-07,63.95000076293945
2018-05-08,63.720001220703125
2018-05-09,64.01000213623047
2018-05-10,64.05999755859375
2018-05-11,64.25
2018-05-14,64.12999725341797
2018-05-15,63.869998931884766
2018-05-16,63.779998779296875
2018-05-17,63.81999969482422
2018-05-18,63.77000045776367
2018-05-21,63.86000061035156
2018-05-22,63.59000015258789
2018-05-23,63.45000076293945
2018-05-24,63.25
2018-05-25,63.29999923706055
2018-05-29,62.72999954223633
2018-05-30,64.30999755859375
2018-05-31,63.5
2018-06-01,64.05999755859375
2018-06-04,63.2400016784668
2018-06-05,63.06999969482422
2018-06-06,63.75
2018-06-07,64.16999816894531
2018-06-08,64.5999984741211
2018-06-11,64.43000030517578
2018-06-12,64.58000183105469
2018-06-13,63.7400016784668
2018-06-14,64.20999908447266
2018-06-15,64.08999633789062
2018-06-18,63.720001220703125
2018-06-19,63.209999084472656
2018-06-20,62.83000183105469
2018-06-21,63.16999816894531
2018-06-22,64.26000213623047
2018-06-25,64.80000305175781
2018-06-26,64.88999938964844
2018-06-27,63.650001525878906
2018-06-28,64.62000274658203
2018-06-29,65.29000091552734
2018-07-02,65.08999633789062
2018-07-03,64.98999786376953
2018-07-05,65.36000061035156
2018-07-06,65.95999908447266
2018-07-09,66.5199966430664
2018-07-10,66.80999755859375
2018-07-11,67.2300033569336
2018-07-12,68.3499984741211
2018-07-13,68.86000061035156
2018-07-16,67.81999969482422
2018-07-17,67.25
2018-07-18,67.44999694824219
2018-07-19,67.7699966430664
2018-07-20,68.25
2018-07-23,68.8499984741211
2018-07-24,69.1500015258789
2018-07-25,69.76000213623047
2018-07-26,70.44000244140625
2018-07-27,70.55999755859375
2018-07-30,69.43000030517578
2018-07-31,69.86000061035156
2018-08-01,70.62000274658203
2018-08-02,70.97000122070312
2018-08-03,61.65999984741211
2018-08-06,62.130001068115234
2018-08-07,62.380001068115234
2018-08-08,61.709999084472656
2018-08-09,61.58000183105469
2018-08-10,61.470001220703125
2018-08-13,60.0099983215332
2018-08-14,60.459999084472656
2018-08-15,60.93000030517578
2018-08-16,61.470001220703125
2018-08-17,61.41999816894531
2018-08-20,61.68000030517578
2018-08-21,62.189998626708984
2018-08-22,61.34000015258789
2018-08-23,61.400001525878906
2018-08-24,61.31999969482422
2018-08-27,61.779998779296875
2018-08-28,62.25
2018-08-29,62.189998626708984
2018-08-30,61.709999084472656
2018-08-31,61.689998626708984
2018-09-04,62.13999938964844
2018-09-05,61.869998931884766
2018-09-06,61.95000076293945
2018-09-07,61.81999969482422
2018-09-10,61.91999816894531
2018-09-11,61.2599983215332
2018-09-12,61.220001220703125
2018-09-13,60.91999816894531
2018-09-14,61.869998931884766
2018-09-17,61.689998626708984
2018-09-18,62.36000061035156
2018-09-19,61.970001220703125
2018-09-20,61.720001220703125
2018-09-21,61.4900016784668
2018-09-24,60.54999923706055
2018-09-25,60.689998626708984
2018-09-26,60.34000015258789
2018-09-27,58.40999984741211
2018-09-28,58.68000030517578
2018-10-01,57.38999938964844
2018-10-02,56.09000015258789
2018-10-03,55.79999923706055
2018-10-04,54.5099983215332
2018-10-05,54.41999816894531
2018-10-08,54.040000915527344
2018-10-09,54.119998931884766
2018-10-10,54.0099983215332
2018-10-11,52.9900016784668
2018-10-12,52.54999923706055
2018-10-15,52.52000045776367
2018-10-16,53.75
2018-10-17,53.75
2018-10-18,53.119998931884766
2018-10-19,53.04999923706055
2018-10-22,52.13999938964844
2018-10-23,50.529998779296875
2018-10-24,48.939998626708984
2018-10-25,49.52000045776367
2018-10-26,48.810001373291016
2018-10-29,49.13999938964844
2018-10-30,49.09000015258789
2018-10-31,49.970001220703125
2018-11-01,50.779998779296875
2018-11-02,47.310001373291016
2018-11-05,46.77000045776367
2018-11-06,46.79999923706055
2018-11-07,48.560001373291016
2018-11-08,47.86000061035156
2018-11-09,47.65999984741211
2018-11-12,47.04999923706055
2018-11-13,45.290000915527344
2018-11-14,45.45000076293945
2018-11-15,46.060001373291016
2018-11-16,46.040000915527344
2018-11-19,46.189998626708984
2018-11-20,44.790000915527344
2018-11-21,44.95000076293945
2018-11-23,45.619998931884766
2018-11-26,46.150001525878906
2018-11-27,46.369998931884766
2018-11-28,47.59000015258789
2018-11-29,48.209999084472656
2018-11-30,48.06999969482422
2018-12-03,47.52000045776367
2018-12-04,46.439998626708984
2018-12-06,45.18000030517578
2018-12-07,43.93000030517578
2018-12-10,42.310001373291016
2018-12-11,42.11000061035156
2018-12-12,41.790000915527344
2018-12-13,40.88999938964844
2018-12-14,40.400001525878906
2018-12-17,39.099998474121094
2018-12-18,38.880001068115234
2018-12-19,38.65999984741211
2018-12-20,37.86000061035156
2018-12-21,36.79999923706055
2018-12-24,35.189998626708984
2018-12-26,36.36000061035156
2018-12-27,36.720001220703125
2018-12-28,36.599998474121094
2018-12-31,36.689998626708984
2019-01-02,36.869998931884766
2019-01-03,37.16999816894531
2019-01-04,37.54999923706055
2019-01-07,38.099998474121094
2019-01-08,38.36000061035156
2019-01-09,38.77000045776367
2019-01-10,39.45000076293945
2019-01-11,39.540000915527344
2019-01-14,39.81999969482422
2019-01-15,40.150001525878906
2019-01-16,40.54999923706055
2019-01-17,40.939998626708984
2019-01-18,41.77000045776367
2019-01-22,42.040000915527344
2019-01-23,42.779998779296875
2019-01-24,43.220001220703125
2019-01-25,43.4900016784668
2019-01-28,43.27000045776367
2019-01-29,43.61000061035156
2019-01-30,44.22999954223633
2019-01-31,44.08000183105469
2019-02-01,44.0099983215332
2019-02-04,44.7400016784668
2019-02-05,45.0
2019-02-06,45.04999923706055
2019-02-07,44.27000045776367
2019-02-08,44.97999954223633
2019-02-11,44.58000183105469
2019-02-12,45.540000915527344
2019-02-13,44.959999084472656
2019-02-14,45.029998779296875
2019-02-15,45.560001373291016
2019-02-19,45.20000076293945
2019-02-20,45.84000015258789
2019-02-21,45.04999923706055
2019-02-22,45.41999816894531
2019-02-25,45.2400016784668
2019-02-26,44.529998779296875
2019-02-27,44.95000076293945
2019-02-28,44.58000183105469
2019-03-01,51.630001068115234
2019-03-04,50.130001068115234
2019-03-05,48.810001373291016
2019-03-06,47.66999816894531
2019-03-07,47.650001525878906
2019-03-08,47.939998626708984
2019-03-11,48.0
2019-03-12,48.59000015258789
2019-03-13,49.279998779296875
2019-03-14,49.20000076293945
2019-03-15,49.36000061035156
2019-03-18,49.25
2019-03-19,49.060001373291016
2019-03-20,48.58000183105469
2019-03-21,50.150001525878906
2019-03-22,50.4900016784668
2019-03-25,51.720001220703125
2019-03-26,52.810001373291016
2019-03-27,52.93000030517578
2019-03-28,53.38999938964844
2019-03-29,54.41999816894531
2019-04-01,55.13999938964844
2019-04-02,56.47999954223633
2019-04-03,56.95000076293945
2019-04-04,57.40999984741211
2019-04-05,57.91999816894531
2019-04-08,57.459999084472656
2019-04-09,56.400001525878906
2019-04-10,57.0
2019-04-11,56.9900016784668
2019-04-12,57.119998931884766
2019-04-15,57.599998474121094
2019-04-16,56.689998626708984
2019-04-17,57.119998931884766
2019-04-18,56.040000915527344
2019-04-22,56.20000076293945
2019-04-23,57.15999984741211
2019-04-24,57.75
2019-04-25,56.77000045776367
2019-04-26,57.83000183105469
2019-04-29,58.16999816894531
2019-04-30,58.38999938964844
2019-05-01,56.95000076293945
2019-05-02,57.25
2019-05-03,52.0099983215332
2019-05-06,51.79999923706055
2019-05-07,49.619998931884766
2019-05-08,49.22999954223633
2019-05-09,48.790000915527344
2019-05-10,50.18000030517578
2019-05-13,48.93000030517578
2019-05-14,49.369998931884766
2019-05-15,48.790000915527344
2019-05-16,48.790000915527344
2019-05-17,48.34000015258789
2019-05-20,48.04999923706055
2019-05-21,48.90999984741211
2019-05-22,48.0
2019-05-23,46.72999954223633
2019-05-24,46.630001068115234
2019-05-28,46.0099983215332
2019-05-29,45.630001068115234
2019-05-30,45.369998931884766
2019-05-31,46.380001068115234
2019-06-03,46.72999954223633
2019-06-04,47.470001220703125
2019-06-05,46.709999084472656
2019-06-06,46.25
2019-06-07,45.369998931884766
2019-06-10,44.45000076293945
2019-06-11,44.97999954223633
2019-06-12,44.88999938964844
2019-06-13,45.66999816894531
2019-06-14,45.2400016784668
2019-06-17,45.90999984741211
2019-06-18,45.5
2019-06-19,45.689998626708984
2019-06-20,46.9900016784668
2019-06-21,46.7400016784668
2019-06-24,46.7400016784668
2019-06-25,46.88999938964844
2019-06-26,46.790000915527344
2019-06-27,47.7599983215332
2019-06-28,47.75
2019-07-01,46.959999084472656
2019-07-02,46.849998474121094
2019-07-03,48.040000915527344
2019-07-05,48.040000915527344
2019-07-08,47.099998474121094
2019-07-09,46.22999954223633
2019-07-10,46.150001525878906
2019-07-11,45.56999969482422
2019-07-12,45.880001068115234
2019-07-15,46.11000061035156
2019-07-16,45.95000076293945
2019-07-17,44.0
2019-07-18,44.369998931884766
2019-07-19,45.61000061035156
2019-07-22,45.70000076293945
2019-07-23,46.599998474121094
2019-07-24,47.2400016784668
2019-07-25,45.939998626708984
2019-07-26,46.93000030517578
2019-07-29,45.70000076293945
2019-07-30,46.65999984741211
2019-07-31,45.959999084472656
2019-08-01,44.5099983215332
2019-08-02,45.43000030517578
2019-08-05,43.86000061035156
2019-08-06,43.540000915527344
2019-08-07,44.029998779296875
2019-08-08,45.36000061035156
2019-08-09,44.77000045776367
2019-08-12,43.36000061035156
2019-08-13,43.70000076293945
2019-08-14,43.34000015258789
2019-08-15,43.709999084472656
2019-08-16,44.9900016784668
2019-08-19,45.84000015258789
2019-08-20,44.630001068115234
2019-08-21,44.81999969482422
2019-08-22,44.529998779296875
2019-08-23,42.84000015258789
2019-08-26,43.540000915527344
2019-08-27,44.06999969482422
2019-08-28,45.15999984741211
2019-08-29,44.95000076293945
2019-08-30,44.88999938964844
2019-09-03,44.5099983215332
2019-09-04,46.68000030517578
2019-09-05,46.38999938964844
2019-09-06,45.97999954223633
2019-09-09,47.34000015258789
2019-09-10,48.77000045776367
2019-09-11,51.119998931884766
2019-09-12,52.5099983215332
2019-09-13,50.9900016784668
2019-09-16,52.13999938964844
2019-09-17,50.619998931884766
2019-09-18,50.619998931884766
2019-09-19,49.869998931884766
2019-09-20,50.33000183105469
2019-09-23,50.06999969482422
2019-09-24,48.9900016784668
2019-09-25,48.66999816894531
2019-09-26,48.529998779296875
2019-09-27,49.119998931884766
2019-09-30,50.93000030517578
2019-10-01,49.560001373291016
2019-10-02,49.72999954223633
2019-10-03,49.369998931884766
2019-10-04,49.790000915527344
2019-10-07,49.0099983215332
2019-10-08,48.470001220703125
2019-10-09,49.189998626708984
2019-10-10,49.5
2019-10-11,50.9900016784668
2019-10-14,50.790000915527344
2019-10-15,50.97999954223633
2019-10-16,51.939998626708984
2019-10-17,53.25
2019-10-18,54.13999938964844
2019-10-21,53.959999084472656
2019-10-22,53.77000045776367
2019-10-23,53.650001525878906
2019-10-24,53.09000015258789
2019-10-25,53.7599983215332
2019-10-28,54.16999816894531
2019-10-29,53.439998626708984
2019-10-30,53.4900016784668
2019-10-31,57.599998474121094
2019-11-01,58.63999938964844
2019-11-04,60.29999923706055
2019-11-05,61.279998779296875
2019-11-06,62.16999816894531
2019-11-07,62.38999938964844
2019-11-08,62.38999938964844
2019-11-11,61.810001373291016
2019-11-12,61.599998474121094
2019-11-13,61.40999984741211
2019-11-14,61.220001220703125
2019-11-15,61.59000015258789
2019-11-18,61.29999923706055
2019-11-19,61.34000015258789
2019-11-20,61.7400016784668
2019-11-21,62.470001220703125
2019-11-22,64.08999633789062
2019-11-25,63.560001373291016
2019-11-26,62.880001068115234
2019-11-27,63.7599983215332
2019-11-29,62.81999969482422
2019-12-02,63.380001068115234
2019-12-03,63.709999084472656
2019-12-04,64.48999786376953
2019-12-05,64.93000030517578
2019-12-06,65.70999908447266
2019-12-09,65.87000274658203
2019-12-10,66.05000305175781
2019-12-11,65.61000061035156
2019-12-12,65.75
2019-12-13,64.02999877929688
2019-12-16,64.19000244140625
2019-12-17,63.84000015258789
2019-12-18,62.650001525878906
2019-12-19,63.27000045776367
2019-12-20,63.599998474121094
2019-12-23,64.3499984741211
2019-12-24,63.959999084472656
2019-12-26,64.38999938964844
2019-12-27,64.04000091552734
2019-12-30,64.22000122070312
2019-12-31,63.810001373291016
