Date,TER
2007-12-31,9.712048530578613
2008-01-02,9.449052810668945
2008-01-03,9.298768997192383
2008-01-04,8.876094818115234
2008-01-07,8.857312202453613
2008-01-08,8.462820053100586
2008-01-09,8.481603622436523
2008-01-10,8.6224946975708
2008-01-11,8.397069931030273
2008-01-14,8.838528633117676
2008-01-15,8.481603622436523
2008-01-16,9.016990661621094
2008-01-17,8.528566360473633
2008-01-18,8.913668632507324
2008-01-22,8.6224946975708
2008-01-23,8.613101959228516
2008-01-24,9.561765670776367
2008-01-25,9.852935791015625
2008-01-28,9.768404006958008
2008-01-29,10.087754249572754
2008-01-30,10.200467109680176
2008-01-31,10.322572708129883
2008-02-01,10.679495811462402
2008-02-04,10.538603782653809
2008-02-05,9.890509605407715
2008-02-06,9.993828773498535
2008-02-07,9.993828773498535
2008-02-08,9.890509605407715
2008-02-11,10.17228889465332
2008-02-12,10.106539726257324
2008-02-13,10.331965446472168
2008-02-14,10.097146034240723
2008-02-15,10.068967819213867
2008-02-19,10.040789604187012
2008-02-20,10.313179016113281
2008-02-21,10.153505325317383
2008-02-22,10.266216278076172
2008-02-25,10.557389259338379
2008-02-26,11.477873802185059
2008-02-27,11.740869522094727
2008-02-28,11.5154447555542
2008-02-29,11.261842727661133
2008-03-03,11.271233558654785
2008-03-04,11.459089279174805
2008-03-05,11.63754940032959
2008-03-06,11.177308082580566
2008-03-07,11.177308082580566
2008-03-10,10.96127700805664
2008-03-11,11.44969654083252
2008-03-12,11.412125587463379
2008-03-13,11.421518325805664
2008-03-14,11.261842727661133
2008-03-17,11.186700820922852
2008-03-18,11.703299522399902
2008-03-19,11.271233558654785
2008-03-20,11.57180118560791
2008-03-24,12.060224533081055
2008-03-25,11.769046783447266
2008-03-26,11.543622016906738
2008-03-27,11.750260353088379
2008-03-28,11.656335830688477
2008-03-31,11.665727615356445
2008-04-01,12.13536262512207
2008-04-02,12.210504531860352
2008-04-03,12.642569541931152
2008-04-04,12.651960372924805
2008-04-07,12.445320129394531
2008-04-08,12.022651672363281
2008-04-09,11.985079765319824
2008-04-10,11.956899642944336
2008-04-11,11.63754940032959
2008-04-14,11.477873802185059
2008-04-15,11.5248384475708
2008-04-16,11.844189643859863
2008-04-17,11.393342018127441
2008-04-18,11.665727615356445
2008-04-21,11.816011428833008
2008-04-22,11.534229278564453
2008-04-23,12.651960372924805
2008-04-24,12.774065017700195
2008-04-25,12.858597755432129
2008-04-28,12.61439037322998
2008-04-29,12.586213111877441
2008-04-30,12.482891082763672
2008-05-01,13.093419075012207
2008-05-02,12.990097045898438
2008-05-05,12.933745384216309
2008-05-06,13.121597290039062
2008-05-07,12.914956092834473
2008-05-08,13.037063598632812
2008-05-09,12.830419540405273
2008-05-12,12.999490737915039
2008-05-13,12.81163501739502
2008-05-14,13.027666091918945
2008-05-15,13.24370288848877
2008-05-16,13.234306335449219
2008-05-19,13.234306335449219
2008-05-20,12.604998588562012
2008-05-21,12.398357391357422
2008-05-22,12.417145729064941
2008-05-23,12.285645484924316
2008-05-27,12.745889663696289
2008-05-28,12.736496925354004
2008-05-29,12.7083158493042
2008-05-30,12.905564308166504
2008-06-02,12.426533699035645
2008-06-03,12.24807357788086
2008-06-04,12.238680839538574
2008-06-05,11.928725242614746
2008-06-06,11.712692260742188
2008-06-09,11.468481063842773
2008-06-10,11.374554634094238
2008-06-11,10.200467109680176
2008-06-12,10.801602363586426
2008-06-13,10.754636764526367
2008-06-16,10.98945140838623
2008-06-17,10.942488670349121
2008-06-18,10.44467830657959
2008-06-19,10.754636764526367
2008-06-20,10.435282707214355
2008-06-23,10.341358184814453
2008-06-24,10.341358184814453
2008-06-25,10.623140335083008
2008-06-26,10.078362464904785
2008-06-27,10.059578895568848
2008-06-30,10.397710800170898
2008-07-01,10.566780090332031
2008-07-02,9.918684959411621
2008-07-03,9.693262100219727
2008-07-07,9.862327575683594
2008-07-08,10.078362464904785
2008-07-09,9.533585548400879
2008-07-10,9.599334716796875
2008-07-11,9.233017921447754
2008-07-14,9.139090538024902
2008-07-15,9.186056137084961
2008-07-16,9.571157455444336
2008-07-17,9.796578407287598
2008-07-18,9.759013175964355
2008-07-21,9.852935791015625
2008-07-22,9.392696380615234
2008-07-23,9.843545913696289
2008-07-24,8.613101959228516
2008-07-25,8.688241958618164
2008-07-28,8.434640884399414
2008-07-29,8.782174110412598
2008-07-30,8.857312202453613
2008-07-31,8.80095386505127
2008-08-01,8.735206604003906
2008-08-04,8.678853988647461
2008-08-05,8.960630416870117
2008-08-06,8.913668632507324
2008-08-07,8.791563987731934
2008-08-08,9.00759506225586
2008-08-11,9.204840660095215
2008-08-12,9.214235305786133
2008-08-13,9.233017921447754
2008-08-14,9.308157920837402
2008-08-15,9.242411613464355
2008-08-18,9.045166969299316
2008-08-19,8.866704940795898
2008-08-20,8.90427303314209
2008-08-21,8.90427303314209
2008-08-22,8.885490417480469
2008-08-25,8.838528633117676
2008-08-26,8.70702838897705
2008-08-27,8.782174110412598
2008-08-28,8.941847801208496
2008-08-29,8.763384819030762
2008-09-02,8.744597434997559
2008-09-03,8.575531959533691
2008-09-04,8.35949993133545
2008-09-05,8.6224946975708
2008-09-08,8.65067195892334
2008-09-09,8.218606948852539
2008-09-10,8.41585636138916
2008-09-11,8.35949993133545
2008-09-12,8.190433502197266
2008-09-15,7.758368015289307
2008-09-16,8.049538612365723
2008-09-17,7.748974800109863
2008-09-18,8.030754089355469
2008-09-19,8.134072303771973
2008-09-22,7.84290075302124
2008-09-23,7.664438247680664
2008-09-24,7.579905033111572
2008-09-25,7.6550469398498535
2008-09-26,7.805327892303467
2008-09-29,7.288733005523682
2008-09-30,7.335694789886475
2008-10-01,7.269946575164795
2008-10-02,6.715777397155762
2008-10-03,6.480960845947266
2008-10-06,6.340068817138672
2008-10-07,5.814079284667969
2008-10-08,5.701366901397705
2008-10-09,5.457155227661133
2008-10-10,5.382014751434326
2008-10-13,5.870434761047363
2008-10-14,5.729544639587402
2008-10-15,5.3350510597229
2008-10-16,5.569868087768555
2008-10-17,5.457155227661133
2008-10-20,5.720152378082275
2008-10-21,5.551083087921143
2008-10-22,5.147196292877197
2008-10-23,4.611814498901367
2008-10-24,4.433352470397949
2008-10-27,4.395781993865967
2008-10-28,4.827845573425293
2008-10-29,4.48970890045166
2008-10-30,4.414567470550537
2008-10-31,4.790274143218994
2008-11-03,4.874807834625244
2008-11-04,5.259909152984619
2008-11-05,4.996914386749268
2008-11-06,4.733918190002441
2008-11-07,4.705740928649902
2008-11-10,4.320639610290527
2008-11-11,4.273675441741943
2008-11-12,3.935539960861206
2008-11-13,4.179749965667725
2008-11-14,3.804041862487793
2008-11-17,3.531653642654419
2008-11-18,3.475297212600708
2008-11-19,3.071411371231079
2008-11-20,2.78963041305542
2008-11-21,2.9493064880371094
2008-11-24,3.240480422973633
2008-11-25,3.2310872077941895
2008-11-26,3.465904951095581
2008-11-28,3.5598316192626953
2008-12-01,3.0901966094970703
2008-12-02,3.2216944694519043
2008-12-03,3.5222599506378174
2008-12-04,3.465904951095581
2008-12-05,3.4471192359924316
2008-12-08,3.6913299560546875
2008-12-09,3.794649362564087
2008-12-10,3.9449315071105957
2008-12-11,3.728900194168091
2008-12-12,3.8134350776672363
2008-12-15,3.7007217407226562
2008-12-16,3.9073615074157715
2008-12-17,3.9825029373168945
2008-12-18,3.7758634090423584
2008-12-19,4.029465675354004
2008-12-22,3.888575792312622
2008-12-23,3.8134350776672363
2008-12-24,3.9261467456817627
2008-12-26,3.888575792312622
2008-12-29,3.84161376953125
2008-12-30,4.001288414001465
2008-12-31,3.9637176990509033
2009-01-02,4.386388778686523
2009-01-05,4.856024265289307
2009-01-06,5.043877124786377
2009-01-07,4.9217729568481445
2009-01-08,5.1190185546875
2009-01-09,4.9217729568481445
2009-01-12,4.7527031898498535
2009-01-13,4.790274143218994
2009-01-14,4.68695592880249
2009-01-15,4.602420330047607
2009-01-16,4.7996673583984375
2009-01-20,4.254892349243164
2009-01-21,4.433352470397949
2009-01-22,4.245499134063721
2009-01-23,4.546065330505371
2009-01-26,4.696348190307617
2009-01-27,4.780882835388184
2009-01-28,4.931163787841797
2009-01-29,4.68695592880249
2009-01-30,4.517886161804199
2009-02-02,4.527278900146484
2009-02-03,4.508495330810547
2009-02-04,4.621205806732178
2009-02-05,4.696348190307617
2009-02-06,4.987522125244141
2009-02-09,4.9593424797058105
2009-02-10,4.55545711517334
2009-02-11,4.527278900146484
2009-02-12,4.546065330505371
2009-02-13,4.546065330505371
2009-02-17,4.151571750640869
2009-02-18,4.057643890380859
2009-02-19,3.8979690074920654
2009-02-20,3.888575792312622
2009-02-23,3.672544002532959
2009-02-24,4.020074844360352
2009-02-25,4.076428413391113
2009-02-26,3.954324960708618
2009-02-27,3.8791840076446533
2009-03-02,3.6913299560546875
2009-03-03,3.616187334060669
2009-03-04,3.785256862640381
2009-03-05,3.616187334060669
2009-03-06,3.2874433994293213
2009-03-09,3.2310872077941895
2009-03-10,3.541046380996704
2009-03-11,3.5786168575286865
2009-03-12,3.9261467456817627
2009-03-13,4.038859844207764
2009-03-16,3.8697915077209473
2009-03-17,3.9825029373168945
2009-03-18,4.236106872558594
2009-03-19,4.189141750335693
2009-03-20,3.8510053157806396
2009-03-23,4.20792818069458
2009-03-24,4.179749965667725
2009-03-25,4.189141750335693
2009-03-26,4.639991760253906
2009-03-27,4.461530685424805
2009-03-30,4.264283180236816
2009-03-31,4.114001274108887
2009-04-01,4.217320442199707
2009-04-02,4.564849853515625
2009-04-03,4.827845573425293
2009-04-06,4.780882835388184
2009-04-07,4.48970890045166
2009-04-08,4.6305975914001465
2009-04-09,5.006307125091553
2009-04-13,4.9593424797058105
2009-04-14,4.809061050415039
2009-04-15,4.705740928649902
2009-04-16,4.912380218505859
2009-04-17,5.1190185546875
2009-04-20,4.611814498901367
2009-04-21,4.5930280685424805
2009-04-22,4.762096405029297
2009-04-23,4.856024265289307
2009-04-24,4.987522125244141
2009-04-27,4.809061050415039
2009-04-28,4.818452835083008
2009-04-29,5.072056770324707
2009-04-30,5.57926082611084
2009-05-01,5.908005714416504
2009-05-04,6.490352630615234
2009-05-05,6.396425247192383
2009-05-06,6.358853816986084
2009-05-07,6.114645004272461
2009-05-08,6.095859050750732
2009-05-11,6.048893928527832
2009-05-12,5.645010948181152
2009-05-13,5.259909152984619
2009-05-14,5.551083087921143
2009-05-15,5.494725704193115
2009-05-18,5.79529333114624
2009-05-19,6.142822742462158
2009-05-20,6.048893928527832
2009-05-21,5.983147144317627
2009-05-22,6.011325836181641
2009-05-26,6.142822742462158
2009-05-27,6.5467095375061035
2009-05-28,6.696991920471191
2009-05-29,6.715777397155762
2009-06-01,7.035128116607666
2009-06-02,6.819097995758057
2009-06-03,6.621851444244385
2009-06-04,7.0257368087768555
2009-06-05,6.706383228302002
2009-06-08,6.584280014038086
2009-06-09,6.809703826904297
2009-06-10,6.903632164001465
2009-06-11,6.7627410888671875
2009-06-12,6.621851444244385
2009-06-15,6.574886798858643
2009-06-16,6.415209770202637
2009-06-17,6.396425247192383
2009-06-18,6.246143341064453
2009-06-19,6.199178695678711
2009-06-22,5.814079284667969
2009-06-23,5.842257022857666
2009-06-24,6.180393218994141
2009-06-25,6.471566677093506
2009-06-26,6.424604892730713
2009-06-29,6.4997453689575195
2009-06-30,6.443388938903809
2009-07-01,6.603065013885498
2009-07-02,6.349460601806641
2009-07-06,6.1616082191467285
2009-07-07,5.842257022857666
2009-07-08,5.701366901397705
2009-07-09,5.95496940612793
2009-07-10,5.945577621459961
2009-07-13,6.217965126037598
2009-07-14,6.537315845489502
2009-07-15,6.950594425201416
2009-07-16,7.072699546813965
2009-07-17,7.138448238372803
2009-07-20,7.279339790344238
2009-07-21,7.129056453704834
2009-07-22,7.194805145263672
2009-07-23,7.4014434814453125
2009-07-24,7.467192649841309
2009-07-27,7.6550469398498535
2009-07-28,7.6832275390625
2009-07-29,7.345088005065918
2009-07-30,7.2417683601379395
2009-07-31,7.4014434814453125
2009-08-03,7.748974800109863
2009-08-04,7.7865447998046875
2009-08-05,7.702010631561279
2009-08-06,7.617475509643555
2009-08-07,7.730186939239502
2009-08-10,7.532942295074463
2009-08-11,7.176019191741943
2009-08-12,7.4014434814453125
2009-08-13,7.589298725128174
2009-08-14,7.410836219787598
2009-08-17,7.147841930389404
2009-08-18,7.420229434967041
2009-08-19,7.476584434509277
2009-08-20,7.523550510406494
2009-08-21,7.6832275390625
2009-08-24,7.6550469398498535
2009-08-25,7.702010631561279
2009-08-26,7.852293491363525
2009-08-27,7.82411527633667
2009-08-28,7.748974800109863
2009-08-31,7.748974800109863
2009-09-01,7.410836219787598
2009-09-02,7.147841930389404
2009-09-03,7.316910266876221
2009-09-04,7.626870155334473
2009-09-08,7.7865447998046875
2009-09-09,7.899257183074951
2009-09-10,8.115287780761719
2009-09-11,7.889863014221191
2009-09-14,7.767761707305908
2009-09-15,8.660064697265625
2009-09-16,8.6224946975708
2009-09-17,8.350106239318848
2009-09-18,8.528566360473633
2009-09-21,8.444031715393066
2009-09-22,8.791563987731934
2009-09-23,8.688241958618164
2009-09-24,8.453426361083984
2009-09-25,8.594314575195312
2009-09-28,8.819740295410156
2009-09-29,8.556743621826172
2009-09-30,8.688241958618164
2009-10-01,8.265570640563965
2009-10-02,8.293752670288086
2009-10-05,8.669459342956543
2009-10-06,9.00759506225586
2009-10-07,9.035772323608398
2009-10-08,9.27059268951416
2009-10-09,9.674476623535156
2009-10-12,9.636905670166016
2009-10-13,9.655691146850586
2009-10-14,9.871724128723145
2009-10-15,9.580548286437988
2009-10-16,9.261195182800293
2009-10-19,9.279983520507812
2009-10-20,9.552373886108398
2009-10-21,9.204840660095215
2009-10-22,9.402087211608887
2009-10-23,9.157880783081055
2009-10-26,8.988808631896973
2009-10-27,8.584922790527344
2009-10-28,8.134072303771973
2009-10-29,8.547350883483887
2009-10-30,7.861686706542969
2009-11-02,7.908649921417236
2009-11-03,7.777151584625244
2009-11-04,7.673831462860107
2009-11-05,7.983788967132568
2009-11-06,7.889863014221191
2009-11-09,8.00257682800293
2009-11-10,8.00257682800293
2009-11-11,8.152856826782227
2009-11-12,8.134072303771973
2009-11-13,8.303143501281738
2009-11-16,8.528566360473633
2009-11-17,8.6224946975708
2009-11-18,8.509784698486328
2009-11-19,8.312538146972656
2009-11-20,8.228002548217773
2009-11-23,8.312538146972656
2009-11-24,8.228002548217773
2009-11-25,8.41585636138916
2009-11-27,8.293752670288086
2009-11-30,8.321927070617676
2009-12-01,8.63188648223877
2009-12-02,8.932454109191895
2009-12-03,8.932454109191895
2009-12-04,9.214235305786133
2009-12-07,9.101522445678711
2009-12-08,9.101522445678711
2009-12-09,9.204840660095215
2009-12-10,9.063950538635254
2009-12-11,9.035772323608398
2009-12-14,9.683871269226074
2009-12-15,9.712048530578613
2009-12-16,9.824760437011719
2009-12-17,9.552373886108398
2009-12-18,9.608725547790527
2009-12-21,9.899901390075684
2009-12-22,10.097146034240723
2009-12-23,10.134718894958496
2009-12-24,10.144113540649414
2009-12-28,10.087754249572754
2009-12-29,10.050185203552246
2009-12-30,10.115933418273926
2009-12-31,10.078362464904785
2010-01-04,10.294392585754395
2010-01-05,10.331965446472168
2010-01-06,10.238037109375
2010-01-07,10.294392585754395
2010-01-08,10.407105445861816
2010-01-11,10.82038688659668
2010-01-12,10.38831901550293
2010-01-13,10.24743366241455
2010-01-14,10.144113540649414
2010-01-15,9.702655792236328
2010-01-19,9.918684959411621
2010-01-20,9.768404006958008
2010-01-21,9.796578407287598
2010-01-22,9.16727352142334
2010-01-25,9.308157920837402
2010-01-26,9.505406379699707
2010-01-27,9.636905670166016
2010-01-28,8.913668632507324
2010-01-29,8.772777557373047
2010-02-01,9.054557800292969
2010-02-02,9.204840660095215
2010-02-03,9.035772323608398
2010-02-04,8.519176483154297
2010-02-05,8.735206604003906
2010-02-08,8.688241958618164
2010-02-09,8.75399112701416
2010-02-10,8.791563987731934
2010-02-11,9.12969970703125
2010-02-12,9.214235305786133
2010-02-16,9.505406379699707
2010-02-17,9.392696380615234
2010-02-18,9.364519119262695
2010-02-19,9.458444595336914
2010-02-22,9.430266380310059
2010-02-23,9.054557800292969
2010-02-24,9.37391185760498
2010-02-25,9.420872688293457
2010-02-26,9.383304595947266
2010-03-01,9.759013175964355
2010-03-02,9.94686508178711
2010-03-03,9.881115913391113
2010-03-04,9.918684959411621
2010-03-05,10.050185203552246
2010-03-08,9.98443603515625
2010-03-09,10.153505325317383
2010-03-10,10.228645324707031
2010-03-11,10.012614250183105
2010-03-12,9.852935791015625
2010-03-15,9.571157455444336
2010-03-16,9.975044250488281
2010-03-17,10.25682544708252
2010-03-18,10.153505325317383
2010-03-19,10.012614250183105
2010-03-22,10.435282707214355
2010-03-23,10.78281307220459
2010-03-24,10.416499137878418
2010-03-25,10.510422706604004
2010-03-26,10.44467830657959
2010-03-29,10.44467830657959
2010-03-30,10.557389259338379
2010-03-31,10.4916410446167
2010-04-01,10.557389259338379
2010-04-05,10.773422241210938
2010-04-06,10.764029502868652
2010-04-07,10.914310455322266
2010-04-08,10.48224925994873
2010-04-09,10.407105445861816
2010-04-12,10.698280334472656
2010-04-13,10.735854148864746
2010-04-14,11.55301570892334
2010-04-15,11.44969654083252
2010-04-16,11.318196296691895
2010-04-19,11.205486297607422
2010-04-20,11.40273380279541
2010-04-21,11.44030475616455
2010-04-22,12.266862869262695
2010-04-23,12.13536262512207
2010-04-26,12.30443000793457
2010-04-27,11.834798812866211
2010-04-28,11.797225952148438
2010-04-29,11.928725242614746
2010-04-30,11.487268447875977
2010-05-03,12.191718101501465
2010-05-04,11.374554634094238
2010-05-05,11.15852165222168
2010-05-06,10.613747596740723
2010-05-07,10.341358184814453
2010-05-10,11.149127960205078
2010-05-11,10.951884269714355
2010-05-12,11.44969654083252
2010-05-13,11.017634391784668
2010-05-14,10.510422706604004
2010-05-17,10.632533073425293
2010-05-18,10.181680679321289
2010-05-19,10.238037109375
2010-05-20,9.899901390075684
2010-05-21,10.200467109680176
2010-05-24,10.059578895568848
2010-05-25,10.068967819213867
2010-05-26,10.068967819213867
2010-05-27,10.632533073425293
2010-05-28,10.313179016113281
2010-06-01,9.890509605407715
2010-06-02,10.238037109375
2010-06-03,10.538603782653809
2010-06-04,9.871724128723145
2010-06-07,9.430266380310059
2010-06-08,9.336338996887207
2010-06-09,9.279983520507812
2010-06-10,9.655691146850586
2010-06-11,9.899901390075684
2010-06-14,10.003219604492188
2010-06-15,11.055201530456543
2010-06-16,11.036417961120605
2010-06-17,11.045807838439941
2010-06-18,11.083382606506348
2010-06-21,10.895524978637695
2010-06-22,10.641922950744629
2010-06-23,10.59496021270752
2010-06-24,10.106539726257324
2010-06-25,9.993828773498535
2010-06-28,10.125326156616211
2010-06-29,9.345731735229492
2010-06-30,9.157880783081055
2010-07-01,8.970025062561035
2010-07-02,8.90427303314209
2010-07-06,8.913668632507324
2010-07-07,9.326946258544922
2010-07-08,9.37391185760498
2010-07-09,9.608725547790527
2010-07-12,9.636905670166016
2010-07-13,10.040789604187012
2010-07-14,9.74022388458252
2010-07-15,9.62751293182373
2010-07-16,9.326946258544922
2010-07-19,9.430266380310059
2010-07-20,9.561765670776367
2010-07-21,9.176661491394043
2010-07-22,9.524192810058594
2010-07-23,9.533585548400879
2010-07-26,9.993828773498535
2010-07-27,9.862327575683594
2010-07-28,9.589942932128906
2010-07-29,10.397710800170898
2010-07-30,10.106539726257324
2010-08-02,10.566780090332031
2010-08-03,10.378929138183594
2010-08-04,10.435282707214355
2010-08-05,10.472854614257812
2010-08-06,10.181680679321289
2010-08-09,10.228645324707031
2010-08-10,9.815364837646484
2010-08-11,9.279983520507812
2010-08-12,8.97941780090332
2010-08-13,9.026379585266113
2010-08-16,8.92306137084961
2010-08-17,9.11091423034668
2010-08-18,9.261195182800293
2010-08-19,9.092130661010742
2010-08-20,8.913668632507324
2010-08-23,8.894883155822754
2010-08-24,8.603707313537598
2010-08-25,8.75399112701416
2010-08-26,8.509784698486328
2010-08-27,8.75399112701416
2010-08-30,8.75399112701416
2010-08-31,8.434640884399414
2010-09-01,8.697636604309082
2010-09-02,9.195446014404297
2010-09-03,9.37391185760498
2010-09-07,9.054557800292969
2010-09-08,8.735206604003906
2010-09-09,8.716422080993652
2010-09-10,8.960630416870117
2010-09-13,9.439659118652344
2010-09-14,9.336338996887207
2010-09-15,9.514800071716309
2010-09-16,9.759013175964355
2010-09-17,9.674476623535156
2010-09-20,9.796578407287598
2010-09-21,9.805971145629883
2010-09-22,9.777795791625977
2010-09-23,9.787187576293945
2010-09-24,10.378929138183594
2010-09-27,10.472854614257812
2010-09-28,10.707672119140625
2010-09-29,10.613747596740723
2010-09-30,10.463462829589844
2010-10-01,10.425893783569336
2010-10-04,10.25682544708252
2010-10-05,10.604353904724121
2010-10-06,10.472854614257812
2010-10-07,10.4916410446167
2010-10-08,10.285000801086426
2010-10-11,10.529211044311523
2010-10-12,10.59496021270752
2010-10-13,10.6701021194458
2010-10-14,10.472854614257812
2010-10-15,10.707672119140625
2010-10-18,10.71706485748291
2010-10-19,10.48224925994873
2010-10-20,10.585567474365234
2010-10-21,10.59496021270752
2010-10-22,10.754636764526367
2010-10-25,10.980060577392578
2010-10-26,11.036417961120605
2010-10-27,11.167914390563965
2010-10-28,10.285000801086426
2010-10-29,10.557389259338379
2010-11-01,10.557389259338379
2010-11-02,10.57617473602295
2010-11-03,10.810995101928711
2010-11-04,10.96127700805664
2010-11-05,11.13973617553711
2010-11-08,11.374554634094238
2010-11-09,10.970667839050293
2010-11-10,10.895524978637695
2010-11-11,11.083382606506348
2010-11-12,10.876740455627441
2010-11-15,11.064593315124512
2010-11-16,10.613747596740723
2010-11-17,10.59496021270752
2010-11-18,10.951884269714355
2010-11-19,11.13973617553711
2010-11-22,11.769046783447266
2010-11-23,11.769046783447266
2010-11-24,12.013258934020996
2010-11-26,11.816011428833008
2010-11-29,11.233665466308594
2010-11-30,11.13973617553711
2010-12-01,11.5248384475708
2010-12-02,11.675122261047363
2010-12-03,11.956899642944336
2010-12-06,12.661354064941406
2010-12-07,12.651960372924805
2010-12-08,13.027666091918945
2010-12-09,12.867992401123047
2010-12-10,13.206130027770996
2010-12-13,12.905564308166504
2010-12-14,12.830419540405273
2010-12-15,12.76467227935791
2010-12-16,12.961921691894531
2010-12-17,13.027666091918945
2010-12-20,12.971311569213867
2010-12-21,13.347020149230957
2010-12-22,13.206130027770996
2010-12-23,13.516090393066406
2010-12-27,13.412766456604004
2010-12-28,13.29066276550293
2010-12-29,13.187346458435059
2010-12-30,13.337627410888672
2010-12-31,13.187346458435059
2011-01-03,12.877386093139648
2011-01-04,12.877386093139648
2011-01-05,12.661354064941406
2011-01-06,12.698921203613281
2011-01-07,12.867992401123047
2011-01-10,12.81163501739502
2011-01-11,12.830419540405273
2011-01-12,13.102810859680176
2011-01-13,13.168560028076172
2011-01-14,13.80726432800293
2011-01-18,13.619407653808594
2011-01-19,13.30945110321045
2011-01-20,13.01827335357666
2011-01-21,12.914956092834473
2011-01-24,13.431554794311523
2011-01-25,13.281271934509277
2011-01-26,13.741512298583984
2011-01-27,15.35705852508545
2011-01-28,15.244343757629395
2011-01-31,15.667015075683594
2011-02-01,15.967577934265137
2011-02-02,16.20240020751953
2011-02-03,16.305713653564453
2011-02-04,16.709609985351562
2011-02-07,16.83171272277832
2011-02-08,16.897457122802734
2011-02-09,16.869281768798828
2011-02-10,16.888063430786133
2011-02-11,16.925640106201172
2011-02-14,17.094701766967773
2011-02-15,16.784746170043945
2011-02-16,17.770980834960938
2011-02-17,17.770980834960938
2011-02-18,17.770980834960938
2011-02-22,16.981996536254883
2011-02-23,16.784746170043945
2011-02-24,17.057132720947266
2011-02-25,17.517377853393555
2011-02-28,17.498594284057617
2011-03-01,17.08531379699707
2011-03-02,17.489194869995117
2011-03-03,17.911874771118164
2011-03-04,17.82733726501465
2011-03-07,16.869281768798828
2011-03-08,17.151063919067383
2011-03-09,16.399642944335938
2011-03-10,15.93940544128418
2011-03-11,15.958191871643066
2011-03-14,16.0521183013916
2011-03-15,15.958191871643066
2011-03-16,15.469770431518555
2011-03-17,15.958191871643066
2011-03-18,15.911225318908691
2011-03-21,16.512361526489258
2011-03-22,16.25876235961914
2011-03-23,16.50296401977539
2011-03-24,16.981996536254883
2011-03-25,16.963207244873047
2011-03-28,16.80353355407715
2011-03-29,16.869281768798828
2011-03-30,16.869281768798828
2011-03-31,16.7283878326416
2011-04-01,16.756567001342773
2011-04-04,16.7189998626709
2011-04-05,17.28255844116211
2011-04-06,17.376483917236328
2011-04-07,17.357707977294922
2011-04-08,16.859888076782227
2011-04-11,16.596893310546875
2011-04-12,15.760944366455078
2011-04-13,15.986364364624023
2011-04-14,15.854870796203613
2011-04-15,16.080299377441406
2011-04-18,15.779726028442383
2011-04-19,15.770333290100098
2011-04-20,16.690820693969727
2011-04-21,16.7283878326416
2011-04-25,16.68143081665039
2011-04-26,17.113487243652344
2011-04-27,17.17923927307129
2011-04-28,15.05649185180664
2011-04-29,15.122239112854004
2011-05-02,14.859241485595703
2011-05-03,14.746530532836914
2011-05-04,14.934385299682617
2011-05-05,14.971957206726074
2011-05-06,15.112847328186035
2011-05-09,15.366455078125
2011-05-10,15.620052337646484
2011-05-11,15.197381019592285
2011-05-12,15.169204711914062
2011-05-13,15.197381019592285
2011-05-16,14.840458869934082
2011-05-17,14.549283981323242
2011-05-18,14.821672439575195
2011-05-19,15.075275421142578
2011-05-20,14.878031730651855
2011-05-23,14.615032196044922
2011-05-24,14.427179336547852
2011-05-25,14.568071365356445
2011-05-26,14.50232219696045
2011-05-27,14.680782318115234
2011-05-31,15.03770637512207
2011-06-01,14.577466011047363
2011-06-02,14.51171588897705
2011-06-03,14.023295402526855
2011-06-06,13.929367065429688
2011-06-07,13.901188850402832
2011-06-08,13.638195991516113
2011-06-09,13.70394229888916
2011-06-10,13.347020149230957
2011-06-13,13.093419075012207
2011-06-14,13.497303009033203
2011-06-15,13.206130027770996
2011-06-16,12.961921691894531
2011-06-17,12.943133354187012
2011-06-20,12.783456802368164
2011-06-21,13.29066276550293
2011-06-22,13.318840980529785
2011-06-23,13.487908363342285
2011-06-24,13.271879196166992
2011-06-27,13.450340270996094
2011-06-28,13.619407653808594
2011-06-29,13.638195991516113
2011-06-30,13.901188850402832
2011-07-01,14.258112907409668
2011-07-05,14.136007308959961
2011-07-06,13.910582542419434
2011-07-07,14.267504692077637
2011-07-08,14.004510879516602
2011-07-11,13.544267654418945
2011-07-12,12.905564308166504
2011-07-13,12.961921691894531
2011-07-14,12.783456802368164
2011-07-15,12.858597755432129
2011-07-18,12.661354064941406
2011-07-19,13.130987167358398
2011-07-20,12.990097045898438
2011-07-21,13.375198364257812
2011-07-22,13.797870635986328
2011-07-25,13.450340270996094
2011-07-26,13.516090393066406
2011-07-27,12.924348831176758
2011-07-28,12.783456802368164
2011-07-29,12.670747756958008
2011-08-01,12.670747756958008
2011-08-02,11.947509765625
2011-08-03,12.125967979431152
2011-08-04,11.336984634399414
2011-08-05,11.167914390563965
2011-08-08,10.529211044311523
2011-08-09,11.0927734375
2011-08-10,10.585567474365234
2011-08-11,11.102166175842285
2011-08-12,11.205486297607422
2011-08-15,11.712692260742188
2011-08-16,11.149127960205078
2011-08-17,11.186700820922852
2011-08-18,10.369535446166992
2011-08-19,10.238037109375
2011-08-22,10.24743366241455
2011-08-23,10.839170455932617
2011-08-24,10.773422241210938
2011-08-25,10.651318550109863
2011-08-26,11.120948791503906
2011-08-29,11.562410354614258
2011-08-30,11.5154447555542
2011-08-31,11.365160942077637
2011-09-01,11.149127960205078
2011-09-02,10.792207717895508
2011-09-06,10.48224925994873
2011-09-07,11.252450942993164
2011-09-08,10.98945140838623
2011-09-09,10.82038688659668
2011-09-12,11.102166175842285
2011-09-13,11.430908203125
2011-09-14,11.834798812866211
2011-09-15,11.853581428527832
2011-09-16,11.994476318359375
2011-09-19,11.731476783752441
2011-09-20,11.44969654083252
2011-09-21,11.036417961120605
2011-09-22,10.547996520996094
2011-09-23,10.71706485748291
2011-09-26,10.698280334472656
2011-09-27,11.036417961120605
2011-09-28,10.566780090332031
2011-09-29,10.4916410446167
2011-09-30,10.341358184814453
2011-10-03,9.909294128417969
2011-10-04,10.416499137878418
2011-10-05,10.933098793029785
2011-10-06,11.40273380279541
2011-10-07,11.318196296691895
2011-10-10,11.769046783447266
2011-10-11,11.665727615356445
2011-10-12,12.107185363769531
2011-10-13,12.13536262512207
2011-10-14,12.172931671142578
2011-10-17,11.778440475463867
2011-10-18,12.116575241088867
2011-10-19,12.032041549682617
2011-10-20,12.539246559143066
2011-10-21,12.736496925354004
2011-10-24,13.337627410888672
2011-10-25,12.745889663696289
2011-10-26,12.821032524108887
2011-10-27,13.694549560546875
2011-10-28,14.107829093933105
2011-10-31,13.450340270996094
2011-11-01,12.81163501739502
2011-11-02,13.17795181274414
2011-11-03,13.694549560546875
2011-11-04,13.694549560546875
2011-11-07,13.431554794311523
2011-11-08,13.5724458694458
2011-11-09,12.961921691894531
2011-11-10,12.990097045898438
2011-11-11,13.431554794311523
2011-11-14,13.300054550170898
2011-11-15,13.666373252868652
2011-11-16,13.422163009643555
2011-11-17,12.717707633972168
2011-11-18,12.370180130004883
2011-11-21,12.088399887084961
2011-11-22,11.55301570892334
2011-11-23,11.102166175842285
2011-11-25,10.970667839050293
2011-11-28,11.374554634094238
2011-11-29,11.346375465393066
2011-11-30,12.642569541931152
2011-12-01,12.55803394317627
2011-12-02,12.360786437988281
2011-12-05,12.670747756958008
2011-12-06,12.783456802368164
2011-12-07,12.802244186401367
2011-12-08,12.567429542541504
2011-12-09,13.262486457824707
2011-12-12,12.886777877807617
2011-12-13,12.454715728759766
2011-12-14,12.097787857055664
2011-12-15,12.088399887084961
2011-12-16,12.398357391357422
2011-12-19,12.032041549682617
2011-12-20,12.736496925354004
2011-12-21,12.604998588562012
2011-12-22,12.858597755432129
2011-12-23,12.914956092834473
2011-12-27,12.802244186401367
2011-12-28,12.435930252075195
2011-12-29,12.670747756958008
2011-12-30,12.802244186401367
2012-01-03,12.914956092834473
2012-01-04,13.318840980529785
2012-01-05,13.732121467590332
2012-01-06,13.741512298583984
2012-01-09,13.985722541809082
2012-01-10,14.126614570617676
2012-01-11,14.192361831665039
2012-01-12,14.154792785644531
2012-01-13,13.938759803771973
2012-01-17,14.248717308044434
2012-01-18,14.81228256225586
2012-01-19,15.141027450561523
2012-01-20,15.159810066223145
2012-01-23,15.122239112854004
2012-01-24,15.310093879699707
2012-01-25,15.150415420532227
2012-01-26,15.413414001464844
2012-01-27,15.920618057250977
2012-01-30,15.507341384887695
2012-01-31,15.35705852508545
2012-02-01,15.516736030578613
2012-02-02,15.760944366455078
2012-02-03,15.99576473236084
2012-02-06,15.667015075683594
2012-02-07,15.591876029968262
2012-02-08,15.760944366455078
2012-02-09,15.760944366455078
2012-02-10,15.497949600219727
2012-02-13,15.479166030883789
2012-02-14,15.779726028442383
2012-02-15,15.779726028442383
2012-02-16,16.24936294555664
2012-02-17,15.976974487304688
2012-02-21,15.535523414611816
2012-02-22,15.244343757629395
2012-02-23,15.573089599609375
2012-02-24,15.38523006439209
2012-02-27,15.526128768920898
2012-02-28,15.770333290100098
2012-02-29,15.422804832458496
2012-03-01,15.328876495361328
2012-03-02,15.131630897521973
2012-03-05,14.380216598510742
2012-03-06,14.220541000366211
2012-03-07,14.784102439880371
2012-03-08,14.934385299682617
2012-03-09,15.22555923461914
2012-03-12,15.131630897521973
2012-03-13,15.629446029663086
2012-03-14,15.479166030883789
2012-03-15,15.817299842834473
2012-03-16,16.014541625976562
2012-03-19,16.00515365600586
2012-03-20,15.807903289794922
2012-03-21,15.845480918884277
2012-03-22,15.723373413085938
2012-03-23,15.798514366149902
2012-03-26,16.136646270751953
2012-03-27,16.193008422851562
2012-03-28,15.742159843444824
2012-03-29,15.723373413085938
2012-03-30,15.864265441894531
2012-04-02,15.986364364624023
2012-04-03,15.64823055267334
2012-04-04,15.18798828125
2012-04-05,15.422804832458496
2012-04-09,15.103453636169434
2012-04-10,14.718356132507324
2012-04-11,15.131630897521973
2012-04-12,15.760944366455078
2012-04-13,15.300704956054688
2012-04-16,15.300704956054688
2012-04-17,15.807903289794922
2012-04-18,15.723373413085938
2012-04-19,15.563694953918457
2012-04-20,15.310093879699707
2012-04-23,15.159810066223145
2012-04-24,15.05649185180664
2012-04-25,15.807903289794922
2012-04-26,16.155439376831055
2012-04-27,16.333894729614258
2012-04-30,16.164831161499023
2012-05-01,16.164831161499023
2012-05-02,16.02393341064453
2012-05-03,15.54491138458252
2012-05-04,15.150415420532227
2012-05-07,15.05649185180664
2012-05-08,14.859241485595703
2012-05-09,14.718356132507324
2012-05-10,14.67138957977295
2012-05-11,14.755926132202148
2012-05-14,14.652606010437012
2012-05-15,14.483536720275879
2012-05-16,14.107829093933105
2012-05-17,13.70394229888916
2012-05-18,13.450340270996094
2012-05-21,13.750905990600586
2012-05-22,13.70394229888916
2012-05-23,14.07965087890625
2012-05-24,13.863619804382324
2012-05-25,13.891796112060547
2012-05-29,14.220541000366211
2012-05-30,13.863619804382324
2012-05-31,13.5724458694458
2012-06-01,12.783456802368164
2012-06-04,12.76467227935791
2012-06-05,13.037063598632812
2012-06-06,13.375198364257812
2012-06-07,13.206130027770996
2012-06-08,13.506696701049805
2012-06-11,13.037063598632812
2012-06-12,13.24370288848877
2012-06-13,13.168560028076172
2012-06-14,13.271879196166992
2012-06-15,13.58183765411377
2012-06-18,13.600622177124023
2012-06-19,13.854228019714355
2012-06-20,13.919975280761719
2012-06-21,13.24370288848877
2012-06-22,13.440947532653809
2012-06-25,12.849209785461426
2012-06-26,12.867992401123047
2012-06-27,13.01827335357666
2012-06-28,12.623784065246582
2012-06-29,13.206130027770996
2012-07-02,13.159167289733887
2012-07-03,13.478519439697266
2012-07-05,13.516090393066406
2012-07-06,12.839813232421875
2012-07-09,12.623784065246582
2012-07-10,12.360786437988281
2012-07-11,12.445320129394531
2012-07-12,12.257469177246094
2012-07-13,12.407750129699707
2012-07-16,12.30443000793457
2012-07-17,12.426533699035645
2012-07-18,12.802244186401367
2012-07-19,12.980705261230469
2012-07-20,12.81163501739502
2012-07-23,12.567429542541504
2012-07-24,12.426533699035645
2012-07-25,12.633176803588867
2012-07-26,13.948153495788574
2012-07-27,14.060864448547363
2012-07-30,13.741512298583984
2012-07-31,13.816654205322266
2012-08-01,13.610015869140625
2012-08-02,13.487908363342285
2012-08-03,13.901188850402832
2012-08-06,13.95754337310791
2012-08-07,14.417787551879883
2012-08-08,14.436573028564453
2012-08-09,14.549283981323242
2012-08-10,14.643209457397461
2012-08-13,14.577466011047363
2012-08-14,14.352038383483887
2012-08-15,14.492928504943848
2012-08-16,14.924995422363281
2012-08-17,14.971957206726074
2012-08-20,14.746530532836914
2012-08-21,14.831068992614746
2012-08-22,14.746530532836914
2012-08-23,14.605642318725586
2012-08-24,14.784102439880371
2012-08-27,14.652606010437012
2012-08-28,14.746530532836914
2012-08-29,14.67138957977295
2012-08-30,14.51171588897705
2012-08-31,14.67138957977295
2012-09-04,14.633820533752441
2012-09-05,14.492928504943848
2012-09-06,14.990744590759277
2012-09-07,15.29130744934082
2012-09-10,15.047101020812988
2012-09-11,14.924995422363281
2012-09-12,14.887423515319824
2012-09-13,15.216167449951172
2012-09-14,15.432197570800781
2012-09-17,14.718356132507324
2012-09-18,14.229933738708496
2012-09-19,14.070256233215332
2012-09-20,13.80726432800293
2012-09-21,13.713337898254395
2012-09-24,13.534875869750977
2012-09-25,13.450340270996094
2012-09-26,13.196739196777344
2012-09-27,13.553658485412598
2012-09-28,13.356412887573242
2012-10-01,13.281271934509277
2012-10-02,13.300054550170898
2012-10-03,13.121597290039062
2012-10-04,13.234306335449219
2012-10-05,13.215520858764648
2012-10-08,13.149773597717285
2012-10-09,12.95252799987793
2012-10-10,12.670747756958008
2012-10-11,12.849209785461426
2012-10-12,12.792850494384766
2012-10-15,12.896169662475586
2012-10-16,13.24370288848877
2012-10-17,13.300054550170898
2012-10-18,13.384588241577148
2012-10-19,13.262486457824707
2012-10-22,13.30945110321045
2012-10-23,12.961921691894531
2012-10-24,12.792850494384766
2012-10-25,13.835439682006836
2012-10-26,13.619407653808594
2012-10-31,13.732121467590332
2012-11-01,14.483536720275879
2012-11-02,14.380216598510742
2012-11-05,14.727744102478027
2012-11-06,14.962564468383789
2012-11-07,14.577466011047363
2012-11-08,14.455358505249023
2012-11-09,14.568071365356445
2012-11-12,14.727744102478027
2012-11-13,14.596245765686035
2012-11-14,14.305074691772461
2012-11-15,13.95754337310791
2012-11-16,14.11722183227539
2012-11-19,14.417787551879883
2012-11-20,14.361430168151855
2012-11-21,14.52110767364502
2012-11-23,14.962564468383789
2012-11-26,14.718356132507324
2012-11-27,14.615032196044922
2012-11-28,14.831068992614746
2012-11-29,14.802886962890625
2012-11-30,14.690176010131836
2012-12-03,14.62442684173584
2012-12-04,14.821672439575195
2012-12-05,14.77470874786377
2012-12-06,14.934385299682617
2012-12-07,14.878031730651855
2012-12-10,15.338273048400879
2012-12-11,15.591876029968262
2012-12-12,15.591876029968262
2012-12-13,15.338273048400879
2012-12-14,15.488554954528809
2012-12-17,15.469770431518555
2012-12-18,15.751551628112793
2012-12-19,15.676406860351562
2012-12-20,15.845480918884277
2012-12-21,15.732766151428223
2012-12-24,15.535523414611816
2012-12-26,15.535523414611816
2012-12-27,15.554303169250488
2012-12-28,15.422804832458496
2012-12-31,15.864265441894531
2013-01-02,16.427824020385742
2013-01-03,16.2117977142334
2013-01-04,16.24936294555664
2013-01-07,16.108470916748047
2013-01-08,15.920618057250977
2013-01-09,15.967577934265137
2013-01-10,15.930011749267578
2013-01-11,16.061508178710938
2013-01-14,15.817299842834473
2013-01-15,15.68580150604248
2013-01-16,15.760944366455078
2013-01-17,16.042726516723633
2013-01-18,16.089685440063477
2013-01-22,16.0521183013916
2013-01-23,15.99576473236084
2013-01-24,15.22555923461914
2013-01-25,15.554303169250488
2013-01-28,15.310093879699707
2013-01-29,15.29130744934082
2013-01-30,15.22555923461914
2013-01-31,15.178597450256348
2013-02-01,15.629446029663086
2013-02-04,15.263129234313965
2013-02-05,15.864265441894531
2013-02-06,15.967577934265137
2013-02-07,15.920618057250977
2013-02-08,16.136646270751953
2013-02-11,16.164831161499023
2013-02-12,16.24936294555664
2013-02-13,16.371469497680664
2013-02-14,16.578109741210938
2013-02-15,16.239967346191406
2013-02-19,16.362077713012695
2013-02-20,15.93940544128418
2013-02-21,15.667015075683594
2013-02-22,15.864265441894531
2013-02-25,15.347662925720215
2013-02-26,15.54491138458252
2013-02-27,15.7891206741333
2013-02-28,15.742159843444824
2013-03-01,15.610655784606934
2013-03-04,15.723373413085938
2013-03-05,16.14604377746582
2013-03-06,16.080299377441406
2013-03-07,16.108470916748047
2013-03-08,16.02393341064453
2013-03-11,15.873658180236816
2013-03-12,15.845480918884277
2013-03-13,15.901835441589355
2013-03-14,15.967577934265137
2013-03-15,15.807903289794922
2013-03-18,15.526128768920898
2013-03-19,15.404021263122559
2013-03-20,15.450984954833984
2013-03-21,14.971957206726074
2013-03-22,14.849851608276367
2013-03-25,14.934385299682617
2013-03-26,15.047101020812988
2013-03-27,14.896815299987793
2013-03-28,15.23495101928711
2013-04-01,14.878031730651855
2013-04-02,14.52110767364502
2013-04-03,14.323862075805664
2013-04-04,14.417787551879883
2013-04-05,14.380216598510742
2013-04-08,14.633820533752441
2013-04-09,14.633820533752441
2013-04-10,15.000131607055664
2013-04-11,14.924995422363281
2013-04-12,14.530499458312988
2013-04-15,14.032689094543457
2013-04-16,14.427179336547852
2013-04-17,13.553658485412598
2013-04-18,13.431554794311523
2013-04-19,13.5724458694458
2013-04-22,13.685155868530273
2013-04-23,13.948153495788574
2013-04-24,13.938759803771973
2013-04-25,15.084667205810547
2013-04-26,15.366455078125
2013-04-29,15.422804832458496
2013-04-30,15.441590309143066
2013-05-01,15.131630897521973
2013-05-02,15.169204711914062
2013-05-03,15.394628524780273
2013-05-06,15.535523414611816
2013-05-07,15.563694953918457
2013-05-08,15.573089599609375
2013-05-09,15.629446029663086
2013-05-10,15.93940544128418
2013-05-13,15.629446029663086
2013-05-14,15.751551628112793
2013-05-15,16.418428421020508
2013-05-16,16.239967346191406
2013-05-17,16.634458541870117
2013-05-20,16.615676879882812
2013-05-21,16.64385414123535
2013-05-22,16.230575561523438
2013-05-23,16.014541625976562
2013-05-24,16.136646270751953
2013-05-28,16.456005096435547
2013-05-29,16.352684020996094
2013-05-30,16.747173309326172
2013-05-31,16.850494384765625
2013-06-03,16.93503189086914
2013-06-04,16.7189998626709
2013-06-05,16.540536880493164
2013-06-06,16.371469497680664
2013-06-07,16.775352478027344
2013-06-10,16.784746170043945
2013-06-11,16.484180450439453
2013-06-12,16.155439376831055
2013-06-13,16.53114128112793
2013-06-14,16.28693199157715
2013-06-17,16.56871223449707
2013-06-18,16.73778533935547
2013-06-19,16.46539878845215
2013-06-20,15.976974487304688
2013-06-21,15.911225318908691
2013-06-24,15.554303169250488
2013-06-25,15.976974487304688
2013-06-26,16.193008422851562
2013-06-27,16.371469497680664
2013-06-28,16.50296401977539
2013-07-01,16.352684020996094
2013-07-02,16.127262115478516
2013-07-03,16.2117977142334
2013-07-05,16.493574142456055
2013-07-08,16.409042358398438
2013-07-09,16.418428421020508
2013-07-10,17.2449893951416
2013-07-11,17.432844161987305
2013-07-12,17.4140567779541
2013-07-15,16.963207244873047
2013-07-16,16.897457122802734
2013-07-17,16.90685272216797
2013-07-18,16.7189998626709
2013-07-19,16.765960693359375
2013-07-22,16.794139862060547
2013-07-23,16.634458541870117
2013-07-24,16.239967346191406
2013-07-25,15.629446029663086
2013-07-26,15.582483291625977
2013-07-29,15.404021263122559
2013-07-30,15.60126781463623
2013-07-31,15.488554954528809
2013-08-01,15.873658180236816
2013-08-02,15.60126781463623
2013-08-05,15.469770431518555
2013-08-06,15.35705852508545
2013-08-07,15.22555923461914
2013-08-08,15.178597450256348
2013-08-09,15.197381019592285
2013-08-12,15.488554954528809
2013-08-13,15.563694953918457
2013-08-14,15.479166030883789
2013-08-15,14.990744590759277
2013-08-16,15.009527206420898
2013-08-19,14.718356132507324
2013-08-20,14.77470874786377
2013-08-21,14.643209457397461
2013-08-22,14.859241485595703
2013-08-23,14.934385299682617
2013-08-26,14.802886962890625
2013-08-27,14.399002075195312
2013-08-28,14.361430168151855
2013-08-29,14.51171588897705
2013-08-30,14.417787551879883
2013-09-03,14.51171588897705
2013-09-04,14.906209945678711
2013-09-05,15.047101020812988
2013-09-06,14.94377613067627
2013-09-09,15.178597450256348
2013-09-10,15.375843048095703
2013-09-11,15.375843048095703
2013-09-12,15.18798828125
2013-09-13,15.141027450561523
2013-09-16,15.22555923461914
2013-09-17,15.244343757629395
2013-09-18,15.29130744934082
2013-09-19,15.35705852508545
2013-09-20,15.35705852508545
2013-09-23,15.29130744934082
2013-09-24,15.54491138458252
2013-09-25,15.516736030578613
2013-09-26,15.460373878479004
2013-09-27,15.69519329071045
2013-09-30,15.516736030578613
2013-10-01,15.526128768920898
2013-10-02,15.281917572021484
2013-10-03,14.94377613067627
2013-10-04,15.112847328186035
2013-10-07,15.084667205810547
2013-10-08,14.887423515319824
2013-10-09,15.03770637512207
2013-10-10,15.450984954833984
2013-10-11,15.723373413085938
2013-10-14,15.920618057250977
2013-10-15,15.573089599609375
2013-10-16,15.760944366455078
2013-10-17,15.83608341217041
2013-10-18,15.967577934265137
2013-10-21,15.93940544128418
2013-10-22,15.657618522644043
2013-10-23,15.347662925720215
2013-10-24,15.742159843444824
2013-10-25,16.268144607543945
2013-10-28,16.183612823486328
2013-10-29,16.700212478637695
2013-10-30,16.484180450439453
2013-10-31,16.427824020385742
2013-11-01,16.418428421020508
2013-11-04,16.352684020996094
2013-11-05,16.268144607543945
2013-11-06,16.239967346191406
2013-11-07,15.911225318908691
2013-11-08,16.2117977142334
2013-11-11,16.099077224731445
2013-11-12,16.136646270751953
2013-11-13,16.25876235961914
2013-11-14,16.00515365600586
2013-11-15,16.061508178710938
2013-11-18,15.958191871643066
2013-11-19,15.591876029968262
2013-11-20,15.535523414611816
2013-11-21,15.676406860351562
2013-11-22,15.817299842834473
2013-11-25,15.93940544128418
2013-11-26,16.014541625976562
2013-11-27,16.0521183013916
2013-11-29,15.99576473236084
2013-12-02,15.901835441589355
2013-12-03,15.88304328918457
2013-12-04,15.779726028442383
2013-12-05,15.770333290100098
2013-12-06,16.061508178710938
2013-12-09,16.080299377441406
2013-12-10,15.99576473236084
2013-12-11,15.817299842834473
2013-12-12,15.366455078125
2013-12-13,15.394628524780273
2013-12-16,15.450984954833984
2013-12-17,15.779726028442383
2013-12-18,15.676406860351562
2013-12-19,15.563694953918457
2013-12-20,15.713976860046387
2013-12-23,16.155439376831055
2013-12-24,16.31511688232422
2013-12-26,16.239967346191406
2013-12-27,16.343290328979492
2013-12-30,16.484180450439453
2013-12-31,16.549928665161133
2014-01-02,16.55931854248047
2014-01-03,16.493574142456055
2014-01-06,16.512361526489258
2014-01-07,16.653247833251953
2014-01-08,16.869281768798828
2014-01-09,16.888063430786133
2014-01-10,16.99138641357422
2014-01-13,17.094701766967773
2014-01-14,17.82733726501465
2014-01-15,18.550575256347656
2014-01-16,18.33454704284668
2014-01-17,18.30635643005371
2014-01-21,18.02458381652832
2014-01-22,18.390892028808594
2014-01-23,18.48482322692871
2014-01-24,17.996408462524414
2014-01-27,17.770980834960938
2014-01-28,18.02458381652832
2014-01-29,17.695838928222656
2014-01-30,17.930648803710938
2014-01-31,17.667661666870117
2014-02-03,17.188629150390625
2014-02-04,17.29195213317871
2014-02-05,17.583127975463867
2014-02-06,17.724016189575195
2014-02-07,17.911874771118164
2014-02-10,17.874300003051758
2014-02-11,18.156076431274414
2014-02-12,18.06215476989746
2014-02-13,18.0809383392334
2014-02-14,18.663288116455078
2014-02-18,18.616315841674805
2014-02-19,18.90749168395996
2014-02-20,19.217451095581055
2014-02-21,19.001422882080078
2014-02-24,18.963850021362305
2014-02-25,18.804174423217773
2014-02-26,18.86992835998535
2014-02-27,18.945064544677734
2014-02-28,19.048385620117188
2014-03-03,18.719640731811523
2014-03-04,18.841745376586914
2014-03-05,18.70085906982422
2014-03-06,18.644502639770508
2014-03-07,19.001422882080078
2014-03-10,18.45664405822754
2014-03-11,18.419078826904297
2014-03-12,18.494220733642578
2014-03-13,18.0809383392334
2014-03-14,18.109115600585938
2014-03-17,18.23122215270996
2014-03-18,18.63510513305664
2014-03-19,18.428470611572266
2014-03-20,18.982637405395508
2014-03-21,18.92628288269043
2014-03-24,18.72903823852539
2014-03-25,18.90749168395996
2014-03-26,18.513002395629883
2014-03-27,18.203044891357422
2014-03-28,18.33454704284668
2014-03-31,18.682065963745117
2014-04-01,18.851139068603516
2014-04-02,19.104747772216797
2014-04-03,19.132919311523438
2014-04-04,18.56935691833496
2014-04-07,18.25001335144043
2014-04-08,18.278181076049805
2014-04-09,18.54118537902832
2014-04-10,17.86490821838379
2014-04-11,17.7428035736084
2014-04-14,17.470413208007812
2014-04-15,17.611305236816406
2014-04-16,17.64887809753418
2014-04-17,17.883695602416992
2014-04-21,17.874300003051758
2014-04-22,18.203044891357422
2014-04-23,18.01519012451172
2014-04-24,17.13227653503418
2014-04-25,16.268144607543945
2014-04-28,16.24936294555664
2014-04-29,16.512361526489258
2014-04-30,16.596893310546875
2014-05-01,16.50296401977539
2014-05-02,16.68143081665039
2014-05-05,16.662641525268555
2014-05-06,16.56871223449707
2014-05-07,16.615833282470703
2014-05-08,16.60641860961914
2014-05-09,16.65353775024414
2014-05-12,16.983400344848633
2014-05-13,16.860881805419922
2014-05-14,16.757205963134766
2014-05-15,16.587566375732422
2014-05-16,16.785480499267578
2014-05-19,16.94570541381836
2014-05-20,16.74778938293457
2014-05-21,16.926849365234375
2014-05-22,16.973979949951172
2014-05-23,16.908008575439453
2014-05-27,16.94570541381836
2014-05-28,16.908008575439453
2014-05-29,16.908008575439453
2014-05-30,16.776060104370117
2014-06-02,16.926849365234375
2014-06-03,16.992828369140625
2014-06-04,17.35096549987793
2014-06-05,17.454639434814453
2014-06-06,17.803354263305664
2014-06-09,17.954151153564453
2014-06-10,18.142642974853516
2014-06-11,18.11437225341797
2014-06-12,18.01070213317871
2014-06-13,18.020130157470703
2014-06-16,18.01070213317871
2014-06-17,18.01070213317871
2014-06-18,18.03897476196289
2014-06-19,18.067249298095703
2014-06-20,18.302873611450195
2014-06-23,18.48194122314453
2014-06-24,18.227466583251953
2014-06-25,18.218042373657227
2014-06-26,18.170923233032227
2014-06-27,18.331148147583008
2014-06-30,18.472518920898438
2014-07-01,18.642166137695312
2014-07-02,18.755252838134766
2014-07-03,18.85893440246582
2014-07-07,18.86835479736328
2014-07-08,18.764680862426758
2014-07-09,18.830656051635742
2014-07-10,18.849506378173828
2014-07-11,18.764680862426758
2014-07-14,18.849506378173828
2014-07-15,18.698707580566406
2014-07-16,18.642166137695312
2014-07-17,18.3405704498291
2014-07-18,18.472518920898438
2014-07-21,18.566762924194336
2014-07-22,18.698707580566406
2014-07-23,18.152070999145508
2014-07-24,17.077653884887695
2014-07-25,17.237876892089844
2014-07-28,17.60544204711914
2014-07-29,17.586589813232422
2014-07-30,17.624290466308594
2014-07-31,17.17189598083496
2014-08-01,17.219024658203125
2014-08-04,17.473491668701172
2014-08-05,17.50176239013672
2014-08-06,17.680837631225586
2014-08-07,17.44521141052246
2014-08-08,17.633712768554688
2014-08-11,17.65256118774414
2014-08-12,17.69025993347168
2014-08-13,17.75623321533203
2014-08-14,17.869333267211914
2014-08-15,18.0295467376709
2014-08-18,18.265167236328125
2014-08-19,18.434816360473633
2014-08-20,18.80238151550293
2014-08-21,18.972026824951172
2014-08-22,18.9814510345459
2014-08-25,18.924901962280273
2014-08-26,19.075698852539062
2014-08-27,19.066274642944336
2014-08-28,19.132246017456055
2014-08-29,19.405559539794922
2014-09-02,19.386716842651367
2014-09-03,19.244932174682617
2014-09-04,19.027524948120117
2014-09-05,19.1031436920166
2014-09-08,18.933002471923828
2014-09-09,19.018075942993164
2014-09-10,18.914098739624023
2014-09-11,19.443429946899414
2014-09-12,19.150405883789062
2014-09-15,19.09369659423828
2014-09-16,19.528499603271484
2014-09-17,19.443429946899414
2014-09-18,19.585208892822266
2014-09-19,19.348905563354492
2014-09-22,19.055883407592773
2014-09-23,18.58326530456543
2014-09-24,18.79121971130371
2014-09-25,18.441484451293945
2014-09-26,18.479293823242188
2014-09-29,18.53600311279297
2014-09-30,18.32805633544922
2014-10-01,17.742013931274414
2014-10-02,17.713653564453125
2014-10-03,17.345012664794922
2014-10-06,17.420631408691406
2014-10-07,17.099254608154297
2014-10-08,17.638036727905273
2014-10-09,16.985828399658203
2014-10-10,15.624692916870117
2014-10-13,15.274954795837402
2014-10-14,15.52071475982666
2014-10-15,15.624692916870117
2014-10-16,15.851545333862305
2014-10-17,15.870454788208008
2014-10-20,16.361974716186523
2014-10-21,16.853490829467773
2014-10-22,16.42814064025879
2014-10-23,16.844039916992188
2014-10-24,17.118160247802734
2014-10-27,16.82513999938965
2014-10-28,16.948015213012695
2014-10-29,16.844039916992188
2014-10-30,16.81568145751953
2014-10-31,17.392274856567383
2014-11-03,17.477352142333984
2014-11-04,17.44898796081543
2014-11-05,18.053939819335938
2014-11-06,18.242982864379883
2014-11-07,17.99722671508789
2014-11-10,18.13900375366211
2014-11-11,18.00667381286621
2014-11-12,18.176816940307617
2014-11-13,17.836536407470703
2014-11-14,18.0350341796875
2014-11-17,17.760921478271484
2014-11-18,18.148456573486328
2014-11-19,18.0350341796875
2014-11-20,18.09174156188965
2014-11-21,18.37531280517578
2014-11-24,18.668338775634766
2014-11-25,18.43203353881836
2014-11-26,18.8857421875
2014-11-28,18.762861251831055
2014-12-01,18.611167907714844
2014-12-02,18.7439022064209
2014-12-03,19.161060333251953
2014-12-04,18.96196174621582
2014-12-05,19.13262176513672
2014-12-08,18.7439022064209
2014-12-09,18.990407943725586
2014-12-10,18.497398376464844
2014-12-11,18.544803619384766
2014-12-12,18.30777931213379
2014-12-15,18.099191665649414
2014-12-16,17.97593879699707
2014-12-17,18.592208862304688
2014-12-18,19.037811279296875
2014-12-19,18.800785064697266
2014-12-22,19.113658905029297
2014-12-23,19.123138427734375
2014-12-24,19.312761306762695
2014-12-26,19.227428436279297
2014-12-29,19.094694137573242
2014-12-30,18.914562225341797
2014-12-31,18.762861251831055
2015-01-02,18.677534103393555
2015-01-05,18.326736450195312
2015-01-06,17.767358779907227
2015-01-07,17.909574508666992
2015-01-08,18.468952178955078
2015-01-09,18.412067413330078
2015-01-12,17.530330657958984
2015-01-13,17.236425399780273
2015-01-14,17.302791595458984
2015-01-15,17.20798110961914
2015-01-16,17.615663528442383
2015-01-20,17.700990676879883
2015-01-21,17.95697593688965
2015-01-22,18.156078338623047
2015-01-23,18.023345947265625
2015-01-26,18.355178833007812
2015-01-27,17.900089263916016
2015-01-28,17.767358779907227
2015-01-29,17.653587341308594
2015-01-30,17.160581588745117
2015-02-02,17.056285858154297
2015-02-03,17.62514305114746
2015-02-04,17.710474014282227
2015-02-05,17.938018798828125
2015-02-06,17.95697593688965
2015-02-09,17.994903564453125
2015-02-10,18.487918853759766
2015-02-11,18.317256927490234
2015-02-12,18.383617401123047
2015-02-13,18.421545028686523
2015-02-17,18.29829216003418
2015-02-18,18.24140739440918
2015-02-19,18.487918853759766
2015-02-20,18.800785064697266
2015-02-23,18.592208862304688
2015-02-24,18.96196174621582
2015-02-25,18.66716766357422
2015-02-26,18.676681518554688
2015-02-27,18.372379302978516
2015-03-02,18.990489959716797
2015-03-03,18.695701599121094
2015-03-04,18.495996475219727
2015-03-05,18.353349685668945
2015-03-06,18.21071434020996
2015-03-09,18.19169044494629
2015-03-10,17.98248291015625
2015-03-11,18.106109619140625
2015-03-12,18.239240646362305
2015-03-13,18.505510330200195
2015-03-16,18.87637710571289
2015-03-17,18.695701599121094
2015-03-18,18.75275230407715
2015-03-19,18.70520782470703
2015-03-20,19.11411476135254
2015-03-23,19.02853012084961
2015-03-24,18.933433532714844
2015-03-25,17.88738250732422
2015-03-26,17.52602195739746
2015-03-27,17.83032989501953
2015-03-30,18.172672271728516
2015-03-31,17.925424575805664
2015-04-01,17.81131362915039
2015-04-02,17.934934616088867
2015-04-06,17.96346664428711
2015-04-07,17.896896362304688
2015-04-08,18.039541244506836
2015-04-09,18.248750686645508
2015-04-10,18.419918060302734
2015-04-13,18.22022247314453
2015-04-14,17.94445037841797
2015-04-15,17.925424575805664
2015-04-16,17.801803588867188
2015-04-17,17.345348358154297
2015-04-20,17.630632400512695
2015-04-21,17.55455207824707
2015-04-22,17.820823669433594
2015-04-23,17.81131362915039
2015-04-24,17.487985610961914
2015-04-27,17.231229782104492
2015-04-28,17.65915870666504
2015-04-29,17.62112045288086
2015-04-30,17.354854583740234
2015-05-01,19.304306030273438
2015-05-04,19.285287857055664
2015-05-05,18.84784698486328
2015-05-06,18.933433532714844
2015-05-07,19.066564559936523
2015-05-08,19.504005432128906
2015-05-11,19.66567039489746
2015-05-12,19.446949005126953
2015-05-13,19.418420791625977
2015-05-14,19.703704833984375
2015-05-15,19.61811637878418
2015-05-18,19.703704833984375
2015-05-19,19.69419288635254
2015-05-20,19.675174713134766
2015-05-21,19.7797794342041
2015-05-22,19.69419288635254
2015-05-26,19.551549911499023
2015-05-27,20.11261749267578
2015-05-28,20.150651931762695
2015-05-29,20.169721603393555
2015-06-01,20.22694206237793
2015-06-02,19.969457626342773
2015-06-03,20.083892822265625
2015-06-04,19.788265228271484
2015-06-05,20.17926597595215
2015-06-08,19.864559173583984
2015-06-09,19.883636474609375
2015-06-10,20.150651931762695
2015-06-11,20.22694206237793
2015-06-12,20.045751571655273
2015-06-15,19.864559173583984
2015-06-16,19.874094009399414
2015-06-17,19.94084930419922
2015-06-18,20.09343147277832
2015-06-19,19.79780387878418
2015-06-22,19.664287567138672
2015-06-23,19.54031753540039
2015-06-24,19.19700050354004
2015-06-25,19.139781951904297
2015-06-26,18.79646873474121
2015-06-29,18.348251342773438
2015-06-30,18.395936965942383
2015-07-01,18.453153610229492
2015-07-02,18.529447555541992
2015-07-06,18.48175811767578
2015-07-07,18.462688446044922
2015-07-08,18.15752601623535
2015-07-09,18.243350982666016
2015-07-10,18.44361686706543
2015-07-13,18.624807357788086
2015-07-14,18.624807357788086
2015-07-15,18.367321014404297
2015-07-16,18.395936965942383
2015-07-17,18.319643020629883
2015-07-20,18.05261993408203
2015-07-21,18.109834671020508
2015-07-22,17.737913131713867
2015-07-23,17.94771957397461
2015-07-24,17.509035110473633
2015-07-27,17.442285537719727
2015-07-28,17.699769973754883
2015-07-29,17.747451782226562
2015-07-30,18.300569534301758
2015-07-31,18.367321014404297
2015-08-03,17.94771957397461
2015-08-04,17.833282470703125
2015-08-05,18.07169532775879
2015-08-06,18.02400779724121
2015-08-07,18.05261993408203
2015-08-10,18.395936965942383
2015-08-11,18.043081283569336
2015-08-12,17.995399475097656
2015-08-13,17.709304809570312
2015-08-14,17.785598754882812
2015-08-17,17.880958557128906
2015-08-18,17.594865798950195
2015-08-19,17.40413475036621
2015-08-20,16.927309036254883
2015-08-21,16.46002197265625
2015-08-24,16.011804580688477
2015-08-25,16.002267837524414
2015-08-26,16.698436737060547
2015-08-27,17.156187057495117
2015-08-28,17.184797286987305
2015-08-31,17.203868865966797
2015-09-01,16.746118545532227
2015-09-02,17.042760848999023
2015-09-03,17.234148025512695
2015-09-04,16.860946655273438
2015-09-08,17.32984161376953
2015-09-09,17.00448226928711
2015-09-10,17.119321823120117
2015-09-11,17.119321823120117
2015-09-14,17.157594680786133
2015-09-15,18.15279197692871
2015-09-16,18.478139877319336
2015-09-17,18.04753303527832
2015-09-18,17.63605499267578
2015-09-21,17.253284454345703
2015-09-22,16.784395217895508
2015-09-23,16.583438873291016
2015-09-24,16.602575302124023
2015-09-25,16.57386589050293
2015-09-28,16.2293758392334
2015-09-29,16.392053604125977
2015-09-30,17.234148025512695
2015-10-01,17.03319549560547
2015-10-02,17.435096740722656
2015-10-05,17.894424438476562
2015-10-06,18.037961959838867
2015-10-07,18.200639724731445
2015-10-08,18.267623901367188
2015-10-09,17.875288009643555
2015-10-12,17.741315841674805
2015-10-13,17.38725471496582
2015-10-14,17.79873275756836
2015-10-15,17.70303726196289
2015-10-16,17.4255313873291
2015-10-19,17.454238891601562
2015-10-20,17.502084732055664
2015-10-21,17.79873275756836
2015-10-22,17.827436447143555
2015-10-23,18.229339599609375
2015-10-26,17.94226837158203
2015-10-27,17.741315841674805
2015-10-28,19.46377182006836
2015-10-29,18.54512596130371
2015-10-30,18.67909812927246
2015-11-02,19.052295684814453
2015-11-03,19.167123794555664
2015-11-04,19.13842010498047
2015-11-05,18.947032928466797
2015-11-06,19.128847122192383
2015-11-09,19.253250122070312
2015-11-10,19.243680953979492
2015-11-11,19.66472625732422
2015-11-12,19.147985458374023
2015-11-13,19.061864852905273
2015-11-16,19.39678955078125
2015-11-17,19.22454071044922
2015-11-18,19.616878509521484
2015-11-19,19.64558982849121
2015-11-20,19.693431854248047
2015-11-23,19.559465408325195
2015-11-24,19.540328979492188
2015-11-25,19.683868408203125
2015-11-27,19.731712341308594
2015-11-30,19.942848205566406
2015-12-01,20.1635799407959
2015-12-02,20.019622802734375
2015-12-03,19.558963775634766
2015-12-04,19.942848205566406
2015-12-07,19.770097732543945
2015-12-08,19.760499954223633
2015-12-09,19.50138282775879
2015-12-10,19.578153610229492
2015-12-11,19.405410766601562
2015-12-14,19.136688232421875
2015-12-15,19.44379425048828
2015-12-16,19.53017234802246
2015-12-17,19.789297103881836
2015-12-18,19.808481216430664
2015-12-21,20.144384384155273
2015-12-22,20.317136764526367
2015-12-23,20.614646911621094
2015-12-24,20.595447540283203
2015-12-28,20.46108627319336
2015-12-29,20.499481201171875
2015-12-30,20.384315490722656
2015-12-31,19.837276458740234
2016-01-04,19.520570755004883
2016-01-05,19.683725357055664
2016-01-06,19.232662200927734
2016-01-07,18.724010467529297
2016-01-08,18.340124130249023
2016-01-11,18.445693969726562
2016-01-12,18.647235870361328
2016-01-13,18.18657112121582
2016-01-14,18.62803840637207
2016-01-15,18.215362548828125
2016-01-19,18.416900634765625
2016-01-20,18.62803840637207
2016-01-21,18.570457458496094
2016-01-22,18.98313331604004
2016-01-25,18.656829833984375
2016-01-26,19.021520614624023
2016-01-27,19.136688232421875
2016-01-28,18.224958419799805
2016-01-29,18.647235870361328
2016-02-01,18.685623168945312
2016-02-02,18.04261016845703
2016-02-03,17.7930908203125
2016-02-04,17.937044143676758
2016-02-05,17.61074447631836
2016-02-08,17.226858139038086
2016-02-09,17.054109573364258
2016-02-10,17.207664489746094
2016-02-11,16.842971801757812
2016-02-12,17.006118774414062
2016-02-16,17.495582580566406
2016-02-17,17.965835571289062
2016-02-18,18.033018112182617
2016-02-19,18.0714054107666
2016-02-22,18.119388580322266
2016-02-23,17.898656845092773
2016-02-24,18.25489616394043
2016-02-25,18.524484634399414
2016-02-26,18.408950805664062
2016-02-29,18.37042999267578
2016-03-01,18.832584381103516
2016-03-02,18.871095657348633
2016-03-03,19.015518188476562
2016-03-04,18.938493728637695
2016-03-07,19.22733497619629
2016-03-08,18.832584381103516
2016-03-09,18.909603118896484
2016-03-10,19.111799240112305
2016-03-11,19.410268783569336
2016-03-14,19.304363250732422
2016-03-15,19.506549835205078
2016-03-16,19.843534469604492
2016-03-17,20.026470184326172
2016-03-18,20.45973777770996
2016-03-21,20.51750373840332
2016-03-22,20.421218872070312
2016-03-23,20.276798248291016
2016-03-24,20.305683135986328
2016-03-28,20.267168045043945
2016-03-29,20.66191864013672
2016-03-30,20.75819969177246
2016-03-31,20.787090301513672
2016-04-01,20.941137313842773
2016-04-04,20.854488372802734
2016-04-05,20.38271141052246
2016-04-06,20.401966094970703
2016-04-07,19.862796783447266
2016-04-08,20.084238052368164
2016-04-11,20.016841888427734
2016-04-12,19.88204574584961
2016-04-13,20.209402084350586
2016-04-14,20.036094665527344
2016-04-15,19.939809799194336
2016-04-18,19.959068298339844
2016-04-19,19.920564651489258
2016-04-20,19.88204574584961
2016-04-21,19.7857666015625
2016-04-22,19.920564651489258
2016-04-25,19.67985725402832
2016-04-26,19.949445724487305
2016-04-27,20.209402084350586
2016-04-28,18.4955997467041
2016-04-29,18.20675277709961
2016-05-02,18.29340934753418
2016-05-03,18.177873611450195
2016-05-04,18.062332153320312
2016-05-05,18.10084342956543
2016-05-06,18.02382469177246
2016-05-09,18.120101928710938
2016-05-10,18.245269775390625
2016-05-11,18.129730224609375
2016-05-12,17.81200408935547
2016-05-13,17.773488998413086
2016-05-16,17.898656845092773
2016-05-17,17.667585372924805
2016-05-18,17.81200408935547
2016-05-19,17.754234313964844
2016-05-20,18.148988723754883
2016-05-23,18.148988723754883
2016-05-24,18.659273147583008
2016-05-25,18.707422256469727
2016-05-26,18.784440994262695
2016-05-27,19.064523696899414
2016-05-31,19.132122039794922
2016-06-01,19.112808227539062
2016-06-02,19.064523696899414
2016-06-03,19.03554916381836
2016-06-06,19.04520606994629
2016-06-07,19.24802017211914
2016-06-08,19.431514739990234
2016-06-09,19.537748336791992
2016-06-10,19.21904754638672
2016-06-13,19.025890350341797
2016-06-14,18.90033721923828
2016-06-15,18.803754806518555
2016-06-16,18.50436782836914
2016-06-17,18.42710304260254
2016-06-20,18.842388153076172
2016-06-21,19.05486297607422
2016-06-22,19.15144157409668
2016-06-23,19.586044311523438
2016-06-24,18.349842071533203
2016-06-27,17.548246383666992
2016-06-28,18.175996780395508
2016-06-29,18.562313079833984
2016-06-30,19.0162296295166
2016-07-01,18.784440994262695
2016-07-05,18.514020919799805
2016-07-06,18.639577865600586
2016-07-07,18.75546646118164
2016-07-08,19.21904754638672
2016-07-11,19.82748794555664
2016-07-12,20.165508270263672
2016-07-13,20.445589065551758
2016-07-14,20.136533737182617
2016-07-15,20.068933486938477
2016-07-18,20.165508270263672
2016-07-19,20.097904205322266
2016-07-20,20.600109100341797
2016-07-21,20.04962158203125
2016-07-22,20.165508270263672
2016-07-25,20.146196365356445
2016-07-26,20.40695571899414
2016-07-27,20.426271438598633
2016-07-28,19.750225067138672
2016-07-29,19.07417869567871
2016-08-01,19.07417869567871
2016-08-02,18.813411712646484
2016-08-03,18.842388153076172
2016-08-04,18.996917724609375
2016-08-05,19.441171646118164
2016-08-08,19.383228302001953
2016-08-09,19.199726104736328
2016-08-10,19.20938491821289
2016-08-11,19.32528305053711
2016-08-12,19.392887115478516
2016-08-15,19.895092010498047
2016-08-16,19.547407150268555
2016-08-17,19.721254348754883
2016-08-18,19.895092010498047
2016-08-19,20.12687873840332
2016-08-22,20.136533737182617
2016-08-23,20.320037841796875
2016-08-24,20.12687873840332
2016-08-25,20.21380043029785
2016-08-26,20.33935546875
2016-08-29,20.38763999938965
2016-08-30,20.561477661132812
2016-08-31,20.33935546875
2016-09-01,20.48421859741211
2016-09-02,20.610126495361328
2016-09-06,20.45516586303711
2016-09-07,20.590757369995117
2016-09-08,20.610126495361328
2016-09-09,19.6416072845459
2016-09-12,19.874048233032227
2016-09-13,19.728769302368164
2016-09-14,19.690031051635742
2016-09-15,20.222715377807617
2016-09-16,20.20334815979004
2016-09-19,20.426105499267578
2016-09-20,20.280832290649414
2016-09-21,20.63918113708496
2016-09-22,20.88130760192871
2016-09-23,20.61981201171875
2016-09-26,20.397050857543945
2016-09-27,20.513275146484375
2016-09-28,20.736026763916016
2016-09-29,20.571386337280273
2016-09-30,20.90068244934082
2016-10-03,20.794143676757812
2016-10-04,20.610126495361328
2016-10-05,20.939428329467773
2016-10-06,21.152494430541992
2016-10-07,21.133127212524414
2016-10-10,20.90068244934082
2016-10-11,20.493900299072266
2016-10-12,20.542327880859375
2016-10-13,20.290515899658203
2016-10-14,20.532642364501953
2016-10-17,20.493900299072266
2016-10-18,20.590757369995117
2016-10-19,20.755407333374023
2016-10-20,20.61981201171875
2016-10-21,20.736026763916016
2016-10-24,21.288087844848633
2016-10-25,21.23966407775879
2016-10-26,21.326828002929688
2016-10-27,22.10165023803711
2016-10-28,22.353464126586914
2016-10-31,22.55685043334961
2016-11-01,22.498737335205078
2016-11-02,22.24692153930664
2016-11-03,22.24692153930664
2016-11-04,22.111330032348633
2016-11-07,22.60527801513672
2016-11-08,22.70213508605957
2016-11-09,22.80866813659668
2016-11-10,22.66339111328125
2016-11-11,23.07016944885254
2016-11-14,23.2735538482666
2016-11-15,23.515687942504883
2016-11-16,23.699705123901367
2016-11-17,23.90309715270996
2016-11-18,23.951522827148438
2016-11-21,23.951522827148438
2016-11-22,23.932151794433594
2016-11-23,24.116168975830078
2016-11-25,24.36798858642578
2016-11-28,24.222360610961914
2016-11-29,23.87286376953125
2016-11-30,23.668983459472656
2016-12-01,22.746688842773438
2016-12-02,23.241819381713867
2016-12-05,23.56218910217285
2016-12-06,24.241775512695312
2016-12-07,24.775739669799805
2016-12-08,25.484445571899414
2016-12-09,25.086402893066406
2016-12-12,24.833986282348633
2016-12-13,24.921363830566406
2016-12-14,24.76603126525879
2016-12-15,25.144651412963867
2016-12-16,24.795154571533203
2016-12-19,25.028154373168945
2016-12-20,25.066987991333008
2016-12-21,24.921363830566406
2016-12-22,24.843700408935547
2016-12-23,24.96990394592285
2016-12-27,25.16407012939453
2016-12-28,24.882532119750977
2016-12-29,24.82427978515625
2016-12-30,24.659236907958984
2017-01-03,24.639816284179688
2017-01-04,24.785449981689453
2017-01-05,24.89223861694336
2017-01-06,24.90194320678711
2017-01-09,24.96990394592285
2017-01-10,25.54269790649414
2017-01-11,25.455320358276367
2017-01-12,25.465028762817383
2017-01-13,25.765989303588867
2017-01-17,25.10582160949707
2017-01-18,25.416488647460938
2017-01-19,25.329113006591797
2017-01-20,25.523284912109375
2017-01-23,25.261152267456055
2017-01-24,25.75628662109375
2017-01-25,26.406740188598633
2017-01-26,26.76595115661621
2017-01-27,27.727075576782227
2017-01-30,27.9600772857666
2017-01-31,27.55233383178711
2017-02-01,27.775623321533203
2017-02-02,27.86299705505371
2017-02-03,27.95037269592285
2017-02-06,27.775623321533203
2017-02-07,28.03774642944336
2017-02-08,28.01833152770996
2017-02-09,27.901830673217773
2017-02-10,28.05716896057129
2017-02-13,28.05716896057129
2017-02-14,28.105709075927734
2017-02-15,28.105709075927734
2017-02-16,28.086286544799805
2017-02-17,28.319292068481445
2017-02-21,28.600830078125
2017-02-22,28.552173614501953
2017-02-23,28.2894229888916
2017-02-24,28.162914276123047
2017-02-27,28.085063934326172
2017-02-28,27.676340103149414
2017-03-01,28.2894229888916
2017-03-02,27.978015899658203
2017-03-03,28.1142578125
2017-03-06,28.308883666992188
2017-03-07,28.26022720336914
2017-03-08,28.38673973083496
2017-03-09,28.46459197998047
2017-03-10,28.941434860229492
2017-03-13,29.29176902770996
2017-03-14,29.252838134765625
2017-03-15,29.88538360595703
2017-03-16,30.00216293334961
2017-03-17,30.00216293334961
2017-03-20,30.109210968017578
2017-03-21,29.282033920288086
2017-03-22,29.651830673217773
2017-03-23,29.72968101501465
2017-03-24,29.846466064453125
2017-03-27,30.021629333496094
2017-03-28,30.03135871887207
2017-03-29,29.836727142333984
2017-03-30,30.089746475219727
2017-03-31,30.264915466308594
2017-04-03,30.050819396972656
2017-04-04,30.3427677154541
2017-04-05,30.87799835205078
2017-04-06,30.975317001342773
2017-04-07,31.160215377807617
2017-04-10,30.90719223022461
2017-04-11,30.946117401123047
2017-04-12,30.508201599121094
2017-04-13,30.157867431640625
2017-04-17,30.517932891845703
2017-04-18,30.430349349975586
2017-04-19,31.02397346496582
2017-04-20,31.49108123779297
2017-04-21,31.568923950195312
2017-04-24,32.09442901611328
2017-04-25,32.65886306762695
2017-04-26,32.863224029541016
2017-04-27,35.37394332885742
2017-04-28,34.32294464111328
2017-05-01,34.81924057006836
2017-05-02,34.88737106323242
2017-05-03,34.46891784667969
2017-05-04,34.6246223449707
2017-05-05,34.64408874511719
2017-05-08,34.420257568359375
2017-05-09,34.53704071044922
2017-05-10,34.64408874511719
2017-05-11,34.683013916015625
2017-05-12,34.28401565551758
2017-05-15,34.79005813598633
2017-05-16,34.81924057006836
2017-05-17,32.9507942199707
2017-05-18,33.72932052612305
2017-05-19,33.914222717285156
2017-05-22,33.972618103027344
2017-05-23,33.972618103027344
2017-05-24,34.206172943115234
2017-05-25,34.391075134277344
2017-05-26,34.63434982299805
2017-05-30,34.79035949707031
2017-05-31,34.663597106933594
2017-06-01,34.52709197998047
2017-06-02,34.39059066772461
2017-06-05,34.2735710144043
2017-06-06,34.02006149291992
2017-06-07,34.429588317871094
2017-06-08,34.88786315917969
2017-06-09,33.19124221801758
2017-06-12,32.55746078491211
2017-06-13,32.4599494934082
2017-06-14,31.77741050720215
2017-06-15,31.17286491394043
2017-06-16,31.72865104675293
2017-06-19,31.933412551879883
2017-06-20,31.601892471313477
2017-06-21,31.699398040771484
2017-06-22,31.182619094848633
2017-06-23,31.63114356994629
2017-06-26,31.153366088867188
2017-06-27,30.236804962158203
2017-06-28,30.41231346130371
2017-06-29,29.544504165649414
2017-06-30,29.28123664855957
2017-07-03,28.949716567993164
2017-07-05,30.110042572021484
2017-07-06,30.03203773498535
2017-07-07,30.617074966430664
2017-07-10,31.572641372680664
2017-07-11,31.845659255981445
2017-07-12,32.2161865234375
2017-07-13,32.33319854736328
2017-07-14,33.14249801635742
2017-07-17,33.2400016784668
2017-07-18,33.63978576660156
2017-07-19,33.942054748535156
2017-07-20,34.4490852355957
2017-07-21,34.25407791137695
2017-07-24,34.77086639404297
2017-07-25,35.19989776611328
2017-07-26,35.88243103027344
2017-07-27,33.52277374267578
2017-07-28,33.62028121948242
2017-07-31,33.7275390625
2017-08-01,33.63978576660156
2017-08-02,32.48920440673828
2017-08-03,32.479461669921875
2017-08-04,32.62571334838867
2017-08-07,33.04499435424805
2017-08-08,32.869483947753906
2017-08-09,32.73297119140625
2017-08-10,31.806652069091797
2017-08-11,32.64521789550781
2017-08-14,33.50326919555664
2017-08-15,33.73728561401367
2017-08-16,33.786048889160156
2017-08-17,32.898738861083984
2017-08-18,33.02548599243164
2017-08-21,33.08399200439453
2017-08-22,33.97130584716797
2017-08-23,33.91279602050781
2017-08-24,33.64952850341797
2017-08-25,33.66903305053711
2017-08-28,33.99081039428711
2017-08-29,34.14681625366211
2017-08-30,34.97562026977539
2017-08-31,34.722110748291016
2017-09-01,34.897621154785156
2017-09-05,34.56609344482422
2017-09-06,34.80057144165039
2017-09-07,34.82988357543945
2017-09-08,34.27299499511719
2017-09-11,34.91781234741211
2017-09-12,35.269527435302734
2017-09-13,35.20113754272461
2017-09-14,35.015506744384766
2017-09-15,36.021820068359375
2017-09-18,34.80057144165039
2017-09-19,35.35745620727539
2017-09-20,34.96666717529297
2017-09-21,34.868961334228516
2017-09-22,35.61147689819336
2017-09-25,35.03505325317383
2017-09-26,34.80057144165039
2017-09-27,35.94365692138672
2017-09-28,36.20744705200195
2017-09-29,36.432159423828125
2017-10-02,36.98904800415039
2017-10-03,36.842498779296875
2017-10-04,37.02812194824219
2017-10-05,36.852264404296875
2017-10-06,37.02812194824219
2017-10-09,37.07697296142578
2017-10-10,37.4482307434082
2017-10-11,37.72178268432617
2017-10-12,37.76087188720703
2017-10-13,37.72178268432617
2017-10-16,37.7413330078125
2017-10-17,38.17121505737305
2017-10-18,38.376373291015625
2017-10-19,38.16143798828125
2017-10-20,38.21028518676758
2017-10-23,38.044189453125
2017-10-24,38.2982177734375
2017-10-25,38.22005844116211
2017-10-26,41.063114166259766
2017-10-27,41.756778717041016
2017-10-30,41.70793151855469
2017-10-31,41.90333938598633
2017-11-01,41.56138229370117
2017-11-02,41.57114791870117
2017-11-03,41.89356231689453
2017-11-06,42.45045471191406
2017-11-07,42.528602600097656
2017-11-08,42.88032150268555
2017-11-09,42.636077880859375
2017-11-10,42.6946907043457
2017-11-13,42.841243743896484
2017-11-14,42.352745056152344
2017-11-15,41.756778717041016
2017-11-16,42.82171630859375
2017-11-17,42.56768035888672
2017-11-20,43.407901763916016
2017-11-21,43.00733184814453
2017-11-22,42.28434753417969
2017-11-24,42.636077880859375
2017-11-27,41.99126052856445
2017-11-28,42.06954574584961
2017-11-29,39.946006774902344
2017-11-30,39.60350036621094
2017-12-01,39.25120544433594
2017-12-04,38.399845123291016
2017-12-05,38.82062911987305
2017-12-06,39.10441589355469
2017-12-07,39.43714904785156
2017-12-08,39.642642974853516
2017-12-11,39.59371566772461
2017-12-12,40.07322692871094
2017-12-13,39.9557991027832
2017-12-14,40.14171600341797
2017-12-15,40.98331069946289
2017-12-18,41.46282196044922
2017-12-19,41.55088806152344
2017-12-20,42.07933044433594
2017-12-21,42.059757232666016
2017-12-22,41.87383270263672
2017-12-26,41.21817398071289
2017-12-27,41.394317626953125
2017-12-28,41.6683235168457
2017-12-29,40.9735221862793
2018-01-02,43.23406219482422
2018-01-03,43.41999816894531
2018-01-04,43.62550354003906
2018-01-05,44.633445739746094
2018-01-08,45.20103073120117
2018-01-09,44.4377326965332
2018-01-10,43.34172058105469
2018-01-11,43.576568603515625
2018-01-12,43.645076751708984
2018-01-16,44.33987808227539
2018-01-17,45.75882339477539
2018-01-18,46.179622650146484
2018-01-19,46.40468978881836
2018-01-22,46.74720764160156
2018-01-23,47.38328170776367
2018-01-24,45.78818893432617
2018-01-25,43.840789794921875
2018-01-26,46.6786994934082
2018-01-29,45.856685638427734
2018-01-30,45.338035583496094
2018-01-31,44.858524322509766
2018-02-01,44.87809753417969
2018-02-02,43.46892166137695
2018-02-05,42.04998016357422
2018-02-06,42.22612380981445
2018-02-07,41.08116912841797
2018-02-08,38.82062911987305
2018-02-09,40.386375427246094
2018-02-12,41.13010025024414
2018-02-13,39.613285064697266
2018-02-14,41.79553985595703
2018-02-15,42.52948760986328
2018-02-16,42.382694244384766
2018-02-20,43.93864822387695
2018-02-21,43.106849670410156
2018-02-22,43.136268615722656
2018-02-23,43.557918548583984
2018-02-26,44.63656997680664
2018-02-27,43.891319274902344
2018-02-28,44.51890182495117
2018-03-01,44.02860641479492
2018-03-02,44.76405334472656
2018-03-05,45.22492599487305
2018-03-06,46.47028350830078
2018-03-07,46.989990234375
2018-03-08,47.529327392578125
2018-03-09,48.441280364990234
2018-03-12,48.95118713378906
2018-03-13,48.04903793334961
2018-03-14,48.392242431640625
2018-03-15,48.186317443847656
2018-03-16,48.27457046508789
2018-03-19,47.754859924316406
2018-03-20,48.03922653198242
2018-03-21,48.539329528808594
2018-03-22,46.79388427734375
2018-03-23,44.76405334472656
2018-03-26,46.774261474609375
2018-03-27,44.87191390991211
2018-03-28,43.959964752197266
2018-03-29,44.8228874206543
2018-04-02,42.94015121459961
2018-04-03,43.43044662475586
2018-04-04,43.71481704711914
2018-04-05,43.01859664916992
2018-04-06,41.8516845703125
2018-04-09,41.57712936401367
2018-04-10,42.5969352722168
2018-04-11,42.36160659790039
2018-04-12,42.8617057800293
2018-04-13,42.6263542175293
2018-04-16,43.43044662475586
2018-04-17,43.852108001708984
2018-04-18,42.51849365234375
2018-04-19,40.645572662353516
2018-04-20,40.10623550415039
2018-04-23,39.66497039794922
2018-04-24,40.69459533691406
2018-04-25,34.02656555175781
2018-04-26,33.3891716003418
2018-04-27,32.55567169189453
2018-04-30,31.918285369873047
2018-05-01,32.859657287597656
2018-05-02,33.66374969482422
2018-05-03,34.20307540893555
2018-05-04,35.00715637207031
2018-05-07,35.43861389160156
2018-05-08,35.38958740234375
2018-05-09,35.95832443237305
2018-05-10,35.96813201904297
2018-05-11,35.62492752075195
2018-05-14,35.928916931152344
2018-05-15,35.17385482788086
2018-05-16,36.83106231689453
2018-05-17,36.987945556640625
2018-05-18,36.664363861083984
2018-05-21,37.43901824951172
2018-05-22,37.5763053894043
2018-05-23,37.72340393066406
2018-05-24,37.772430419921875
2018-05-25,37.97834777832031
2018-05-29,37.80185317993164
2018-05-30,37.90995788574219
2018-05-31,37.26125717163086
2018-06-01,38.63730239868164
2018-06-04,38.64712905883789
2018-06-05,38.784732818603516
2018-06-06,38.94198989868164
2018-06-07,38.14585494995117
2018-06-08,38.02790832519531
2018-06-11,38.35226058959961
2018-06-12,38.42106628417969
2018-06-13,38.2638053894043
2018-06-14,38.38174819946289
2018-06-15,38.666786193847656
2018-06-18,38.38174819946289
2018-06-19,38.32278060913086
2018-06-20,38.529178619384766
2018-06-21,38.43089294433594
2018-06-22,38.13603210449219
2018-06-25,37.02536392211914
2018-06-26,37.398860931396484
2018-06-27,36.642032623291016
2018-06-28,37.02536392211914
2018-06-29,37.41851806640625
2018-07-02,37.65441131591797
2018-07-03,37.172794342041016
2018-07-05,38.529178619384766
2018-07-06,38.84370803833008
2018-07-09,39.492408752441406
2018-07-10,39.42361068725586
2018-07-11,38.20482635498047
2018-07-12,39.06977081298828
2018-07-13,38.90268325805664
2018-07-16,39.148399353027344
2018-07-17,39.63001251220703
2018-07-18,40.671875
2018-07-19,39.34498596191406
2018-07-20,39.53173065185547
2018-07-23,40.03300476074219
2018-07-24,39.688995361328125
2018-07-25,42.224830627441406
2018-07-26,43.266693115234375
2018-07-27,43.49276351928711
2018-07-30,42.48039245605469
2018-07-31,42.50987243652344
2018-08-01,42.5491943359375
2018-08-02,42.82440185546875
2018-08-03,43.001319885253906
2018-08-06,43.227386474609375
2018-08-07,43.256866455078125
2018-08-08,43.178245544433594
2018-08-09,41.97911834716797
2018-08-10,40.9962272644043
2018-08-13,40.90776824951172
2018-08-14,41.1633186340332
2018-08-15,39.679161071777344
2018-08-16,39.53173065185547
2018-08-17,38.58815002441406
2018-08-20,38.48004150390625
2018-08-21,39.19754409790039
2018-08-22,39.24668502807617
2018-08-23,39.58087158203125
2018-08-24,40.03300476074219
2018-08-27,40.96673583984375
2018-08-28,40.98640441894531
2018-08-29,40.809486389160156
2018-08-30,40.41632080078125
2018-08-31,40.485130310058594
2018-09-04,40.58363342285156
2018-09-05,40.29796600341797
2018-09-06,38.99771499633789
2018-09-07,39.1060676574707
2018-09-10,38.85980987548828
2018-09-11,37.98311996459961
2018-09-12,36.121395111083984
2018-09-13,36.85032653808594
2018-09-14,36.9783821105957
2018-09-17,36.66316604614258
2018-09-18,36.919281005859375
2018-09-19,36.574527740478516
2018-09-20,37.2049446105957
2018-09-21,37.63835906982422
2018-09-24,37.87477111816406
2018-09-25,36.9094352722168
2018-09-26,36.485862731933594
2018-09-27,36.58436584472656
2018-09-28,36.42676544189453
2018-10-01,36.347965240478516
2018-10-02,36.37751770019531
2018-10-03,36.05244445800781
2018-10-04,35.40231704711914
2018-10-05,34.41728210449219
2018-10-08,34.003570556640625
2018-10-09,33.49134826660156
2018-10-10,31.964534759521484
2018-10-11,32.16154861450195
2018-10-12,32.7525749206543
2018-10-15,32.7525749206543
2018-10-16,34.0725212097168
2018-10-17,33.629249572753906
2018-10-18,32.29944610595703
2018-10-19,32.27974319458008
2018-10-22,31.80693244934082
2018-10-23,31.718276977539062
2018-10-24,29.777748107910156
2018-10-25,32.29944610595703
2018-10-26,31.866029739379883
2018-10-29,31.944835662841797
2018-10-30,33.48149490356445
2018-10-31,33.93461990356445
2018-11-01,35.648582458496094
2018-11-02,35.56977462768555
2018-11-05,35.25457000732422
2018-11-06,35.648582458496094
2018-11-07,36.01305389404297
2018-11-08,36.20020294189453
2018-11-09,35.057559967041016
2018-11-12,33.5307502746582
2018-11-13,33.511043548583984
2018-11-14,34.3680305480957
2018-11-15,35.95394515991211
2018-11-16,35.86528015136719
2018-11-19,34.762046813964844
2018-11-20,34.752201080322266
2018-11-21,35.274261474609375
2018-11-23,35.32352066040039
2018-11-26,36.07215118408203
2018-11-27,35.815406799316406
2018-11-28,35.94377899169922
2018-11-29,34.92668914794922
2018-11-30,35.24267578125
2018-12-03,35.50929260253906
2018-12-04,34.057716369628906
2018-12-06,33.3862419128418
2018-12-07,32.20127487182617
2018-12-10,32.4580192565918
2018-12-11,32.54689025878906
2018-12-12,32.94187927246094
2018-12-13,32.586395263671875
2018-12-14,32.102535247802734
2018-12-17,31.40143585205078
2018-12-18,31.559429168701172
2018-12-19,30.216474533081055
2018-12-20,30.30534553527832
2018-12-21,29.189510345458984
2018-12-24,28.577280044555664
2018-12-26,30.107851028442383
2018-12-27,30.5324649810791
2018-12-28,30.7990779876709
2018-12-31,30.9866943359375
2019-01-02,31.34218406677246
2019-01-03,29.229005813598633
2019-01-04,30.710208892822266
2019-01-07,30.759578704833984
2019-01-08,30.394216537475586
2019-01-09,31.50018310546875
2019-01-10,31.766796112060547
2019-01-11,31.924789428710938
2019-01-14,31.095317840576172
2019-01-15,31.391559600830078
2019-01-16,31.31256103515625
2019-01-17,31.707548141479492
2019-01-18,32.487648010253906
2019-01-22,31.40143585205078
2019-01-23,31.52980613708496
2019-01-24,35.588294982910156
2019-01-25,36.28939437866211
2019-01-28,36.30914306640625
2019-01-29,35.884525299072266
2019-01-30,36.4375114440918
2019-01-31,35.53892135620117
2019-02-01,36.29926681518555
2019-02-04,36.467140197753906
2019-02-05,36.88187026977539
2019-02-06,38.017459869384766
2019-02-07,37.168235778808594
2019-02-08,37.069488525390625
2019-02-11,37.39535140991211
2019-02-12,38.42231750488281
2019-02-13,38.6593132019043
2019-02-14,39.03455352783203
2019-02-15,39.271541595458984
2019-02-19,39.8739013671875
2019-02-20,40.772491455078125
2019-02-21,40.673526763916016
2019-02-22,40.81207275390625
2019-02-25,41.63346481323242
2019-02-26,41.03968811035156
2019-02-27,40.79228210449219
2019-02-28,40.40633010864258
2019-03-01,40.57456588745117
2019-03-04,40.218299865722656
2019-03-05,39.98079299926758
2019-03-06,39.52556228637695
2019-03-07,38.46666717529297
2019-03-08,38.34790802001953
2019-03-11,39.11982345581055
2019-03-12,39.17919158935547
2019-03-13,39.1989860534668
2019-03-14,38.862518310546875
2019-03-15,40.040164947509766
2019-03-18,39.97089385986328
2019-03-19,40.11933517456055
2019-03-20,39.1693000793457
2019-03-21,40.08964157104492
2019-03-22,39.1989860534668
2019-03-25,39.10002136230469
2019-03-26,39.38701629638672
2019-03-27,38.892208099365234
2019-03-28,38.81303787231445
2019-03-29,39.42659378051758
2019-04-01,41.34646987915039
2019-04-02,41.583980560302734
2019-04-03,43.147586822509766
2019-04-04,43.17727279663086
2019-04-05,43.6918830871582
2019-04-08,43.8502197265625
2019-04-09,43.24654769897461
2019-04-10,43.464263916015625
2019-04-11,43.1574821472168
2019-04-12,43.68198776245117
2019-04-15,43.48405838012695
2019-04-16,44.66170883178711
2019-04-17,44.38461685180664
2019-04-18,44.345035552978516
2019-04-22,44.38461685180664
2019-04-23,44.12731170654297
2019-04-24,47.49203109741211
2019-04-25,47.65037155151367
2019-04-26,48.2540397644043
2019-04-29,48.59050750732422
2019-04-30,48.491554260253906
2019-05-01,48.234256744384766
2019-05-02,48.451969146728516
2019-05-03,48.91708755493164
2019-05-06,48.07591247558594
2019-05-07,47.62068557739258
2019-05-08,47.6899528503418
2019-05-09,47.47223663330078
2019-05-10,47.74933624267578
2019-05-13,45.28517150878906
2019-05-14,45.75028991699219
2019-05-15,46.304481506347656
2019-05-16,46.48262023925781
2019-05-17,45.42372131347656
2019-05-20,43.37519454956055
2019-05-21,43.464263916015625
2019-05-22,43.048622131347656
2019-05-23,41.8709716796875
2019-05-24,41.45532989501953
2019-05-28,41.237144470214844
2019-05-29,41.97104263305664
2019-05-30,42.19914627075195
2019-05-31,41.79252624511719
2019-06-03,41.95120620727539
2019-06-04,43.954551696777344
2019-06-05,44.1727409362793
2019-06-06,44.51984786987305
2019-06-07,44.83721160888672
2019-06-10,46.523193359375
2019-06-11,46.969486236572266
2019-06-12,45.07522964477539
2019-06-13,44.718204498291016
2019-06-14,43.66693878173828
2019-06-17,43.72644805908203
2019-06-18,45.44218063354492
2019-06-19,45.09506607055664
2019-06-20,45.819053649902344
2019-06-21,45.670284271240234
2019-06-24,45.84880065917969
2019-06-25,45.07522964477539
2019-06-26,45.56119155883789
2019-06-27,46.26533889770508
2019-06-28,47.514949798583984
2019-07-01,48.4273681640625
2019-07-02,47.15791320800781
2019-07-03,46.909976959228516
2019-07-05,46.523193359375
2019-07-08,46.26533889770508
2019-07-09,45.967811584472656
2019-07-10,45.54135513305664
2019-07-11,44.89671325683594
2019-07-12,45.8785514831543
2019-07-15,46.096736907958984
2019-07-16,44.78762435913086
2019-07-17,44.718204498291016
2019-07-18,45.9182243347168
2019-07-19,45.58102798461914
2019-07-22,46.45376968383789
2019-07-23,47.69346618652344
2019-07-24,57.462242126464844
2019-07-25,55.43906784057617
2019-07-26,55.885353088378906
2019-07-29,57.11512756347656
2019-07-30,56.88703155517578
2019-07-31,55.270469665527344
2019-08-01,54.3481330871582
2019-08-02,53.02910614013672
2019-08-05,51.30345153808594
2019-08-06,50.83732223510742
2019-08-07,50.03400421142578
2019-08-08,51.96792984008789
2019-08-09,51.73981857299805
2019-08-12,51.81916809082031
2019-08-13,53.13819885253906
2019-08-14,50.86708068847656
2019-08-15,51.600975036621094
2019-08-16,52.51339340209961
2019-08-19,52.68198776245117
2019-08-20,52.62248992919922
2019-08-21,52.989437103271484
2019-08-22,53.207618713378906
2019-08-23,51.561309814453125
2019-08-26,52.017520904541016
2019-08-27,51.54146957397461
2019-08-28,51.36295700073242
2019-08-29,52.21586608886719
2019-08-30,52.53322219848633
2019-09-03,51.867618560791016
2019-09-04,53.28824234008789
2019-09-05,55.553287506103516
2019-09-06,55.71223831176758
2019-09-09,57.023582458496094
2019-09-10,56.47719192504883
2019-09-11,57.37129211425781
2019-09-12,57.013648986816406
2019-09-13,57.460697174072266
2019-09-16,57.56003952026367
2019-09-17,57.61964797973633
2019-09-18,58.116371154785156
2019-09-19,58.354801177978516
2019-09-20,57.82827377319336
2019-09-23,58.32499694824219
2019-09-24,57.76866912841797
2019-09-25,59.030338287353516
2019-09-26,58.83164978027344
2019-09-27,57.023582458496094
2019-09-30,57.53023910522461
2019-10-01,57.72892761230469
2019-10-02,56.96398162841797
2019-10-03,58.04683303833008
2019-10-04,59.56679916381836
2019-10-07,58.98066711425781
2019-10-08,57.65938949584961
2019-10-09,59.45751953125
2019-10-10,59.48732376098633
2019-10-11,60.7787971496582
2019-10-14,60.222469329833984
2019-10-15,61.28544998168945
2019-10-16,59.864830017089844
2019-10-17,59.91450119018555
2019-10-18,58.54355239868164
2019-10-21,59.66614532470703
2019-10-22,58.76211166381836
2019-10-23,60.301944732666016
2019-10-24,62.696144104003906
2019-10-25,63.20279312133789
2019-10-28,63.63991165161133
2019-10-29,63.20279312133789
2019-10-30,62.35837173461914
2019-10-31,60.81853103637695
2019-11-01,61.98086166381836
2019-11-04,62.45771408081055
2019-11-05,62.17955017089844
2019-11-06,62.606727600097656
2019-11-07,62.15968704223633
2019-11-08,63.0935173034668
2019-11-11,63.649845123291016
2019-11-12,64.7525634765625
2019-11-13,65.22942352294922
2019-11-14,65.14000701904297
2019-11-15,66.3321304321289
2019-11-18,64.68302917480469
2019-11-19,63.7392578125
2019-11-20,63.43128967285156
2019-11-21,61.37486267089844
2019-11-22,61.553680419921875
2019-11-25,63.17299270629883
2019-11-26,63.34211349487305
2019-11-27,63.64057540893555
2019-11-29,62.26768493652344
2019-12-02,62.21793746948242
2019-12-03,61.32257080078125
2019-12-04,62.377113342285156
2019-12-05,62.337318420410156
2019-12-06,63.61072540283203
2019-12-09,63.19289016723633
2019-12-10,63.74005889892578
2019-12-11,65.22238159179688
2019-12-12,66.06800079345703
2019-12-13,66.34656524658203
2019-12-16,67.96817016601562
2019-12-17,68.16712951660156
2019-12-18,68.04776000976562
2019-12-19,68.2069320678711
2019-12-20,68.99285888671875
2019-12-23,68.71430969238281
2019-12-24,68.63471221923828
2019-12-26,69.27141571044922
2019-12-27,68.78394317626953
2019-12-30,68.4059066772461
2019-12-31,67.8388442993164
