Date,TRN
2007-12-31,7.8012776374816895
2008-01-02,7.756317138671875
2008-01-03,7.8125224113464355
2008-01-04,7.407845497131348
2008-01-07,7.29824686050415
2008-01-08,6.977875232696533
2008-01-09,7.115579128265381
2008-01-10,7.163354396820068
2008-01-11,6.963274955749512
2008-01-14,6.974547386169434
2008-01-15,6.760380744934082
2008-01-16,6.6222991943359375
2008-01-17,6.295412063598633
2008-01-18,6.512397766113281
2008-01-22,6.554664134979248
2008-01-23,6.715291976928711
2008-01-24,6.681478023529053
2008-01-25,7.149264335632324
2008-01-28,7.681864261627197
2008-01-29,7.639594078063965
2008-01-30,7.670591354370117
2008-01-31,7.980571746826172
2008-02-01,8.400456428527832
2008-02-04,8.017208099365234
2008-02-05,7.7804975509643555
2008-02-06,8.056659698486328
2008-02-07,8.346911430358887
2008-02-08,8.324372291564941
2008-02-11,8.307462692260742
2008-02-12,8.124292373657227
2008-02-13,8.465269088745117
2008-02-14,8.206011772155762
2008-02-15,8.234193801879883
2008-02-19,8.490632057189941
2008-02-20,8.465269088745117
2008-02-21,8.761159896850586
2008-02-22,8.54135799407959
2008-02-25,8.580805778503418
2008-02-26,8.645623207092285
2008-02-27,8.501904487609863
2008-02-28,8.411728858947754
2008-02-29,7.9383063316345215
2008-03-03,8.031298637390137
2008-03-04,7.946757793426514
2008-03-05,7.96366548538208
2008-03-06,7.681864261627197
2008-03-07,7.662140846252441
2008-03-10,7.360613822937012
2008-03-11,7.563514232635498
2008-03-12,7.397251129150391
2008-03-13,7.312709808349609
2008-03-14,7.106997489929199
2008-03-17,6.84774112701416
2008-03-18,7.329615116119385
2008-03-19,7.087268829345703
2008-03-20,7.149264335632324
2008-03-24,7.58605432510376
2008-03-25,7.6987738609313965
2008-03-26,7.55787467956543
2008-03-27,7.416975021362305
2008-03-28,7.34088659286499
2008-03-31,7.509969234466553
2008-04-01,7.805858135223389
2008-04-02,7.772041320800781
2008-04-03,7.662140846252441
2008-04-04,7.6255083084106445
2008-04-07,7.670591354370117
2008-04-08,7.639594078063965
2008-04-09,7.2760748863220215
2008-04-10,7.202807426452637
2008-04-11,7.118039608001709
2008-04-14,7.0784759521484375
2008-04-15,7.101079940795898
2008-04-16,7.5786309242248535
2008-04-17,7.338442802429199
2008-04-18,7.657750606536865
2008-04-21,7.759476184844971
2008-04-22,7.7962164878845215
2008-04-23,7.697310924530029
2008-04-24,7.971407890319824
2008-04-25,8.358537673950195
2008-04-28,8.669366836547852
2008-04-29,8.573293685913086
2008-04-30,8.590248107910156
2008-05-01,9.52274227142334
2008-05-02,9.604686737060547
2008-05-05,9.31928539276123
2008-05-06,9.370150566101074
2008-05-07,9.234511375427246
2008-05-08,9.375801086425781
2008-05-09,9.457747459411621
2008-05-12,9.635769844055176
2008-05-13,9.672502517700195
2008-05-14,9.912690162658691
2008-05-15,10.596518516540527
2008-05-16,10.712376594543457
2008-05-19,10.684118270874023
2008-05-20,10.862141609191895
2008-05-21,10.924308776855469
2008-05-22,10.720854759216309
2008-05-23,10.678465843200684
2008-05-27,10.7265043258667
2008-05-28,10.898873329162598
2008-05-29,11.260567665100098
2008-05-30,11.543145179748535
2008-06-02,11.141887664794922
2008-06-03,11.24361801147461
2008-06-04,11.24926471710205
2008-06-05,11.294477462768555
2008-06-06,10.715203285217285
2008-06-09,10.938434600830078
2008-06-10,10.794322967529297
2008-06-11,10.376110076904297
2008-06-12,10.794322967529297
2008-06-13,11.014731407165527
2008-06-16,11.158843040466309
2008-06-17,10.983646392822266
2008-06-18,10.92995548248291
2008-06-19,11.164495468139648
2008-06-20,11.037336349487305
2008-06-23,10.901700019836426
2008-06-24,10.506096839904785
2008-06-25,10.61347770690918
2008-06-26,9.915515899658203
2008-06-27,9.82226848602295
2008-06-30,9.802485466003418
2008-07-01,9.579255104064941
2008-07-02,9.141267776489258
2008-07-03,9.014107704162598
2008-07-07,9.005629539489746
2008-07-08,9.248641967773438
2008-07-09,8.912378311157227
2008-07-10,8.807829856872559
2008-07-11,8.87582015991211
2008-07-14,8.938148498535156
2008-07-15,8.773831367492676
2008-07-16,9.408429145812988
2008-07-17,9.700228691101074
2008-07-18,10.000527381896973
2008-07-21,10.028855323791504
2008-07-22,10.368815422058105
2008-07-23,10.295156478881836
2008-07-24,9.53874683380127
2008-07-25,9.722892761230469
2008-07-28,9.53874683380127
2008-07-29,9.986363410949707
2008-07-30,9.994860649108887
2008-07-31,10.663450241088867
2008-08-01,10.99207878112793
2008-08-04,10.558631896972656
2008-08-05,10.524633407592773
2008-08-06,10.790939331054688
2008-08-07,10.380147933959961
2008-08-08,10.720112800598145
2008-08-11,10.612457275390625
2008-08-12,10.39148235321045
2008-08-13,10.278162956237793
2008-08-14,10.467975616455078
2008-08-15,10.368815422058105
2008-08-18,10.14217472076416
2008-08-19,9.83337688446045
2008-08-20,9.853209495544434
2008-08-21,9.836212158203125
2008-08-22,9.989194869995117
2008-08-25,9.666229248046875
2008-08-26,9.697394371032715
2008-08-27,9.88154125213623
2008-08-28,10.215837478637695
2008-08-29,10.193170547485352
2008-09-02,9.977862358093262
2008-09-03,9.84471321105957
2008-09-04,9.450922012329102
2008-09-05,9.592574119567871
2008-09-08,9.42259407043457
2008-09-09,8.97780990600586
2008-09-10,9.261115074157715
2008-09-11,9.337603569030762
2008-09-12,9.419758796691895
2008-09-15,8.97780990600586
2008-09-16,9.303606033325195
2008-09-17,8.810661315917969
2008-09-18,8.847492218017578
2008-09-19,9.195952415466309
2008-09-22,8.637850761413574
2008-09-23,8.680346488952637
2008-09-24,8.49903392791748
2008-09-25,8.745505332946777
2008-09-26,8.516030311584473
2008-09-29,7.467814922332764
2008-09-30,7.289340019226074
2008-10-01,7.17034912109375
2008-10-02,5.663187026977539
2008-10-03,6.042811870574951
2008-10-06,5.821837902069092
2008-10-07,5.311893939971924
2008-10-08,5.3883867263793945
2008-10-09,5.175909042358398
2008-10-10,5.497451305389404
2008-10-13,6.439300537109375
2008-10-14,6.575884819030762
2008-10-15,5.776307106018066
2008-10-16,6.2088189125061035
2008-10-17,6.063699245452881
2008-10-20,6.265726089477539
2008-10-21,6.026708602905273
2008-10-22,5.429159164428711
2008-10-23,5.056402683258057
2008-10-24,4.840146064758301
2008-10-27,4.640962600708008
2008-10-28,4.740555286407471
2008-10-29,5.207211017608643
2008-10-30,4.734864234924316
2008-10-31,4.803155422210693
2008-11-03,5.030792713165283
2008-11-04,5.278348922729492
2008-11-05,4.911282539367676
2008-11-06,4.527144908905029
2008-11-07,4.592591285705566
2008-11-10,4.535679817199707
2008-11-11,4.399096488952637
2008-11-12,3.975123167037964
2008-11-13,4.450316429138184
2008-11-14,3.9637410640716553
2008-11-17,3.989349603652954
2008-11-18,3.9267501831054688
2008-11-19,3.4373297691345215
2008-11-20,2.8853085041046143
2008-11-21,2.9279897212982178
2008-11-24,3.622283458709717
2008-11-25,3.8328497409820557
2008-11-26,4.205605506896973
2008-11-28,4.2312164306640625
2008-12-01,3.4515559673309326
2008-12-02,3.8356943130493164
2008-12-03,3.952359437942505
2008-12-04,3.6194396018981934
2008-12-05,3.8129310607910156
2008-12-08,4.2653608322143555
2008-12-09,4.1344685554504395
2008-12-10,4.199914932250977
2008-12-11,3.9865047931671143
2008-12-12,4.162924289703369
2008-12-15,3.9324419498443604
2008-12-16,4.2141432762146
2008-12-17,4.510069370269775
2008-12-18,4.367799758911133
2008-12-19,4.401942729949951
2008-12-22,4.185688018798828
2008-12-23,4.080404758453369
2008-12-24,4.128777503967285
2008-12-26,4.26820707321167
2008-12-29,4.177152633666992
2008-12-30,4.26820707321167
2008-12-31,4.484464645385742
2009-01-02,4.862910270690918
2009-01-05,4.894210338592529
2009-01-06,5.093392848968506
2009-01-07,4.746245861053467
2009-01-08,4.831610679626465
2009-01-09,4.495843410491943
2009-01-12,4.182841777801514
2009-01-13,4.08270788192749
2009-01-14,3.8624088764190674
2009-01-15,3.859546184539795
2009-01-16,3.8509645462036133
2009-01-20,3.5906083583831787
2009-01-21,3.8137691020965576
2009-01-22,3.7193565368652344
2009-01-23,3.7136337757110596
2009-01-26,3.716493606567383
2009-01-27,3.810908317565918
2009-01-28,3.7594099044799805
2009-01-29,3.4876110553741455
2009-01-30,3.2930593490600586
2009-02-02,3.1929237842559814
2009-02-03,3.2072298526763916
2009-02-04,3.2587270736694336
2009-02-05,3.3130874633789062
2009-02-06,3.504777193069458
2009-02-09,3.4876110553741455
2009-02-10,3.281616687774658
2009-02-11,3.2015063762664795
2009-02-12,3.267310619354248
2009-02-13,3.2558672428131104
2009-02-17,2.9840681552886963
2009-02-18,2.9382903575897217
2009-02-19,2.5234391689300537
2009-02-20,2.3946924209594727
2009-02-23,2.2430577278137207
2009-02-24,2.3746652603149414
2009-02-25,2.197280168533325
2009-02-26,2.122894287109375
2009-02-27,2.1114494800567627
2009-03-02,1.871121883392334
2009-03-03,1.851094126701355
2009-03-04,2.0799777507781982
2009-03-05,1.9083151817321777
2009-03-06,1.922621250152588
2009-03-09,2.0055909156799316
2009-03-10,2.3460545539855957
2009-03-11,2.3031399250030518
2009-03-12,2.423302173614502
2009-03-13,2.366081953048706
2009-03-16,2.35749888420105
2009-03-17,2.486245632171631
2009-03-18,2.649324893951416
2009-03-19,2.5663557052612305
2009-03-20,2.4461910724639893
2009-03-23,2.8410165309906006
2009-03-24,2.783794641494751
2009-03-25,2.7780725955963135
2009-03-26,2.9812066555023193
2009-03-27,2.866765022277832
2009-03-30,2.649324893951416
2009-03-31,2.6149933338165283
2009-04-01,2.738018274307251
2009-04-02,2.9812066555023193
2009-04-03,3.1442856788635254
2009-04-06,3.058454751968384
2009-04-07,2.9411520957946777
2009-04-08,2.9754843711853027
2009-04-09,3.327392101287842
2009-04-13,3.347560405731201
2009-04-14,3.243849515914917
2009-04-15,3.4224629402160645
2009-04-16,3.5636253356933594
2009-04-17,3.7076683044433594
2009-04-20,3.3014676570892334
2009-04-21,3.5521018505096436
2009-04-22,3.5693869590759277
2009-04-23,3.425342559814453
2009-04-24,3.745120048522949
2009-04-27,3.6241235733032227
2009-04-28,3.575147867202759
2009-04-29,3.8776402473449707
2009-04-30,4.208938121795654
2009-05-01,4.2607927322387695
2009-05-04,4.517190933227539
2009-05-05,4.635304927825928
2009-05-06,4.692921161651611
2009-05-07,4.439407825469971
2009-05-08,4.883060932159424
2009-05-11,4.747659206390381
2009-05-12,4.589211463928223
2009-05-13,4.1743693351745605
2009-05-14,4.240627765655518
2009-05-15,4.151319980621338
2009-05-18,4.427883625030518
2009-05-19,4.5258331298828125
2009-05-20,4.499904632568359
2009-05-21,4.312648773193359
2009-05-22,4.220461845397949
2009-05-26,4.39907693862915
2009-05-27,4.3443379402160645
2009-05-28,4.347220420837402
2009-05-29,4.390432357788086
2009-06-01,4.352980613708496
2009-06-02,4.3616228103637695
2009-06-03,4.315530300140381
2009-06-04,4.4163594245910645
2009-06-05,4.352980613708496
2009-06-08,4.39907693862915
2009-06-09,4.404836177825928
2009-06-10,4.393313407897949
2009-06-11,4.462454319000244
2009-06-12,4.301126003265381
2009-06-15,4.136916637420654
2009-06-16,4.041849136352539
2009-06-17,3.935255289077759
2009-06-18,3.8776402473449707
2009-06-19,3.845949172973633
2009-06-22,3.6327667236328125
2009-06-23,3.644289493560791
2009-06-24,3.796975612640381
2009-06-25,3.8718783855438232
2009-06-26,3.9381370544433594
2009-06-29,4.0360870361328125
2009-06-30,3.9237325191497803
2009-07-01,4.013040065765381
2009-07-02,3.8545913696289062
2009-07-06,3.6788594722747803
2009-07-07,3.485841989517212
2009-07-08,3.4627938270568848
2009-07-09,3.5376977920532227
2009-07-10,3.459914445877075
2009-07-13,3.900745153427124
2009-07-14,3.9761483669281006
2009-07-15,4.1704607009887695
2009-07-16,4.225564479827881
2009-07-17,4.260365009307861
2009-07-20,4.3502726554870605
2009-07-21,4.29517126083374
2009-07-22,4.280667781829834
2009-07-23,4.5068817138671875
2009-07-24,4.535882949829102
2009-07-27,4.593886852264404
2009-07-28,4.5184831619262695
2009-07-29,4.3502726554870605
2009-07-30,3.981950044631958
2009-07-31,4.048653602600098
2009-08-03,4.260365009307861
2009-08-04,4.356071472167969
2009-08-05,4.298069000244141
2009-08-06,4.216862201690674
2009-08-07,4.4894819259643555
2009-08-10,4.5126824378967285
2009-08-11,4.3299713134765625
2009-08-12,4.5474853515625
2009-08-13,4.756296634674072
2009-08-14,4.5822858810424805
2009-08-17,4.324169158935547
2009-08-18,4.4343767166137695
2009-08-19,4.390873432159424
2009-08-20,4.399576663970947
2009-08-21,4.5126824378967285
2009-08-24,4.524282455444336
2009-08-25,4.492380619049072
2009-08-26,4.4894819259643555
2009-08-27,4.509780406951904
2009-08-28,4.611288070678711
2009-08-31,4.5822858810424805
2009-09-01,4.466279029846191
2009-09-02,4.416975021362305
2009-09-03,4.538783073425293
2009-09-04,4.640289306640625
2009-09-08,4.7910990715026855
2009-09-09,4.782398700714111
2009-09-10,5.002811908721924
2009-09-11,5.098519802093506
2009-09-14,5.292830467224121
2009-09-15,5.4552412033081055
2009-09-16,5.4030375480651855
2009-09-17,5.417537689208984
2009-09-18,5.53064489364624
2009-09-21,5.179724216461182
2009-09-22,5.46394157409668
2009-09-23,5.275429725646973
2009-09-24,5.136220932006836
2009-09-25,4.988310813903809
2009-09-28,5.133320331573486
2009-09-29,5.173922061920166
2009-09-30,4.985409259796143
2009-10-01,4.817200183868408
2009-10-02,4.741796493530273
2009-10-05,4.770797252655029
2009-10-06,4.8462018966674805
2009-10-07,4.820099830627441
2009-10-08,5.0289130210876465
2009-10-09,5.278330326080322
2009-10-12,5.498742580413818
2009-10-13,5.326909065246582
2009-10-14,5.527869701385498
2009-10-15,5.449234485626221
2009-10-16,5.306521415710449
2009-10-19,5.411371231079102
2009-10-20,5.353122711181641
2009-10-21,5.335647106170654
2009-10-22,5.423019886016846
2009-10-23,5.277397632598877
2009-10-26,5.251185894012451
2009-10-27,5.058961868286133
2009-10-28,4.869651794433594
2009-10-29,5.0764360427856445
2009-10-30,4.916249752044678
2009-11-02,4.942462921142578
2009-11-03,5.2482733726501465
2009-11-04,5.131772041320801
2009-11-05,5.283222675323486
2009-11-06,5.149248123168945
2009-11-09,5.393895626068115
2009-11-10,5.34438419342041
2009-11-11,5.457969665527344
2009-11-12,5.4550580978393555
2009-11-13,5.4550580978393555
2009-11-16,5.650192737579346
2009-11-17,5.600681304931641
2009-11-18,5.609417915344238
2009-11-19,5.417194843292236
2009-11-20,5.423019886016846
2009-11-23,5.6647562980651855
2009-11-24,5.650192737579346
2009-11-25,5.609417915344238
2009-11-27,5.463796138763428
2009-11-30,5.495832443237305
2009-12-01,5.533695697784424
2009-12-02,5.437582015991211
2009-12-03,5.280308723449707
2009-12-04,5.390984535217285
2009-12-07,5.323996543884277
2009-12-08,5.2220611572265625
2009-12-09,5.149248123168945
2009-12-10,5.338559627532959
2009-12-11,5.393895626068115
2009-12-14,5.457969665527344
2009-12-15,5.568645000457764
2009-12-16,5.568645000457764
2009-12-17,5.504570960998535
2009-12-18,5.358946800231934
2009-12-21,5.34438419342041
2009-12-22,5.300697326660156
2009-12-23,5.213321685791016
2009-12-24,5.356033802032471
2009-12-28,5.259922504425049
2009-12-29,5.213321685791016
2009-12-30,5.157986164093018
2009-12-31,5.079348564147949
2010-01-04,5.257009506225586
2010-01-05,5.300697326660156
2010-01-06,5.309433937072754
2010-01-07,5.289046764373779
2010-01-08,5.388071537017822
2010-01-11,5.283222675323486
2010-01-12,5.18419885635376
2010-01-13,5.26904296875
2010-01-14,5.125688076019287
2010-01-15,5.075953960418701
2010-01-19,5.166646480560303
2010-01-20,5.128613471984863
2010-01-21,5.055473327636719
2010-01-22,4.947225093841553
2010-01-25,4.906266689300537
2010-01-26,4.894564151763916
2010-01-27,4.86530876159668
2010-01-28,4.67514181137085
2010-01-29,4.575671195983887
2010-02-01,4.651736259460449
2010-02-02,4.6400346755981445
2010-02-03,4.534712791442871
2010-02-04,4.452795505523682
2010-02-05,4.508383274078369
2010-02-08,4.461572170257568
2010-02-09,4.561041355133057
2010-02-10,4.642960071563721
2010-02-11,4.80972146987915
2010-02-12,4.856529712677002
2010-02-16,5.034993648529053
2010-02-17,5.087652683258057
2010-02-18,4.9940361976623535
2010-02-19,5.064250469207764
2010-02-22,5.058398246765137
2010-02-23,4.9940361976623535
2010-02-24,5.067174911499023
2010-02-25,4.979407787322998
2010-02-26,4.923819541931152
2010-03-01,4.9940361976623535
2010-03-02,5.154942512512207
2010-03-03,5.1959028244018555
2010-03-04,5.116910934448242
2010-03-05,5.1695709228515625
2010-03-08,5.213455677032471
2010-03-09,5.228084564208984
2010-03-10,5.2368597984313965
2010-03-11,5.274894714355469
2010-03-12,5.315852165222168
2010-03-15,5.482612609863281
2010-03-16,5.587935924530029
2010-03-17,5.652299880981445
2010-03-18,5.713737964630127
2010-03-19,5.807357311248779
2010-03-22,5.915604591369629
2010-03-23,5.9828948974609375
2010-03-24,5.9828948974609375
2010-03-25,6.020928859710693
2010-03-26,5.95949125289917
2010-03-29,5.988746166229248
2010-03-30,5.930233478546143
2010-03-31,5.839539527893066
2010-04-01,5.912680149078369
2010-04-05,6.18768835067749
2010-04-06,6.269604682922363
2010-04-07,6.219870090484619
2010-04-08,6.3544487953186035
2010-04-09,6.497804164886475
2010-04-12,6.682118892669678
2010-04-13,6.632209300994873
2010-04-14,7.0403008460998535
2010-04-15,7.3691205978393555
2010-04-16,7.190032005310059
2010-04-19,7.134248733520508
2010-04-20,7.231134414672852
2010-04-21,7.404353618621826
2010-04-22,7.56582498550415
2010-04-23,7.689133644104004
2010-04-26,7.768406391143799
2010-04-27,7.451330184936523
2010-04-28,7.4894938468933105
2010-04-29,7.580505847930908
2010-04-30,7.30746603012085
2010-05-03,7.457199573516846
2010-05-04,7.0960845947265625
2010-05-05,6.734967231750488
2010-05-06,6.532388687133789
2010-05-07,6.238798141479492
2010-05-10,6.905248641967773
2010-05-11,6.95515775680542
2010-05-12,7.231134414672852
2010-05-13,7.213522434234619
2010-05-14,6.902312278747559
2010-05-17,6.717350006103516
2010-05-18,6.693862438201904
2010-05-19,6.3885297775268555
2010-05-20,5.830707550048828
2010-05-21,6.106682300567627
2010-05-24,5.909977436065674
2010-05-25,5.936399459838867
2010-05-26,6.14484977722168
2010-05-27,6.564683437347412
2010-05-28,6.414953231811523
2010-06-01,6.097875118255615
2010-06-02,6.350363254547119
2010-06-03,6.394400596618652
2010-06-04,5.998054504394531
2010-06-07,5.680975914001465
2010-06-08,5.61932373046875
2010-06-09,5.70446252822876
2010-06-10,6.027414321899414
2010-06-11,6.147784233093262
2010-06-14,6.209441661834717
2010-06-15,6.420825481414795
2010-06-16,6.341554164886475
2010-06-17,6.312196254730225
2010-06-18,6.276965141296387
2010-06-21,6.282837867736816
2010-06-22,5.936399459838867
2010-06-23,5.874746322631836
2010-06-24,5.70446252822876
2010-06-25,5.78666877746582
2010-06-28,5.695655345916748
2010-06-29,5.302244186401367
2010-06-30,5.202423572540283
2010-07-01,5.149576663970947
2010-07-02,5.123154163360596
2010-07-06,5.029204845428467
2010-07-07,5.275822162628174
2010-07-08,5.331602573394775
2010-07-09,5.4666547775268555
2010-07-12,5.355090618133545
2010-07-13,5.590999603271484
2010-07-14,5.611641883850098
2010-07-15,5.614591121673584
2010-07-16,5.328553676605225
2010-07-19,5.369837284088135
2010-07-20,5.69126033782959
2010-07-21,5.641129493713379
2010-07-22,5.891781330108643
2010-07-23,6.186666488647461
2010-07-26,6.281029224395752
2010-07-27,6.121790885925293
2010-07-28,6.109996318817139
2010-07-29,6.142432689666748
2010-07-30,6.006787300109863
2010-08-02,6.039222240447998
2010-08-03,5.96255350112915
2010-08-04,5.8534464836120605
2010-08-05,5.782674789428711
2010-08-06,5.717799663543701
2010-08-09,5.788572788238525
2010-08-10,5.567408561706543
2010-08-11,5.316758632659912
2010-08-12,5.234190464019775
2010-08-13,5.181112766265869
2010-08-16,5.251884460449219
2010-08-17,5.28432035446167
2010-08-18,5.360989093780518
2010-08-19,5.169315814971924
2010-08-20,5.122134685516357
2010-08-23,4.971743583679199
2010-08-24,4.8508405685424805
2010-08-25,4.868532180786133
2010-08-26,5.004180431365967
2010-08-27,5.192906379699707
2010-08-30,5.013028144836426
2010-08-31,5.0484137535095215
2010-09-01,5.340348243713379
2010-09-02,5.422916412353516
2010-09-03,5.614591121673584
2010-09-07,5.5320234298706055
2010-09-08,5.582154273986816
2010-09-09,5.514331340789795
2010-09-10,5.582154273986816
2010-09-13,5.717799663543701
2010-09-14,5.6883111000061035
2010-09-15,5.720747947692871
2010-09-16,5.629334926605225
2010-09-17,5.717799663543701
2010-09-20,5.953707695007324
2010-09-21,6.059864521026611
2010-09-22,6.042172431945801
2010-09-23,6.015632629394531
2010-09-24,6.139483451843262
2010-09-27,6.139483451843262
2010-09-28,6.472703456878662
2010-09-29,6.552321434020996
2010-09-30,6.567065715789795
2010-10-01,6.7086100578308105
2010-10-04,6.490395545959473
2010-10-05,6.723352909088135
2010-10-06,6.755788803100586
2010-10-07,6.720404624938965
2010-10-08,6.76168966293335
2010-10-11,6.829512119293213
2010-10-12,6.797076225280762
2010-10-13,7.187680721282959
2010-10-14,7.010134220123291
2010-10-15,6.936155796051025
2010-10-18,6.953912258148193
2010-10-19,6.794116497039795
2010-10-20,7.223189830780029
2010-10-21,7.066356658935547
2010-10-22,7.22910737991333
2010-10-25,7.202475547790527
2010-10-26,6.9805402755737305
2010-10-27,6.95095157623291
2010-10-28,6.8177900314331055
2010-10-29,6.726057529449463
2010-11-01,6.755649089813232
2010-11-02,6.924319744110107
2010-11-03,6.8740153312683105
2010-11-04,7.246862411499023
2010-11-05,7.306044578552246
2010-11-08,7.1580891609191895
2010-11-09,7.205432415008545
2010-11-10,7.309002876281738
2010-11-11,7.309002876281738
2010-11-12,7.057481288909912
2010-11-15,7.143294334411621
2010-11-16,6.921360969543457
2010-11-17,6.800036430358887
2010-11-18,6.930237293243408
2010-11-19,6.891768932342529
2010-11-22,6.888810157775879
2010-11-23,6.672793865203857
2010-11-24,7.042684078216553
2010-11-26,6.956869602203369
2010-11-29,6.859220027923584
2010-11-30,6.776363849639893
2010-12-01,7.057481288909912
2010-12-02,7.169925212860107
2010-12-03,7.175845146179199
2010-12-06,7.344511032104492
2010-12-07,7.409613609313965
2010-12-08,7.155129432678223
2010-12-09,7.090029716491699
2010-12-10,7.338596343994141
2010-12-13,7.448078632354736
2010-12-14,7.418491363525391
2010-12-15,7.258699893951416
2010-12-16,7.190639019012451
2010-12-17,7.104823589324951
2010-12-20,7.27053689956665
2010-12-21,7.501345634460449
2010-12-22,7.598997116088867
2010-12-23,7.601955413818359
2010-12-27,7.65521764755249
2010-12-28,7.693689346313477
2010-12-29,7.76766300201416
2010-12-30,7.8949055671691895
2010-12-31,7.8741912841796875
2011-01-03,7.962965965270996
2011-01-04,7.785420894622803
2011-01-05,7.9718475341796875
2011-01-06,7.829807758331299
2011-01-07,7.841640472412109
2011-01-10,8.054701805114746
2011-01-11,8.13459300994873
2011-01-12,8.179113388061523
2011-01-13,8.167240142822266
2011-01-14,8.18504810333252
2011-01-18,8.265178680419922
2011-01-19,8.170211791992188
2011-01-20,8.090078353881836
2011-01-21,8.075240135192871
2011-01-24,8.223628997802734
2011-01-25,8.357178688049316
2011-01-26,8.615372657775879
2011-01-27,8.582725524902344
2011-01-28,8.25330638885498
2011-01-31,8.277046203613281
2011-02-01,8.597562789916992
2011-02-02,8.553049087524414
2011-02-03,8.422471046447754
2011-02-04,8.440271377563477
2011-02-07,8.446210861206055
2011-02-08,8.606471061706543
2011-02-09,8.653952598571777
2011-02-10,8.840920448303223
2011-02-11,9.039758682250977
2011-02-14,9.455243110656738
2011-02-15,9.294987678527832
2011-02-16,9.336539268493652
2011-02-17,9.752018928527832
2011-02-18,9.573955535888672
2011-02-22,9.00711441040039
2011-02-23,8.817176818847656
2011-02-24,8.820148468017578
2011-02-25,9.20298957824707
2011-02-28,9.244535446166992
2011-03-01,8.903244018554688
2011-03-02,8.91511344909668
2011-03-03,9.143627166748047
2011-03-04,9.045696258544922
2011-03-07,8.852792739868164
2011-03-08,8.935891151428223
2011-03-09,9.048664093017578
2011-03-10,8.98930835723877
2011-03-11,9.093181610107422
2011-03-14,9.03382396697998
2011-03-15,9.535375595092773
2011-03-16,9.33950138092041
2011-03-17,9.609567642211914
2011-03-18,9.59176254272461
2011-03-21,9.849953651428223
2011-03-22,9.743117332458496
2011-03-23,9.689698219299316
2011-03-24,10.27137565612793
2011-03-25,10.128922462463379
2011-03-28,10.203115463256836
2011-03-29,10.360408782958984
2011-03-30,10.505826950073242
2011-03-31,10.882730484008789
2011-04-01,11.200279235839844
2011-04-04,11.173568725585938
2011-04-05,11.137959480285645
2011-04-06,11.206214904785156
2011-04-07,10.998472213745117
2011-04-08,10.832279205322266
2011-04-11,10.740280151367188
2011-04-12,10.67202091217041
2011-04-13,10.55899715423584
2011-04-14,10.573870658874512
2011-04-15,10.60063648223877
2011-04-18,10.139615058898926
2011-04-19,10.428126335144043
2011-04-20,10.570898056030273
2011-04-21,10.871307373046875
2011-04-25,10.924843788146973
2011-04-26,11.061665534973145
2011-04-27,11.222282409667969
2011-04-28,10.770174980163574
2011-04-29,10.767203330993652
2011-05-02,10.434075355529785
2011-05-03,10.258586883544922
2011-05-04,9.916533470153809
2011-05-05,9.830275535583496
2011-05-06,9.839200973510742
2011-05-09,10.026585578918457
2011-05-10,10.431099891662598
2011-05-11,9.839200973510742
2011-05-12,9.88381576538086
2011-05-13,9.633971214294434
2011-05-16,9.517967224121094
2011-05-17,9.315712928771973
2011-05-18,9.699405670166016
2011-05-19,9.639920234680176
2011-05-20,9.500123023986816
2011-05-23,9.205657005310059
2011-05-24,9.196734428405762
2011-05-25,9.506072998046875
2011-05-26,9.708328247070312
2011-05-27,10.005764961242676
2011-05-31,10.228843688964844
2011-06-01,9.690484046936035
2011-06-02,9.764842987060547
2011-06-03,9.517967224121094
2011-06-06,9.357357025146484
2011-06-07,9.271099090576172
2011-06-08,9.410892486572266
2011-06-09,9.410892486572266
2011-06-10,9.098583221435547
2011-06-13,9.08371639251709
2011-06-14,9.431715965270996
2011-06-15,9.256227493286133
2011-06-16,9.244332313537598
2011-06-17,9.277046203613281
2011-06-20,9.437661170959473
2011-06-21,9.788637161254883
2011-06-22,9.821352005004883
2011-06-23,9.69643497467041
2011-06-24,9.517967224121094
2011-06-27,9.55366039276123
2011-06-28,9.833253860473633
2011-06-29,9.987916946411133
2011-06-30,10.374587059020996
2011-07-01,10.675000190734863
2011-07-05,10.75232982635498
2011-07-06,10.901050567626953
2011-07-07,11.070587158203125
2011-07-08,11.079513549804688
2011-07-11,10.707718849182129
2011-07-12,10.29427719116211
2011-07-13,10.371814727783203
2011-07-14,10.19885540008545
2011-07-15,10.23165512084961
2011-07-18,9.879767417907715
2011-07-19,10.20779800415039
2011-07-20,10.333051681518555
2011-07-21,10.404617309570312
2011-07-22,10.383744239807129
2011-07-25,10.383744239807129
2011-07-26,10.488119125366211
2011-07-27,9.334039688110352
2011-07-28,9.041790962219238
2011-07-29,8.883739471435547
2011-08-01,8.800238609313965
2011-08-02,8.10838508605957
2011-08-03,8.006993293762207
2011-08-04,7.3986430168151855
2011-08-05,7.282339572906494
2011-08-08,6.682931900024414
2011-08-09,7.279356479644775
2011-08-10,7.103411674499512
2011-08-11,7.407588481903076
2011-08-12,7.383730411529541
2011-08-15,7.735621452331543
2011-08-16,7.4344258308410645
2011-08-17,7.213749408721924
2011-08-18,6.605398654937744
2011-08-19,6.351917743682861
2011-08-22,6.2773637771606445
2011-08-23,6.671003818511963
2011-08-24,7.4195170402526855
2011-08-25,7.079554557800293
2011-08-26,7.37180233001709
2011-08-29,7.932441711425781
2011-08-30,7.977174282073975
2011-08-31,8.218721389770508
2011-09-01,7.839996814727783
2011-09-02,7.410573482513428
2011-09-06,7.26444673538208
2011-09-07,7.881748199462891
2011-09-08,7.613354206085205
2011-09-09,7.33005428314209
2011-09-12,7.44635534286499
2011-09-13,7.750530242919922
2011-09-14,7.9354248046875
2011-09-15,8.072600364685059
2011-09-16,8.069624900817871
2011-09-19,7.842979431152344
2011-09-20,7.517926216125488
2011-09-21,6.933429718017578
2011-09-22,6.459273338317871
2011-09-23,6.459273338317871
2011-09-26,6.876770496368408
2011-09-27,7.058679580688477
2011-09-28,6.668023109436035
2011-09-29,6.80519962310791
2011-09-30,6.384721279144287
2011-10-03,5.94635009765625
2011-10-04,6.438399314880371
2011-10-05,6.74555778503418
2011-10-06,7.067626476287842
2011-10-07,6.882734775543213
2011-10-10,7.350927829742432
2011-10-11,7.425480365753174
2011-10-12,7.673898220062256
2011-10-13,7.5721354484558105
2011-10-14,7.940269470214844
2011-10-17,7.500307083129883
2011-10-18,7.958226680755615
2011-10-19,7.760692596435547
2011-10-20,8.033047676086426
2011-10-21,8.0779447555542
2011-10-24,8.356287956237793
2011-10-25,8.22160530090332
2011-10-26,8.056989669799805
2011-10-27,8.571781158447266
2011-10-28,8.508926391601562
2011-10-31,8.161744117736816
2011-11-01,7.742733955383301
2011-11-02,7.85945987701416
2011-11-03,8.350299835205078
2011-11-04,8.470020294189453
2011-11-07,8.553823471069336
2011-11-08,8.951883316040039
2011-11-09,8.299419403076172
2011-11-10,8.577767372131348
2011-11-11,8.91297435760498
2011-11-14,8.841142654418945
2011-11-15,8.856108665466309
2011-11-16,8.718430519104004
2011-11-17,8.368257522583008
2011-11-18,8.410160064697266
2011-11-21,8.036043167114258
2011-11-22,7.901359558105469
2011-11-23,7.473369121551514
2011-11-25,7.359638214111328
2011-11-28,7.754708766937256
2011-11-29,7.766676902770996
2011-11-30,8.553823471069336
2011-12-01,8.553823471069336
2011-12-02,8.589735984802246
2011-12-05,8.951883316040039
2011-12-06,8.874065399169922
2011-12-07,8.91297435760498
2011-12-08,8.490970611572266
2011-12-09,8.909978866577148
2011-12-12,8.616673469543457
2011-12-13,8.332343101501465
2011-12-14,8.12583065032959
2011-12-15,8.3263578414917
2011-12-16,8.559804916381836
2011-12-19,8.455056190490723
2011-12-20,8.933924674987793
2011-12-21,8.927935600280762
2011-12-22,8.963852882385254
2011-12-23,9.164380073547363
2011-12-27,9.110507011413574
2011-12-28,8.86807632446289
2011-12-29,9.074592590332031
2011-12-30,8.996773719787598
2012-01-03,9.119485855102539
2012-01-04,8.99378490447998
2012-01-05,9.002760887145996
2012-01-06,8.886034965515137
2012-01-09,9.017727851867676
2012-01-10,9.305048942565918
2012-01-11,9.473143577575684
2012-01-12,9.623225212097168
2012-01-13,9.548181533813477
2012-01-17,9.596208572387695
2012-01-18,9.653237342834473
2012-01-19,9.80031967163086
2012-01-20,9.590205192565918
2012-01-23,9.551183700561523
2012-01-24,9.500157356262207
2012-01-25,9.455131530761719
2012-01-26,9.395099639892578
2012-01-27,9.419112205505371
2012-01-30,9.485147476196289
2012-01-31,9.443123817443848
2012-02-01,9.81833267211914
2012-02-02,9.539176940917969
2012-02-03,9.878360748291016
2012-02-06,9.824333190917969
2012-02-07,9.85735034942627
2012-02-08,10.049454689025879
2012-02-09,10.082470893859863
2012-02-10,9.947399139404297
2012-02-13,10.28358268737793
2012-02-14,10.292586326599121
2012-02-15,10.067465782165527
2012-02-16,10.553729057312012
2012-02-17,10.580744743347168
2012-02-21,10.59875202178955
2012-02-22,10.74283218383789
2012-02-23,10.784854888916016
2012-02-24,10.610761642456055
2012-02-27,10.607755661010742
2012-02-28,10.643775939941406
2012-02-29,10.433666229248047
2012-03-01,10.475687026977539
2012-03-02,10.244562149047852
2012-03-05,10.175524711608887
2012-03-06,9.61722183227539
2012-03-07,9.908376693725586
2012-03-08,10.076469421386719
2012-03-09,10.175524711608887
2012-03-12,10.040448188781738
2012-03-13,10.205538749694824
2012-03-14,10.148507118225098
2012-03-15,10.499699592590332
2012-03-16,10.505705833435059
2012-03-19,10.541723251342773
2012-03-20,10.331610679626465
2012-03-21,10.36762809753418
2012-03-22,9.965409278869629
2012-03-23,10.106487274169922
2012-03-26,10.139503479003906
2012-03-27,10.013434410095215
2012-03-28,9.94439697265625
2012-03-29,9.93539047241211
2012-03-30,9.89036750793457
2012-04-02,10.049454689025879
2012-04-03,10.022439956665039
2012-04-04,9.941396713256836
2012-04-05,9.908376693725586
2012-04-09,9.626226425170898
2012-04-10,9.127957344055176
2012-04-11,9.215263366699219
2012-04-12,9.630718231201172
2012-04-13,9.444066047668457
2012-04-16,9.46513557434082
2012-04-17,9.582549095153809
2012-04-18,9.588568687438965
2012-04-19,9.380843162536621
2012-04-20,9.278483390808105
2012-04-23,8.893136024475098
2012-04-24,8.989472389221191
2012-04-25,9.215263366699219
2012-04-26,8.763683319091797
2012-04-27,9.139999389648438
2012-04-30,8.911194801330566
2012-05-01,8.938291549682617
2012-05-02,8.91420841217041
2012-05-03,8.679387092590332
2012-05-04,8.375321388244629
2012-05-07,8.348227500915527
2012-05-08,8.31511402130127
2012-05-09,8.197702407836914
2012-05-10,8.185659408569336
2012-05-11,8.095341682434082
2012-05-14,7.956856727600098
2012-05-15,7.824393272399902
2012-05-16,7.6558027267456055
2012-05-17,7.3095927238464355
2012-05-18,7.2162628173828125
2012-05-21,7.59860372543335
2012-05-22,7.586562156677246
2012-05-23,7.728057384490967
2012-05-24,7.667845249176025
2012-05-25,7.589570999145508
2012-05-29,7.746119499206543
2012-05-30,7.520328998565674
2012-05-31,7.436032772064209
2012-06-01,7.104875087738037
2012-06-04,7.234328746795654
2012-06-05,7.1951904296875
2012-06-06,7.4059295654296875
2012-06-07,7.493236541748047
2012-06-08,7.541402816772461
2012-06-11,7.159064292907715
2012-06-12,7.204221248626709
2012-06-13,7.02358865737915
2012-06-14,7.234328746795654
2012-06-15,7.050684928894043
2012-06-18,7.110894680023193
2012-06-19,7.3878655433654785
2012-06-20,7.448075294494629
2012-06-21,7.237338066101074
2012-06-22,7.33066463470459
2012-06-25,6.864030838012695
2012-06-26,6.927253246307373
2012-06-27,7.098852157592773
2012-06-28,7.110894680023193
2012-06-29,7.520328998565674
2012-07-02,7.144010066986084
2012-07-03,7.300557613372803
2012-07-05,7.411948204040527
2012-07-06,6.999505996704102
2012-07-09,6.906177997589111
2012-07-10,6.731568336486816
2012-07-11,6.6105546951293945
2012-07-12,6.870738983154297
2012-07-13,7.082519054412842
2012-07-16,6.894944190979004
2012-07-17,7.028061389923096
2012-07-18,7.140002727508545
2012-07-19,7.209586143493652
2012-07-20,7.170256614685059
2012-07-23,6.913094997406006
2012-07-24,6.816283226013184
2012-07-25,6.816283226013184
2012-07-26,8.120241165161133
2012-07-27,8.54379653930664
2012-07-30,8.456063270568848
2012-07-31,8.471186637878418
2012-08-01,8.568001747131348
2012-08-02,8.480265617370605
2012-08-03,8.568001747131348
2012-08-06,8.646663665771484
2012-08-07,8.71322250366211
2012-08-08,8.767682075500488
2012-08-09,8.725324630737305
2012-08-10,8.613385200500488
2012-08-13,8.471186637878418
2012-08-14,8.404629707336426
2012-08-15,8.474215507507324
2012-08-16,8.746501922607422
2012-08-17,8.891725540161133
2012-08-20,8.828187942504883
2012-08-21,8.846341133117676
2012-08-22,8.870543479919434
2012-08-23,8.807013511657715
2012-08-24,8.707171440124512
2012-08-27,8.561949729919434
2012-08-28,8.574050903320312
2012-08-29,8.552876472473145
2012-08-30,8.425806045532227
2012-08-31,8.574050903320312
2012-09-04,8.613385200500488
2012-09-05,8.501439094543457
2012-09-06,8.949203491210938
2012-09-07,9.369739532470703
2012-09-10,9.348565101623535
2012-09-11,9.572443008422852
2012-09-12,9.832630157470703
2012-09-13,9.95364761352539
2012-09-14,10.150300979614258
2012-09-17,10.029280662536621
2012-09-18,9.929442405700684
2012-09-19,9.88708782196045
2012-09-20,9.5089111328125
2012-09-21,9.651103973388672
2012-09-24,9.605724334716797
2012-09-25,9.360664367675781
2012-09-26,9.188212394714355
2012-09-27,9.2910795211792
2012-09-28,9.06719970703125
2012-10-01,9.079297065734863
2012-10-02,9.145859718322754
2012-10-03,9.076272964477539
2012-10-04,9.227543830871582
2012-10-05,9.436297416687012
2012-10-08,9.499835014343262
2012-10-09,9.62387466430664
2012-10-10,9.406044006347656
2012-10-11,9.360505104064941
2012-10-12,9.390867233276367
2012-10-15,9.585180282592773
2012-10-16,9.645906448364258
2012-10-17,9.761280059814453
2012-10-18,9.81896686553955
2012-10-19,9.885761260986328
2012-10-22,9.87968921661377
2012-10-23,9.727883338928223
2012-10-24,9.658049583435059
2012-10-25,9.351396560668945
2012-10-26,9.488025665283203
2012-10-31,9.497129440307617
2012-11-01,9.727883338928223
2012-11-02,9.69752025604248
2012-11-05,9.557856559753418
2012-11-06,9.733956336975098
2012-11-07,9.339253425598145
2012-11-08,9.132792472839355
2012-11-09,9.056889533996582
2012-11-12,9.13886547088623
2012-11-13,9.172262191772461
2012-11-14,8.923297882080078
2012-11-15,8.807923316955566
2012-11-16,8.829174995422363
2012-11-19,9.059925079345703
2012-11-20,9.126720428466797
2012-11-21,9.220839500427246
2012-11-23,9.381758689880371
2012-11-26,9.475878715515137
2012-11-27,9.491063117980957
2012-11-28,9.566964149475098
2012-11-29,9.621617317199707
2012-11-30,9.645906448364258
2012-12-03,9.61857795715332
2012-12-04,9.797712326049805
2012-12-05,9.894872665405273
2012-12-06,10.019351959228516
2012-12-07,10.098292350769043
2012-12-10,10.177233695983887
2012-12-11,10.395834922790527
2012-12-12,10.407986640930176
2012-12-13,10.374585151672363
2012-12-14,10.544612884521484
2012-12-17,10.675164222717285
2012-12-18,10.945382118225098
2012-12-19,10.884659767150879
2012-12-20,10.869479179382324
2012-12-21,10.842157363891602
2012-12-24,10.799647331237793
2012-12-26,10.79357624053955
2012-12-27,10.757143020629883
2012-12-28,10.669095993041992
2012-12-31,10.875553131103516
2013-01-02,11.267220497131348
2013-01-03,11.157916069030762
2013-01-04,11.13059139251709
2013-01-07,10.990925788879395
2013-01-08,11.003072738647461
2013-01-09,11.133625984191895
2013-01-10,11.170061111450195
2013-01-11,11.14570140838623
2013-01-14,11.170063018798828
2013-01-15,11.346689224243164
2013-01-16,11.355829238891602
2013-01-17,11.474591255187988
2013-01-18,11.435003280639648
2013-01-22,11.657305717468262
2013-01-23,11.907020568847656
2013-01-24,12.047101974487305
2013-01-25,11.998379707336426
2013-01-28,11.910065650939941
2013-01-29,11.970973014831543
2013-01-30,11.958792686462402
2013-01-31,12.089734077453613
2013-02-01,12.153684616088867
2013-02-04,12.0684175491333
2013-02-05,12.226774215698242
2013-02-06,12.403401374816895
2013-02-07,12.348586082458496
2013-02-08,12.424715995788574
2013-02-11,12.494755744934082
2013-02-12,12.52216625213623
2013-02-13,12.787105560302734
2013-02-14,12.79624080657959
2013-02-15,12.704882621765137
2013-02-19,13.036815643310547
2013-02-20,12.336404800415039
2013-02-21,12.576980590820312
2013-02-22,13.094677925109863
2013-02-25,12.62874984741211
2013-02-26,12.905869483947754
2013-02-27,13.237805366516113
2013-02-28,13.167763710021973
2013-03-01,13.052042961120605
2013-03-04,13.073359489440918
2013-03-05,13.28957462310791
2013-03-06,13.335253715515137
2013-03-07,13.335253715515137
2013-03-08,13.514925956726074
2013-03-11,13.648918151855469
2013-03-12,13.493610382080078
2013-03-13,13.655006408691406
2013-03-14,13.822495460510254
2013-03-15,13.725048065185547
2013-03-18,13.700688362121582
2013-03-19,13.618462562561035
2013-03-20,13.767681121826172
2013-03-21,13.490560531616211
2013-03-22,13.4722900390625
2013-03-25,13.304797172546387
2013-03-26,13.326114654541016
2013-03-27,13.511879920959473
2013-03-28,13.80422592163086
2013-04-01,13.5880126953125
2013-04-02,13.310890197753906
2013-04-03,12.729244232177734
2013-04-04,12.476486206054688
2013-04-05,12.668336868286133
2013-04-08,12.717063903808594
2013-04-09,12.781011581420898
2013-04-10,13.109903335571289
2013-04-11,13.048845291137695
2013-04-12,12.780177116394043
2013-04-15,12.105443954467773
2013-04-16,12.380220413208008
2013-04-17,12.197037696838379
2013-04-18,12.023014068603516
2013-04-19,12.221461296081543
2013-04-22,12.322210311889648
2013-04-23,12.41685676574707
2013-04-24,12.487078666687012
2013-04-25,12.691632270812988
2013-04-26,12.575616836547852
2013-04-29,12.70384407043457
2013-04-30,12.887032508850098
2013-05-01,12.282526969909668
2013-05-02,12.368008613586426
2013-05-03,12.590883255004883
2013-05-06,12.771014213562012
2013-05-07,12.981678009033203
2013-05-08,13.058003425598145
2013-05-09,12.890085220336914
2013-05-10,12.819864273071289
2013-05-13,12.517609596252441
2013-05-14,12.618361473083496
2013-05-15,12.8656587600708
2013-05-16,12.609201431274414
2013-05-17,12.786279678344727
2013-05-20,12.899243354797363
2013-05-21,13.112957954406738
2013-05-22,12.914506912231445
2013-05-23,12.874821662902832
2013-05-24,12.551194190979004
2013-05-28,12.697741508483887
2013-05-29,12.551194190979004
2013-05-30,12.679424285888672
2013-05-31,12.496234893798828
2013-06-03,12.45044231414795
2013-06-04,12.175665855407715
2013-06-05,11.678013801574707
2013-06-06,11.928364753723145
2013-06-07,12.157343864440918
2013-06-10,12.187875747680664
2013-06-11,11.88257122039795
2013-06-12,11.67190933227539
2013-06-13,11.903940200805664
2013-06-14,11.662750244140625
2013-06-17,11.732969284057617
2013-06-18,11.723810195922852
2013-06-19,11.558943748474121
2013-06-20,11.143722534179688
2013-06-21,11.082666397094727
2013-06-24,10.774304389953613
2013-06-25,11.232263565063477
2013-06-26,11.537571907043457
2013-06-27,11.830667495727539
2013-06-28,11.73602294921875
2013-07-01,11.60473918914795
2013-07-02,11.131509780883789
2013-07-03,11.073505401611328
2013-07-05,11.262796401977539
2013-07-08,10.91779613494873
2013-07-09,11.186468124389648
2013-07-10,10.914745330810547
2013-07-11,11.159883499145508
2013-07-12,11.405025482177734
2013-07-15,11.447922706604004
2013-07-16,11.227299690246582
2013-07-17,11.500011444091797
2013-07-18,11.87691593170166
2013-07-19,11.686929702758789
2013-07-22,11.763535499572754
2013-07-23,11.561297416687012
2013-07-24,11.362123489379883
2013-07-25,11.398895263671875
2013-07-26,11.450986862182617
2013-07-29,11.628710746765137
2013-07-30,11.766600608825684
2013-07-31,12.063828468322754
2013-08-01,12.498953819274902
2013-08-02,12.351866722106934
2013-08-05,12.48056411743164
2013-08-06,12.36412525177002
2013-08-07,12.20784854888916
2013-08-08,12.707314491271973
2013-08-09,12.606199264526367
2013-08-12,12.557170867919922
2013-08-13,12.468307495117188
2013-08-14,12.177206039428711
2013-08-15,12.272195816040039
2013-08-16,12.339609146118164
2013-08-19,12.315093040466309
2013-08-20,12.744087219238281
2013-08-21,12.691995620727539
2013-08-22,13.163887023925781
2013-08-23,13.145498275756836
2013-08-26,13.277259826660156
2013-08-27,12.860526084899902
2013-08-28,12.998417854309082
2013-08-29,13.114858627319336
2013-08-30,12.93713092803955
2013-09-03,12.983097076416016
2013-09-04,13.179207801818848
2013-09-05,13.20678424835205
2013-09-06,13.301773071289062
2013-09-09,13.709314346313477
2013-09-10,13.853334426879883
2013-09-11,13.795113563537598
2013-09-12,13.715442657470703
2013-09-13,13.767536163330078
2013-09-16,13.905425071716309
2013-09-17,13.899295806884766
2013-09-18,14.147502899169922
2013-09-19,14.049442291259766
2013-09-20,13.933004379272461
2013-09-23,13.776726722717285
2013-09-24,13.847210884094238
2013-09-25,13.81962776184082
2013-09-26,13.899295806884766
2013-09-27,13.85639762878418
2013-09-30,13.896230697631836
2013-10-01,14.052508354187012
2013-10-02,14.132180213928223
2013-10-03,14.000414848327637
2013-10-04,13.7920503616333
2013-10-07,13.430471420288086
2013-10-08,13.353866577148438
2013-10-09,13.369187355041504
2013-10-10,13.679742813110352
2013-10-11,13.858083724975586
2013-10-14,13.962623596191406
2013-10-15,13.925728797912598
2013-10-16,13.845784187316895
2013-10-17,13.928805351257324
2013-10-18,14.036419868469238
2013-10-21,14.057943344116211
2013-10-22,14.162483215332031
2013-10-23,14.254731178283691
2013-10-24,14.485340118408203
2013-10-25,14.534534454345703
2013-10-28,14.577587127685547
2013-10-29,14.503787994384766
2013-10-30,14.239357948303223
2013-10-31,15.567665100097656
2013-11-01,16.121137619018555
2013-11-04,16.52392578125
2013-11-05,16.336368560791016
2013-11-06,16.3271427154541
2013-11-07,15.78597640991211
2013-11-08,16.136505126953125
2013-11-11,16.450136184692383
2013-11-12,16.41630744934082
2013-11-13,16.994369506835938
2013-11-14,17.39101791381836
2013-11-15,17.418689727783203
2013-11-18,16.92365074157715
2013-11-19,16.339439392089844
2013-11-20,16.4593505859375
2013-11-21,15.576892852783203
2013-11-22,15.730632781982422
2013-11-25,15.758306503295898
2013-11-26,15.829022407531738
2013-11-27,16.01658821105957
2013-11-29,15.961237907409668
2013-12-02,15.948945045471191
2013-12-03,15.632234573364258
2013-12-04,15.337059020996094
2013-12-05,15.229437828063965
2013-12-06,15.33090591430664
2013-12-09,15.389330863952637
2013-12-10,15.86591911315918
2013-12-11,15.552292823791504
2013-12-12,15.539993286132812
2013-12-13,15.86591911315918
2013-12-16,16.16109848022461
2013-12-17,16.43475341796875
2013-12-18,16.689966201782227
2013-12-19,16.81910514831543
2013-12-20,17.065088272094727
2013-12-23,17.06202507019043
2013-12-24,17.092763900756836
2013-12-26,17.05893898010254
2013-12-27,17.12043571472168
2013-12-30,16.99744415283203
2013-12-31,16.76375961303711
2014-01-02,16.64999771118164
2014-01-03,16.895980834960938
2014-01-06,16.64999771118164
2014-01-07,16.7852783203125
2014-01-08,16.782209396362305
2014-01-09,16.88368034362793
2014-01-10,17.25572395324707
2014-01-13,17.0769100189209
2014-01-14,17.493122100830078
2014-01-15,17.471546173095703
2014-01-16,17.844587326049805
2014-01-17,18.12206268310547
2014-01-21,17.977163314819336
2014-01-22,18.094316482543945
2014-01-23,18.56293296813965
2014-01-24,17.779844284057617
2014-01-27,17.699687957763672
2014-01-28,17.844587326049805
2014-01-29,17.6657772064209
2014-01-30,18.242300033569336
2014-01-31,17.952489852905273
2014-02-03,17.101573944091797
2014-02-04,17.465373992919922
2014-02-05,17.329721450805664
2014-02-06,17.650358200073242
2014-02-07,17.964818954467773
2014-02-10,18.054231643676758
2014-02-11,18.211469650268555
2014-02-12,18.35945701599121
2014-02-13,18.544435501098633
2014-02-14,18.59684944152832
2014-02-18,18.68317222595215
2014-02-19,18.729415893554688
2014-02-20,20.628568649291992
2014-02-21,20.98928451538086
2014-02-24,21.2760009765625
2014-02-25,21.109521865844727
2014-02-26,21.87411117553711
2014-02-27,21.753873825073242
2014-02-28,22.139253616333008
2014-03-03,21.957353591918945
2014-03-04,22.410558700561523
2014-03-05,22.536964416503906
2014-03-06,22.706531524658203
2014-03-07,22.98092269897461
2014-03-10,22.487638473510742
2014-03-11,22.308815002441406
2014-03-12,22.376649856567383
2014-03-13,22.089923858642578
2014-03-14,22.194744110107422
2014-03-17,22.475305557250977
2014-03-18,22.805191040039062
2014-03-19,22.503047943115234
2014-03-20,22.826770782470703
2014-03-21,23.008668899536133
2014-03-24,22.746610641479492
2014-03-25,22.580127716064453
2014-03-26,22.17317008972168
2014-03-27,21.34999656677246
2014-03-28,21.843284606933594
2014-03-31,22.21940803527832
2014-04-01,22.237905502319336
2014-04-02,22.57396125793457
2014-04-03,22.247159957885742
2014-04-04,21.692214965820312
2014-04-07,21.09410858154297
2014-04-08,21.121856689453125
2014-04-09,21.806289672851562
2014-04-10,21.263669967651367
2014-04-11,20.899085998535156
2014-04-14,21.161712646484375
2014-04-15,21.344011306762695
2014-04-16,22.014484405517578
2014-04-17,21.884714126586914
2014-04-21,21.992856979370117
2014-04-22,22.527385711669922
2014-04-23,22.36980438232422
2014-04-24,23.19476890563965
2014-04-25,22.589183807373047
2014-04-28,22.131895065307617
2014-04-29,22.397615432739258
2014-04-30,23.191679000854492
2014-05-01,22.953765869140625
2014-05-02,23.56863021850586
2014-05-05,23.846708297729492
2014-05-06,23.99810791015625
2014-05-07,24.149505615234375
2014-05-08,24.198942184448242
2014-05-09,24.208208084106445
2014-05-12,24.838518142700195
2014-05-13,25.064075469970703
2014-05-14,25.073341369628906
2014-05-15,24.81998062133789
2014-05-16,25.054800033569336
2014-05-19,25.468828201293945
2014-05-20,25.196929931640625
2014-05-21,25.397764205932617
2014-05-22,25.768535614013672
2014-05-23,26.275251388549805
2014-05-27,26.46063995361328
2014-05-28,26.578048706054688
2014-05-29,27.029150009155273
2014-05-30,26.735628128051758
2014-06-02,26.7232666015625
2014-06-03,25.190752029418945
2014-06-04,24.798349380493164
2014-06-05,24.78908348083496
2014-06-06,25.595508575439453
2014-06-09,25.67275619506836
2014-06-10,25.527528762817383
2014-06-11,25.385406494140625
2014-06-12,25.230918884277344
2014-06-13,25.14131736755371
2014-06-16,26.10840606689453
2014-06-17,25.92302131652832
2014-06-18,26.265987396240234
2014-06-19,26.312334060668945
2014-06-20,26.096050262451172
2014-06-23,26.2567195892334
2014-06-24,25.762351989746094
2014-06-25,26.726362228393555
2014-06-26,26.584228515625
2014-06-27,26.621299743652344
2014-06-30,27.016796112060547
2014-07-01,27.047693252563477
2014-07-02,27.733617782592773
2014-07-03,27.73979377746582
2014-07-07,27.331945419311523
2014-07-08,27.16510009765625
2014-07-09,27.517332077026367
2014-07-10,27.270151138305664
2014-07-11,27.46215057373047
2014-07-14,27.697505950927734
2014-07-15,27.52408218383789
2014-07-16,27.36305046081543
2014-07-17,26.917118072509766
2014-07-18,27.858539581298828
2014-07-21,27.555051803588867
2014-07-22,27.88331413269043
2014-07-23,27.94524383544922
2014-07-24,28.168216705322266
2014-07-25,28.08769989013672
2014-07-28,27.889501571655273
2014-07-29,27.88331413269043
2014-07-30,28.31686019897461
2014-07-31,27.02860450744629
2014-08-01,27.208213806152344
2014-08-04,27.146278381347656
2014-08-05,26.842798233032227
2014-08-06,25.8580265045166
2014-08-07,25.740346908569336
2014-08-08,26.33492088317871
2014-08-11,26.842798233032227
2014-08-12,26.32253646850586
2014-08-13,27.0843448638916
2014-08-14,27.350664138793945
2014-08-15,27.301118850708008
2014-08-18,28.093889236450195
2014-08-19,28.59557342529297
2014-08-20,29.27066993713379
2014-08-21,29.43789291381836
2014-08-22,29.840469360351562
2014-08-25,30.069625854492188
2014-08-26,30.0076961517334
2014-08-27,30.181106567382812
2014-08-28,29.735177993774414
2014-08-29,29.964338302612305
2014-09-02,30.757118225097656
2014-09-03,30.54033660888672
2014-09-04,30.1749267578125
2014-09-05,30.03245735168457
2014-09-08,30.106792449951172
2014-09-09,29.66705322265625
2014-09-10,29.25208282470703
2014-09-11,29.648468017578125
2014-09-12,29.35117530822754
2014-09-15,28.936208724975586
2014-09-16,29.80329704284668
2014-09-17,30.199695587158203
2014-09-18,30.98627281188965
2014-09-19,31.153507232666016
2014-09-22,29.989112854003906
2014-09-23,29.43789291381836
2014-09-24,29.81569480895996
2014-09-25,29.68563461303711
2014-09-26,29.642271041870117
2014-09-29,29.301631927490234
2014-09-30,28.936208724975586
2014-10-01,26.70653533935547
2014-10-02,25.721763610839844
2014-10-03,25.647445678710938
2014-10-06,25.504989624023438
2014-10-07,24.45828628540039
2014-10-08,24.52641487121582
2014-10-09,23.002803802490234
2014-10-10,21.841480255126953
2014-10-13,20.637460708618164
2014-10-14,20.99908447265625
2014-10-15,20.668636322021484
2014-10-16,21.728561401367188
2014-10-17,22.495460510253906
2014-10-20,19.720930099487305
2014-10-21,21.379409790039062
2014-10-22,21.211071014404297
2014-10-23,22.732379913330078
2014-10-24,22.15877342224121
2014-10-27,21.87196922302246
2014-10-28,23.112712860107422
2014-10-29,21.41058921813965
2014-10-30,21.516584396362305
2014-10-31,22.264766693115234
2014-11-03,21.928081512451172
2014-11-04,21.142486572265625
2014-11-05,21.27342414855957
2014-11-06,21.853269577026367
2014-11-07,22.258527755737305
2014-11-10,22.458049774169922
2014-11-11,22.433103561401367
2014-11-12,22.48298454284668
2014-11-13,22.15877342224121
2014-11-14,22.015369415283203
2014-11-17,22.115127563476562
2014-11-18,22.002899169921875
2014-11-19,21.666217803955078
2014-11-20,21.82209587097168
2014-11-21,22.121362686157227
2014-11-24,22.72614860534668
2014-11-25,22.670034408569336
2014-11-26,22.526634216308594
2014-11-28,19.989036560058594
2014-12-01,19.003923416137695
2014-12-02,19.4029541015625
2014-12-03,19.78951644897461
2014-12-04,19.708471298217773
2014-12-05,19.7334041595459
2014-12-08,18.767000198364258
2014-12-09,18.5861873626709
2014-12-10,17.407798767089844
2014-12-11,17.370384216308594
2014-12-12,16.82794952392578
2014-12-15,16.566085815429688
2014-12-16,16.75313377380371
2014-12-17,17.538721084594727
2014-12-18,17.707067489624023
2014-12-19,17.407798767089844
2014-12-22,17.245685577392578
2014-12-23,17.69460105895996
2014-12-24,17.738239288330078
2014-12-26,18.037517547607422
2014-12-29,18.09363555908203
2014-12-30,17.551193237304688
2014-12-31,17.463905334472656
2015-01-02,17.632247924804688
2015-01-05,16.92146873474121
2015-01-06,16.55361557006836
2015-01-07,16.728187561035156
2015-01-08,16.958881378173828
2015-01-09,16.75936508178711
2015-01-12,16.167049407958984
2015-01-13,15.998055458068848
2015-01-14,15.710142135620117
2015-01-15,15.503589630126953
2015-01-16,15.9855375289917
2015-01-20,15.778990745544434
2015-01-21,16.217119216918945
2015-01-22,16.523815155029297
2015-01-23,16.37359046936035
2015-01-26,17.437631607055664
2015-01-27,17.443885803222656
2015-01-28,16.680282592773438
2015-01-29,16.943164825439453
2015-01-30,16.567625045776367
2015-02-02,16.674026489257812
2015-02-03,17.819427490234375
2015-02-04,17.406335830688477
2015-02-05,17.794395446777344
2015-02-06,18.101083755493164
2015-02-09,18.345186233520508
2015-02-10,18.182445526123047
2015-02-11,18.22626304626465
2015-02-12,18.439071655273438
2015-02-13,18.64561653137207
2015-02-17,18.91475486755371
2015-02-18,18.864683151245117
2015-02-19,20.204116821289062
2015-02-20,20.573396682739258
2015-02-23,20.823753356933594
2015-02-24,21.14922523498535
2015-02-25,20.999008178710938
2015-02-26,21.080373764038086
2015-02-27,21.042829513549805
2015-03-02,21.418359756469727
2015-03-03,21.124189376831055
2015-03-04,20.517066955566406
2015-03-05,20.160303115844727
2015-03-06,19.97879409790039
2015-03-09,19.866127014160156
2015-03-10,18.64561653137207
2015-03-11,19.884902954101562
2015-03-12,20.573396682739258
2015-03-13,21.243112564086914
2015-03-16,20.936416625976562
2015-03-17,21.39958381652832
2015-03-18,21.750093460083008
2015-03-19,21.280662536621094
2015-03-20,22.08182144165039
2015-03-23,22.08182144165039
2015-03-24,22.288366317749023
2015-03-25,21.88153076171875
2015-03-26,21.524765014648438
2015-03-27,21.706275939941406
2015-03-30,22.100597381591797
2015-03-31,22.225778579711914
2015-04-01,21.85649299621582
2015-04-02,21.99419593811035
2015-04-06,22.469881057739258
2015-04-07,22.144411087036133
2015-04-08,22.20699691772461
2015-04-09,22.38224983215332
2015-04-10,22.41980743408203
2015-04-13,22.43863296508789
2015-04-14,22.545333862304688
2015-04-15,23.097665786743164
2015-04-16,22.765012741088867
2015-04-17,22.419803619384766
2015-04-20,22.940753936767578
2015-04-21,22.75246238708496
2015-04-22,20.599607467651367
2015-04-23,20.93854522705078
2015-04-24,18.013675689697266
2015-04-27,17.65591049194336
2015-04-28,17.70612335205078
2015-04-29,17.618249893188477
2015-04-30,17.003150939941406
2015-05-01,18.176864624023438
2015-05-04,17.98856544494629
2015-05-05,18.239625930786133
2015-05-06,18.201967239379883
2015-05-07,18.80451774597168
2015-05-08,19.06185531616211
2015-05-11,19.300363540649414
2015-05-12,19.112070083618164
2015-05-13,19.394515991210938
2015-05-14,19.181106567382812
2015-05-15,19.300363540649414
2015-05-18,19.53887176513672
2015-05-19,19.275259017944336
2015-05-20,19.381959915161133
2015-05-21,19.689510345458984
2015-05-22,19.72089385986328
2015-05-26,18.948875427246094
2015-05-27,19.300363540649414
2015-05-28,18.91749382019043
2015-05-29,18.82334327697754
2015-06-01,18.647602081298828
2015-06-02,19.068134307861328
2015-06-03,19.268980026245117
2015-06-04,19.06185531616211
2015-06-05,19.26270294189453
2015-06-08,18.854724884033203
2015-06-09,18.34632682800293
2015-06-10,18.578561782836914
2015-06-11,18.861003875732422
2015-06-12,18.955150604248047
2015-06-15,18.83589744567871
2015-06-16,18.32122039794922
2015-06-17,18.42792510986328
2015-06-18,18.641324996948242
2015-06-19,18.528350830078125
2015-06-22,18.47185516357422
2015-06-23,19.03675079345703
2015-06-24,18.57227897644043
2015-06-25,17.63080596923828
2015-06-26,17.09729766845703
2015-06-29,16.858789443969727
2015-06-30,16.588897705078125
2015-07-01,16.50730323791504
2015-07-02,16.187198638916016
2015-07-06,15.879650115966797
2015-07-07,15.90475845336914
2015-07-08,15.308481216430664
2015-07-09,15.804327011108398
2015-07-10,15.992630958557129
2015-07-13,16.276290893554688
2015-07-14,16.257383346557617
2015-07-15,16.269990921020508
2015-07-16,16.50322723388672
2015-07-17,16.28260040283203
2015-07-20,16.244775772094727
2015-07-21,16.57256507873535
2015-07-22,16.471712112426758
2015-07-23,16.370845794677734
2015-07-24,17.22815704345703
2015-07-27,17.845924377441406
2015-07-28,17.915267944335938
2015-07-29,18.77887725830078
2015-07-30,18.703237533569336
2015-07-31,18.444782257080078
2015-08-03,17.763980865478516
2015-08-04,17.650514602661133
2015-08-05,17.442493438720703
2015-08-06,17.455095291137695
2015-08-07,16.906673431396484
2015-08-10,17.87114143371582
2015-08-11,17.81440544128418
2015-08-12,17.845924377441406
2015-08-13,17.656814575195312
2015-08-14,17.902658462524414
2015-08-17,17.852230072021484
2015-08-18,17.694637298583984
2015-08-19,17.38575553894043
2015-08-20,16.339326858520508
2015-08-21,15.835028648376465
2015-08-24,14.908376693725586
2015-08-25,14.813821792602539
2015-08-26,15.387463569641113
2015-08-27,16.263683319091797
2015-08-28,16.862537384033203
2015-08-31,17.013832092285156
2015-09-01,16.471712112426758
2015-09-02,16.553651809692383
2015-09-03,16.553651809692383
2015-09-04,16.635604858398438
2015-09-08,16.831018447875977
2015-09-09,16.559961318969727
2015-09-10,16.591480255126953
2015-09-11,16.53474235534668
2015-09-14,16.3015079498291
2015-09-15,16.93819236755371
2015-09-16,17.7198543548584
2015-09-17,17.53074073791504
2015-09-18,16.704944610595703
2015-09-21,16.043054580688477
2015-09-22,15.31181526184082
2015-09-23,15.103795051574707
2015-09-24,15.173135757446289
2015-09-25,15.185742378234863
2015-09-28,14.700353622436523
2015-09-29,14.435592651367188
2015-09-30,14.290607452392578
2015-10-01,14.101494789123535
2015-10-02,14.486023902893066
2015-10-05,15.475713729858398
2015-10-06,15.721565246582031
2015-10-07,16.28260040283203
2015-10-08,17.00752830505371
2015-10-09,17.127294540405273
2015-10-12,17.102081298828125
2015-10-13,17.140060424804688
2015-10-14,17.545141220092773
2015-10-15,17.53247833251953
2015-10-16,16.823585510253906
2015-10-19,16.741300582885742
2015-10-20,17.00714111328125
2015-10-21,16.42483139038086
2015-10-22,16.53876304626465
2015-10-23,17.45652961730957
2015-10-26,17.095752716064453
2015-10-27,16.057727813720703
2015-10-28,16.380525588989258
2015-10-29,16.298246383666992
2015-10-30,17.133726119995117
2015-11-02,17.386905670166016
2015-11-03,17.633752822875977
2015-11-04,17.133726119995117
2015-11-05,17.03878402709961
2015-11-06,17.367916107177734
2015-11-09,16.937517166137695
2015-11-10,16.98815155029297
2015-11-11,17.247655868530273
2015-11-12,16.222291946411133
2015-11-13,16.158998489379883
2015-11-16,16.393192291259766
2015-11-17,16.24760627746582
2015-11-18,16.62737464904785
2015-11-19,16.84890365600586
2015-11-20,16.640033721923828
2015-11-23,16.48179817199707
2015-11-24,17.045114517211914
2015-11-25,17.070436477661133
2015-11-27,17.076765060424805
2015-11-30,17.18436050415039
2015-12-01,17.26032066345215
2015-12-02,16.98815155029297
2015-12-03,16.298246383666992
2015-12-04,16.31723403930664
2015-12-07,15.405797004699707
2015-12-08,15.196924209594727
2015-12-09,15.101984024047852
2015-12-10,15.431109428405762
2015-12-11,14.994386672973633
2015-12-14,15.07033634185791
2015-12-15,15.260220527648926
2015-12-16,15.158953666687012
2015-12-17,15.07033634185791
2015-12-18,14.874126434326172
2015-12-21,14.950079917907715
2015-12-22,15.500738143920898
2015-12-23,16.095703125
2015-12-24,16.11469078063965
2015-12-28,15.469090461730957
2015-12-29,15.557703971862793
2015-12-30,15.27287769317627
2015-12-31,15.203256607055664
2016-01-04,15.393138885498047
2016-01-05,14.817159652709961
2016-01-06,14.532336235046387
2016-01-07,13.779138565063477
2016-01-08,13.519632339477539
2016-01-11,13.412031173706055
2016-01-12,13.10189151763916
2016-01-13,12.70100212097168
2016-01-14,12.790087699890137
2016-01-15,12.732817649841309
2016-01-19,12.039226531982422
2016-01-20,12.121949195861816
2016-01-21,12.427384376525879
2016-01-22,12.815543174743652
2016-01-25,12.561014175415039
2016-01-26,13.222786903381348
2016-01-27,13.025527000427246
2016-01-28,13.08915901184082
2016-01-29,13.630035400390625
2016-02-01,13.712757110595703
2016-02-02,13.420047760009766
2016-02-03,13.630035400390625
2016-02-04,14.323627471923828
2016-02-05,14.088188171386719
2016-02-08,13.871838569641113
2016-02-09,13.73184585571289
2016-02-10,13.591856002807617
2016-02-11,13.292783737182617
2016-02-12,13.642760276794434
2016-02-16,13.776389122009277
2016-02-17,14.024553298950195
2016-02-18,13.43913745880127
2016-02-19,10.45478343963623
2016-02-22,10.416606903076172
2016-02-23,10.009357452392578
2016-02-24,9.952089309692383
2016-02-25,10.028448104858398
2016-02-26,10.08571720123291
2016-02-29,10.079352378845215
2016-03-01,10.36569881439209
2016-03-02,10.327519416809082
2016-03-03,11.008384704589844
2016-03-04,10.798396110534668
2016-03-07,11.765610694885254
2016-03-08,11.53653335571289
2016-03-09,11.727429389953613
2016-03-10,11.485623359680176
2016-03-11,12.090132713317871
2016-03-14,11.778334617614746
2016-03-15,11.447444915771484
2016-03-16,11.854696273803711
2016-03-17,12.160130500793457
2016-03-18,12.223761558532715
2016-03-21,12.312844276428223
2016-03-22,12.363752365112305
2016-03-23,11.663799285888672
2016-03-24,11.784696578979492
2016-03-28,11.530167579650879
2016-03-29,11.822879791259766
2016-03-30,11.657435417175293
2016-03-31,11.651069641113281
2016-04-01,11.593803405761719
2016-04-04,11.294730186462402
2016-04-05,11.37745189666748
2016-04-06,11.61289119720459
2016-04-07,11.434720993041992
2016-04-08,11.6956148147583
2016-04-11,11.829240798950195
2016-04-12,12.230123519897461
2016-04-13,12.716507911682129
2016-04-14,12.588512420654297
2016-04-15,12.569311141967773
2016-04-18,12.364520072937012
2016-04-19,12.204521179199219
2016-04-20,12.26852035522461
2016-04-21,11.890928268432617
2016-04-22,12.75490951538086
2016-04-25,12.319718360900879
2016-04-26,12.67811107635498
2016-04-27,12.735711097717285
2016-04-28,12.671710968017578
2016-04-29,12.486116409301758
2016-05-02,12.26211929321289
2016-05-03,11.750131607055664
2016-05-04,11.487736701965332
2016-05-05,11.218945503234863
2016-05-06,11.289342880249023
2016-05-09,10.988548278808594
2016-05-10,11.455739974975586
2016-05-11,11.31494140625
2016-05-12,11.065347671508789
2016-05-13,10.905349731445312
2016-05-16,10.89894962310791
2016-05-17,11.218945503234863
2016-05-18,10.828554153442383
2016-05-19,10.70695686340332
2016-05-20,11.033349990844727
2016-05-23,10.969348907470703
2016-05-24,11.046147346496582
2016-05-25,11.558135986328125
2016-05-26,11.487736701965332
2016-05-27,11.590134620666504
2016-05-31,11.558135986328125
2016-06-01,11.596535682678223
2016-06-02,11.500537872314453
2016-06-03,11.436539649963379
2016-06-06,11.948526382446289
2016-06-07,12.025325775146484
2016-06-08,12.127723693847656
2016-06-09,12.063725471496582
2016-06-10,11.666933059692383
2016-06-13,11.577335357666016
2016-06-14,11.609336853027344
2016-06-15,11.743732452392578
2016-06-16,11.545337677001953
2016-06-17,12.121321678161621
2016-06-20,12.044526100158691
2016-06-21,12.159722328186035
2016-06-22,12.14692211151123
2016-06-23,12.441316604614258
2016-06-24,11.89732837677002
2016-06-27,11.058948516845703
2016-06-28,11.353342056274414
2016-06-29,11.750131607055664
2016-06-30,11.884529113769531
2016-07-01,12.274921417236328
2016-07-05,12.172521591186523
2016-07-06,11.974125862121582
2016-07-07,12.26852035522461
2016-07-08,12.614112854003906
2016-07-11,12.927704811096191
2016-07-12,13.375693321228027
2016-07-13,13.227716445922852
2016-07-14,13.427160263061523
2016-07-15,13.285618782043457
2016-07-18,13.485063552856445
2016-07-19,13.42072868347168
2016-07-20,13.562271118164062
2016-07-21,13.497930526733398
2016-07-22,14.128437995910645
2016-07-25,13.317788124084473
2016-07-26,13.697376251220703
2016-07-27,13.568702697753906
2016-07-28,13.491496086120605
2016-07-29,14.932650566101074
2016-08-01,14.739642143249512
2016-08-02,14.617400169372559
2016-08-03,14.791110038757324
2016-08-04,14.765376091003418
2016-08-05,15.087057113647461
2016-08-08,15.363710403442383
2016-08-09,14.971251487731934
2016-08-10,14.939085960388184
2016-08-11,14.945520401000977
2016-08-12,14.939085960388184
2016-08-15,15.228602409362793
2016-08-16,15.370141983032227
2016-08-17,15.415180206298828
2016-08-18,15.685395240783691
2016-08-19,15.87197208404541
2016-08-22,15.814069747924805
2016-08-23,16.116453170776367
2016-08-24,15.833372116088867
2016-08-25,15.801201820373535
2016-08-26,15.736865043640137
2016-08-29,15.7561674118042
2016-08-30,15.781901359558105
2016-08-31,15.71113109588623
2016-09-01,15.473079681396484
2016-09-02,15.601754188537598
2016-09-06,15.569583892822266
2016-09-07,15.646796226501465
2016-09-08,15.71756362915039
2016-09-09,15.33797550201416
2016-09-12,15.395878791809082
2016-09-13,15.074191093444824
2016-09-14,14.958385467529297
2016-09-15,15.067760467529297
2016-09-16,15.312240600585938
2016-09-19,15.241469383239746
2016-09-20,15.112793922424316
2016-09-21,15.48595142364502
2016-09-22,15.781901359558105
2016-09-23,15.440916061401367
2016-09-26,15.331539154052734
2016-09-27,15.33797550201416
2016-09-28,15.633927345275879
2016-09-29,15.453781127929688
2016-09-30,15.556723594665527
2016-10-03,15.646796226501465
2016-10-04,15.421613693237305
2016-10-05,15.94274616241455
2016-10-06,15.929875373840332
2016-10-07,15.653225898742676
2016-10-10,15.550284385681152
2016-10-11,15.106359481811523
2016-10-12,15.04818344116211
2016-10-13,14.873652458190918
2016-10-14,14.886579513549805
2016-10-17,14.802547454833984
2016-10-18,14.951221466064453
2016-10-19,15.29381275177002
2016-10-20,15.002933502197266
2016-10-21,15.151606559753418
2016-10-24,15.067571640014648
2016-10-25,14.498740196228027
2016-10-26,14.408246040344238
2016-10-27,14.149686813354492
2016-10-28,13.580854415893555
2016-10-31,13.800630569458008
2016-11-01,13.839414596557617
2016-11-02,13.580854415893555
2016-11-03,13.626103401184082
2016-11-04,13.916982650756836
2016-11-07,14.485814094543457
2016-11-08,14.628022193908691
2016-11-09,16.17938232421875
2016-11-10,17.15544319152832
2016-11-11,17.329971313476562
2016-11-14,17.575603485107422
2016-11-15,17.44632339477539
2016-11-16,16.871028900146484
2016-11-17,16.812849044799805
2016-11-18,16.793460845947266
2016-11-21,16.967988967895508
2016-11-22,17.15544319152832
2016-11-23,17.614389419555664
2016-11-25,17.69195556640625
2016-11-28,17.646709442138672
2016-11-29,17.426931381225586
2016-11-30,17.963441848754883
2016-12-01,18.137968063354492
2016-12-02,18.21554183959961
2016-12-05,18.09918975830078
2016-12-06,18.499954223632812
2016-12-07,18.900720596313477
2016-12-08,18.448240280151367
2016-12-09,18.312498092651367
2016-12-12,18.20261001586914
2016-12-13,18.002227783203125
2016-12-14,17.743669509887695
2016-12-15,18.073331832885742
2016-12-16,18.209074020385742
2016-12-19,18.3189640045166
2016-12-20,18.635696411132812
2016-12-21,18.344820022583008
2016-12-22,18.36421012878418
2016-12-23,18.57105827331543
2016-12-27,18.49349021911621
2016-12-28,18.144439697265625
2016-12-29,18.137968063354492
2016-12-30,17.944055557250977
2017-01-03,18.118579864501953
2017-01-04,18.390060424804688
2017-01-05,17.840625762939453
2017-01-06,18.551668167114258
2017-01-09,18.157363891601562
2017-01-10,18.209074020385742
2017-01-11,18.286945343017578
2017-01-12,18.131200790405273
2017-01-13,18.260988235473633
2017-01-17,17.878114700317383
2017-01-18,17.8975887298584
2017-01-19,18.462148666381836
2017-01-20,18.48811149597168
2017-01-23,18.072795867919922
2017-01-24,18.514070510864258
2017-01-25,18.942365646362305
2017-01-26,18.520559310913086
2017-01-27,18.50758171081543
2017-01-30,18.001413345336914
2017-01-31,17.87162971496582
2017-02-01,18.02737045288086
2017-02-02,17.8975887298584
2017-02-03,18.332368850708008
2017-02-06,17.8975887298584
2017-02-07,17.748329162597656
2017-02-08,17.715883255004883
2017-02-09,18.072795867919922
2017-02-10,18.235029220581055
2017-02-13,18.26747703552246
2017-02-14,18.241519927978516
2017-02-15,18.5010929107666
2017-02-16,18.338855743408203
2017-02-17,18.715246200561523
2017-02-21,17.80024528503418
2017-02-22,17.76779556274414
2017-02-23,17.508222579956055
2017-02-24,17.748329162597656
2017-02-27,17.962480545043945
2017-02-28,17.417373657226562
2017-03-01,17.813222885131836
2017-03-02,17.203224182128906
2017-03-03,17.423864364624023
2017-03-06,17.391414642333984
2017-03-07,17.203224182128906
2017-03-08,16.995569229125977
2017-03-09,16.755464553833008
2017-03-10,16.839820861816406
2017-03-13,16.839820861816406
2017-03-14,16.619184494018555
2017-03-15,17.339502334594727
2017-03-16,17.06045913696289
2017-03-17,17.76779556274414
2017-03-20,17.410884857177734
2017-03-21,16.917692184448242
2017-03-22,16.833335876464844
2017-03-23,17.002056121826172
2017-03-24,16.78790855407715
2017-03-27,16.599714279174805
2017-03-28,17.028017044067383
2017-03-29,17.028017044067383
2017-03-30,17.30056381225586
2017-03-31,17.229185104370117
2017-04-03,17.138334274291992
2017-04-04,17.183757781982422
2017-04-05,17.157800674438477
2017-04-06,17.547161102294922
2017-04-07,17.631521224975586
2017-04-10,17.631521224975586
2017-04-11,17.85956573486328
2017-04-12,17.225830078125
2017-04-13,16.721311569213867
2017-04-17,16.806488037109375
2017-04-18,16.826147079467773
2017-04-19,16.898216247558594
2017-04-20,17.31755828857422
2017-04-21,17.120990753173828
2017-04-24,17.533782958984375
2017-04-25,17.533782958984375
2017-04-26,18.06451416015625
2017-04-27,17.59275245666504
2017-04-28,17.625516891479492
2017-05-01,17.73035430908203
2017-05-02,17.920368194580078
2017-05-03,17.704145431518555
2017-05-04,17.559995651245117
2017-05-05,17.769664764404297
2017-05-08,17.63861846923828
2017-05-09,17.789318084716797
2017-05-10,17.933469772338867
2017-05-11,17.835189819335938
2017-05-12,17.625516891479492
2017-05-15,17.802427291870117
2017-05-16,17.632064819335938
2017-05-17,17.1865177154541
2017-05-18,16.9637393951416
2017-05-19,17.402740478515625
2017-05-22,17.442052841186523
2017-05-23,17.55344009399414
2017-05-24,17.369979858398438
2017-05-25,17.07512855529785
2017-05-26,16.97684669494629
2017-05-30,16.813039779663086
2017-05-31,16.721311569213867
2017-06-01,17.08167839050293
2017-06-02,17.212722778320312
2017-06-05,17.022706985473633
2017-06-06,16.858901977539062
2017-06-07,16.701648712158203
2017-06-08,17.042367935180664
2017-06-09,17.402740478515625
2017-06-12,17.645174026489258
2017-06-13,17.822084426879883
2017-06-14,17.559995651245117
2017-06-15,17.507572174072266
2017-06-16,17.540332794189453
2017-06-19,17.704145431518555
2017-06-20,17.448606491088867
2017-06-21,17.173410415649414
2017-06-22,17.38963508605957
2017-06-23,17.566545486450195
2017-06-26,17.822084426879883
2017-06-27,17.887605667114258
2017-06-28,18.575590133666992
2017-06-29,18.496963500976562
2017-06-30,18.36591911315918
2017-07-03,18.569040298461914
2017-07-05,18.490407943725586
2017-07-06,18.130037307739258
2017-07-07,18.26763343811035
2017-07-10,18.149694442749023
2017-07-11,18.077617645263672
2017-07-12,18.084197998046875
2017-07-13,18.051284790039062
2017-07-14,18.031536102294922
2017-07-17,18.229034423828125
2017-07-18,18.202701568603516
2017-07-19,18.48577880859375
2017-07-20,18.367279052734375
2017-07-21,18.31461524963379
2017-07-24,18.38703155517578
2017-07-25,18.531862258911133
2017-07-26,17.748456954956055
2017-07-27,18.169782638549805
2017-07-28,18.064456939697266
2017-07-31,18.044702529907227
2017-08-01,18.235614776611328
2017-08-02,18.031536102294922
2017-08-03,18.176366806030273
2017-08-04,18.577945709228516
2017-08-07,18.887357711791992
2017-08-08,18.874191284179688
2017-08-09,18.972938537597656
2017-08-10,18.768861770629883
2017-08-11,18.814945220947266
2017-08-14,18.874191284179688
2017-08-15,18.874191284179688
2017-08-16,18.782024383544922
2017-08-17,18.58452606201172
2017-08-18,18.564775466918945
2017-08-21,18.50552749633789
2017-08-22,18.808361053466797
2017-08-23,18.98611068725586
2017-08-24,18.91368865966797
2017-08-25,19.104604721069336
2017-08-28,18.920276641845703
2017-08-29,18.874191284179688
2017-08-30,18.907108306884766
2017-08-31,18.98611068725586
2017-09-01,19.460100173950195
2017-09-05,19.216520309448242
2017-09-06,19.019023895263672
2017-09-07,18.775442123413086
2017-09-08,18.920276641845703
2017-09-11,19.256019592285156
2017-09-12,19.532516479492188
2017-09-13,19.40085220336914
2017-09-14,19.321853637695312
2017-09-15,19.460100173950195
2017-09-18,19.52593231201172
2017-09-19,19.545682907104492
2017-09-20,20.052593231201172
2017-09-21,19.934099197387695
2017-09-22,19.881431579589844
2017-09-25,20.013093948364258
2017-09-26,20.006511688232422
2017-09-27,20.342252731323242
2017-09-28,20.526592254638672
2017-09-29,21.00058364868164
2017-10-02,23.24547004699707
2017-10-03,23.087478637695312
2017-10-04,22.830726623535156
2017-10-05,23.080894470214844
2017-10-06,22.863645553588867
2017-10-09,22.712230682373047
2017-10-10,22.797813415527344
2017-10-11,22.797813415527344
2017-10-12,22.59296226501465
2017-10-13,22.474014282226562
2017-10-16,22.533485412597656
2017-10-17,22.407934188842773
2017-10-18,22.487232208251953
2017-10-19,22.59956932067871
2017-10-20,22.870498657226562
2017-10-23,22.771379470825195
2017-10-24,22.711904525756836
2017-10-25,22.381502151489258
2017-10-26,20.841821670532227
2017-10-27,21.19865608215332
2017-10-30,20.940946578979492
2017-10-31,21.48941421508789
2017-11-01,21.38368034362793
2017-11-02,21.192052841186523
2017-11-03,21.231700897216797
2017-11-06,21.469587326049805
2017-11-07,21.25813102722168
2017-11-08,21.502628326416016
2017-11-09,21.350643157958984
2017-11-10,21.5290584564209
2017-11-13,21.681049346923828
2017-11-14,21.905723571777344
2017-11-15,21.700870513916016
2017-11-16,22.10396385192871
2017-11-17,22.222911834716797
2017-11-20,22.269163131713867
2017-11-21,22.335243225097656
2017-11-22,22.493837356567383
2017-11-24,22.493837356567383
2017-11-27,22.474014282226562
2017-11-28,23.1149959564209
2017-11-29,23.31984519958496
2017-11-30,23.5577392578125
2017-12-01,23.41896629333496
2017-12-04,23.795621871948242
2017-12-05,23.835275650024414
2017-12-06,23.524694442749023
2017-12-07,23.795621871948242
2017-12-08,23.755977630615234
2017-12-11,23.656858444213867
2017-12-12,24.370527267456055
2017-12-13,24.687711715698242
2017-12-14,24.1062068939209
2017-12-15,24.258188247680664
2017-12-18,24.575380325317383
2017-12-19,24.37713623046875
2017-12-20,24.476259231567383
2017-12-21,24.760404586791992
2017-12-22,24.62824249267578
2017-12-26,24.806657791137695
2017-12-27,24.813268661499023
2017-12-28,25.03133201599121
2017-12-29,24.753793716430664
2018-01-02,24.938819885253906
2018-01-03,24.833091735839844
2018-01-04,24.449825286865234
2018-01-05,24.17889404296875
2018-01-08,24.264801025390625
2018-01-09,24.185501098632812
2018-01-10,24.013690948486328
2018-01-11,24.418228149414062
2018-01-12,24.637081146240234
2018-01-16,23.94737434387207
2018-01-17,23.973901748657227
2018-01-18,23.94074058532715
2018-01-19,24.31212043762207
2018-01-22,24.212642669677734
2018-01-23,23.821367263793945
2018-01-24,23.54946517944336
2018-01-25,23.7683162689209
2018-01-26,24.1529541015625
2018-01-29,23.562726974487305
2018-01-30,23.184717178344727
2018-01-31,22.859756469726562
2018-02-01,22.740385055541992
2018-02-02,22.276165008544922
2018-02-05,21.394134521484375
2018-02-06,21.719091415405273
2018-02-07,21.52677345275879
2018-02-08,21.069175720214844
2018-02-09,21.155391693115234
2018-02-12,21.48697853088379
2018-02-13,21.679304122924805
2018-02-14,22.223108291625977
2018-02-15,22.58785629272461
2018-02-16,23.105133056640625
2018-02-20,23.05208396911621
2018-02-21,23.36377716064453
2018-02-22,22.720491409301758
2018-02-23,22.26289939880371
2018-02-26,22.229738235473633
2018-02-27,21.93794059753418
2018-02-28,21.646142959594727
2018-03-01,21.71246337890625
2018-03-02,22.070579528808594
2018-03-05,22.243003845214844
2018-03-06,21.984363555908203
2018-03-07,22.004261016845703
2018-03-08,22.017520904541016
2018-03-09,22.375642776489258
2018-03-12,22.216476440429688
2018-03-13,22.010889053344727
2018-03-14,22.004261016845703
2018-03-15,21.699199676513672
2018-03-16,21.745616912841797
2018-03-19,21.738988876342773
2018-03-20,21.89151954650879
2018-03-21,21.89151954650879
2018-03-22,21.234968185424805
2018-03-23,21.042646408081055
2018-03-26,21.40739631652832
2018-03-27,21.215076446533203
2018-03-28,21.36760711669922
2018-03-29,21.639511108398438
2018-04-02,21.009492874145508
2018-04-03,21.347713470458984
2018-04-04,21.427295684814453
2018-04-05,21.719091415405273
2018-04-06,20.98959732055664
2018-04-09,20.890119552612305
2018-04-10,21.288022994995117
2018-04-11,21.254865646362305
2018-04-12,21.34808921813965
2018-04-13,21.501239776611328
2018-04-16,21.734296798706055
2018-04-17,21.02846336364746
2018-04-18,21.26152229309082
2018-04-19,21.135007858276367
2018-04-20,21.121688842773438
2018-04-23,21.0750789642334
2018-04-24,21.141664505004883
2018-04-25,21.068418502807617
2018-04-26,21.121688842773438
2018-04-27,21.228229522705078
2018-04-30,21.221572875976562
2018-05-01,20.708845138549805
2018-05-02,20.708845138549805
2018-05-03,20.735477447509766
2018-05-04,21.32145118713379
2018-05-07,21.82752227783203
2018-05-08,22.013967514038086
2018-05-09,22.286975860595703
2018-05-10,22.526695251464844
2018-05-11,22.832996368408203
2018-05-14,23.219207763671875
2018-05-15,23.512195587158203
2018-05-16,23.8051815032959
2018-05-17,23.958337783813477
2018-05-18,24.331228256225586
2018-05-21,24.357860565185547
2018-05-22,23.292457580566406
2018-05-23,23.17259407043457
2018-05-24,23.292457580566406
2018-05-25,23.458925247192383
2018-05-29,23.345727920532227
2018-05-30,23.418970108032227
2018-05-31,22.966176986694336
2018-06-01,22.793046951293945
2018-06-04,22.786386489868164
2018-06-05,23.05940055847168
2018-06-06,23.079374313354492
2018-06-07,23.19923210144043
2018-06-08,23.052738189697266
2018-06-11,23.319091796875
2018-06-12,23.26582145690918
2018-06-13,23.066055297851562
2018-06-14,23.04608154296875
2018-06-15,22.859634399414062
2018-06-18,22.81302261352539
2018-06-19,22.446786880493164
2018-06-20,22.413494110107422
2018-06-21,22.24036407470703
2018-06-22,22.440128326416016
2018-06-25,22.160463333129883
2018-06-26,22.227048873901367
2018-06-27,22.113847732543945
2018-06-28,21.674365997314453
2018-06-29,22.81302261352539
2018-07-02,23.185914993286133
2018-07-03,22.946199417114258
2018-07-05,23.10601043701172
2018-07-06,23.112667083740234
2018-07-09,23.532175064086914
2018-07-10,23.212547302246094
2018-07-11,22.98615074157715
2018-07-12,23.13987922668457
2018-07-13,23.253507614135742
2018-07-16,23.099775314331055
2018-07-17,23.17998504638672
2018-07-18,23.360450744628906
2018-07-19,23.962007522583008
2018-07-20,24.777450561523438
2018-07-23,24.52345848083496
2018-07-24,24.483356475830078
2018-07-25,24.911128997802734
2018-07-26,24.864336013793945
2018-07-27,24.924501419067383
2018-07-30,24.991336822509766
2018-07-31,25.465900421142578
2018-08-01,25.419113159179688
2018-08-02,25.5394229888916
2018-08-03,25.53274154663086
2018-08-06,25.58620834350586
2018-08-07,25.51936912536621
2018-08-08,25.48594856262207
2018-08-09,25.506000518798828
2018-08-10,25.285429000854492
2018-08-13,24.97796630859375
2018-08-14,24.79081916809082
2018-08-15,24.269472122192383
2018-08-16,24.54351043701172
2018-08-17,24.5836181640625
2018-08-20,24.496721267700195
2018-08-21,24.81755256652832
2018-08-22,24.503408432006836
2018-08-23,24.309572219848633
2018-08-24,24.449935913085938
2018-08-27,24.69724464416504
2018-08-28,24.650455474853516
2018-08-29,24.269472122192383
2018-08-30,24.10905647277832
2018-08-31,23.955324172973633
2018-09-04,24.008792877197266
2018-09-05,24.18257713317871
2018-09-06,24.048898696899414
2018-09-07,23.607755661010742
2018-09-10,23.935274124145508
2018-09-11,23.915218353271484
2018-09-12,24.015478134155273
2018-09-13,23.928586959838867
2018-09-14,23.94864273071289
2018-09-17,24.22268295288086
2018-09-18,24.516775131225586
2018-09-19,24.764083862304688
2018-09-20,24.844289779663086
2018-09-21,24.844289779663086
2018-09-24,24.830923080444336
2018-09-25,24.5836181640625
2018-09-26,24.54351043701172
2018-09-27,24.503408432006836
2018-09-28,24.490039825439453
2018-10-01,24.590301513671875
2018-10-02,24.456621170043945
2018-10-03,25.13170051574707
2018-10-04,25.5394229888916
2018-10-05,26.067455291748047
2018-10-08,25.953828811645508
2018-10-09,26.13429069519043
2018-10-10,25.031442642211914
2018-10-11,24.322940826416016
2018-10-12,24.121700286865234
2018-10-15,24.624794006347656
2018-10-16,24.879697799682617
2018-10-17,24.376602172851562
2018-10-18,23.927167892456055
2018-10-19,23.531402587890625
2018-10-22,24.443679809570312
2018-10-23,24.05462074279785
2018-10-24,22.498380661010742
2018-10-25,19.64751625061035
2018-10-26,18.694988250732422
2018-10-29,18.446796417236328
2018-10-30,18.95659637451172
2018-10-31,19.151124954223633
2018-11-01,21.168926239013672
2018-11-02,20.740325927734375
2018-11-05,21.122337341308594
2018-11-06,20.526033401489258
2018-11-07,20.870769500732422
2018-11-08,20.740325927734375
2018-11-09,20.088115692138672
2018-11-12,19.501127243041992
2018-11-13,19.58498191833496
2018-11-14,19.668838500976562
2018-11-15,20.255826950073242
2018-11-16,21.336633682250977
2018-11-19,21.113021850585938
2018-11-20,20.498079299926758
2018-11-21,20.693740844726562
2018-11-23,20.740325927734375
2018-11-26,21.793184280395508
2018-11-27,21.560251235961914
2018-11-28,21.960895538330078
2018-11-29,21.793184280395508
2018-11-30,22.203144073486328
2018-12-03,22.119287490844727
2018-12-04,20.889408111572266
2018-12-06,21.066434860229492
2018-12-07,20.56329917907715
2018-12-10,20.628520965576172
2018-12-11,20.600570678710938
2018-12-12,20.600570678710938
2018-12-13,20.21855926513672
2018-12-14,19.519765853881836
2018-12-17,19.286828994750977
2018-12-18,19.566347122192383
2018-12-19,19.100481033325195
2018-12-20,18.87686538696289
2018-12-21,18.45758819580078
2018-12-24,18.075578689575195
2018-12-26,19.072532653808594
2018-12-27,19.23092269897461
2018-12-28,19.035259246826172
2018-12-31,19.184337615966797
2019-01-02,19.473173141479492
2019-01-03,18.867551803588867
2019-01-04,19.687471389770508
2019-01-07,20.181291580200195
2019-01-08,20.423542022705078
2019-01-09,20.274465560913086
2019-01-10,20.31173324584961
2019-01-11,20.376956939697266
2019-01-14,20.339460372924805
2019-01-15,20.19886589050293
2019-01-16,20.25510597229004
2019-01-17,20.71438217163086
2019-01-18,21.108049392700195
2019-01-22,20.8081111907959
2019-01-23,20.67688751220703
2019-01-24,20.854976654052734
2019-01-25,21.079931259155273
2019-01-28,21.295509338378906
2019-01-29,21.436105728149414
2019-01-30,21.782907485961914
2019-01-31,21.91412925720215
2019-02-01,22.073471069335938
2019-02-04,22.279678344726562
2019-02-05,22.420272827148438
2019-02-06,22.40152931213379
2019-02-07,22.39215087890625
2019-02-08,22.289052963256836
2019-02-11,22.626476287841797
2019-02-12,23.104503631591797
2019-02-13,23.460681915283203
2019-02-14,23.245098114013672
2019-02-15,23.873090744018555
2019-02-19,23.994943618774414
2019-02-20,24.36048698425293
2019-02-21,23.451305389404297
2019-02-22,22.832687377929688
2019-02-25,22.410900115966797
2019-02-26,22.148454666137695
2019-02-27,21.998485565185547
2019-02-28,21.942249298095703
2019-03-01,22.054725646972656
2019-03-04,21.707923889160156
2019-03-05,21.689176559448242
2019-03-06,21.126798629760742
2019-03-07,21.033065795898438
2019-03-08,21.183032989501953
2019-03-11,21.061182022094727
2019-03-12,21.211153030395508
2019-03-13,21.501718521118164
2019-03-14,21.267391204833984
2019-03-15,20.854976654052734
2019-03-18,21.286136627197266
2019-03-19,21.05181121826172
2019-03-20,21.089303970336914
2019-03-21,21.520463943481445
2019-03-22,19.645856857299805
2019-03-25,19.730213165283203
2019-03-26,20.1145076751709
2019-03-27,20.19886589050293
2019-03-28,20.2925968170166
2019-03-29,20.367578506469727
2019-04-01,20.74250030517578
2019-04-02,20.92058753967285
2019-04-03,21.02369499206543
2019-04-04,21.389238357543945
2019-04-05,21.576698303222656
2019-04-08,21.557954788208008
2019-04-09,20.976825714111328
2019-04-10,21.333003997802734
2019-04-11,21.67043113708496
2019-04-12,22.019800186157227
2019-04-15,21.906494140625
2019-04-16,22.18032455444336
2019-04-17,22.227535247802734
2019-04-18,22.35028839111328
2019-04-22,22.274749755859375
2019-04-23,22.482481002807617
2019-04-24,22.633562088012695
2019-04-25,19.904691696166992
2019-04-26,20.301273345947266
2019-04-29,20.348487854003906
2019-04-30,20.357929229736328
2019-05-01,20.442913055419922
2019-05-02,20.367372512817383
2019-05-03,20.990575790405273
2019-05-06,21.000017166137695
2019-05-07,20.575109481811523
2019-05-08,20.329605102539062
2019-05-09,20.301273345947266
2019-05-10,20.376813888549805
2019-05-13,19.583648681640625
2019-05-14,19.81970977783203
2019-05-15,19.904691696166992
2019-05-16,20.187965393066406
2019-05-17,19.7630558013916
2019-05-20,19.67807388305664
2019-05-21,19.98023223876953
2019-05-22,19.687515258789062
2019-05-23,19.27204704284668
2019-05-24,19.347585678100586
2019-05-28,19.064313888549805
2019-05-29,18.658288955688477
2019-05-30,18.60163688659668
2019-05-31,18.205053329467773
2019-06-03,18.535537719726562
2019-06-04,19.10208511352539
2019-06-05,19.205951690673828
2019-06-06,18.95100212097168
2019-06-07,19.035985946655273
2019-06-10,19.40424156188965
2019-06-11,19.149295806884766
2019-06-12,18.866024017333984
2019-06-13,18.932119369506836
2019-06-14,18.26170539855957
2019-06-17,18.1295108795166
2019-06-18,18.752714157104492
2019-06-19,18.799924850463867
2019-06-20,19.10208511352539
2019-06-21,19.196510314941406
2019-06-24,18.563861846923828
2019-06-25,18.677175521850586
2019-06-26,18.714942932128906
2019-06-27,19.111526489257812
2019-06-28,19.59309196472168
2019-07-01,19.40424156188965
2019-07-02,18.818811416625977
2019-07-03,18.686616897583008
2019-07-05,19.149295806884766
2019-07-08,19.007659912109375
2019-07-09,18.743268966674805
2019-07-10,18.526094436645508
2019-07-11,18.38445472717285
2019-07-12,18.93694305419922
2019-07-15,18.851215362548828
2019-07-16,19.270341873168945
2019-07-17,18.584495544433594
2019-07-18,18.536865234375
2019-07-19,18.746431350708008
2019-07-22,18.803585052490234
2019-07-23,19.18461036682129
2019-07-24,19.718046188354492
2019-07-25,17.43189239501953
2019-07-26,17.6795597076416
2019-07-29,18.060583114624023
2019-07-30,18.651172637939453
2019-07-31,18.670225143432617
2019-08-01,18.622594833374023
2019-08-02,18.574970245361328
2019-08-05,18.003429412841797
2019-08-06,18.365407943725586
2019-08-07,18.41303253173828
2019-08-08,18.794057846069336
2019-08-09,18.041534423828125
2019-08-12,17.355690002441406
2019-08-13,17.336641311645508
2019-08-14,16.298343658447266
2019-08-15,15.726806640625
2019-08-16,16.155458450317383
2019-08-19,16.393600463867188
2019-08-20,16.117359161376953
2019-08-21,16.20309066772461
2019-08-22,16.298343658447266
2019-08-23,15.507719039916992
2019-08-26,15.641077995300293
2019-08-27,15.536294937133789
2019-08-28,15.80301284790039
2019-08-29,16.450756072998047
2019-08-30,16.641265869140625
2019-09-03,15.841114044189453
2019-09-04,16.279293060302734
2019-09-05,16.898460388183594
2019-09-06,17.327112197875977
2019-09-09,18.12726402282715
2019-09-10,18.73690414428711
2019-09-11,19.279865264892578
2019-09-12,19.032197952270508
2019-09-13,19.06077766418457
2019-09-16,19.327495574951172
2019-09-17,19.051250457763672
2019-09-18,18.832162857055664
2019-09-19,18.851215362548828
2019-09-20,18.527341842651367
2019-09-23,18.860736846923828
2019-09-24,18.165367126464844
2019-09-25,18.73690414428711
2019-09-26,18.775005340576172
2019-09-27,18.841686248779297
2019-09-30,18.746431350708008
2019-10-01,17.46999740600586
2019-10-02,16.993717193603516
2019-10-03,16.61269187927246
2019-10-04,16.06972885131836
2019-10-07,15.679178237915039
2019-10-08,15.32673168182373
2019-10-09,15.441038131713867
2019-10-10,16.164987564086914
2019-10-11,16.569108963012695
2019-10-14,16.50175666809082
2019-10-15,17.127185821533203
2019-10-16,17.37735939025879
2019-10-17,17.608285903930664
2019-10-18,17.367738723754883
2019-10-21,17.685264587402344
2019-10-22,17.810352325439453
2019-10-23,17.80072784423828
2019-10-24,18.002790451049805
2019-10-25,18.47426986694336
2019-10-28,18.916881561279297
2019-10-29,19.003480911254883
2019-10-30,19.195920944213867
2019-10-31,19.032346725463867
2019-11-01,19.965682983398438
2019-11-04,20.966373443603516
2019-11-05,20.9375057220459
2019-11-06,20.754688262939453
2019-11-07,20.7739315032959
2019-11-08,20.4467830657959
2019-11-11,20.84128761291504
2019-11-12,20.754688262939453
2019-11-13,20.417917251586914
2019-11-14,20.254343032836914
2019-11-15,20.389053344726562
2019-11-18,20.21585464477539
2019-11-19,20.2832088470459
2019-11-20,20.081146240234375
2019-11-21,20.09076690673828
2019-11-22,20.485271453857422
2019-11-25,20.687332153320312
2019-11-26,20.456405639648438
2019-11-27,20.60073471069336
2019-11-29,20.24472427368164
2019-12-02,20.013792037963867
2019-12-03,19.705886840820312
2019-12-04,19.76361846923828
2019-12-05,19.78286361694336
2019-12-06,20.456405639648438
2019-12-09,20.49489402770996
2019-12-10,20.591114044189453
2019-12-11,21.793865203857422
2019-12-12,22.13063621520996
2019-12-13,21.899709701538086
2019-12-16,21.649534225463867
2019-12-17,21.53407096862793
2019-12-18,21.8131103515625
2019-12-19,21.70726776123047
2019-12-20,21.688024520874023
2019-12-23,22.140256881713867
2019-12-24,21.967063903808594
2019-12-26,22.111391067504883
2019-12-27,21.832353591918945
2019-12-30,21.418607711791992
2019-12-31,21.31276512145996
