Date,TTI
2007-12-31,13.693379402160645
2008-01-02,13.684584617614746
2008-01-03,14.458520889282227
2008-01-04,13.957221031188965
2008-01-07,13.65820026397705
2008-01-08,13.52627944946289
2008-01-09,13.702174186706543
2008-01-10,13.957221031188965
2008-01-11,14.071552276611328
2008-01-14,14.643209457397461
2008-01-15,13.781326293945312
2008-01-16,12.646807670593262
2008-01-17,12.242250442504883
2008-01-18,12.497297286987305
2008-01-22,12.303812980651855
2008-01-23,13.104132652282715
2008-01-24,13.07774829864502
2008-01-25,13.455923080444336
2008-01-28,13.96601676940918
2008-01-29,13.957221031188965
2008-01-30,13.684584617614746
2008-01-31,13.763736724853516
2008-02-01,15.399555206298828
2008-02-04,15.091739654541016
2008-02-05,14.827898979187012
2008-02-06,14.951024055480957
2008-02-07,14.528877258300781
2008-02-08,14.8982572555542
2008-02-11,15.302811622619629
2008-02-12,15.153302192687988
2008-02-13,16.015182495117188
2008-02-14,15.698576927185059
2008-02-15,16.07674789428711
2008-02-19,16.006391525268555
2008-02-20,16.410947799682617
2008-02-21,16.155900955200195
2008-02-22,16.1295166015625
2008-02-25,16.692378997802734
2008-02-26,16.24384880065918
2008-02-27,15.54026985168457
2008-02-28,15.742548942565918
2008-02-29,15.109329223632812
2008-03-03,15.628216743469238
2008-03-04,15.566654205322266
2008-03-05,15.777729034423828
2008-03-06,15.153302192687988
2008-03-07,14.889461517333984
2008-03-10,14.317804336547852
2008-03-11,14.775129318237305
2008-03-12,14.265035629272461
2008-03-13,15.109329223632812
2008-03-14,15.109329223632812
2008-03-17,14.291420936584473
2008-03-18,14.836694717407227
2008-03-19,13.552663803100586
2008-03-20,13.596637725830078
2008-03-24,13.71976375579834
2008-03-25,14.053962707519531
2008-03-26,14.388163566589355
2008-03-27,13.825300216674805
2008-03-28,13.772531509399414
2008-03-31,13.93083667755127
2008-04-01,13.367974281311035
2008-04-02,13.763736724853516
2008-04-03,13.772531509399414
2008-04-04,14.17708969116211
2008-04-07,14.37936782836914
2008-04-08,14.221062660217285
2008-04-09,14.66959285736084
2008-04-10,14.660799026489258
2008-04-11,14.300214767456055
2008-04-14,14.880667686462402
2008-04-15,14.616826057434082
2008-04-16,14.942230224609375
2008-04-17,15.003792762756348
2008-04-18,15.469914436340332
2008-04-21,15.267635345458984
2008-04-22,15.012587547302246
2008-04-23,14.564055442810059
2008-04-24,14.449726104736328
2008-04-25,14.66959285736084
2008-04-28,14.942230224609375
2008-04-29,14.326601028442383
2008-04-30,14.300214767456055
2008-05-01,14.361777305603027
2008-05-02,14.643209457397461
2008-05-05,14.880667686462402
2008-05-06,15.417144775390625
2008-05-07,15.408350944519043
2008-05-08,15.874470710754395
2008-05-09,16.366975784301758
2008-05-12,16.18228530883789
2008-05-13,16.97381019592285
2008-05-14,16.70996856689453
2008-05-15,17.044166564941406
2008-05-16,17.316802978515625
2008-05-19,18.117124557495117
2008-05-20,18.556859970092773
2008-05-21,18.51288604736328
2008-05-22,18.51288604736328
2008-05-23,18.855880737304688
2008-05-27,18.055561065673828
2008-05-28,18.759136199951172
2008-05-29,18.468914031982422
2008-05-30,18.926237106323242
2008-06-02,19.128515243530273
2008-06-03,19.049362182617188
2008-06-04,19.884862899780273
2008-06-05,20.76433563232422
2008-06-06,20.720361709594727
2008-06-09,21.028175354003906
2008-06-10,20.41254425048828
2008-06-11,20.746746063232422
2008-06-12,20.342187881469727
2008-06-13,21.16889190673828
2008-06-16,21.212867736816406
2008-06-17,21.50309181213379
2008-06-18,21.793315887451172
2008-06-19,21.52947425842285
2008-06-20,21.107328414916992
2008-06-23,21.898853302001953
2008-06-24,21.080942153930664
2008-06-25,20.90505027770996
2008-06-26,20.69397735595703
2008-06-27,20.614824295043945
2008-06-30,20.852279663085938
2008-07-01,20.614824295043945
2008-07-02,20.38616180419922
2008-07-03,19.46271514892578
2008-07-07,19.225257873535156
2008-07-08,18.336990356445312
2008-07-09,18.04676628112793
2008-07-10,18.020381927490234
2008-07-11,18.442529678344727
2008-07-14,18.345787048339844
2008-07-15,17.589441299438477
2008-07-16,17.404752731323242
2008-07-17,17.149703979492188
2008-07-18,17.404752731323242
2008-07-21,18.468914031982422
2008-07-22,17.404752731323242
2008-07-23,16.841888427734375
2008-07-24,16.534072875976562
2008-07-25,16.674789428710938
2008-07-28,16.586843490600586
2008-07-29,16.111927032470703
2008-07-30,16.70996856689453
2008-07-31,16.648406982421875
2008-08-01,16.674789428710938
2008-08-04,15.417144775390625
2008-08-05,15.030177116394043
2008-08-06,15.575448036193848
2008-08-07,15.25883960723877
2008-08-08,17.25524139404297
2008-08-11,17.149703979492188
2008-08-12,17.89725685119629
2008-08-13,19.093338012695312
2008-08-14,18.970212936401367
2008-08-15,18.697574615478516
2008-08-18,18.504093170166016
2008-08-19,18.653600692749023
2008-08-20,19.25164031982422
2008-08-21,19.78812026977539
2008-08-22,19.234054565429688
2008-08-25,18.62721824645996
2008-08-26,19.38356590270996
2008-08-27,19.64740562438965
2008-08-28,19.57704734802246
2008-08-29,19.47150993347168
2008-09-02,17.62462043762207
2008-09-03,17.378368377685547
2008-09-04,16.780324935913086
2008-09-05,16.4988956451416
2008-09-08,15.856882095336914
2008-09-09,14.75754165649414
2008-09-10,14.766336441040039
2008-09-11,14.854281425476074
2008-09-12,15.417144775390625
2008-09-15,13.842889785766602
2008-09-16,14.502492904663086
2008-09-17,14.792718887329102
2008-09-18,12.928238868713379
2008-09-19,13.772531509399414
2008-09-22,13.535074234008789
2008-09-23,12.805113792419434
2008-09-24,12.752344131469727
2008-09-25,12.901854515075684
2008-09-26,12.708370208740234
2008-09-29,11.310009956359863
2008-09-30,12.180686950683594
2008-10-01,11.93443489074707
2008-10-02,10.465716361999512
2008-10-03,10.39535903930664
2008-10-06,9.208072662353516
2008-10-07,8.231858253479004
2008-10-08,8.19667911529541
2008-10-09,6.824703216552734
2008-10-10,5.8221049308776855
2008-10-13,7.545869827270508
2008-10-14,8.073554039001465
2008-10-15,6.323403835296631
2008-10-16,6.543272018432617
2008-10-17,6.727961540222168
2008-10-20,7.361180782318115
2008-10-21,7.290822982788086
2008-10-22,5.8660783767700195
2008-10-23,5.901257514953613
2008-10-24,5.637415409088135
2008-10-27,5.531879425048828
2008-10-28,5.514289379119873
2008-10-29,5.716568470001221
2008-10-30,5.760542392730713
2008-10-31,6.121125221252441
2008-11-03,5.79572057723999
2008-11-04,6.059561729431152
2008-11-05,5.769336223602295
2008-11-06,4.8546857833862305
2008-11-07,4.986606597900391
2008-11-10,4.274234294891357
2008-11-11,4.414949417114258
2008-11-12,4.089544773101807
2008-11-13,4.379770278930664
2008-11-14,4.054366111755371
2008-11-17,3.834498167037964
2008-11-18,4.186286926269531
2008-11-19,3.7641403675079346
2008-11-20,2.8846681118011475
2008-11-21,3.0781519412994385
2008-11-24,3.2540464401245117
2008-11-25,3.7201669216156006
2008-11-26,4.397360324859619
2008-11-28,4.239055156707764
2008-12-01,3.579451084136963
2008-12-02,4.080750465393066
2008-12-03,4.265439510345459
2008-12-04,3.8257029056549072
2008-12-05,4.133518218994141
2008-12-08,4.177492141723633
2008-12-09,4.2566447257995605
2008-12-10,4.529281139373779
2008-12-11,4.33579683303833
2008-12-12,4.379770278930664
2008-12-15,4.33579683303833
2008-12-16,4.582049369812012
2008-12-17,4.467718124389648
2008-12-18,4.115929126739502
2008-12-19,4.045571327209473
2008-12-22,4.010392189025879
2008-12-23,3.9312398433685303
2008-12-24,3.799319267272949
2008-12-26,3.940034866333008
2008-12-29,3.7641403675079346
2008-12-30,4.071955680847168
2008-12-31,4.274234294891357
2009-01-02,4.555665016174316
2009-01-05,4.7315592765808105
2009-01-06,4.969017028808594
2009-01-07,4.757943630218506
2009-01-08,4.933838367462158
2009-01-09,4.72276496887207
2009-01-12,4.6172285079956055
2009-01-13,4.7315592765808105
2009-01-14,4.643612384796143
2009-01-15,4.5380754470825195
2009-01-16,4.467718124389648
2009-01-20,4.001597881317139
2009-01-21,4.634817600250244
2009-01-22,4.1071343421936035
2009-01-23,4.388565540313721
2009-01-26,4.6172285079956055
2009-01-27,4.643612384796143
2009-01-28,4.933838367462158
2009-01-29,4.608432769775391
2009-01-30,4.564459800720215
2009-02-02,4.582049369812012
2009-02-03,4.687585830688477
2009-02-04,4.907454013824463
2009-02-05,4.977811336517334
2009-02-06,5.4351372718811035
2009-02-09,5.26803731918335
2009-02-10,3.79052472114563
2009-02-11,3.368377685546875
2009-02-12,3.324404239654541
2009-02-13,3.456325054168701
2009-02-17,3.2100729942321777
2009-02-18,3.1221256256103516
2009-02-19,3.0957415103912354
2009-02-20,2.8670787811279297
2009-02-23,2.6208267211914062
2009-02-24,2.743952751159668
2009-02-25,2.6911842823028564
2009-02-26,2.6032371520996094
2009-02-27,2.5152900218963623
2009-03-02,2.119527578353882
2009-03-03,2.1371171474456787
2009-03-04,2.3042163848876953
2009-03-05,2.057964563369751
2009-03-06,2.0491697788238525
2009-03-09,1.7677388191223145
2009-03-10,1.8029175996780396
2009-03-11,1.8908649682998657
2009-03-12,2.4185478687286377
2009-03-13,2.400958776473999
2009-03-16,2.5152900218963623
2009-03-17,2.6296215057373047
2009-03-18,3.042973279953003
2009-03-19,3.2276623249053955
2009-03-20,2.8406946659088135
2009-03-23,3.4211461544036865
2009-03-24,3.113330841064453
2009-03-25,3.2276623249053955
2009-03-26,3.5002987384796143
2009-03-27,2.99899959564209
2009-03-30,2.7791316509246826
2009-03-31,2.8582842350006104
2009-04-01,2.7791316509246826
2009-04-02,3.0165891647338867
2009-04-03,3.3156096935272217
2009-04-06,3.324404239654541
2009-04-07,3.2276623249053955
2009-04-08,3.1836886405944824
2009-04-09,3.66739821434021
2009-04-13,3.9136505126953125
2009-04-14,3.904855966567993
2009-04-15,4.2566447257995605
2009-04-16,4.590843677520752
2009-04-17,5.021784782409668
2009-04-20,4.485307216644287
2009-04-21,4.801917552947998
2009-04-22,4.84589147567749
2009-04-23,4.696380615234375
2009-04-24,4.881069660186768
2009-04-27,4.8546857833862305
2009-04-28,4.810711860656738
2009-04-29,5.188884735107422
2009-04-30,5.030580043792725
2009-05-01,5.312010765075684
2009-05-04,6.041972637176514
2009-05-05,6.1035356521606445
2009-05-06,7.176491737365723
2009-05-07,7.299618244171143
2009-05-08,7.4491286277771
2009-05-11,6.437735557556152
2009-05-12,6.455324649810791
2009-05-13,5.79572057723999
2009-05-14,6.068356990814209
2009-05-15,5.839694023132324
2009-05-18,6.244251251220703
2009-05-19,6.727961540222168
2009-05-20,6.991802215576172
2009-05-21,6.534477233886719
2009-05-22,6.314609050750732
2009-05-26,6.745550155639648
2009-05-27,6.631219387054443
2009-05-28,6.824703216552734
2009-05-29,7.6514058113098145
2009-06-01,8.398958206176758
2009-06-02,8.363778114318848
2009-06-03,8.038373947143555
2009-06-04,8.354984283447266
2009-06-05,8.548468589782715
2009-06-08,8.557262420654297
2009-06-09,8.882667541503906
2009-06-10,8.363778114318848
2009-06-11,8.636414527893066
2009-06-12,8.636414527893066
2009-06-15,8.275832176208496
2009-06-16,7.897658824920654
2009-06-17,7.484307289123535
2009-06-18,7.58104944229126
2009-06-19,7.33479642868042
2009-06-22,6.411350727081299
2009-06-23,6.428940296173096
2009-06-24,6.402556896209717
2009-06-25,6.4201459884643555
2009-06-26,6.895061016082764
2009-06-29,6.85988187789917
2009-06-30,7.0005974769592285
2009-07-01,7.4755120277404785
2009-07-02,6.974212646484375
2009-07-06,6.745550155639648
2009-07-07,6.47291374206543
2009-07-08,6.376172065734863
2009-07-09,6.314609050750732
2009-07-10,6.217867374420166
2009-07-13,6.367377281188965
2009-07-14,6.552066326141357
2009-07-15,7.026981353759766
2009-07-16,7.150107383728027
2009-07-17,7.044571399688721
2009-07-20,6.921444892883301
2009-07-21,6.73675537109375
2009-07-22,6.6576032638549805
2009-07-23,6.98300838470459
2009-07-24,7.053365707397461
2009-07-27,7.079750061035156
2009-07-28,6.921444892883301
2009-07-29,6.622424602508545
2009-07-30,6.789524078369141
2009-07-31,6.780729293823242
2009-08-03,7.150107383728027
2009-08-04,7.176491737365723
2009-08-05,7.070955276489258
2009-08-06,7.510691165924072
2009-08-07,7.440333843231201
2009-08-10,7.598638534545898
2009-08-11,7.642611980438232
2009-08-12,7.915247917175293
2009-08-13,7.695380210876465
2009-08-14,7.33479642868042
2009-08-17,6.930239200592041
2009-08-18,7.827301025390625
2009-08-19,8.143911361694336
2009-08-20,8.741951942443848
2009-08-21,8.794720649719238
2009-08-24,8.46052074432373
2009-08-25,8.302214622497559
2009-08-26,8.020784378051758
2009-08-27,7.818506240844727
2009-08-28,7.8448896408081055
2009-08-31,7.756943225860596
2009-09-01,7.097338676452637
2009-09-02,7.070955276489258
2009-09-03,7.053365707397461
2009-09-04,7.37877082824707
2009-09-08,7.6514058113098145
2009-09-09,7.695380210876465
2009-09-10,8.32859992980957
2009-09-11,8.715567588806152
2009-09-14,8.873872756958008
2009-09-15,9.076150894165039
2009-09-16,9.190483093261719
2009-09-17,8.645210266113281
2009-09-18,8.821104049682617
2009-09-21,8.750746726989746
2009-09-22,9.058562278747559
2009-09-23,8.83869457244873
2009-09-24,8.381368637084961
2009-09-25,8.240652084350586
2009-09-28,8.548468589782715
2009-09-29,8.856283187866211
2009-09-30,8.522083282470703
2009-10-01,8.003195762634277
2009-10-02,7.915247917175293
2009-10-05,8.275832176208496
2009-10-06,8.618825912475586
2009-10-07,8.44293212890625
2009-10-08,8.662799835205078
2009-10-09,8.346189498901367
2009-10-12,8.354984283447266
2009-10-13,8.275832176208496
2009-10-14,8.83869457244873
2009-10-15,9.225661277770996
2009-10-16,9.471914291381836
2009-10-19,9.612628936767578
2009-10-20,9.322403907775879
2009-10-21,9.73575496673584
2009-10-22,9.867676734924316
2009-10-23,9.410350799560547
2009-10-26,8.988204956054688
2009-10-27,8.926641464233398
2009-10-28,8.522083282470703
2009-10-29,8.847488403320312
2009-10-30,8.319806098937988
2009-11-02,8.223064422607422
2009-11-03,8.346189498901367
2009-11-04,8.214268684387207
2009-11-05,8.715567588806152
2009-11-06,8.469316482543945
2009-11-09,9.990801811218262
2009-11-10,9.595039367675781
2009-11-11,9.744549751281738
2009-11-12,9.137714385986328
2009-11-13,9.04976749420166
2009-11-16,9.630218505859375
2009-11-17,9.533476829528809
2009-11-18,9.410350799560547
2009-11-19,8.891461372375488
2009-11-20,8.777131080627441
2009-11-23,9.093740463256836
2009-11-24,9.137714385986328
2009-11-25,9.216865539550781
2009-11-27,8.67159366607666
2009-11-30,9.111330032348633
2009-12-01,9.120124816894531
2009-12-02,8.794720649719238
2009-12-03,8.65400505065918
2009-12-04,8.706772804260254
2009-12-07,8.645210266113281
2009-12-08,8.135116577148438
2009-12-09,7.92404317855835
2009-12-10,8.108732223510742
2009-12-11,8.311010360717773
2009-12-14,8.645210266113281
2009-12-15,8.610031127929688
2009-12-16,8.689184188842773
2009-12-17,8.522083282470703
2009-12-18,8.662799835205078
2009-12-21,8.821104049682617
2009-12-22,8.821104049682617
2009-12-23,8.935436248779297
2009-12-24,8.926641464233398
2009-12-28,8.812310218811035
2009-12-29,9.287224769592285
2009-12-30,9.586243629455566
2009-12-31,9.744549751281738
2010-01-04,10.448127746582031
2010-01-05,10.632816314697266
2010-01-06,10.835094451904297
2010-01-07,11.107731819152832
2010-01-08,11.151705741882324
2010-01-11,10.85268497467041
2010-01-12,10.703174591064453
2010-01-13,10.826301574707031
2010-01-14,10.791122436523438
2010-01-15,10.571253776550293
2010-01-19,10.905452728271484
2010-01-20,10.509690284729004
2010-01-21,10.333796501159668
2010-01-22,9.69178295135498
2010-01-25,9.858880996704102
2010-01-26,9.726961135864258
2010-01-27,9.850086212158203
2010-01-28,9.383967399597168
2010-01-29,9.1992769241333
2010-02-01,9.383967399597168
2010-02-02,9.357583045959473
2010-02-03,9.208072662353516
2010-02-04,8.451725006103516
2010-02-05,8.267036437988281
2010-02-08,8.143911361694336
2010-02-09,8.486905097961426
2010-02-10,8.5396728515625
2010-02-11,8.926641464233398
2010-02-12,9.023383140563965
2010-02-16,9.296019554138184
2010-02-17,9.322403907775879
2010-02-18,9.67419147491455
2010-02-19,9.78852367401123
2010-02-22,9.726961135864258
2010-02-23,8.970614433288574
2010-02-24,9.014588356018066
2010-02-25,9.137714385986328
2010-02-26,8.86507797241211
2010-03-01,10.32500171661377
2010-03-02,10.298617362976074
2010-03-03,10.659200668334961
2010-03-04,10.896657943725586
2010-03-05,11.125321388244629
2010-03-08,11.186884880065918
2010-03-09,11.257242202758789
2010-03-10,11.24844741821289
2010-03-11,11.406752586364746
2010-03-12,11.521084785461426
2010-03-15,11.204472541809082
2010-03-16,11.696978569030762
2010-03-17,11.494699478149414
2010-03-18,11.397956848144531
2010-03-19,10.85268497467041
2010-03-22,11.046168327331543
2010-03-23,11.169294357299805
2010-03-24,11.204472541809082
2010-03-25,10.747147560119629
2010-03-26,10.483306884765625
2010-03-29,10.905452728271484
2010-03-30,10.879068374633789
2010-03-31,10.747147560119629
2010-04-01,11.433136940002441
2010-04-05,11.828899383544922
2010-04-06,11.820103645324707
2010-04-07,11.600234985351562
2010-04-08,11.512289047241211
2010-04-09,11.521084785461426
2010-04-12,11.406752586364746
2010-04-13,11.336394309997559
2010-04-14,11.494699478149414
2010-04-15,11.626620292663574
2010-04-16,11.415546417236328
2010-04-19,11.450726509094238
2010-04-20,11.811308860778809
2010-04-21,12.04876708984375
2010-04-22,12.092740058898926
2010-04-23,12.550065994262695
2010-04-26,12.655603408813477
2010-04-27,12.066356658935547
2010-04-28,12.251045227050781
2010-04-29,12.523681640625
2010-04-30,10.808711051940918
2010-05-03,10.896657943725586
2010-05-04,10.465716361999512
2010-05-05,10.430538177490234
2010-05-06,9.726961135864258
2010-05-07,9.498297691345215
2010-05-10,10.342591285705566
2010-05-11,10.39535903930664
2010-05-12,10.949426651000977
2010-05-13,10.826301574707031
2010-05-14,10.5272798538208
2010-05-17,10.430538177490234
2010-05-18,10.19308090209961
2010-05-19,9.814908027648926
2010-05-20,8.970614433288574
2010-05-21,9.304813385009766
2010-05-24,9.014588356018066
2010-05-25,9.287224769592285
2010-05-26,9.287224769592285
2010-05-27,9.911650657653809
2010-05-28,8.847488403320312
2010-06-01,7.598638534545898
2010-06-02,7.721763610839844
2010-06-03,8.003195762634277
2010-06-04,7.871274471282959
2010-06-07,7.343591213226318
2010-06-08,7.554664611816406
2010-06-09,7.510691165924072
2010-06-10,8.214268684387207
2010-06-11,8.346189498901367
2010-06-14,8.135116577148438
2010-06-15,8.856283187866211
2010-06-16,8.847488403320312
2010-06-17,8.891461372375488
2010-06-18,9.33999252319336
2010-06-21,9.252046585083008
2010-06-22,8.785924911499023
2010-06-23,8.750746726989746
2010-06-24,8.425341606140137
2010-06-25,8.882667541503906
2010-06-28,8.697978019714355
2010-06-29,8.152706146240234
2010-06-30,7.985605716705322
2010-07-01,7.668996334075928
2010-07-02,7.4755120277404785
2010-07-06,7.202875137329102
2010-07-07,7.466716766357422
2010-07-08,8.09993839263916
2010-07-09,8.425341606140137
2010-07-12,8.311010360717773
2010-07-13,8.715567588806152
2010-07-14,8.566057205200195
2010-07-15,8.618825912475586
2010-07-16,8.390162467956543
2010-07-19,8.398958206176758
2010-07-20,8.891461372375488
2010-07-21,8.645210266113281
2010-07-22,9.10253620147705
2010-07-23,9.331197738647461
2010-07-26,9.489502906799316
2010-07-27,9.252046585083008
2010-07-28,8.86507797241211
2010-07-29,9.146509170532227
2010-07-30,9.164098739624023
2010-08-02,9.401555061340332
2010-08-03,9.216865539550781
2010-08-04,9.172893524169922
2010-08-05,8.020784378051758
2010-08-06,8.293421745300293
2010-08-09,8.416546821594238
2010-08-10,8.557262420654297
2010-08-11,7.827301025390625
2010-08-12,7.633817672729492
2010-08-13,7.519486427307129
2010-08-16,7.7305588722229
2010-08-17,7.783327102661133
2010-08-18,7.827301025390625
2010-08-19,7.572254180908203
2010-08-20,7.431538105010986
2010-08-23,7.387564659118652
2010-08-24,7.246849536895752
2010-08-25,7.308413028717041
2010-08-26,7.176491737365723
2010-08-27,7.484307289123535
2010-08-30,7.413949489593506
2010-08-31,7.37877082824707
2010-09-01,7.642611980438232
2010-09-02,7.7305588722229
2010-09-03,7.783327102661133
2010-09-07,7.598638534545898
2010-09-08,7.668996334075928
2010-09-09,7.721763610839844
2010-09-10,7.818506240844727
2010-09-13,8.135116577148438
2010-09-14,8.020784378051758
2010-09-15,9.111330032348633
2010-09-16,8.67159366607666
2010-09-17,9.12891960144043
2010-09-20,9.603835105895996
2010-09-21,9.296019554138184
2010-09-22,9.137714385986328
2010-09-23,8.680389404296875
2010-09-24,9.1992769241333
2010-09-27,9.040971755981445
2010-09-28,9.10253620147705
2010-09-29,9.1992769241333
2010-09-30,8.970614433288574
2010-10-01,8.821104049682617
2010-10-04,8.486905097961426
2010-10-05,8.926641464233398
2010-10-06,8.741951942443848
2010-10-07,8.504494667053223
2010-10-08,8.662799835205078
2010-10-11,8.715567588806152
2010-10-12,8.970614433288574
2010-10-13,9.10253620147705
2010-10-14,8.882667541503906
2010-10-15,8.961819648742676
2010-10-18,8.953024864196777
2010-10-19,8.829898834228516
2010-10-20,8.583646774291992
2010-10-21,8.44293212890625
2010-10-22,8.72436237335205
2010-10-25,8.662799835205078
2010-10-26,8.768336296081543
2010-10-27,8.67159366607666
2010-10-28,8.425341606140137
2010-10-29,8.583646774291992
2010-11-01,8.398958206176758
2010-11-02,8.821104049682617
2010-11-03,8.856283187866211
2010-11-04,8.944230079650879
2010-11-05,8.873872756958008
2010-11-08,9.243250846862793
2010-11-09,8.970614433288574
2010-11-10,9.31360912322998
2010-11-11,9.269635200500488
2010-11-12,8.891461372375488
2010-11-15,8.785924911499023
2010-11-16,8.46052074432373
2010-11-17,8.67159366607666
2010-11-18,8.979409217834473
2010-11-19,9.172893524169922
2010-11-22,9.172893524169922
2010-11-23,9.33999252319336
2010-11-24,9.454324722290039
2010-11-26,9.489502906799316
2010-11-29,9.709371566772461
2010-11-30,9.67419147491455
2010-12-01,9.920443534851074
2010-12-02,9.946828842163086
2010-12-03,9.850086212158203
2010-12-06,9.867676734924316
2010-12-07,9.885265350341797
2010-12-08,9.832497596740723
2010-12-09,9.867676734924316
2010-12-10,10.096339225769043
2010-12-13,10.140312194824219
2010-12-14,10.078749656677246
2010-12-15,10.069953918457031
2010-12-16,10.245848655700684
2010-12-17,10.26343822479248
2010-12-20,10.316205978393555
2010-12-21,10.518486022949219
2010-12-22,10.377769470214844
2010-12-23,10.448127746582031
2010-12-27,10.360180854797363
2010-12-28,10.333796501159668
2010-12-29,10.272233963012695
2010-12-30,10.659200668334961
2010-12-31,10.439332008361816
2011-01-03,10.474512100219727
2011-01-04,9.982007026672363
2011-01-05,9.850086212158203
2011-01-06,9.542271614074707
2011-01-07,9.366376876831055
2011-01-10,9.419145584106445
2011-01-11,9.718165397644043
2011-01-12,9.938034057617188
2011-01-13,10.05236530303955
2011-01-14,10.140312194824219
2011-01-18,10.069953918457031
2011-01-19,9.700575828552246
2011-01-20,9.938034057617188
2011-01-21,9.806112289428711
2011-01-24,9.920443534851074
2011-01-25,9.823702812194824
2011-01-26,10.105133056640625
2011-01-27,10.008391380310059
2011-01-28,9.67419147491455
2011-01-31,9.982007026672363
2011-02-01,10.06116008758545
2011-02-02,10.26343822479248
2011-02-03,10.342591285705566
2011-02-04,10.140312194824219
2011-02-07,10.333796501159668
2011-02-08,10.228260040283203
2011-02-09,10.017187118530273
2011-02-10,10.342591285705566
2011-02-11,10.738353729248047
2011-02-14,11.301216125488281
2011-02-15,10.826301574707031
2011-02-16,10.975811004638672
2011-02-17,11.195679664611816
2011-02-18,11.11652660369873
2011-02-22,11.125321388244629
2011-02-23,11.107731819152832
2011-02-24,11.107731819152832
2011-02-25,12.075150489807129
2011-02-28,12.145508766174316
2011-03-01,11.846487998962402
2011-03-02,12.400555610656738
2011-03-03,13.34158992767334
2011-03-04,13.218463897705078
2011-03-07,13.148106575012207
2011-03-08,13.236054420471191
2011-03-09,12.857880592346191
2011-03-10,12.057560920715332
2011-03-11,12.189481735229492
2011-03-14,12.242250442504883
2011-03-15,12.04876708984375
2011-03-16,11.811308860778809
2011-03-17,12.136713981628418
2011-03-18,12.321403503417969
2011-03-21,12.91944408416748
2011-03-22,12.690781593322754
2011-03-23,12.620423316955566
2011-03-24,12.690781593322754
2011-03-25,13.156901359558105
2011-03-28,12.88426399230957
2011-03-29,13.174490928649902
2011-03-30,13.262438774108887
2011-03-31,13.543869018554688
2011-04-01,13.763736724853516
2011-04-04,13.922041893005371
2011-04-05,13.728558540344238
2011-04-06,13.297616958618164
2011-04-07,13.068954467773438
2011-04-08,13.068954467773438
2011-04-11,12.752344131469727
2011-04-12,12.365376472473145
2011-04-13,12.330198287963867
2011-04-14,12.541271209716797
2011-04-15,12.620423316955566
2011-04-18,12.25984001159668
2011-04-19,12.303812980651855
2011-04-20,12.558859825134277
2011-04-21,12.866676330566406
2011-04-25,12.840291976928711
2011-04-26,12.840291976928711
2011-04-27,12.831497192382812
2011-04-28,12.893059730529785
2011-04-29,12.989802360534668
2011-05-02,12.470913887023926
2011-05-03,11.890462875366211
2011-05-04,11.327600479125977
2011-05-05,11.107731819152832
2011-05-06,12.295019149780273
2011-05-09,12.541271209716797
2011-05-10,12.60283374786377
2011-05-11,12.04876708984375
2011-05-12,12.075150489807129
2011-05-13,11.732156753540039
2011-05-16,11.441930770874023
2011-05-17,11.239652633666992
2011-05-18,11.617825508117676
2011-05-19,11.45952033996582
2011-05-20,11.433136940002441
2011-05-23,11.125321388244629
2011-05-24,11.081347465515137
2011-05-25,11.424341201782227
2011-05-26,11.793719291687012
2011-05-27,12.10153579711914
2011-05-31,11.99599838256836
2011-06-01,11.582647323608398
2011-06-02,11.714568138122559
2011-06-03,11.468315124511719
2011-06-06,10.949426651000977
2011-06-07,10.975811004638672
2011-06-08,10.782327651977539
2011-06-09,10.984604835510254
2011-06-10,10.694379806518555
2011-06-13,10.465716361999512
2011-06-14,10.738353729248047
2011-06-15,10.694379806518555
2011-06-16,10.500895500183105
2011-06-17,10.615227699279785
2011-06-20,10.597638130187988
2011-06-21,10.931838035583496
2011-06-22,10.817505836486816
2011-06-23,10.808711051940918
2011-06-24,10.553664207458496
2011-06-27,10.518486022949219
2011-06-28,11.081347465515137
2011-06-29,11.257242202758789
2011-06-30,11.195679664611816
2011-07-01,11.433136940002441
2011-07-05,11.292420387268066
2011-07-06,11.081347465515137
2011-07-07,11.529877662658691
2011-07-08,11.477109909057617
2011-07-11,10.711969375610352
2011-07-12,10.676790237426758
2011-07-13,10.9142484664917
2011-07-14,10.773531913757324
2011-07-15,10.967016220092773
2011-07-18,10.738353729248047
2011-07-19,11.512289047241211
2011-07-20,11.477109909057617
2011-07-21,11.670594215393066
2011-07-22,11.600234985351562
2011-07-25,11.45952033996582
2011-07-26,11.230857849121094
2011-07-27,10.923042297363281
2011-07-28,11.24844741821289
2011-07-29,11.318804740905762
2011-08-01,11.178089141845703
2011-08-02,10.870274543762207
2011-08-03,10.483306884765625
2011-08-04,9.401555061340332
2011-08-05,8.636414527893066
2011-08-08,7.422743320465088
2011-08-09,8.152706146240234
2011-08-10,8.08234691619873
2011-08-11,8.785924911499023
2011-08-12,8.953024864196777
2011-08-15,9.296019554138184
2011-08-16,8.935436248779297
2011-08-17,9.023383140563965
2011-08-18,8.451725006103516
2011-08-19,7.915247917175293
2011-08-22,7.85368537902832
2011-08-23,8.583646774291992
2011-08-24,8.566057205200195
2011-08-25,8.293421745300293
2011-08-26,8.504494667053223
2011-08-29,9.040971755981445
2011-08-30,9.04976749420166
2011-08-31,9.014588356018066
2011-09-01,8.750746726989746
2011-09-02,8.19667911529541
2011-09-06,8.187885284423828
2011-09-07,8.86507797241211
2011-09-08,8.759540557861328
2011-09-09,8.363778114318848
2011-09-12,8.425341606140137
2011-09-13,8.759540557861328
2011-09-14,8.961819648742676
2011-09-15,9.454324722290039
2011-09-16,8.9178466796875
2011-09-19,8.759540557861328
2011-09-20,8.610031127929688
2011-09-21,7.818506240844727
2011-09-22,7.431538105010986
2011-09-23,7.405154228210449
2011-09-26,7.545869827270508
2011-09-27,7.7041754722595215
2011-09-28,7.097338676452637
2011-09-29,7.176491737365723
2011-09-30,6.789524078369141
2011-10-03,6.147509574890137
2011-10-04,6.640013694763184
2011-10-05,6.771934509277344
2011-10-06,6.903855323791504
2011-10-07,6.701576232910156
2011-10-10,7.097338676452637
2011-10-11,7.32600212097168
2011-10-12,7.352385997772217
2011-10-13,7.387564659118652
2011-10-14,7.7481489181518555
2011-10-17,7.660201072692871
2011-10-18,8.311010360717773
2011-10-19,7.9064531326293945
2011-10-20,7.92404317855835
2011-10-21,7.915247917175293
2011-10-24,8.152706146240234
2011-10-25,8.135116577148438
2011-10-26,8.574851989746094
2011-10-27,8.900257110595703
2011-10-28,8.979409217834473
2011-10-31,8.354984283447266
2011-11-01,7.985605716705322
2011-11-02,8.346189498901367
2011-11-03,8.513289451599121
2011-11-04,8.662799835205078
2011-11-07,8.126320838928223
2011-11-08,8.293421745300293
2011-11-09,7.809711933135986
2011-11-10,7.950427055358887
2011-11-11,8.19667911529541
2011-11-14,7.915247917175293
2011-11-15,8.055963516235352
2011-11-16,8.152706146240234
2011-11-17,7.880069732666016
2011-11-18,7.783327102661133
2011-11-21,7.282027721405029
2011-11-22,7.079750061035156
2011-11-23,6.587245464324951
2011-11-25,6.499298095703125
2011-11-28,7.37877082824707
2011-11-29,7.229260444641113
2011-11-30,8.073554039001465
2011-12-01,8.223064422607422
2011-12-02,8.231858253479004
2011-12-05,8.32859992980957
2011-12-06,8.293421745300293
2011-12-07,8.319806098937988
2011-12-08,7.9064531326293945
2011-12-09,8.161500930786133
2011-12-12,7.871274471282959
2011-12-13,7.58104944229126
2011-12-14,7.088544845581055
2011-12-15,7.088544845581055
2011-12-16,7.484307289123535
2011-12-19,7.299618244171143
2011-12-20,7.897658824920654
2011-12-21,7.968017578125
2011-12-22,8.170294761657715
2011-12-23,8.223064422607422
2011-12-27,8.117526054382324
2011-12-28,8.06475830078125
2011-12-29,8.2582426071167
2011-12-30,8.214268684387207
2012-01-03,8.741951942443848
2012-01-04,8.548468589782715
2012-01-05,8.451725006103516
2012-01-06,8.2494478225708
2012-01-09,8.19667911529541
2012-01-10,8.5396728515625
2012-01-11,8.284626960754395
2012-01-12,8.073554039001465
2012-01-13,7.8009161949157715
2012-01-17,7.932837963104248
2012-01-18,8.293421745300293
2012-01-19,8.293421745300293
2012-01-20,8.319806098937988
2012-01-23,8.223064422607422
2012-01-24,8.363778114318848
2012-01-25,8.5396728515625
2012-01-26,8.302214622497559
2012-01-27,8.319806098937988
2012-01-30,8.311010360717773
2012-01-31,8.214268684387207
2012-02-01,8.434136390686035
2012-02-02,8.706772804260254
2012-02-03,9.067357063293457
2012-02-06,9.26084041595459
2012-02-07,9.1992769241333
2012-02-08,9.278429985046387
2012-02-09,8.988204956054688
2012-02-10,8.794720649719238
2012-02-13,8.944230079650879
2012-02-14,8.882667541503906
2012-02-15,8.741951942443848
2012-02-16,8.926641464233398
2012-02-17,9.164098739624023
2012-02-21,9.10253620147705
2012-02-22,9.093740463256836
2012-02-23,9.225661277770996
2012-02-24,9.225661277770996
2012-02-27,8.856283187866211
2012-02-28,8.65400505065918
2012-02-29,7.994400501251221
2012-03-01,8.091142654418945
2012-03-02,7.976810455322266
2012-03-05,7.9064531326293945
2012-03-06,7.7481489181518555
2012-03-07,7.932837963104248
2012-03-08,8.091142654418945
2012-03-09,8.451725006103516
2012-03-12,8.2582426071167
2012-03-13,8.592442512512207
2012-03-14,8.284626960754395
2012-03-15,8.231858253479004
2012-03-16,8.2494478225708
2012-03-19,8.44293212890625
2012-03-20,8.223064422607422
2012-03-21,8.143911361694336
2012-03-22,7.8009161949157715
2012-03-23,8.284626960754395
2012-03-26,8.346189498901367
2012-03-27,8.398958206176758
2012-03-28,8.2494478225708
2012-03-29,8.302214622497559
2012-03-30,8.284626960754395
2012-04-02,8.592442512512207
2012-04-03,8.548468589782715
2012-04-04,8.231858253479004
2012-04-05,8.091142654418945
2012-04-09,7.976810455322266
2012-04-10,7.7481489181518555
2012-04-11,7.888864517211914
2012-04-12,8.240652084350586
2012-04-13,7.941632270812988
2012-04-16,7.563459873199463
2012-04-17,7.290822982788086
2012-04-18,7.150107383728027
2012-04-19,7.070955276489258
2012-04-20,6.921444892883301
2012-04-23,7.167696952819824
2012-04-24,7.4755120277404785
2012-04-25,7.642611980438232
2012-04-26,7.721763610839844
2012-04-27,7.642611980438232
2012-04-30,7.660201072692871
2012-05-01,7.67779016494751
2012-05-02,7.58104944229126
2012-05-03,7.343591213226318
2012-05-04,7.114928722381592
2012-05-07,7.220465183258057
2012-05-08,7.211670398712158
2012-05-09,6.455324649810791
2012-05-10,6.481709003448486
2012-05-11,6.332198143005371
2012-05-14,6.085946559906006
2012-05-15,5.87487268447876
2012-05-16,5.79572057723999
2012-05-17,5.584647178649902
2012-05-18,5.989204406738281
2012-05-21,6.138714790344238
2012-05-22,5.989204406738281
2012-05-23,6.033178329467773
2012-05-24,5.954025745391846
2012-05-25,5.830899238586426
2012-05-29,6.12992000579834
2012-05-30,5.760542392730713
2012-05-31,5.619826316833496
2012-06-01,5.426342487335205
2012-06-04,5.426342487335205
2012-06-05,5.575852870941162
2012-06-06,5.8221049308776855
2012-06-07,5.8660783767700195
2012-06-08,5.769336223602295
2012-06-11,5.611031532287598
2012-06-12,5.6725945472717285
2012-06-13,5.5230841636657715
2012-06-14,5.79572057723999
2012-06-15,5.830899238586426
2012-06-18,5.751746654510498
2012-06-19,6.085946559906006
2012-06-20,6.191483020782471
2012-06-21,5.954025745391846
2012-06-22,5.989204406738281
2012-06-25,5.575852870941162
2012-06-26,5.505495071411133
2012-06-27,5.663800239562988
2012-06-28,5.839694023132324
2012-06-29,6.270635604858398
2012-07-02,6.191483020782471
2012-07-03,6.516887187957764
2012-07-05,6.358582973480225
2012-07-06,6.173893928527832
2012-07-09,6.173893928527832
2012-07-10,6.165099143981934
2012-07-11,6.25304651260376
2012-07-12,6.12992000579834
2012-07-13,6.059561729431152
2012-07-16,6.041972637176514
2012-07-17,6.191483020782471
2012-07-18,6.446529865264893
2012-07-19,6.552066326141357
2012-07-20,6.437735557556152
2012-07-23,6.094740867614746
2012-07-24,5.883667945861816
2012-07-25,5.8221049308776855
2012-07-26,5.848489284515381
2012-07-27,6.200277805328369
2012-07-30,6.2618408203125
2012-07-31,6.094740867614746
2012-08-01,5.936436176300049
2012-08-02,5.6725945472717285
2012-08-03,6.138714790344238
2012-08-06,6.12992000579834
2012-08-07,6.077151775360107
2012-08-08,5.769336223602295
2012-08-09,6.085946559906006
2012-08-10,5.971614837646484
2012-08-13,5.79572057723999
2012-08-14,5.690183639526367
2012-08-15,5.804515361785889
2012-08-16,5.87487268447876
2012-08-17,5.918846607208252
2012-08-20,5.804515361785889
2012-08-21,5.804515361785889
2012-08-22,5.936436176300049
2012-08-23,5.989204406738281
2012-08-24,6.006793975830078
2012-08-27,5.989204406738281
2012-08-28,6.138714790344238
2012-08-29,5.980409622192383
2012-08-30,5.716568470001221
2012-08-31,5.637415409088135
2012-09-04,5.602236270904541
2012-09-05,5.619826316833496
2012-09-06,5.707773208618164
2012-09-07,5.716568470001221
2012-09-10,5.892462253570557
2012-09-11,5.962820529937744
2012-09-12,5.936436176300049
2012-09-13,5.892462253570557
2012-09-14,6.112330436706543
2012-09-17,6.041972637176514
2012-09-18,5.8660783767700195
2012-09-19,5.742952346801758
2012-09-20,5.830899238586426
2012-09-21,5.734157562255859
2012-09-24,5.6286211013793945
2012-09-25,5.461521148681641
2012-09-26,5.312010765075684
2012-09-27,5.426342487335205
2012-09-28,5.32080602645874
2012-10-01,5.4351372718811035
2012-10-02,5.461521148681641
2012-10-03,5.250447750091553
2012-10-04,5.224063873291016
2012-10-05,5.382368564605713
2012-10-08,5.2416534423828125
2012-10-09,5.2856268882751465
2012-10-10,5.171295642852783
2012-10-11,5.32080602645874
2012-10-12,5.26803731918335
2012-10-15,5.250447750091553
2012-10-16,5.2856268882751465
2012-10-17,5.39995813369751
2012-10-18,5.364779472351074
2012-10-19,5.259243011474609
2012-10-22,5.206474304199219
2012-10-23,5.074553966522217
2012-10-24,4.977811336517334
2012-10-25,4.977811336517334
2012-10-26,4.907454013824463
2012-10-31,4.705175399780273
2012-11-01,4.819506645202637
2012-11-02,4.810711860656738
2012-11-05,4.828300952911377
2012-11-06,5.382368564605713
2012-11-07,5.232858180999756
2012-11-08,5.118527412414551
2012-11-09,5.144911289215088
2012-11-12,4.916248798370361
2012-11-13,4.942632675170898
2012-11-14,4.986606597900391
2012-11-15,5.276832103729248
2012-11-16,5.232858180999756
2012-11-19,5.637415409088135
2012-11-20,5.892462253570557
2012-11-21,5.962820529937744
2012-11-23,6.033178329467773
2012-11-26,6.041972637176514
2012-11-27,5.936436176300049
2012-11-28,5.936436176300049
2012-11-29,6.1035356521606445
2012-11-30,6.156303882598877
2012-12-03,6.1035356521606445
2012-12-04,6.200277805328369
2012-12-05,6.173893928527832
2012-12-06,6.05076789855957
2012-12-07,6.05076789855957
2012-12-10,6.138714790344238
2012-12-11,6.279429912567139
2012-12-12,6.358582973480225
2012-12-13,6.305814743041992
2012-12-14,6.340993404388428
2012-12-17,6.411350727081299
2012-12-18,6.692782402038574
2012-12-19,6.675192832946777
2012-12-20,6.631219387054443
2012-12-21,6.59604024887085
2012-12-24,6.587245464324951
2012-12-26,6.587245464324951
2012-12-27,6.543272018432617
2012-12-28,6.508092880249023
2012-12-31,6.675192832946777
2013-01-02,6.991802215576172
2013-01-03,6.947829246520996
2013-01-04,7.097338676452637
2013-01-07,7.106133937835693
2013-01-08,7.32600212097168
2013-01-09,7.273233890533447
2013-01-10,7.194081783294678
2013-01-11,7.141312599182129
2013-01-14,7.009391784667969
2013-01-15,7.097338676452637
2013-01-16,7.106133937835693
2013-01-17,7.123723983764648
2013-01-18,7.264438629150391
2013-01-22,7.545869827270508
2013-01-23,7.493102073669434
2013-01-24,7.519486427307129
2013-01-25,7.563459873199463
2013-01-28,7.6514058113098145
2013-01-29,7.71297025680542
2013-01-30,7.246849536895752
2013-01-31,7.4755120277404785
2013-02-01,7.572254180908203
2013-02-04,7.528280735015869
2013-02-05,7.686585426330566
2013-02-06,7.774532794952393
2013-02-07,8.073554039001465
2013-02-08,8.161500930786133
2013-02-11,8.108732223510742
2013-02-12,8.143911361694336
2013-02-13,8.214268684387207
2013-02-14,8.451725006103516
2013-02-15,8.416546821594238
2013-02-19,8.46052074432373
2013-02-20,8.2494478225708
2013-02-21,8.055963516235352
2013-02-22,8.108732223510742
2013-02-25,7.818506240844727
2013-02-26,7.8009161949157715
2013-02-27,7.9064531326293945
2013-02-28,8.117526054382324
2013-03-01,7.880069732666016
2013-03-04,7.7305588722229
2013-03-05,7.774532794952393
2013-03-06,7.818506240844727
2013-03-07,7.8624796867370605
2013-03-08,7.985605716705322
2013-03-11,8.5396728515625
2013-03-12,8.478110313415527
2013-03-13,8.601236343383789
2013-03-14,8.970614433288574
2013-03-15,8.86507797241211
2013-03-18,8.697978019714355
2013-03-19,8.346189498901367
2013-03-20,8.495698928833008
2013-03-21,8.530879020690918
2013-03-22,8.610031127929688
2013-03-25,9.058562278747559
2013-03-26,9.208072662353516
2013-03-27,9.190483093261719
2013-03-28,9.023383140563965
2013-04-01,8.513289451599121
2013-04-02,8.363778114318848
2013-04-03,7.959222316741943
2013-04-04,7.827301025390625
2013-04-05,8.187885284423828
2013-04-08,8.381368637084961
2013-04-09,8.478110313415527
2013-04-10,8.65400505065918
2013-04-11,8.645210266113281
2013-04-12,8.284626960754395
2013-04-15,7.6514058113098145
2013-04-16,7.721763610839844
2013-04-17,7.396359443664551
2013-04-18,7.484307289123535
2013-04-19,7.290822982788086
2013-04-22,7.493102073669434
2013-04-23,7.642611980438232
2013-04-24,7.888864517211914
2013-04-25,7.765738487243652
2013-04-26,7.880069732666016
2013-04-29,8.029580116271973
2013-04-30,8.029580116271973
2013-05-01,7.871274471282959
2013-05-02,8.020784378051758
2013-05-03,8.223064422607422
2013-05-06,8.126320838928223
2013-05-07,8.267036437988281
2013-05-08,7.932837963104248
2013-05-09,7.950427055358887
2013-05-10,8.073554039001465
2013-05-13,8.06475830078125
2013-05-14,8.293421745300293
2013-05-15,8.293421745300293
2013-05-16,8.354984283447266
2013-05-17,8.86507797241211
2013-05-20,9.058562278747559
2013-05-21,8.9178466796875
2013-05-22,8.706772804260254
2013-05-23,8.478110313415527
2013-05-24,8.522083282470703
2013-05-28,8.794720649719238
2013-05-29,8.636414527893066
2013-05-30,9.040971755981445
2013-05-31,9.155303001403809
2013-06-03,9.656601905822754
2013-06-04,9.551065444946289
2013-06-05,9.401555061340332
2013-06-06,9.480708122253418
2013-06-07,9.656601905822754
2013-06-10,9.551065444946289
2013-06-11,9.322403907775879
2013-06-12,9.181687355041504
2013-06-13,9.551065444946289
2013-06-14,9.39276123046875
2013-06-17,9.621423721313477
2013-06-18,9.682987213134766
2013-06-19,9.858880996704102
2013-06-20,9.296019554138184
2013-06-21,9.26084041595459
2013-06-24,8.935436248779297
2013-06-25,9.032177925109863
2013-06-26,8.953024864196777
2013-06-27,8.803515434265137
2013-06-28,9.023383140563965
2013-07-01,9.26084041595459
2013-07-02,9.137714385986328
2013-07-03,9.225661277770996
2013-07-05,9.586243629455566
2013-07-08,9.551065444946289
2013-07-09,9.69178295135498
2013-07-10,9.533476829528809
2013-07-11,9.744549751281738
2013-07-12,9.78852367401123
2013-07-15,9.726961135864258
2013-07-16,9.726961135864258
2013-07-17,9.568655967712402
2013-07-18,9.586243629455566
2013-07-19,9.524681091308594
2013-07-22,9.375171661376953
2013-07-23,9.348787307739258
2013-07-24,9.058562278747559
2013-07-25,9.225661277770996
2013-07-26,8.979409217834473
2013-07-29,8.812310218811035
2013-07-30,8.759540557861328
2013-07-31,8.900257110595703
2013-08-01,9.04976749420166
2013-08-02,9.120124816894531
2013-08-05,9.1992769241333
2013-08-06,8.697978019714355
2013-08-07,9.50709342956543
2013-08-08,9.946828842163086
2013-08-09,9.982007026672363
2013-08-12,9.982007026672363
2013-08-13,10.087544441223145
2013-08-14,10.201875686645508
2013-08-15,10.184286117553711
2013-08-16,10.281027793884277
2013-08-19,10.113927841186523
2013-08-20,10.316205978393555
2013-08-21,10.149107933044434
2013-08-22,10.377769470214844
2013-08-23,10.289822578430176
2013-08-26,10.5360746383667
2013-08-27,10.19308090209961
2013-08-28,10.404153823852539
2013-08-29,10.360180854797363
2013-08-30,10.333796501159668
2013-09-03,10.509690284729004
2013-09-04,10.720763206481934
2013-09-05,10.835094451904297
2013-09-06,10.711969375610352
2013-09-09,10.879068374633789
2013-09-10,11.213268280029297
2013-09-11,11.336394309997559
2013-09-12,10.905452728271484
2013-09-13,10.887864112854004
2013-09-16,10.808711051940918
2013-09-17,10.843890190124512
2013-09-18,10.905452728271484
2013-09-19,10.896657943725586
2013-09-20,10.782327651977539
2013-09-23,10.703174591064453
2013-09-24,10.694379806518555
2013-09-25,10.773531913757324
2013-09-26,10.808711051940918
2013-09-27,11.046168327331543
2013-09-30,11.019783973693848
2013-10-01,11.24844741821289
2013-10-02,11.160499572753906
2013-10-03,10.782327651977539
2013-10-04,11.046168327331543
2013-10-07,10.755942344665527
2013-10-08,10.5360746383667
2013-10-09,10.632816314697266
2013-10-10,10.931838035583496
2013-10-11,11.27483081817627
2013-10-14,11.397956848144531
2013-10-15,11.230857849121094
2013-10-16,11.301216125488281
2013-10-17,11.345189094543457
2013-10-18,11.635414123535156
2013-10-21,11.529877662658691
2013-10-22,11.573851585388184
2013-10-23,11.310009956359863
2013-10-24,11.195679664611816
2013-10-25,11.222063064575195
2013-10-28,11.169294357299805
2013-10-29,11.512289047241211
2013-10-30,11.494699478149414
2013-10-31,11.406752586364746
2013-11-01,11.134116172790527
2013-11-04,11.521084785461426
2013-11-05,11.397956848144531
2013-11-06,11.397956848144531
2013-11-07,10.808711051940918
2013-11-08,11.046168327331543
2013-11-11,11.019783973693848
2013-11-12,10.835094451904297
2013-11-13,11.098937034606934
2013-11-14,11.213268280029297
2013-11-15,11.266036033630371
2013-11-18,10.773531913757324
2013-11-19,10.571253776550293
2013-11-20,10.562458992004395
2013-11-21,10.861479759216309
2013-11-22,11.063758850097656
2013-11-25,10.958221435546875
2013-11-26,10.949426651000977
2013-11-27,10.826301574707031
2013-11-29,10.85268497467041
2013-12-02,10.870274543762207
2013-12-03,10.747147560119629
2013-12-04,10.632816314697266
2013-12-05,10.632816314697266
2013-12-06,10.421744346618652
2013-12-09,10.5272798538208
2013-12-10,10.483306884765625
2013-12-11,10.333796501159668
2013-12-12,10.439332008361816
2013-12-13,10.32500171661377
2013-12-16,10.588842391967773
2013-12-17,10.333796501159668
2013-12-18,10.465716361999512
2013-12-19,10.465716361999512
2013-12-20,10.68558406829834
2013-12-23,10.923042297363281
2013-12-24,10.975811004638672
2013-12-26,10.940631866455078
2013-12-27,10.949426651000977
2013-12-30,10.826301574707031
2013-12-31,10.870274543762207
2014-01-02,10.738353729248047
2014-01-03,10.747147560119629
2014-01-06,10.694379806518555
2014-01-07,10.659200668334961
2014-01-08,10.500895500183105
2014-01-09,9.946828842163086
2014-01-10,9.832497596740723
2014-01-13,9.630218505859375
2014-01-14,9.770934104919434
2014-01-15,10.096339225769043
2014-01-16,9.982007026672363
2014-01-17,9.964418411254883
2014-01-21,9.99959659576416
2014-01-22,10.254643440246582
2014-01-23,10.05236530303955
2014-01-24,9.559861183166504
2014-01-27,9.401555061340332
2014-01-28,9.39276123046875
2014-01-29,9.304813385009766
2014-01-30,9.190483093261719
2014-01-31,9.076150894165039
2014-02-03,8.882667541503906
2014-02-04,8.926641464233398
2014-02-05,8.970614433288574
2014-02-06,9.12891960144043
2014-02-07,9.164098739624023
2014-02-10,8.856283187866211
2014-02-11,9.973213195800781
2014-02-12,9.894060134887695
2014-02-13,9.885265350341797
2014-02-14,9.876470565795898
2014-02-18,10.228260040283203
2014-02-19,10.39535903930664
2014-02-20,10.553664207458496
2014-02-21,10.580048561096191
2014-02-24,10.650405883789062
2014-02-25,10.492101669311523
2014-02-26,10.509690284729004
2014-02-27,10.588842391967773
2014-02-28,10.553664207458496
2014-03-03,10.404153823852539
2014-03-04,10.729558944702148
2014-03-05,10.632816314697266
2014-03-06,10.755942344665527
2014-03-07,10.773531913757324
2014-03-10,10.747147560119629
2014-03-11,10.430538177490234
2014-03-12,10.386565208435059
2014-03-13,10.237054824829102
2014-03-14,10.316205978393555
2014-03-17,10.580048561096191
2014-03-18,10.676790237426758
2014-03-19,10.650405883789062
2014-03-20,10.676790237426758
2014-03-21,11.046168327331543
2014-03-24,10.747147560119629
2014-03-25,10.843890190124512
2014-03-26,10.588842391967773
2014-03-27,10.729558944702148
2014-03-28,11.098937034606934
2014-03-31,11.257242202758789
2014-04-01,11.230857849121094
2014-04-02,11.547467231750488
2014-04-03,11.521084785461426
2014-04-04,11.107731819152832
2014-04-07,10.650405883789062
2014-04-08,11.046168327331543
2014-04-09,11.037374496459961
2014-04-10,10.720763206481934
2014-04-11,10.597638130187988
2014-04-14,10.940631866455078
2014-04-15,11.081347465515137
2014-04-16,11.195679664611816
2014-04-17,11.468315124511719
2014-04-21,11.485904693603516
2014-04-22,11.626620292663574
2014-04-23,11.45952033996582
2014-04-24,11.345189094543457
2014-04-25,11.081347465515137
2014-04-28,11.081347465515137
2014-04-29,10.949426651000977
2014-04-30,10.993400573730469
2014-05-01,10.747147560119629
2014-05-02,10.870274543762207
2014-05-05,10.958221435546875
2014-05-06,10.808711051940918
2014-05-07,11.169294357299805
2014-05-08,10.843890190124512
2014-05-09,9.964418411254883
2014-05-12,10.237054824829102
2014-05-13,10.113927841186523
2014-05-14,9.946828842163086
2014-05-15,9.858880996704102
2014-05-16,9.876470565795898
2014-05-19,9.973213195800781
2014-05-20,9.814908027648926
2014-05-21,9.911650657653809
2014-05-22,9.938034057617188
2014-05-23,9.973213195800781
2014-05-27,10.069953918457031
2014-05-28,10.078749656677246
2014-05-29,10.122723579406738
2014-05-30,10.140312194824219
2014-06-02,10.043569564819336
2014-06-03,10.157901763916016
2014-06-04,10.069953918457031
2014-06-05,10.281027793884277
2014-06-06,10.518486022949219
2014-06-09,10.465716361999512
2014-06-10,10.32500171661377
2014-06-11,10.289822578430176
2014-06-12,10.272233963012695
2014-06-13,10.333796501159668
2014-06-16,10.298617362976074
2014-06-17,10.333796501159668
2014-06-18,10.342591285705566
2014-06-19,10.377769470214844
2014-06-20,10.39535903930664
2014-06-23,10.483306884765625
2014-06-24,10.19308090209961
2014-06-25,10.210670471191406
2014-06-26,10.19308090209961
2014-06-27,10.245848655700684
2014-06-30,10.360180854797363
2014-07-01,10.474512100219727
2014-07-02,10.351386070251465
2014-07-03,10.421744346618652
2014-07-07,10.184286117553711
2014-07-08,10.237054824829102
2014-07-09,10.307412147521973
2014-07-10,9.832497596740723
2014-07-11,9.682987213134766
2014-07-14,9.929239273071289
2014-07-15,9.753345489501953
2014-07-16,9.858880996704102
2014-07-17,9.665397644042969
2014-07-18,9.779728889465332
2014-07-21,10.342591285705566
2014-07-22,10.509690284729004
2014-07-23,10.5272798538208
2014-07-24,10.377769470214844
2014-07-25,10.184286117553711
2014-07-28,10.008391380310059
2014-07-29,9.982007026672363
2014-07-30,9.946828842163086
2014-07-31,9.682987213134766
2014-08-01,9.559861183166504
2014-08-04,9.753345489501953
2014-08-05,9.595039367675781
2014-08-06,9.603835105895996
2014-08-07,9.639013290405273
2014-08-08,9.770934104919434
2014-08-11,9.779728889465332
2014-08-12,9.656601905822754
2014-08-13,9.876470565795898
2014-08-14,9.823702812194824
2014-08-15,10.025980949401855
2014-08-18,10.13151741027832
2014-08-19,10.113927841186523
2014-08-20,9.867676734924316
2014-08-21,9.73575496673584
2014-08-22,9.779728889465332
2014-08-25,9.858880996704102
2014-08-26,9.982007026672363
2014-08-27,10.386565208435059
2014-08-28,10.210670471191406
2014-08-29,10.377769470214844
2014-09-02,10.26343822479248
2014-09-03,10.307412147521973
2014-09-04,10.105133056640625
2014-09-05,10.281027793884277
2014-09-08,10.122723579406738
2014-09-09,9.938034057617188
2014-09-10,9.990801811218262
2014-09-11,10.237054824829102
2014-09-12,9.973213195800781
2014-09-15,10.078749656677246
2014-09-16,10.210670471191406
2014-09-17,10.149107933044434
2014-09-18,10.32500171661377
2014-09-19,10.201875686645508
2014-09-22,10.06116008758545
2014-09-23,10.06116008758545
2014-09-24,10.105133056640625
2014-09-25,9.876470565795898
2014-09-26,9.841292381286621
2014-09-29,9.814908027648926
2014-09-30,9.515887260437012
2014-10-01,9.252046585083008
2014-10-02,9.084945678710938
2014-10-03,8.99699878692627
2014-10-06,8.979409217834473
2014-10-07,8.944230079650879
2014-10-08,8.891461372375488
2014-10-09,8.469316482543945
2014-10-10,8.091142654418945
2014-10-13,7.8624796867370605
2014-10-14,7.880069732666016
2014-10-15,8.275832176208496
2014-10-16,8.416546821594238
2014-10-17,8.047168731689453
2014-10-20,8.047168731689453
2014-10-21,8.319806098937988
2014-10-22,8.108732223510742
2014-10-23,8.398958206176758
2014-10-24,8.337394714355469
2014-10-27,7.994400501251221
2014-10-28,8.32859992980957
2014-10-29,8.354984283447266
2014-10-30,8.19667911529541
2014-10-31,8.381368637084961
2014-11-03,8.293421745300293
2014-11-04,7.686585426330566
2014-11-05,7.932837963104248
2014-11-06,8.117526054382324
2014-11-07,7.880069732666016
2014-11-10,7.545869827270508
2014-11-11,7.6514058113098145
2014-11-12,7.510691165924072
2014-11-13,7.37877082824707
2014-11-14,7.352385997772217
2014-11-17,7.158902168273926
2014-11-18,7.176491737365723
2014-11-19,7.009391784667969
2014-11-20,7.220465183258057
2014-11-21,7.246849536895752
2014-11-24,7.264438629150391
2014-11-25,7.062160015106201
2014-11-26,6.939034461975098
2014-11-28,5.584647178649902
2014-12-01,4.995400905609131
2014-12-02,4.8546857833862305
2014-12-03,4.687585830688477
2014-12-04,4.6612019538879395
2014-12-05,5.012990474700928
2014-12-08,4.5380754470825195
2014-12-09,5.118527412414551
2014-12-10,4.837095737457275
2014-12-11,4.749148845672607
2014-12-12,4.450128555297852
2014-12-15,4.414949417114258
2014-12-16,4.784327983856201
2014-12-17,5.496700286865234
2014-12-18,5.505495071411133
2014-12-19,6.041972637176514
2014-12-22,5.786925792694092
2014-12-23,5.778131484985352
2014-12-24,5.778131484985352
2014-12-26,5.857284069061279
2014-12-29,5.971614837646484
2014-12-30,5.918846607208252
2014-12-31,5.87487268447876
2015-01-02,5.769336223602295
2015-01-05,5.294421195983887
2015-01-06,5.162500858306885
2015-01-07,5.162500858306885
2015-01-08,5.3296003341674805
2015-01-09,5.3735737800598145
2015-01-12,5.26803731918335
2015-01-13,4.977811336517334
2015-01-14,4.837095737457275
2015-01-15,4.749148845672607
2015-01-16,4.933838367462158
2015-01-20,4.8986592292785645
2015-01-21,5.215269088745117
2015-01-22,5.188884735107422
2015-01-23,5.136116981506348
2015-01-26,5.074553966522217
2015-01-27,5.0481696128845215
2015-01-28,4.485307216644287
2015-01-29,4.45892333984375
2015-01-30,4.344592094421387
2015-02-02,4.397360324859619
2015-02-03,4.406155109405518
2015-02-04,4.555665016174316
2015-02-05,4.705175399780273
2015-02-06,4.740354061126709
2015-02-09,5.0481696128845215
2015-02-10,4.696380615234375
2015-02-11,4.494102478027344
2015-02-12,4.441333770751953
2015-02-13,4.476512432098389
2015-02-17,4.423744201660156
2015-02-18,4.494102478027344
2015-02-19,4.485307216644287
2015-02-20,4.502896308898926
2015-02-23,4.450128555297852
2015-02-24,4.309412956237793
2015-02-25,4.32700252532959
2015-02-26,4.379770278930664
2015-02-27,5.250447750091553
2015-03-02,4.828300952911377
2015-03-03,5.004195690155029
2015-03-04,4.881069660186768
2015-03-05,4.8546857833862305
2015-03-06,4.7315592765808105
2015-03-09,4.590843677520752
2015-03-10,4.573254585266113
2015-03-11,4.652406692504883
2015-03-12,4.582049369812012
2015-03-13,4.696380615234375
2015-03-16,4.573254585266113
2015-03-17,4.678791522979736
2015-03-18,4.925043106079102
2015-03-19,4.960221767425537
2015-03-20,5.19767951965332
2015-03-23,5.012990474700928
2015-03-24,5.06575870513916
2015-03-25,5.355984687805176
2015-03-26,5.232858180999756
2015-03-27,5.136116981506348
2015-03-30,5.32080602645874
2015-03-31,5.4351372718811035
2015-04-01,5.786925792694092
2015-04-02,5.79572057723999
2015-04-06,5.936436176300049
2015-04-07,5.883667945861816
2015-04-08,5.962820529937744
2015-04-09,6.121125221252441
2015-04-10,6.121125221252441
2015-04-13,6.068356990814209
2015-04-14,6.165099143981934
2015-04-15,6.39376163482666
2015-04-16,6.384966850280762
2015-04-17,6.39376163482666
2015-04-20,6.411350727081299
2015-04-21,6.305814743041992
2015-04-22,6.288224697113037
2015-04-23,6.376172065734863
2015-04-24,6.165099143981934
2015-04-27,6.323403835296631
2015-04-28,6.279429912567139
2015-04-29,6.4641194343566895
2015-04-30,6.349787712097168
2015-05-01,6.323403835296631
2015-05-04,6.288224697113037
2015-05-05,6.200277805328369
2015-05-06,6.165099143981934
2015-05-07,5.690183639526367
2015-05-08,6.006793975830078
2015-05-11,6.085946559906006
2015-05-12,6.235456943511963
2015-05-13,6.12992000579834
2015-05-14,6.033178329467773
2015-05-15,5.936436176300049
2015-05-18,5.901257514953613
2015-05-19,5.751746654510498
2015-05-20,5.87487268447876
2015-05-21,6.024383544921875
2015-05-22,5.857284069061279
2015-05-26,5.575852870941162
2015-05-27,5.6725945472717285
2015-05-28,5.646210193634033
2015-05-29,5.531879425048828
2015-06-01,5.514289379119873
2015-06-02,5.619826316833496
2015-06-03,5.760542392730713
2015-06-04,5.602236270904541
2015-06-05,5.760542392730713
2015-06-08,5.6725945472717285
2015-06-09,5.663800239562988
2015-06-10,6.121125221252441
2015-06-11,6.015588760375977
2015-06-12,5.936436176300049
2015-06-15,5.848489284515381
2015-06-16,5.79572057723999
2015-06-17,5.936436176300049
2015-06-18,5.698978424072266
2015-06-19,5.426342487335205
2015-06-22,5.452726364135742
2015-06-23,5.505495071411133
2015-06-24,5.470315933227539
2015-06-25,5.355984687805176
2015-06-26,5.452726364135742
2015-06-29,5.558263301849365
2015-06-30,5.611031532287598
2015-07-01,5.294421195983887
2015-07-02,5.426342487335205
2015-07-06,5.26803731918335
2015-07-07,5.417547225952148
2015-07-08,5.259243011474609
2015-07-09,5.470315933227539
2015-07-10,5.338395118713379
2015-07-13,5.408752918243408
2015-07-14,5.584647178649902
2015-07-15,5.426342487335205
2015-07-16,5.188884735107422
2015-07-17,5.030580043792725
2015-07-20,4.933838367462158
2015-07-21,4.872274875640869
2015-07-22,4.573254585266113
2015-07-23,4.6612019538879395
2015-07-24,4.397360324859619
2015-07-27,4.283028602600098
2015-07-28,4.291823387145996
2015-07-29,4.353386402130127
2015-07-30,4.3006181716918945
2015-07-31,4.186286926269531
2015-08-03,4.142313480377197
2015-08-04,4.203876495361328
2015-08-05,4.291823387145996
2015-08-06,4.397360324859619
2015-08-07,4.564459800720215
2015-08-10,6.041972637176514
2015-08-11,6.332198143005371
2015-08-12,6.455324649810791
2015-08-13,6.534477233886719
2015-08-14,6.587245464324951
2015-08-17,6.587245464324951
2015-08-18,6.428940296173096
2015-08-19,6.200277805328369
2015-08-20,6.068356990814209
2015-08-21,5.962820529937744
2015-08-24,5.6725945472717285
2015-08-25,5.690183639526367
2015-08-26,5.813310146331787
2015-08-27,6.209072589874268
2015-08-28,6.499298095703125
2015-08-31,6.763139724731445
2015-09-01,6.367377281188965
2015-09-02,6.59604024887085
2015-09-03,6.490503787994385
2015-09-04,6.39376163482666
2015-09-08,6.4201459884643555
2015-09-09,6.297019958496094
2015-09-10,6.340993404388428
2015-09-11,6.112330436706543
2015-09-14,5.980409622192383
2015-09-15,6.077151775360107
2015-09-16,6.182688236236572
2015-09-17,6.165099143981934
2015-09-18,6.006793975830078
2015-09-21,6.006793975830078
2015-09-22,5.936436176300049
2015-09-23,5.760542392730713
2015-09-24,5.769336223602295
2015-09-25,5.549468517303467
2015-09-28,5.355984687805176
2015-09-29,5.276832103729248
2015-09-30,5.19767951965332
2015-10-01,5.100937843322754
2015-10-02,5.496700286865234
2015-10-05,5.707773208618164
2015-10-06,5.989204406738281
2015-10-07,5.9100518226623535
2015-10-08,6.147509574890137
2015-10-09,6.481709003448486
2015-10-12,6.12992000579834
2015-10-13,6.112330436706543
2015-10-14,6.217867374420166
2015-10-15,6.437735557556152
2015-10-16,6.2618408203125
2015-10-19,6.041972637176514
2015-10-20,6.25304651260376
2015-10-21,6.015588760375977
2015-10-22,6.1035356521606445
2015-10-23,6.138714790344238
2015-10-26,5.8660783767700195
2015-10-27,5.725363254547119
2015-10-28,6.518765926361084
2015-10-29,6.290036678314209
2015-10-30,6.423461437225342
2015-11-02,6.690311908721924
2015-11-03,6.747493743896484
2015-11-04,6.766554832458496
2015-11-05,6.566417217254639
2015-11-06,7.576634883880615
2015-11-09,7.471801280975342
2015-11-10,8.38671588897705
2015-11-11,8.205638885498047
2015-11-12,8.09127426147461
2015-11-13,8.300942420959473
2015-11-16,8.596384048461914
2015-11-17,8.281881332397461
2015-11-18,8.58685302734375
2015-11-19,8.377184867858887
2015-11-20,8.41530704498291
2015-11-23,8.644034385681152
2015-11-24,8.710747718811035
2015-11-25,8.786991119384766
2015-11-27,8.634506225585938
2015-11-30,8.882293701171875
2015-12-01,8.844173431396484
2015-12-02,8.482019424438477
2015-12-03,8.786991119384766
2015-12-04,8.119866371154785
2015-12-07,7.8244242668151855
2015-12-08,8.157987594604492
2015-12-09,8.110335350036621
2015-12-10,8.177047729492188
2015-12-11,7.83395528793335
2015-12-14,7.643348217010498
2015-12-15,8.053153038024902
2015-12-16,7.6909990310668945
2015-12-17,7.414619445800781
2015-12-18,7.271663665771484
2015-12-21,7.109647750854492
2015-12-22,7.328845977783203
2015-12-23,7.614756107330322
2015-12-24,7.624287128448486
2015-12-28,7.1858906745910645
2015-12-29,7.252603530883789
2015-12-30,7.109647750854492
2015-12-31,7.166829586029053
2016-01-04,7.128708362579346
2016-01-05,7.014344215393066
2016-01-06,6.680781841278076
2016-01-07,6.261445999145508
2016-01-08,6.042247295379639
2016-01-11,5.851640224456787
2016-01-12,5.479956150054932
2016-01-13,5.174984455108643
2016-01-14,5.289349555969238
2016-01-15,5.508547306060791
2016-01-19,5.0987420082092285
2016-01-20,5.232166767120361
2016-01-21,5.20357608795166
2016-01-22,5.3655924797058105
2016-01-25,4.917665004730225
2016-01-26,5.394183158874512
2016-01-27,5.222636699676514
2016-01-28,5.632441997528076
2016-01-29,5.8992919921875
2016-02-01,5.603851318359375
2016-02-02,5.432304382324219
2016-02-03,5.708684921264648
2016-02-04,5.708684921264648
2016-02-05,5.422774314880371
2016-02-08,5.451364994049072
2016-02-09,4.765179634094238
2016-02-10,4.59363317489624
2016-02-11,4.498329162597656
2016-02-12,4.669875621795654
2016-02-16,4.831892013549805
2016-02-17,5.022499084472656
2016-02-18,4.908134937286377
2016-02-19,4.908134937286377
2016-02-22,5.241697311401367
2016-02-23,4.917665004730225
2016-02-24,5.117802619934082
2016-02-25,5.108272552490234
2016-02-26,5.213106155395508
2016-02-29,4.803300857543945
2016-03-01,4.946256637573242
2016-03-02,5.451364994049072
2016-03-03,5.632441997528076
2016-03-04,5.641972541809082
2016-03-07,5.889761924743652
2016-03-08,5.708684921264648
2016-03-09,5.851640224456787
2016-03-10,5.861170768737793
2016-03-11,6.318627834320068
2016-03-14,6.2709760665893555
2016-03-15,6.128020763397217
2016-03-16,6.404400825500488
2016-03-17,6.50923490524292
2016-03-18,6.108959674835205
2016-03-21,6.223324298858643
2016-03-22,6.0517778396606445
2016-03-23,5.641972541809082
2016-03-24,5.889761924743652
2016-03-28,5.708684921264648
2016-03-29,5.8802313804626465
2016-03-30,5.8992919921875
2016-03-31,6.0517778396606445
2016-04-01,5.927883148193359
2016-04-04,5.794457912445068
2016-04-05,5.81351900100708
2016-04-06,6.032717227935791
2016-04-07,5.975534915924072
2016-04-08,6.242385387420654
2016-04-11,6.423461437225342
2016-04-12,6.518765926361084
2016-04-13,6.585477828979492
2016-04-14,6.585477828979492
2016-04-15,6.642659664154053
2016-04-18,6.757024765014648
2016-04-19,6.976222991943359
2016-04-20,6.833267688751221
2016-04-21,6.804676055908203
2016-04-22,7.157299518585205
2016-04-25,6.7951459884643555
2016-04-26,6.7951459884643555
2016-04-27,6.84279727935791
2016-04-28,6.633129596710205
2016-04-29,6.861858367919922
2016-05-02,6.804676055908203
2016-05-03,6.471113681793213
2016-05-04,6.499704837799072
2016-05-05,6.213793754577637
2016-05-06,5.908822059631348
2016-05-09,4.831892013549805
2016-05-10,5.241697311401367
2016-05-11,5.146393775939941
2016-05-12,5.232166767120361
2016-05-13,4.831892013549805
2016-05-16,5.04155969619751
2016-05-17,5.117802619934082
2016-05-18,4.812831401824951
2016-05-19,4.793770790100098
2016-05-20,4.8414225578308105
2016-05-23,4.955786228179932
2016-05-24,4.993907928466797
2016-05-25,5.289349555969238
2016-05-26,4.9653167724609375
2016-05-27,5.089211463928223
2016-05-31,5.213106155395508
2016-06-01,5.594320297241211
2016-06-02,5.279818534851074
2016-06-03,5.337000846862793
2016-06-06,5.823049068450928
2016-06-07,6.156611919403076
2016-06-08,6.204264163970947
2016-06-09,6.137551307678223
2016-06-10,6.261445999145508
2016-06-13,6.099430084228516
2016-06-14,6.108959674835205
2016-06-15,6.080368995666504
2016-06-16,5.251227855682373
2016-06-17,5.394183158874512
2016-06-20,5.556199073791504
2016-06-21,5.53713846206665
2016-06-22,5.403713226318359
2016-06-23,5.8992919921875
2016-06-24,5.737276077270508
2016-06-27,5.279818534851074
2016-06-28,5.594320297241211
2016-06-29,5.861170768737793
2016-06-30,6.070838451385498
2016-07-01,6.204264163970947
2016-07-05,5.823049068450928
2016-07-06,5.889761924743652
2016-07-07,5.727745532989502
2016-07-08,5.861170768737793
2016-07-11,5.8992919921875
2016-07-12,6.099430084228516
2016-07-13,5.985065460205078
2016-07-14,6.004126071929932
2016-07-15,5.975534915924072
2016-07-18,6.004126071929932
2016-07-19,5.861170768737793
2016-07-20,5.918353080749512
2016-07-21,5.832579612731934
2016-07-22,5.8992919921875
2016-07-25,5.784928321838379
2016-07-26,5.680094242095947
2016-07-27,5.708684921264648
2016-07-28,5.546669006347656
2016-07-29,5.727745532989502
2016-08-01,5.4894866943359375
2016-08-02,5.3751220703125
2016-08-03,5.556199073791504
2016-08-04,5.641972541809082
2016-08-05,6.004126071929932
2016-08-08,5.870700836181641
2016-08-09,5.8992919921875
2016-08-10,5.6610331535339355
2016-08-11,5.946943759918213
2016-08-12,5.889761924743652
2016-08-15,6.004126071929932
2016-08-16,5.985065460205078
2016-08-17,6.070838451385498
2016-08-18,6.356749057769775
2016-08-19,6.299567222595215
2016-08-22,6.118490219116211
2016-08-23,6.223324298858643
2016-08-24,6.032717227935791
2016-08-25,5.975534915924072
2016-08-26,5.908822059631348
2016-08-29,6.032717227935791
2016-08-30,5.918353080749512
2016-08-31,5.765867233276367
2016-09-01,5.775397300720215
2016-09-02,5.927883148193359
2016-09-06,5.908822059631348
2016-09-07,5.985065460205078
2016-09-08,6.14708137512207
2016-09-09,5.794457912445068
2016-09-12,5.870700836181641
2016-09-13,5.527608394622803
2016-09-14,5.479956150054932
2016-09-15,5.460895538330078
2016-09-16,5.384652614593506
2016-09-19,5.3179402351379395
2016-09-20,5.232166767120361
2016-09-21,5.413243770599365
2016-09-22,5.479956150054932
2016-09-23,5.337000846862793
2016-09-26,5.260758399963379
2016-09-27,5.20357608795166
2016-09-28,5.632441997528076
2016-09-29,5.689623832702637
2016-09-30,5.823049068450928
2016-10-03,5.765867233276367
2016-10-04,5.603851318359375
2016-10-05,5.746806621551514
2016-10-06,5.784928321838379
2016-10-07,5.6610331535339355
2016-10-10,5.889761924743652
2016-10-11,5.81351900100708
2016-10-12,5.784928321838379
2016-10-13,5.708684921264648
2016-10-14,5.737276077270508
2016-10-17,5.575260162353516
2016-10-18,5.680094242095947
2016-10-19,5.937413215637207
2016-10-20,5.889761924743652
2016-10-21,5.823049068450928
2016-10-24,5.689623832702637
2016-10-25,5.394183158874512
2016-10-26,5.346531391143799
2016-10-27,5.346531391143799
2016-10-28,5.270288467407227
2016-10-31,5.194045066833496
2016-11-01,5.20357608795166
2016-11-02,5.032029628753662
2016-11-03,5.060620307922363
2016-11-04,4.736588478088379
2016-11-07,4.5745720863342285
2016-11-08,4.479268550872803
2016-11-09,4.765179634094238
2016-11-10,4.936725616455078
2016-11-11,5.032029628753662
2016-11-14,5.051090717315674
2016-11-15,5.0987420082092285
2016-11-16,5.1368632316589355
2016-11-17,5.051090717315674
2016-11-18,4.974847316741943
2016-11-21,5.079681396484375
2016-11-22,5.194045066833496
2016-11-23,5.222636699676514
2016-11-25,5.155924320220947
2016-11-28,4.9653167724609375
2016-11-29,4.7519636154174805
2016-11-30,5.265951156616211
2016-12-01,5.479305267333984
2016-12-02,5.702356338500977
2016-12-05,5.682960510253906
2016-12-06,5.673262596130371
2016-12-07,5.479305267333984
2016-12-08,4.858640670776367
2016-12-09,4.422235488891602
2016-12-12,4.577401638031006
2016-12-13,4.771359443664551
2016-12-14,4.577401638031006
2016-12-15,4.587099552154541
2016-12-16,4.519214153289795
2016-12-19,4.625891208648682
2016-12-20,4.703474044799805
2016-12-21,4.839244365692139
2016-12-22,4.975015163421631
2016-12-23,4.91682767868042
2016-12-27,4.790755271911621
2016-12-28,4.761661529541016
2016-12-29,4.693776607513428
2016-12-30,4.868338108062744
2017-01-03,4.975015163421631
2017-01-04,5.071993827819824
2017-01-05,4.93622350692749
2017-01-06,4.848942279815674
2017-01-09,4.722869873046875
2017-01-10,4.858640670776367
2017-01-11,4.848942279815674
2017-01-12,4.674380779266357
2017-01-13,4.577401638031006
2017-01-17,4.606495380401611
2017-01-18,4.422235488891602
2017-01-19,4.179788112640381
2017-01-20,4.364048004150391
2017-01-23,4.325256824493408
2017-01-24,4.441631317138672
2017-01-25,4.703474044799805
2017-01-26,4.664682388305664
2017-01-27,4.7519636154174805
2017-01-30,4.703474044799805
2017-01-31,4.810151100158691
2017-02-01,4.810151100158691
2017-02-02,4.761661529541016
2017-02-03,4.8877339363098145
2017-02-06,4.819848537445068
2017-02-07,4.819848537445068
2017-02-08,4.781056880950928
2017-02-09,4.761661529541016
2017-02-10,4.790755271911621
2017-02-13,4.839244365692139
2017-02-14,4.91682767868042
2017-02-15,4.771359443664551
2017-02-16,4.587099552154541
2017-02-17,4.461027145385742
2017-02-21,4.577401638031006
2017-02-22,4.373746395111084
2017-02-23,4.422235488891602
2017-02-24,4.315558433532715
2017-02-27,4.490120887756348
2017-02-28,4.3543500900268555
2017-03-01,4.3446526527404785
2017-03-02,4.334954261779785
2017-03-03,4.2088823318481445
2017-03-06,4.189486503601074
2017-03-07,4.121601104736328
2017-03-08,3.917945384979248
2017-03-09,3.7530813217163086
2017-03-10,3.7433834075927734
2017-03-13,3.6754982471466064
2017-03-14,3.423353433609009
2017-03-15,3.6948940753936768
2017-03-16,3.7433834075927734
2017-03-17,3.714289903640747
2017-03-20,3.636706829071045
2017-03-21,3.704591989517212
2017-03-22,3.6948940753936768
2017-03-23,3.762779474258423
2017-03-24,3.6948940753936768
2017-03-27,3.6561026573181152
2017-03-28,3.782175302505493
2017-03-29,3.83066463470459
2017-03-30,3.8015708923339844
2017-03-31,3.9470393657684326
2017-04-03,3.9373412132263184
2017-04-04,3.888852119445801
2017-04-05,3.7433834075927734
2017-04-06,3.859758138656616
2017-04-07,3.791872978210449
2017-04-10,3.9276435375213623
2017-04-11,4.131299018859863
2017-04-12,4.014924049377441
2017-04-13,3.762779474258423
2017-04-17,3.8694560527801514
2017-04-18,3.636706829071045
2017-04-19,3.4621448516845703
2017-04-20,3.452446937561035
2017-04-21,3.4427490234375
2017-04-24,3.306978940963745
2017-04-25,3.4718427658081055
2017-04-26,3.4427490234375
2017-04-27,3.29728102684021
2017-04-28,3.229395627975464
2017-05-01,3.2099997997283936
2017-05-02,3.1324169635772705
2017-05-03,3.0645318031311035
2017-05-04,2.9966464042663574
2017-05-05,2.9966464042663574
2017-05-08,3.103323221206665
2017-05-09,2.9966464042663574
2017-05-10,3.5494260787963867
2017-05-11,3.3457703590393066
2017-05-12,3.2099997997283936
2017-05-15,3.2099997997283936
2017-05-16,3.369999885559082
2017-05-17,3.240000009536743
2017-05-18,3.2300000190734863
2017-05-19,3.450000047683716
2017-05-22,3.440000057220459
2017-05-23,3.450000047683716
2017-05-24,3.380000114440918
2017-05-25,3.259999990463257
2017-05-26,3.2899999618530273
2017-05-30,3.0999999046325684
2017-05-31,3.0899999141693115
2017-06-01,3.200000047683716
2017-06-02,3.0899999141693115
2017-06-05,3.059999942779541
2017-06-06,3.1700000762939453
2017-06-07,2.9800000190734863
2017-06-08,2.950000047683716
2017-06-09,3.0299999713897705
2017-06-12,3.140000104904175
2017-06-13,3.2699999809265137
2017-06-14,3.109999895095825
2017-06-15,3.049999952316284
2017-06-16,3.140000104904175
2017-06-19,3.140000104904175
2017-06-20,3.049999952316284
2017-06-21,2.8299999237060547
2017-06-22,2.759999990463257
2017-06-23,2.6700000762939453
2017-06-26,2.6700000762939453
2017-06-27,2.700000047683716
2017-06-28,2.759999990463257
2017-06-29,2.8499999046325684
2017-06-30,2.7899999618530273
2017-07-03,2.940000057220459
2017-07-05,2.740000009536743
2017-07-06,2.680000066757202
2017-07-07,2.630000114440918
2017-07-10,2.75
2017-07-11,2.630000114440918
2017-07-12,2.5999999046325684
2017-07-13,2.799999952316284
2017-07-14,2.859999895095825
2017-07-17,2.880000114440918
2017-07-18,2.930000066757202
2017-07-19,3.069999933242798
2017-07-20,3.119999885559082
2017-07-21,2.819999933242798
2017-07-24,2.7100000381469727
2017-07-25,2.7899999618530273
2017-07-26,2.8399999141693115
2017-07-27,2.799999952316284
2017-07-28,2.809999942779541
2017-07-31,2.809999942779541
2017-08-01,2.7200000286102295
2017-08-02,2.700000047683716
2017-08-03,2.640000104904175
2017-08-04,2.5899999141693115
2017-08-07,2.5
2017-08-08,2.430000066757202
2017-08-09,2.0299999713897705
2017-08-10,2.049999952316284
2017-08-11,1.9900000095367432
2017-08-14,2.0199999809265137
2017-08-15,1.9800000190734863
2017-08-16,1.940000057220459
2017-08-17,1.8799999952316284
2017-08-18,1.940000057220459
2017-08-21,1.940000057220459
2017-08-22,1.9199999570846558
2017-08-23,1.8700000047683716
2017-08-24,1.909999966621399
2017-08-25,1.9199999570846558
2017-08-28,1.899999976158142
2017-08-29,2.119999885559082
2017-08-30,2.059999942779541
2017-08-31,2.059999942779541
2017-09-01,2.0799999237060547
2017-09-05,2.0999999046325684
2017-09-06,2.1500000953674316
2017-09-07,2.109999895095825
2017-09-08,2.049999952316284
2017-09-11,2.059999942779541
2017-09-12,2.1700000762939453
2017-09-13,2.240000009536743
2017-09-14,2.4700000286102295
2017-09-15,2.490000009536743
2017-09-18,2.549999952316284
2017-09-19,2.630000114440918
2017-09-20,2.680000066757202
2017-09-21,2.559999942779541
2017-09-22,2.640000104904175
2017-09-25,2.75
2017-09-26,2.8499999046325684
2017-09-27,2.7699999809265137
2017-09-28,2.9200000762939453
2017-09-29,2.859999895095825
2017-10-02,2.7699999809265137
2017-10-03,2.8299999237060547
2017-10-04,2.6600000858306885
2017-10-05,2.7799999713897705
2017-10-06,2.7300000190734863
2017-10-09,2.690000057220459
2017-10-10,2.740000009536743
2017-10-11,2.700000047683716
2017-10-12,2.7300000190734863
2017-10-13,2.680000066757202
2017-10-16,2.6600000858306885
2017-10-17,2.690000057220459
2017-10-18,2.700000047683716
2017-10-19,2.6500000953674316
2017-10-20,2.630000114440918
2017-10-23,2.630000114440918
2017-10-24,2.6500000953674316
2017-10-25,2.680000066757202
2017-10-26,2.6600000858306885
2017-10-27,2.700000047683716
2017-10-30,2.740000009536743
2017-10-31,2.8399999141693115
2017-11-01,2.9200000762939453
2017-11-02,2.930000066757202
2017-11-03,2.9700000286102295
2017-11-06,3.1500000953674316
2017-11-07,3.0999999046325684
2017-11-08,3.0899999141693115
2017-11-09,3.569999933242798
2017-11-10,3.640000104904175
2017-11-13,3.690000057220459
2017-11-14,3.5
2017-11-15,3.5399999618530273
2017-11-16,3.5799999237060547
2017-11-17,3.7100000381469727
2017-11-20,3.8399999141693115
2017-11-21,3.8499999046325684
2017-11-22,4.03000020980835
2017-11-24,4.099999904632568
2017-11-27,3.990000009536743
2017-11-28,4.0
2017-11-29,3.9700000286102295
2017-11-30,4.019999980926514
2017-12-01,4.130000114440918
2017-12-04,4.110000133514404
2017-12-05,4.050000190734863
2017-12-06,3.9000000953674316
2017-12-07,3.8499999046325684
2017-12-08,3.9200000762939453
2017-12-11,4.019999980926514
2017-12-12,4.090000152587891
2017-12-13,4.050000190734863
2017-12-14,3.990000009536743
2017-12-15,4.059999942779541
2017-12-18,4.130000114440918
2017-12-19,4.039999961853027
2017-12-20,4.190000057220459
2017-12-21,4.28000020980835
2017-12-22,4.230000019073486
2017-12-26,4.400000095367432
2017-12-27,4.349999904632568
2017-12-28,4.309999942779541
2017-12-29,4.269999980926514
2018-01-02,4.309999942779541
2018-01-03,4.389999866485596
2018-01-04,4.53000020980835
2018-01-05,4.340000152587891
2018-01-08,4.340000152587891
2018-01-09,4.179999828338623
2018-01-10,4.130000114440918
2018-01-11,4.309999942779541
2018-01-12,4.389999866485596
2018-01-16,4.25
2018-01-17,4.269999980926514
2018-01-18,4.090000152587891
2018-01-19,4.099999904632568
2018-01-22,4.190000057220459
2018-01-23,4.210000038146973
2018-01-24,4.179999828338623
2018-01-25,4.119999885559082
2018-01-26,4.019999980926514
2018-01-29,3.8499999046325684
2018-01-30,3.8299999237060547
2018-01-31,3.8399999141693115
2018-02-01,3.9800000190734863
2018-02-02,3.809999942779541
2018-02-05,3.8299999237060547
2018-02-06,3.880000114440918
2018-02-07,3.8499999046325684
2018-02-08,3.4700000286102295
2018-02-09,3.5
2018-02-12,3.5399999618530273
2018-02-13,3.4600000381469727
2018-02-14,3.619999885559082
2018-02-15,3.5899999141693115
2018-02-16,3.690000057220459
2018-02-20,3.740000009536743
2018-02-21,3.809999942779541
2018-02-22,3.869999885559082
2018-02-23,3.940000057220459
2018-02-26,4.010000228881836
2018-02-27,3.740000009536743
2018-02-28,3.630000114440918
2018-03-01,3.5999999046325684
2018-03-02,3.75
2018-03-05,3.8299999237060547
2018-03-06,3.9800000190734863
2018-03-07,3.8299999237060547
2018-03-08,3.809999942779541
2018-03-09,3.890000104904175
2018-03-12,4.079999923706055
2018-03-13,3.9200000762939453
2018-03-14,4.0
2018-03-15,3.869999885559082
2018-03-16,3.950000047683716
2018-03-19,3.8299999237060547
2018-03-20,3.8299999237060547
2018-03-21,3.930000066757202
2018-03-22,3.7899999618530273
2018-03-23,3.819999933242798
2018-03-26,3.8299999237060547
2018-03-27,3.700000047683716
2018-03-28,3.690000057220459
2018-03-29,3.75
2018-04-02,3.430000066757202
2018-04-03,3.4800000190734863
2018-04-04,3.490000009536743
2018-04-05,3.369999885559082
2018-04-06,3.309999942779541
2018-04-09,3.200000047683716
2018-04-10,3.4100000858306885
2018-04-11,3.5199999809265137
2018-04-12,3.5999999046325684
2018-04-13,3.5899999141693115
2018-04-16,3.5299999713897705
2018-04-17,3.5899999141693115
2018-04-18,3.6600000858306885
2018-04-19,3.6700000762939453
2018-04-20,3.6700000762939453
2018-04-23,3.7100000381469727
2018-04-24,3.799999952316284
2018-04-25,3.9200000762939453
2018-04-26,4.0
2018-04-27,4.03000020980835
2018-04-30,3.930000066757202
2018-05-01,3.9600000381469727
2018-05-02,4.179999828338623
2018-05-03,4.130000114440918
2018-05-04,4.190000057220459
2018-05-07,4.199999809265137
2018-05-08,4.289999961853027
2018-05-09,4.550000190734863
2018-05-10,4.650000095367432
2018-05-11,4.619999885559082
2018-05-14,4.599999904632568
2018-05-15,4.579999923706055
2018-05-16,4.659999847412109
2018-05-17,4.800000190734863
2018-05-18,4.679999828338623
2018-05-21,4.590000152587891
2018-05-22,4.519999980926514
2018-05-23,4.480000019073486
2018-05-24,4.400000095367432
2018-05-25,4.260000228881836
2018-05-29,4.300000190734863
2018-05-30,4.360000133514404
2018-05-31,4.21999979019165
2018-06-01,4.199999809265137
2018-06-04,4.110000133514404
2018-06-05,4.21999979019165
2018-06-06,4.28000020980835
2018-06-07,4.340000152587891
2018-06-08,4.289999961853027
2018-06-11,4.389999866485596
2018-06-12,4.389999866485596
2018-06-13,4.389999866485596
2018-06-14,4.329999923706055
2018-06-15,4.300000190734863
2018-06-18,4.420000076293945
2018-06-19,4.489999771118164
2018-06-20,4.46999979019165
2018-06-21,4.269999980926514
2018-06-22,4.46999979019165
2018-06-25,4.190000057220459
2018-06-26,4.320000171661377
2018-06-27,4.539999961853027
2018-06-28,4.559999942779541
2018-06-29,4.449999809265137
2018-07-02,4.46999979019165
2018-07-03,4.449999809265137
2018-07-05,4.53000020980835
2018-07-06,4.699999809265137
2018-07-09,4.739999771118164
2018-07-10,4.800000190734863
2018-07-11,4.730000019073486
2018-07-12,4.789999961853027
2018-07-13,4.820000171661377
2018-07-16,4.679999828338623
2018-07-17,4.599999904632568
2018-07-18,4.570000171661377
2018-07-19,4.489999771118164
2018-07-20,4.389999866485596
2018-07-23,4.289999961853027
2018-07-24,4.28000020980835
2018-07-25,4.260000228881836
2018-07-26,4.28000020980835
2018-07-27,4.139999866485596
2018-07-30,4.239999771118164
2018-07-31,4.309999942779541
2018-08-01,4.269999980926514
2018-08-02,4.329999923706055
2018-08-03,4.349999904632568
2018-08-06,4.289999961853027
2018-08-07,4.389999866485596
2018-08-08,4.170000076293945
2018-08-09,4.690000057220459
2018-08-10,4.730000019073486
2018-08-13,4.900000095367432
2018-08-14,4.929999828338623
2018-08-15,4.78000020980835
2018-08-16,4.800000190734863
2018-08-17,4.829999923706055
2018-08-20,4.940000057220459
2018-08-21,5.050000190734863
2018-08-22,5.0
2018-08-23,4.860000133514404
2018-08-24,4.769999980926514
2018-08-27,4.639999866485596
2018-08-28,4.650000095367432
2018-08-29,4.730000019073486
2018-08-30,4.610000133514404
2018-08-31,4.590000152587891
2018-09-04,4.510000228881836
2018-09-05,4.340000152587891
2018-09-06,4.25
2018-09-07,4.239999771118164
2018-09-10,4.309999942779541
2018-09-11,4.400000095367432
2018-09-12,4.449999809265137
2018-09-13,4.369999885559082
2018-09-14,4.409999847412109
2018-09-17,4.289999961853027
2018-09-18,4.320000171661377
2018-09-19,4.340000152587891
2018-09-20,4.300000190734863
2018-09-21,4.389999866485596
2018-09-24,4.5
2018-09-25,4.71999979019165
2018-09-26,4.420000076293945
2018-09-27,4.440000057220459
2018-09-28,4.510000228881836
2018-10-01,4.429999828338623
2018-10-02,4.369999885559082
2018-10-03,4.340000152587891
2018-10-04,4.179999828338623
2018-10-05,4.039999961853027
2018-10-08,3.950000047683716
2018-10-09,4.119999885559082
2018-10-10,3.9000000953674316
2018-10-11,3.859999895095825
2018-10-12,3.740000009536743
2018-10-15,3.6500000953674316
2018-10-16,3.740000009536743
2018-10-17,3.7100000381469727
2018-10-18,3.549999952316284
2018-10-19,3.430000066757202
2018-10-22,3.4100000858306885
2018-10-23,3.319999933242798
2018-10-24,3.140000104904175
2018-10-25,3.180000066757202
2018-10-26,3.2300000190734863
2018-10-29,3.0299999713897705
2018-10-30,3.119999885559082
2018-10-31,2.9700000286102295
2018-11-01,3.009999990463257
2018-11-02,3.2200000286102295
2018-11-05,3.1500000953674316
2018-11-06,3.259999990463257
2018-11-07,3.430000066757202
2018-11-08,3.2200000286102295
2018-11-09,3.059999942779541
2018-11-12,2.859999895095825
2018-11-13,2.700000047683716
2018-11-14,2.5799999237060547
2018-11-15,2.5799999237060547
2018-11-16,2.569999933242798
2018-11-19,2.569999933242798
2018-11-20,2.450000047683716
2018-11-21,2.5299999713897705
2018-11-23,2.4600000381469727
2018-11-26,2.2799999713897705
2018-11-27,2.190000057220459
2018-11-28,2.319999933242798
2018-11-29,2.309999942779541
2018-11-30,2.319999933242798
2018-12-03,2.319999933242798
2018-12-04,2.190000057220459
2018-12-06,2.130000114440918
2018-12-07,2.0299999713897705
2018-12-10,1.940000057220459
2018-12-11,1.9600000381469727
2018-12-12,1.940000057220459
2018-12-13,1.8600000143051147
2018-12-14,1.7799999713897705
2018-12-17,1.7000000476837158
2018-12-18,1.649999976158142
2018-12-19,1.5800000429153442
2018-12-20,1.4700000286102295
2018-12-21,1.4600000381469727
2018-12-24,1.350000023841858
2018-12-26,1.350000023841858
2018-12-27,1.4199999570846558
2018-12-28,1.600000023841858
2018-12-31,1.6799999475479126
2019-01-02,1.7699999809265137
2019-01-03,1.7999999523162842
2019-01-04,2.0
2019-01-07,2.0899999141693115
2019-01-08,2.119999885559082
2019-01-09,2.200000047683716
2019-01-10,2.2200000286102295
2019-01-11,2.319999933242798
2019-01-14,2.2300000190734863
2019-01-15,2.200000047683716
2019-01-16,2.1500000953674316
2019-01-17,2.259999990463257
2019-01-18,2.3299999237060547
2019-01-22,2.2699999809265137
2019-01-23,2.059999942779541
2019-01-24,2.0999999046325684
2019-01-25,2.2899999618530273
2019-01-28,2.240000009536743
2019-01-29,2.200000047683716
2019-01-30,2.190000057220459
2019-01-31,2.130000114440918
2019-02-01,2.2899999618530273
2019-02-04,2.4200000762939453
2019-02-05,2.390000104904175
2019-02-06,2.3299999237060547
2019-02-07,2.130000114440918
2019-02-08,2.2100000381469727
2019-02-11,2.2899999618530273
2019-02-12,2.369999885559082
2019-02-13,2.4600000381469727
2019-02-14,2.5199999809265137
2019-02-15,2.5899999141693115
2019-02-19,2.5999999046325684
2019-02-20,2.6500000953674316
2019-02-21,2.5
2019-02-22,2.559999942779541
2019-02-25,2.559999942779541
2019-02-26,2.390000104904175
2019-02-27,2.2100000381469727
2019-02-28,2.390000104904175
2019-03-01,2.4800000190734863
2019-03-04,2.559999942779541
2019-03-05,2.490000009536743
2019-03-06,2.450000047683716
2019-03-07,2.369999885559082
2019-03-08,2.25
2019-03-11,2.299999952316284
2019-03-12,2.4000000953674316
2019-03-13,2.369999885559082
2019-03-14,2.359999895095825
2019-03-15,2.549999952316284
2019-03-18,2.5999999046325684
2019-03-19,2.5199999809265137
2019-03-20,2.569999933242798
2019-03-21,2.4700000286102295
2019-03-22,2.299999952316284
2019-03-25,2.2799999713897705
2019-03-26,2.359999895095825
2019-03-27,2.2899999618530273
2019-03-28,2.319999933242798
2019-03-29,2.3399999141693115
2019-04-01,2.390000104904175
2019-04-02,2.359999895095825
2019-04-03,2.359999895095825
2019-04-04,2.390000104904175
2019-04-05,2.5199999809265137
2019-04-08,2.5299999713897705
2019-04-09,2.4600000381469727
2019-04-10,2.5399999618530273
2019-04-11,2.5199999809265137
2019-04-12,2.5199999809265137
2019-04-15,2.440000057220459
2019-04-16,2.440000057220459
2019-04-17,2.450000047683716
2019-04-18,2.440000057220459
2019-04-22,2.430000066757202
2019-04-23,2.490000009536743
2019-04-24,2.509999990463257
2019-04-25,2.490000009536743
2019-04-26,2.430000066757202
2019-04-29,2.450000047683716
2019-04-30,2.380000114440918
2019-05-01,2.299999952316284
2019-05-02,2.200000047683716
2019-05-03,2.2799999713897705
2019-05-06,2.359999895095825
2019-05-07,2.2100000381469727
2019-05-08,2.119999885559082
2019-05-09,2.1500000953674316
2019-05-10,2.059999942779541
2019-05-13,1.909999966621399
2019-05-14,2.059999942779541
2019-05-15,2.119999885559082
2019-05-16,2.1500000953674316
2019-05-17,2.0199999809265137
2019-05-20,2.049999952316284
2019-05-21,2.069999933242798
2019-05-22,1.940000057220459
2019-05-23,1.8600000143051147
2019-05-24,1.8200000524520874
2019-05-28,1.75
2019-05-29,1.75
2019-05-30,1.6299999952316284
2019-05-31,1.5399999618530273
2019-06-03,1.4900000095367432
2019-06-04,1.5
2019-06-05,1.4299999475479126
2019-06-06,1.4600000381469727
2019-06-07,1.4600000381469727
2019-06-10,1.5199999809265137
2019-06-11,1.5199999809265137
2019-06-12,1.4700000286102295
2019-06-13,1.5399999618530273
2019-06-14,1.5199999809265137
2019-06-17,1.5800000429153442
2019-06-18,1.6100000143051147
2019-06-19,1.6200000047683716
2019-06-20,1.6799999475479126
2019-06-21,1.6100000143051147
2019-06-24,1.5499999523162842
2019-06-25,1.5499999523162842
2019-06-26,1.6299999952316284
2019-06-27,1.6399999856948853
2019-06-28,1.6299999952316284
2019-07-01,1.7000000476837158
2019-07-02,1.5800000429153442
2019-07-03,1.5700000524520874
2019-07-05,1.590000033378601
2019-07-08,1.6299999952316284
2019-07-09,1.6799999475479126
2019-07-10,1.7400000095367432
2019-07-11,1.75
2019-07-12,1.7999999523162842
2019-07-15,1.8200000524520874
2019-07-16,1.7100000381469727
2019-07-17,1.7000000476837158
2019-07-18,1.590000033378601
2019-07-19,1.5199999809265137
2019-07-22,1.6100000143051147
2019-07-23,1.590000033378601
2019-07-24,1.6100000143051147
2019-07-25,1.5
2019-07-26,1.4800000190734863
2019-07-29,1.4199999570846558
2019-07-30,1.559999942779541
2019-07-31,1.559999942779541
2019-08-01,1.5
2019-08-02,1.4600000381469727
2019-08-05,1.3700000047683716
2019-08-06,1.3899999856948853
2019-08-07,1.3899999856948853
2019-08-08,1.600000023841858
2019-08-09,1.7100000381469727
2019-08-12,1.75
2019-08-13,1.850000023841858
2019-08-14,1.7100000381469727
2019-08-15,1.6799999475479126
2019-08-16,1.7699999809265137
2019-08-19,1.9199999570846558
2019-08-20,1.850000023841858
2019-08-21,1.899999976158142
2019-08-22,1.8600000143051147
2019-08-23,1.7000000476837158
2019-08-26,1.6799999475479126
2019-08-27,1.6399999856948853
2019-08-28,1.6299999952316284
2019-08-29,1.7100000381469727
2019-08-30,1.659999966621399
2019-09-03,1.5700000524520874
2019-09-04,1.590000033378601
2019-09-05,1.690000057220459
2019-09-06,1.6399999856948853
2019-09-09,1.7400000095367432
2019-09-10,1.7999999523162842
2019-09-11,1.840000033378601
2019-09-12,1.8600000143051147
2019-09-13,1.899999976158142
2019-09-16,1.9900000095367432
2019-09-17,1.850000023841858
2019-09-18,1.809999942779541
2019-09-19,1.899999976158142
2019-09-20,1.8899999856948853
2019-09-23,1.9700000286102295
2019-09-24,2.0299999713897705
2019-09-25,2.0799999237060547
2019-09-26,2.1500000953674316
2019-09-27,2.0899999141693115
2019-09-30,2.009999990463257
2019-10-01,1.9700000286102295
2019-10-02,1.940000057220459
2019-10-03,1.9199999570846558
2019-10-04,1.9900000095367432
2019-10-07,2.0
2019-10-08,2.119999885559082
2019-10-09,1.899999976158142
2019-10-10,1.7799999713897705
2019-10-11,1.7799999713897705
2019-10-14,1.659999966621399
2019-10-15,1.649999976158142
2019-10-16,1.6299999952316284
2019-10-17,1.6100000143051147
2019-10-18,1.6100000143051147
2019-10-21,1.659999966621399
2019-10-22,1.7799999713897705
2019-10-23,1.8300000429153442
2019-10-24,1.7300000190734863
2019-10-25,1.75
2019-10-28,1.7799999713897705
2019-10-29,1.7999999523162842
2019-10-30,1.7100000381469727
2019-10-31,1.7000000476837158
2019-11-01,1.7300000190734863
2019-11-04,1.9600000381469727
2019-11-05,1.9500000476837158
2019-11-06,1.840000033378601
2019-11-07,1.6699999570846558
2019-11-08,1.5399999618530273
2019-11-11,1.4600000381469727
2019-11-12,1.4500000476837158
2019-11-13,1.3799999952316284
2019-11-14,1.3300000429153442
2019-11-15,1.2699999809265137
2019-11-18,1.2300000190734863
2019-11-19,1.190000057220459
2019-11-20,1.1699999570846558
2019-11-21,1.190000057220459
2019-11-22,1.2100000381469727
2019-11-25,1.309999942779541
2019-11-26,1.2200000286102295
2019-11-27,1.2200000286102295
2019-11-29,1.2300000190734863
2019-12-02,1.2100000381469727
2019-12-03,1.2100000381469727
2019-12-04,1.2799999713897705
2019-12-05,1.2899999618530273
2019-12-06,1.2699999809265137
2019-12-09,1.2599999904632568
2019-12-10,1.2300000190734863
2019-12-11,1.2799999713897705
2019-12-12,1.309999942779541
2019-12-13,1.3700000047683716
2019-12-16,1.4199999570846558
2019-12-17,1.6299999952316284
2019-12-18,1.7000000476837158
2019-12-19,1.7999999523162842
2019-12-20,1.9199999570846558
2019-12-23,2.0399999618530273
2019-12-24,2.049999952316284
2019-12-26,1.9800000190734863
2019-12-27,1.8899999856948853
2019-12-30,2.0
2019-12-31,1.9600000381469727
