Date,VEEV
2013-10-16,37.15999984741211
2013-10-17,41.599998474121094
2013-10-18,44.38999938964844
2013-10-21,46.2400016784668
2013-10-22,42.95000076293945
2013-10-23,40.150001525878906
2013-10-24,43.150001525878906
2013-10-25,43.0
2013-10-28,40.470001220703125
2013-10-29,38.720001220703125
2013-10-30,37.20000076293945
2013-10-31,38.90999984741211
2013-11-01,38.58000183105469
2013-11-04,38.93000030517578
2013-11-05,38.189998626708984
2013-11-06,38.63999938964844
2013-11-07,38.11000061035156
2013-11-08,40.540000915527344
2013-11-11,37.189998626708984
2013-11-12,37.099998474121094
2013-11-13,38.709999084472656
2013-11-14,38.849998474121094
2013-11-15,38.59000015258789
2013-11-18,38.529998779296875
2013-11-19,37.0099983215332
2013-11-20,36.93000030517578
2013-11-21,37.54999923706055
2013-11-22,38.150001525878906
2013-11-25,39.4900016784668
2013-11-26,42.130001068115234
2013-11-27,41.90999984741211
2013-11-29,40.4900016784668
2013-12-02,41.220001220703125
2013-12-03,40.209999084472656
2013-12-04,40.13999938964844
2013-12-05,40.97999954223633
2013-12-06,40.04999923706055
2013-12-09,38.08000183105469
2013-12-10,38.310001373291016
2013-12-11,37.880001068115234
2013-12-12,37.52000045776367
2013-12-13,36.93000030517578
2013-12-16,34.16999816894531
2013-12-17,34.060001373291016
2013-12-18,33.56999969482422
2013-12-19,32.939998626708984
2013-12-20,33.689998626708984
2013-12-23,32.70000076293945
2013-12-24,32.83000183105469
2013-12-26,32.310001373291016
2013-12-27,31.860000610351562
2013-12-30,31.8799991607666
2013-12-31,32.099998474121094
2014-01-02,32.33000183105469
2014-01-03,35.16999816894531
2014-01-06,34.86000061035156
2014-01-07,34.34000015258789
2014-01-08,34.16999816894531
2014-01-09,32.630001068115234
2014-01-10,32.529998779296875
2014-01-13,33.06999969482422
2014-01-14,33.7400016784668
2014-01-15,32.02000045776367
2014-01-16,31.940000534057617
2014-01-17,31.5
2014-01-21,31.760000228881836
2014-01-22,31.290000915527344
2014-01-23,31.6200008392334
2014-01-24,31.889999389648438
2014-01-27,31.09000015258789
2014-01-28,31.020000457763672
2014-01-29,31.0
2014-01-30,32.25
2014-01-31,31.790000915527344
2014-02-03,29.459999084472656
2014-02-04,30.040000915527344
2014-02-05,29.760000228881836
2014-02-06,30.549999237060547
2014-02-07,30.809999465942383
2014-02-10,30.850000381469727
2014-02-11,31.020000457763672
2014-02-12,31.299999237060547
2014-02-13,32.619998931884766
2014-02-14,34.22999954223633
2014-02-18,35.849998474121094
2014-02-19,35.900001525878906
2014-02-20,35.869998931884766
2014-02-21,35.04999923706055
2014-02-24,35.16999816894531
2014-02-25,35.0
2014-02-26,35.16999816894531
2014-02-27,35.849998474121094
2014-02-28,35.29999923706055
2014-03-03,35.9900016784668
2014-03-04,37.79999923706055
2014-03-05,34.7599983215332
2014-03-06,34.04999923706055
2014-03-07,32.43000030517578
2014-03-10,33.77000045776367
2014-03-11,32.970001220703125
2014-03-12,33.290000915527344
2014-03-13,32.56999969482422
2014-03-14,32.2599983215332
2014-03-17,33.099998474121094
2014-03-18,33.779998779296875
2014-03-19,32.81999969482422
2014-03-20,31.739999771118164
2014-03-21,30.110000610351562
2014-03-24,27.389999389648438
2014-03-25,27.270000457763672
2014-03-26,26.270000457763672
2014-03-27,26.0
2014-03-28,26.90999984741211
2014-03-31,26.700000762939453
2014-04-01,26.290000915527344
2014-04-02,26.389999389648438
2014-04-03,24.729999542236328
2014-04-04,23.100000381469727
2014-04-07,23.049999237060547
2014-04-08,23.420000076293945
2014-04-09,24.139999389648438
2014-04-10,23.260000228881836
2014-04-11,21.899999618530273
2014-04-14,21.899999618530273
2014-04-15,22.149999618530273
2014-04-16,22.6299991607666
2014-04-17,22.549999237060547
2014-04-21,22.06999969482422
2014-04-22,23.15999984741211
2014-04-23,22.149999618530273
2014-04-24,20.989999771118164
2014-04-25,19.739999771118164
2014-04-28,18.8700008392334
2014-04-29,18.700000762939453
2014-04-30,19.209999084472656
2014-05-01,19.610000610351562
2014-05-02,19.889999389648438
2014-05-05,19.670000076293945
2014-05-06,19.299999237060547
2014-05-07,17.8700008392334
2014-05-08,17.90999984741211
2014-05-09,18.229999542236328
2014-05-12,19.040000915527344
2014-05-13,18.350000381469727
2014-05-14,18.219999313354492
2014-05-15,18.68000030517578
2014-05-16,19.34000015258789
2014-05-19,19.209999084472656
2014-05-20,19.899999618530273
2014-05-21,19.780000686645508
2014-05-22,20.110000610351562
2014-05-23,21.15999984741211
2014-05-27,21.100000381469727
2014-05-28,21.889999389648438
2014-05-29,22.040000915527344
2014-05-30,20.959999084472656
2014-06-02,19.850000381469727
2014-06-03,20.059999465942383
2014-06-04,19.799999237060547
2014-06-05,20.75
2014-06-06,21.149999618530273
2014-06-09,21.5
2014-06-10,21.360000610351562
2014-06-11,21.729999542236328
2014-06-12,22.030000686645508
2014-06-13,21.309999465942383
2014-06-16,23.719999313354492
2014-06-17,24.520000457763672
2014-06-18,24.899999618530273
2014-06-19,24.81999969482422
2014-06-20,24.75
2014-06-23,24.520000457763672
2014-06-24,24.780000686645508
2014-06-25,24.309999465942383
2014-06-26,24.209999084472656
2014-06-27,24.829999923706055
2014-06-30,25.450000762939453
2014-07-01,26.209999084472656
2014-07-02,25.229999542236328
2014-07-03,24.959999084472656
2014-07-07,24.8700008392334
2014-07-08,24.299999237060547
2014-07-09,24.010000228881836
2014-07-10,24.329999923706055
2014-07-11,24.40999984741211
2014-07-14,24.610000610351562
2014-07-15,23.3799991607666
2014-07-16,23.969999313354492
2014-07-17,23.739999771118164
2014-07-18,24.520000457763672
2014-07-21,24.739999771118164
2014-07-22,24.3700008392334
2014-07-23,23.719999313354492
2014-07-24,24.3799991607666
2014-07-25,23.59000015258789
2014-07-28,23.56999969482422
2014-07-29,23.690000534057617
2014-07-30,24.100000381469727
2014-07-31,23.799999237060547
2014-08-01,22.5
2014-08-04,23.229999542236328
2014-08-05,23.34000015258789
2014-08-06,22.649999618530273
2014-08-07,22.59000015258789
2014-08-08,22.18000030517578
2014-08-11,22.979999542236328
2014-08-12,22.84000015258789
2014-08-13,22.850000381469727
2014-08-14,22.860000610351562
2014-08-15,22.06999969482422
2014-08-18,22.579999923706055
2014-08-19,22.1299991607666
2014-08-20,21.920000076293945
2014-08-21,22.649999618530273
2014-08-22,24.420000076293945
2014-08-25,24.600000381469727
2014-08-26,24.940000534057617
2014-08-27,25.209999084472656
2014-08-28,24.959999084472656
2014-08-29,29.969999313354492
2014-09-02,29.459999084472656
2014-09-03,28.850000381469727
2014-09-04,30.15999984741211
2014-09-05,29.729999542236328
2014-09-08,29.850000381469727
2014-09-09,29.5
2014-09-10,30.709999084472656
2014-09-11,31.15999984741211
2014-09-12,31.559999465942383
2014-09-15,30.229999542236328
2014-09-16,29.610000610351562
2014-09-17,29.18000030517578
2014-09-18,29.34000015258789
2014-09-19,28.979999542236328
2014-09-22,29.049999237060547
2014-09-23,29.190000534057617
2014-09-24,28.829999923706055
2014-09-25,28.639999389648438
2014-09-26,28.739999771118164
2014-09-29,28.889999389648438
2014-09-30,28.170000076293945
2014-10-01,27.420000076293945
2014-10-02,27.049999237060547
2014-10-03,27.469999313354492
2014-10-06,26.360000610351562
2014-10-07,25.719999313354492
2014-10-08,26.0
2014-10-09,25.469999313354492
2014-10-10,25.350000381469727
2014-10-13,25.450000762939453
2014-10-14,25.770000457763672
2014-10-15,26.600000381469727
2014-10-16,27.81999969482422
2014-10-17,28.100000381469727
2014-10-20,28.309999465942383
2014-10-21,28.530000686645508
2014-10-22,27.75
2014-10-23,27.989999771118164
2014-10-24,28.020000457763672
2014-10-27,28.829999923706055
2014-10-28,28.950000762939453
2014-10-29,28.209999084472656
2014-10-30,28.790000915527344
2014-10-31,29.780000686645508
2014-11-03,28.709999084472656
2014-11-04,28.3700008392334
2014-11-05,28.059999465942383
2014-11-06,27.739999771118164
2014-11-07,28.43000030517578
2014-11-10,28.670000076293945
2014-11-11,28.549999237060547
2014-11-12,28.780000686645508
2014-11-13,28.3799991607666
2014-11-14,28.0
2014-11-17,27.56999969482422
2014-11-18,28.209999084472656
2014-11-19,27.350000381469727
2014-11-20,27.829999923706055
2014-11-21,28.0
2014-11-24,28.700000762939453
2014-11-25,28.84000015258789
2014-11-26,32.380001068115234
2014-11-28,32.849998474121094
2014-12-01,31.15999984741211
2014-12-02,31.420000076293945
2014-12-03,30.25
2014-12-04,31.520000457763672
2014-12-05,30.969999313354492
2014-12-08,30.540000915527344
2014-12-09,30.729999542236328
2014-12-10,28.8799991607666
2014-12-11,28.68000030517578
2014-12-12,28.59000015258789
2014-12-15,26.81999969482422
2014-12-16,26.18000030517578
2014-12-17,26.860000610351562
2014-12-18,28.020000457763672
2014-12-19,27.690000534057617
2014-12-22,27.700000762939453
2014-12-23,26.6299991607666
2014-12-24,26.8799991607666
2014-12-26,26.780000686645508
2014-12-29,26.700000762939453
2014-12-30,26.139999389648438
2014-12-31,26.40999984741211
2015-01-02,26.229999542236328
2015-01-05,26.229999542236328
2015-01-06,27.1200008392334
2015-01-07,27.170000076293945
2015-01-08,28.389999389648438
2015-01-09,28.790000915527344
2015-01-12,29.1200008392334
2015-01-13,29.09000015258789
2015-01-14,28.719999313354492
2015-01-15,28.09000015258789
2015-01-16,28.06999969482422
2015-01-20,28.0
2015-01-21,28.479999542236328
2015-01-22,28.510000228881836
2015-01-23,29.299999237060547
2015-01-26,29.84000015258789
2015-01-27,29.3700008392334
2015-01-28,28.979999542236328
2015-01-29,29.1299991607666
2015-01-30,28.760000228881836
2015-02-02,28.549999237060547
2015-02-03,29.469999313354492
2015-02-04,30.0
2015-02-05,30.079999923706055
2015-02-06,30.15999984741211
2015-02-09,29.799999237060547
2015-02-10,30.049999237060547
2015-02-11,29.90999984741211
2015-02-12,29.950000762939453
2015-02-13,30.1200008392334
2015-02-17,29.899999618530273
2015-02-18,31.0
2015-02-19,30.850000381469727
2015-02-20,30.579999923706055
2015-02-23,29.989999771118164
2015-02-24,29.93000030517578
2015-02-25,30.299999237060547
2015-02-26,31.459999084472656
2015-02-27,30.8700008392334
2015-03-02,30.989999771118164
2015-03-03,32.689998626708984
2015-03-04,25.719999313354492
2015-03-05,24.729999542236328
2015-03-06,24.6299991607666
2015-03-09,24.809999465942383
2015-03-10,24.260000228881836
2015-03-11,24.399999618530273
2015-03-12,24.959999084472656
2015-03-13,24.860000610351562
2015-03-16,24.93000030517578
2015-03-17,27.729999542236328
2015-03-18,27.479999542236328
2015-03-19,27.93000030517578
2015-03-20,27.280000686645508
2015-03-23,26.3700008392334
2015-03-24,27.239999771118164
2015-03-25,25.700000762939453
2015-03-26,25.350000381469727
2015-03-27,25.459999084472656
2015-03-30,25.440000534057617
2015-03-31,25.530000686645508
2015-04-01,25.0
2015-04-02,25.149999618530273
2015-04-06,25.68000030517578
2015-04-07,26.06999969482422
2015-04-08,26.540000915527344
2015-04-09,26.639999389648438
2015-04-10,26.690000534057617
2015-04-13,26.579999923706055
2015-04-14,26.209999084472656
2015-04-15,27.020000457763672
2015-04-16,27.18000030517578
2015-04-17,26.420000076293945
2015-04-20,26.75
2015-04-21,26.84000015258789
2015-04-22,27.1200008392334
2015-04-23,27.40999984741211
2015-04-24,27.170000076293945
2015-04-27,26.790000915527344
2015-04-28,27.260000228881836
2015-04-29,27.139999389648438
2015-04-30,26.549999237060547
2015-05-01,26.989999771118164
2015-05-04,27.270000457763672
2015-05-05,26.459999084472656
2015-05-06,27.1299991607666
2015-05-07,27.0
2015-05-08,27.229999542236328
2015-05-11,27.530000686645508
2015-05-12,27.040000915527344
2015-05-13,26.90999984741211
2015-05-14,27.510000228881836
2015-05-15,27.200000762939453
2015-05-18,27.969999313354492
2015-05-19,27.389999389648438
2015-05-20,27.760000228881836
2015-05-21,27.940000534057617
2015-05-22,27.899999618530273
2015-05-26,28.56999969482422
2015-05-27,27.790000915527344
2015-05-28,29.0
2015-05-29,27.1200008392334
2015-06-01,26.420000076293945
2015-06-02,26.969999313354492
2015-06-03,27.729999542236328
2015-06-04,27.440000534057617
2015-06-05,27.6200008392334
2015-06-08,26.989999771118164
2015-06-09,26.309999465942383
2015-06-10,26.40999984741211
2015-06-11,27.260000228881836
2015-06-12,26.610000610351562
2015-06-15,27.06999969482422
2015-06-16,26.690000534057617
2015-06-17,27.139999389648438
2015-06-18,27.299999237060547
2015-06-19,26.860000610351562
2015-06-22,27.329999923706055
2015-06-23,28.329999923706055
2015-06-24,27.940000534057617
2015-06-25,28.149999618530273
2015-06-26,28.5
2015-06-29,28.0
2015-06-30,28.030000686645508
2015-07-01,28.260000228881836
2015-07-02,28.09000015258789
2015-07-06,27.920000076293945
2015-07-07,28.3799991607666
2015-07-08,27.850000381469727
2015-07-09,27.989999771118164
2015-07-10,28.100000381469727
2015-07-13,28.31999969482422
2015-07-14,28.920000076293945
2015-07-15,28.75
2015-07-16,28.780000686645508
2015-07-17,28.239999771118164
2015-07-20,27.850000381469727
2015-07-21,27.510000228881836
2015-07-22,27.290000915527344
2015-07-23,27.709999084472656
2015-07-24,27.540000915527344
2015-07-27,26.93000030517578
2015-07-28,27.100000381469727
2015-07-29,27.030000686645508
2015-07-30,26.700000762939453
2015-07-31,26.920000076293945
2015-08-03,26.290000915527344
2015-08-04,26.06999969482422
2015-08-05,26.40999984741211
2015-08-06,25.450000762939453
2015-08-07,25.6299991607666
2015-08-10,26.06999969482422
2015-08-11,25.520000457763672
2015-08-12,25.170000076293945
2015-08-13,25.15999984741211
2015-08-14,25.229999542236328
2015-08-17,25.489999771118164
2015-08-18,25.350000381469727
2015-08-19,25.299999237060547
2015-08-20,24.489999771118164
2015-08-21,24.25
2015-08-24,23.3700008392334
2015-08-25,23.09000015258789
2015-08-26,23.510000228881836
2015-08-27,24.15999984741211
2015-08-28,26.440000534057617
2015-08-31,25.899999618530273
2015-09-01,24.690000534057617
2015-09-02,24.75
2015-09-03,24.610000610351562
2015-09-04,24.760000228881836
2015-09-08,25.469999313354492
2015-09-09,25.25
2015-09-10,25.479999542236328
2015-09-11,25.549999237060547
2015-09-14,25.610000610351562
2015-09-15,26.110000610351562
2015-09-16,26.360000610351562
2015-09-17,26.510000228881836
2015-09-18,26.510000228881836
2015-09-21,26.530000686645508
2015-09-22,25.809999465942383
2015-09-23,25.09000015258789
2015-09-24,24.600000381469727
2015-09-25,24.18000030517578
2015-09-28,23.25
2015-09-29,22.829999923706055
2015-09-30,23.40999984741211
2015-10-01,23.399999618530273
2015-10-02,24.200000762939453
2015-10-05,24.360000610351562
2015-10-06,24.530000686645508
2015-10-07,25.079999923706055
2015-10-08,25.219999313354492
2015-10-09,25.780000686645508
2015-10-12,25.3799991607666
2015-10-13,24.690000534057617
2015-10-14,24.610000610351562
2015-10-15,25.510000228881836
2015-10-16,25.90999984741211
2015-10-19,26.059999465942383
2015-10-20,25.75
2015-10-21,24.93000030517578
2015-10-22,24.3799991607666
2015-10-23,25.280000686645508
2015-10-26,25.209999084472656
2015-10-27,25.190000534057617
2015-10-28,25.979999542236328
2015-10-29,25.309999465942383
2015-10-30,25.3700008392334
2015-11-02,25.770000457763672
2015-11-03,26.270000457763672
2015-11-04,26.350000381469727
2015-11-05,26.25
2015-11-06,27.1200008392334
2015-11-09,27.049999237060547
2015-11-10,26.760000228881836
2015-11-11,26.6299991607666
2015-11-12,26.549999237060547
2015-11-13,26.579999923706055
2015-11-16,27.0
2015-11-17,27.459999084472656
2015-11-18,27.6200008392334
2015-11-19,27.260000228881836
2015-11-20,27.280000686645508
2015-11-23,27.219999313354492
2015-11-24,27.360000610351562
2015-11-25,28.729999542236328
2015-11-27,28.790000915527344
2015-11-30,28.860000610351562
2015-12-01,27.760000228881836
2015-12-02,28.239999771118164
2015-12-03,27.239999771118164
2015-12-04,27.5
2015-12-07,27.239999771118164
2015-12-08,27.1299991607666
2015-12-09,26.690000534057617
2015-12-10,26.899999618530273
2015-12-11,26.260000228881836
2015-12-14,26.719999313354492
2015-12-15,27.3799991607666
2015-12-16,28.25
2015-12-17,27.8799991607666
2015-12-18,27.860000610351562
2015-12-21,28.020000457763672
2015-12-22,28.1200008392334
2015-12-23,28.989999771118164
2015-12-24,28.889999389648438
2015-12-28,28.729999542236328
2015-12-29,28.940000534057617
2015-12-30,28.950000762939453
2015-12-31,28.850000381469727
2016-01-04,28.690000534057617
2016-01-05,28.989999771118164
2016-01-06,28.100000381469727
2016-01-07,26.290000915527344
2016-01-08,25.6299991607666
2016-01-11,25.229999542236328
2016-01-12,25.360000610351562
2016-01-13,24.34000015258789
2016-01-14,24.969999313354492
2016-01-15,24.43000030517578
2016-01-19,24.010000228881836
2016-01-20,24.170000076293945
2016-01-21,24.719999313354492
2016-01-22,25.40999984741211
2016-01-25,24.450000762939453
2016-01-26,24.299999237060547
2016-01-27,23.940000534057617
2016-01-28,23.059999465942383
2016-01-29,24.100000381469727
2016-02-01,24.350000381469727
2016-02-02,23.329999923706055
2016-02-03,23.5
2016-02-04,24.25
2016-02-05,22.450000762939453
2016-02-08,21.110000610351562
2016-02-09,21.100000381469727
2016-02-10,20.84000015258789
2016-02-11,20.610000610351562
2016-02-12,20.81999969482422
2016-02-16,21.670000076293945
2016-02-17,22.639999389648438
2016-02-18,22.1200008392334
2016-02-19,22.1299991607666
2016-02-22,22.6200008392334
2016-02-23,22.290000915527344
2016-02-24,22.639999389648438
2016-02-25,22.969999313354492
2016-02-26,23.360000610351562
2016-02-29,24.290000915527344
2016-03-01,25.079999923706055
2016-03-02,25.760000228881836
2016-03-03,25.700000762939453
2016-03-04,26.739999771118164
2016-03-07,27.34000015258789
2016-03-08,26.6299991607666
2016-03-09,26.899999618530273
2016-03-10,26.110000610351562
2016-03-11,26.729999542236328
2016-03-14,26.639999389648438
2016-03-15,25.270000457763672
2016-03-16,25.329999923706055
2016-03-17,25.309999465942383
2016-03-18,25.84000015258789
2016-03-21,25.540000915527344
2016-03-22,25.690000534057617
2016-03-23,24.549999237060547
2016-03-24,24.709999084472656
2016-03-28,24.190000534057617
2016-03-29,24.84000015258789
2016-03-30,24.940000534057617
2016-03-31,25.040000915527344
2016-04-01,24.959999084472656
2016-04-04,25.309999465942383
2016-04-05,25.440000534057617
2016-04-06,26.170000076293945
2016-04-07,25.989999771118164
2016-04-08,25.510000228881836
2016-04-11,25.440000534057617
2016-04-12,25.489999771118164
2016-04-13,26.389999389648438
2016-04-14,26.15999984741211
2016-04-15,25.770000457763672
2016-04-18,25.700000762939453
2016-04-19,25.729999542236328
2016-04-20,26.049999237060547
2016-04-21,26.65999984741211
2016-04-22,27.100000381469727
2016-04-25,27.030000686645508
2016-04-26,27.020000457763672
2016-04-27,27.649999618530273
2016-04-28,27.459999084472656
2016-04-29,27.510000228881836
2016-05-02,27.81999969482422
2016-05-03,27.34000015258789
2016-05-04,27.010000228881836
2016-05-05,26.709999084472656
2016-05-06,27.0
2016-05-09,27.15999984741211
2016-05-10,27.239999771118164
2016-05-11,27.43000030517578
2016-05-12,27.389999389648438
2016-05-13,27.350000381469727
2016-05-16,27.889999389648438
2016-05-17,27.81999969482422
2016-05-18,28.389999389648438
2016-05-19,28.059999465942383
2016-05-20,28.940000534057617
2016-05-23,29.5
2016-05-24,29.600000381469727
2016-05-25,29.889999389648438
2016-05-26,29.760000228881836
2016-05-27,32.18000030517578
2016-05-31,32.95000076293945
2016-06-01,33.619998931884766
2016-06-02,34.599998474121094
2016-06-03,34.90999984741211
2016-06-06,35.06999969482422
2016-06-07,35.290000915527344
2016-06-08,35.13999938964844
2016-06-09,35.029998779296875
2016-06-10,34.04999923706055
2016-06-13,34.150001525878906
2016-06-14,33.970001220703125
2016-06-15,34.34000015258789
2016-06-16,34.130001068115234
2016-06-17,33.63999938964844
2016-06-20,34.290000915527344
2016-06-21,34.040000915527344
2016-06-22,33.86000061035156
2016-06-23,35.0099983215332
2016-06-24,34.29999923706055
2016-06-27,32.959999084472656
2016-06-28,33.0099983215332
2016-06-29,34.02000045776367
2016-06-30,34.119998931884766
2016-07-01,34.290000915527344
2016-07-05,34.2400016784668
2016-07-06,34.880001068115234
2016-07-07,36.56999969482422
2016-07-08,37.369998931884766
2016-07-11,36.91999816894531
2016-07-12,37.099998474121094
2016-07-13,36.33000183105469
2016-07-14,36.20000076293945
2016-07-15,36.349998474121094
2016-07-18,36.7400016784668
2016-07-19,36.130001068115234
2016-07-20,36.470001220703125
2016-07-21,36.25
2016-07-22,36.90999984741211
2016-07-25,36.97999954223633
2016-07-26,37.34000015258789
2016-07-27,37.25
2016-07-28,37.72999954223633
2016-07-29,37.9900016784668
2016-08-01,38.27000045776367
2016-08-02,37.34000015258789
2016-08-03,37.630001068115234
2016-08-04,37.310001373291016
2016-08-05,38.150001525878906
2016-08-08,38.290000915527344
2016-08-09,38.459999084472656
2016-08-10,38.5099983215332
2016-08-11,38.86000061035156
2016-08-12,39.349998474121094
2016-08-15,39.630001068115234
2016-08-16,38.93000030517578
2016-08-17,39.13999938964844
2016-08-18,39.720001220703125
2016-08-19,39.650001525878906
2016-08-22,39.400001525878906
2016-08-23,39.709999084472656
2016-08-24,38.810001373291016
2016-08-25,38.869998931884766
2016-08-26,38.810001373291016
2016-08-29,38.66999816894531
2016-08-30,37.63999938964844
2016-08-31,40.91999816894531
2016-09-01,40.22999954223633
2016-09-02,40.7400016784668
2016-09-06,40.650001525878906
2016-09-07,40.939998626708984
2016-09-08,41.25
2016-09-09,40.34000015258789
2016-09-12,40.79999923706055
2016-09-13,39.72999954223633
2016-09-14,40.2400016784668
2016-09-15,40.45000076293945
2016-09-16,40.95000076293945
2016-09-19,40.130001068115234
2016-09-20,40.88999938964844
2016-09-21,41.72999954223633
2016-09-22,42.060001373291016
2016-09-23,41.63999938964844
2016-09-26,41.22999954223633
2016-09-27,41.43000030517578
2016-09-28,41.68000030517578
2016-09-29,41.40999984741211
2016-09-30,41.279998779296875
2016-10-03,41.220001220703125
2016-10-04,40.310001373291016
2016-10-05,40.27000045776367
2016-10-06,39.0
2016-10-07,38.84000015258789
2016-10-10,38.9900016784668
2016-10-11,37.869998931884766
2016-10-12,37.75
2016-10-13,37.90999984741211
2016-10-14,37.880001068115234
2016-10-17,37.970001220703125
2016-10-18,38.45000076293945
2016-10-19,38.849998474121094
2016-10-20,39.099998474121094
2016-10-21,38.810001373291016
2016-10-24,39.119998931884766
2016-10-25,38.189998626708984
2016-10-26,38.09000015258789
2016-10-27,37.75
2016-10-28,37.869998931884766
2016-10-31,38.849998474121094
2016-11-01,38.5099983215332
2016-11-02,38.06999969482422
2016-11-03,37.58000183105469
2016-11-04,37.540000915527344
2016-11-07,39.02000045776367
2016-11-08,38.86000061035156
2016-11-09,39.84000015258789
2016-11-10,39.34000015258789
2016-11-11,39.61000061035156
2016-11-14,39.900001525878906
2016-11-15,40.81999969482422
2016-11-16,40.7400016784668
2016-11-17,41.900001525878906
2016-11-18,41.54999923706055
2016-11-21,41.77000045776367
2016-11-22,41.560001373291016
2016-11-23,46.290000915527344
2016-11-25,46.27000045776367
2016-11-28,46.34000015258789
2016-11-29,47.36000061035156
2016-11-30,46.47999954223633
2016-12-01,43.88999938964844
2016-12-02,43.040000915527344
2016-12-05,43.13999938964844
2016-12-06,43.34000015258789
2016-12-07,43.119998931884766
2016-12-08,43.70000076293945
2016-12-09,42.77000045776367
2016-12-12,42.0099983215332
2016-12-13,42.02000045776367
2016-12-14,41.5
2016-12-15,42.369998931884766
2016-12-16,42.70000076293945
2016-12-19,42.91999816894531
2016-12-20,43.029998779296875
2016-12-21,42.38999938964844
2016-12-22,41.5099983215332
2016-12-23,41.599998474121094
2016-12-27,42.11000061035156
2016-12-28,41.29999923706055
2016-12-29,41.08000183105469
2016-12-30,40.70000076293945
2017-01-03,41.349998474121094
2017-01-04,41.77000045776367
2017-01-05,41.5099983215332
2017-01-06,42.25
2017-01-09,43.400001525878906
2017-01-10,43.849998474121094
2017-01-11,44.119998931884766
2017-01-12,43.79999923706055
2017-01-13,44.5099983215332
2017-01-17,43.189998626708984
2017-01-18,43.22999954223633
2017-01-19,43.0
2017-01-20,42.939998626708984
2017-01-23,42.5
2017-01-24,42.75
2017-01-25,43.16999816894531
2017-01-26,42.79999923706055
2017-01-27,42.650001525878906
2017-01-30,42.060001373291016
2017-01-31,42.33000183105469
2017-02-01,42.459999084472656
2017-02-02,42.90999984741211
2017-02-03,43.619998931884766
2017-02-06,43.310001373291016
2017-02-07,43.400001525878906
2017-02-08,43.279998779296875
2017-02-09,44.189998626708984
2017-02-10,44.040000915527344
2017-02-13,44.02000045776367
2017-02-14,43.97999954223633
2017-02-15,44.29999923706055
2017-02-16,43.689998626708984
2017-02-17,43.86000061035156
2017-02-21,44.040000915527344
2017-02-22,43.779998779296875
2017-02-23,43.58000183105469
2017-02-24,44.209999084472656
2017-02-27,44.13999938964844
2017-02-28,43.689998626708984
2017-03-01,44.900001525878906
2017-03-02,44.0
2017-03-03,44.16999816894531
2017-03-06,44.04999923706055
2017-03-07,44.099998474121094
2017-03-08,44.25
2017-03-09,44.75
2017-03-10,45.13999938964844
2017-03-13,46.83000183105469
2017-03-14,46.099998474121094
2017-03-15,47.869998931884766
2017-03-16,49.040000915527344
2017-03-17,49.790000915527344
2017-03-20,49.849998474121094
2017-03-21,48.650001525878906
2017-03-22,48.9900016784668
2017-03-23,49.79999923706055
2017-03-24,49.56999969482422
2017-03-27,50.959999084472656
2017-03-28,51.130001068115234
2017-03-29,50.959999084472656
2017-03-30,50.849998474121094
2017-03-31,51.279998779296875
2017-04-03,51.33000183105469
2017-04-04,50.970001220703125
2017-04-05,50.619998931884766
2017-04-06,51.220001220703125
2017-04-07,51.59000015258789
2017-04-10,50.790000915527344
2017-04-11,51.04999923706055
2017-04-12,50.47999954223633
2017-04-13,50.66999816894531
2017-04-17,50.79999923706055
2017-04-18,50.310001373291016
2017-04-19,51.0099983215332
2017-04-20,52.5
2017-04-21,51.83000183105469
2017-04-24,52.54999923706055
2017-04-25,52.20000076293945
2017-04-26,52.9900016784668
2017-04-27,53.529998779296875
2017-04-28,53.619998931884766
2017-05-01,54.2400016784668
2017-05-02,54.0099983215332
2017-05-03,54.029998779296875
2017-05-04,54.16999816894531
2017-05-05,54.38999938964844
2017-05-08,55.2400016784668
2017-05-09,55.04999923706055
2017-05-10,56.349998474121094
2017-05-11,56.0099983215332
2017-05-12,56.34000015258789
2017-05-15,57.119998931884766
2017-05-16,59.09000015258789
2017-05-17,57.349998474121094
2017-05-18,59.540000915527344
2017-05-19,60.310001373291016
2017-05-22,62.06999969482422
2017-05-23,60.4900016784668
2017-05-24,61.06999969482422
2017-05-25,61.7400016784668
2017-05-26,66.81999969482422
2017-05-30,64.9000015258789
2017-05-31,63.540000915527344
2017-06-01,64.87000274658203
2017-06-02,66.69999694824219
2017-06-05,65.72000122070312
2017-06-06,65.54000091552734
2017-06-07,65.12000274658203
2017-06-08,64.98999786376953
2017-06-09,61.65999984741211
2017-06-12,60.0099983215332
2017-06-13,59.58000183105469
2017-06-14,58.959999084472656
2017-06-15,59.459999084472656
2017-06-16,59.630001068115234
2017-06-19,62.349998474121094
2017-06-20,61.33000183105469
2017-06-21,62.400001525878906
2017-06-22,63.040000915527344
2017-06-23,63.81999969482422
2017-06-26,62.33000183105469
2017-06-27,60.189998626708984
2017-06-28,62.40999984741211
2017-06-29,61.36000061035156
2017-06-30,61.310001373291016
2017-07-03,60.45000076293945
2017-07-05,60.93000030517578
2017-07-06,60.31999969482422
2017-07-07,62.349998474121094
2017-07-10,62.150001525878906
2017-07-11,62.93000030517578
2017-07-12,63.97999954223633
2017-07-13,63.599998474121094
2017-07-14,64.25
2017-07-17,63.849998474121094
2017-07-18,63.08000183105469
2017-07-19,63.7400016784668
2017-07-20,63.290000915527344
2017-07-21,63.16999816894531
2017-07-24,65.79000091552734
2017-07-25,64.93000030517578
2017-07-26,65.05000305175781
2017-07-27,62.4900016784668
2017-07-28,63.630001068115234
2017-07-31,63.7599983215332
2017-08-01,64.5999984741211
2017-08-02,61.97999954223633
2017-08-03,62.43000030517578
2017-08-04,62.119998931884766
2017-08-07,63.18000030517578
2017-08-08,62.83000183105469
2017-08-09,63.650001525878906
2017-08-10,59.90999984741211
2017-08-11,61.849998474121094
2017-08-14,63.08000183105469
2017-08-15,62.79999923706055
2017-08-16,63.77000045776367
2017-08-17,63.38999938964844
2017-08-18,63.119998931884766
2017-08-21,63.18000030517578
2017-08-22,65.56999969482422
2017-08-23,64.37999725341797
2017-08-24,64.58999633789062
2017-08-25,55.810001373291016
2017-08-28,57.130001068115234
2017-08-29,57.130001068115234
2017-08-30,57.84000015258789
2017-08-31,59.5
2017-09-01,59.720001220703125
2017-09-05,58.720001220703125
2017-09-06,58.2400016784668
2017-09-07,57.86000061035156
2017-09-08,56.959999084472656
2017-09-11,57.779998779296875
2017-09-12,57.310001373291016
2017-09-13,56.849998474121094
2017-09-14,56.58000183105469
2017-09-15,55.7400016784668
2017-09-18,56.16999816894531
2017-09-19,56.189998626708984
2017-09-20,55.619998931884766
2017-09-21,56.13999938964844
2017-09-22,55.68000030517578
2017-09-25,54.93000030517578
2017-09-26,54.349998474121094
2017-09-27,55.900001525878906
2017-09-28,56.369998931884766
2017-09-29,56.40999984741211
2017-10-02,57.08000183105469
2017-10-03,57.09000015258789
2017-10-04,57.20000076293945
2017-10-05,58.029998779296875
2017-10-06,58.099998474121094
2017-10-09,58.099998474121094
2017-10-10,56.70000076293945
2017-10-11,57.41999816894531
2017-10-12,59.52000045776367
2017-10-13,58.93000030517578
2017-10-16,58.650001525878906
2017-10-17,59.58000183105469
2017-10-18,59.380001068115234
2017-10-19,59.599998474121094
2017-10-20,61.0
2017-10-23,60.27000045776367
2017-10-24,60.7599983215332
2017-10-25,59.29999923706055
2017-10-26,59.4900016784668
2017-10-27,59.439998626708984
2017-10-30,59.75
2017-10-31,60.939998626708984
2017-11-01,60.54999923706055
2017-11-02,60.95000076293945
2017-11-03,61.619998931884766
2017-11-06,61.349998474121094
2017-11-07,61.27000045776367
2017-11-08,61.880001068115234
2017-11-09,60.58000183105469
2017-11-10,61.470001220703125
2017-11-13,61.4900016784668
2017-11-14,60.790000915527344
2017-11-15,60.290000915527344
2017-11-16,61.13999938964844
2017-11-17,61.130001068115234
2017-11-20,61.959999084472656
2017-11-21,62.70000076293945
2017-11-22,62.630001068115234
2017-11-24,62.810001373291016
2017-11-27,62.970001220703125
2017-11-28,62.0
2017-11-29,58.880001068115234
2017-11-30,60.209999084472656
2017-12-01,59.459999084472656
2017-12-04,57.25
2017-12-05,57.77000045776367
2017-12-06,54.0
2017-12-07,55.529998779296875
2017-12-08,56.060001373291016
2017-12-11,56.63999938964844
2017-12-12,55.869998931884766
2017-12-13,55.91999816894531
2017-12-14,55.58000183105469
2017-12-15,55.97999954223633
2017-12-18,55.849998474121094
2017-12-19,56.65999984741211
2017-12-20,57.099998474121094
2017-12-21,56.209999084472656
2017-12-22,56.06999969482422
2017-12-26,55.91999816894531
2017-12-27,55.70000076293945
2017-12-28,55.86000061035156
2017-12-29,55.279998779296875
2018-01-02,55.06999969482422
2018-01-03,56.279998779296875
2018-01-04,56.900001525878906
2018-01-05,57.439998626708984
2018-01-08,57.709999084472656
2018-01-09,58.029998779296875
2018-01-10,57.68000030517578
2018-01-11,58.060001373291016
2018-01-12,58.369998931884766
2018-01-16,56.5099983215332
2018-01-17,57.130001068115234
2018-01-18,57.529998779296875
2018-01-19,58.529998779296875
2018-01-22,58.16999816894531
2018-01-23,60.060001373291016
2018-01-24,59.209999084472656
2018-01-25,58.90999984741211
2018-01-26,60.970001220703125
2018-01-29,60.31999969482422
2018-01-30,62.06999969482422
2018-01-31,62.86000061035156
2018-02-01,61.02000045776367
2018-02-02,60.040000915527344
2018-02-05,57.81999969482422
2018-02-06,57.209999084472656
2018-02-07,55.68000030517578
2018-02-08,54.31999969482422
2018-02-09,55.45000076293945
2018-02-12,56.720001220703125
2018-02-13,56.900001525878906
2018-02-14,57.900001525878906
2018-02-15,58.939998626708984
2018-02-16,59.7599983215332
2018-02-20,60.34000015258789
2018-02-21,60.38999938964844
2018-02-22,59.84000015258789
2018-02-23,61.54999923706055
2018-02-26,62.099998474121094
2018-02-27,62.06999969482422
2018-02-28,69.69999694824219
2018-03-01,69.94999694824219
2018-03-02,73.7699966430664
2018-03-05,77.02999877929688
2018-03-06,76.73999786376953
2018-03-07,77.87999725341797
2018-03-08,77.69000244140625
2018-03-09,77.18000030517578
2018-03-12,77.63999938964844
2018-03-13,76.44999694824219
2018-03-14,77.44999694824219
2018-03-15,77.13999938964844
2018-03-16,76.38999938964844
2018-03-19,76.33999633789062
2018-03-20,77.27999877929688
2018-03-21,76.30000305175781
2018-03-22,75.08000183105469
2018-03-23,74.30000305175781
2018-03-26,75.55999755859375
2018-03-27,72.80999755859375
2018-03-28,71.47000122070312
2018-03-29,73.0199966430664
2018-04-02,71.44000244140625
2018-04-03,72.0
2018-04-04,72.80000305175781
2018-04-05,72.81999969482422
2018-04-06,70.91999816894531
2018-04-09,70.55000305175781
2018-04-10,71.86000061035156
2018-04-11,72.2699966430664
2018-04-12,73.27999877929688
2018-04-13,72.05999755859375
2018-04-16,71.87000274658203
2018-04-17,74.41000366210938
2018-04-18,74.87000274658203
2018-04-19,74.56999969482422
2018-04-20,72.8499984741211
2018-04-23,72.44999694824219
2018-04-24,70.08000183105469
2018-04-25,69.41999816894531
2018-04-26,70.66000366210938
2018-04-27,70.91999816894531
2018-04-30,70.12999725341797
2018-05-01,70.93000030517578
2018-05-02,70.69000244140625
2018-05-03,70.79000091552734
2018-05-04,72.7300033569336
2018-05-07,73.56999969482422
2018-05-08,73.7699966430664
2018-05-09,76.16000366210938
2018-05-10,77.0
2018-05-11,77.70999908447266
2018-05-14,76.75
2018-05-15,75.68000030517578
2018-05-16,76.68000030517578
2018-05-17,76.1500015258789
2018-05-18,77.29000091552734
2018-05-21,76.55000305175781
2018-05-22,75.41000366210938
2018-05-23,76.76000213623047
2018-05-24,77.16999816894531
2018-05-25,77.04000091552734
2018-05-29,75.80999755859375
2018-05-30,76.94999694824219
2018-05-31,77.36000061035156
2018-06-01,79.77999877929688
2018-06-04,81.44000244140625
2018-06-05,81.5199966430664
2018-06-06,81.87000274658203
2018-06-07,79.31999969482422
2018-06-08,79.52999877929688
2018-06-11,79.6500015258789
2018-06-12,81.0199966430664
2018-06-13,81.66999816894531
2018-06-14,83.02999877929688
2018-06-15,83.44000244140625
2018-06-18,83.20999908447266
2018-06-19,83.16999816894531
2018-06-20,84.52999877929688
2018-06-21,83.55999755859375
2018-06-22,82.83999633789062
2018-06-25,78.75
2018-06-26,78.47000122070312
2018-06-27,75.37000274658203
2018-06-28,76.19999694824219
2018-06-29,76.86000061035156
2018-07-02,78.20999908447266
2018-07-03,78.23999786376953
2018-07-05,78.5999984741211
2018-07-06,79.7300033569336
2018-07-09,80.19999694824219
2018-07-10,79.44999694824219
2018-07-11,80.30999755859375
2018-07-12,82.51000213623047
2018-07-13,82.52999877929688
2018-07-16,82.2300033569336
2018-07-17,82.75
2018-07-18,83.61000061035156
2018-07-19,83.26000213623047
2018-07-20,83.0999984741211
2018-07-23,83.7300033569336
2018-07-24,80.19000244140625
2018-07-25,82.69999694824219
2018-07-26,82.80999755859375
2018-07-27,79.0
2018-07-30,75.16000366210938
2018-07-31,75.62999725341797
2018-08-01,78.5
2018-08-02,80.5
2018-08-03,79.58000183105469
2018-08-06,80.91000366210938
2018-08-07,81.30999755859375
2018-08-08,82.0
2018-08-09,83.02999877929688
2018-08-10,83.51000213623047
2018-08-13,83.69999694824219
2018-08-14,84.9800033569336
2018-08-15,82.76000213623047
2018-08-16,84.70999908447266
2018-08-17,84.72000122070312
2018-08-20,85.56999969482422
2018-08-21,87.08999633789062
2018-08-22,88.98999786376953
2018-08-23,89.5199966430664
2018-08-24,100.63999938964844
2018-08-27,102.08000183105469
2018-08-28,102.72000122070312
2018-08-29,103.62000274658203
2018-08-30,103.4000015258789
2018-08-31,104.36000061035156
2018-09-04,104.25
2018-09-05,101.0
2018-09-06,101.70999908447266
2018-09-07,102.06999969482422
2018-09-10,102.45999908447266
2018-09-11,103.45999908447266
2018-09-12,104.61000061035156
2018-09-13,105.30999755859375
2018-09-14,106.91999816894531
2018-09-17,104.4800033569336
2018-09-18,105.19999694824219
2018-09-19,103.18000030517578
2018-09-20,103.06999969482422
2018-09-21,103.91000366210938
2018-09-24,105.13999938964844
2018-09-25,104.3499984741211
2018-09-26,104.45999908447266
2018-09-27,106.68000030517578
2018-09-28,108.87000274658203
2018-10-01,105.19999694824219
2018-10-02,103.19999694824219
2018-10-03,104.4000015258789
2018-10-04,98.13999938964844
2018-10-05,98.04000091552734
2018-10-08,95.06999969482422
2018-10-09,94.30999755859375
2018-10-10,89.38999938964844
2018-10-11,89.19999694824219
2018-10-12,91.55999755859375
2018-10-15,90.33000183105469
2018-10-16,95.30000305175781
2018-10-17,95.54000091552734
2018-10-18,93.5
2018-10-19,91.62999725341797
2018-10-22,91.62000274658203
2018-10-23,89.20999908447266
2018-10-24,85.05999755859375
2018-10-25,87.3499984741211
2018-10-26,83.41000366210938
2018-10-29,83.68000030517578
2018-10-30,88.1500015258789
2018-10-31,91.3499984741211
2018-11-01,92.44000244140625
2018-11-02,92.2300033569336
2018-11-05,92.22000122070312
2018-11-06,92.05999755859375
2018-11-07,97.1500015258789
2018-11-08,96.62999725341797
2018-11-09,93.5999984741211
2018-11-12,89.72000122070312
2018-11-13,90.5199966430664
2018-11-14,89.6500015258789
2018-11-15,92.43000030517578
2018-11-16,92.44000244140625
2018-11-19,84.76000213623047
2018-11-20,85.55000305175781
2018-11-21,89.11000061035156
2018-11-23,88.87000274658203
2018-11-26,91.61000061035156
2018-11-27,89.79000091552734
2018-11-28,97.79000091552734
2018-11-29,98.69000244140625
2018-11-30,96.16000366210938
2018-12-03,98.9000015258789
2018-12-04,93.0
2018-12-06,92.33999633789062
2018-12-07,88.55999755859375
2018-12-10,90.04000091552734
2018-12-11,90.41000366210938
2018-12-12,92.04000091552734
2018-12-13,92.11000061035156
2018-12-14,91.38999938964844
2018-12-17,86.0199966430664
2018-12-18,87.8499984741211
2018-12-19,87.05999755859375
2018-12-20,85.41999816894531
2018-12-21,80.98999786376953
2018-12-24,80.01000213623047
2018-12-26,86.93000030517578
2018-12-27,87.52999877929688
2018-12-28,87.55000305175781
2018-12-31,89.31999969482422
2019-01-02,87.48999786376953
2019-01-03,84.88999938964844
2019-01-04,90.98999786376953
2019-01-07,94.08999633789062
2019-01-08,94.77999877929688
2019-01-09,96.51000213623047
2019-01-10,97.97000122070312
2019-01-11,98.66999816894531
2019-01-14,97.26000213623047
2019-01-15,101.4000015258789
2019-01-16,101.66999816894531
2019-01-17,103.44999694824219
2019-01-18,106.02999877929688
2019-01-22,103.11000061035156
2019-01-23,103.6500015258789
2019-01-24,105.48999786376953
2019-01-25,109.19999694824219
2019-01-28,107.25
2019-01-29,104.93000030517578
2019-01-30,108.38999938964844
2019-01-31,109.05999755859375
2019-02-01,113.2699966430664
2019-02-04,114.6500015258789
2019-02-05,115.9000015258789
2019-02-06,116.54000091552734
2019-02-07,112.94000244140625
2019-02-08,115.20999908447266
2019-02-11,115.94999694824219
2019-02-12,118.66999816894531
2019-02-13,118.97000122070312
2019-02-14,120.5999984741211
2019-02-15,120.80999755859375
2019-02-19,120.4000015258789
2019-02-20,118.0
2019-02-21,116.8499984741211
2019-02-22,118.69000244140625
2019-02-25,119.77999877929688
2019-02-26,119.72000122070312
2019-02-27,116.23999786376953
2019-02-28,117.91000366210938
2019-03-01,120.23999786376953
2019-03-04,115.23999786376953
2019-03-05,115.52999877929688
2019-03-06,113.44999694824219
2019-03-07,113.77999877929688
2019-03-08,114.54000091552734
2019-03-11,118.4800033569336
2019-03-12,119.04000091552734
2019-03-13,121.4000015258789
2019-03-14,122.31999969482422
2019-03-15,122.36000061035156
2019-03-18,122.44999694824219
2019-03-19,124.16999816894531
2019-03-20,124.56999969482422
2019-03-21,128.6199951171875
2019-03-22,123.12000274658203
2019-03-25,123.44999694824219
2019-03-26,125.56999969482422
2019-03-27,123.44000244140625
2019-03-28,124.08999633789062
2019-03-29,126.86000061035156
2019-04-01,126.76000213623047
2019-04-02,128.6999969482422
2019-04-03,130.9600067138672
2019-04-04,129.07000732421875
2019-04-05,130.1999969482422
2019-04-08,130.97999572753906
2019-04-09,131.8800048828125
2019-04-10,135.9600067138672
2019-04-11,135.49000549316406
2019-04-12,134.75
2019-04-15,132.6300048828125
2019-04-16,133.3000030517578
2019-04-17,128.82000732421875
2019-04-18,127.83000183105469
2019-04-22,134.05999755859375
2019-04-23,136.5399932861328
2019-04-24,136.64999389648438
2019-04-25,137.11000061035156
2019-04-26,139.24000549316406
2019-04-29,141.5500030517578
2019-04-30,139.8699951171875
2019-05-01,138.38999938964844
2019-05-02,140.91000366210938
2019-05-03,142.5800018310547
2019-05-06,142.94000244140625
2019-05-07,139.6199951171875
2019-05-08,141.41000366210938
2019-05-09,142.0800018310547
2019-05-10,144.52999877929688
2019-05-13,134.9199981689453
2019-05-14,140.0
2019-05-15,142.60000610351562
2019-05-16,144.2100067138672
2019-05-17,141.75999450683594
2019-05-20,140.66000366210938
2019-05-21,143.11000061035156
2019-05-22,144.42999267578125
2019-05-23,140.94000244140625
2019-05-24,139.38999938964844
2019-05-28,139.5399932861328
2019-05-29,134.49000549316406
2019-05-30,154.3000030517578
2019-05-31,154.2899932861328
2019-06-03,149.2100067138672
2019-06-04,155.5800018310547
2019-06-05,158.08999633789062
2019-06-06,159.0
2019-06-07,162.1999969482422
2019-06-10,162.50999450683594
2019-06-11,164.44000244140625
2019-06-12,167.02000427246094
2019-06-13,166.3300018310547
2019-06-14,164.6300048828125
2019-06-17,166.4600067138672
2019-06-18,167.22000122070312
2019-06-19,169.7899932861328
2019-06-20,171.14999389648438
2019-06-21,168.92999267578125
2019-06-24,162.97000122070312
2019-06-25,157.16000366210938
2019-06-26,155.52000427246094
2019-06-27,160.50999450683594
2019-06-28,162.11000061035156
2019-07-01,163.47000122070312
2019-07-02,166.60000610351562
2019-07-03,168.67999267578125
2019-07-05,170.0500030517578
2019-07-08,167.8699951171875
2019-07-09,171.91000366210938
2019-07-10,173.82000732421875
2019-07-11,175.64999389648438
2019-07-12,175.08999633789062
2019-07-15,174.3300018310547
2019-07-16,171.0399932861328
2019-07-17,172.75
2019-07-18,173.1699981689453
2019-07-19,169.49000549316406
2019-07-22,168.77999877929688
2019-07-23,165.72999572753906
2019-07-24,166.05999755859375
2019-07-25,167.72000122070312
2019-07-26,170.47000122070312
2019-07-29,161.75
2019-07-30,161.72999572753906
2019-07-31,165.89999389648438
2019-08-01,165.24000549316406
2019-08-02,162.80999755859375
2019-08-05,155.99000549316406
2019-08-06,160.4199981689453
2019-08-07,159.85000610351562
2019-08-08,163.3000030517578
2019-08-09,162.16000366210938
2019-08-12,160.0399932861328
2019-08-13,162.33999633789062
2019-08-14,156.8699951171875
2019-08-15,158.60000610351562
2019-08-16,160.33999633789062
2019-08-19,158.10000610351562
2019-08-20,157.6699981689453
2019-08-21,161.97999572753906
2019-08-22,159.52000427246094
2019-08-23,158.1300048828125
2019-08-26,162.6699981689453
2019-08-27,163.41000366210938
2019-08-28,164.1199951171875
2019-08-29,168.6199951171875
2019-08-30,160.3800048828125
2019-09-03,157.80999755859375
2019-09-04,156.50999450683594
2019-09-05,159.4199981689453
2019-09-06,157.3300018310547
2019-09-09,144.50999450683594
2019-09-10,145.1199951171875
2019-09-11,143.00999450683594
2019-09-12,142.89999389648438
2019-09-13,139.82000732421875
2019-09-16,146.14999389648438
2019-09-17,148.72000122070312
2019-09-18,146.6199951171875
2019-09-19,147.42999267578125
2019-09-20,149.6300048828125
2019-09-23,152.69000244140625
2019-09-24,151.30999755859375
2019-09-25,155.3000030517578
2019-09-26,154.6300048828125
2019-09-27,149.5800018310547
2019-09-30,152.69000244140625
2019-10-01,154.99000549316406
2019-10-02,151.05999755859375
2019-10-03,148.97000122070312
2019-10-04,154.0
2019-10-07,152.6199951171875
2019-10-08,146.42999267578125
2019-10-09,149.3300018310547
2019-10-10,150.2899932861328
2019-10-11,152.0399932861328
2019-10-14,153.22999572753906
2019-10-15,156.47000122070312
2019-10-16,149.8800048828125
2019-10-17,148.88999938964844
2019-10-18,142.89999389648438
2019-10-21,145.05999755859375
2019-10-22,141.3300018310547
2019-10-23,142.27000427246094
2019-10-24,144.85000610351562
2019-10-25,146.77000427246094
2019-10-28,148.3699951171875
2019-10-29,145.72000122070312
2019-10-30,147.22000122070312
2019-10-31,141.8300018310547
2019-11-01,144.3699951171875
2019-11-04,145.22999572753906
2019-11-05,140.67999267578125
2019-11-06,140.85000610351562
2019-11-07,141.0
2019-11-08,143.77000427246094
2019-11-11,144.7100067138672
2019-11-12,146.67999267578125
2019-11-13,148.30999755859375
2019-11-14,148.69000244140625
2019-11-15,153.16000366210938
2019-11-18,151.75999450683594
2019-11-19,152.24000549316406
2019-11-20,154.3300018310547
2019-11-21,150.66000366210938
2019-11-22,153.27000427246094
2019-11-25,156.9499969482422
2019-11-26,159.22999572753906
2019-11-27,153.32000732421875
2019-11-29,149.17999267578125
2019-12-02,144.33999633789062
2019-12-03,147.36000061035156
2019-12-04,144.00999450683594
2019-12-05,145.11000061035156
2019-12-06,144.6699981689453
2019-12-09,143.5500030517578
2019-12-10,142.89999389648438
2019-12-11,142.24000549316406
2019-12-12,142.64999389648438
2019-12-13,146.10000610351562
2019-12-16,147.6699981689453
2019-12-17,144.6300048828125
2019-12-18,144.52999877929688
2019-12-19,139.77000427246094
2019-12-20,141.8699951171875
2019-12-23,143.08999633789062
2019-12-24,141.6699981689453
2019-12-26,141.9499969482422
2019-12-27,140.64999389648438
2019-12-30,140.91000366210938
2019-12-31,140.66000366210938
