Date,VNO
2007-12-31,37.877899169921875
2008-01-02,37.76161575317383
2008-01-03,36.42222213745117
2008-01-04,35.655609130859375
2008-01-07,36.13796615600586
2008-01-08,34.13533020019531
2008-01-09,35.25508117675781
2008-01-10,36.22841262817383
2008-01-11,35.922630310058594
2008-01-14,35.746063232421875
2008-01-15,35.20771026611328
2008-01-16,35.892478942871094
2008-01-17,35.229244232177734
2008-01-18,35.01821517944336
2008-01-22,35.92694091796875
2008-01-23,39.927921295166016
2008-01-24,38.726318359375
2008-01-25,38.10184097290039
2008-01-28,39.594242095947266
2008-01-29,39.22876739501953
2008-01-30,38.38902282714844
2008-01-31,39.28969192504883
2008-02-01,40.89955139160156
2008-02-04,40.642845153808594
2008-02-05,39.254859924316406
2008-02-06,38.14971160888672
2008-02-07,39.085182189941406
2008-02-08,37.45790481567383
2008-02-11,36.848758697509766
2008-02-12,37.97567367553711
2008-02-13,38.44558334350586
2008-02-14,37.70590591430664
2008-02-15,37.79293441772461
2008-02-19,37.340423583984375
2008-02-20,38.12360382080078
2008-02-21,37.318660736083984
2008-02-22,38.053993225097656
2008-02-25,39.220062255859375
2008-02-26,38.86762619018555
2008-02-27,37.92345428466797
2008-02-28,36.779144287109375
2008-02-29,36.35710525512695
2008-03-03,36.60074996948242
2008-03-04,36.05251693725586
2008-03-05,36.46151351928711
2008-03-06,34.70805740356445
2008-03-07,35.24322509765625
2008-03-10,34.32951354980469
2008-03-11,37.38392639160156
2008-03-12,36.16130065917969
2008-03-13,36.739986419677734
2008-03-14,35.01698303222656
2008-03-17,34.25990676879883
2008-03-18,35.765357971191406
2008-03-19,35.665283203125
2008-03-20,37.470951080322266
2008-03-24,38.267189025878906
2008-03-25,38.81977844238281
2008-03-26,37.8973503112793
2008-03-27,37.83644485473633
2008-03-28,38.12360382080078
2008-03-31,37.51011276245117
2008-04-01,39.563785552978516
2008-04-02,39.65515899658203
2008-04-03,40.708106994628906
2008-04-04,39.05906295776367
2008-04-07,38.95465850830078
2008-04-08,38.64573669433594
2008-04-09,38.00178527832031
2008-04-10,38.454280853271484
2008-04-11,38.02788543701172
2008-04-14,37.54928207397461
2008-04-15,38.019187927246094
2008-04-16,39.64645004272461
2008-04-17,39.93796157836914
2008-04-18,40.0206413269043
2008-04-21,39.585533142089844
2008-04-22,39.76393508911133
2008-04-23,40.59064483642578
2008-04-24,41.34770965576172
2008-04-25,41.23023223876953
2008-04-28,41.36947250366211
2008-04-29,41.22587585449219
2008-04-30,40.50362777709961
2008-05-01,41.57831573486328
2008-05-02,41.7828254699707
2008-05-05,41.81761932373047
2008-05-06,41.961204528808594
2008-05-07,41.099708557128906
2008-05-08,41.02500915527344
2008-05-09,40.62525939941406
2008-05-12,41.9650993347168
2008-05-13,42.12763595581055
2008-05-14,42.738243103027344
2008-05-15,43.058921813964844
2008-05-16,42.6811408996582
2008-05-19,43.08967590332031
2008-05-20,42.34727478027344
2008-05-21,41.59608840942383
2008-05-22,41.56973648071289
2008-05-23,41.42915725708008
2008-05-27,42.16276550292969
2008-05-28,42.3297233581543
2008-05-29,43.11603546142578
2008-05-30,42.9315185546875
2008-06-02,41.763023376464844
2008-06-03,41.86845779418945
2008-06-04,42.07052993774414
2008-06-05,43.38837814331055
2008-06-06,41.060176849365234
2008-06-09,40.269439697265625
2008-06-10,40.52863693237305
2008-06-11,39.83454895019531
2008-06-12,41.011837005615234
2008-06-13,41.372066497802734
2008-06-16,42.44392776489258
2008-06-17,41.240264892578125
2008-06-18,40.55937576293945
2008-06-19,41.363258361816406
2008-06-20,40.53302001953125
2008-06-23,39.43920135498047
2008-06-24,39.382083892822266
2008-06-25,40.18598937988281
2008-06-26,38.50351333618164
2008-06-27,38.28826141357422
2008-06-30,38.65726852416992
2008-07-01,38.938419342041016
2008-07-02,38.4244384765625
2008-07-03,38.56062698364258
2008-07-07,37.602970123291016
2008-07-08,40.287025451660156
2008-07-09,37.72596740722656
2008-07-10,38.46836853027344
2008-07-11,38.507911682128906
2008-07-14,37.453617095947266
2008-07-15,37.59421157836914
2008-07-16,39.54902267456055
2008-07-17,39.562191009521484
2008-07-18,40.076171875
2008-07-21,39.97073745727539
2008-07-22,41.262237548828125
2008-07-23,42.15837478637695
2008-07-24,39.35573959350586
2008-07-25,40.414424896240234
2008-07-28,39.092159271240234
2008-07-29,41.82012939453125
2008-07-30,41.587318420410156
2008-07-31,41.763023376464844
2008-08-01,41.47309875488281
2008-08-04,40.59012985229492
2008-08-05,43.09845733642578
2008-08-06,43.54214859008789
2008-08-07,43.32048797607422
2008-08-08,44.73908996582031
2008-08-11,46.126644134521484
2008-08-12,44.836605072021484
2008-08-13,44.300201416015625
2008-08-14,45.17795944213867
2008-08-15,45.31539535522461
2008-08-18,43.843589782714844
2008-08-19,42.91707229614258
2008-08-20,43.014610290527344
2008-08-21,42.5713005065918
2008-08-22,44.419898986816406
2008-08-25,42.76633834838867
2008-08-26,42.78407287597656
2008-08-27,43.298316955566406
2008-08-28,44.588340759277344
2008-08-29,44.09184265136719
2008-09-02,44.74795150756836
2008-09-03,45.55477523803711
2008-09-04,44.52628707885742
2008-09-05,44.34454345703125
2008-09-08,46.47686004638672
2008-09-09,44.6459846496582
2008-09-10,44.92971420288086
2008-09-11,45.607975006103516
2008-09-12,46.03356170654297
2008-09-15,39.321815490722656
2008-09-16,42.16787338256836
2008-09-17,39.01148986816406
2008-09-18,44.73908996582031
2008-09-19,46.87584686279297
2008-09-22,41.427547454833984
2008-09-23,41.11279296875
2008-09-24,40.54533767700195
2008-09-25,40.95319366455078
2008-09-26,41.986114501953125
2008-09-29,38.24012756347656
2008-09-30,40.31925964355469
2008-10-01,39.960174560546875
2008-10-02,37.406700134277344
2008-10-03,35.59798049926758
2008-10-06,35.29208755493164
2008-10-07,32.5169563293457
2008-10-08,34.13504409790039
2008-10-09,30.145238876342773
2008-10-10,34.6803092956543
2008-10-13,35.07487869262695
2008-10-14,31.475181579589844
2008-10-15,27.40557098388672
2008-10-16,29.26748275756836
2008-10-17,29.444799423217773
2008-10-20,30.012245178222656
2008-10-21,28.37643814086914
2008-10-22,26.882457733154297
2008-10-23,26.731731414794922
2008-10-24,25.180147171020508
2008-10-27,24.57280158996582
2008-10-28,29.706356048583984
2008-10-29,27.63610076904297
2008-10-30,28.442928314208984
2008-10-31,31.27568244934082
2008-11-03,29.675323486328125
2008-11-04,33.292762756347656
2008-11-05,29.710790634155273
2008-11-06,28.287765502929688
2008-11-07,30.22281837463379
2008-11-10,27.6982479095459
2008-11-11,28.017757415771484
2008-11-12,25.128671646118164
2008-11-13,27.684755325317383
2008-11-14,25.326679229736328
2008-11-17,24.044151306152344
2008-11-18,24.372655868530273
2008-11-19,21.22707748413086
2008-11-20,18.738506317138672
2008-11-21,19.931039810180664
2008-11-24,23.657136917114258
2008-11-25,24.4986572265625
2008-11-26,25.290679931640625
2008-11-28,24.053152084350586
2008-12-01,19.38202667236328
2008-12-02,21.344072341918945
2008-12-03,23.225128173828125
2008-12-04,22.68511199951172
2008-12-05,25.317684173583984
2008-12-08,27.711761474609375
2008-12-09,25.28618621826172
2008-12-10,27.34273338317871
2008-12-11,23.855138778686523
2008-12-12,26.20871353149414
2008-12-15,25.38518714904785
2008-12-16,28.95827293395996
2008-12-17,28.836774826049805
2008-12-18,26.21320343017578
2008-12-19,27.00522232055664
2008-12-22,25.974708557128906
2008-12-23,26.388717651367188
2008-12-24,26.39320945739746
2008-12-26,26.54171371459961
2008-12-29,25.083677291870117
2008-12-30,26.181711196899414
2008-12-31,27.158226013183594
2009-01-02,26.231201171875
2009-01-05,25.85770606994629
2009-01-06,27.788253784179688
2009-01-07,26.433713912963867
2009-01-08,26.001707077026367
2009-01-09,24.786666870117188
2009-01-12,23.391620635986328
2009-01-13,24.381656646728516
2009-01-14,22.79311180114746
2009-01-15,23.06311798095703
2009-01-16,24.07114601135254
2009-01-20,21.425085067749023
2009-01-21,24.05765151977539
2009-01-22,22.72560691833496
2009-01-23,23.040616989135742
2009-01-26,22.94611930847168
2009-01-27,23.27912712097168
2009-01-28,25.74068832397461
2009-01-29,23.909147262573242
2009-01-30,22.8651180267334
2009-02-02,23.234128952026367
2009-02-03,22.96780014038086
2009-02-04,22.797021865844727
2009-02-05,22.53853988647461
2009-02-06,24.421749114990234
2009-02-09,24.82792854309082
2009-02-10,22.16466522216797
2009-02-11,22.880098342895508
2009-02-12,22.07234764099121
2009-02-13,19.750652313232422
2009-02-17,17.60895347595215
2009-02-18,17.9920597076416
2009-02-19,17.295087814331055
2009-02-20,18.712108612060547
2009-02-23,16.842748641967773
2009-02-24,17.433551788330078
2009-02-25,17.295087814331055
2009-02-26,16.0765323638916
2009-02-27,15.107234001159668
2009-03-02,13.907150268554688
2009-03-03,14.617969512939453
2009-03-04,14.507193565368652
2009-03-05,13.362497329711914
2009-03-06,13.528664588928223
2009-03-09,13.671746253967285
2009-03-10,16.704273223876953
2009-03-11,16.39040756225586
2009-03-12,18.015134811401367
2009-03-13,17.244308471679688
2009-03-16,16.01191520690918
2009-03-17,17.285850524902344
2009-03-18,18.176685333251953
2009-03-19,17.059680938720703
2009-03-20,14.876452445983887
2009-03-23,16.995065689086914
2009-03-24,16.228851318359375
2009-03-25,15.69804859161377
2009-03-26,16.685810089111328
2009-03-27,15.974990844726562
2009-03-30,14.405647277832031
2009-03-31,15.342635154724121
2009-04-01,15.550339698791504
2009-04-02,16.575031280517578
2009-04-03,18.767501831054688
2009-04-06,18.30592918395996
2009-04-07,16.20577049255371
2009-04-08,16.46425437927246
2009-04-09,19.252145767211914
2009-04-13,19.40907859802246
2009-04-14,17.33662223815918
2009-04-15,19.044443130493164
2009-04-16,19.76448631286621
2009-04-17,21.236906051635742
2009-04-20,18.601327896118164
2009-04-21,21.693857192993164
2009-04-22,20.89533805847168
2009-04-23,21.536930084228516
2009-04-24,22.520078659057617
2009-04-27,21.144588470458984
2009-04-28,21.56924057006836
2009-04-29,22.45545196533203
2009-04-30,22.56623649597168
2009-05-01,21.938495635986328
2009-05-04,24.21404457092285
2009-05-05,23.323204040527344
2009-05-06,24.860244750976562
2009-05-07,22.557024002075195
2009-05-08,24.382286071777344
2009-05-11,23.225027084350586
2009-05-12,22.335922241210938
2009-05-13,20.698833465576172
2009-05-14,21.40447235107422
2009-05-15,20.858776092529297
2009-05-18,22.839282989501953
2009-05-19,22.373563766479492
2009-05-20,21.8560848236084
2009-05-21,21.818449020385742
2009-05-22,21.145734786987305
2009-05-26,22.54290771484375
2009-05-27,21.225711822509766
2009-05-28,21.898422241210938
2009-05-29,21.950172424316406
2009-06-01,23.074493408203125
2009-06-02,22.707555770874023
2009-06-03,22.57583236694336
2009-06-04,23.620193481445312
2009-06-05,22.923959732055664
2009-06-08,23.2391414642334
2009-06-09,23.375564575195312
2009-06-10,22.740501403808594
2009-06-11,21.921945571899414
2009-06-12,22.834579467773438
2009-06-15,21.78081703186035
2009-06-16,21.253936767578125
2009-06-17,20.680021286010742
2009-06-18,21.117517471313477
2009-06-19,21.216304779052734
2009-06-22,19.795612335205078
2009-06-23,20.082569122314453
2009-06-24,20.388351440429688
2009-06-25,20.783512115478516
2009-06-26,20.962276458740234
2009-06-29,20.91053009033203
2009-06-30,21.183374404907227
2009-07-01,21.4091796875
2009-07-02,19.983779907226562
2009-07-06,20.590635299682617
2009-07-07,19.348703384399414
2009-07-08,19.268735885620117
2009-07-09,19.02411460876465
2009-07-10,19.2028751373291
2009-07-13,19.87088394165039
2009-07-14,19.983779907226562
2009-07-15,21.108104705810547
2009-07-16,21.371549606323242
2009-07-17,20.60004425048828
2009-07-20,22.143047332763672
2009-07-21,22.326509475708008
2009-07-22,22.876916885375977
2009-07-23,23.52610206604004
2009-07-24,23.770729064941406
2009-07-27,23.907154083251953
2009-07-28,23.775436401367188
2009-07-29,23.370868682861328
2009-07-30,23.963605880737305
2009-07-31,24.001239776611328
2009-08-03,24.37757682800293
2009-08-04,25.384294509887695
2009-08-05,26.320453643798828
2009-08-06,26.38160514831543
2009-08-07,28.356111526489258
2009-08-10,28.199026107788086
2009-08-11,27.527847290039062
2009-08-12,27.694448471069336
2009-08-13,27.570680618286133
2009-08-14,27.246994018554688
2009-08-17,25.185863494873047
2009-08-18,25.799915313720703
2009-08-19,25.676156997680664
2009-08-20,26.428253173828125
2009-08-21,27.047069549560547
2009-08-24,26.651987075805664
2009-08-25,27.351726531982422
2009-08-26,27.851539611816406
2009-08-27,27.627817153930664
2009-08-28,27.45168685913086
2009-08-31,27.380290985107422
2009-09-01,26.142641067504883
2009-09-02,25.852285385131836
2009-09-03,25.833242416381836
2009-09-04,26.204524993896484
2009-09-08,27.32792091369629
2009-09-09,28.21331024169922
2009-09-10,28.632200241088867
2009-09-11,28.570316314697266
2009-09-14,29.684188842773438
2009-09-15,30.30776596069336
2009-09-16,32.197540283203125
2009-09-17,32.3498649597168
2009-09-18,32.44506072998047
2009-09-21,31.754840850830078
2009-09-22,32.95915603637695
2009-09-23,31.659635543823242
2009-09-24,30.483888626098633
2009-09-25,30.207805633544922
2009-09-28,32.03567886352539
2009-09-29,30.831377029418945
2009-09-30,30.66002082824707
2009-10-01,29.108203887939453
2009-10-02,28.79404067993164
2009-10-05,29.48424530029297
2009-10-06,29.541383743286133
2009-10-07,29.374771118164062
2009-10-08,29.869836807250977
2009-10-09,30.260169982910156
2009-10-12,30.093564987182617
2009-10-13,29.57946014404297
2009-10-14,30.793296813964844
2009-10-15,30.084033966064453
2009-10-16,29.170093536376953
2009-10-19,30.07927894592285
2009-10-20,29.5080623626709
2009-10-21,28.846397399902344
2009-10-22,29.38430404663086
2009-10-23,28.922563552856445
2009-10-26,28.798799514770508
2009-10-27,28.265674591064453
2009-10-28,26.999467849731445
2009-10-29,28.770244598388672
2009-10-30,28.351356506347656
2009-11-02,28.675037384033203
2009-11-03,29.39858627319336
2009-11-04,28.698837280273438
2009-11-05,29.688947677612305
2009-11-06,29.32061767578125
2009-11-09,30.86407470703125
2009-11-10,30.676546096801758
2009-11-11,31.354524612426758
2009-11-12,30.80156898498535
2009-11-13,31.402606964111328
2009-11-16,32.1286506652832
2009-11-17,31.787254333496094
2009-11-18,32.5517692565918
2009-11-19,31.378564834594727
2009-11-20,30.93619155883789
2009-11-23,31.479515075683594
2009-11-24,30.68136215209961
2009-11-25,30.897727966308594
2009-11-27,29.83510971069336
2009-11-30,31.47471809387207
2009-12-01,32.1286506652832
2009-12-02,33.01335525512695
2009-12-03,32.84026336669922
2009-12-04,33.7490119934082
2009-12-07,33.1816520690918
2009-12-08,33.143184661865234
2009-12-09,33.22491455078125
2009-12-10,33.07106399536133
2009-12-11,33.49418258666992
2009-12-14,34.090396881103516
2009-12-15,33.5903434753418
2009-12-16,33.65766143798828
2009-12-17,33.48455810546875
2009-12-18,33.4412956237793
2009-12-21,33.82594299316406
2009-12-22,33.898075103759766
2009-12-23,34.11924743652344
2009-12-24,34.6385498046875
2009-12-28,34.85972595214844
2009-12-29,34.330814361572266
2009-12-30,34.31639099121094
2009-12-31,33.628814697265625
2010-01-04,33.66727828979492
2010-01-05,33.412445068359375
2010-01-06,33.27781295776367
2010-01-07,33.792301177978516
2010-01-08,33.4172477722168
2010-01-11,33.52302551269531
2010-01-12,33.061439514160156
2010-01-13,33.878849029541016
2010-01-14,34.018272399902344
2010-01-15,33.70574188232422
2010-01-19,33.984619140625
2010-01-20,33.24897003173828
2010-01-21,31.97477149963379
2010-01-22,31.11410903930664
2010-01-25,31.210275650024414
2010-01-26,31.166555404663086
2010-01-27,31.613386154174805
2010-01-28,31.41911506652832
2010-01-29,31.414257049560547
2010-02-01,32.08451843261719
2010-02-02,32.47792053222656
2010-02-03,31.82709312438965
2010-02-04,30.661436080932617
2010-02-05,31.21512794494629
2010-02-08,30.535175323486328
2010-02-09,30.603158950805664
2010-02-10,30.48174476623535
2010-02-11,30.350603103637695
2010-02-12,30.45259666442871
2010-02-16,31.28799057006836
2010-02-17,31.00629425048828
2010-02-18,31.487112045288086
2010-02-19,31.870805740356445
2010-02-22,31.899938583374023
2010-02-23,31.36084747314453
2010-02-24,31.720252990722656
2010-02-25,31.904802322387695
2010-02-26,31.91937255859375
2010-03-01,32.14764404296875
2010-03-02,32.22536087036133
2010-03-03,32.273929595947266
2010-03-04,32.60420227050781
2010-03-05,33.638702392578125
2010-03-08,34.255531311035156
2010-03-09,34.697505950927734
2010-03-10,35.34347152709961
2010-03-11,35.52317428588867
2010-03-12,35.84373092651367
2010-03-15,35.75629806518555
2010-03-16,36.62569046020508
2010-03-17,37.03852462768555
2010-03-18,36.95109176635742
2010-03-19,36.63540267944336
2010-03-22,36.84910202026367
2010-03-23,36.892818450927734
2010-03-24,37.101661682128906
2010-03-25,37.29594802856445
2010-03-26,37.17451858520508
2010-03-29,37.36879348754883
2010-03-30,37.276512145996094
2010-03-31,36.766536712646484
2010-04-01,36.839393615722656
2010-04-05,38.06332015991211
2010-04-06,38.65585708618164
2010-04-07,37.51935958862305
2010-04-08,37.41250228881836
2010-04-09,38.4664421081543
2010-04-12,38.000179290771484
2010-04-13,39.588382720947266
2010-04-14,39.360107421875
2010-04-15,38.000179290771484
2010-04-16,37.198795318603516
2010-04-19,37.31536102294922
2010-04-20,37.92732620239258
2010-04-21,38.680145263671875
2010-04-22,39.549522399902344
2010-04-23,40.074066162109375
2010-04-26,40.62289810180664
2010-04-27,39.35040283203125
2010-04-28,39.568946838378906
2010-04-29,41.9439697265625
2010-04-30,40.491756439208984
2010-05-03,41.793399810791016
2010-05-04,40.55489730834961
2010-05-05,40.074066162109375
2010-05-06,38.36555480957031
2010-05-07,37.469696044921875
2010-05-10,40.093658447265625
2010-05-11,40.0838508605957
2010-05-12,40.73984909057617
2010-05-13,40.0838508605957
2010-05-14,38.94321823120117
2010-05-17,38.89915084838867
2010-05-18,37.71446228027344
2010-05-19,37.401153564453125
2010-05-20,35.97659683227539
2010-05-21,37.210235595703125
2010-05-24,36.06958770751953
2010-05-25,36.475921630859375
2010-05-26,36.211551666259766
2010-05-27,38.713138580322266
2010-05-28,38.02777862548828
2010-06-01,37.136817932128906
2010-06-02,38.115901947021484
2010-06-03,37.66061019897461
2010-06-04,35.296119689941406
2010-06-07,35.14436340332031
2010-06-08,35.629005432128906
2010-06-09,35.756290435791016
2010-06-10,37.425636291503906
2010-06-11,37.66551208496094
2010-06-14,38.155059814453125
2010-06-15,38.96770477294922
2010-06-16,38.93832778930664
2010-06-17,39.03623580932617
2010-06-18,38.86000442504883
2010-06-21,39.02155303955078
2010-06-22,37.885807037353516
2010-06-23,38.00819396972656
2010-06-24,37.33261489868164
2010-06-25,38.51731872558594
2010-06-28,37.83686065673828
2010-06-29,36.211551666259766
2010-06-30,35.71223831176758
2010-07-01,35.7269287109375
2010-07-02,34.821258544921875
2010-07-06,34.02330780029297
2010-07-07,35.66816711425781
2010-07-08,35.92763137817383
2010-07-09,36.7158088684082
2010-07-12,37.019317626953125
2010-07-13,37.84174728393555
2010-07-14,37.53822708129883
2010-07-15,37.63614273071289
2010-07-16,36.55424499511719
2010-07-19,37.08295440673828
2010-07-20,37.768310546875
2010-07-21,36.98993682861328
2010-07-22,38.72291946411133
2010-07-23,39.22227096557617
2010-07-26,40.5636100769043
2010-07-27,40.46570587158203
2010-07-28,40.68110275268555
2010-07-29,40.34332275390625
2010-07-30,40.52445602416992
2010-08-02,42.301490783691406
2010-08-03,41.50843048095703
2010-08-04,41.93434524536133
2010-08-05,41.586769104003906
2010-08-06,41.53781509399414
2010-08-09,42.21859359741211
2010-08-10,41.41940689086914
2010-08-11,40.63503646850586
2010-08-12,40.102237701416016
2010-08-13,39.95917510986328
2010-08-16,40.02824401855469
2010-08-17,41.458885192871094
2010-08-18,41.449012756347656
2010-08-19,40.2255744934082
2010-08-20,39.988773345947266
2010-08-23,39.9394416809082
2010-08-24,39.480655670166016
2010-08-25,40.06769943237305
2010-08-26,39.67799377441406
2010-08-27,40.245296478271484
2010-08-30,39.69771194458008
2010-08-31,39.988773345947266
2010-09-01,41.58713912963867
2010-09-02,42.49484634399414
2010-09-03,43.121376037597656
2010-09-07,42.30246353149414
2010-09-08,42.37151336669922
2010-09-09,41.710472106933594
2010-09-10,41.88314437866211
2010-09-13,42.44059753417969
2010-09-14,42.31233215332031
2010-09-15,42.81552505493164
2010-09-16,42.48991394042969
2010-09-17,42.687259674072266
2010-09-20,43.68869400024414
2010-09-21,43.590030670166016
2010-09-22,43.0572395324707
2010-09-23,41.78446960449219
2010-09-24,42.91910934448242
2010-09-27,42.84511947631836
2010-09-28,42.711917877197266
2010-09-29,42.114990234375
2010-09-30,42.19392776489258
2010-10-01,42.40605926513672
2010-10-04,42.879642486572266
2010-10-05,43.590030670166016
2010-10-06,42.993106842041016
2010-10-07,42.9635124206543
2010-10-08,42.894447326660156
2010-10-11,42.90431213378906
2010-10-12,43.190433502197266
2010-10-13,43.44696807861328
2010-10-14,43.34337615966797
2010-10-15,43.02271270751953
2010-10-18,43.77748489379883
2010-10-19,43.16083526611328
2010-10-20,44.30042266845703
2010-10-21,44.788818359375
2010-10-22,44.92200469970703
2010-10-25,44.93187713623047
2010-10-26,44.4681510925293
2010-10-27,43.7873649597168
2010-10-28,43.31377029418945
2010-10-29,43.11151123046875
2010-11-01,43.451904296875
2010-11-02,44.04387283325195
2010-11-03,43.738040924072266
2010-11-04,43.925479888916016
2010-11-05,44.3250846862793
2010-11-08,43.71387481689453
2010-11-09,41.979637145996094
2010-11-10,42.33245086669922
2010-11-11,41.51750564575195
2010-11-12,41.28892135620117
2010-11-15,40.73734664916992
2010-11-16,39.32112121582031
2010-11-17,39.25652313232422
2010-11-18,39.35094451904297
2010-11-19,39.862754821777344
2010-11-22,40.23047637939453
2010-11-23,40.111228942871094
2010-11-24,40.85164260864258
2010-11-26,40.628021240234375
2010-11-29,40.67771530151367
2010-11-30,40.538570404052734
2010-12-01,40.752262115478516
2010-12-02,41.00566482543945
2010-12-03,41.169654846191406
2010-12-06,41.03549575805664
2010-12-07,41.51253128051758
2010-12-08,40.861572265625
2010-12-09,40.48887634277344
2010-12-10,40.63298416137695
2010-12-13,40.796974182128906
2010-12-14,40.528629302978516
2010-12-15,39.91741943359375
2010-12-16,39.79319381713867
2010-12-17,39.70374298095703
2010-12-20,40.076438903808594
2010-12-21,40.63795471191406
2010-12-22,40.99573516845703
2010-12-23,40.801944732666016
2010-12-27,41.25909423828125
2010-12-28,41.37339401245117
2010-12-29,41.74110794067383
2010-12-30,41.597007751464844
2010-12-31,41.40818405151367
2011-01-03,42.44673156738281
2011-01-04,41.74110794067383
2011-01-05,41.89514923095703
2011-01-06,41.61688995361328
2011-01-07,41.577125549316406
2011-01-10,41.447933197021484
2011-01-11,41.27897644042969
2011-01-12,41.76595687866211
2011-01-13,41.924964904785156
2011-01-14,42.814453125
2011-01-18,43.22689437866211
2011-01-19,42.54114532470703
2011-01-20,42.998321533203125
2011-01-21,43.03806686401367
2011-01-24,42.92377471923828
2011-01-25,43.30641174316406
2011-01-26,43.63197326660156
2011-01-27,44.40835952758789
2011-01-28,43.66704559326172
2011-01-31,44.122840881347656
2011-02-01,44.207984924316406
2011-02-02,43.60694122314453
2011-02-03,43.63197326660156
2011-02-04,43.18619155883789
2011-02-07,43.69209289550781
2011-02-08,43.576881408691406
2011-02-09,44.02266311645508
2011-02-10,44.22802734375
2011-02-11,44.573631286621094
2011-02-14,44.428382873535156
2011-02-15,44.43339157104492
2011-02-16,44.172935485839844
2011-02-17,44.36326217651367
2011-02-18,44.994384765625
2011-02-22,44.673805236816406
2011-02-23,44.2029914855957
2011-02-24,43.997623443603516
2011-02-25,45.06951141357422
2011-02-28,46.74748229980469
2011-03-01,45.670570373535156
2011-03-02,44.90422821044922
2011-03-03,45.05950164794922
2011-03-04,44.23303985595703
2011-03-07,43.88742446899414
2011-03-08,44.16291046142578
2011-03-09,44.47346878051758
2011-03-10,43.717132568359375
2011-03-11,44.27812194824219
2011-03-14,43.88742446899414
2011-03-15,43.56686782836914
2011-03-16,42.61017990112305
2011-03-17,43.101043701171875
2011-03-18,43.05095672607422
2011-03-21,43.476707458496094
2011-03-22,42.980831146240234
2011-03-23,42.364749908447266
2011-03-24,42.45991897583008
2011-03-25,42.850608825683594
2011-03-28,42.63521957397461
2011-03-29,42.70033264160156
2011-03-30,43.50174331665039
2011-03-31,43.827327728271484
2011-04-01,44.07777404785156
2011-04-04,44.0927848815918
2011-04-05,44.263092041015625
2011-04-06,44.3732795715332
2011-04-07,44.032691955566406
2011-04-08,43.84735870361328
2011-04-11,44.25307083129883
2011-04-12,44.16291046142578
2011-04-13,43.992618560791016
2011-04-14,44.884193420410156
2011-04-15,45.4652099609375
2011-04-18,44.91423797607422
2011-04-19,45.32997131347656
2011-04-20,45.785770416259766
2011-04-21,46.191490173339844
2011-04-25,46.782535552978516
2011-04-26,47.22331619262695
2011-04-27,47.669097900390625
2011-04-28,48.3853645324707
2011-04-29,48.4254264831543
2011-05-02,48.50556945800781
2011-05-03,48.01470184326172
2011-05-04,47.60899353027344
2011-05-05,47.52826690673828
2011-05-06,47.42736053466797
2011-05-09,47.8259391784668
2011-05-10,48.68872833251953
2011-05-11,48.012638092041016
2011-05-12,48.18922424316406
2011-05-13,47.82090759277344
2011-05-16,48.14885711669922
2011-05-17,48.10849380493164
2011-05-18,48.734130859375
2011-05-19,48.99650573730469
2011-05-20,48.40114212036133
2011-05-23,47.68971633911133
2011-05-24,47.926856994628906
2011-05-25,47.97227096557617
2011-05-26,48.55250549316406
2011-05-27,48.75430679321289
2011-05-31,49.63726806640625
2011-06-01,48.02778244018555
2011-06-02,47.6089973449707
2011-06-03,47.911712646484375
2011-06-06,47.10951232910156
2011-06-07,47.87136459350586
2011-06-08,47.5938606262207
2011-06-09,47.25579833984375
2011-06-10,46.05498123168945
2011-06-13,46.20635223388672
2011-06-14,46.75125503540039
2011-06-15,45.88344955444336
2011-06-16,46.155914306640625
2011-06-17,46.155914306640625
2011-06-20,46.74117660522461
2011-06-21,47.30121994018555
2011-06-22,47.0489387512207
2011-06-23,45.69676971435547
2011-06-24,45.74721908569336
2011-06-27,46.2013053894043
2011-06-28,46.50403594970703
2011-06-29,47.038875579833984
2011-06-30,47.013641357421875
2011-07-01,47.86125946044922
2011-07-05,48.143821716308594
2011-07-06,48.39103698730469
2011-07-07,48.915771484375
2011-07-08,48.734130859375
2011-07-11,47.72505187988281
2011-07-12,47.63422393798828
2011-07-13,46.72602462768555
2011-07-14,46.62008285522461
2011-07-15,47.1851921081543
2011-07-18,46.579715728759766
2011-07-19,47.3668098449707
2011-07-20,48.22959518432617
2011-07-21,49.07722854614258
2011-07-22,49.74827575683594
2011-07-25,49.00658416748047
2011-07-26,48.824951171875
2011-07-27,47.34662628173828
2011-07-28,47.28608322143555
2011-07-29,47.20029830932617
2011-08-01,46.574668884277344
2011-08-02,44.19826126098633
2011-08-03,43.90562438964844
2011-08-04,41.932857513427734
2011-08-05,40.75724792480469
2011-08-08,37.08304977416992
2011-08-09,40.45191955566406
2011-08-10,39.44430923461914
2011-08-11,41.749603271484375
2011-08-12,42.03966522216797
2011-08-15,43.41876220703125
2011-08-16,42.85389709472656
2011-08-17,43.184669494628906
2011-08-18,41.11347579956055
2011-08-19,40.21273422241211
2011-08-22,40.0600700378418
2011-08-23,41.08803176879883
2011-08-24,41.59184265136719
2011-08-25,41.13383865356445
2011-08-26,41.67326354980469
2011-08-29,42.81318664550781
2011-08-30,43.276275634765625
2011-08-31,43.719017028808594
2011-09-01,43.43913269042969
2011-09-02,42.604530334472656
2011-09-06,42.55873489379883
2011-09-07,44.187198638916016
2011-09-08,43.72410202026367
2011-09-09,41.78013229370117
2011-09-12,42.36027526855469
2011-09-13,42.79791259765625
2011-09-14,42.91497039794922
2011-09-15,43.922569274902344
2011-09-16,43.76990509033203
2011-09-19,42.446781158447266
2011-09-20,42.45695877075195
2011-09-21,40.31960678100586
2011-09-22,39.56644058227539
2011-09-23,39.98373031616211
2011-09-26,40.30942916870117
2011-09-27,40.20256805419922
2011-09-28,39.35779571533203
2011-09-29,39.53082275390625
2011-09-30,37.973602294921875
2011-10-03,35.88714599609375
2011-10-04,36.68611145019531
2011-10-05,36.78788375854492
2011-10-06,37.35276412963867
2011-10-07,35.60725021362305
2011-10-10,37.744606018066406
2011-10-11,37.3018684387207
2011-10-12,37.88200759887695
2011-10-13,37.66318893432617
2011-10-14,38.80311965942383
2011-10-17,37.83620834350586
2011-10-18,39.04228210449219
2011-10-19,38.36545944213867
2011-10-20,38.996482849121094
2011-10-21,39.9481201171875
2011-10-24,41.13383865356445
2011-10-25,40.34505081176758
2011-10-26,40.421390533447266
2011-10-27,42.070194244384766
2011-10-28,42.29411697387695
2011-10-31,42.141448974609375
2011-11-01,40.49263381958008
2011-11-02,41.103309631347656
2011-11-03,41.97350311279297
2011-11-04,40.96589660644531
2011-11-07,41.41880798339844
2011-11-08,42.629981994628906
2011-11-09,40.705787658691406
2011-11-10,40.02846908569336
2011-11-11,41.03931427001953
2011-11-14,39.920711517333984
2011-11-15,40.326080322265625
2011-11-16,39.520477294921875
2011-11-17,38.668701171875
2011-11-18,38.858551025390625
2011-11-21,37.58601379394531
2011-11-22,37.26274490356445
2011-11-23,36.020999908447266
2011-11-25,36.29294967651367
2011-11-28,36.96513748168945
2011-11-29,36.48280334472656
2011-11-30,38.20175552368164
2011-12-01,38.02217483520508
2011-12-02,37.97085952758789
2011-12-05,38.20689010620117
2011-12-06,38.11453628540039
2011-12-07,38.612239837646484
2011-12-08,37.53469467163086
2011-12-09,38.191497802734375
2011-12-12,37.11906814575195
2011-12-13,36.86764907836914
2011-12-14,37.14472961425781
2011-12-15,37.71428680419922
2011-12-16,38.0888786315918
2011-12-19,37.50904846191406
2011-12-20,39.258785247802734
2011-12-21,39.012489318847656
2011-12-22,39.47941970825195
2011-12-23,39.561519622802734
2011-12-27,39.47941970825195
2011-12-28,38.89958572387695
2011-12-29,39.46916198730469
2011-12-30,39.43837356567383
2012-01-03,39.78730392456055
2012-01-04,38.87907409667969
2012-01-05,39.417850494384766
2012-01-06,39.47941970825195
2012-01-09,39.64362716674805
2012-01-10,40.2850227355957
2012-01-11,40.726314544677734
2012-01-12,40.44922637939453
2012-01-13,40.710914611816406
2012-01-17,40.49539566040039
2012-01-18,41.070106506347656
2012-01-19,41.09062194824219
2012-01-20,41.30101013183594
2012-01-23,41.398494720458984
2012-01-24,41.82439041137695
2012-01-25,42.09633255004883
2012-01-26,41.98766326904297
2012-01-27,41.925559997558594
2012-01-30,41.2994384765625
2012-01-31,41.853118896484375
2012-02-01,42.582763671875
2012-02-02,43.250301361083984
2012-02-03,44.50776290893555
2012-02-06,44.502586364746094
2012-02-07,44.3835563659668
2012-02-08,44.36286926269531
2012-02-09,43.59700393676758
2012-02-10,43.26063919067383
2012-02-13,43.91265869140625
2012-02-14,43.333091735839844
2012-02-15,43.36931610107422
2012-02-16,44.083431243896484
2012-02-17,43.933372497558594
2012-02-21,43.66427230834961
2012-02-22,43.32792282104492
2012-02-23,43.74706268310547
2012-02-24,43.845394134521484
2012-02-27,43.5763053894043
2012-02-28,42.582763671875
2012-02-29,42.29298400878906
2012-03-01,42.33953857421875
2012-03-02,42.33436965942383
2012-03-05,42.03424072265625
2012-03-06,41.42879867553711
2012-03-07,41.87381362915039
2012-03-08,41.346004486083984
2012-03-09,41.40808868408203
2012-03-12,41.69789123535156
2012-03-13,42.99155807495117
2012-03-14,42.965675354003906
2012-03-15,43.19337844848633
2012-03-16,43.37449645996094
2012-03-19,43.86091995239258
2012-03-20,43.90748596191406
2012-03-21,43.59700393676758
2012-03-22,43.151981353759766
2012-03-23,43.17267608642578
2012-03-26,43.5349006652832
2012-03-27,43.524559020996094
2012-03-28,43.234771728515625
2012-03-29,43.18302917480469
2012-03-30,43.57113265991211
2012-04-02,43.76259231567383
2012-04-03,43.545249938964844
2012-04-04,42.86735916137695
2012-04-05,42.43269348144531
2012-04-09,41.87381362915039
2012-04-10,41.05105209350586
2012-04-11,41.32012939453125
2012-04-12,41.93075180053711
2012-04-13,41.36671447753906
2012-04-16,42.51031494140625
2012-04-17,43.02778625488281
2012-04-18,42.98122024536133
2012-04-19,42.91394805908203
2012-04-20,43.29688262939453
2012-04-23,42.83631896972656
2012-04-24,43.7729377746582
2012-04-25,43.96958541870117
2012-04-26,44.17140579223633
2012-04-27,44.502586364746094
2012-04-30,44.41979217529297
2012-05-01,45.27360534667969
2012-05-02,45.33053970336914
2012-05-03,45.092498779296875
2012-05-04,44.64747619628906
2012-05-07,45.29948806762695
2012-05-08,45.57373809814453
2012-05-09,45.449562072753906
2012-05-10,45.37653732299805
2012-05-11,45.616458892822266
2012-05-14,45.381744384765625
2012-05-15,45.05316162109375
2012-05-16,44.15083694458008
2012-05-17,42.99818420410156
2012-05-18,42.39316177368164
2012-05-21,43.21201705932617
2012-05-22,43.26939010620117
2012-05-23,43.2276611328125
2012-05-24,43.41543197631836
2012-05-25,43.34241485595703
2012-05-29,43.790977478027344
2012-05-30,42.612213134765625
2012-05-31,42.72695541381836
2012-06-01,41.741188049316406
2012-06-04,41.4126091003418
2012-06-05,41.991554260253906
2012-06-06,42.83127212524414
2012-06-07,42.64872360229492
2012-06-08,43.10249710083008
2012-06-11,41.996768951416016
2012-06-12,42.04892349243164
2012-06-13,41.75684356689453
2012-06-14,42.37229537963867
2012-06-15,42.664371490478516
2012-06-18,43.10771179199219
2012-06-19,43.11292266845703
2012-06-20,42.878211975097656
2012-06-21,42.10628890991211
2012-06-22,42.01241683959961
2012-06-25,41.62123489379883
2012-06-26,41.892459869384766
2012-06-27,42.09064483642578
2012-06-28,42.48703384399414
2012-06-29,43.801395416259766
2012-07-02,44.06739044189453
2012-07-03,44.20821762084961
2012-07-05,44.17692565917969
2012-07-06,44.16127395629883
2012-07-09,44.09867477416992
2012-07-10,43.660560607910156
2012-07-11,43.863990783691406
2012-07-12,43.963069915771484
2012-07-13,44.771514892578125
2012-07-16,44.84452819824219
2012-07-17,45.08967208862305
2012-07-18,44.64112091064453
2012-07-19,44.0100212097168
2012-07-20,43.54059982299805
2012-07-23,42.95644760131836
2012-07-24,42.554840087890625
2012-07-25,42.47660446166992
2012-07-26,43.09206008911133
2012-07-27,43.47281265258789
2012-07-30,43.73358154296875
2012-07-31,43.5510368347168
2012-08-01,43.75445556640625
2012-08-02,43.77531433105469
2012-08-03,44.67241287231445
2012-08-06,44.64633560180664
2012-08-07,43.59798049926758
2012-08-08,42.91429138183594
2012-08-09,42.078094482421875
2012-08-10,42.01500701904297
2012-08-13,42.472530364990234
2012-08-14,42.60926818847656
2012-08-15,42.81962585449219
2012-08-16,42.95111083984375
2012-08-17,43.282440185546875
2012-08-20,42.993186950683594
2012-08-21,43.576942443847656
2012-08-22,43.329769134521484
2012-08-23,42.90378189086914
2012-08-24,43.17726135253906
2012-08-27,43.24036407470703
2012-08-28,43.07733154296875
2012-08-29,43.05628967285156
2012-08-30,42.49882888793945
2012-08-31,42.68815231323242
2012-09-04,42.78282165527344
2012-09-05,42.66185760498047
2012-09-06,42.9248161315918
2012-09-07,43.06155776977539
2012-09-10,43.03526306152344
2012-09-11,43.32450485229492
2012-09-12,43.455989837646484
2012-09-13,44.334251403808594
2012-09-14,44.7654914855957
2012-09-17,44.513065338134766
2012-09-18,44.397369384765625
2012-09-19,44.06077575683594
2012-09-20,43.45072937011719
2012-09-21,43.292945861816406
2012-09-24,43.193031311035156
2012-09-25,42.604000091552734
2012-09-26,42.55141830444336
2012-09-27,42.81437683105469
2012-09-28,42.625038146972656
2012-10-01,42.2253532409668
2012-10-02,42.446231842041016
2012-10-03,42.39364242553711
2012-10-04,41.962398529052734
2012-10-05,42.07284164428711
2012-10-08,41.783592224121094
2012-10-09,41.47856140136719
2012-10-10,41.52589416503906
2012-10-11,41.55745315551758
2012-10-12,41.27871322631836
2012-10-15,41.43649673461914
2012-10-16,41.70469665527344
2012-10-17,42.14646530151367
2012-10-18,43.2982063293457
2012-10-19,42.75651931762695
2012-10-22,42.81437683105469
2012-10-23,42.29898452758789
2012-10-24,42.12017059326172
2012-10-25,42.07284164428711
2012-10-26,41.962398529052734
2012-10-31,42.183284759521484
2012-11-01,42.56194305419922
2012-11-02,42.56719970703125
2012-11-05,42.009735107421875
2012-11-06,42.26743698120117
2012-11-07,41.853675842285156
2012-11-08,41.36032485961914
2012-11-09,41.015533447265625
2012-11-12,40.36306381225586
2012-11-13,40.07131576538086
2012-11-14,39.2331657409668
2012-11-15,38.87245178222656
2012-11-16,38.84592819213867
2012-11-19,39.445350646972656
2012-11-20,39.662845611572266
2012-11-21,39.721195220947266
2012-11-23,40.108436584472656
2012-11-26,40.01295471191406
2012-11-27,39.77423858642578
2012-11-28,40.02886199951172
2012-11-29,40.230445861816406
2012-11-30,40.54340744018555
2012-12-03,40.67072296142578
2012-12-04,40.53280258178711
2012-12-05,40.27818298339844
2012-12-06,40.665218353271484
2012-12-07,41.14363479614258
2012-12-10,41.20814895629883
2012-12-11,41.24576950073242
2012-12-12,41.278018951416016
2012-12-13,41.24576950073242
2012-12-14,41.541419982910156
2012-12-17,42.01982879638672
2012-12-18,42.600364685058594
2012-12-19,42.64338302612305
2012-12-20,43.08416748046875
2012-12-21,42.87452697753906
2012-12-24,42.858402252197266
2012-12-26,42.57350540161133
2012-12-27,42.756256103515625
2012-12-28,42.61112594604492
2012-12-31,43.046539306640625
2013-01-02,43.498077392578125
2013-01-03,43.70771789550781
2013-01-04,44.21300506591797
2013-01-07,44.0463752746582
2013-01-08,43.61094665527344
2013-01-09,43.73997497558594
2013-01-10,43.56795120239258
2013-01-11,43.584083557128906
2013-01-14,44.29901885986328
2013-01-15,44.471038818359375
2013-01-16,44.70217514038086
2013-01-17,44.86344528198242
2013-01-18,45.492366790771484
2013-01-22,45.56224060058594
2013-01-23,45.5837516784668
2013-01-24,45.96329116821289
2013-01-25,46.332000732421875
2013-01-28,46.18018341064453
2013-01-29,46.43501281738281
2013-01-30,46.174747467041016
2013-01-31,45.795204162597656
2013-02-01,46.30487823486328
2013-02-04,45.81147003173828
2013-02-05,45.849422454833984
2013-02-06,45.44278335571289
2013-02-07,45.155391693115234
2013-02-08,45.82230758666992
2013-02-11,45.97955322265625
2013-02-12,46.397064208984375
2013-02-13,46.40790557861328
2013-02-14,46.109703063964844
2013-02-15,46.02835464477539
2013-02-19,46.49466323852539
2013-02-20,46.022926330566406
2013-02-21,45.54579544067383
2013-02-22,46.27235794067383
2013-02-25,45.03610610961914
2013-02-26,45.00358200073242
2013-02-27,44.83007049560547
2013-02-28,43.49081039428711
2013-03-01,43.54502868652344
2013-03-04,44.114349365234375
2013-03-05,45.60543441772461
2013-03-06,45.12285614013672
2013-03-07,45.014427185058594
2013-03-08,45.67591857910156
2013-03-11,46.001243591308594
2013-03-12,45.3505973815918
2013-03-13,45.090328216552734
2013-03-14,45.20418930053711
2013-03-15,45.155391693115234
2013-03-18,44.83549499511719
2013-03-19,44.30955123901367
2013-03-20,44.3366584777832
2013-03-21,44.179412841796875
2013-03-22,44.23904800415039
2013-03-25,44.20109558105469
2013-03-26,44.640289306640625
2013-03-27,45.247562408447266
2013-03-28,45.3505973815918
2013-04-01,45.66507339477539
2013-04-02,45.76810073852539
2013-04-03,45.778934478759766
2013-04-04,47.29170227050781
2013-04-05,47.15073013305664
2013-04-08,47.67125701904297
2013-04-09,47.063995361328125
2013-04-10,47.204952239990234
2013-04-11,47.28086471557617
2013-04-12,47.39472961425781
2013-04-15,46.41875076293945
2013-04-16,47.21037673950195
2013-04-17,46.77118682861328
2013-04-18,46.08800506591797
2013-04-19,46.641056060791016
2013-04-22,46.944698333740234
2013-04-23,47.042293548583984
2013-04-24,47.24834060668945
2013-04-25,46.92300796508789
2013-04-26,46.59225845336914
2013-04-29,47.13988494873047
2013-04-30,47.476051330566406
2013-05-01,47.389312744140625
2013-05-02,47.30796813964844
2013-05-03,47.13447189331055
2013-05-06,47.62788391113281
2013-05-07,47.07481384277344
2013-05-08,47.40556716918945
2013-05-09,47.11030960083008
2013-05-10,47.17045593261719
2013-05-13,47.43837356567383
2013-05-14,47.56414031982422
2013-05-15,48.19840621948242
2013-05-16,47.8922004699707
2013-05-17,47.821128845214844
2013-05-20,47.935951232910156
2013-05-21,47.95781707763672
2013-05-22,46.84238815307617
2013-05-23,45.885528564453125
2013-05-24,46.07689666748047
2013-05-28,45.7105712890625
2013-05-29,45.2130012512207
2013-05-30,44.5021858215332
2013-05-31,43.71482849121094
2013-06-03,44.19053268432617
2013-06-04,43.76404571533203
2013-06-05,43.31021499633789
2013-06-06,44.07569885253906
2013-06-07,44.556854248046875
2013-06-10,44.34362030029297
2013-06-11,43.660152435302734
2013-06-12,43.40863037109375
2013-06-13,45.11458206176758
2013-06-14,45.30047607421875
2013-06-17,45.48091125488281
2013-06-18,45.92380142211914
2013-06-19,44.23973846435547
2013-06-20,41.95420455932617
2013-06-21,42.82904815673828
2013-06-24,42.72516632080078
2013-06-25,43.29927444458008
2013-06-26,44.07023620605469
2013-06-27,45.34422302246094
2013-06-28,45.30047607421875
2013-07-01,45.38796615600586
2013-07-02,46.2081298828125
2013-07-03,46.01130294799805
2013-07-05,46.16986083984375
2013-07-08,46.312015533447266
2013-07-09,46.76038360595703
2013-07-10,46.73303985595703
2013-07-11,47.84845733642578
2013-07-12,47.547725677490234
2013-07-15,47.99062728881836
2013-07-16,47.72270584106445
2013-07-17,47.88127517700195
2013-07-18,48.50458908081055
2013-07-19,48.34054946899414
2013-07-22,48.61394119262695
2013-07-23,48.488189697265625
2013-07-24,47.607879638671875
2013-07-25,47.47665023803711
2013-07-26,47.859397888183594
2013-07-29,47.531333923339844
2013-07-30,47.11030960083008
2013-07-31,46.372161865234375
2013-08-01,46.01675796508789
2013-08-02,45.59027099609375
2013-08-05,45.72149658203125
2013-08-06,45.956607818603516
2013-08-07,46.33935546875
2013-08-08,46.75851058959961
2013-08-09,46.83021545410156
2013-08-12,46.1904411315918
2013-08-13,45.9091682434082
2013-08-14,46.3393440246582
2013-08-15,45.68855285644531
2013-08-16,44.89434814453125
2013-08-19,43.890567779541016
2013-08-20,44.77301788330078
2013-08-21,44.70683670043945
2013-08-22,45.21975326538086
2013-08-23,45.754737854003906
2013-08-26,45.760257720947266
2013-08-27,45.710609436035156
2013-08-28,45.4900016784668
2013-08-29,45.11496353149414
2013-08-30,44.83919143676758
2013-09-03,44.65168380737305
2013-09-04,44.960533142089844
2013-09-05,44.53586196899414
2013-09-06,45.43484115600586
2013-09-09,46.63166046142578
2013-09-10,46.48274612426758
2013-09-11,46.96809387207031
2013-09-12,46.50480651855469
2013-09-13,46.63166046142578
2013-09-16,47.078392028808594
2013-09-17,46.90742874145508
2013-09-18,48.600616455078125
2013-09-19,48.89844512939453
2013-09-20,47.60786819458008
2013-09-23,47.44792556762695
2013-09-24,46.7088737487793
2013-09-25,46.54893493652344
2013-09-26,46.99014663696289
2013-09-27,46.55445098876953
2013-09-30,46.36141586303711
2013-10-01,46.72542190551758
2013-10-02,46.47172927856445
2013-10-03,45.859527587890625
2013-10-04,46.61511993408203
2013-10-07,46.54342269897461
2013-10-08,46.168373107910156
2013-10-09,46.16286087036133
2013-10-10,47.8008918762207
2013-10-11,47.938785552978516
2013-10-14,48.004974365234375
2013-10-15,47.657493591308594
2013-10-16,48.79364776611328
2013-10-17,49.328636169433594
2013-10-18,49.135616302490234
2013-10-21,48.942562103271484
2013-10-22,49.47202682495117
2013-10-23,49.301063537597656
2013-10-24,49.58784866333008
2013-10-25,50.249691009521484
2013-10-28,49.88566970825195
2013-10-29,49.7533073425293
2013-10-30,49.19074249267578
2013-10-31,49.119056701660156
2013-11-01,49.62095642089844
2013-11-04,49.88566970825195
2013-11-05,49.929805755615234
2013-11-06,49.990478515625
2013-11-07,49.25654220581055
2013-11-08,48.97297286987305
2013-11-11,49.106422424316406
2013-11-12,48.86176681518555
2013-11-13,49.301025390625
2013-11-14,49.7291374206543
2013-11-15,50.05717849731445
2013-11-18,49.91262435913086
2013-11-19,49.59013748168945
2013-11-20,49.17870330810547
2013-11-21,49.90705490112305
2013-11-22,50.00714111328125
2013-11-25,49.50117111206055
2013-11-26,49.11198043823242
2013-11-27,49.57345962524414
2013-11-29,48.88957977294922
2013-12-02,48.88401412963867
2013-12-03,49.4733772277832
2013-12-04,49.86257553100586
2013-12-05,49.8403434753418
2013-12-06,50.45751190185547
2013-12-09,50.312950134277344
2013-12-10,50.32407760620117
2013-12-11,48.850650787353516
2013-12-12,48.533729553222656
2013-12-13,48.967411041259766
2013-12-16,48.80060958862305
2013-12-17,48.939613342285156
2013-12-18,49.98490905761719
2013-12-19,49.26210021972656
2013-12-20,49.395530700683594
2013-12-23,49.54567337036133
2013-12-24,49.534549713134766
2013-12-26,49.601261138916016
2013-12-27,49.98490905761719
2013-12-30,49.9015007019043
2013-12-31,49.36774826049805
2014-01-02,49.28433609008789
2014-01-03,49.80141067504883
2014-01-06,49.617942810058594
2014-01-07,50.31850814819336
2014-01-08,49.979331970214844
2014-01-09,50.290706634521484
2014-01-10,50.985721588134766
2014-01-13,50.56315231323242
2014-01-14,50.88563537597656
2014-01-15,51.158077239990234
2014-01-16,51.46944046020508
2014-01-17,51.030208587646484
2014-01-21,51.30820083618164
2014-01-22,51.87532424926758
2014-01-23,51.40459060668945
2014-01-24,50.56961441040039
2014-01-27,50.59763717651367
2014-01-28,51.191650390625
2014-01-29,50.79376983642578
2014-01-30,51.20845031738281
2014-01-31,51.46063995361328
2014-02-03,50.54718780517578
2014-02-04,51.415794372558594
2014-02-05,51.079559326171875
2014-02-06,52.06024932861328
2014-02-07,51.76884841918945
2014-02-10,52.671077728271484
2014-02-11,53.17543411254883
2014-02-12,53.371559143066406
2014-02-13,53.47804260253906
2014-02-14,53.62934494018555
2014-02-18,53.825477600097656
2014-02-19,53.606929779052734
2014-02-20,53.253868103027344
2014-02-21,53.11379623413086
2014-02-24,53.03532791137695
2014-02-25,53.05214309692383
2014-02-26,53.029720306396484
2014-02-27,53.119384765625
2014-02-28,53.95997619628906
2014-03-03,54.066436767578125
2014-03-04,55.04713439941406
2014-03-05,55.59071731567383
2014-03-06,55.607521057128906
2014-03-07,55.56269454956055
2014-03-10,55.44500732421875
2014-03-11,55.641143798828125
2014-03-12,55.131187438964844
2014-03-13,54.78935241699219
2014-03-14,54.66606903076172
2014-03-17,54.66606903076172
2014-03-18,55.29372024536133
2014-03-19,54.13369369506836
2014-03-20,55.03032302856445
2014-03-21,55.11998748779297
2014-03-24,54.72209548950195
2014-03-25,54.8846321105957
2014-03-26,54.18414306640625
2014-03-27,54.28498840332031
2014-03-28,54.97426986694336
2014-03-31,55.2320556640625
2014-04-01,55.72520065307617
2014-04-02,55.607521057128906
2014-04-03,55.585105895996094
2014-04-04,55.56829071044922
2014-04-07,55.66355514526367
2014-04-08,56.18471908569336
2014-04-09,55.641143798828125
2014-04-10,55.08635711669922
2014-04-11,55.002296447753906
2014-04-14,54.76132583618164
2014-04-15,55.585105895996094
2014-04-16,56.19033432006836
2014-04-17,56.33042907714844
2014-04-21,56.33603286743164
2014-04-22,56.717098236083984
2014-04-23,56.605018615722656
2014-04-24,56.610618591308594
2014-04-25,56.46491241455078
2014-04-28,57.12055969238281
2014-04-29,57.148590087890625
2014-04-30,57.496036529541016
2014-05-01,57.80986022949219
2014-05-02,57.89951705932617
2014-05-05,58.022823333740234
2014-05-06,58.00039291381836
2014-05-07,58.95304870605469
2014-05-08,59.27470397949219
2014-05-09,59.523006439208984
2014-05-12,59.79386520385742
2014-05-13,59.38191604614258
2014-05-14,59.66971206665039
2014-05-15,59.545562744140625
2014-05-16,59.72615051269531
2014-05-19,59.47221755981445
2014-05-20,59.33112716674805
2014-05-21,59.17313766479492
2014-05-22,58.88533401489258
2014-05-23,59.43272399902344
2014-05-27,60.121150970458984
2014-05-28,59.9123649597168
2014-05-29,60.070369720458984
2014-05-30,60.4258918762207
2014-06-02,60.67416763305664
2014-06-03,60.27915954589844
2014-06-04,60.32994842529297
2014-06-05,61.334415435791016
2014-06-06,60.911190032958984
2014-06-09,60.070369720458984
2014-06-10,59.59634780883789
2014-06-11,59.449649810791016
2014-06-12,58.992549896240234
2014-06-13,58.969970703125
2014-06-16,58.82890319824219
2014-06-17,59.0377082824707
2014-06-18,59.263404846191406
2014-06-19,60.01394271850586
2014-06-20,60.14939498901367
2014-06-23,60.00830078125
2014-06-24,59.92929458618164
2014-06-25,60.00263595581055
2014-06-26,59.74308395385742
2014-06-27,60.578250885009766
2014-06-30,60.228389739990234
2014-07-01,60.217079162597656
2014-07-02,60.262237548828125
2014-07-03,59.78822708129883
2014-07-07,59.76563262939453
2014-07-08,59.946224212646484
2014-07-09,60.025245666503906
2014-07-10,59.85027313232422
2014-07-11,60.132450103759766
2014-07-14,60.36945724487305
2014-07-15,60.38075256347656
2014-07-16,60.67416763305664
2014-07-17,59.79951477050781
2014-07-18,60.65160369873047
2014-07-21,60.3581657409668
2014-07-22,60.91684341430664
2014-07-23,61.0692024230957
2014-07-24,61.28364944458008
2014-07-25,60.57261276245117
2014-07-28,60.561317443847656
2014-07-29,60.28480911254883
2014-07-30,60.45408630371094
2014-07-31,59.827701568603516
2014-08-01,59.32548141479492
2014-08-04,59.714866638183594
2014-08-05,59.32548141479492
2014-08-06,59.12797927856445
2014-08-07,59.13933181762695
2014-08-08,59.514400482177734
2014-08-11,59.787174224853516
2014-08-12,59.838314056396484
2014-08-13,60.582740783691406
2014-08-14,60.29861831665039
2014-08-15,59.980384826660156
2014-08-18,60.412269592285156
2014-08-19,60.4804573059082
2014-08-20,60.787322998046875
2014-08-21,60.594093322753906
2014-08-22,59.974693298339844
2014-08-25,59.71896743774414
2014-08-26,59.67350769042969
2014-08-27,59.872406005859375
2014-08-28,59.90648651123047
2014-08-29,60.162235260009766
2014-09-02,60.58840560913086
2014-09-03,60.86118698120117
2014-09-04,60.73048782348633
2014-09-05,61.247596740722656
2014-09-08,61.241920471191406
2014-09-09,60.73048782348633
2014-09-10,59.88945007324219
2014-09-11,60.020164489746094
2014-09-12,58.37785339355469
2014-09-15,58.17329788208008
2014-09-16,58.70745086669922
2014-09-17,58.8154411315918
2014-09-18,58.34376907348633
2014-09-19,58.059635162353516
2014-09-22,57.49138259887695
2014-09-23,57.0026741027832
2014-09-24,56.84354782104492
2014-09-25,56.695804595947266
2014-09-26,57.258384704589844
2014-09-29,57.082218170166016
2014-09-30,56.80377197265625
2014-10-01,56.695804595947266
2014-10-02,56.5935173034668
2014-10-03,56.72420883178711
2014-10-06,56.62760543823242
2014-10-07,55.89455795288086
2014-10-08,57.053810119628906
2014-10-09,57.76414108276367
2014-10-10,58.25285720825195
2014-10-13,57.99144744873047
2014-10-14,59.14503860473633
2014-10-15,58.713138580322266
2014-10-16,58.9688606262207
2014-10-17,59.48029708862305
2014-10-20,60.224735260009766
2014-10-21,60.80437469482422
2014-10-22,60.77027893066406
2014-10-23,61.12259292602539
2014-10-24,61.04303741455078
2014-10-27,61.42377471923828
2014-10-28,61.2021369934082
2014-10-29,60.66230010986328
2014-10-30,61.145320892333984
2014-10-31,62.213661193847656
2014-11-03,62.975135803222656
2014-11-04,63.168357849121094
2014-11-05,63.532039642333984
2014-11-06,62.99434280395508
2014-11-07,62.365150451660156
2014-11-10,62.46240234375
2014-11-11,62.12489700317383
2014-11-12,61.501426696777344
2014-11-13,61.86180114746094
2014-11-14,61.535770416259766
2014-11-17,61.804588317871094
2014-11-18,62.46240234375
2014-11-19,62.336544036865234
2014-11-20,62.39374923706055
2014-11-21,63.26320266723633
2014-11-24,63.423362731933594
2014-11-25,63.343284606933594
2014-11-26,63.52058410644531
2014-11-28,63.812320709228516
2014-12-01,64.12691497802734
2014-12-02,64.52159118652344
2014-12-03,64.1612319946289
2014-12-04,64.55017852783203
2014-12-05,64.55017852783203
2014-12-08,64.74467468261719
2014-12-09,65.34526062011719
2014-12-10,65.13936614990234
2014-12-11,65.07070922851562
2014-12-12,64.77326202392578
2014-12-15,64.18983459472656
2014-12-16,63.949581146240234
2014-12-17,65.4882583618164
2014-12-18,66.68948364257812
2014-12-19,66.3291015625
2014-12-22,67.4616928100586
2014-12-23,67.75338745117188
2014-12-24,67.23287963867188
2014-12-26,67.66188049316406
2014-12-29,68.12516784667969
2014-12-30,68.22241973876953
2014-12-31,67.3301010131836
2015-01-02,68.27963256835938
2015-01-05,68.45124053955078
2015-01-06,69.00607299804688
2015-01-07,70.46467590332031
2015-01-08,70.70490264892578
2015-01-09,70.69918060302734
2015-01-12,71.16250610351562
2015-01-13,71.01378631591797
2015-01-14,71.31695556640625
2015-01-15,72.07201385498047
2015-01-16,72.22367095947266
2015-01-20,71.63587951660156
2015-01-21,71.04808044433594
2015-01-22,72.48281860351562
2015-01-23,72.24264526367188
2015-01-26,72.52705383300781
2015-01-27,72.22367095947266
2015-01-28,71.4715347290039
2015-01-29,71.52874755859375
2015-01-30,70.19403076171875
2015-02-02,70.58171081542969
2015-02-03,71.19190216064453
2015-02-04,70.91858673095703
2015-02-05,72.4376449584961
2015-02-06,71.59231567382812
2015-02-09,71.40162658691406
2015-02-10,71.82747650146484
2015-02-11,71.61774444580078
2015-02-12,72.26602935791016
2015-02-13,71.79570007324219
2015-02-17,71.74486541748047
2015-02-18,72.4312973022461
2015-02-19,70.71520233154297
2015-02-20,71.49697875976562
2015-02-23,71.92282104492188
2015-02-24,70.58171081542969
2015-02-25,70.20037841796875
2015-02-26,69.52030181884766
2015-02-27,69.93978881835938
2015-03-02,70.53723907470703
2015-03-03,70.33385467529297
2015-03-04,69.07539367675781
2015-03-05,69.3868179321289
2015-03-06,66.52672576904297
2015-03-09,66.92076873779297
2015-03-10,66.39323425292969
2015-03-11,66.46949005126953
2015-03-12,67.52456665039062
2015-03-13,67.21946716308594
2015-03-16,67.7915267944336
2015-03-17,67.93767547607422
2015-03-18,69.20887756347656
2015-03-19,69.31058502197266
2015-03-20,72.10079193115234
2015-03-23,71.99910736083984
2015-03-24,71.47789764404297
2015-03-25,70.14317321777344
2015-03-26,70.08596801757812
2015-03-27,70.51182556152344
2015-03-30,71.40801239013672
2015-03-31,71.1855239868164
2015-04-01,70.10504913330078
2015-04-02,70.68341827392578
2015-04-06,71.57960510253906
2015-04-07,69.99065399169922
2015-04-08,69.74909973144531
2015-04-09,68.09658813476562
2015-04-10,68.27454376220703
2015-04-13,68.16016387939453
2015-04-14,68.84022521972656
2015-04-15,68.31904602050781
2015-04-16,68.42073822021484
2015-04-17,68.00125122070312
2015-04-20,67.87413787841797
2015-04-21,68.00761413574219
2015-04-22,68.08385467529297
2015-04-23,67.96949005126953
2015-04-24,68.29998016357422
2015-04-27,68.41438293457031
2015-04-28,68.29363250732422
2015-04-29,66.94619750976562
2015-04-30,65.77669525146484
2015-05-01,66.41864776611328
2015-05-04,66.47584533691406
2015-05-05,64.02249908447266
2015-05-06,63.647499084472656
2015-05-07,64.49919891357422
2015-05-08,65.80387115478516
2015-05-11,64.51197052001953
2015-05-12,64.5631332397461
2015-05-13,63.929969787597656
2015-05-14,65.15792083740234
2015-05-15,65.69514465332031
2015-05-18,65.11954498291016
2015-05-19,65.2794418334961
2015-05-20,65.5992202758789
2015-05-21,65.39456939697266
2015-05-22,65.40096282958984
2015-05-26,64.67186737060547
2015-05-27,65.18350219726562
2015-05-28,64.84455108642578
2015-05-29,63.88520812988281
2015-06-01,64.62709045410156
2015-06-02,64.09625244140625
2015-06-03,63.552642822265625
2015-06-04,63.635780334472656
2015-06-05,62.797969818115234
2015-06-08,62.542137145996094
2015-06-09,62.228759765625
2015-06-10,62.836334228515625
2015-06-11,62.90670394897461
2015-06-12,62.695640563964844
2015-06-15,62.50377655029297
2015-06-16,62.97064971923828
2015-06-17,63.50787353515625
2015-06-18,64.78059387207031
2015-06-19,64.01950073242188
2015-06-22,63.64217758178711
2015-06-23,63.16251754760742
2015-06-24,62.18400573730469
2015-06-25,61.435699462890625
2015-06-26,61.8386344909668
2015-06-29,60.68743896484375
2015-06-30,60.7130126953125
2015-07-01,61.66594696044922
2015-07-02,61.570011138916016
2015-07-06,61.71711349487305
2015-07-07,62.66364288330078
2015-07-08,62.20318603515625
2015-07-09,61.9537239074707
2015-07-10,62.12001419067383
2015-07-13,61.934574127197266
2015-07-14,62.062469482421875
2015-07-15,62.19679260253906
2015-07-16,62.823543548583984
2015-07-17,62.23516082763672
2015-07-20,61.90259552001953
2015-07-21,61.69792556762695
2015-07-22,61.998531341552734
2015-07-23,61.326988220214844
2015-07-24,61.41652297973633
2015-07-27,61.5955924987793
2015-07-28,61.570011138916016
2015-07-29,62.06888198852539
2015-07-30,61.67235565185547
2015-07-31,62.38865280151367
2015-08-03,62.59969711303711
2015-08-04,61.8386344909668
2015-08-05,61.16709518432617
2015-08-06,60.86651611328125
2015-08-07,61.246376037597656
2015-08-10,61.69704055786133
2015-08-11,62.16058349609375
2015-08-12,62.38592529296875
2015-08-13,62.48250198364258
2015-08-14,62.40522766113281
2015-08-17,62.41168975830078
2015-08-18,62.2442741394043
2015-08-19,61.439510345458984
2015-08-20,60.79569625854492
2015-08-21,59.3342170715332
2015-08-24,56.28897476196289
2015-08-25,54.595726013183594
2015-08-26,56.73318862915039
2015-08-27,58.12384796142578
2015-08-28,57.6345329284668
2015-08-31,56.13444900512695
2015-09-01,55.355430603027344
2015-09-02,56.16019821166992
2015-09-03,56.19239807128906
2015-09-04,54.67299270629883
2015-09-08,55.76103591918945
2015-09-09,55.39405822753906
2015-09-10,55.928428649902344
2015-09-11,57.216068267822266
2015-09-14,56.97785568237305
2015-09-15,57.8148078918457
2015-09-16,58.58095169067383
2015-09-17,59.24409866333008
2015-09-18,59.076698303222656
2015-09-21,59.44367599487305
2015-09-22,58.606712341308594
2015-09-23,58.8320426940918
2015-09-24,58.32343292236328
2015-09-25,58.65822982788086
2015-09-28,57.72468566894531
2015-09-29,58.34918212890625
2015-09-30,58.21397399902344
2015-10-01,58.3105583190918
2015-10-02,59.03807067871094
2015-10-05,59.810638427734375
2015-10-06,59.79778289794922
2015-10-07,60.71199035644531
2015-10-08,61.729217529296875
2015-10-09,61.31074905395508
2015-10-12,61.961002349853516
2015-10-13,61.60689926147461
2015-10-14,61.43307113647461
2015-10-15,62.85590362548828
2015-10-16,63.26795196533203
2015-10-19,64.52983856201172
2015-10-20,64.07272338867188
2015-10-21,63.622047424316406
2015-10-22,64.5169448852539
2015-10-23,64.07916259765625
2015-10-26,64.22723388671875
2015-10-27,64.08560943603516
2015-10-28,64.84529113769531
2015-10-29,64.83241271972656
2015-10-30,64.73584747314453
2015-11-02,66.5771713256836
2015-11-03,64.89680480957031
2015-11-04,64.31739044189453
2015-11-05,64.24010467529297
2015-11-06,62.51021194458008
2015-11-09,61.55131530761719
2015-11-10,62.00482940673828
2015-11-11,62.192726135253906
2015-11-12,61.38933181762695
2015-11-13,60.63127899169922
2015-11-16,61.33748245239258
2015-11-17,61.007041931152344
2015-11-18,61.96595001220703
2015-11-19,62.322322845458984
2015-11-20,62.97020721435547
2015-11-23,63.01557159423828
2015-11-24,63.06740188598633
2015-11-25,62.75641632080078
2015-11-27,63.203468322753906
2015-11-30,62.691612243652344
2015-12-01,64.02630615234375
2015-12-02,62.885982513427734
2015-12-03,62.445396423339844
2015-12-04,63.35895919799805
2015-12-07,63.585723876953125
2015-12-08,63.49502182006836
2015-12-09,63.19049072265625
2015-12-10,62.78232955932617
2015-12-11,62.58796310424805
2015-12-14,63.268245697021484
2015-12-15,63.70884323120117
2015-12-16,64.89450073242188
2015-12-17,64.42153930664062
2015-12-18,63.17107391357422
2015-12-21,63.138668060302734
2015-12-22,63.51445388793945
2015-12-23,64.73251342773438
2015-12-24,64.66773223876953
2015-12-28,65.10185241699219
2015-12-29,65.74974822998047
2015-12-30,65.54241943359375
2015-12-31,64.7649154663086
2016-01-04,63.76715087890625
2016-01-05,64.60942077636719
2016-01-06,64.30490112304688
2016-01-07,63.669960021972656
2016-01-08,62.29639434814453
2016-01-11,61.99185562133789
2016-01-12,61.084808349609375
2016-01-13,60.21012878417969
2016-01-14,59.95743942260742
2016-01-15,58.855987548828125
2016-01-19,59.056861877441406
2016-01-20,57.30100631713867
2016-01-21,57.566654205322266
2016-01-22,58.81064987182617
2016-01-25,58.41542053222656
2016-01-26,59.64643859863281
2016-01-27,59.056861877441406
2016-01-28,56.7212028503418
2016-01-29,57.712867736816406
2016-02-01,57.30838394165039
2016-02-02,55.612098693847656
2016-02-03,56.179691314697266
2016-02-04,56.16664123535156
2016-02-05,54.972713470458984
2016-02-08,52.66314697265625
2016-02-09,52.473960876464844
2016-02-10,52.91107940673828
2016-02-11,52.29127502441406
2016-02-12,52.93064498901367
2016-02-16,53.77227783203125
2016-02-17,53.902748107910156
2016-02-18,54.99881362915039
2016-02-19,55.46855163574219
2016-02-22,56.96258544921875
2016-02-23,56.53852844238281
2016-02-24,56.01005935668945
2016-02-25,56.37541961669922
2016-02-26,56.20579528808594
2016-02-29,56.342803955078125
2016-03-01,58.234806060791016
2016-03-02,58.97205352783203
2016-03-03,59.42220687866211
2016-03-04,60.355159759521484
2016-03-07,59.931095123291016
2016-03-08,58.48272705078125
2016-03-09,58.37181091308594
2016-03-10,57.89554977416992
2016-03-11,60.01591110229492
2016-03-14,59.657081604003906
2016-03-15,59.715789794921875
2016-03-16,60.70094680786133
2016-03-17,61.28811264038086
2016-03-18,60.96190643310547
2016-03-21,60.45954132080078
2016-03-22,60.30295944213867
2016-03-23,59.48091506958008
2016-03-24,59.53963088989258
2016-03-28,60.16596984863281
2016-03-29,61.620853424072266
2016-03-30,61.307701110839844
2016-03-31,61.607810974121094
2016-04-01,61.79047775268555
2016-04-04,61.91443634033203
2016-04-05,61.451210021972656
2016-04-06,62.038394927978516
2016-04-07,61.13153839111328
2016-04-08,61.77744674682617
2016-04-11,61.738285064697266
2016-04-12,63.2127571105957
2016-04-13,62.6582145690918
2016-04-14,62.46248245239258
2016-04-15,62.605995178222656
2016-04-18,62.50163269042969
2016-04-19,62.67123794555664
2016-04-20,61.8557243347168
2016-04-21,61.41209030151367
2016-04-22,62.253692626953125
2016-04-25,62.73648452758789
2016-04-26,63.049659729003906
2016-04-27,62.82131576538086
2016-04-28,62.514652252197266
2016-04-29,62.455955505371094
2016-05-02,63.565067291259766
2016-05-03,61.764400482177734
2016-05-04,61.79700469970703
2016-05-05,62.14931106567383
2016-05-06,62.950584411621094
2016-05-09,63.63359832763672
2016-05-10,64.05391693115234
2016-05-11,63.088497161865234
2016-05-12,63.502254486083984
2016-05-13,62.52366256713867
2016-05-16,63.6138916015625
2016-05-17,62.819210052490234
2016-05-18,61.61076354980469
2016-05-19,60.85549545288086
2016-05-20,61.0328254699707
2016-05-23,61.20357894897461
2016-05-24,62.398895263671875
2016-05-25,62.44485855102539
2016-05-26,62.20841979980469
2016-05-27,62.53023147583008
2016-05-31,62.73383331298828
2016-06-01,62.622188568115234
2016-06-02,63.25924301147461
2016-06-03,63.0490608215332
2016-06-06,62.878318786621094
2016-06-07,62.904605865478516
2016-06-08,63.33804702758789
2016-06-09,63.82405090332031
2016-06-10,63.05563735961914
2016-06-13,62.806087493896484
2016-06-14,62.924293518066406
2016-06-15,63.7452507019043
2016-06-16,64.08674621582031
2016-06-17,64.32319641113281
2016-06-20,63.60075378417969
2016-06-21,64.03421783447266
2016-06-22,64.13275146484375
2016-06-23,64.97339630126953
2016-06-24,63.69929122924805
2016-06-27,62.819210052490234
2016-06-28,63.83717346191406
2016-06-29,65.05219268798828
2016-06-30,65.75493621826172
2016-07-01,65.66956329345703
2016-07-05,65.91255187988281
2016-07-06,65.17041015625
2016-07-07,64.28378295898438
2016-07-08,65.97823333740234
2016-07-11,66.22124481201172
2016-07-12,66.47079467773438
2016-07-13,66.54962921142578
2016-07-14,66.03077697753906
2016-07-15,65.87315368652344
2016-07-18,66.10302734375
2016-07-19,66.62841796875
2016-07-20,66.3329086303711
2016-07-21,66.93709564208984
2016-07-22,68.19151306152344
2016-07-25,68.79573822021484
2016-07-26,68.53303527832031
2016-07-27,68.46736145019531
2016-07-28,69.29488372802734
2016-07-29,70.5361557006836
2016-08-01,70.72660827636719
2016-08-02,69.03217315673828
2016-08-03,68.95993041992188
2016-08-04,68.79573822021484
2016-08-05,69.27808380126953
2016-08-08,69.78684997558594
2016-08-09,69.83309173583984
2016-08-10,69.62165069580078
2016-08-11,69.35735321044922
2016-08-12,69.46967315673828
2016-08-15,69.15253448486328
2016-08-16,68.33984375
2016-08-17,68.32661437988281
2016-08-18,68.35302734375
2016-08-19,67.15711975097656
2016-08-22,67.51392364501953
2016-08-23,67.5535659790039
2016-08-24,67.48747253417969
2016-08-25,67.5535659790039
2016-08-26,66.74085235595703
2016-08-29,67.87071990966797
2016-08-30,67.96981811523438
2016-08-31,68.26054382324219
2016-09-01,68.0226821899414
2016-09-02,68.54463958740234
2016-09-06,68.53145599365234
2016-09-07,69.1260986328125
2016-09-08,68.17464447021484
2016-09-09,65.71009826660156
2016-09-12,67.07121276855469
2016-09-13,64.917236328125
2016-09-14,64.67935180664062
2016-09-15,65.06918334960938
2016-09-16,65.17491149902344
2016-09-19,66.00743103027344
2016-09-20,66.19243621826172
2016-09-21,67.11746978759766
2016-09-22,68.47859191894531
2016-09-23,68.56449127197266
2016-09-26,68.69662475585938
2016-09-27,67.88391876220703
2016-09-28,68.18124389648438
2016-09-29,67.08442687988281
2016-09-30,66.87299346923828
2016-10-03,65.71671295166016
2016-10-04,65.03616333007812
2016-10-05,63.51646041870117
2016-10-06,63.760921478271484
2016-10-07,63.635406494140625
2016-10-10,63.80719757080078
2016-10-11,62.93502426147461
2016-10-12,63.00770568847656
2016-10-13,63.199310302734375
2016-10-14,62.93502426147461
2016-10-17,63.01430130004883
2016-10-18,63.50324630737305
2016-10-19,63.48344039916992
2016-10-20,63.053951263427734
2016-10-21,62.7962760925293
2016-10-24,62.63768005371094
2016-10-25,62.26769256591797
2016-10-26,61.55406951904297
2016-10-27,60.62904739379883
2016-10-28,60.26565170288086
2016-10-31,61.30299377441406
2016-11-01,59.86921691894531
2016-11-02,58.019161224365234
2016-11-03,57.719669342041016
2016-11-04,58.711299896240234
2016-11-07,59.45000076293945
2016-11-08,59.45000076293945
2016-11-09,60.155426025390625
2016-11-10,61.5263786315918
2016-11-11,63.30330276489258
2016-11-14,65.4129638671875
2016-11-15,64.12853240966797
2016-11-16,63.36320114135742
2016-11-17,63.536231994628906
2016-11-18,63.59611511230469
2016-11-21,62.957218170166016
2016-11-22,64.12853240966797
2016-11-23,64.21505737304688
2016-11-25,64.49456787109375
2016-11-28,65.17339324951172
2016-11-29,65.9520263671875
2016-11-30,65.05359649658203
2016-12-01,64.90718841552734
2016-12-02,66.05850982666016
2016-12-05,66.78392028808594
2016-12-06,67.72893524169922
2016-12-07,68.96014404296875
2016-12-08,68.97344207763672
2016-12-09,68.69393157958984
2016-12-12,69.83195495605469
2016-12-13,69.34614562988281
2016-12-14,68.0550537109375
2016-12-15,67.52263641357422
2016-12-16,68.78044891357422
2016-12-19,69.15312957763672
2016-12-20,69.6722412109375
2016-12-21,68.58079528808594
2016-12-22,68.58079528808594
2016-12-23,68.46100616455078
2016-12-27,68.54752349853516
2016-12-28,68.09496307373047
2016-12-29,68.44770050048828
2016-12-30,69.45928192138672
2017-01-03,69.69219970703125
2017-01-04,71.62218475341797
2017-01-05,71.54232025146484
2017-01-06,71.41586303710938
2017-01-09,70.58396911621094
2017-01-10,69.8785400390625
2017-01-11,69.24630737304688
2017-01-12,69.59235382080078
2017-01-13,69.40604400634766
2017-01-17,70.1513900756836
2017-01-18,70.67713928222656
2017-01-19,70.0182876586914
2017-01-20,70.40430450439453
2017-01-23,71.3426742553711
2017-01-24,71.66875457763672
2017-01-25,71.65545654296875
2017-01-26,71.88323211669922
2017-01-27,71.60185241699219
2017-01-30,71.59516143798828
2017-01-31,71.2199935913086
2017-02-01,69.60546112060547
2017-02-02,69.9538345336914
2017-02-03,70.24189758300781
2017-02-06,70.0476303100586
2017-02-07,70.18831634521484
2017-02-08,70.52327728271484
2017-02-09,70.60366821289062
2017-02-10,71.31378173828125
2017-02-13,71.31378173828125
2017-02-14,73.04219055175781
2017-02-15,73.04889678955078
2017-02-16,73.67862701416016
2017-02-17,73.55133819580078
2017-02-21,74.26146697998047
2017-02-22,73.58483123779297
2017-02-23,73.65852355957031
2017-02-24,73.77912139892578
2017-02-27,74.1408920288086
2017-02-28,73.60494995117188
2017-03-01,73.20298767089844
2017-03-02,72.9149169921875
2017-03-03,72.86801147460938
2017-03-06,72.52635192871094
2017-03-07,72.2516860961914
2017-03-08,70.93862915039062
2017-03-09,69.77965545654297
2017-03-10,69.13652038574219
2017-03-13,68.86185455322266
2017-03-14,68.63406372070312
2017-03-15,70.18831634521484
2017-03-16,69.8734359741211
2017-03-17,70.42948150634766
2017-03-20,69.74616241455078
2017-03-21,68.5871810913086
2017-03-22,67.97084045410156
2017-03-23,68.49340057373047
2017-03-24,67.60909271240234
2017-03-27,67.15353393554688
2017-03-28,67.11334228515625
2017-03-29,66.7917709350586
2017-03-30,67.24063110351562
2017-03-31,67.20042419433594
2017-04-03,67.58899688720703
2017-04-04,68.11152648925781
2017-04-05,67.53539276123047
2017-04-06,68.24552154541016
2017-04-07,68.07803344726562
2017-04-10,68.37279510498047
2017-04-11,68.64747619628906
2017-04-12,68.59388732910156
2017-04-13,67.85026550292969
2017-04-17,69.04271697998047
2017-04-18,68.98242950439453
2017-04-19,68.45990753173828
2017-04-20,68.04454040527344
2017-04-21,68.06463623046875
2017-04-24,66.84538269042969
2017-04-25,67.36788177490234
2017-04-26,65.37821960449219
2017-04-27,64.65471649169922
2017-04-28,64.47382354736328
2017-05-01,64.50061798095703
2017-05-02,64.52072143554688
2017-05-03,63.44213104248047
2017-05-04,64.13063049316406
2017-05-05,64.59637451171875
2017-05-08,63.84037399291992
2017-05-09,63.698638916015625
2017-05-10,64.04287719726562
2017-05-11,63.448883056640625
2017-05-12,62.96964645385742
2017-05-15,63.023651123046875
2017-05-16,62.841392517089844
2017-05-17,62.43640899658203
2017-05-18,62.66590118408203
2017-05-19,63.4893913269043
2017-05-22,62.86165237426758
2017-05-23,62.89541244506836
2017-05-24,63.016883850097656
2017-05-25,62.740150451660156
2017-05-26,62.44990539550781
2017-05-30,62.200157165527344
2017-05-31,62.2338981628418
2017-06-01,62.63890838623047
2017-06-02,62.68613815307617
2017-06-05,62.94939422607422
2017-06-06,61.59940719604492
2017-06-07,62.09891128540039
2017-06-08,62.200157165527344
2017-06-09,63.212646484375
2017-06-12,64.36688232421875
2017-06-13,64.04287719726562
2017-06-14,63.49614715576172
2017-06-15,63.786380767822266
2017-06-16,63.367889404296875
2017-06-19,63.023651123046875
2017-06-20,63.023651123046875
2017-06-21,62.551151275634766
2017-06-22,63.13163757324219
2017-06-23,63.57038497924805
2017-06-26,63.95512771606445
2017-06-27,63.3543815612793
2017-06-28,63.118133544921875
2017-06-29,63.0101432800293
2017-06-30,63.38139724731445
2017-07-03,64.68411254882812
2017-07-05,63.51638412475586
2017-07-06,62.355403900146484
2017-07-07,63.3948860168457
2017-07-10,63.118133544921875
2017-07-11,63.502891540527344
2017-07-12,64.2791519165039
2017-07-13,64.4951171875
2017-07-14,64.73136138916016
2017-07-17,65.4941177368164
2017-07-18,64.78456115722656
2017-07-19,67.264404296875
2017-07-20,66.12884521484375
2017-07-21,65.7030258178711
2017-07-24,65.21875762939453
2017-07-25,65.21875762939453
2017-07-26,65.177001953125
2017-07-27,65.95352935791016
2017-07-28,65.92848205566406
2017-07-31,66.25410461425781
2017-08-01,66.38770294189453
2017-08-02,65.761474609375
2017-08-03,66.59444427490234
2017-08-04,66.8636703491211
2017-08-07,66.67857360839844
2017-08-08,66.04756164550781
2017-08-09,65.52588653564453
2017-08-10,64.48260498046875
2017-08-11,63.71695327758789
2017-08-14,64.72660064697266
2017-08-15,64.15446472167969
2017-08-16,63.859981536865234
2017-08-17,63.35515594482422
2017-08-18,62.18564987182617
2017-08-21,62.16041946411133
2017-08-22,61.7397346496582
2017-08-23,62.31185531616211
2017-08-24,62.261375427246094
2017-08-25,62.85032653808594
2017-08-28,62.63999938964844
2017-08-29,62.39600372314453
2017-08-30,62.48012924194336
2017-08-31,62.67365264892578
2017-09-01,63.094337463378906
2017-09-05,62.555850982666016
2017-09-06,62.57268524169922
2017-09-07,61.857513427734375
2017-09-08,62.17723083496094
2017-09-11,63.02703094482422
2017-09-12,62.51377868652344
2017-09-13,62.698890686035156
2017-09-14,63.25419235229492
2017-09-15,63.1953010559082
2017-09-18,62.73255157470703
2017-09-19,61.731319427490234
2017-09-20,62.11835861206055
2017-09-21,63.6328239440918
2017-09-22,63.65806198120117
2017-09-25,64.03667449951172
2017-09-26,64.75182342529297
2017-09-27,64.65928649902344
2017-09-28,65.03791046142578
2017-09-29,64.68451690673828
2017-10-02,64.79389953613281
2017-10-03,65.02947998046875
2017-10-04,65.34078979492188
2017-10-05,65.74464416503906
2017-10-06,65.70258331298828
2017-10-09,65.45858764648438
2017-10-10,66.40933990478516
2017-10-11,66.77113342285156
2017-10-12,66.94779968261719
2017-10-13,67.21705627441406
2017-10-16,66.40933990478516
2017-10-17,65.86244201660156
2017-10-18,64.78549194335938
2017-10-19,62.97653579711914
2017-10-20,62.68205642700195
2017-10-23,62.74095916748047
2017-10-24,61.9584846496582
2017-10-25,61.26015853881836
2017-10-26,61.40318298339844
2017-10-27,61.35270309448242
2017-10-30,60.89835739135742
2017-10-31,62.98495864868164
2017-11-01,62.766197204589844
2017-11-02,62.28662109375
2017-11-03,62.13394546508789
2017-11-06,62.982177734375
2017-11-07,62.74467086791992
2017-11-08,62.97369384765625
2017-11-09,63.838905334472656
2017-11-10,64.13579559326172
2017-11-13,64.44116973876953
2017-11-14,64.58536529541016
2017-11-15,65.00099182128906
2017-11-16,65.16216278076172
2017-11-17,64.97557067871094
2017-11-20,64.6871566772461
2017-11-21,65.00949096679688
2017-11-22,65.10279846191406
2017-11-24,64.59385681152344
2017-11-27,64.71259307861328
2017-11-28,65.07733154296875
2017-11-29,65.25548553466797
2017-11-30,65.84076690673828
2017-12-01,66.09524536132812
2017-12-04,65.5862808227539
2017-12-05,65.23851776123047
2017-12-06,64.82288360595703
2017-12-07,64.51750183105469
2017-12-08,65.30635833740234
2017-12-11,65.32333374023438
2017-12-12,65.91712188720703
2017-12-13,65.67111206054688
2017-12-14,65.7220230102539
2017-12-15,66.0273666381836
2017-12-18,67.38455963134766
2017-12-19,66.31578063964844
2017-12-20,65.16216278076172
2017-12-21,65.42512512207031
2017-12-22,65.4844970703125
2017-12-26,65.79834747314453
2017-12-27,65.95952606201172
2017-12-28,66.22246551513672
2017-12-29,66.31578063964844
2018-01-02,65.5862808227539
2018-01-03,65.39967346191406
2018-01-04,63.4487190246582
2018-01-05,63.9915885925293
2018-01-08,63.2620964050293
2018-01-09,62.541099548339844
2018-01-10,61.63346481323242
2018-01-11,61.82008361816406
2018-01-12,61.00577163696289
2018-01-16,60.40351867675781
2018-01-17,60.479854583740234
2018-01-18,60.5137825012207
2018-01-19,60.8954963684082
2018-01-22,62.02366256713867
2018-01-23,62.33751678466797
2018-01-24,61.70132827758789
2018-01-25,61.26872253417969
2018-01-26,61.24304962158203
2018-01-29,60.88365173339844
2018-01-30,60.07072830200195
2018-01-31,61.3371696472168
2018-02-01,60.31888961791992
2018-02-02,60.18198013305664
2018-02-05,57.82876968383789
2018-02-06,58.008480072021484
2018-02-07,57.58918380737305
2018-02-08,56.63077926635742
2018-02-09,57.92290496826172
2018-02-12,57.845890045166016
2018-02-13,57.72608947753906
2018-02-14,56.54521179199219
2018-02-15,57.4608268737793
2018-02-16,57.89723587036133
2018-02-20,57.58061981201172
2018-02-21,55.78363800048828
2018-02-22,56.93028259277344
2018-02-23,57.905792236328125
2018-02-26,58.273746490478516
2018-02-27,56.81904220581055
2018-02-28,56.87894058227539
2018-03-01,56.73347091674805
2018-03-02,56.810482025146484
2018-03-05,57.52072525024414
2018-03-06,57.845890045166016
2018-03-07,57.88011932373047
2018-03-08,57.863006591796875
2018-03-09,58.36786651611328
2018-03-12,58.49623107910156
2018-03-13,58.37643051147461
2018-03-14,58.37643051147461
2018-03-15,58.718719482421875
2018-03-16,59.48029327392578
2018-03-19,58.556129455566406
2018-03-20,58.25664520263672
2018-03-21,57.88011932373047
2018-03-22,57.469383239746094
2018-03-23,55.74940490722656
2018-03-26,55.75796127319336
2018-03-27,56.442535400390625
2018-03-28,57.77743148803711
2018-03-29,57.58918380737305
2018-04-02,57.161338806152344
2018-04-03,57.4608268737793
2018-04-04,57.70042037963867
2018-04-05,57.991355895996094
2018-04-06,57.1099739074707
2018-04-09,56.998741149902344
2018-04-10,57.58061981201172
2018-04-11,57.1185417175293
2018-04-12,56.47675323486328
2018-04-13,56.904605865478516
2018-04-16,57.546390533447266
2018-04-17,57.51216125488281
2018-04-18,57.24690246582031
2018-04-19,56.647891998291016
2018-04-20,55.980445861816406
2018-04-23,55.877769470214844
2018-04-24,55.997554779052734
2018-04-25,55.62961196899414
2018-04-26,56.5024299621582
2018-04-27,58.09403991699219
2018-04-30,58.21384048461914
2018-05-01,60.07928466796875
2018-05-02,59.30915451049805
2018-05-03,59.377620697021484
2018-05-04,60.12889099121094
2018-05-07,60.81108474731445
2018-05-08,59.97344970703125
2018-05-09,60.38795852661133
2018-05-10,60.68156051635742
2018-05-11,60.43114471435547
2018-05-14,59.57622146606445
2018-05-15,58.14273452758789
2018-05-16,57.546875
2018-05-17,57.21010208129883
2018-05-18,56.93376159667969
2018-05-21,57.33099365234375
2018-05-22,58.125457763671875
2018-05-23,58.583133697509766
2018-05-24,58.25498962402344
2018-05-25,58.47087860107422
2018-05-29,58.25498962402344
2018-05-30,59.964813232421875
2018-05-31,60.197975158691406
2018-06-01,61.01835632324219
2018-06-04,61.64011001586914
2018-06-05,61.605560302734375
2018-06-06,62.02006912231445
2018-06-07,61.76100158691406
2018-06-08,61.830078125
2018-06-11,62.76271438598633
2018-06-12,62.78000259399414
2018-06-13,61.64873504638672
2018-06-14,62.12370300292969
2018-06-15,62.19276428222656
2018-06-18,62.279136657714844
2018-06-19,61.91642379760742
2018-06-20,62.52092742919922
2018-06-21,63.15132141113281
2018-06-22,63.60036849975586
2018-06-25,63.41901397705078
2018-06-26,63.3671875
2018-06-27,63.01314163208008
2018-06-28,63.62626647949219
2018-06-29,63.83352279663086
2018-07-02,63.37583923339844
2018-07-03,64.14439392089844
2018-07-05,64.8352279663086
2018-07-06,64.88704681396484
2018-07-09,64.09258270263672
2018-07-10,63.8766975402832
2018-07-11,63.634918212890625
2018-07-12,63.893951416015625
2018-07-13,63.83352279663086
2018-07-16,63.62626647949219
2018-07-17,62.44319152832031
2018-07-18,62.175514221191406
2018-07-19,63.00450897216797
2018-07-20,62.3395881652832
2018-07-23,61.950984954833984
2018-07-24,62.05461120605469
2018-07-25,62.0632438659668
2018-07-26,61.76100158691406
2018-07-27,60.742008209228516
2018-07-30,60.50020980834961
2018-07-31,62.106414794921875
2018-08-01,62.3741340637207
2018-08-02,61.907806396484375
2018-08-03,62.73545837402344
2018-08-06,63.20590591430664
2018-08-07,63.423702239990234
2018-08-08,63.606651306152344
2018-08-09,63.85059356689453
2018-08-10,63.380130767822266
2018-08-13,63.127479553222656
2018-08-14,64.03353881835938
2018-08-15,65.29678344726562
2018-08-16,66.5600357055664
2018-08-17,66.98693084716797
2018-08-20,66.84754180908203
2018-08-21,66.08087921142578
2018-08-22,66.15055847167969
2018-08-23,66.28125762939453
2018-08-24,66.88238525390625
2018-08-27,66.0460205078125
2018-08-28,67.41381072998047
2018-08-29,66.9695053100586
2018-08-30,66.90852355957031
2018-08-31,67.082763671875
2018-09-04,65.73238372802734
2018-09-05,66.6123046875
2018-09-06,66.30738830566406
2018-09-07,65.66268920898438
2018-09-10,66.29866790771484
2018-09-11,65.97632598876953
2018-09-12,65.93277740478516
2018-09-13,65.76722717285156
2018-09-14,65.35777282714844
2018-09-17,65.55815887451172
2018-09-18,65.09640502929688
2018-09-19,64.40816497802734
2018-09-20,64.8698959350586
2018-09-21,65.38391876220703
2018-09-24,64.05096435546875
2018-09-25,64.0422592163086
2018-09-26,62.69189453125
2018-09-27,62.68317413330078
2018-09-28,63.597930908203125
2018-10-01,62.970680236816406
2018-10-02,62.79644012451172
2018-10-03,62.21272659301758
2018-10-04,61.77711868286133
2018-10-05,61.33281326293945
2018-10-08,62.30855178833008
2018-10-09,62.204010009765625
2018-10-10,61.393795013427734
2018-10-11,59.06767272949219
2018-10-12,58.77146911621094
2018-10-15,58.675628662109375
2018-10-16,59.78207015991211
2018-10-17,59.54683303833008
2018-10-18,59.154808044433594
2018-10-19,59.52070236206055
2018-10-22,58.15291213989258
2018-10-23,58.20518112182617
2018-10-24,58.466548919677734
2018-10-25,59.302894592285156
2018-10-26,58.38813400268555
2018-10-29,59.442291259765625
2018-10-30,59.21577835083008
2018-10-31,59.31162643432617
2018-11-01,59.34645462036133
2018-11-02,58.75730514526367
2018-11-05,59.460777282714844
2018-11-06,60.63908004760742
2018-11-07,60.99081802368164
2018-11-08,61.465660095214844
2018-11-09,61.60634994506836
2018-11-12,61.703067779541016
2018-11-13,62.07240295410156
2018-11-14,62.705528259277344
2018-11-15,61.91413116455078
2018-11-16,62.55603790283203
2018-11-19,62.74071502685547
2018-11-20,61.66790771484375
2018-11-21,61.28099822998047
2018-11-23,61.02598571777344
2018-11-26,61.078758239746094
2018-11-27,60.97323226928711
2018-11-28,62.06361389160156
2018-11-29,62.06361389160156
2018-11-30,63.27710723876953
2018-12-03,63.514530181884766
2018-12-04,62.265872955322266
2018-12-06,63.285884857177734
2018-12-07,62.13396072387695
2018-12-10,61.68550491333008
2018-12-11,61.536014556884766
2018-12-12,60.18184280395508
2018-12-13,60.5247688293457
2018-12-14,60.111488342285156
2018-12-17,57.860382080078125
2018-12-18,58.28246307373047
2018-12-19,56.74361801147461
2018-12-20,55.7763557434082
2018-12-21,54.80028533935547
2018-12-24,52.92729568481445
2018-12-26,54.694766998291016
2018-12-27,54.38699722290039
2018-12-28,54.61562728881836
2018-12-31,54.5452766418457
2019-01-02,53.076786041259766
2019-01-03,52.936092376708984
2019-01-04,53.82422637939453
2019-01-07,54.85304641723633
2019-01-08,56.295162200927734
2019-01-09,56.374305725097656
2019-01-10,57.183292388916016
2019-01-11,57.28002166748047
2019-01-14,56.295162200927734
2019-01-15,56.65568923950195
2019-01-16,57.306400299072266
2019-01-17,57.49105453491211
2019-01-18,58.379188537597656
2019-01-22,58.097808837890625
2019-01-23,57.71089553833008
2019-01-24,57.798831939697266
2019-01-25,58.802547454833984
2019-01-28,59.62863540649414
2019-01-29,60.15270233154297
2019-01-30,61.067604064941406
2019-01-31,62.09798812866211
2019-02-01,61.7870979309082
2019-02-04,62.36445999145508
2019-02-05,62.6220588684082
2019-02-06,61.96474075317383
2019-02-07,62.04468536376953
2019-02-08,62.08910369873047
2019-02-11,62.240116119384766
2019-02-12,60.93437194824219
2019-02-13,61.191959381103516
2019-02-14,60.641239166259766
2019-02-15,61.11203384399414
2019-02-19,61.1031379699707
2019-02-20,60.3836555480957
2019-02-21,60.77448272705078
2019-02-22,61.191959381103516
2019-02-25,60.62347412109375
2019-02-26,60.028350830078125
2019-02-27,59.40657424926758
2019-02-28,59.78852081298828
2019-03-01,59.362159729003906
2019-03-04,60.03723907470703
2019-03-05,60.30370330810547
2019-03-06,60.3836555480957
2019-03-07,60.03723907470703
2019-03-08,60.08163833618164
2019-03-11,60.88996505737305
2019-03-12,61.396263122558594
2019-03-13,61.36073684692383
2019-03-14,60.81001281738281
2019-03-15,59.770755767822266
2019-03-18,59.353267669677734
2019-03-19,59.13121795654297
2019-03-20,59.10456848144531
2019-03-21,60.010581970214844
2019-03-22,59.353267669677734
2019-03-25,59.060150146484375
2019-03-26,59.708580017089844
2019-03-27,59.29998016357422
2019-03-28,59.97505569458008
2019-03-29,59.903995513916016
2019-04-01,60.063880920410156
2019-04-02,60.916603088378906
2019-04-03,61.156436920166016
2019-04-04,61.43179702758789
2019-04-05,61.79598617553711
2019-04-08,60.898834228515625
2019-04-09,60.2681770324707
2019-04-10,60.30370330810547
2019-04-11,60.17936325073242
2019-04-12,60.70341491699219
2019-04-15,60.32147979736328
2019-04-16,59.095680236816406
2019-04-17,58.811439514160156
2019-04-18,59.52204895019531
2019-04-22,60.41917419433594
2019-04-23,61.9380989074707
2019-04-24,62.01805114746094
2019-04-25,61.565032958984375
2019-04-26,62.04468536376953
2019-04-29,61.023193359375
2019-04-30,61.41402816772461
2019-05-01,61.43179702758789
2019-05-02,60.36588668823242
2019-05-03,60.35691833496094
2019-05-06,60.17752456665039
2019-05-07,59.75596237182617
2019-05-08,59.199825286865234
2019-05-09,59.43304443359375
2019-05-10,59.827701568603516
2019-05-13,59.28055191040039
2019-05-14,59.50480270385742
2019-05-15,59.863582611083984
2019-05-16,60.15061950683594
2019-05-17,60.087833404541016
2019-05-20,59.21776580810547
2019-05-21,59.666255950927734
2019-05-22,60.24928283691406
2019-05-23,60.26723098754883
2019-05-24,60.70673370361328
2019-05-28,60.41073989868164
2019-05-29,59.56759262084961
2019-05-30,59.60346984863281
2019-05-31,59.4061393737793
2019-06-03,59.746978759765625
2019-06-04,59.6483154296875
2019-06-05,61.07448959350586
2019-06-06,61.15522384643555
2019-06-07,61.325653076171875
2019-06-10,60.455589294433594
2019-06-11,59.8187370300293
2019-06-12,59.8546257019043
2019-06-13,59.944313049316406
2019-06-14,59.379215240478516
2019-06-17,60.321041107177734
2019-06-18,59.89049530029297
2019-06-19,60.19546127319336
2019-06-20,60.5632209777832
2019-06-21,59.89049530029297
2019-06-24,58.85001754760742
2019-06-25,57.90819549560547
2019-06-26,56.6165657043457
2019-06-27,57.118873596191406
2019-06-28,57.4955940246582
2019-07-01,57.60322952270508
2019-07-02,58.43741226196289
2019-07-03,58.75135040283203
2019-07-05,58.769283294677734
2019-07-08,58.89486312866211
2019-07-09,59.208805084228516
2019-07-10,59.46892166137695
2019-07-11,58.73341369628906
2019-07-12,58.84104919433594
2019-07-15,58.769283294677734
2019-07-16,58.742374420166016
2019-07-17,58.347713470458984
2019-07-18,58.3566780090332
2019-07-19,57.33414077758789
2019-07-22,56.499961853027344
2019-07-23,57.118873596191406
2019-07-24,57.307228088378906
2019-07-25,57.038143157958984
2019-07-26,57.33414077758789
2019-07-29,57.62116241455078
2019-07-30,57.86335372924805
2019-07-31,57.69293212890625
2019-08-01,56.9753532409668
2019-08-02,56.966285705566406
2019-08-05,55.32572937011719
2019-08-06,55.1716423034668
2019-08-07,55.18977737426758
2019-08-08,56.58560562133789
2019-08-09,56.13241195678711
2019-08-12,55.43449783325195
2019-08-13,55.72454071044922
2019-08-14,54.555301666259766
2019-08-15,54.67313003540039
2019-08-16,55.516075134277344
2019-08-19,55.64297103881836
2019-08-20,54.691253662109375
2019-08-21,54.50998306274414
2019-08-22,54.564369201660156
2019-08-23,53.30449295043945
2019-08-26,53.893646240234375
2019-08-27,53.69424057006836
2019-08-28,53.911766052246094
2019-08-29,54.62781524658203
2019-08-30,54.8090934753418
2019-09-03,55.47981643676758
2019-09-04,55.76079559326172
2019-09-05,56.123348236083984
2019-09-06,56.875648498535156
2019-09-09,56.93909454345703
2019-09-10,57.70045852661133
2019-09-11,58.235225677490234
2019-09-12,58.12645721435547
2019-09-13,57.52824783325195
2019-09-16,57.92705535888672
2019-09-17,57.40135955810547
2019-09-18,57.02973556518555
2019-09-19,56.90283966064453
2019-09-20,56.75782012939453
2019-09-23,56.966285705566406
2019-09-24,56.34994888305664
2019-09-25,57.41947937011719
2019-09-26,57.72764587402344
2019-09-27,58.063011169433594
2019-09-30,57.70952224731445
2019-10-01,56.88471603393555
2019-10-02,56.875648498535156
2019-10-03,57.49199295043945
2019-10-04,58.044891357421875
2019-10-07,57.62794876098633
2019-10-08,56.93003845214844
2019-10-09,56.61279296875
2019-10-10,56.368072509765625
2019-10-11,56.77595138549805
2019-10-14,56.368072509765625
2019-10-15,57.51918411254883
2019-10-16,57.05692672729492
2019-10-17,56.77595138549805
2019-10-18,56.5765380859375
2019-10-21,57.44667053222656
2019-10-22,57.69139862060547
2019-10-23,58.65216064453125
2019-10-24,58.479949951171875
2019-10-25,58.262420654296875
2019-10-28,58.044891357421875
2019-10-29,59.05097579956055
2019-10-30,60.464927673339844
2019-10-31,59.48604202270508
2019-11-01,59.48604202270508
2019-11-04,60.218505859375
2019-11-05,59.843116760253906
2019-11-06,59.751556396484375
2019-11-07,59.46772384643555
2019-11-08,60.218505859375
2019-11-11,60.154422760009766
2019-11-12,59.22052001953125
2019-11-13,59.39447784423828
2019-11-14,59.85227966308594
2019-11-15,59.870582580566406
2019-11-18,59.59590530395508
2019-11-19,59.08317184448242
2019-11-20,58.56128692626953
2019-11-21,57.88375473022461
2019-11-22,57.76472473144531
2019-11-25,58.20420455932617
2019-11-26,58.94583511352539
2019-11-27,59.02824401855469
2019-11-29,59.11980438232422
2019-12-02,58.02109146118164
2019-12-03,58.80850601196289
2019-12-04,59.10149002075195
2019-12-05,59.00992965698242
2019-12-06,60.02623748779297
2019-12-09,60.38330841064453
2019-12-10,61.02423858642578
2019-12-11,60.072017669677734
2019-12-12,59.550132751464844
2019-12-13,59.760711669921875
2019-12-16,59.870582580566406
2019-12-17,59.51350402832031
2019-12-18,60.61220932006836
2019-12-19,61.59189987182617
2019-12-20,61.26229476928711
2019-12-23,61.35384750366211
2019-12-24,61.53696060180664
2019-12-26,62.17787551879883
2019-12-27,62.11189270019531
2019-12-30,61.876224517822266
2019-12-31,62.68691635131836
