Date,WAB
2007-12-31,16.392438888549805
2008-01-02,15.98786449432373
2008-01-03,15.578530311584473
2008-01-04,14.997846603393555
2008-01-07,15.140641212463379
2008-01-08,14.298165321350098
2008-01-09,14.279134750366211
2008-01-10,14.41716194152832
2008-01-11,14.68846607208252
2008-01-14,14.916934967041016
2008-01-15,14.569477081298828
2008-01-16,14.816977500915527
2008-01-17,14.421920776367188
2008-01-18,14.683706283569336
2008-01-22,14.826496124267578
2008-01-23,15.507136344909668
2008-01-24,15.307225227355957
2008-01-25,15.573771476745605
2008-01-28,16.03070640563965
2008-01-29,16.121139526367188
2008-01-30,15.659449577331543
2008-01-31,16.3686466217041
2008-02-01,16.52570915222168
2008-02-04,16.292491912841797
2008-02-05,15.840312004089355
2008-02-06,15.787961959838867
2008-02-07,15.959307670593262
2008-02-08,15.887920379638672
2008-02-11,15.89267349243164
2008-02-12,16.040224075317383
2008-02-13,16.668880462646484
2008-02-14,16.335508346557617
2008-02-15,16.192623138427734
2008-02-19,16.425989151000977
2008-02-20,16.86890411376953
2008-02-21,16.67841148376465
2008-02-22,16.645065307617188
2008-02-25,17.307064056396484
2008-02-26,17.54994773864746
2008-02-27,17.507080078125
2008-02-28,16.954633712768555
2008-02-29,16.48314094543457
2008-03-03,16.5117130279541
2008-03-04,16.297395706176758
2008-03-05,16.54029083251953
2008-03-06,16.054513931274414
2008-03-07,15.906871795654297
2008-03-10,15.349654197692871
2008-03-11,16.478376388549805
2008-03-12,16.24502182006836
2008-03-13,16.74508285522461
2008-03-14,16.39742088317871
2008-03-17,16.449806213378906
2008-03-18,17.516611099243164
2008-03-19,16.89748191833496
2008-03-20,16.759366989135742
2008-03-24,17.297536849975586
2008-03-25,17.569000244140625
2008-03-26,17.254680633544922
2008-03-27,17.492794036865234
2008-03-28,17.478519439697266
2008-03-31,17.93571662902832
2008-04-01,18.597700119018555
2008-04-02,18.59294891357422
2008-04-03,18.41672706604004
2008-04-04,18.36434555053711
2008-04-07,18.70724868774414
2008-04-08,18.569133758544922
2008-04-09,17.783308029174805
2008-04-10,18.283376693725586
2008-04-11,17.616626739501953
2008-04-14,18.00715446472168
2008-04-15,18.445310592651367
2008-04-16,19.207321166992188
2008-04-17,18.8024959564209
2008-04-18,19.512113571166992
2008-04-21,19.54068946838379
2008-04-22,19.140626907348633
2008-04-23,18.831069946289062
2008-04-24,19.93121910095215
2008-04-25,19.93121910095215
2008-04-28,20.32175064086914
2008-04-29,20.27889060974121
2008-04-30,20.421756744384766
2008-05-01,20.61225700378418
2008-05-02,20.650360107421875
2008-05-05,20.769428253173828
2008-05-06,21.021846771240234
2008-05-07,20.821813583374023
2008-05-08,21.16471290588379
2008-05-09,21.121849060058594
2008-05-12,21.812414169311523
2008-05-13,21.860050201416016
2008-05-14,21.183469772338867
2008-05-15,21.76951026916504
2008-05-16,21.455047607421875
2008-05-19,21.431230545043945
2008-05-20,21.58369255065918
2008-05-21,21.79334259033203
2008-05-22,21.87909507751465
2008-05-23,21.531286239624023
2008-05-27,22.00775146484375
2008-05-28,22.141155242919922
2008-05-29,22.431798934936523
2008-05-30,22.188796997070312
2008-06-02,21.75998878479004
2008-06-03,21.864805221557617
2008-06-04,22.150680541992188
2008-06-05,22.684322357177734
2008-06-06,21.540813446044922
2008-06-09,21.683757781982422
2008-06-10,21.964868545532227
2008-06-11,20.878538131713867
2008-06-12,21.19776725769043
2008-06-13,21.431230545043945
2008-06-16,21.321645736694336
2008-06-17,21.016712188720703
2008-06-18,21.40740394592285
2008-06-19,22.955909729003906
2008-06-20,23.1417293548584
2008-06-23,23.25131607055664
2008-06-24,23.65630531311035
2008-06-25,24.351943969726562
2008-06-26,22.989261627197266
2008-06-27,22.793907165527344
2008-06-30,23.165542602539062
2008-07-01,23.017850875854492
2008-07-02,21.35022735595703
2008-07-03,21.088176727294922
2008-07-07,21.421703338623047
2008-07-08,22.365093231201172
2008-07-09,21.88387107849121
2008-07-10,22.3793888092041
2008-07-11,23.337072372436523
2008-07-14,24.823631286621094
2008-07-15,25.12857437133789
2008-07-16,26.076732635498047
2008-07-17,25.93855094909668
2008-07-18,25.233394622802734
2008-07-21,25.443035125732422
2008-07-22,27.720523834228516
2008-07-23,26.996295928955078
2008-07-24,25.929027557373047
2008-07-25,26.76283073425293
2008-07-28,26.472190856933594
2008-07-29,26.853355407714844
2008-07-30,27.02964973449707
2008-07-31,26.443603515625
2008-08-01,25.948083877563477
2008-08-04,25.59073829650879
2008-08-05,25.848024368286133
2008-08-06,26.295902252197266
2008-08-07,26.095781326293945
2008-08-08,26.619895935058594
2008-08-11,27.558515548706055
2008-08-12,27.077302932739258
2008-08-13,27.12494468688965
2008-08-14,27.229793548583984
2008-08-15,27.42993927001953
2008-08-18,27.644384384155273
2008-08-19,27.830238342285156
2008-08-20,27.334632873535156
2008-08-21,26.548330307006836
2008-08-22,27.153541564941406
2008-08-25,26.095609664916992
2008-08-26,26.915271759033203
2008-08-27,27.344158172607422
2008-08-28,28.44498062133789
2008-08-29,28.149520874023438
2008-09-02,27.906484603881836
2008-09-03,27.925554275512695
2008-09-04,25.380794525146484
2008-09-05,24.880420684814453
2008-09-08,25.28071403503418
2008-09-09,24.146541595458984
2008-09-10,24.427701950073242
2008-09-11,25.256893157958984
2008-09-12,25.14728546142578
2008-09-15,24.27997589111328
2008-09-16,25.132993698120117
2008-09-17,23.727182388305664
2008-09-18,23.78913688659668
2008-09-19,26.05272102355957
2008-09-22,25.356964111328125
2008-09-23,25.552345275878906
2008-09-24,24.913780212402344
2008-09-25,25.4379825592041
2008-09-26,25.233064651489258
2008-09-29,22.964704513549805
2008-09-30,24.41340446472168
2008-10-01,24.623085021972656
2008-10-02,21.19196128845215
2008-10-03,22.1164608001709
2008-10-06,21.30632972717285
2008-10-07,20.143566131591797
2008-10-08,20.15786361694336
2008-10-09,19.50022315979004
2008-10-10,22.140287399291992
2008-10-13,25.080570220947266
2008-10-14,23.4698486328125
2008-10-15,19.96724510192871
2008-10-16,21.906782150268555
2008-10-17,21.87818717956543
2008-10-20,22.62636375427246
2008-10-21,21.720928192138672
2008-10-22,21.325397491455078
2008-10-23,20.586755752563477
2008-10-24,17.851377487182617
2008-10-27,17.236637115478516
2008-10-28,18.61385154724121
2008-10-29,18.256450653076172
2008-10-30,18.618623733520508
2008-10-31,18.947429656982422
2008-11-03,18.995092391967773
2008-11-04,20.010135650634766
2008-11-05,18.718690872192383
2008-11-06,18.22785186767578
2008-11-07,18.456594467163086
2008-11-10,18.05152702331543
2008-11-11,17.536867141723633
2008-11-12,17.098323822021484
2008-11-13,18.11363410949707
2008-11-14,16.450042724609375
2008-11-17,16.69315528869629
2008-11-18,16.855220794677734
2008-11-19,14.638679504394531
2008-11-20,14.290706634521484
2008-11-21,14.695881843566895
2008-11-24,16.893352508544922
2008-11-25,17.47013282775879
2008-11-26,18.2137451171875
2008-11-28,18.394882202148438
2008-12-01,16.164039611816406
2008-12-02,17.60359001159668
2008-12-03,18.032604217529297
2008-12-04,16.79324722290039
2008-12-05,17.37002182006836
2008-12-08,19.529367446899414
2008-12-09,19.31485939025879
2008-12-10,20.516075134277344
2008-12-11,19.348222732543945
2008-12-12,20.30634307861328
2008-12-15,19.481693267822266
2008-12-16,20.40167999267578
2008-12-17,20.964160919189453
2008-12-18,19.610397338867188
2008-12-19,19.27196502685547
2008-12-22,18.885848999023438
2008-12-23,17.808565139770508
2008-12-24,17.627422332763672
2008-12-26,17.861003875732422
2008-12-29,18.094568252563477
2008-12-30,18.547407150268555
2008-12-31,18.947816848754883
2009-01-02,19.000255584716797
2009-01-05,18.909683227539062
2009-01-06,19.095596313476562
2009-01-07,17.52733612060547
2009-01-08,18.19467544555664
2009-01-09,17.2556209564209
2009-01-12,16.483417510986328
2009-01-13,16.24030303955078
2009-01-14,15.730262756347656
2009-01-15,15.77316665649414
2009-01-16,15.854199409484863
2009-01-20,15.31079387664795
2009-01-21,15.920939445495605
2009-01-22,14.829350471496582
2009-01-23,14.471844673156738
2009-01-26,14.743547439575195
2009-01-27,15.120121002197266
2009-01-28,15.234521865844727
2009-01-29,14.686349868774414
2009-01-30,14.266870498657227
2009-02-02,14.581480026245117
2009-02-03,14.819817543029785
2009-02-04,14.853182792663574
2009-02-05,15.344159126281738
2009-02-06,15.935232162475586
2009-02-09,15.754096984863281
2009-02-10,14.891319274902344
2009-02-11,14.981945991516113
2009-02-12,14.757766723632812
2009-02-13,14.595589637756348
2009-02-17,13.908740043640137
2009-02-18,13.279122352600098
2009-02-19,12.68289852142334
2009-02-20,12.430097579956055
2009-02-23,12.258390426635742
2009-02-24,13.841961860656738
2009-02-25,12.988163948059082
2009-02-26,12.907084465026855
2009-02-27,12.763988494873047
2009-03-02,11.87203598022461
2009-03-03,11.972200393676758
2009-03-04,12.973860740661621
2009-03-05,11.781408309936523
2009-03-06,11.4761381149292
2009-03-09,11.142255783081055
2009-03-10,11.581074714660645
2009-03-11,11.700316429138184
2009-03-12,12.077134132385254
2009-03-13,11.996048927307129
2009-03-16,11.991276741027832
2009-03-17,12.606583595275879
2009-03-18,12.868922233581543
2009-03-19,12.921387672424316
2009-03-20,12.239306449890137
2009-03-23,13.465145111083984
2009-03-24,12.763988494873047
2009-03-25,12.611355781555176
2009-03-26,13.88489055633545
2009-03-27,13.078794479370117
2009-03-30,12.449180603027344
2009-03-31,12.582733154296875
2009-04-01,12.725831031799316
2009-04-02,13.861041069030762
2009-04-03,14.452496528625488
2009-04-06,14.151998519897461
2009-04-07,13.760875701904297
2009-04-08,13.970746994018555
2009-04-09,15.063029289245605
2009-04-13,14.910395622253418
2009-04-14,14.333250045776367
2009-04-15,14.586050033569336
2009-04-16,15.167964935302734
2009-04-17,15.478001594543457
2009-04-20,14.21877384185791
2009-04-21,14.700528144836426
2009-04-22,16.60844612121582
2009-04-23,17.061574935913086
2009-04-24,18.182485580444336
2009-04-27,17.629180908203125
2009-04-28,17.357303619384766
2009-04-29,18.54975700378418
2009-04-30,18.192018508911133
2009-05-01,18.015539169311523
2009-05-04,18.845481872558594
2009-05-05,18.3208065032959
2009-05-06,18.49728012084961
2009-05-07,17.91060447692871
2009-05-08,18.554523468017578
2009-05-11,17.538564682006836
2009-05-12,17.037731170654297
2009-05-13,16.512752532958984
2009-05-14,16.445940017700195
2009-05-15,16.23594856262207
2009-05-18,17.07113265991211
2009-05-19,17.281124114990234
2009-05-20,17.176132202148438
2009-05-21,16.670246124267578
2009-05-22,16.27890968322754
2009-05-26,16.818195343017578
2009-05-27,16.488889694213867
2009-05-28,16.70365333557129
2009-05-29,17.028181076049805
2009-06-01,17.486339569091797
2009-06-02,17.820417404174805
2009-06-03,17.22862434387207
2009-06-04,17.247722625732422
2009-06-05,16.422080993652344
2009-06-08,16.140506744384766
2009-06-09,16.455488204956055
2009-06-10,17.07113265991211
2009-06-11,17.376569747924805
2009-06-12,17.037734985351562
2009-06-15,16.245502471923828
2009-06-16,15.992549896240234
2009-06-17,16.064146041870117
2009-06-18,15.878019332885742
2009-06-19,15.959144592285156
2009-06-22,15.586896896362305
2009-06-23,15.758700370788574
2009-06-24,16.150047302246094
2009-06-25,16.584346771240234
2009-06-26,15.701437950134277
2009-06-29,15.787336349487305
2009-06-30,15.353043556213379
2009-07-01,15.701437950134277
2009-07-02,15.295774459838867
2009-07-06,14.985565185546875
2009-07-07,14.584677696228027
2009-07-08,14.484454154968262
2009-07-09,14.732625007629395
2009-07-10,14.622855186462402
2009-07-13,14.894887924194336
2009-07-14,15.252822875976562
2009-07-15,15.634613990783691
2009-07-16,15.653715133666992
2009-07-17,15.87324333190918
2009-07-20,16.21686553955078
2009-07-21,16.250268936157227
2009-07-22,16.40776252746582
2009-07-23,17.085451126098633
2009-07-24,16.202550888061523
2009-07-27,15.878019332885742
2009-07-28,15.878019332885742
2009-07-29,15.773021697998047
2009-07-30,15.911425590515137
2009-07-31,16.059368133544922
2009-08-03,16.402992248535156
2009-08-04,16.431625366210938
2009-08-05,16.307540893554688
2009-08-06,16.445940017700195
2009-08-07,17.83473014831543
2009-08-10,17.672468185424805
2009-08-11,17.22385597229004
2009-08-12,17.581787109375
2009-08-13,17.667749404907227
2009-08-14,17.11383056640625
2009-08-17,16.34027099609375
2009-08-18,16.50740623474121
2009-08-19,16.469202041625977
2009-08-20,16.822559356689453
2009-08-21,17.2570858001709
2009-08-24,17.218881607055664
2009-08-25,17.276185989379883
2009-08-26,17.643861770629883
2009-08-27,18.111820220947266
2009-08-28,18.140474319458008
2009-08-31,17.882614135742188
2009-09-01,17.4576416015625
2009-09-02,17.55791664123535
2009-09-03,17.772794723510742
2009-09-04,18.040197372436523
2009-09-08,18.503385543823242
2009-09-09,18.302824020385742
2009-09-10,18.52724838256836
2009-09-11,18.622751235961914
2009-09-14,18.670501708984375
2009-09-15,18.746910095214844
2009-09-16,19.057281494140625
2009-09-17,18.746910095214844
2009-09-18,18.713481903076172
2009-09-21,18.36967658996582
2009-09-22,18.584558486938477
2009-09-23,18.808982849121094
2009-09-24,18.675281524658203
2009-09-25,18.293283462524414
2009-09-28,18.269397735595703
2009-09-29,18.159570693969727
2009-09-30,17.920818328857422
2009-10-01,17.46241569519043
2009-10-02,17.381240844726562
2009-10-05,17.882614135742188
2009-10-06,18.040197372436523
2009-10-07,18.04974365234375
2009-10-08,18.57500457763672
2009-10-09,18.60365104675293
2009-10-12,18.441301345825195
2009-10-13,18.245529174804688
2009-10-14,18.70870590209961
2009-10-15,18.751684188842773
2009-10-16,18.680055618286133
2009-10-19,18.775558471679688
2009-10-20,18.799428939819336
2009-10-21,19.487041473388672
2009-10-22,19.558666229248047
2009-10-23,19.539560317993164
2009-10-26,19.826072692871094
2009-10-27,19.229183197021484
2009-10-28,17.973342895507812
2009-10-29,18.130922317504883
2009-10-30,17.553136825561523
2009-11-02,17.62476348876953
2009-11-03,18.474727630615234
2009-11-04,18.102275848388672
2009-11-05,18.966564178466797
2009-11-06,19.2100887298584
2009-11-09,19.735340118408203
2009-11-10,19.553884506225586
2009-11-11,19.405864715576172
2009-11-12,19.11920738220215
2009-11-13,19.491857528686523
2009-11-16,20.1798095703125
2009-11-17,20.256250381469727
2009-11-18,20.05081558227539
2009-11-19,19.338972091674805
2009-11-20,18.98545265197754
2009-11-23,18.894685745239258
2009-11-24,18.713138580322266
2009-11-25,18.971118927001953
2009-11-27,18.560264587402344
2009-11-30,18.393051147460938
2009-12-01,18.717920303344727
2009-12-02,18.660585403442383
2009-12-03,18.4981632232666
2009-12-04,18.980680465698242
2009-12-07,18.990232467651367
2009-12-08,18.789573669433594
2009-12-09,18.708358764648438
2009-12-10,18.67970085144043
2009-12-11,18.928119659423828
2009-12-14,19.143102645874023
2009-12-15,18.956783294677734
2009-12-16,18.870800018310547
2009-12-17,18.75135612487793
2009-12-18,19.157442092895508
2009-12-21,19.510963439941406
2009-12-22,19.697284698486328
2009-12-23,19.7976131439209
2009-12-24,19.749834060668945
2009-12-28,19.764169692993164
2009-12-29,19.749834060668945
2009-12-30,19.73072052001953
2009-12-31,19.510963439941406
2010-01-04,19.931385040283203
2010-01-05,19.9361572265625
2010-01-06,20.060373306274414
2010-01-07,20.079479217529297
2010-01-08,20.40434455871582
2010-01-11,20.208473205566406
2010-01-12,20.0412654876709
2010-01-13,20.218027114868164
2010-01-14,19.907487869262695
2010-01-15,19.463193893432617
2010-01-19,19.458415985107422
2010-01-20,19.24820899963379
2010-01-21,19.03322410583496
2010-01-22,18.870800018310547
2010-01-25,18.746585845947266
2010-01-26,18.52204704284668
2010-01-27,18.52204704284668
2010-01-28,18.058637619018555
2010-01-29,18.31183624267578
2010-02-01,18.373937606811523
2010-02-02,18.45516014099121
2010-02-03,18.168514251708984
2010-02-04,17.623884201049805
2010-02-05,17.676448822021484
2010-02-08,17.685993194580078
2010-02-09,17.81976318359375
2010-02-10,17.695480346679688
2010-02-11,18.025306701660156
2010-02-12,17.996623992919922
2010-02-16,18.19738006591797
2010-02-17,18.35990333557129
2010-02-18,18.689722061157227
2010-02-19,18.751853942871094
2010-02-22,18.814002990722656
2010-02-23,18.484174728393555
2010-02-24,18.039640426635742
2010-02-25,18.245180130004883
2010-02-26,18.23084259033203
2010-03-01,18.5941219329834
2010-03-02,18.708833694458008
2010-03-03,18.8044376373291
2010-03-04,18.87613868713379
2010-03-05,19.182064056396484
2010-03-08,19.258535385131836
2010-03-09,19.626598358154297
2010-03-10,19.88949203491211
2010-03-11,20.056793212890625
2010-03-12,20.362712860107422
2010-03-15,20.443973541259766
2010-03-16,20.71164894104004
2010-03-17,20.87894630432129
2010-03-18,20.687746047973633
2010-03-19,20.377052307128906
2010-03-22,20.620826721191406
2010-03-23,21.09404945373535
2010-03-24,20.969772338867188
2010-03-25,20.802474975585938
2010-03-26,20.745113372802734
2010-03-29,20.754667282104492
2010-03-30,20.43919563293457
2010-03-31,20.13327407836914
2010-04-01,20.386608123779297
2010-04-05,20.893299102783203
2010-04-06,20.72121238708496
2010-04-07,19.827354431152344
2010-04-08,20.1715145111084
2010-04-09,20.362712860107422
2010-04-12,20.530010223388672
2010-04-13,20.74988555908203
2010-04-14,22.09784698486328
2010-04-15,22.532825469970703
2010-04-16,22.671438217163086
2010-04-19,22.738367080688477
2010-04-20,22.714460372924805
2010-04-21,23.130321502685547
2010-04-22,23.388437271118164
2010-04-23,23.96681785583496
2010-04-26,24.100662231445312
2010-04-27,23.192459106445312
2010-04-28,22.78615951538086
2010-04-29,23.16377830505371
2010-04-30,22.743148803710938
2010-05-03,23.316736221313477
2010-05-04,22.585399627685547
2010-05-05,22.179105758666992
2010-05-06,21.605510711669922
2010-05-07,21.0797119140625
2010-05-10,22.422876358032227
2010-05-11,22.532825469970703
2010-05-12,23.65134048461914
2010-05-13,23.3548583984375
2010-05-14,22.431941986083984
2010-05-17,22.21198081970215
2010-05-18,21.85333824157715
2010-05-19,21.336891174316406
2010-05-20,20.533531188964844
2010-05-21,20.78218650817871
2010-05-24,20.49527931213379
2010-05-25,20.232269287109375
2010-05-26,20.217926025390625
2010-05-27,21.10257339477539
2010-05-28,20.72958755493164
2010-06-01,20.064908981323242
2010-06-02,20.58135223388672
2010-06-03,21.07389259338379
2010-06-04,20.064908981323242
2010-06-07,19.51019859313965
2010-06-08,19.711042404174805
2010-06-09,19.89275550842285
2010-06-10,20.71523666381836
2010-06-11,20.710464477539062
2010-06-14,20.83000946044922
2010-06-15,21.418184280395508
2010-06-16,21.365583419799805
2010-06-17,21.17909049987793
2010-06-18,21.05475425720215
2010-06-21,20.87782859802246
2010-06-22,20.222702026367188
2010-06-23,20.050556182861328
2010-06-24,19.543676376342773
2010-06-25,19.715824127197266
2010-06-28,19.81145477294922
2010-06-29,19.165904998779297
2010-06-30,19.075048446655273
2010-07-01,18.979412078857422
2010-07-02,18.945934295654297
2010-07-06,18.50599479675293
2010-07-07,18.8024845123291
2010-07-08,19.247194290161133
2010-07-09,19.6058406829834
2010-07-12,19.323705673217773
2010-07-13,20.222702026367188
2010-07-14,20.428333282470703
2010-07-15,21.00693702697754
2010-07-16,20.275314331054688
2010-07-19,20.500059127807617
2010-07-20,20.753507614135742
2010-07-21,20.586130142211914
2010-07-22,21.25560188293457
2010-07-23,21.609455108642578
2010-07-26,21.91071891784668
2010-07-27,21.499479293823242
2010-07-28,21.212562561035156
2010-07-29,21.21734619140625
2010-07-30,21.332107543945312
2010-08-02,21.700315475463867
2010-08-03,21.456436157226562
2010-08-04,21.68119239807129
2010-08-05,21.58077049255371
2010-08-06,21.293855667114258
2010-08-09,21.575986862182617
2010-08-10,21.370359420776367
2010-08-11,20.318342208862305
2010-08-12,20.10315704345703
2010-08-13,19.911842346191406
2010-08-16,20.055326461791992
2010-08-17,20.892362594604492
2010-08-18,20.949758529663086
2010-08-19,20.442752838134766
2010-08-20,20.414064407348633
2010-08-23,20.347091674804688
2010-08-24,20.29926300048828
2010-08-25,20.150991439819336
2010-08-26,20.12229347229004
2010-08-27,20.586246490478516
2010-08-30,20.174907684326172
2010-08-31,20.342317581176758
2010-09-01,21.117164611816406
2010-09-02,21.51894760131836
2010-09-03,21.906368255615234
2010-09-07,21.925493240356445
2010-09-08,22.207698822021484
2010-09-09,22.164653778076172
2010-09-10,22.365537643432617
2010-09-13,22.7194881439209
2010-09-14,22.556865692138672
2010-09-15,22.64773941040039
2010-09-16,22.509033203125
2010-09-17,22.614261627197266
2010-09-20,22.666872024536133
2010-09-21,22.690793991088867
2010-09-22,22.403806686401367
2010-09-23,22.059425354003906
2010-09-24,22.64773941040039
2010-09-27,22.437286376953125
2010-09-28,23.154748916625977
2010-09-29,22.953857421875
2010-09-30,22.858198165893555
2010-10-01,22.78645133972168
2010-10-04,22.475549697875977
2010-10-05,23.049510955810547
2010-10-06,23.063867568969727
2010-10-07,22.977771759033203
2010-10-08,23.245624542236328
2010-10-11,23.188220977783203
2010-10-12,23.025596618652344
2010-10-13,23.3460693359375
2010-10-14,23.145179748535156
2010-10-15,23.039953231811523
2010-10-18,23.05430793762207
2010-10-19,22.580772399902344
2010-10-20,23.01125144958496
2010-10-21,22.972993850708008
2010-10-22,22.910812377929688
2010-10-25,22.906028747558594
2010-10-26,22.843847274780273
2010-10-27,22.552085876464844
2010-10-28,22.179004669189453
2010-10-29,22.403806686401367
2010-11-01,22.446847915649414
2010-11-02,22.705141067504883
2010-11-03,22.781673431396484
2010-11-04,23.1116943359375
2010-11-05,23.188220977783203
2010-11-08,23.145179748535156
2010-11-09,23.102136611938477
2010-11-10,22.958642959594727
2010-11-11,22.901241302490234
2010-11-12,22.461116790771484
2010-11-15,22.36542510986328
2010-11-16,22.030540466308594
2010-11-17,22.111873626708984
2010-11-18,22.451541900634766
2010-11-19,22.513736724853516
2010-11-22,22.48981285095215
2010-11-23,22.33193588256836
2010-11-24,22.317584991455078
2010-11-26,22.56636619567871
2010-11-29,22.030540466308594
2010-11-30,22.116657257080078
2010-12-01,22.475460052490234
2010-12-02,23.647554397583008
2010-12-03,24.4799747467041
2010-12-06,24.398651123046875
2010-12-07,24.690475463867188
2010-12-08,24.819650650024414
2010-12-09,24.987085342407227
2010-12-10,25.307615280151367
2010-12-13,25.269346237182617
2010-12-14,25.202373504638672
2010-12-15,25.0062255859375
2010-12-16,25.274133682250977
2010-12-17,25.331539154052734
2010-12-20,24.929677963256836
2010-12-21,25.22150230407715
2010-12-22,25.29804801940918
2010-12-23,25.28369903564453
2010-12-27,25.231077194213867
2010-12-28,25.09234046936035
2010-12-29,25.202373504638672
2010-12-30,25.47027587890625
2010-12-31,25.30283546447754
2011-01-03,25.412866592407227
2011-01-04,24.613929748535156
2011-01-05,24.939245223999023
2011-01-06,24.81485939025879
2011-01-07,24.8052921295166
2011-01-10,25.29804801940918
2011-01-11,25.164098739624023
2011-01-12,25.532470703125
2011-01-13,25.532470703125
2011-01-14,25.675989151000977
2011-01-18,26.23572540283203
2011-01-19,25.977384567260742
2011-01-20,25.312402725219727
2011-01-21,25.604236602783203
2011-01-24,25.556386947631836
2011-01-25,25.561174392700195
2011-01-26,25.876924514770508
2011-01-27,26.09220314025879
2011-01-28,25.436790466308594
2011-01-31,25.929548263549805
2011-02-01,26.336191177368164
2011-02-02,26.293127059936523
2011-02-03,26.259641647338867
2011-02-04,26.82416343688965
2011-02-07,26.781108856201172
2011-02-08,26.895923614501953
2011-02-09,26.656721115112305
2011-02-10,27.00129508972168
2011-02-11,27.293230056762695
2011-02-14,27.48944091796875
2011-02-15,27.441585540771484
2011-02-16,27.58515739440918
2011-02-17,27.633020401000977
2011-02-18,27.546878814697266
2011-02-22,26.494009017944336
2011-02-23,25.962779998779297
2011-02-24,26.163787841796875
2011-02-25,26.474864959716797
2011-02-28,27.164016723632812
2011-03-01,26.66151237487793
2011-03-02,27.331514358520508
2011-03-03,28.212100982666016
2011-03-04,27.9919490814209
2011-03-07,27.020429611206055
2011-03-08,27.36980438232422
2011-03-09,27.40808868408203
2011-03-10,26.69500732421875
2011-03-11,27.015657424926758
2011-03-14,26.972579956054688
2011-03-15,26.762006759643555
2011-03-16,26.934293746948242
2011-03-17,27.216651916503906
2011-03-18,27.51816177368164
2011-03-21,28.020668029785156
2011-03-22,27.628232955932617
2011-03-23,27.47987174987793
2011-03-24,27.853158950805664
2011-03-25,28.188167572021484
2011-03-28,31.61477279663086
2011-03-29,31.949785232543945
2011-03-30,32.16994094848633
2011-03-31,32.46186447143555
2011-04-01,32.715511322021484
2011-04-04,34.045955657958984
2011-04-05,33.548213958740234
2011-04-06,33.17013931274414
2011-04-07,33.466880798339844
2011-04-08,32.53364181518555
2011-04-11,32.18428421020508
2011-04-12,31.988073348999023
2011-04-13,32.203426361083984
2011-04-14,32.514495849609375
2011-04-15,32.615013122558594
2011-04-18,31.95456886291504
2011-04-19,33.19886779785156
2011-04-20,33.07443618774414
2011-04-21,33.33287048339844
2011-04-25,33.34243392944336
2011-04-26,33.89280319213867
2011-04-27,34.237369537353516
2011-04-28,34.24695587158203
2011-04-29,34.160804748535156
2011-05-02,34.165592193603516
2011-05-03,33.98373794555664
2011-05-04,32.830360412597656
2011-05-05,32.710716247558594
2011-05-06,32.859073638916016
2011-05-09,33.02178955078125
2011-05-10,33.375938415527344
2011-05-11,32.715511322021484
2011-05-12,32.7537956237793
2011-05-13,31.978384017944336
2011-05-16,31.724699020385742
2011-05-17,31.37529182434082
2011-05-18,32.11719512939453
2011-05-19,32.356510162353516
2011-05-20,31.92094612121582
2011-05-23,31.083311080932617
2011-05-24,30.94929313659668
2011-05-25,31.404003143310547
2011-05-26,31.68161392211914
2011-05-27,31.82042694091797
2011-05-31,32.35172653198242
2011-06-01,31.207754135131836
2011-06-02,31.557165145874023
2011-06-03,30.99237060546875
2011-06-06,30.753042221069336
2011-06-07,30.997156143188477
2011-06-08,30.776981353759766
2011-06-09,30.872713088989258
2011-06-10,30.04943084716797
2011-06-13,29.857973098754883
2011-06-14,30.743473052978516
2011-06-15,29.896272659301758
2011-06-16,29.84840202331543
2011-06-17,30.04943084716797
2011-06-20,30.6190242767334
2011-06-21,31.404003143310547
2011-06-22,31.04023551940918
2011-06-23,31.19818878173828
2011-06-24,30.733903884887695
2011-06-27,30.767398834228516
2011-06-28,31.174264907836914
2011-06-29,31.217330932617188
2011-06-30,31.45665168762207
2011-07-01,32.217708587646484
2011-07-05,32.08848190307617
2011-07-06,32.52403259277344
2011-07-07,32.93567657470703
2011-07-08,32.93090057373047
2011-07-11,31.231693267822266
2011-07-12,30.930156707763672
2011-07-13,30.843990325927734
2011-07-14,30.006359100341797
2011-07-15,30.303119659423828
2011-07-18,30.331830978393555
2011-07-19,31.29391860961914
2011-07-20,31.322635650634766
2011-07-21,31.782148361206055
2011-07-22,31.9592342376709
2011-07-25,32.145912170410156
2011-07-26,32.51924133300781
2011-07-27,31.427940368652344
2011-07-28,31.10724639892578
2011-07-29,30.882274627685547
2011-08-01,31.179035186767578
2011-08-02,29.877120971679688
2011-08-03,30.039854049682617
2011-08-04,27.670562744140625
2011-08-05,27.46953010559082
2011-08-08,24.81304168701172
2011-08-09,26.780277252197266
2011-08-10,25.8708438873291
2011-08-11,27.254138946533203
2011-08-12,27.27328872680664
2011-08-15,27.58936309814453
2011-08-16,27.105667114257812
2011-08-17,26.83748435974121
2011-08-18,25.44868278503418
2011-08-19,25.127819061279297
2011-08-22,25.108661651611328
2011-08-23,26.588455200195312
2011-08-24,27.120037078857422
2011-08-25,26.607614517211914
2011-08-26,27.752187728881836
2011-08-29,29.006900787353516
2011-08-30,29.346912384033203
2011-08-31,29.160144805908203
2011-09-01,28.307710647583008
2011-09-02,27.407379150390625
2011-09-06,27.282861709594727
2011-09-07,28.2310848236084
2011-09-08,27.99163246154785
2011-09-09,26.95241928100586
2011-09-12,26.904531478881836
2011-09-13,27.72823715209961
2011-09-14,28.57110595703125
2011-09-15,29.0595760345459
2011-09-16,28.949430465698242
2011-09-19,28.504053115844727
2011-09-20,27.73302459716797
2011-09-21,26.430423736572266
2011-09-22,25.486989974975586
2011-09-23,25.70728302001953
2011-09-26,26.454368591308594
2011-09-27,27.20145034790039
2011-09-28,25.812646865844727
2011-09-29,26.559722900390625
2011-09-30,25.31937599182129
2011-10-03,24.016773223876953
2011-10-04,25.51572608947754
2011-10-05,26.516618728637695
2011-10-06,27.3834285736084
2011-10-07,26.68902587890625
2011-10-10,27.809646606445312
2011-10-11,27.895849227905273
2011-10-12,28.255027770996094
2011-10-13,27.68992805480957
2011-10-14,28.393909454345703
2011-10-17,27.785701751708984
2011-10-18,28.729141235351562
2011-10-19,27.924585342407227
2011-10-20,28.274185180664062
2011-10-21,29.433122634887695
2011-10-24,30.592050552368164
2011-10-25,32.00959777832031
2011-10-26,31.5833683013916
2011-10-27,33.010498046875
2011-10-28,33.135009765625
2011-10-31,32.17242431640625
2011-11-01,31.410961151123047
2011-11-02,31.81324005126953
2011-11-03,32.20115280151367
2011-11-04,32.272987365722656
2011-11-07,32.498077392578125
2011-11-08,32.83808517456055
2011-11-09,31.36308479309082
2011-11-10,31.774930953979492
2011-11-11,32.56032943725586
2011-11-14,32.301490783691406
2011-11-15,32.617862701416016
2011-11-16,32.08101272583008
2011-11-17,32.354217529296875
2011-11-18,31.95159149169922
2011-11-21,30.767663955688477
2011-11-22,30.64303970336914
2011-11-23,29.871335983276367
2011-11-25,29.35366439819336
2011-11-28,30.460893630981445
2011-11-29,30.743698120117188
2011-11-30,32.71371078491211
2011-12-01,32.84312057495117
2011-12-02,33.164276123046875
2011-12-05,33.547733306884766
2011-12-06,32.99172592163086
2011-12-07,32.99651336669922
2011-12-08,31.956375122070312
2011-12-09,33.08758544921875
2011-12-12,32.45487594604492
2011-12-13,31.774240493774414
2011-12-14,30.964191436767578
2011-12-15,31.117565155029297
2011-12-16,32.4117431640625
2011-12-19,31.438703536987305
2011-12-20,32.17686462402344
2011-12-21,32.48362731933594
2011-12-22,32.593875885009766
2011-12-23,33.169063568115234
2011-12-27,33.11155700683594
2011-12-28,32.56990051269531
2011-12-29,33.226585388183594
2011-12-30,33.52854537963867
2012-01-03,33.19302749633789
2012-01-04,33.03005599975586
2012-01-05,33.725074768066406
2012-01-06,33.78739547729492
2012-01-09,34.20439529418945
2012-01-10,34.34341049194336
2012-01-11,34.45844268798828
2012-01-12,34.3242301940918
2012-01-13,34.07498550415039
2012-01-17,33.67235565185547
2012-01-18,34.8275260925293
2012-01-19,35.24452590942383
2012-01-20,34.27629852294922
2012-01-23,34.127708435058594
2012-01-24,34.03184509277344
2012-01-25,34.5734748840332
2012-01-26,34.52554702758789
2012-01-27,34.56867599487305
2012-01-30,33.149898529052734
2012-01-31,32.97254180908203
2012-02-01,33.619625091552734
2012-02-02,33.619625091552734
2012-02-03,33.95515441894531
2012-02-06,33.73466491699219
2012-02-07,33.73946762084961
2012-02-08,33.70111083984375
2012-02-09,33.62920379638672
2012-02-10,33.590877532958984
2012-02-13,33.93132400512695
2012-02-14,34.03203582763672
2012-02-15,33.279170989990234
2012-02-16,33.940921783447266
2012-02-17,33.96489715576172
2012-02-21,34.04642105102539
2012-02-22,35.80149841308594
2012-02-23,36.0220832824707
2012-02-24,35.37949752807617
2012-02-27,36.304988861083984
2012-02-28,36.64544677734375
2012-02-29,35.83506774902344
2012-03-01,36.19949722290039
2012-03-02,36.18989944458008
2012-03-05,35.78229904174805
2012-03-06,34.54032897949219
2012-03-07,34.818458557128906
2012-03-08,35.64324951171875
2012-03-09,36.35772705078125
2012-03-12,35.99809646606445
2012-03-13,36.750953674316406
2012-03-14,36.24264907836914
2012-03-15,36.7029914855957
2012-03-16,37.16334915161133
2012-03-19,37.398311614990234
2012-03-20,36.84684753417969
2012-03-21,36.81328582763672
2012-03-22,36.09880065917969
2012-03-23,36.30978775024414
2012-03-26,36.82767868041992
2012-03-27,36.27621078491211
2012-03-28,35.65283203125
2012-03-29,35.38430404663086
2012-03-30,36.1419563293457
2012-04-02,36.386512756347656
2012-04-03,36.24264907836914
2012-04-04,35.75833511352539
2012-04-05,35.65763473510742
2012-04-09,35.28839874267578
2012-04-10,34.070396423339844
2012-04-11,34.19028854370117
2012-04-12,36.61667251586914
2012-04-13,36.83726501464844
2012-04-16,37.2112922668457
2012-04-17,37.95937728881836
2012-04-18,38.827301025390625
2012-04-19,38.03608703613281
2012-04-20,38.32379913330078
2012-04-23,37.877830505371094
2012-04-24,37.73878479003906
2012-04-25,37.455848693847656
2012-04-26,37.66204071044922
2012-04-27,38.02650833129883
2012-04-30,37.297603607177734
2012-05-01,37.1777229309082
2012-05-02,37.6332893371582
2012-05-03,37.724395751953125
2012-05-04,36.98113250732422
2012-05-07,36.54475402832031
2012-05-08,36.352928161621094
2012-05-09,35.767921447753906
2012-05-10,35.178104400634766
2012-05-11,35.51857376098633
2012-05-14,34.81365966796875
2012-05-15,34.847259521484375
2012-05-16,34.55449676513672
2012-05-17,33.316307067871094
2012-05-18,33.13393020629883
2012-05-21,34.50171661376953
2012-05-22,34.85686111450195
2012-05-23,35.00562286376953
2012-05-24,35.23118591308594
2012-05-25,34.81846237182617
2012-05-29,35.54314041137695
2012-05-30,34.828060150146484
2012-05-31,34.847259521484375
2012-06-01,33.77702331542969
2012-06-04,33.450679779052734
2012-06-05,33.652252197265625
2012-06-06,34.7176628112793
2012-06-07,34.5928955078125
2012-06-08,34.68408203125
2012-06-11,33.88261032104492
2012-06-12,33.92580032348633
2012-06-13,33.29230880737305
2012-06-14,33.67625045776367
2012-06-15,35.14481735229492
2012-06-18,35.547950744628906
2012-06-19,36.41660690307617
2012-06-20,36.48860549926758
2012-06-21,36.167057037353516
2012-06-22,36.39741134643555
2012-06-25,35.27438735961914
2012-06-26,35.370384216308594
2012-06-27,35.61031723022461
2012-06-28,36.560585021972656
2012-06-29,37.438846588134766
2012-07-02,37.462833404541016
2012-07-03,37.645206451416016
2012-07-05,37.568424224853516
2012-07-06,36.800540924072266
2012-07-09,36.70456314086914
2012-07-10,36.0230712890625
2012-07-11,35.6439323425293
2012-07-12,35.73031234741211
2012-07-13,36.824546813964844
2012-07-16,36.27742004394531
2012-07-17,36.63737487792969
2012-07-18,36.944522857666016
2012-07-19,36.930118560791016
2012-07-20,36.46940231323242
2012-07-23,36.24383544921875
2012-07-24,37.41004180908203
2012-07-25,37.53482437133789
2012-07-26,37.67880630493164
2012-07-27,38.88821792602539
2012-07-30,38.3219108581543
2012-07-31,38.00034713745117
2012-08-01,37.22767639160156
2012-08-02,37.11249542236328
2012-08-03,37.61640548706055
2012-08-06,37.434051513671875
2012-08-07,38.0483512878418
2012-08-08,37.54442596435547
2012-08-09,37.5300178527832
2012-08-10,38.18272018432617
2012-08-13,37.87556457519531
2012-08-14,38.144325256347656
2012-08-15,38.23076629638672
2012-08-16,38.888675689697266
2012-08-17,38.792633056640625
2012-08-20,38.50450134277344
2012-08-21,39.157596588134766
2012-08-22,38.92709732055664
2012-08-23,38.514102935791016
2012-08-24,38.432464599609375
2012-08-27,37.76496505737305
2012-08-28,37.620880126953125
2012-08-29,37.616085052490234
2012-08-30,37.49123764038086
2012-08-31,37.52484130859375
2012-09-04,37.65449523925781
2012-09-05,37.788963317871094
2012-09-06,38.552513122558594
2012-09-07,39.28725814819336
2012-09-10,39.138404846191406
2012-09-11,39.066368103027344
2012-09-12,39.80110168457031
2012-09-13,39.407325744628906
2012-09-14,39.738677978515625
2012-09-17,39.090370178222656
2012-09-18,38.86465835571289
2012-09-19,39.27286148071289
2012-09-20,38.6629753112793
2012-09-21,38.389251708984375
2012-09-24,39.22483825683594
2012-09-25,37.856201171875
2012-09-26,37.736141204833984
2012-09-27,38.22596740722656
2012-09-28,38.55732727050781
2012-10-01,37.95225143432617
2012-10-02,39.08077621459961
2012-10-03,39.9595832824707
2012-10-04,40.77596664428711
2012-10-05,40.660709381103516
2012-10-08,40.68472671508789
2012-10-09,40.194889068603516
2012-10-10,39.81071090698242
2012-10-11,39.96918869018555
2012-10-12,40.14687728881836
2012-10-15,39.99799728393555
2012-10-16,40.382179260253906
2012-10-17,40.2861328125
2012-10-18,40.54545593261719
2012-10-19,39.85393524169922
2012-10-22,40.386985778808594
2012-10-23,39.973995208740234
2012-10-24,39.39291763305664
2012-10-25,39.330482482910156
2012-10-26,39.306480407714844
2012-10-31,39.330482482910156
2012-11-01,39.94038009643555
2012-11-02,39.21043014526367
2012-11-05,39.503360748291016
2012-11-06,39.53219223022461
2012-11-07,38.80705261230469
2012-11-08,38.566925048828125
2012-11-09,38.44686508178711
2012-11-12,38.979923248291016
2012-11-13,38.749427795410156
2012-11-14,38.345767974853516
2012-11-15,38.25447082519531
2012-11-16,38.36499786376953
2012-11-19,38.932010650634766
2012-11-20,38.71097183227539
2012-11-21,38.65810775756836
2012-11-23,39.26838302612305
2012-11-26,39.431758880615234
2012-11-27,39.854618072509766
2012-11-28,40.30150604248047
2012-11-29,41.0030632019043
2012-11-30,40.66191101074219
2012-12-03,40.93579864501953
2012-12-04,41.46437072753906
2012-12-05,41.762298583984375
2012-12-06,41.7382698059082
2012-12-07,41.81035614013672
2012-12-10,42.48788833618164
2012-12-11,42.295692443847656
2012-12-12,42.266849517822266
2012-12-13,41.84398651123047
2012-12-14,41.70463562011719
2012-12-17,42.079444885253906
2012-12-18,42.61763000488281
2012-12-19,42.46385955810547
2012-12-20,42.45905303955078
2012-12-21,42.266849517822266
2012-12-24,42.18996047973633
2012-12-26,41.90165328979492
2012-12-27,41.74787902832031
2012-12-28,41.68541717529297
2012-12-31,42.065025329589844
2013-01-02,42.76659393310547
2013-01-03,43.42491149902344
2013-01-04,43.280757904052734
2013-01-07,42.87711715698242
2013-01-08,42.82905960083008
2013-01-09,42.862693786621094
2013-01-10,43.24712371826172
2013-01-11,42.69451904296875
2013-01-14,42.67048263549805
2013-01-15,43.21348571777344
2013-01-16,42.90595245361328
2013-01-17,42.95878982543945
2013-01-18,43.52580642700195
2013-01-22,44.00634002685547
2013-01-23,43.98711395263672
2013-01-24,44.342708587646484
2013-01-25,44.30907440185547
2013-01-28,44.41960144042969
2013-01-29,44.54933166503906
2013-01-30,44.07843017578125
2013-01-31,44.98661422729492
2013-02-01,46.05817794799805
2013-02-04,45.75544357299805
2013-02-05,45.971683502197266
2013-02-06,46.13025665283203
2013-02-07,46.07259750366211
2013-02-08,46.32726287841797
2013-02-11,46.17830276489258
2013-02-12,46.505062103271484
2013-02-13,46.63013458251953
2013-02-14,46.490631103515625
2013-02-15,45.932647705078125
2013-02-19,47.86634826660156
2013-02-20,46.91875076293945
2013-02-21,46.40885925292969
2013-02-22,47.024574279785156
2013-02-25,46.490631103515625
2013-02-26,46.63013458251953
2013-02-27,47.01976013183594
2013-02-28,47.03900146484375
2013-03-01,47.005332946777344
2013-03-04,47.17849349975586
2013-03-05,47.70280456542969
2013-03-06,47.332420349121094
2013-03-07,47.159236907958984
2013-03-08,47.37090301513672
2013-03-11,47.332420349121094
2013-03-12,47.45749282836914
2013-03-13,47.81826400756836
2013-03-14,48.35218048095703
2013-03-15,47.707618713378906
2013-03-18,48.1260986328125
2013-03-19,47.976993560791016
2013-03-20,48.409915924072266
2013-03-21,47.952938079833984
2013-03-22,48.37142562866211
2013-03-25,47.938499450683594
2013-03-26,47.84230422973633
2013-03-27,48.01065444946289
2013-03-28,49.11700439453125
2013-04-01,48.33775329589844
2013-04-02,47.45267105102539
2013-04-03,46.60126876831055
2013-04-04,47.14482116699219
2013-04-05,47.630645751953125
2013-04-08,48.102054595947266
2013-04-09,48.25116729736328
2013-04-10,49.01118469238281
2013-04-11,49.42967224121094
2013-04-12,49.31904602050781
2013-04-15,48.33775329589844
2013-04-16,49.14105224609375
2013-04-17,48.222312927246094
2013-04-18,47.82307052612305
2013-04-19,48.5878791809082
2013-04-22,48.592681884765625
2013-04-23,48.95826721191406
2013-04-24,48.78028869628906
2013-04-25,49.98765563964844
2013-04-26,49.58359909057617
2013-04-29,50.348411560058594
2013-04-30,50.47829818725586
2013-05-01,49.37194061279297
2013-05-02,50.131954193115234
2013-05-03,50.82462692260742
2013-05-06,50.69956588745117
2013-05-07,50.77652359008789
2013-05-08,50.80537796020508
2013-05-09,50.9015998840332
2013-05-10,51.122867584228516
2013-05-13,50.94969177246094
2013-05-14,52.354270935058594
2013-05-15,53.653629302978516
2013-05-16,53.850921630859375
2013-05-17,53.92793273925781
2013-05-20,53.557376861572266
2013-05-21,53.3841438293457
2013-05-22,52.97508239746094
2013-05-23,52.835506439208984
2013-05-24,52.763336181640625
2013-05-28,53.36969757080078
2013-05-29,52.874019622802734
2013-05-30,52.90769958496094
2013-05-31,52.94139099121094
2013-06-03,53.35525894165039
2013-06-04,52.62857437133789
2013-06-05,52.23876953125
2013-06-06,52.68632507324219
2013-06-07,53.4322509765625
2013-06-10,53.12907409667969
2013-06-11,52.89325714111328
2013-06-12,51.41584396362305
2013-06-13,51.69498062133789
2013-06-14,51.36772537231445
2013-06-17,51.7046012878418
2013-06-18,51.95484924316406
2013-06-19,51.3388557434082
2013-06-20,49.625633239746094
2013-06-21,48.64389419555664
2013-06-24,47.78728485107422
2013-06-25,48.61501693725586
2013-06-26,50.29936599731445
2013-06-27,51.30997848510742
2013-06-28,51.425479888916016
2013-07-01,51.67572784423828
2013-07-02,51.300357818603516
2013-07-03,51.48322296142578
2013-07-05,52.349449157714844
2013-07-08,52.32057571411133
2013-07-09,53.071319580078125
2013-07-10,52.70558547973633
2013-07-11,53.292686462402344
2013-07-12,53.93756103515625
2013-07-15,53.802818298339844
2013-07-16,53.40819549560547
2013-07-17,53.53330993652344
2013-07-18,54.31291961669922
2013-07-19,54.495792388916016
2013-07-22,54.87117004394531
2013-07-23,54.957786560058594
2013-07-24,54.765289306640625
2013-07-25,55.32353591918945
2013-07-26,55.169532775878906
2013-07-29,55.256160736083984
2013-07-30,55.256160736083984
2013-07-31,55.88178253173828
2013-08-01,57.29661560058594
2013-08-02,56.93087387084961
2013-08-05,56.863502502441406
2013-08-06,56.42076110839844
2013-08-07,56.05502700805664
2013-08-08,56.69026184082031
2013-08-09,56.57475662231445
2013-08-12,56.7287483215332
2013-08-13,57.04637908935547
2013-08-14,56.6515007019043
2013-08-15,55.64982604980469
2013-08-16,56.14103698730469
2013-08-19,55.8809928894043
2013-08-20,56.42033767700195
2013-08-21,56.70928192138672
2013-08-22,57.547210693359375
2013-08-23,57.32569122314453
2013-08-26,57.171592712402344
2013-08-27,56.23733901977539
2013-08-28,56.59370803833008
2013-08-29,57.171592712402344
2013-08-30,56.362552642822266
2013-09-03,56.478126525878906
2013-09-04,56.88264465332031
2013-09-05,57.31605911254883
2013-09-06,57.70130920410156
2013-09-09,59.24232482910156
2013-09-10,60.08987045288086
2013-09-11,59.964656829833984
2013-09-12,59.04969787597656
2013-09-13,58.866695404052734
2013-09-16,59.3578987121582
2013-09-17,59.53125762939453
2013-09-18,60.166934967041016
2013-09-19,60.523292541503906
2013-09-20,59.90687561035156
2013-09-23,60.57144546508789
2013-09-24,60.648502349853516
2013-09-25,60.109134674072266
2013-09-26,60.311397552490234
2013-09-27,60.253623962402344
2013-09-30,60.552181243896484
2013-10-01,61.39010238647461
2013-10-02,61.091522216796875
2013-10-03,60.97595977783203
2013-10-04,61.35158920288086
2013-10-07,60.62923812866211
2013-10-08,60.138038635253906
2013-10-09,60.22471618652344
2013-10-10,61.707942962646484
2013-10-11,62.11247634887695
2013-10-14,62.55549621582031
2013-10-15,61.967987060546875
2013-10-16,62.42068099975586
2013-10-17,62.95039367675781
2013-10-18,63.39341735839844
2013-10-21,63.38380813598633
2013-10-22,63.422306060791016
2013-10-23,63.36455154418945
2013-10-24,63.075584411621094
2013-10-25,63.643863677978516
2013-10-28,63.27783966064453
2013-10-29,63.316368103027344
2013-10-30,62.767391204833984
2013-10-31,62.78667068481445
2013-11-01,63.39341735839844
2013-11-04,63.91352844238281
2013-11-05,63.653446197509766
2013-11-06,63.43195343017578
2013-11-07,61.39973831176758
2013-11-08,61.98725891113281
2013-11-11,62.17024612426758
2013-11-12,62.18950271606445
2013-11-13,63.789302825927734
2013-11-14,64.5699234008789
2013-11-15,65.4854507446289
2013-11-18,65.38909912109375
2013-11-19,64.61813354492188
2013-11-20,64.47356414794922
2013-11-21,64.5313949584961
2013-11-22,65.29271697998047
2013-11-25,66.12154388427734
2013-11-26,66.49739837646484
2013-11-27,66.5841293334961
2013-11-29,66.49739837646484
2013-12-02,65.83238983154297
2013-12-03,64.31934356689453
2013-12-04,64.5699234008789
2013-12-05,64.22298431396484
2013-12-06,64.52173614501953
2013-12-09,64.67593383789062
2013-12-10,64.23263549804688
2013-12-11,64.7819595336914
2013-12-12,65.78424072265625
2013-12-13,66.92141723632812
2013-12-16,68.14533996582031
2013-12-17,69.0127182006836
2013-12-18,71.42203521728516
2013-12-19,71.1232681274414
2013-12-20,71.10400390625
2013-12-23,70.89199829101562
2013-12-24,71.35458374023438
2013-12-26,71.40277862548828
2013-12-27,71.47024536132812
2013-12-30,71.46058654785156
2013-12-31,71.57623291015625
2014-01-02,70.60287475585938
2014-01-03,71.05584716796875
2014-01-06,70.24629211425781
2014-01-07,70.49685668945312
2014-01-08,70.21739196777344
2014-01-09,70.63178253173828
2014-01-10,71.01728820800781
2014-01-13,70.05355072021484
2014-01-14,70.46794891357422
2014-01-15,72.44359588623047
2014-01-16,72.63633728027344
2014-01-17,72.19303131103516
2014-01-21,72.87726593017578
2014-01-22,73.2338638305664
2014-01-23,73.65789794921875
2014-01-24,70.35232543945312
2014-01-27,69.38858032226562
2014-01-28,70.17884063720703
2014-01-29,69.6295166015625
2014-01-30,70.94017028808594
2014-01-31,71.13290405273438
2014-02-03,68.3188247680664
2014-02-04,68.82959747314453
2014-02-05,68.44410705566406
2014-02-06,69.92826843261719
2014-02-07,70.67997741699219
2014-02-10,69.73552703857422
2014-02-11,70.67033386230469
2014-02-12,71.81778717041016
2014-02-13,73.22562408447266
2014-02-14,73.71739196777344
2014-02-18,73.16773223876953
2014-02-19,72.96527862548828
2014-02-20,75.20235443115234
2014-02-21,75.43375396728516
2014-02-24,76.31122589111328
2014-02-25,76.1762466430664
2014-02-26,75.39521026611328
2014-02-27,75.81946563720703
2014-02-28,76.53301239013672
2014-03-03,76.07980346679688
2014-03-04,77.66118621826172
2014-03-05,77.87332916259766
2014-03-06,78.18189239501953
2014-03-07,78.69295501708984
2014-03-10,77.61297607421875
2014-03-11,77.62262725830078
2014-03-12,77.85404205322266
2014-03-13,77.52619934082031
2014-03-14,76.66799926757812
2014-03-17,77.56478118896484
2014-03-18,77.81547546386719
2014-03-19,78.07581329345703
2014-03-20,78.14331817626953
2014-03-21,78.54830932617188
2014-03-24,77.3622817993164
2014-03-25,77.33334350585938
2014-03-26,75.11556243896484
2014-03-27,73.43775177001953
2014-03-28,74.21880340576172
2014-03-31,74.72984313964844
2014-04-01,75.76163482666016
2014-04-02,76.1376724243164
2014-04-03,75.59769439697266
2014-04-04,72.89777374267578
2014-04-07,70.53533172607422
2014-04-08,70.40033721923828
2014-04-09,72.34814453125
2014-04-10,70.74747467041016
2014-04-11,69.24323272705078
2014-04-14,68.732177734375
2014-04-15,68.28861236572266
2014-04-16,70.84390258789062
2014-04-17,71.24890899658203
2014-04-21,71.54779815673828
2014-04-22,72.10709381103516
2014-04-23,71.84674072265625
2014-04-24,72.81100463867188
2014-04-25,71.19104766845703
2014-04-28,71.02711486816406
2014-04-29,71.3260269165039
2014-04-30,71.88530731201172
2014-05-01,71.87566375732422
2014-05-02,71.56708526611328
2014-05-05,72.23243713378906
2014-05-06,71.81778717041016
2014-05-07,72.174560546875
2014-05-08,72.52172088623047
2014-05-09,71.65387725830078
2014-05-12,73.18704986572266
2014-05-13,73.11956787109375
2014-05-14,72.64681243896484
2014-05-15,71.62416076660156
2014-05-16,71.76887512207031
2014-05-19,72.97481536865234
2014-05-20,72.02935028076172
2014-05-21,72.21266174316406
2014-05-22,72.6661148071289
2014-05-23,74.34481048583984
2014-05-27,75.26132202148438
2014-05-28,75.17449951171875
2014-05-29,75.47357940673828
2014-05-30,75.96560668945312
2014-06-02,76.20677947998047
2014-06-03,75.47357940673828
2014-06-04,75.41570281982422
2014-06-05,76.1778564453125
2014-06-06,77.0557861328125
2014-06-09,78.44505310058594
2014-06-10,78.5125732421875
2014-06-11,78.32926940917969
2014-06-12,77.47064971923828
2014-06-13,77.60570526123047
2014-06-16,77.78902435302734
2014-06-17,78.7827377319336
2014-06-18,79.32298278808594
2014-06-19,79.77643585205078
2014-06-20,80.34564208984375
2014-06-23,80.04654693603516
2014-06-24,78.85025024414062
2014-06-25,79.85359191894531
2014-06-26,79.58346557617188
2014-06-27,79.78607177734375
2014-06-30,79.67996978759766
2014-07-01,79.54489135742188
2014-07-02,80.84734344482422
2014-07-03,80.90521240234375
2014-07-07,79.94042205810547
2014-07-08,78.57048797607422
2014-07-09,79.13967895507812
2014-07-10,77.95301055908203
2014-07-11,78.03986358642578
2014-07-14,78.79235076904297
2014-07-15,77.90478515625
2014-07-16,78.20386505126953
2014-07-17,77.04615020751953
2014-07-18,78.18455505371094
2014-07-21,78.1749267578125
2014-07-22,78.83096313476562
2014-07-23,78.63801574707031
2014-07-24,83.14346313476562
2014-07-25,82.44879913330078
2014-07-28,80.48069763183594
2014-07-29,79.46770477294922
2014-07-30,79.9307861328125
2014-07-31,77.8372573852539
2014-08-01,78.01089477539062
2014-08-04,78.73448944091797
2014-08-05,78.01089477539062
2014-08-06,77.49957275390625
2014-08-07,77.43206787109375
2014-08-08,78.46434020996094
2014-08-11,78.77307891845703
2014-08-12,78.20386505126953
2014-08-13,79.16932678222656
2014-08-14,79.86448669433594
2014-08-15,79.31417846679688
2014-08-18,81.158203125
2014-08-19,81.37062072753906
2014-08-20,81.38029479980469
2014-08-21,81.27409362792969
2014-08-22,81.10995483398438
2014-08-25,81.5830307006836
2014-08-26,81.10031127929688
2014-08-27,81.00373840332031
2014-08-28,80.7237777709961
2014-08-29,80.48240661621094
2014-09-02,81.64098358154297
2014-09-03,81.20650482177734
2014-09-04,80.96514129638672
2014-09-05,80.99408721923828
2014-09-08,81.41889190673828
2014-09-09,80.30860900878906
2014-09-10,80.13481140136719
2014-09-11,80.67548370361328
2014-09-12,79.56521606445312
2014-09-15,79.63277435302734
2014-09-16,80.83959197998047
2014-09-17,80.20240020751953
2014-09-18,80.81063842773438
2014-09-19,80.85891723632812
2014-09-22,79.55553436279297
2014-09-23,78.25211334228516
2014-09-24,79.18863677978516
2014-09-25,77.2190933227539
2014-09-26,78.50314331054688
2014-09-29,78.75419616699219
2014-09-30,78.24246215820312
2014-10-01,75.64532470703125
2014-10-02,75.22053527832031
2014-10-03,76.17635345458984
2014-10-06,75.44259643554688
2014-10-07,73.64679718017578
2014-10-08,74.89224243164062
2014-10-09,72.8454360961914
2014-10-10,71.291015625
2014-10-13,69.66902160644531
2014-10-14,70.27727508544922
2014-10-15,71.15586853027344
2014-10-16,72.1020278930664
2014-10-17,72.08271789550781
2014-10-20,72.12134552001953
2014-10-21,74.82466888427734
2014-10-22,73.84955596923828
2014-10-23,76.3501205444336
2014-10-24,76.55290222167969
2014-10-27,76.3404769897461
2014-10-28,79.64241790771484
2014-10-29,80.71412658691406
2014-10-30,81.33202362060547
2014-10-31,83.32088470458984
2014-11-03,83.31124877929688
2014-11-04,82.13336181640625
2014-11-05,83.42709350585938
2014-11-06,85.23255920410156
2014-11-07,86.1883773803711
2014-11-10,86.43939971923828
2014-11-11,86.70972442626953
2014-11-12,86.7097396850586
2014-11-13,86.55514526367188
2014-11-14,86.41989135742188
2014-11-17,86.27497100830078
2014-11-18,86.41989135742188
2014-11-19,86.47785186767578
2014-11-20,86.34261322021484
2014-11-21,87.03821563720703
2014-11-24,88.14926147460938
2014-11-25,87.84008026123047
2014-11-26,87.42467498779297
2014-11-28,85.49240112304688
2014-12-01,82.51676177978516
2014-12-02,83.7051010131836
2014-12-03,84.86443328857422
2014-12-04,83.58916473388672
2014-12-05,83.64712524414062
2014-12-08,83.46355438232422
2014-12-09,84.3620376586914
2014-12-10,81.66655731201172
2014-12-11,82.56503295898438
2014-12-12,82.03369140625
2014-12-15,81.52163696289062
2014-12-16,81.10620880126953
2014-12-17,83.27997589111328
2014-12-18,84.72917938232422
2014-12-19,84.43934631347656
2014-12-22,84.68085479736328
2014-12-23,85.23155212402344
2014-12-24,85.37647247314453
2014-12-26,85.78225708007812
2014-12-29,85.99480438232422
2014-12-30,85.07698059082031
2014-12-31,83.94661712646484
2015-01-02,84.1591567993164
2015-01-05,82.25588989257812
2015-01-06,81.19316101074219
2015-01-07,81.98538208007812
2015-01-08,83.66643524169922
2015-01-09,81.98538208007812
2015-01-12,81.05790710449219
2015-01-13,80.6328125
2015-01-14,80.38159942626953
2015-01-15,79.4541244506836
2015-01-16,80.42023468017578
2015-01-20,80.5168685913086
2015-01-21,81.21247100830078
2015-01-22,82.6230239868164
2015-01-23,82.1109848022461
2015-01-26,84.45867919921875
2015-01-27,83.7051010131836
2015-01-28,82.08200073242188
2015-01-29,82.83556365966797
2015-01-30,80.62315368652344
2015-02-02,81.7824935913086
2015-02-03,83.81134796142578
2015-02-04,82.50707244873047
2015-02-05,83.99493408203125
2015-02-06,83.85967254638672
2015-02-09,84.17848205566406
2015-02-10,84.56493377685547
2015-02-11,84.46823120117188
2015-02-12,86.31480407714844
2015-02-13,87.5232925415039
2015-02-17,87.65863800048828
2015-02-18,89.68890380859375
2015-02-19,91.87384033203125
2015-02-20,91.87384033203125
2015-02-23,93.20802307128906
2015-02-24,93.5560531616211
2015-02-25,92.8792953491211
2015-02-26,92.35723114013672
2015-02-27,91.73849487304688
2015-03-02,92.0478744506836
2015-03-03,91.55480194091797
2015-03-04,90.75238800048828
2015-03-05,90.47201538085938
2015-03-06,89.36021423339844
2015-03-09,89.42788696289062
2015-03-10,88.51908111572266
2015-03-11,89.60189056396484
2015-03-12,91.1584243774414
2015-03-13,90.38499450683594
2015-03-16,92.3862533569336
2015-03-17,92.54093170166016
2015-03-18,92.8792953491211
2015-03-19,92.01885223388672
2015-03-20,93.36267852783203
2015-03-23,93.02433013916016
2015-03-24,92.84062957763672
2015-03-25,92.10589599609375
2015-03-26,91.10043334960938
2015-03-27,91.40979766845703
2015-03-30,93.20802307128906
2015-03-31,91.85452270507812
2015-04-01,91.07142639160156
2015-04-02,91.1584243774414
2015-04-06,92.26056671142578
2015-04-07,91.52579498291016
2015-04-08,91.7578353881836
2015-04-09,91.6901626586914
2015-04-10,92.6182861328125
2015-04-13,92.28955841064453
2015-04-14,91.53546905517578
2015-04-15,93.15000915527344
2015-04-16,93.13068389892578
2015-04-17,91.93185424804688
2015-04-20,93.02433013916016
2015-04-21,92.58926391601562
2015-04-22,95.33494567871094
2015-04-23,95.00624084472656
2015-04-24,93.72042083740234
2015-04-27,93.0436782836914
2015-04-28,93.64307403564453
2015-04-29,92.81161499023438
2015-04-30,90.92639923095703
2015-05-01,96.50477600097656
2015-05-04,97.88725280761719
2015-05-05,95.86668395996094
2015-05-06,95.79900360107422
2015-05-07,95.96336364746094
2015-05-08,96.31141662597656
2015-05-11,95.80867767333984
2015-05-12,95.92469787597656
2015-05-13,95.94403839111328
2015-05-14,97.24996948242188
2015-05-15,97.35640716552734
2015-05-18,98.80744171142578
2015-05-19,98.67203521728516
2015-05-20,98.01422119140625
2015-05-21,98.10128784179688
2015-05-22,98.21734619140625
2015-05-26,97.19194793701172
2015-05-27,98.10128784179688
2015-05-28,97.53052520751953
2015-05-29,97.02749633789062
2015-06-01,96.60186004638672
2015-06-02,96.49542999267578
2015-06-03,96.61154174804688
2015-06-04,95.59578704833984
2015-06-05,96.5147705078125
2015-06-08,95.95369720458984
2015-06-09,95.66350555419922
2015-06-10,97.15325164794922
2015-06-11,97.88845825195312
2015-06-12,96.34066009521484
2015-06-15,95.37328338623047
2015-06-16,95.17012786865234
2015-06-17,95.80860900878906
2015-06-18,96.13749694824219
2015-06-19,95.50873565673828
2015-06-22,95.44102478027344
2015-06-23,96.1181640625
2015-06-24,94.63809204101562
2015-06-25,92.63561248779297
2015-06-26,92.40345001220703
2015-06-29,90.49773406982422
2015-06-30,91.16520690917969
2015-07-01,91.0394287109375
2015-07-02,91.33935546875
2015-07-06,90.87501525878906
2015-07-07,91.19422149658203
2015-07-08,89.73351287841797
2015-07-09,90.15914154052734
2015-07-10,91.1071548461914
2015-07-13,92.36474609375
2015-07-14,92.68399047851562
2015-07-15,91.69725799560547
2015-07-16,92.08421325683594
2015-07-17,91.59085845947266
2015-07-20,91.99714660644531
2015-07-21,90.84599304199219
2015-07-22,90.20751190185547
2015-07-23,90.62348175048828
2015-07-24,88.35981750488281
2015-07-27,94.73480987548828
2015-07-28,96.36968231201172
2015-07-29,98.68171691894531
2015-07-30,99.0492935180664
2015-07-31,97.88845825195312
2015-08-03,96.7469711303711
2015-08-04,95.63447570800781
2015-08-05,96.56316375732422
2015-08-06,95.12177276611328
2015-08-07,94.47362518310547
2015-08-10,96.49542999267578
2015-08-11,95.86664581298828
2015-08-12,95.81826782226562
2015-08-13,96.45724487304688
2015-08-14,97.43508911132812
2015-08-17,98.69369506835938
2015-08-18,98.34516906738281
2015-08-19,97.17369842529297
2015-08-20,93.7173843383789
2015-08-21,90.98719787597656
2015-08-24,89.37037658691406
2015-08-25,87.9762191772461
2015-08-26,90.53215026855469
2015-08-27,93.63024139404297
2015-08-28,93.89166259765625
2015-08-31,92.71049499511719
2015-09-01,89.01213073730469
2015-09-02,89.96094512939453
2015-09-03,90.6483383178711
2015-09-04,88.4893569946289
2015-09-08,90.60958862304688
2015-09-09,90.66768646240234
2015-09-10,91.3647689819336
2015-09-11,91.8585205078125
2015-09-14,91.17115020751953
2015-09-15,92.6717758178711
2015-09-16,94.42412567138672
2015-09-17,94.53062438964844
2015-09-18,92.0715103149414
2015-09-21,92.23612976074219
2015-09-22,90.62896728515625
2015-09-23,89.5833740234375
2015-09-24,87.1242446899414
2015-09-25,86.18513488769531
2015-09-28,83.11608123779297
2015-09-29,83.03864288330078
2015-09-30,85.24604797363281
2015-10-01,84.29723358154297
2015-10-02,85.0717544555664
2015-10-05,88.52806854248047
2015-10-06,88.13113403320312
2015-10-07,90.21267700195312
2015-10-08,89.90286254882812
2015-10-09,90.66768646240234
2015-10-12,91.0452651977539
2015-10-13,89.33163452148438
2015-10-14,88.46997833251953
2015-10-15,89.09928131103516
2015-10-16,87.91814422607422
2015-10-19,86.46592712402344
2015-10-20,86.35940551757812
2015-10-21,85.73011016845703
2015-10-22,81.07328033447266
2015-10-23,80.55046844482422
2015-10-26,80.88932037353516
2015-10-27,78.80779266357422
2015-10-28,79.2822036743164
2015-10-29,79.0788803100586
2015-10-30,80.2309799194336
2015-11-02,79.62104034423828
2015-11-03,78.31404113769531
2015-11-04,77.37490844726562
2015-11-05,74.97391510009766
2015-11-06,75.12879943847656
2015-11-09,73.5119857788086
2015-11-10,74.83838653564453
2015-11-11,74.65442657470703
2015-11-12,74.16014099121094
2015-11-13,74.40243530273438
2015-11-16,75.4394302368164
2015-11-17,73.39451599121094
2015-11-18,75.27466583251953
2015-11-19,75.35220336914062
2015-11-20,74.37337493896484
2015-11-23,75.04207611083984
2015-11-24,76.4764404296875
2015-11-25,78.0367660522461
2015-11-27,78.50196838378906
2015-11-30,77.64913177490234
2015-12-01,77.57160186767578
2015-12-02,76.44738006591797
2015-12-03,73.31698608398438
2015-12-04,73.84032440185547
2015-12-07,73.64649200439453
2015-12-08,71.14604949951172
2015-12-09,70.64208984375
2015-12-10,69.97337341308594
2015-12-11,67.95753479003906
2015-12-14,67.0755615234375
2015-12-15,67.9090576171875
2015-12-16,68.95577239990234
2015-12-17,68.15137481689453
2015-12-18,66.76544189453125
2015-12-21,69.61477661132812
2015-12-22,70.82624053955078
2015-12-23,71.38835906982422
2015-12-24,70.87468719482422
2015-12-28,70.25443267822266
2015-12-29,69.7989273071289
2015-12-30,68.9945068359375
2015-12-31,68.92668914794922
2016-01-04,67.99627685546875
2016-01-05,66.80422973632812
2016-01-06,64.4685287475586
2016-01-07,62.317012786865234
2016-01-08,61.212162017822266
2016-01-11,60.85358428955078
2016-01-12,61.376922607421875
2016-01-13,59.74873733520508
2016-01-14,61.406002044677734
2016-01-15,61.628902435302734
2016-01-19,61.07647705078125
2016-01-20,60.427146911621094
2016-01-21,61.638587951660156
2016-01-22,62.21039581298828
2016-01-25,60.650054931640625
2016-01-26,61.25093078613281
2016-01-27,60.456214904785156
2016-01-28,60.233314514160156
2016-01-29,61.97780227661133
2016-02-01,61.92934799194336
2016-02-02,60.727577209472656
2016-02-03,61.76457977294922
2016-02-04,62.791893005371094
2016-02-05,60.15577697753906
2016-02-08,60.03947830200195
2016-02-09,58.71173095703125
2016-02-10,63.56394958496094
2016-02-11,62.176204681396484
2016-02-12,63.418373107910156
2016-02-16,65.49510955810547
2016-02-17,67.43599700927734
2016-02-18,66.85372924804688
2016-02-19,65.26222229003906
2016-02-22,66.65963745117188
2016-02-23,65.50481414794922
2016-02-24,65.39808654785156
2016-02-25,66.00946044921875
2016-02-26,66.83434295654297
2016-02-29,68.51319885253906
2016-03-01,68.82372283935547
2016-03-02,70.1241226196289
2016-03-03,71.6671142578125
2016-03-04,72.80254364013672
2016-03-07,74.77254486083984
2016-03-08,73.04515075683594
2016-03-09,73.23925018310547
2016-03-10,72.91899108886719
2016-03-11,75.50035095214844
2016-03-14,75.21894073486328
2016-03-15,75.0733871459961
2016-03-16,75.286865234375
2016-03-17,76.34465789794922
2016-03-18,77.6644515991211
2016-03-21,76.94633483886719
2016-03-22,76.36405944824219
2016-03-23,75.25777435302734
2016-03-24,75.18012237548828
2016-03-28,75.46155548095703
2016-03-29,77.09190368652344
2016-03-30,76.86868286132812
2016-03-31,76.94633483886719
2016-04-01,77.92648315429688
2016-04-04,76.8395767211914
2016-04-05,76.41259002685547
2016-04-06,76.85901641845703
2016-04-07,75.95646667480469
2016-04-08,76.31554412841797
2016-04-11,76.30584716796875
2016-04-12,77.11131286621094
2016-04-13,78.87749481201172
2016-04-14,78.27584075927734
2016-04-15,78.89691925048828
2016-04-18,78.38256072998047
2016-04-19,79.12982940673828
2016-04-20,79.17832946777344
2016-04-21,78.4214096069336
2016-04-22,78.59607696533203
2016-04-25,77.24717712402344
2016-04-26,80.76018524169922
2016-04-27,83.71028900146484
2016-04-28,81.18717193603516
2016-04-29,80.4787368774414
2016-05-02,79.87705993652344
2016-05-03,78.60577392578125
2016-05-04,77.64505004882812
2016-05-05,77.41212463378906
2016-05-06,77.03366088867188
2016-05-09,75.97588348388672
2016-05-10,77.7518081665039
2016-05-11,77.22721862792969
2016-05-12,76.90664672851562
2016-05-13,75.77010345458984
2016-05-16,76.02268981933594
2016-05-17,75.04153442382812
2016-05-18,74.39070129394531
2016-05-19,74.05072021484375
2016-05-20,74.8861312866211
2016-05-23,75.04153442382812
2016-05-24,75.61468505859375
2016-05-25,75.98383331298828
2016-05-26,75.22615051269531
2016-05-27,75.64382934570312
2016-05-31,75.16785430908203
2016-06-01,75.64382934570312
2016-06-02,75.77010345458984
2016-06-03,74.41012573242188
2016-06-06,75.82841491699219
2016-06-07,75.52725982666016
2016-06-08,75.925537109375
2016-06-09,74.83756256103516
2016-06-10,72.98217010498047
2016-06-13,72.13703155517578
2016-06-14,71.9913101196289
2016-06-15,71.24332427978516
2016-06-16,71.19477081298828
2016-06-17,71.01018524169922
2016-06-20,71.33076477050781
2016-06-21,70.76734161376953
2016-06-22,71.04905700683594
2016-06-23,72.37016296386719
2016-06-24,68.24168395996094
2016-06-27,65.24002075195312
2016-06-28,66.63883972167969
2016-06-29,67.8045425415039
2016-06-30,68.22224426269531
2016-07-01,68.18338775634766
2016-07-05,66.35713958740234
2016-07-06,66.72628784179688
2016-07-07,67.05655670166016
2016-07-08,68.58165740966797
2016-07-11,69.79592895507812
2016-07-12,70.4467544555664
2016-07-13,69.7085189819336
2016-07-14,69.42680358886719
2016-07-15,69.39765930175781
2016-07-18,69.58220672607422
2016-07-19,68.9216537475586
2016-07-20,69.41708374023438
2016-07-21,68.38739776611328
2016-07-22,69.11595916748047
2016-07-25,64.35604095458984
2016-07-26,66.68741607666016
2016-07-27,66.77484893798828
2016-07-28,66.25027465820312
2016-07-29,66.5417251586914
2016-08-01,66.50283813476562
2016-08-02,66.11427307128906
2016-08-03,68.13480377197266
2016-08-04,68.7176742553711
2016-08-05,70.12621307373047
2016-08-08,70.43706512451172
2016-08-09,69.46566772460938
2016-08-10,69.51420593261719
2016-08-11,69.61148834228516
2016-08-12,69.51422119140625
2016-08-15,70.49673461914062
2016-08-16,70.61345672607422
2016-08-17,70.73992919921875
2016-08-18,71.31385040283203
2016-08-19,72.31580352783203
2016-08-22,73.11348724365234
2016-08-23,73.78467559814453
2016-08-24,73.8236083984375
2016-08-25,73.49285125732422
2016-08-26,73.32748413085938
2016-08-29,74.00843811035156
2016-08-30,75.17574310302734
2016-08-31,74.52398681640625
2016-09-01,73.72631072998047
2016-09-02,74.57262420654297
2016-09-06,74.88391876220703
2016-09-07,76.01232147216797
2016-09-08,76.19715881347656
2016-09-09,74.14460754394531
2016-09-12,74.42671966552734
2016-09-13,72.87999725341797
2016-09-14,72.41309356689453
2016-09-15,73.21075439453125
2016-09-16,72.87026977539062
2016-09-19,72.88973236083984
2016-09-20,72.724365234375
2016-09-21,73.55121612548828
2016-09-22,75.31194305419922
2016-09-23,74.72830200195312
2016-09-26,76.59598541259766
2016-09-27,76.1387710571289
2016-09-28,77.55902099609375
2016-09-29,76.77108764648438
2016-09-30,79.4267578125
2016-10-03,78.9500961303711
2016-10-04,79.15438079833984
2016-10-05,79.35868072509766
2016-10-06,80.117431640625
2016-10-07,79.26139068603516
2016-10-10,78.989013671875
2016-10-11,78.68745422363281
2016-10-12,78.74581909179688
2016-10-13,78.4928970336914
2016-10-14,78.62909698486328
2016-10-17,77.58821868896484
2016-10-18,78.60963439941406
2016-10-19,80.72056579589844
2016-10-20,80.28280639648438
2016-10-21,80.26334381103516
2016-10-24,79.66021728515625
2016-10-25,76.46955108642578
2016-10-26,75.01036834716797
2016-10-27,74.93256378173828
2016-10-28,74.72830200195312
2016-10-31,75.20494079589844
2016-11-01,74.15435791015625
2016-11-02,72.89947509765625
2016-11-03,73.36638641357422
2016-11-04,74.22244262695312
2016-11-07,76.92674255371094
2016-11-08,76.24580383300781
2016-11-09,79.771728515625
2016-11-10,82.21651458740234
2016-11-11,83.19050598144531
2016-11-14,84.96321868896484
2016-11-15,85.7911376953125
2016-11-16,84.56387329101562
2016-11-17,83.95997619628906
2016-11-18,83.40479278564453
2016-11-21,84.36907196044922
2016-11-22,84.59309387207031
2016-11-23,84.70024108886719
2016-11-25,84.25218963623047
2016-11-28,82.68403625488281
2016-11-29,82.28467559814453
2016-11-30,82.46975708007812
2016-12-01,83.80415344238281
2016-12-02,84.45672607421875
2016-12-05,85.8301010131836
2016-12-06,85.27490234375
2016-12-07,84.93400573730469
2016-12-08,82.41131591796875
2016-12-09,81.25223541259766
2016-12-12,80.55094146728516
2016-12-13,79.05095672607422
2016-12-14,78.11589050292969
2016-12-15,78.2717514038086
2016-12-16,77.47306060791016
2016-12-19,77.95033264160156
2016-12-20,79.67432403564453
2016-12-21,81.74897003173828
2016-12-22,80.92106628417969
2016-12-23,81.7294921875
2016-12-27,82.82038116455078
2016-12-28,81.37885284423828
2016-12-29,81.36912536621094
2016-12-30,80.86262512207031
2017-01-03,81.83663177490234
2017-01-04,83.2879409790039
2017-01-05,81.70027160644531
2017-01-06,82.36260223388672
2017-01-09,81.87557983398438
2017-01-10,83.09310913085938
2017-01-11,83.07363891601562
2017-01-12,82.82038116455078
2017-01-13,83.68727111816406
2017-01-17,84.49568176269531
2017-01-18,84.97296142578125
2017-01-19,84.6612777709961
2017-01-20,83.92103576660156
2017-01-23,82.45027160644531
2017-01-24,84.15481567382812
2017-01-25,85.95672607421875
2017-01-26,84.8658218383789
2017-01-27,85.742431640625
2017-01-30,84.46646881103516
2017-01-31,84.38856506347656
2017-02-01,84.52491760253906
2017-02-02,83.82361602783203
2017-02-03,85.30413055419922
2017-02-06,84.38856506347656
2017-02-07,84.07687377929688
2017-02-08,83.19923400878906
2017-02-09,84.0573501586914
2017-02-10,85.13004302978516
2017-02-13,85.4810791015625
2017-02-14,84.59369659423828
2017-02-15,86.28069305419922
2017-02-16,85.86137390136719
2017-02-17,85.58832550048828
2017-02-21,80.65411376953125
2017-02-22,78.17724609375
2017-02-23,76.2367172241211
2017-02-24,77.47514343261719
2017-02-27,78.91836547851562
2017-02-28,78.12850189208984
2017-03-01,79.32793426513672
2017-03-02,78.05047607421875
2017-03-03,77.90422821044922
2017-03-06,77.97248077392578
2017-03-07,77.52391052246094
2017-03-08,77.25086975097656
2017-03-09,76.51951599121094
2017-03-10,75.62236785888672
2017-03-13,76.324462890625
2017-03-14,75.42733764648438
2017-03-15,75.62236785888672
2017-03-16,75.30058288574219
2017-03-17,75.40784454345703
2017-03-20,75.34932708740234
2017-03-21,74.24742889404297
2017-03-22,74.19865417480469
2017-03-23,74.08164978027344
2017-03-24,73.97438049316406
2017-03-27,73.15525817871094
2017-03-28,73.92561340332031
2017-03-29,74.91053771972656
2017-03-30,75.33959197998047
2017-03-31,76.0611801147461
2017-04-03,76.10018920898438
2017-04-04,75.4175796508789
2017-04-05,75.44683074951172
2017-04-06,77.03633117675781
2017-04-07,78.24551391601562
2017-04-10,79.13288879394531
2017-04-11,79.33768463134766
2017-04-12,77.68968200683594
2017-04-13,77.04608154296875
2017-04-17,78.9085922241211
2017-04-18,78.69407653808594
2017-04-19,78.91836547851562
2017-04-20,79.48394012451172
2017-04-21,79.13288879394531
2017-04-24,80.14704132080078
2017-04-25,82.28258514404297
2017-04-26,83.8135757446289
2017-04-27,82.53614044189453
2017-04-28,81.8047866821289
2017-05-01,80.32256317138672
2017-05-02,79.82524871826172
2017-05-03,80.37132263183594
2017-05-04,80.020263671875
2017-05-05,80.9369125366211
2017-05-08,80.00077819824219
2017-05-09,79.27915954589844
2017-05-10,79.44514465332031
2017-05-11,78.73241424560547
2017-05-12,78.21495056152344
2017-05-15,78.42974853515625
2017-05-16,78.03921508789062
2017-05-17,77.4533920288086
2017-05-18,77.53150939941406
2017-05-19,79.92355346679688
2017-05-22,79.81614685058594
2017-05-23,80.07001495361328
2017-05-24,79.98213195800781
2017-05-25,80.53863525390625
2017-05-26,79.32797241210938
2017-05-30,80.44100952148438
2017-05-31,79.81614685058594
2017-06-01,81.02680206298828
2017-06-02,82.17890167236328
2017-06-05,81.76883697509766
2017-06-06,80.30431365966797
2017-06-07,81.38804626464844
2017-06-08,82.88188934326172
2017-06-09,84.0339584350586
2017-06-12,85.24462890625
2017-06-13,86.41624450683594
2017-06-14,85.94759368896484
2017-06-15,85.96713256835938
2017-06-16,86.81654357910156
2017-06-19,87.09967041015625
2017-06-20,86.40647888183594
2017-06-21,86.12332916259766
2017-06-22,86.26002502441406
2017-06-23,86.42599487304688
2017-06-26,86.86534881591797
2017-06-27,86.36741638183594
2017-06-28,88.06626892089844
2017-06-29,88.15414428710938
2017-06-30,89.33551788330078
2017-07-03,90.32160186767578
2017-07-05,89.56983947753906
2017-07-06,88.44703674316406
2017-07-07,88.84734344482422
2017-07-10,88.35916900634766
2017-07-11,88.73017120361328
2017-07-12,89.79440307617188
2017-07-13,88.10530853271484
2017-07-14,87.71476745605469
2017-07-17,87.14850616455078
2017-07-18,87.44142150878906
2017-07-19,88.06626892089844
2017-07-20,86.18192291259766
2017-07-21,85.42035675048828
2017-07-24,84.89315032958984
2017-07-25,76.62350463867188
2017-07-26,72.26901245117188
2017-07-27,73.8311767578125
2017-07-28,73.39111328125
2017-07-31,73.69425201416016
2017-08-01,72.20784759521484
2017-08-02,72.00248718261719
2017-08-03,71.80690002441406
2017-08-04,72.99017333984375
2017-08-07,72.68701934814453
2017-08-08,71.6015625
2017-08-09,71.46466827392578
2017-08-10,70.78878784179688
2017-08-11,71.31770324707031
2017-08-14,70.52432250976562
2017-08-15,70.25006866455078
2017-08-16,70.69084930419922
2017-08-17,69.87783813476562
2017-08-18,69.4076919555664
2017-08-21,68.81019592285156
2017-08-22,69.29994201660156
2017-08-23,68.6436767578125
2017-08-24,68.71224975585938
2017-08-25,68.76121520996094
2017-08-28,69.01588439941406
2017-08-29,69.23139190673828
2017-08-30,68.9767074584961
2017-08-31,69.12364196777344
2017-09-01,70.58309936523438
2017-09-05,70.66145324707031
2017-09-06,68.2714614868164
2017-09-07,68.80039978027344
2017-09-08,68.8395767211914
2017-09-11,69.7701187133789
2017-09-12,70.5928955078125
2017-09-13,70.44598388671875
2017-09-14,70.0149917602539
2017-09-15,70.86715698242188
2017-09-18,72.3853988647461
2017-09-19,72.82615661621094
2017-09-20,73.5118179321289
2017-09-21,73.67832946777344
2017-09-22,74.6872329711914
2017-09-25,74.55009460449219
2017-09-26,73.95259857177734
2017-09-27,73.91342163085938
2017-09-28,74.18768310546875
2017-09-29,74.19747924804688
2017-10-02,74.84393310546875
2017-10-03,74.863525390625
2017-10-04,74.56968688964844
2017-10-05,74.50110626220703
2017-10-06,74.05052185058594
2017-10-09,73.8056640625
2017-10-10,73.49223327636719
2017-10-11,73.59017181396484
2017-10-12,74.03096008300781
2017-10-13,72.98287963867188
2017-10-16,73.37467956542969
2017-10-17,73.7958755493164
2017-10-18,73.95259857177734
2017-10-19,74.10931396484375
2017-10-20,75.29451751708984
2017-10-23,74.82437133789062
2017-10-24,79.08519744873047
2017-10-25,76.05853271484375
2017-10-26,74.4619369506836
2017-10-27,74.7068099975586
2017-10-30,74.9908676147461
2017-10-31,74.93209075927734
2017-11-01,75.0692367553711
2017-11-02,74.863525390625
2017-11-03,75.45124053955078
2017-11-06,75.47083282470703
2017-11-07,74.63824462890625
2017-11-08,75.46102905273438
2017-11-09,73.83504486083984
2017-11-10,75.06139373779297
2017-11-13,73.8350601196289
2017-11-14,72.13780975341797
2017-11-15,71.50993347167969
2017-11-16,72.27516174316406
2017-11-17,72.56948852539062
2017-11-20,72.65777587890625
2017-11-21,71.94160461425781
2017-11-22,71.69633483886719
2017-11-24,71.76499938964844
2017-11-27,71.33332824707031
2017-11-28,73.44261169433594
2017-11-29,75.54210662841797
2017-11-30,75.44400024414062
2017-12-01,74.85536193847656
2017-12-04,76.1307373046875
2017-12-05,75.47343444824219
2017-12-06,73.44261169433594
2017-12-07,74.04106140136719
2017-12-08,74.78668975830078
2017-12-11,75.83641815185547
2017-12-12,75.2772216796875
2017-12-13,76.57223510742188
2017-12-14,75.4145736694336
2017-12-15,75.21835327148438
2017-12-18,76.57223510742188
2017-12-19,77.41594696044922
2017-12-20,78.867919921875
2017-12-21,78.34795379638672
2017-12-22,78.12230682373047
2017-12-26,79.2603530883789
2017-12-27,79.82936096191406
2017-12-28,79.96671295166016
2017-12-29,79.88822937011719
2018-01-02,81.35981750488281
2018-01-03,80.70250701904297
2018-01-04,81.79149627685547
2018-01-05,80.28067016601562
2018-01-08,80.81043243408203
2018-01-09,81.51680755615234
2018-01-10,80.82023620605469
2018-01-11,82.42919921875
2018-01-12,83.58684539794922
2018-01-16,82.60577392578125
2018-01-17,81.15380859375
2018-01-18,80.29046630859375
2018-01-19,81.23228454589844
2018-01-22,80.9379653930664
2018-01-23,81.14398193359375
2018-01-24,81.16362762451172
2018-01-25,80.7613754272461
2018-01-26,80.69268798828125
2018-01-29,82.25259399414062
2018-01-30,80.84968566894531
2018-01-31,79.505615234375
2018-02-01,79.7214584350586
2018-02-02,72.01026916503906
2018-02-05,70.60733795166016
2018-02-06,71.46087646484375
2018-02-07,71.45106506347656
2018-02-08,69.91806030273438
2018-02-09,70.51751708984375
2018-02-12,70.75335693359375
2018-02-13,70.73369598388672
2018-02-14,71.93257141113281
2018-02-15,73.31816864013672
2018-02-16,75.93209838867188
2018-02-20,78.61483764648438
2018-02-21,80.32469940185547
2018-02-22,80.87501525878906
2018-02-23,81.95597076416016
2018-02-26,82.38835144042969
2018-02-27,80.63917541503906
2018-02-28,79.931640625
2018-03-01,78.50672912597656
2018-03-02,79.79405212402344
2018-03-05,81.7397689819336
2018-03-06,81.99526977539062
2018-03-07,81.59236907958984
2018-03-08,80.97329711914062
2018-03-09,82.1426773071289
2018-03-12,81.45479583740234
2018-03-13,81.15017700195312
2018-03-14,81.42530822753906
2018-03-15,80.46227264404297
2018-03-16,81.01258850097656
2018-03-19,80.47211456298828
2018-03-20,79.62699890136719
2018-03-21,80.09868621826172
2018-03-22,77.00322723388672
2018-03-23,76.14830017089844
2018-03-26,79.21427154541016
2018-03-27,79.31254577636719
2018-03-28,78.6443099975586
2018-03-29,79.9906005859375
2018-04-02,78.39863586425781
2018-04-03,79.22411346435547
2018-04-04,79.45994567871094
2018-04-05,80.049560546875
2018-04-06,78.77205657958984
2018-04-09,78.56571197509766
2018-04-10,80.60968780517578
2018-04-11,80.01023864746094
2018-04-12,81.29756927490234
2018-04-13,80.27557373046875
2018-04-16,81.7496109008789
2018-04-17,81.28775024414062
2018-04-18,81.98544311523438
2018-04-19,82.33921813964844
2018-04-20,86.0242919921875
2018-04-23,86.51564025878906
2018-04-24,88.77581024169922
2018-04-25,87.8324203491211
2018-04-26,87.4000473022461
2018-04-27,87.82260131835938
2018-04-30,87.27228546142578
2018-05-01,87.1838607788086
2018-05-02,86.09307861328125
2018-05-03,87.05610656738281
2018-05-04,88.4122085571289
2018-05-07,89.5521240234375
2018-05-08,90.48567962646484
2018-05-09,91.87125396728516
2018-05-10,92.3238754272461
2018-05-11,91.56624603271484
2018-05-14,91.68431091308594
2018-05-15,91.69416046142578
2018-05-16,93.052001953125
2018-05-17,92.63874816894531
2018-05-18,93.66204833984375
2018-05-21,96.96810913085938
2018-05-22,95.90545654296875
2018-05-23,95.10846710205078
2018-05-24,95.4429931640625
2018-05-25,95.77754211425781
2018-05-29,95.30523681640625
2018-05-30,96.791015625
2018-05-31,95.94481658935547
2018-06-01,98.30628967285156
2018-06-04,97.46993255615234
2018-06-05,98.41451263427734
2018-06-06,99.9593276977539
2018-06-07,100.24465942382812
2018-06-08,101.04166412353516
2018-06-11,101.14006805419922
2018-06-12,101.31717681884766
2018-06-13,99.40830993652344
2018-06-14,100.3725814819336
2018-06-15,100.8251953125
2018-06-18,100.95310974121094
2018-06-19,100.39225769042969
2018-06-20,100.96295166015625
2018-06-21,98.81793975830078
2018-06-22,99.08360290527344
2018-06-25,97.086181640625
2018-06-26,96.83037567138672
2018-06-27,96.82054138183594
2018-06-28,96.57454681396484
2018-06-29,96.99763488769531
2018-07-02,97.54866790771484
2018-07-03,97.69624328613281
2018-07-05,98.19805145263672
2018-07-06,98.49324798583984
2018-07-09,100.02820587158203
2018-07-10,100.23482513427734
2018-07-11,100.53985595703125
2018-07-12,102.01577758789062
2018-07-13,102.39952087402344
2018-07-16,101.10069274902344
2018-07-17,100.74649047851562
2018-07-18,102.18305206298828
2018-07-19,103.10794830322266
2018-07-20,103.03907775878906
2018-07-23,103.59992218017578
2018-07-24,105.33168029785156
2018-07-25,107.90960693359375
2018-07-26,107.1323013305664
2018-07-27,106.62064361572266
2018-07-30,107.15198516845703
2018-07-31,108.54920196533203
2018-08-01,108.84437561035156
2018-08-02,110.25142669677734
2018-08-03,111.40264892578125
2018-08-06,111.7175064086914
2018-08-07,111.91429138183594
2018-08-08,111.1960220336914
2018-08-09,109.82685852050781
2018-08-10,108.84187316894531
2018-08-13,109.51167297363281
2018-08-14,109.98446655273438
2018-08-15,108.02432250976562
2018-08-16,108.96009063720703
2018-08-17,108.31982421875
2018-08-20,108.56607055664062
2018-08-21,108.75324249267578
2018-08-22,108.4478759765625
2018-08-23,107.18708038330078
2018-08-24,107.60078430175781
2018-08-27,108.88126373291016
2018-08-28,108.40847778320312
2018-08-29,107.35453033447266
2018-08-30,106.87188720703125
2018-08-31,106.694580078125
2018-09-04,107.92583465576172
2018-09-05,110.88081359863281
2018-09-06,111.30437469482422
2018-09-07,112.79170989990234
2018-09-10,110.92021179199219
2018-09-11,112.01356506347656
2018-09-12,111.17633056640625
2018-09-13,110.43757629394531
2018-09-14,96.73629760742188
2018-09-17,103.52290344238281
2018-09-18,103.7987060546875
2018-09-19,103.78886413574219
2018-09-20,103.77900695800781
2018-09-21,103.35546112060547
2018-09-24,104.03512573242188
2018-09-25,105.12844848632812
2018-09-26,105.06934356689453
2018-09-27,105.28604888916016
2018-09-28,103.30620574951172
2018-10-01,102.41971588134766
2018-10-02,102.13406372070312
2018-10-03,103.39485168457031
2018-10-04,103.90707397460938
2018-10-05,102.73491668701172
2018-10-08,101.26727294921875
2018-10-09,100.75507354736328
2018-10-10,98.04633331298828
2018-10-11,95.43611145019531
2018-10-12,93.99800872802734
2018-10-15,95.52474212646484
2018-10-16,98.8244857788086
2018-10-17,98.56838989257812
2018-10-18,96.55900573730469
2018-10-19,94.35261535644531
2018-10-22,95.6429443359375
2018-10-23,93.6434097290039
2018-10-24,89.7822494506836
2018-10-25,89.70344543457031
2018-10-26,87.09320068359375
2018-10-29,88.71844482421875
2018-10-30,84.31551361083984
2018-10-31,80.78923034667969
2018-11-01,83.62602233886719
2018-11-02,83.87228393554688
2018-11-05,82.85771179199219
2018-11-06,83.37977600097656
2018-11-07,85.88165283203125
2018-11-08,86.1771469116211
2018-11-09,85.74375915527344
2018-11-12,82.72967529296875
2018-11-13,81.87272644042969
2018-11-14,81.62649536132812
2018-11-15,84.88168334960938
2018-11-16,85.7990493774414
2018-11-19,86.12456512451172
2018-11-20,83.75716400146484
2018-11-21,84.89154815673828
2018-11-23,84.5462875366211
2018-11-26,87.09127044677734
2018-11-27,86.98274993896484
2018-11-28,90.54373931884766
2018-11-29,91.40193939208984
2018-11-30,93.31558227539062
2018-12-03,91.62881469726562
2018-12-04,87.77188873291016
2018-12-06,87.13072967529297
2018-12-07,83.46123504638672
2018-12-10,81.29109191894531
2018-12-11,79.27879333496094
2018-12-12,78.11482238769531
2018-12-13,74.26776885986328
2018-12-14,72.27519989013672
2018-12-17,71.03229522705078
2018-12-18,70.10506439208984
2018-12-19,70.0853500366211
2018-12-20,68.59584045410156
2018-12-21,67.1556625366211
2018-12-24,65.38009643554688
2018-12-26,69.02000427246094
2018-12-27,69.2074203491211
2018-12-28,67.57981872558594
2018-12-31,69.29619598388672
2019-01-02,69.89790344238281
2019-01-03,68.53665924072266
2019-01-04,70.28262329101562
2019-01-07,69.61185455322266
2019-01-08,70.0360107421875
2019-01-09,71.31836700439453
2019-01-10,72.11735534667969
2019-01-11,72.4922103881836
2019-01-14,71.55510711669922
2019-01-15,70.19384765625
2019-01-16,70.97311401367188
2019-01-17,73.22216033935547
2019-01-18,74.62287902832031
2019-01-22,70.97311401367188
2019-01-23,69.29619598388672
2019-01-24,70.06560516357422
2019-01-25,67.60941314697266
2019-01-28,66.3862533569336
2019-01-29,67.96453094482422
2019-01-30,67.4713134765625
2019-01-31,68.22100067138672
2019-02-01,69.07917785644531
2019-02-04,70.2530288696289
2019-02-05,71.69319915771484
2019-02-06,71.70307159423828
2019-02-07,72.40457916259766
2019-02-08,72.52315521240234
2019-02-11,72.9776611328125
2019-02-12,69.71707916259766
2019-02-13,72.49351501464844
2019-02-14,71.18928527832031
2019-02-15,74.02499389648438
2019-02-19,73.67918395996094
2019-02-20,74.1830825805664
2019-02-21,72.70100402832031
2019-02-22,72.48363494873047
2019-02-25,77.12748718261719
2019-02-26,73.07646179199219
2019-02-27,74.40045928955078
2019-02-28,72.38483428955078
2019-03-01,71.55486297607422
2019-03-04,72.76028442382812
2019-03-05,72.17733764648438
2019-03-06,68.18560028076172
2019-03-07,68.89700317382812
2019-03-08,69.28234100341797
2019-03-11,70.26052856445312
2019-03-12,70.9323959350586
2019-03-13,71.60427856445312
2019-03-14,71.39677429199219
2019-03-15,70.27040100097656
2019-03-18,71.23867797851562
2019-03-19,71.47581481933594
2019-03-20,71.61415100097656
2019-03-21,72.987548828125
2019-03-22,69.21318054199219
2019-03-25,69.18353271484375
2019-03-26,71.3177261352539
2019-03-27,71.12998962402344
2019-03-28,72.07852172851562
2019-03-29,72.8393325805664
2019-04-01,73.77798461914062
2019-04-02,73.86690521240234
2019-04-03,74.08428192138672
2019-04-04,75.171142578125
2019-04-05,75.3292236328125
2019-04-08,74.5190200805664
2019-04-09,73.06657409667969
2019-04-10,73.47169494628906
2019-04-11,74.05463409423828
2019-04-12,75.86277770996094
2019-04-15,74.74627685546875
2019-04-16,76.05050659179688
2019-04-17,76.1394271850586
2019-04-18,76.99903869628906
2019-04-22,75.58612823486328
2019-04-23,75.82324981689453
2019-04-24,75.66516876220703
2019-04-25,70.60633087158203
2019-04-26,72.35518646240234
2019-04-29,72.93814086914062
2019-04-30,73.18515014648438
2019-05-01,74.21272277832031
2019-05-02,74.08428192138672
2019-05-03,74.22260284423828
2019-05-06,73.36299896240234
2019-05-07,72.04888916015625
2019-05-08,71.39677429199219
2019-05-09,70.8029556274414
2019-05-10,72.28750610351562
2019-05-13,69.76376342773438
2019-05-14,68.82355499267578
2019-05-15,67.68540954589844
2019-05-16,67.62602996826172
2019-05-17,65.22106170654297
2019-05-20,63.71670913696289
2019-05-21,63.99383544921875
2019-05-22,64.66683197021484
2019-05-23,62.70722579956055
2019-05-24,64.78559875488281
2019-05-28,65.30023956298828
2019-05-29,63.677127838134766
2019-05-30,63.053627014160156
2019-05-31,61.73733139038086
2019-06-03,62.66763687133789
2019-06-04,65.28044128417969
2019-06-05,66.666015625
2019-06-06,66.51756286621094
2019-06-07,66.67591857910156
2019-06-10,67.3192138671875
2019-06-11,67.74478912353516
2019-06-12,67.49736022949219
2019-06-13,68.31880950927734
2019-06-14,67.29943084716797
2019-06-17,67.34891510009766
2019-06-18,69.13036346435547
2019-06-19,70.13986206054688
2019-06-20,71.54522705078125
2019-06-21,72.01039123535156
2019-06-24,67.41819763183594
2019-06-25,67.77448272705078
2019-06-26,67.91304779052734
2019-06-27,68.3583984375
2019-06-28,71.02069091796875
2019-07-01,72.60420989990234
2019-07-02,72.70317077636719
2019-07-03,72.77245330810547
2019-07-05,72.98027801513672
2019-07-08,73.09905242919922
2019-07-09,71.5254135131836
2019-07-10,69.21944427490234
2019-07-11,69.08087921142578
2019-07-12,71.29779052734375
2019-07-15,70.48625946044922
2019-07-16,71.75306701660156
2019-07-17,69.96171569824219
2019-07-18,68.82355499267578
2019-07-19,69.33820343017578
2019-07-22,69.72417449951172
2019-07-23,71.23841857910156
2019-07-24,72.24791717529297
2019-07-25,70.98109436035156
2019-07-26,71.099853515625
2019-07-29,70.36749267578125
2019-07-30,77.01824951171875
2019-07-31,76.87969207763672
2019-08-01,75.17741394042969
2019-08-02,74.56379699707031
2019-08-05,71.75306701660156
2019-08-06,72.3963623046875
2019-08-07,74.53411102294922
2019-08-08,71.20341491699219
2019-08-09,68.17010498046875
2019-08-12,67.59517669677734
2019-08-13,66.49485778808594
2019-08-14,63.68954086303711
2019-08-15,61.7664680480957
2019-08-16,66.03886413574219
2019-08-19,67.5059585571289
2019-08-20,67.40682983398438
2019-08-21,68.20976257324219
2019-08-22,67.6645736694336
2019-08-23,65.47384643554688
2019-08-26,65.44409942626953
2019-08-27,65.36480712890625
2019-08-28,65.65228271484375
2019-08-29,66.96076202392578
2019-08-30,68.60627746582031
2019-09-03,65.2359390258789
2019-09-04,65.7216567993164
2019-09-05,67.39691925048828
2019-09-06,67.67447662353516
2019-09-09,69.76606750488281
2019-09-10,71.6197509765625
2019-09-11,73.81048583984375
2019-09-12,74.14751434326172
2019-09-13,74.52420806884766
2019-09-16,75.52538299560547
2019-09-17,75.06941223144531
2019-09-18,73.99882507324219
2019-09-19,73.11659240722656
2019-09-20,73.38423156738281
2019-09-23,73.205810546875
2019-09-24,71.49089050292969
2019-09-25,72.36322021484375
2019-09-26,71.30254364013672
2019-09-27,71.37193298339844
2019-09-30,71.233154296875
2019-10-01,67.78350830078125
2019-10-02,65.50357818603516
2019-10-03,65.50357818603516
2019-10-04,64.9187240600586
2019-10-07,64.4627456665039
2019-10-08,63.11459732055664
2019-10-09,63.035301208496094
2019-10-10,64.39334869384766
2019-10-11,66.0289535522461
2019-10-14,66.07852172851562
2019-10-15,67.18875122070312
2019-10-16,67.57534790039062
2019-10-17,69.07217407226562
2019-10-18,68.81443786621094
2019-10-21,68.6657485961914
2019-10-22,69.92467498779297
2019-10-23,69.90483856201172
2019-10-24,69.14156341552734
2019-10-25,69.88501739501953
2019-10-28,69.3893814086914
2019-10-29,69.37946319580078
2019-10-30,67.7042236328125
2019-10-31,68.76487731933594
2019-11-01,74.0384750366211
2019-11-04,76.6950912475586
2019-11-05,76.99247741699219
2019-11-06,77.24029541015625
2019-11-07,77.91436767578125
2019-11-08,78.16217803955078
2019-11-11,77.90444946289062
2019-11-12,77.75576782226562
2019-11-13,77.72602844238281
2019-11-14,77.97422790527344
2019-11-15,79.23507690429688
2019-11-18,78.30184936523438
2019-11-19,78.59967803955078
2019-11-20,78.39119720458984
2019-11-21,78.81809997558594
2019-11-22,79.26486206054688
2019-11-25,80.38671875
2019-11-26,79.53290557861328
2019-11-27,78.52025604248047
2019-11-29,78.0040054321289
2019-12-02,77.03105926513672
2019-12-03,75.8396987915039
2019-12-04,75.92906188964844
2019-12-05,75.94892120361328
2019-12-06,76.67366027832031
2019-12-09,74.46965026855469
2019-12-10,73.94346618652344
2019-12-11,74.36043548583984
2019-12-12,74.59871673583984
2019-12-13,74.61857604980469
2019-12-16,74.2214584350586
2019-12-17,73.88389587402344
2019-12-18,74.23137664794922
2019-12-19,75.55179595947266
2019-12-20,75.85957336425781
2019-12-23,77.29911804199219
2019-12-24,77.07077026367188
2019-12-26,77.6168212890625
2019-12-27,77.9841537475586
2019-12-30,77.0409927368164
2019-12-31,77.23955535888672
