Date,WCC
2007-12-31,39.63999938964844
2008-01-02,39.349998474121094
2008-01-03,38.779998779296875
2008-01-04,37.7400016784668
2008-01-07,37.790000915527344
2008-01-08,35.56999969482422
2008-01-09,35.400001525878906
2008-01-10,35.38999938964844
2008-01-11,34.2400016784668
2008-01-14,35.40999984741211
2008-01-15,35.189998626708984
2008-01-16,34.959999084472656
2008-01-17,33.83000183105469
2008-01-18,32.88999938964844
2008-01-22,32.93000030517578
2008-01-23,34.45000076293945
2008-01-24,35.720001220703125
2008-01-25,35.11000061035156
2008-01-28,35.7400016784668
2008-01-29,36.380001068115234
2008-01-30,36.5
2008-01-31,42.2400016784668
2008-02-01,41.369998931884766
2008-02-04,40.29999923706055
2008-02-05,39.810001373291016
2008-02-06,39.08000183105469
2008-02-07,40.029998779296875
2008-02-08,40.0
2008-02-11,40.220001220703125
2008-02-12,40.380001068115234
2008-02-13,41.279998779296875
2008-02-14,40.16999816894531
2008-02-15,39.939998626708984
2008-02-19,41.08000183105469
2008-02-20,42.41999816894531
2008-02-21,41.709999084472656
2008-02-22,41.97999954223633
2008-02-25,42.779998779296875
2008-02-26,43.189998626708984
2008-02-27,42.43000030517578
2008-02-28,41.709999084472656
2008-02-29,40.0
2008-03-03,40.47999954223633
2008-03-04,39.470001220703125
2008-03-05,39.599998474121094
2008-03-06,38.2599983215332
2008-03-07,36.7400016784668
2008-03-10,36.0
2008-03-11,36.40999984741211
2008-03-12,35.599998474121094
2008-03-13,36.29999923706055
2008-03-14,35.54999923706055
2008-03-17,34.5
2008-03-18,35.470001220703125
2008-03-19,35.84000015258789
2008-03-20,35.790000915527344
2008-03-24,36.65999984741211
2008-03-25,37.54999923706055
2008-03-26,37.29999923706055
2008-03-27,36.45000076293945
2008-03-28,36.04999923706055
2008-03-31,36.4900016784668
2008-04-01,37.70000076293945
2008-04-02,37.7400016784668
2008-04-03,38.470001220703125
2008-04-04,39.2400016784668
2008-04-07,38.369998931884766
2008-04-08,37.939998626708984
2008-04-09,37.20000076293945
2008-04-10,37.459999084472656
2008-04-11,37.09000015258789
2008-04-14,38.040000915527344
2008-04-15,37.369998931884766
2008-04-16,38.849998474121094
2008-04-17,38.9900016784668
2008-04-18,40.18000030517578
2008-04-21,40.95000076293945
2008-04-22,39.810001373291016
2008-04-23,39.06999969482422
2008-04-24,37.150001525878906
2008-04-25,37.75
2008-04-28,36.869998931884766
2008-04-29,37.68000030517578
2008-04-30,37.209999084472656
2008-05-01,38.63999938964844
2008-05-02,39.650001525878906
2008-05-05,40.38999938964844
2008-05-06,41.04999923706055
2008-05-07,39.75
2008-05-08,40.459999084472656
2008-05-09,40.380001068115234
2008-05-12,41.27000045776367
2008-05-13,42.18000030517578
2008-05-14,42.540000915527344
2008-05-15,43.220001220703125
2008-05-16,44.18000030517578
2008-05-19,44.16999816894531
2008-05-20,44.11000061035156
2008-05-21,43.66999816894531
2008-05-22,43.810001373291016
2008-05-23,41.810001373291016
2008-05-27,43.4900016784668
2008-05-28,43.54999923706055
2008-05-29,44.060001373291016
2008-05-30,44.310001373291016
2008-06-02,44.869998931884766
2008-06-03,45.09000015258789
2008-06-04,45.720001220703125
2008-06-05,46.11000061035156
2008-06-06,44.040000915527344
2008-06-09,43.29999923706055
2008-06-10,43.40999984741211
2008-06-11,41.83000183105469
2008-06-12,41.400001525878906
2008-06-13,43.33000183105469
2008-06-16,43.130001068115234
2008-06-17,42.18000030517578
2008-06-18,41.97999954223633
2008-06-19,43.0
2008-06-20,42.18000030517578
2008-06-23,42.779998779296875
2008-06-24,42.2400016784668
2008-06-25,42.47999954223633
2008-06-26,40.95000076293945
2008-06-27,40.25
2008-06-30,40.040000915527344
2008-07-01,38.900001525878906
2008-07-02,36.880001068115234
2008-07-03,36.11000061035156
2008-07-07,36.11000061035156
2008-07-08,35.79999923706055
2008-07-09,35.18000030517578
2008-07-10,35.290000915527344
2008-07-11,35.119998931884766
2008-07-14,34.61000061035156
2008-07-15,33.83000183105469
2008-07-16,34.29999923706055
2008-07-17,35.380001068115234
2008-07-18,35.2599983215332
2008-07-21,36.619998931884766
2008-07-22,37.470001220703125
2008-07-23,37.70000076293945
2008-07-24,35.150001525878906
2008-07-25,36.529998779296875
2008-07-28,35.939998626708984
2008-07-29,37.41999816894531
2008-07-30,38.33000183105469
2008-07-31,37.650001525878906
2008-08-01,37.599998474121094
2008-08-04,36.61000061035156
2008-08-05,36.88999938964844
2008-08-06,37.470001220703125
2008-08-07,37.52000045776367
2008-08-08,38.540000915527344
2008-08-11,38.7400016784668
2008-08-12,38.25
2008-08-13,37.04999923706055
2008-08-14,37.25
2008-08-15,38.0
2008-08-18,38.0
2008-08-19,37.81999969482422
2008-08-20,38.2599983215332
2008-08-21,37.939998626708984
2008-08-22,38.27000045776367
2008-08-25,37.36000061035156
2008-08-26,37.20000076293945
2008-08-27,37.459999084472656
2008-08-28,38.15999984741211
2008-08-29,38.439998626708984
2008-09-02,38.56999969482422
2008-09-03,38.380001068115234
2008-09-04,37.93000030517578
2008-09-05,38.0
2008-09-08,40.0099983215332
2008-09-09,37.540000915527344
2008-09-10,38.38999938964844
2008-09-11,38.40999984741211
2008-09-12,39.369998931884766
2008-09-15,37.18000030517578
2008-09-16,36.38999938964844
2008-09-17,35.09000015258789
2008-09-18,34.220001220703125
2008-09-19,37.11000061035156
2008-09-22,35.029998779296875
2008-09-23,35.209999084472656
2008-09-24,35.02000045776367
2008-09-25,35.900001525878906
2008-09-26,34.939998626708984
2008-09-29,31.979999542236328
2008-09-30,32.18000030517578
2008-10-01,30.479999542236328
2008-10-02,28.450000762939453
2008-10-03,27.43000030517578
2008-10-06,26.670000076293945
2008-10-07,24.579999923706055
2008-10-08,24.030000686645508
2008-10-09,20.399999618530273
2008-10-10,22.5
2008-10-13,23.450000762939453
2008-10-14,20.979999542236328
2008-10-15,18.3799991607666
2008-10-16,19.799999237060547
2008-10-17,20.040000915527344
2008-10-20,20.639999389648438
2008-10-21,19.3799991607666
2008-10-22,16.5
2008-10-23,17.0
2008-10-24,16.3799991607666
2008-10-27,15.609999656677246
2008-10-28,17.270000457763672
2008-10-29,17.770000457763672
2008-10-30,18.719999313354492
2008-10-31,19.8799991607666
2008-11-03,20.510000228881836
2008-11-04,19.690000534057617
2008-11-05,18.610000610351562
2008-11-06,16.969999313354492
2008-11-07,17.770000457763672
2008-11-10,17.1299991607666
2008-11-11,16.639999389648438
2008-11-12,14.739999771118164
2008-11-13,17.139999389648438
2008-11-14,16.549999237060547
2008-11-17,15.920000076293945
2008-11-18,15.300000190734863
2008-11-19,14.039999961853027
2008-11-20,11.930000305175781
2008-11-21,11.890000343322754
2008-11-24,12.289999961853027
2008-11-25,12.579999923706055
2008-11-26,14.699999809265137
2008-11-28,14.789999961853027
2008-12-01,13.420000076293945
2008-12-02,14.529999732971191
2008-12-03,15.6899995803833
2008-12-04,15.140000343322754
2008-12-05,15.899999618530273
2008-12-08,17.329999923706055
2008-12-09,16.90999984741211
2008-12-10,17.329999923706055
2008-12-11,16.0
2008-12-12,16.729999542236328
2008-12-15,16.959999084472656
2008-12-16,18.6299991607666
2008-12-17,18.309999465942383
2008-12-18,17.260000228881836
2008-12-19,17.56999969482422
2008-12-22,16.780000686645508
2008-12-23,16.5
2008-12-24,16.920000076293945
2008-12-26,17.510000228881836
2008-12-29,16.75
2008-12-30,18.1200008392334
2008-12-31,19.229999542236328
2009-01-02,19.5
2009-01-05,19.950000762939453
2009-01-06,20.959999084472656
2009-01-07,19.43000030517578
2009-01-08,20.360000610351562
2009-01-09,20.5
2009-01-12,19.0
2009-01-13,18.719999313354492
2009-01-14,17.729999542236328
2009-01-15,18.200000762939453
2009-01-16,18.079999923706055
2009-01-20,16.6200008392334
2009-01-21,18.280000686645508
2009-01-22,18.510000228881836
2009-01-23,17.649999618530273
2009-01-26,17.520000457763672
2009-01-27,17.1299991607666
2009-01-28,18.6200008392334
2009-01-29,18.729999542236328
2009-01-30,18.420000076293945
2009-02-02,18.649999618530273
2009-02-03,19.15999984741211
2009-02-04,19.450000762939453
2009-02-05,20.530000686645508
2009-02-06,21.75
2009-02-09,21.43000030517578
2009-02-10,20.56999969482422
2009-02-11,20.639999389648438
2009-02-12,20.559999465942383
2009-02-13,20.93000030517578
2009-02-17,19.25
2009-02-18,18.899999618530273
2009-02-19,17.8799991607666
2009-02-20,17.809999465942383
2009-02-23,16.780000686645508
2009-02-24,17.559999465942383
2009-02-25,17.09000015258789
2009-02-26,16.459999084472656
2009-02-27,16.600000381469727
2009-03-02,15.40999984741211
2009-03-03,15.130000114440918
2009-03-04,15.680000305175781
2009-03-05,14.8100004196167
2009-03-06,14.270000457763672
2009-03-09,13.420000076293945
2009-03-10,13.699999809265137
2009-03-11,14.15999984741211
2009-03-12,15.859999656677246
2009-03-13,15.800000190734863
2009-03-16,15.1899995803833
2009-03-17,16.270000457763672
2009-03-18,17.110000610351562
2009-03-19,16.969999313354492
2009-03-20,16.1200008392334
2009-03-23,17.780000686645508
2009-03-24,18.06999969482422
2009-03-25,18.229999542236328
2009-03-26,19.479999542236328
2009-03-27,19.670000076293945
2009-03-30,17.68000030517578
2009-03-31,18.1200008392334
2009-04-01,19.290000915527344
2009-04-02,20.40999984741211
2009-04-03,21.329999923706055
2009-04-06,20.360000610351562
2009-04-07,19.420000076293945
2009-04-08,20.010000228881836
2009-04-09,21.920000076293945
2009-04-13,21.889999389648438
2009-04-14,20.59000015258789
2009-04-15,21.68000030517578
2009-04-16,23.389999389648438
2009-04-17,24.1299991607666
2009-04-20,21.899999618530273
2009-04-21,23.110000610351562
2009-04-22,24.25
2009-04-23,23.8799991607666
2009-04-24,25.90999984741211
2009-04-27,25.350000381469727
2009-04-28,24.43000030517578
2009-04-29,26.059999465942383
2009-04-30,26.0
2009-05-01,24.93000030517578
2009-05-04,26.860000610351562
2009-05-05,26.799999237060547
2009-05-06,25.809999465942383
2009-05-07,25.18000030517578
2009-05-08,27.030000686645508
2009-05-11,26.200000762939453
2009-05-12,24.8799991607666
2009-05-13,23.65999984741211
2009-05-14,24.690000534057617
2009-05-15,24.979999542236328
2009-05-18,26.079999923706055
2009-05-19,26.709999084472656
2009-05-20,25.360000610351562
2009-05-21,25.350000381469727
2009-05-22,25.020000457763672
2009-05-26,26.790000915527344
2009-05-27,26.200000762939453
2009-05-28,26.709999084472656
2009-05-29,26.729999542236328
2009-06-01,27.729999542236328
2009-06-02,27.3700008392334
2009-06-03,27.1200008392334
2009-06-04,28.420000076293945
2009-06-05,28.139999389648438
2009-06-08,27.889999389648438
2009-06-09,27.56999969482422
2009-06-10,27.440000534057617
2009-06-11,26.780000686645508
2009-06-12,27.25
2009-06-15,26.3799991607666
2009-06-16,25.709999084472656
2009-06-17,25.200000762939453
2009-06-18,25.06999969482422
2009-06-19,24.739999771118164
2009-06-22,23.469999313354492
2009-06-23,22.889999389648438
2009-06-24,24.09000015258789
2009-06-25,24.290000915527344
2009-06-26,24.739999771118164
2009-06-29,25.350000381469727
2009-06-30,25.040000915527344
2009-07-01,25.3700008392334
2009-07-02,24.190000534057617
2009-07-06,23.809999465942383
2009-07-07,23.190000534057617
2009-07-08,23.040000915527344
2009-07-09,23.450000762939453
2009-07-10,23.09000015258789
2009-07-13,24.040000915527344
2009-07-14,23.760000228881836
2009-07-15,25.139999389648438
2009-07-16,25.709999084472656
2009-07-17,25.139999389648438
2009-07-20,26.59000015258789
2009-07-21,26.760000228881836
2009-07-22,26.649999618530273
2009-07-23,25.969999313354492
2009-07-24,25.510000228881836
2009-07-27,25.229999542236328
2009-07-28,25.139999389648438
2009-07-29,24.389999389648438
2009-07-30,23.969999313354492
2009-07-31,24.690000534057617
2009-08-03,25.639999389648438
2009-08-04,25.579999923706055
2009-08-05,25.31999969482422
2009-08-06,24.270000457763672
2009-08-07,24.81999969482422
2009-08-10,24.219999313354492
2009-08-11,23.329999923706055
2009-08-12,23.450000762939453
2009-08-13,23.239999771118164
2009-08-14,22.309999465942383
2009-08-17,22.049999237060547
2009-08-18,22.489999771118164
2009-08-19,22.469999313354492
2009-08-20,23.190000534057617
2009-08-21,24.329999923706055
2009-08-24,24.3799991607666
2009-08-25,24.31999969482422
2009-08-26,24.329999923706055
2009-08-27,24.59000015258789
2009-08-28,24.959999084472656
2009-08-31,24.030000686645508
2009-09-01,24.0
2009-09-02,23.600000381469727
2009-09-03,23.799999237060547
2009-09-04,24.34000015258789
2009-09-08,24.59000015258789
2009-09-09,25.34000015258789
2009-09-10,25.850000381469727
2009-09-11,26.6299991607666
2009-09-14,27.520000457763672
2009-09-15,28.31999969482422
2009-09-16,28.989999771118164
2009-09-17,28.549999237060547
2009-09-18,29.18000030517578
2009-09-21,29.309999465942383
2009-09-22,29.56999969482422
2009-09-23,29.18000030517578
2009-09-24,28.270000457763672
2009-09-25,27.520000457763672
2009-09-28,28.760000228881836
2009-09-29,28.899999618530273
2009-09-30,28.799999237060547
2009-10-01,27.549999237060547
2009-10-02,27.15999984741211
2009-10-05,27.68000030517578
2009-10-06,28.100000381469727
2009-10-07,28.1299991607666
2009-10-08,29.0
2009-10-09,29.15999984741211
2009-10-12,28.610000610351562
2009-10-13,28.280000686645508
2009-10-14,28.5
2009-10-15,29.25
2009-10-16,28.75
2009-10-19,29.520000457763672
2009-10-20,29.59000015258789
2009-10-21,29.479999542236328
2009-10-22,30.139999389648438
2009-10-23,27.600000381469727
2009-10-26,26.610000610351562
2009-10-27,26.440000534057617
2009-10-28,25.690000534057617
2009-10-29,26.559999465942383
2009-10-30,25.559999465942383
2009-11-02,25.709999084472656
2009-11-03,26.719999313354492
2009-11-04,26.309999465942383
2009-11-05,26.940000534057617
2009-11-06,26.920000076293945
2009-11-09,27.479999542236328
2009-11-10,27.1200008392334
2009-11-11,27.299999237060547
2009-11-12,27.25
2009-11-13,27.59000015258789
2009-11-16,28.530000686645508
2009-11-17,28.06999969482422
2009-11-18,27.799999237060547
2009-11-19,27.170000076293945
2009-11-20,26.760000228881836
2009-11-23,27.030000686645508
2009-11-24,26.729999542236328
2009-11-25,26.639999389648438
2009-11-27,25.8700008392334
2009-11-30,26.100000381469727
2009-12-01,26.34000015258789
2009-12-02,26.350000381469727
2009-12-03,26.049999237060547
2009-12-04,26.65999984741211
2009-12-07,26.389999389648438
2009-12-08,26.280000686645508
2009-12-09,26.799999237060547
2009-12-10,26.610000610351562
2009-12-11,26.780000686645508
2009-12-14,27.34000015258789
2009-12-15,27.15999984741211
2009-12-16,27.350000381469727
2009-12-17,27.190000534057617
2009-12-18,27.600000381469727
2009-12-21,28.860000610351562
2009-12-22,28.100000381469727
2009-12-23,27.719999313354492
2009-12-24,27.8799991607666
2009-12-28,27.549999237060547
2009-12-29,27.739999771118164
2009-12-30,27.3700008392334
2009-12-31,27.010000228881836
2010-01-04,27.579999923706055
2010-01-05,27.780000686645508
2010-01-06,28.75
2010-01-07,29.170000076293945
2010-01-08,29.200000762939453
2010-01-11,29.68000030517578
2010-01-12,29.280000686645508
2010-01-13,29.850000381469727
2010-01-14,29.989999771118164
2010-01-15,30.049999237060547
2010-01-19,30.799999237060547
2010-01-20,31.1299991607666
2010-01-21,30.31999969482422
2010-01-22,29.670000076293945
2010-01-25,29.200000762939453
2010-01-26,28.5
2010-01-27,28.5
2010-01-28,28.850000381469727
2010-01-29,27.719999313354492
2010-02-01,27.670000076293945
2010-02-02,29.65999984741211
2010-02-03,29.06999969482422
2010-02-04,27.670000076293945
2010-02-05,28.040000915527344
2010-02-08,27.760000228881836
2010-02-09,27.969999313354492
2010-02-10,27.6200008392334
2010-02-11,27.549999237060547
2010-02-12,27.729999542236328
2010-02-16,28.329999923706055
2010-02-17,28.3799991607666
2010-02-18,29.079999923706055
2010-02-19,29.809999465942383
2010-02-22,29.3700008392334
2010-02-23,28.719999313354492
2010-02-24,28.8700008392334
2010-02-25,28.649999618530273
2010-02-26,28.889999389648438
2010-03-01,29.90999984741211
2010-03-02,30.459999084472656
2010-03-03,30.860000610351562
2010-03-04,30.84000015258789
2010-03-05,31.420000076293945
2010-03-08,32.290000915527344
2010-03-09,33.0
2010-03-10,32.63999938964844
2010-03-11,34.09000015258789
2010-03-12,34.130001068115234
2010-03-15,34.40999984741211
2010-03-16,34.70000076293945
2010-03-17,34.70000076293945
2010-03-18,35.15999984741211
2010-03-19,34.47999954223633
2010-03-22,34.439998626708984
2010-03-23,35.130001068115234
2010-03-24,34.52000045776367
2010-03-25,34.869998931884766
2010-03-26,35.189998626708984
2010-03-29,34.88999938964844
2010-03-30,34.650001525878906
2010-03-31,34.709999084472656
2010-04-01,35.369998931884766
2010-04-05,36.18000030517578
2010-04-06,36.31999969482422
2010-04-07,36.400001525878906
2010-04-08,36.0
2010-04-09,35.84000015258789
2010-04-12,36.650001525878906
2010-04-13,37.779998779296875
2010-04-14,37.9900016784668
2010-04-15,38.709999084472656
2010-04-16,38.459999084472656
2010-04-19,37.650001525878906
2010-04-20,37.90999984741211
2010-04-21,38.18000030517578
2010-04-22,41.25
2010-04-23,42.099998474121094
2010-04-26,41.77000045776367
2010-04-27,41.150001525878906
2010-04-28,41.66999816894531
2010-04-29,41.7599983215332
2010-04-30,40.619998931884766
2010-05-03,41.529998779296875
2010-05-04,40.02000045776367
2010-05-05,38.939998626708984
2010-05-06,37.58000183105469
2010-05-07,36.119998931884766
2010-05-10,38.65999984741211
2010-05-11,38.25
2010-05-12,39.630001068115234
2010-05-13,39.20000076293945
2010-05-14,37.900001525878906
2010-05-17,38.65999984741211
2010-05-18,38.7400016784668
2010-05-19,37.810001373291016
2010-05-20,35.79999923706055
2010-05-21,36.040000915527344
2010-05-24,35.83000183105469
2010-05-25,36.150001525878906
2010-05-26,36.61000061035156
2010-05-27,38.130001068115234
2010-05-28,37.400001525878906
2010-06-01,36.369998931884766
2010-06-02,37.38999938964844
2010-06-03,37.470001220703125
2010-06-04,35.4900016784668
2010-06-07,34.27000045776367
2010-06-08,33.25
2010-06-09,33.68000030517578
2010-06-10,35.779998779296875
2010-06-11,35.79999923706055
2010-06-14,35.9900016784668
2010-06-15,37.02000045776367
2010-06-16,38.43000030517578
2010-06-17,37.93000030517578
2010-06-18,38.349998474121094
2010-06-21,38.47999954223633
2010-06-22,36.93000030517578
2010-06-23,36.540000915527344
2010-06-24,35.709999084472656
2010-06-25,36.380001068115234
2010-06-28,35.72999954223633
2010-06-29,34.2400016784668
2010-06-30,33.66999816894531
2010-07-01,33.04999923706055
2010-07-02,32.83000183105469
2010-07-06,32.33000183105469
2010-07-07,34.220001220703125
2010-07-08,34.54999923706055
2010-07-09,34.72999954223633
2010-07-12,34.709999084472656
2010-07-13,35.41999816894531
2010-07-14,35.939998626708984
2010-07-15,36.380001068115234
2010-07-16,35.5
2010-07-19,35.31999969482422
2010-07-20,36.099998474121094
2010-07-21,36.599998474121094
2010-07-22,36.09000015258789
2010-07-23,35.849998474121094
2010-07-26,35.650001525878906
2010-07-27,35.189998626708984
2010-07-28,35.06999969482422
2010-07-29,35.83000183105469
2010-07-30,35.93000030517578
2010-08-02,36.380001068115234
2010-08-03,36.209999084472656
2010-08-04,36.439998626708984
2010-08-05,35.900001525878906
2010-08-06,35.45000076293945
2010-08-09,35.7599983215332
2010-08-10,36.0099983215332
2010-08-11,34.36000061035156
2010-08-12,34.54999923706055
2010-08-13,33.900001525878906
2010-08-16,33.61000061035156
2010-08-17,34.2599983215332
2010-08-18,34.63999938964844
2010-08-19,33.689998626708984
2010-08-20,33.56999969482422
2010-08-23,33.119998931884766
2010-08-24,32.27000045776367
2010-08-25,32.439998626708984
2010-08-26,31.8700008392334
2010-08-27,33.22999954223633
2010-08-30,32.43000030517578
2010-08-31,32.279998779296875
2010-09-01,33.9900016784668
2010-09-02,35.150001525878906
2010-09-03,35.810001373291016
2010-09-07,35.650001525878906
2010-09-08,35.90999984741211
2010-09-09,35.25
2010-09-10,35.40999984741211
2010-09-13,36.900001525878906
2010-09-14,37.279998779296875
2010-09-15,37.0
2010-09-16,36.599998474121094
2010-09-17,37.11000061035156
2010-09-20,38.5
2010-09-21,38.779998779296875
2010-09-22,38.380001068115234
2010-09-23,38.0099983215332
2010-09-24,38.93000030517578
2010-09-27,39.2599983215332
2010-09-28,40.20000076293945
2010-09-29,39.86000061035156
2010-09-30,39.290000915527344
2010-10-01,39.56999969482422
2010-10-04,39.209999084472656
2010-10-05,39.79999923706055
2010-10-06,39.45000076293945
2010-10-07,39.27000045776367
2010-10-08,39.75
2010-10-11,39.5
2010-10-12,39.33000183105469
2010-10-13,39.619998931884766
2010-10-14,39.709999084472656
2010-10-15,40.02000045776367
2010-10-18,40.0
2010-10-19,39.869998931884766
2010-10-20,40.630001068115234
2010-10-21,42.709999084472656
2010-10-22,43.720001220703125
2010-10-25,44.5099983215332
2010-10-26,43.84000015258789
2010-10-27,43.15999984741211
2010-10-28,43.0
2010-10-29,42.81999969482422
2010-11-01,42.7400016784668
2010-11-02,44.439998626708984
2010-11-03,44.5
2010-11-04,45.459999084472656
2010-11-05,46.630001068115234
2010-11-08,46.25
2010-11-09,45.869998931884766
2010-11-10,46.040000915527344
2010-11-11,45.970001220703125
2010-11-12,44.63999938964844
2010-11-15,45.15999984741211
2010-11-16,43.88999938964844
2010-11-17,46.43000030517578
2010-11-18,47.61000061035156
2010-11-19,47.380001068115234
2010-11-22,47.939998626708984
2010-11-23,47.290000915527344
2010-11-24,48.56999969482422
2010-11-26,48.599998474121094
2010-11-29,47.88999938964844
2010-11-30,47.720001220703125
2010-12-01,49.5
2010-12-02,50.650001525878906
2010-12-03,51.33000183105469
2010-12-06,51.09000015258789
2010-12-07,51.25
2010-12-08,50.540000915527344
2010-12-09,50.33000183105469
2010-12-10,50.630001068115234
2010-12-13,50.04999923706055
2010-12-14,50.869998931884766
2010-12-15,50.790000915527344
2010-12-16,51.310001373291016
2010-12-17,52.2599983215332
2010-12-20,52.47999954223633
2010-12-21,52.93000030517578
2010-12-22,53.11000061035156
2010-12-23,52.77000045776367
2010-12-27,53.209999084472656
2010-12-28,53.20000076293945
2010-12-29,53.04999923706055
2010-12-30,52.97999954223633
2010-12-31,52.79999923706055
2011-01-03,53.25
2011-01-04,52.75
2011-01-05,53.08000183105469
2011-01-06,53.2400016784668
2011-01-07,52.900001525878906
2011-01-10,53.31999969482422
2011-01-11,54.349998474121094
2011-01-12,54.529998779296875
2011-01-13,54.599998474121094
2011-01-14,54.97999954223633
2011-01-18,55.099998474121094
2011-01-19,53.95000076293945
2011-01-20,54.52000045776367
2011-01-21,54.16999816894531
2011-01-24,54.91999816894531
2011-01-25,53.68000030517578
2011-01-26,54.33000183105469
2011-01-27,55.130001068115234
2011-01-28,54.38999938964844
2011-01-31,56.04999923706055
2011-02-01,57.79999923706055
2011-02-02,57.310001373291016
2011-02-03,56.84000015258789
2011-02-04,56.689998626708984
2011-02-07,57.2400016784668
2011-02-08,58.040000915527344
2011-02-09,58.5099983215332
2011-02-10,59.68000030517578
2011-02-11,59.88999938964844
2011-02-14,59.88999938964844
2011-02-15,59.34000015258789
2011-02-16,60.04999923706055
2011-02-17,60.16999816894531
2011-02-18,60.119998931884766
2011-02-22,57.459999084472656
2011-02-23,55.72999954223633
2011-02-24,55.40999984741211
2011-02-25,56.68000030517578
2011-02-28,58.220001220703125
2011-03-01,57.33000183105469
2011-03-02,57.790000915527344
2011-03-03,59.34000015258789
2011-03-04,59.599998474121094
2011-03-07,58.279998779296875
2011-03-08,59.54999923706055
2011-03-09,60.25
2011-03-10,58.7599983215332
2011-03-11,59.630001068115234
2011-03-14,59.459999084472656
2011-03-15,59.529998779296875
2011-03-16,58.849998474121094
2011-03-17,58.939998626708984
2011-03-18,59.5
2011-03-21,60.970001220703125
2011-03-22,60.38999938964844
2011-03-23,60.619998931884766
2011-03-24,61.27000045776367
2011-03-25,61.310001373291016
2011-03-28,61.08000183105469
2011-03-29,61.81999969482422
2011-03-30,61.7400016784668
2011-03-31,62.5
2011-04-01,63.29999923706055
2011-04-04,63.790000915527344
2011-04-05,63.41999816894531
2011-04-06,63.459999084472656
2011-04-07,61.40999984741211
2011-04-08,60.65999984741211
2011-04-11,60.41999816894531
2011-04-12,59.040000915527344
2011-04-13,59.41999816894531
2011-04-14,59.38999938964844
2011-04-15,59.95000076293945
2011-04-18,59.2400016784668
2011-04-19,58.61000061035156
2011-04-20,59.97999954223633
2011-04-21,60.790000915527344
2011-04-25,60.25
2011-04-26,60.849998474121094
2011-04-27,61.0099983215332
2011-04-28,61.56999969482422
2011-04-29,61.95000076293945
2011-05-02,60.959999084472656
2011-05-03,59.689998626708984
2011-05-04,58.16999816894531
2011-05-05,56.900001525878906
2011-05-06,57.40999984741211
2011-05-09,57.93000030517578
2011-05-10,58.56999969482422
2011-05-11,57.47999954223633
2011-05-12,55.79999923706055
2011-05-13,54.84000015258789
2011-05-16,54.869998931884766
2011-05-17,52.849998474121094
2011-05-18,53.63999938964844
2011-05-19,53.11000061035156
2011-05-20,53.779998779296875
2011-05-23,52.43000030517578
2011-05-24,52.75
2011-05-25,52.720001220703125
2011-05-26,53.77000045776367
2011-05-27,54.63999938964844
2011-05-31,55.599998474121094
2011-06-01,53.11000061035156
2011-06-02,53.4900016784668
2011-06-03,52.5099983215332
2011-06-06,51.5099983215332
2011-06-07,51.02000045776367
2011-06-08,50.869998931884766
2011-06-09,51.459999084472656
2011-06-10,50.81999969482422
2011-06-13,50.810001373291016
2011-06-14,52.970001220703125
2011-06-15,51.720001220703125
2011-06-16,52.130001068115234
2011-06-17,52.220001220703125
2011-06-20,52.849998474121094
2011-06-21,54.22999954223633
2011-06-22,53.310001373291016
2011-06-23,52.540000915527344
2011-06-24,51.75
2011-06-27,51.70000076293945
2011-06-28,51.79999923706055
2011-06-29,52.220001220703125
2011-06-30,54.09000015258789
2011-07-01,55.95000076293945
2011-07-05,55.349998474121094
2011-07-06,55.56999969482422
2011-07-07,55.630001068115234
2011-07-08,54.66999816894531
2011-07-11,53.20000076293945
2011-07-12,52.58000183105469
2011-07-13,53.150001525878906
2011-07-14,52.0099983215332
2011-07-15,51.7599983215332
2011-07-18,51.08000183105469
2011-07-19,53.08000183105469
2011-07-20,52.470001220703125
2011-07-21,55.400001525878906
2011-07-22,56.16999816894531
2011-07-25,56.810001373291016
2011-07-26,55.13999938964844
2011-07-27,52.27000045776367
2011-07-28,51.58000183105469
2011-07-29,50.689998626708984
2011-08-01,50.720001220703125
2011-08-02,47.81999969482422
2011-08-03,46.849998474121094
2011-08-04,42.900001525878906
2011-08-05,42.16999816894531
2011-08-08,37.20000076293945
2011-08-09,38.45000076293945
2011-08-10,36.650001525878906
2011-08-11,41.279998779296875
2011-08-12,41.90999984741211
2011-08-15,42.40999984741211
2011-08-16,41.27000045776367
2011-08-17,40.54999923706055
2011-08-18,38.02000045776367
2011-08-19,36.5099983215332
2011-08-22,36.560001373291016
2011-08-23,38.439998626708984
2011-08-24,39.40999984741211
2011-08-25,38.439998626708984
2011-08-26,40.400001525878906
2011-08-29,42.189998626708984
2011-08-30,43.04999923706055
2011-08-31,43.09000015258789
2011-09-01,42.5
2011-09-02,40.75
2011-09-06,40.2599983215332
2011-09-07,42.08000183105469
2011-09-08,40.099998474121094
2011-09-09,38.790000915527344
2011-09-12,38.9900016784668
2011-09-13,40.189998626708984
2011-09-14,42.45000076293945
2011-09-15,43.709999084472656
2011-09-16,43.20000076293945
2011-09-19,42.650001525878906
2011-09-20,41.790000915527344
2011-09-21,39.38999938964844
2011-09-22,36.04999923706055
2011-09-23,35.95000076293945
2011-09-26,36.900001525878906
2011-09-27,38.720001220703125
2011-09-28,36.02000045776367
2011-09-29,35.4900016784668
2011-09-30,33.54999923706055
2011-10-03,32.09000015258789
2011-10-04,33.470001220703125
2011-10-05,35.290000915527344
2011-10-06,35.900001525878906
2011-10-07,35.59000015258789
2011-10-10,37.72999954223633
2011-10-11,38.45000076293945
2011-10-12,39.630001068115234
2011-10-13,39.45000076293945
2011-10-14,40.75
2011-10-17,39.970001220703125
2011-10-18,41.369998931884766
2011-10-19,40.79999923706055
2011-10-20,43.66999816894531
2011-10-21,44.90999984741211
2011-10-24,47.61000061035156
2011-10-25,46.5
2011-10-26,47.130001068115234
2011-10-27,50.0
2011-10-28,49.61000061035156
2011-10-31,48.459999084472656
2011-11-01,46.720001220703125
2011-11-02,47.4900016784668
2011-11-03,49.36000061035156
2011-11-04,49.7400016784668
2011-11-07,49.41999816894531
2011-11-08,49.68000030517578
2011-11-09,47.83000183105469
2011-11-10,48.849998474121094
2011-11-11,50.4900016784668
2011-11-14,49.66999816894531
2011-11-15,49.400001525878906
2011-11-16,50.16999816894531
2011-11-17,48.95000076293945
2011-11-18,48.86000061035156
2011-11-21,48.380001068115234
2011-11-22,46.869998931884766
2011-11-23,45.34000015258789
2011-11-25,45.52000045776367
2011-11-28,47.77000045776367
2011-11-29,47.09000015258789
2011-11-30,50.959999084472656
2011-12-01,51.220001220703125
2011-12-02,51.869998931884766
2011-12-05,51.88999938964844
2011-12-06,52.18000030517578
2011-12-07,51.939998626708984
2011-12-08,50.41999816894531
2011-12-09,51.529998779296875
2011-12-12,51.13999938964844
2011-12-13,50.52000045776367
2011-12-14,48.599998474121094
2011-12-15,48.83000183105469
2011-12-16,49.22999954223633
2011-12-19,48.91999816894531
2011-12-20,51.650001525878906
2011-12-21,52.349998474121094
2011-12-22,53.70000076293945
2011-12-23,53.84000015258789
2011-12-27,53.72999954223633
2011-12-28,52.529998779296875
2011-12-29,53.61000061035156
2011-12-30,53.0099983215332
2012-01-03,54.310001373291016
2012-01-04,53.849998474121094
2012-01-05,54.5099983215332
2012-01-06,54.880001068115234
2012-01-09,55.7599983215332
2012-01-10,56.560001373291016
2012-01-11,56.61000061035156
2012-01-12,58.65999984741211
2012-01-13,57.33000183105469
2012-01-17,58.119998931884766
2012-01-18,57.900001525878906
2012-01-19,58.65999984741211
2012-01-20,57.880001068115234
2012-01-23,58.720001220703125
2012-01-24,58.709999084472656
2012-01-25,60.209999084472656
2012-01-26,63.970001220703125
2012-01-27,64.13999938964844
2012-01-30,63.52000045776367
2012-01-31,62.880001068115234
2012-02-01,64.37000274658203
2012-02-02,64.05000305175781
2012-02-03,67.04000091552734
2012-02-06,66.44000244140625
2012-02-07,65.73999786376953
2012-02-08,65.93000030517578
2012-02-09,66.19999694824219
2012-02-10,64.36000061035156
2012-02-13,64.66999816894531
2012-02-14,64.47000122070312
2012-02-15,64.63999938964844
2012-02-16,64.33000183105469
2012-02-17,66.01000213623047
2012-02-21,65.30999755859375
2012-02-22,65.31999969482422
2012-02-23,64.0
2012-02-24,64.83999633789062
2012-02-27,65.29000091552734
2012-02-28,62.880001068115234
2012-02-29,62.88999938964844
2012-03-01,64.08999633789062
2012-03-02,63.75
2012-03-05,63.939998626708984
2012-03-06,62.16999816894531
2012-03-07,62.529998779296875
2012-03-08,63.90999984741211
2012-03-09,65.54000091552734
2012-03-12,65.80999755859375
2012-03-13,66.93000030517578
2012-03-14,66.05000305175781
2012-03-15,67.1500015258789
2012-03-16,67.05000305175781
2012-03-19,66.55000305175781
2012-03-20,65.97000122070312
2012-03-21,65.70999908447266
2012-03-22,64.76000213623047
2012-03-23,65.12999725341797
2012-03-26,65.5999984741211
2012-03-27,66.20999908447266
2012-03-28,65.66999816894531
2012-03-29,65.27999877929688
2012-03-30,65.30999755859375
2012-04-02,66.0
2012-04-03,65.73999786376953
2012-04-04,64.79000091552734
2012-04-05,64.45999908447266
2012-04-09,62.88999938964844
2012-04-10,60.7599983215332
2012-04-11,61.150001525878906
2012-04-12,65.23999786376953
2012-04-13,64.76000213623047
2012-04-16,65.04000091552734
2012-04-17,65.5999984741211
2012-04-18,65.47000122070312
2012-04-19,64.94999694824219
2012-04-20,65.88999938964844
2012-04-23,65.16000366210938
2012-04-24,65.44999694824219
2012-04-25,66.55999755859375
2012-04-26,67.55000305175781
2012-04-27,67.43000030517578
2012-04-30,66.38999938964844
2012-05-01,66.83999633789062
2012-05-02,67.5999984741211
2012-05-03,65.54000091552734
2012-05-04,64.9000015258789
2012-05-07,64.12999725341797
2012-05-08,63.2599983215332
2012-05-09,62.220001220703125
2012-05-10,62.18000030517578
2012-05-11,61.119998931884766
2012-05-14,60.02000045776367
2012-05-15,59.7599983215332
2012-05-16,58.72999954223633
2012-05-17,56.63999938964844
2012-05-18,56.34000015258789
2012-05-21,58.77000045776367
2012-05-22,60.22999954223633
2012-05-23,61.58000183105469
2012-05-24,61.81999969482422
2012-05-25,60.970001220703125
2012-05-29,62.33000183105469
2012-05-30,60.86000061035156
2012-05-31,59.4900016784668
2012-06-01,55.790000915527344
2012-06-04,55.060001373291016
2012-06-05,55.91999816894531
2012-06-06,57.439998626708984
2012-06-07,57.720001220703125
2012-06-08,58.040000915527344
2012-06-11,56.09000015258789
2012-06-12,56.2599983215332
2012-06-13,53.9900016784668
2012-06-14,53.970001220703125
2012-06-15,53.33000183105469
2012-06-18,54.75
2012-06-19,56.630001068115234
2012-06-20,57.4900016784668
2012-06-21,55.09000015258789
2012-06-22,56.099998474121094
2012-06-25,53.91999816894531
2012-06-26,54.630001068115234
2012-06-27,54.40999984741211
2012-06-28,55.33000183105469
2012-06-29,57.54999923706055
2012-07-02,58.06999969482422
2012-07-03,60.5
2012-07-05,60.970001220703125
2012-07-06,59.16999816894531
2012-07-09,58.34000015258789
2012-07-10,56.65999984741211
2012-07-11,55.43000030517578
2012-07-12,56.439998626708984
2012-07-13,57.7400016784668
2012-07-16,54.0
2012-07-17,54.869998931884766
2012-07-18,57.0
2012-07-19,56.06999969482422
2012-07-20,54.5
2012-07-23,54.27000045776367
2012-07-24,52.56999969482422
2012-07-25,52.310001373291016
2012-07-26,54.06999969482422
2012-07-27,56.0099983215332
2012-07-30,55.91999816894531
2012-07-31,55.709999084472656
2012-08-01,54.9900016784668
2012-08-02,54.22999954223633
2012-08-03,57.2400016784668
2012-08-06,58.7599983215332
2012-08-07,61.08000183105469
2012-08-08,60.709999084472656
2012-08-09,60.83000183105469
2012-08-10,60.0
2012-08-13,59.63999938964844
2012-08-14,58.9900016784668
2012-08-15,59.29999923706055
2012-08-16,60.150001525878906
2012-08-17,60.9900016784668
2012-08-20,60.310001373291016
2012-08-21,60.310001373291016
2012-08-22,59.09000015258789
2012-08-23,59.349998474121094
2012-08-24,59.7599983215332
2012-08-27,59.02000045776367
2012-08-28,59.849998474121094
2012-08-29,58.84000015258789
2012-08-30,57.779998779296875
2012-08-31,57.779998779296875
2012-09-04,58.33000183105469
2012-09-05,57.560001373291016
2012-09-06,58.59000015258789
2012-09-07,59.4900016784668
2012-09-10,59.779998779296875
2012-09-11,60.7400016784668
2012-09-12,61.029998779296875
2012-09-13,61.72999954223633
2012-09-14,63.470001220703125
2012-09-17,61.849998474121094
2012-09-18,61.52000045776367
2012-09-19,62.4900016784668
2012-09-20,62.029998779296875
2012-09-21,60.939998626708984
2012-09-24,59.02000045776367
2012-09-25,57.0
2012-09-26,56.2400016784668
2012-09-27,56.279998779296875
2012-09-28,57.20000076293945
2012-10-01,57.720001220703125
2012-10-02,56.75
2012-10-03,57.65999984741211
2012-10-04,59.02000045776367
2012-10-05,59.5
2012-10-08,59.02000045776367
2012-10-09,57.84000015258789
2012-10-10,56.86000061035156
2012-10-11,57.0
2012-10-12,56.11000061035156
2012-10-15,56.4900016784668
2012-10-16,56.33000183105469
2012-10-17,57.16999816894531
2012-10-18,65.11000061035156
2012-10-19,63.5
2012-10-22,63.06999969482422
2012-10-23,63.15999984741211
2012-10-24,62.900001525878906
2012-10-25,63.150001525878906
2012-10-26,63.20000076293945
2012-10-31,64.87999725341797
2012-11-01,65.3499984741211
2012-11-02,64.88999938964844
2012-11-05,65.2699966430664
2012-11-06,66.75
2012-11-07,64.47000122070312
2012-11-08,62.939998626708984
2012-11-09,62.540000915527344
2012-11-12,62.369998931884766
2012-11-13,62.790000915527344
2012-11-14,61.130001068115234
2012-11-15,60.16999816894531
2012-11-16,61.47999954223633
2012-11-19,62.58000183105469
2012-11-20,62.709999084472656
2012-11-21,62.91999816894531
2012-11-23,63.689998626708984
2012-11-26,62.869998931884766
2012-11-27,63.4900016784668
2012-11-28,63.459999084472656
2012-11-29,64.54000091552734
2012-11-30,64.6500015258789
2012-12-03,63.970001220703125
2012-12-04,64.06999969482422
2012-12-05,63.33000183105469
2012-12-06,62.95000076293945
2012-12-07,64.51000213623047
2012-12-10,64.55000305175781
2012-12-11,64.27999877929688
2012-12-12,63.83000183105469
2012-12-13,62.34000015258789
2012-12-14,62.40999984741211
2012-12-17,64.0
2012-12-18,65.91000366210938
2012-12-19,67.13999938964844
2012-12-20,67.20999908447266
2012-12-21,67.23999786376953
2012-12-24,66.79000091552734
2012-12-26,66.5199966430664
2012-12-27,66.3499984741211
2012-12-28,65.25
2012-12-31,67.43000030517578
2013-01-02,69.19999694824219
2013-01-03,68.79000091552734
2013-01-04,69.0
2013-01-07,69.11000061035156
2013-01-08,69.66999816894531
2013-01-09,70.0
2013-01-10,67.43000030517578
2013-01-11,67.93000030517578
2013-01-14,67.22000122070312
2013-01-15,68.62000274658203
2013-01-16,67.79000091552734
2013-01-17,68.62999725341797
2013-01-18,69.37000274658203
2013-01-22,72.2300033569336
2013-01-23,72.83999633789062
2013-01-24,73.2699966430664
2013-01-25,73.87999725341797
2013-01-28,73.31999969482422
2013-01-29,73.13999938964844
2013-01-30,72.22000122070312
2013-01-31,72.93000030517578
2013-02-01,72.9000015258789
2013-02-04,70.80000305175781
2013-02-05,72.87000274658203
2013-02-06,73.16000366210938
2013-02-07,72.86000061035156
2013-02-08,73.7300033569336
2013-02-11,73.8499984741211
2013-02-12,74.5999984741211
2013-02-13,75.51000213623047
2013-02-14,75.91999816894531
2013-02-15,76.16000366210938
2013-02-19,75.56999969482422
2013-02-20,74.3499984741211
2013-02-21,72.1500015258789
2013-02-22,73.3499984741211
2013-02-25,71.04000091552734
2013-02-26,72.26000213623047
2013-02-27,74.12000274658203
2013-02-28,73.9000015258789
2013-03-01,73.51000213623047
2013-03-04,72.98999786376953
2013-03-05,75.4800033569336
2013-03-06,75.19000244140625
2013-03-07,76.33000183105469
2013-03-08,77.12999725341797
2013-03-11,77.2300033569336
2013-03-12,77.0
2013-03-13,77.12999725341797
2013-03-14,77.48999786376953
2013-03-15,77.18000030517578
2013-03-18,76.81999969482422
2013-03-19,75.54000091552734
2013-03-20,76.52999877929688
2013-03-21,74.51000213623047
2013-03-22,73.93000030517578
2013-03-25,73.56999969482422
2013-03-26,73.62000274658203
2013-03-27,72.16000366210938
2013-03-28,72.61000061035156
2013-04-01,71.19999694824219
2013-04-02,70.77999877929688
2013-04-03,69.86000061035156
2013-04-04,71.11000061035156
2013-04-05,70.48999786376953
2013-04-08,71.83000183105469
2013-04-09,71.16999816894531
2013-04-10,70.43000030517578
2013-04-11,71.19999694824219
2013-04-12,69.91999816894531
2013-04-15,66.2699966430664
2013-04-16,67.73999786376953
2013-04-17,67.68000030517578
2013-04-18,68.0999984741211
2013-04-19,68.76000213623047
2013-04-22,68.66000366210938
2013-04-23,68.93000030517578
2013-04-24,69.63999938964844
2013-04-25,70.20999908447266
2013-04-26,69.80000305175781
2013-04-29,70.30000305175781
2013-04-30,71.69000244140625
2013-05-01,68.0199966430664
2013-05-02,68.94999694824219
2013-05-03,70.41000366210938
2013-05-06,72.3499984741211
2013-05-07,73.73999786376953
2013-05-08,74.87000274658203
2013-05-09,74.66999816894531
2013-05-10,75.25
2013-05-13,75.0
2013-05-14,76.9800033569336
2013-05-15,77.05999755859375
2013-05-16,75.76000213623047
2013-05-17,77.6500015258789
2013-05-20,77.83000183105469
2013-05-21,77.70999908447266
2013-05-22,75.44999694824219
2013-05-23,74.36000061035156
2013-05-24,73.97000122070312
2013-05-28,74.16000366210938
2013-05-29,73.56999969482422
2013-05-30,73.7300033569336
2013-05-31,74.26000213623047
2013-06-03,74.0
2013-06-04,72.62999725341797
2013-06-05,71.23999786376953
2013-06-06,71.12999725341797
2013-06-07,71.77999877929688
2013-06-10,71.87000274658203
2013-06-11,71.01000213623047
2013-06-12,69.86000061035156
2013-06-13,70.98999786376953
2013-06-14,70.04000091552734
2013-06-17,69.72000122070312
2013-06-18,70.3499984741211
2013-06-19,68.69000244140625
2013-06-20,66.88999938964844
2013-06-21,66.19999694824219
2013-06-24,65.45999908447266
2013-06-25,67.25
2013-06-26,67.3499984741211
2013-06-27,68.86000061035156
2013-06-28,67.95999908447266
2013-07-01,67.9000015258789
2013-07-02,66.0
2013-07-03,65.62999725341797
2013-07-05,66.80000305175781
2013-07-08,68.01000213623047
2013-07-09,69.62000274658203
2013-07-10,69.27999877929688
2013-07-11,70.12999725341797
2013-07-12,69.79000091552734
2013-07-15,70.7699966430664
2013-07-16,70.29000091552734
2013-07-17,70.95999908447266
2013-07-18,72.26000213623047
2013-07-19,72.33000183105469
2013-07-22,71.7699966430664
2013-07-23,72.12999725341797
2013-07-24,71.11000061035156
2013-07-25,73.22000122070312
2013-07-26,74.47000122070312
2013-07-29,74.05000305175781
2013-07-30,74.86000061035156
2013-07-31,75.77999877929688
2013-08-01,77.0
2013-08-02,77.91999816894531
2013-08-05,77.51000213623047
2013-08-06,76.36000061035156
2013-08-07,74.56999969482422
2013-08-08,74.9800033569336
2013-08-09,74.8499984741211
2013-08-12,74.79000091552734
2013-08-13,75.13999938964844
2013-08-14,74.27999877929688
2013-08-15,73.77999877929688
2013-08-16,73.94000244140625
2013-08-19,73.3499984741211
2013-08-20,74.20999908447266
2013-08-21,73.93000030517578
2013-08-22,75.62000274658203
2013-08-23,74.80999755859375
2013-08-26,74.56999969482422
2013-08-27,73.45999908447266
2013-08-28,73.33000183105469
2013-08-29,74.0999984741211
2013-08-30,73.7699966430664
2013-09-03,74.05000305175781
2013-09-04,74.62000274658203
2013-09-05,75.44999694824219
2013-09-06,75.5199966430664
2013-09-09,76.72000122070312
2013-09-10,78.38999938964844
2013-09-11,78.51000213623047
2013-09-12,78.3499984741211
2013-09-13,77.48999786376953
2013-09-16,77.33999633789062
2013-09-17,77.81999969482422
2013-09-18,79.02999877929688
2013-09-19,78.7699966430664
2013-09-20,77.27999877929688
2013-09-23,77.1500015258789
2013-09-24,77.3499984741211
2013-09-25,77.9000015258789
2013-09-26,78.08000183105469
2013-09-27,77.33999633789062
2013-09-30,76.52999877929688
2013-10-01,78.20999908447266
2013-10-02,78.4000015258789
2013-10-03,76.86000061035156
2013-10-04,77.62999725341797
2013-10-07,76.91000366210938
2013-10-08,74.77999877929688
2013-10-09,73.77999877929688
2013-10-10,75.88999938964844
2013-10-11,76.29000091552734
2013-10-14,75.91999816894531
2013-10-15,74.4800033569336
2013-10-16,75.91000366210938
2013-10-17,76.0999984741211
2013-10-18,77.26000213623047
2013-10-21,77.41000366210938
2013-10-22,76.97000122070312
2013-10-23,76.83000183105469
2013-10-24,77.16000366210938
2013-10-25,79.81999969482422
2013-10-28,80.83000183105469
2013-10-29,83.87000274658203
2013-10-30,85.0199966430664
2013-10-31,85.45999908447266
2013-11-01,85.41999816894531
2013-11-04,86.51000213623047
2013-11-05,84.25
2013-11-06,83.61000061035156
2013-11-07,81.91000366210938
2013-11-08,83.16999816894531
2013-11-11,84.80999755859375
2013-11-12,85.4000015258789
2013-11-13,85.37999725341797
2013-11-14,85.30000305175781
2013-11-15,85.4800033569336
2013-11-18,85.69000244140625
2013-11-19,84.91000366210938
2013-11-20,84.68000030517578
2013-11-21,85.55999755859375
2013-11-22,85.80000305175781
2013-11-25,86.48999786376953
2013-11-26,86.29000091552734
2013-11-27,86.73999786376953
2013-11-29,85.9800033569336
2013-12-02,85.62999725341797
2013-12-03,84.70999908447266
2013-12-04,83.93000030517578
2013-12-05,83.37000274658203
2013-12-06,86.36000061035156
2013-12-09,87.16000366210938
2013-12-10,86.9000015258789
2013-12-11,86.30000305175781
2013-12-12,85.7699966430664
2013-12-13,86.2699966430664
2013-12-16,87.0
2013-12-17,86.68000030517578
2013-12-18,89.08999633789062
2013-12-19,89.08000183105469
2013-12-20,89.02999877929688
2013-12-23,90.29000091552734
2013-12-24,90.1500015258789
2013-12-26,90.81999969482422
2013-12-27,90.9000015258789
2013-12-30,91.12000274658203
2013-12-31,91.06999969482422
2014-01-02,89.83999633789062
2014-01-03,90.01000213623047
2014-01-06,89.31999969482422
2014-01-07,89.31999969482422
2014-01-08,90.68000030517578
2014-01-09,91.02999877929688
2014-01-10,91.94000244140625
2014-01-13,91.12999725341797
2014-01-14,92.48999786376953
2014-01-15,93.5199966430664
2014-01-16,93.80999755859375
2014-01-17,92.8499984741211
2014-01-21,92.33999633789062
2014-01-22,91.91000366210938
2014-01-23,91.69000244140625
2014-01-24,88.55000305175781
2014-01-27,85.38999938964844
2014-01-28,85.86000061035156
2014-01-29,84.95999908447266
2014-01-30,81.70999908447266
2014-01-31,82.95999908447266
2014-02-03,80.05000305175781
2014-02-04,81.44999694824219
2014-02-05,81.0
2014-02-06,80.5999984741211
2014-02-07,81.22000122070312
2014-02-10,81.01000213623047
2014-02-11,82.4000015258789
2014-02-12,83.12999725341797
2014-02-13,84.43000030517578
2014-02-14,85.22000122070312
2014-02-18,85.3499984741211
2014-02-19,86.25
2014-02-20,85.70999908447266
2014-02-21,84.87999725341797
2014-02-24,85.44000244140625
2014-02-25,84.47000122070312
2014-02-26,85.08999633789062
2014-02-27,86.11000061035156
2014-02-28,86.20999908447266
2014-03-03,85.44000244140625
2014-03-04,85.7300033569336
2014-03-05,85.12999725341797
2014-03-06,85.7300033569336
2014-03-07,86.33999633789062
2014-03-10,86.19999694824219
2014-03-11,85.9800033569336
2014-03-12,84.9800033569336
2014-03-13,82.45999908447266
2014-03-14,82.55000305175781
2014-03-17,83.31999969482422
2014-03-18,84.44999694824219
2014-03-19,84.08999633789062
2014-03-20,82.88999938964844
2014-03-21,81.86000061035156
2014-03-24,81.30999755859375
2014-03-25,82.62000274658203
2014-03-26,80.58999633789062
2014-03-27,81.94999694824219
2014-03-28,81.87999725341797
2014-03-31,83.22000122070312
2014-04-01,85.51000213623047
2014-04-02,87.25
2014-04-03,87.73999786376953
2014-04-04,86.5
2014-04-07,85.37999725341797
2014-04-08,86.04000091552734
2014-04-09,87.54000091552734
2014-04-10,86.62999725341797
2014-04-11,85.22000122070312
2014-04-14,85.25
2014-04-15,86.5
2014-04-16,85.80000305175781
2014-04-17,86.70999908447266
2014-04-21,85.95999908447266
2014-04-22,86.62000274658203
2014-04-23,85.72000122070312
2014-04-24,88.56999969482422
2014-04-25,88.12000274658203
2014-04-28,87.44999694824219
2014-04-29,87.0199966430664
2014-04-30,87.77999877929688
2014-05-01,88.30999755859375
2014-05-02,87.7699966430664
2014-05-05,86.3499984741211
2014-05-06,85.93000030517578
2014-05-07,85.83999633789062
2014-05-08,85.9800033569336
2014-05-09,85.19999694824219
2014-05-12,87.08000183105469
2014-05-13,86.61000061035156
2014-05-14,85.19999694824219
2014-05-15,84.76000213623047
2014-05-16,85.36000061035156
2014-05-19,86.0
2014-05-20,84.4000015258789
2014-05-21,85.27999877929688
2014-05-22,85.22000122070312
2014-05-23,84.8499984741211
2014-05-27,85.02999877929688
2014-05-28,85.41999816894531
2014-05-29,85.69999694824219
2014-05-30,85.41999816894531
2014-06-02,85.97000122070312
2014-06-03,86.44999694824219
2014-06-04,87.58000183105469
2014-06-05,89.54000091552734
2014-06-06,91.19999694824219
2014-06-09,92.61000061035156
2014-06-10,93.06999969482422
2014-06-11,92.52999877929688
2014-06-12,90.73999786376953
2014-06-13,90.5199966430664
2014-06-16,90.19999694824219
2014-06-17,89.9800033569336
2014-06-18,90.77999877929688
2014-06-19,89.73999786376953
2014-06-20,90.33000183105469
2014-06-23,89.41999816894531
2014-06-24,87.69000244140625
2014-06-25,87.66000366210938
2014-06-26,87.3499984741211
2014-06-27,86.80000305175781
2014-06-30,86.37999725341797
2014-07-01,87.02999877929688
2014-07-02,86.33999633789062
2014-07-03,87.86000061035156
2014-07-07,86.6500015258789
2014-07-08,85.88999938964844
2014-07-09,85.68000030517578
2014-07-10,84.97000122070312
2014-07-11,83.37999725341797
2014-07-14,84.0999984741211
2014-07-15,84.05999755859375
2014-07-16,84.44999694824219
2014-07-17,83.02999877929688
2014-07-18,83.5999984741211
2014-07-21,83.63999938964844
2014-07-22,84.27999877929688
2014-07-23,84.31999969482422
2014-07-24,83.18000030517578
2014-07-25,83.33000183105469
2014-07-28,82.54000091552734
2014-07-29,80.76000213623047
2014-07-30,80.33999633789062
2014-07-31,78.48999786376953
2014-08-01,78.98999786376953
2014-08-04,79.2300033569336
2014-08-05,79.06999969482422
2014-08-06,79.91999816894531
2014-08-07,79.30000305175781
2014-08-08,80.11000061035156
2014-08-11,80.9000015258789
2014-08-12,81.80000305175781
2014-08-13,81.08000183105469
2014-08-14,81.81999969482422
2014-08-15,80.91999816894531
2014-08-18,82.2300033569336
2014-08-19,83.61000061035156
2014-08-20,84.04000091552734
2014-08-21,83.83999633789062
2014-08-22,83.61000061035156
2014-08-25,83.98999786376953
2014-08-26,83.33999633789062
2014-08-27,83.68000030517578
2014-08-28,83.41000366210938
2014-08-29,83.98999786376953
2014-09-02,83.93000030517578
2014-09-03,84.44000244140625
2014-09-04,84.7300033569336
2014-09-05,83.79000091552734
2014-09-08,84.08999633789062
2014-09-09,82.86000061035156
2014-09-10,82.37999725341797
2014-09-11,83.8499984741211
2014-09-12,83.7699966430664
2014-09-15,82.16999816894531
2014-09-16,81.87999725341797
2014-09-17,82.91999816894531
2014-09-18,82.91000366210938
2014-09-19,82.75
2014-09-22,81.83000183105469
2014-09-23,80.44999694824219
2014-09-24,81.01000213623047
2014-09-25,79.41000366210938
2014-09-26,79.76000213623047
2014-09-29,79.3499984741211
2014-09-30,78.26000213623047
2014-10-01,77.19000244140625
2014-10-02,77.69999694824219
2014-10-03,78.43000030517578
2014-10-06,79.04000091552734
2014-10-07,76.97000122070312
2014-10-08,78.19000244140625
2014-10-09,74.98999786376953
2014-10-10,72.91999816894531
2014-10-13,71.44000244140625
2014-10-14,71.5999984741211
2014-10-15,71.18000030517578
2014-10-16,71.98999786376953
2014-10-17,73.72000122070312
2014-10-20,73.72000122070312
2014-10-21,76.47000122070312
2014-10-22,75.16999816894531
2014-10-23,77.93000030517578
2014-10-24,77.13999938964844
2014-10-27,78.5
2014-10-28,79.45999908447266
2014-10-29,79.2699966430664
2014-10-30,79.69999694824219
2014-10-31,82.41000366210938
2014-11-03,83.06999969482422
2014-11-04,83.08000183105469
2014-11-05,84.77999877929688
2014-11-06,85.6500015258789
2014-11-07,86.30000305175781
2014-11-10,86.54000091552734
2014-11-11,86.55000305175781
2014-11-12,86.19999694824219
2014-11-13,85.51000213623047
2014-11-14,85.83999633789062
2014-11-17,85.44999694824219
2014-11-18,84.93000030517578
2014-11-19,84.81999969482422
2014-11-20,84.94999694824219
2014-11-21,85.45999908447266
2014-11-24,84.48999786376953
2014-11-25,85.66000366210938
2014-11-26,85.13999938964844
2014-11-28,82.38999938964844
2014-12-01,77.33000183105469
2014-12-02,77.1500015258789
2014-12-03,78.22000122070312
2014-12-04,77.77999877929688
2014-12-05,75.80000305175781
2014-12-08,73.72000122070312
2014-12-09,74.51000213623047
2014-12-10,72.51000213623047
2014-12-11,72.9000015258789
2014-12-12,71.80999755859375
2014-12-15,72.22000122070312
2014-12-16,71.62999725341797
2014-12-17,73.87000274658203
2014-12-18,76.37000274658203
2014-12-19,76.98999786376953
2014-12-22,77.20999908447266
2014-12-23,77.91999816894531
2014-12-24,77.79000091552734
2014-12-26,78.0
2014-12-29,77.97000122070312
2014-12-30,76.77999877929688
2014-12-31,76.20999908447266
2015-01-02,76.0999984741211
2015-01-05,73.94000244140625
2015-01-06,72.72000122070312
2015-01-07,72.16000366210938
2015-01-08,72.75
2015-01-09,71.83999633789062
2015-01-12,70.76000213623047
2015-01-13,69.33000183105469
2015-01-14,67.16999816894531
2015-01-15,65.80000305175781
2015-01-16,66.56999969482422
2015-01-20,66.48999786376953
2015-01-21,68.5199966430664
2015-01-22,69.27999877929688
2015-01-23,69.12999725341797
2015-01-26,69.47000122070312
2015-01-27,66.87000274658203
2015-01-28,66.52999877929688
2015-01-29,67.22000122070312
2015-01-30,66.76000213623047
2015-02-02,68.44999694824219
2015-02-03,70.56999969482422
2015-02-04,68.7300033569336
2015-02-05,68.54000091552734
2015-02-06,69.16000366210938
2015-02-09,70.1500015258789
2015-02-10,69.36000061035156
2015-02-11,68.58000183105469
2015-02-12,66.86000061035156
2015-02-13,68.19999694824219
2015-02-17,69.54000091552734
2015-02-18,69.19000244140625
2015-02-19,70.33999633789062
2015-02-20,70.68000030517578
2015-02-23,68.91000366210938
2015-02-24,69.5
2015-02-25,69.87999725341797
2015-02-26,69.5999984741211
2015-02-27,69.43000030517578
2015-03-02,69.6500015258789
2015-03-03,69.4000015258789
2015-03-04,69.08999633789062
2015-03-05,69.1500015258789
2015-03-06,69.7300033569336
2015-03-09,67.76000213623047
2015-03-10,67.5199966430664
2015-03-11,67.58999633789062
2015-03-12,69.3499984741211
2015-03-13,68.19000244140625
2015-03-16,69.27999877929688
2015-03-17,68.81999969482422
2015-03-18,70.08999633789062
2015-03-19,68.12000274658203
2015-03-20,68.56999969482422
2015-03-23,67.8499984741211
2015-03-24,69.19999694824219
2015-03-25,69.8499984741211
2015-03-26,69.73999786376953
2015-03-27,68.73999786376953
2015-03-30,70.25
2015-03-31,69.88999938964844
2015-04-01,69.58999633789062
2015-04-02,69.68000030517578
2015-04-06,70.30000305175781
2015-04-07,69.7300033569336
2015-04-08,69.4000015258789
2015-04-09,68.80000305175781
2015-04-10,69.20999908447266
2015-04-13,68.5
2015-04-14,70.01000213623047
2015-04-15,72.33999633789062
2015-04-16,71.30999755859375
2015-04-17,69.41999816894531
2015-04-20,69.0999984741211
2015-04-21,69.80999755859375
2015-04-22,69.94000244140625
2015-04-23,70.75
2015-04-24,69.91000366210938
2015-04-27,69.98999786376953
2015-04-28,70.80000305175781
2015-04-29,71.62999725341797
2015-04-30,72.13999938964844
2015-05-01,73.0
2015-05-04,72.63999938964844
2015-05-05,71.13999938964844
2015-05-06,71.54000091552734
2015-05-07,70.87000274658203
2015-05-08,71.30000305175781
2015-05-11,71.63999938964844
2015-05-12,71.63999938964844
2015-05-13,72.27999877929688
2015-05-14,72.87999725341797
2015-05-15,73.8499984741211
2015-05-18,73.70999908447266
2015-05-19,73.3499984741211
2015-05-20,73.36000061035156
2015-05-21,73.79000091552734
2015-05-22,73.37000274658203
2015-05-26,72.01000213623047
2015-05-27,72.87000274658203
2015-05-28,72.08000183105469
2015-05-29,71.86000061035156
2015-06-01,72.43000030517578
2015-06-02,73.4000015258789
2015-06-03,74.19000244140625
2015-06-04,73.31999969482422
2015-06-05,74.19000244140625
2015-06-08,72.93000030517578
2015-06-09,73.2300033569336
2015-06-10,73.62999725341797
2015-06-11,73.26000213623047
2015-06-12,72.62999725341797
2015-06-15,72.55999755859375
2015-06-16,72.33999633789062
2015-06-17,72.43000030517578
2015-06-18,72.66000366210938
2015-06-19,72.83000183105469
2015-06-22,73.33000183105469
2015-06-23,73.12999725341797
2015-06-24,72.47000122070312
2015-06-25,71.69000244140625
2015-06-26,72.12000274658203
2015-06-29,68.75
2015-06-30,68.63999938964844
2015-07-01,68.75
2015-07-02,69.0199966430664
2015-07-06,68.2300033569336
2015-07-07,68.25
2015-07-08,66.70999908447266
2015-07-09,66.5999984741211
2015-07-10,66.47000122070312
2015-07-13,67.93000030517578
2015-07-14,68.4000015258789
2015-07-15,66.9800033569336
2015-07-16,67.95999908447266
2015-07-17,67.12000274658203
2015-07-20,66.94999694824219
2015-07-21,66.0
2015-07-22,65.76000213623047
2015-07-23,62.29999923706055
2015-07-24,61.31999969482422
2015-07-27,59.439998626708984
2015-07-28,59.540000915527344
2015-07-29,60.36000061035156
2015-07-30,60.29999923706055
2015-07-31,61.36000061035156
2015-08-03,59.9900016784668
2015-08-04,58.70000076293945
2015-08-05,58.630001068115234
2015-08-06,58.20000076293945
2015-08-07,56.880001068115234
2015-08-10,58.02000045776367
2015-08-11,57.2599983215332
2015-08-12,57.40999984741211
2015-08-13,56.33000183105469
2015-08-14,56.79999923706055
2015-08-17,56.9900016784668
2015-08-18,56.95000076293945
2015-08-19,55.91999816894531
2015-08-20,54.65999984741211
2015-08-21,53.04999923706055
2015-08-24,51.91999816894531
2015-08-25,51.2400016784668
2015-08-26,52.0099983215332
2015-08-27,54.810001373291016
2015-08-28,55.349998474121094
2015-08-31,55.970001220703125
2015-09-01,54.040000915527344
2015-09-02,54.209999084472656
2015-09-03,54.31999969482422
2015-09-04,53.16999816894531
2015-09-08,54.369998931884766
2015-09-09,53.880001068115234
2015-09-10,53.939998626708984
2015-09-11,53.709999084472656
2015-09-14,52.5099983215332
2015-09-15,53.56999969482422
2015-09-16,54.939998626708984
2015-09-17,53.77000045776367
2015-09-18,52.40999984741211
2015-09-21,52.09000015258789
2015-09-22,50.970001220703125
2015-09-23,49.97999954223633
2015-09-24,49.400001525878906
2015-09-25,49.459999084472656
2015-09-28,47.380001068115234
2015-09-29,46.4900016784668
2015-09-30,46.470001220703125
2015-10-01,46.02000045776367
2015-10-02,47.11000061035156
2015-10-05,48.189998626708984
2015-10-06,49.560001373291016
2015-10-07,50.81999969482422
2015-10-08,51.86000061035156
2015-10-09,50.720001220703125
2015-10-12,49.0099983215332
2015-10-13,48.2599983215332
2015-10-14,48.119998931884766
2015-10-15,48.119998931884766
2015-10-16,46.75
2015-10-19,45.119998931884766
2015-10-20,45.11000061035156
2015-10-21,44.65999984741211
2015-10-22,49.20000076293945
2015-10-23,48.869998931884766
2015-10-26,47.7599983215332
2015-10-27,46.04999923706055
2015-10-28,48.0099983215332
2015-10-29,49.4900016784668
2015-10-30,48.93000030517578
2015-11-02,50.63999938964844
2015-11-03,50.630001068115234
2015-11-04,50.33000183105469
2015-11-05,50.40999984741211
2015-11-06,50.7400016784668
2015-11-09,48.95000076293945
2015-11-10,49.18000030517578
2015-11-11,48.2400016784668
2015-11-12,46.75
2015-11-13,46.97999954223633
2015-11-16,46.880001068115234
2015-11-17,45.83000183105469
2015-11-18,46.29999923706055
2015-11-19,46.79999923706055
2015-11-20,47.31999969482422
2015-11-23,46.869998931884766
2015-11-24,46.529998779296875
2015-11-25,47.060001373291016
2015-11-27,47.41999816894531
2015-11-30,48.04999923706055
2015-12-01,49.0
2015-12-02,48.599998474121094
2015-12-03,48.0
2015-12-04,46.9900016784668
2015-12-07,45.2400016784668
2015-12-08,43.29999923706055
2015-12-09,43.29999923706055
2015-12-10,43.310001373291016
2015-12-11,42.2599983215332
2015-12-14,41.220001220703125
2015-12-15,42.900001525878906
2015-12-16,41.59000015258789
2015-12-17,40.040000915527344
2015-12-18,40.86000061035156
2015-12-21,41.029998779296875
2015-12-22,42.630001068115234
2015-12-23,44.08000183105469
2015-12-24,44.33000183105469
2015-12-28,42.95000076293945
2015-12-29,43.84000015258789
2015-12-30,44.31999969482422
2015-12-31,43.68000030517578
2016-01-04,44.09000015258789
2016-01-05,43.869998931884766
2016-01-06,43.36000061035156
2016-01-07,42.150001525878906
2016-01-08,40.77000045776367
2016-01-11,39.619998931884766
2016-01-12,39.2400016784668
2016-01-13,38.90999984741211
2016-01-14,38.68000030517578
2016-01-15,37.91999816894531
2016-01-19,36.31999969482422
2016-01-20,36.04999923706055
2016-01-21,36.279998779296875
2016-01-22,37.02000045776367
2016-01-25,36.4900016784668
2016-01-26,37.380001068115234
2016-01-27,36.900001525878906
2016-01-28,38.040000915527344
2016-01-29,40.380001068115234
2016-02-01,39.88999938964844
2016-02-02,38.400001525878906
2016-02-03,39.25
2016-02-04,42.0
2016-02-05,42.20000076293945
2016-02-08,41.5
2016-02-09,41.47999954223633
2016-02-10,40.560001373291016
2016-02-11,40.08000183105469
2016-02-12,41.40999984741211
2016-02-16,42.439998626708984
2016-02-17,43.25
2016-02-18,43.31999969482422
2016-02-19,42.79999923706055
2016-02-22,43.880001068115234
2016-02-23,43.72999954223633
2016-02-24,43.459999084472656
2016-02-25,43.439998626708984
2016-02-26,44.279998779296875
2016-02-29,44.04999923706055
2016-03-01,44.56999969482422
2016-03-02,46.400001525878906
2016-03-03,47.20000076293945
2016-03-04,47.88999938964844
2016-03-07,50.02000045776367
2016-03-08,48.31999969482422
2016-03-09,48.2599983215332
2016-03-10,49.43000030517578
2016-03-11,49.630001068115234
2016-03-14,51.060001373291016
2016-03-15,50.439998626708984
2016-03-16,52.40999984741211
2016-03-17,54.29999923706055
2016-03-18,53.91999816894531
2016-03-21,54.15999984741211
2016-03-22,54.40999984741211
2016-03-23,53.27000045776367
2016-03-24,53.86000061035156
2016-03-28,53.04999923706055
2016-03-29,54.7400016784668
2016-03-30,54.72999954223633
2016-03-31,54.66999816894531
2016-04-01,55.040000915527344
2016-04-04,53.65999984741211
2016-04-05,52.900001525878906
2016-04-06,53.68000030517578
2016-04-07,52.9900016784668
2016-04-08,53.540000915527344
2016-04-11,53.86000061035156
2016-04-12,53.939998626708984
2016-04-13,55.77000045776367
2016-04-14,55.2400016784668
2016-04-15,55.40999984741211
2016-04-18,56.31999969482422
2016-04-19,56.25
2016-04-20,57.09000015258789
2016-04-21,56.9900016784668
2016-04-22,57.540000915527344
2016-04-25,56.290000915527344
2016-04-26,57.90999984741211
2016-04-27,58.349998474121094
2016-04-28,56.709999084472656
2016-04-29,58.790000915527344
2016-05-02,59.540000915527344
2016-05-03,57.630001068115234
2016-05-04,56.060001373291016
2016-05-05,56.54999923706055
2016-05-06,57.56999969482422
2016-05-09,55.880001068115234
2016-05-10,56.189998626708984
2016-05-11,55.56999969482422
2016-05-12,55.08000183105469
2016-05-13,53.83000183105469
2016-05-16,55.0099983215332
2016-05-17,55.75
2016-05-18,55.0099983215332
2016-05-19,54.7400016784668
2016-05-20,55.599998474121094
2016-05-23,56.16999816894531
2016-05-24,56.54999923706055
2016-05-25,58.220001220703125
2016-05-26,57.880001068115234
2016-05-27,57.83000183105469
2016-05-31,58.33000183105469
2016-06-01,59.400001525878906
2016-06-02,60.0
2016-06-03,59.38999938964844
2016-06-06,60.630001068115234
2016-06-07,61.470001220703125
2016-06-08,61.59000015258789
2016-06-09,59.959999084472656
2016-06-10,57.880001068115234
2016-06-13,56.5099983215332
2016-06-14,56.04999923706055
2016-06-15,55.84000015258789
2016-06-16,55.369998931884766
2016-06-17,56.66999816894531
2016-06-20,57.459999084472656
2016-06-21,56.5099983215332
2016-06-22,56.61000061035156
2016-06-23,57.97999954223633
2016-06-24,54.5
2016-06-27,51.16999816894531
2016-06-28,51.150001525878906
2016-06-29,51.380001068115234
2016-06-30,51.4900016784668
2016-07-01,52.650001525878906
2016-07-05,51.11000061035156
2016-07-06,50.849998474121094
2016-07-07,51.029998779296875
2016-07-08,53.459999084472656
2016-07-11,54.060001373291016
2016-07-12,54.36000061035156
2016-07-13,53.63999938964844
2016-07-14,54.5099983215332
2016-07-15,54.959999084472656
2016-07-18,54.5099983215332
2016-07-19,53.34000015258789
2016-07-20,53.38999938964844
2016-07-21,53.2599983215332
2016-07-22,53.47999954223633
2016-07-25,53.40999984741211
2016-07-26,54.43000030517578
2016-07-27,54.029998779296875
2016-07-28,57.84000015258789
2016-07-29,55.7400016784668
2016-08-01,56.16999816894531
2016-08-02,54.619998931884766
2016-08-03,54.7400016784668
2016-08-04,54.869998931884766
2016-08-05,56.209999084472656
2016-08-08,56.400001525878906
2016-08-09,56.029998779296875
2016-08-10,55.91999816894531
2016-08-11,56.849998474121094
2016-08-12,57.060001373291016
2016-08-15,59.040000915527344
2016-08-16,58.95000076293945
2016-08-17,58.88999938964844
2016-08-18,59.130001068115234
2016-08-19,59.060001373291016
2016-08-22,59.59000015258789
2016-08-23,60.290000915527344
2016-08-24,61.40999984741211
2016-08-25,61.65999984741211
2016-08-26,62.40999984741211
2016-08-29,62.66999816894531
2016-08-30,63.25
2016-08-31,62.15999984741211
2016-09-01,62.33000183105469
2016-09-02,63.33000183105469
2016-09-06,62.93000030517578
2016-09-07,61.0
2016-09-08,61.130001068115234
2016-09-09,57.86000061035156
2016-09-12,58.439998626708984
2016-09-13,57.34000015258789
2016-09-14,57.400001525878906
2016-09-15,57.900001525878906
2016-09-16,57.209999084472656
2016-09-19,57.86000061035156
2016-09-20,57.369998931884766
2016-09-21,59.0
2016-09-22,59.15999984741211
2016-09-23,57.95000076293945
2016-09-26,57.790000915527344
2016-09-27,58.58000183105469
2016-09-28,60.06999969482422
2016-09-29,60.849998474121094
2016-09-30,61.4900016784668
2016-10-03,62.040000915527344
2016-10-04,61.43000030517578
2016-10-05,62.2400016784668
2016-10-06,62.970001220703125
2016-10-07,61.7400016784668
2016-10-10,61.59000015258789
2016-10-11,60.40999984741211
2016-10-12,60.59000015258789
2016-10-13,59.84000015258789
2016-10-14,59.959999084472656
2016-10-17,59.25
2016-10-18,58.099998474121094
2016-10-19,58.650001525878906
2016-10-20,58.400001525878906
2016-10-21,58.849998474121094
2016-10-24,59.400001525878906
2016-10-25,59.29999923706055
2016-10-26,60.04999923706055
2016-10-27,54.95000076293945
2016-10-28,55.150001525878906
2016-10-31,54.20000076293945
2016-11-01,53.29999923706055
2016-11-02,51.70000076293945
2016-11-03,52.400001525878906
2016-11-04,53.25
2016-11-07,54.5
2016-11-08,54.75
2016-11-09,57.79999923706055
2016-11-10,61.54999923706055
2016-11-11,62.349998474121094
2016-11-14,64.25
2016-11-15,64.4000015258789
2016-11-16,64.0999984741211
2016-11-17,64.05000305175781
2016-11-18,63.849998474121094
2016-11-21,64.6500015258789
2016-11-22,65.5999984741211
2016-11-23,66.30000305175781
2016-11-25,66.55000305175781
2016-11-28,66.25
2016-11-29,65.94999694824219
2016-11-30,67.9000015258789
2016-12-01,71.0
2016-12-02,71.8499984741211
2016-12-05,71.30000305175781
2016-12-06,71.0
2016-12-07,71.94999694824219
2016-12-08,72.1500015258789
2016-12-09,71.0999984741211
2016-12-12,71.1500015258789
2016-12-13,70.05000305175781
2016-12-14,68.69999694824219
2016-12-15,69.0999984741211
2016-12-16,69.4000015258789
2016-12-19,69.30000305175781
2016-12-20,70.0999984741211
2016-12-21,69.69999694824219
2016-12-22,68.94999694824219
2016-12-23,68.55000305175781
2016-12-27,68.80000305175781
2016-12-28,67.80000305175781
2016-12-29,67.5
2016-12-30,66.55000305175781
2017-01-03,67.55000305175781
2017-01-04,68.3499984741211
2017-01-05,67.94999694824219
2017-01-06,67.6500015258789
2017-01-09,66.0999984741211
2017-01-10,66.80000305175781
2017-01-11,70.19999694824219
2017-01-12,69.8499984741211
2017-01-13,69.9000015258789
2017-01-17,68.8499984741211
2017-01-18,69.80000305175781
2017-01-19,69.6500015258789
2017-01-20,70.3499984741211
2017-01-23,70.5
2017-01-24,72.55000305175781
2017-01-25,74.44999694824219
2017-01-26,74.1500015258789
2017-01-27,73.6500015258789
2017-01-30,72.5999984741211
2017-01-31,70.69999694824219
2017-02-01,70.3499984741211
2017-02-02,70.44999694824219
2017-02-03,71.30000305175781
2017-02-06,71.3499984741211
2017-02-07,70.5999984741211
2017-02-08,69.25
2017-02-09,70.5999984741211
2017-02-10,71.19999694824219
2017-02-13,71.19999694824219
2017-02-14,71.6500015258789
2017-02-15,71.8499984741211
2017-02-16,71.6500015258789
2017-02-17,72.05000305175781
2017-02-21,72.9000015258789
2017-02-22,72.25
2017-02-23,69.55000305175781
2017-02-24,69.55000305175781
2017-02-27,70.5
2017-02-28,69.5
2017-03-01,72.30000305175781
2017-03-02,70.44999694824219
2017-03-03,72.05000305175781
2017-03-06,72.30000305175781
2017-03-07,71.9000015258789
2017-03-08,70.5999984741211
2017-03-09,68.1500015258789
2017-03-10,68.55000305175781
2017-03-13,68.69999694824219
2017-03-14,67.44999694824219
2017-03-15,69.1500015258789
2017-03-16,69.25
2017-03-17,69.80000305175781
2017-03-20,69.3499984741211
2017-03-21,68.6500015258789
2017-03-22,68.5
2017-03-23,68.25
2017-03-24,67.80000305175781
2017-03-27,67.69999694824219
2017-03-28,68.1500015258789
2017-03-29,68.6500015258789
2017-03-30,68.80000305175781
2017-03-31,69.55000305175781
2017-04-03,69.25
2017-04-04,69.0999984741211
2017-04-05,69.0999984741211
2017-04-06,70.44999694824219
2017-04-07,69.80000305175781
2017-04-10,69.75
2017-04-11,70.5999984741211
2017-04-12,67.4000015258789
2017-04-13,65.3499984741211
2017-04-17,65.75
2017-04-18,63.849998474121094
2017-04-19,64.6500015258789
2017-04-20,65.30000305175781
2017-04-21,65.0999984741211
2017-04-24,66.0
2017-04-25,67.4000015258789
2017-04-26,68.0
2017-04-27,62.599998474121094
2017-04-28,60.95000076293945
2017-05-01,60.5
2017-05-02,61.900001525878906
2017-05-03,61.900001525878906
2017-05-04,61.349998474121094
2017-05-05,63.25
2017-05-08,63.54999923706055
2017-05-09,63.599998474121094
2017-05-10,63.25
2017-05-11,63.25
2017-05-12,62.349998474121094
2017-05-15,62.95000076293945
2017-05-16,62.45000076293945
2017-05-17,60.29999923706055
2017-05-18,60.54999923706055
2017-05-19,62.0
2017-05-22,62.599998474121094
2017-05-23,62.099998474121094
2017-05-24,62.400001525878906
2017-05-25,61.400001525878906
2017-05-26,61.400001525878906
2017-05-30,60.79999923706055
2017-05-31,61.150001525878906
2017-06-01,62.0
2017-06-02,62.20000076293945
2017-06-05,61.849998474121094
2017-06-06,60.20000076293945
2017-06-07,57.5
2017-06-08,58.0
2017-06-09,60.29999923706055
2017-06-12,60.04999923706055
2017-06-13,60.54999923706055
2017-06-14,58.45000076293945
2017-06-15,58.0
2017-06-16,57.29999923706055
2017-06-19,57.349998474121094
2017-06-20,55.79999923706055
2017-06-21,53.95000076293945
2017-06-22,54.25
2017-06-23,55.599998474121094
2017-06-26,55.79999923706055
2017-06-27,55.599998474121094
2017-06-28,56.54999923706055
2017-06-29,56.900001525878906
2017-06-30,57.29999923706055
2017-07-03,58.400001525878906
2017-07-05,56.900001525878906
2017-07-06,56.70000076293945
2017-07-07,56.900001525878906
2017-07-10,57.04999923706055
2017-07-11,57.150001525878906
2017-07-12,55.349998474121094
2017-07-13,56.54999923706055
2017-07-14,56.45000076293945
2017-07-17,57.29999923706055
2017-07-18,57.599998474121094
2017-07-19,57.400001525878906
2017-07-20,57.5
2017-07-21,57.20000076293945
2017-07-24,56.650001525878906
2017-07-25,58.650001525878906
2017-07-26,58.25
2017-07-27,51.849998474121094
2017-07-28,51.5
2017-07-31,51.25
2017-08-01,50.54999923706055
2017-08-02,50.400001525878906
2017-08-03,51.0
2017-08-04,52.150001525878906
2017-08-07,52.25
2017-08-08,52.150001525878906
2017-08-09,52.150001525878906
2017-08-10,51.54999923706055
2017-08-11,51.099998474121094
2017-08-14,51.599998474121094
2017-08-15,52.20000076293945
2017-08-16,51.20000076293945
2017-08-17,50.29999923706055
2017-08-18,50.04999923706055
2017-08-21,49.849998474121094
2017-08-22,50.25
2017-08-23,49.849998474121094
2017-08-24,49.75
2017-08-25,50.25
2017-08-28,49.599998474121094
2017-08-29,49.900001525878906
2017-08-30,50.099998474121094
2017-08-31,50.45000076293945
2017-09-01,50.79999923706055
2017-09-05,50.29999923706055
2017-09-06,50.599998474121094
2017-09-07,50.45000076293945
2017-09-08,51.349998474121094
2017-09-11,53.150001525878906
2017-09-12,53.95000076293945
2017-09-13,54.75
2017-09-14,54.45000076293945
2017-09-15,54.25
2017-09-18,55.099998474121094
2017-09-19,54.95000076293945
2017-09-20,55.95000076293945
2017-09-21,56.25
2017-09-22,56.150001525878906
2017-09-25,57.349998474121094
2017-09-26,57.75
2017-09-27,58.0
2017-09-28,58.29999923706055
2017-09-29,58.25
2017-10-02,59.150001525878906
2017-10-03,59.400001525878906
2017-10-04,58.70000076293945
2017-10-05,59.29999923706055
2017-10-06,58.099998474121094
2017-10-09,58.0
2017-10-10,58.0
2017-10-11,57.900001525878906
2017-10-12,59.099998474121094
2017-10-13,58.849998474121094
2017-10-16,59.45000076293945
2017-10-17,60.79999923706055
2017-10-18,59.95000076293945
2017-10-19,60.20000076293945
2017-10-20,60.79999923706055
2017-10-23,61.349998474121094
2017-10-24,60.900001525878906
2017-10-25,59.25
2017-10-26,62.95000076293945
2017-10-27,64.0
2017-10-30,62.400001525878906
2017-10-31,63.150001525878906
2017-11-01,61.95000076293945
2017-11-02,62.599998474121094
2017-11-03,62.650001525878906
2017-11-06,62.95000076293945
2017-11-07,62.650001525878906
2017-11-08,63.04999923706055
2017-11-09,62.400001525878906
2017-11-10,62.29999923706055
2017-11-13,62.0
2017-11-14,61.150001525878906
2017-11-15,60.349998474121094
2017-11-16,62.25
2017-11-17,62.54999923706055
2017-11-20,62.599998474121094
2017-11-21,63.29999923706055
2017-11-22,62.95000076293945
2017-11-24,62.29999923706055
2017-11-27,62.75
2017-11-28,64.0
2017-11-29,64.8499984741211
2017-11-30,65.55000305175781
2017-12-01,65.3499984741211
2017-12-04,66.4000015258789
2017-12-05,64.9000015258789
2017-12-06,63.75
2017-12-07,63.95000076293945
2017-12-08,64.5
2017-12-11,64.0999984741211
2017-12-12,63.70000076293945
2017-12-13,63.79999923706055
2017-12-14,63.25
2017-12-15,64.9000015258789
2017-12-18,65.0
2017-12-19,64.25
2017-12-20,64.8499984741211
2017-12-21,64.94999694824219
2017-12-22,64.8499984741211
2017-12-26,65.5
2017-12-27,65.69999694824219
2017-12-28,67.30000305175781
2017-12-29,68.1500015258789
2018-01-02,66.80000305175781
2018-01-03,66.69999694824219
2018-01-04,66.5999984741211
2018-01-05,66.25
2018-01-08,66.55000305175781
2018-01-09,67.05000305175781
2018-01-10,64.80000305175781
2018-01-11,66.4000015258789
2018-01-12,67.30000305175781
2018-01-16,66.1500015258789
2018-01-17,64.8499984741211
2018-01-18,64.80000305175781
2018-01-19,65.75
2018-01-22,65.55000305175781
2018-01-23,65.1500015258789
2018-01-24,67.5
2018-01-25,68.3499984741211
2018-01-26,68.75
2018-01-29,68.0999984741211
2018-01-30,67.8499984741211
2018-01-31,68.1500015258789
2018-02-01,66.8499984741211
2018-02-02,63.599998474121094
2018-02-05,61.95000076293945
2018-02-06,63.25
2018-02-07,62.349998474121094
2018-02-08,61.849998474121094
2018-02-09,63.0
2018-02-12,63.0
2018-02-13,62.79999923706055
2018-02-14,63.5
2018-02-15,63.70000076293945
2018-02-16,64.0
2018-02-20,64.44999694824219
2018-02-21,64.44999694824219
2018-02-22,65.0
2018-02-23,65.9000015258789
2018-02-26,65.94999694824219
2018-02-27,64.19999694824219
2018-02-28,62.25
2018-03-01,60.95000076293945
2018-03-02,60.70000076293945
2018-03-05,61.54999923706055
2018-03-06,62.400001525878906
2018-03-07,61.79999923706055
2018-03-08,62.599998474121094
2018-03-09,64.19999694824219
2018-03-12,63.70000076293945
2018-03-13,63.45000076293945
2018-03-14,64.05000305175781
2018-03-15,63.25
2018-03-16,65.44999694824219
2018-03-19,65.44999694824219
2018-03-20,65.25
2018-03-21,65.30000305175781
2018-03-22,62.599998474121094
2018-03-23,60.349998474121094
2018-03-26,61.650001525878906
2018-03-27,60.5
2018-03-28,60.5
2018-03-29,62.04999923706055
2018-04-02,61.45000076293945
2018-04-03,62.25
2018-04-04,62.650001525878906
2018-04-05,64.0
2018-04-06,62.04999923706055
2018-04-09,61.5
2018-04-10,62.5
2018-04-11,61.599998474121094
2018-04-12,62.900001525878906
2018-04-13,62.0
2018-04-16,62.849998474121094
2018-04-17,62.599998474121094
2018-04-18,63.5
2018-04-19,63.70000076293945
2018-04-20,63.20000076293945
2018-04-23,62.95000076293945
2018-04-24,61.900001525878906
2018-04-25,61.849998474121094
2018-04-26,58.099998474121094
2018-04-27,59.099998474121094
2018-04-30,59.54999923706055
2018-05-01,57.79999923706055
2018-05-02,58.849998474121094
2018-05-03,58.70000076293945
2018-05-04,59.95000076293945
2018-05-07,59.75
2018-05-08,60.150001525878906
2018-05-09,60.349998474121094
2018-05-10,60.45000076293945
2018-05-11,60.45000076293945
2018-05-14,59.650001525878906
2018-05-15,59.54999923706055
2018-05-16,59.45000076293945
2018-05-17,59.04999923706055
2018-05-18,59.29999923706055
2018-05-21,60.54999923706055
2018-05-22,59.599998474121094
2018-05-23,59.20000076293945
2018-05-24,59.099998474121094
2018-05-25,58.95000076293945
2018-05-29,59.25
2018-05-30,60.29999923706055
2018-05-31,59.349998474121094
2018-06-01,60.54999923706055
2018-06-04,60.29999923706055
2018-06-05,61.0
2018-06-06,60.25
2018-06-07,61.75
2018-06-08,61.70000076293945
2018-06-11,61.75
2018-06-12,62.400001525878906
2018-06-13,62.20000076293945
2018-06-14,62.20000076293945
2018-06-15,62.0
2018-06-18,62.5
2018-06-19,61.849998474121094
2018-06-20,60.400001525878906
2018-06-21,58.79999923706055
2018-06-22,59.95000076293945
2018-06-25,59.5
2018-06-26,57.45000076293945
2018-06-27,56.349998474121094
2018-06-28,56.650001525878906
2018-06-29,57.099998474121094
2018-07-02,57.54999923706055
2018-07-03,57.650001525878906
2018-07-05,57.75
2018-07-06,58.099998474121094
2018-07-09,59.20000076293945
2018-07-10,58.29999923706055
2018-07-11,58.5
2018-07-12,58.150001525878906
2018-07-13,58.400001525878906
2018-07-16,58.25
2018-07-17,58.650001525878906
2018-07-18,59.20000076293945
2018-07-19,59.5
2018-07-20,59.349998474121094
2018-07-23,59.599998474121094
2018-07-24,58.79999923706055
2018-07-25,58.25
2018-07-26,58.95000076293945
2018-07-27,58.650001525878906
2018-07-30,58.54999923706055
2018-07-31,61.0
2018-08-01,60.150001525878906
2018-08-02,57.79999923706055
2018-08-03,59.04999923706055
2018-08-06,59.75
2018-08-07,60.849998474121094
2018-08-08,60.0
2018-08-09,59.849998474121094
2018-08-10,58.95000076293945
2018-08-13,58.70000076293945
2018-08-14,59.04999923706055
2018-08-15,58.349998474121094
2018-08-16,60.099998474121094
2018-08-17,59.70000076293945
2018-08-20,60.29999923706055
2018-08-21,61.70000076293945
2018-08-22,61.70000076293945
2018-08-23,61.150001525878906
2018-08-24,61.45000076293945
2018-08-27,61.79999923706055
2018-08-28,62.20000076293945
2018-08-29,61.849998474121094
2018-08-30,60.79999923706055
2018-08-31,61.150001525878906
2018-09-04,60.70000076293945
2018-09-05,60.400001525878906
2018-09-06,59.900001525878906
2018-09-07,58.04999923706055
2018-09-10,59.75
2018-09-11,60.04999923706055
2018-09-12,60.29999923706055
2018-09-13,60.900001525878906
2018-09-14,60.54999923706055
2018-09-17,60.349998474121094
2018-09-18,61.349998474121094
2018-09-19,61.54999923706055
2018-09-20,62.400001525878906
2018-09-21,62.20000076293945
2018-09-24,61.099998474121094
2018-09-25,61.349998474121094
2018-09-26,60.95000076293945
2018-09-27,61.099998474121094
2018-09-28,61.45000076293945
2018-10-01,60.34000015258789
2018-10-02,60.06999969482422
2018-10-03,61.119998931884766
2018-10-04,60.189998626708984
2018-10-05,59.13999938964844
2018-10-08,58.20000076293945
2018-10-09,57.88999938964844
2018-10-10,54.220001220703125
2018-10-11,52.119998931884766
2018-10-12,51.81999969482422
2018-10-15,53.56999969482422
2018-10-16,54.0
2018-10-17,53.54999923706055
2018-10-18,52.790000915527344
2018-10-19,52.86000061035156
2018-10-22,52.11000061035156
2018-10-23,50.91999816894531
2018-10-24,48.13999938964844
2018-10-25,48.52000045776367
2018-10-26,48.59000015258789
2018-10-29,48.529998779296875
2018-10-30,49.369998931884766
2018-10-31,50.18000030517578
2018-11-01,53.36000061035156
2018-11-02,53.68000030517578
2018-11-05,53.529998779296875
2018-11-06,53.9900016784668
2018-11-07,55.79999923706055
2018-11-08,54.34000015258789
2018-11-09,53.459999084472656
2018-11-12,52.209999084472656
2018-11-13,52.290000915527344
2018-11-14,52.220001220703125
2018-11-15,53.11000061035156
2018-11-16,53.130001068115234
2018-11-19,52.150001525878906
2018-11-20,50.83000183105469
2018-11-21,52.34000015258789
2018-11-23,51.349998474121094
2018-11-26,52.7400016784668
2018-11-27,52.18000030517578
2018-11-28,53.25
2018-11-29,52.90999984741211
2018-11-30,53.40999984741211
2018-12-03,53.66999816894531
2018-12-04,50.970001220703125
2018-12-06,51.15999984741211
2018-12-07,49.93000030517578
2018-12-10,49.27000045776367
2018-12-11,49.16999816894531
2018-12-12,50.15999984741211
2018-12-13,49.560001373291016
2018-12-14,48.72999954223633
2018-12-17,48.130001068115234
2018-12-18,48.0
2018-12-19,47.0
2018-12-20,46.130001068115234
2018-12-21,45.349998474121094
2018-12-24,44.09000015258789
2018-12-26,46.40999984741211
2018-12-27,47.25
2018-12-28,47.06999969482422
2018-12-31,48.0
2019-01-02,48.040000915527344
2019-01-03,47.290000915527344
2019-01-04,48.810001373291016
2019-01-07,48.83000183105469
2019-01-08,49.7400016784668
2019-01-09,50.150001525878906
2019-01-10,50.65999984741211
2019-01-11,51.5099983215332
2019-01-14,50.84000015258789
2019-01-15,51.06999969482422
2019-01-16,51.43000030517578
2019-01-17,52.77000045776367
2019-01-18,53.599998474121094
2019-01-22,52.650001525878906
2019-01-23,51.720001220703125
2019-01-24,52.20000076293945
2019-01-25,52.939998626708984
2019-01-28,52.58000183105469
2019-01-29,53.33000183105469
2019-01-30,54.29999923706055
2019-01-31,52.400001525878906
2019-02-01,52.75
2019-02-04,54.189998626708984
2019-02-05,54.18000030517578
2019-02-06,53.709999084472656
2019-02-07,53.52000045776367
2019-02-08,53.02000045776367
2019-02-11,53.56999969482422
2019-02-12,54.56999969482422
2019-02-13,54.63999938964844
2019-02-14,54.59000015258789
2019-02-15,55.66999816894531
2019-02-19,55.720001220703125
2019-02-20,56.15999984741211
2019-02-21,56.2599983215332
2019-02-22,55.9900016784668
2019-02-25,56.15999984741211
2019-02-26,55.099998474121094
2019-02-27,55.18000030517578
2019-02-28,54.45000076293945
2019-03-01,54.66999816894531
2019-03-04,54.38999938964844
2019-03-05,53.709999084472656
2019-03-06,52.869998931884766
2019-03-07,52.40999984741211
2019-03-08,51.88999938964844
2019-03-11,52.7599983215332
2019-03-12,52.939998626708984
2019-03-13,53.47999954223633
2019-03-14,53.0
2019-03-15,52.75
2019-03-18,53.72999954223633
2019-03-19,53.22999954223633
2019-03-20,52.459999084472656
2019-03-21,53.31999969482422
2019-03-22,51.04999923706055
2019-03-25,51.18000030517578
2019-03-26,51.70000076293945
2019-03-27,52.220001220703125
2019-03-28,52.90999984741211
2019-03-29,53.0099983215332
2019-04-01,54.5099983215332
2019-04-02,54.18000030517578
2019-04-03,54.36000061035156
2019-04-04,54.7599983215332
2019-04-05,55.130001068115234
2019-04-08,55.2599983215332
2019-04-09,53.79999923706055
2019-04-10,54.06999969482422
2019-04-11,55.45000076293945
2019-04-12,55.65999984741211
2019-04-15,55.630001068115234
2019-04-16,55.849998474121094
2019-04-17,56.459999084472656
2019-04-18,56.70000076293945
2019-04-22,56.0099983215332
2019-04-23,57.04999923706055
2019-04-24,57.529998779296875
2019-04-25,56.58000183105469
2019-04-26,57.02000045776367
2019-04-29,57.130001068115234
2019-04-30,57.2400016784668
2019-05-01,56.959999084472656
2019-05-02,54.88999938964844
2019-05-03,57.09000015258789
2019-05-06,55.709999084472656
2019-05-07,53.2400016784668
2019-05-08,53.7400016784668
2019-05-09,54.2400016784668
2019-05-10,54.029998779296875
2019-05-13,51.65999984741211
2019-05-14,51.77000045776367
2019-05-15,51.79999923706055
2019-05-16,51.939998626708984
2019-05-17,51.529998779296875
2019-05-20,51.09000015258789
2019-05-21,51.650001525878906
2019-05-22,50.02000045776367
2019-05-23,48.68000030517578
2019-05-24,49.060001373291016
2019-05-28,48.20000076293945
2019-05-29,48.33000183105469
2019-05-30,47.810001373291016
2019-05-31,46.83000183105469
2019-06-03,47.81999969482422
2019-06-04,49.58000183105469
2019-06-05,48.880001068115234
2019-06-06,48.68000030517578
2019-06-07,48.900001525878906
2019-06-10,49.45000076293945
2019-06-11,49.08000183105469
2019-06-12,48.689998626708984
2019-06-13,49.220001220703125
2019-06-14,47.93000030517578
2019-06-17,47.63999938964844
2019-06-18,49.11000061035156
2019-06-19,49.529998779296875
2019-06-20,50.38999938964844
2019-06-21,49.630001068115234
2019-06-24,49.54999923706055
2019-06-25,50.02000045776367
2019-06-26,49.97999954223633
2019-06-27,50.58000183105469
2019-06-28,50.650001525878906
2019-07-01,50.77000045776367
2019-07-02,50.029998779296875
2019-07-03,50.119998931884766
2019-07-05,50.38999938964844
2019-07-08,49.779998779296875
2019-07-09,49.310001373291016
2019-07-10,49.06999969482422
2019-07-11,48.90999984741211
2019-07-12,50.18000030517578
2019-07-15,50.04999923706055
2019-07-16,50.45000076293945
2019-07-17,49.04999923706055
2019-07-18,48.310001373291016
2019-07-19,48.45000076293945
2019-07-22,47.95000076293945
2019-07-23,49.619998931884766
2019-07-24,51.11000061035156
2019-07-25,50.5
2019-07-26,50.72999954223633
2019-07-29,50.5099983215332
2019-07-30,50.97999954223633
2019-07-31,50.7400016784668
2019-08-01,46.689998626708984
2019-08-02,45.0099983215332
2019-08-05,44.7599983215332
2019-08-06,45.63999938964844
2019-08-07,45.79999923706055
2019-08-08,46.380001068115234
2019-08-09,45.650001525878906
2019-08-12,44.52000045776367
2019-08-13,44.65999984741211
2019-08-14,42.59000015258789
2019-08-15,42.599998474121094
2019-08-16,43.72999954223633
2019-08-19,44.290000915527344
2019-08-20,43.439998626708984
2019-08-21,43.279998779296875
2019-08-22,43.70000076293945
2019-08-23,42.720001220703125
2019-08-26,42.779998779296875
2019-08-27,42.619998931884766
2019-08-28,43.290000915527344
2019-08-29,44.5
2019-08-30,45.08000183105469
2019-09-03,43.5
2019-09-04,44.220001220703125
2019-09-05,46.029998779296875
2019-09-06,46.25
2019-09-09,47.689998626708984
2019-09-10,48.400001525878906
2019-09-11,49.310001373291016
2019-09-12,48.849998474121094
2019-09-13,49.18000030517578
2019-09-16,49.18000030517578
2019-09-17,48.09000015258789
2019-09-18,47.349998474121094
2019-09-19,46.83000183105469
2019-09-20,46.5
2019-09-23,46.43000030517578
2019-09-24,45.310001373291016
2019-09-25,46.79999923706055
2019-09-26,46.75
2019-09-27,47.279998779296875
2019-09-30,47.77000045776367
2019-10-01,45.43000030517578
2019-10-02,45.189998626708984
2019-10-03,44.709999084472656
2019-10-04,45.54999923706055
2019-10-07,45.08000183105469
2019-10-08,44.16999816894531
2019-10-09,44.189998626708984
2019-10-10,44.869998931884766
2019-10-11,46.709999084472656
2019-10-14,46.630001068115234
2019-10-15,47.02000045776367
2019-10-16,46.63999938964844
2019-10-17,47.400001525878906
2019-10-18,47.56999969482422
2019-10-21,47.790000915527344
2019-10-22,49.18000030517578
2019-10-23,49.5099983215332
2019-10-24,49.70000076293945
2019-10-25,50.43000030517578
2019-10-28,50.36000061035156
2019-10-29,50.40999984741211
2019-10-30,50.77000045776367
2019-10-31,50.150001525878906
2019-11-01,54.2400016784668
2019-11-04,53.470001220703125
2019-11-05,54.0099983215332
2019-11-06,53.790000915527344
2019-11-07,53.88999938964844
2019-11-08,54.04999923706055
2019-11-11,54.4900016784668
2019-11-12,54.52000045776367
2019-11-13,53.56999969482422
2019-11-14,53.68000030517578
2019-11-15,54.11000061035156
2019-11-18,53.560001373291016
2019-11-19,52.97999954223633
2019-11-20,53.06999969482422
2019-11-21,53.08000183105469
2019-11-22,53.189998626708984
2019-11-25,53.619998931884766
2019-11-26,53.380001068115234
2019-11-27,53.459999084472656
2019-11-29,52.619998931884766
2019-12-02,52.2400016784668
2019-12-03,52.029998779296875
2019-12-04,51.900001525878906
2019-12-05,54.08000183105469
2019-12-06,55.209999084472656
2019-12-09,54.869998931884766
2019-12-10,55.560001373291016
2019-12-11,56.04999923706055
2019-12-12,57.18000030517578
2019-12-13,56.08000183105469
2019-12-16,56.279998779296875
2019-12-17,56.150001525878906
2019-12-18,55.52000045776367
2019-12-19,55.540000915527344
2019-12-20,55.9900016784668
2019-12-23,55.709999084472656
2019-12-24,58.56999969482422
2019-12-26,57.790000915527344
2019-12-27,59.310001373291016
2019-12-30,59.9900016784668
2019-12-31,59.38999938964844
