,orgname,ultorg,action,date1,transnotes,minvalue,maxvalue
27,Vanguard Total International Stock Index,,Purchased,2008-01-10,,1001.0,15000.0
28,Vanguard Total International Stock Index,,Purchased,2008-02-19,,1001.0,15000.0
4,Fidelity Contrafund,,Purchased,2008-03-03,,1001.0,15000.0
5,Fidelity Contrafund,,Purchased,2008-03-03,,1001.0,15000.0
6,Fidelity Diversified Contrafund,,Purchased,2008-03-03,,1001.0,15000.0
7,Fidelity Diversified International Fund,,Purchased,2008-03-03,,1001.0,15000.0
8,Fidelity Diversified International Fund,,Purchased,2008-03-03,,1001.0,15000.0
9,Fidelity Dividend Growth Fund,,Purchased,2008-03-03,,1001.0,15000.0
11,Fidelity Municipal Income Fund,,Purchased,2008-03-03,,1001.0,15000.0
12,Fidelity Spartan 500 Index,,Purchased,2008-03-03,,1001.0,15000.0
14,Fidelity Total Bond Fund,,Purchased,2008-03-03,,1001.0,15000.0
15,Fidelity Total Bond Fund,,Purchased,2008-03-03,,1001.0,15000.0
29,Vanguard Total International Stock Index,,Purchased,2008-03-03,,1001.0,15000.0
24,Vanguard Total International Stock Index,,Purchased,2008-04-02,,1001.0,15000.0
25,Vanguard Total International Stock Index,,Purchased,2008-05-06,,1001.0,15000.0
26,Vanguard Total International Stock Index,,Purchased,2008-08-11,,1001.0,15000.0
21,Vanguard High Yield Tax Exempt Fund,,Purchased,2008-10-14,,1001.0,15000.0
22,Vanguard High Yield Tax Exempt Fund,,Purchased,2008-11-15,,1001.0,15000.0
23,Vanguard High Yield Tax Exempt Fund,,Purchased,2008-12-12,,1001.0,15000.0
25,Fidelity Diversified International Fund,,Purchased,2009-01-06,,1001.0,15000.0
26,Fidelity Diversified International Fund,,Purchased,2009-01-06,,1001.0,15000.0
43,Fidelity Spartan 500 Index,,Purchased,2009-01-06,,1001.0,15000.0
44,Fidelity Spartan 500 Index,,Purchased,2009-01-06,,1001.0,15000.0
46,Fidelity Total Bond Fund,,Purchased,2009-01-06,,1001.0,15000.0
47,Fidelity Total Bond Fund,,Purchased,2009-01-06,,1001.0,15000.0
13,Columbia Real Estate Equity Fund,,Sold,2009-04-13,,1001.0,15000.0
38,Fidelity Municipal Income Fund,,Purchased,2009-04-14,,1001.0,15000.0
57,Vanguard High Yield Tax Exempt Fund,,Purchased,2009-06-25,,1001.0,15000.0
20,Fidelity Blue Chip Growth Fund,,Sold,2009-09-28,,1001.0,15000.0
21,Fidelity Capital & Income Fund,,Sold,2009-09-28,,1001.0,15000.0
23,Fidelity Cash Reserves,,Sold,2009-09-28,,1001.0,15000.0
27,Fidelity Dividend Growth Fund,,Sold,2009-09-28,,15001.0,50000.0
28,Fidelity Dividend Growth Fund,,Sold,2009-09-28,,1001.0,15000.0
33,Fidelity Funds,,Sold,2009-09-28,,1001.0,15000.0
36,Fidelity Growth Strategies Fund,,Sold,2009-09-28,,1001.0,15000.0
37,Fidelity Muni Income Fund,,Purchased,2009-09-28,,1001.0,15000.0
41,Fidelity OTC Portfolio Fund,,Sold,2009-09-28,,1001.0,15000.0
42,Fidelity Spartan 500 Income Fund ,,Purchased,2009-09-28,,1001.0,15000.0
48,Fidelity Total Bond Fund,,Purchased,2009-09-28,,1001.0,15000.0
49,Fidelity Total Bond Fund,,Purchased,2009-09-28,,15001.0,50000.0
50,Fidelity Total Bond Fund,,Purchased,2009-09-28,,1001.0,15000.0
58,Vanguard Inflation Protected Securities,,Purchased,2009-10-12,,1001.0,15000.0
4,American Century International Growth Fd,,Sold,2009-10-14,,15001.0,50000.0
6,American Century Tax Free Bond Fund,,Purchased,2009-10-14,,15001.0,50000.0
8,American Century Value Fund,,Sold,2009-10-14,,15001.0,50000.0
15,Dell Inc,,Sold,2009-10-14,,1001.0,15000.0
34,Fidelity Ginnie Mae Fund,,Sold,2009-10-14,,1001.0,15000.0
51,Fidelity Total Bond Fund,,Purchased,2009-10-14,,1001.0,15000.0
1,American Century Global Growth Fund,,Sold,2009-10-15,,15001.0,50000.0
5,American Century Tax Free Bond Fund,,Purchased,2009-10-15,,15001.0,50000.0
11,Fidelity Diversified International Fund ,,Purchased,2010-01-11,,,
18,Fidelity Total Bond Index,,Purchased,2010-01-11,,,
10,Fidelity Diversified International Fund ,,Purchased,2010-01-12,,,
16,Fidelity Spartan 500 Index,,Purchased,2010-01-12,,,
19,Fidelity Total Bond Index,,Purchased,2010-01-12,,,
29,Vanguard Inflation Protected Fund,,Purchased,2010-05-17,,,
28,Vanguard Inflation Protected Fund,,Purchased,2010-06-17,,,
27,Vanguard Inflation Protected Fund,,Purchased,2010-09-20,,,
4,Equifax Inc,,Sold,2010-09-24,,,
21,Hewlett-Packard,,Sold,2010-09-27,,,
14,Fidelity Select Healthcare Fund,,Sold,2010-10-04,,15001.0,50000.0
22,IBM Corp,,Purchased,2010-10-13,,,
23,Johnson Controls,,Purchased,2010-10-16,,,
13,Fidelity Select Financial Services Fund,,Sold,2010-10-28,,,
15,Fidelity Spartan 500 Index,,Purchased,2010-10-28,,,
7,Fidelity Contrafund,,Purchased,2011-01-10,,1001.0,15000.0
9,Fidelity Diversified International Fund,,Purchased,2011-01-10,,1001.0,15000.0
14,Fidelity Spartan Index,,Purchased,2011-01-10,,1001.0,15000.0
17,Fidelity Total Bond Fund,,Purchased,2011-01-10,,1001.0,15000.0
8,Fidelity Contrafund,,Purchased,2011-01-11,,1001.0,15000.0
10,Fidelity Diversified International Fund,,Purchased,2011-01-11,,1001.0,15000.0
15,Fidelity Spartan Index,,Purchased,2011-01-11,,1001.0,15000.0
18,Fidelity Total Bond Fund,,Purchased,2011-01-11,,1001.0,15000.0
24,Pfizer Inc,,Sold,2011-08-18,,1001.0,15000.0
25,Regions Financial,,Sold,2011-08-18,,1001.0,15000.0
29,Vanguard Inflation Protected Securities,,Purchased,2011-09-08,,1001.0,15000.0
11,Fidelity Money Market,,Sold,2011-10-24,,50001.0,100000.0
23,Midfirst Money Market,,Purchased,2011-11-07,,50001.0,100000.0
26,S Fund (Federal Thrift Savings Plan),,Sold,2011-11-14,,15001.0,50000.0
2,Baron Asset Fund,,Purchased,2011-11-29,,1001.0,15000.0
0,American Century Interm Tax Free Bond,,Sold,2012-01-04,,100001.0,250000.0
13,Fidelity Spartan 500 Index,,Purchased,2012-01-23,,1001.0,15000.0
14,Fidelity Spartan 500 Index,,Purchased,2012-01-23,,1001.0,15000.0
15,Fidelity Total Bond Index,,Purchased,2012-01-23,,1001.0,15000.0
16,Fidelity Total Bond Index,,Purchased,2012-01-23,,1001.0,15000.0
32,Vanguard High Yield Tax Exempt Fund,,Purchased,2012-02-16,,50001.0,100000.0
35,Vanguard Inflation Protected Securities,,Purchased,2012-02-16,,15001.0,50000.0
41,Vanguard Total Stock Market Index,,Purchased,2012-02-16,,1001.0,15000.0
38,Vanguard Total Stock Market Index,,Purchased,2012-03-23,,1001.0,15000.0
27,T Rowe Price Equity Income Fund,,Purchased,2012-03-28,,1001.0,15000.0
28,T Rowe Price Equity Income Fund,,Purchased,2012-06-12,,1001.0,15000.0
9,Fidelity Dividend Growth Fund,,Sold,2012-06-18,,15001.0,50000.0
12,Fidelity Spartan 500 Index,,Purchased,2012-06-18,,15001.0,50000.0
2,Baron Asset Fund,,Sold,2012-06-20,,15001.0,50000.0
8,Fidelity Contrafund,,Purchased,2012-06-22,,15001.0,50000.0
36,Vanguard Total International Stock Index,,Purchased,2012-09-21,,1001.0,15000.0
39,Vanguard Total Stock Market Index,,Purchased,2012-09-21,,1001.0,15000.0
29,T Rowe Price Equity Income Fund,,Purchased,2012-09-26,,1001.0,15000.0
30,T Rowe Price Equity Income Fund,,Purchased,2012-12-13,,1001.0,15000.0
7,Fidelity Contrafund,,Purchased,2012-12-14,,1001.0,15000.0
10,Fidelity International Stock Fund,,Purchased,2012-12-19,,1001.0,15000.0
20,Fidelity Total Stock Market Fund,,Purchased,2012-12-19,,1001.0,15000.0
37,Vanguard Total International Stock Index,,Purchased,2012-12-19,,1001.0,15000.0
4,Fidelity Contrafund,,Purchased,2013-01-28,,1001.0,15000.0
5,Fidelity Contrafund,,Purchased,2013-01-28,,1001.0,15000.0
6,Fidelity Diversified International Fund,,Purchased,2013-01-28,,1001.0,15000.0
7,Fidelity Diversified International Fund,,Purchased,2013-01-28,,1001.0,15000.0
10,Fidelity Spartan 500 Index,,Purchased,2013-01-28,,1001.0,15000.0
11,Fidelity Spartan 500 Index,,Purchased,2013-01-28,,1001.0,15000.0
12,Fidelity Total Bond Fund,,Purchased,2013-01-28,,1001.0,15000.0
14,Fidelity Total Bond Fund,,Purchased,2013-01-28,,1001.0,15000.0
18,Microsoft Corp,,Sold,2013-04-18,,1001.0,15000.0
9,Fidelity Municipal Income Fund,,Sold,2013-08-27,,100001.0,250000.0
31,Vanguard Total Stock Market Index,,Purchased,2013-09-06,,1001.0,15000.0
27,Vanguard High Yield Tax Exempt Fund,,Purchased,2013-09-09,,50001.0,100000.0
25,Vanguard Dividend Growth Fund,,Purchased,2013-09-10,,50001.0,100000.0
33,Wells Fargo,,Purchased,2013-09-10,,1001.0,15000.0
9,Fidelity Contrafund,,Purchased,2014-01-06,,1001.0,15000.0
10,Fidelity Contrafund,,Purchased,2014-01-06,,1001.0,15000.0
11,Fidelity Diversified International Fund,,Purchased,2014-01-06,,1001.0,15000.0
12,Fidelity Diversified International Fund,,Purchased,2014-01-06,,1001.0,15000.0
14,Fidelity Spartan 500 Index,,Purchased,2014-01-06,,1001.0,15000.0
15,Fidelity Spartan 500 Index,,Purchased,2014-01-06,,1001.0,15000.0
16,Fidelity Total Bond Fund,,Purchased,2014-01-06,,1001.0,15000.0
19,Fidelity Total Bond Fund,,Purchased,2014-01-06,,1001.0,15000.0
3,Ellen Cole's Annuity Ellen's State Farm Annuity,,Sold,2014-07-15,,15001.0,50000.0
28,Fidelity Contrafund Fund,,Purchased,2017-02-17,,1001.0,15000.0
29,Fidelity Contrafund Fund,,Purchased,2017-02-17,,1001.0,15000.0
30,Fidelity Contrafund Fund,,Purchased,2017-02-17,,1001.0,15000.0
31,Fidelity Contrafund Fund,,Purchased,2017-02-17,,1001.0,15000.0
32,Fidelity Contrafund Fund,,Purchased,2017-02-17,,1001.0,15000.0
33,Fidelity Contrafund Fund,,Purchased,2017-02-17,,1001.0,15000.0
34,Fidelity Contrafund Fund,,Purchased,2017-02-17,,1001.0,15000.0
35,Fidelity Contrafund Fund,,Purchased,2017-02-17,,1001.0,15000.0
36,Fidelity Contrafund Fund,,Sold,2017-02-17,,,
37,Fidelity Contrafund Fund,,Sold,2017-02-17,,,
38,Fidelity Contrafund Fund,,Sold,2017-02-17,,,
39,Fidelity Contrafund Fund,,Sold,2017-02-17,,,
40,Fidelity Diversified International Fund,,Sold,2017-02-17,,,
41,Fidelity Diversified International Fund,,Sold,2017-02-17,,,
42,Fidelity Diversified International Fund,,Sold,2017-02-17,,,
43,Fidelity Diversified International Fund,,Sold,2017-02-17,,,
44,Fidelity Diversified International Fund,,Purchased,2017-02-17,,1001.0,15000.0
45,Fidelity Diversified International Fund,,Purchased,2017-02-17,,1001.0,15000.0
46,Fidelity Diversified International Fund,,Purchased,2017-02-17,,1001.0,15000.0
47,Fidelity Diversified International Fund,,Purchased,2017-02-17,,1001.0,15000.0
48,Fidelity Diversified International Fund,,Purchased,2017-02-17,,1001.0,15000.0
49,Fidelity Diversified International Fund,,Purchased,2017-02-17,,1001.0,15000.0
50,Fidelity Diversified International Fund,,Purchased,2017-02-17,,1001.0,15000.0
51,Fidelity Diversified International Fund,,Purchased,2017-02-17,,1001.0,15000.0
56,Fidelity Spartan 500 Fund,,Sold,2017-02-17,,,
57,Fidelity Spartan 500 Fund,,Sold,2017-02-17,,,
58,Fidelity Spartan 500 Fund,,Sold,2017-02-17,,,
59,Fidelity Spartan 500 Fund,,Sold,2017-02-17,,,
60,Fidelity Spartan 500 Fund,,Purchased,2017-02-17,,1001.0,15000.0
63,Fidelity Spartan 500 Fund,,Purchased,2017-02-17,,1001.0,15000.0
64,Fidelity Spartan 500 Fund,,Purchased,2017-02-17,,1001.0,15000.0
65,Fidelity Spartan 500 Fund,,Purchased,2017-02-17,,1001.0,15000.0
66,Fidelity Spartan 500 Fund,,Purchased,2017-02-17,,1001.0,15000.0
67,Fidelity Spartan 500 Fund,,Purchased,2017-02-17,,1001.0,15000.0
68,Fidelity Spartan 500 Fund,,Purchased,2017-02-17,,1001.0,15000.0
69,Fidelity Spartan 500 Fund,,Purchased,2017-02-17,,1001.0,15000.0
72,Fidelity Total Bond Fund,,Purchased,2017-02-17,,1001.0,15000.0
74,Fidelity Total Bond Fund,,Purchased,2017-02-17,,1001.0,15000.0
76,Fidelity Total Bond Fund,,Purchased,2017-02-17,,1001.0,15000.0
78,Fidelity Total Bond Fund,,Purchased,2017-02-17,,1001.0,15000.0
82,Fidelity Total Bond Fund,,Purchased,2017-02-17,,1001.0,15000.0
84,Fidelity Total Bond Fund,,Purchased,2017-02-17,,1001.0,15000.0
87,Fidelity Total Bond Fund,,Purchased,2017-02-17,,1001.0,15000.0
90,Fidelity Total Bond Fund,,Purchased,2017-02-17,,1001.0,15000.0
92,Fidelity Total Bond Fund,,Sold,2017-02-17,,,
93,Fidelity Total Bond Fund,,Sold,2017-02-17,,,
94,Fidelity Total Bond Fund,,Sold,2017-02-17,,,
95,Fidelity Total Bond Fund,,Sold,2017-02-17,,,
100,Spectra Energy Exchange for Enbridge Inc,,Exchanged,2017-02-27,,15001.0,50000.0
101,Spectra Energy Exchange for Enbridge Inc,,Exchanged,2017-02-27,,15001.0,50000.0
102,Spectra Energy Exchange for Enbridge Inc,,Exchanged,2017-02-27,,15001.0,50000.0
103,Spectra Energy Exchange for Enbridge Inc,,Exchanged,2017-02-27,,15001.0,50000.0
61,Fidelity Spartan 500 Fund,,Sold,2017-10-17,,50001.0,100000.0
62,Fidelity Spartan 500 Fund,,Sold,2017-10-17,,50001.0,100000.0
70,Fidelity Spartan 500 Fund,,Sold,2017-10-17,,50001.0,100000.0
71,Fidelity Spartan 500 Fund,,Sold,2017-10-17,,50001.0,100000.0
15,Fidelity Contrafund Fund,,Purchased,2018-01-24,,1001.0,15000.0
16,Fidelity Contrafund Fund,,Purchased,2018-01-24,,1001.0,15000.0
17,Fidelity Contrafund Fund,,Sold,2018-01-24,,,
18,Fidelity Contrafund Fund,,Sold,2018-01-24,,,
19,Fidelity Contrafund Fund,,Purchased,2018-01-24,,1001.0,15000.0
20,Fidelity Contrafund Fund,,Purchased,2018-01-24,,1001.0,15000.0
21,Fidelity Diversified International Fund,,Purchased,2018-01-24,,1001.0,15000.0
22,Fidelity Diversified International Fund,,Purchased,2018-01-24,,1001.0,15000.0
23,Fidelity Diversified International Fund,,Sold,2018-01-24,,,
24,Fidelity Diversified International Fund,,Sold,2018-01-24,,,
25,Fidelity Diversified International Fund,,Purchased,2018-01-24,,1001.0,15000.0
26,Fidelity Diversified International Fund,,Purchased,2018-01-24,,1001.0,15000.0
29,Fidelity Spartan 500 Fund,,Sold,2018-01-24,,,
30,Fidelity Spartan 500 Fund,,Sold,2018-01-24,,,
31,Fidelity Spartan 500 Fund,,Purchased,2018-01-24,,1001.0,15000.0
32,Fidelity Spartan 500 Fund,,Purchased,2018-01-24,,1001.0,15000.0
33,Fidelity Spartan 500 Fund,,Purchased,2018-01-24,,1001.0,15000.0
34,Fidelity Spartan 500 Fund,,Purchased,2018-01-24,,1001.0,15000.0
35,Fidelity Total Bond Fund,,Purchased,2018-01-24,,1001.0,15000.0
37,Fidelity Total Bond Fund,,Purchased,2018-01-24,,1001.0,15000.0
39,Fidelity Total Bond Fund,,Purchased,2018-01-24,,1001.0,15000.0
41,Fidelity Total Bond Fund,,Purchased,2018-01-24,,1001.0,15000.0
43,Fidelity Total Bond Fund,,Sold,2018-01-24,,,
44,Fidelity Total Bond Fund,,Sold,2018-01-24,,,
2,AT&T Inc,,Sold,2018-09-07,,15001.0,50000.0
3,AT&T Inc,,Sold,2018-09-07,,15001.0,50000.0
4,AT&T Inc,,Exchanged,2018-09-07,,,
1,AT&T Inc,,Purchased,,,1001.0,15000.0
0,AT&T Inc,,Purchased,,,1001.0,15000.0
1,AT&T Inc,,Purchased,,,1001.0,15000.0
1,AT&T Inc,,Purchased,,,1001.0,15000.0
4,AT&T Inc,,Purchased,,,1001.0,15000.0
5,AT&T Inc,,Purchased,,,1001.0,15000.0
6,AT&T Inc,,Purchased,,,1001.0,15000.0
7,AT&T Inc,,Purchased,,,1001.0,15000.0
1,AT&T Inc,,Purchased,,,1001.0,15000.0
1,AT&T Inc,,Purchased,,,,
9,AT&T Inc,,Purchased,,,1001.0,15000.0
0,Alliant Energy,,Purchased,,,1001.0,15000.0
1,Alliant Energy,,Purchased,,,1001.0,15000.0
0,Alliant Energy,,Purchased,,,1001.0,15000.0
0,Alliant Energy,,Purchased,,,1001.0,15000.0
1,Alliant Energy,,Purchased,,,1001.0,15000.0
2,Alliant Energy,,Purchased,,,1001.0,15000.0
3,Alliant Energy,,Purchased,,,1001.0,15000.0
0,Alliant Energy,,Purchased,,,1001.0,15000.0
0,Alliant Energy,,Purchased,,,1001.0,15000.0
2,American Century Global Growth Fund,,Purchased,,,1001.0,15000.0
3,American Century International Growth Fd,,Purchased,,,1001.0,15000.0
0,American Century Tax Free Bond Fund,,Purchased,,,1001.0,15000.0
0,American Century Tax Free Bond Fund,,Purchased,,,,
7,American Century Value Fund,,Purchased,,,1001.0,15000.0
10,Baron Asset Fund,,Purchased,,,1001.0,15000.0
11,"Becton, Dickinson & Co",,Purchased,,,1001.0,15000.0
2,C Fund (Federal Thrift Savings Plan),,Purchased,,,,
12,Columbia Real Estate Equity Fund,,Purchased,,,1001.0,15000.0
14,Dell Inc,,Purchased,,,1001.0,15000.0
1,Duke Energy,,Purchased,,,1001.0,15000.0
5,Duke Energy,,Purchased,,,1001.0,15000.0
6,Duke Energy,,Purchased,,,1001.0,15000.0
3,Duke Energy,,Purchased,,,1001.0,15000.0
2,Duke Energy,,Purchased,,,1001.0,15000.0
8,Duke Energy,,Purchased,,,1001.0,15000.0
9,Duke Energy,,Purchased,,,1001.0,15000.0
10,Duke Energy,,Purchased,,,1001.0,15000.0
11,Duke Energy,,Purchased,,,1001.0,15000.0
2,Duke Energy,,Purchased,,,1001.0,15000.0
3,Duke Energy,,Purchased,,,,
16,Duke Energy,,Purchased,,,1001.0,15000.0
3,Duke Energy Corp,,Purchased,,,1001.0,15000.0
4,Exxon Mobil,,Purchased,,,1001.0,15000.0
2,Exxon Mobil,,Purchased,,,1001.0,15000.0
7,Exxon Mobil,,Purchased,,,1001.0,15000.0
8,Exxon Mobil,,Purchased,,,1001.0,15000.0
4,Exxon Mobil,,Purchased,,,1001.0,15000.0
3,Exxon Mobil,,Purchased,,,1001.0,15000.0
12,Exxon Mobil,,Purchased,,,1001.0,15000.0
13,Exxon Mobil,,Purchased,,,1001.0,15000.0
14,Exxon Mobil,,Purchased,,,1001.0,15000.0
15,Exxon Mobil,,Purchased,,,1001.0,15000.0
4,Exxon Mobil,,Purchased,,,1001.0,15000.0
5,Exxon Mobil,,Purchased,,,,
17,Exxon Mobil,,Purchased,,,1001.0,15000.0
9,F Fund,,Purchased,,,1001.0,15000.0
10,F Fund,,Purchased,,,1001.0,15000.0
16,F Fund,,Purchased,,,1001.0,15000.0
17,F Fund,,Purchased,,,1001.0,15000.0
18,F Fund,,Purchased,,,1001.0,15000.0
19,F Fund,,Purchased,,,1001.0,15000.0
5,F Fund (Federal Thrift Savings Plan),,Purchased,,,1001.0,15000.0
5,Federal Thrift Savings Plan,,Purchased,,,1001.0,15000.0
6,Federal Thrift Savings Plan,,Purchased,,,1001.0,15000.0
7,Federal Thrift Savings Plan,,Purchased,,,1001.0,15000.0
8,Federal Thrift Savings Plan,,Purchased,,,1001.0,15000.0
5,Federal Thrift Savings Plan/C Fund,,Purchased,,,1001.0,15000.0
11,Federal Thrift Savings Plan/C Fund,,Purchased,,,1001.0,15000.0
12,Federal Thrift Savings Plan/C Fund,,Purchased,,,1001.0,15000.0
6,Federal Thrift Savings Plan/C Fund,,Purchased,,,1001.0,15000.0
20,Federal Thrift Savings Plan/C Fund,,Purchased,,,1001.0,15000.0
21,Federal Thrift Savings Plan/C Fund,,Purchased,,,1001.0,15000.0
22,Federal Thrift Savings Plan/C Fund,,Purchased,,,1001.0,15000.0
23,Federal Thrift Savings Plan/C Fund,,Purchased,,,1001.0,15000.0
6,Federal Thrift Savings Plan/F Fund,,Purchased,,,1001.0,15000.0
6,Federal Thrift Savings Plan/F Fund,,Purchased,,,,
7,Federal Thrift Savings Plan/G Fund,,Purchased,,,,
13,Federal Thrift Savings Plan/I Fund,,Purchased,,,1001.0,15000.0
14,Federal Thrift Savings Plan/I Fund,,Purchased,,,1001.0,15000.0
24,Federal Thrift Savings Plan/I Fund,,Purchased,,,1001.0,15000.0
25,Federal Thrift Savings Plan/I Fund,,Purchased,,,1001.0,15000.0
26,Federal Thrift Savings Plan/I Fund,,Purchased,,,1001.0,15000.0
27,Federal Thrift Savings Plan/I Fund,,Purchased,,,1001.0,15000.0
8,Federal Thrift Savings Plan/I Fund,,Purchased,,,,
9,Federal Thrift Savings Plan/S Fund,,Purchased,,,,
18,Fidelity Aggressive Growth Fund,,Purchased,,,1001.0,15000.0
19,Fidelity Blue Chip Growth Fund,,Purchased,,,1001.0,15000.0
22,Fidelity Capital Income Fund,,Purchased,,,1001.0,15000.0
3,Fidelity Contrafund,,Purchased,,,1001.0,15000.0
24,Fidelity Contrafund,,Purchased,,,1001.0,15000.0
10,Fidelity Dividend Growth Fund,,Purchased,,,1001.0,15000.0
29,Fidelity Dividend Growth Fund,,Purchased,,,1001.0,15000.0
30,Fidelity Dividend Growth Fund,,Purchased,,,1001.0,15000.0
31,Fidelity Dividend Growth Fund,,Purchased,,,1001.0,15000.0
8,Fidelity Freedom 2020 Fund,,Purchased,,,1001.0,15000.0
27,Fidelity Freedom 2020 Fund,,Purchased,,,1001.0,15000.0
28,Fidelity Freedom 2020 Fund,,Purchased,,,1001.0,15000.0
52,Fidelity Freedom 2020 Fund,,Purchased,,,1001.0,15000.0
53,Fidelity Freedom 2020 Fund,,Purchased,,,1001.0,15000.0
54,Fidelity Freedom 2020 Fund,,Purchased,,,1001.0,15000.0
55,Fidelity Freedom 2020 Fund,,Purchased,,,1001.0,15000.0
13,Fidelity Freedom 2020 Fund,,Purchased,,,1001.0,15000.0
32,Fidelity Funds,,Purchased,,,1001.0,15000.0
35,Fidelity Ginnie Mae Fund,,Purchased,,,1001.0,15000.0
11,Fidelity Municipal Income Fund,,Purchased,,,1001.0,15000.0
12,Fidelity Municipal Income Fund,,Purchased,,,15001.0,50000.0
12,Fidelity Municipal Income Fund,,Purchased,,,,
39,Fidelity Municipal Income Fund,,Purchased,,,1001.0,15000.0
40,Fidelity OTC Portfolio Fund,,Purchased,,,1001.0,15000.0
13,Fidelity Spartan 500 Index,,Purchased,,,1001.0,15000.0
13,Fidelity Spartan 500 Index,,Purchased,,,1001.0,15000.0
45,Fidelity Spartan 500 Index,,Purchased,,,1001.0,15000.0
13,Fidelity Total Bond Fund,,Purchased,,,1001.0,15000.0
15,Fidelity Total Bond Fund,,Purchased,,,1001.0,15000.0
16,Fidelity Total Bond Fund,,Purchased,,,1001.0,15000.0
36,Fidelity Total Bond Fund,,Purchased,,,1001.0,15000.0
38,Fidelity Total Bond Fund,,Purchased,,,1001.0,15000.0
40,Fidelity Total Bond Fund,,Purchased,,,1001.0,15000.0
42,Fidelity Total Bond Fund,,Purchased,,,1001.0,15000.0
16,Fidelity Total Bond Fund,,Purchased,,,1001.0,15000.0
73,Fidelity Total Bond Fund,,Purchased,,,1001.0,15000.0
75,Fidelity Total Bond Fund,,Purchased,,,1001.0,15000.0
77,Fidelity Total Bond Fund,,Purchased,,,1001.0,15000.0
79,Fidelity Total Bond Fund,,Purchased,,,1001.0,15000.0
80,Fidelity Total Bond Fund,,Purchased,,,1001.0,15000.0
81,Fidelity Total Bond Fund,,Purchased,,,1001.0,15000.0
83,Fidelity Total Bond Fund,,Purchased,,,1001.0,15000.0
85,Fidelity Total Bond Fund,,Purchased,,,1001.0,15000.0
86,Fidelity Total Bond Fund,,Purchased,,,1001.0,15000.0
88,Fidelity Total Bond Fund,,Purchased,,,1001.0,15000.0
89,Fidelity Total Bond Fund,,Purchased,,,1001.0,15000.0
91,Fidelity Total Bond Fund,,Purchased,,,1001.0,15000.0
17,Fidelity Total Bond Fund,,Purchased,,,1001.0,15000.0
18,Fidelity Total Bond Fund,,Purchased,,,1001.0,15000.0
20,Fidelity Total Bond Fund,,Purchased,,,1001.0,15000.0
17,Fidelity Total Bond Index,,Purchased,,,1001.0,15000.0
18,Fidelity Total Bond Index,,Purchased,,,1001.0,15000.0
19,Fidelity Total Bond Index,,Purchased,,,1001.0,15000.0
17,Fidelity Total Bond Index,,Purchased,,,,
21,Fidelity VIP Individual Freedom 2020 Fnd,,Purchased,,Not Self Directed,1001.0,15000.0
19,Fidelity VIP Individual Freedom 2020 Fnd,,Purchased,,,1001.0,15000.0
16,Fidelity VIP Individual Freedom 2020 Fnd,,Purchased,,,1001.0,15000.0
20,Fidelity VIP Individual Freedom 2020 Fnd,,Purchased,,,,
52,Fidelity VIP Individual Freedom 2020 Fnd,,Purchased,,,1001.0,15000.0
20,G Fund (Federal Thrift Savings Plan),,Purchased,,,1001.0,15000.0
22,I Fund (Federal Thrift Savings Plan),,Purchased,,,1001.0,15000.0
21,I Fund (Federal Thrift Savings Plan),,Purchased,,,1001.0,15000.0
17,Johnson Controls,,Purchased,,,1001.0,15000.0
22,Johnson Controls,,Purchased,,,1001.0,15000.0
17,Johnson Controls,,Purchased,,,100001.0,250000.0
21,Johnson Controls,,Purchased,,,1001.0,15000.0
24,Johnson Controls,,Purchased,,,,
53,Johnson Controls,,Purchased,,,1001.0,15000.0
23,Johnson Controls Inc,,Purchased,,,1001.0,15000.0
45,Johnson Controls International plc Ordinary Share,,Purchased,,,1001.0,15000.0
46,Johnson Controls International plc Ordinary Share,,Purchased,,,1001.0,15000.0
96,Johnson Controls International plc Ordinary Share,,Purchased,,,1001.0,15000.0
97,Johnson Controls International plc Ordinary Share,,Purchased,,,1001.0,15000.0
98,Johnson Controls International plc Ordinary Share,,Purchased,,,1001.0,15000.0
99,Johnson Controls International plc Ordinary Share,,Purchased,,,1001.0,15000.0
19,Mid First Money Market Fund,,Purchased,,,15001.0,50000.0
24,MidFirst/Money Market,,Purchased,,,15001.0,50000.0
25,MidFirst/Money Market,,Sold,,,15001.0,50000.0
18,Regions Financial,,Purchased,,,1001.0,15000.0
54,Regions Financial,,Purchased,,,1001.0,15000.0
19,Spectra Energy,,Purchased,,,1001.0,15000.0
55,Spectra Energy,,Purchased,,,1001.0,15000.0
26,T Rowe Price Equity Income Fund,,Purchased,,,1001.0,15000.0
20,T Rowe Price Equity Income Fund,,Purchased,,,1001.0,15000.0
47,T Rowe Price Equity Income Fund,,Purchased,,,1001.0,15000.0
48,T Rowe Price Equity Income Fund,,Purchased,,,1001.0,15000.0
27,T Rowe Price Equity Income Fund,,Purchased,,,1001.0,15000.0
20,T Rowe Price Equity Income Fund,,Purchased,,,15001.0,50000.0
104,T Rowe Price Equity Income Fund,,Purchased,,,1001.0,15000.0
105,T Rowe Price Equity Income Fund,,Purchased,,,1001.0,15000.0
106,T Rowe Price Equity Income Fund,,Purchased,,,1001.0,15000.0
107,T Rowe Price Equity Income Fund,,Purchased,,,1001.0,15000.0
22,T Rowe Price Equity Income Fund,,Purchased,,,1001.0,15000.0
25,T Rowe Price Equity Income Fund,,Purchased,,,,
56,T Rowe Price Equity Income Fund,,Purchased,,,1001.0,15000.0
21,Thrift Savings Plan,,Purchased,,,1001.0,15000.0
22,Thrift Savings Plan,,Purchased,,,1001.0,15000.0
23,Thrift Savings Plan,,Purchased,,,1001.0,15000.0
24,Thrift Savings Plan,,Purchased,,,1001.0,15000.0
49,Thrift Savings Plan/G Fund,,Purchased,,,1001.0,15000.0
50,Thrift Savings Plan/G Fund,,Purchased,,,1001.0,15000.0
108,Thrift Savings Plan/G Fund,,Purchased,,,1001.0,15000.0
109,Thrift Savings Plan/G Fund,,Purchased,,,1001.0,15000.0
110,Thrift Savings Plan/G Fund,,Purchased,,,1001.0,15000.0
111,Thrift Savings Plan/G Fund,,Purchased,,,1001.0,15000.0
31,US Federal Thrift Savings Plan/G Fund,,Purchased,,,1001.0,15000.0
26,Vanguard Dividend Growth Fund,,Purchased,,,1001.0,15000.0
51,Vanguard Dividend Growth Fund,,Purchased,,,1001.0,15000.0
52,Vanguard Dividend Growth Fund,,Purchased,,,1001.0,15000.0
112,Vanguard Dividend Growth Fund,,Purchased,,,1001.0,15000.0
113,Vanguard Dividend Growth Fund,,Purchased,,,1001.0,15000.0
114,Vanguard Dividend Growth Fund,,Purchased,,,1001.0,15000.0
115,Vanguard Dividend Growth Fund,,Purchased,,,1001.0,15000.0
23,Vanguard Dividend Growth Fund,,Purchased,,,1001.0,15000.0
53,Vanguard High Yield Exempt Fund,,Purchased,,,1001.0,15000.0
54,Vanguard High Yield Exempt Fund,,Purchased,,,1001.0,15000.0
116,Vanguard High Yield Exempt Fund,,Purchased,,,1001.0,15000.0
117,Vanguard High Yield Exempt Fund,,Purchased,,,1001.0,15000.0
118,Vanguard High Yield Exempt Fund,,Purchased,,,1001.0,15000.0
119,Vanguard High Yield Exempt Fund,,Purchased,,,1001.0,15000.0
33,Vanguard High Yield Tax Exempt Fund,,Purchased,,,15001.0,50000.0
28,Vanguard High Yield Tax Exempt Fund,,Purchased,,,15001.0,50000.0
28,Vanguard High Yield Tax Exempt Fund,,Purchased,,,15001.0,50000.0
24,Vanguard High Yield Tax Exempt Fund,,Purchased,,,1001.0,15000.0
26,Vanguard High Yield Tax-Exempt Fund,,Purchased,,,15001.0,50000.0
34,Vanguard Inflation Protected Securities,,Purchased,,,1001.0,15000.0
29,Vanguard Inflation Protection Fund,,Purchased,,,1001.0,15000.0
30,Vanguard Total International Stock Fund,,Purchased,,,1001.0,15000.0
55,Vanguard Total International Stock Fund,,Purchased,,,1001.0,15000.0
56,Vanguard Total International Stock Fund,,Purchased,,,1001.0,15000.0
120,Vanguard Total International Stock Fund,,Purchased,,,1001.0,15000.0
121,Vanguard Total International Stock Fund,,Purchased,,,1001.0,15000.0
122,Vanguard Total International Stock Fund,,Purchased,,,1001.0,15000.0
123,Vanguard Total International Stock Fund,,Purchased,,,1001.0,15000.0
25,Vanguard Total International Stock Fund,,Purchased,,,1001.0,15000.0
59,Vanguard Total International Stock Fund,,Purchased,,,1001.0,15000.0
30,Vanguard Total International Stock Index,,Purchased,,,1001.0,15000.0
30,Vanguard Total International Stock Index,,Purchased,,,15001.0,50000.0
40,Vanguard Total Stock Market Index,,Purchased,,,1001.0,15000.0
32,Vanguard Total Stock Market Index,,Purchased,,,1001.0,15000.0
57,Vanguard Total Stock Market Index,,Purchased,,,1001.0,15000.0
58,Vanguard Total Stock Market Index,,Purchased,,,1001.0,15000.0
31,Vanguard Total Stock Market Index,,Purchased,,,1001.0,15000.0
30,Vanguard Total Stock Market Index,,Purchased,,,15001.0,50000.0
124,Vanguard Total Stock Market Index,,Purchased,,,1001.0,15000.0
125,Vanguard Total Stock Market Index,,Purchased,,,1001.0,15000.0
126,Vanguard Total Stock Market Index,,Purchased,,,1001.0,15000.0
127,Vanguard Total Stock Market Index,,Purchased,,,1001.0,15000.0
26,Vanguard Total Stock Market Index,,Purchased,,,1001.0,15000.0
31,Vanguard Total Stock Market Index,,Purchased,,,,
59,Wells Fargo,,Purchased,,,1001.0,15000.0
60,Wells Fargo,,Purchased,,,1001.0,15000.0
31,Wells Fargo,,Purchased,,,1001.0,15000.0
128,Wells Fargo,,Purchased,,,1001.0,15000.0
129,Wells Fargo,,Purchased,,,1001.0,15000.0
130,Wells Fargo,,Purchased,,,1001.0,15000.0
131,Wells Fargo,,Purchased,,,1001.0,15000.0
27,Wells Fargo,,Purchased,,,1001.0,15000.0
60,Wells Fargo,,Purchased,,,1001.0,15000.0
