,orgname,ultorg,action,date1,transnotes,minvalue,maxvalue
0,"5707 Bighorn/Truckee, CA",,Sold,2010-04-15,,250001.0,500000.0
0,Global Opportunities,,Sold,2014-12-30,,15001.0,50000.0
1,Global Strategic Income,,Sold,2014-12-30,,15001.0,50000.0
2,Growth Fund of America Fund,,Sold,2014-12-30,,15001.0,50000.0
3,Value Equity,,Sold,2014-12-30,,15001.0,50000.0
0,"680 D STREET, LLC, 50% Interest",,Sold,2017-01-04,,,
1,"680 D STREET, LLC, 50% Interest",,Purchased,2017-01-04,,50001.0,100000.0
2,"680 D STREET, LLC, 50% Interest",,Purchased,2017-01-04,,50001.0,100000.0
6,EMPOWER RETIREMENT TRADITIONAL IRA - GREAT- WEST L,,Purchased,2017-06-27,,1001.0,15000.0
9,EMPOWER RETIREMENT TRADITIONAL IRA - GREAT- WEST L,,Purchased,2017-06-27,,1001.0,15000.0
12,EMPOWER RETIREMENT TRADITIONAL IRA - GREAT- WEST L,,Sold,2017-06-27,,,
7,EMPOWER RETIREMENT TRADITIONAL IRA - GREAT- WEST L,,Purchased,2017-09-08,,1001.0,15000.0
10,EMPOWER RETIREMENT TRADITIONAL IRA - GREAT- WEST L,,Purchased,2017-09-08,,1001.0,15000.0
13,EMPOWER RETIREMENT TRADITIONAL IRA - GREAT- WEST L,,Sold,2017-09-08,,,
15,WORLD WATERS HOLDINGS,,Sold,2017-12-12,,,
16,WORLD WATERS HOLDINGS,,Purchased,2017-12-12,,250001.0,500000.0
17,WORLD WATERS HOLDINGS,,Purchased,2017-12-12,,250001.0,500000.0
3,American Funds 2040 Target Date Fund,,Purchased,2017-12-28,,1001.0,15000.0
4,American Funds 2040 Target Date Fund,,Sold,2017-12-28,,,
5,American Funds 2040 Target Date Fund,,Purchased,2017-12-28,,1001.0,15000.0
8,EMPOWER RETIREMENT TRADITIONAL IRA - GREAT- WEST L,,Purchased,2017-12-28,,1001.0,15000.0
11,EMPOWER RETIREMENT TRADITIONAL IRA - GREAT- WEST L,,Purchased,2017-12-28,,1001.0,15000.0
14,EMPOWER RETIREMENT TRADITIONAL IRA - GREAT- WEST L,,Sold,2017-12-28,,,
2,- AMERICAN FUNDS 2040 TARGET DATE RETIREMENT FUND ,,Purchased,,,1001.0,15000.0
3,Empower Retirement Traditional IRA,,Purchased,,,1001.0,15000.0
4,WORLD WATERS HOLDING,,Purchased,,,100001.0,250000.0
0,,,Purchased,,,1001.0,15000.0
1,,,Purchased,,,1001.0,15000.0
