,orgname,ultorg,action,date1,transnotes,minvalue,maxvalue
14,T Rowe Price Capital Appreciation Fund,,Sold,2008-01-23,,1001,15000
21,T Rowe Price Small Cap Value Fund,,Sold,2008-01-23,,1001,15000
19,T Rowe Price Prime Reserve Money Fund,,Purchased,2008-01-24,,15001,50000
20,T Rowe Price Real Estate Fund,,Sold,2008-01-24,,15001,50000
22,T Rowe Price Spectrum Growth Fund,,Purchased,2008-01-24,,15001,50000
23,T Rowe Price Spectrum Growth Fund,,Sold,2008-02-12,,15001,50000
18,T Rowe Price Prime Reserve Money Fund,,Purchased,2008-02-13,,15001,50000
2,Banc of America Royce Total Return,,Sold,2008-09-24,,1001,15000
3,Columbia Cash Reserves Daily,,Purchased,2008-09-24,,1001,15000
1,Banc of America Royce Low Priced Stock,,Purchased,2008-09-25,,1001,15000
4,Columbia Cash Reserves Daily,,Sold,2008-09-25,,1001,15000
0,Banc of America Oppenheimer Gold & Spec,,Purchased,2008-09-26,,1001,15000
5,Columbia Cash Reserves Daily,,Sold,2008-09-26,,1001,15000
7,Dodge & Cox International Fund,,Sold,2008-09-26,,1001,15000
10,Dodge & Cox Stock Fund,,Sold,2008-09-26,,1001,15000
11,Prime Reserve Money Fund,,Purchased,2008-09-26,,1001,15000
13,SPDR Gold Trust ETF,,Purchased,2008-09-26,,1001,15000
6,Dodge & Cox Balanced Fund,,Sold,2008-10-14,,1001,15000
8,Dodge & Cox International Fund,,Sold,2008-10-14,,1001,15000
9,Dodge & Cox Stock Fund,,Sold,2008-10-14,,1001,15000
15,T Rowe Price Global Stock Fund,,Sold,2008-10-14,,1001,15000
16,T Rowe Price Growth & Income Fund,,Sold,2008-10-14,,1001,15000
24,T Rowe Price Spectrum Growth Fund,,Sold,2008-10-14,,1001,15000
12,Prime Reserve Money Fund,,Purchased,2008-10-15,,15001,50000
17,T Rowe Price Prime Reserve Money Fund,,Purchased,2008-10-15,,15001,50000
0,Banc of America Dodge & Cox Intl,,Sold,2009-03-05,,1001,15000
1,Banc of America Dodge & Cox Stock Fund,,Sold,2009-03-05,,1001,15000
2,Banc of America Royce Low Priced Stock,,Sold,2009-03-05,,1001,15000
3,Columbia Cash Reserves Daily,,Purchased,2009-03-05,,1001,15000
4,Columbia Cash Reserves Daily,,Sold,2009-03-05,,15001,50000
5,Columbia Cash Reserves Daily,,Purchased,2009-03-05,,1001,15000
6,Columbia Cash Reserves Daily,,Purchased,2009-03-05,,1001,15000
0,T Rowe Price IRA Rollover Prime Reserve,,Sold,2010-10-01,,1001,15000
0,T Rowe Price IRA Rollover Prime Reserve,,Exchanged,2011-09-30,,1001,15000
0,MTB Money Market Fund,,Exchanged,2012-01-05,,1001,15000
1,Prime Reserve Money Fund,,Exchanged,2012-10-31,,1001,15000
