,orgname,ultorg,action,date1,transnotes,minvalue,maxvalue
17,Nexity Financial,,Sold,2008-01-07,,1001.0,15000.0
2,Alliance Bankshares,,Sold,2008-01-22,,1001.0,15000.0
13,John Hancock Bank & Thrift Opp 1:4,,Purchased/Sold,2008-01-23,,15001.0,50000.0
12,John Hancock Bank & Thrift Opp 1:4,,Purchased/Sold,2008-02-05,,15001.0,50000.0
23,Permanent Portfolio Fund,,Purchased,2008-03-10,,1001.0,15000.0
24,Permanent Portfolio Fund,,Purchased,2008-04-04,,1001.0,15000.0
18,Oakmark Select Fund,,Sold,2008-04-10,,50001.0,100000.0
9,Fairholme Funds,,Purchased,2008-04-11,,15001.0,50000.0
10,Fairholme Funds,,Purchased,2008-04-11,,15001.0,50000.0
14,Leuthold Asset Allocation Fund,,Purchased,2008-04-11,,15001.0,50000.0
16,National City Corp,,Purchased/Sold,2008-04-18,,1001.0,15000.0
25,Permanent Portfolio Fund,,Purchased,2008-05-05,,1001.0,15000.0
27,Permanent Portfolio Fund,,Purchased,2008-06-04,,1001.0,15000.0
30,PIMCO Developing Local Markets Fund,,Sold,2008-06-05,,1001.0,15000.0
26,Permanent Portfolio Fund,,Purchased,2008-07-07,,1001.0,15000.0
19,Permanent Portfolio Fund,,Purchased,2008-08-04,,1001.0,15000.0
6,Baron Small Cap Fund,,Sold,2008-08-07,,1001.0,15000.0
22,Permanent Portfolio Fund,,Purchased,2008-09-04,,1001.0,15000.0
1,Alliance Bankshares,,Sold,2008-09-22,,1001.0,15000.0
15,National City Corp,,Purchased/Sold,2008-09-30,,1001.0,15000.0
28,Permanent Portfolio Fund,,Purchased,2008-10-06,,1001.0,15000.0
32,Tweedy Browne Global Value Fund,,Sold,2008-10-07,,15001.0,50000.0
8,Dodge & Cox International Fund,,Sold,2008-10-08,,15001.0,50000.0
4,Artisan International Fund,,Sold,2008-10-10,,15001.0,50000.0
5,Baron Small Cap Fund,,Sold,2008-10-10,,15001.0,50000.0
29,PIMCO Developing Local Markets Fund,,Sold,2008-10-10,,1001.0,15000.0
31,Proshares Ultrashort Dow 30,,Sold,2008-10-13,,15001.0,50000.0
21,Permanent Portfolio Fund,,Purchased,2008-11-04,,1001.0,15000.0
20,Permanent Portfolio Fund,,Purchased,2008-12-04,,1001.0,15000.0
0,"300 E 214th Street/Euclid, OH",,Purchased,2008-12-24,,50001.0,100000.0
12,Harbor Bond Fund,,Purchased,2009-02-25,,15001.0,50000.0
13,Harbor Bond Fund,,Purchased,2009-02-25,,15001.0,50000.0
23,Selected American Shares Fund,,Sold,2009-02-25,,15001.0,50000.0
6,Fidelity US Govt Reserves,,Purchased,2009-03-18,,50001.0,100000.0
8,Fidelity US Govt Reserves,,Purchased,2009-03-18,,50001.0,100000.0
22,Selected American Shares Fund,,Sold,2009-05-25,,1001.0,15000.0
16,Ivy Funds Asset Strategy Fund,,Purchased,2009-06-17,,50001.0,100000.0
18,Ivy Funds Asset Strategy Y,,Purchased,2009-06-17,,15001.0,50000.0
19,Loomis Sayles Bond Fund,,Purchased,2009-06-17,,15001.0,50000.0
24,Templeton Global Bond Fund,,Purchased,2009-06-17,,15001.0,50000.0
25,Templeton Global Bond Fund,,Purchased,2009-06-17,,15001.0,50000.0
4,Calvert Short Duration Income Fund,,Purchased,2009-08-28,,15001.0,50000.0
9,Fidelity US Govt Reserves,,Sold,2009-08-28,,50001.0,100000.0
11,Greenspring Fund,,Purchased,2009-08-28,,15001.0,50000.0
14,Hussman Strategic Growth Fund,,Purchased,2009-08-28,,50001.0,100000.0
17,Ivy Funds Asset Strategy Fund,,Purchased,2009-08-28,,50001.0,100000.0
26,"Washington Mut Nk FSB Park City, UT CTF ",,Sold,2009-08-28,,15001.0,50000.0
15,iShares DJ Sel Div INX,,Sold,2009-08-28,,1001.0,15000.0
7,Fidelity US Govt Reserves,,Sold,2009-08-31,,50001.0,100000.0
10,FPA Crescent Portfolio,,Purchased,2009-10-07,,15001.0,50000.0
20,Masters Select International Fund,,Purchased,2009-10-07,,1001.0,15000.0
5,DWS Dremen High Return Equity Fund,,Sold,2010-06-15,,1001.0,15000.0
0,Alliance Bernstein Muni Income II Ohio,,Sold,2010-09-29,,1001.0,15000.0
1,Alliance Bernstein Muni Income II Ohio,,Purchased,2010-09-29,,1001.0,15000.0
2,Ameritrade Institutional,,Purchased,,,,
3,Ameritrade Institutional,,Sold,,,,
3,Artisan International Fund,,Sold,,,,
7,Capital Income Builder Fund,,Purchased,,,1001.0,15000.0
11,Ivy Asset Strategy Fund ,,Purchased,,,15001.0,50000.0
21,Permanent Portfolio Fund,,Purchased,,,15001.0,50000.0
33,Washington Mutual,,Sold,,,,
