,orgname,ultorg,action,date1,transnotes,minvalue,maxvalue
7,Univision Communications,Broadcasting Media Partners,Sold,2007-03-29,,1001.0,15000.0
0,Bombay Co,,Sold,2007-05-07,,1001.0,15000.0
6,Seraph Parturus II,,Purchased,2008-03-31,,15001.0,50000.0
1,Charles Schwab Money Market,,Purchased,2008-04-28,,100001.0,250000.0
2,Citibank,Citigroup Inc,Purchased,2008-11-07,,1001.0,15000.0
3,General Electric,,Purchased,2008-11-07,,1001.0,15000.0
4,Intel Corp,,Purchased,2008-11-07,,1001.0,15000.0
5,Microsoft Corp,,Purchased,2008-11-07,,1001.0,15000.0
4,General Electric,,Purchased,2009-01-23,,1001.0,15000.0
0,Align Technology,,Sold,2009-02-23,,1001.0,15000.0
7,Hewlett-Packard,,Sold,2009-02-23,,1001.0,15000.0
1,Citibank,Citigroup Inc,Sold,2009-09-20,,1001.0,15000.0
3,General Electric,,Sold,2009-09-20,,1001.0,15000.0
5,General Electric,,Purchased,2009-09-20,,1001.0,15000.0
6,Hewlett-Packard,,Sold,2009-09-20,,1001.0,15000.0
8,Progressive Corp,,Sold,2009-09-20,,1001.0,15000.0
2,Ford Motor Co,,Purchased,2009-11-09,,1001.0,15000.0
1,Danos Shipping Co,,Purchased,2011-11-20,,15001.0,50000.0
0,Aries Capitol Closed-end Mutual Fund,,Purchased,2011-12-01,,50001.0,100000.0
0,American Century Vista Fund,,Sold,2012-06-01,,1001.0,15000.0
1,AOL Inc,,Sold,2012-11-02,,,
0,Conceptus Inc,,Sold,2013-06-06,(Stock Options),50001.0,100000.0
0,Schwab US Small-Cap ETF (SCHA),,Purchased,2014-11-20,,50001.0,100000.0
15,Palm Springs home,,Exchanged,2018-02-13,,,
16,Palm Springs home,,Sold,2018-02-13,,1000001.0,5000000.0
17,Palm Springs home,,Sold,2018-02-13,,1000001.0,5000000.0
3,Cisco Systems,,Exchanged,2018-07-30,,,
4,Cisco Systems,,Sold,2018-07-30,,1001.0,15000.0
5,Cisco Systems,,Sold,2018-07-30,,1001.0,15000.0
6,Facebook Inc,,Purchased,2018-07-30,,15001.0,50000.0
7,Facebook Inc,,Sold,2018-07-30,,,
8,Facebook Inc,,Purchased,2018-07-30,,15001.0,50000.0
9,Ford Motor Co,,Exchanged,2018-07-30,,,
10,Ford Motor Co,,Sold,2018-07-30,,1001.0,15000.0
11,Ford Motor Co,,Sold,2018-07-30,,1001.0,15000.0
12,General Electric,,Sold,2018-07-30,,1001.0,15000.0
13,General Electric,,Sold,2018-07-30,,1001.0,15000.0
14,General Electric,,Exchanged,2018-07-30,,,
18,Xylem Inc,,Sold,2018-07-30,,1001.0,15000.0
19,Xylem Inc,,Sold,2018-07-30,,1001.0,15000.0
0,Barrick Gold Corp,,Sold,2018-10-22,,,
1,Barrick Gold Corp,,Purchased,2018-10-22,,1001.0,15000.0
2,Barrick Gold Corp,,Purchased,2018-10-22,,1001.0,15000.0
