,orgname,ultorg,action,date1,transnotes,minvalue,maxvalue
3,Dfa Tm Us Small Cap Portfolio,,Purchased,2008-01-28,,1700.0,1700.0
26,Ipath Msci India Index Etn,,Sold,2008-02-07,,4138.0,4138.0
4,DFA US Micro Cap Portfolio Fund,,Purchased,2008-03-03,,2100.0,2100.0
5,DFA US Micro Cap Portfolio Fund,,Purchased,2008-03-03,,2100.0,2100.0
1,Dfa International Small Company Port,,Sold,2008-04-09,,4133.0,4133.0
34,Vanguard Pacific Stock Index,,Sold,2008-04-09,,4200.0,4200.0
43,Vanguard Total Stock Market Index,,Sold,2008-04-09,,2100.0,2100.0
0,DFA International Small Cap Value,,Purchased,2008-04-16,,,
46,Vanguard Value Index Institutional,,Sold,2008-07-10,,167.0,167.0
47,Vanguard Value Index Institutional,,Sold,2008-07-10,,226.0,226.0
48,Vanguard Value Index Institutional,,Sold,2008-07-10,,191.0,191.0
49,Vanguard Value Index Institutional,,Sold,2008-07-10,,196.0,196.0
50,Vanguard Value Index Institutional,,Sold,2008-07-10,,138.0,138.0
51,Vanguard Value Index Institutional,,Sold,2008-07-10,,26087.0,26087.0
32,Vanguard Mega Cap 300 Value Index,,Purchased,2008-07-11,,26300.0,26300.0
33,Vanguard Mega Cap 300 Value Index,,Purchased,2008-07-11,,26300.0,26300.0
16,DFA US Small Cap Value Portfolio,,Sold,2008-07-16,,207.0,207.0
17,DFA US Small Cap Value Portfolio,,Sold,2008-07-16,,72.0,72.0
18,DFA US Small Cap Value Portfolio,,Sold,2008-07-16,,4720.0,4720.0
19,DFA US Small Cap Value Portfolio,,Sold,2008-07-16,,74.0,74.0
20,DFA US Small Cap Value Portfolio,,Sold,2008-07-16,,211.0,211.0
21,DFA US Small Cap Value Portfolio,,Sold,2008-07-16,,47535.0,47535.0
22,DFA US Small Cap Value Portfolio,,Sold,2008-07-16,,1267.0,1267.0
37,Vanguard Small Cap Value Index,,Purchased,2008-07-17,,54549.0,54549.0
38,Vanguard Small Cap Value Index,,Purchased,2008-07-17,,54549.0,54549.0
6,DFA US Micro Cap Portfolio Fund,,Sold,2008-07-30,,119.0,119.0
7,DFA US Micro Cap Portfolio Fund,,Sold,2008-07-30,,380.0,380.0
8,DFA US Micro Cap Portfolio Fund,,Sold,2008-07-30,,119.0,119.0
9,DFA US Micro Cap Portfolio Fund,,Sold,2008-07-30,,380.0,380.0
29,Vanguard European Stock Index,,Sold,2008-08-01,,13940.0,13940.0
35,Vanguard Pacific Stock Index,,Sold,2008-08-01,,3564.0,3564.0
44,Vanguard Total Stock Market Index,,Sold,2008-08-01,,29067.0,29067.0
31,Vanguard Inst Developed Markets Index,,Purchased,2008-08-04,,17081.0,17081.0
27,iShares Dj Us Total Market Index Etf,,Purchased,2008-08-05,,27616.0,27616.0
30,Vanguard European Stock Index,,Purchased,2008-09-08,,1900.0,1900.0
28,iShares Dj Us Total Market Index Etf,,Sold,2008-10-10,,22387.0,22387.0
23,Eaton Vance Tax Managed Emerging Markets,,Purchased,2008-10-14,,3600.0,3600.0
42,Vanguard Total Stock Market Index,,Purchased,2008-10-14,,17100.0,17100.0
2,Dfa Tm Us Marketwide Value Ii,,Purchased,2008-10-20,,1900.0,1900.0
24,Fidelity Spartan Total Market Index,,Purchased,2008-11-19,,13668.0,13668.0
45,Vanguard Total Stock Market Index,,Sold,2008-11-19,,14500.0,14500.0
10,DFA US Micro Cap Portfolio Fund,,Sold,2008-11-26,,78.0,78.0
11,DFA US Micro Cap Portfolio Fund,,Sold,2008-11-26,,59.0,59.0
12,DFA US Micro Cap Portfolio Fund,,Sold,2008-11-26,,411.0,411.0
41,Vanguard Small Cap Value Index,,Purchased,2008-12-23,REINVESTED DIVIDENDS,,
13,DFA US Micro Cap Portfolio Fund,,Sold,2008-12-24,,88.0,88.0
14,DFA US Micro Cap Portfolio Fund,,Sold,2008-12-24,,102.0,102.0
15,DFA US Micro Cap Portfolio Fund,,Sold,2008-12-24,,808.0,808.0
0,PIMCO Funds REIT,,Sold,2010-07-20,,1001.0,15000.0
1,Powershares DB ETF,,Purchased,2010-07-20,,1001.0,15000.0
0,DFA DFA US Large III,,Sold,,,1001.0,15000.0
1,DFA Emerging Markets Small Cap,,Purchased,,,1001.0,15000.0
2,DFA International III,,Purchased,,,1001.0,15000.0
3,DFA International Smal PTFL,,Purchased,,,1001.0,15000.0
4,DFA International Small Cap Value Fund,,Purchased,,,1001.0,15000.0
5,DFA US Micro Cap Fund,,Sold,,,1001.0,15000.0
6,DFS Institutional Small Cap Value Fund,,Purchased,,,1001.0,15000.0
25,International Small Cap Value,,Purchased,,REINVESTED DIVIDENDS,,
7,PIMCO Stocks PLUS Fund Institutional,,Sold,,,1001.0,15000.0
8,Principal Global Real Estate Fund,,Purchased,,,1001.0,15000.0
9,SPDR DJ Wilshire International REIT,,Sold,,,1001.0,15000.0
10,Vanguard Developing Markets Index,,Sold,,,15001.0,50000.0
11,Vanguard Developing Markets Index,,Purchased,,,1001.0,15000.0
12,Vanguard Int Eq Euro Stock Index,,Sold,,,1001.0,15000.0
13,Vanguard Int Equity Index Euro,,Sold,,,1001.0,15000.0
14,Vanguard International Equity Index,,Sold,,,1001.0,15000.0
15,Vanguard REIT Index,,Sold,,,1001.0,15000.0
16,Vanguard Small Cap Value Index,,Sold,,,1001.0,15000.0
36,Vanguard Small Cap Value Index,,Purchased,,,,
39,Vanguard Small Cap Value Index,,Purchased,,,,
40,Vanguard Small Cap Value Index,,Purchased,,,1001.0,15000.0
17,Vanguard Tax Managed International Inst,,Purchased,,,15001.0,50000.0
18,WisdomTree Emerging Markets Equity Fund,,Purchased,,,1001.0,15000.0
