,orgname,ultorg,action,date1,transnotes,minvalue,maxvalue
2,BMO Intermediate Tax Free Fund,,Purchased,2012-06-04,,1001.0,15000.0
7,Principal Mid Cap Blend,,Purchased,2012-06-04,,1001.0,15000.0
9,Schwab S&P 500 Index,,Purchased,2012-06-04,,1001.0,15000.0
0,American Century Equity Growth Inv Fund,,Purchased,2012-06-05,,1001.0,15000.0
1,Baird Core Plus Bond,,Purchased,2012-06-19,,1001.0,15000.0
5,Metropolitan West Total Return Bond Fund,,Purchased,2012-06-19,,15001.0,50000.0
6,PIMCO Total Return Fund,,Purchased,2012-06-19,,1001.0,15000.0
8,Principal Mid Cap Blend,,Purchased,2012-06-29,,1001.0,15000.0
3,Fidelity Low Priced Stock Fund,,Purchased,2012-07-06,,1001.0,15000.0
4,Gain On Maloof Trust,,Sold,2012-09-01,,1001.0,15000.0
0,Schwab Health Care Fund,,Purchased,2013-03-20,,1001.0,15000.0
1,Schwab S&P 500 Fund,,Purchased,2013-07-31,,15001.0,50000.0
1,Charles Schwab 401K Cash & MM Fund,,Exchanged,2014-04-29,,15001.0,50000.0
2,Fidelity Low Priced Stock Fund,,Exchanged,2014-04-29,,1001.0,15000.0
3,First Eagle Fund of America,,Exchanged,2014-04-29,,1001.0,15000.0
4,Harding Loevner International Sm,,Exchanged,2014-04-29,,1001.0,15000.0
5,Schwab Health Care Fund,,Exchanged,2014-04-29,,1001.0,15000.0
6,Schwab Health Care Fund,,Purchased,2014-12-09,,1001.0,15000.0
0,American Century Equity Index,,Purchased,2014-12-12,,1001.0,15000.0
0,American Century Equity Index,,Sold,2017-12-01,,1001.0,15000.0
1,American Century Equity Index,,Sold,2017-12-01,,1001.0,15000.0
34,First Eagle Fund of America,,Sold,2017-12-01,,15001.0,50000.0
35,First Eagle Fund of America,,Sold,2017-12-01,,15001.0,50000.0
44,T Rowe Price Retire 2020 Fund,,Purchased,2017-12-01,,15001.0,50000.0
45,T Rowe Price Retire 2020 Fund,,Purchased,2017-12-01,,15001.0,50000.0
46,T Rowe Price Retire 2020 Fund,,Sold,2017-12-01,,,
2,Export & Multinational,,Sold,2017-12-04,,1001.0,15000.0
3,Export & Multinational,,Sold,2017-12-04,,1001.0,15000.0
4,Export & Multinational,,Exchanged,2017-12-04,,,
5,Family Value,,Sold,2017-12-04,,1001.0,15000.0
6,Family Value,,Sold,2017-12-04,,1001.0,15000.0
13,Fidelity Balanced Fund,,Purchased,2017-12-04,,1001.0,15000.0
14,Fidelity Balanced Fund,,Purchased,2017-12-04,,1001.0,15000.0
15,Fidelity Balanced Fund,,Sold,2017-12-04,,,
16,Fidelity Contrafund Fund,,Sold,2017-12-04,,1001.0,15000.0
17,Fidelity Contrafund Fund,,Sold,2017-12-04,,1001.0,15000.0
18,Fidelity Export & Multinational Fund,,Sold,2017-12-04,,1001.0,15000.0
19,Fidelity Export & Multinational Fund,,Sold,2017-12-04,,1001.0,15000.0
20,Fidelity Int'l Discovery,,Sold,2017-12-04,,1001.0,15000.0
21,Fidelity Int'l Discovery,,Sold,2017-12-04,,1001.0,15000.0
28,Fidelity Select Biotechnology Fund,,Exchanged,2017-12-04,,,
29,Fidelity Select Biotechnology Fund,,Sold,2017-12-04,,1001.0,15000.0
30,Fidelity Select Biotechnology Fund,,Sold,2017-12-04,,1001.0,15000.0
31,Fidelity Select Nat'l Gas,,Sold,2017-12-04,,1001.0,15000.0
32,Fidelity Select Nat'l Gas,,Sold,2017-12-04,,1001.0,15000.0
33,Fidelity Select Nat'l Gas,,Exchanged,2017-12-04,,,
36,Insured Deposit Account,,Sold,2017-12-04,,,
37,Insured Deposit Account,,Purchased,2017-12-04,,15001.0,50000.0
38,Insured Deposit Account,,Purchased,2017-12-04,,15001.0,50000.0
39,Pax World Small Cap Fund,,Sold,2017-12-04,,15001.0,50000.0
40,Pax World Small Cap Fund,,Exchanged,2017-12-04,,,
41,Pax World Small Cap Fund,,Sold,2017-12-04,,15001.0,50000.0
42,Schwab Health Care Fund,,Sold,2017-12-04,,1001.0,15000.0
43,Schwab Health Care Fund,,Sold,2017-12-04,,1001.0,15000.0
47,Vanguard Target Retire 2020 Fund,,Sold,2017-12-15,,,
48,Vanguard Target Retire 2020 Fund,,Purchased,2017-12-15,,15001.0,50000.0
49,Vanguard Target Retire 2020 Fund,,Purchased,2017-12-15,,15001.0,50000.0
10,Fidelity Asset Manager Fund,,Sold,2017-12-18,,,
11,Fidelity Asset Manager Fund,,Purchased,2017-12-18,,15001.0,50000.0
12,Fidelity Asset Manager Fund,,Purchased,2017-12-18,,15001.0,50000.0
22,Fidelity Puritan Fund,,Purchased,2017-12-18,,1001.0,15000.0
23,Fidelity Puritan Fund,,Purchased,2017-12-18,,15001.0,50000.0
24,Fidelity Puritan Fund,,Sold,2017-12-18,,,
25,Fidelity Puritan Fund,,Sold,2017-12-18,,,
26,Fidelity Puritan Fund,,Purchased,2017-12-18,,1001.0,15000.0
27,Fidelity Puritan Fund,,Purchased,2017-12-18,,15001.0,50000.0
7,Fidelity American Balanced,,Purchased,2017-12-19,,15001.0,50000.0
8,Fidelity American Balanced,,Purchased,2017-12-19,,15001.0,50000.0
9,Fidelity American Balanced,,Sold,2017-12-19,,,
