,orgname,ultorg,action,date1,transnotes,minvalue,maxvalue
0,Mass Mutual Annuity,,Sold,2009-07-15,,100001,250000
0,BalckRock Global Allocation Fund,,Sold,2010-06-16,,1001,15000
1,Evergreen Mid Cap Fund,,Sold,2010-06-16,,1001,15000
2,Merrill Lynch Blackrock Balanced Fund,,Sold,2010-06-16,,15001,50000
0,FIA Card Services RASP,Bank of America,Purchased,2011-02-18,,1001,15000
1,Merrill Lynch American Small Cap Fund,,Sold,2011-05-13,,1001,15000
3,Merrill Lynch Blackrock Balanced Fund,,Sold,2011-08-11,,1001,15000
5,Merrill Lynch Global Allocation Fund,,Sold,2011-08-11,,1001,15000
2,Merrill Lynch Blackrock Balanced Fund,,Sold,2011-11-09,,1001,15000
4,Merrill Lynch Global Allocation Fund,,Sold,2011-11-09,,1001,15000
9,FIA Card Services NA,,Sold,2012-01-18,,1001,15000
5,FIA Card Services NA,,Sold,2012-02-17,,1001,15000
6,FIA Card Services NA,,Sold,2012-02-27,,1001,15000
0,Blackrock Balanced Capital Fund,,Sold,2012-03-15,,1001,15000
2,Blackrock Global Allocation Fund,,Sold,2012-03-15,,1001,15000
7,FIA Card Services NA,,Purchased,2012-03-21,,15001,50000
8,FIA Card Services NA,,Sold,2012-04-18,,1001,15000
17,FIA Card Services NA,,Sold,2012-05-18,,1001,15000
10,FIA Card Services NA,,Sold,2012-06-18,,1001,15000
4,FIA Card Services NA,,Sold,2012-07-18,,1001,15000
12,FIA Card Services NA,,Sold,2012-08-17,,1001,15000
1,Blackrock Balanced Capital Fund,,Sold,2012-09-11,,1001,15000
3,Blackrock Global Allocation Fund,,Sold,2012-09-11,,1001,15000
13,FIA Card Services NA,,Purchased,2012-09-17,,15001,50000
14,FIA Card Services NA,,Sold,2012-09-18,,1001,15000
15,FIA Card Services NA,,Sold,2012-10-18,,1001,15000
16,FIA Card Services NA,,Sold,2012-11-16,,1001,15000
11,FIA Card Services NA,,Sold,2012-12-18,,1001,15000
2,ML: Blackrock Balanced,,Sold,2013-02-08,,1001,15000
3,ML: Blackrock Global,,Sold,2013-02-08,,1001,15000
0,ML Blackrock Global,,Sold,2013-07-17,,1001,15000
1,ML: Blackrock Balanced,,Sold,2013-07-17,,1001,15000
