,orgname,ultorg,action,date1,transnotes,minvalue,maxvalue
9,Shreveport LA Airport System Bond,,Sold,2008-01-02,,1001,15000
8,Freddie Mac Bond,Freddie Mac,Sold,2008-01-23,,1001,15000
10,Texas Dept Hsg & Cmnty Bond,,Purchased,2008-01-30,,15001,50000
0,First Tr Strategic High Income Fund 11,,Purchased,2008-03-13,,1001,15000
7,Freddie Mac Bond,Freddie Mac,Sold,2008-04-22,,1001,15000
2,Franklin Small Cap Growth Fund,,Sold/Exchanged,2008-05-22,,1001,15000
3,Franklin Small Cap Growth Fund,,Purchased/Exchanged,2008-05-22,,1001,15000
5,Franklin Technology Fund,,Sold/Exchanged,2008-05-22,,1001,15000
6,Franklin Technology Fund,,Purchased/Exchanged,2008-05-22,,1001,15000
1,Franklin Dynatech Fund,,Purchased/Exchanged,2008-12-03,,1001,15000
4,Franklin Technology Fund,,Sold/Exchanged,2008-12-03,,1001,15000
0,Franklin Capital Growth Fund,,Sold/Exchanged,2009-05-06,,1001,15000
1,Franklin Growth Fund,,Purchased/Exchanged,2009-05-06,,1001,15000
2,Nuveen Diversified Divid & Income Fund,,Purchased,2009-09-29,,1001,15000
3,Nuveen Global Govt Enhanced Income Fund,,Purchased,2009-09-29,,15001,50000
4,Nuveen Multi Strategy Income & Growth,,Purchased,2009-09-29,,1001,15000
5,Nuveen Multi Strategy Income & Growth,,Purchased,2009-09-29,,1001,15000
0,Brazos River Auth TX Rfdg Rev Bond,,Sold,2010-01-05,,1001,15000
5,"Port Houston Auth, TX Harris County Bond",,Sold,2010-02-17,,1001,15000
6,Wyoming Community Dev Auth Housing Bond,,Purchased,2010-04-22,,15001,50000
3,"Lauderdale County & Florence, AL Bond",,Sold,2010-07-01,,1001,15000
2,"Cook County, IL Bond",,Sold,2010-07-23,,1001,15000
1,Consolidated Wy Muns Elec Re Bond,,Purchased,2010-07-29,,1001,15000
4,Pimco Investment Grade,,Purchased,2010-09-15,,15001,50000
0,Forward Coreplus Fund Institutional,,Sold,2011-01-19,,1001,15000
1,Forward Large Cap Value Fund,,Sold,2011-01-19,,1001,15000
6,Laramie County Wyoming Hospital,,Purchased,2012-02-09,,15001,50000
1,DWS Blue Chip Fund,,Sold,2012-02-24,,1001,15000
2,DWS Core Equity Fund,,Sold,2012-02-24,,1001,15000
4,Forward International,,Exchanged,2012-04-27,,1001,15000
0,"Carbon County, WY School District #1",,Purchased,2012-06-14,,1001,15000
3,Forward Coreplus Fund Institutional,,Exchanged,2012-12-14,,1001,15000
5,Illinois Dev Fin Auth Water Facs Bond,,Exchanged,2012-12-17,,1001,15000
7,Montgomery County Pennsylvania Bond,,Exchanged,2012-12-17,,1001,15000
0,BIRMINGHAM ALABAMA G/O Bond,,Purchased,2013-03-27,--,15001,50000
0,JHancock Multimanager Lifestyle Bal A,,Sold,2017-02-21,Sale (Full),100001,250000
2,JHancock Multimanager Lifestyle Bal A,,Sold,2017-02-21,Sale (Full),1001,15000
3,JHancock Multimanager Lifestyle Gr A,,Purchased,2017-02-21,--,100001,250000
4,JHancock Multimanager Lifestyle Gr A,,Purchased,2017-02-21,--,1001,15000
5,JHancock Multimanager Lifestyle Gr A,,Purchased,2017-02-21,--,100001,250000
6,John Hancock Multimanager Lifestyle,,Purchased,2017-02-21,--,1001,15000
7,John Hancock Multimanager Lifestyle,,Purchased,2017-02-21,--,100001,250000
8,John Hancock Multimanager Lifestyle,,Purchased,2017-02-21,--,100001,250000
10,John Hancock Multimanager Lifestyle Balanced Fund,,Sold,2017-02-21,Sale (Full),100001,250000
11,John Hancock Multimanager Lifestyle Balanced Fund,,Sold,2017-02-21,Sale (Full),1001,15000
0,Dodge & Cox Income Fund,,Sold,2018-05-14,Sale (Full),1001,15000
1,Dodge & Cox Income Fund,,Sold,2018-05-14,Sale (Full),1001,15000
6,PIMCO Investment Grade Credit Bond Fund,,Sold,2018-05-14,Sale (Full),15001,50000
7,PIMCO Investment Grade Credit Bond Fund Class C,,Sold,2018-05-14,Sale (Full),15001,50000
8,Vanguard GNMA Fund,,Sold,2018-05-14,Sale (Full),1001,15000
9,Vanguard GNMA Fund Investor Shares,,Sold,2018-05-14,Sale (Full),1001,15000
2,Gillette rental home,,Purchased,2018-05-31,--,100001,250000
3,Gillette rental home,,Purchased,2018-05-31,--,100001,250000
4,John Hancock Funds II Multimanager Lifestyle Growt,,Sold,2018-07-24,Sale (Partial),1001,15000
5,John Hancock Funds II Multimanager Lifestyle Growt,,Sold,2018-07-24,Sale (Partial),1001,15000
1,JHancock Multimanager Lifestyle Bal A,,Sold,,Sale (Full),100001,250000
9,John Hancock Multimanager Lifestyle Balanced Fund,,Sold,,Sale (Full),100001,250000
