,orgname,ultorg,action,date1,transnotes,minvalue,maxvalue
5,Lord Abbett Tech,,Sold,2008-01-14,,1001,15000
1,Chesapeake Energy,,Sold,2008-02-20,,15001,50000
4,Ivy Asset Strategy Fund ,,Purchased,2008-03-11,,1001,15000
9,Trina Solar,,Purchased,2008-03-11,China,1001,15000
0,AK Steel,,Sold,2008-07-10,,1001,15000
6,Lowe's Companies,,Purchased,2008-08-04,,1001,15000
8,Oppenheimer Champion,,Sold,2008-08-11,,1001,15000
7,Munder Tech Fund,,Sold,2008-09-10,,1001,15000
2,Eagle Mid Cap Stock Fund,,Purchased,2008-11-13,,1001,15000
3,Heritage Mid Cap Stock,,Sold,2008-12-15,,1001,15000
