,orgname,ultorg,action,date1,transnotes,minvalue,maxvalue
32,AFLAC Inc,,Sold,2008-01-11,,1001,15000
38,Allstate Corp,,Sold,2008-01-11,,1001,15000
46,Amn Healthcare Services,,Sold,2008-01-11,,1001,15000
70,Arthur J Gallagher & Co,,Sold,2008-01-11,,1001,15000
78,Baker Hughes Inc,,Sold,2008-01-11,,1001,15000
80,Bank of America,,Sold,2008-01-11,,1001,15000
128,Colgate-Palmolive Co,,Sold,2008-01-11,,1001,15000
153,Devon Energy,,Sold,2008-01-11,,1001,15000
196,Emerson Electric,,Sold,2008-01-11,,1001,15000
209,Exxon Mobil,,Sold,2008-01-11,,1001,15000
229,General Mills,,Sold,2008-01-11,,1001,15000
252,L-3 Communications,,Sold,2008-01-11,,1001,15000
263,McDonald's Corp,,Sold,2008-01-11,,1001,15000
276,Nokia Corp,,Sold,2008-01-11,,1001,15000
347,Tessera Technologies,,Sold,2008-01-11,,1001,15000
366,Waste Management Inc,,Sold,2008-01-11,,1001,15000
33,AFLAC Inc,,Sold,2008-02-29,,1001,15000
34,AFLAC Inc,,Sold,2008-02-29,,1001,15000
35,AFLAC Inc,,Sold,2008-02-29,,1001,15000
154,Devon Energy,,Sold,2008-02-29,,1001,15000
155,Devon Energy,,Sold,2008-02-29,,1001,15000
156,Devon Energy,,Sold,2008-02-29,,1001,15000
158,Dst Systems,,Purchased,2008-02-29,,1001,15000
162,Dst Systems,,Purchased,2008-02-29,,1001,15000
167,Dst Systems,,Purchased,2008-02-29,,1001,15000
277,Nokia Corp,,Sold,2008-02-29,,1001,15000
279,Nokia Corp,,Sold,2008-02-29,,1001,15000
282,Nokia Corp,,Sold,2008-02-29,,1001,15000
10,Adobe Systems,,Purchased,2008-03-04,,1001,15000
14,Adobe Systems,,Purchased,2008-03-04,,1001,15000
18,Adobe Systems,,Purchased,2008-03-04,,1001,15000
345,Tessera Technologies,,Sold,2008-03-04,,1001,15000
346,Tessera Technologies,,Sold,2008-03-04,,1001,15000
348,Tessera Technologies,,Sold,2008-03-04,,1001,15000
370,Wyeth,,Purchased,2008-03-04,,1001,15000
375,Wyeth,,Purchased,2008-03-04,,1001,15000
379,Wyeth,,Purchased,2008-03-04,,1001,15000
216,Federal Home Loan Bank Bond,Federal Home Loan Bank System,Sold,2008-03-14,,15001,50000
219,Federal Home Loan Bank Bond,Federal Home Loan Bank System,Purchased,2008-03-18,,15001,50000
47,Amn Healthcare Services,,Sold,2008-03-31,,1001,15000
49,Amn Healthcare Services,,Sold,2008-03-31,,1001,15000
51,Amn Healthcare Services,,Sold,2008-03-31,,1001,15000
253,L-3 Communications,,Sold,2008-03-31,,1001,15000
255,L-3 Communications,,Sold,2008-03-31,,1001,15000
257,L-3 Communications,,Sold,2008-03-31,,1001,15000
48,Amn Healthcare Services,,Sold,2008-04-01,,1001,15000
50,Amn Healthcare Services,,Sold,2008-04-01,,1001,15000
52,Amn Healthcare Services,,Sold,2008-04-01,,1001,15000
117,Cisco Systems,,Purchased,2008-04-01,,1001,15000
121,Cisco Systems,,Purchased,2008-04-01,,1001,15000
125,Cisco Systems,,Purchased,2008-04-01,,1001,15000
3,3M Co,,Purchased,2008-04-09,,1001,15000
23,AFLAC Inc,,Purchased,2008-04-09,,1001,15000
19,Adobe Systems,,Purchased,2008-04-09,,1001,15000
67,Arthur J Gallagher & Co,,Purchased,2008-04-09,,1001,15000
87,Bank of New York Mellon,,Purchased,2008-04-09,,1001,15000
122,Cisco Systems,,Purchased,2008-04-09,,1001,15000
130,Colgate-Palmolive Co,,Sold,2008-04-09,,1001,15000
137,Costco Wholesale,,Purchased,2008-04-09,,1001,15000
157,Devon Energy,,Sold,2008-04-09,,1001,15000
163,Dst Systems,,Purchased,2008-04-09,,1001,15000
174,Ecolab Inc,,Purchased,2008-04-09,,1001,15000
187,Emerson Electric,,Purchased,2008-04-09,,1001,15000
231,General Mills,,Purchased,2008-04-09,,1001,15000
265,McDonald's Corp,,Purchased,2008-04-09,,1001,15000
283,Nokia Corp,,Sold,2008-04-09,,1001,15000
312,Progress Energy,,Purchased,2008-04-09,,1001,15000
328,Stryker Corp,,Purchased,2008-04-09,,1001,15000
338,Target Corp,,Purchased,2008-04-09,,1001,15000
349,Thermo Fisher Scientific,,Purchased,2008-04-09,,1001,15000
362,Verizon Communications,,Purchased,2008-04-09,,1001,15000
371,Wyeth,,Purchased,2008-04-09,,1001,15000
259,"Los Angeles, CA CTFS Partn Equip Bond",,Sold,2008-04-21,,1001,15000
0,3M Co,,Purchased,2008-04-22,,1001,15000
27,AFLAC Inc,,Purchased,2008-04-22,,1001,15000
15,Adobe Systems,,Purchased,2008-04-22,,1001,15000
65,Arthur J Gallagher & Co,,Purchased,2008-04-22,,1001,15000
91,Bank of New York Mellon,,Purchased,2008-04-22,,1001,15000
100,"Becton, Dickinson & Co",,Sold,2008-04-22,,1001,15000
118,Cisco Systems,,Purchased,2008-04-22,,1001,15000
132,Colgate-Palmolive Co,,Sold,2008-04-22,,1001,15000
141,Costco Wholesale,,Purchased,2008-04-22,,1001,15000
144,Devon Energy,,Purchased,2008-04-22,,1001,15000
168,Dst Systems,,Purchased,2008-04-22,,1001,15000
171,Ecolab Inc,,Purchased,2008-04-22,,1001,15000
192,Emerson Electric,,Purchased,2008-04-22,,1001,15000
198,Exxon Mobil,,Purchased,2008-04-22,,1001,15000
235,General Mills,,Purchased,2008-04-22,,1001,15000
269,McDonald's Corp,,Purchased,2008-04-22,,1001,15000
332,Stryker Corp,,Purchased,2008-04-22,,1001,15000
335,Target Corp,,Purchased,2008-04-22,,1001,15000
353,Thermo Fisher Scientific,,Purchased,2008-04-22,,1001,15000
359,Verizon Communications,,Purchased,2008-04-22,,1001,15000
376,Wyeth,,Purchased,2008-04-22,,1001,15000
76,Baker Hughes Inc,,Sold,2008-05-12,,1001,15000
77,Baker Hughes Inc,,Sold,2008-05-12,,1001,15000
79,Baker Hughes Inc,,Sold,2008-05-12,,1001,15000
275,Nokia Corp,,Purchased,2008-05-13,,1001,15000
281,Nokia Corp,,Purchased,2008-05-13,,1001,15000
299,Procter & Gamble,,Purchased,2008-05-13,,1001,15000
302,Procter & Gamble,,Purchased,2008-05-13,,1001,15000
306,Procter & Gamble,,Purchased,2008-05-13,,1001,15000
53,Apple Inc,,Purchased,2008-06-05,,1001,15000
58,Apple Inc,,Purchased,2008-06-05,,1001,15000
62,Apple Inc,,Purchased,2008-06-05,,1001,15000
81,Bank of America,,Sold,2008-06-05,,1001,15000
82,Bank of America,,Sold,2008-06-05,,1001,15000
83,Bank of America,,Sold,2008-06-05,,1001,15000
185,Emerson Electric,,Sold,2008-06-05,,1001,15000
186,Emerson Electric,,Sold,2008-06-05,,1001,15000
197,Emerson Electric,,Sold,2008-06-05,,1001,15000
241,Hewlett-Packard,,Purchased,2008-06-05,,1001,15000
245,Hewlett-Packard,,Purchased,2008-06-05,,1001,15000
248,Hewlett-Packard,,Purchased,2008-06-05,,1001,15000
278,Nokia Corp,,Sold,2008-06-05,,1001,15000
280,Nokia Corp,,Sold,2008-06-05,,1001,15000
284,Nokia Corp,,Sold,2008-06-05,,1001,15000
213,Fannie Mae Notes,Fannie Mae,Sold,2008-06-18,,15001,50000
222,Federal Home Loan Bank Bond,Federal Home Loan Bank System,Purchased,2008-06-18,,15001,50000
103,Caterpillar Inc,,Purchased,2008-06-25,,1001,15000
108,Caterpillar Inc,,Purchased,2008-06-25,,1001,15000
113,Caterpillar Inc,,Purchased,2008-06-25,,1001,15000
129,Colgate-Palmolive Co,,Sold,2008-06-25,,1001,15000
131,Colgate-Palmolive Co,,Sold,2008-06-25,,1001,15000
133,Colgate-Palmolive Co,,Sold,2008-06-25,,1001,15000
254,L-3 Communications,,Sold,2008-06-25,,1001,15000
256,L-3 Communications,,Sold,2008-06-25,,1001,15000
258,L-3 Communications,,Sold,2008-06-25,,1001,15000
287,Petroleo Brasileiro SA,,Purchased,2008-06-25,,1001,15000
292,Petroleo Brasileiro SA,,Purchased,2008-06-25,,1001,15000
296,Petroleo Brasileiro SA,,Purchased,2008-06-25,,1001,15000
215,Federal Home Loan Bank Bond,Federal Home Loan Bank System,Sold,2008-08-08,,15001,50000
217,Federal Home Loan Bank Bond,Federal Home Loan Bank System,Sold,2008-08-08,,1001,15000
223,Federal Home Loan Bank Note,Federal Home Loan Bank System,Sold,2008-09-02,,15001,50000
224,Federal Home Loan Bank Note,Federal Home Loan Bank System,Sold,2008-09-02,,15001,50000
218,Federal Home Loan Bank Bond,Federal Home Loan Bank System,Purchased,2008-09-08,,15001,50000
220,Federal Home Loan Bank Bond,Federal Home Loan Bank System,Purchased,2008-09-08,,15001,50000
54,Apple Inc,,Purchased,2008-09-30,,1001,15000
59,Apple Inc,,Purchased,2008-09-30,,1001,15000
63,Apple Inc,,Purchased,2008-09-30,,1001,15000
84,Bank of New York Mellon,,Purchased,2008-09-30,,1001,15000
88,Bank of New York Mellon,,Purchased,2008-09-30,,1001,15000
92,Bank of New York Mellon,,Purchased,2008-09-30,,1001,15000
181,Emerson Electric,,Purchased,2008-09-30,,1001,15000
188,Emerson Electric,,Purchased,2008-09-30,,1001,15000
193,Emerson Electric,,Purchased,2008-09-30,,1001,15000
212,Fannie Mae Note,Fannie Mae,Sold,2008-09-30,,15001,50000
226,Freddie Mac Bond,Freddie Mac,Sold,2008-09-30,,15001,50000
288,Petroleo Brasileiro SA,,Purchased,2008-09-30,,1001,15000
293,Petroleo Brasileiro SA,,Purchased,2008-09-30,,1001,15000
297,Petroleo Brasileiro SA,,Purchased,2008-09-30,,1001,15000
367,Waste Management Inc,,Sold,2008-09-30,,1001,15000
368,Waste Management Inc,,Sold,2008-09-30,,1001,15000
369,Waste Management Inc,,Sold,2008-09-30,,1001,15000
4,3M Co,,Purchased,2008-10-01,,1001,15000
7,3M Co,,Purchased,2008-10-01,,1001,15000
24,AFLAC Inc,,Purchased,2008-10-01,,1001,15000
29,AFLAC Inc,,Purchased,2008-10-01,,1001,15000
11,Adobe Systems,,Purchased,2008-10-01,,1001,15000
20,Adobe Systems,,Purchased,2008-10-01,,1001,15000
55,Apple Inc,,Purchased,2008-10-01,,1001,15000
60,Apple Inc,,Purchased,2008-10-01,,1001,15000
68,Arthur J Gallagher & Co,,Purchased,2008-10-01,,1001,15000
74,Arthur J Gallagher & Co,,Purchased,2008-10-01,,1001,15000
85,Bank of New York Mellon,,Purchased,2008-10-01,,1001,15000
89,Bank of New York Mellon,,Purchased,2008-10-01,,1001,15000
104,Caterpillar Inc,,Purchased,2008-10-01,,1001,15000
109,Caterpillar Inc,,Purchased,2008-10-01,,1001,15000
134,Costco Wholesale,,Purchased,2008-10-01,,1001,15000
138,Costco Wholesale,,Purchased,2008-10-01,,1001,15000
147,Devon Energy,,Purchased,2008-10-01,,1001,15000
150,Devon Energy,,Purchased,2008-10-01,,1001,15000
159,Dst Systems,,Purchased,2008-10-01,,1001,15000
164,Dst Systems,,Purchased,2008-10-01,,1001,15000
175,Ecolab Inc,,Purchased,2008-10-01,,1001,15000
178,Ecolab Inc,,Purchased,2008-10-01,,1001,15000
182,Emerson Electric,,Purchased,2008-10-01,,1001,15000
189,Emerson Electric,,Purchased,2008-10-01,,1001,15000
201,Exxon Mobil,,Purchased,2008-10-01,,1001,15000
206,Exxon Mobil,,Purchased,2008-10-01,,1001,15000
232,General Mills,,Purchased,2008-10-01,,1001,15000
238,General Mills,,Purchased,2008-10-01,,1001,15000
242,Hewlett-Packard,,Purchased,2008-10-01,,1001,15000
249,Hewlett-Packard,,Purchased,2008-10-01,,1001,15000
260,"Los Angeles, CA SAN DT FNG ATRV  Bond",,Sold,2008-10-01,,15001,50000
266,McDonald's Corp,,Purchased,2008-10-01,,1001,15000
272,McDonald's Corp,,Purchased,2008-10-01,,1001,15000
289,Petroleo Brasileiro SA,,Purchased,2008-10-01,,1001,15000
294,Petroleo Brasileiro SA,,Purchased,2008-10-01,,1001,15000
303,Procter & Gamble,,Purchased,2008-10-01,,1001,15000
307,Procter & Gamble,,Purchased,2008-10-01,,1001,15000
313,Progress Energy,,Purchased,2008-10-01,,1001,15000
325,Stryker Corp,,Purchased,2008-10-01,,1001,15000
329,Stryker Corp,,Purchased,2008-10-01,,1001,15000
339,Target Corp,,Purchased,2008-10-01,,1001,15000
342,Target Corp,,Purchased,2008-10-01,,1001,15000
350,Thermo Fisher Scientific,,Purchased,2008-10-01,,1001,15000
356,Thermo Fisher Scientific,,Purchased,2008-10-01,,1001,15000
363,Verizon Communications,,Purchased,2008-10-01,,1001,15000
372,Wyeth,,Purchased,2008-10-01,,1001,15000
380,Wyeth,,Purchased,2008-10-01,,1001,15000
221,Federal Home Loan Bank Bond,Federal Home Loan Bank System,Purchased,2008-10-08,,1001,15000
1,3M Co,,Purchased,2008-10-13,,1001,15000
5,3M Co,,Purchased,2008-10-13,,1001,15000
25,AFLAC Inc,,Purchased,2008-10-13,,1001,15000
28,AFLAC Inc,,Purchased,2008-10-13,,1001,15000
16,Adobe Systems,,Purchased,2008-10-13,,1001,15000
21,Adobe Systems,,Purchased,2008-10-13,,1001,15000
61,Apple Inc,,Purchased,2008-10-13,,1001,15000
64,Apple Inc,,Purchased,2008-10-13,,1001,15000
66,Arthur J Gallagher & Co,,Purchased,2008-10-13,,1001,15000
69,Arthur J Gallagher & Co,,Purchased,2008-10-13,,1001,15000
90,Bank of New York Mellon,,Purchased,2008-10-13,,1001,15000
93,Bank of New York Mellon,,Purchased,2008-10-13,,1001,15000
110,Caterpillar Inc,,Purchased,2008-10-13,,1001,15000
114,Caterpillar Inc,,Purchased,2008-10-13,,1001,15000
119,Cisco Systems,,Purchased,2008-10-13,,1001,15000
123,Cisco Systems,,Purchased,2008-10-13,,1001,15000
139,Costco Wholesale,,Purchased,2008-10-13,,1001,15000
142,Costco Wholesale,,Purchased,2008-10-13,,1001,15000
145,Devon Energy,,Purchased,2008-10-13,,1001,15000
148,Devon Energy,,Purchased,2008-10-13,,1001,15000
165,Dst Systems,,Purchased,2008-10-13,,1001,15000
169,Dst Systems,,Purchased,2008-10-13,,1001,15000
172,Ecolab Inc,,Purchased,2008-10-13,,1001,15000
176,Ecolab Inc,,Purchased,2008-10-13,,1001,15000
190,Emerson Electric,,Purchased,2008-10-13,,1001,15000
194,Emerson Electric,,Purchased,2008-10-13,,1001,15000
199,Exxon Mobil,,Purchased,2008-10-13,,1001,15000
202,Exxon Mobil,,Purchased,2008-10-13,,1001,15000
233,General Mills,,Purchased,2008-10-13,,1001,15000
236,General Mills,,Purchased,2008-10-13,,1001,15000
246,Hewlett-Packard,,Purchased,2008-10-13,,1001,15000
250,Hewlett-Packard,,Purchased,2008-10-13,,1001,15000
267,McDonald's Corp,,Purchased,2008-10-13,,1001,15000
270,McDonald's Corp,,Purchased,2008-10-13,,1001,15000
290,Petroleo Brasileiro SA,,Purchased,2008-10-13,,1001,15000
298,Petroleo Brasileiro SA,,Purchased,2008-10-13,,1001,15000
300,Procter & Gamble,,Purchased,2008-10-13,,1001,15000
304,Procter & Gamble,,Purchased,2008-10-13,,1001,15000
314,Progress Energy,,Purchased,2008-10-13,,1001,15000
316,Progress Energy,,Purchased,2008-10-13,,1001,15000
330,Stryker Corp,,Purchased,2008-10-13,,1001,15000
333,Stryker Corp,,Purchased,2008-10-13,,1001,15000
336,Target Corp,,Purchased,2008-10-13,,1001,15000
340,Target Corp,,Purchased,2008-10-13,,1001,15000
351,Thermo Fisher Scientific,,Purchased,2008-10-13,,1001,15000
354,Thermo Fisher Scientific,,Purchased,2008-10-13,,1001,15000
360,Verizon Communications,,Purchased,2008-10-13,,1001,15000
364,Verizon Communications,,Purchased,2008-10-13,,1001,15000
373,Wyeth,,Purchased,2008-10-13,,1001,15000
377,Wyeth,,Purchased,2008-10-13,,1001,15000
211,Fannie Mae Bonds,Fannie Mae,Sold,2008-10-14,,15001,50000
8,3M Co,,Purchased,2008-10-15,,1001,15000
30,AFLAC Inc,,Purchased,2008-10-15,,1001,15000
12,Adobe Systems,,Purchased,2008-10-15,,1001,15000
56,Apple Inc,,Purchased,2008-10-15,,1001,15000
75,Arthur J Gallagher & Co,,Purchased,2008-10-15,,1001,15000
86,Bank of New York Mellon,,Purchased,2008-10-15,,1001,15000
105,Caterpillar Inc,,Purchased,2008-10-15,,1001,15000
126,Cisco Systems,,Purchased,2008-10-15,,1001,15000
135,Costco Wholesale,,Purchased,2008-10-15,,1001,15000
151,Devon Energy,,Purchased,2008-10-15,,1001,15000
160,Dst Systems,,Purchased,2008-10-15,,1001,15000
179,Ecolab Inc,,Purchased,2008-10-15,,1001,15000
183,Emerson Electric,,Purchased,2008-10-15,,1001,15000
207,Exxon Mobil,,Purchased,2008-10-15,,1001,15000
239,General Mills,,Purchased,2008-10-15,,1001,15000
243,Hewlett-Packard,,Purchased,2008-10-15,,1001,15000
273,McDonald's Corp,,Purchased,2008-10-15,,1001,15000
295,Petroleo Brasileiro SA,,Purchased,2008-10-15,,1001,15000
308,Procter & Gamble,,Purchased,2008-10-15,,1001,15000
310,Progress Energy,,Purchased,2008-10-15,,1001,15000
326,Stryker Corp,,Purchased,2008-10-15,,1001,15000
343,Target Corp,,Purchased,2008-10-15,,1001,15000
357,Thermo Fisher Scientific,,Purchased,2008-10-15,,1001,15000
381,Wyeth,,Purchased,2008-10-15,,1001,15000
102,California State Bond,,Purchased,2008-10-30,,1001,15000
318,"Sacramento, CA CFA LSE Rev Rf OID Bond",,Sold,2008-11-03,,1001,15000
101,California State Bond,,Purchased,2008-11-10,,15001,50000
214,Federal Home Loan Bank Bond,Federal Home Loan Bank System,Sold,2008-11-14,,15001,50000
36,Allstate Corp,,Sold,2008-12-02,,1001,15000
37,Allstate Corp,,Sold,2008-12-02,,1001,15000
39,Allstate Corp,,Sold,2008-12-02,,1001,15000
40,American Waterworks,,Purchased,2008-12-02,,1001,15000
42,American Waterworks,,Purchased,2008-12-02,,1001,15000
44,American Waterworks,,Purchased,2008-12-02,,1001,15000
71,Arthur J Gallagher & Co,,Sold,2008-12-02,,1001,15000
72,Arthur J Gallagher & Co,,Sold,2008-12-02,,1001,15000
73,Arthur J Gallagher & Co,,Sold,2008-12-02,,1001,15000
94,Baxter International,,Purchased,2008-12-02,,1001,15000
96,Baxter International,,Purchased,2008-12-02,,1001,15000
98,Baxter International,,Purchased,2008-12-02,,1001,15000
106,Caterpillar Inc,,Purchased,2008-12-02,,1001,15000
111,Caterpillar Inc,,Purchased,2008-12-02,,1001,15000
115,Caterpillar Inc,,Purchased,2008-12-02,,1001,15000
204,Exxon Mobil,,Sold,2008-12-02,,1001,15000
205,Exxon Mobil,,Sold,2008-12-02,,1001,15000
210,Exxon Mobil,,Sold,2008-12-02,,1001,15000
227,General Mills,,Sold,2008-12-02,,1001,15000
228,General Mills,,Sold,2008-12-02,,1001,15000
230,General Mills,,Sold,2008-12-02,,1001,15000
261,McDonald's Corp,,Sold,2008-12-02,,1001,15000
262,McDonald's Corp,,Sold,2008-12-02,,1001,15000
264,McDonald's Corp,,Sold,2008-12-02,,1001,15000
285,Petroleo Brasileiro SA,,Sold,2008-12-02,,1001,15000
286,Petroleo Brasileiro SA,,Sold,2008-12-02,,1001,15000
291,Petroleo Brasileiro SA,,Sold,2008-12-02,,1001,15000
319,Stericycle Inc,,Purchased,2008-12-02,,1001,15000
321,Stericycle Inc,,Purchased,2008-12-02,,1001,15000
323,Stericycle Inc,,Purchased,2008-12-02,,1001,15000
2,3M Co,,Purchased,2008-12-09,,1001,15000
6,3M Co,,Purchased,2008-12-09,,1001,15000
9,3M Co,,Purchased,2008-12-09,,1001,15000
26,AFLAC Inc,,Purchased,2008-12-09,,1001,15000
31,AFLAC Inc,,Purchased,2008-12-09,,1001,15000
13,Adobe Systems,,Purchased,2008-12-09,,1001,15000
17,Adobe Systems,,Purchased,2008-12-09,,1001,15000
22,Adobe Systems,,Purchased,2008-12-09,,1001,15000
41,American Waterworks,,Purchased,2008-12-09,,1001,15000
43,American Waterworks,,Purchased,2008-12-09,,1001,15000
45,American Waterworks,,Purchased,2008-12-09,,1001,15000
57,Apple Inc,,Purchased,2008-12-09,,1001,15000
95,Baxter International,,Purchased,2008-12-09,,1001,15000
97,Baxter International,,Purchased,2008-12-09,,1001,15000
99,Baxter International,,Purchased,2008-12-09,,1001,15000
107,Caterpillar Inc,,Purchased,2008-12-09,,1001,15000
112,Caterpillar Inc,,Purchased,2008-12-09,,1001,15000
116,Caterpillar Inc,,Purchased,2008-12-09,,1001,15000
120,Cisco Systems,,Purchased,2008-12-09,,1001,15000
124,Cisco Systems,,Purchased,2008-12-09,,1001,15000
127,Cisco Systems,,Purchased,2008-12-09,,1001,15000
136,Costco Wholesale,,Purchased,2008-12-09,,1001,15000
140,Costco Wholesale,,Purchased,2008-12-09,,1001,15000
143,Costco Wholesale,,Purchased,2008-12-09,,1001,15000
146,Devon Energy,,Purchased,2008-12-09,,1001,15000
149,Devon Energy,,Purchased,2008-12-09,,1001,15000
152,Devon Energy,,Purchased,2008-12-09,,1001,15000
161,Dst Systems,,Purchased,2008-12-09,,1001,15000
166,Dst Systems,,Purchased,2008-12-09,,1001,15000
170,Dst Systems,,Purchased,2008-12-09,,1001,15000
173,Ecolab Inc,,Purchased,2008-12-09,,1001,15000
177,Ecolab Inc,,Purchased,2008-12-09,,1001,15000
180,Ecolab Inc,,Purchased,2008-12-09,,1001,15000
184,Emerson Electric,,Purchased,2008-12-09,,1001,15000
191,Emerson Electric,,Purchased,2008-12-09,,1001,15000
195,Emerson Electric,,Purchased,2008-12-09,,1001,15000
200,Exxon Mobil,,Purchased,2008-12-09,,1001,15000
203,Exxon Mobil,,Purchased,2008-12-09,,1001,15000
208,Exxon Mobil,,Purchased,2008-12-09,,1001,15000
234,General Mills,,Purchased,2008-12-09,,1001,15000
237,General Mills,,Purchased,2008-12-09,,1001,15000
240,General Mills,,Purchased,2008-12-09,,1001,15000
244,Hewlett-Packard,,Purchased,2008-12-09,,1001,15000
247,Hewlett-Packard,,Purchased,2008-12-09,,1001,15000
251,Hewlett-Packard,,Purchased,2008-12-09,,1001,15000
268,McDonald's Corp,,Purchased,2008-12-09,,1001,15000
271,McDonald's Corp,,Purchased,2008-12-09,,1001,15000
274,McDonald's Corp,,Purchased,2008-12-09,,1001,15000
301,Procter & Gamble,,Purchased,2008-12-09,,1001,15000
305,Procter & Gamble,,Purchased,2008-12-09,,1001,15000
309,Procter & Gamble,,Purchased,2008-12-09,,1001,15000
311,Progress Energy,,Purchased,2008-12-09,,1001,15000
315,Progress Energy,,Purchased,2008-12-09,,1001,15000
317,Progress Energy,,Purchased,2008-12-09,,1001,15000
320,Stericycle Inc,,Purchased,2008-12-09,,1001,15000
322,Stericycle Inc,,Purchased,2008-12-09,,1001,15000
324,Stericycle Inc,,Purchased,2008-12-09,,1001,15000
327,Stryker Corp,,Purchased,2008-12-09,,1001,15000
331,Stryker Corp,,Purchased,2008-12-09,,1001,15000
334,Stryker Corp,,Purchased,2008-12-09,,1001,15000
337,Target Corp,,Purchased,2008-12-09,,1001,15000
341,Target Corp,,Purchased,2008-12-09,,1001,15000
344,Target Corp,,Purchased,2008-12-09,,1001,15000
352,Thermo Fisher Scientific,,Purchased,2008-12-09,,1001,15000
355,Thermo Fisher Scientific,,Purchased,2008-12-09,,1001,15000
358,Thermo Fisher Scientific,,Purchased,2008-12-09,,1001,15000
361,Verizon Communications,,Purchased,2008-12-09,,1001,15000
365,Verizon Communications,,Purchased,2008-12-09,,1001,15000
374,Wyeth,,Purchased,2008-12-09,,1001,15000
378,Wyeth,,Purchased,2008-12-09,,1001,15000
382,Wyeth,,Purchased,2008-12-09,,1001,15000
225,Federal Home Loan Bank Securities,Federal Home Loan Bank System,Purchased,2008-12-10,,15001,50000
3,AFLAC Inc,,Purchased,2009-01-29,,1001,15000
8,AFLAC Inc,,Purchased,2009-01-29,,1001,15000
10,AFLAC Inc,,Purchased,2009-01-29,,1001,15000
57,Dst Systems,,Purchased,2009-01-29,,1001,15000
58,Dst Systems,,Purchased,2009-01-29,,1001,15000
59,Dst Systems,,Purchased,2009-01-29,,1001,15000
99,Progress Energy,,Sold,2009-01-29,,1001,15000
101,Progress Energy,,Sold,2009-01-29,,1001,15000
104,Progress Energy,,Sold,2009-01-29,,1001,15000
122,Wyeth,Pfizer Inc,Sold,2009-01-29,,1001,15000
124,Wyeth,Pfizer Inc,Sold,2009-01-29,,1001,15000
126,Wyeth,Pfizer Inc,Sold,2009-01-29,,1001,15000
32,California State Dept of Water,,Sold,2009-03-12,,15001,50000
64,Fannie Mae Bond,Fannie Mae,Sold,2009-03-12,,15001,50000
66,Fannie Mae Notes,Fannie Mae,Sold,2009-03-12,,15001,50000
11,American Water Works,,Sold,2009-03-19,,1001,15000
12,American Water Works,,Sold,2009-03-19,,1001,15000
13,American Water Works,,Sold,2009-03-19,,1001,15000
26,Arthur J Gallagher & Co,,Purchased,2009-03-19,,1001,15000
28,Arthur J Gallagher & Co,,Purchased,2009-03-19,,1001,15000
35,Caterpillar Inc,,Purchased,2009-03-19,,1001,15000
36,Caterpillar Inc,,Purchased,2009-03-19,,1001,15000
38,Caterpillar Inc,,Purchased,2009-03-19,,1001,15000
42,Cisco Systems,,Purchased,2009-03-19,,1001,15000
44,Cisco Systems,,Purchased,2009-03-19,,1001,15000
45,Cisco Systems,,Purchased,2009-03-19,,1001,15000
47,Costco Wholesale,,Sold,2009-03-19,,1001,15000
50,Costco Wholesale,,Sold,2009-03-19,,1001,15000
51,Costco Wholesale,,Sold,2009-03-19,,1001,15000
53,Devon Energy,,Purchased,2009-03-19,,1001,15000
54,Devon Energy,,Purchased,2009-03-19,,1001,15000
55,Devon Energy,,Purchased,2009-03-19,,1001,15000
73,General Mills,,Purchased,2009-03-19,,1001,15000
74,General Mills,,Purchased,2009-03-19,,1001,15000
76,General Mills,,Purchased,2009-03-19,,1001,15000
78,Johnson & Johnson,,Purchased,2009-03-19,,1001,15000
79,Johnson & Johnson,,Purchased,2009-03-19,,1001,15000
80,Johnson & Johnson,,Purchased,2009-03-19,,1001,15000
92,PG&E Corp,,Purchased,2009-03-19,,1001,15000
94,PG&E Corp,,Purchased,2009-03-19,,1001,15000
96,PG&E Corp,,Purchased,2009-03-19,,1001,15000
110,Stryker Corp,,Purchased,2009-03-19,,1001,15000
113,Stryker Corp,,Purchased,2009-03-19,,1001,15000
114,Thermo Fisher Scientific,,Purchased,2009-03-19,,1001,15000
116,Thermo Fisher Scientific,,Purchased,2009-03-19,,1001,15000
117,Thermo Fisher Scientific,,Purchased,2009-03-19,,1001,15000
123,Wyeth,Pfizer Inc,Sold,2009-03-19,,1001,15000
125,Wyeth,Pfizer Inc,Sold,2009-03-19,,1001,15000
127,Wyeth,Pfizer Inc,Sold,2009-03-19,,1001,15000
34,California Various Purpose Bond,,Sold,2009-04-01,,1001,15000
31,California State Bond,,Purchased,2009-04-22,,15001,50000
33,California State Dept of Water,,Sold,2009-05-01,,15001,50000
40,Cisco Systems,,Sold,2009-05-07,,1001,15000
43,Cisco Systems,,Sold,2009-05-07,,1001,15000
46,Cisco Systems,,Sold,2009-05-07,,1001,15000
106,Stericycle Inc,,Sold,2009-05-07,,1001,15000
107,Stericycle Inc,,Sold,2009-05-07,,1001,15000
108,Stericycle Inc,,Sold,2009-05-07,,1001,15000
119,Transocean Ltd,,Purchased,2009-05-07,,1001,15000
120,Transocean Ltd,,Purchased,2009-05-07,,1001,15000
121,Transocean Ltd,,Purchased,2009-05-07,,1001,15000
4,AFLAC Inc,,Sold,2009-05-08,,1001,15000
6,AFLAC Inc,,Sold,2009-05-08,,1001,15000
9,AFLAC Inc,,Sold,2009-05-08,,1001,15000
30,Baxter International,,Purchased,2009-05-08,,1001,15000
20,Apple Inc,,Sold,2009-05-28,,1001,15000
21,Apple Inc,,Sold,2009-05-28,,1001,15000
23,Apple Inc,,Sold,2009-05-28,,1001,15000
77,Hewlett-Packard,,Purchased,2009-05-28,,1001,15000
93,PG&E Corp,,Purchased,2009-05-28,,1001,15000
95,PG&E Corp,,Purchased,2009-05-28,,1001,15000
97,PG&E Corp,,Purchased,2009-05-28,,1001,15000
98,Progress Energy,,Purchased,2009-05-28,,1001,15000
103,Progress Energy,,Purchased,2009-05-28,,1001,15000
63,Fannie Mae Bond,Fannie Mae,Sold,2009-07-23,,15001,50000
67,Fannie Mae Notes,Fannie Mae,Sold,2009-07-23,,15001,50000
70,Federal Home Loan Bank Bond,Federal Home Loan Bank System,Purchased,2009-07-23,,15001,50000
71,Federal Home Loan Bank Bond,Federal Home Loan Bank System,Purchased,2009-07-23,,1001,15000
14,Apollo Group,,Purchased,2009-08-04,,1001,15000
16,Apollo Group,,Purchased,2009-08-04,,1001,15000
18,Apollo Group,,Purchased,2009-08-04,,1001,15000
88,Peabody Energy,,Purchased,2009-08-04,,1001,15000
90,Peabody Energy,,Purchased,2009-08-04,,1001,15000
91,Peabody Energy,,Purchased,2009-08-04,,1001,15000
100,Progress Energy,,Sold,2009-08-04,,1001,15000
102,Progress Energy,,Sold,2009-08-04,,1001,15000
105,Progress Energy,,Sold,2009-08-04,,1001,15000
109,Stryker Corp,,Sold,2009-08-04,,1001,15000
111,Stryker Corp,,Sold,2009-08-04,,1001,15000
112,Stryker Corp,,Sold,2009-08-04,,1001,15000
25,Arthur J Gallagher & Co,,Sold,2009-09-08,,1001,15000
27,Arthur J Gallagher & Co,,Sold,2009-09-08,,1001,15000
29,Arthur J Gallagher & Co,,Sold,2009-09-08,,1001,15000
60,Ecolab Inc,,Sold,2009-09-08,,1001,15000
61,Ecolab Inc,,Sold,2009-09-08,,1001,15000
62,Ecolab Inc,,Sold,2009-09-08,,1001,15000
82,JPMorgan Chase & Co,,Purchased,2009-09-08,,1001,15000
83,JPMorgan Chase & Co,,Purchased,2009-09-08,,1001,15000
84,JPMorgan Chase & Co,,Purchased,2009-09-08,,1001,15000
85,Monsanto Co,,Purchased,2009-09-08,,1001,15000
86,Monsanto Co,,Purchased,2009-09-08,,1001,15000
87,Monsanto Co,,Purchased,2009-09-08,,1001,15000
65,Fannie Mae Bond,Fannie Mae,Sold,2009-09-15,,1001,15000
5,AFLAC Inc,,Sold,2009-09-22,,1001,15000
7,AFLAC Inc,,Sold,2009-09-22,,1001,15000
22,Apple Inc,,Sold,2009-09-22,,1001,15000
24,Apple Inc,,Sold,2009-09-22,,1001,15000
37,Caterpillar Inc,,Sold,2009-09-22,,1001,15000
39,Caterpillar Inc,,Sold,2009-09-22,,1001,15000
41,Cisco Systems,,Sold,2009-09-22,,1001,15000
48,Costco Wholesale,,Purchased,2009-09-22,,1001,15000
49,Costco Wholesale,,Purchased,2009-09-22,,1001,15000
52,Devon Energy,,Sold,2009-09-22,,1001,15000
56,Devon Energy,,Sold,2009-09-22,,1001,15000
72,General Mills,,Sold,2009-09-22,,1001,15000
75,General Mills,,Sold,2009-09-22,,1001,15000
81,Johnson & Johnson,,Sold,2009-09-22,,1001,15000
89,Peabody Energy,,Sold,2009-09-22,,1001,15000
115,Thermo Fisher Scientific,,Sold,2009-09-22,,1001,15000
118,Thermo Fisher Scientific,,Sold,2009-09-22,,1001,15000
68,Federal Farm Credit Bank,,Purchased,2009-09-23,,15001,50000
69,Federal Farm Credit Bank Notes,Federal Farm Credit Bank,Purchased,2009-09-23,,15001,50000
0,3M Co,,Sold,2009-12-10,,1001,15000
1,3M Co,,Sold,2009-12-10,,1001,15000
2,3M Co,,Sold,2009-12-10,,1001,15000
15,Apollo Group,,Purchased,2009-12-10,,1001,15000
17,Apollo Group,,Purchased,2009-12-10,,1001,15000
19,Apollo Group,,Purchased,2009-12-10,,1001,15000
0,3M Co,,Sold,2010-01-07,,1001,15000
9,AFLAC Inc,,Sold,2010-01-07,,1001,15000
15,Apollo Group,,Sold,2010-01-07,,1001,15000
19,Apple Inc,,Sold,2010-01-07,,1001,15000
24,Bank of New York Mellon,,Sold,2010-01-07,,1001,15000
28,Baxter International,,Sold,2010-01-07,,1001,15000
31,Becton Dickenson & Co,,Sold,2010-01-07,,1001,15000
39,Caterpillar Inc,,Sold,2010-01-07,,1001,15000
44,Cisco Systems,,Sold,2010-01-07,,1001,15000
56,Costco Wholesale,,Purchased,2010-01-07,,1001,15000
63,Devon Energy,,Sold,2010-01-07,,1001,15000
65,Dst Systems,,Sold,2010-01-07,,1001,15000
69,Emerson Electric,,Sold,2010-01-07,,1001,15000
73,Exxon Mobil,,Sold,2010-01-07,,1001,15000
87,General Mills,,Sold,2010-01-07,,1001,15000
102,Hewlett-Packard,,Sold,2010-01-07,,1001,15000
114,JPMorgan Chase & Co,,Sold,2010-01-07,,1001,15000
109,Johnson & Johnson,,Sold,2010-01-07,,1001,15000
123,McDonald's Corp,,Sold,2010-01-07,,1001,15000
128,Monsanto Co,,Sold,2010-01-07,,1001,15000
141,PG&E Corp,,Sold,2010-01-07,,1001,15000
137,Peabody Energy,,Sold,2010-01-07,,1001,15000
149,Procter & Gamble,,Sold,2010-01-07,,1001,15000
165,Target Corp,,Sold,2010-01-07,,1001,15000
168,Thermo Fisher Scientific,,Sold,2010-01-07,,1001,15000
172,Transocean Ltd,,Sold,2010-01-07,,1001,15000
183,Verizon Communications,,Sold,2010-01-07,,1001,15000
34,California St OID Bond,,Sold,2010-01-11,,1001,15000
38,California State Dept of Water,,Sold,2010-01-11,,1001,15000
80,Federal Home Loan Bank Bond,Federal Home Loan Bank System,Sold,2010-01-11,,15001,50000
81,Federal Home Loan Bank Bond,Federal Home Loan Bank System,Sold,2010-01-11,,1001,15000
120,"Los Angeles County, CA CTFS Bond",,Sold,2010-01-11,,50001,100000
152,"San Francisco, CA City & County Bond",,Sold,2010-01-11,,15001,50000
76,Federal Farm Credit Bank,,Purchased,2010-01-12,,15001,50000
122,"Los Angeles, CA Uni Sch Dist Ctfs Part",,Purchased,2010-01-20,,50001,100000
35,California St Var Purp Bond,,Purchased,2010-01-21,,15001,50000
16,Apollo Group,,Sold,2010-02-18,,1001,15000
17,Apollo Group,,Sold,2010-02-18,,1001,15000
94,HCP Inc,,Purchased,2010-02-18,,1001,15000
96,HCP Inc,,Purchased,2010-02-18,,1001,15000
7,AFLAC Inc,,Sold,2010-03-26,,1001,15000
10,AFLAC Inc,,Sold,2010-03-26,,1001,15000
62,Devon Energy,,Sold,2010-03-26,,1001,15000
64,Devon Energy,,Sold,2010-03-26,,1001,15000
133,Oracle Corp,,Purchased,2010-03-26,,1001,15000
135,Oracle Corp,,Purchased,2010-03-26,,1001,15000
77,Federal Home Loan Bank Bond,Federal Home Loan Bank System,Purchased,2010-04-06,,1001,15000
18,Apple Inc,,Sold,2010-04-21,,1001,15000
20,Apple Inc,,Sold,2010-04-21,,1001,15000
178,US Bancorp,,Purchased,2010-04-21,,1001,15000
182,US Bancorp,,Purchased,2010-04-21,,1001,15000
184,Verizon Communications,,Sold,2010-04-21,,1001,15000
185,Verizon Communications,,Sold,2010-04-21,,1001,15000
40,Caterpillar Inc,,Sold,2010-04-26,,1001,15000
43,Caterpillar Inc,,Sold,2010-04-26,,1001,15000
107,Johnson & Johnson,,Purchased,2010-04-26,,1001,15000
112,Johnson & Johnson,,Purchased,2010-04-26,,1001,15000
171,Transocean Ltd,,Sold,2010-04-29,,1001,15000
173,Transocean Ltd,,Sold,2010-04-29,,1001,15000
82,First Solar Inc,,Purchased,2010-05-03,,1001,15000
86,First Solar Inc,,Purchased,2010-05-03,,1001,15000
129,Monsanto Co,,Sold,2010-05-13,,1001,15000
130,Monsanto Co,,Sold,2010-05-13,,1001,15000
146,Praxair Inc,,Purchased,2010-05-13,,1001,15000
148,Praxair Inc,,Purchased,2010-05-13,,1001,15000
36,California St Var Purp Bond,,Sold,2010-06-11,,15001,50000
29,Baxter International,,Sold,2010-06-15,,1001,15000
30,Baxter International,,Sold,2010-06-15,,1001,15000
66,Dst Systems,,Sold,2010-06-15,,1001,15000
67,Dst Systems,,Sold,2010-06-15,,1001,15000
153,Sandisk Corp,,Purchased,2010-06-15,,1001,15000
157,Sandisk Corp,,Purchased,2010-06-15,,1001,15000
160,Schlumberger Ltd,,Purchased,2010-06-15,,1001,15000
164,Schlumberger Ltd,,Purchased,2010-06-15,,1001,15000
83,First Solar Inc,,Purchased,2010-07-07,,1001,15000
95,HCP Inc,,Purchased,2010-07-07,,1001,15000
117,JPMorgan Chase & Co,,Purchased,2010-07-07,,1001,15000
108,Johnson & Johnson,,Purchased,2010-07-07,,1001,15000
134,Oracle Corp,,Purchased,2010-07-07,,1001,15000
147,Praxair Inc,,Purchased,2010-07-07,,1001,15000
158,Sandisk Corp,,Purchased,2010-07-07,,1001,15000
161,Schlumberger Ltd,,Purchased,2010-07-07,,1001,15000
179,US Bancorp,,Purchased,2010-07-07,,1001,15000
52,Conocophillips,,Purchased,2010-07-29,,1001,15000
53,Conocophillips,,Purchased,2010-07-29,,1001,15000
68,Emerson Electric,,Sold,2010-07-29,,1001,15000
70,Emerson Electric,,Sold,2010-07-29,,1001,15000
74,Exxon Mobil,,Sold,2010-07-29,,1001,15000
75,Exxon Mobil,,Sold,2010-07-29,,1001,15000
97,HCP Inc,,Sold,2010-07-29,,1001,15000
100,HCP Inc,,Sold,2010-07-29,,1001,15000
169,Thermo Fisher Scientific,,Sold,2010-07-29,,1001,15000
170,Thermo Fisher Scientific,,Sold,2010-07-29,,1001,15000
186,Walt Disney Co,,Purchased,2010-07-29,,1001,15000
189,Walt Disney Co,,Purchased,2010-07-29,,1001,15000
5,Adobe Systems,,Sold,2010-08-18,,1001,15000
6,Adobe Systems,,Sold,2010-08-18,,1001,15000
49,Cliffs Natural Resources,,Purchased,2010-08-18,,1001,15000
50,Cliffs Natural Resources,,Purchased,2010-08-18,,1001,15000
88,General Mills,,Sold,2010-08-18,,1001,15000
89,General Mills,,Sold,2010-08-18,,1001,15000
92,Google Inc,,Purchased,2010-08-18,,1001,15000
93,Google Inc,,Purchased,2010-08-18,,1001,15000
142,PG&E Corp,,Sold,2010-09-10,,1001,15000
143,PG&E Corp,,Sold,2010-09-10,,1001,15000
1,3M Co,,Sold,2010-09-13,,1001,15000
11,AFLAC Inc,,Sold,2010-09-13,,1001,15000
21,Apple Inc,,Sold,2010-09-13,,1001,15000
25,Bank of New York Mellon,,Sold,2010-09-13,,1001,15000
32,Becton Dickenson & Co,,Sold,2010-09-13,,1001,15000
41,Caterpillar Inc,,Sold,2010-09-13,,1001,15000
45,Cisco Systems,,Sold,2010-09-13,,1001,15000
47,Cliffs Natural Resources,,Sold,2010-09-13,,1001,15000
54,Conocophillips,,Sold,2010-09-13,,1001,15000
57,Costco Wholesale,,Sold,2010-09-13,,1001,15000
71,Emerson Electric,,Sold,2010-09-13,,1001,15000
84,First Solar Inc,,Sold,2010-09-13,,1001,15000
90,Google Inc,,Sold,2010-09-13,,1001,15000
98,HCP Inc,,Sold,2010-09-13,,1001,15000
103,Hewlett-Packard,,Sold,2010-09-13,,1001,15000
115,JPMorgan Chase & Co,,Sold,2010-09-13,,1001,15000
110,Johnson & Johnson,,Sold,2010-09-13,,1001,15000
124,McDonald's Corp,,Sold,2010-09-13,,1001,15000
131,Oracle Corp,,Sold,2010-09-13,,1001,15000
138,Peabody Energy,,Sold,2010-09-13,,1001,15000
144,Praxair Inc,,Sold,2010-09-13,,1001,15000
150,Procter & Gamble,,Sold,2010-09-13,,1001,15000
155,Sandisk Corp,,Sold,2010-09-13,,1001,15000
162,Schlumberger Ltd,,Sold,2010-09-13,,1001,15000
166,Target Corp,,Sold,2010-09-13,,1001,15000
180,US Bancorp,,Sold,2010-09-13,,1001,15000
187,Walt Disney Co,,Sold,2010-09-13,,1001,15000
174,United Parcel Service,,Purchased,2010-09-14,,1001,15000
175,United Parcel Service,,Purchased,2010-09-14,,1001,15000
121,"Los Angeles, CA Uni Sch Dist Ctfs Part",,Sold,2010-09-15,,50001,100000
58,Costco Wholesale,,Sold,2010-10-15,,1001,15000
60,Costco Wholesale,,Sold,2010-10-15,,1001,15000
154,Sandisk Corp,,Purchased,2010-10-15,,1001,15000
159,Sandisk Corp,,Purchased,2010-10-15,,1001,15000
2,3M Co,,Sold,2010-10-19,,1001,15000
8,AFLAC Inc,,Sold,2010-10-19,,1001,15000
12,AFLAC Inc,,Sold,2010-10-19,,1001,15000
22,Apple Inc,,Sold,2010-10-19,,1001,15000
26,Bank of New York Mellon,,Sold,2010-10-19,,1001,15000
33,Becton Dickenson & Co,,Sold,2010-10-19,,1001,15000
42,Caterpillar Inc,,Sold,2010-10-19,,1001,15000
46,Cisco Systems,,Sold,2010-10-19,,1001,15000
48,Cliffs Natural Resources,,Sold,2010-10-19,,1001,15000
51,Cliffs Natural Resources,,Purchased,2010-10-19,,1001,15000
55,Conocophillips,,Sold,2010-10-19,,1001,15000
59,Costco Wholesale,,Sold,2010-10-19,,1001,15000
61,Costco Wholesale,,Sold,2010-10-19,,1001,15000
72,Emerson Electric,,Sold,2010-10-19,,1001,15000
85,First Solar Inc,,Sold,2010-10-19,,1001,15000
91,Google Inc,,Sold,2010-10-19,,1001,15000
99,HCP Inc,,Sold,2010-10-19,,1001,15000
101,HCP Inc,,Sold,2010-10-19,,1001,15000
104,Hewlett-Packard,,Sold,2010-10-19,,1001,15000
116,JPMorgan Chase & Co,,Sold,2010-10-19,,1001,15000
111,Johnson & Johnson,,Sold,2010-10-19,,1001,15000
125,McDonald's Corp,,Sold,2010-10-19,,1001,15000
132,Oracle Corp,,Sold,2010-10-19,,1001,15000
139,Peabody Energy,,Sold,2010-10-19,,1001,15000
145,Praxair Inc,,Sold,2010-10-19,,1001,15000
151,Procter & Gamble,,Sold,2010-10-19,,1001,15000
156,Sandisk Corp,,Sold,2010-10-19,,1001,15000
163,Schlumberger Ltd,,Sold,2010-10-19,,1001,15000
167,Target Corp,,Sold,2010-10-19,,1001,15000
181,US Bancorp,,Sold,2010-10-19,,1001,15000
188,Walt Disney Co,,Sold,2010-10-19,,1001,15000
190,Westerfield Scotch LLC,,Purchased,2010-10-22,,50001,100000
191,Westerfield Scotch LLC,,Purchased,2010-10-22,,1001,15000
78,Federal Home Loan Bank Bond,Federal Home Loan Bank System,Sold,2010-10-27,,1001,15000
79,Federal Home Loan Bank Bond,Federal Home Loan Bank System,Sold,2010-10-27,,15001,50000
119,JPMorgan Chase & Co,,Purchased,2010-10-27,,15001,50000
105,Hewlett-Packard,,Sold,2010-11-22,,1001,15000
106,Hewlett-Packard,,Sold,2010-11-22,,1001,15000
113,JPMorgan Chase & Co,,Purchased,2010-11-22,,1001,15000
118,JPMorgan Chase & Co,,Purchased,2010-11-22,,1001,15000
126,Microsoft Corp,,Purchased,2010-11-22,,1001,15000
127,Microsoft Corp,,Purchased,2010-11-22,,1001,15000
136,Peabody Energy,,Sold,2010-11-22,,1001,15000
140,Peabody Energy,,Sold,2010-11-22,,1001,15000
37,California State Bond,,Purchased,2010-12-10,,15001,50000
3,3M Co,,Sold,2010-12-14,,1001,15000
4,3M Co,,Sold,2010-12-14,,1001,15000
13,Amazon.com,,Purchased,2010-12-14,,1001,15000
14,Amazon.com,,Purchased,2010-12-14,,1001,15000
23,Bank New York Mellon,,Sold,2010-12-14,,1001,15000
27,Bank of New York Mellon,,Sold,2010-12-14,,1001,15000
176,United Technologies,,Purchased,2010-12-14,,1001,15000
177,United Technologies,,Purchased,2010-12-14,,1001,15000
128,Praxair Inc,,Sold,2011-01-04,,1001,15000
95,Los Angeles Calif Uni Sch Dist Ser A AGM,,Purchased,2011-01-06,,1001,15000
0,AFLAC Inc,,Sold,2011-01-07,,1001,15000
2,AFLAC Inc,,Sold,2011-01-07,,1001,15000
5,Amazon.com,,Sold,2011-01-07,,1001,15000
8,Amazon.com,,Sold,2011-01-07,,1001,15000
15,Apple Inc,,Sold,2011-01-07,,1001,15000
18,Apple Inc,,Sold,2011-01-07,,1001,15000
20,"Becton, Dickinson & Co",,Sold,2011-01-07,,1001,15000
22,"Becton, Dickinson & Co",,Sold,2011-01-07,,1001,15000
28,Caterpillar Inc,,Sold,2011-01-07,,1001,15000
31,Caterpillar Inc,,Sold,2011-01-07,,1001,15000
33,Cisco Systems,,Sold,2011-01-07,,1001,15000
35,Cisco Systems,,Sold,2011-01-07,,1001,15000
37,Cliffs Natural Resources,,Sold,2011-01-07,,1001,15000
40,Cliffs Natural Resources,,Sold,2011-01-07,,1001,15000
42,ConocoPhillips,,Sold,2011-01-07,,1001,15000
44,ConocoPhillips,,Sold,2011-01-07,,1001,15000
47,Costco Wholesale,,Sold,2011-01-07,,1001,15000
49,Costco Wholesale,,Sold,2011-01-07,,1001,15000
52,Emerson Electric,,Sold,2011-01-07,,1001,15000
55,Emerson Electric,,Sold,2011-01-07,,1001,15000
61,First Solar Inc,,Sold,2011-01-07,,1001,15000
64,First Solar Inc,,Sold,2011-01-07,,1001,15000
69,HCP Inc,,Sold,2011-01-07,,1001,15000
72,HCP Inc,,Sold,2011-01-07,,1001,15000
89,JP Morgan Chase & Co Subordinated Glb 05,,Purchased,2011-01-07,,1001,15000
90,JPMorgan Chase & Co,,Sold,2011-01-07,,1001,15000
92,JPMorgan Chase & Co,,Sold,2011-01-07,,1001,15000
84,Johnson & Johnson,,Sold,2011-01-07,,1001,15000
86,Johnson & Johnson,,Sold,2011-01-07,,1001,15000
101,McDonald's Corp,,Sold,2011-01-07,,1001,15000
103,McDonald's Corp,,Sold,2011-01-07,,1001,15000
106,Microsoft Corp,,Sold,2011-01-07,,1001,15000
109,Microsoft Corp,,Sold,2011-01-07,,1001,15000
111,Oracle Corp,,Sold,2011-01-07,,1001,15000
113,Oracle Corp,,Sold,2011-01-07,,1001,15000
116,Peabody Energy,,Sold,2011-01-07,,1001,15000
119,Peabody Energy,,Sold,2011-01-07,,1001,15000
125,Praxair Inc,,Sold,2011-01-07,,1001,15000
130,Procter & Gamble,,Sold,2011-01-07,,1001,15000
132,Procter & Gamble,,Sold,2011-01-07,,1001,15000
135,Sandisk Corp,,Sold,2011-01-07,,1001,15000
138,Sandisk Corp,,Sold,2011-01-07,,1001,15000
140,Schlumberger Ltd,,Sold,2011-01-07,,1001,15000
142,Schlumberger Ltd,,Sold,2011-01-07,,1001,15000
175,Target Corp,,Sold,2011-01-07,,1001,15000
177,Target Corp,,Sold,2011-01-07,,1001,15000
189,US Bancorp,,Sold,2011-01-07,,1001,15000
192,US Bancorp,,Sold,2011-01-07,,1001,15000
179,United Parcel Service,,Sold,2011-01-07,,1001,15000
182,United Parcel Service,,Sold,2011-01-07,,1001,15000
184,United Technologies,,Sold,2011-01-07,,1001,15000
186,United Technologies,,Sold,2011-01-07,,1001,15000
194,Walt Disney Co,,Sold,2011-01-07,,1001,15000
197,Walt Disney Co,,Sold,2011-01-07,,1001,15000
171,T Rowe Price Group,T Rowe Price Assoc,Purchased,2011-02-10,,1001,15000
174,T Rowe Price Group,T Rowe Price Assoc,Purchased,2011-02-10,,1001,15000
176,Target Corp,,Sold,2011-02-10,,1001,15000
178,Target Corp,,Sold,2011-02-10,,1001,15000
34,Cisco Systems,,Sold,2011-02-16,,1001,15000
36,Cisco Systems,,Sold,2011-02-16,,1001,15000
81,IBM Corp,,Purchased,2011-02-17,,1001,15000
83,IBM Corp,,Purchased,2011-02-17,,1001,15000
3,AFLAC Inc,,Sold,2011-03-02,,1001,15000
6,Amazon.com,,Sold,2011-03-02,,1001,15000
16,Apple Inc,,Sold,2011-03-02,,1001,15000
23,"Becton, Dickinson & Co",,Sold,2011-03-02,,1001,15000
29,Caterpillar Inc,,Sold,2011-03-02,,1001,15000
38,Cliffs Natural Resources,,Sold,2011-03-02,,1001,15000
45,ConocoPhillips,,Sold,2011-03-02,,1001,15000
50,Costco Wholesale,,Sold,2011-03-02,,1001,15000
53,Emerson Electric,,Sold,2011-03-02,,1001,15000
62,First Solar Inc,,Sold,2011-03-02,,1001,15000
67,Google Inc,,Sold,2011-03-02,,1001,15000
70,HCP Inc,,Sold,2011-03-02,,1001,15000
79,IBM Corp,,Sold,2011-03-02,,1001,15000
93,JPMorgan Chase & Co,,Sold,2011-03-02,,1001,15000
87,Johnson & Johnson,,Sold,2011-03-02,,1001,15000
104,McDonald's Corp,,Sold,2011-03-02,,1001,15000
107,Microsoft Corp,,Sold,2011-03-02,,1001,15000
114,Oracle Corp,,Sold,2011-03-02,,1001,15000
117,Peabody Energy,,Sold,2011-03-02,,1001,15000
126,Praxair Inc,,Sold,2011-03-02,,1001,15000
133,Procter & Gamble,,Sold,2011-03-02,,1001,15000
136,Sandisk Corp,,Sold,2011-03-02,,1001,15000
143,Schlumberger Ltd,,Sold,2011-03-02,,1001,15000
172,T Rowe Price Group,T Rowe Price Assoc,Sold,2011-03-02,,1001,15000
190,US Bancorp,,Sold,2011-03-02,,1001,15000
180,United Parcel Service,,Sold,2011-03-02,,1001,15000
187,United Technologies,,Sold,2011-03-02,,1001,15000
195,Walt Disney Co,,Sold,2011-03-02,,1001,15000
57,Express Scripts,,Purchased,2011-03-08,,1001,15000
59,Express Scripts,,Purchased,2011-03-08,,1001,15000
63,First Solar Inc,,Sold,2011-03-08,,1001,15000
65,First Solar Inc,,Sold,2011-03-08,,1001,15000
105,McDonald's Corp,,Sold,2011-03-18,,1001,15000
1,AFLAC Inc,,Sold,2011-03-21,,1001,15000
4,AFLAC Inc,,Sold,2011-03-21,,1001,15000
122,Pfizer Inc,,Purchased,2011-03-21,,1001,15000
124,Pfizer Inc,,Purchased,2011-03-21,,1001,15000
7,Amazon.com,,Sold,2011-03-23,,1001,15000
9,Amazon.com,,Sold,2011-03-23,,1001,15000
10,Amex Technology Select Spdr,,Purchased,2011-03-23,,15001,50000
13,Amex Technology Select Spdr,,Purchased,2011-03-23,,15001,50000
17,Apple Inc,,Sold,2011-03-23,,1001,15000
19,Apple Inc,,Sold,2011-03-23,,1001,15000
21,"Becton, Dickinson & Co",,Sold,2011-03-23,,1001,15000
24,"Becton, Dickinson & Co",,Sold,2011-03-23,,1001,15000
30,Caterpillar Inc,,Sold,2011-03-23,,1001,15000
32,Caterpillar Inc,,Sold,2011-03-23,,1001,15000
39,Cliffs Natural Resources,,Sold,2011-03-23,,1001,15000
41,Cliffs Natural Resources,,Sold,2011-03-23,,1001,15000
43,ConocoPhillips,,Sold,2011-03-23,,1001,15000
46,ConocoPhillips,,Sold,2011-03-23,,1001,15000
48,Costco Wholesale,,Sold,2011-03-23,,1001,15000
51,Costco Wholesale,,Sold,2011-03-23,,1001,15000
54,Emerson Electric,,Sold,2011-03-23,,1001,15000
56,Emerson Electric,,Sold,2011-03-23,,1001,15000
58,Express Scripts,,Sold,2011-03-23,,1001,15000
60,Express Scripts,,Sold,2011-03-23,,1001,15000
66,Google Inc,,Sold,2011-03-23,,1001,15000
68,Google Inc,,Sold,2011-03-23,,1001,15000
71,HCP Inc,,Sold,2011-03-23,,1001,15000
73,HCP Inc,,Sold,2011-03-23,,1001,15000
74,Health Care Select SPDR,,Purchased,2011-03-23,,15001,50000
76,Health Care Select SPDR,,Purchased,2011-03-23,,15001,50000
80,IBM Corp,,Sold,2011-03-23,,1001,15000
82,IBM Corp,,Sold,2011-03-23,,1001,15000
91,JPMorgan Chase & Co,,Sold,2011-03-23,,1001,15000
94,JPMorgan Chase & Co,,Sold,2011-03-23,,1001,15000
85,Johnson & Johnson,,Sold,2011-03-23,,1001,15000
88,Johnson & Johnson,,Sold,2011-03-23,,1001,15000
97,Materials Select Sector,,Purchased,2011-03-23,,1001,15000
99,Materials Select Sector,,Purchased,2011-03-23,,1001,15000
102,McDonald's Corp,,Sold,2011-03-23,,1001,15000
108,Microsoft Corp,,Sold,2011-03-23,,1001,15000
110,Microsoft Corp,,Sold,2011-03-23,,1001,15000
112,Oracle Corp,,Sold,2011-03-23,,1001,15000
115,Oracle Corp,,Sold,2011-03-23,,1001,15000
118,Peabody Energy,,Sold,2011-03-23,,1001,15000
120,Peabody Energy,,Sold,2011-03-23,,1001,15000
121,Pfizer Inc,,Sold,2011-03-23,,1001,15000
123,Pfizer Inc,,Sold,2011-03-23,,1001,15000
127,Praxair Inc,,Sold,2011-03-23,,1001,15000
129,Praxair Inc,,Sold,2011-03-23,,1001,15000
131,Procter & Gamble,,Sold,2011-03-23,,1001,15000
134,Procter & Gamble,,Sold,2011-03-23,,1001,15000
160,SPDR Consumer Discretionary,,Purchased,2011-03-23,,15001,50000
162,SPDR Consumer Discretionary,,Purchased,2011-03-23,,15001,50000
165,SPDR Consumer Staples Sel Sector,,Purchased,2011-03-23,,1001,15000
168,SPDR Consumer Staples Sel Sector,,Purchased,2011-03-23,,1001,15000
137,Sandisk Corp,,Sold,2011-03-23,,1001,15000
139,Sandisk Corp,,Sold,2011-03-23,,1001,15000
141,Schlumberger Ltd,,Sold,2011-03-23,,1001,15000
144,Schlumberger Ltd,,Sold,2011-03-23,,1001,15000
150,Sector SPDR Financial Fund,,Purchased,2011-03-23,,15001,50000
153,Sector SPDR Financial Fund,,Purchased,2011-03-23,,15001,50000
146,Sector Spdr Energy Select Fund,,Purchased,2011-03-23,,15001,50000
148,Sector Spdr Energy Select Fund,,Purchased,2011-03-23,,15001,50000
156,Sector Spdr Industrial,,Purchased,2011-03-23,,15001,50000
158,Sector Spdr Industrial,,Purchased,2011-03-23,,15001,50000
170,T Rowe Price Group,T Rowe Price Assoc,Sold,2011-03-23,,1001,15000
173,T Rowe Price Group,T Rowe Price Assoc,Sold,2011-03-23,,1001,15000
191,US Bancorp,,Sold,2011-03-23,,1001,15000
193,US Bancorp,,Sold,2011-03-23,,1001,15000
181,United Parcel Service,,Sold,2011-03-23,,1001,15000
183,United Parcel Service,,Sold,2011-03-23,,1001,15000
185,United Technologies,,Sold,2011-03-23,,1001,15000
188,United Technologies,,Sold,2011-03-23,,1001,15000
196,Walt Disney Co,,Sold,2011-03-23,,1001,15000
198,Walt Disney Co,,Sold,2011-03-23,,1001,15000
11,Amex Technology Select Spdr,,Purchased,2011-08-16,,15001,50000
14,Amex Technology Select Spdr,,Purchased,2011-08-16,,15001,50000
26,California State Bond,,Sold,2011-08-16,,15001,50000
75,Health Care Select SPDR,,Purchased,2011-08-16,,15001,50000
77,Health Care Select SPDR,,Purchased,2011-08-16,,15001,50000
98,Materials Select Sector,,Purchased,2011-08-16,,1001,15000
100,Materials Select Sector,,Purchased,2011-08-16,,1001,15000
161,SPDR Consumer Discretionary,,Purchased,2011-08-16,,15001,50000
163,SPDR Consumer Discretionary,,Purchased,2011-08-16,,15001,50000
166,SPDR Consumer Staples Sel Sector,,Purchased,2011-08-16,,1001,15000
169,SPDR Consumer Staples Sel Sector,,Purchased,2011-08-16,,1001,15000
151,Sector SPDR Financial Fund,,Purchased,2011-08-16,,15001,50000
154,Sector SPDR Financial Fund,,Purchased,2011-08-16,,15001,50000
147,Sector Spdr Energy Select Fund,,Purchased,2011-08-16,,15001,50000
149,Sector Spdr Energy Select Fund,,Purchased,2011-08-16,,15001,50000
157,Sector Spdr Industrial,,Purchased,2011-08-16,,15001,50000
159,Sector Spdr Industrial,,Purchased,2011-08-16,,15001,50000
27,California Various Purpose Bond,,Sold,2011-09-15,,15001,50000
12,Amex Technology Select Spdr,,Sold,2011-11-16,,1001,15000
78,Health Care Select SPDR,,Sold,2011-11-16,,1001,15000
96,Materials Select Sector,,Sold,2011-11-16,,1001,15000
164,SPDR Consumer Discretionary,,Sold,2011-11-16,,1001,15000
167,SPDR Consumer Staples Sel Sector,,Sold,2011-11-16,,1001,15000
152,Sector SPDR Financial Fund,,Sold,2011-11-16,,1001,15000
145,Sector Spdr Energy Select Fund,,Sold,2011-11-16,,1001,15000
155,Sector Spdr Industrial,,Sold,2011-11-16,,1001,15000
25,California State Bond,,Purchased,2011-12-27,,1001,15000
0,Amex Technlgy Select Spdr,,Sold,2012-02-09,,50001,100000
2,Amex Technlgy Select Spdr,,Sold,2012-02-09,,15001,50000
12,Consumer Discretionary,,Purchased,2012-02-09,,1001,15000
14,Consumer Discretionary Select SPDR,,Purchased,2012-02-09,,1001,15000
16,Consumer Staples Select Sector SPDR,,Purchased,2012-02-09,,1001,15000
21,Materials Select Sector SPDR Fund,,Sold,2012-02-09,,1001,15000
52,SPDR Select Sector Consumer Staples ETF,,Purchased,2012-02-09,,1001,15000
27,Sector SPDR Energy Select Fund,,Sold,2012-02-09,,1001,15000
30,Sector SPDR Financial Select Fund,,Purchased,2012-02-09,,1001,15000
35,Sector SPDR Industrial Select Fund,,Sold,2012-02-09,,15001,50000
40,Sector SPDR Industrial Select Fund,,Sold,2012-02-09,,1001,15000
25,Sector Spdr Energy Select Fund,,Sold,2012-02-09,,1001,15000
46,Select Sector SPDR Trust Health Care,,Sold,2012-02-09,,1001,15000
7,California Economic Recovery Bond,,Purchased,2012-02-13,,1001,15000
23,Materials Select Sector SPDR Fund,,Sold,2012-02-13,,1001,15000
3,Amex Technlgy Select Spdr,,Sold,2012-03-20,,15001,50000
4,Amex Technlgy Select Spdr,,Sold,2012-03-26,,15001,50000
8,Consumer Discretionary,,Sold,2012-03-26,,1001,15000
54,SPDR Select Sector Consumer Staples ETF,,Sold,2012-03-26,,1001,15000
32,Sector SPDR Financial Select Fund,,Sold,2012-03-26,,15001,50000
36,Sector SPDR Industrial Select Fund,,Sold,2012-03-26,,15001,50000
26,Sector Spdr Energy Select Fund,,Sold,2012-03-26,,1001,15000
47,Select Sector SPDR Trust Health Care,,Sold,2012-03-26,,1001,15000
5,Amex Technlgy Select Spdr,,Sold,2012-07-13,,15001,50000
9,Consumer Discretionary,,Sold,2012-07-13,,1001,15000
33,Sector SPDR Financial Select Fund,,Sold,2012-07-13,,15001,50000
48,Select Sector SPDR Trust Health Care,,Sold,2012-07-13,,1001,15000
1,Amex Technlgy Select Spdr,,Sold,2012-10-04,,50001,100000
6,Amex Technlgy Select Spdr,,Sold,2012-10-04,,15001,50000
10,Consumer Discretionary,,Sold,2012-10-04,,1001,15000
13,Consumer Discretionary Select SPDR,,Sold,2012-10-04,,1001,15000
17,Consumer Staples Select Sector SPDR,,Purchased,2012-10-04,,1001,15000
22,Materials Select Sector SPDR Fund,,Sold,2012-10-04,,1001,15000
24,Materials Select Sector SPDR Fund,,Sold,2012-10-04,,1001,15000
50,SPDR Select Healthcare ETF,,Sold,2012-10-04,,1001,15000
28,Sector SPDR Energy Select Fund,,Purchased,2012-10-04,,1001,15000
31,Sector SPDR Financial Select Fund,,Sold,2012-10-04,,15001,50000
34,Sector SPDR Financial Select Fund,,Sold,2012-10-04,,15001,50000
39,Sector SPDR Industrial Select Fund,,Purchased,2012-10-04,,1001,15000
42,Sector SPDR Industrial Select Fund,,Purchased,2012-10-04,,15001,50000
43,Sector SPDR Utilities,,Purchased,2012-10-04,,15001,50000
45,Sector SPDR Utilities,,Purchased,2012-10-04,,1001,15000
56,Vanguard Financials ETF,,Purchased,2012-10-04,,15001,50000
60,Vanguard Financials ETF,,Purchased,2012-10-04,,15001,50000
63,Vanguard Information Technology ETF,,Purchased,2012-10-04,,15001,50000
65,Vanguard Information Technology ETF,,Purchased,2012-10-04,,15001,50000
68,Vanguard Telecomm Services ETF,,Purchased,2012-10-04,,1001,15000
69,Vanguard Telecomm Services ETF,,Purchased,2012-10-04,,1001,15000
19,Federal Home Loan Bank Bonds,Federal Home Loan Bank System,Sold,2012-10-10,,15001,50000
11,Consumer Discretionary,,Sold,2012-10-29,,1001,15000
55,SPDR Select Sector Consumer Staples ETF,,Sold,2012-10-29,,1001,15000
37,Sector SPDR Industrial Select Fund,,Sold,2012-10-29,,15001,50000
49,Select Sector SPDR Trust Health Care,,Sold,2012-10-29,,1001,15000
58,Vanguard Financials ETF,,Sold,2012-10-29,,1001,15000
67,Vanguard Information Technology ETF,,Sold,2012-10-29,,1001,15000
15,Consumer Discretionary Select SPDR,,Purchased,2012-12-10,,1001,15000
18,Consumer Staples Select Sector SPDR,,Purchased,2012-12-10,,1001,15000
51,SPDR Select Healthcare ETF,,Purchased,2012-12-10,,1001,15000
38,Sector SPDR Industrial Select Fund,,Sold,2012-12-10,,15001,50000
41,Sector SPDR Industrial Select Fund,,Sold,2012-12-10,,1001,15000
44,Sector SPDR Utilities,,Purchased,2012-12-10,,15001,50000
29,Sector Spdr Energy Select Fund,,Purchased,2012-12-10,,1001,15000
57,Vanguard Financials ETF,,Purchased,2012-12-10,,15001,50000
61,Vanguard Financials ETF,,Purchased,2012-12-10,,15001,50000
64,Vanguard Information Technology ETF,,Purchased,2012-12-10,,15001,50000
66,Vanguard Information Technology ETF,,Purchased,2012-12-10,,15001,50000
70,Vanguard Telecomm Services ETF,,Purchased,2012-12-10,,1001,15000
20,JPMorgan Chase & Co,,Sold,2013-01-02,,1001,15000
53,SPDR Select Sector Consumer Staples ETF,,Purchased,2013-01-02,,1001,15000
59,Vanguard Financials ETF,,Sold,2013-01-02,,1001,15000
62,Vanguard Financials ETF,,Purchased,2013-01-02,,15001,50000
