,orgname,ultorg,action,date1,transnotes,minvalue,maxvalue
0,Clicks Memphis LP,,Sold,2017-05-08,,1001.0,15000.0
1,Clicks Memphis LP,,Sold,2017-05-08,,1001.0,15000.0
2,Clicks Memphis LP,,Sold,2017-05-08,,1001.0,15000.0
3,Clicks Memphis LP,,Sold,2017-05-08,,1001.0,15000.0
3,Clicks Memphis LP,,Sold,2018-07-11,,1001.0,15000.0
4,Clicks Memphis LP,,Sold,2018-07-11,,1001.0,15000.0
0,Chisholm 550 LLP,,Exchanged,2019-08-31,,,
1,Chisholm 550 LLP,,Sold,2019-08-31,,250001.0,500000.0
2,Chisholm 550 LLP,,Sold,2019-08-31,,250001.0,500000.0
