,orgname,ultorg,action,date1,transnotes,minvalue,maxvalue
0,Wing Point Golf & Country Club,,Sold,2007-01-09,,,
0,Amazon.com,,Purchased,2010-05-05,,1001.0,15000.0
1,Costco Wholesale,,Purchased,2010-05-05,,1001.0,15000.0
4,Starbucks Corp,,Purchased,2010-05-05,,1001.0,15000.0
2,iShares 1-3 year Treasury Index,,Sold,2010-05-05,,15001.0,50000.0
3,Montesanto,,Sold,2010-06-18,,1001.0,15000.0
