,orgname,ultorg,action,date1,transnotes,minvalue,maxvalue
2,Fidelity Contrafund,,Purchased,2008-02-08,,1001.0,15000.0
6,Lake Point Medical Realty,,Purchased,2008-02-20,,1001.0,15000.0
0,74.845 Acres/Lamar County TX,,Purchased,2008-03-15,,100001.0,250000.0
11,Telmex Internacional,,Purchased,2008-06-10,,,
12,Telmex Internacional,,Purchased,2008-06-10,,,
1,Dale Operating Gas Lease,,Purchased,2008-07-01,,,
5,Genworth Variable Annuity Plus,,Purchased,2008-08-12,,1001.0,15000.0
10,Sonus Pharmaceuticals,,Sold,2008-08-21,,,
7,Penn West Energy Trust,,Purchased,2008-09-19,,1001.0,15000.0
8,Penn West Energy Trust,,Purchased,2008-10-15,,1001.0,15000.0
9,Powershares High Gr Dvid 100 Achiever,,Sold,2008-11-18,,,
4,Genworth Variable Annuity Plus,,Purchased,2008-12-16,,1001.0,15000.0
3,Fidelity Contrafund,,Purchased,2008-12-26,,1001.0,15000.0
4,Penn West Energy Trust,,Purchased,2009-02-17,,1001.0,15000.0
7,PowerShares High Gr Dvid 100 Achiever,,Sold,2009-05-22,,,
8,PowerShares QQQ Trust,,Sold,2009-07-17,,1001.0,15000.0
9,SPDR Gold Trust ETF,,Sold,2009-07-17,,1001.0,15000.0
10,Vanguard Energy Fund,,Sold,2009-07-17,,1001.0,15000.0
11,Vanguard Total Stock Market Vipers,,Sold,2009-07-17,,,
1,iShares N Amer Natural Resource Index,,Sold,2009-07-17,,,
2,iShares S&P 500 Index,,Sold,2009-07-17,,,
5,Penn West Energy Trust,,Purchased,2009-08-13,,1001.0,15000.0
0,"5 Acres/Talkeetna, AK",,Sold,2009-09-04,,15001.0,50000.0
6,Pfizer Inc,,Exchanged,2009-10-15,,,
3,Lake Point Medical Realty,,Purchased,2009-12-31,,1001.0,15000.0
0,America Movil,,Purchased/Exchanged,2010-01-13,,1001.0,15000.0
1,America Movil,,Purchased/Exchanged,2010-01-13,,1001.0,15000.0
10,Telmex Internacional,,Sold/Exchanged,2010-01-13,,1001.0,15000.0
11,Telmex Internacional,,Sold/Exchanged,2010-01-13,,1001.0,15000.0
3,Berkshire Hathaway,,Purchased,2010-01-27,,1001.0,15000.0
2,Berkshire Hathaway,,Purchased,2010-01-29,,1001.0,15000.0
5,Fidelity Value Fund,,Sold,2010-07-16,,15001.0,50000.0
8,Powershares Zacks Micro Cap Index,,Sold,2010-07-26,,,
9,Stryker Corp,,Sold,2010-09-08,,,
12,Vanguard Healthcare Index,,Sold,2010-09-08,,,
4,Citadel Broadcasting,,Sold,2010-12-31,,,
6,Lake Point Medical Realty,,Purchased,2010-12-31,,1001.0,15000.0
7,Northwestern Mutual Life Annuity,,Purchased,2010-12-31,,1001.0,15000.0
11,Penn West Energy Trust,,Exchanged,2011-01-01,,1001.0,15000.0
12,Penn West Energy Trust,,Exchanged,2011-01-01,,1001.0,15000.0
13,Penn West Pete,,Exchanged,2011-01-01,,1001.0,15000.0
14,Penn West Pete,,Exchanged,2011-01-01,,1001.0,15000.0
18,Titan Operating Gas Lease,,Purchased,2011-01-10,,15001.0,50000.0
7,iShares MSCI Australia Index,,Sold,2011-03-04,,,
8,iShares MSCI Singapore Index,,Sold,2011-03-04,,,
4,Fidelity Equity Income II Fund,,Sold,2011-03-08,,15001.0,50000.0
15,Powershares QQQ Index,,Sold,2011-04-25,,,
16,San Juan Basin Royalty Trust,,Sold,2011-04-25,,,
2,Airtran Holdings,,Exchanged,2011-05-02,,,
17,Southwest Airlines,,Exchanged,2011-05-02,,,
9,Limited Brands,,Sold,2011-05-03,,1001.0,15000.0
3,Fidelity Contrafund,,Sold,2011-05-11,,50001.0,100000.0
5,Fidelity Export & Multinational Fund,,Sold,2011-05-11,,1001.0,15000.0
6,Fidelity International Discovery Fund,,Sold,2011-05-11,,15001.0,50000.0
10,Limited Brands,,Sold,2011-07-06,,1001.0,15000.0
13,Verizon Communications,,Purchased,2011-08-08,,1001.0,15000.0
0,"1 Acre 1831 Crow St/Denton, TX",,Sold,2011-10-28,,50001.0,100000.0
1,74.845 Acres/Lamar County TX,,Sold,2011-11-03,,100001.0,250000.0
10,TD Ameritrade/Insured Deposit MM,,Purchased,2012-01-01,,1001.0,15000.0
1,"26 Acres/Glenwood, AR",,Purchased,2012-01-30,,50001.0,100000.0
0,"26 Acres/Glenwood, AR",,Purchased,2012-01-30,,500001.0,1000000.0
2,America Movil,,Exchanged,2012-03-26,,1001.0,15000.0
3,America Movil,,Exchanged,2012-03-26,,1001.0,15000.0
11,Telefonos de Mexico IRA,,Exchanged,2012-03-26,,1001.0,15000.0
12,Telefonos de Mexico IRA,,Exchanged,2012-03-26,,1001.0,15000.0
4,Express Scripts,,Exchanged,2012-04-02,,1001.0,15000.0
9,Medco Health Solutions,,Exchanged,2012-04-02,,1001.0,15000.0
8,Lake Point Medical Realty,,Purchased,2012-06-04,,1001.0,15000.0
5,Fidelity International Discovery Fund,,Sold,2012-12-03,,1001.0,15000.0
6,Fidelity Value Fund,,Sold,2012-12-03,,1001.0,15000.0
1,"30 Acres 2000 Blackjack/Aubrey, TX",,Purchased,2012-12-28,,250001.0,500000.0
7,Hartford Annuity,,Sold,2012-12-31,,15001.0,50000.0
2,Abbott Laboratories,,Sold/Exchanged,2013-01-01,,1001.0,15000.0
3,Abbvie Inc,,Purchased,2013-01-01,,1001.0,15000.0
11,TD Ameritrade/Insured Deposit,,Purchased,2013-01-01,,92.0,92.0
8,Lake Point Medical Realty,,Purchased,2013-01-04,addtl capital contributed to partnership,1001.0,15000.0
7,Fidelity International Discovery Fund,,Sold,2013-04-04,,1001.0,15000.0
0,"2.5 Acres/Harbor South, AR",,Sold,2013-04-14,,50001.0,100000.0
6,Fidelity Export & Multinational Fund,,Purchased,2013-10-04,Dividends Reinvested,1001.0,15000.0
9,MFS Series Trust II Growth Fund,,Sold,2013-11-02,,1001.0,15000.0
10,MFS Series Trust II Growth Fund,,Sold,2013-11-02,,1001.0,15000.0
4,Fidelity Capital Appreciation Fund,,Purchased,2013-12-06,Dividends Reinvested,1001.0,15000.0
5,Fidelity Contrafund,,Purchased,2013-12-13,Dividends Reinvested,1001.0,15000.0
2,American Airlines,American Airlines Group,Sold,2014-02-11,,17.0,17.0
6,Fidelity Export & Multinational Fund,,Sold,2014-02-25,,1001.0,15000.0
1,Alcatel-Lucent,,Sold,2014-03-10,,1.0,1.0
5,Cisco Systems,,Sold,2014-03-10,,632.0,632.0
10,General Electric,,Sold,2014-03-10,,1001.0,15000.0
14,L Brands,,Sold,2014-03-10,,575.0,575.0
16,Microsoft Corp,,Sold,2014-03-10,,1001.0,15000.0
17,Pfizer Inc,,Sold,2014-03-10,,1001.0,15000.0
19,United Parcel Service,,Sold,2014-03-10,,1001.0,15000.0
20,Verizon Communications,,Sold,2014-03-10,,1001.0,15000.0
12,iShares US Telecommunications ETF,BlackRock,Sold,2014-03-10,,1001.0,15000.0
3,American Airlines,American Airlines Group,Sold,2014-03-12,,2.0,2.0
9,Fidelity VIP Contrafund,,Sold,2014-03-13,,15001.0,50000.0
13,Janus Aspen Institutional Fund,,Sold,2014-03-13,,1001.0,15000.0
4,American Airlines,American Airlines Group,Sold,2014-04-11,,6.0,6.0
7,Fidelity Export & Multinational Fund,,Sold,2014-04-14,,1001.0,15000.0
0,"5 Acres Talkeetna, AK, Note Receivable",,Sold,2014-08-01,,1001.0,15000.0
15,Lake Point Medical Realty,,Sold,2014-08-12,,1001.0,15000.0
18,PowerShares Dynamic Biotech & Genome ETF,,Sold,2014-10-23,,472.0,472.0
11,iShares MSCI Singapore Index Fund,,Sold,2014-10-23,,121.0,121.0
8,Fidelity International Discovery Fund,,Sold,2015-02-25,,1001.0,15000.0
7,WarnerMedia Group,,Sold,2018-06-15,,179.0,179.0
8,WarnerMedia Group,,Sold,2018-06-15,,179.0,179.0
5,Toyota Motor,,Sold,2018-08-15,,20.0,20.0
6,Toyota Motor,,Sold,2018-08-15,,20.0,20.0
2,Fidelity Advisors Equity Growth,,Sold,2018-10-29,,1001.0,15000.0
3,Fidelity Advisors Equity Growth,,Sold,2018-10-29,,1001.0,15000.0
4,Fidelity Advisors Equity Growth,,Exchanged,2018-10-29,,,
0,Express Scripts,,Exchanged,2018-12-21,,926.0,926.0
1,Express Scripts,,Exchanged,2018-12-21,,926.0,926.0
19,Verizon Communications,,Purchased,,,1001.0,15000.0
