,orgname,ultorg,action,date1,transnotes,minvalue,maxvalue
32,Fidelity Low Priced Stock Fund,,Sold,2008-01-07,,1001,15000
43,T Rowe Price Capital Appreciation Fund,,Sold,2008-01-07,,15001,50000
9,Fidelity Cash Reserves,,Purchased,2008-01-08,,15001,50000
10,Fidelity Cash Reserves,,Sold,2008-01-10,,1001,15000
11,Fidelity Cash Reserves,,Sold,2008-01-11,,1001,15000
0,Baron Partners Fund,,Sold,2008-01-18,,1001,15000
1,Baron Partners Fund,,Sold,2008-01-18,,1001,15000
27,Fidelity Diversified International Fund,,Sold,2008-01-22,,15001,50000
12,Fidelity Cash Reserves,,Sold,2008-02-19,,1001,15000
33,Fidelity Select Energy Service,,Sold,2008-03-05,,1001,15000
5,Fairholme Funds,,Purchased,2008-04-23,,1001,15000
13,Fidelity Cash Reserves,,Sold,2008-04-24,,1001,15000
6,Fairholme Funds,,Purchased,2008-05-02,,1001,15000
42,Janus Contrarian Fund,,Purchased,2008-05-02,,1001,15000
7,Fidelity Cash Reserves,,Sold,2008-05-05,,1001,15000
30,Fidelity Latin America Fund,,Purchased,2008-05-08,,1001,15000
34,Fidelity Select Energy Service,,Purchased,2008-05-15,,1001,15000
35,Fidelity Select Energy Service,,Purchased,2008-05-15,,1001,15000
28,Fidelity Independence Fund,,Purchased,2008-05-20,,1001,15000
36,Fidelity Select Energy Service,,Sold,2008-07-08,,1001,15000
41,Janus Contrarian Fund,,Sold,2008-07-08,,15001,50000
20,Fidelity Cash Reserves,,Purchased,2008-07-10,,1001,15000
39,Fidelity Select Energy Service,,Sold,2008-07-10,,1001,15000
29,Fidelity Independence Fund,,Sold,2008-07-16,,1001,15000
37,Fidelity Select Energy Service,,Sold,2008-07-18,,1001,15000
38,Fidelity Select Energy Service,,Sold,2008-07-18,,1001,15000
8,Fidelity Cash Reserves,,Sold,2008-07-21,,1001,15000
31,Fidelity Latin America Fund,,Sold,2008-07-25,,1001,15000
24,Fidelity Diversified International Fund,,Sold,2008-08-14,,1001,15000
21,Fidelity Cash Reserves,,Purchased,2008-08-15,,1001,15000
22,Fidelity Diversified International Fund,,Sold,2008-08-15,,1001,15000
25,Fidelity Diversified International Fund,,Sold,2008-09-08,,15001,50000
40,Janus Contrarian Fund,,Sold,2008-09-10,,1001,15000
3,Dodge & Cox International Stock Fund,,Sold,2008-09-16,,15001,50000
23,Fidelity Diversified International Fund,,Sold,2008-09-16,,1001,15000
26,Fidelity Diversified International Fund,,Sold,2008-09-16,,1001,15000
14,Fidelity Cash Reserves,,Purchased,2008-09-17,,1001,15000
2,Columbia Acorn Fund,,Sold,2008-09-18,,1001,15000
15,Fidelity Cash Reserves,,Purchased,2008-09-19,,1001,15000
45,Vanguard Total Stock Market Index Fund,,Sold,2008-09-19,,1001,15000
16,Fidelity Cash Reserves,,Purchased,2008-09-22,,1001,15000
44,Vanguard Total Stock Market Index Fund,,Sold,2008-09-30,,1001,15000
19,Fidelity Cash Reserves,,Purchased,2008-10-01,,1001,15000
4,Fairholme Funds,,Sold,2008-10-03,,15001,50000
17,Fidelity Cash Reserves,,Purchased,2008-10-06,,15001,50000
18,Fidelity Cash Reserves,,Sold,2008-12-03,,1001,15000
5,Fairholme Funds,,Purchased,2009-01-07,,1001,15000
15,Fidelity Select Energy Service,,Purchased,2009-01-07,,1001,15000
6,Fairholme Funds,,Purchased,2009-01-15,,1001,15000
8,Fidelity Cash Reserves,,Sold,2009-02-10,,1001,15000
9,Fidelity Cash Reserves,,Sold,2009-02-13,,1001,15000
10,Fidelity Cash Reserves,,Sold,2009-02-17,,1001,15000
0,Fairholme Funds,,Sold,2009-02-23,,1001,15000
16,Fidelity Select Energy Service,,Sold,2009-02-23,,1001,15000
1,Fairholme Funds,,Purchased,2009-06-15,,15001,50000
11,Fidelity Cash Reserves,,Sold,2009-07-23,,1001,15000
2,Fairholme Funds,,Purchased,2009-07-24,,1001,15000
3,Fairholme Funds,,Purchased,2009-08-07,,1001,15000
18,Fidelity Short-Inter Mediate Muni Income,,Purchased,2009-11-18,,15001,50000
12,Fidelity Cash Reserves,,Sold,2009-11-24,,1001,15000
7,Fidelity Cash Reserves,,Sold,2009-12-02,,15001,50000
13,Fidelity Cash Reserves,,Sold,2009-12-22,,1001,15000
4,Fairholme Funds,,Purchased,2009-12-29,,1001,15000
17,Fidelity Select Energy Service,,Purchased,2009-12-29,,15001,50000
19,T Rowe Price New Era Fund,,Purchased,2009-12-29,,15001,50000
20,Vanguard Total Stock Market Index,,Purchased,2009-12-29,,15001,50000
14,Fidelity Cash Reserves,,Sold,2009-12-31,,1001,15000
8,Fidelity Cash Reserves,,Purchased,2010-01-06,,1001,15000
20,T Rowe Price New Era Fund,,Sold,2010-02-01,,15001,50000
10,Fidelity Select Energy Service,,Sold,2010-03-26,,15001,50000
3,Fairholme Funds,,Purchased,2010-04-20,,15001,50000
4,Fairholme Funds,,Purchased,2010-05-03,,15001,50000
13,Fidelity Select Gold Portfolio,,Purchased,2010-05-04,,15001,50000
19,PIMCO RealReturn Fund,,Purchased,2010-09-13,,1001,15000
21,Vanguard Short Term Investment Grade Fnd,,Purchased,2010-09-13,,1001,15000
14,Fidelity Select Leisure,,Purchased,2010-11-01,,1001,15000
15,Fidelity Select Materials Portfolio,,Purchased,2010-11-03,,1001,15000
17,Fidelity Small Cap Discovery Fund,,Purchased,2010-11-03,,1001,15000
9,Fidelity Cash Reserves,,Purchased,2010-11-30,,1001,15000
18,PIMCO RealReturn Fund,,Sold,2010-12-09,,1001,15000
2,Fairholme Funds,,Sold,2010-12-10,,1001,15000
11,Fidelity Select Gold Portfolio,,Purchased,2010-12-10,,1001,15000
12,Fidelity Select Gold Portfolio,,Sold,2010-12-10,,1001,15000
23,Vanguard Total Stock Market Index,,Purchased,2010-12-10,,1001,15000
7,Fidelity Cash Reserves,,Purchased,2010-12-15,,1001,15000
0,Fairholme Funds,,Purchased,2010-12-16,,1001,15000
1,Fairholme Funds,,Sold,2010-12-16,,1001,15000
5,Fairholme Funds,,Purchased,2010-12-16,,1001,15000
6,Fairholme Funds,,Sold,2010-12-16,,1001,15000
16,Fidelity Short-Intermediate Muni Income,,Sold,2010-12-29,,15001,50000
22,Vanguard Short Term Investment Grade Fnd,,Sold,2010-12-29,,1001,15000
26,Fidelity Select Gold Portfolio,,Exchanged,2011-01-10,,1001,15000
10,Fidelity Cash Reserves,,Purchased,2011-01-11,,1001,15000
24,Fidelity Select Gold Portfolio,,Exchanged,2011-01-14,,1001,15000
14,Fidelity Cash Reserves,,Purchased,2011-01-18,,1001,15000
15,Fidelity Cash Reserves,,Purchased,2011-01-18,,1001,15000
16,Fidelity Cash Reserves,,Purchased,2011-02-22,,1001,15000
17,Fidelity Cash Reserves,,Exchanged,2011-02-22,,1001,15000
3,Fairholme Funds,,Exchanged,2011-05-10,,15001,50000
4,Fairholme Funds,,Exchanged,2011-05-13,,15001,50000
0,Fairholme Funds,,Exchanged,2011-05-16,,15001,50000
25,Fidelity Select Gold Portfolio,,Exchanged,2011-05-16,,1001,15000
18,Fidelity Cash Reserves,,Purchased,2011-05-17,,1001,15000
1,Fairholme Funds,,Exchanged,2011-05-25,,15001,50000
38,Vanguard Prime Money Market,,Purchased,2011-06-03,,1001,15000
2,Fairholme Funds,,Exchanged,2011-06-13,,15001,50000
29,Fidelity Select Materials Portfolio,,Purchased,2011-07-01,,1001,15000
33,Fidelity Small Cap Discovery Fund,,Purchased,2011-07-01,,1001,15000
36,US Dept of the Treasury I-Bond,,Purchased,2011-07-01,,1001,15000
37,US Dept of the Treasury I-Bond,,Purchased,2011-07-01,,1001,15000
41,Vanguard Total Stock Market Index,,Purchased,2011-07-01,,1001,15000
8,Fidelity Cash Reserves,,Exchanged,2011-07-05,,15001,50000
23,Fidelity Select Biotechnology Fund,,Purchased,2011-07-05,,1001,15000
32,Fidelity Select Medical Delivery,,Purchased,2011-07-05,,1001,15000
9,Fidelity Cash Reserves,,Purchased,2011-07-22,,1001,15000
19,Fidelity Cash Reserves,,Purchased,2011-07-22,,1001,15000
20,Fidelity Cash Reserves,,Exchanged,2011-07-22,,1001,15000
22,Fidelity Select Biotechnology Fund,,Exchanged,2011-08-08,,1001,15000
27,Fidelity Select Leisure,,Exchanged,2011-08-08,,1001,15000
28,Fidelity Select Materials Portfolio,,Exchanged,2011-08-08,,1001,15000
31,Fidelity Select Medical Delivery,,Exchanged,2011-08-08,,1001,15000
34,Fidelity Small Cap Discovery Fund,,Exchanged,2011-08-08,,1001,15000
40,Vanguard Total Stock Market Index,,Exchanged,2011-08-08,,1001,15000
11,Fidelity Cash Reserves,,Purchased,2011-08-09,,1001,15000
30,Fidelity Select Materials Portfolio,,Exchanged,2011-08-22,,1001,15000
35,Fidelity Small Cap Discovery Fund,,Exchanged,2011-08-22,,1001,15000
21,Fidelity Muncipal Money Market,,Purchased,2011-11-02,,1001,15000
39,Vanguard Total Stock Market Index,,Exchanged,2011-12-07,,15001,50000
5,Fidelity Cash Reserves,,Purchased,2011-12-08,,1001,15000
6,Fidelity Cash Reserves,,Purchased,2011-12-09,,1001,15000
7,Fidelity Cash Reserves,,Purchased,2011-12-09,,1001,15000
12,Fidelity Cash Reserves,,Purchased,2011-12-23,,1001,15000
13,Fidelity Cash Reserves,,Exchanged,2011-12-23,,1001,15000
2,Fidelity Cash Reserves Fund,,Exchanged,2012-01-18,,1001,15000
1,Fidelity Cash Reserves Fund,,Exchanged,2012-01-31,,1001,15000
0,Fidelity Cash Reserves Fund,,Exchanged,2012-02-13,,1001,15000
6,Fidelity Municipal Money Market,,Exchanged,2012-03-30,,15001,50000
5,Fidelity Municipal Money Market,,Exchanged,2012-05-30,,1001,15000
4,Fidelity Municipal Money Market,,Exchanged,2012-08-06,,1001,15000
3,Fidelity Cash Reserves Fund,,Exchanged,2012-12-14,,1001,15000
