,orgname,ultorg,action,date1,transnotes,minvalue,maxvalue
6,Exxon Mobil,,Sold,2008-02-29,,15001,50000
2,Altria Group,,Purchased,2008-03-14,,1001,15000
18,Northrop Grumman,,Purchased,2008-03-14,,1001,15000
21,Philip Morris International,,Purchased,2008-03-14,,1001,15000
16,Knox County TN Hlth-Bonds,,Sold,2008-03-20,,15001,50000
3,Bank of Baroda-NY/CD,,Sold,2008-03-28,,15001,50000
4,Boeing Co,,Purchased,2008-05-14,,1001,15000
7,Fairholme Funds,,Purchased,2008-05-14,,1001,15000
9,First Horizon National,,Purchased,2008-05-14,,1001,15000
11,Host Hotels & Resorts,,Purchased,2008-05-14,,1001,15000
14,International Paper,,Purchased,2008-05-14,,1001,15000
10,First Horizon National,,Purchased,2008-07-11,,1001,15000
12,Host Hotels & Resorts,,Purchased,2008-07-11,,1001,15000
15,JM Smucker Co,,Purchased,2008-07-11,,1001,15000
20,Permian Basin Royalty Trust,,Purchased,2008-07-11,,1001,15000
22,Walgreen Co,,Purchased,2008-07-11,,1001,15000
8,First Horizon National,,Sold,2008-09-22,,1001,15000
0,Alcoa Inc,,Purchased,2008-10-13,,1001,15000
5,Boeing Co,,Purchased,2008-10-13,,1001,15000
1,Alcoa Inc,,Purchased,2008-11-21,,1001,15000
13,Host Hotels & Resorts,,Purchased,2008-11-21,,1001,15000
17,Manitowoc Co,,Purchased,2008-11-21,,1001,15000
19,Oshkosh Corp,,Purchased,2008-11-21,,1001,15000
3,Hilliard Lyons Good Govt Fund,,Purchased,2009-04-10,,15001,50000
0,Alcoa Inc,,Sold,2009-08-10,,1001,15000
1,Coca-Cola Co,,Sold,2009-08-10,,15001,50000
4,Home Depot,,Sold,2009-08-10,,1001,15000
7,JM Smucker Co,,Sold,2009-08-10,,1001,15000
11,Southern Co,,Sold,2009-08-10,,1001,15000
2,Fairholme Funds,,Sold,2009-08-11,,1001,15000
5,Host Marriott Corp,,Sold,2009-08-11,,1001,15000
6,International Paper,,Sold,2009-08-11,,1001,15000
8,Manitowoc Co,,Sold,2009-08-11,,1001,15000
9,Nuveen Multst Tr III Mutual Fund,,Sold,2009-08-11,,15001,50000
10,Oshkosh Corp,,Sold,2009-08-11,,1001,15000
12,Toronto Dominion Bank,,Sold,2009-09-17,,1001,15000
0,Boeing Co,,Sold,2011-07-27,,1001,15000
0,Gap Inc,,Sold,2012-04-30,,1001,15000
0,Citigroup Cap VIII Trust,,Sold,2013-04-16,,15001,50000
1,Northrop Grumman,,Sold,2013-04-24,,1001,15000
2,Walgreen Co,,Sold,2013-12-27,,15001,50000
0,Altria Group,,Sold,2014-02-07,,1001,15000
3,Host Hotels,,Sold,2014-02-07,,1001,15000
5,Phillip Morris,,Sold,2014-02-07,,1001,15000
1,BB&T Corp,,Sold,2014-02-14,,50001,100000
2,Hilliard Lyons-MM,,Sold,2014-02-14,,15001,50000
4,Huntington Ingalls,,Sold,2014-02-14,,1466,1466
6,Provectus Biopharm,,Purchased,2014-12-31,,1095,1095
0,Permian Basin Rty Trust,,Sold,,,1001,15000
1,State of Tennessee Pension Fund,,Sold,,,1001,15000
