,orgname,ultorg,action,date1,transnotes,minvalue,maxvalue
6,Oppenheimer Discovery Mid Cap Growth Fund,,Exchanged,2017-01-01,,1001.0,15000.0
7,Oppenheimer Discovery Mid Cap Growth Fund,,Exchanged,2017-01-01,,1001.0,15000.0
13,SMART Capital Preservation Fund,,Exchanged,2017-01-01,,1001.0,15000.0
14,SMART Capital Preservation Fund,,Exchanged,2017-01-01,,1001.0,15000.0
11,Putnam Equity Income Fund,,Exchanged,2017-05-12,,1001.0,15000.0
12,Putnam Equity Income Fund,,Exchanged,2017-05-12,,1001.0,15000.0
0,Agressive Track 40% Equity Portfolio,,Exchanged,2017-07-14,,15001.0,50000.0
1,Agressive Track 40% Equity Portfolio,,Exchanged,2017-07-14,,15001.0,50000.0
2,Agressive Track 50% Equity Portfolio,,Exchanged,2017-07-14,,15001.0,50000.0
3,Agressive Track 50% Equity Portfolio,,Exchanged,2017-07-14,,15001.0,50000.0
8,Optum Health Savings Account,,Sold,2017-12-29,,,
9,Optum Health Savings Account,,Purchased,2017-12-29,,1001.0,15000.0
10,Optum Health Savings Account,,Purchased,2017-12-29,,1001.0,15000.0
12,Balanced Index Allocation - Vanguard Group Inc and,,Purchased,2018-01-10,,15001.0,50000.0
13,Balanced Index Allocation - Vanguard Group Inc and,,Purchased,2018-01-10,,15001.0,50000.0
14,Balanced Index Allocation - Vanguard Group Inc and,,Sold,2018-01-10,,,
15,GIC Stable Value- Galliard Capital Management Inc,,Sold,2018-01-10,,250001.0,500000.0
16,GIC Stable Value- Galliard Capital Management Inc,,Sold,2018-01-10,,250001.0,500000.0
20,MSCI EAFE Index Fund - Blackrock,,Sold,2018-01-10,,,
21,MSCI EAFE Index Fund - Blackrock,,Purchased,2018-01-10,,50001.0,100000.0
22,MSCI EAFE Index Fund - Blackrock,,Purchased,2018-01-10,,50001.0,100000.0
17,Mid-Cap Index - Blackrock Institutional Trust Comp,,Purchased,2018-01-10,,15001.0,50000.0
18,Mid-Cap Index - Blackrock Institutional Trust Comp,,Sold,2018-01-10,,,
19,Mid-Cap Index - Blackrock Institutional Trust Comp,,Purchased,2018-01-10,,15001.0,50000.0
32,S&P 500 Index - Vanguard,,Purchased,2018-01-10,,100001.0,250000.0
33,S&P 500 Index - Vanguard,,Sold,2018-01-10,,,
34,SP 500 Index - Vanguard,,Purchased,2018-01-10,,100001.0,250000.0
38,Target Retirement 2040 - Vanguard Goup Inc,,Purchased,2018-01-10,,15001.0,50000.0
39,Target Retirement 2040 - Vanguard Goup Inc,,Sold,2018-01-10,,,
40,Target Retirement 2040 - Vanguard Goup Inc,,Purchased,2018-01-10,,15001.0,50000.0
41,Total US Aggregate Bond Market - Blackrock Institu,,Purchased,2018-01-10,,1001.0,15000.0
42,Total US Aggregate Bond Market - Blackrock Institu,,Sold,2018-01-10,,,
43,Total US Aggregate Bond Market - Blackrock Institu,,Purchased,2018-01-10,,1001.0,15000.0
44,US Value Index - Vanguard Group Inc,,Sold,2018-01-10,,1001.0,15000.0
45,US Value Index - Vanguard Group Inc,,Exchanged,2018-01-10,,,
46,US Value Index - Vanguard Group Inc,,Sold,2018-01-10,,1001.0,15000.0
23,Optum Health Savings Account,,Sold,2018-08-21,,1001.0,15000.0
25,Optum Health Savings Account,,Sold,2018-08-21,,1001.0,15000.0
28,Optum Health Savings Account,,Exchanged,2018-08-21,,,
0,Agressive Track 30% Equity Portfolio,,Sold,2018-09-05,,,
1,Agressive Track 30% Equity Portfolio,,Purchased,2018-09-05,,15001.0,50000.0
2,Agressive Track 30% Equity Portfolio,,Purchased,2018-09-05,,15001.0,50000.0
4,Agressive Track 40% Equity Portfolio,,Sold,2018-09-05,,15001.0,50000.0
6,Agressive Track 40% Equity Portfolio,,Sold,2018-09-05,,15001.0,50000.0
8,Agressive Track 40% Equity Portfolio,,Exchanged,2018-09-05,,,
29,Prin LifeTime Hybrid 2030 CIT,,Exchanged,2018-11-06,,,
30,Prin LifeTime Hybrid 2030 CIT,,Sold,2018-11-06,,50001.0,100000.0
31,Prin LifeTime Hybrid 2030 CIT,,Sold,2018-11-06,,50001.0,100000.0
35,State Street Target Retire 2030 NL Class A,,Purchased,2018-11-06,,50001.0,100000.0
36,State Street Target Retire 2030 NL Class A,,Sold,2018-11-06,,,
37,State Street Target Retire 2030 NL Class A,,Purchased,2018-11-06,,50001.0,100000.0
3,Agressive Track 40% Equity Portfolio,,Purchased,2018-12-06,,15001.0,50000.0
5,Agressive Track 40% Equity Portfolio,,Purchased,2018-12-06,,15001.0,50000.0
7,Agressive Track 40% Equity Portfolio,,Sold,2018-12-06,,,
9,Agressive Track 50% Equity Portfolio,,Exchanged,2018-12-06,,,
10,Agressive Track 50% Equity Portfolio,,Sold,2018-12-06,,15001.0,50000.0
11,Agressive Track 50% Equity Portfolio,,Sold,2018-12-06,,15001.0,50000.0
24,Optum Health Savings Account,,Purchased,2018-12-28,,1001.0,15000.0
26,Optum Health Savings Account,,Purchased,2018-12-28,,1001.0,15000.0
27,Optum Health Savings Account,,Sold,2018-12-28,,,
4,Federal Thrift Savings Plan,,Purchased,,,1001.0,15000.0
5,Federal Thrift Savings Plan,,Purchased,,,1001.0,15000.0
