,orgname,ultorg,action,date1,transnotes,minvalue,maxvalue
1,America Fund Tax Exempt Bond,,Purchased,2007-12-17,,15001,50000
3,Loomis Sayles Investment Grade Bond Fund,,Purchased,2008-02-04,,15001,50000
0,Davis New York Venture Fund,,Purchased,2008-07-01,,1001,15000
1,Hartford Capital Appreciation Fund,,Purchased,2008-07-01,,1001,15000
2,Loomis Sayles Investment Grade Bond Fund,,Purchased,2008-07-01,,1001,15000
0,Calamos Convertible Fund,,Purchased,2009-02-06,,50001,100000
1,Franklin Balanced Fund,,Sold,2009-02-06,,50001,100000
2,Loomis Sayles Bond Fund,,Purchased,2009-02-06,,1001,15000
4,Virginia St Pub Sch Auth SPL Ob Prince Willia,,Purchased,2009-03-17,,50001,100000
3,PIMCO Total Return Fund,,Purchased,2009-10-19,,50001,100000
10,Virginia CMWLTH Univ HLTH SYS AUTH REV G,,Purchased,2012-01-03,,50001,100000
11,Virginia CMWLTH Univ HLTH SYS AUTH REV G,,Purchased,2012-01-03,,50001,100000
0,Delaware Value Fund,,Purchased,2012-08-01,,1001,15000
1,Delaware Value Fund,,Purchased,2012-08-01,,50001,100000
2,Hartford Capital Appreciation Fund,,Sold,2012-08-01,,50001,100000
3,Hartford Capital Appreciation Fund,,Sold,2012-08-01,,0,1000
4,Hartford Capital Appreciation Fund,,Sold,2012-08-01,,50001,100000
5,Hartford Capital Appreciation Fund,,Sold,2012-08-01,,0,1000
6,PIMCO Total Return Fund,,Sold,2012-08-01,,50001,100000
7,PIMCO Total Return Fund,,Sold,2012-08-01,,50001,100000
8,Templeton Global Bond Fund,,Purchased,2012-08-01,,50001,100000
9,Templeton Global Bond Fund,,Purchased,2012-08-01,,50001,100000
12,Wells Fargo Adv Emerging Markets Equity,,Purchased,2012-08-01,,50001,100000
13,Wells Fargo Adv Emerging Markets Equity,,Purchased,2012-08-01,,50001,100000
0,Black Rock Large Cap Value Investment,,Purchased,2013-01-31,,50001,100000
1,"Harrisonburg, VA Indl Dev Auth Hosp Revenue Amb",,Purchased,2013-09-23,,15001,50000
2,Bitcoin cash,,Exchanged,2013-12-17,,1001,15000
11,"Suffolk, VA RFDG BV Bond",,Purchased,2014-09-22,,15001,50000
0,Calamos Convertible Fund,,Sold,2014-11-20,,50001,100000
3,Loomis Sayles Investment Grade Bond Fund,,Sold,2014-11-20,,50001,100000
4,Loomis Sayles Strategic Income Fund,,Sold,2014-11-20,,100001,250000
6,Pioneer Global High Yield Y,,Sold,2014-11-20,,50001,100000
1,Columbia Convertible Securities Fund,,Purchased,2014-11-21,,50001,100000
2,Loomis Sayles Investment Grade Bond Fund,,Purchased,2014-11-21,,50001,100000
5,Loomis Sayles Strategic Income Fund,,Purchased,2014-11-21,,100001,250000
7,Prudential Global Real Estate Fund,,Purchased,2014-11-25,,50001,100000
8,Prudential Jennison Natural Resources Fund,,Purchased,2014-11-25,,50001,100000
9,Putnam Equity Spectrum Fund,,Purchased,2014-11-25,,50001,100000
0,America Fund Tax Exempt Bond,,Purchased,2020-11-17,,15001,50000
2,RGC Resources,,Purchased,,,15001,50000
10,RGC Resources,,Purchased,,,1001,15000
0,RGC Resources,,Purchased,,Quarterly,0,1000
3,RGC Resources stock,,Purchased,,,1001,15000
1,Upper Occoquan Senior Authority Bond,,Purchased,,,1001,15000
