,orgname,ultorg,action,date1,transnotes,minvalue,maxvalue
10,Fidelity Contrafund Fund,,Purchased,2018-02-09,,1001.0,15000.0
12,Fidelity Contrafund Fund,,Purchased,2018-02-09,,1001.0,15000.0
14,Fidelity Contrafund Fund,,Sold,2018-02-09,,,
3,American Funds Europacific Growth Fund,,Purchased,2018-06-13,,15001.0,50000.0
4,American Funds Europacific Growth Fund,,Purchased,2018-06-13,,15001.0,50000.0
5,American Funds Europacific Growth Fund,,Sold,2018-06-13,,,
6,FIDELITY CONTRaFUND COMMINGLED POOL CL2,,Sold,2018-08-17,,,
7,FIDELITY CONTRaFUND COMMINGLED POOL CL2,,Purchased,2018-08-17,,100001.0,250000.0
8,FIDELITY CONTRaFUND COMMINGLED POOL CL2,,Purchased,2018-08-17,,100001.0,250000.0
9,Fidelity Contrafund Fund,,Sold,2018-08-17,,100001.0,250000.0
11,Fidelity Contrafund Fund,,Sold,2018-08-17,,100001.0,250000.0
13,Fidelity Contrafund Fund,,Exchanged,2018-08-17,,,
24,VaNGUaRD INSTITUTIONaL 500 INDEX TRUST,,Purchased,2018-08-17,,100001.0,250000.0
25,VaNGUaRD INSTITUTIONaL 500 INDEX TRUST,,Purchased,2018-08-17,,100001.0,250000.0
26,VaNGUaRD INSTITUTIONaL 500 INDEX TRUST,,Sold,2018-08-17,,,
27,Vanguard Institutional Index Instl Pl,,Exchanged,2018-08-17,,,
28,Vanguard Institutional Index Instl Pl,,Sold,2018-08-17,,100001.0,250000.0
29,Vanguard Institutional Index Instl Pl,,Sold,2018-08-17,,100001.0,250000.0
21,The Income Fund of Americe,,Sold,2018-12-18,,,
22,The Income Fund of Americe,,Purchased,2018-12-18,,1001.0,15000.0
23,The Income Fund of Americe,,Purchased,2018-12-18,,1001.0,15000.0
0,American Funds EuroPacific Fund,,Sold,2018-12-20,,,
1,American Funds EuroPacific Fund,,Purchased,2018-12-20,,1001.0,15000.0
2,American Funds EuroPacific Fund,,Purchased,2018-12-20,,1001.0,15000.0
15,Growth Fund of America,,Sold,2018-12-21,,,
16,Growth Fund of America,,Purchased,2018-12-21,,15001.0,50000.0
17,Growth Fund of America,,Purchased,2018-12-21,,15001.0,50000.0
18,SMaLL CaP WORLD FUND - a (SMCWX),,Purchased,2018-12-24,,1001.0,15000.0
19,SMaLL CaP WORLD FUND - a (SMCWX),,Purchased,2018-12-24,,1001.0,15000.0
20,SMaLL CaP WORLD FUND - a (SMCWX),,Sold,2018-12-24,,,
