,orgname,ultorg,action,date1,transnotes,minvalue,maxvalue
0,House (Primary Residence),,Exchanged,2017-10-10,,,
1,House (Primary Residence),,Exchanged,2017-10-10,,,
2,House (Primary Residence),,Sold,2017-10-10,,100001.0,250000.0
3,House (Primary Residence),,Sold,2017-10-10,,100001.0,250000.0
4,House (Primary Residence),,Sold,2017-10-10,,100001.0,250000.0
5,House (Primary Residence),,Sold,2017-10-10,,100001.0,250000.0
