,orgname,ultorg,action,date1,transnotes,minvalue,maxvalue
11,GMAC LLC,,Sold,2008-01-15,,1001.0,15000.0
8,Duke University Capital Facilities Bonds,,Purchased,2008-03-10,,15001.0,50000.0
14,Motorola Inc,,Purchased,2008-03-10,,1001.0,15000.0
21,Wells Fargo,,Purchased,2008-03-10,,1001.0,15000.0
10,Exxon Mobil,,Sold,2008-04-16,,15001.0,50000.0
17,NC Hospital Bonds/Johnston County,,Purchased,2008-05-28,,1001.0,15000.0
15,NC Health Facilities Bonds/Duke Univ,,Sold,2008-06-02,,15001.0,50000.0
0,ABB Ltd,,Purchased,2008-07-14,,1001.0,15000.0
9,Energy Transfer Partners,Energy Transfer Equity,Purchased,2008-07-14,,1001.0,15000.0
13,Marriott International,,Purchased,2008-07-14,,1001.0,15000.0
20,Wachovia Corp,,Purchased,2008-07-14,,1001.0,15000.0
6,Cummins Inc,,Purchased,2008-07-15,,1001.0,15000.0
1,ABB Ltd,,Purchased,2008-09-10,,1001.0,15000.0
7,Cummins Inc,,Purchased,2008-09-16,,1001.0,15000.0
2,Alcoa Inc,,Purchased,2008-10-30,,1001.0,15000.0
4,Caterpillar Inc,,Purchased,2008-11-13,,1001.0,15000.0
18,NC Hospital Bonds/Pitt County,,Sold,2008-12-01,,15001.0,50000.0
16,NC Hospital Bonds/Gaston County,,Sold,2008-12-15,,15001.0,50000.0
3,Apple Inc,,Purchased,2008-12-26,,1001.0,15000.0
5,Citigroup Inc,,Sold,2008-12-26,,,
12,Kimberly-Clark Corp,,Purchased,2008-12-26,,1001.0,15000.0
19,Tuesday Morning,,Sold,2008-12-26,,,
8,Wells Fargo,,Exchanged,2009-01-02,,1001.0,15000.0
9,Wells Fargo,,Exchanged,2009-01-02,,1001.0,15000.0
6,North Carolina Health Care Facs Bonds,,Purchased,2009-01-07,,15001.0,50000.0
0,ABB Ltd,,Purchased,2009-08-24,,1001.0,15000.0
1,Charlotte Storm Water Bonds,,Purchased,2009-08-24,,1001.0,15000.0
2,Coming,,Purchased,2009-08-24,,1001.0,15000.0
4,Energy Transfer Partners,Energy Transfer Equity,Purchased,2009-08-24,,1001.0,15000.0
3,Cummins Inc,,Purchased,2009-08-27,,1001.0,15000.0
5,Enterprise Products Partners,,Exchanged,2009-10-26,,1001.0,15000.0
7,TEPPCO Partners,,Exchanged,2009-10-26,,1001.0,15000.0
3,GMAC LLC,,Sold,2010-01-15,,1001.0,15000.0
1,Black & Decker,,Exchanged,2010-03-15,,1001.0,15000.0
8,Stanley Black & Decker,,Exchanged,2010-03-15,,1001.0,15000.0
5,NC Hospital Bonds Baptist Hospital,,Purchased,2010-06-25,,1001.0,15000.0
2,Exxon Mobil,,Exchanged,2010-06-28,,15001.0,50000.0
6,New York Community Bank,,Purchased,2010-06-28,,1001.0,15000.0
11,Windstream Corp,,Purchased,2010-06-28,,1001.0,15000.0
12,XTO Energy,,Exchanged,2010-06-28,,15001.0,50000.0
7,Plains All-American Pipeline,,Purchased,2010-07-01,,1001.0,15000.0
0,Biovail,,Exchanged,2010-09-28,,1001.0,15000.0
9,Valent Pharmaceuticals,,Exchanged,2010-09-28,,1001.0,15000.0
4,NC Health Care Facilities Bonds,,Purchased,2010-12-10,,1001.0,15000.0
10,Wells Fargo,,Sold,2010-12-10,,,
4,Motorola Inc Stock - devolved into Motor,,Exchanged,2011-01-07,,1001.0,15000.0
5,Motorola Mobility Stock - acquired throu,,Exchanged,2011-01-07,,1001.0,15000.0
6,Motorola Solutions - acquired through de,,Exchanged,2011-01-07,,1001.0,15000.0
12,RDU Airport Authority Bonds,,Sold,2011-05-02,,1001.0,15000.0
7,"Municipal Bonds - Winston-Salem, NC",,Sold,2011-06-01,,1001.0,15000.0
9,NC Community Health System Bonds,,Purchased,2011-08-04,,1001.0,15000.0
11,Procter & Gamble,,Purchased,2011-08-05,,1001.0,15000.0
8,NC Community Health System Bonds,,Sold,2011-10-03,,1001.0,15000.0
13,United Technologies,,Purchased,2011-11-22,,1001.0,15000.0
0,"Cultural Arts Bonds - Charlotte, NC",,Purchased,2011-11-23,,1001.0,15000.0
1,Energy Transfer Partners,Energy Transfer Equity,Purchased,2011-11-25,,1001.0,15000.0
2,Enterprise Products Partners,,Purchased,2011-11-25,,1001.0,15000.0
10,Oracle Corp,,Purchased,2011-11-25,,1001.0,15000.0
3,Marriott Vacations - acquired through di,,Purchased,2011-11-28,,,
2,Corning Inc,,Purchased,2012-03-07,,1001.0,15000.0
5,Lincoln National Corp,,Purchased,2012-03-07,,1001.0,15000.0
8,Qualcomm,,Purchased,2012-03-07,,1001.0,15000.0
12,University of North Carolina/Chapel Hill,University of North Carolina,Purchased,2012-03-07,,1001.0,15000.0
6,Motorola Mobility,,Sold,2012-05-22,,1001.0,15000.0
0,Appalachian State University Bonds,,Purchased,2012-07-26,,1001.0,15000.0
7,Plains All American Pipeline,,Purchased,2012-07-26,,1001.0,15000.0
10,Raleigh NC Muni Bonds,,Purchased,2012-07-26,,1001.0,15000.0
1,Citigroup Inc,,Sold,2012-10-01,,0.0,1000.0
3,Duke University Capital Facilities Bonds,,Purchased,2012-10-01,,1001.0,15000.0
11,Regions Financial,,Sold,2012-10-01,,1001.0,15000.0
13,Wells Fargo,,Sold,2012-10-01,,1001.0,15000.0
9,Qualcomm,,Purchased,2012-10-10,,1001.0,15000.0
4,Exxon Mobil,,Sold,2012-10-11,,15001.0,50000.0
5,NC Health Care Facilities Bonds,,Purchased,2013-06-07,Tax Exempt Bonds,1001.0,15000.0
0,Energy Transfer Partners,Energy Transfer Equity,Purchased,2013-06-10,,1001.0,15000.0
8,Qualcomm Inc,,Purchased,2013-06-10,,1001.0,15000.0
10,Western Union Co,,Purchased,2013-06-10,Purchase (part),1001.0,15000.0
1,Gilead Sciences,,Purchased,2013-07-03,,1001.0,15000.0
2,Honeywell International,,Purchased,2013-07-03,,1001.0,15000.0
3,Magellan Midstream Partners LP,,Purchased,2013-07-03,,1001.0,15000.0
9,VF Corp,,Purchased,2013-07-03,,1001.0,15000.0
6,NC Health Care Facilities Bonds,,Purchased,2013-12-10,Tax Exempt Bonds,1001.0,15000.0
4,Marriot Vacations Worldwide,,Sold,2013-12-11,,1001.0,15000.0
7,Nokia Corp,,Sold,2013-12-11,,1001.0,15000.0
0,Costco Wholesale,,Purchased,2014-06-18,,1001.0,15000.0
7,Prudential Financial,,Purchased,2014-06-18,,1001.0,15000.0
3,Jos A Bank Clothiers,,Sold,2014-06-19,,1001.0,15000.0
1,Gilead Sciences,,Purchased,2014-08-12,,1001.0,15000.0
2,Honeywell International,,Purchased,2014-08-12,,1001.0,15000.0
4,Magellan Midstream Partners,,Purchased,2014-08-12,,1001.0,15000.0
5,Metlife Inc,,Purchased,2014-08-12,,1001.0,15000.0
6,Motorola Solutions,,Sold,2014-08-12,,1001.0,15000.0
9,Staples Inc,,Purchased,2014-08-12,,1001.0,15000.0
10,Valeant Pharmaceuticals International,,Sold,2014-08-12,,1001.0,15000.0
8,SPDR S&P Dividend ETF,,Purchased,2014-10-06,,1001.0,15000.0
32,North Carolina Capital Facilities Bonds - Duke Uni,,Purchased,2017-02-27,,1001.0,15000.0
33,North Carolina Capital Facilities Bonds - Duke Uni,,Purchased,2017-02-27,,1001.0,15000.0
34,North Carolina Capital Facilities Bonds - Duke Uni,,Sold,2017-02-27,,,
53,Western Carolina University Bonds,,Sold,2017-02-27,,,
54,Western Carolina University Bonds,,Purchased,2017-02-27,,1001.0,15000.0
55,Western Carolina University Bonds,,Purchased,2017-02-27,,1001.0,15000.0
20,"High Point, NC Municipal Bonds",,Exchanged,2017-03-01,,,
21,"High Point, NC Municipal Bonds",,Sold,2017-03-01,,1001.0,15000.0
22,"High Point, NC Municipal Bonds",,Sold,2017-03-01,,1001.0,15000.0
50,Uniti Group Inc,,Purchased,2017-05-15,,1001.0,15000.0
51,Uniti Group Inc,,Purchased,2017-05-15,,1001.0,15000.0
52,Uniti Group Inc,,Sold,2017-05-15,,,
3,American Tower Corp,,Purchased,2017-05-23,,1001.0,15000.0
4,American Tower Corp,,Sold,2017-05-23,,,
5,American Tower Corp,,Purchased,2017-05-23,,1001.0,15000.0
14,Devon Energy,,Exchanged,2017-06-22,,,
15,Devon Energy,,Sold,2017-06-22,,1001.0,15000.0
16,Devon Energy,,Sold,2017-06-22,,1001.0,15000.0
10,Brighthouse Financial Inc,,Exchanged,2017-08-10,,1001.0,15000.0
11,Brighthouse Financial Inc,,Exchanged,2017-08-10,,1001.0,15000.0
23,"Mooresville, NC Municipal Bonds",,Sold,2017-09-01,,1001.0,15000.0
24,"Mooresville, NC Municipal Bonds",,Sold,2017-09-01,,1001.0,15000.0
25,"Mooresville, NC Municipal Bonds",,Exchanged,2017-09-01,,,
41,Staples Inc,,Exchanged,2017-09-13,,,
42,Staples Inc,,Sold,2017-09-13,,1001.0,15000.0
43,Staples Inc,,Sold,2017-09-13,,1001.0,15000.0
29,NC Community Health System Bonds,,Exchanged,2017-10-02,,,
30,NC Community Health System Bonds,,Sold,2017-10-02,,1001.0,15000.0
31,NC Community Health System Bonds,,Sold,2017-10-02,,1001.0,15000.0
26,Municipal Bonds - Winston-Salem Water & Sewer,,Purchased,2017-10-13,,1001.0,15000.0
27,Municipal Bonds - Winston-Salem Water & Sewer,,Sold,2017-10-13,,,
28,Municipal Bonds - Winston-Salem Water & Sewer,,Purchased,2017-10-13,,1001.0,15000.0
17,East Carolina University Revenue Bonds,,Purchased,2017-10-20,,1001.0,15000.0
18,East Carolina University Revenue Bonds,,Purchased,2017-10-20,,1001.0,15000.0
19,East Carolina University Revenue Bonds,,Sold,2017-10-20,,,
0,Alcoa Corp,,Exchanged,2017-11-24,,,
1,Alcoa Corp,,Sold,2017-11-24,,1001.0,15000.0
2,Alcoa Corp,,Sold,2017-11-24,,1001.0,15000.0
6,Arconic Inc Fund,,Exchanged,2017-11-24,,,
7,Arconic Inc Fund,,Sold,2017-11-24,,1001.0,15000.0
8,Arconic Inc Fund,,Sold,2017-11-24,,1001.0,15000.0
9,Brighthouse Financial Inc,,Sold,2017-11-24,,1001.0,15000.0
12,Brighthouse Financial Inc,,Sold,2017-11-24,,1001.0,15000.0
13,Brighthouse Financial Inc,,Exchanged,2017-11-24,,,
35,PayPal Inc,,Sold,2017-11-24,,,
36,PayPal Inc,,Purchased,2017-11-24,,1001.0,15000.0
37,PayPal Inc,,Purchased,2017-11-24,,1001.0,15000.0
38,Salesforce.com,,Purchased,2017-11-24,,1001.0,15000.0
39,Salesforce.com,,Purchased,2017-11-24,,1001.0,15000.0
40,Salesforce.com,,Sold,2017-11-24,,,
44,Texas Instruments,,Purchased,2017-11-24,,1001.0,15000.0
45,Texas Instruments,,Sold,2017-11-24,,,
46,Texas Instruments,,Purchased,2017-11-24,,1001.0,15000.0
47,Tuesday Morning Corp,,Exchanged,2017-11-24,,,
48,Tuesday Morning Corp,,Sold,2017-11-24,,1001.0,15000.0
49,Tuesday Morning Corp,,Sold,2017-11-24,,1001.0,15000.0
3,Apple Inc,,Purchased,2018-01-23,,1001.0,15000.0
4,Apple Inc,,Purchased,2018-01-23,,1001.0,15000.0
5,Apple Inc,,Sold,2018-01-23,,,
12,General Electric,,Sold,2018-01-23,,15001.0,50000.0
13,General Electric,,Sold,2018-01-23,,15001.0,50000.0
14,General Electric,,Exchanged,2018-01-23,,,
36,PayPal Inc,,Purchased,2018-01-23,,1001.0,15000.0
39,PayPal Inc,,Sold,2018-01-23,,,
40,PayPal Inc,,Purchased,2018-01-23,,1001.0,15000.0
51,Texas Instruments,,Purchased,2018-01-23,,1001.0,15000.0
52,Texas Instruments,,Sold,2018-01-23,,,
53,Texas Instruments,,Purchased,2018-01-23,,1001.0,15000.0
15,Honeywell International,,Purchased,2018-02-05,,1001.0,15000.0
16,Honeywell International,,Purchased,2018-02-05,,1001.0,15000.0
17,Honeywell International,,Sold,2018-02-05,,,
24,NC Hospital Bonds - Johnston County,,Sold,2018-04-02,,1001.0,15000.0
25,NC Hospital Bonds - Johnston County,,Sold,2018-04-02,,1001.0,15000.0
26,NC Hospital Bonds - Johnston County,,Exchanged,2018-04-02,,,
33,North Carolina Hospital Bonds - New Hanover Region,,Purchased,2018-04-09,,1001.0,15000.0
34,North Carolina Hospital Bonds - New Hanover Region,,Sold,2018-04-09,,,
35,North Carolina Hospital Bonds - New Hanover Region,,Purchased,2018-04-09,,1001.0,15000.0
37,PayPal Inc,,Purchased,2018-05-02,,1001.0,15000.0
38,PayPal Inc,,Sold,2018-05-02,,,
41,PayPal Inc,,Purchased,2018-05-02,,1001.0,15000.0
0,3M Co,,Sold,2018-08-23,,,
1,3M Co,,Purchased,2018-08-23,,1001.0,15000.0
2,3M Co,,Purchased,2018-08-23,,1001.0,15000.0
19,NC Healthcare Facilities Bonds,,Exchanged,2018-10-01,,,
20,NC Healthcare Facilities Bonds,,Sold,2018-10-01,,1001.0,15000.0
22,NC Healthcare Facilities Bonds,,Sold,2018-10-01,,1001.0,15000.0
30,North Carolina Health Care Facilities Bonds - Wake,,Purchased,2018-10-09,,1001.0,15000.0
31,North Carolina Health Care Facilities Bonds - Wake,,Sold,2018-10-09,,,
32,North Carolina Health Care Facilities Bonds - Wake,,Purchased,2018-10-09,,1001.0,15000.0
42,Prudential Financial,,Purchased,2018-10-11,,1001.0,15000.0
43,Prudential Financial,,Sold,2018-10-11,,,
44,Prudential Financial,,Purchased,2018-10-11,,1001.0,15000.0
45,Resideo Technologies Inc,,Purchased,2018-11-08,,1001.0,15000.0
46,Resideo Technologies Inc,,Sold,2018-11-08,,,
47,Resideo Technologies Inc,,Purchased,2018-11-08,,1001.0,15000.0
48,Salesforce.com,,Purchased,2018-11-20,,1001.0,15000.0
49,Salesforce.com,,Sold,2018-11-20,,,
50,Salesforce.com,,Purchased,2018-11-20,,1001.0,15000.0
18,NC Healthcare Facilities Bonds,,Exchanged,2018-12-03,,,
21,NC Healthcare Facilities Bonds,,Sold,2018-12-03,,15001.0,50000.0
23,NC Healthcare Facilities Bonds,,Sold,2018-12-03,,15001.0,50000.0
27,North Carolina Health Care Facilities Bonds - Nova,,Sold,2018-12-13,,,
28,North Carolina Health Care Facilities Bonds - Nova,,Purchased,2018-12-13,,15001.0,50000.0
29,North Carolina Health Care Facilities Bonds - Nova,,Purchased,2018-12-13,,15001.0,50000.0
6,Caterpillar Inc,,Sold,2018-12-21,,,
7,Caterpillar Inc,,Purchased,2018-12-21,,1001.0,15000.0
8,Caterpillar Inc,,Purchased,2018-12-21,,1001.0,15000.0
9,Fifth Third Bancorp,,Exchanged,2018-12-27,,,
10,Fifth Third Bancorp,,Sold,2018-12-27,,1001.0,15000.0
11,Fifth Third Bancorp,,Sold,2018-12-27,,1001.0,15000.0
