,orgname,ultorg,action,date1,transnotes,minvalue,maxvalue
11,IVA Worldwide Fund,,Purchased,2001-09-22,,15001,50000
49,Hillenbrand Industries,,Sold,2008-01-06,,1001,15000
100,Sheid Vineyards Inc,,Purchased,2008-01-06,,15001,50000
4,American Eagle Outfitters,,Purchased,2008-01-29,,1001,15000
30,BNSF Railway,,Purchased,2008-01-29,,1001,15000
35,Citigroup Inc,,Purchased,2008-01-29,,1001,15000
76,Metropolitan Life Insurance,Metlife Inc,Sold,2008-01-29,,1001,15000
110,Toyota Motor Corp,,Sold,2008-01-29,,15001,50000
1,Altria Group,,Sold,2008-03-19,,1001,15000
5,Apache Corp,,Purchased,2008-03-19,,1001,15000
27,Blackrock Global Allocation Fund,,Purchased,2008-03-19,,15001,50000
33,Caterpillar Inc,,Purchased,2008-03-19,,1001,15000
34,Chevron Corp,,Sold,2008-03-19,,50001,100000
37,Constellation Brands,,Purchased,2008-03-19,,1001,15000
40,Coventry Health Care,,Purchased,2008-03-19,,1001,15000
71,Julius Baer International Equity Fund,,Sold,2008-03-19,,50001,100000
77,Microsoft Corp,,Sold,2008-03-19,,1001,15000
83,Morgan Stanley Mid Cap Growth Fund,,Sold,2008-03-19,,15001,50000
85,Novartis AG,,Sold,2008-03-19,,1001,15000
92,PIMCO Total Return Fund,,Sold,2008-03-19,,1001,15000
95,Procter & Gamble,,Sold,2008-03-19,,1001,15000
111,Toyota Motor Corp,,Sold,2008-03-19,,15001,50000
114,Unit Corp,,Purchased,2008-03-19,,1001,15000
116,United Technologies,,Sold,2008-03-19,,1001,15000
119,Vanguard Bond Index,,Sold,2008-03-19,,15001,50000
126,Vanguard Index Growth Viper,,Purchased,2008-03-19,,15001,50000
135,WisdomTree Intl Small Cap Dividend Fund,,Purchased,2008-03-19,,50001,100000
54,iShares MSCI EAFE Value Index,,Purchased,2008-03-19,,15001,50000
57,iShares Russell 2000 Index,,Purchased,2008-03-19,,1001,15000
60,iShares Russell Mid Cap Index,,Purchased,2008-03-19,,15001,50000
36,Citigroup Inc,,Sold,2008-03-20,,1001,15000
47,Hartford Financial Services,,Purchased,2008-03-25,,1001,15000
78,Microsoft Corp,,Sold,2008-03-25,,1001,15000
128,Vanguard Sector Index Financial Vipers,,Purchased,2008-03-25,,1001,15000
0,Altria Group,,Sold,2008-05-22,,1001,15000
90,Philip Morris International,,Purchased,2008-05-22,,1001,15000
2,Amdocs Ltd,,Purchased,2008-05-23,,1001,15000
112,Toyota Motor Corp,,Sold,2008-05-23,,1001,15000
14,AT&T Inc,,Purchased,2008-07-24,,1001,15000
10,Applied Industrial Technologies,,Purchased,2008-07-24,,1001,15000
19,Autodesk Inc,,Purchased,2008-07-24,,1001,15000
20,Bank of America,,Purchased,2008-07-24,,1001,15000
25,Best Buy,,Purchased,2008-07-24,,1001,15000
44,Harbor International Fund,,Sold,2008-07-24,,50001,100000
69,Johnson & Johnson,,Sold,2008-07-24,,1001,15000
75,Metropolitan Life Insurance,Metlife Inc,Sold,2008-07-24,,1001,15000
79,Microsoft Corp,,Sold,2008-07-24,,1001,15000
93,PNC Financial Services,,Sold,2008-07-24,,1001,15000
105,Spartan International Index,,Purchased,2008-07-24,,15001,50000
107,T Rowe Price Group,T Rowe Price Assoc,Purchased,2008-07-24,,1001,15000
120,Vanguard Bond Index,,Sold,2008-07-24,,15001,50000
121,Vanguard Emerging Markets Vipers,,Purchased,2008-07-24,,50001,100000
131,Walt Disney Co,,Sold,2008-07-24,,1001,15000
133,Western Union,,Sold,2008-07-24,,1001,15000
58,iShares Russell 2000 Index,,Sold,2008-07-24,,1001,15000
17,Autodesk Inc,,Purchased,2008-09-08,,1001,15000
22,Bank of America,,Purchased,2008-09-08,,1001,15000
51,Huntington Bancshares,,Sold,2008-09-08,,15001,50000
118,Vanguard Bond Index,,Purchased,2008-09-08,,15001,50000
122,Vanguard Emerging Markets Vipers,,Purchased,2008-09-08,,50001,100000
127,Vanguard Index Growth Viper,,Purchased,2008-09-08,,15001,50000
136,WisdomTree Intl Small Cap Dividend Fund,,Purchased,2008-09-08,,50001,100000
138,Wyeth,,Sold,2008-09-08,,250001,500000
55,iShares MSCI EAFE Value Index,,Purchased,2008-09-08,,15001,50000
59,iShares Russell 2000 Index,,Purchased,2008-09-08,,1001,15000
59,Monsanto Co,,Sold,2008-09-09,,1001,15000
108,T Rowe Price Group,T Rowe Price Assoc,Sold,2008-09-17,,1001,15000
15,AT&T Inc,,Purchased,2008-09-25,,1001,15000
6,Apache Corp,,Purchased,2008-09-25,,1001,15000
18,Autodesk Inc,,Sold,2008-09-25,,1001,15000
31,BNSF Railway,,Sold,2008-09-25,,1001,15000
21,Bank of America,,Sold,2008-09-25,,1001,15000
24,Best Buy,,Purchased,2008-09-25,,1001,15000
29,Blackrock Global Allocation Fund,,Sold,2008-09-25,,1001,15000
45,Hartford Financial Services,,Purchased,2008-09-25,,1001,15000
52,Hussman Strategic Total Return,,Purchased,2008-09-25,,15001,50000
67,Ivy Asset Strategy Fund ,,Purchased,2008-09-25,,15001,50000
73,Leuthold Asset Allocation Fund,,Purchased,2008-09-25,,15001,50000
96,Procter & Gamble,,Sold,2008-09-25,,1001,15000
101,Spartan International Index,,Purchased,2008-09-25,,1001,15000
104,Spartan International Index,,Purchased,2008-09-25,,1001,15000
117,Vanguard Bond Index,,Sold,2008-09-25,,15001,50000
129,Vanguard Sector Index Financial Vipers,,Purchased,2008-09-25,,1001,15000
132,Walt Disney Co,,Purchased,2008-09-25,,1001,15000
61,iShares Russell Mid Cap Index,,Sold,2008-09-25,,1001,15000
46,Hartford Financial Services,,Sold,2008-09-30,,1001,15000
123,Vanguard Emerging Markets Vipers,,Sold,2008-10-23,,15001,50000
137,WisdomTree Intl Small Cap Dividend Fund,,Sold,2008-10-23,,15001,50000
8,Apple Inc,,Purchased,2008-10-28,,1001,15000
11,Archer Daniels Midland,,Purchased,2008-10-28,,1001,15000
41,CVS/Caremark Corp,,Purchased,2008-10-28,,1001,15000
42,Gateway Fund,,Purchased,2008-10-28,,15001,50000
70,Johnson & Johnson,,Purchased,2008-10-28,,1001,15000
80,Monsanto Co,,Purchased,2008-10-28,,1001,15000
86,Nucor Corp,,Purchased,2008-10-28,,1001,15000
62,iShares Russell Value Index,,Purchased,2008-10-28,,1001,15000
9,Applied Industrial Technologies,,Sold,2008-11-11,,1001,15000
13,Astrazeneca Plc,,Purchased,2008-11-11,,1001,15000
23,BB&T Corp,,Purchased,2008-11-11,,1001,15000
39,Corning Inc,,Sold,2008-11-11,,1001,15000
81,Monsanto Co,,Purchased,2008-11-11,,1001,15000
88,Peabody Energy,,Purchased,2008-11-11,,1001,15000
99,Sector Spdr SBI Industrial Fund,,Sold,2008-11-11,,1001,15000
103,Spartan International Index,,Purchased,2008-11-11,,1001,15000
125,Vanguard Index Growth Viper,,Sold,2008-11-11,,15001,50000
38,Constellation Brands,,Purchased,2008-11-14,,1001,15000
43,Gateway Fund,,Purchased,2008-11-14,,1001,15000
50,Huntington Bancshares,,Sold,2008-11-14,,15001,50000
65,Ivy Asset Strategy Fund ,,Purchased,2008-11-14,,1001,15000
72,Leuthold Asset Allocation Fund,,Purchased,2008-11-14,,1001,15000
87,Nucor Corp,,Purchased,2008-11-14,,1001,15000
91,PIMCO Total Return Fund,,Purchased,2008-11-14,,15001,50000
94,Procter & Gamble,,Purchased,2008-11-14,,1001,15000
97,S&P 500 Depository Receipts,,Purchased,2008-11-14,,50001,100000
115,United Technologies,,Sold,2008-11-14,,1001,15000
134,Western Union,,Purchased,2008-11-14,,1001,15000
139,Wyeth,,Sold,2008-11-14,,250001,500000
16,AT&T Inc,,Purchased,2008-12-23,,1001,15000
3,Amdocs Ltd,,Purchased,2008-12-23,,1001,15000
7,Apple Inc,,Purchased,2008-12-23,,1001,15000
12,Astrazeneca Plc,,Purchased,2008-12-23,,1001,15000
32,BNSF Railway,,Purchased,2008-12-23,,1001,15000
26,Best Buy,,Purchased,2008-12-23,,1001,15000
28,Blackrock Global Allocation Fund,,Purchased,2008-12-23,,1001,15000
48,Hewlett-Packard,,Purchased,2008-12-23,,1001,15000
53,Hussman Strategic Total Return,,Purchased,2008-12-23,,15001,50000
64,ITT Corp,,Purchased,2008-12-23,,1001,15000
66,Ivy Asset Strategy Fund ,,Purchased,2008-12-23,,1001,15000
68,Johnson & Johnson,,Purchased,2008-12-23,,1001,15000
74,Leuthold Asset Allocation Fund,,Purchased,2008-12-23,,1001,15000
82,Monsanto Co,,Purchased,2008-12-23,,1001,15000
84,Novartis AG,,Purchased,2008-12-23,,1001,15000
89,Peabody Energy,,Purchased,2008-12-23,,1001,15000
98,S&P 500 Depository Receipts,,Purchased,2008-12-23,,50001,100000
102,Spartan International Index,,Purchased,2008-12-23,,15001,50000
106,St Jude Medical,,Purchased,2008-12-23,,1001,15000
109,Texas Instruments,,Sold,2008-12-23,,1001,15000
113,Unit Corp,,Sold,2008-12-23,,1001,15000
124,Vanguard Index Growth Viper,,Purchased,2008-12-23,,1001,15000
130,Vanguard Sector Utilities Fund,,Purchased,2008-12-23,,1001,15000
140,Wyeth,,Sold,2008-12-23,,250001,500000
56,iShares Russell 2000 Index,,Purchased,2008-12-23,,1001,15000
63,iShares Russell Value Index,,Purchased,2008-12-23,,1001,15000
2,Apache Corp,,Purchased,2009-01-30,,1001,15000
3,Archer Daniels Midland,,Purchased,2009-01-30,,1001,15000
8,Autodesk Inc,,Purchased,2009-01-30,,1001,15000
12,BNSF Railway,Berkshire Hathaway,Purchased,2009-01-30,,1001,15000
24,CVS/Caremark Corp,,Purchased,2009-01-30,,15001,50000
16,Caterpillar Inc,,Purchased,2009-01-30,,1001,15000
18,Chevron Corp,,Purchased,2009-01-30,,1001,15000
19,Cisco Systems,,Purchased,2009-01-30,,15001,50000
22,Coventry Healthcare,,Purchased,2009-01-30,,15001,50000
27,Fidelity Spartan International Index,,Purchased,2009-01-30,,1001,15000
47,ITT Corp,,Purchased,2009-01-30,,1001,15000
48,ITT Corp,,Purchased,2009-01-30,,1001,15000
58,Monsanto Co,,Purchased,2009-01-30,,1001,15000
66,PIMCO Total Return Fund,,Sold,2009-01-30,,15001,50000
62,Peabody Energy,,Purchased,2009-01-30,,1001,15000
65,Philip Morris International,,Purchased,2009-01-30,,1001,15000
75,Vanguard Bond Index Fund Total Market,,Purchased,2009-01-30,,1001,15000
81,Vanguard Total Bond Fund,,Purchased,2009-01-30,,1001,15000
84,Walt Disney Co,,Purchased,2009-01-30,,1001,15000
38,iShares Iboxx Investop,,Purchased,2009-01-30,,15001,50000
11,BB&T Bank,,Sold,2009-02-20,,1001,15000
67,PNC Financial Services,,Sold,2009-02-20,,1001,15000
79,Vanguard Sector Utilities Fund,,Purchased,2009-02-20,,15001,50000
7,AT&T Inc,,Sold,2009-03-11,,1001,15000
25,Direxion Commodity Trends Strtgy Inv,,Purchased,2009-03-11,,15001,50000
28,First Trust AMEX Biotechnology,,Purchased,2009-03-11,,1001,15000
50,Jacob Engineering Group,,Purchased,2009-03-11,,1001,15000
61,Novartis AG,,Sold,2009-03-11,,1001,15000
73,United Technologies,,Sold,2009-03-11,,1001,15000
6,Astrazeneca LLC,,Sold,2009-03-26,,1001,15000
21,Constellation Brands,,Sold,2009-03-26,,1001,15000
76,Vanguard Index Growth Viper,,Purchased,2009-03-26,,1001,15000
44,iShares MSCI Emerging Markets Index,,Purchased,2009-03-26,,15001,50000
10,Bank of America,,Sold,2009-04-28,,1001,15000
77,Vanguard Index Growth Viper,,Purchased,2009-05-04,,1001,15000
15,Caterpillar Inc,,Sold,2009-06-05,,1001,15000
29,Gateway Fund,,Sold,2009-06-05,,15001,50000
30,General Electric,,Purchased,2009-06-05,,1001,15000
31,Hewlett-Packard,,Purchased,2009-06-05,,1001,15000
35,Hussman Strategic Total Return,,Sold,2009-06-05,,15001,50000
37,IBM Corp,,Purchased,2009-06-05,,15001,50000
51,Jacob Engineering Group,,Purchased,2009-06-05,,1001,15000
63,PepsiCo Inc,,Purchased,2009-06-05,,1001,15000
64,Pfizer Inc,,Purchased,2009-06-05,,15001,50000
71,Spartan International Index,,Sold,2009-06-05,,50001,100000
74,Vanguard Bond Index Fund Total Market,,Sold,2009-06-05,,15001,50000
83,Verizon Communications,,Purchased,2009-06-05,,1001,15000
86,Xerox Corp,,Purchased,2009-06-05,,15001,50000
39,iShares MSCI EAFE Index,,Purchased,2009-06-05,,15001,50000
41,iShares MSCI EAFE Value Index,,Sold,2009-06-05,,15001,50000
43,iShares MSCI Emerging Markets Index,,Purchased,2009-06-05,,15001,50000
46,iShares Russell MSCI EAFE Value Index,,Sold,2009-06-05,,15001,50000
0,American Eagle Outfitters,,Sold,2009-07-13,,1001,15000
4,Archer Daniels Midland,,Sold,2009-07-13,,1001,15000
9,Autodesk Inc,,Sold,2009-07-13,,15001,50000
53,JPMorgan Chase & Co,,Purchased,2009-07-13,,15001,50000
56,McDonald's Corp,,Purchased,2009-07-13,,15001,50000
78,Vanguard Index Growth Viper,,Sold,2009-07-13,,15001,50000
85,Xerox Corp,,Sold,2009-07-13,,15001,50000
33,Hewlett-Packard,,Sold,2009-08-05,,15001,50000
34,Huntington Bankshares,,Sold,2009-08-12,,15001,50000
54,JPMorgan Chase & Co,,Sold,2009-08-12,,15001,50000
68,Rydex S&P Equal Weight Financial,,Purchased,2009-08-12,,15001,50000
23,Coventry Healthcare,,Sold,2009-08-21,,1001,15000
57,Microsoft Corp,,Sold,2009-08-21,,1001,15000
80,Vanguard Sector Utilities Fund,,Purchased,2009-08-21,,1001,15000
14,Bristol-Myers Squibb,,Sold,2009-09-29,,15001,50000
55,McDonald's Corp,,Purchased,2009-09-29,,1001,15000
69,Scheid Vineyards Inc,,Sold,2009-09-29,,1001,15000
70,Sector SPDR Trust SHS,,Purchased,2009-09-29,,1001,15000
82,Verizon Communications,,Purchased,2009-09-29,,1001,15000
5,Artisan International Value Fund,,Purchased,2009-10-21,,100001,250000
17,Chevron Corp,,Sold,2009-10-21,,1001,15000
20,Citigroup Inc,,Sold,2009-10-21,,1001,15000
36,IBM Corp,,Sold,2009-10-21,,15001,50000
49,Ivy Asset Strategy Fund ,,Sold,2009-10-21,,15001,50000
40,iShares MSCI EAFE Index,,Sold,2009-10-21,,15001,50000
32,Hewlett-Packard,,Sold,2009-11-19,,1001,15000
52,Jacob Engineering Group,,Sold,2009-11-19,,1001,15000
72,St Jude Medical,,Sold,2009-11-19,,15001,50000
13,BNSF Railway,Berkshire Hathaway,Sold,2009-11-23,,15001,50000
26,Direxion Commodity Trends Strtgy Inv,,Sold,2009-12-11,,15001,50000
60,Morgan Stanley Mid Cap Growth Fund,,Purchased,2009-12-11,,15001,50000
42,iShares MSCI Emerging Markets Index,,Sold,2009-12-11,,50001,100000
45,iShares Russell 2000 Index,,Sold,2009-12-11,,15001,50000
1,American Europacific Growth Fund,,Purchased,2009-12-14,,50001,100000
6,General Electric,,Purchased,2010-02-03,,1001,15000
14,PIMCO RealReturn Fund,,Sold,2010-02-03,,1001,15000
17,Vanguard Sector Utilities Fund,,Purchased,2010-02-03,,15001,50000
18,Walt Disney Co,,Sold,2010-02-03,,15001,50000
9,iShares Iboxx Investop Investment Grade,,Sold,2010-02-03,,15001,50000
20,Western Digital,,Purchased,2010-03-08,,15001,50000
0,Apple Inc,,Sold,2010-04-19,,1001,15000
10,IVA Worldwide Fund,,Purchased,2010-05-11,,15001,50000
13,PIMCO RealReturn Fund,,Sold,2010-05-11,,50001,100000
15,Sector SPDR Industrial,,Sold,2010-05-11,,1001,15000
19,Wasatch 1st Source Long/Short Fund,,Purchased,2010-05-11,,50001,100000
8,Hewlett-Packard,,Purchased,2010-07-21,,15001,50000
2,Blackrock Global Allocation Fund,,Sold,2010-09-22,,15001,50000
3,Chevron Corp,,Sold,2010-09-22,,1001,15000
4,Exxon Mobil,,Sold,2010-09-22,,1001,15000
5,Fidelity New Markets Income Fund,,Purchased,2010-09-22,,1001,15000
7,Hewlett-Packard,,Sold,2010-09-22,,15001,50000
16,Vanguard Sector Index Financial Vipers,,Sold,2010-09-22,,15001,50000
21,Western Digital,,Sold,2010-09-22,,15001,50000
12,Leuthold Asset Allocation Fund,,Sold,2010-09-23,,15001,50000
1,Blackrock Global Allocation Fund,,Sold,2010-12-22,,15001,50000
