,orgname,ultorg,action,date1,transnotes,minvalue,maxvalue
0,American Funds American Mutual Fund,,Sold,2009-01-28,,1001,15000
1,American Funds Bond Fund of America,,Sold,2009-01-28,,1001,15000
2,American Funds Growth Fund of America,,Sold,2009-01-28,,1001,15000
3,American Funds Income Fund of America,,Sold,2009-01-28,,1001,15000
0,American United Life Ins Co/Mass Mutual Whole Life,,Purchased,,Life Insurance,1001,15000
0,American United Life Insurance,,Purchased,,,1001,15000
0,American United Life Insurance,,Purchased,,,1001,15000
0,American United Life Insurance Co,,Purchased,,,1001,15000
1,Education Minnesota,,Purchased,,Not Self Directed,15001,50000
0,Education Minnesota,National Education Assn,Purchased,,,15001,50000
1,Education Minnesota,,Purchased,,,1001,15000
4,Education Minnesota not self-directed,,Purchased,,,15001,50000
1,Education Minnesota not self-directed,,Purchased,,,15001,50000
1,Education Minnesota not self-directed,,Purchased,,,15001,50000
5,Northwest Mutual Life/Mass Mutual,,Purchased,,,1001,15000
1,Northwest Mutual Life/Mass Mutual,,Purchased,,,1001,15000
