,orgname,ultorg,action,date1,transnotes,minvalue,maxvalue
2,MA State G/O Bonds,,Sold,2008-08-01,,15001,50000
1,Legg Mason All Cap Fund,,Sold,2009-06-11,,1001,15000
2,Smith Barney Bank Deposit Program,,Purchased,2009-06-11,,1001,15000
0,Federated Capital Reserves Money Market ,,Sold,2010-01-19,,100001,250000
2,Massachusetts Cons Lns,,Sold,2010-02-01,,15001,50000
3,Time Warner Cable,,Exchanged,2010-03-15,,1001,15000
1,Federated Capital Reserves Money Market ,,Sold,2010-12-10,,100001,250000
0,Federated Capital Reserves Money Market ,,Exchanged,2011-06-22,,100001,250000
1,Hewlett-Packard,,Sold,2011-12-28,,1001,15000
2,Nike Inc,,Sold,2011-12-28,,1001,15000
3,Parametric Technology Corp,,Sold,2011-12-28,,1001,15000
4,Time Warner,,Sold,2011-12-28,,1001,15000
5,Time Warner Cable,,Sold,2011-12-28,,1001,15000
6,Walt Disney Co,,Sold,2011-12-28,,1001,15000
0,Schwab One Account,,Exchanged,2012-01-13,,50001,100000
1,Schwab One Account,,Exchanged,2012-05-14,,15001,50000
0,Citibank Bank Deposit Program,,Exchanged,,,15001,50000
0,Federated Capital Reserves Money Market ,,Sold,,,15001,50000
1,Federated Capital Reserves Money Market ,,Purchased,,,15001,50000
3,Western Asset Government Money Market,,Purchased,,,15001,50000
