,orgname,ultorg,action,date1,transnotes,minvalue,maxvalue
0,1620 E Broad St,,Sold,2013-06-28,,15001,50000
1,229-241 S High St,,Sold,2013-12-13,,1000001,5000000
2,4226 Edison Street,,Sold,2013-12-30,,1001,15000
1,493 Parkwood Avenue,,Purchased,2014-01-02,,15001,50000
3,803 Wager Street,,Purchased,2014-01-02,,15001,50000
0,229-243 S High Street,,Sold,2014-02-28,,1000001,5000000
2,5628 Naiche Road,,Purchased,2014-09-30,,250001,500000
