,orgname,ultorg,action,date1,transnotes,minvalue,maxvalue
5,Artio International Equity & Income Fund,,Purchased,2008-01-02,,15001.0,50000.0
8,Citibank IRA,,Sold,2008-01-02,,1001.0,15000.0
1,American Capital World Grwth/Income Fund,,Purchased,2008-01-07,,15001.0,50000.0
27,T Rowe Price Small Cap Stock Fund,,Sold,2008-01-07,,1001.0,15000.0
30,Van Kampen Equity & Income Fund,,Sold,2008-01-07,,1001.0,15000.0
2,American Capital World Grwth/Income Fund,,Sold,2008-03-04,,15001.0,50000.0
9,Dodge & Cox Balanced Fund,,Purchased,2008-03-30,,1001.0,15000.0
10,Dodge & Cox Balanced Fund,,Purchased,2008-06-30,,1001.0,15000.0
11,Dodge & Cox Balanced Fund,,Sold,2008-08-04,,15001.0,50000.0
17,Leuthold Asset Allocation Fund,,Purchased,2008-08-04,,1001.0,15000.0
0,American Capital World Bond Fund,,Purchased,2008-10-21,,1001.0,15000.0
3,Amgen Inc,,Sold,2008-10-21,,1001.0,15000.0
4,Artio International,,Purchased,2008-10-21,,1001.0,15000.0
7,Church & Dwight,,Sold,2008-10-21,,1001.0,15000.0
12,Dodge & Cox Income Fund,,Purchased,2008-10-21,,1001.0,15000.0
13,Fidelity New Insights Fund,,Purchased,2008-10-21,,1001.0,15000.0
14,Financial Network Money Market,,Purchased,2008-10-21,,1001.0,15000.0
16,Hewlett-Packard,,Sold,2008-10-21,,1001.0,15000.0
19,Lowe's Companies,,Sold,2008-10-21,,1001.0,15000.0
20,Medtronic Inc,,Sold,2008-10-21,,1001.0,15000.0
21,Nokia Corp,,Sold,2008-10-21,,1001.0,15000.0
22,Nuveen Preferred Conv,,Sold,2008-10-21,,1001.0,15000.0
23,Pitney Bowes Inc,,Sold,2008-10-21,,1001.0,15000.0
24,Powershares Exchange,,Exchanged,2008-10-21,,1001.0,15000.0
25,Sun Microsystems,,Sold,2008-10-21,,1001.0,15000.0
26,T Rowe Price Capital Appreciation Fund,,Purchased,2008-10-21,,1001.0,15000.0
28,Target Corp,,Sold,2008-10-21,,1001.0,15000.0
29,US Bancorp,,Sold,2008-10-21,,1001.0,15000.0
31,Wilder Hill Clean Energy Portfolio,,Purchased,2008-10-21,,1001.0,15000.0
32,Xerox Corp,,Sold,2008-10-21,,1001.0,15000.0
6,Capital World Growth & Income Fund,,Sold,2008-12-08,,15001.0,50000.0
15,Gateway Fund,,Purchased,2008-12-08,,1001.0,15000.0
18,Leuthold Asset Allocation Fund,,Sold,2008-12-08,,1001.0,15000.0
1,Eaton Vance Tax Managed Growth Fund,,Sold,2009-08-13,,15001.0,50000.0
7,Van Kampen Equity & Income Fund,,Sold,2009-08-13,,15001.0,50000.0
4,Hussman Strategic Growth Fund,,Purchased,2009-08-17,,15001.0,50000.0
0,Artio International Equity Fund II,,Sold,2009-11-23,,15001.0,50000.0
2,Eaton Vance Tax Managed Growth Fund,,Sold,2009-11-23,,15001.0,50000.0
3,Gateway Fund,,Sold,2009-11-23,,15001.0,50000.0
5,Hussman Strategic Growth Fund,,Sold,2009-11-23,,15001.0,50000.0
6,Tax Exempt Fund of California,,Sold,2009-11-23,,1001.0,15000.0
8,Van Kampen Equity & Income Fund,,Sold,2009-11-23,,15001.0,50000.0
0,T Rowe Price Capital Appreciation,,Sold,2011-01-19,,1001.0,15000.0
1,Fidelity New Insights Fund,,Sold,2012-01-12,,1001.0,15000.0
4,T Rowe Price Capital Appreciation Fund,T Rowe Price Assoc,Sold,2012-01-12,,1001.0,15000.0
5,T Rowe Price Capital Appreciation Fund,T Rowe Price Assoc,Sold,2012-07-13,,1001.0,15000.0
2,Fidelity New Insights Fund,,Sold,2012-09-17,,1001.0,15000.0
0,Artio International Equity Fund,,Sold,2012-10-26,,1001.0,15000.0
3,First Eagle Overseas Fund,,Purchased,2012-10-26,,1001.0,15000.0
0,Fidelity Advisor New Insights Fund,,Sold,2013-01-16,,1001.0,15000.0
0,T Rowe Price Cap Appreciation,,Sold,2014-03-06,,1001.0,15000.0
2,FIDELITY ADV NEW INSIGHTS I/Fidelity Advisor New I,,Sold,2016-10-20,,1001.0,15000.0
3,FIDELITY ADV NEW INSIGHTS I/Fidelity Advisor New I,,Exchanged,2016-10-20,,,
4,FIDELITY ADV NEW INSIGHTS I/Fidelity Advisor New I,,Sold,2016-10-20,,1001.0,15000.0
5,POWERSHARES ETF TRUST WILDER HILL CLEAN ENERGY/Pow,,Sold,2016-10-20,,721.0,721.0
6,POWERSHARES ETF TRUST WILDER HILL CLEAN ENERGY/Pow,,Sold,2016-10-20,,721.0,721.0
0,Dodge & Cox Income fund,,Sold,2016-11-30,,1001.0,15000.0
1,Dodge & Cox Income fund,,Sold,2016-11-30,,1001.0,15000.0
7,T ROWE PRICE CAP APPRECIATION/T Rose Price Cap Ap,,Sold,,,1001.0,15000.0
8,T ROWE PRICE CAP APPRECIATION/T Rose Price Cap Ap,,Sold,,,1001.0,15000.0
