,orgname,ultorg,action,date1,transnotes,minvalue,maxvalue
1,401K Growth Fund of America,,Sold,2013-04-09,,1001,15000
2,401K Ivy Asset Strategy,,Sold,2013-04-09,,1001,15000
3,401K JP Morgan Emerging Fund,,Sold,2013-04-09,,1001,15000
4,401K Templeton Global Fund,,Sold,2013-04-09,,1001,15000
5,BlackRock Equity Trust,,Sold,2013-04-09,,1001,15000
10,Franchise High Fund,,Sold,2013-04-09,,1001,15000
11,Fundamental Investors Fund,,Sold,2013-04-09,,1001,15000
12,Hilliard Lyons Money Market,,Sold,2013-04-09,,1001,15000
8,Fed Govt Cash,,Purchased,2013-04-11,,15001,50000
6,BlackRock Equity Trust,,Purchased,2013-11-04,,1001,15000
9,Fidelity Advisor,,Purchased,2013-11-04,,1001,15000
13,Ivy Asset Strategy Fund,,Purchased,2013-11-04,,1001,15000
14,JP Morgan Strategic Income Opportunities Fund,,Purchased,2013-11-04,,1001,15000
15,Lord Abbett Value,,Purchased,2013-11-04,,1001,15000
7,Fed Govt Cash,,Sold,2013-11-05,,15001,50000
17,Prudential Jennison Small Co Fund,,Purchased,2013-11-05,,1001,15000
16,Principal Residence,,Purchased,2013-11-08,,250001,500000
0,1351 Gray Hawk Rd,,Sold,2013-12-20,,100001,250000
0,General Electric,,Sold,2014-02-25,,1001,15000
2,McDonald's Corp,,Sold,2014-02-25,,1001,15000
1,Hilliard Lyons Money Market,,Purchased,,,1001,15000
0,Pfizer Inc,,Sold,,,1001,15000
1,Pfizer Inc,,Sold,,,1001,15000
