,orgname,ultorg,action,date1,transnotes,minvalue,maxvalue
0,Dodge & Cox Stock Fund,,Sold,2008-03-27,,1001.0,15000.0
1,Dodge & Cox Stock Fund,,Sold,2008-08-08,,1001.0,15000.0
4,Mutual Qualified Fund,,Sold,2008-08-08,,1001.0,15000.0
1,Personal Residence,,Purchased,2009-06-19,,100001.0,250000.0
0,Dodge & Cox Stock Fund,,Sold,2011-01-24,,1001.0,15000.0
1,Mutual Quest Fund,,Sold,2011-01-24,,1001.0,15000.0
0,Dodge & Cox Stock Fund,,Sold,2012-07-30,,15001.0,50000.0
1,Dodge & Cox Stock Fund,,Sold,2012-07-30,,15001.0,50000.0
2,Mutual Quest Fund,,Sold,2012-07-30,,1001.0,15000.0
3,Mutual Quest Fund,,Sold,2012-07-30,,1001.0,15000.0
1,Ginnie Mae Securities,Ginnie Mae,Sold,2013-06-17,,15001.0,50000.0
0,Dodge & Cox Stock Fund,,Sold,2013-08-02,,15001.0,50000.0
2,Mutual Quest Fund,,Sold,2013-08-02,,15001.0,50000.0
0,Dodge & Cox Stock Fund,,Sold,2014-07-11,,15001.0,50000.0
1,Mutual Quest Fund,,Sold,2014-07-11,,1001.0,15000.0
23,Washington DED,,Purchased,2018-10-05,,15001.0,50000.0
24,Washington DED,,Purchased,2018-10-05,,15001.0,50000.0
25,Washington DED,,Sold,2018-10-05,,,
3,DFA INVT Dimensions Group IN 1 YR FXD,,Purchased,2018-12-17,,15001.0,50000.0
4,DFA INVT Dimensions Group IN 1 YR FXD,,Sold,2018-12-17,,,
5,DFA INVT Dimensions Group IN 1 YR FXD,,Purchased,2018-12-17,,15001.0,50000.0
6,DFA INVT Dimensions Group IN 1YR FXD,,Purchased,2018-12-17,,15001.0,50000.0
7,DFA INVT Dimensions Group IN 1YR FXD,,Sold,2018-12-17,,,
8,DFA INVT Dimensions Group IN 1YR FXD,,Purchased,2018-12-17,,15001.0,50000.0
0,DFA Invt Dimensions Group IN,,Sold,2018-12-17,,,
1,DFA Invt Dimensions Group IN,,Purchased,2018-12-17,,15001.0,50000.0
2,DFA Invt Dimensions Group IN,,Purchased,2018-12-17,,15001.0,50000.0
12,Federated Investors GV ULTRSH DUR,,Purchased,2018-12-17,,15001.0,50000.0
13,Federated Investors GV ULTRSH DUR,,Purchased,2018-12-17,,15001.0,50000.0
14,Federated Investors GV ULTRSH DUR,,Purchased,2018-12-17,,15001.0,50000.0
15,Federated Investors GV ULTRSH DUR,,Purchased,2018-12-17,,15001.0,50000.0
16,Federated Investors GV ULTRSH DUR,,Sold,2018-12-17,,,
17,Federated Investors GV ULTRSH DUR,,Sold,2018-12-17,,,
18,Federated Investors GV ULTRSH DUR SV,,Sold,2018-12-17,,,
19,Federated Investors GV ULTRSH DUR SV,,Purchased,2018-12-17,,15001.0,50000.0
21,Federated Investors GV ULTRSH DUR SV,,Purchased,2018-12-17,,15001.0,50000.0
9,DFA Invt Dimensions Group IN 1YR FXD Income,,Sold,2018-12-19,,15001.0,50000.0
10,DFA Invt Dimensions Group IN 1YR FXD Income,,Sold,2018-12-19,,15001.0,50000.0
11,DFA Invt Dimensions Group IN 1YR FXD Income,,Exchanged,2018-12-19,,,
20,Federated Investors GV ULTRSH DUR SV,,Sold,2018-12-19,,1001.0,15000.0
22,Federated Investors GV ULTRSH DUR SV,,Sold,2018-12-19,,1001.0,15000.0
2,Dodge & Cox Stock Fund,,Purchased,,,1001.0,15000.0
3,Mutual Qualified Fund,,Purchased,,,1001.0,15000.0
0,Mutual Quest Fund,,Purchased,,,1001.0,15000.0
0,Mutual Quest Fund,,Purchased,,,1001.0,15000.0
