,orgname,ultorg,action,date1,transnotes,minvalue,maxvalue
0,Vanguard Life Strategy Conservative Grwt,,Purchased/Sold/Exchanged,2008-06-30,No net revenue - even exchange,,
0,Allianz NFJ Renaissance Fund ,,Sold,2010-06-10,,1001.0,15000.0
1,American Capital World Grwth/Income Fund,,Purchased,2010-06-16,,1001.0,15000.0
2,BlackRock Global Fund,,Purchased,2010-06-16,,1001.0,15000.0
0,Davis New York Venture Fund,,Sold,2011-03-15,,1001.0,15000.0
1,Davis New York Venture Fund,,Sold,2011-03-15,,1001.0,15000.0
3,Hotchkis & Wiley Large Cap Value Fund,,Purchased,2011-03-21,,1001.0,15000.0
4,Ivy High Income Fund,,Purchased,2011-04-07,,1001.0,15000.0
1,Express Scripts,,Sold,2012-04-03,,1001.0,15000.0
1,Eaton Vance FLT-RT Inc Income Trust,,Purchased,2013-05-15,,1001.0,15000.0
2,Ivy High Income Fund,,Sold,2013-05-15,,1001.0,15000.0
3,Loomis Sayles Strategic Income Fund,,Sold,2013-05-15,,1001.0,15000.0
5,Vanguard REIT Index,,Purchased,2013-05-15,,1001.0,15000.0
4,TIAA CREF Vanguard Target 2015 Inv,,Purchased,2013-12-09,SRI moved its fund management from Vanguard to TIA,100001.0,250000.0
6,Vanguard Target 2015 Inv,,Sold,2013-12-09,,100001.0,250000.0
7,Vanguard Windsor Fund Investor Retirement Fund,,Sold,2013-12-09,SRI moved management of its retirement fund from V,100001.0,250000.0
0,Dominion Energy,,Sold,2017-03-22,,,
1,Dominion Energy,,Purchased,2017-03-22,,1001.0,15000.0
2,Dominion Energy,,Purchased,2017-03-22,,1001.0,15000.0
4,Dominion Energy Inc,,Sold,2017-06-21,,,
7,Dominion Energy Inc,,Purchased,2017-06-21,,1001.0,15000.0
10,Dominion Energy Inc,,Purchased,2017-06-21,,1001.0,15000.0
5,Dominion Energy Inc,,Sold,2017-09-20,,,
8,Dominion Energy Inc,,Purchased,2017-09-20,,1001.0,15000.0
11,Dominion Energy Inc,,Purchased,2017-09-20,,1001.0,15000.0
3,Dominion Energy Inc,,Purchased,2017-12-20,,1001.0,15000.0
6,Dominion Energy Inc,,Purchased,2017-12-20,,1001.0,15000.0
9,Dominion Energy Inc,,Sold,2017-12-20,,,
3,Dominion Energy Inc,,Purchased,2018-03-22,,1001.0,15000.0
7,Dominion Energy Inc,,Purchased,2018-03-22,,1001.0,15000.0
11,Dominion Energy Inc,,Sold,2018-03-22,,,
4,Dominion Energy Inc,,Purchased,2018-06-20,,1001.0,15000.0
8,Dominion Energy Inc,,Purchased,2018-06-20,,1001.0,15000.0
12,Dominion Energy Inc,,Sold,2018-06-20,,,
5,Dominion Energy Inc,,Purchased,2018-09-26,,1001.0,15000.0
9,Dominion Energy Inc,,Purchased,2018-09-26,,1001.0,15000.0
13,Dominion Energy Inc,,Sold,2018-09-26,,,
0,Cigna Corp,,Exchanged,2018-12-24,,1001.0,15000.0
1,Cigna Corp,,Exchanged,2018-12-24,,1001.0,15000.0
2,Dominion Energy Inc,,Purchased,2018-12-26,,1001.0,15000.0
6,Dominion Energy Inc,,Purchased,2018-12-26,,1001.0,15000.0
10,Dominion Energy Inc,,Sold,2018-12-26,,,
0,Dominion Resources,,Purchased,,,1001.0,15000.0
0,Dominion Resources,,Purchased,,,1001.0,15000.0
2,Dominion Resources,,Purchased,,,1001.0,15000.0
3,Dominion Resources,,Purchased,,,1001.0,15000.0
0,Dominion Resources,,Purchased,,,1001.0,15000.0
0,Dominion Resources,,Purchased,,,1001.0,15000.0
1,SunTrust Bank Mutual Fund,,Purchased,,,1001.0,15000.0
4,SunTrust Bank Mutual Fund,,Purchased,,,1001.0,15000.0
2,TIAA Traditional Retirement Fund,,Purchased,,,1001.0,15000.0
5,United Bank/CDs,,Purchased,,,1001.0,15000.0
3,Vanguard Long Term Treasury Inv Retire,,Purchased,,,1001.0,15000.0
6,Vanguard Target Retirement Fund,,Exchanged,,,15001.0,50000.0
7,Vanguard Target Retirement Fund,,Exchanged,,,15001.0,50000.0
4,Vanguard Total Bond Market Index,,Purchased,,,1001.0,15000.0
8,Vanguard Total Bond Market Index,,Exchanged,,,50001.0,100000.0
9,Vanguard Total Bond Market Index,,Exchanged,,,50001.0,100000.0
5,Vanguard Windsor Retirement,,Purchased,,,1001.0,15000.0
