,orgname,ultorg,action,date1,transnotes,minvalue,maxvalue
24,American Beacon Sim High Yld Opps Inst,,Exchanged,2017-01-03,,,
25,American Beacon Sim High Yld Opps Inst,,Sold,2017-01-03,,1001.0,15000.0
26,American Beacon Sim High Yld Opps Inst,,Exchanged,2017-01-03,,,
27,American Beacon Sim High Yld Opps Inst,,Sold,2017-01-03,,1001.0,15000.0
28,American Beacon Sim High Yld Opps Inst,,Sold,2017-01-03,,1001.0,15000.0
29,American Beacon Sim High Yld Opps Inst,,Sold,2017-01-03,,1001.0,15000.0
30,Angel Oak Multi-Strategy Inc Inst,,Sold,2017-01-03,,1001.0,15000.0
31,Angel Oak Multi-Strategy Inc Inst,,Sold,2017-01-03,,1001.0,15000.0
32,Angel Oak Multi-Strategy Inc Inst,,Sold,2017-01-03,,1001.0,15000.0
33,Angel Oak Multi-Strategy Inc Inst,,Exchanged,2017-01-03,,,
34,Angel Oak Multi-Strategy Inc Inst,,Sold,2017-01-03,,1001.0,15000.0
35,Angel Oak Multi-Strategy Inc Inst,,Exchanged,2017-01-03,,,
36,Aqr Multi Strgy Alt Cl I,,Exchanged,2017-01-03,,,
37,Aqr Multi Strgy Alt Cl I,,Exchanged,2017-01-03,,,
38,Aqr Multi Strgy Alt Cl I,,Sold,2017-01-03,,15001.0,50000.0
39,Aqr Multi Strgy Alt Cl I,,Sold,2017-01-03,,15001.0,50000.0
40,Aqr Multi Strgy Alt Cl I,,Sold,2017-01-03,,15001.0,50000.0
41,Aqr Multi Strgy Alt Cl I,,Sold,2017-01-03,,15001.0,50000.0
42,Aqr Multi Strgy Alternative CL I,,Sold,2017-01-03,,1001.0,15000.0
43,Aqr Multi Strgy Alternative CL I,,Sold,2017-01-03,,1001.0,15000.0
44,Aqr Multi Strgy Alternative CL I,,Sold,2017-01-03,,1001.0,15000.0
45,Aqr Multi Strgy Alternative CL I,,Sold,2017-01-03,,1001.0,15000.0
46,Aqr Multi Strgy Alternative CL I,,Exchanged,2017-01-03,,,
47,Aqr Multi Strgy Alternative CL I,,Exchanged,2017-01-03,,,
48,Baird FundS Inc Short Trm Bd I,,Exchanged,2017-01-03,,,
49,Baird FundS Inc Short Trm Bd I,,Exchanged,2017-01-03,,,
50,Baird FundS Inc Short Trm Bd I,,Sold,2017-01-03,,15001.0,50000.0
51,Baird FundS Inc Short Trm Bd I,,Sold,2017-01-03,,15001.0,50000.0
52,Baird FundS Inc Short Trm Bd I,,Sold,2017-01-03,,15001.0,50000.0
53,Baird FundS Inc Short Trm Bd I,,Sold,2017-01-03,,15001.0,50000.0
54,Baird FundS Inc Shrt Trm Bd I,,Sold,2017-01-03,,1001.0,15000.0
55,Baird FundS Inc Shrt Trm Bd I,,Sold,2017-01-03,,1001.0,15000.0
56,Baird FundS Inc Shrt Trm Bd I,,Sold,2017-01-03,,1001.0,15000.0
57,Baird FundS Inc Shrt Trm Bd I,,Sold,2017-01-03,,1001.0,15000.0
58,Baird FundS Inc Shrt Trm Bd I,,Exchanged,2017-01-03,,,
59,Baird FundS Inc Shrt Trm Bd I,,Exchanged,2017-01-03,,,
60,Baird Intermediate Muni Bond Cl I,,Exchanged,2017-01-03,,,
61,Baird Intermediate Muni Bond Cl I,,Exchanged,2017-01-03,,,
62,Baird Intermediate Muni Bond Cl I,,Exchanged,2017-01-03,,,
63,Baird Intermediate Muni Bond Cl I,,Sold,2017-01-03,,1001.0,15000.0
64,Baird Intermediate Muni Bond Cl I,,Exchanged,2017-01-03,,,
65,Baird Intermediate Muni Bond Cl I,,Sold,2017-01-03,,15001.0,50000.0
66,Baird Intermediate Muni Bond Cl I,,Sold,2017-01-03,,15001.0,50000.0
67,Baird Intermediate Muni Bond Cl I,,Sold,2017-01-03,,1001.0,15000.0
68,Baird Intermediate Muni Bond Cl I,,Sold,2017-01-03,,1001.0,15000.0
69,Baird Intermediate Muni Bond Cl I,,Sold,2017-01-03,,15001.0,50000.0
70,Baird Intermediate Muni Bond Cl I,,Sold,2017-01-03,,15001.0,50000.0
71,Baird Intermediate Muni Bond Cl I,,Sold,2017-01-03,,1001.0,15000.0
78,DFA Emerg Markets Core Equity Portfolio,,Exchanged,2017-01-03,,,
79,DFA Emerg Markets Core Equity Portfolio,,Exchanged,2017-01-03,,,
80,DFA Emerg Markets Core Equity Portfolio,,Exchanged,2017-01-03,,,
81,DFA Emerg Markets Core Equity Portfolio,,Exchanged,2017-01-03,,,
82,DFA Emerg Markets Core Equity Portfolio,,Sold,2017-01-03,,1001.0,15000.0
83,DFA Emerg Markets Core Equity Portfolio,,Sold,2017-01-03,,1001.0,15000.0
84,DFA Emerg Markets Core Equity Portfolio,,Sold,2017-01-03,,1001.0,15000.0
85,DFA Emerg Markets Core Equity Portfolio,,Sold,2017-01-03,,1001.0,15000.0
86,DFA Emerg Markets Core Equity Portfolio,,Sold,2017-01-03,,1001.0,15000.0
87,DFA Emerg Markets Core Equity Portfolio,,Sold,2017-01-03,,1001.0,15000.0
88,DFA Emerg Markets Core Equity Portfolio,,Sold,2017-01-03,,1001.0,15000.0
89,DFA Emerg Markets Core Equity Portfolio,,Sold,2017-01-03,,1001.0,15000.0
90,DFA Emerging Markets Core Equity Portfolio,,Sold,2017-01-03,,1001.0,15000.0
91,DFA Emerging Markets Core Equity Portfolio,,Sold,2017-01-03,,1001.0,15000.0
92,DFA Emerging Markets Core Equity Portfolio,,Sold,2017-01-03,,1001.0,15000.0
93,DFA Emerging Markets Core Equity Portfolio,,Sold,2017-01-03,,1001.0,15000.0
94,DFA Emerging Markets Core Equity Portfolio,,Exchanged,2017-01-03,,,
95,DFA Emerging Markets Core Equity Portfolio,,Exchanged,2017-01-03,,,
96,DFA Emerging Mkts Core Equity Portfolio,,Exchanged,2017-01-03,,,
97,DFA Emerging Mkts Core Equity Portfolio,,Exchanged,2017-01-03,,,
98,DFA Emerging Mkts Core Equity Portfolio,,Sold,2017-01-03,,1001.0,15000.0
99,DFA Emerging Mkts Core Equity Portfolio,,Sold,2017-01-03,,1001.0,15000.0
100,DFA Emerging Mkts Core Equity Portfolio,,Sold,2017-01-03,,1001.0,15000.0
101,DFA Emerging Mkts Core Equity Portfolio,,Sold,2017-01-03,,1001.0,15000.0
108,DFA International Small Co Portfolio,,Exchanged,2017-01-03,,,
109,DFA International Small Co Portfolio,,Exchanged,2017-01-03,,,
110,DFA International Small Co Portfolio,,Exchanged,2017-01-03,,,
111,DFA International Small Co Portfolio,,Exchanged,2017-01-03,,,
112,DFA International Small Co Portfolio,,Exchanged,2017-01-03,,,
113,DFA International Small Co Portfolio,,Exchanged,2017-01-03,,,
114,DFA International Small Co Portfolio,,Exchanged,2017-01-03,,,
115,DFA International Small Co Portfolio,,Exchanged,2017-01-03,,,
116,DFA International Small Co Portfolio,,Sold,2017-01-03,,1001.0,15000.0
117,DFA International Small Co Portfolio,,Sold,2017-01-03,,1001.0,15000.0
118,DFA International Small Co Portfolio,,Sold,2017-01-03,,1001.0,15000.0
119,DFA International Small Co Portfolio,,Sold,2017-01-03,,1001.0,15000.0
120,DFA International Small Co Portfolio,,Sold,2017-01-03,,1001.0,15000.0
121,DFA International Small Co Portfolio,,Sold,2017-01-03,,1001.0,15000.0
122,DFA International Small Co Portfolio,,Sold,2017-01-03,,15001.0,50000.0
123,DFA International Small Co Portfolio,,Sold,2017-01-03,,15001.0,50000.0
124,DFA International Small Co Portfolio,,Sold,2017-01-03,,1001.0,15000.0
125,DFA International Small Co Portfolio,,Sold,2017-01-03,,15001.0,50000.0
126,DFA International Small Co Portfolio,,Sold,2017-01-03,,1001.0,15000.0
127,DFA International Small Co Portfolio,,Sold,2017-01-03,,1001.0,15000.0
128,DFA International Small Co Portfolio,,Sold,2017-01-03,,1001.0,15000.0
129,DFA International Small Co Portfolio,,Sold,2017-01-03,,1001.0,15000.0
130,DFA International Small Co Portfolio,,Sold,2017-01-03,,1001.0,15000.0
131,DFA International Small Co Portfolio,,Sold,2017-01-03,,15001.0,50000.0
132,DFA International Small Company Portfolio Bond,,Sold,2017-01-03,,15001.0,50000.0
133,DFA International Small Company Portfolio Bond,,Sold,2017-01-03,,1001.0,15000.0
134,DFA International Small Company Portfolio Bond,,Sold,2017-01-03,,1001.0,15000.0
135,DFA International Small Company Portfolio Bond,,Sold,2017-01-03,,15001.0,50000.0
136,DFA International Small Company Portfolio Bond,,Sold,2017-01-03,,15001.0,50000.0
137,DFA International Small Company Portfolio Bond,,Sold,2017-01-03,,15001.0,50000.0
138,DFA International Small Company Portfolio Bond,,Sold,2017-01-03,,1001.0,15000.0
139,DFA International Small Company Portfolio Bond,,Sold,2017-01-03,,1001.0,15000.0
140,DFA International Small Company Portfolio Bond,,Exchanged,2017-01-03,,,
141,DFA International Small Company Portfolio Bond,,Exchanged,2017-01-03,,,
142,DFA International Small Company Portfolio Bond,,Exchanged,2017-01-03,,,
143,DFA International Small Company Portfolio Bond,,Exchanged,2017-01-03,,,
144,DFA Japanese Small Co Fund,,Exchanged,2017-01-03,,,
145,DFA Japanese Small Co Fund,,Exchanged,2017-01-03,,,
146,DFA Japanese Small Co Fund,,Exchanged,2017-01-03,,,
147,DFA Japanese Small Co Fund,,Exchanged,2017-01-03,,,
148,DFA Japanese Small Co Fund,,Exchanged,2017-01-03,,,
149,DFA Japanese Small Co Fund,,Exchanged,2017-01-03,,,
150,DFA Japanese Small Co Fund,,Exchanged,2017-01-03,,,
151,DFA Japanese Small Co Fund,,Exchanged,2017-01-03,,,
152,DFA Japanese Small Co Fund,,Sold,2017-01-03,,1001.0,15000.0
153,DFA Japanese Small Co Fund,,Sold,2017-01-03,,1001.0,15000.0
154,DFA Japanese Small Co Fund,,Sold,2017-01-03,,1001.0,15000.0
155,DFA Japanese Small Co Fund,,Sold,2017-01-03,,1001.0,15000.0
156,DFA Japanese Small Co Fund,,Sold,2017-01-03,,1001.0,15000.0
157,DFA Japanese Small Co Fund,,Sold,2017-01-03,,1001.0,15000.0
158,DFA Japanese Small Co Fund,,Sold,2017-01-03,,1001.0,15000.0
159,DFA Japanese Small Co Fund,,Sold,2017-01-03,,1001.0,15000.0
160,DFA Japanese Small Co Fund,,Sold,2017-01-03,,1001.0,15000.0
161,DFA Japanese Small Co Fund,,Sold,2017-01-03,,1001.0,15000.0
162,DFA Japanese Small Co Fund,,Sold,2017-01-03,,1001.0,15000.0
163,DFA Japanese Small Co Fund,,Sold,2017-01-03,,1001.0,15000.0
164,DFA Japanese Small Co Fund,,Sold,2017-01-03,,1001.0,15000.0
165,DFA Japanese Small Co Fund,,Sold,2017-01-03,,1001.0,15000.0
166,DFA Japanese Small Co Fund,,Sold,2017-01-03,,1001.0,15000.0
167,DFA Japanese Small Co Fund,,Sold,2017-01-03,,1001.0,15000.0
168,DFA US Core Equity 1 Portfolio,,Sold,2017-01-03,,1001.0,15000.0
169,DFA US Core Equity 1 Portfolio,,Sold,2017-01-03,,50001.0,100000.0
170,DFA US Core Equity 1 Portfolio,,Sold,2017-01-03,,50001.0,100000.0
171,DFA US Core Equity 1 Portfolio,,Sold,2017-01-03,,1001.0,15000.0
172,DFA US Core Equity 1 Portfolio,,Sold,2017-01-03,,1001.0,15000.0
173,DFA US Core Equity 1 Portfolio,,Sold,2017-01-03,,1001.0,15000.0
174,DFA US Core Equity 1 Portfolio,,Sold,2017-01-03,,1001.0,15000.0
175,DFA US Core Equity 1 Portfolio,,Sold,2017-01-03,,1001.0,15000.0
176,DFA US Core Equity 1 Portfolio,,Sold,2017-01-03,,1001.0,15000.0
177,DFA US Core Equity 1 Portfolio,,Sold,2017-01-03,,15001.0,50000.0
178,DFA US Core Equity 1 Portfolio,,Sold,2017-01-03,,1001.0,15000.0
179,DFA US Core Equity 1 Portfolio,,Sold,2017-01-03,,15001.0,50000.0
180,DFA US Core Equity 1 Portfolio,,Sold,2017-01-03,,50001.0,100000.0
181,DFA US Core Equity 1 Portfolio,,Sold,2017-01-03,,50001.0,100000.0
182,DFA US Core Equity 1 Portfolio,,Sold,2017-01-03,,1001.0,15000.0
183,DFA US Core Equity 1 Portfolio,,Sold,2017-01-03,,50001.0,100000.0
184,DFA US Core Equity 1 Portfolio,,Sold,2017-01-03,,50001.0,100000.0
185,DFA US Core Equity 1 Portfolio,,Sold,2017-01-03,,15001.0,50000.0
186,DFA US Core Equity 1 Portfolio,,Sold,2017-01-03,,1001.0,15000.0
187,DFA US Core Equity 1 Portfolio,,Sold,2017-01-03,,1001.0,15000.0
188,DFA US Core Equity 1 Portfolio,,Sold,2017-01-03,,1001.0,15000.0
189,DFA US Core Equity 1 Portfolio,,Sold,2017-01-03,,15001.0,50000.0
190,DFA US Core Equity 1 Portfolio,,Sold,2017-01-03,,50001.0,100000.0
191,DFA US Core Equity 1 Portfolio,,Sold,2017-01-03,,50001.0,100000.0
192,DFA US Core Equity 1 Portfolio,,Sold,2017-01-03,,1001.0,15000.0
193,DFA US Core Equity 1 Portfolio,,Sold,2017-01-03,,1001.0,15000.0
194,DFA US Core Equity 1 Portfolio,,Sold,2017-01-03,,1001.0,15000.0
195,DFA US Core Equity 1 Portfolio,,Sold,2017-01-03,,1001.0,15000.0
196,DFA US Core Equity 1 Portfolio,,Exchanged,2017-01-03,,,
197,DFA US Core Equity 1 Portfolio,,Exchanged,2017-01-03,,,
198,DFA US Core Equity 1 Portfolio,,Exchanged,2017-01-03,,,
199,DFA US Core Equity 1 Portfolio,,Exchanged,2017-01-03,,,
200,DFA US Core Equity 1 Portfolio,,Exchanged,2017-01-03,,,
201,DFA US Core Equity 1 Portfolio,,Exchanged,2017-01-03,,,
202,DFA US Core Equity 1 Portfolio,,Exchanged,2017-01-03,,,
203,DFA US Core Equity 1 Portfolio,,Exchanged,2017-01-03,,,
204,DFA US Core Equity 1 Portfolio,,Exchanged,2017-01-03,,,
205,DFA US Core Equity 1 Portfolio,,Exchanged,2017-01-03,,,
206,DFA US Core Equity 1 Portfolio,,Exchanged,2017-01-03,,,
207,DFA US Core Equity 1 Portfolio,,Exchanged,2017-01-03,,,
208,DFA US Core Equity 1 Portfolio,,Exchanged,2017-01-03,,,
209,DFA US Core Equity 1 Portfolio,,Exchanged,2017-01-03,,,
234,Hartford Floating Rate High Inc Fund Cla,,Sold,2017-01-03,,1001.0,15000.0
235,Hartford Floating Rate High Inc Fund Cla,,Sold,2017-01-03,,1001.0,15000.0
236,Hartford Floating Rate High Inc Fund Cla,,Sold,2017-01-03,,1001.0,15000.0
237,Hartford Floating Rate High Inc Fund Cla,,Sold,2017-01-03,,1001.0,15000.0
238,Hartford Floating Rate High Inc Fund Cla,,Exchanged,2017-01-03,,,
239,Hartford Floating Rate High Inc Fund Cla,,Exchanged,2017-01-03,,,
306,JPMorgan Mortgage-Backed Securities See,,Sold,2017-01-03,,1001.0,15000.0
307,JPMorgan Mortgage-Backed Securities See,,Sold,2017-01-03,,1001.0,15000.0
308,JPMorgan Mortgage-Backed Securities See,,Sold,2017-01-03,,1001.0,15000.0
309,JPMorgan Mortgage-Backed Securities See,,Sold,2017-01-03,,1001.0,15000.0
310,JPMorgan Mortgage-Backed Securities See,,Exchanged,2017-01-03,,,
311,JPMorgan Mortgage-Backed Securities See,,Exchanged,2017-01-03,,,
330,Lord Abbett Info Focused Bond Fund !,,Sold,2017-01-03,,1001.0,15000.0
331,Lord Abbett Info Focused Bond Fund !,,Sold,2017-01-03,,1001.0,15000.0
332,Lord Abbett Info Focused Bond Fund !,,Sold,2017-01-03,,1001.0,15000.0
333,Lord Abbett Info Focused Bond Fund !,,Exchanged,2017-01-03,,,
334,Lord Abbett Info Focused Bond Fund !,,Sold,2017-01-03,,1001.0,15000.0
335,Lord Abbett Info Focused Bond Fund !,,Exchanged,2017-01-03,,,
409,Pimco Comm Real Return I,,Exchanged,2017-01-03,,,
410,Pimco Comm Real Return I,,Sold,2017-01-03,,1001.0,15000.0
411,Pimco Comm Real Return I,,Exchanged,2017-01-03,,,
412,Pimco Comm Real Return I,,Sold,2017-01-03,,1001.0,15000.0
413,Pimco Comm Real Return I,,Sold,2017-01-03,,1001.0,15000.0
414,Pimco Comm Real Return I,,Sold,2017-01-03,,1001.0,15000.0
427,Sptn Real Es IDX Adv,,Sold,2017-01-03,,1001.0,15000.0
428,Sptn Real Es IDX Adv,,Sold,2017-01-03,,1001.0,15000.0
429,Sptn Real Es IDX Adv,,Sold,2017-01-03,,1001.0,15000.0
430,Sptn Real Es IDX Adv,,Exchanged,2017-01-03,,,
431,Sptn Real Es IDX Adv,,Sold,2017-01-03,,1001.0,15000.0
432,Sptn Real Es IDX Adv,,Exchanged,2017-01-03,,,
451,Tortoise MLP & Pipe Fund,,Exchanged,2017-01-03,,,
452,Tortoise MLP & Pipe Fund,,Sold,2017-01-03,,1001.0,15000.0
453,Tortoise MLP & Pipe Fund,,Exchanged,2017-01-03,,,
454,Tortoise MLP & Pipe Fund,,Sold,2017-01-03,,1001.0,15000.0
455,Tortoise MLP & Pipe Fund,,Sold,2017-01-03,,1001.0,15000.0
456,Tortoise MLP & Pipe Fund,,Sold,2017-01-03,,1001.0,15000.0
102,DFA Int'l Small Co Portfolio,,Sold,2017-01-04,,1001.0,15000.0
103,DFA Int'l Small Co Portfolio,,Sold,2017-01-04,,1001.0,15000.0
104,DFA Int'l Small Co Portfolio,,Sold,2017-01-04,,1001.0,15000.0
105,DFA Int'l Small Co Portfolio,,Sold,2017-01-04,,1001.0,15000.0
106,DFA Int'l Small Co Portfolio,,Exchanged,2017-01-04,,,
107,DFA Int'l Small Co Portfolio,,Exchanged,2017-01-04,,,
210,DFA US Core Equity Fund,,Exchanged,2017-01-04,,,
211,DFA US Core Equity Fund,,Exchanged,2017-01-04,,,
212,DFA US Core Equity Fund,,Sold,2017-01-04,,1001.0,15000.0
213,DFA US Core Equity Fund,,Sold,2017-01-04,,1001.0,15000.0
214,DFA US Core Equity Fund,,Sold,2017-01-04,,1001.0,15000.0
215,DFA US Core Equity Fund,,Sold,2017-01-04,,1001.0,15000.0
473,Vanguard Target Ret 2040 FD Investor Cl,,Purchased,2017-01-13,,1001.0,15000.0
486,Vanguard Target Ret 2040 FD Investor Cl,,Purchased,2017-01-13,,1001.0,15000.0
496,Vanguard Target Ret 2040 FD Investor Cl,,Sold,2017-01-13,,,
501,Vanguard Target Ret 2040 FD Investor Cl,,Sold,2017-01-13,,,
515,Vanguard Target Ret 2040 FD Investor Cl,,Purchased,2017-01-13,,1001.0,15000.0
523,Vanguard Target Ret 2040 FD Investor Cl,,Purchased,2017-01-13,,1001.0,15000.0
471,Vanguard Target Ret 2040 Fd Investor Cl,,Purchased,2017-01-13,,1001.0,15000.0
474,Vanguard Target Ret 2040 Fd Investor Cl,,Purchased,2017-01-13,,15001.0,50000.0
475,Vanguard Target Ret 2040 Fd Investor Cl,,Purchased,2017-01-13,,15001.0,50000.0
476,Vanguard Target Ret 2040 Fd Investor Cl,,Purchased,2017-01-13,,100001.0,250000.0
478,Vanguard Target Ret 2040 Fd Investor Cl,,Purchased,2017-01-13,,15001.0,50000.0
479,Vanguard Target Ret 2040 Fd Investor Cl,,Purchased,2017-01-13,,15001.0,50000.0
480,Vanguard Target Ret 2040 Fd Investor Cl,,Purchased,2017-01-13,,100001.0,250000.0
484,Vanguard Target Ret 2040 Fd Investor Cl,,Purchased,2017-01-13,,1001.0,15000.0
489,Vanguard Target Ret 2040 Fd Investor Cl,,Sold,2017-01-13,,,
490,Vanguard Target Ret 2040 Fd Investor Cl,,Sold,2017-01-13,,,
491,Vanguard Target Ret 2040 Fd Investor Cl,,Sold,2017-01-13,,,
494,Vanguard Target Ret 2040 Fd Investor Cl,,Sold,2017-01-13,,,
499,Vanguard Target Ret 2040 Fd Investor Cl,,Sold,2017-01-13,,,
502,Vanguard Target Ret 2040 Fd Investor Cl,,Sold,2017-01-13,,,
503,Vanguard Target Ret 2040 Fd Investor Cl,,Sold,2017-01-13,,,
504,Vanguard Target Ret 2040 Fd Investor Cl,,Sold,2017-01-13,,,
508,Vanguard Target Ret 2040 Fd Investor Cl,,Purchased,2017-01-13,,15001.0,50000.0
509,Vanguard Target Ret 2040 Fd Investor Cl,,Purchased,2017-01-13,,15001.0,50000.0
510,Vanguard Target Ret 2040 Fd Investor Cl,,Purchased,2017-01-13,,100001.0,250000.0
513,Vanguard Target Ret 2040 Fd Investor Cl,,Purchased,2017-01-13,,1001.0,15000.0
516,Vanguard Target Ret 2040 Fd Investor Cl,,Purchased,2017-01-13,,15001.0,50000.0
517,Vanguard Target Ret 2040 Fd Investor Cl,,Purchased,2017-01-13,,15001.0,50000.0
518,Vanguard Target Ret 2040 Fd Investor Cl,,Purchased,2017-01-13,,100001.0,250000.0
521,Vanguard Target Ret 2040 Fd Investor Cl,,Purchased,2017-01-13,,1001.0,15000.0
529,Vanguard Target Retirement 2040 Inv,,Purchased,2017-01-17,,1001.0,15000.0
532,Vanguard Target Retirement 2040 Inv,,Purchased,2017-01-17,,1001.0,15000.0
535,Vanguard Target Retirement 2040 Inv,,Sold,2017-01-17,,,
537,Vanguard Target Retirement 2040 Inv,,Sold,2017-01-17,,,
540,Vanguard Target Retirement 2040 Inv,,Purchased,2017-01-17,,1001.0,15000.0
544,Vanguard Target Retirement 2040 Inv,,Purchased,2017-01-17,,1001.0,15000.0
477,Vanguard Target Ret 2040 Fd Investor Cl,,Purchased,2017-01-18,,100001.0,250000.0
481,Vanguard Target Ret 2040 Fd Investor Cl,,Purchased,2017-01-18,,100001.0,250000.0
492,Vanguard Target Ret 2040 Fd Investor Cl,,Sold,2017-01-18,,,
505,Vanguard Target Ret 2040 Fd Investor Cl,,Sold,2017-01-18,,,
511,Vanguard Target Ret 2040 Fd Investor Cl,,Purchased,2017-01-18,,100001.0,250000.0
519,Vanguard Target Ret 2040 Fd Investor Cl,,Purchased,2017-01-18,,100001.0,250000.0
472,Vanguard Target Ret 2040 Fd Investor Cl,,Purchased,2017-01-27,,1001.0,15000.0
485,Vanguard Target Ret 2040 Fd Investor Cl,,Purchased,2017-01-27,,1001.0,15000.0
495,Vanguard Target Ret 2040 Fd Investor Cl,,Sold,2017-01-27,,,
500,Vanguard Target Ret 2040 Fd Investor Cl,,Sold,2017-01-27,,,
514,Vanguard Target Ret 2040 Fd Investor Cl,,Purchased,2017-01-27,,1001.0,15000.0
522,Vanguard Target Ret 2040 Fd Investor Cl,,Purchased,2017-01-27,,1001.0,15000.0
6,Am Century Mid Cap Value,,Sold,2017-03-01,,1001.0,15000.0
7,Am Century Mid Cap Value,,Sold,2017-03-01,,1001.0,15000.0
8,Am Century Mid Cap Value,,Sold,2017-03-01,,1001.0,15000.0
9,Am Century Mid Cap Value,,Sold,2017-03-01,,1001.0,15000.0
10,Am Century Mid Cap Value,,Exchanged,2017-03-01,,,
11,Am Century Mid Cap Value,,Exchanged,2017-03-01,,,
12,Am Funds Cap World Growth & Income R4,,Exchanged,2017-03-01,,,
13,Am Funds Cap World Growth & Income R4,,Exchanged,2017-03-01,,,
14,Am Funds Cap World Growth & Income R4,,Sold,2017-03-01,,1001.0,15000.0
15,Am Funds Cap World Growth & Income R4,,Sold,2017-03-01,,1001.0,15000.0
16,Am Funds Cap World Growth & Income R4,,Sold,2017-03-01,,1001.0,15000.0
17,Am Funds Cap World Growth & Income R4,,Sold,2017-03-01,,1001.0,15000.0
18,Am Funds Europacific Gr R4,,Sold,2017-03-01,,1001.0,15000.0
19,Am Funds Europacific Gr R4,,Sold,2017-03-01,,1001.0,15000.0
20,Am Funds Europacific Gr R4,,Sold,2017-03-01,,1001.0,15000.0
21,Am Funds Europacific Gr R4,,Sold,2017-03-01,,1001.0,15000.0
22,Am Funds Europacific Gr R4,,Exchanged,2017-03-01,,,
23,Am Funds Europacific Gr R4,,Exchanged,2017-03-01,,,
228,Franklin Growth Fund,,Exchanged,2017-03-01,,,
229,Franklin Growth Fund,,Exchanged,2017-03-01,,,
230,Franklin Growth Fund,,Sold,2017-03-01,,1001.0,15000.0
231,Franklin Growth Fund,,Sold,2017-03-01,,1001.0,15000.0
232,Franklin Growth Fund,,Sold,2017-03-01,,1001.0,15000.0
233,Franklin Growth Fund,,Sold,2017-03-01,,1001.0,15000.0
295,JPM Core Bond R6,,Sold,2017-03-01,,,
297,JPM Core Bond R6,,Sold,2017-03-01,,,
298,JPM Core Bond R6,,Purchased,2017-03-01,,1001.0,15000.0
299,JPM Core Bond R6,,Purchased,2017-03-01,,1001.0,15000.0
301,JPM Core Bond R6,,Purchased,2017-03-01,,1001.0,15000.0
303,JPM Core Bond R6,,Purchased,2017-03-01,,1001.0,15000.0
312,Lincoln Stable Value Account -J83,,Exchanged,2017-03-01,,,
313,Lincoln Stable Value Account -J83,,Exchanged,2017-03-01,,,
314,Lincoln Stable Value Account -J83,,Sold,2017-03-01,,1001.0,15000.0
315,Lincoln Stable Value Account -J83,,Sold,2017-03-01,,1001.0,15000.0
316,Lincoln Stable Value Account -J83,,Sold,2017-03-01,,1001.0,15000.0
317,Lincoln Stable Value Account -J83,,Sold,2017-03-01,,1001.0,15000.0
324,Lincoln Stable Value Z116,,Sold,2017-03-01,,,
325,Lincoln Stable Value Z116,,Sold,2017-03-01,,,
326,Lincoln Stable Value Z116,,Purchased,2017-03-01,,1001.0,15000.0
327,Lincoln Stable Value Z116,,Purchased,2017-03-01,,1001.0,15000.0
328,Lincoln Stable Value Z116,,Purchased,2017-03-01,,1001.0,15000.0
329,Lincoln Stable Value Z116,,Purchased,2017-03-01,,1001.0,15000.0
338,MFS Growth,,Purchased,2017-03-01,,1001.0,15000.0
340,MFS Growth,,Purchased,2017-03-01,,1001.0,15000.0
343,MFS Growth,,Sold,2017-03-01,,,
344,MFS Growth,,Sold,2017-03-01,,,
347,MFS Growth,,Purchased,2017-03-01,,1001.0,15000.0
348,MFS Growth,,Purchased,2017-03-01,,1001.0,15000.0
349,MFS International Diversification R4,,Purchased,2017-03-01,,1001.0,15000.0
350,MFS International Diversification R4,,Purchased,2017-03-01,,1001.0,15000.0
353,MFS International Diversification R4,,Sold,2017-03-01,,,
354,MFS International Diversification R4,,Sold,2017-03-01,,,
357,MFS International Diversification R4,,Purchased,2017-03-01,,1001.0,15000.0
359,MFS International Diversification R4,,Purchased,2017-03-01,,1001.0,15000.0
403,Pgim Ttl Return,,Purchased,2017-03-01,,1001.0,15000.0
404,Pgim Ttl Return,,Purchased,2017-03-01,,1001.0,15000.0
405,Pgim Ttl Return,,Sold,2017-03-01,,,
406,Pgim Ttl Return,,Sold,2017-03-01,,,
407,Pgim Ttl Return,,Purchased,2017-03-01,,1001.0,15000.0
408,Pgim Ttl Return,,Purchased,2017-03-01,,1001.0,15000.0
421,Prudential Total Return,,Sold,2017-03-01,,1001.0,15000.0
422,Prudential Total Return,,Exchanged,2017-03-01,,,
423,Prudential Total Return,,Exchanged,2017-03-01,,,
424,Prudential Total Return,,Sold,2017-03-01,,1001.0,15000.0
425,Prudential Total Return,,Sold,2017-03-01,,1001.0,15000.0
426,Prudential Total Return,,Sold,2017-03-01,,1001.0,15000.0
433,T Rowe Value,,Purchased,2017-03-01,,1001.0,15000.0
434,T Rowe Value,,Purchased,2017-03-01,,1001.0,15000.0
438,T Rowe Value,,Sold,2017-03-01,,,
439,T Rowe Value,,Sold,2017-03-01,,,
441,T Rowe Value,,Purchased,2017-03-01,,1001.0,15000.0
443,T Rowe Value,,Purchased,2017-03-01,,1001.0,15000.0
459,Vanguard 500 Index,,Purchased,2017-03-01,,1001.0,15000.0
460,Vanguard 500 Index,,Purchased,2017-03-01,,1001.0,15000.0
463,Vanguard 500 Index,,Sold,2017-03-01,,,
464,Vanguard 500 Index,,Sold,2017-03-01,,,
467,Vanguard 500 Index,,Purchased,2017-03-01,,1001.0,15000.0
468,Vanguard 500 Index,,Purchased,2017-03-01,,1001.0,15000.0
570,Vanguard Value Index ETF,,Sold,2017-03-01,,1001.0,15000.0
571,Vanguard Value Index ETF,,Sold,2017-03-01,,1001.0,15000.0
572,Vanguard Value Index ETF,,Sold,2017-03-01,,1001.0,15000.0
573,Vanguard Value Index ETF,,Exchanged,2017-03-01,,,
574,Vanguard Value Index ETF,,Exchanged,2017-03-01,,,
575,Vanguard Value Index ETF,,Sold,2017-03-01,,1001.0,15000.0
294,JPM Core Bond R6,,Exchanged,2017-03-02,,,
296,JPM Core Bond R6,,Exchanged,2017-03-02,,,
300,JPM Core Bond R6,,Sold,2017-03-02,,1001.0,15000.0
302,JPM Core Bond R6,,Sold,2017-03-02,,1001.0,15000.0
304,JPM Core Bond R6,,Sold,2017-03-02,,1001.0,15000.0
305,JPM Core Bond R6,,Sold,2017-03-02,,1001.0,15000.0
318,Lincoln Stable Value Account-Z116,,Sold,2017-03-02,,1001.0,15000.0
319,Lincoln Stable Value Account-Z116,,Sold,2017-03-02,,1001.0,15000.0
320,Lincoln Stable Value Account-Z116,,Sold,2017-03-02,,1001.0,15000.0
321,Lincoln Stable Value Account-Z116,,Sold,2017-03-02,,1001.0,15000.0
322,Lincoln Stable Value Account-Z116,,Exchanged,2017-03-02,,,
323,Lincoln Stable Value Account-Z116,,Exchanged,2017-03-02,,,
337,MFS Growth,,Sold,2017-03-02,,1001.0,15000.0
339,MFS Growth,,Sold,2017-03-02,,1001.0,15000.0
341,MFS Growth,,Sold,2017-03-02,,1001.0,15000.0
342,MFS Growth,,Exchanged,2017-03-02,,,
345,MFS Growth,,Exchanged,2017-03-02,,,
346,MFS Growth,,Sold,2017-03-02,,1001.0,15000.0
351,MFS International Diversification R4,,Sold,2017-03-02,,1001.0,15000.0
352,MFS International Diversification R4,,Exchanged,2017-03-02,,,
355,MFS International Diversification R4,,Exchanged,2017-03-02,,,
356,MFS International Diversification R4,,Sold,2017-03-02,,1001.0,15000.0
358,MFS International Diversification R4,,Sold,2017-03-02,,1001.0,15000.0
360,MFS International Diversification R4,,Sold,2017-03-02,,1001.0,15000.0
435,T Rowe Value,,Sold,2017-03-02,,1001.0,15000.0
436,T Rowe Value,,Exchanged,2017-03-02,,,
437,T Rowe Value,,Exchanged,2017-03-02,,,
440,T Rowe Value,,Sold,2017-03-02,,1001.0,15000.0
442,T Rowe Value,,Sold,2017-03-02,,1001.0,15000.0
444,T Rowe Value,,Sold,2017-03-02,,1001.0,15000.0
457,Vanguard 500 Index,,Sold,2017-03-02,,1001.0,15000.0
458,Vanguard 500 Index,,Sold,2017-03-02,,1001.0,15000.0
461,Vanguard 500 Index,,Sold,2017-03-02,,1001.0,15000.0
462,Vanguard 500 Index,,Exchanged,2017-03-02,,,
465,Vanguard 500 Index,,Exchanged,2017-03-02,,,
466,Vanguard 500 Index,,Sold,2017-03-02,,1001.0,15000.0
530,Vanguard Target Retirement 2040 Inv,,Purchased,2017-03-02,,15001.0,50000.0
533,Vanguard Target Retirement 2040 Inv,,Purchased,2017-03-02,,15001.0,50000.0
534,Vanguard Target Retirement 2040 Inv,,Sold,2017-03-02,,,
539,Vanguard Target Retirement 2040 Inv,,Sold,2017-03-02,,,
541,Vanguard Target Retirement 2040 Inv,,Purchased,2017-03-02,,15001.0,50000.0
542,Vanguard Target Retirement 2040 Inv,,Purchased,2017-03-02,,15001.0,50000.0
487,Vanguard Target Ret 2040 Fd Investor Cl,,Sold,2017-03-27,,1001.0,15000.0
506,Vanguard Target Ret 2040 Fd Investor Cl,,Exchanged,2017-03-27,,,
507,Vanguard Target Ret 2040 Fd Investor Cl,,Exchanged,2017-03-27,,,
525,Vanguard Target Ret 2040 Fd Investor Cl,,Sold,2017-03-27,,1001.0,15000.0
526,Vanguard Target Ret 2040 Fd Investor Cl,,Sold,2017-03-27,,1001.0,15000.0
527,Vanguard Target Ret 2040 Fd Investor Cl,,Sold,2017-03-27,,1001.0,15000.0
0,Alger Small Cap Growth Fund,,Exchanged,2017-04-04,,,
1,Alger Small Cap Growth Fund,,Exchanged,2017-04-04,,,
2,Alger Small Cap Growth Fund,,Sold,2017-04-04,,15001.0,50000.0
3,Alger Small Cap Growth Fund,,Sold,2017-04-04,,15001.0,50000.0
4,Alger Small Cap Growth Fund,,Sold,2017-04-04,,15001.0,50000.0
5,Alger Small Cap Growth Fund,,Sold,2017-04-04,,15001.0,50000.0
72,Delafield Fund,,Sold,2017-04-04,,15001.0,50000.0
73,Delafield Fund,,Sold,2017-04-04,,15001.0,50000.0
74,Delafield Fund,,Sold,2017-04-04,,15001.0,50000.0
75,Delafield Fund,,Exchanged,2017-04-04,,,
76,Delafield Fund,,Sold,2017-04-04,,15001.0,50000.0
77,Delafield Fund,,Exchanged,2017-04-04,,,
288,Janus Forty Fund,,Sold,2017-04-04,,15001.0,50000.0
289,Janus Forty Fund,,Sold,2017-04-04,,15001.0,50000.0
290,Janus Forty Fund,,Sold,2017-04-04,,15001.0,50000.0
291,Janus Forty Fund,,Sold,2017-04-04,,15001.0,50000.0
292,Janus Forty Fund,,Exchanged,2017-04-04,,,
293,Janus Forty Fund,,Exchanged,2017-04-04,,,
397,Oppenheimer Global Fund,,Exchanged,2017-04-04,,,
398,Oppenheimer Global Fund,,Sold,2017-04-04,,15001.0,50000.0
399,Oppenheimer Global Fund,,Exchanged,2017-04-04,,,
400,Oppenheimer Global Fund,,Sold,2017-04-04,,15001.0,50000.0
401,Oppenheimer Global Fund,,Sold,2017-04-04,,15001.0,50000.0
402,Oppenheimer Global Fund,,Sold,2017-04-04,,15001.0,50000.0
415,Pimco Real Return Fund,,Sold,2017-04-04,,15001.0,50000.0
416,Pimco Real Return Fund,,Sold,2017-04-04,,15001.0,50000.0
417,Pimco Real Return Fund,,Sold,2017-04-04,,15001.0,50000.0
418,Pimco Real Return Fund,,Exchanged,2017-04-04,,,
419,Pimco Real Return Fund,,Sold,2017-04-04,,15001.0,50000.0
420,Pimco Real Return Fund,,Exchanged,2017-04-04,,,
445,Thornburg Value Fund,,Sold,2017-04-04,,15001.0,50000.0
446,Thornburg Value Fund,,Sold,2017-04-04,,15001.0,50000.0
447,Thornburg Value Fund,,Sold,2017-04-04,,15001.0,50000.0
448,Thornburg Value Fund,,Exchanged,2017-04-04,,,
449,Thornburg Value Fund,,Sold,2017-04-04,,15001.0,50000.0
450,Thornburg Value Fund,,Exchanged,2017-04-04,,,
361,Money Market,,Purchased,2017-04-13,,100001.0,250000.0
365,Money Market,,Purchased,2017-04-13,,100001.0,250000.0
377,Money Market,,Sold,2017-04-13,,,
379,Money Market,,Sold,2017-04-13,,,
386,Money Market,,Purchased,2017-04-13,,100001.0,250000.0
388,Money Market,,Purchased,2017-04-13,,100001.0,250000.0
549,Vanguard Target Retirement 2045 Fund,,Purchased,2017-04-17,,100001.0,250000.0
553,Vanguard Target Retirement 2045 Fund,,Purchased,2017-04-17,,100001.0,250000.0
557,Vanguard Target Retirement 2045 Fund,,Sold,2017-04-17,,,
561,Vanguard Target Retirement 2045 Fund,,Sold,2017-04-17,,,
565,Vanguard Target Retirement 2045 Fund,,Purchased,2017-04-17,,100001.0,250000.0
566,Vanguard Target Retirement 2045 Fund,,Purchased,2017-04-17,,100001.0,250000.0
366,Money Market,,Sold,2017-04-18,,100001.0,250000.0
370,Money Market,,Sold,2017-04-18,,100001.0,250000.0
372,Money Market,,Sold,2017-04-18,,100001.0,250000.0
375,Money Market,,Sold,2017-04-18,,100001.0,250000.0
376,Money Market,,Exchanged,2017-04-18,,,
396,Money Market,,Exchanged,2017-04-18,,,
364,Money Market,,Purchased,2017-05-11,,1001.0,15000.0
369,Money Market,,Purchased,2017-05-11,,1001.0,15000.0
382,Money Market,,Sold,2017-05-11,,,
385,Money Market,,Sold,2017-05-11,,,
387,Money Market,,Purchased,2017-05-11,,1001.0,15000.0
394,Money Market,,Purchased,2017-05-11,,1001.0,15000.0
216,Equity Portfolio,,Sold,2017-06-30,,1001.0,15000.0
217,Equity Portfolio,,Sold,2017-06-30,,1001.0,15000.0
219,Equity Portfolio,,Sold,2017-06-30,,1001.0,15000.0
221,Equity Portfolio,,Sold,2017-06-30,,1001.0,15000.0
224,Equity Portfolio,,Exchanged,2017-06-30,,,
225,Equity Portfolio,,Exchanged,2017-06-30,,,
240,Index Moderate Age Based 0-02,,Exchanged,2017-06-30,,,
241,Index Moderate Age Based 0-02,,Exchanged,2017-06-30,,,
246,Index Moderate Age Based 0-02,,Sold,2017-06-30,,1001.0,15000.0
247,Index Moderate Age Based 0-02,,Sold,2017-06-30,,1001.0,15000.0
249,Index Moderate Age Based 0-02,,Sold,2017-06-30,,1001.0,15000.0
251,Index Moderate Age Based 0-02,,Sold,2017-06-30,,1001.0,15000.0
252,Index Moderate Age Based 06-08,,Sold,2017-06-30,,15001.0,50000.0
253,Index Moderate Age Based 06-08,,Sold,2017-06-30,,15001.0,50000.0
258,Index Moderate Age Based 06-08,,Sold,2017-06-30,,15001.0,50000.0
259,Index Moderate Age Based 06-08,,Sold,2017-06-30,,15001.0,50000.0
264,Index Moderate Age Based 06-08,,Exchanged,2017-06-30,,,
269,Index Moderate Age Based 06-08,,Exchanged,2017-06-30,,,
270,Index Moderate Age Based 19+,,Exchanged,2017-06-30,,,
275,Index Moderate Age Based 19+,,Exchanged,2017-06-30,,,
280,Index Moderate Age Based 19+,,Sold,2017-06-30,,15001.0,50000.0
281,Index Moderate Age Based 19+,,Sold,2017-06-30,,15001.0,50000.0
285,Index Moderate Age Based 19+,,Sold,2017-06-30,,15001.0,50000.0
286,Index Moderate Age Based 19+,,Sold,2017-06-30,,15001.0,50000.0
218,Equity Portfolio,,Purchased,2017-07-14,,1001.0,15000.0
220,Equity Portfolio,,Purchased,2017-07-14,,1001.0,15000.0
222,Equity Portfolio,,Purchased,2017-07-14,,1001.0,15000.0
223,Equity Portfolio,,Purchased,2017-07-14,,1001.0,15000.0
226,Equity Portfolio,,Sold,2017-07-14,,,
227,Equity Portfolio,,Sold,2017-07-14,,,
242,Index Moderate Age Based 0-02,,Sold,2017-07-14,,,
243,Index Moderate Age Based 0-02,,Sold,2017-07-14,,,
244,Index Moderate Age Based 0-02,,Purchased,2017-07-14,,1001.0,15000.0
245,Index Moderate Age Based 0-02,,Purchased,2017-07-14,,1001.0,15000.0
248,Index Moderate Age Based 0-02,,Purchased,2017-07-14,,1001.0,15000.0
250,Index Moderate Age Based 0-02,,Purchased,2017-07-14,,1001.0,15000.0
254,Index Moderate Age Based 06-08,,Purchased,2017-07-14,,15001.0,50000.0
257,Index Moderate Age Based 06-08,,Purchased,2017-07-14,,15001.0,50000.0
260,Index Moderate Age Based 06-08,,Purchased,2017-07-14,,15001.0,50000.0
262,Index Moderate Age Based 06-08,,Purchased,2017-07-14,,15001.0,50000.0
267,Index Moderate Age Based 06-08,,Sold,2017-07-14,,,
268,Index Moderate Age Based 06-08,,Sold,2017-07-14,,,
271,Index Moderate Age Based 19+,,Sold,2017-07-14,,,
272,Index Moderate Age Based 19+,,Sold,2017-07-14,,,
277,Index Moderate Age Based 19+,,Purchased,2017-07-14,,15001.0,50000.0
279,Index Moderate Age Based 19+,,Purchased,2017-07-14,,15001.0,50000.0
282,Index Moderate Age Based 19+,,Purchased,2017-07-14,,15001.0,50000.0
287,Index Moderate Age Based 19+,,Purchased,2017-07-14,,15001.0,50000.0
547,Vanguard Target Retirement 2045 Fund,,Purchased,2017-08-14,,1001.0,15000.0
550,Vanguard Target Retirement 2045 Fund,,Purchased,2017-08-14,,1001.0,15000.0
554,Vanguard Target Retirement 2045 Fund,,Sold,2017-08-14,,,
558,Vanguard Target Retirement 2045 Fund,,Sold,2017-08-14,,,
562,Vanguard Target Retirement 2045 Fund,,Purchased,2017-08-14,,1001.0,15000.0
567,Vanguard Target Retirement 2045 Fund,,Purchased,2017-08-14,,1001.0,15000.0
371,Money Market,,Sold,2017-08-15,,1001.0,15000.0
373,Money Market,,Sold,2017-08-15,,1001.0,15000.0
374,Money Market,,Sold,2017-08-15,,1001.0,15000.0
378,Money Market,,Exchanged,2017-08-15,,,
391,Money Market,,Sold,2017-08-15,,1001.0,15000.0
395,Money Market,,Exchanged,2017-08-15,,,
255,Index Moderate Age Based 06-08,,Purchased,2017-08-17,,1001.0,15000.0
256,Index Moderate Age Based 06-08,,Purchased,2017-08-17,,1001.0,15000.0
261,Index Moderate Age Based 06-08,,Purchased,2017-08-17,,1001.0,15000.0
263,Index Moderate Age Based 06-08,,Purchased,2017-08-17,,1001.0,15000.0
265,Index Moderate Age Based 06-08,,Sold,2017-08-17,,,
266,Index Moderate Age Based 06-08,,Sold,2017-08-17,,,
273,Index Moderate Age Based 19+,,Sold,2017-08-17,,,
274,Index Moderate Age Based 19+,,Sold,2017-08-17,,,
276,Index Moderate Age Based 19+,,Purchased,2017-08-17,,1001.0,15000.0
278,Index Moderate Age Based 19+,,Purchased,2017-08-17,,1001.0,15000.0
283,Index Moderate Age Based 19+,,Purchased,2017-08-17,,1001.0,15000.0
284,Index Moderate Age Based 19+,,Purchased,2017-08-17,,1001.0,15000.0
363,Money Market,,Purchased,2017-08-18,,1001.0,15000.0
368,Money Market,,Purchased,2017-08-18,,1001.0,15000.0
381,Money Market,,Sold,2017-08-18,,,
384,Money Market,,Sold,2017-08-18,,,
390,Money Market,,Purchased,2017-08-18,,1001.0,15000.0
393,Money Market,,Purchased,2017-08-18,,1001.0,15000.0
362,Money Market,,Purchased,2017-11-27,,1001.0,15000.0
367,Money Market,,Purchased,2017-11-27,,1001.0,15000.0
380,Money Market,,Sold,2017-11-27,,,
383,Money Market,,Sold,2017-11-27,,,
389,Money Market,,Purchased,2017-11-27,,1001.0,15000.0
392,Money Market,,Purchased,2017-11-27,,1001.0,15000.0
528,Vanguard Target Retirement 2040 Inv,,Purchased,2017-12-28,,1001.0,15000.0
531,Vanguard Target Retirement 2040 Inv,,Purchased,2017-12-28,,1001.0,15000.0
536,Vanguard Target Retirement 2040 Inv,,Sold,2017-12-28,,,
538,Vanguard Target Retirement 2040 Inv,,Sold,2017-12-28,,,
543,Vanguard Target Retirement 2040 Inv,,Purchased,2017-12-28,,1001.0,15000.0
545,Vanguard Target Retirement 2040 Inv,,Purchased,2017-12-28,,1001.0,15000.0
336,M Priyasri Bala Vanguard Retirement 2040/Vanguard,,Purchased,2017-12-29,,1001.0,15000.0
469,Vanguard Target Ret 2040 Fd Investor Cl,,Purchased,2017-12-29,,1001.0,15000.0
470,Vanguard Target Ret 2040 Fd Investor Cl,,Purchased,2017-12-29,,1001.0,15000.0
482,Vanguard Target Ret 2040 Fd Investor Cl,,Purchased,2017-12-29,,1001.0,15000.0
483,Vanguard Target Ret 2040 Fd Investor Cl,,Purchased,2017-12-29,,1001.0,15000.0
488,Vanguard Target Ret 2040 Fd Investor Cl,,Sold,2017-12-29,,,
493,Vanguard Target Ret 2040 Fd Investor Cl,,Sold,2017-12-29,,,
497,Vanguard Target Ret 2040 Fd Investor Cl,,Sold,2017-12-29,,,
498,Vanguard Target Ret 2040 Fd Investor Cl,,Sold,2017-12-29,,,
512,Vanguard Target Ret 2040 Fd Investor Cl,,Purchased,2017-12-29,,1001.0,15000.0
520,Vanguard Target Ret 2040 Fd Investor Cl,,Purchased,2017-12-29,,1001.0,15000.0
524,Vanguard Target Ret 2040 Fd Investor Cl,,Purchased,2017-12-29,,1001.0,15000.0
546,Vanguard Target Retirement 2045 Fund,,Purchased,2017-12-29,,1001.0,15000.0
548,Vanguard Target Retirement 2045 Fund,,Purchased,2017-12-29,,1001.0,15000.0
551,Vanguard Target Retirement 2045 Fund,,Purchased,2017-12-29,,1001.0,15000.0
552,Vanguard Target Retirement 2045 Fund,,Purchased,2017-12-29,,1001.0,15000.0
555,Vanguard Target Retirement 2045 Fund,,Sold,2017-12-29,,,
556,Vanguard Target Retirement 2045 Fund,,Sold,2017-12-29,,,
559,Vanguard Target Retirement 2045 Fund,,Sold,2017-12-29,,,
560,Vanguard Target Retirement 2045 Fund,,Sold,2017-12-29,,,
563,Vanguard Target Retirement 2045 Fund,,Purchased,2017-12-29,,1001.0,15000.0
564,Vanguard Target Retirement 2045 Fund,,Purchased,2017-12-29,,1001.0,15000.0
568,Vanguard Target Retirement 2045 Fund,,Purchased,2017-12-29,,1001.0,15000.0
569,Vanguard Target Retirement 2045 Fund,,Purchased,2017-12-29,,1001.0,15000.0
9,Index Moderate Age Based 6-8,,Sold,2018-01-02,,,
10,Index Moderate Age Based 6-8,,Purchased,2018-01-02,,1001.0,15000.0
11,Index Moderate Age Based 6-8,,Purchased,2018-01-02,,1001.0,15000.0
3,Index Moderate Age Based 13-14,,Purchased,2018-01-10,,1001.0,15000.0
5,Index Moderate Age Based 13-14,,Purchased,2018-01-10,,1001.0,15000.0
7,Index Moderate Age Based 13-14,,Sold,2018-01-10,,,
39,Vanguard Target Retirement 2050 (VFIFX),,Purchased,2018-08-24,,1001.0,15000.0
42,Vanguard Target Retirement 2050 (VFIFX),,Purchased,2018-08-24,,1001.0,15000.0
44,Vanguard Target Retirement 2050 (VFIFX),,Purchased,2018-08-24,,1001.0,15000.0
47,Vanguard Target Retirement 2050 (VFIFX),,Purchased,2018-08-24,,1001.0,15000.0
49,Vanguard Target Retirement 2050 (VFIFX),,Sold,2018-08-24,,,
52,Vanguard Target Retirement 2050 (VFIFX),,Sold,2018-08-24,,,
43,Vanguard Target Retirement 2050 (VFIFX),,Purchased,2018-08-31,,1001.0,15000.0
48,Vanguard Target Retirement 2050 (VFIFX),,Purchased,2018-08-31,,1001.0,15000.0
53,Vanguard Target Retirement 2050 (VFIFX),,Sold,2018-08-31,,,
18,Vanguard Target Retirement 2040 (VFORX),,Sold,2018-09-01,,50001.0,100000.0
20,Vanguard Target Retirement 2040 (VFORX),,Exchanged,2018-09-01,,,
21,Vanguard Target Retirement 2040 (VFORX),,Sold,2018-09-01,,50001.0,100000.0
41,Vanguard Target Retirement 2050 (VFIFX),,Purchased,2018-09-05,,50001.0,100000.0
46,Vanguard Target Retirement 2050 (VFIFX),,Purchased,2018-09-05,,50001.0,100000.0
51,Vanguard Target Retirement 2050 (VFIFX),,Sold,2018-09-05,,,
15,Schwab Target 2050 Index Fund (SWYMX),,Sold,2018-11-15,,,
16,Schwab Target 2050 Index Fund (SWYMX),,Purchased,2018-11-15,,1001.0,15000.0
17,Schwab Target 2050 Index Fund (SWYMX),,Purchased,2018-11-15,,1001.0,15000.0
27,Vanguard Target Retirement 2045 (VTIVX),,Sold,2018-12-27,,,
29,Vanguard Target Retirement 2045 (VTIVX),,Sold,2018-12-27,,,
31,Vanguard Target Retirement 2045 (VTIVX),,Purchased,2018-12-27,,1001.0,15000.0
33,Vanguard Target Retirement 2045 (VTIVX),,Purchased,2018-12-27,,1001.0,15000.0
35,Vanguard Target Retirement 2045 (VTIVX),,Purchased,2018-12-27,,1001.0,15000.0
37,Vanguard Target Retirement 2045 (VTIVX),,Purchased,2018-12-27,,1001.0,15000.0
0,Index Moderate Age Based 0-2,,Sold,2018-12-31,,,
1,Index Moderate Age Based 0-2,,Purchased,2018-12-31,,1001.0,15000.0
2,Index Moderate Age Based 0-2,,Purchased,2018-12-31,,1001.0,15000.0
4,Index Moderate Age Based 13-14,,Purchased,2018-12-31,,1001.0,15000.0
6,Index Moderate Age Based 13-14,,Purchased,2018-12-31,,1001.0,15000.0
8,Index Moderate Age Based 13-14,,Sold,2018-12-31,,,
12,Index Moderate Age Based 9-10,,Purchased,2018-12-31,,1001.0,15000.0
13,Index Moderate Age Based 9-10,,Purchased,2018-12-31,,1001.0,15000.0
14,Index Moderate Age Based 9-10,,Sold,2018-12-31,,,
19,Vanguard Target Retirement 2040 (VFORX),,Purchased,2018-12-31,,1001.0,15000.0
22,Vanguard Target Retirement 2040 (VFORX),,Purchased,2018-12-31,,1001.0,15000.0
23,Vanguard Target Retirement 2040 (VFORX),,Purchased,2018-12-31,,1001.0,15000.0
24,Vanguard Target Retirement 2040 (VFORX),,Purchased,2018-12-31,,1001.0,15000.0
25,Vanguard Target Retirement 2040 (VFORX),,Sold,2018-12-31,,,
26,Vanguard Target Retirement 2040 (VFORX),,Sold,2018-12-31,,,
28,Vanguard Target Retirement 2045 (VTIVX),,Sold,2018-12-31,,,
30,Vanguard Target Retirement 2045 (VTIVX),,Sold,2018-12-31,,,
32,Vanguard Target Retirement 2045 (VTIVX),,Purchased,2018-12-31,,1001.0,15000.0
34,Vanguard Target Retirement 2045 (VTIVX),,Purchased,2018-12-31,,1001.0,15000.0
36,Vanguard Target Retirement 2045 (VTIVX),,Purchased,2018-12-31,,1001.0,15000.0
38,Vanguard Target Retirement 2045 (VTIVX),,Purchased,2018-12-31,,1001.0,15000.0
40,Vanguard Target Retirement 2050 (VFIFX),,Purchased,2018-12-31,,1001.0,15000.0
45,Vanguard Target Retirement 2050 (VFIFX),,Purchased,2018-12-31,,1001.0,15000.0
50,Vanguard Target Retirement 2050 (VFIFX),,Sold,2018-12-31,,,
