,orgname,ultorg,action,date1,transnotes,minvalue,maxvalue
1,iShares MSCI Emerging Markets Index,,Sold,2009-12-14,,1001,15000
2,Qualcomm Inc,,Sold,2009-12-18,,1001,15000
0,Intel Corp,,Sold,2009-12-24,,1001,15000
