,orgname,ultorg,action,date1,transnotes,minvalue,maxvalue
0,ABN Amro,Royal Bank of Scotland,Sold,2008-12-03,,1001,15000
0,Cardinal Health,,Purchased,2009-04-16,,1001,15000
1,Cardinal Health,,Purchased,2009-04-16,,1001,15000
2,Carefusion Corp,,Purchased,2009-04-16,,1001,15000
3,Carefusion Corp,,Purchased,2009-04-16,,1001,15000
4,Kohl's Corp,,Sold,2009-04-16,,1001,15000
5,Kohl's Corp,,Sold,2009-04-16,,1001,15000
6,Mylan Inc,,Purchased,2009-04-16,,1001,15000
7,Mylan Inc,,Purchased,2009-04-16,,1001,15000
8,New York Community Bancorp,,Sold,2009-04-16,,1001,15000
9,New York Community Bancorp,,Sold,2009-04-16,,1001,15000
10,Teva Pharmaceutical Industries,,Purchased,2009-04-16,,1001,15000
11,Teva Pharmaceutical Industries,,Purchased,2009-04-16,,1001,15000
0,Apple Inc,,Purchased,2010-02-16,,1001,15000
1,Apple Inc,,Purchased,2010-02-16,,1001,15000
2,Bank of America,,Sold,2010-02-16,,1001,15000
3,Morgan Stanley,,Sold,2010-02-16,,1001,15000
