,orgname,ultorg,action,date1,transnotes,minvalue,maxvalue
12,MFS Utilities Fund,,Sold,2017-04-03,,1001.0,15000.0
13,MFS Utilities Fund,,Exchanged,2017-04-03,,,
14,MFS Utilities Fund,,Sold,2017-04-03,,1001.0,15000.0
6,Metro West Unconstr Bd Fund,,Purchased,2017-04-03,,1001.0,15000.0
7,Metro West Unconstr Bd Fund,,Sold,2017-04-03,,,
8,Metro West Unconstr Bd Fund,,Sold,2017-04-03,,,
9,Metro West Unconstr Bd Fund,,Purchased,2017-04-03,,1001.0,15000.0
10,Metro West Unconstr Bd Fund,,Purchased,2017-04-03,,1001.0,15000.0
11,Metro West Unconstr Bd Fund,,Purchased,2017-04-03,,1001.0,15000.0
15,Vanguard Short Term Inv Gr Fund,,Purchased,2017-04-03,,1001.0,15000.0
16,Vanguard Short Term Inv Gr Fund,,Sold,2017-04-03,,,
17,Vanguard Short Term Inv Gr Fund,,Sold,2017-04-03,,,
18,Vanguard Short Term Inv Gr Fund,,Purchased,2017-04-03,,1001.0,15000.0
19,Vanguard Short Term Inv Gr Fund,,Purchased,2017-04-03,,1001.0,15000.0
20,Vanguard Short Term Inv Gr Fund,,Purchased,2017-04-03,,1001.0,15000.0
0,Clearbridge Aggressive Growth Fund,,Exchanged,2017-05-23,,,
1,Clearbridge Aggressive Growth Fund,,Sold,2017-05-23,,1001.0,15000.0
2,Clearbridge Aggressive Growth Fund,,Sold,2017-05-23,,1001.0,15000.0
3,Clearbridge Appreciation Fund,,Sold,2017-09-07,,1001.0,15000.0
4,Clearbridge Appreciation Fund,,Sold,2017-09-07,,1001.0,15000.0
5,Clearbridge Appreciation Fund,,Exchanged,2017-09-07,,,
