,orgname,ultorg,action,date1,transnotes,minvalue,maxvalue
8,Emerging Markets Debt Fund,,Purchased,2006-11-03,,1001,15000
7,Nuance Communications,,Sold,2008-01-03,,1001,15000
8,"Property/Drake Lane/Spring Hill, FL",,Sold,2008-01-08,,100001,250000
10,TataMotors,,Purchased,2008-01-08,,1001,15000
12,"Warrick County, IN Bond",,Purchased,2008-01-08,,1001,15000
13,Wellcare,,Purchased,2008-01-09,,1001,15000
3,Countrywide Money Market,,Sold,2008-03-18,,15001,50000
11,Vanguard Index,,Sold,2008-03-24,,1001,15000
5,iShares Japan,,Sold,2008-09-29,,1001,15000
2,Citigroup Inc,,Purchased,2008-10-02,,1001,15000
14,Wellcare,,Sold,2008-10-02,,1001,15000
0,1959 MG Collector Car,,Sold,2008-10-11,,15001,50000
1,Bank of America,,Purchased,2008-10-13,,1001,15000
6,Metlife Capital Appr Fund,,Sold,2008-10-20,,1001,15000
4,Covidien Ltd,,Sold,2008-12-30,,1001,15000
9,Putnam Voyager Fund,,Sold,2008-12-30,,1001,15000
3,Charles Schwab Bank Money Market,,Purchased,2009-01-03,,15001,50000
10,ING Direct Money Market,,Purchased,2009-01-05,,100001,250000
6,Congressional Federal Credit Union,,Purchased,2009-02-02,,1001,15000
9,Gartmore Nationwide Fund,,Purchased,2009-05-06,,1001,15000
5,CITI,,Sold,2009-06-09,,1001,15000
7,Edward Jones/Cash,,Sold,2009-09-10,,1001,15000
0,Abbott Laboratories,,Purchased,2009-10-22,,1001,15000
11,Kimberly-Clark Corp,,Purchased,2009-11-16,,1001,15000
1,BP,,Purchased,2009-11-27,,1001,15000
4,Chesapeake Energy,,Purchased,2009-11-27,,1001,15000
2,Charles Schwab Bank Money Market,,Sold,2009-12-30,,15001,50000
1,Bank of America Pfd Bond,,Purchased,2010-01-15,,1001,15000
2,Constellation Energy,,Purchased,2010-01-15,,1001,15000
4,Energy Transfer Partners,Energy Transfer Equity,Purchased,2010-01-15,,1001,15000
6,Global Natural Resources Fund,,Purchased,2010-01-15,,1001,15000
9,John Hancock Government Income Fund,,Sold,2010-01-15,,1001,15000
10,John Hancock US Global Leaders Growth Fu,,Purchased,2010-01-15,,1001,15000
14,Templeton Global Fund,,Purchased,2010-04-15,,1001,15000
7,Inergy Lp,Inergy Holdings,Purchased,2010-09-10,,1001,15000
11,Kimberly-Clark Corp,,Sold,2010-09-10,,1001,15000
13,Suburban Propane LP,,Purchased,2010-09-10,,1001,15000
8,Investment Trust High Yield Muni Bond Fd,,Purchased,2010-09-13,,1001,15000
12,Public Storage Inc,,Purchased,2010-09-13,,1001,15000
0,Abbott Laboratories,,Sold,2010-11-12,,1001,15000
5,Ford Convertible Bond,,Purchased,2010-11-12,,1001,15000
3,Cortez Bank,,Sold,2010-12-16,,70,70
