,orgname,ultorg,action,date1,transnotes,minvalue,maxvalue
15,AT&T Inc,,Purchased,2012-01-10,,1001.0,15000.0
20,Cambiar Opportunity Fund,,Sold,2012-01-10,,1001.0,15000.0
33,Credit Suisse Commodity Return Fund,,Purchased,2012-01-10,,1001.0,15000.0
3,Altegris Managed Futures Strategy Fund,,Purchased,2012-01-12,,1001.0,15000.0
8,Altria Group,,Purchased,2012-01-12,,1001.0,15000.0
9,Analog Devices Inc,,Purchased,2012-01-12,,1001.0,15000.0
13,Apache Corp,,Purchased,2012-01-12,,1001.0,15000.0
27,Cisco Systems,,Purchased,2012-01-12,,1001.0,15000.0
40,Eaton Vance Global Macro Return Fund,,Purchased,2012-01-12,,15001.0,50000.0
45,Exxon Mobil,,Purchased,2012-01-12,,1001.0,15000.0
47,First Eagle Overseas Fund,,Sold,2012-01-12,,1001.0,15000.0
48,Gateway Fund,,Purchased,2012-01-12,,1001.0,15000.0
64,Intel Corp,,Purchased,2012-01-12,,1001.0,15000.0
81,JPMorgan Strategic Income Opport Fund,,Purchased,2012-01-12,,1001.0,15000.0
76,Johnson & Johnson,,Purchased,2012-01-12,,1001.0,15000.0
90,Merck & Co,,Purchased,2012-01-12,,1001.0,15000.0
96,Microsoft Corp,,Purchased,2012-01-12,,1001.0,15000.0
109,Oracle Corp,,Sold,2012-01-12,,1001.0,15000.0
112,Pimco All Asset All Authority Fund,,Purchased,2012-01-12,,1001.0,15000.0
115,Pioneer Oak Ridge Small Cap Growth Fund,,Sold,2012-01-12,,1001.0,15000.0
129,SPDR S&P 500 ETF Trust,,Sold,2012-01-12,,1001.0,15000.0
130,SPDR S&P Dividend ETF,,Sold,2012-01-12,,1001.0,15000.0
133,Technology Sector SPDR Trust,,Sold,2012-01-12,,1001.0,15000.0
134,Teva Pharmaceuticals,,Purchased,2012-01-12,,1001.0,15000.0
146,US Bancorp,,Sold,2012-01-12,,1001.0,15000.0
149,Vanguard Sector Index Fund Financials,,Sold,2012-01-12,,1001.0,15000.0
150,Virtus Multi Sector Short Term Bond Fund,,Purchased,2012-01-12,,1001.0,15000.0
159,WFEVG Emerging Markets Equity Fund,,Sold,2012-01-12,,1001.0,15000.0
155,Wells Fargo Advantage Endeavor Select,,Sold,2012-01-12,,15001.0,50000.0
71,iShares Russell 1000 Growth Index,,Sold,2012-01-12,,1001.0,15000.0
0,3M Co. (MMM),,Purchased,2012-01-25,,1001.0,15000.0
122,Royce Value Trust,,Purchased,2012-01-25,,1001.0,15000.0
4,Altegris Managed Futures Strategy Fund,,Sold,2012-02-06,,1001.0,15000.0
5,Altegris Managed Futures Strategy Fund,,Sold,2012-02-08,,1001.0,15000.0
34,Credit Suisse Commodity Return Fund,,Sold,2012-02-08,,1001.0,15000.0
110,Pimco All Asset All Authority Fund,,Sold,2012-02-08,,1001.0,15000.0
67,iPath S&P 500 VIX,,Purchased,2012-02-08,,1001.0,15000.0
70,iPath S&P 500 VIX,,Sold,2012-02-08,,1001.0,15000.0
68,iPath S&P 500 VIX,,Purchased,2012-02-10,,1001.0,15000.0
78,Johnson & Johnson,,Purchased,2012-02-14,,1001.0,15000.0
41,Eaton Vance Tax Managed Diversified Fund,,Sold,2012-02-27,,1001.0,15000.0
89,McDonald's Corp,,Purchased,2012-03-15,,1001.0,15000.0
136,Teva Pharmaceuticals,,Purchased,2012-03-25,,1001.0,15000.0
145,US Bancorp,,Purchased,2012-03-25,,1001.0,15000.0
38,Delaware Diversified Income Fund,,Sold,2012-03-30,,15001.0,50000.0
77,Johnson & Johnson,,Purchased,2012-04-01,,1001.0,15000.0
92,Merck & Co,,Purchased,2012-04-01,,1001.0,15000.0
137,Thermo Fisher Scientific,,Purchased,2012-04-01,,1001.0,15000.0
125,Select Sector SPDR Trust Health Care,,Purchased,2012-04-04,,15001.0,50000.0
39,Eaton Vance Floating Rate Fund,,Sold,2012-04-09,,1001.0,15000.0
82,JPMorgan Strategic Income Opport Fund,,Sold,2012-04-09,,15001.0,50000.0
118,Putnam Floating Rate Income Fund,,Sold,2012-04-09,,15001.0,50000.0
28,Citigroup Capital,Citigroup Inc,Sold,2012-04-10,,15001.0,50000.0
51,GE Capital Corp,General Electric,Sold,2012-04-10,,1001.0,15000.0
55,Goldman Sachs Bank UT US,,Sold,2012-04-10,,1001.0,15000.0
16,BB&T Capital Trust VII,,Purchased,2012-04-19,,1001.0,15000.0
86,Mason OH Water Line Impt,,Purchased,2012-04-19,,15001.0,50000.0
104,Ohio St,,Purchased,2012-04-25,,1001.0,15000.0
121,Richardson TX,,Purchased,2012-04-26,,1001.0,15000.0
103,Ohio St,,Purchased,2012-04-27,,1001.0,15000.0
36,"Dayton, Ohio City Schools",,Purchased,2012-05-08,,15001.0,50000.0
83,"Kenton County, Kentucky",,Purchased,2012-05-08,,1001.0,15000.0
102,Ohio Higher Education Facilities Bond,,Purchased,2012-05-09,,1001.0,15000.0
58,Hamilton County OH,,Purchased,2012-05-23,,1001.0,15000.0
62,Harrison OH Wastewater,,Purchased,2012-05-29,,1001.0,15000.0
108,Ohio State University Gen Receipts Bond,,Purchased,2012-05-29,,1001.0,15000.0
99,"North Union, OH",,Purchased,2012-06-01,,15001.0,50000.0
24,"Cincinnati, OH Water Sys Bond",,Purchased,2012-06-21,,15001.0,50000.0
57,Hamilton County Health,,Purchased,2012-06-26,,1001.0,15000.0
54,General Electric Capital Corp,,Purchased,2012-07-10,,15001.0,50000.0
19,Calamos Convertible & Hi Income Fund,,Purchased,2012-07-11,,1001.0,15000.0
73,iShares US Preferred Stock ETF,,Purchased,2012-07-11,,1001.0,15000.0
160,WFEVG Emerging Markets Equity Fund,,Purchased,2012-07-14,,1001.0,15000.0
31,Comcast Corp,,Purchased,2012-07-16,,1001.0,15000.0
128,SPDR S&P 500 ETF Trust,,Sold,2012-07-16,,1001.0,15000.0
147,US Bancorp,,Purchased,2012-07-16,,1001.0,15000.0
72,iShares S&P 100 ETF,,Purchased,2012-07-16,,1001.0,15000.0
17,BB&T Capital Trust VII,,Sold,2012-07-18,,1001.0,15000.0
65,Intel Corp,,Purchased,2012-08-31,,1001.0,15000.0
80,JPMorgan Strategic Income Opport Fund,,Sold,2012-09-14,,1001.0,15000.0
111,Pimco All Asset All Authority Fund,,Sold,2012-09-14,,1001.0,15000.0
116,Pioneer Oak Ridge Small Cap Growth Fund,,Purchased,2012-09-14,,1001.0,15000.0
132,SPDR S&P Mid Cap 400 ETF,,Purchased,2012-09-14,,15001.0,50000.0
151,Vornado Realty Trust,,Purchased,2012-09-18,,1001.0,15000.0
49,Gateway Fund,,Purchased,2012-09-19,,1001.0,15000.0
69,iPath S&P 500 VIX,,Sold,2012-09-19,,1001.0,15000.0
75,Johnson & Johnson,,Sold,2012-10-04,,1001.0,15000.0
94,MetLife Inc,,Purchased,2012-10-04,,1001.0,15000.0
6,Altegris Managed Futures Strategy Fund,,Sold,2012-10-12,,1001.0,15000.0
114,Pioneer Oak Ridge Small Cap Growth Fund,,Purchased,2012-10-16,,1001.0,15000.0
131,SPDR S&P Mid Cap 400 ETF,,Purchased,2012-10-16,,1001.0,15000.0
2,Akron Ohio Special Assessment FSA,,Sold,2012-12-03,,1001.0,15000.0
29,Coastal B&T of FLO FL US,,Sold,2012-12-03,,15001.0,50000.0
85,Kings Local School District Ohio Ser,,Sold,2012-12-03,,1001.0,15000.0
157,West Chester Township,,Purchased,2012-12-10,,15001.0,50000.0
93,MetLife Inc,,Purchased,2012-12-21,,1001.0,15000.0
117,Proctor & Gamble,,Sold,2012-12-21,,1001.0,15000.0
142,University of Cincinnati Bond,,Purchased,2012-12-21,,15001.0,50000.0
153,"Warren County, OH",,Purchased,2012-12-26,,15001.0,50000.0
1,3M Co. (MMM),,Sold,2012-12-27,,1001.0,15000.0
14,AT&T Inc,,Sold,2012-12-27,,1001.0,15000.0
7,Altria Group,,Sold,2012-12-27,,1001.0,15000.0
10,Analog Devices Inc,,Sold,2012-12-27,,1001.0,15000.0
11,Anheuser-Busch InBev,,Sold,2012-12-27,,1001.0,15000.0
12,Apache Corp,,Sold,2012-12-27,,1001.0,15000.0
18,Boeing Co,,Sold,2012-12-27,,1001.0,15000.0
35,CSX Corp,,Sold,2012-12-27,,1001.0,15000.0
22,Chevron Corp,,Sold,2012-12-27,,1001.0,15000.0
26,Cisco Systems,,Sold,2012-12-27,,1001.0,15000.0
30,Coca-Cola Co,,Sold,2012-12-27,,1001.0,15000.0
32,Comcast Corp,,Sold,2012-12-27,,1001.0,15000.0
42,EMC Corp,,Sold,2012-12-27,,1001.0,15000.0
43,EMC Corp,,Purchased,2012-12-27,,1001.0,15000.0
44,Exxon Mobil,,Sold,2012-12-27,,1001.0,15000.0
46,First Eagle Overseas Fund,,Sold,2012-12-27,,1001.0,15000.0
50,Gateway Fund,,Sold,2012-12-27,,1001.0,15000.0
52,General Electric,,Sold,2012-12-27,,1001.0,15000.0
63,IBM Corp,,Sold,2012-12-27,,1001.0,15000.0
66,Intel Corp,,Sold,2012-12-27,,1001.0,15000.0
79,JPMorgan Chase & Co,,Sold,2012-12-27,,1001.0,15000.0
74,Johnson & Johnson,,Sold,2012-12-27,,1001.0,15000.0
88,McDonald's Corp,,Sold,2012-12-27,,1001.0,15000.0
91,Merck & Co,,Sold,2012-12-27,,1001.0,15000.0
95,MetLife Inc,,Sold,2012-12-27,,1001.0,15000.0
97,Microsoft Corp,,Sold,2012-12-27,,1001.0,15000.0
113,Pimco All Asset All Authority Fund,,Sold,2012-12-27,,1001.0,15000.0
127,SPDR S&P 500 ETF Trust,,Purchased,2012-12-27,,100001.0,250000.0
123,Schlumberger Ltd,,Sold,2012-12-27,,1001.0,15000.0
124,Sector SPDR Trust SHS Ben Int Materials,,Sold,2012-12-27,,1001.0,15000.0
126,Select Sector SPDR Trust Health Care,,Sold,2012-12-27,,1001.0,15000.0
135,Teva Pharmaceuticals,,Sold,2012-12-27,,1001.0,15000.0
138,Thermo Fisher Scientific,,Sold,2012-12-27,,1001.0,15000.0
139,Travelers Inc,,Sold,2012-12-27,,1001.0,15000.0
144,US Bancorp,,Sold,2012-12-27,,1001.0,15000.0
140,United Technologies,,Sold,2012-12-27,,1001.0,15000.0
148,Utilities Sector SPDR Trust,,Sold,2012-12-27,,1001.0,15000.0
158,WF EVG Emerging Markets Equity Fund,,Sold,2012-12-27,,1001.0,15000.0
152,Walt Disney Co,,Sold,2012-12-27,,1001.0,15000.0
23,"Cincinnati, OH G/O Ult Var Purpose Bond",,Sold,2012-12-28,,1001.0,15000.0
25,"Cincinnati, OH Water Sys Bond",,Sold,2012-12-28,,1001.0,15000.0
37,"Dayton, Ohio City Schools",,Sold,2012-12-28,,15001.0,50000.0
53,General Electric Capital Corp,,Sold,2012-12-28,,15001.0,50000.0
56,Hamilton County Health,,Sold,2012-12-28,,15001.0,50000.0
59,Hamilton County OH,,Sold,2012-12-28,,1001.0,15000.0
60,Hamilton County Ohio Sewer System,,Sold,2012-12-28,,15001.0,50000.0
61,Harrison OH Wastewater,,Sold,2012-12-28,,1001.0,15000.0
84,"Kenton County, Kentucky",,Sold,2012-12-28,,1001.0,15000.0
87,Mason OH Water Line Impt,,Sold,2012-12-28,,1001.0,15000.0
98,"North Union, OH",,Sold,2012-12-28,,1001.0,15000.0
101,Ohio Higher Education Facilities Bond,,Sold,2012-12-28,,15001.0,50000.0
105,Ohio St,,Sold,2012-12-28,,15001.0,50000.0
106,Ohio St,,Sold,2012-12-28,,1001.0,15000.0
107,Ohio State University Gen Receipts Bond,,Sold,2012-12-28,,1001.0,15000.0
120,Richardson TX,,Sold,2012-12-28,,1001.0,15000.0
141,University of Cincinnati,,Sold,2012-12-28,,15001.0,50000.0
143,"University of Cincinnati, OH",,Sold,2012-12-28,,15001.0,50000.0
154,"Warren County, OH",,Sold,2012-12-28,,15001.0,50000.0
156,West Chester Township,,Sold,2012-12-28,,15001.0,50000.0
21,Cambiar Opportunity Fund,,Purchased,2012-12-31,,1001.0,15000.0
119,Redbank Management LLC,,Sold,2012-12-31,,1001.0,15000.0
4,Calamos Conv & High Income,,Sold,2013-01-02,,1001.0,15000.0
13,Eaton Vance Tax Manager Diversified Equity Income,,Sold,2013-01-02,,1001.0,15000.0
17,First Eagle Overseas Fund,,Sold,2013-01-02,,1001.0,15000.0
25,Gateway Fund,,Sold,2013-01-02,,1001.0,15000.0
43,Midfirst Bank OK US fixed rate CD,,Sold,2013-01-02,,50001.0,100000.0
100,Northeastern High Field MRI LLC,,Sold,2013-01-02,,1001.0,15000.0
55,PIMCO All Assets All Auth Fund,,Sold,2013-01-02,,1001.0,15000.0
63,Royce Value Trust Inc,,Sold,2013-01-02,,1001.0,15000.0
69,SPDR S&P 500 ETF,,Purchased,2013-01-02,,50001.0,100000.0
72,SPDR S&P 500 ETF,,Purchased,2013-01-02,,50001.0,100000.0
97,Vornado Realty Trust,,Sold,2013-01-02,,1001.0,15000.0
99,WF-EVG Emerging Markets Equity Fund,,Sold,2013-01-02,,1001.0,15000.0
27,iShares S&P 100 Index,,Purchased,2013-01-02,,50001.0,100000.0
29,iShares S&P 100 Index,,Purchased,2013-01-02,,15001.0,50000.0
32,iShares Trust S&P US PFD Stock Index,,Sold,2013-01-02,,1001.0,15000.0
5,Credit Suisse Commodity Return Strategy,,Purchased,2013-01-03,,1001.0,15000.0
8,Eaton Vance Global Macro Absolute Return Fund,,Purchased,2013-01-03,,1001.0,15000.0
14,First Eagle Overseas Fund,,Purchased,2013-01-03,,1001.0,15000.0
52,PIMCO All Assets All Auth Fund,,Purchased,2013-01-03,,1001.0,15000.0
59,Pioneer Oak Ridge Small Cap Growth Fund,,Purchased,2013-01-03,,1001.0,15000.0
70,SPDR S&P 500 ETF,,Purchased,2013-01-03,,15001.0,50000.0
83,SPDR S&P Dividend ETF,,Purchased,2013-01-03,,1001.0,15000.0
84,SPDR S&P MidCap 400,,Purchased,2013-01-03,,1001.0,15000.0
92,Virtus Multi Sector Short Term Bond Fund,,Purchased,2013-01-03,,1001.0,15000.0
28,iShares S&P 100 Index,,Purchased,2013-01-03,,1001.0,15000.0
31,iShares Trust Russell 1000 Growth Index,,Purchased,2013-01-03,,1001.0,15000.0
33,Ivy Municipal High Income,,Purchased,2013-01-08,,15001.0,50000.0
68,SPDR Nuveen Barclays Short Term ND,,Purchased,2013-01-08,,100001.0,250000.0
89,Thornburg Limited Term Municipal Fund,,Purchased,2013-01-08,,100001.0,250000.0
30,iShares S&P National AMT-Free Muni Bond Fund,,Purchased,2013-01-08,,50001.0,100000.0
0,Altegris Managed Futures Strategy Fund,,Sold,2013-01-22,,1001.0,15000.0
1,Altegris Managed Futures Strategy Fund,,Sold,2013-01-22,,1001.0,15000.0
39,Manning & Napier Fd Inc World Opportunities,,Purchased,2013-01-22,,15001.0,50000.0
41,Manning & Napier Fd Inc World Opportunities,,Purchased,2013-01-22,,1001.0,15000.0
64,Schroder Emerging Market Equity Fund,,Purchased,2013-01-22,,15001.0,50000.0
65,Schroder Emerging Market Equity Fund,,Purchased,2013-01-22,,15001.0,50000.0
15,First Eagle Overseas Fund,,Sold,2013-01-24,,1001.0,15000.0
18,First Eagle Overseas Fund,,Sold,2013-01-24,,1001.0,15000.0
71,SPDR S&P 500 ETF,,Purchased,2013-01-24,,15001.0,50000.0
73,SPDR S&P 500 ETF,,Purchased,2013-01-24,,1001.0,15000.0
90,Thornburg Limited Term Municipal Fund,,Purchased,2013-01-24,,1001.0,15000.0
98,WF-EVG Emerging Markets Equity Fund,,Sold,2013-01-24,,15001.0,50000.0
100,WF-EVG Emerging Markets Equity Fund,,Sold,2013-01-24,,15001.0,50000.0
34,Lenox Wealth Management Inc,,Purchased,2013-02-12,,1001.0,15000.0
81,SPDR S&P 500 ETF,,Sold,2013-02-14,,1001.0,15000.0
85,TCW Emerging Markets Income Fund,,Purchased,2013-02-22,,1001.0,15000.0
87,TCW Emerging Markets Income Fund,,Purchased,2013-02-22,,1001.0,15000.0
93,Virtus Multi Sector Short Term Bond Fund,,Sold,2013-02-26,,1001.0,15000.0
95,Virtus Multi Sector Short Term Bond Fund,,Sold,2013-02-26,,1001.0,15000.0
79,SPDR S&P 500 ETF,,Purchased,2013-04-12,,1001.0,15000.0
80,SPDR S&P 500 ETF,,Sold,2013-04-12,,1001.0,15000.0
6,Credit Suisse Commodity Return Strategy,,Sold,2013-04-23,,15001.0,50000.0
7,Credit Suisse Commodity Return Strategy,,Sold,2013-04-23,,1001.0,15000.0
9,Eaton Vance Global Macro Absolute Return Fund,,Purchased,2013-04-23,,1001.0,15000.0
11,Eaton Vance Global Macro Absolute Return Fund,,Purchased,2013-04-23,,1001.0,15000.0
53,PIMCO All Assets All Auth Fund,,Purchased,2013-04-23,,1001.0,15000.0
56,PIMCO All Assets All Auth Fund,,Purchased,2013-04-23,,1001.0,15000.0
40,Manning & Napier Fd Inc World Opportunities,,Purchased,2013-05-08,,1001.0,15000.0
42,Manning & Napier Fd Inc World Opportunities,,Purchased,2013-05-08,,1001.0,15000.0
16,First Eagle Overseas Fund,,Sold,2013-05-10,,1001.0,15000.0
19,First Eagle Overseas Fund,,Sold,2013-05-10,,1001.0,15000.0
77,SPDR S&P 500 ETF,,Purchased,2013-05-22,,1001.0,15000.0
78,SPDR S&P 500 ETF,,Sold,2013-05-22,,1001.0,15000.0
20,Franklin Strategic Income Fund,,Sold,2013-06-17,,1001.0,15000.0
22,Franklin Strategic Income Fund,,Sold,2013-06-17,,1001.0,15000.0
35,Main Stay Large Cap Growth,,Purchased,2013-06-17,,15001.0,50000.0
37,Main Stay Large Cap Growth,,Purchased,2013-06-17,,15001.0,50000.0
48,Oppenheimer Developing Markets Fund,,Purchased,2013-06-17,,1001.0,15000.0
50,Oppenheimer Developing Markets Fund,,Purchased,2013-06-17,,1001.0,15000.0
58,PIMCO Total Return Fund,,Sold,2013-06-17,,15001.0,50000.0
60,Prudential Jennison Natural Resources Fund,,Purchased,2013-06-17,,1001.0,15000.0
91,Thornburg Limited Term Municipal Fund,,Sold,2013-06-17,,15001.0,50000.0
76,SPDR S&P 500 ETF,,Purchased,2013-06-21,,1001.0,15000.0
75,SPDR S&P 500 ETF,,Sold,2013-07-05,,1001.0,15000.0
66,Scout Mid Cap Fund,,Purchased,2013-07-08,,1001.0,15000.0
67,Scout Mid Cap Fund,,Purchased,2013-07-08,,1001.0,15000.0
86,TCW Emerging Markets Income Fund,,Sold,2013-07-08,,1001.0,15000.0
88,TCW Emerging Markets Income Fund,,Sold,2013-07-08,,1001.0,15000.0
74,SPDR S&P 500 ETF,,Purchased,2013-07-29,,1001.0,15000.0
82,SPDR S&P Dividend ETF,,Sold,2013-08-01,,1001.0,15000.0
62,RMA Money Market,,Purchased,2013-08-20,,1001.0,15000.0
44,Neuberger Berman Long Short Fund,,Purchased,2013-09-26,,15001.0,50000.0
46,Neuberger Berman Long Short Fund,,Purchased,2013-09-26,,1001.0,15000.0
54,PIMCO All Assets All Auth Fund,,Sold,2013-09-26,,1001.0,15000.0
57,PIMCO All Assets All Auth Fund,,Sold,2013-09-26,,1001.0,15000.0
94,Virtus Multi Sector Short Term Bond Fund,,Sold,2013-09-26,,1001.0,15000.0
96,Virtus Multi Sector Short Term Bond Fund,,Sold,2013-09-26,,1001.0,15000.0
2,Blackrock Equity Dividend Fund,,Purchased,2013-12-16,,50001.0,100000.0
3,Blackrock Equity Dividend Fund,,Purchased,2013-12-16,,50001.0,100000.0
21,Franklin Strategic Income Fund,,Sold,2013-12-16,,1001.0,15000.0
23,Franklin Strategic Income Fund,,Sold,2013-12-16,,1001.0,15000.0
36,Main Stay Large Cap Growth,,Sold,2013-12-16,,15001.0,50000.0
38,Main Stay Large Cap Growth,,Sold,2013-12-16,,15001.0,50000.0
49,Oppenheimer Developing Markets Fund,,Sold,2013-12-16,,1001.0,15000.0
51,Oppenheimer Developing Markets Fund,,Sold,2013-12-16,,1001.0,15000.0
61,Prudential Jennison Natural Resources Fund,,Sold,2013-12-16,,1001.0,15000.0
10,Eaton Vance Global Macro Absolute Return Fund,,Sold,2013-12-27,,15001.0,50000.0
12,Eaton Vance Global Macro Absolute Return Fund,,Sold,2013-12-27,,15001.0,50000.0
24,Gateway Fund,,Purchased,2013-12-27,,1001.0,15000.0
26,Gateway Fund,,Purchased,2013-12-27,,1001.0,15000.0
45,Neuberger Berman Long Short Fund,,Purchased,2013-12-27,,15001.0,50000.0
47,Neuberger Berman Long Short Fund,,Purchased,2013-12-27,,1001.0,15000.0
84,SPDR S&P MidCap 400,,Sold,2014-01-07,,1001.0,15000.0
85,SPDR S&P MidCap 400,,Sold,2014-01-07,,1001.0,15000.0
20,Henderson European Focus Fund,,Purchased,2014-01-10,,1001.0,15000.0
21,Henderson European Focus Fund,,Purchased,2014-01-10,,1001.0,15000.0
7,Cambiar Opportunity Fund,,Sold,2014-01-16,,1001.0,15000.0
72,Schroder Emerging Market Equity Fund,,Purchased,2014-01-16,,1001.0,15000.0
22,Henderson European Focus Fund,,Purchased,2014-01-21,,1001.0,15000.0
41,Neuberger Berman Long Term Short Fund,,Purchased,2014-01-21,,1001.0,15000.0
59,Pioneer Oak Ridge Small Cap Growth Fund,,Sold,2014-01-21,,1001.0,15000.0
82,SPDR S&P 500 ETF,,Sold,2014-01-21,,50001.0,100000.0
92,Vanguard Russell Value,,Purchased,2014-01-21,,50001.0,100000.0
94,WisdomTree Japan Hedged Equity Fund,,Purchased,2014-01-21,,1001.0,15000.0
29,iShares Russell 1000 Growth Index,,Purchased,2014-01-21,,15001.0,50000.0
30,iShares S&P 100 ETF,,Sold,2014-01-21,,50001.0,100000.0
11,Eaton Vance Floating Rate Fund,,Purchased,2014-01-30,,1001.0,15000.0
16,Gateway Fund,,Purchased,2014-01-30,,1001.0,15000.0
32,Ivy Municipal High Income,,Purchased,2014-01-30,,1001.0,15000.0
43,Neuberger Berman Long Term Short Fund,,Purchased,2014-01-30,,1001.0,15000.0
68,RS Floating Rate Fund,,Purchased,2014-01-30,,1001.0,15000.0
76,SPDR Nuveen Barclays Short Term Bond,,Purchased,2014-01-30,,1001.0,15000.0
93,Vanguard Russell Value,,Purchased,2014-01-30,,1001.0,15000.0
26,iShares Russell 1000 Growth Index,,Purchased,2014-01-30,,1001.0,15000.0
83,SPDR S&P 500 ETF,,Purchased,2014-01-31,,1001.0,15000.0
52,Pimco All Asset All Authority Fund,,Sold,2014-02-06,,15001.0,50000.0
50,Pimco All Asset All Authority Fund,,Purchased,2014-02-07,,15001.0,50000.0
6,Cambiar Opportunity Fund,,Purchased,2014-02-19,,1001.0,15000.0
39,Manning & Napier World Opportunities,,Purchased,2014-02-19,,1001.0,15000.0
65,Royce Total Return Fund,,Purchased,2014-02-19,,1001.0,15000.0
71,Schroder Emerging Market Equity Fund,,Purchased,2014-02-19,,1001.0,15000.0
9,Eaton Vance Floating Rate Fund,,Purchased,2014-02-21,,1001.0,15000.0
13,First Eagle Overseas Fund,,Purchased,2014-02-21,,1001.0,15000.0
15,Gateway Fund,,Purchased,2014-02-21,,1001.0,15000.0
18,Gateway Fund,,Purchased,2014-02-21,,1001.0,15000.0
31,Ivy Municipal High Income,,Purchased,2014-02-21,,1001.0,15000.0
42,Neuberger Berman Long Term Short Fund,,Purchased,2014-02-21,,1001.0,15000.0
44,Neuberger Berman Long Term Short Fund,,Purchased,2014-02-21,,1001.0,15000.0
51,Pimco All Asset All Authority Fund,,Purchased,2014-02-21,,1001.0,15000.0
55,Pimco All Asset All Authority Fund,,Purchased,2014-02-21,,1001.0,15000.0
62,Pioneer Oak Ridge Small Cap Growth Fund,,Purchased,2014-02-21,,1001.0,15000.0
67,RS Floating Rate Fund,,Purchased,2014-02-21,,1001.0,15000.0
74,SPDR Nuveen Barclays Short Term Bond,,Purchased,2014-02-21,,15001.0,50000.0
78,SPDR S&P 500 Dividend,,Purchased,2014-02-21,,1001.0,15000.0
81,SPDR S&P 500 ETF,,Purchased,2014-02-21,,1001.0,15000.0
88,Thornburg Limited Term Municipal Fund,,Purchased,2014-02-21,,15001.0,50000.0
91,Vanguard Russell Value,,Purchased,2014-02-21,,1001.0,15000.0
24,iShares National Amt Free Muni Bond ETF,,Purchased,2014-02-21,,15001.0,50000.0
28,iShares Russell 1000 Growth Index,,Purchased,2014-02-21,,1001.0,15000.0
0,American Beacon Large Cap Value Fund,,Purchased,2014-02-28,,1001.0,15000.0
1,American Century Growth Fund Institutional Class,,Purchased,2014-02-28,,1001.0,15000.0
2,American Funds Investment Co of America,,Purchased,2014-02-28,,1001.0,15000.0
45,New Perspective Fund (ANWPX),,Purchased,2014-02-28,,1001.0,15000.0
58,Pimco Total Return Fund,,Purchased,2014-02-28,,1001.0,15000.0
63,Royce Premier (RPFFX),,Purchased,2014-02-28,,1001.0,15000.0
5,Cambiar Opportunity Fund,,Purchased,2014-03-20,,1001.0,15000.0
38,Manning & Napier World Opportunities,,Purchased,2014-03-20,,1001.0,15000.0
70,Schroder Emerging Market Equity Fund,,Purchased,2014-03-20,,1001.0,15000.0
10,Eaton Vance Floating Rate Fund,,Purchased,2014-03-24,,1001.0,15000.0
12,First Eagle Overseas Fund,,Purchased,2014-03-24,,1001.0,15000.0
17,Gateway Fund,,Purchased,2014-03-24,,1001.0,15000.0
40,Neuberger Berman Long Term Short Fund,,Purchased,2014-03-24,,1001.0,15000.0
54,Pimco All Asset All Authority Fund,,Purchased,2014-03-24,,1001.0,15000.0
61,Pioneer Oak Ridge Small Cap Growth Fund,,Purchased,2014-03-24,,1001.0,15000.0
75,SPDR Nuveen Barclays Short Term Bond,,Purchased,2014-03-24,,15001.0,50000.0
77,SPDR S&P 500 Dividend,,Purchased,2014-03-24,,1001.0,15000.0
80,SPDR S&P 500 ETF,,Purchased,2014-03-24,,1001.0,15000.0
87,Technology Sector SPDR Trust,,Purchased,2014-03-24,,1001.0,15000.0
89,Thornburg Limited Term Municipal Fund,,Purchased,2014-03-24,,15001.0,50000.0
90,Vanguard Russell Value,,Purchased,2014-03-24,,1001.0,15000.0
25,iShares National Amt Free Muni Bond ETF,,Purchased,2014-03-24,,1001.0,15000.0
27,iShares Russell 1000 Growth Index,,Purchased,2014-03-24,,1001.0,15000.0
4,Cambiar Opportunity Fund,,Sold,2014-04-30,,1001.0,15000.0
19,Henderson European Focus Fund,,Purchased,2014-05-02,,1001.0,15000.0
79,SPDR S&P 500 ETF,,Sold,2014-05-02,,1001.0,15000.0
14,Five Mile Properties LLC,,Sold,2014-07-11,,15001.0,50000.0
57,Pimco Total Return Fund,,Purchased,2014-08-31,,1001.0,15000.0
34,Lenox Wealth Management,,Sold,2014-09-09,,15001.0,50000.0
60,Pioneer Oak Ridge Small Cap Growth Fund,,Exchanged,2014-10-21,,15001.0,50000.0
56,Pimco Total Return Fund,,Purchased,2014-11-30,,1001.0,15000.0
33,Lenox 401(k) BlackRock Equity Dividend Fund - R,,Purchased,2014-12-12,,1001.0,15000.0
35,Manning & Napier World Opportunities,,Purchased,2014-12-16,,1001.0,15000.0
37,Manning & Napier World Opportunities,,Purchased,2014-12-16,,1001.0,15000.0
46,Oak Ridge Small Cap Growth Fund,,Purchased,2014-12-16,,1001.0,15000.0
47,Oak Ridge Small Cap Growth Fund,,Purchased,2014-12-16,,1001.0,15000.0
3,Cambiar Opportunity Fund,,Sold,2014-12-17,,15001.0,50000.0
64,Royce Total Return Fund,,Purchased,2014-12-18,,1001.0,15000.0
66,Royce Total Return Fund,,Purchased,2014-12-18,,1001.0,15000.0
86,Technology Sector SPDR Trust,,Sold,2014-12-19,,15001.0,50000.0
73,Scout Mid Cap Fund,,Purchased,2014-12-22,,1001.0,15000.0
48,OCOC Imaging LLC,,Sold,2014-12-23,,15001.0,50000.0
49,Pimco All Asset All Authority Fund,,Sold,2014-12-24,,15001.0,50000.0
23,IShares Morningstar Multi-Asset Income Index,,Purchased,2014-12-29,,15001.0,50000.0
8,Eaton Vance Floating Rate Fund,,Sold,2014-12-30,,15001.0,50000.0
36,Manning & Napier World Opportunities,,Sold,2014-12-30,,15001.0,50000.0
69,Schroder Emerging Market Equity Fund,,Sold,2014-12-30,,15001.0,50000.0
53,Pimco All Asset All Authority Fund,,Sold,2014-12-31,,1001.0,15000.0
75,Hartford Schroders Emerging Markets Equity Fund,,Purchased,2017-01-04,,1001.0,15000.0
76,Hartford Schroders Emerging Markets Equity Fund,,Purchased,2017-01-04,,1001.0,15000.0
77,Hartford Schroders Emerging Markets Equity Fund,,Sold,2017-01-04,,,
78,Hartford Schroders Emerging Markets Equity Fund,,Sold,2017-01-04,,,
79,Hartford Schroders Emerging Markets Equity Fund,,Purchased,2017-01-04,,1001.0,15000.0
80,Hartford Schroders Emerging Markets Equity Fund,,Purchased,2017-01-04,,1001.0,15000.0
81,Henderson European Focus Fund,,Sold,2017-01-04,,1001.0,15000.0
83,Henderson European Focus Fund,,Sold,2017-01-04,,1001.0,15000.0
85,Henderson European Focus Fund,,Sold,2017-01-04,,1001.0,15000.0
87,Henderson European Focus Fund,,Sold,2017-01-04,,1001.0,15000.0
0,361 Managed Futures Strategy Fund,,Sold,2017-01-27,,,
2,361 Managed Futures Strategy Fund,,Purchased,2017-01-27,,1001.0,15000.0
4,361 Managed Futures Strategy Fund,,Purchased,2017-01-27,,1001.0,15000.0
9,AllianzGI NFJ International Value Fund,,Purchased,2017-01-27,,1001.0,15000.0
21,AllianzGI NFJ International Value Fund,,Purchased,2017-01-27,,1001.0,15000.0
29,AllianzGI NFJ International Value Fund,,Sold,2017-01-27,,,
54,Gateway Fund,,Sold,2017-01-27,,15001.0,50000.0
62,Gateway Fund,,Sold,2017-01-27,,15001.0,50000.0
66,Harding Loevner International Equity Fund,,Purchased,2017-01-27,,1001.0,15000.0
69,Harding Loevner International Equity Fund,,Sold,2017-01-27,,,
72,Harding Loevner International Equity Fund,,Purchased,2017-01-27,,1001.0,15000.0
84,Henderson European Focus Fund,,Sold,2017-01-27,,1001.0,15000.0
88,Henderson European Focus Fund,,Sold,2017-01-27,,1001.0,15000.0
111,Metropolitan West Total Return Bond Fund,,Purchased,2017-01-27,,1001.0,15000.0
112,Metropolitan West Total Return Bond Fund,,Sold,2017-01-27,,,
113,Metropolitan West Total Return Bond Fund,,Purchased,2017-01-27,,1001.0,15000.0
127,Oak Ridge Small Cap Growth Fund,,Sold,2017-01-27,,1001.0,15000.0
129,Oak Ridge Small Cap Growth Fund,,Sold,2017-01-27,,1001.0,15000.0
138,Pimco Short Term Fund,,Sold,2017-01-27,,1001.0,15000.0
139,Pimco Short Term Fund,,Sold,2017-01-27,,1001.0,15000.0
151,SPDR S&P 500 ETF,,Sold,2017-01-27,,1001.0,15000.0
155,SPDR S&P 500 ETF,,Sold,2017-01-27,,1001.0,15000.0
158,Technology Sector SPDR Trust,,Sold,2017-01-27,,1001.0,15000.0
159,Technology Sector SPDR Trust,,Sold,2017-01-27,,1001.0,15000.0
160,Technology Sector SPDR Trust,,Exchanged,2017-01-27,,,
114,mFS Total Return Bond Fund,,Purchased,2017-01-27,,1001.0,15000.0
115,mFS Total Return Bond Fund,,Sold,2017-01-27,,,
116,mFS Total Return Bond Fund,,Purchased,2017-01-27,,1001.0,15000.0
1,361 managed Futures Strategy Fund,,Sold,2017-01-30,,,
3,361 managed Futures Strategy Fund,,Purchased,2017-01-30,,15001.0,50000.0
5,361 managed Futures Strategy Fund,,Purchased,2017-01-30,,15001.0,50000.0
12,AllianzGI NFJ International Value Fund,,Purchased,2017-01-30,,1001.0,15000.0
16,AllianzGI NFJ International Value Fund,,Purchased,2017-01-30,,1001.0,15000.0
24,AllianzGI NFJ International Value Fund,,Sold,2017-01-30,,,
45,First Eagle Overseas Fund,,Sold,2017-01-30,,,
47,First Eagle Overseas Fund,,Purchased,2017-01-30,,1001.0,15000.0
49,First Eagle Overseas Fund,,Purchased,2017-01-30,,1001.0,15000.0
52,Gateway Fund,,Sold,2017-01-30,,1001.0,15000.0
57,Gateway Fund,,Sold,2017-01-30,,1001.0,15000.0
67,Harding Loevner International Equity Fund,,Purchased,2017-01-30,,1001.0,15000.0
70,Harding Loevner International Equity Fund,,Sold,2017-01-30,,,
73,Harding Loevner International Equity Fund,,Purchased,2017-01-30,,1001.0,15000.0
82,Henderson European Focus Fund,,Sold,2017-01-30,,1001.0,15000.0
86,Henderson European Focus Fund,,Sold,2017-01-30,,1001.0,15000.0
89,IShares IBonds Dec 2018 Term Corporate ETF,,Purchased,2017-01-31,,1001.0,15000.0
90,IShares IBonds Dec 2018 Term Corporate ETF,,Sold,2017-01-31,,,
91,IShares IBonds Dec 2018 Term Corporate ETF,,Purchased,2017-01-31,,1001.0,15000.0
92,IShares Russell 2000 Growth ETF,,Purchased,2017-01-31,,1001.0,15000.0
95,IShares Russell 2000 Growth ETF,,Sold,2017-01-31,,,
98,IShares Russell 2000 Growth ETF,,Purchased,2017-01-31,,1001.0,15000.0
101,iShares S&P 500 Value Index,,Purchased,2017-02-22,,1001.0,15000.0
102,iShares S&P 500 Value Index,,Purchased,2017-02-22,,1001.0,15000.0
103,iShares S&P 500 Value Index,,Sold,2017-02-22,,,
34,Delaware Small Cap Core Fund,,Purchased,2017-03-17,,15001.0,50000.0
35,Delaware Small Cap Core Fund,,Purchased,2017-03-17,,50001.0,100000.0
37,Delaware Small Cap Core Fund,,Purchased,2017-03-17,,50001.0,100000.0
40,Delaware Small Cap Core Fund,,Purchased,2017-03-17,,15001.0,50000.0
43,Delaware Small Cap Core Fund,,Sold,2017-03-17,,,
44,Delaware Small Cap Core Fund,,Sold,2017-03-17,,,
128,Oak Ridge Small Cap Growth Fund,,Sold,2017-03-17,,50001.0,100000.0
130,Oak Ridge Small Cap Growth Fund,,Sold,2017-03-17,,50001.0,100000.0
131,Oak Ridge Small Cap Growth Fund,,Sold,2017-03-17,,15001.0,50000.0
132,Oak Ridge Small Cap Growth Fund,,Sold,2017-03-17,,15001.0,50000.0
133,Oak Ridge Small Cap Growth Fund,,Exchanged,2017-03-17,,,
134,Oak Ridge Small Cap Growth Fund,,Exchanged,2017-03-17,,,
144,Royce Total Return Fund,,Sold,2017-03-17,,15001.0,50000.0
145,Royce Total Return Fund,,Sold,2017-03-17,,15001.0,50000.0
146,Royce Total Return Fund,,Sold,2017-03-17,,15001.0,50000.0
147,Royce Total Return Fund,,Sold,2017-03-17,,15001.0,50000.0
148,Royce Total Return Fund,,Exchanged,2017-03-17,,,
149,Royce Total Return Fund,,Exchanged,2017-03-17,,,
93,IShares Russell 2000 Growth ETF,,Purchased,2017-03-21,,15001.0,50000.0
94,IShares Russell 2000 Growth ETF,,Purchased,2017-03-21,,15001.0,50000.0
96,IShares Russell 2000 Growth ETF,,Sold,2017-03-21,,,
97,IShares Russell 2000 Growth ETF,,Sold,2017-03-21,,,
99,IShares Russell 2000 Growth ETF,,Purchased,2017-03-21,,15001.0,50000.0
100,IShares Russell 2000 Growth ETF,,Purchased,2017-03-21,,15001.0,50000.0
8,AllianzGI NFJ International Value Fund,,Purchased,2017-07-11,,1001.0,15000.0
13,AllianzGI NFJ International Value Fund,,Purchased,2017-07-11,,1001.0,15000.0
17,AllianzGI NFJ International Value Fund,,Purchased,2017-07-11,,1001.0,15000.0
20,AllianzGI NFJ International Value Fund,,Purchased,2017-07-11,,1001.0,15000.0
25,AllianzGI NFJ International Value Fund,,Sold,2017-07-11,,,
28,AllianzGI NFJ International Value Fund,,Sold,2017-07-11,,,
53,Gateway Fund,,Sold,2017-07-11,,1001.0,15000.0
58,Gateway Fund,,Sold,2017-07-11,,1001.0,15000.0
63,Harding Loevner International Equity,,Purchased,2017-07-11,,1001.0,15000.0
64,Harding Loevner International Equity,,Sold,2017-07-11,,,
65,Harding Loevner International Equity,,Purchased,2017-07-11,,1001.0,15000.0
68,Harding Loevner International Equity Fund,,Purchased,2017-07-11,,1001.0,15000.0
71,Harding Loevner International Equity Fund,,Sold,2017-07-11,,,
74,Harding Loevner International Equity Fund,,Purchased,2017-07-11,,1001.0,15000.0
118,Neuberger Berman Long Short Fund,,Sold,2017-07-11,,1001.0,15000.0
120,Neuberger Berman Long Short Fund,,Sold,2017-07-11,,1001.0,15000.0
123,Neuberger Berman Long Short Fund,,Sold,2017-07-11,,1001.0,15000.0
125,Neuberger Berman Long Short Fund,,Sold,2017-07-11,,1001.0,15000.0
161,UBS Rollover IRA,,Exchanged,2017-07-11,,,
162,UBS Rollover IRA,,Sold,2017-07-11,,1001.0,15000.0
163,UBS Rollover IRA,,Sold,2017-07-11,,1001.0,15000.0
30,AQR Managed Futures Strategy Fund,,Sold,2017-07-17,,,
31,AQR Managed Futures Strategy Fund,,Purchased,2017-07-17,,1001.0,15000.0
32,AQR Managed Futures Strategy Fund,,Purchased,2017-07-17,,1001.0,15000.0
121,Neuberger Berman Long Short Fund,,Sold,2017-07-17,,1001.0,15000.0
126,Neuberger Berman Long Short Fund,,Sold,2017-07-17,,1001.0,15000.0
153,SPDR S&P 500 ETF,,Sold,2017-07-19,,1001.0,15000.0
157,SPDR S&P 500 ETF,,Sold,2017-07-19,,1001.0,15000.0
6,AllianzGI NFJ International Value Fund,,Purchased,2017-08-16,,1001.0,15000.0
10,AllianzGI NFJ International Value Fund,,Purchased,2017-08-16,,1001.0,15000.0
14,AllianzGI NFJ International Value Fund,,Purchased,2017-08-16,,1001.0,15000.0
18,AllianzGI NFJ International Value Fund,,Purchased,2017-08-16,,1001.0,15000.0
22,AllianzGI NFJ International Value Fund,,Sold,2017-08-16,,,
26,AllianzGI NFJ International Value Fund,,Sold,2017-08-16,,,
106,Janus Henderson European Focus Fund,,Sold,2017-08-16,,1001.0,15000.0
107,Janus Henderson European Focus Fund,,Sold,2017-08-16,,1001.0,15000.0
108,Janus Henderson European Focus Fund,,Sold,2017-08-16,,1001.0,15000.0
110,Janus Henderson European Focus Fund,,Sold,2017-08-16,,1001.0,15000.0
7,AllianzGI NFJ International Value Fund,,Purchased,2017-08-28,,1001.0,15000.0
11,AllianzGI NFJ International Value Fund,,Purchased,2017-08-28,,1001.0,15000.0
15,AllianzGI NFJ International Value Fund,,Purchased,2017-08-28,,1001.0,15000.0
19,AllianzGI NFJ International Value Fund,,Purchased,2017-08-28,,1001.0,15000.0
23,AllianzGI NFJ International Value Fund,,Sold,2017-08-28,,,
27,AllianzGI NFJ International Value Fund,,Sold,2017-08-28,,,
51,Gateway Fund,,Sold,2017-08-28,,1001.0,15000.0
56,Gateway Fund,,Sold,2017-08-28,,1001.0,15000.0
59,Gateway Fund,,Sold,2017-08-28,,1001.0,15000.0
61,Gateway Fund,,Sold,2017-08-28,,1001.0,15000.0
119,Neuberger Berman Long Short Fund,,Sold,2017-08-28,,1001.0,15000.0
124,Neuberger Berman Long Short Fund,,Sold,2017-08-28,,1001.0,15000.0
117,Neuberger Berman Long Short Fund,,Sold,2017-08-30,,1001.0,15000.0
122,Neuberger Berman Long Short Fund,,Sold,2017-08-30,,1001.0,15000.0
150,SPDR S&P 500 ETF,,Sold,2017-10-12,,1001.0,15000.0
152,SPDR S&P 500 ETF,,Sold,2017-10-12,,1001.0,15000.0
154,SPDR S&P 500 ETF,,Sold,2017-10-12,,1001.0,15000.0
156,SPDR S&P 500 ETF,,Sold,2017-10-12,,1001.0,15000.0
164,Wisdomtree Europe Hedged Equity Fund,,Purchased,2017-10-12,,1001.0,15000.0
165,Wisdomtree Europe Hedged Equity Fund,,Purchased,2017-10-12,,1001.0,15000.0
166,Wisdomtree Europe Hedged Equity Fund,,Sold,2017-10-12,,,
167,Wisdomtree Europe Hedged Equity Fund,,Sold,2017-10-12,,,
168,Wisdomtree Europe Hedged Equity Fund,,Purchased,2017-10-12,,1001.0,15000.0
169,Wisdomtree Europe Hedged Equity Fund,,Purchased,2017-10-12,,1001.0,15000.0
141,Putnam Short Duration Income Fund,,Sold,2017-12-05,,1001.0,15000.0
143,Putnam Short Duration Income Fund,,Sold,2017-12-05,,1001.0,15000.0
46,First Eagle Overseas Fund,,Sold,2017-12-14,,,
48,First Eagle Overseas Fund,,Purchased,2017-12-14,,1001.0,15000.0
50,First Eagle Overseas Fund,,Purchased,2017-12-14,,1001.0,15000.0
104,Janus Henderson European Focus Fund,,Purchased,2017-12-20,,1001.0,15000.0
105,Janus Henderson European Focus Fund,,Sold,2017-12-20,,,
109,Janus Henderson European Focus Fund,,Purchased,2017-12-20,,1001.0,15000.0
36,Delaware Small Cap Core Fund,,Purchased,2017-12-26,,1001.0,15000.0
39,Delaware Small Cap Core Fund,,Purchased,2017-12-26,,1001.0,15000.0
42,Delaware Small Cap Core Fund,,Sold,2017-12-26,,,
33,Delaware Small Cap Core Fund,,Purchased,2017-12-28,,1001.0,15000.0
38,Delaware Small Cap Core Fund,,Purchased,2017-12-28,,1001.0,15000.0
41,Delaware Small Cap Core Fund,,Sold,2017-12-28,,,
135,Pimco All Asset All Authority Fund,,Purchased,2017-12-28,,1001.0,15000.0
136,Pimco All Asset All Authority Fund,,Sold,2017-12-28,,,
137,Pimco All Asset All Authority Fund,,Purchased,2017-12-28,,1001.0,15000.0
140,Putnam Short Duration Income Fund,,Sold,2017-12-29,,15001.0,50000.0
142,Putnam Short Duration Income Fund,,Sold,2017-12-29,,15001.0,50000.0
206,iShares S&P 500 Growth ETF,,Purchased,2018-01-08,,1001.0,15000.0
207,iShares S&P 500 Growth ETF,,Purchased,2018-01-08,,1001.0,15000.0
208,iShares S&P 500 Growth ETF,,Sold,2018-01-08,,,
209,iShares S&P 500 Growth ETF,,Sold,2018-01-08,,,
210,iShares S&P 500 Growth ETF,,Purchased,2018-01-08,,1001.0,15000.0
211,iShares S&P 500 Growth ETF,,Purchased,2018-01-08,,1001.0,15000.0
248,OAK RIDGE SMALL CAP GROWTH,,Exchanged,2018-02-01,,,
249,OAK RIDGE SMALL CAP GROWTH,,Sold,2018-02-01,,50001.0,100000.0
250,OAK RIDGE SMALL CAP GROWTH,,Sold,2018-02-01,,50001.0,100000.0
104,Hartford Schroders Emerging Markets,,Purchased,2018-02-08,,1001.0,15000.0
110,Hartford Schroders Emerging Markets,,Purchased,2018-02-08,,1001.0,15000.0
115,Hartford Schroders Emerging Markets,,Sold,2018-02-08,,,
122,iShares Core MSCI EAFE ETF,,Purchased,2018-02-08,,15001.0,50000.0
127,iShares Core MSCI EAFE ETF,,Purchased,2018-02-08,,1001.0,15000.0
130,iShares Core MSCI EAFE ETF,,Sold,2018-02-08,,,
132,iShares Core MSCI EAFE ETF,,Sold,2018-02-08,,,
139,iShares Core MSCI EAFE ETF,,Purchased,2018-02-08,,15001.0,50000.0
143,iShares Core MSCI EAFE ETF,,Purchased,2018-02-08,,1001.0,15000.0
187,iShares Russell 1000 Growth Index Fund,,Sold,2018-02-08,,15001.0,50000.0
189,iShares Russell 1000 Growth Index Fund,,Sold,2018-02-08,,15001.0,50000.0
85,Harding Loevner International Equity,,Purchased,2018-02-12,,1001.0,15000.0
86,Harding Loevner International Equity,,Purchased,2018-02-12,,1001.0,15000.0
88,Harding Loevner International Equity,,Purchased,2018-02-12,,1001.0,15000.0
89,Harding Loevner International Equity,,Purchased,2018-02-12,,1001.0,15000.0
91,Harding Loevner International Equity,,Sold,2018-02-12,,,
92,Harding Loevner International Equity,,Sold,2018-02-12,,,
103,Hartford Schroders Emerging Markets,,Purchased,2018-02-12,,1001.0,15000.0
105,Hartford Schroders Emerging Markets,,Purchased,2018-02-12,,1001.0,15000.0
109,Hartford Schroders Emerging Markets,,Purchased,2018-02-12,,1001.0,15000.0
111,Hartford Schroders Emerging Markets,,Purchased,2018-02-12,,1001.0,15000.0
112,Hartford Schroders Emerging Markets,,Sold,2018-02-12,,,
114,Hartford Schroders Emerging Markets,,Sold,2018-02-12,,,
268,SPDR S&P Dividend ETF,,Sold,2018-02-13,,15001.0,50000.0
270,SPDR S&P Dividend ETF,,Sold,2018-02-13,,15001.0,50000.0
186,iShares Russell 1000 Growth Index Fund,,Sold,2018-02-13,,15001.0,50000.0
188,iShares Russell 1000 Growth Index Fund,,Sold,2018-02-13,,15001.0,50000.0
196,IShares Russell 2000 Growth ETF,,Sold,2018-03-01,,1001.0,15000.0
197,IShares Russell 2000 Growth ETF,,Sold,2018-03-01,,1001.0,15000.0
198,IShares Russell 2000 Growth ETF,,Sold,2018-03-01,,1001.0,15000.0
200,IShares Russell 2000 Growth ETF,,Sold,2018-03-01,,1001.0,15000.0
126,iShares Core MSCI EAFE ETF,,Purchased,2018-03-01,,1001.0,15000.0
131,iShares Core MSCI EAFE ETF,,Sold,2018-03-01,,,
142,iShares Core MSCI EAFE ETF,,Purchased,2018-03-01,,1001.0,15000.0
4,361 Managed Futures Strategy Fund,,Sold,2018-03-22,,1001.0,15000.0
6,361 Managed Futures Strategy Fund,,Sold,2018-03-22,,1001.0,15000.0
10,361 Managed Futures Strategy Fund,,Sold,2018-03-22,,1001.0,15000.0
12,361 Managed Futures Strategy Fund,,Sold,2018-03-22,,1001.0,15000.0
22,ALPS / Corecommodity Management,,Sold,2018-03-22,,,
25,ALPS / Corecommodity Management,,Sold,2018-03-22,,,
46,Corecommodity Management,,Purchased,2018-03-22,,1001.0,15000.0
49,Corecommodity Management,,Purchased,2018-03-22,,1001.0,15000.0
55,Corecommodity Management,,Purchased,2018-03-22,,1001.0,15000.0
58,Corecommodity Management,,Purchased,2018-03-22,,1001.0,15000.0
233,Neuberger Berman LLC,,Sold,2018-03-22,,1001.0,15000.0
234,Neuberger Berman LLC,,Sold,2018-03-22,,1001.0,15000.0
235,Neuberger Berman Long Short Fund,,Sold,2018-03-22,,1001.0,15000.0
236,Neuberger Berman Long Short Fund,,Sold,2018-03-22,,1001.0,15000.0
128,iShares Core MSCI EAFE ETF,,Purchased,2018-03-22,,1001.0,15000.0
133,iShares Core MSCI EAFE ETF,,Sold,2018-03-22,,,
140,iShares Core MSCI EAFE ETF,,Purchased,2018-03-22,,1001.0,15000.0
178,IShares IBonds March 2018 Term Corporate ETF,,Sold,2018-04-02,,1001.0,15000.0
179,IShares IBonds March 2018 Term Corporate ETF,,Exchanged,2018-04-02,,,
180,IShares IBonds March 2018 Term Corporate ETF,,Sold,2018-04-02,,1001.0,15000.0
21,ALPS / Corecommodity Management,,Sold,2018-04-12,,,
45,Corecommodity Management,,Purchased,2018-04-12,,1001.0,15000.0
54,Corecommodity Management,,Purchased,2018-04-12,,1001.0,15000.0
94,Harding Loevner International Equity Fund,,Sold,2018-04-12,,,
95,Harding Loevner International Equity Fund,,Sold,2018-04-12,,,
96,Harding Loevner International Equity Fund,,Purchased,2018-04-12,,1001.0,15000.0
98,Harding Loevner International Equity Fund,,Purchased,2018-04-12,,1001.0,15000.0
99,Harding Loevner International Equity Fund,,Purchased,2018-04-12,,1001.0,15000.0
101,Harding Loevner International Equity Fund,,Purchased,2018-04-12,,1001.0,15000.0
212,Janus Henderson European Focus Fund,,Sold,2018-04-12,,50001.0,100000.0
213,Janus Henderson European Focus Fund,,Sold,2018-04-12,,50001.0,100000.0
214,Janus Henderson European Focus Fund,,Sold,2018-04-12,,15001.0,50000.0
215,Janus Henderson European Focus Fund,,Exchanged,2018-04-12,,,
216,Janus Henderson European Focus Fund,,Exchanged,2018-04-12,,,
217,Janus Henderson European Focus Fund,,Sold,2018-04-12,,15001.0,50000.0
293,Wisdomtree Europe Hedged Equity Fund,,Exchanged,2018-04-13,,,
294,Wisdomtree Europe Hedged Equity Fund,,Exchanged,2018-04-13,,,
295,Wisdomtree Europe Hedged Equity Fund,,Sold,2018-04-13,,1001.0,15000.0
296,Wisdomtree Europe Hedged Equity Fund,,Sold,2018-04-13,,1001.0,15000.0
297,Wisdomtree Europe Hedged Equity Fund,,Sold,2018-04-13,,1001.0,15000.0
298,Wisdomtree Europe Hedged Equity Fund,,Sold,2018-04-13,,1001.0,15000.0
123,iShares Core MSCI EAFE ETF,,Purchased,2018-04-13,,50001.0,100000.0
124,iShares Core MSCI EAFE ETF,,Purchased,2018-04-13,,15001.0,50000.0
129,iShares Core MSCI EAFE ETF,,Sold,2018-04-13,,,
134,iShares Core MSCI EAFE ETF,,Sold,2018-04-13,,,
137,iShares Core MSCI EAFE ETF,,Purchased,2018-04-13,,15001.0,50000.0
138,iShares Core MSCI EAFE ETF,,Purchased,2018-04-13,,50001.0,100000.0
27,ALPS / Corecommodity Managment,,Sold,2018-04-20,,,
50,Corecommodity Management,,Purchased,2018-04-20,,1001.0,15000.0
59,Corecommodity Management,,Purchased,2018-04-20,,1001.0,15000.0
3,361 Managed Futures Strategy Fund,,Sold,2018-04-25,,1001.0,15000.0
5,361 Managed Futures Strategy Fund,,Sold,2018-04-25,,1001.0,15000.0
9,361 Managed Futures Strategy Fund,,Sold,2018-04-25,,1001.0,15000.0
11,361 Managed Futures Strategy Fund,,Sold,2018-04-25,,1001.0,15000.0
20,ALPS / Corecommodity Management,,Sold,2018-04-25,,,
24,ALPS / Corecommodity Management,,Sold,2018-04-25,,,
44,Corecommodity Management,,Purchased,2018-04-25,,1001.0,15000.0
48,Corecommodity Management,,Purchased,2018-04-25,,1001.0,15000.0
53,Corecommodity Management,,Purchased,2018-04-25,,1001.0,15000.0
57,Corecommodity Management,,Purchased,2018-04-25,,1001.0,15000.0
23,ALPS / Corecommodity Management,,Sold,2018-05-03,,,
47,Corecommodity Management,,Purchased,2018-05-03,,1001.0,15000.0
56,Corecommodity Management,,Purchased,2018-05-03,,1001.0,15000.0
26,ALPS / Corecommodity Management,,Purchased,2018-05-04,,15001.0,50000.0
37,Corecommodity Management,,Sold,2018-05-04,,,
41,Corecommodity Management,,Purchased,2018-05-04,,15001.0,50000.0
269,SPDR S&P Dividend ETF,,Sold,2018-05-04,,1001.0,15000.0
271,SPDR S&P Dividend ETF,,Sold,2018-05-04,,1001.0,15000.0
272,SPDR S&P Dividend ETF,,Sold,2018-05-04,,1001.0,15000.0
273,SPDR S&P Dividend ETF,,Sold,2018-05-04,,1001.0,15000.0
274,SPDR S&P Dividend ETF,,Exchanged,2018-05-04,,,
185,iShares Russell 1000 Growth Index Fund,,Sold,2018-05-04,,1001.0,15000.0
191,iShares Russell 1000 Growth Index Fund,,Sold,2018-05-04,,1001.0,15000.0
261,Putnam Short Duration Income Fund,,Sold,2018-06-01,,50001.0,100000.0
263,Putnam Short Duration Income Fund,,Exchanged,2018-06-01,,,
265,Putnam Short Duration Income Fund,,Sold,2018-06-01,,50001.0,100000.0
240,Nuveen Flagship Ohio Municipal Bond,,Sold,2018-06-02,,1001.0,15000.0
241,Nuveen Flagship Ohio Municipal Bond,,Sold,2018-06-02,,1001.0,15000.0
2,361 Managed Futures Strategy Fund,,Sold,2018-10-29,,1001.0,15000.0
8,361 Managed Futures Strategy Fund,,Sold,2018-10-29,,1001.0,15000.0
29,AQR Managed Futures Strategy Fund,,Exchanged,2018-10-29,,,
31,AQR Managed Futures Strategy Fund,,Sold,2018-10-29,,1001.0,15000.0
32,AQR Managed Futures Strategy Fund,,Sold,2018-10-29,,1001.0,15000.0
0,361 Managed Futures Strategy Fund,,Exchanged,2018-11-06,,,
1,361 Managed Futures Strategy Fund,,Sold,2018-11-06,,50001.0,100000.0
7,361 Managed Futures Strategy Fund,,Sold,2018-11-06,,50001.0,100000.0
28,AQR Managed Futures Strategy Fund,,Exchanged,2018-11-06,,,
30,AQR Managed Futures Strategy Fund,,Sold,2018-11-06,,15001.0,50000.0
33,AQR Managed Futures Strategy Fund,,Sold,2018-11-06,,15001.0,50000.0
13,AllianzGI NFJ International Value Fund,,Sold,2018-11-06,,50001.0,100000.0
15,AllianzGI NFJ International Value Fund,,Sold,2018-11-06,,50001.0,100000.0
16,AllianzGI NFJ International Value Fund,,Exchanged,2018-11-06,,,
38,Corecommodity Management,,Sold,2018-11-06,,,
40,Corecommodity Management,,Purchased,2018-11-06,,50001.0,100000.0
51,Corecommodity Management,,Purchased,2018-11-06,,50001.0,100000.0
62,Delaware Small Cap Core Fund,,Sold,2018-11-06,,15001.0,50000.0
64,Delaware Small Cap Core Fund,,Sold,2018-11-06,,15001.0,50000.0
72,Eaton Vance Short Duration Government Income Fund,,Sold,2018-11-06,,,
73,Eaton Vance Short Duration Government Income Fund,,Purchased,2018-11-06,,1001.0,15000.0
74,Eaton Vance Short Duration Government Income Fund,,Purchased,2018-11-06,,1001.0,15000.0
76,First Eagle Overseas Fund,,Purchased,2018-11-06,,15001.0,50000.0
78,First Eagle Overseas Fund,,Purchased,2018-11-06,,15001.0,50000.0
80,First Eagle Overseas Fund,,Sold,2018-11-06,,,
81,Gateway Fund,,Exchanged,2018-11-06,,,
82,Gateway Fund,,Sold,2018-11-06,,15001.0,50000.0
83,Gateway Fund,,Sold,2018-11-06,,15001.0,50000.0
84,Harding Loevner International Equity,,Purchased,2018-11-06,,15001.0,50000.0
87,Harding Loevner International Equity,,Purchased,2018-11-06,,15001.0,50000.0
90,Harding Loevner International Equity,,Sold,2018-11-06,,,
106,Hartford Schroders Emerging Markets,,Sold,2018-11-06,,1001.0,15000.0
107,Hartford Schroders Emerging Markets,,Sold,2018-11-06,,1001.0,15000.0
218,JPMorgan Strategic Income Opportunities,,Purchased,2018-11-06,,1001.0,15000.0
219,JPMorgan Strategic Income Opportunities,,Sold,2018-11-06,,,
220,JPMorgan Strategic Income Opportunities,,Purchased,2018-11-06,,1001.0,15000.0
224,MFS Total Return Bond Fund,,Purchased,2018-11-06,,1001.0,15000.0
225,MFS Total Return Bond Fund,,Sold,2018-11-06,,,
226,MFS Total Return Bond Fund,,Purchased,2018-11-06,,1001.0,15000.0
228,MFS Value Fund,,Purchased,2018-11-06,,100001.0,250000.0
230,MFS Value Fund,,Sold,2018-11-06,,,
232,MFS Value Fund,,Purchased,2018-11-06,,100001.0,250000.0
221,Metropolitan West Total Return Bond Fund,,Purchased,2018-11-06,,15001.0,50000.0
222,Metropolitan West Total Return Bond Fund,,Sold,2018-11-06,,,
223,Metropolitan West Total Return Bond Fund,,Purchased,2018-11-06,,15001.0,50000.0
237,Neuberger Berman Long Short Fund,,Sold,2018-11-06,,15001.0,50000.0
238,Neuberger Berman Long Short Fund,,Sold,2018-11-06,,15001.0,50000.0
239,Neuberger Berman Long Short Fund,,Exchanged,2018-11-06,,,
243,O'Shaughnessy Market Leaders Value,,Purchased,2018-11-06,,50001.0,100000.0
244,O'Shaughnessy Market Leaders Value,,Sold,2018-11-06,,,
246,O'Shaughnessy Market Leaders Value,,Purchased,2018-11-06,,50001.0,100000.0
251,Pimco All Asset All Authority Fund,,Sold,2018-11-06,,50001.0,100000.0
252,Pimco All Asset All Authority Fund,,Sold,2018-11-06,,50001.0,100000.0
254,Pimco All Asset All Authority Fund,,Exchanged,2018-11-06,,,
257,Pimco Short Term Fund,,Purchased,2018-11-06,,1001.0,15000.0
258,Pimco Short Term Fund,,Sold,2018-11-06,,,
259,Pimco Short Term Fund,,Purchased,2018-11-06,,1001.0,15000.0
260,Putnam Short Duration Income Fund,,Purchased,2018-11-06,,15001.0,50000.0
262,Putnam Short Duration Income Fund,,Sold,2018-11-06,,,
264,Putnam Short Duration Income Fund,,Purchased,2018-11-06,,15001.0,50000.0
278,T Rowe Price Blue Chip Growth Fund,,Purchased,2018-11-06,,50001.0,100000.0
280,T Rowe Price Blue Chip Growth Fund,,Purchased,2018-11-06,,50001.0,100000.0
282,T Rowe Price Blue Chip Growth Fund,,Sold,2018-11-06,,,
290,Virtus Newfleet Multi-Sector,,Purchased,2018-11-06,,1001.0,15000.0
291,Virtus Newfleet Multi-Sector,,Purchased,2018-11-06,,1001.0,15000.0
292,Virtus Newfleet Multi-Sector,,Sold,2018-11-06,,,
34,Comm Services Select Sector,,Purchased,2018-11-07,,15001.0,50000.0
35,Comm Services Select Sector,,Purchased,2018-11-07,,15001.0,50000.0
36,Comm Services Select Sector,,Sold,2018-11-07,,,
146,IShares Core MSCI Total International Stock ETF,,Purchased,2018-11-07,,100001.0,250000.0
149,IShares Core MSCI Total International Stock ETF,,Sold,2018-11-07,,,
152,IShares Core MSCI Total International Stock ETF,,Purchased,2018-11-07,,100001.0,250000.0
166,IShares Edge MSCI USA Quality Factor ETF,,Purchased,2018-11-07,,100001.0,250000.0
167,IShares Edge MSCI USA Quality Factor ETF,,Sold,2018-11-07,,,
168,IShares Edge MSCI USA Quality Factor ETF,,Purchased,2018-11-07,,100001.0,250000.0
172,IShares IBonds Dec 2019 Term Corporate ETF,,Purchased,2018-11-07,,1001.0,15000.0
173,IShares IBonds Dec 2019 Term Corporate ETF,,Sold,2018-11-07,,,
174,IShares IBonds Dec 2019 Term Corporate ETF,,Purchased,2018-11-07,,1001.0,15000.0
175,IShares IBonds Dec 2020 Term Corporate ETF,,Purchased,2018-11-07,,1001.0,15000.0
176,IShares IBonds Dec 2020 Term Corporate ETF,,Sold,2018-11-07,,,
177,IShares IBonds Dec 2020 Term Corporate ETF,,Purchased,2018-11-07,,1001.0,15000.0
201,IShares Russell 2000 Growth ETF,,Sold,2018-11-07,,15001.0,50000.0
203,IShares Russell 2000 Growth ETF,,Exchanged,2018-11-07,,,
204,IShares Russell 2000 Growth ETF,,Sold,2018-11-07,,15001.0,50000.0
266,SPDR S&P 500 ETF,,Sold,2018-11-07,,50001.0,100000.0
267,SPDR S&P 500 ETF,,Sold,2018-11-07,,50001.0,100000.0
275,SPDR S&P MidCap 400,,Exchanged,2018-11-07,,,
276,SPDR S&P MidCap 400,,Sold,2018-11-07,,15001.0,50000.0
277,SPDR S&P MidCap 400,,Sold,2018-11-07,,15001.0,50000.0
285,Vanguard Russell 1000 Value,,Exchanged,2018-11-07,,,
287,Vanguard Russell 1000 Value,,Sold,2018-11-07,,100001.0,250000.0
288,Vanguard Russell 1000 Value,,Sold,2018-11-07,,100001.0,250000.0
125,iShares Core MSCI EAFE ETF,,Exchanged,2018-11-07,,,
135,iShares Core MSCI EAFE ETF,,Sold,2018-11-07,,100001.0,250000.0
141,iShares Core MSCI EAFE ETF,,Sold,2018-11-07,,100001.0,250000.0
154,iShares Core S&P Mid Cap ETF,,Purchased,2018-11-07,,50001.0,100000.0
155,iShares Core S&P Mid Cap ETF,,Sold,2018-11-07,,,
156,iShares Core S&P Mid Cap ETF,,Purchased,2018-11-07,,50001.0,100000.0
158,iShares Core S&P Small Cap ETF,,Purchased,2018-11-07,,15001.0,50000.0
160,iShares Core S&P Small Cap ETF,,Sold,2018-11-07,,,
161,iShares Core S&P Small Cap ETF,,Purchased,2018-11-07,,15001.0,50000.0
184,iShares Russell 1000 Growth Index Fund,,Sold,2018-11-07,,250001.0,500000.0
190,iShares Russell 1000 Growth Index Fund,,Sold,2018-11-07,,250001.0,500000.0
192,iShares Russell 1000 Growth Index Fund,,Exchanged,2018-11-07,,,
163,ishares Edge MSCI Usa Momentum Factor ETF,,Purchased,2018-11-07,,50001.0,100000.0
164,ishares Edge MSCI Usa Momentum Factor ETF,,Sold,2018-11-07,,,
165,ishares Edge MSCI Usa Momentum Factor ETF,,Purchased,2018-11-07,,50001.0,100000.0
145,IShares Core MSCI Total International Stock ETF,,Purchased,2018-12-06,,15001.0,50000.0
150,IShares Core MSCI Total International Stock ETF,,Sold,2018-12-06,,,
151,IShares Core MSCI Total International Stock ETF,,Purchased,2018-12-06,,15001.0,50000.0
136,iShares Core MSCI EAFE ETF,,Sold,2018-12-06,,15001.0,50000.0
144,iShares Core MSCI EAFE ETF,,Sold,2018-12-06,,15001.0,50000.0
19,ALPS / Corecommodity Management,,Sold,2018-12-12,,,
43,Corecommodity Management,,Purchased,2018-12-12,,1001.0,15000.0
52,Corecommodity Management,,Purchased,2018-12-12,,1001.0,15000.0
75,First Eagle Overseas Fund,,Purchased,2018-12-13,,1001.0,15000.0
77,First Eagle Overseas Fund,,Purchased,2018-12-13,,1001.0,15000.0
79,First Eagle Overseas Fund,,Sold,2018-12-13,,,
242,O'Shaughnessy Market Leaders Value,,Purchased,2018-12-13,,1001.0,15000.0
245,O'Shaughnessy Market Leaders Value,,Sold,2018-12-13,,,
247,O'Shaughnessy Market Leaders Value,,Purchased,2018-12-13,,1001.0,15000.0
279,T Rowe Price Blue Chip Growth Fund,,Purchased,2018-12-14,,1001.0,15000.0
281,T Rowe Price Blue Chip Growth Fund,,Purchased,2018-12-14,,1001.0,15000.0
283,T Rowe Price Blue Chip Growth Fund,,Sold,2018-12-14,,,
93,Harding Loevner International Equity Fund,,Sold,2018-12-19,,,
97,Harding Loevner International Equity Fund,,Purchased,2018-12-19,,1001.0,15000.0
100,Harding Loevner International Equity Fund,,Purchased,2018-12-19,,1001.0,15000.0
119,IShare Bonds December 2018,,Sold,2018-12-20,,1001.0,15000.0
120,IShare Bonds December 2018,,Exchanged,2018-12-20,,,
121,IShare Bonds December 2018,,Sold,2018-12-20,,1001.0,15000.0
169,IShares IBonds Dec 2018 Term Corporate ETF,,Sold,2018-12-20,,1001.0,15000.0
170,IShares IBonds Dec 2018 Term Corporate ETF,,Exchanged,2018-12-20,,,
171,IShares IBonds Dec 2018 Term Corporate ETF,,Sold,2018-12-20,,1001.0,15000.0
14,AllianzGI NFJ International Value Fund,,Sold,2018-12-24,,15001.0,50000.0
17,AllianzGI NFJ International Value Fund,,Exchanged,2018-12-24,,,
18,AllianzGI NFJ International Value Fund,,Sold,2018-12-24,,15001.0,50000.0
63,Delaware Small Cap Core Fund,,Purchased,2018-12-24,,1001.0,15000.0
65,Delaware Small Cap Core Fund,,Purchased,2018-12-24,,1001.0,15000.0
66,Delaware Small Cap Core Fund,,Purchased,2018-12-24,,1001.0,15000.0
67,Delaware Small Cap Core Fund,,Purchased,2018-12-24,,1001.0,15000.0
70,Delaware Small Cap Core Fund,,Sold,2018-12-24,,,
71,Delaware Small Cap Core Fund,,Sold,2018-12-24,,,
227,MFS Value Fund,,Purchased,2018-12-24,,1001.0,15000.0
229,MFS Value Fund,,Sold,2018-12-24,,,
231,MFS Value Fund,,Purchased,2018-12-24,,1001.0,15000.0
39,Corecommodity Management,,Exchanged,2018-12-26,,,
42,Corecommodity Management,,Sold,2018-12-26,,15001.0,50000.0
60,Corecommodity Management,,Sold,2018-12-26,,15001.0,50000.0
61,Delaware Small Cap Core Fund,,Sold,2018-12-26,,15001.0,50000.0
68,Delaware Small Cap Core Fund,,Sold,2018-12-26,,15001.0,50000.0
69,Delaware Small Cap Core Fund,,Exchanged,2018-12-26,,,
116,Invesco Balanced Risk Commodity,,Sold,2018-12-26,,,
117,Invesco Balanced Risk Commodity,,Purchased,2018-12-26,,15001.0,50000.0
118,Invesco Balanced Risk Commodity,,Purchased,2018-12-26,,15001.0,50000.0
102,Hartford Schroders Emerging Markets,,Purchased,2018-12-27,,1001.0,15000.0
108,Hartford Schroders Emerging Markets,,Purchased,2018-12-27,,1001.0,15000.0
113,Hartford Schroders Emerging Markets,,Sold,2018-12-27,,,
147,IShares Core MSCI Total International Stock ETF,,Sold,2018-12-27,,15001.0,50000.0
148,IShares Core MSCI Total International Stock ETF,,Exchanged,2018-12-27,,,
153,IShares Core MSCI Total International Stock ETF,,Sold,2018-12-27,,15001.0,50000.0
181,IShares MSCI ACWI Ex US ETF,,Purchased,2018-12-27,,50001.0,100000.0
182,IShares MSCI ACWI Ex US ETF,,Sold,2018-12-27,,,
183,IShares MSCI ACWI Ex US ETF,,Purchased,2018-12-27,,50001.0,100000.0
199,IShares Russell 2000 Growth ETF,,Sold,2018-12-27,,1001.0,15000.0
202,IShares Russell 2000 Growth ETF,,Exchanged,2018-12-27,,,
205,IShares Russell 2000 Growth ETF,,Sold,2018-12-27,,1001.0,15000.0
284,Vanguard Russell 1000 Value,,Exchanged,2018-12-27,,,
286,Vanguard Russell 1000 Value,,Sold,2018-12-27,,1001.0,15000.0
289,Vanguard Russell 1000 Value,,Sold,2018-12-27,,1001.0,15000.0
157,iShares Core S&P Small Cap ETF,,Purchased,2018-12-27,,15001.0,50000.0
159,iShares Core S&P Small Cap ETF,,Sold,2018-12-27,,,
162,iShares Core S&P Small Cap ETF,,Purchased,2018-12-27,,15001.0,50000.0
193,iShares Russell 1000 Value Fund,,Purchased,2018-12-27,,1001.0,15000.0
194,iShares Russell 1000 Value Fund,,Sold,2018-12-27,,,
195,iShares Russell 1000 Value Fund,,Purchased,2018-12-27,,1001.0,15000.0
253,Pimco All Asset All Authority Fund,,Purchased,2018-12-28,,1001.0,15000.0
255,Pimco All Asset All Authority Fund,,Sold,2018-12-28,,,
256,Pimco All Asset All Authority Fund,,Purchased,2018-12-28,,1001.0,15000.0
55,Gateway Fund,,Sold,,,,
60,Gateway Fund,,Sold,,,,
