,orgname,ultorg,action,date1,transnotes,minvalue,maxvalue
5,TowneBank Convertible Bond,,Sold,2010-05-23,,15001.0,50000.0
6,TowneBank Convertible Bond,,Sold,2010-05-23,,15001.0,50000.0
0,Freedom Investments LP,,Sold,2010-07-14,,500001.0,1000000.0
1,Freedom Investments LP,,Sold,2010-07-14,,500001.0,1000000.0
4,KUW LLC,,Purchased,2010-09-02,,15001.0,50000.0
2,Freedom Lincoln Mercury Inc Chesapeake,,Sold,2010-12-29,,1000001.0,5000000.0
3,Freedom Lincoln Mercury Inc Chesapeake,,Sold,2010-12-29,,1000001.0,5000000.0
0,Chandler Ariz WTR-3519 Municipal Bond,,Sold,2011-07-01,,50001.0,100000.0
2,"Murrieta Vy, CA 3519 Municipal Bond",,Sold,2011-09-01,,15001.0,50000.0
1,Legg Mason Growth Equity Fund,,Sold,2011-10-01,,1001.0,15000.0
3,NADART Large Cap Growth fund,,Sold,2011-10-01,,1001.0,15000.0
4,Neuberger Berman LC Growth,,Purchased,2011-10-01,,15001.0,50000.0
5,Vanguard Growth Index Fund,,Sold,2011-10-01,,15001.0,50000.0
1,Gabelli Small Cap Growth Fund,,Sold,2012-07-01,,15001.0,50000.0
2,Goldman Sachs Small Cap Value Fund,,Purchased,2012-07-01,,15001.0,50000.0
3,Janus Adviser Mid Cap Growth Fund,,Purchased,2012-07-01,,15001.0,50000.0
4,Janus Enterprise Fund,,Sold,2012-07-01,,15001.0,50000.0
5,Longleaf Partners Funds,,Sold,2012-07-01,,15001.0,50000.0
6,Waddell & Reed Core Equity Fund,,Purchased,2012-07-01,,15001.0,50000.0
0,Freedom Investments LP,,Sold,2012-12-27,,1000001.0,5000000.0
0,Janus Adviser Mid Cap Growth Fund,,Purchased,2013-03-31,,15001.0,50000.0
2,Mclean Va Turner Midcap Growth Fund,,Sold,2013-03-31,,15001.0,50000.0
1,Liberty Property Assoc,,Exchanged,2013-07-01,,15001.0,50000.0
3,Revmetrix Holdings,,Purchased,2014-02-15,,1001.0,15000.0
2,Nvite Inc,,Purchased,2014-04-29,,1001.0,15000.0
4,Rigell Properties LLC Commercial Real Estate Chesa,,Sold,2014-06-25,,15001.0,50000.0
0,Cavalier Golf & Yacht Club Debentures,,Purchased,2014-08-27,,1001.0,15000.0
1,Nextgen Angels LLC,,Purchased,2014-10-21,,50001.0,100000.0
154,Meritage Fund,,Exchanged,2016-01-10,,,
155,Meritage Fund,,Sold,2016-01-10,,1001.0,15000.0
156,Meritage Fund,,Sold,2016-01-10,,1001.0,15000.0
69,Exxon Mobil,,Sold,2016-01-11,,15001.0,50000.0
72,Exxon Mobil,,Exchanged,2016-01-11,,,
77,Exxon Mobil,,Sold,2016-01-11,,15001.0,50000.0
96,First Trust Cyversecurity Portfoilio,,Sold,2016-01-11,,15001.0,50000.0
97,First Trust Cyversecurity Portfoilio,,Exchanged,2016-01-11,,,
98,First Trust Cyversecurity Portfoilio,,Sold,2016-01-11,,15001.0,50000.0
254,Vanguard FTSEEuropean ETF (VGK),,Sold,2016-01-11,,1001.0,15000.0
255,Vanguard FTSEEuropean ETF (VGK),,Sold,2016-01-11,,1001.0,15000.0
256,Vanguard FTSEEuropean ETF (VGK),,Exchanged,2016-01-11,,,
9,Apple Inc,,Exchanged,2016-01-12,,,
10,Apple Inc,,Sold,2016-01-12,,15001.0,50000.0
11,Apple Inc,,Sold,2016-01-12,,15001.0,50000.0
48,Cummins Inc,,Exchanged,2016-01-12,,,
49,Cummins Inc,,Sold,2016-01-12,,1001.0,15000.0
50,Cummins Inc,,Sold,2016-01-12,,1001.0,15000.0
57,Edlogics LLC,,Purchased,2016-01-12,,100001.0,250000.0
58,Edlogics LLC,,Sold,2016-01-12,,,
59,Edlogics LLC,,Purchased,2016-01-12,,100001.0,250000.0
112,Gilead Sciences,,Sold,2016-01-12,,1001.0,15000.0
113,Gilead Sciences,,Sold,2016-01-12,,1001.0,15000.0
114,Gilead Sciences,,Exchanged,2016-01-12,,,
62,Edward Scott Rigell Revocable Trust dated June 12,,Sold,2016-01-15,,1001.0,15000.0
64,Edward Scott Rigell Revocable Trust dated June 12,,Sold,2016-01-15,,1001.0,15000.0
67,Edward Scott Rigell Revocable Trust dated June 12,,Exchanged,2016-01-15,,,
224,SPDR Gold Trust,,Sold,2016-02-19,,15001.0,50000.0
228,SPDR Gold Trust,,Exchanged,2016-02-19,,,
235,SPDR Gold Trust,,Sold,2016-02-19,,15001.0,50000.0
100,First Trust Ser FD Short Duration High Income Fund,,Sold,2016-02-25,,100001.0,250000.0
101,First Trust Ser FD Short Duration High Income Fund,,Exchanged,2016-02-25,,,
102,First Trust Ser FD Short Duration High Income Fund,,Sold,2016-02-25,,100001.0,250000.0
99,First Trust Sabrient Forward Looking Value Port Se,,Sold,2016-02-29,,15001.0,50000.0
199,R,,Exchanged,2016-02-29,,,
200,R,,Sold,2016-02-29,,15001.0,50000.0
0,AbbVie Inc,,Sold,2016-03-03,,,
1,AbbVie Inc,,Purchased,2016-03-03,,15001.0,50000.0
2,AbbVie Inc,,Purchased,2016-03-03,,15001.0,50000.0
78,Federated Money Market TR Govt Obligs Fund,,Purchased,2016-03-03,,100001.0,250000.0
79,Federated Money Market TR Govt Obligs Fund,,Sold,2016-03-03,,,
80,Federated Money Market TR Govt Obligs Fund,,Purchased,2016-03-03,,100001.0,250000.0
84,Fidelity Institute Cash Money Market Fund,,Sold,2016-03-04,,100001.0,250000.0
85,Fidelity Institute Cash Money Market Fund,,Exchanged,2016-03-04,,,
86,Fidelity Institute Cash Money Market Fund,,Sold,2016-03-04,,100001.0,250000.0
118,Goldman Sachs TR FINAL Square Money Market Fund In,,Sold,2016-03-04,,100001.0,250000.0
119,Goldman Sachs TR FINAL Square Money Market Fund In,,Sold,2016-03-04,,100001.0,250000.0
120,Goldman Sachs TR FINAL Square Money Market Fund In,,Exchanged,2016-03-04,,,
81,Federated Money Mkt TR Govt Obligs Fund,,Sold,2016-03-07,,100001.0,250000.0
82,Federated Money Mkt TR Govt Obligs Fund,,Exchanged,2016-03-07,,,
83,Federated Money Mkt TR Govt Obligs Fund,,Sold,2016-03-07,,100001.0,250000.0
3,Altria Group,,Purchased,2016-03-08,,15001.0,50000.0
5,Altria Group,,Purchased,2016-03-08,,15001.0,50000.0
7,Altria Group,,Sold,2016-03-08,,,
28,Carnival Corp,,Purchased,2016-03-08,,15001.0,50000.0
30,Carnival Corp,,Sold,2016-03-08,,,
32,Carnival Corp,,Purchased,2016-03-08,,15001.0,50000.0
33,Celgene Corp,,Purchased,2016-03-08,,15001.0,50000.0
35,Celgene Corp,,Sold,2016-03-08,,,
37,Celgene Corp,,Purchased,2016-03-08,,15001.0,50000.0
39,Chevron Corp,,Purchased,2016-03-08,,15001.0,50000.0
40,Chevron Corp,,Sold,2016-03-08,,,
41,Chevron Corp,,Purchased,2016-03-08,,15001.0,50000.0
42,Citizens Financial Group,,Purchased,2016-03-08,,15001.0,50000.0
44,Citizens Financial Group,,Sold,2016-03-08,,,
46,Citizens Financial Group,,Purchased,2016-03-08,,15001.0,50000.0
51,Dominion Energy,,Purchased,2016-03-08,,15001.0,50000.0
54,Dominion Energy,,Sold,2016-03-08,,,
56,Dominion Energy,,Purchased,2016-03-08,,15001.0,50000.0
109,General Mills,,Purchased,2016-03-08,,15001.0,50000.0
110,General Mills,,Sold,2016-03-08,,,
111,General Mills,,Purchased,2016-03-08,,15001.0,50000.0
115,GlaxoSmithKline,,Sold,2016-03-08,,,
116,GlaxoSmithKline,,Purchased,2016-03-08,,15001.0,50000.0
117,GlaxoSmithKline,,Purchased,2016-03-08,,15001.0,50000.0
121,HCP Inc,,Sold,2016-03-08,,,
122,HCP Inc,,Purchased,2016-03-08,,15001.0,50000.0
123,HCP Inc,,Purchased,2016-03-08,,15001.0,50000.0
124,JetBlue Airways Corpo,,Purchased,2016-03-08,,15001.0,50000.0
126,JetBlue Airways Corpo,,Purchased,2016-03-08,,15001.0,50000.0
128,JetBlue Airways Corpo,,Sold,2016-03-08,,,
140,Lowe's Cos,,Sold,2016-03-08,,,
142,Lowe's Cos,,Purchased,2016-03-08,,15001.0,50000.0
144,Lowe's Cos,,Purchased,2016-03-08,,15001.0,50000.0
157,Microsoft Corp,,Purchased,2016-03-08,,15001.0,50000.0
158,Microsoft Corp,,Sold,2016-03-08,,,
159,Microsoft Corp,,Purchased,2016-03-08,,15001.0,50000.0
160,Mylan NV,,Purchased,2016-03-08,,15001.0,50000.0
162,Mylan NV,,Sold,2016-03-08,,,
164,Mylan NV,,Purchased,2016-03-08,,15001.0,50000.0
173,Omega Healthcare Investors,,Purchased,2016-03-08,,15001.0,50000.0
175,Omega Healthcare Investors,,Sold,2016-03-08,,,
177,Omega Healthcare Investors,,Purchased,2016-03-08,,15001.0,50000.0
178,Pepsico Inc,,Purchased,2016-03-08,,15001.0,50000.0
180,Pepsico Inc,,Sold,2016-03-08,,,
182,Pepsico Inc,,Purchased,2016-03-08,,15001.0,50000.0
189,Procter & Gamble,,Purchased,2016-03-08,,15001.0,50000.0
192,Procter & Gamble,,Sold,2016-03-08,,,
194,Procter & Gamble,,Purchased,2016-03-08,,15001.0,50000.0
202,Reynolds American Inc (RAI),,Purchased,2016-03-08,,15001.0,50000.0
205,Reynolds American Inc (RAI),,Sold,2016-03-08,,,
207,Reynolds American Inc (RAI),,Purchased,2016-03-08,,15001.0,50000.0
215,Southern Co,,Purchased,2016-03-08,,15001.0,50000.0
218,Southern Co,,Sold,2016-03-08,,,
220,Southern Co,,Purchased,2016-03-08,,15001.0,50000.0
259,Verizon Communications,,Sold,2016-03-08,,,
262,Verizon Communications,,Purchased,2016-03-08,,15001.0,50000.0
264,Verizon Communications,,Purchased,2016-03-08,,15001.0,50000.0
223,SPDR Gold Trust,,Purchased,2016-03-09,,50001.0,100000.0
225,SPDR Gold Trust,,Purchased,2016-03-09,,100001.0,250000.0
226,SPDR Gold Trust,,Sold,2016-03-09,,,
227,SPDR Gold Trust,,Sold,2016-03-09,,,
231,SPDR Gold Trust,,Purchased,2016-03-09,,50001.0,100000.0
232,SPDR Gold Trust,,Purchased,2016-03-09,,100001.0,250000.0
43,Citizens Financial Group,,Sold,2016-03-10,,15001.0,50000.0
45,Citizens Financial Group,,Exchanged,2016-03-10,,,
47,Citizens Financial Group,,Sold,2016-03-10,,15001.0,50000.0
52,Dominion Energy,,Sold,2016-03-10,,15001.0,50000.0
53,Dominion Energy,,Exchanged,2016-03-10,,,
55,Dominion Energy,,Sold,2016-03-10,,15001.0,50000.0
71,Exxon Mobil,,Purchased,2016-03-10,,15001.0,50000.0
74,Exxon Mobil,,Sold,2016-03-10,,,
76,Exxon Mobil,,Purchased,2016-03-10,,15001.0,50000.0
172,Omega Healthcare Investors,,Sold,2016-03-10,,15001.0,50000.0
174,Omega Healthcare Investors,,Exchanged,2016-03-10,,,
176,Omega Healthcare Investors,,Sold,2016-03-10,,15001.0,50000.0
70,Exxon Mobil,,Purchased,2016-03-16,,15001.0,50000.0
73,Exxon Mobil,,Sold,2016-03-16,,,
75,Exxon Mobil,,Purchased,2016-03-16,,15001.0,50000.0
151,Merck & Co,,Purchased,2016-03-16,,15001.0,50000.0
152,Merck & Co,,Purchased,2016-03-16,,15001.0,50000.0
153,Merck & Co,,Sold,2016-03-16,,,
125,JetBlue Airways Corpo,,Sold,2016-03-22,,15001.0,50000.0
127,JetBlue Airways Corpo,,Sold,2016-03-22,,15001.0,50000.0
129,JetBlue Airways Corpo,,Exchanged,2016-03-22,,,
166,Nextgen Venture Fund I LP,,Purchased,2016-03-22,,15001.0,50000.0
167,Nextgen Venture Fund I LP,,Sold,2016-03-22,,,
168,Nextgen Venture Fund I LP,,Purchased,2016-03-22,,15001.0,50000.0
103,Ford Motor Co,,Purchased,2016-03-23,,15001.0,50000.0
106,Ford Motor Co,,Sold,2016-03-23,,,
108,Ford Motor Co,,Purchased,2016-03-23,,15001.0,50000.0
188,Procter & Gamble,,Purchased,2016-04-26,,1001.0,15000.0
191,Procter & Gamble,,Sold,2016-04-26,,,
195,Procter & Gamble,,Purchased,2016-04-26,,1001.0,15000.0
201,Reynolds American Inc (RAI),,Purchased,2016-04-26,,1001.0,15000.0
206,Reynolds American Inc (RAI),,Sold,2016-04-26,,,
208,Reynolds American Inc (RAI),,Purchased,2016-04-26,,1001.0,15000.0
258,Verizon Communications,,Sold,2016-04-26,,,
261,Verizon Communications,,Purchased,2016-04-26,,1001.0,15000.0
263,Verizon Communications,,Purchased,2016-04-26,,1001.0,15000.0
34,Celgene Corp,,Sold,2016-05-02,,15001.0,50000.0
36,Celgene Corp,,Exchanged,2016-05-02,,,
38,Celgene Corp,,Sold,2016-05-02,,15001.0,50000.0
161,Mylan NV,,Sold,2016-05-02,,15001.0,50000.0
163,Mylan NV,,Exchanged,2016-05-02,,,
165,Mylan NV,,Sold,2016-05-02,,15001.0,50000.0
221,SPDR Gold Trust,,Exchanged,2016-05-02,,,
230,SPDR Gold Trust,,Sold,2016-05-02,,50001.0,100000.0
234,SPDR Gold Trust,,Sold,2016-05-02,,50001.0,100000.0
236,VanEck Vectors Gold Miners ETF (GDX),,Purchased,2016-05-02,,15001.0,50000.0
237,VanEck Vectors Gold Miners ETF (GDX),,Purchased,2016-05-02,,1001.0,15000.0
240,VanEck Vectors Gold Miners ETF (GDX),,Sold,2016-05-02,,,
241,VanEck Vectors Gold Miners ETF (GDX),,Sold,2016-05-02,,,
242,VanEck Vectors Gold Miners ETF (GDX),,Purchased,2016-05-02,,15001.0,50000.0
244,VanEck Vectors Gold Miners ETF (GDX),,Purchased,2016-05-02,,1001.0,15000.0
245,VanEck Vectors Junior Gold Miners ETF (GDXJ),,Purchased,2016-05-02,,1001.0,15000.0
247,VanEck Vectors Junior Gold Miners ETF (GDXJ),,Purchased,2016-05-02,,15001.0,50000.0
248,VanEck Vectors Junior Gold Miners ETF (GDXJ),,Sold,2016-05-02,,,
249,VanEck Vectors Junior Gold Miners ETF (GDXJ),,Sold,2016-05-02,,,
251,VanEck Vectors Junior Gold Miners ETF (GDXJ),,Purchased,2016-05-02,,1001.0,15000.0
253,VanEck Vectors Junior Gold Miners ETF (GDXJ),,Purchased,2016-05-02,,15001.0,50000.0
210,Rigell Properties,,Purchased,2016-05-05,,500001.0,1000000.0
211,Rigell Properties,,Sold,2016-05-05,,,
214,Rigell Properties,,Purchased,2016-05-05,,500001.0,1000000.0
27,Carnival Corp,,Sold,2016-05-23,,15001.0,50000.0
29,Carnival Corp,,Exchanged,2016-05-23,,,
31,Carnival Corp,,Sold,2016-05-23,,15001.0,50000.0
104,Ford Motor Co,,Sold,2016-07-06,,15001.0,50000.0
105,Ford Motor Co,,Exchanged,2016-07-06,,,
107,Ford Motor Co,,Sold,2016-07-06,,15001.0,50000.0
148,Mainstay Funds Turst High Yield Municipal Bond Fun,,Sold,2016-07-06,,,
149,Mainstay Funds Turst High Yield Municipal Bond Fun,,Purchased,2016-07-06,,15001.0,50000.0
150,Mainstay Funds Turst High Yield Municipal Bond Fun,,Purchased,2016-07-06,,15001.0,50000.0
269,XOS Technologies,,Exchanged,2016-08-29,,,
270,XOS Technologies,,Sold,2016-08-29,,15001.0,50000.0
271,XOS Technologies,,Sold,2016-08-29,,15001.0,50000.0
60,Edward Scott Rigell Revocable Trust dated June 12,,Purchased,2016-09-01,,500001.0,1000000.0
65,Edward Scott Rigell Revocable Trust dated June 12,,Sold,2016-09-01,,,
68,Edward Scott Rigell Revocable Trust dated June 12,,Purchased,2016-09-01,,500001.0,1000000.0
212,Rigell Properties,,Sold,2016-09-07,,500001.0,1000000.0
213,Rigell Properties,,Sold,2016-09-07,,500001.0,1000000.0
216,Southern Co,,Sold,2016-09-19,,15001.0,50000.0
217,Southern Co,,Exchanged,2016-09-19,,,
219,Southern Co,,Sold,2016-09-19,,15001.0,50000.0
257,Verizon Communications,,Exchanged,2016-09-19,,,
260,Verizon Communications,,Sold,2016-09-19,,15001.0,50000.0
265,Verizon Communications,,Sold,2016-09-19,,15001.0,50000.0
12,Bo-Tide Southern Assoc,,Sold,2016-11-04,,15001.0,50000.0
13,Bo-Tide Southern Assoc,,Sold,2016-11-04,,15001.0,50000.0
14,Bo-Tide Southern Assoc,,Exchanged,2016-11-04,,,
196,Quality Care Properties,,Sold,2016-11-08,,1001.0,15000.0
197,Quality Care Properties,,Sold,2016-11-08,,1001.0,15000.0
198,Quality Care Properties,,Exchanged,2016-11-08,,,
169,Nextgen Ventures Fund I,,Purchased,2016-11-09,,15001.0,50000.0
170,Nextgen Ventures Fund I,,Sold,2016-11-09,,,
171,Nextgen Ventures Fund I,,Purchased,2016-11-09,,15001.0,50000.0
145,Mainstay Funds Trust High Yield Municipal Bond Fun,,Sold,2016-11-11,,15001.0,50000.0
146,Mainstay Funds Trust High Yield Municipal Bond Fun,,Sold,2016-11-11,,15001.0,50000.0
147,Mainstay Funds Trust High Yield Municipal Bond Fun,,Exchanged,2016-11-11,,,
61,Edward Scott Rigell Revocable Trust dated June 12,,Sold,2016-11-14,,1001.0,15000.0
63,Edward Scott Rigell Revocable Trust dated June 12,,Sold,2016-11-14,,1001.0,15000.0
66,Edward Scott Rigell Revocable Trust dated June 12,,Exchanged,2016-11-14,,,
130,Johnson & Johnson,,Sold,2016-11-21,,,
132,Johnson & Johnson,,Purchased,2016-11-21,,50001.0,100000.0
134,Johnson & Johnson,,Purchased,2016-11-21,,50001.0,100000.0
136,JPMorgan Chase & Co,,Purchased,2016-11-22,,15001.0,50000.0
137,JPMorgan Chase & Co,,Purchased,2016-11-22,,15001.0,50000.0
138,JPMorgan Chase & Co,,Sold,2016-11-22,,,
222,SPDR Gold Trust,,Exchanged,2016-11-23,,,
229,SPDR Gold Trust,,Sold,2016-11-23,,100001.0,250000.0
233,SPDR Gold Trust,,Sold,2016-11-23,,100001.0,250000.0
238,VanEck Vectors Gold Miners ETF (GDX),,Sold,2016-11-23,,15001.0,50000.0
239,VanEck Vectors Gold Miners ETF (GDX),,Exchanged,2016-11-23,,,
243,VanEck Vectors Gold Miners ETF (GDX),,Sold,2016-11-23,,15001.0,50000.0
246,VanEck Vectors Junior Gold Miners ETF (GDXJ),,Exchanged,2016-11-23,,,
250,VanEck Vectors Junior Gold Miners ETF (GDXJ),,Sold,2016-11-23,,50001.0,100000.0
252,VanEck Vectors Junior Gold Miners ETF (GDXJ),,Sold,2016-11-23,,50001.0,100000.0
15,Boeing Co,,Purchased,2016-11-30,,15001.0,50000.0
18,Boeing Co,,Sold,2016-11-30,,,
20,Boeing Co,,Purchased,2016-11-30,,15001.0,50000.0
87,Financial Select Sector SPDR Fund,,Purchased,2016-11-30,,15001.0,50000.0
90,Financial Select Sector SPDR Fund,,Sold,2016-11-30,,,
93,Financial Select Sector SPDR Fund,,Purchased,2016-11-30,,15001.0,50000.0
184,Powershares QQQ,,Purchased,2016-12-05,,15001.0,50000.0
185,Powershares QQQ,,Sold,2016-12-05,,,
186,Powershares QQQ,,Purchased,2016-12-05,,15001.0,50000.0
21,BP PLC,,Purchased,2016-12-07,,15001.0,50000.0
24,BP PLC,,Sold,2016-12-07,,,
26,BP PLC,,Purchased,2016-12-07,,15001.0,50000.0
266,Visa Inc,,Purchased,2016-12-07,,15001.0,50000.0
267,Visa Inc,,Purchased,2016-12-07,,15001.0,50000.0
268,Visa Inc,,Sold,2016-12-07,,,
16,Boeing Co,,Sold,2016-12-09,,15001.0,50000.0
17,Boeing Co,,Exchanged,2016-12-09,,,
19,Boeing Co,,Sold,2016-12-09,,15001.0,50000.0
88,Financial Select Sector SPDR Fund,,Purchased,2016-12-12,,15001.0,50000.0
91,Financial Select Sector SPDR Fund,,Sold,2016-12-12,,,
94,Financial Select Sector SPDR Fund,,Purchased,2016-12-12,,15001.0,50000.0
203,Reynolds American Inc (RAI),,Sold,2016-12-12,,15001.0,50000.0
204,Reynolds American Inc (RAI),,Exchanged,2016-12-12,,,
209,Reynolds American Inc (RAI),,Sold,2016-12-12,,15001.0,50000.0
89,Financial Select Sector SPDR Fund,,Purchased,2016-12-13,,15001.0,50000.0
92,Financial Select Sector SPDR Fund,,Sold,2016-12-13,,,
95,Financial Select Sector SPDR Fund,,Purchased,2016-12-13,,15001.0,50000.0
187,Procter & Gamble,,Purchased,2016-12-13,,15001.0,50000.0
190,Procter & Gamble,,Sold,2016-12-13,,,
193,Procter & Gamble,,Purchased,2016-12-13,,15001.0,50000.0
22,BP PLC,,Sold,2016-12-14,,15001.0,50000.0
23,BP PLC,,Exchanged,2016-12-14,,,
25,BP PLC,,Sold,2016-12-14,,15001.0,50000.0
4,Altria Group,,Purchased,2016-12-15,,15001.0,50000.0
6,Altria Group,,Purchased,2016-12-15,,15001.0,50000.0
8,Altria Group,,Sold,2016-12-15,,,
131,Johnson & Johnson,,Sold,2016-12-15,,,
133,Johnson & Johnson,,Purchased,2016-12-15,,15001.0,50000.0
135,Johnson & Johnson,,Purchased,2016-12-15,,15001.0,50000.0
139,Lowe's Cos,,Sold,2016-12-15,,,
141,Lowe's Cos,,Purchased,2016-12-15,,15001.0,50000.0
143,Lowe's Cos,,Purchased,2016-12-15,,15001.0,50000.0
179,Pepsico Inc,,Purchased,2016-12-15,,15001.0,50000.0
181,Pepsico Inc,,Sold,2016-12-15,,,
183,Pepsico Inc,,Purchased,2016-12-15,,15001.0,50000.0
