,orgname,ultorg,action,date1,transnotes,minvalue,maxvalue
1,Cisco Systems,,Sold,2008-04-21,,1001.0,15000.0
3,Hershey Co,,Sold,2008-04-21,,1001.0,15000.0
5,Pfizer Inc,,Sold,2008-04-21,,1001.0,15000.0
0,Apple Inc,,Purchased,2008-04-24,,15001.0,50000.0
2,First Solar Inc,,Purchased,2008-04-24,,1001.0,15000.0
0,Agere Systems,,Sold,2011-05-12,,,
1,Ameritrade Money Market IRA - Reivested ,,Sold,2011-05-12,,1001.0,15000.0
2,Apple Inc,,Sold,2011-05-12,,15001.0,50000.0
3,First Solar,,Sold,2011-05-12,,1001.0,15000.0
4,Intel Corp,,Sold,2011-05-12,,1001.0,15000.0
5,Merrill Lynch Cash Account,,Sold,2011-05-12,,,
6,Microsoft Corp,,Sold,2011-05-12,,15001.0,50000.0
7,NVR Inc,,Sold,2011-05-12,,15001.0,50000.0
4,Microsoft Corp,,Purchased/Sold/Exchanged,,,1001.0,15000.0
