,orgname,ultorg,action,date1,transnotes,minvalue,maxvalue
130,Eaton Vance National Municipal Income Fund Class/[,,Purchased,2016-08-10,,15001.0,50000.0
131,Eaton Vance National Municipal Income Fund Class/[,,Sold,2016-08-10,,,
132,Eaton Vance National Municipal Income Fund Class/[,,Sold,2016-08-10,,,
133,Eaton Vance National Municipal Income Fund Class/[,,Purchased,2016-08-10,,15001.0,50000.0
134,Eaton Vance National Municipal Income Fund Class/[,,Purchased,2016-08-10,,15001.0,50000.0
135,Eaton Vance National Municipal Income Fund Class/[,,Purchased,2016-08-10,,15001.0,50000.0
178,Ivy High Income Fund advisor shares,,Sold,2016-08-10,,15001.0,50000.0
179,Ivy High Income Fund advisor shares,,Sold,2016-08-10,,15001.0,50000.0
180,Ivy High Income Fund advisor shares,,Exchanged,2016-08-10,,,
181,Ivy High Income Fund advisor shares,,Exchanged,2016-08-10,,,
182,Ivy High Income Fund advisor shares,,Sold,2016-08-10,,15001.0,50000.0
183,Ivy High Income Fund advisor shares,,Sold,2016-08-10,,15001.0,50000.0
269,Nuveen High Yield Municipal Bond Fund,,Purchased,2016-08-10,,15001.0,50000.0
271,Nuveen High Yield Municipal Bond Fund,,Purchased,2016-08-10,,15001.0,50000.0
273,Nuveen High Yield Municipal Bond Fund,,Sold,2016-08-10,,,
274,Nuveen High Yield Municipal Bond Fund,,Sold,2016-08-10,,,
276,Nuveen High Yield Municipal Bond Fund,,Purchased,2016-08-10,,15001.0,50000.0
277,Nuveen High Yield Municipal Bond Fund,,Purchased,2016-08-10,,15001.0,50000.0
2,aB High Income Fund advisor shares,,Exchanged,2016-08-10,,,
3,aB High Income Fund advisor shares,,Exchanged,2016-08-10,,,
6,aB High Income Fund advisor shares,,Sold,2016-08-10,,50001.0,100000.0
7,aB High Income Fund advisor shares,,Sold,2016-08-10,,50001.0,100000.0
12,aB High Income Fund advisor shares,,Sold,2016-08-10,,50001.0,100000.0
13,aB High Income Fund advisor shares,,Sold,2016-08-10,,50001.0,100000.0
298,Olin Corp,,Sold,2016-11-15,,15001.0,50000.0
299,Olin Corp,,Sold,2016-11-15,,15001.0,50000.0
300,Olin Corp,,Exchanged,2016-11-15,,,
301,Olin Corp,,Exchanged,2016-11-15,,,
302,Olin Corp,,Sold,2016-11-15,,15001.0,50000.0
303,Olin Corp,,Sold,2016-11-15,,15001.0,50000.0
82,AMG Yacktman Fund,,Sold,2016-12-01,,1001.0,15000.0
83,AMG Yacktman Fund,,Sold,2016-12-01,,1001.0,15000.0
84,AMG Yacktman Fund,,Exchanged,2016-12-01,,,
85,AMG Yacktman Fund,,Exchanged,2016-12-01,,,
86,AMG Yacktman Fund,,Sold,2016-12-01,,1001.0,15000.0
87,AMG Yacktman Fund,,Sold,2016-12-01,,1001.0,15000.0
142,Fidelity Advisor Leveraged Co Stock Fund,,Sold,2016-12-01,,1001.0,15000.0
143,Fidelity Advisor Leveraged Co Stock Fund,,Sold,2016-12-01,,1001.0,15000.0
144,Fidelity Advisor Leveraged Co Stock Fund,,Exchanged,2016-12-01,,,
145,Fidelity Advisor Leveraged Co Stock Fund,,Exchanged,2016-12-01,,,
146,Fidelity Advisor Leveraged Co Stock Fund,,Sold,2016-12-01,,1001.0,15000.0
147,Fidelity Advisor Leveraged Co Stock Fund,,Sold,2016-12-01,,1001.0,15000.0
55,Advisory Research MLP & Energy Income Fund,,Purchased,2017-02-28,,1001.0,15000.0
59,Advisory Research MLP & Energy Income Fund,,Purchased,2017-02-28,,1001.0,15000.0
63,Advisory Research MLP & Energy Income Fund,,Sold,2017-02-28,,,
67,Advisory Research MLP & Energy Income Fund,,Sold,2017-02-28,,,
71,Advisory Research MLP & Energy Income Fund,,Purchased,2017-02-28,,1001.0,15000.0
75,Advisory Research MLP & Energy Income Fund,,Purchased,2017-02-28,,1001.0,15000.0
387,T Rowe Price Health sciences Fund Investor Class,,Sold,2017-04-20,,1001.0,15000.0
388,T Rowe Price Health sciences Fund Investor Class,,Sold,2017-04-20,,1001.0,15000.0
389,T Rowe Price Health sciences Fund Investor Class,,Exchanged,2017-04-20,,,
390,T Rowe Price Health sciences Fund Investor Class,,Exchanged,2017-04-20,,,
395,T Rowe Price Health sciences Fund Investor Class,,Sold,2017-04-20,,1001.0,15000.0
396,T Rowe Price Health sciences Fund Investor Class,,Sold,2017-04-20,,1001.0,15000.0
101,Columbia seligman Global Technology Fund,,Purchased,2017-04-24,,1001.0,15000.0
104,Columbia seligman Global Technology Fund,,Purchased,2017-04-24,,1001.0,15000.0
109,Columbia seligman Global Technology Fund,,Sold,2017-04-24,,,
111,Columbia seligman Global Technology Fund,,Sold,2017-04-24,,,
113,Columbia seligman Global Technology Fund,,Purchased,2017-04-24,,1001.0,15000.0
116,Columbia seligman Global Technology Fund,,Purchased,2017-04-24,,1001.0,15000.0
154,Franklin Income Fund advisors Class N/L (FEIaX),,Sold,2017-04-24,,15001.0,50000.0
155,Franklin Income Fund advisors Class N/L (FEIaX),,Sold,2017-04-24,,15001.0,50000.0
156,Franklin Income Fund advisors Class N/L (FEIaX),,Exchanged,2017-04-24,,,
157,Franklin Income Fund advisors Class N/L (FEIaX),,Exchanged,2017-04-24,,,
158,Franklin Income Fund advisors Class N/L (FEIaX),,Sold,2017-04-24,,15001.0,50000.0
159,Franklin Income Fund advisors Class N/L (FEIaX),,Sold,2017-04-24,,15001.0,50000.0
161,IVY Emerging Markets Equity Fund,,Purchased,2017-04-24,,1001.0,15000.0
162,IVY Emerging Markets Equity Fund,,Purchased,2017-04-24,,15001.0,50000.0
164,IVY Emerging Markets Equity Fund,,Purchased,2017-04-24,,1001.0,15000.0
165,IVY Emerging Markets Equity Fund,,Purchased,2017-04-24,,15001.0,50000.0
166,IVY Emerging Markets Equity Fund,,Sold,2017-04-24,,,
167,IVY Emerging Markets Equity Fund,,Sold,2017-04-24,,,
170,IVY Emerging Markets Equity Fund,,Sold,2017-04-24,,,
171,IVY Emerging Markets Equity Fund,,Sold,2017-04-24,,,
173,IVY Emerging Markets Equity Fund,,Purchased,2017-04-24,,1001.0,15000.0
174,IVY Emerging Markets Equity Fund,,Purchased,2017-04-24,,15001.0,50000.0
176,IVY Emerging Markets Equity Fund,,Purchased,2017-04-24,,1001.0,15000.0
177,IVY Emerging Markets Equity Fund,,Purchased,2017-04-24,,15001.0,50000.0
430,Vanguard Wellesley Income Fund Investor Class N/L,,Sold,2017-04-24,,1001.0,15000.0
432,Vanguard Wellesley Income Fund Investor Class N/L,,Sold,2017-04-24,,1001.0,15000.0
438,Vanguard Wellesley Income Fund Investor Class N/L,,Sold,2017-04-24,,1001.0,15000.0
440,Vanguard Wellesley Income Fund Investor Class N/L,,Sold,2017-04-24,,1001.0,15000.0
76,aMG Yacktam Fund Class I N/L,,Sold,2017-04-24,,1001.0,15000.0
77,aMG Yacktam Fund Class I N/L,,Sold,2017-04-24,,1001.0,15000.0
78,aMG Yacktam Fund Class I N/L,,Exchanged,2017-04-24,,,
79,aMG Yacktam Fund Class I N/L,,Exchanged,2017-04-24,,,
80,aMG Yacktam Fund Class I N/L,,Sold,2017-04-24,,1001.0,15000.0
81,aMG Yacktam Fund Class I N/L,,Sold,2017-04-24,,1001.0,15000.0
358,Sturm Ruger & Co Inc,,Sold,2017-04-28,,15001.0,50000.0
359,Sturm Ruger & Co Inc,,Sold,2017-04-28,,15001.0,50000.0
360,Sturm Ruger & Co Inc,,Exchanged,2017-04-28,,,
361,Sturm Ruger & Co Inc,,Exchanged,2017-04-28,,,
362,Sturm Ruger & Co Inc,,Sold,2017-04-28,,15001.0,50000.0
363,Sturm Ruger & Co Inc,,Sold,2017-04-28,,15001.0,50000.0
88,CLEaRBRIDGE aGGREssIVE GROWTH FUND,,Sold,2017-05-30,,1001.0,15000.0
89,CLEaRBRIDGE aGGREssIVE GROWTH FUND,,Sold,2017-05-30,,50001.0,100000.0
90,CLEaRBRIDGE aGGREssIVE GROWTH FUND,,Sold,2017-05-30,,50001.0,100000.0
91,CLEaRBRIDGE aGGREssIVE GROWTH FUND,,Sold,2017-05-30,,1001.0,15000.0
92,CLEaRBRIDGE aGGREssIVE GROWTH FUND,,Exchanged,2017-05-30,,,
93,CLEaRBRIDGE aGGREssIVE GROWTH FUND,,Exchanged,2017-05-30,,,
94,CLEaRBRIDGE aGGREssIVE GROWTH FUND,,Exchanged,2017-05-30,,,
95,CLEaRBRIDGE aGGREssIVE GROWTH FUND,,Exchanged,2017-05-30,,,
96,CLEaRBRIDGE aGGREssIVE GROWTH FUND,,Sold,2017-05-30,,50001.0,100000.0
97,CLEaRBRIDGE aGGREssIVE GROWTH FUND,,Sold,2017-05-30,,1001.0,15000.0
98,CLEaRBRIDGE aGGREssIVE GROWTH FUND,,Sold,2017-05-30,,1001.0,15000.0
99,CLEaRBRIDGE aGGREssIVE GROWTH FUND,,Sold,2017-05-30,,50001.0,100000.0
136,EVENTIDE GILEaD FUND,,Sold,2017-05-30,,50001.0,100000.0
137,EVENTIDE GILEaD FUND,,Sold,2017-05-30,,50001.0,100000.0
138,EVENTIDE GILEaD FUND,,Exchanged,2017-05-30,,,
139,EVENTIDE GILEaD FUND,,Exchanged,2017-05-30,,,
140,EVENTIDE GILEaD FUND,,Sold,2017-05-30,,50001.0,100000.0
141,EVENTIDE GILEaD FUND,,Sold,2017-05-30,,50001.0,100000.0
208,John Hancock Fundamental Large Cap Core Fund Class,,Purchased,2017-05-30,,1001.0,15000.0
209,John Hancock Fundamental Large Cap Core Fund Class,,Purchased,2017-05-30,,1001.0,15000.0
210,John Hancock Fundamental Large Cap Core Fund Class,,Purchased,2017-05-30,,50001.0,100000.0
212,John Hancock Fundamental Large Cap Core Fund Class,,Purchased,2017-05-30,,50001.0,100000.0
214,John Hancock Fundamental Large Cap Core Fund Class,,Sold,2017-05-30,,,
216,John Hancock Fundamental Large Cap Core Fund Class,,Sold,2017-05-30,,,
218,John Hancock Fundamental Large Cap Core Fund Class,,Sold,2017-05-30,,,
219,John Hancock Fundamental Large Cap Core Fund Class,,Sold,2017-05-30,,,
221,John Hancock Fundamental Large Cap Core Fund Class,,Purchased,2017-05-30,,1001.0,15000.0
222,John Hancock Fundamental Large Cap Core Fund Class,,Purchased,2017-05-30,,50001.0,100000.0
223,John Hancock Fundamental Large Cap Core Fund Class,,Purchased,2017-05-30,,1001.0,15000.0
224,John Hancock Fundamental Large Cap Core Fund Class,,Purchased,2017-05-30,,50001.0,100000.0
250,MsIF International advantage Fund,,Purchased,2017-05-30,,50001.0,100000.0
251,MsIF International advantage Fund,,Purchased,2017-05-30,,1001.0,15000.0
254,MsIF International advantage Fund,,Purchased,2017-05-30,,1001.0,15000.0
255,MsIF International advantage Fund,,Purchased,2017-05-30,,50001.0,100000.0
257,MsIF International advantage Fund,,Sold,2017-05-30,,,
258,MsIF International advantage Fund,,Sold,2017-05-30,,,
260,MsIF International advantage Fund,,Sold,2017-05-30,,,
261,MsIF International advantage Fund,,Sold,2017-05-30,,,
263,MsIF International advantage Fund,,Purchased,2017-05-30,,1001.0,15000.0
264,MsIF International advantage Fund,,Purchased,2017-05-30,,50001.0,100000.0
265,MsIF International advantage Fund,,Purchased,2017-05-30,,1001.0,15000.0
267,MsIF International advantage Fund,,Purchased,2017-05-30,,50001.0,100000.0
286,Oakmark International Fund Investor Class NL,,Sold,2017-05-30,,1001.0,15000.0
287,Oakmark International Fund Investor Class NL,,Sold,2017-05-30,,100001.0,250000.0
288,Oakmark International Fund Investor Class NL,,Sold,2017-05-30,,1001.0,15000.0
289,Oakmark International Fund Investor Class NL,,Exchanged,2017-05-30,,,
290,Oakmark International Fund Investor Class NL,,Exchanged,2017-05-30,,,
291,Oakmark International Fund Investor Class NL,,Exchanged,2017-05-30,,,
292,Oakmark International Fund Investor Class NL,,Exchanged,2017-05-30,,,
293,Oakmark International Fund Investor Class NL,,Sold,2017-05-30,,100001.0,250000.0
294,Oakmark International Fund Investor Class NL,,Sold,2017-05-30,,1001.0,15000.0
295,Oakmark International Fund Investor Class NL,,Sold,2017-05-30,,100001.0,250000.0
296,Oakmark International Fund Investor Class NL,,Sold,2017-05-30,,1001.0,15000.0
297,Oakmark International Fund Investor Class NL,,Sold,2017-05-30,,100001.0,250000.0
304,PaRNassUs CORE EQUITY FUND,,Sold,2017-05-30,,15001.0,50000.0
305,PaRNassUs CORE EQUITY FUND,,Sold,2017-05-30,,15001.0,50000.0
306,PaRNassUs CORE EQUITY FUND,,Sold,2017-05-30,,1001.0,15000.0
307,PaRNassUs CORE EQUITY FUND,,Sold,2017-05-30,,1001.0,15000.0
308,PaRNassUs CORE EQUITY FUND,,Exchanged,2017-05-30,,,
309,PaRNassUs CORE EQUITY FUND,,Exchanged,2017-05-30,,,
310,PaRNassUs CORE EQUITY FUND,,Exchanged,2017-05-30,,,
311,PaRNassUs CORE EQUITY FUND,,Exchanged,2017-05-30,,,
312,PaRNassUs CORE EQUITY FUND,,Sold,2017-05-30,,15001.0,50000.0
313,PaRNassUs CORE EQUITY FUND,,Sold,2017-05-30,,1001.0,15000.0
314,PaRNassUs CORE EQUITY FUND,,Sold,2017-05-30,,15001.0,50000.0
315,PaRNassUs CORE EQUITY FUND,,Sold,2017-05-30,,1001.0,15000.0
340,Southern Co,,Purchased,2017-05-30,,15001.0,50000.0
341,Southern Co,,Purchased,2017-05-30,,15001.0,50000.0
343,Southern Co,,Purchased,2017-05-30,,15001.0,50000.0
345,Southern Co,,Purchased,2017-05-30,,15001.0,50000.0
346,Southern Co,,Sold,2017-05-30,,,
348,Southern Co,,Sold,2017-05-30,,,
350,Southern Co,,Sold,2017-05-30,,,
351,Southern Co,,Sold,2017-05-30,,,
352,Southern Co,,Purchased,2017-05-30,,15001.0,50000.0
353,Southern Co,,Purchased,2017-05-30,,15001.0,50000.0
355,Southern Co,,Purchased,2017-05-30,,15001.0,50000.0
357,Southern Co,,Purchased,2017-05-30,,15001.0,50000.0
427,Vanguard Wellesley Income Fund Investor Class N/L,,Sold,2017-05-30,,50001.0,100000.0
428,Vanguard Wellesley Income Fund Investor Class N/L,,Sold,2017-05-30,,50001.0,100000.0
429,Vanguard Wellesley Income Fund Investor Class N/L,,Sold,2017-05-30,,1001.0,15000.0
431,Vanguard Wellesley Income Fund Investor Class N/L,,Sold,2017-05-30,,1001.0,15000.0
433,Vanguard Wellesley Income Fund Investor Class N/L,,Exchanged,2017-05-30,,,
434,Vanguard Wellesley Income Fund Investor Class N/L,,Exchanged,2017-05-30,,,
435,Vanguard Wellesley Income Fund Investor Class N/L,,Sold,2017-05-30,,50001.0,100000.0
436,Vanguard Wellesley Income Fund Investor Class N/L,,Sold,2017-05-30,,50001.0,100000.0
437,Vanguard Wellesley Income Fund Investor Class N/L,,Sold,2017-05-30,,1001.0,15000.0
439,Vanguard Wellesley Income Fund Investor Class N/L,,Sold,2017-05-30,,1001.0,15000.0
442,Victory sycamore Established Value Fund Class,,Purchased,2017-05-30,,15001.0,50000.0
443,Victory sycamore Established Value Fund Class,,Purchased,2017-05-30,,1001.0,15000.0
444,Victory sycamore Established Value Fund Class,,Purchased,2017-05-30,,15001.0,50000.0
446,Victory sycamore Established Value Fund Class,,Sold,2017-05-30,,,
447,Victory sycamore Established Value Fund Class,,Sold,2017-05-30,,,
449,Victory sycamore Established Value Fund Class,,Sold,2017-05-30,,,
450,Victory sycamore Established Value Fund Class,,Sold,2017-05-30,,,
452,Victory sycamore Established Value Fund Class,,Purchased,2017-05-30,,1001.0,15000.0
454,Victory sycamore Established Value Fund Class,,Purchased,2017-05-30,,15001.0,50000.0
455,Victory sycamore Established Value Fund Class,,Purchased,2017-05-30,,1001.0,15000.0
456,Victory sycamore Established Value Fund Class,,Purchased,2017-05-30,,15001.0,50000.0
457,Victory sycamore Established Value Fund Class,,Purchased,2017-05-30,,1001.0,15000.0
459,Wells Fargo special Mid Cap Value Fund,,Sold,2017-05-30,,15001.0,50000.0
460,Wells Fargo special Mid Cap Value Fund,,Sold,2017-05-30,,15001.0,50000.0
461,Wells Fargo special Mid Cap Value Fund,,Exchanged,2017-05-30,,,
462,Wells Fargo special Mid Cap Value Fund,,Exchanged,2017-05-30,,,
463,Wells Fargo special Mid Cap Value Fund,,Sold,2017-05-30,,15001.0,50000.0
464,Wells Fargo special Mid Cap Value Fund,,Sold,2017-05-30,,15001.0,50000.0
17,aB Large Cap Growth FD,,Purchased,2017-05-30,,1001.0,15000.0
20,aB Large Cap Growth FD,,Purchased,2017-05-30,,15001.0,50000.0
23,aB Large Cap Growth FD,,Purchased,2017-05-30,,1001.0,15000.0
25,aB Large Cap Growth FD,,Purchased,2017-05-30,,15001.0,50000.0
30,aB Large Cap Growth FD,,Purchased,2017-05-30,,1001.0,15000.0
32,aB Large Cap Growth FD,,Purchased,2017-05-30,,15001.0,50000.0
34,aB Large Cap Growth FD,,Purchased,2017-05-30,,1001.0,15000.0
37,aB Large Cap Growth FD,,Purchased,2017-05-30,,15001.0,50000.0
40,aB Large Cap Growth FD,,Sold,2017-05-30,,,
44,aB Large Cap Growth FD,,Sold,2017-05-30,,,
48,aB Large Cap Growth FD,,Sold,2017-05-30,,,
50,aB Large Cap Growth FD,,Sold,2017-05-30,,,
54,Advisory Research MLP & Energy Income Fund,,Purchased,2017-05-31,,1001.0,15000.0
58,Advisory Research MLP & Energy Income Fund,,Purchased,2017-05-31,,1001.0,15000.0
62,Advisory Research MLP & Energy Income Fund,,Sold,2017-05-31,,,
66,Advisory Research MLP & Energy Income Fund,,Sold,2017-05-31,,,
70,Advisory Research MLP & Energy Income Fund,,Purchased,2017-05-31,,1001.0,15000.0
74,Advisory Research MLP & Energy Income Fund,,Purchased,2017-05-31,,1001.0,15000.0
342,Southern Co,,Purchased,2017-06-29,,1001.0,15000.0
344,Southern Co,,Purchased,2017-06-29,,1001.0,15000.0
347,Southern Co,,Sold,2017-06-29,,,
349,Southern Co,,Sold,2017-06-29,,,
354,Southern Co,,Purchased,2017-06-29,,1001.0,15000.0
356,Southern Co,,Purchased,2017-06-29,,1001.0,15000.0
364,summit Bank,,Purchased,2017-07-12,,50001.0,100000.0
365,summit Bank,,Sold,2017-07-12,,,
366,summit Bank,,Purchased,2017-07-12,,50001.0,100000.0
409,T Rowe Price QM US Small-Cap Growth Equity Fund,,Purchased,2017-07-24,,50001.0,100000.0
412,T Rowe Price QM US Small-Cap Growth Equity Fund,,Purchased,2017-07-24,,50001.0,100000.0
414,T Rowe Price QM US Small-Cap Growth Equity Fund,,Sold,2017-07-24,,,
416,T Rowe Price QM US Small-Cap Growth Equity Fund,,Sold,2017-07-24,,,
418,T Rowe Price QM US Small-Cap Growth Equity Fund,,Purchased,2017-07-24,,50001.0,100000.0
420,T Rowe Price QM US Small-Cap Growth Equity Fund,,Purchased,2017-07-24,,50001.0,100000.0
19,aB Large Cap Growth FD,,Purchased,2017-07-24,,15001.0,50000.0
24,aB Large Cap Growth FD,,Purchased,2017-07-24,,15001.0,50000.0
31,aB Large Cap Growth FD,,Purchased,2017-07-24,,15001.0,50000.0
36,aB Large Cap Growth FD,,Purchased,2017-07-24,,15001.0,50000.0
39,aB Large Cap Growth FD,,Sold,2017-07-24,,,
49,aB Large Cap Growth FD,,Sold,2017-07-24,,,
124,Destra Flaherty & Crumrine Preferred & INC FD,,Purchased,2017-08-02,,50001.0,100000.0
125,Destra Flaherty & Crumrine Preferred & INC FD,,Purchased,2017-08-02,,50001.0,100000.0
126,Destra Flaherty & Crumrine Preferred & INC FD,,Sold,2017-08-02,,,
127,Destra Flaherty & Crumrine Preferred & INC FD,,Sold,2017-08-02,,,
128,Destra Flaherty & Crumrine Preferred & INC FD,,Purchased,2017-08-02,,50001.0,100000.0
129,Destra Flaherty & Crumrine Preferred & INC FD,,Purchased,2017-08-02,,50001.0,100000.0
148,Flaherty & Crumrine DYN Preferred,,Purchased,2017-08-02,,50001.0,100000.0
149,Flaherty & Crumrine DYN Preferred,,Purchased,2017-08-02,,50001.0,100000.0
150,Flaherty & Crumrine DYN Preferred,,Sold,2017-08-02,,,
151,Flaherty & Crumrine DYN Preferred,,Sold,2017-08-02,,,
152,Flaherty & Crumrine DYN Preferred,,Purchased,2017-08-02,,50001.0,100000.0
153,Flaherty & Crumrine DYN Preferred,,Purchased,2017-08-02,,50001.0,100000.0
268,Nuveen High Yield Municipal Bond Fund,,Purchased,2017-08-02,,50001.0,100000.0
270,Nuveen High Yield Municipal Bond Fund,,Purchased,2017-08-02,,50001.0,100000.0
272,Nuveen High Yield Municipal Bond Fund,,Sold,2017-08-02,,,
275,Nuveen High Yield Municipal Bond Fund,,Sold,2017-08-02,,,
278,Nuveen High Yield Municipal Bond Fund,,Purchased,2017-08-02,,50001.0,100000.0
279,Nuveen High Yield Municipal Bond Fund,,Purchased,2017-08-02,,50001.0,100000.0
280,Nuveen Preferred securities & Income Fund,,Purchased,2017-08-02,,50001.0,100000.0
281,Nuveen Preferred securities & Income Fund,,Purchased,2017-08-02,,50001.0,100000.0
282,Nuveen Preferred securities & Income Fund,,Sold,2017-08-02,,,
283,Nuveen Preferred securities & Income Fund,,Sold,2017-08-02,,,
284,Nuveen Preferred securities & Income Fund,,Purchased,2017-08-02,,50001.0,100000.0
285,Nuveen Preferred securities & Income Fund,,Purchased,2017-08-02,,50001.0,100000.0
316,Pimco Corporate & Income OPP F (PTY),,Purchased,2017-08-02,,50001.0,100000.0
317,Pimco Corporate & Income OPP F (PTY),,Purchased,2017-08-02,,50001.0,100000.0
318,Pimco Corporate & Income OPP F (PTY),,Sold,2017-08-02,,,
319,Pimco Corporate & Income OPP F (PTY),,Sold,2017-08-02,,,
320,Pimco Corporate & Income OPP F (PTY),,Purchased,2017-08-02,,50001.0,100000.0
321,Pimco Corporate & Income OPP F (PTY),,Purchased,2017-08-02,,50001.0,100000.0
421,Vaneck Vectors Fallen angel High Yield Bond ET,,Purchased,2017-08-02,,50001.0,100000.0
422,Vaneck Vectors Fallen angel High Yield Bond ET,,Purchased,2017-08-02,,50001.0,100000.0
423,Vaneck Vectors Fallen angel High Yield Bond ET,,Sold,2017-08-02,,,
424,Vaneck Vectors Fallen angel High Yield Bond ET,,Sold,2017-08-02,,,
425,Vaneck Vectors Fallen angel High Yield Bond ET,,Purchased,2017-08-02,,50001.0,100000.0
426,Vaneck Vectors Fallen angel High Yield Bond ET,,Purchased,2017-08-02,,50001.0,100000.0
0,aB High Income Fund advisor shares,,Sold,2017-08-02,,,
1,aB High Income Fund advisor shares,,Sold,2017-08-02,,,
4,aB High Income Fund advisor shares,,Purchased,2017-08-02,,50001.0,100000.0
5,aB High Income Fund advisor shares,,Purchased,2017-08-02,,50001.0,100000.0
10,aB High Income Fund advisor shares,,Purchased,2017-08-02,,50001.0,100000.0
11,aB High Income Fund advisor shares,,Purchased,2017-08-02,,50001.0,100000.0
160,IVY Emerging Markets Equity Fund,,Purchased,2017-08-30,,15001.0,50000.0
163,IVY Emerging Markets Equity Fund,,Purchased,2017-08-30,,15001.0,50000.0
168,IVY Emerging Markets Equity Fund,,Sold,2017-08-30,,,
169,IVY Emerging Markets Equity Fund,,Sold,2017-08-30,,,
172,IVY Emerging Markets Equity Fund,,Purchased,2017-08-30,,15001.0,50000.0
175,IVY Emerging Markets Equity Fund,,Purchased,2017-08-30,,15001.0,50000.0
184,IVY International Core Equity Fund,,Purchased,2017-08-30,,50001.0,100000.0
185,IVY International Core Equity Fund,,Purchased,2017-08-30,,50001.0,100000.0
186,IVY International Core Equity Fund,,Sold,2017-08-30,,,
187,IVY International Core Equity Fund,,Sold,2017-08-30,,,
188,IVY International Core Equity Fund,,Purchased,2017-08-30,,50001.0,100000.0
189,IVY International Core Equity Fund,,Purchased,2017-08-30,,50001.0,100000.0
252,MsIF International advantage Fund,,Purchased,2017-08-30,,50001.0,100000.0
253,MsIF International advantage Fund,,Purchased,2017-08-30,,50001.0,100000.0
256,MsIF International advantage Fund,,Sold,2017-08-30,,,
259,MsIF International advantage Fund,,Sold,2017-08-30,,,
262,MsIF International advantage Fund,,Purchased,2017-08-30,,50001.0,100000.0
266,MsIF International advantage Fund,,Purchased,2017-08-30,,50001.0,100000.0
374,T Rowe Price Health sciences Fund Investor Cl,,Purchased,2017-08-30,,15001.0,50000.0
376,T Rowe Price Health sciences Fund Investor Cl,,Purchased,2017-08-30,,15001.0,50000.0
380,T Rowe Price Health sciences Fund Investor Cl,,Sold,2017-08-30,,,
381,T Rowe Price Health sciences Fund Investor Cl,,Sold,2017-08-30,,,
382,T Rowe Price Health sciences Fund Investor Cl,,Purchased,2017-08-30,,15001.0,50000.0
384,T Rowe Price Health sciences Fund Investor Cl,,Purchased,2017-08-30,,15001.0,50000.0
53,Advisory Research MLP & Energy Income Fund,,Purchased,2017-08-31,,1001.0,15000.0
57,Advisory Research MLP & Energy Income Fund,,Purchased,2017-08-31,,1001.0,15000.0
61,Advisory Research MLP & Energy Income Fund,,Sold,2017-08-31,,,
65,Advisory Research MLP & Energy Income Fund,,Sold,2017-08-31,,,
69,Advisory Research MLP & Energy Income Fund,,Purchased,2017-08-31,,1001.0,15000.0
73,Advisory Research MLP & Energy Income Fund,,Purchased,2017-08-31,,1001.0,15000.0
103,Columbia seligman Global Technology Fund,,Purchased,2017-09-25,,15001.0,50000.0
106,Columbia seligman Global Technology Fund,,Purchased,2017-09-25,,15001.0,50000.0
107,Columbia seligman Global Technology Fund,,Sold,2017-09-25,,,
110,Columbia seligman Global Technology Fund,,Sold,2017-09-25,,,
114,Columbia seligman Global Technology Fund,,Purchased,2017-09-25,,15001.0,50000.0
117,Columbia seligman Global Technology Fund,,Purchased,2017-09-25,,15001.0,50000.0
192,John Hancock Fundamental Large Cap Core Fund,,Purchased,2017-09-25,,50001.0,100000.0
193,John Hancock Fundamental Large Cap Core Fund,,Purchased,2017-09-25,,50001.0,100000.0
198,John Hancock Fundamental Large Cap Core Fund,,Sold,2017-09-25,,,
202,John Hancock Fundamental Large Cap Core Fund,,Sold,2017-09-25,,,
204,John Hancock Fundamental Large Cap Core Fund,,Purchased,2017-09-25,,50001.0,100000.0
207,John Hancock Fundamental Large Cap Core Fund,,Purchased,2017-09-25,,50001.0,100000.0
239,MFS Value Fund,,Purchased,2017-09-25,,50001.0,100000.0
242,MFS Value Fund,,Purchased,2017-09-25,,50001.0,100000.0
244,MFS Value Fund,,Sold,2017-09-25,,,
246,MFS Value Fund,,Sold,2017-09-25,,,
247,MFS Value Fund,,Purchased,2017-09-25,,50001.0,100000.0
248,MFS Value Fund,,Purchased,2017-09-25,,50001.0,100000.0
325,Principal Mid Cap Fund Institutional shares,,Purchased,2017-09-25,,15001.0,50000.0
328,Principal Mid Cap Fund Institutional shares,,Purchased,2017-09-25,,15001.0,50000.0
329,Principal Mid Cap Fund Institutional shares,,Sold,2017-09-25,,,
334,Principal Mid Cap Fund Institutional shares,,Sold,2017-09-25,,,
336,Principal Mid Cap Fund Institutional shares,,Purchased,2017-09-25,,15001.0,50000.0
337,Principal Mid Cap Fund Institutional shares,,Purchased,2017-09-25,,15001.0,50000.0
410,T Rowe Price QM US Small-Cap Growth Equity Fund,,Purchased,2017-09-25,,15001.0,50000.0
411,T Rowe Price QM US Small-Cap Growth Equity Fund,,Purchased,2017-09-25,,15001.0,50000.0
413,T Rowe Price QM US Small-Cap Growth Equity Fund,,Sold,2017-09-25,,,
415,T Rowe Price QM US Small-Cap Growth Equity Fund,,Sold,2017-09-25,,,
417,T Rowe Price QM US Small-Cap Growth Equity Fund,,Purchased,2017-09-25,,15001.0,50000.0
419,T Rowe Price QM US Small-Cap Growth Equity Fund,,Purchased,2017-09-25,,15001.0,50000.0
16,aB Large Cap Growth FD,,Purchased,2017-09-25,,50001.0,100000.0
21,aB Large Cap Growth FD,,Purchased,2017-09-25,,50001.0,100000.0
27,aB Large Cap Growth FD,,Purchased,2017-09-25,,50001.0,100000.0
28,aB Large Cap Growth FD,,Purchased,2017-09-25,,50001.0,100000.0
38,aB Large Cap Growth FD,,Sold,2017-09-25,,,
42,aB Large Cap Growth FD,,Sold,2017-09-25,,,
52,Advisory Research MLP & Energy Income Fund,,Purchased,2017-11-30,,1001.0,15000.0
56,Advisory Research MLP & Energy Income Fund,,Purchased,2017-11-30,,1001.0,15000.0
60,Advisory Research MLP & Energy Income Fund,,Sold,2017-11-30,,,
64,Advisory Research MLP & Energy Income Fund,,Sold,2017-11-30,,,
68,Advisory Research MLP & Energy Income Fund,,Purchased,2017-11-30,,1001.0,15000.0
72,Advisory Research MLP & Energy Income Fund,,Purchased,2017-11-30,,1001.0,15000.0
100,Columbia seligman Global Technology FD Ins,,Purchased,2017-12-12,,1001.0,15000.0
102,Columbia seligman Global Technology Fund,,Purchased,2017-12-12,,1001.0,15000.0
105,Columbia seligman Global Technology Fund,,Purchased,2017-12-12,,1001.0,15000.0
108,Columbia seligman Global Technology Fund,,Sold,2017-12-12,,,
112,Columbia seligman Global Technology Fund,,Sold,2017-12-12,,,
115,Columbia seligman Global Technology Fund,,Purchased,2017-12-12,,1001.0,15000.0
8,aB High Income Fund advisor shares,,Sold,2017-12-13,,1001.0,15000.0
9,aB High Income Fund advisor shares,,Sold,2017-12-13,,1001.0,15000.0
14,aB High Income Fund advisor shares,,Sold,2017-12-13,,1001.0,15000.0
15,aB High Income Fund advisor shares,,Sold,2017-12-13,,1001.0,15000.0
18,aB Large Cap Growth FD,,Purchased,2017-12-14,,1001.0,15000.0
22,aB Large Cap Growth FD,,Purchased,2017-12-14,,1001.0,15000.0
26,aB Large Cap Growth FD,,Purchased,2017-12-14,,1001.0,15000.0
29,aB Large Cap Growth FD,,Purchased,2017-12-14,,1001.0,15000.0
33,aB Large Cap Growth FD,,Purchased,2017-12-14,,1001.0,15000.0
35,aB Large Cap Growth FD,,Purchased,2017-12-14,,1001.0,15000.0
41,aB Large Cap Growth FD,,Purchased,2017-12-14,,1001.0,15000.0
43,aB Large Cap Growth FD,,Sold,2017-12-14,,,
45,aB Large Cap Growth FD,,Sold,2017-12-14,,,
46,aB Large Cap Growth FD,,Sold,2017-12-14,,,
47,aB Large Cap Growth FD,,Sold,2017-12-14,,,
51,aB Large Cap Growth FD advisor,,Purchased,2017-12-14,,1001.0,15000.0
232,MFS International Value Fund,,Purchased,2017-12-15,,1001.0,15000.0
233,MFS International Value Fund,,Purchased,2017-12-15,,1001.0,15000.0
234,MFS International Value Fund,,Sold,2017-12-15,,,
235,MFS International Value Fund,,Sold,2017-12-15,,,
236,MFS International Value Fund,,Purchased,2017-12-15,,1001.0,15000.0
237,MFS International Value Fund,,Purchased,2017-12-15,,1001.0,15000.0
190,John Hancock Fundamental Large Cap Core Fu,,Purchased,2017-12-18,,1001.0,15000.0
191,John Hancock Fundamental Large Cap Core Fu,,Purchased,2017-12-18,,1001.0,15000.0
194,John Hancock Fundamental Large Cap Core Fund,,Purchased,2017-12-18,,1001.0,15000.0
195,John Hancock Fundamental Large Cap Core Fund,,Purchased,2017-12-18,,1001.0,15000.0
196,John Hancock Fundamental Large Cap Core Fund,,Purchased,2017-12-18,,1001.0,15000.0
197,John Hancock Fundamental Large Cap Core Fund,,Purchased,2017-12-18,,1001.0,15000.0
199,John Hancock Fundamental Large Cap Core Fund,,Sold,2017-12-18,,,
200,John Hancock Fundamental Large Cap Core Fund,,Sold,2017-12-18,,,
201,John Hancock Fundamental Large Cap Core Fund,,Sold,2017-12-18,,,
203,John Hancock Fundamental Large Cap Core Fund,,Sold,2017-12-18,,,
205,John Hancock Fundamental Large Cap Core Fund,,Purchased,2017-12-18,,1001.0,15000.0
206,John Hancock Fundamental Large Cap Core Fund,,Purchased,2017-12-18,,1001.0,15000.0
211,John Hancock Fundamental Large Cap Core Fund Class,,Purchased,2017-12-18,,1001.0,15000.0
213,John Hancock Fundamental Large Cap Core Fund Class,,Sold,2017-12-18,,,
215,John Hancock Fundamental Large Cap Core Fund Class,,Purchased,2017-12-18,,1001.0,15000.0
217,John Hancock Fundamental Large Cap Core Fund Class,,Sold,2017-12-18,,,
220,John Hancock Fundamental Large Cap Core Fund Class,,Purchased,2017-12-18,,1001.0,15000.0
225,John Hancock Fundamental Large Cap Core Fund Class,,Purchased,2017-12-18,,1001.0,15000.0
367,T Rowe Price Capital appreciation Fund Investor Cl,,Purchased,2017-12-18,,1001.0,15000.0
368,T Rowe Price Capital appreciation Fund Investor Cl,,Purchased,2017-12-18,,1001.0,15000.0
369,T Rowe Price Capital appreciation Fund Investor Cl,,Purchased,2017-12-18,,1001.0,15000.0
370,T Rowe Price Capital appreciation Fund Investor Cl,,Sold,2017-12-18,,,
371,T Rowe Price Capital appreciation Fund Investor Cl,,Sold,2017-12-18,,,
372,T Rowe Price Capital appreciation Fund Investor Cl,,Purchased,2017-12-18,,1001.0,15000.0
373,T Rowe Price Health sciences Fund Investo,,Purchased,2017-12-19,,1001.0,15000.0
375,T Rowe Price Health sciences Fund Investor Cl,,Purchased,2017-12-19,,1001.0,15000.0
377,T Rowe Price Health sciences Fund Investor Cl,,Purchased,2017-12-19,,1001.0,15000.0
378,T Rowe Price Health sciences Fund Investor Cl,,Sold,2017-12-19,,,
379,T Rowe Price Health sciences Fund Investor Cl,,Sold,2017-12-19,,,
383,T Rowe Price Health sciences Fund Investor Cl,,Purchased,2017-12-19,,1001.0,15000.0
385,T Rowe Price Health sciences Fund Investor Class,,Purchased,2017-12-19,,1001.0,15000.0
386,T Rowe Price Health sciences Fund Investor Class,,Purchased,2017-12-19,,1001.0,15000.0
391,T Rowe Price Health sciences Fund Investor Class,,Sold,2017-12-19,,,
392,T Rowe Price Health sciences Fund Investor Class,,Sold,2017-12-19,,,
393,T Rowe Price Health sciences Fund Investor Class,,Purchased,2017-12-19,,1001.0,15000.0
394,T Rowe Price Health sciences Fund Investor Class,,Purchased,2017-12-19,,1001.0,15000.0
397,T Rowe Price Health sciences Fund Investor Class N,,Purchased,2017-12-19,,15001.0,50000.0
398,T Rowe Price Health sciences Fund Investor Class N,,Purchased,2017-12-19,,15001.0,50000.0
399,T Rowe Price Health sciences Fund Investor Class N,,Sold,2017-12-19,,,
400,T Rowe Price Health sciences Fund Investor Class N,,Sold,2017-12-19,,,
401,T Rowe Price Health sciences Fund Investor Class N,,Purchased,2017-12-19,,15001.0,50000.0
402,T Rowe Price Health sciences Fund Investor Class N,,Purchased,2017-12-19,,15001.0,50000.0
403,T Rowe Price New Horizons Fund Investor Class N/L,,Purchased,2017-12-19,,1001.0,15000.0
404,T Rowe Price New Horizons Fund Investor Class N/L,,Purchased,2017-12-19,,1001.0,15000.0
405,T Rowe Price New Horizons Fund Investor Class N/L,,Sold,2017-12-19,,,
406,T Rowe Price New Horizons Fund Investor Class N/L,,Sold,2017-12-19,,,
407,T Rowe Price New Horizons Fund Investor Class N/L,,Purchased,2017-12-19,,1001.0,15000.0
408,T Rowe Price New Horizons Fund Investor Class N/L,,Purchased,2017-12-19,,1001.0,15000.0
226,Loomis sayles Growth Fund,,Purchased,2017-12-21,,1001.0,15000.0
227,Loomis sayles Growth Fund,,Purchased,2017-12-21,,1001.0,15000.0
228,Loomis sayles Growth Fund,,Sold,2017-12-21,,,
229,Loomis sayles Growth Fund,,Sold,2017-12-21,,,
230,Loomis sayles Growth Fund,,Purchased,2017-12-21,,1001.0,15000.0
231,Loomis sayles Growth Fund,,Purchased,2017-12-21,,1001.0,15000.0
323,Principal MID Cap Fund Institutional shares,,Purchased,2017-12-21,,1001.0,15000.0
326,Principal MID Cap Fund Institutional shares,,Purchased,2017-12-21,,1001.0,15000.0
331,Principal MID Cap Fund Institutional shares,,Sold,2017-12-21,,,
332,Principal MID Cap Fund Institutional shares,,Sold,2017-12-21,,,
335,Principal MID Cap Fund Institutional shares,,Purchased,2017-12-21,,1001.0,15000.0
339,Principal MID Cap Fund Institutional shares,,Purchased,2017-12-21,,1001.0,15000.0
322,Principal Mid Cap Fund Institutional share,,Purchased,2017-12-21,,1001.0,15000.0
324,Principal Mid Cap Fund Institutional shares,,Purchased,2017-12-21,,1001.0,15000.0
327,Principal Mid Cap Fund Institutional shares,,Purchased,2017-12-21,,1001.0,15000.0
330,Principal Mid Cap Fund Institutional shares,,Sold,2017-12-21,,,
333,Principal Mid Cap Fund Institutional shares,,Sold,2017-12-21,,,
338,Principal Mid Cap Fund Institutional shares,,Purchased,2017-12-21,,1001.0,15000.0
441,Victory sycamore Established Value Fund Class,,Purchased,2017-12-21,,1001.0,15000.0
445,Victory sycamore Established Value Fund Class,,Purchased,2017-12-21,,1001.0,15000.0
448,Victory sycamore Established Value Fund Class,,Sold,2017-12-21,,,
451,Victory sycamore Established Value Fund Class,,Sold,2017-12-21,,,
453,Victory sycamore Established Value Fund Class,,Purchased,2017-12-21,,1001.0,15000.0
458,Victory sycamore Established Value Fund Class,,Purchased,2017-12-21,,1001.0,15000.0
238,MFS Value Fund,,Purchased,2017-12-22,,1001.0,15000.0
240,MFS Value Fund,,Purchased,2017-12-22,,1001.0,15000.0
241,MFS Value Fund,,Purchased,2017-12-22,,1001.0,15000.0
243,MFS Value Fund,,Sold,2017-12-22,,,
245,MFS Value Fund,,Sold,2017-12-22,,,
249,MFS Value Fund,,Purchased,2017-12-22,,1001.0,15000.0
118,DELaWaRE sMaLL CaP CORE FUND INsTITUTIONaL CLass N,,Purchased,2017-12-26,,1001.0,15000.0
119,DELaWaRE sMaLL CaP CORE FUND INsTITUTIONaL CLass N,,Sold,2017-12-26,,,
120,DELaWaRE sMaLL CaP CORE FUND INsTITUTIONaL CLass N,,Sold,2017-12-26,,,
121,DELaWaRE sMaLL CaP CORE FUND INsTITUTIONaL CLass N,,Purchased,2017-12-26,,1001.0,15000.0
122,DELaWaRE sMaLL CaP CORE FUND INsTITUTIONaL CLass N,,Purchased,2017-12-26,,1001.0,15000.0
123,DELaWaRE sMaLL CaP CORE FUND INsTITUTIONaL CLass N,,Purchased,2017-12-26,,1001.0,15000.0
13,Delaware Value Fund,,Exchanged,2018-01-02,,,
14,Delaware Value Fund,,Sold,2018-01-02,,1001.0,15000.0
15,Delaware Value Fund,,Sold,2018-01-02,,1001.0,15000.0
31,Loomis sayles Growth Fund,,Sold,2018-01-02,,50001.0,100000.0
32,Loomis sayles Growth Fund,,Sold,2018-01-02,,1001.0,15000.0
33,Loomis sayles Growth Fund,,Exchanged,2018-01-02,,,
34,Loomis sayles Growth Fund,,Exchanged,2018-01-02,,,
35,Loomis sayles Growth Fund,,Sold,2018-01-02,,50001.0,100000.0
36,Loomis sayles Growth Fund,,Sold,2018-01-02,,1001.0,15000.0
46,T Rowe Price Health sciences Fund Investor Class,,Sold,2018-01-03,,15001.0,50000.0
47,T Rowe Price Health sciences Fund Investor Class,,Sold,2018-01-03,,15001.0,50000.0
10,American Outdoor Brands Corp,,Sold,2018-02-26,,1001.0,15000.0
11,American Outdoor Brands Corp,,Sold,2018-02-26,,1001.0,15000.0
12,American Outdoor Brands Corp,,Exchanged,2018-02-26,,,
25,IVY International Core Equity Fund,,Sold,2018-03-13,,50001.0,100000.0
26,IVY International Core Equity Fund,,Exchanged,2018-03-13,,,
27,IVY International Core Equity Fund,,Sold,2018-03-13,,50001.0,100000.0
48,Tweedy Browne Global Fund,,Sold,2018-03-13,,15001.0,50000.0
49,Tweedy Browne Global Fund,,Sold,2018-03-13,,15001.0,50000.0
50,Tweedy Browne Global Fund,,Exchanged,2018-03-13,,,
16,Destra Flaherty & Crumrine Preferred & INC FD,,Sold,2018-04-17,,50001.0,100000.0
17,Destra Flaherty & Crumrine Preferred & INC FD,,Sold,2018-04-17,,50001.0,100000.0
18,Destra Flaherty & Crumrine Preferred & INC FD,,Exchanged,2018-04-17,,,
22,Flaherty & Crumrine DYN Preferred,,Sold,2018-04-17,,50001.0,100000.0
23,Flaherty & Crumrine DYN Preferred,,Exchanged,2018-04-17,,,
24,Flaherty & Crumrine DYN Preferred,,Sold,2018-04-17,,50001.0,100000.0
19,Eaton Vance National Municipal Income Fund,,Sold,2018-05-04,,15001.0,50000.0
20,Eaton Vance National Municipal Income Fund,,Exchanged,2018-05-04,,,
21,Eaton Vance National Municipal Income Fund,,Sold,2018-05-04,,15001.0,50000.0
37,Nuveen High Yield Municipal Bond Fund,,Sold,2018-05-04,,15001.0,50000.0
38,Nuveen High Yield Municipal Bond Fund,,Exchanged,2018-05-04,,,
39,Nuveen High Yield Municipal Bond Fund,,Sold,2018-05-04,,15001.0,50000.0
28,Jenks ave Commercial Prop,,Sold,2018-05-25,,100001.0,250000.0
29,Jenks ave Commercial Prop,,Exchanged,2018-05-25,,,
30,Jenks ave Commercial Prop,,Sold,2018-05-25,,100001.0,250000.0
51,Vacant Industrial Park Lot,,Exchanged,2018-05-30,,,
52,Vacant Industrial Park Lot,,Sold,2018-05-30,,15001.0,50000.0
53,Vacant Industrial Park Lot,,Sold,2018-05-30,,15001.0,50000.0
40,Nuveen Preferred securities & Income Fund,,Exchanged,2018-06-21,,,
41,Nuveen Preferred securities & Income Fund,,Sold,2018-06-21,,50001.0,100000.0
42,Nuveen Preferred securities & Income Fund,,Sold,2018-06-21,,50001.0,100000.0
54,Vaneck Vectors Fallen angel High Yield Bond ET,,Sold,2018-06-21,,50001.0,100000.0
55,Vaneck Vectors Fallen angel High Yield Bond ET,,Exchanged,2018-06-21,,,
56,Vaneck Vectors Fallen angel High Yield Bond ET,,Sold,2018-06-21,,50001.0,100000.0
0,aB High Income Fund advisor shares,,Sold,2018-08-02,,1001.0,15000.0
5,aB High Income Fund advisor shares,,Sold,2018-08-02,,1001.0,15000.0
4,aB High Income Fund advisor shares,,Sold,2018-09-21,,1001.0,15000.0
9,aB High Income Fund advisor shares,,Sold,2018-09-21,,1001.0,15000.0
3,aB High Income Fund advisor shares,,Sold,2018-10-23,,1001.0,15000.0
8,aB High Income Fund advisor shares,,Sold,2018-10-23,,1001.0,15000.0
2,aB High Income Fund advisor shares,,Sold,2018-11-21,,1001.0,15000.0
7,aB High Income Fund advisor shares,,Sold,2018-11-21,,1001.0,15000.0
43,Residential Real Estate,,Purchased,2018-12-19,,250001.0,500000.0
44,Residential Real Estate,,Purchased,2018-12-19,,250001.0,500000.0
45,Residential Real Estate,,Sold,2018-12-19,,,
1,aB High Income Fund advisor shares,,Sold,2018-12-27,,1001.0,15000.0
6,aB High Income Fund advisor shares,,Sold,2018-12-27,,1001.0,15000.0
