,orgname,ultorg,action,date1,transnotes,minvalue,maxvalue
0,Ariel Fund Investor,,Sold,2014-08-06,--,1001,15000
1,Dodge & Cox Balanced (NASDAQ),,Sold,2014-08-06,--,1001,15000
3,Vanguard Balanced Index Inv (NASDAQ),,Sold,2014-08-06,--,1001,15000
2,SPDR Dow Jones Industrial Average ETF,,Sold,2014-08-08,--,1001,15000
