,orgname,ultorg,action,date1,transnotes,minvalue,maxvalue
44,Lots 572-623 Regal Park,,Sold,2008-01-04,,100001.0,250000.0
65,Lots In Cooper Creek,,Sold,2008-01-10,,15001.0,50000.0
78,US Treasury Bill,,Purchased,2008-01-24,,1000001.0,5000000.0
45,Lots 572-623 Regal Park,,Sold,2008-02-06,,100001.0,250000.0
46,Lots 572-623 Regal Park,,Sold,2008-02-07,,100001.0,250000.0
38,Lots 506-571 Regal Park,,Sold,2008-02-21,,100001.0,250000.0
0,"5725 86th Street/Lubbock, TX",,Sold,2008-02-26,,100001.0,250000.0
47,Lots 572-623 Regal Park,,Sold,2008-02-27,,100001.0,250000.0
48,Lots 572-623 Regal Park,,Sold,2008-02-28,,100001.0,250000.0
5,Citigroup Inc,,Sold,2008-02-29,,15001.0,50000.0
17,Goldman Sachs,,Purchased,2008-02-29,,50001.0,100000.0
18,Goldman Sachs,,Purchased,2008-02-29,,50001.0,100000.0
20,Goldman Sachs Structured Intl Equity Fnd,,Sold,2008-02-29,,100001.0,250000.0
22,Goldman Sachs Structured Intl Equity Fnd,,Sold,2008-02-29,,50001.0,100000.0
23,Goldman Sachs Structured US Equity,,Sold,2008-02-29,,100001.0,250000.0
49,Lots 572-623 Regal Park,,Sold,2008-03-05,,100001.0,250000.0
50,Lots 572-623 Regal Park,,Sold,2008-03-14,,100001.0,250000.0
51,Lots 572-623 Regal Park,,Sold,2008-03-19,,100001.0,250000.0
59,Lots In Cooper Creek,,Sold,2008-04-03,,15001.0,50000.0
66,Lots In Cooper Creek,,Sold,2008-04-24,,15001.0,50000.0
39,Lots 506-571 Regal Park,,Sold,2008-04-25,,100001.0,250000.0
52,Lots 572-623 Regal Park,,Sold,2008-04-29,,100001.0,250000.0
60,Lots In Cooper Creek,,Sold,2008-05-05,,15001.0,50000.0
40,Lots 506-571 Regal Park,,Sold,2008-05-06,,100001.0,250000.0
27,ING Intermediate Bond Fund,,Purchased,2008-05-23,,1001.0,15000.0
28,ING Pimco Total Return Portfolio,,Sold,2008-05-23,,1001.0,15000.0
29,ING Pioneer Mid Cap Value Port,,Purchased,2008-05-23,,1001.0,15000.0
30,ING Van Kampen Growth & Income,,Purchased,2008-05-23,,1001.0,15000.0
37,Lord Abbett Mid Cap Value Fund,,Sold,2008-05-23,,1001.0,15000.0
72,Pioneer Equity Income VCT Portfol,,Sold,2008-05-23,,1001.0,15000.0
41,Lots 506-571 Regal Park,,Sold,2008-06-03,,100001.0,250000.0
42,Lots 506-571 Regal Park,,Sold,2008-06-11,,100001.0,250000.0
79,US Treasury Bill,,Purchased,2008-06-12,,1000001.0,5000000.0
71,"New Richmond, WI G/O Bond",,Purchased,2008-06-19,,50001.0,100000.0
67,Lots In Cooper Creek,,Sold,2008-07-08,,15001.0,50000.0
68,Lots In Cooper Creek,,Sold,2008-07-21,,15001.0,50000.0
54,Lots 624-659 Regal Park,,Sold,2008-07-28,,100001.0,250000.0
43,Lots 506-571 Regal Park,,Sold,2008-08-06,,100001.0,250000.0
55,Lots 624-659 Regal Park,,Sold,2008-08-06,,100001.0,250000.0
58,Lots In Cooper Creek,,Purchased,2008-09-04,,15001.0,50000.0
9,Empowerment Enterprises,,Purchased,2008-09-12,,500001.0,1000000.0
82,Watercraft,,Purchased,2008-09-15,,500001.0,1000000.0
56,Lots 624-659 Regal Park,,Sold,2008-09-16,,100001.0,250000.0
61,Lots In Cooper Creek,,Sold,2008-10-02,,15001.0,50000.0
62,Lots In Cooper Creek,,Sold,2008-10-10,,15001.0,50000.0
69,Lots In Cooper Creek,,Sold,2008-10-16,,15001.0,50000.0
53,Lots 572-623 Regal Park,,Sold,2008-10-17,,100001.0,250000.0
70,Lots In Cooper Creek,,Sold,2008-10-24,,15001.0,50000.0
21,Goldman Sachs Structured Intl Equity Fnd,,Sold,2008-10-27,,100001.0,250000.0
32,iShares Msci Eafe Index,,Sold,2008-10-27,,50001.0,100000.0
63,Lots In Cooper Creek,,Sold,2008-10-28,,15001.0,50000.0
33,iShares Msci Eafe Index,,Sold,2008-10-28,,50001.0,100000.0
8,Dodge & Cox Balanced Fund,,Sold,2008-10-30,,15001.0,50000.0
81,Vanguard Capital Opportunity Fund,,Sold,2008-10-30,,15001.0,50000.0
1,AT&T Inc,,Sold,2008-10-31,,50001.0,100000.0
10,Exxon Mobil,,Sold,2008-10-31,,1001.0,15000.0
15,General Electric,,Sold,2008-10-31,,1001.0,15000.0
57,Lots 624-659 Regal Park,,Sold,2008-11-13,,100001.0,250000.0
12,Federal Home Loan Bank Govt Security,Federal Home Loan Bank System,Sold,2008-11-14,,1001.0,15000.0
64,Lots In Cooper Creek,,Sold,2008-11-24,,15001.0,50000.0
36,Limited Partner Investment,,Sold,2008-11-28,,500001.0,1000000.0
11,Federal Home Loan Bank Govt Security,Federal Home Loan Bank System,Sold,2008-12-03,,1001.0,15000.0
2,"Bedford, TX G/O Bond",,Sold,2008-12-04,,1001.0,15000.0
3,"Canton, TX ISD PSF Bond",,Sold,2008-12-04,,1001.0,15000.0
4,"Celina, TX ISD-PSF Bond",,Sold,2008-12-04,,1001.0,15000.0
6,"Dallas, TX ISD G/O Bond",,Sold,2008-12-04,,15001.0,50000.0
7,"Dickinson, TX ISD-PSF Bond",,Sold,2008-12-04,,1001.0,15000.0
13,"Floresville, TX ISD-PSF Bond",,Sold,2008-12-04,,1001.0,15000.0
14,"Forney, TX ISD-PSF Bond",,Sold,2008-12-04,,1001.0,15000.0
24,"Grandbury, TX G/O Bond",,Sold,2008-12-04,,1001.0,15000.0
25,"Grapevine, TX G/O Bond",,Sold,2008-12-04,,1001.0,15000.0
26,"Hays County, TX G/O Bond",,Sold,2008-12-04,,1001.0,15000.0
31,"Irving, TX G/O Bond",,Sold,2008-12-04,,1001.0,15000.0
34,"Keller, TX G/O Bond",,Sold,2008-12-04,,1001.0,15000.0
35,"League City, TX G/O Bond",,Sold,2008-12-04,,1001.0,15000.0
73,"Rockwall, TX Water Works Bond",,Sold,2008-12-04,,15001.0,50000.0
74,"San Jacinto, TX Cmnty College Bond",,Sold,2008-12-04,,1001.0,15000.0
75,"Tarrant Co, TX G/O Bond",,Sold,2008-12-04,,1001.0,15000.0
16,Goldman Sachs,,Purchased,2008-12-11,,250001.0,500000.0
76,Texas Public Finance Authority Bond,,Sold,2008-12-15,,100001.0,250000.0
83,Watercraft,,Purchased,2008-12-17,,500001.0,1000000.0
77,Texas Transn Commn St Hwy Fund Rev Bond,,Purchased,2008-12-31,,100001.0,250000.0
51,Lots/572-623 Regal Park,,Sold,2009-01-06,,1001.0,15000.0
62,Lots/Cooper Creek between 67 & 135,,Sold,2009-01-21,,50001.0,100000.0
52,Lots/624-659 Regal Park,,Sold,2009-01-26,,100001.0,250000.0
63,Lots/Cooper Creek between 67 & 135,,Sold,2009-01-26,,50001.0,100000.0
69,Lots/Cooper Creek between 7 & 95,,Sold,2009-01-26,,15001.0,50000.0
53,Lots/624-659 Regal Park,,Sold,2009-01-30,,100001.0,250000.0
54,Lots/624-659 Regal Park,,Sold,2009-02-04,,100001.0,250000.0
55,Lots/624-659 Regal Park,,Sold,2009-02-13,,100001.0,250000.0
5,Goldman Sachs,,Purchased,2009-03-09,,100001.0,250000.0
75,SPDR Gold Trust ETF,,Purchased,2009-03-09,,15001.0,50000.0
11,Goldman Sachs Liquid Assets Trust,,Purchased,2009-03-10,,15001.0,50000.0
76,SPDR Gold Trust ETF,,Purchased,2009-03-17,,15001.0,50000.0
3,"Gold, Silver & Bullion",Investment in LLI-II Development,Purchased,2009-03-20,,50001.0,100000.0
70,Lots/Cooper Creek between 7 & 95,,Sold,2009-03-31,,15001.0,50000.0
6,Goldman Sachs Financial Square Treasury ,,Purchased,2009-04-15,,15001.0,50000.0
12,Goldman Sachs Liquid Assets Trust,,Sold,2009-04-15,,15001.0,50000.0
64,Lots/Cooper Creek between 67 & 135,,Sold,2009-04-17,,50001.0,100000.0
4,"Gold, Silver & Bullion",Investment in LLI-II Development,Purchased,2009-04-19,,50001.0,100000.0
65,Lots/Cooper Creek between 67 & 135,,Sold,2009-04-21,,50001.0,100000.0
71,Lots/Cooper Creek between 7 & 95,,Sold,2009-04-23,,15001.0,50000.0
66,Lots/Cooper Creek between 67 & 135,,Sold,2009-05-06,,50001.0,100000.0
67,Lots/Cooper Creek between 67 & 135,,Sold,2009-05-27,,50001.0,100000.0
13,Goldman Sachs UltraShort Duration Govt,,Purchased,2009-06-10,,250001.0,500000.0
22,Goldman Sachs UltraShort Duration Govt,,Purchased,2009-06-12,,50001.0,100000.0
30,Goldman Sachs UltraShort Duration Govt,,Purchased,2009-06-12,,100001.0,250000.0
38,Goldman Sachs UltraShort Duration Govt,,Purchased,2009-06-12,,50001.0,100000.0
7,Goldman Sachs Financial Square Treasury ,,Sold,2009-06-15,,15001.0,50000.0
74,Pennsylvania Intergovnmntal Rev Bond,,Sold,2009-06-15,,100001.0,250000.0
73,Massachusetts G/O Bond,,Purchased,2009-06-18,,100001.0,250000.0
77,SPDR Gold Trust ETF,,Sold,2009-06-19,,15001.0,50000.0
0,18 Lots in Cooper Creek,Investment in LLI-II Development,Purchased,2009-06-24,,15001.0,50000.0
1,"6 Lots in Cooper Ridge, Various Lots bet",Investment in LLI-II Development,Purchased,2009-06-24,,1001.0,15000.0
48,Land/Blk E2 Sec 19 AB 104 & Blk E2,,Sold,2009-06-24,,15001.0,50000.0
49,"Lots/2-8 Cooper Stone/Lubbock, TX",Investment in LLI-II Development,Sold,2009-06-24,,1001.0,15000.0
50,"Lots/2-8 Cooper Stone/Lubbock, TX",Investment in LLI-II Development,Purchased,2009-06-24,,1001.0,15000.0
68,Lots/Cooper Creek between 67 & 135,,Sold,2009-06-24,,50001.0,100000.0
72,Lots/Cooper Creek between 7 & 95,,Sold,2009-06-24,,15001.0,50000.0
9,Goldman Sachs linked to MSCI EAFE,,Sold,2009-06-26,,50001.0,100000.0
10,Goldman Sachs linked to S&P 500,,Sold,2009-06-26,,50001.0,100000.0
14,Goldman Sachs UltraShort Duration Govt,,Purchased,2009-06-30,,250001.0,500000.0
23,Goldman Sachs UltraShort Duration Govt,,Purchased,2009-06-30,,50001.0,100000.0
31,Goldman Sachs UltraShort Duration Govt,,Purchased,2009-06-30,,100001.0,250000.0
39,Goldman Sachs UltraShort Duration Govt,,Purchased,2009-06-30,,50001.0,100000.0
2,"Farm Land/Crosby County, TX",,Purchased,2009-07-15,,15001.0,50000.0
40,Goldman Sachs UltraShort Duration Govt,,Purchased,2009-07-15,,50001.0,100000.0
47,Goldman Sachs UltraShort Duration Govt,,Sold,2009-07-15,,1001.0,15000.0
15,Goldman Sachs UltraShort Duration Govt,,Purchased,2009-07-31,,250001.0,500000.0
24,Goldman Sachs UltraShort Duration Govt,,Purchased,2009-07-31,,50001.0,100000.0
32,Goldman Sachs UltraShort Duration Govt,,Purchased,2009-07-31,,100001.0,250000.0
41,Goldman Sachs UltraShort Duration Govt,,Purchased,2009-07-31,,50001.0,100000.0
56,Lots/624-659 Regal Park,,Sold,2009-08-27,,100001.0,250000.0
16,Goldman Sachs UltraShort Duration Govt,,Purchased,2009-08-31,,250001.0,500000.0
25,Goldman Sachs UltraShort Duration Govt,,Purchased,2009-08-31,,50001.0,100000.0
33,Goldman Sachs UltraShort Duration Govt,,Purchased,2009-08-31,,100001.0,250000.0
42,Goldman Sachs UltraShort Duration Govt,,Purchased,2009-08-31,,50001.0,100000.0
59,Lots/Cooper Creek,,Sold,2009-09-09,,15001.0,50000.0
57,Lots/624-659 Regal Park,,Sold,2009-09-10,,100001.0,250000.0
17,Goldman Sachs UltraShort Duration Govt,,Purchased,2009-09-16,,250001.0,500000.0
60,Lots/Cooper Creek,,Sold,2009-09-16,,15001.0,50000.0
18,Goldman Sachs UltraShort Duration Govt,,Purchased,2009-09-30,,250001.0,500000.0
26,Goldman Sachs UltraShort Duration Govt,,Purchased,2009-09-30,,50001.0,100000.0
34,Goldman Sachs UltraShort Duration Govt,,Purchased,2009-09-30,,100001.0,250000.0
43,Goldman Sachs UltraShort Duration Govt,,Purchased,2009-09-30,,50001.0,100000.0
58,Lots/624-659 Regal Park,,Sold,2009-10-09,,100001.0,250000.0
19,Goldman Sachs UltraShort Duration Govt,,Purchased,2009-10-30,,250001.0,500000.0
27,Goldman Sachs UltraShort Duration Govt,,Purchased,2009-10-30,,50001.0,100000.0
35,Goldman Sachs UltraShort Duration Govt,,Purchased,2009-10-30,,100001.0,250000.0
44,Goldman Sachs UltraShort Duration Govt,,Purchased,2009-10-30,,50001.0,100000.0
20,Goldman Sachs UltraShort Duration Govt,,Purchased,2009-11-30,,250001.0,500000.0
28,Goldman Sachs UltraShort Duration Govt,,Purchased,2009-11-30,,50001.0,100000.0
36,Goldman Sachs UltraShort Duration Govt,,Purchased,2009-11-30,,100001.0,250000.0
45,Goldman Sachs UltraShort Duration Govt,,Purchased,2009-11-30,,50001.0,100000.0
61,Lots/Cooper Creek,,Sold,2009-12-10,,15001.0,50000.0
78,SPDR Gold Trust ETF,,Sold,2009-12-18,,15001.0,50000.0
21,Goldman Sachs UltraShort Duration Govt,,Purchased,2009-12-31,,250001.0,500000.0
29,Goldman Sachs UltraShort Duration Govt,,Purchased,2009-12-31,,50001.0,100000.0
37,Goldman Sachs UltraShort Duration Govt,,Purchased,2009-12-31,,100001.0,250000.0
46,Goldman Sachs UltraShort Duration Govt,,Purchased,2009-12-31,,50001.0,100000.0
40,Various Lots Between 624-659 Regal P,,Sold,2010-01-20,,100001.0,250000.0
20,Three Lots/Cooper,,Sold,2010-02-01,,1001.0,15000.0
23,Three Lots/Cooper,,Sold,2010-02-18,,15001.0,50000.0
1,Chandler Ariz G/O Bond,,Purchased,2010-02-24,,100001.0,250000.0
24,Three Lots/Cooper,,Sold,2010-03-02,,15001.0,50000.0
41,Various Lots Between 624-659 Regal P,,Sold,2010-03-02,,100001.0,250000.0
25,Three Lots/Cooper,,Sold,2010-03-15,,15001.0,50000.0
3,Goldman Sachs Ultra-Short Dura,,Sold,2010-03-22,,250001.0,500000.0
42,Various Lots Between 624-659 Regal P,,Sold,2010-03-24,,100001.0,250000.0
26,Three Lots/Cooper,,Sold,2010-03-26,,15001.0,50000.0
43,Various Lots Between 624-659 Regal P,,Sold,2010-03-31,,100001.0,250000.0
14,Mortgage Note Receivable/Robert,,Purchased,2010-04-01,,500001.0,1000000.0
27,Three Lots/Cooper,,Sold,2010-04-28,,15001.0,50000.0
16,"Orange Beach, AL Rev Bond",,Sold,2010-05-04,,100001.0,250000.0
12,Massachussets Bond,,Purchased,2010-05-12,,100001.0,250000.0
9,Land/72 Acres,,Sold,2010-06-01,,50001.0,100000.0
28,Three Lots/Cooper,,Sold,2010-06-01,,15001.0,50000.0
31,Trails at Regal P,,Purchased,2010-06-01,,50001.0,100000.0
6,Goldman Sachs UltraShort Duration Govt,,Sold,2010-06-25,,50001.0,100000.0
21,Three Lots/Cooper,,Sold,2010-07-20,,1001.0,15000.0
29,Three Lots/Cooper,,Sold,2010-07-29,,15001.0,50000.0
0,17 Lots/Cooper Ridge,,Purchased,2010-08-01,,15001.0,50000.0
10,Land/Blk E2 Sec 19 AB 104 & Blk E2,,Sold,2010-08-01,,15001.0,50000.0
44,Various Lots Between 624-659 Regal P,,Sold,2010-08-10,,100001.0,250000.0
30,Three Lots/Cooper,,Sold,2010-09-03,,15001.0,50000.0
11,"Lots/Cooper Ridge, Various",,Sold,2010-09-15,,1001.0,15000.0
4,Goldman Sachs Ultra-Short Dura,,Sold,2010-09-30,,250001.0,500000.0
5,Goldman Sachs UltraShort Duration Govt,,Sold,2010-09-30,,15001.0,50000.0
7,Goldman Sachs UltraShort Duration Govt,,Sold,2010-09-30,,50001.0,100000.0
8,Goldman Sachs UltraShort Duration Govt,,Sold,2010-09-30,,100001.0,250000.0
19,State of Texas G/O Bond,,Sold,2010-10-01,,50001.0,100000.0
15,New Mexico Finance Authority Bond,,Purchased,2010-10-04,,100001.0,250000.0
32,Trails at Regal P,,Sold,2010-10-19,,100001.0,250000.0
33,Trails at Regal P,,Sold,2010-10-22,,100001.0,250000.0
34,Trails at Regal P,,Sold,2010-10-28,,100001.0,250000.0
35,Trails at Regal P,,Sold,2010-11-05,,100001.0,250000.0
36,Trails at Regal P,,Sold,2010-11-11,,100001.0,250000.0
37,Trails at Regal P,,Sold,2010-11-15,,100001.0,250000.0
38,Trails at Regal P,,Sold,2010-11-22,,100001.0,250000.0
45,Various Lots Between 624-659 Regal P,,Sold,2010-11-22,,100001.0,250000.0
2,"Chicago, IL Metro Water Reclamation Bond",,Sold,2010-12-01,,100001.0,250000.0
46,Various Lots Between 624-659 Regal P,,Sold,2010-12-03,,100001.0,250000.0
13,"Memphis, TN G/O Bond",,Purchased,2010-12-08,,100001.0,250000.0
39,Trails at Regal P,,Sold,2010-12-09,,100001.0,250000.0
17,QR,,Purchased,2010-12-20,,15001.0,50000.0
18,QR,,Purchased,2010-12-20,,15001.0,50000.0
22,Three Lots/Cooper,,Sold,2010-12-30,,1001.0,15000.0
5,"6 Lots, Previously 30, in the Trails at ",,Sold,2011-01-01,,250001.0,500000.0
0,"3 Lots in Cooper Creek, Various Lots Bet",,Sold,2011-01-20,,1001.0,15000.0
14,"8 Lots in Cooper Ridge, Previously 17",,Sold,2011-01-24,,15001.0,50000.0
23,Goldman Sachs High Yield Municipal Fund,,Purchased,2011-01-31,,15001.0,50000.0
53,Lots/624-659 Regal Park,,Sold,2011-01-31,,50001.0,100000.0
6,"6 Lots, Previously 30, in the Trails at ",,Sold,2011-02-01,,250001.0,500000.0
54,Lots/624-659 Regal Park,,Sold,2011-02-24,,50001.0,100000.0
24,Goldman Sachs High Yield Municipal Fund,,Purchased,2011-02-28,,15001.0,50000.0
1,"3 Lots in Cooper Creek, Various Lots Bet",,Sold,2011-03-01,,1001.0,15000.0
25,Goldman Sachs High Yield Municipal Fund,,Purchased,2011-03-31,,15001.0,50000.0
2,"3 Lots in Cooper Creek, Various Lots Bet",,Sold,2011-04-06,,1001.0,15000.0
26,Goldman Sachs High Yield Municipal Fund,,Purchased,2011-04-29,,15001.0,50000.0
7,"6 Lots, Previously 30, in the Trails at ",,Sold,2011-05-01,,250001.0,500000.0
15,"8 Lots in Cooper Ridge, Previously 17",,Sold,2011-05-26,,15001.0,50000.0
36,GS High Yield Fund,,Purchased,2011-05-27,,1001.0,15000.0
38,GS Local Emerging Markets Debt Fund,,Purchased,2011-05-27,,1001.0,15000.0
35,Goldman Sachs High Yield Municipal Fund,,Sold,2011-05-27,,15001.0,50000.0
58,SPDR S&P 500 ETF,,Purchased,2011-05-27,,1001.0,15000.0
59,SPDRS S&P 500 ETF Trust,,Purchased,2011-05-27,,1001.0,15000.0
40,iShares MSCI EAFE Index,,Purchased,2011-05-27,,1001.0,15000.0
41,iShares MSCI EAFE Index,,Purchased,2011-05-27,,1001.0,15000.0
27,Goldman Sachs High Yield Municipal Fund,,Purchased,2011-05-31,,15001.0,50000.0
8,"6 Lots, Previously 30, in the Trails at ",,Sold,2011-06-01,,250001.0,500000.0
16,"8 Lots in Cooper Ridge, Previously 17",,Sold,2011-06-06,,15001.0,50000.0
45,Limited Partnership Investment in QR Ene,,Purchased,2011-06-08,,15001.0,50000.0
55,Lots/624-659 Regal Park,,Sold,2011-06-23,,50001.0,100000.0
28,Goldman Sachs High Yield Municipal Fund,,Purchased,2011-06-30,,15001.0,50000.0
9,"6 Lots, Previously 30, in the Trails at ",,Sold,2011-07-01,,250001.0,500000.0
17,"8 Lots in Cooper Ridge, Previously 17",,Sold,2011-07-18,,15001.0,50000.0
56,Lots/624-659 Regal Park,,Sold,2011-07-19,,50001.0,100000.0
18,"8 Lots in Cooper Ridge, Previously 17",,Sold,2011-07-27,,15001.0,50000.0
29,Goldman Sachs High Yield Municipal Fund,,Purchased,2011-07-29,,15001.0,50000.0
39,GS Local Emerging Markets Debt Fund,,Sold,2011-08-11,,1001.0,15000.0
3,"3 Lots in Cooper Creek, Various Lots Bet",,Sold,2011-08-16,,1001.0,15000.0
19,"8 Lots in Cooper Ridge, Previously 17",,Sold,2011-08-25,,15001.0,50000.0
30,Goldman Sachs High Yield Municipal Fund,,Purchased,2011-08-31,,15001.0,50000.0
10,"6 Lots, Previously 30, in the Trails at ",,Sold,2011-09-01,,250001.0,500000.0
43,Land/68 Acres,,Sold,2011-09-01,,15001.0,50000.0
46,"Lots in the Trails at Regal Park, Variou",,Purchased,2011-09-01,,15001.0,50000.0
20,"8 Lots in Cooper Ridge, Previously 17",,Sold,2011-09-19,,15001.0,50000.0
22,Garfield Pitkin & Eagle Cntys G/O Bond,,Purchased,2011-09-21,,50001.0,100000.0
4,"3 Lots in Cooper Creek, Various Lots Bet",,Sold,2011-09-26,,1001.0,15000.0
21,"8 Lots in Cooper Ridge, Previously 17",,Sold,2011-09-26,,15001.0,50000.0
31,Goldman Sachs High Yield Municipal Fund,,Purchased,2011-09-30,,15001.0,50000.0
11,"6 Lots, Previously 30, in the Trails at ",,Sold,2011-10-01,,250001.0,500000.0
47,"Lots in the Trails at Regal Park, Variou",,Sold,2011-10-13,,50001.0,100000.0
48,"Lots in the Trails at Regal Park, Variou",,Sold,2011-10-17,,50001.0,100000.0
49,"Lots in the Trails at Regal Park, Variou",,Sold,2011-10-27,,50001.0,100000.0
32,Goldman Sachs High Yield Municipal Fund,,Purchased,2011-10-31,,15001.0,50000.0
12,"6 Lots, Previously 30, in the Trails at ",,Sold,2011-11-01,,250001.0,500000.0
50,"Lots in the Trails at Regal Park, Variou",,Sold,2011-11-09,,50001.0,100000.0
51,"Lots in the Trails at Regal Park, Variou",,Sold,2011-11-15,,50001.0,100000.0
33,Goldman Sachs High Yield Municipal Fund,,Purchased,2011-11-30,,15001.0,50000.0
13,"6 Lots, Previously 30, in the Trails at ",,Sold,2011-12-01,,250001.0,500000.0
52,"Lots in the Trails at Regal Park, Variou",,Sold,2011-12-06,,50001.0,100000.0
37,GS High Yield Fund,,Purchased,2011-12-14,,1001.0,15000.0
42,Kingdom Enterprises,,Sold,2011-12-15,,100001.0,250000.0
44,Land/Blk E2 Sec 19 AB 104 & Blk E2,,Sold,2011-12-15,,15001.0,50000.0
57,Lots/Cooper Creek between 7 & 95,,Purchased,2011-12-15,,15001.0,50000.0
34,Goldman Sachs High Yield Municipal Fund,,Purchased,2011-12-30,,15001.0,50000.0
23,Hawaii G/O Bond,,Purchased,2012-01-03,,250001.0,500000.0
0,1 Lot In Cooper Creek,,Sold,2012-01-14,,1001.0,15000.0
53,Various Lots Between 624-659 R,,Sold,2012-01-20,,50001.0,100000.0
4,4 Lots/In The Trails,,Sold,2012-01-21,,15001.0,50000.0
5,4 Lots/In The Trails,,Sold,2012-01-30,,15001.0,50000.0
11,Goldman Sachs High Yield Muni Fund,,Purchased,2012-01-31,,1001.0,15000.0
44,Lots In The Trails At Regal Park,,Sold,2012-02-01,,50001.0,100000.0
2,1 Lot In Cooper Ridge,,Sold,2012-02-10,,1001.0,15000.0
45,Lots In The Trails At Regal Park,,Sold,2012-02-10,,50001.0,100000.0
32,Lots In Cooper Ridge,,Sold,2012-02-16,,15001.0,50000.0
6,5 Lots In Cooper Ridge,,Sold,2012-02-20,,1001.0,15000.0
24,Land 1276.569 Acres,,Sold,2012-02-21,,15001.0,50000.0
12,Goldman Sachs High Yield Muni Fund,,Purchased,2012-02-29,,1001.0,15000.0
33,Lots In Cooper Ridge,,Sold,2012-03-05,,15001.0,50000.0
46,Lots In The Trails At Regal Park,,Sold,2012-03-05,,50001.0,100000.0
34,Lots In Cooper Ridge,,Sold,2012-03-13,,15001.0,50000.0
47,Lots In The Trails At Regal Park,,Sold,2012-03-18,,50001.0,100000.0
13,Goldman Sachs High Yield Muni Fund,,Purchased,2012-03-30,,1001.0,15000.0
48,Lots In The Trails At Regal Park,,Sold,2012-04-24,,50001.0,100000.0
14,Goldman Sachs High Yield Muni Fund,,Purchased,2012-04-30,,1001.0,15000.0
35,Lots In Cooper Ridge,,Sold,2012-05-02,,15001.0,50000.0
54,Various Lots Between 624-659 R,,Sold,2012-05-03,,50001.0,100000.0
7,5 Lots In Cooper Ridge,,Sold,2012-05-10,,1001.0,15000.0
55,Various Lots Between 624-659 R,,Sold,2012-05-14,,50001.0,100000.0
15,Goldman Sachs High Yield Muni Fund,,Purchased,2012-05-31,,1001.0,15000.0
9,Goldman Sachs,,Sold,2012-06-15,,50001.0,100000.0
10,Goldman Sachs Group Bond,,Sold,2012-06-15,,100001.0,250000.0
16,Goldman Sachs High Yield Muni Fund,,Purchased,2012-06-29,,1001.0,15000.0
36,Lots In Cooper Ridge,,Sold,2012-07-09,,15001.0,50000.0
1,1 Lot In Cooper Creek,,Sold,2012-07-12,,1001.0,15000.0
37,Lots In Cooper Ridge,,Sold,2012-07-12,,15001.0,50000.0
31,"Lots 2-8 Cooper Stone, North Side",,Sold,2012-07-20,,1001.0,15000.0
38,Lots In Cooper Ridge,,Sold,2012-07-20,,15001.0,50000.0
3,1 Lot In Cooper Ridge,,Sold,2012-07-27,,1001.0,15000.0
17,Goldman Sachs High Yield Muni Fund,,Purchased,2012-07-31,,1001.0,15000.0
39,Lots In Cooper Ridge,,Sold,2012-08-14,,15001.0,50000.0
40,Lots In Cooper Ridge,,Sold,2012-08-20,,15001.0,50000.0
41,Lots In Cooper Ridge,,Sold,2012-08-23,,15001.0,50000.0
18,Goldman Sachs High Yield Muni Fund,,Purchased,2012-08-31,,1001.0,15000.0
8,5 Lots In Cooper Ridge,,Sold,2012-09-25,,1001.0,15000.0
19,Goldman Sachs High Yield Muni Fund,,Purchased,2012-09-28,,1001.0,15000.0
42,Lots In Cooper Ridge,,Sold,2012-10-18,,15001.0,50000.0
20,Goldman Sachs High Yield Muni Fund,,Purchased,2012-10-31,,1001.0,15000.0
43,Lots In Cooper Ridge,,Sold,2012-11-07,,15001.0,50000.0
27,Limited Partnership Investment,,Purchased,2012-11-14,,50001.0,100000.0
21,Goldman Sachs High Yield Muni Fund,,Purchased,2012-11-30,,1001.0,15000.0
28,Limited Partnership Investment,,Purchased,2012-12-06,,50001.0,100000.0
29,Limited Partnership Investment,,Purchased,2012-12-07,,50001.0,100000.0
25,"Land 20.501 Acres, Ak Sec 28",,Purchased,2012-12-12,,15001.0,50000.0
52,State of Connecticut Revenue Bond,,Purchased,2012-12-17,,100001.0,250000.0
49,Lots In The Trails At Regal Park,,Sold,2012-12-19,,50001.0,100000.0
30,"Lot 643 Of Regal Park Lubbock, Texas",,Purchased,2012-12-27,,1001.0,15000.0
56,Various Lots Between 624-659 R,,Sold,2012-12-28,,50001.0,100000.0
57,"Winnebago County, IL Revenue Bond",,Sold,2012-12-30,,100001.0,250000.0
22,Goldman Sachs High Yield Muni Fund,,Purchased,2012-12-31,,1001.0,15000.0
26,Land 49.834 Acres,,Sold,2012-12-31,,250001.0,500000.0
50,Lots In The Trails At Regal Park,,Purchased,2012-12-31,,100001.0,250000.0
51,Lots In The Trails At Regal Park,,Purchased,2012-12-31,,100001.0,250000.0
3,Brokerage Account - Goldman Sachs (20) Maui Cnt,,Purchased,2013-01-08,,100001.0,250000.0
8,"Gold, Silver & Bullion",,Purchased,2013-05-06,,1001.0,15000.0
5,Brokerage Account/Goldman Sachs,,Purchased,2013-05-22,,15001.0,50000.0
6,Brokerage Account/Goldman Sachs,,Purchased,2013-07-05,,15001.0,50000.0
12,Lubbock Land Investment I LP,,Sold,2013-08-01,,100001.0,250000.0
15,Sun American Corporate Bond,,Purchased,2013-08-19,,100001.0,250000.0
4,Brokerage Account - Goldman Sachs (21) Alabama,,Purchased,2013-08-21,,50001.0,100000.0
10,ING Life & Annuity Co/ING Large Cap Val,,Purchased,2013-09-06,,1001.0,15000.0
11,ING Life & Annuity Co/ING Pioneer Mid Cap,,Sold,2013-09-06,,1001.0,15000.0
14,QR Energy LP,,Sold,2013-10-18,,15001.0,50000.0
7,Empowerment Enterprises,,Sold,2013-11-07,Rental Equipment,250001.0,500000.0
13,Lubbock Land Investments II LP,,Sold,2013-11-30,,50001.0,100000.0
0,Brokerage Account - Goldman Sachs (18) Austin T,,Purchased,2013-12-06,,100001.0,250000.0
1,Brokerage Account - Goldman Sachs (19) Utah St,,Purchased,2013-12-09,,100001.0,250000.0
9,"Gold, Silver & Bullion",,Purchased,2013-12-16,,1001.0,15000.0
2,"Du Page Cnty, IL High Sch Dist G/O Bond",,Sold,2014-01-01,,1001.0,15000.0
54,Oshkosh Wis Water Rev Bond,,Sold,2014-01-01,,1001.0,15000.0
49,LLI-II Development Inc/Lots in Cooper Stone,LLI-II Development Inc,Sold,2014-01-22,,50001.0,100000.0
11,Investment in the Trails at Regal Park Development,,Sold,2014-02-05,,15001.0,50000.0
36,LLI-II Development Inc/1 Lot in Cooper Ridge,,Sold,2014-02-05,,1001.0,15000.0
0,Ally Bank Bond,,Sold,2014-02-18,,15001.0,50000.0
6,Investment in the Trails at Regal Park Development,,Sold,2014-02-19,,15001.0,50000.0
7,Investment in the Trails at Regal Park Development,,Sold,2014-03-21,,1001.0,15000.0
12,Investment in the Trails at Regal Park Development,,Sold,2014-03-24,,15001.0,50000.0
23,Kingdom Enterprises,,Sold,2014-05-01,,100001.0,250000.0
8,Investment in the Trails at Regal Park Development,,Sold,2014-05-02,,15001.0,50000.0
50,LLI-II Development Inc/Lots in Cooper Stone,LLI-II Development Inc,Sold,2014-05-15,,50001.0,100000.0
57,QR Energy LP,,Purchased,2014-05-15,,100001.0,250000.0
51,LLI-II Development Inc/Lots in Cooper Stone,LLI-II Development Inc,Sold,2014-05-19,,15001.0,50000.0
38,LLI-II Development Inc/Cooper Ridge Lots,LLI-II Development Inc,Sold,2014-05-21,,1001.0,15000.0
55,QR Energy LP,,Sold,2014-05-23,,15001.0,50000.0
32,"Kingdom Enterprises, Ltd/Goldman Sachs brokerage",,Sold,2014-05-28,,50001.0,100000.0
33,"Kingdom Enterprises, Ltd/Goldman Sachs brokerage",,Purchased,2014-05-28,,100001.0,250000.0
4,Investment in the Trails at Regal Park Development,,Sold,2014-05-31,,1001.0,15000.0
5,Investment in the Trails at Regal Park Development,,Sold,2014-05-31,,1001.0,15000.0
28,"Kingdom Enterprises, Ltd/Goldman Sachs brokerage",,Purchased,2014-06-09,,50001.0,100000.0
39,LLI-II Development Inc/Cooper Ridge Lots,LLI-II Development Inc,Sold,2014-06-13,,1001.0,15000.0
37,LLI-II Development Inc/Cooper Creek Lots btw #67,,Sold,2014-06-19,,1001.0,15000.0
56,QR Energy LP,,Sold,2014-06-24,,15001.0,50000.0
40,LLI-II Development Inc/Cooper Ridge Lots,LLI-II Development Inc,Purchased,2014-06-30,,100001.0,250000.0
13,Investment in the Trails at Regal Park Development,,Sold,2014-07-06,,1001.0,15000.0
9,Investment in the Trails at Regal Park Development,,Sold,2014-07-10,,50001.0,100000.0
60,"Richland County, SC Rec Dist Go Bond",,Sold,2014-07-14,,1001.0,15000.0
24,"Kingdom Enterprises, Ltd/Goldman Sachs brokerage",,Sold,2014-08-01,,250001.0,500000.0
41,LLI-II Development Inc/Cooper Ridge Lots,LLI-II Development Inc,Sold,2014-08-05,,15001.0,50000.0
30,"Kingdom Enterprises, Ltd/Goldman Sachs brokerage",,Purchased,2014-08-11,,100001.0,250000.0
3,El Paso Tex Go Bond,,Sold,2014-08-15,,15001.0,50000.0
29,"Kingdom Enterprises, Ltd/Goldman Sachs brokerage",,Purchased,2014-08-15,,100001.0,250000.0
53,McKinney Tex DB Bond,,Sold,2014-08-15,,1001.0,15000.0
42,LLI-II Development Inc/Cooper Ridge Lots,LLI-II Development Inc,Sold,2014-08-21,,1001.0,15000.0
43,LLI-II Development Inc/Cooper Ridge Lots,LLI-II Development Inc,Sold,2014-08-22,,1001.0,15000.0
10,Investment in the Trails at Regal Park Development,,Sold,2014-09-09,,1001.0,15000.0
20,Investment in the Trails at Regal Park Development,,Sold,2014-09-11,,1001.0,15000.0
44,LLI-II Development Inc/Cooper Ridge Lots,LLI-II Development Inc,Sold,2014-09-12,,1001.0,15000.0
45,LLI-II Development Inc/Cooper Ridge Lots,LLI-II Development Inc,Sold,2014-09-25,,1001.0,15000.0
62,Silver Trust Index Fund,,Purchased,2014-09-30,,1001.0,15000.0
63,Silver Trust Index Fund,,Purchased,2014-09-30,,1001.0,15000.0
1,Citi Bank CD,,Sold,2014-10-06,,1001.0,15000.0
46,LLI-II Development Inc/Cooper Ridge Lots,LLI-II Development Inc,Sold,2014-10-09,,1001.0,15000.0
16,Investment in the Trails at Regal Park Development,,Purchased,2014-10-15,,15001.0,50000.0
21,Kingdom Enterprises,,Sold,2014-10-15,,15001.0,50000.0
22,Kingdom Enterprises,,Sold,2014-10-15,,15001.0,50000.0
52,LLI-II Development Inc/Lots in Cooper Stone,LLI-II Development Inc,Sold,2014-10-16,,15001.0,50000.0
64,Silver US Eagles,,Purchased,2014-10-31,,1001.0,15000.0
14,Investment in the Trails at Regal Park Development,,Sold,2014-11-06,,1001.0,15000.0
61,Silver Leafs,,Purchased,2014-11-06,,1001.0,15000.0
15,Investment in the Trails at Regal Park Development,,Sold,2014-11-21,,1001.0,15000.0
47,LLI-II Development Inc/Cooper Ridge Lots,LLI-II Development Inc,Sold,2014-11-21,,1001.0,15000.0
48,LLI-II Development Inc/Cooper Ridge Lots,LLI-II Development Inc,Sold,2014-11-26,,1001.0,15000.0
25,"Kingdom Enterprises, Ltd/Goldman Sachs brokerage",,Sold,2014-12-01,,100001.0,250000.0
65,Silver US Eagles,,Purchased,2014-12-01,,1001.0,15000.0
17,Investment in the Trails at Regal Park Development,,Sold,2014-12-04,,15001.0,50000.0
27,"Kingdom Enterprises, Ltd/Goldman Sachs brokerage",,Purchased,2014-12-11,,100001.0,250000.0
26,"Kingdom Enterprises, Ltd/Goldman Sachs brokerage",,Purchased,2014-12-12,,100001.0,250000.0
18,Investment in the Trails at Regal Park Development,,Sold,2014-12-15,,1001.0,15000.0
19,Investment in the Trails at Regal Park Development,,Sold,2014-12-18,,1001.0,15000.0
34,"Kingdom Enterprises, Ltd/Goldman Sachs brokerage",,Sold,2014-12-19,,15001.0,50000.0
58,QR Energy LP,,Sold,2014-12-19,,50001.0,100000.0
35,"Kingdom Enterprises, Ltd/Goldman Sachs brokerage",,Sold,2014-12-22,,50001.0,100000.0
59,QR Energy LP,,Sold,2014-12-22,,100001.0,250000.0
66,Silver US Eagles,,Purchased,2014-12-31,,1001.0,15000.0
18,(i) LOT,,Sold,2016-01-01,,1001.0,15000.0
41,(i) LOT,,Sold,2016-01-01,,1001.0,15000.0
6,(g) LOT,,Sold,2016-01-15,,1001.0,15000.0
7,(g) LOT,,Sold,2016-01-15,,1001.0,15000.0
19,(i) LOT,,Sold,2016-01-19,,1001.0,15000.0
42,(i) LOT,,Sold,2016-01-19,,1001.0,15000.0
86,First Financial Bankshares Inc,,Purchased,2016-01-22,,1001.0,15000.0
89,First Financial Bankshares Inc,,Sold,2016-01-22,,,
94,First Financial Bankshares Inc,,Purchased,2016-01-22,,1001.0,15000.0
78,AMC Media Investment Group,,Purchased,2016-03-02,,15001.0,50000.0
79,AMC Media Investment Group,,Sold,2016-03-02,,,
80,AMC Media Investment Group,,Purchased,2016-03-02,,15001.0,50000.0
160,SPDR S&P 500 ETF,,Sold,2016-03-03,,1001.0,15000.0
161,SPDR S&P 500 ETF,,Exchanged,2016-03-03,,,
162,SPDR S&P 500 ETF,,Exchanged,2016-03-03,,,
163,SPDR S&P 500 ETF,,Sold,2016-03-03,,1001.0,15000.0
164,SPDR S&P 500 ETF,,Sold,2016-03-03,,1001.0,15000.0
165,SPDR S&P 500 ETF,,Sold,2016-03-03,,1001.0,15000.0
151,Silver Trust Index Fund,,Exchanged,2016-03-03,,,
152,Silver Trust Index Fund,,Exchanged,2016-03-03,,,
153,Silver Trust Index Fund,,Sold,2016-03-03,,1001.0,15000.0
154,Silver Trust Index Fund,,Sold,2016-03-03,,1001.0,15000.0
155,Silver Trust Index Fund,,Sold,2016-03-03,,1001.0,15000.0
156,Silver Trust Index Fund,,Sold,2016-03-03,,1001.0,15000.0
116,iShares MSCI EAFE Index Fund,,Sold,2016-03-03,,1001.0,15000.0
117,iShares MSCI EAFE Index Fund,,Sold,2016-03-03,,1001.0,15000.0
118,iShares MSCI EAFE Index Fund,,Exchanged,2016-03-03,,,
119,iShares MSCI EAFE Index Fund,,Exchanged,2016-03-03,,,
120,iShares MSCI EAFE Index Fund,,Sold,2016-03-03,,1001.0,15000.0
121,iShares MSCI EAFE Index Fund,,Sold,2016-03-03,,1001.0,15000.0
20,(i) LOT,,Sold,2016-03-07,,1001.0,15000.0
43,(i) LOT,,Sold,2016-03-07,,1001.0,15000.0
101,"Gold, Silver & Bullion",,Sold,2016-03-17,,15001.0,50000.0
108,"Gold, Silver & Bullion",,Sold,2016-03-17,,15001.0,50000.0
21,(i) LOT,,Sold,2016-03-25,,1001.0,15000.0
44,(i) LOT,,Sold,2016-03-25,,1001.0,15000.0
81,CONOCO PHILLIPS CORP COM,,Sold,2016-03-28,,1001.0,15000.0
82,CONOCO PHILLIPS CORP COM,,Exchanged,2016-03-28,,,
83,CONOCO PHILLIPS CORP COM,,Sold,2016-03-28,,1001.0,15000.0
22,(i) LOT,,Sold,2016-04-01,,1001.0,15000.0
45,(i) LOT,,Sold,2016-04-01,,1001.0,15000.0
133,Lots In Cooper Ridge,,Sold,2016-04-01,,1001.0,15000.0
142,Lots In Cooper Ridge,,Sold,2016-04-01,,1001.0,15000.0
72,aCCOUNT - GOLDMaN SaCHS/(10),,Purchased,2016-04-12,,100001.0,250000.0
73,aCCOUNT - GOLDMaN SaCHS/(10),,Sold,2016-04-12,,,
74,aCCOUNT - GOLDMaN SaCHS/(10),,Purchased,2016-04-12,,100001.0,250000.0
23,(i) LOT,,Sold,2016-04-15,,1001.0,15000.0
46,(i) LOT,,Sold,2016-04-15,,1001.0,15000.0
134,Lots In Cooper Ridge,,Sold,2016-04-18,,1001.0,15000.0
143,Lots In Cooper Ridge,,Sold,2016-04-18,,1001.0,15000.0
24,(i) LOT,,Sold,2016-04-26,,1001.0,15000.0
47,(i) LOT,,Sold,2016-04-26,,1001.0,15000.0
4,(f) LOT,,Sold,2016-05-17,,1001.0,15000.0
5,(f) LOT,,Sold,2016-05-17,,1001.0,15000.0
135,Lots In Cooper Ridge,,Sold,2016-05-20,,1001.0,15000.0
144,Lots In Cooper Ridge,,Sold,2016-05-20,,1001.0,15000.0
1,(c) LOT,,Exchanged,2016-05-25,,,
2,(c) LOT,,Sold,2016-05-25,,1001.0,15000.0
3,(c) LOT,,Sold,2016-05-25,,1001.0,15000.0
113,INTERNaTIONaL PaPER CO COM,,Sold,2016-05-25,,1001.0,15000.0
114,INTERNaTIONaL PaPER CO COM,,Exchanged,2016-05-25,,,
115,INTERNaTIONaL PaPER CO COM,,Sold,2016-05-25,,1001.0,15000.0
25,(i) LOT,,Sold,2016-06-01,,1001.0,15000.0
48,(i) LOT,,Sold,2016-06-01,,1001.0,15000.0
26,(i) LOT,,Sold,2016-06-03,,1001.0,15000.0
49,(i) LOT,,Sold,2016-06-03,,1001.0,15000.0
10,(i) LOT,,Sold,2016-06-06,,15001.0,50000.0
14,(i) LOT,,Sold,2016-06-06,,15001.0,50000.0
65,(j) LOT,,Sold,2016-06-15,,,
67,(j) LOT,,Purchased,2016-06-15,,100001.0,250000.0
68,(j) LOT,,Purchased,2016-06-15,,100001.0,250000.0
131,Kingdom Enterprises,,Sold,2016-06-15,,100001.0,250000.0
157,SPDR Gold Shares ETF,,Sold,2016-06-15,,1001.0,15000.0
158,SPDR Gold Shares ETF,,Sold,2016-06-15,,1001.0,15000.0
159,SPDR Gold Shares ETF,,Exchanged,2016-06-15,,,
136,Lots In Cooper Ridge,,Sold,2016-06-21,,1001.0,15000.0
145,Lots In Cooper Ridge,,Sold,2016-06-21,,1001.0,15000.0
11,(i) LOT,,Sold,2016-06-23,,15001.0,50000.0
15,(i) LOT,,Sold,2016-06-23,,15001.0,50000.0
93,First Financial Bankshares Inc,,Sold,2016-06-23,,15001.0,50000.0
97,First Financial Bankshares Inc,,Sold,2016-06-23,,15001.0,50000.0
137,Lots In Cooper Ridge,,Sold,2016-06-23,,1001.0,15000.0
146,Lots In Cooper Ridge,,Sold,2016-06-23,,1001.0,15000.0
12,(i) LOT,,Sold,2016-06-26,,15001.0,50000.0
16,(i) LOT,,Sold,2016-06-26,,15001.0,50000.0
87,First Financial Bankshares Inc,,Purchased,2016-06-27,,1001.0,15000.0
90,First Financial Bankshares Inc,,Sold,2016-06-27,,,
95,First Financial Bankshares Inc,,Purchased,2016-06-27,,1001.0,15000.0
88,First Financial Bankshares Inc,,Purchased,2016-06-29,,1001.0,15000.0
91,First Financial Bankshares Inc,,Sold,2016-06-29,,,
96,First Financial Bankshares Inc,,Purchased,2016-06-29,,1001.0,15000.0
130,Kingdom Enterprises,,Sold,2016-07-01,,100001.0,250000.0
84,First Financial Bankshares Inc,,Sold,2016-07-08,,1001.0,15000.0
85,First Financial Bankshares Inc,,Exchanged,2016-07-08,,,
92,First Financial Bankshares Inc,,Sold,2016-07-08,,1001.0,15000.0
69,aCCOUNT - GOLDMaN SaCHS/( 5),,Purchased,2016-07-12,,100001.0,250000.0
70,aCCOUNT - GOLDMaN SaCHS/( 5),,Sold,2016-07-12,,,
71,aCCOUNT - GOLDMaN SaCHS/( 5),,Purchased,2016-07-12,,100001.0,250000.0
27,(i) LOT,,Sold,2016-07-29,,1001.0,15000.0
50,(i) LOT,,Sold,2016-07-29,,1001.0,15000.0
28,(i) LOT,,Sold,2016-08-03,,1001.0,15000.0
51,(i) LOT,,Sold,2016-08-03,,1001.0,15000.0
29,(i) LOT,,Sold,2016-08-22,,1001.0,15000.0
52,(i) LOT,,Sold,2016-08-22,,1001.0,15000.0
30,(i) LOT,,Sold,2016-08-24,,1001.0,15000.0
53,(i) LOT,,Sold,2016-08-24,,1001.0,15000.0
122,iShares Silver Trust,,Sold,2016-08-26,,936.0,936.0
123,iShares Silver Trust,,Purchased,2016-08-26,,1001.0,15000.0
125,iShares Silver Trust,,Sold,2016-08-26,,,
127,iShares Silver Trust,,Purchased,2016-08-26,,1001.0,15000.0
129,iShares Silver Trust,,Sold,2016-08-26,,936.0,936.0
138,Lots In Cooper Ridge,,Sold,2016-08-31,,1001.0,15000.0
147,Lots In Cooper Ridge,,Sold,2016-08-31,,1001.0,15000.0
0,( 2),,Sold,2016-09-01,,100001.0,250000.0
31,(i) LOT,,Sold,2016-09-01,,1001.0,15000.0
54,(i) LOT,,Sold,2016-09-01,,1001.0,15000.0
110,Goldman Sachs Account 2,,Exchanged,2016-09-01,,,
112,Goldman Sachs Account 2,,Sold,2016-09-01,,100001.0,250000.0
32,(i) LOT,,Sold,2016-09-06,,1001.0,15000.0
55,(i) LOT,,Sold,2016-09-06,,1001.0,15000.0
64,(j) LOT,,Sold,2016-09-07,,1001.0,15000.0
66,(j) LOT,,Sold,2016-09-07,,1001.0,15000.0
33,(i) LOT,,Sold,2016-09-27,,1001.0,15000.0
56,(i) LOT,,Sold,2016-09-27,,1001.0,15000.0
34,(i) LOT,,Sold,2016-10-04,,1001.0,15000.0
57,(i) LOT,,Sold,2016-10-04,,1001.0,15000.0
75,aCCOUNT - GOLDMaN SaCHS/(21),,Purchased,2016-10-04,,100001.0,250000.0
76,aCCOUNT - GOLDMaN SaCHS/(21),,Sold,2016-10-04,,,
77,aCCOUNT - GOLDMaN SaCHS/(21),,Purchased,2016-10-04,,100001.0,250000.0
98,"Gold, Silver & Bullion",,Purchased,2016-10-15,,1001.0,15000.0
102,"Gold, Silver & Bullion",,Sold,2016-10-15,,,
105,"Gold, Silver & Bullion",,Purchased,2016-10-15,,1001.0,15000.0
35,(i) LOT,,Sold,2016-10-19,,1001.0,15000.0
58,(i) LOT,,Sold,2016-10-19,,1001.0,15000.0
139,Lots In Cooper Ridge,,Sold,2016-10-21,,1001.0,15000.0
148,Lots In Cooper Ridge,,Sold,2016-10-21,,1001.0,15000.0
13,(i) LOT,,Sold,2016-11-14,,15001.0,50000.0
17,(i) LOT,,Sold,2016-11-14,,15001.0,50000.0
124,iShares Silver Trust,,Purchased,2016-11-14,,1001.0,15000.0
126,iShares Silver Trust,,Sold,2016-11-14,,,
128,iShares Silver Trust,,Purchased,2016-11-14,,1001.0,15000.0
99,"Gold, Silver & Bullion",,Purchased,2016-11-16,,1001.0,15000.0
103,"Gold, Silver & Bullion",,Sold,2016-11-16,,,
106,"Gold, Silver & Bullion",,Purchased,2016-11-16,,1001.0,15000.0
100,"Gold, Silver & Bullion",,Purchased,2016-11-17,,1001.0,15000.0
104,"Gold, Silver & Bullion",,Sold,2016-11-17,,,
107,"Gold, Silver & Bullion",,Purchased,2016-11-17,,1001.0,15000.0
36,(i) LOT,,Sold,2016-11-18,,1001.0,15000.0
59,(i) LOT,,Sold,2016-11-18,,1001.0,15000.0
37,(i) LOT,,Sold,2016-11-22,,1001.0,15000.0
60,(i) LOT,,Sold,2016-11-22,,1001.0,15000.0
38,(i) LOT,,Sold,2016-12-02,,1001.0,15000.0
61,(i) LOT,,Sold,2016-12-02,,1001.0,15000.0
140,Lots In Cooper Ridge,,Sold,2016-12-12,,1001.0,15000.0
149,Lots In Cooper Ridge,,Sold,2016-12-12,,1001.0,15000.0
39,(i) LOT,,Sold,2016-12-21,,1001.0,15000.0
62,(i) LOT,,Sold,2016-12-21,,1001.0,15000.0
40,(i) LOT,,Sold,2016-12-22,,1001.0,15000.0
63,(i) LOT,,Sold,2016-12-22,,1001.0,15000.0
8,(h) LOT,,Sold,2016-12-28,,50001.0,100000.0
9,(h) LOT,,Sold,2016-12-28,,50001.0,100000.0
132,Lots In Cooper Ridge,,Sold,2016-12-31,,1001.0,15000.0
141,Lots In Cooper Ridge,,Sold,2016-12-31,,1001.0,15000.0
150,Lots In Cooper Ridge,,Exchanged,2016-12-31,,,
2,Brokerage Account - Goldman Sachs (2) GS High Y,,Purchased,,,15001.0,50000.0
109,Goldman Sachs Account 2,,Purchased,,,15001.0,50000.0
111,Goldman Sachs Account 2,,Purchased,,,15001.0,50000.0
8,Goldman Sachs High Yield Fund,,Purchased,,,1001.0,15000.0
19,Goldman Sachs High Yield Municipal Fund,,Purchased,,,1001.0,15000.0
31,"Kingdom Enterprises, Ltd/Goldman Sachs brokerage",,Purchased,,,15001.0,50000.0
80,US Treasury Bill,,Sold,,,1000001.0,5000000.0
