,orgname,ultorg,action,date1,transnotes,minvalue,maxvalue
0,Outreach Media Solutions - loan,,Purchased,2011-01-01,,15001,50000
1,Solazyme,,Purchased,2011-05-26,,100001,250000
2,Solazyme,,Sold,2011-08-05,,100001,250000
0,Facebook Inc,,Purchased,2012-05-18,,1001,15000
1,House/7400 Gwin St Valley Springs CA,,Purchased,2012-08-26,,100001,250000
0,Granite Construction Inc,,Purchased,2013-11-08,,1001,15000
1,Twitter Inc,,Purchased,2013-11-08,,1001,15000
0,Davis House,,Purchased,2014-08-15,,250001,500000
2,Rental Property,,Sold,2014-10-10,,250001,500000
3,Rental Property 2,,Sold,2014-11-07,,250001,500000
1,Miwok Ridge Ranch,,Purchased,2014-12-02,,50001,100000
4,Solazyme Inc,,Sold,2015-08-14,,1001,15000
0,7344 Gwin St/Valley Springs CA,,Purchased,,,100001,250000
0,"Facebook, Inc. - Class A (FB)",,Purchased,,,1001,15000
1,Health Fusion,,Sold,,,250001,500000
2,Health Fusion,,Sold,,,15001,50000
0,"House/E Capitol St/Washington, DC",,Purchased,,,500001,1000000
3,"Solazyme, Inc. (SZYM)",,Purchased,,,1001,15000
4,"Twitter, Inc. (TWTR)",,Purchased,,,1001,15000
