orgname,ultorg,action,date1,transnotes,minvalue,maxvalue
aMERICaN CENTURY HIGH,"",Purchased,Monthly,"",1001,15000
aMERICaN CENTURY HIGH,"",Purchased,Monthly,"",1001,15000
American Funds Growth Fund of America,"",Purchased,Monthly,"",1001,15000
American Funds Growth Fund of America,"",Sold,Quarterly,"",1001,15000
American Funds Growth Fund of America,"",Sold,Quarterly,"",50001,100000
American Funds Growth Fund of America,"",Purchased,Monthly,"",1001,15000
American Funds Growth Fund of America,"",Purchased,Monthly,"",1001,15000
American Funds Growth Fund of America,"",Purchased,Monthly,"",1001,15000
American Funds Growth Fund of America,"",Sold,Quarterly,"",1001,15000
American Funds Growth Fund of America,"",Sold,Quarterly,"",50001,100000
American Funds Washington Mututal Fund,"",Sold,Quarterly,"",1001,15000
American Funds Washington Mututal Fund,"",Sold,Quarterly,"",1001,15000
American Funds Washington Mututal Fund,"",Sold,Quarterly,"",15001,50000
American Funds Washington Mututal Fund,"",Purchased,Monthly,"",15001,50000
American Funds Washington Mututal Fund,"",Purchased,Monthly,"",1001,15000
American Funds Washington Mututal Fund,"",Purchased,Monthly,"",1001,15000
American Funds Washington Mututal Fund,"",Sold,Quarterly,"",15001,50000
American Funds Washington Mututal Fund,"",Purchased,Monthly,"",15001,50000
Artisan Fund International Fund,"",Purchased,Monthly,"",15001,50000
Artisan Fund International Fund,"",Purchased,Monthly,"",15001,50000
Artisan Fund International Fund,"",Sold,8/29/2017,"",1001,15000
Artisan Fund International Fund,"",Sold,8/29/2017,"",1001,15000
BLaCKROCK INFLaTION,"",Purchased,Monthly,"",15001,50000
BLaCKROCK INFLaTION,"",Sold,Quarterly,"",1001,15000
BLaCKROCK INFLaTION,"",Sold,Quarterly,"",1001,15000
BLaCKROCK INFLaTION,"",Purchased,Monthly,"",15001,50000
Eaton Vance Floating Rate Fund,"",Purchased,Monthly,"",1001,15000
Eaton Vance Floating Rate Fund,"",Sold,Quarterly,"",1001,15000
Eaton Vance Floating Rate Fund,"",Sold,Quarterly,"",1001,15000
Eaton Vance Floating Rate Fund,"",Purchased,Monthly,"",1001,15000
FRaNKLIN Ca INTERM TERM,"",Purchased,Monthly,"",100001,250000
FRaNKLIN Ca INTERM TERM,"",Sold,Quarterly,"",15001,50000
FRaNKLIN Ca INTERM TERM,"",Sold,Quarterly,"",15001,50000
FRaNKLIN Ca INTERM TERM,"",Purchased,Monthly,"",100001,250000
Franklin California Tax Free,"",Purchased,Monthly,"",100001,250000
Franklin California Tax Free,"",Sold,Quarterly,"",1001,15000
Franklin California Tax Free,"",Purchased,Monthly,"",100001,250000
Franklin California Tax Free,"",Sold,Quarterly,"",1001,15000
Franklin Sm-Mid Cap Gr,"",Sold,Quarterly,"",1001,15000
Franklin Sm-Mid Cap Gr,"",Purchased,Monthly,"",1001,15000
Franklin Sm-Mid Cap Gr,"",Purchased,Monthly,"",1001,15000
Franklin Sm-Mid Cap Gr,"",Purchased,Monthly,"",1001,15000
Franklin Sm-Mid Cap Gr,"",Sold,Quarterly,"",1001,15000
Franklin Sm-Mid Cap Gr,"",Purchased,Monthly,"",1001,15000
Glenmede Small Cap,"",Purchased,Monthly,"",15001,50000
Glenmede Small Cap,"",Sold,Quarterly,"",1001,15000
Glenmede Small Cap,"",Purchased,Monthly,"",1001,15000
Glenmede Small Cap,"",Sold,Quarterly,"",15001,50000
Glenmede Small Cap,"",Purchased,Monthly,"",15001,50000
Glenmede Small Cap,"",Purchased,Monthly,"",1001,15000
Glenmede Small Cap,"",Sold,Quarterly,"",1001,15000
Glenmede Small Cap,"",Sold,Quarterly,"",15001,50000
Hartford Growth,"",Sold,Quarterly,"",15001,50000
Hartford Growth,"",Sold,Quarterly,"",15001,50000
Mainstay High Yield,"",Sold,Quarterly,"",1001,15000
Mainstay High Yield,"",Sold,Quarterly,"",1001,15000
Mainstay Large Cap,"",Sold,Quarterly,"",50001,100000
Mainstay Large Cap,"",Sold,Quarterly,"",50001,100000
MFS Total Return Bond,"",Purchased,Monthly,"",1001,15000
MFS Total Return Bond,"",Purchased,Monthly,"",1001,15000
MFS Value Fund,"",Sold,Monthly,"",15001,50000
MFS Value Fund,"",Sold,Quarterly,"",1001,15000
MFS Value Fund,"",Purchased,Monthly,"",1001,15000
MFS Value Fund,"",Purchased,Monthly,"",1001,15000
MFS Value Fund,"",Sold,Quarterly,"",1001,15000
MFS Value Fund,"",Sold,Monthly,"",15001,50000
Oppenheimer Internatl,"",Sold,Quarterly,"",1001,15000
Oppenheimer Internatl,"",Sold,Quarterly,"",1001,15000
Oppenheimer Internatl,"",Sold,Quarterly,"",1001,15000
Oppenheimer Internatl,"",Purchased,Monthly,"",15001,50000
Oppenheimer Internatl,"",Purchased,Monthly,"",1001,15000
Oppenheimer Internatl,"",Purchased,Monthly,"",15001,50000
Oppenheimer Internatl,"",Sold,Quarterly,"",1001,15000
Oppenheimer Internatl,"",Purchased,Monthly,"",1001,15000
Pimco Low Duration Fund,"",Sold,Quarterly,"",1001,15000
Pimco Low Duration Fund,"",Purchased,Monthly,"",1001,15000
Pimco Low Duration Fund,"",Purchased,Monthly,"",1001,15000
Pimco Low Duration Fund,"",Sold,Quarterly,"",1001,15000
PIMCO Total Return Fund,"",Purchased,Monthly,"",1001,15000
PIMCO Total Return Fund,"",Purchased,Monthly,"",1001,15000
SPDR BLMBRG BaRCLaYS,"",Sold,Quarterly,"",250001,500000
SPDR BLMBRG BaRCLaYS,"",Sold,Quarterly,"",250001,500000
SPDR Portfolio aggregate Bond ETF,"",Purchased,Monthly,"",1001,15000
SPDR Portfolio aggregate Bond ETF,"",Purchased,Monthly,"",1001,15000
The Oakmark International Fund,"",Purchased,Monthly,"",1001,15000
The Oakmark International Fund,"",Sold,Quarterly,"",1001,15000
The Oakmark International Fund,"",Purchased,Monthly,"",1001,15000
The Oakmark International Fund,"",Sold,Quarterly,"",1001,15000
Thornburg International,"",Sold,Quarterly,"",1001,15000
Thornburg International,"",Sold,Quarterly,"",1001,15000
Thornburg International,"",Purchased,Monthly,"",1001,15000
Thornburg International,"",Purchased,Monthly,"",50001,100000
Thornburg International,"",Sold,Quarterly,"",1001,15000
Thornburg International,"",Purchased,Monthly,"",50001,100000
Thornburg International,"",Purchased,Monthly,"",1001,15000
Thornburg International,"",Sold,Quarterly,"",1001,15000
Vanguard 500 Index,"",Sold,Quarterly,"",1001,15000
Vanguard 500 Index,"",Sold,Quarterly,"",1001,15000
VaNGUaRD FTSE DEVELOPED,"",Sold,Quarterly,"",1001,15000
VaNGUaRD FTSE DEVELOPED,"",Sold,Quarterly,"",1001,15000
