orgname,ultorg,action,date1,transnotes,minvalue,maxvalue
AMG Yacktman Focused Fund,"",Purchased,Nov 24 2014,--,1001,15000
BlackRock Global Allocation Fund,"",Sold,Nov 24 2014,Sale (Full),15001,50000
BlackRock Global Allocation Fund,"",Sold,Nov 24 2014,Sale (Full),1001,15000
First Eagle Global Fund,"",Purchased,Nov 25 2014,--,1001,15000
Janus Balanced Fund,"",Purchased,Nov 24 2014,--,15001,50000
Janus Balanced Fund,"",Purchased,Dec 18 2014,--,15001,50000
MainStay Marketfield I (NASDAQ),"",Sold,Oct  8 2014,Sale (Full),1001,15000
Oakmark Global I (NASDAQ),"",Purchased,Nov 24 2014,--,1001,15000
Schwab US Broad Market ETF,"",Purchased,Nov 24 2014,--,1001,15000
