orgname,ultorg,action,date1,transnotes,minvalue,maxvalue
American Century Small Cap Growth,"",Sold,Jan 31 2011,"",1001,15000
Cole Property Trust II,"",Sold,Jan 31 2011,"",250001,500000
Direxion ETF LL Cap,"",Sold,Aug  8 2011,"",50001,100000
Fusion Moderate,"",Sold,Aug  8 2011,"",50001,100000
Goldman Sachs Growth Opportunities Fund,"",Sold,Aug  8 2011,"",100001,250000
Goldman Sachs Mid Cap Value Fund,"",Sold,Aug  8 2011,"",50001,100000
