orgname,ultorg,action,date1,transnotes,minvalue,maxvalue
Broad Based Consumer Credit (Q) Fund,"",Sold,07/15/2016,Sale (Partial),1001,15000
Broad Based Consumer Credit (Q) Fund,"",Sold,07/25/2016,Sale (Partial),1001,15000
Broad Based Consumer Credit (Q) Fund,"",Sold,08/12/2016,Sale (Partial),1001,15000
Broad Based Consumer Credit (Q) Fund,"",Sold,08/22/2016,Sale (Partial),1001,15000
Broad Based Consumer Credit (Q) Fund,"",Sold,09/15/2016,Sale (Partial),1001,15000
Broad Based Consumer Credit (Q) Fund,"",Sold,09/28/2016,Sale (Partial),1001,15000
Broad Based Consumer Credit (Q) Fund,"",Sold,10/14/2016,Sale (Partial),1001,15000
Broad Based Consumer Credit (Q) Fund,"",Sold,10/25/2016,Sale (Partial),1001,15000
Broad Based Consumer Credit (Q) Fund,"",Sold,11/15/2016,Sale (Partial),1001,15000
Broad Based Consumer Credit (Q) Fund,"",Sold,11/22/2016,Sale (Partial),1001,15000
Broad Based Consumer Credit (Q) Fund,"",Sold,12/14/2016,Sale (Partial),1001,15000
Broad Based Consumer Credit (Q) Fund,"",Sold,12/22/2016,Sale (Partial),1001,15000
Broad Based Consumer Credit Fund,"",Sold,Sep 15 2016,Sale (Partial),1001,15000
Broad Based Consumer Credit Fund,"",Sold,Sep 28 2016,Sale (Partial),1001,15000
Broad Based Consumer Credit Fund,"",Sold,Jul 15 2016,Sale (Partial),1001,15000
Broad Based Consumer Credit Fund,"",Sold,Jul 25 2016,Sale (Partial),1001,15000
Broad Based Consumer Credit Fund,"",Sold,Aug 12 2016,Sale (Partial),1001,15000
Broad Based Consumer Credit Fund,"",Sold,Aug 22 2016,Sale (Partial),1001,15000
Broad Based Consumer Credit Fund,"",Sold,Oct 14 2016,Sale (Partial),1001,15000
Broad Based Consumer Credit Fund,"",Sold,Oct 25 2016,Sale (Partial),1001,15000
Broad Based Consumer Credit Fund,"",Sold,Nov 15 2016,Sale (Partial),1001,15000
Broad Based Consumer Credit Fund,"",Sold,Nov 22 2016,Sale (Partial),1001,15000
Broad Based Consumer Credit Fund,"",Sold,Dec 14 2016,Sale (Partial),1001,15000
Broad Based Consumer Credit Fund,"",Sold,Dec 22 2016,Sale (Partial),1001,15000
DTC International Equity Common Trust Fund,"",Purchased,Jun  6 2016,--,50001,100000
DTC International Equity Common Trust Fund,"",Purchased,Jul  7 2016,--,1001,15000
DTC International Equity Common Trust Fund,"",Sold,Aug  4 2016,Sale (Partial),1001,15000
DTC International Equity Common Trust Fund,"",Purchased,06/06/2016,--,50001,100000
DTC International Equity Common Trust Fund,"",Purchased,07/07/2016,--,1001,15000
DTC International Equity Common Trust Fund,"",Sold,08/04/2016,Sale (Partial),1001,15000
DTC International Equity Common Trust Fund,"",Sold,09/07/2016,Sale (Partial),1001,15000
DTC International Equity Common Trust Fund,"",Sold,Sep  7 2016,Sale (Partial),1001,15000
DTC Multi-Strategy Common Trust Fund,"",Purchased,08/04/2016,--,15001,50000
DTC Multi-Strategy Common Trust Fund,"",Purchased,06/06/2016,--,15001,50000
DTC Multi-Strategy Common Trust Fund,"",Purchased,10/06/2016,--,1001,15000
DTC Multi-Strategy Common Trust Fund,"",Purchased,11/04/2016,--,15001,50000
DTC Multi-Strategy Common Trust Fund,"",Purchased,12/06/2016,--,1001,15000
DTC Multi-Strategy Common Trust Fund,"",Purchased,12/30/2016,--,1001,15000
DTC Multi-Strategy Common Trust Fund,"",Purchased,Aug  4 2016,--,15001,50000
DTC Multi-Strategy Common Trust Fund,"",Purchased,Oct  6 2016,--,1001,15000
DTC Multi-Strategy Common Trust Fund,"",Purchased,Nov  4 2016,--,15001,50000
DTC Multi-Strategy Common Trust Fund,"",Purchased,Dec  6 2016,--,1001,15000
DTC Multi-Strategy Common Trust Fund,"",Purchased,Dec 30 2016,--,1001,15000
DTC Multi-Strategy Common Trust Fund,"",Purchased,Jun  6 2016,--,15001,50000
DTC US Active Equity Fund Common,"",Sold,Jun  6 2016,Sale (Full),100001,250000
DTC US Active Equity Fund Common,"",Sold,06/06/2016,Sale (Full),100001,250000
DTC US Core Equity Fund Common,"",Sold,06/06/2016,Sale (Full),100001,250000
DTC US Core Equity Fund Common,"",Sold,Jun  6 2016,Sale (Full),100001,250000
Lazard Emerging Markets Core Equity Fund,"",Purchased,Jun  3 2016,--,1001,15000
Lazard Emerging Markets Core Equity Fund,"",Sold,Jul 28 2016,Sale (Partial),1001,15000
Lazard Emerging Markets Core Equity Inst,"",Sold,07/28/2016,Sale (Partial),1001,15000
Lazard Emerging Markets Core Equity Inst,"",Purchased,06/03/2016,--,1001,15000
Small-Mid Cap US Equity Common Trust Fund,"",Sold,Jun  6 2016,Sale (Full),50001,100000
Small/Mid Cap US Equity Common Trust Fun,"",Sold,06/06/2016,Sale (Full),50001,100000
Tortoise MLP & Pipeline Fund,"",Sold,Sep 29 2016,Sale (Partial),1001,15000
Tortoise MLP & Pipeline Fund,"",Sold,Jul 28 2016,Sale (Partial),1001,15000
Tortoise MLP & Pipeline Fund,"",Sold,Aug 30 2016,Sale (Partial),1001,15000
Tortoise MLP & Pipeline Fund,"",Sold,May 27 2016,Sale (Partial),15001,50000
Tortoise MLP & Pipeline Instl,"",Sold,05/27/2016,Sale (Partial),15001,50000
Tortoise MLP & Pipeline Instl,"",Sold,07/28/2016,Sale (Partial),1001,15000
Tortoise MLP & Pipeline Instl,"",Sold,09/29/2016,Sale (Partial),1001,15000
Tortoise MLP & Pipeline Instl,"",Sold,08/30/2016,Sale (Partial),1001,15000
UBS ETRACS Alerian MLP Infras ETN,"",Purchased,11/29/2016,--,1001,15000
UBS ETRACS Alerian MLP Infras ETN,"",Purchased,05/27/2016,--,15001,50000
UBS ETRACS Alerian MLP Infras ETN,"",Purchased,Nov 29 2016,--,1001,15000
UBS ETRACS Alerian MLP Infras ETN,"",Purchased,May 27 2016,--,15001,50000
Vanguard 500 Index Investor,"",Purchased,Feb 26 2016,--,1001,15000
Vanguard 500 Index Investor,"",Purchased,Jun  3 2016,--,100001,250000
Vanguard 500 Index Investor,"",Purchased,Jun 29 2016,--,1001,15000
Vanguard 500 Index Investor,"",Purchased,Oct  5 2016,--,1001,15000
Vanguard 500 Index Investor,"",Sold,Aug 30 2016,Sale (Partial),1001,15000
Vanguard 500 Index Investor,"",Purchased,02/26/2016,--,1001,15000
Vanguard 500 Index Investor,"",Purchased,06/03/2016,--,100001,250000
Vanguard 500 Index Investor,"",Purchased,06/29/2016,--,1001,15000
Vanguard 500 Index Investor,"",Purchased,10/05/2016,--,1001,15000
Vanguard 500 Index Investor,"",Sold,08/30/2016,Sale (Partial),1001,15000
Vanguard Dividend Appreciation ETF,"",Purchased,06/01/2016,--,100001,250000
Vanguard Dividend Appreciation Fund,"",Purchased,Jun  1 2016,--,100001,250000
Vanguard Extended Market Index Investor,"",Purchased,Feb 26 2016,--,1001,15000
Vanguard Extended Market Index Investor,"",Purchased,Jun  3 2016,--,50001,100000
Vanguard Extended Market Index Investor,"",Purchased,02/26/2016,--,1001,15000
Vanguard Extended Market Index Investor,"",Purchased,06/03/2016,--,50001,100000
