orgname,ultorg,action,date1,transnotes,minvalue,maxvalue
529 Short Term Bond Fund of Amerca,"",Sold,Aug  1 2012,"",1001,15000
Central Fund of Canada Ltd,"",Sold,Oct  2 2012,"",1001,15000
First Eagle Global,"",Sold,Oct  2 2012,"",15001,50000
First Eagle Global,"",Sold,Aug 14 2012,"",15001,50000
First TR Bick Index ETF Emerging Mkt Eq,"",Purchased,Oct  5 2012,"",1001,15000
Flexshares ETF Iboxx 3 yr Target,"",Purchased,Oct  5 2012,"",1001,15000
Guggenheim ETF Timber (CUT),"",Purchased,Oct  5 2012,"",1001,15000
iShares Barclays TIPS Bond Fund,"",Purchased,Oct  5 2012,"",1001,15000
iShares Core S&P ETF Midcap,"",Purchased,Oct  5 2012,"",15001,50000
iShares Dow Jones US Telecom ETF,"",Sold,Oct  5 2012,"",1001,15000
iShares iBoxx High Yield Corp Bond Fund,"",Purchased,Oct  5 2012,"",15001,50000
iShares iBoxx Investor Grade Corp Bd Fd,"",Purchased,Oct  5 2012,"",15001,50000
iShares MSCI Germany Free Index,"",Sold,Oct  5 2012,"",1001,15000
iShares Russell 2000 Value Index,"",Sold,Oct  5 2012,"",1001,15000
iShares S&P 500 Growth ETF,"",Purchased,Oct  5 2012,"",1001,15000
iShares S&P 500 Value Index,"",Purchased,Oct  5 2012,"",15001,50000
iShares S&P MidCap 400 Value Index,"",Sold,Oct  5 2012,"",1001,15000
iShares S&P Small Cap 600 index,"",Purchased,Oct  5 2012,"",15001,50000
Ivy Asset Strategy Fund,"",Sold,Oct  2 2012,"",15001,50000
John Hancock Strategies Income,"",Sold,Oct  2 2012,"",15001,50000
Powershares Senior Loan Portfolio,"",Purchased,Oct  5 2012,"",1001,15000
Principal Global Diversified Income,"",Sold,Oct  2 2012,"",15001,50000
Sector SPDR Trust SHS Ben Int Technology,"",Sold,Oct  5 2012,"",1001,15000
Sector SPDR Trust SHS Ben Int Utilities,"",Sold,Oct  5 2012,"",1001,15000
Select Sector SPDR Trust Energy,"",Sold,Oct  5 2012,"",1001,15000
Sentinel Short Maturity Government Fund,"",Sold,Oct  2 2012,"",1001,15000
Sentinel Short Maturity Government Fund,"",Sold,Jul 11 2012,"",1001,15000
SPDR DB Intl Govt Inflation Protected Bd,"",Purchased,Oct  5 2012,"",1001,15000
SPDR Dow Jones International REIT,"",Purchased,Oct  5 2012,"",1001,15000
SPDR Dow Jones REIT ETF,"",Purchased,Oct  5 2012,"",1001,15000
SPDR S&P Biotech ETF,"",Sold,Oct  5 2012,"",1001,15000
SPDR S&P Global Natural Resources,"",Purchased,Oct  5 2012,"",1001,15000
SPDR S&P Pharmaceutical ETF,"",Sold,Oct  5 2012,"",1001,15000
Templeton Global Bond Fund,"",Sold,Oct  2 2012,"",15001,50000
Tocqueville Gold Fund,"",Sold,Oct  2 2012,"",1001,15000
Vanguard FTSE All World Ex US Small Cap,"",Purchased,Oct  5 2012,"",1001,15000
Vanguard FTSE Emerging Markets ETF,"",Purchased,Oct  5 2012,"",1001,15000
Vanguard International Equity Index,"",Purchased,Oct  5 2012,"",15001,50000
Wasatch Emerging Market Small Cap,"",Sold,Oct  2 2012,"",15001,50000
WisdomTree Emerging Markets Debt,"",Sold,Oct  5 2012,"",15001,50000
Wisdomtree Emerging Mkt Local Debt Fund,"",Purchased,Oct  5 2012,"",1001,15000
WisdomTree Trust Japan Small Cap Div Fd,"",Sold,Oct  5 2012,"",1001,15000
