orgname,ultorg,action,date1,transnotes,minvalue,maxvalue
AT&T Inc,"",Sold,Mar 11 2009,"",1001,15000
Condominium/National Harbor,"",Purchased,Apr 15 2009,"",250001,500000
Ford Motor Co,"",Purchased,Nov  2 2009,"",1001,15000
Halliburton Co,"",Sold,Apr 24 2009,"",1001,15000
Landstar System,"",Sold,Mar 16 2009,"",1001,15000
Mastercard Inc,"",Purchased,Aug 31 2009,"",1001,15000
Microsoft Corp,"",Sold,Apr 24 2009,"",1001,15000
Oracle Corp,"",Sold,Jul 21 2009,"",1001,15000
Sprint Nextel,"",Sold,Mar 16 2009,"",1001,15000
Tollgrade Communications,"",Sold,Mar 16 2009,"",1001,15000
Wyeth,Pfizer Inc,Sold,Oct 16 2009,"",1001,15000
Yahoo! Inc,"",Purchased,Apr 24 2009,"",1001,15000
