orgname,ultorg,action,date1,transnotes,minvalue,maxvalue
American Century Equity Income Fund,"",Purchased,May 21 2009,"",50001,100000
Dreyfus Cash Management Plus,"",Sold,Sep 16 2009,"",15001,50000
Eaton Vance Floating Rate Fund,"",Purchased,May 20 2009,"",15001,50000
Federated Capital Reserves Money Market ,"",Purchased,Oct  2 2009,"",15001,50000
Fidelity Diversified International Fund,"",Sold,May 29 2009,"",50001,100000
Fidelity Equity Income Fund,"",Sold,May 20 2009,"",100001,250000
Franklin Strategic Income Fund,"",Purchased,May 20 2009,"",15001,50000
Freddie Mac Bond,Freddie Mac,Sold,Jan 30 2009,"",50001,100000
Janus International Growth,"",Purchased,May 20 2009,"",50001,100000
Lord Abbett Short Duration Income Fund,"",Purchased,May 20 2009,"",15001,50000
PIMCO Total Return Fund,"",Purchased,May 20 2009,"",15001,50000
