orgname,ultorg,action,date1,transnotes,minvalue,maxvalue
Alerian MLP ETF,"",Purchased,Mar  2 2015,--,50001,100000
Alerian MLP ETF,"",Sold,Aug 24 2015,Sale (Full),100001,250000
Alerian MLP ETF,"",Purchased,Jan 28 2015,--,100001,250000
Alerian MLP ETF,"",Sold,Aug 24 2015,Sale (Full),100001,250000
Alerian MLP ETF,"",Purchased,Jul 28 2015,--,250001,500000
American Funds Europacific Growth Fund,"",Purchased,Sep 10 2015,--,15001,50000
American Funds Europacific Growth Fund,"",Sold,Oct 14 2015,Sale (Full),50001,100000
American Funds Europacific Growth Fund,"",Purchased,Jan 26 2015,--,250001,500000
American Funds Europacific Growth Fund,"",Purchased,Mar  2 2015,--,250001,500000
American Funds Europacific Growth Fund,"",Sold,Oct 14 2015,Sale (Full),250001,500000
American Funds Europacific Growth Fund,"",Purchased,Jul 28 2015,--,250001,500000
American Funds Europacific Growth Fund,"",Sold,Apr  2 2015,Sale (Full),500001,1000000
American Funds New Economy Fund,"",Sold,Apr  2 2015,Sale (Full),250001,500000
American Funds New Economy Fund,"",Purchased,Mar  2 2015,--,100001,250000
American Funds New Economy Fund,"",Purchased,Jan 26 2015,--,50001,100000
American Funds New Economy Fund,"",Sold,Oct 14 2015,Sale (Full),50001,100000
American Funds New Economy Fund,"",Sold,Apr  2 2015,Sale (Full),100001,250000
American Funds New Economy Fund,"",Purchased,Sep 10 2015,--,50001,100000
AQR Managed Futures Strategy Fund,"",Sold,Aug 21 2015,Sale (Full),250001,500000
AQR Managed Futures Strategy Fund,"",Purchased,Mar  2 2015,--,100001,250000
Baron Real Estate Retail,"",Purchased,Mar  2 2015,--,50001,100000
Baron Real Estate Retail,"",Sold,Jun  8 2015,Sale (Full),250001,500000
Baron Real Estate Retail,"",Sold,Oct 14 2015,Sale (Full),15001,50000
BlackRock 20/80 Target Allocation Institutional,"",Purchased,Jan 26 2015,--,250001,500000
BlackRock 20/80 Target Allocation Institutional,"",Sold,Aug 21 2015,Sale (Full),500001,1000000
BlackRock 20/80 Target Allocation Institutional,"",Purchased,Mar  2 2015,--,250001,500000
BlackRock High Yield Bond Fund,"",Purchased,Mar  2 2015,--,100001,250000
BlackRock High Yield Bond Fund,"",Purchased,Jan 26 2015,--,100001,250000
BlackRock High Yield Bond Fund,"",Sold,Aug 20 2015,Sale (Partial),15001,50000
BlackRock High Yield Bond Fund,"",Sold,Aug 21 2015,Sale (Full),100001,250000
BlackRock High Yield Bond Fund,"",Sold,Aug 21 2015,Sale (Full),100001,250000
BlackRock Strategic Income Oppurtunities Fund,"",Purchased,Jan 28 2015,--,100001,250000
BlackRock Strategic Income Oppurtunities Fund,"",Sold,Aug 21 2015,Sale (Full),100001,250000
BlackRock Strategic Income Oppurtunities Fund,"",Sold,Aug 21 2015,Sale (Full),100001,250000
BlackRock Strategic Income Oppurtunities Fund,"",Purchased,Mar  2 2015,--,100001,250000
Chestnut Development Partners II,"",Purchased,Aug 31 2015,--,100001,250000
Collins Alternative Solutions Fund,"",Sold,Oct 14 2015,Sale (Full),250001,500000
Collins Alternative Solutions Fund,"",Purchased,Mar  2 2015,--,250001,500000
Collins Alternative Solutions Fund,"",Purchased,Jan 26 2015,--,100001,250000
Columbia Dividend Opportunity Fund,"",Sold,Oct 14 2015,Sale (Full),100001,250000
Columbia Dividend Opportunity Fund,"",Purchased,Mar  2 2015,--,100001,250000
Columbia Dividend Opportunity Fund,"",Sold,Apr  2 2015,Sale (Full),100001,250000
Columbia Dividend Opportunity Fund,"",Purchased,Sep 10 2015,--,50001,100000
"Commercial Property: 1150 Hixson Pike, Chattanooga","",Purchased,Jan  7 2015,"This property was purchased and is owned by 1150,LLC which The Third Floor Grantor Trust is a member",1000001,5000000
CorCmdty Mgmt CompleteCmdty Strat,"",Purchased,Mar  2 2015,--,100001,250000
CorCmdty Mgmt CompleteCmdty Strat,"",Sold,Oct 14 2015,Sale (Full),250001,500000
CorCmdty Mgmt CompleteCmdty Strat,"",Purchased,Oct  9 2015,--,100001,250000
CorCmdty Mgmt CompleteCmdty Strat,"",Purchased,Sep 16 2015,--,50001,100000
Covenant Apartment Fund VIII,"",Purchased,Feb 27 2015,--,1000001,5000000
Credit Suisse X-Links CushgMLPInfrasETN,"",Purchased,Jul 31 2015,--,100001,250000
Credit Suisse X-Links CushgMLPInfrasETN,"",Purchased,Jul 29 2015,--,1001,15000
Credit Suisse X-Links CushgMLPInfrasETN,"",Sold,Aug 24 2015,Sale (Full),100001,250000
Credit Suisse X-Links CushgMLPInfrasETN,"",Sold,Aug 24 2015,Sale (Full),50001,100000
Credit Suisse X-Links CushgMLPInfrasETN,"",Purchased,Jul 30 2015,--,100001,250000
Diamond Hill Long-Short I Fund,"",Purchased,Sep 10 2015,--,100001,250000
Diamond Hill Long-Short I Fund,"",Sold,Oct 14 2015,Sale (Full),100001,250000
Diamond Hill Long-Short I Fund,"",Purchased,Jul 28 2015,--,100001,250000
Diamond Hill Long-Short I Fund,"",Sold,Oct 14 2015,Sale (Full),250001,500000
Diamond Hill Long-Short I Fund,"",Purchased,Mar  2 2015,--,250001,500000
Energy Select Sector SPDR Fund,"",Sold,Aug 24 2015,Sale (Full),100001,250000
Hodges Small Cap Retail,"",Sold,Apr  2 2015,Sale (Full),50001,100000
Hotchkis & Wiley Value Opps Fund,"",Sold,Apr  2 2015,Sale (Full),100001,250000
Invesco Balanced-Risk Allc Y,"",Purchased,Mar  2 2015,--,250001,500000
Invesco Balanced-Risk Allc Y,"",Sold,Oct 14 2015,Sale (Full),500001,1000000
Invesco Balanced-Risk Allc Y,"",Purchased,Jan 26 2015,--,250001,500000
IQ Hedge Multi-Strategy Tracker ETF,"",Purchased,Jan 26 2015,--,100001,250000
IQ Hedge Multi-Strategy Tracker ETF,"",Sold,Aug 24 2015,Sale (Full),250001,500000
IQ Hedge Multi-Strategy Tracker ETF,"",Purchased,Mar  2 2015,--,250001,500000
iShares Gold Trust ETF,"",Sold,Aug 24 2015,Sale (Full),100001,250000
iShares MSCI EAFE Index,"",Sold,Aug 24 2015,Sale (Full),250001,500000
iShares MSCI EAFE Index,"",Purchased,Sep 16 2015,--,100001,250000
iShares MSCI EAFE Index,"",Sold,Oct 14 2015,Sale (Full),50001,100000
iShares MSCI EAFE Index,"",Purchased,Jan 26 2015,--,100001,250000
iShares MSCI EAFE Index,"",Sold,Oct 14 2015,Sale (Full),100001,250000
iShares MSCI EAFE Index,"",Purchased,Mar  2 2015,--,250001,500000
iShares MSCI EAFE Index,"",Sold,Apr  2 2015,Sale (Full),1000001,5000000
iShares MSCI EAFE Index,"",Purchased,Jul 28 2015,--,250001,500000
iShares MSCI EAFE Index,"",Purchased,Sep 10 2015,--,100001,250000
iShares MSCI Emerging Markets Index,"",Sold,Apr  2 2015,Sale (Full),250001,500000
iShares Russell 2000 Growth Fund,"",Sold,Apr  2 2015,Sale (Full),100001,250000
iShares Russell 2000 Growth Fund,"",Purchased,Mar  2 2015,--,15001,50000
iShares S&P 500 Growth Index,"",Purchased,Mar 12 2015,--,250001,500000
iShares S&P 500 Growth Index,"",Sold,Apr  2 2015,Sale (Full),250001,500000
iShares S&P 500 Growth Index,"",Purchased,Jul 28 2015,--,100001,250000
iShares S&P 500 Growth Index,"",Sold,Oct 14 2015,Sale (Full),100001,250000
iShares S&P 500 Growth Index,"",Purchased,Oct  9 2015,--,100001,250000
iShares S&P 500 Growth Index,"",Purchased,Sep 16 2015,--,50001,100000
iShares S&P 500 Growth Index,"",Sold,Aug 24 2015,Sale (Full),100001,250000
iShares S&P Mid Cap 400 Value Index,"",Sold,Aug 24 2015,Sale (Full),50001,100000
iShares S&P Mid Cap 400 Value Index,"",Sold,Oct 14 2015,Sale (Full),50001,100000
iShares S&P Mid Cap 400 Value Index,"",Purchased,Oct  9 2015,--,50001,100000
iShares S&P Mid Cap 400 Value Index,"",Purchased,Jan 26 2015,--,1001,15000
iShares S&P Mid Cap 400 Value Index,"",Purchased,Jul 28 2015,--,50001,100000
iShares S&P Mid Cap 400 Value Index,"",Sold,Apr  2 2015,Sale (Full),250001,500000
iShares S&P Mid Cap 400 Value Index,"",Purchased,Mar  2 2015,--,100001,250000
iShares S&P Midcap 400 Growth ETF,"",Purchased,Mar  2 2015,--,50001,100000
iShares S&P Midcap 400 Growth ETF,"",Sold,Apr  2 2015,Sale (Full),100001,250000
iShares S&P Midcap 400 Growth ETF,"",Purchased,Jul 28 2015,--,50001,100000
iShares S&P Midcap 400 Growth ETF,"",Purchased,Jan 26 2015,--,50001,100000
iShares S&P Midcap 400 Growth ETF,"",Purchased,Oct  9 2015,--,50001,100000
iShares S&P Midcap 400 Growth ETF,"",Sold,Oct 14 2015,Sale (Full),50001,100000
iShares S&P Midcap 400 Growth ETF,"",Sold,Aug 24 2015,Sale (Full),50001,100000
iShares S&P Small-Cap 600 Value,"",Sold,Apr  2 2015,Sale (Full),100001,250000
iShares S&P Small-Cap 600 Value,"",Purchased,Mar  2 2015,--,15001,50000
JPMorgan High Yield Select Fund,"",Sold,Aug 21 2015,Sale (Full),250001,500000
Litman Gregory Masters Alt Strats Instl,"",Sold,Oct 14 2015,Sale (Full),100001,250000
Litman Gregory Masters Alt Strats Instl,"",Purchased,Jun  8 2015,--,100001,250000
Lord Abbett Short Duration Income Fund,"",Purchased,Mar  2 2015,--,100001,250000
Lord Abbett Short Duration Income Fund,"",Sold,Aug 21 2015,Sale (Full),250001,500000
Lord Abbett Short Duration Income Fund,"",Purchased,Jan 28 2015,--,100001,250000
Oakmark International Fund,"",Sold,Oct 14 2015,Sale (Full),50001,100000
Oakmark International Fund,"",Sold,Oct 14 2015,Sale (Full),250001,500000
Oakmark International Fund,"",Purchased,Jul 28 2015,--,500001,1000000
Oakmark International Fund,"",Purchased,Sep 10 2015,--,50001,100000
Oppenheimer Senior Floating Rate Fund,"",Sold,Aug 21 2015,Sale (Full),100001,250000
Oppenheimer Senior Floating Rate Fund,"",Purchased,Mar  2 2015,--,100001,250000
Oppenheimer Senior Floating Rate Fund,"",Sold,Aug 21 2015,Sale (Full),100001,250000
Oppenheimer Senior Floating Rate Fund,"",Purchased,Jan 28 2015,--,50001,100000
Oppenheimer SteelPath MLP Alpha Fund,"",Sold,Oct 14 2015,Sale (Full),100001,250000
Oppenheimer SteelPath MLP Alpha Fund,"",Sold,Oct 14 2015,Sale (Full),100001,250000
Oppenheimer SteelPath MLP Alpha Fund,"",Purchased,Jan 28 2015,--,100001,250000
Oppenheimer SteelPath MLP Alpha Fund,"",Purchased,Jul 28 2015,--,100001,250000
Oppenheimer SteelPath MLP Alpha Fund,"",Purchased,Mar  2 2015,--,50001,100000
Powershares DB Commodity Index Tracking Fund,"",Purchased,Mar  2 2015,--,100001,250000
Powershares DB Commodity Index Tracking Fund,"",Purchased,Jan 26 2015,--,15001,50000
Powershares DB Commodity Index Tracking Fund,"",Sold,Aug 24 2015,Sale (Full),100001,250000
Powershares QQQ Trust,"",Purchased,Dec 18 2015,--,500001,1000000
Principal MidCap P,"",Sold,Apr  2 2015,Sale (Full),100001,250000
Schwab International Equity ETF,"",Sold,Apr  2 2015,Sale (Full),1000001,5000000
Schwab International Equity ETF,"",Purchased,Mar  2 2015,--,250001,500000
Schwab US Large-Cap Value ETF,"",Sold,Oct 14 2015,Sale (Full),100001,250000
Schwab US Large-Cap Value ETF,"",Sold,Apr  2 2015,Sale (Full),500001,1000000
Schwab US Large-Cap Value ETF,"",Purchased,Jul 28 2015,--,100001,250000
Schwab US Large-Cap Value ETF,"",Purchased,Oct  9 2015,--,100001,250000
Schwab US Large-Cap Value ETF,"",Sold,Aug 24 2015,Sale (Full),100001,250000
Schwab US Large-Cap Value ETF,"",Purchased,Sep 16 2015,--,15001,50000
Schwab US Large-Cap Value ETF,"",Purchased,Jan 26 2015,--,250001,500000
SPDR Dow Jones Industrial Average ETF,"",Purchased,Dec 18 2015,--,1000001,5000000
SPDR S&P 500 Fund,"",Purchased,Dec 18 2015,--,500001,1000000
Templeton Global Bond Fund,"",Sold,Aug 21 2015,Sale (Full),100001,250000
Templeton Global Bond Fund,"",Purchased,Mar  2 2015,--,100001,250000
Thompson Bond,"",Purchased,Jan 28 2015,--,100001,250000
Thompson Bond,"",Sold,Aug 21 2015,Sale (Full),250001,500000
Touchstone Sustainability & Imp Eq Y,"",Sold,Apr  2 2015,Sale (Full),100001,250000
Touchstone Sustainability & Imp Eq Y,"",Sold,Mar 12 2015,Sale (Full),250001,500000
Touchstone Sustainability & Imp Eq Y,"",Purchased,Mar  2 2015,--,100001,250000
Vanguard Inflation-Protected Secs Inv,"",Purchased,Jul 28 2015,--,250001,500000
Vanguard Inflation-Protected Secs Inv,"",Sold,Aug 21 2015,Sale (Full),250001,500000
Vanguard Total International Bond Index,"",Sold,Aug 21 2015,Sale (Full),100001,250000
Vanguard Total International Bond Index,"",Purchased,Jan 28 2015,--,100001,250000
Virtus Emerging Markets Opportunities Fund,"",Sold,Apr  2 2015,Sale (Full),50001,100000
Virtus Emerging Markets Opportunities Fund,"",Sold,Apr  2 2015,Sale (Full),100001,250000
Virtus Emerging Markets Opportunities Fund,"",Purchased,Mar  2 2015,--,50001,100000
William Blair Macro Allocation N,"",Sold,Oct 14 2015,Sale (Full),250001,500000
William Blair Macro Allocation N,"",Purchased,Mar  2 2015,--,250001,500000
William Blair Macro Allocation N,"",Purchased,Jan 26 2015,--,100001,250000
Wisdomtree Japan Hedged Equity Fund,"",Sold,Apr  2 2015,Sale (Full),100001,250000
