orgname,ultorg,action,date1,transnotes,minvalue,maxvalue
AMG Yacktman Focused Fund,"",Sold,05/10/2017,Sale (Partial),1001,15000
AMG Yacktman Focused Fund,"",Sold,08/01/2017,Sale (Partial),1001,15000
AMG Yacktman Focused Fund,"",Sold,08/08/2017,Sale (Partial),1001,15000
AMG Yacktman Focused Fund,"",Sold,10/05/2017,Sale (Partial),1001,15000
AMG Yacktman Focused Fund,"",Sold,11/28/2017,Sale (Partial),1001,15000
AMG Yacktman Focused Fund,"",Sold,12/07/2017,Sale (Partial),1001,15000
AMG Yacktman Focused Fund,"",Sold,05/10/2017,Sale (Partial),1001,15000
AMG Yacktman Focused Fund,"",Sold,08/01/2017,Sale (Partial),1001,15000
AMG Yacktman Focused Fund,"",Sold,08/08/2017,Sale (Partial),1001,15000
AMG Yacktman Focused Fund,"",Sold,10/05/2017,Sale (Partial),1001,15000
AMG Yacktman Focused Fund,"",Sold,11/28/2017,Sale (Partial),1001,15000
AMG Yacktman Focused Fund,"",Sold,12/07/2017,Sale (Partial),1001,15000
AMG Yacktman Focused Fund,"",Sold,05/10/2017,Sale (Partial),1001,15000
AMG Yacktman Focused Fund,"",Sold,08/01/2017,Sale (Partial),1001,15000
AMG Yacktman Focused Fund,"",Sold,08/08/2017,Sale (Partial),1001,15000
AMG Yacktman Focused Fund,"",Sold,10/05/2017,Sale (Partial),1001,15000
AMG Yacktman Focused Fund,"",Sold,11/28/2017,Sale (Partial),1001,15000
AMG Yacktman Focused Fund,"",Sold,12/07/2017,Sale (Partial),1001,15000
AMG Yacktman Focused Fund,"",Sold,05/10/2017,Sale (Partial),1001,15000
AMG Yacktman Focused Fund,"",Sold,08/01/2017,Sale (Partial),1001,15000
AMG Yacktman Focused Fund,"",Sold,08/08/2017,Sale (Partial),1001,15000
AMG Yacktman Focused Fund,"",Sold,10/05/2017,Sale (Partial),1001,15000
AMG Yacktman Focused Fund,"",Sold,11/28/2017,Sale (Partial),1001,15000
AMG Yacktman Focused Fund,"",Sold,12/07/2017,Sale (Partial),1001,15000
AMG Yacktman I,"",Sold,05/10/2017,Sale (Partial),1001,15000
AMG Yacktman I,"",Sold,08/01/2017,Sale (Partial),1001,15000
AMG Yacktman I,"",Sold,08/08/2017,Sale (Partial),1001,15000
AMG Yacktman I,"",Sold,10/05/2017,Sale (Partial),1001,15000
AMG Yacktman I,"",Sold,11/28/2017,Sale (Partial),1001,15000
AMG Yacktman I,"",Sold,12/07/2017,Sale (Partial),1001,15000
AMG Yacktman I,"",Sold,05/10/2017,Sale (Partial),1001,15000
AMG Yacktman I,"",Sold,08/01/2017,Sale (Partial),1001,15000
AMG Yacktman I,"",Sold,08/08/2017,Sale (Partial),1001,15000
AMG Yacktman I,"",Sold,10/05/2017,Sale (Partial),1001,15000
AMG Yacktman I,"",Sold,11/28/2017,Sale (Partial),1001,15000
AMG Yacktman I,"",Sold,12/07/2017,Sale (Partial),1001,15000
AMG Yacktman I,"",Sold,05/10/2017,Sale (Partial),1001,15000
AMG Yacktman I,"",Sold,08/01/2017,Sale (Partial),1001,15000
AMG Yacktman I,"",Sold,08/08/2017,Sale (Partial),1001,15000
AMG Yacktman I,"",Sold,10/05/2017,Sale (Partial),1001,15000
AMG Yacktman I,"",Sold,11/28/2017,Sale (Partial),1001,15000
AMG Yacktman I,"",Sold,12/07/2017,Sale (Partial),1001,15000
CREF Equity Index Account,"",Purchased,01/17/2017,--,15001,50000
CREF Equity Index Account,"",Purchased,01/17/2017,--,50001,100000
CREF Equity Index Account,"",Purchased,01/17/2017,--,15001,50000
CREF Equity Index Account,"",Purchased,01/17/2017,--,50001,100000
CREF Equity Index Account - R2,"",Purchased,01/17/2017,--,50001,100000
CREF Equity Index Account - R2,"",Purchased,01/17/2017,--,50001,100000
CREF Equity Index Account - R3,"",Purchased,01/17/2017,--,15001,50000
CREF Equity Index Account - R3,"",Purchased,01/17/2017,--,15001,50000
CREF Growth Account - R2,"",Purchased,01/17/2017,--,50001,100000
CREF Growth Account - R2,"",Purchased,01/17/2017,--,50001,100000
CREF Growth Account Fund,"",Purchased,01/17/2017,--,50001,100000
CREF Growth Account Fund,"",Purchased,01/17/2017,--,50001,100000
First Eagle Global Fund,"",Sold,05/10/2017,Sale (Partial),1001,15000
First Eagle Global Fund,"",Sold,06/01/2017,Sale (Partial),1001,15000
First Eagle Global Fund,"",Sold,08/08/2017,Sale (Partial),1001,15000
First Eagle Global Fund,"",Sold,09/29/2017,Sale (Partial),1001,15000
First Eagle Global Fund,"",Sold,10/05/2017,Sale (Partial),1001,15000
First Eagle Global Fund,"",Sold,11/28/2017,Sale (Partial),1001,15000
First Eagle Global Fund,"",Sold,12/07/2017,Sale (Partial),1001,15000
First Eagle Global Fund,"",Sold,05/10/2018,Sale (Partial),1001,15000
First Eagle Global Fund,"",Sold,06/01/2017,Sale (Partial),1001,15000
First Eagle Global Fund,"",Sold,08/08/2017,Sale (Partial),1001,15000
First Eagle Global Fund,"",Sold,09/29/2017,Sale (Partial),1001,15000
First Eagle Global Fund,"",Sold,10/05/2017,Sale (Partial),1001,15000
First Eagle Global Fund,"",Sold,11/28/2017,Sale (Partial),1001,15000
First Eagle Global Fund,"",Sold,12/07/2017,Sale (Partial),1001,15000
First Eagle Global Fund,"",Sold,05/10/2017,Sale (Partial),1001,15000
First Eagle Global Fund,"",Sold,06/01/2017,Sale (Partial),1001,15000
First Eagle Global Fund,"",Sold,08/08/2017,Sale (Partial),1001,15000
First Eagle Global Fund,"",Sold,09/29/2017,Sale (Partial),1001,15000
First Eagle Global Fund,"",Sold,10/05/2017,Sale (Partial),1001,15000
First Eagle Global Fund,"",Sold,11/28/2017,Sale (Partial),1001,15000
First Eagle Global Fund,"",Sold,12/07/2017,Sale (Partial),1001,15000
First Eagle Global Fund,"",Sold,05/10/2018,Sale (Partial),1001,15000
First Eagle Global Fund,"",Sold,06/01/2017,Sale (Partial),1001,15000
First Eagle Global Fund,"",Sold,08/08/2017,Sale (Partial),1001,15000
First Eagle Global Fund,"",Sold,09/29/2017,Sale (Partial),1001,15000
First Eagle Global Fund,"",Sold,10/05/2017,Sale (Partial),1001,15000
First Eagle Global Fund,"",Sold,11/28/2017,Sale (Partial),1001,15000
First Eagle Global Fund,"",Sold,12/07/2017,Sale (Partial),1001,15000
First Eagle Global I,"",Sold,05/10/2018,Sale (Partial),1001,15000
First Eagle Global I,"",Sold,06/01/2017,Sale (Partial),1001,15000
First Eagle Global I,"",Sold,08/08/2017,Sale (Partial),1001,15000
First Eagle Global I,"",Sold,09/29/2017,Sale (Partial),1001,15000
First Eagle Global I,"",Sold,10/05/2017,Sale (Partial),1001,15000
First Eagle Global I,"",Sold,11/28/2017,Sale (Partial),1001,15000
First Eagle Global I,"",Sold,12/07/2017,Sale (Partial),1001,15000
First Eagle Global I,"",Sold,05/10/2017,Sale (Partial),1001,15000
First Eagle Global I,"",Sold,06/01/2017,Sale (Partial),1001,15000
First Eagle Global I,"",Sold,08/08/2017,Sale (Partial),1001,15000
First Eagle Global I,"",Sold,09/29/2017,Sale (Partial),1001,15000
First Eagle Global I,"",Sold,10/05/2017,Sale (Partial),1001,15000
First Eagle Global I,"",Sold,11/28/2017,Sale (Partial),1001,15000
First Eagle Global I,"",Sold,12/07/2017,Sale (Partial),1001,15000
First Eagle Global I,"",Sold,05/10/2017,Sale (Partial),1001,15000
First Eagle Global I,"",Sold,06/01/2017,Sale (Partial),1001,15000
First Eagle Global I,"",Sold,08/08/2017,Sale (Partial),1001,15000
First Eagle Global I,"",Sold,09/29/2017,Sale (Partial),1001,15000
First Eagle Global I,"",Sold,10/05/2017,Sale (Partial),1001,15000
First Eagle Global I,"",Sold,11/28/2017,Sale (Partial),1001,15000
First Eagle Global I,"",Sold,12/07/2017,Sale (Partial),1001,15000
IVA Worldwide I,"",Sold,06/01/2017,Sale (Partial),1001,15000
IVA Worldwide I,"",Sold,05/10/2017,Sale (Partial),1001,15000
IVA Worldwide I,"",Sold,09/29/2017,Sale (Partial),1001,15000
IVA Worldwide I,"",Sold,11/28/2017,Sale (Partial),1001,15000
IVA Worldwide I,"",Sold,06/01/2017,Sale (Partial),1001,15000
IVA Worldwide I,"",Sold,05/10/2017,Sale (Partial),1001,15000
IVA Worldwide I,"",Sold,09/29/2017,Sale (Partial),1001,15000
IVA Worldwide I,"",Sold,11/28/2017,Sale (Partial),1001,15000
IVA Worldwide I,"",Sold,06/01/2017,Sale (Partial),1001,15000
IVA Worldwide I,"",Sold,05/10/2017,Sale (Partial),1001,15000
IVA Worldwide I,"",Sold,09/29/2017,Sale (Partial),1001,15000
IVA Worldwide I,"",Sold,11/28/2017,Sale (Partial),1001,15000
IVA Worldwide I,"",Sold,06/01/2017,Sale (Partial),1001,15000
IVA Worldwide I,"",Sold,05/10/2017,Sale (Partial),1001,15000
IVA Worldwide I,"",Sold,09/29/2017,Sale (Partial),1001,15000
IVA Worldwide I,"",Sold,11/28/2017,Sale (Partial),1001,15000
IVA Worldwide I,"",Sold,06/01/2017,Sale (Partial),1001,15000
IVA Worldwide I,"",Sold,05/10/2017,Sale (Partial),1001,15000
IVA Worldwide I,"",Sold,09/29/2017,Sale (Partial),1001,15000
IVA Worldwide I,"",Sold,11/28/2017,Sale (Partial),1001,15000
IVA Worldwide I,"",Sold,06/01/2017,Sale (Partial),1001,15000
IVA Worldwide I,"",Sold,05/10/2017,Sale (Partial),1001,15000
IVA Worldwide I,"",Sold,09/29/2017,Sale (Partial),1001,15000
IVA Worldwide I,"",Sold,11/28/2017,Sale (Partial),1001,15000
IVA Worldwide I,"",Sold,06/01/2017,Sale (Partial),1001,15000
IVA Worldwide I,"",Sold,05/10/2017,Sale (Partial),1001,15000
IVA Worldwide I,"",Sold,09/29/2017,Sale (Partial),1001,15000
IVA Worldwide I,"",Sold,11/28/2017,Sale (Partial),1001,15000
JPMorgan Income Builder I,"",Sold,05/10/2017,Sale (Partial),1001,15000
JPMorgan Income Builder I,"",Sold,06/01/2017,Sale (Partial),1001,15000
JPMorgan Income Builder I,"",Sold,08/01/2017,Sale (Partial),1001,15000
JPMorgan Income Builder I,"",Sold,08/08/2017,Sale (Partial),1001,15000
JPMorgan Income Builder I,"",Sold,09/29/2017,Sale (Partial),1001,15000
JPMorgan Income Builder I,"",Sold,10/05/2017,Sale (Partial),1001,15000
JPMorgan Income Builder I,"",Sold,11/28/2017,Sale (Partial),1001,15000
JPMorgan Income Builder I,"",Sold,12/07/2017,Sale (Partial),1001,15000
JPMorgan Income Builder I,"",Sold,05/10/2017,Sale (Partial),1001,15000
JPMorgan Income Builder I,"",Sold,06/01/2017,Sale (Partial),1001,15000
JPMorgan Income Builder I,"",Sold,08/01/2017,Sale (Partial),1001,15000
JPMorgan Income Builder I,"",Sold,08/08/2017,Sale (Partial),1001,15000
JPMorgan Income Builder I,"",Sold,09/29/2017,Sale (Partial),1001,15000
JPMorgan Income Builder I,"",Sold,10/05/2017,Sale (Partial),1001,15000
JPMorgan Income Builder I,"",Sold,11/28/2017,Sale (Partial),1001,15000
JPMorgan Income Builder I,"",Sold,12/07/2017,Sale (Partial),1001,15000
JPMorgan Income Builder I,"",Sold,05/10/2017,Sale (Partial),1001,15000
JPMorgan Income Builder I,"",Sold,06/01/2017,Sale (Partial),1001,15000
JPMorgan Income Builder I,"",Sold,08/01/2017,Sale (Partial),1001,15000
JPMorgan Income Builder I,"",Sold,08/08/2017,Sale (Partial),1001,15000
JPMorgan Income Builder I,"",Sold,09/29/2017,Sale (Partial),1001,15000
JPMorgan Income Builder I,"",Sold,10/05/2017,Sale (Partial),1001,15000
JPMorgan Income Builder I,"",Sold,11/28/2017,Sale (Partial),1001,15000
JPMorgan Income Builder I,"",Sold,12/07/2017,Sale (Partial),1001,15000
JPMorgan Income Builder I,"",Sold,05/10/2017,Sale (Partial),1001,15000
JPMorgan Income Builder I,"",Sold,06/01/2017,Sale (Partial),1001,15000
JPMorgan Income Builder I,"",Sold,08/01/2017,Sale (Partial),1001,15000
JPMorgan Income Builder I,"",Sold,08/08/2017,Sale (Partial),1001,15000
JPMorgan Income Builder I,"",Sold,09/29/2017,Sale (Partial),1001,15000
JPMorgan Income Builder I,"",Sold,10/05/2017,Sale (Partial),1001,15000
JPMorgan Income Builder I,"",Sold,11/28/2017,Sale (Partial),1001,15000
JPMorgan Income Builder I,"",Sold,12/07/2017,Sale (Partial),1001,15000
JPMorgan Income Builder I,"",Sold,05/10/2017,Sale (Partial),1001,15000
JPMorgan Income Builder I,"",Sold,06/01/2017,Sale (Partial),1001,15000
JPMorgan Income Builder I,"",Sold,08/01/2017,Sale (Partial),1001,15000
JPMorgan Income Builder I,"",Sold,08/08/2017,Sale (Partial),1001,15000
JPMorgan Income Builder I,"",Sold,09/29/2017,Sale (Partial),1001,15000
JPMorgan Income Builder I,"",Sold,10/05/2017,Sale (Partial),1001,15000
JPMorgan Income Builder I,"",Sold,11/28/2017,Sale (Partial),1001,15000
JPMorgan Income Builder I,"",Sold,12/07/2017,Sale (Partial),1001,15000
JPMorgan Income Builder I,"",Sold,05/10/2017,Sale (Partial),1001,15000
JPMorgan Income Builder I,"",Sold,06/01/2017,Sale (Partial),1001,15000
JPMorgan Income Builder I,"",Sold,08/01/2017,Sale (Partial),1001,15000
JPMorgan Income Builder I,"",Sold,08/08/2017,Sale (Partial),1001,15000
JPMorgan Income Builder I,"",Sold,09/29/2017,Sale (Partial),1001,15000
JPMorgan Income Builder I,"",Sold,10/05/2017,Sale (Partial),1001,15000
JPMorgan Income Builder I,"",Sold,11/28/2017,Sale (Partial),1001,15000
JPMorgan Income Builder I,"",Sold,12/07/2017,Sale (Partial),1001,15000
JPMorgan Income Builder I,"",Sold,05/10/2017,Sale (Partial),1001,15000
JPMorgan Income Builder I,"",Sold,06/01/2017,Sale (Partial),1001,15000
JPMorgan Income Builder I,"",Sold,08/01/2017,Sale (Partial),1001,15000
JPMorgan Income Builder I,"",Sold,08/08/2017,Sale (Partial),1001,15000
JPMorgan Income Builder I,"",Sold,09/29/2017,Sale (Partial),1001,15000
JPMorgan Income Builder I,"",Sold,10/05/2017,Sale (Partial),1001,15000
JPMorgan Income Builder I,"",Sold,11/28/2017,Sale (Partial),1001,15000
JPMorgan Income Builder I,"",Sold,12/07/2017,Sale (Partial),1001,15000
Oakmark Equity & Income Fund,"",Sold,11/28/2017,Sale (Partial),1001,15000
Oakmark Equity & Income Fund,"",Sold,05/10/2017,Sale (Partial),1001,15000
Oakmark Equity & Income Fund,"",Sold,06/01/2017,Sale (Partial),1001,15000
Oakmark Equity & Income Fund,"",Sold,08/01/2017,Sale (Partial),1001,15000
Oakmark Equity & Income Fund,"",Sold,09/29/2017,Sale (Partial),1001,15000
Oakmark Equity & Income Fund,"",Sold,11/28/2017,Sale (Partial),1001,15000
Oakmark Equity & Income Fund,"",Sold,05/10/2017,Sale (Partial),1001,15000
Oakmark Equity & Income Fund,"",Sold,06/01/2017,Sale (Partial),1001,15000
Oakmark Equity & Income Fund,"",Sold,08/01/2017,Sale (Partial),1001,15000
Oakmark Equity & Income Fund,"",Sold,09/29/2017,Sale (Partial),1001,15000
Oakmark Equity & Income Fund,"",Sold,05/10/2017,Sale (Partial),1001,15000
Oakmark Equity & Income Fund,"",Sold,06/01/2017,Sale (Partial),1001,15000
Oakmark Equity & Income Fund,"",Sold,08/01/2017,Sale (Partial),1001,15000
Oakmark Equity & Income Fund,"",Sold,09/29/2017,Sale (Partial),1001,15000
Oakmark Equity & Income Fund,"",Sold,11/28/2017,Sale (Partial),1001,15000
Oakmark Equity & Income Fund,"",Sold,05/10/2017,Sale (Partial),1001,15000
Oakmark Equity & Income Fund,"",Sold,06/01/2017,Sale (Partial),1001,15000
Oakmark Equity & Income Fund,"",Sold,08/01/2017,Sale (Partial),1001,15000
Oakmark Equity & Income Fund,"",Sold,09/29/2017,Sale (Partial),1001,15000
Oakmark Equity & Income Fund,"",Sold,11/28/2017,Sale (Partial),1001,15000
Oakmark Equity and Income Advisor,"",Sold,11/28/2017,Sale (Partial),1001,15000
Oakmark Equity and Income Advisor,"",Sold,11/28/2017,Sale (Partial),1001,15000
Oakmark Equity and Income Advisor,"",Sold,11/28/2017,Sale (Partial),1001,15000
Oakmark Equity And Income Investor,"",Sold,05/10/2017,Sale (Partial),1001,15000
Oakmark Equity And Income Investor,"",Sold,06/01/2017,Sale (Partial),1001,15000
Oakmark Equity And Income Investor,"",Sold,08/01/2017,Sale (Partial),1001,15000
Oakmark Equity And Income Investor,"",Sold,09/29/2017,Sale (Partial),1001,15000
Oakmark Equity And Income Investor,"",Sold,05/10/2017,Sale (Partial),1001,15000
Oakmark Equity And Income Investor,"",Sold,06/01/2017,Sale (Partial),1001,15000
Oakmark Equity And Income Investor,"",Sold,08/01/2017,Sale (Partial),1001,15000
Oakmark Equity And Income Investor,"",Sold,09/29/2017,Sale (Partial),1001,15000
Oakmark Equity And Income Investor,"",Sold,05/10/2017,Sale (Partial),1001,15000
Oakmark Equity And Income Investor,"",Sold,06/01/2017,Sale (Partial),1001,15000
Oakmark Equity And Income Investor,"",Sold,08/01/2017,Sale (Partial),1001,15000
Oakmark Equity And Income Investor,"",Sold,09/29/2017,Sale (Partial),1001,15000
T Rowe Price Capital Appreciation,"",Sold,05/10/2017,Sale (Partial),1001,15000
T Rowe Price Capital Appreciation,"",Sold,06/01/2017,Sale (Partial),1001,15000
T Rowe Price Capital Appreciation,"",Sold,08/01/2017,Sale (Partial),1001,15000
T Rowe Price Capital Appreciation,"",Sold,08/08/2017,Sale (Partial),1001,15000
T Rowe Price Capital Appreciation,"",Sold,09/29/2017,Sale (Partial),1001,15000
T Rowe Price Capital Appreciation,"",Sold,10/05/2017,Sale (Partial),1001,15000
T Rowe Price Capital Appreciation,"",Sold,11/28/2017,Sale (Partial),1001,15000
T Rowe Price Capital Appreciation,"",Sold,12/07/2017,Sale (Partial),1001,15000
T Rowe Price Capital Appreciation,"",Sold,05/10/2017,Sale (Partial),1001,15000
T Rowe Price Capital Appreciation,"",Sold,06/01/2017,Sale (Partial),1001,15000
T Rowe Price Capital Appreciation,"",Sold,08/01/2017,Sale (Partial),1001,15000
T Rowe Price Capital Appreciation,"",Sold,08/08/2017,Sale (Partial),1001,15000
T Rowe Price Capital Appreciation,"",Sold,09/29/2017,Sale (Partial),1001,15000
T Rowe Price Capital Appreciation,"",Sold,10/05/2017,Sale (Partial),1001,15000
T Rowe Price Capital Appreciation,"",Sold,11/28/2017,Sale (Partial),1001,15000
T Rowe Price Capital Appreciation,"",Sold,12/07/2017,Sale (Partial),1001,15000
T Rowe Price Capital Appreciation,"",Sold,05/10/2017,Sale (Partial),1001,15000
T Rowe Price Capital Appreciation,"",Sold,06/01/2017,Sale (Partial),1001,15000
T Rowe Price Capital Appreciation,"",Sold,08/01/2017,Sale (Partial),1001,15000
T Rowe Price Capital Appreciation,"",Sold,08/08/2017,Sale (Partial),1001,15000
T Rowe Price Capital Appreciation,"",Sold,09/29/2017,Sale (Partial),1001,15000
T Rowe Price Capital Appreciation,"",Sold,10/05/2017,Sale (Partial),1001,15000
T Rowe Price Capital Appreciation,"",Sold,11/28/2017,Sale (Partial),1001,15000
T Rowe Price Capital Appreciation,"",Sold,12/07/2017,Sale (Partial),1001,15000
T Rowe Price Capital Appreciation,"",Sold,05/10/2017,Sale (Partial),1001,15000
T Rowe Price Capital Appreciation,"",Sold,06/01/2017,Sale (Partial),1001,15000
T Rowe Price Capital Appreciation,"",Sold,08/01/2017,Sale (Partial),1001,15000
T Rowe Price Capital Appreciation,"",Sold,08/08/2017,Sale (Partial),1001,15000
T Rowe Price Capital Appreciation,"",Sold,09/29/2017,Sale (Partial),1001,15000
T Rowe Price Capital Appreciation,"",Sold,10/05/2017,Sale (Partial),1001,15000
T Rowe Price Capital Appreciation,"",Sold,11/28/2017,Sale (Partial),1001,15000
T Rowe Price Capital Appreciation,"",Sold,12/07/2017,Sale (Partial),1001,15000
T. Rowe Price Capital Appreciation,"",Sold,05/10/2017,Sale (Partial),1001,15000
T. Rowe Price Capital Appreciation,"",Sold,06/01/2017,Sale (Partial),1001,15000
T. Rowe Price Capital Appreciation,"",Sold,08/01/2017,Sale (Partial),1001,15000
T. Rowe Price Capital Appreciation,"",Sold,08/08/2017,Sale (Partial),1001,15000
T. Rowe Price Capital Appreciation,"",Sold,09/29/2017,Sale (Partial),1001,15000
T. Rowe Price Capital Appreciation,"",Sold,10/05/2017,Sale (Partial),1001,15000
T. Rowe Price Capital Appreciation,"",Sold,11/28/2017,Sale (Partial),1001,15000
T. Rowe Price Capital Appreciation,"",Sold,12/07/2017,Sale (Partial),1001,15000
T. Rowe Price Capital Appreciation,"",Sold,05/10/2017,Sale (Partial),1001,15000
T. Rowe Price Capital Appreciation,"",Sold,06/01/2017,Sale (Partial),1001,15000
T. Rowe Price Capital Appreciation,"",Sold,08/01/2017,Sale (Partial),1001,15000
T. Rowe Price Capital Appreciation,"",Sold,08/08/2017,Sale (Partial),1001,15000
T. Rowe Price Capital Appreciation,"",Sold,09/29/2017,Sale (Partial),1001,15000
T. Rowe Price Capital Appreciation,"",Sold,10/05/2017,Sale (Partial),1001,15000
T. Rowe Price Capital Appreciation,"",Sold,11/28/2017,Sale (Partial),1001,15000
T. Rowe Price Capital Appreciation,"",Sold,12/07/2017,Sale (Partial),1001,15000
T. Rowe Price Capital Appreciation,"",Sold,05/10/2017,Sale (Partial),1001,15000
T. Rowe Price Capital Appreciation,"",Sold,06/01/2017,Sale (Partial),1001,15000
T. Rowe Price Capital Appreciation,"",Sold,08/01/2017,Sale (Partial),1001,15000
T. Rowe Price Capital Appreciation,"",Sold,08/08/2017,Sale (Partial),1001,15000
T. Rowe Price Capital Appreciation,"",Sold,09/29/2017,Sale (Partial),1001,15000
T. Rowe Price Capital Appreciation,"",Sold,10/05/2017,Sale (Partial),1001,15000
T. Rowe Price Capital Appreciation,"",Sold,11/28/2017,Sale (Partial),1001,15000
T. Rowe Price Capital Appreciation,"",Sold,12/07/2017,Sale (Partial),1001,15000
Thornburg Investment Income Builder I,"",Sold,05/10/2017,Sale (Partial),1001,15000
Thornburg Investment Income Builder I,"",Sold,08/08/2017,Sale (Partial),1001,15000
Thornburg Investment Income Builder I,"",Sold,10/05/2017,Sale (Partial),1001,15000
Thornburg Investment Income Builder I,"",Sold,05/10/2017,Sale (Partial),1001,15000
Thornburg Investment Income Builder I,"",Sold,08/08/2017,Sale (Partial),1001,15000
Thornburg Investment Income Builder I,"",Sold,10/05/2017,Sale (Partial),1001,15000
Thornburg Investment Income Builder I,"",Sold,05/10/2017,Sale (Partial),1001,15000
Thornburg Investment Income Builder I,"",Sold,08/08/2017,Sale (Partial),1001,15000
Thornburg Investment Income Builder I,"",Sold,10/05/2017,Sale (Partial),1001,15000
Thornburg Investment Income Builder I,"",Sold,05/10/2017,Sale (Partial),1001,15000
Thornburg Investment Income Builder I,"",Sold,08/08/2017,Sale (Partial),1001,15000
Thornburg Investment Income Builder I,"",Sold,10/05/2017,Sale (Partial),1001,15000
Thornburg Investment Income Builder I,"",Sold,05/10/2017,Sale (Partial),1001,15000
Thornburg Investment Income Builder I,"",Sold,08/08/2017,Sale (Partial),1001,15000
Thornburg Investment Income Builder I,"",Sold,10/05/2017,Sale (Partial),1001,15000
Thornburg Investment Income Builder I,"",Sold,05/10/2017,Sale (Partial),1001,15000
Thornburg Investment Income Builder I,"",Sold,08/08/2017,Sale (Partial),1001,15000
Thornburg Investment Income Builder I,"",Sold,10/05/2017,Sale (Partial),1001,15000
Thornburg Investment Income Builder I,"",Sold,05/10/2017,Sale (Partial),1001,15000
Thornburg Investment Income Builder I,"",Sold,08/08/2017,Sale (Partial),1001,15000
Thornburg Investment Income Builder I,"",Sold,10/05/2017,Sale (Partial),1001,15000
TIAA Real Estate Account,"",Purchased,01/17/2017,--,1001,15000
TIAA Real Estate Account,"",Purchased,01/17/2017,--,1001,15000
TIAA Real Estate Account,"",Purchased,01/17/2017,--,1001,15000
TIAA Real Estate Account,"",Purchased,01/17/2017,--,1001,15000
TIAA-CREF Inflation Link Bd R,"",Sold,01/17/2017,Sale (Partial),100001,250000
TIAA-CREF Inflation Link Bd R,"",Sold,01/17/2017,Sale (Full),15001,50000
TIAA-CREF Inflation Link Bd R,"",Sold,01/17/2017,Sale (Partial),100001,250000
TIAA-CREF Inflation Link Bd R,"",Sold,01/17/2017,Sale (Full),15001,50000
TIAA-CREF Inflation Link Bd R,"",Sold,01/17/2017,Sale (Partial),100001,250000
TIAA-CREF Inflation Link Bd R,"",Sold,01/17/2017,Sale (Full),15001,50000
TIAA-CREF Inflation Link Bd R,"",Sold,01/17/2017,Sale (Partial),100001,250000
TIAA-CREF Inflation Link Bd R,"",Sold,01/17/2017,Sale (Full),15001,50000
TIAA-CREF Lifecycle 2010 Retirement,"",Purchased,01/17/2017,--,1001,15000
TIAA-CREF Lifecycle 2010 Retirement,"",Purchased,01/17/2017,--,1001,15000
TIAA-CREF Lifecycle 2010 Retirement,"",Purchased,01/17/2017,--,1001,15000
TIAA-CREF Lifecycle 2010 Retirement,"",Purchased,01/17/2017,--,1001,15000
TIAA-CREF Lifecycle 2015 Retirement,"",Purchased,01/17/2017,--,1001,15000
TIAA-CREF Lifecycle 2015 Retirement,"",Purchased,01/17/2017,--,1001,15000
TIAA-CREF Lifecycle 2015 Retirement,"",Purchased,01/17/2017,--,1001,15000
TIAA-CREF Lifecycle 2015 Retirement,"",Purchased,01/17/2017,--,1001,15000
TIAA-CREF Lifecycle 2020 Retirement,"",Purchased,01/17/2017,--,1001,15000
TIAA-CREF Lifecycle 2020 Retirement,"",Purchased,01/17/2017,--,1001,15000
TIAA-CREF Lifecycle 2020 Retirement,"",Purchased,01/17/2017,--,1001,15000
TIAA-CREF Lifecycle 2020 Retirement,"",Purchased,01/17/2017,--,1001,15000
TIAA-CREF Lifecycle Retire Income Retire,"",Purchased,01/17/2017,--,50001,100000
TIAA-CREF Lifecycle Retire Income Retire,"",Purchased,01/17/2017,--,50001,100000
TIAA-CREF Lifecycle Retire Income Retire,"",Purchased,01/17/2017,--,50001,100000
TIAA-CREF Lifecycle Retire Income Retire,"",Purchased,01/17/2017,--,50001,100000
TIAA-CREF Mid-Cap Growth Instl,"",Purchased,01/17/2017,--,15001,50000
TIAA-CREF Mid-Cap Growth Instl,"",Purchased,01/17/2017,--,15001,50000
TIAA-CREF Mid-Cap Growth Instl,"",Purchased,01/17/2017,--,15001,50000
TIAA-CREF Mid-Cap Growth Instl,"",Purchased,01/17/2017,--,15001,50000
TIAA-CREF Mid-Cap Value Instl,"",Purchased,01/17/2017,--,15001,50000
TIAA-CREF Mid-Cap Value Instl,"",Purchased,01/17/2017,--,15001,50000
TIAA-CREF Mid-Cap Value Instl,"",Purchased,01/17/2017,--,15001,50000
TIAA-CREF Mid-Cap Value Instl,"",Purchased,01/17/2017,--,15001,50000
TIAA-CREF Quant Small-Cap Equity Ret,"",Purchased,01/17/2017,--,15001,50000
TIAA-CREF Quant Small-Cap Equity Ret,"",Purchased,01/17/2017,--,15001,50000
TIAA-CREF Quant Small-Cap Equity Ret,"",Purchased,01/17/2017,--,15001,50000
TIAA-CREF Quant Small-Cap Equity Ret,"",Purchased,01/17/2017,--,15001,50000
TIAA-CREF Real Estate Sec Retire,"",Sold,01/17/2017,Sale (Partial),1001,15000
TIAA-CREF Real Estate Sec Retire,"",Sold,01/17/2017,Sale (Full),50001,100000
TIAA-CREF Real Estate Sec Retire,"",Sold,01/17/2017,Sale (Partial),1001,15000
TIAA-CREF Real Estate Sec Retire,"",Sold,01/17/2017,Sale (Full),50001,100000
TIAA-CREF Real Estate Sec Retire,"",Sold,01/17/2017,Sale (Partial),1001,15000
TIAA-CREF Real Estate Sec Retire,"",Sold,01/17/2017,Sale (Full),50001,100000
TIAA-CREF Real Estate Sec Retire,"",Sold,01/17/2017,Sale (Partial),1001,15000
TIAA-CREF Real Estate Sec Retire,"",Sold,01/17/2017,Sale (Full),50001,100000
TIAA-CREF Traditional,"",Sold,01/17/2017,Sale (Partial),50001,100000
TIAA-CREF Traditional,"",Sold,01/17/2017,Sale (Partial),50001,100000
TIAA-CREF Traditional,"",Sold,01/17/2017,Sale (Partial),50001,100000
TIAA-CREF Traditional,"",Sold,01/17/2017,Sale (Partial),50001,100000
Tweedy Browne Global Fund,"",Sold,05/10/2017,Sale (Partial),1001,15000
Tweedy Browne Global Fund,"",Sold,08/08/2017,Sale (Partial),1001,15000
Tweedy Browne Global Fund,"",Sold,10/05/2017,Sale (Partial),1001,15000
Tweedy Browne Global Fund,"",Sold,05/10/2017,Sale (Partial),1001,15000
Tweedy Browne Global Fund,"",Sold,08/08/2017,Sale (Partial),1001,15000
Tweedy Browne Global Fund,"",Sold,10/05/2017,Sale (Partial),1001,15000
Tweedy Browne Global Fund,"",Sold,05/10/2017,Sale (Partial),1001,15000
Tweedy Browne Global Fund,"",Sold,08/08/2017,Sale (Partial),1001,15000
Tweedy Browne Global Fund,"",Sold,10/05/2017,Sale (Partial),1001,15000
Tweedy Browne Global Fund,"",Sold,05/10/2017,Sale (Partial),1001,15000
Tweedy Browne Global Fund,"",Sold,08/08/2017,Sale (Partial),1001,15000
Tweedy Browne Global Fund,"",Sold,10/05/2017,Sale (Partial),1001,15000
"Tweedy, Browne Global Value","",Sold,05/10/2017,Sale (Partial),1001,15000
"Tweedy, Browne Global Value","",Sold,08/08/2017,Sale (Partial),1001,15000
"Tweedy, Browne Global Value","",Sold,10/05/2017,Sale (Partial),1001,15000
"Tweedy, Browne Global Value","",Sold,05/10/2017,Sale (Partial),1001,15000
"Tweedy, Browne Global Value","",Sold,08/08/2017,Sale (Partial),1001,15000
"Tweedy, Browne Global Value","",Sold,10/05/2017,Sale (Partial),1001,15000
"Tweedy, Browne Global Value","",Sold,05/10/2017,Sale (Partial),1001,15000
"Tweedy, Browne Global Value","",Sold,08/08/2017,Sale (Partial),1001,15000
"Tweedy, Browne Global Value","",Sold,10/05/2017,Sale (Partial),1001,15000
