orgname,ultorg,action,date1,transnotes,minvalue,maxvalue
Bayer Capital Corp,"",Purchased,Sep 18 2009,"",15001,50000
Bayer Capital Corp,"",Purchased,Oct 13 2009,"",15001,50000
Blackrock Eurofund,"",Sold,Sep  8 2009,"",15001,50000
Blackrock Eurofund,"",Sold,Dec 14 2009,"",15001,50000
California G/O Municipal Bond,"",Sold,May 20 2009,"",250001,500000
Certificates EFG Financial Products AG,"",Purchased,Sep  8 2009,"",1001,15000
Deutsche Bank Finance BV EMTN,"",Sold,Oct 13 2009,"",15001,50000
E.ON AG,"",Sold,Sep 17 2009,"",15001,50000
E.ON AG,"",Purchased,Jul  7 2009,"",15001,50000
Eksportfinans ASA,"",Sold,Mar  9 2009,"",1001,15000
Elements AB,"",Purchased,Aug 13 2009,"",15001,50000
Elements AB,"",Purchased,Sep  8 2009,"",15001,50000
Elements AB,"",Purchased,Nov  5 2009,"",15001,50000
Emerging Europe SPDR Index,"",Sold,Sep  8 2009,"",1001,15000
Emerging Europe SPDR Index,"",Purchased,Dec 15 2009,"",1001,15000
EMTN France Telecom,"",Purchased,Sep 17 2009,"",15001,50000
Eurofima,"",Purchased,Apr 28 2009,"",1001,15000
Eurofima,"",Sold,Nov  3 2009,"",1001,15000
European Investment Bank,"",Sold,Sep 17 2009,"",1001,15000
European Investment Bank,"",Purchased,Oct 13 2009,"",15001,50000
Fiduciary Time Deposit,"",Purchased,Mar  3 2009,"",250001,500000
Fiduciary Time Deposit,"",Purchased,Jun  2 2009,"",250001,500000
Fiduciary Time Deposit,"",Sold,Jun  2 2009,"",250001,500000
Fiduciary Time Deposit,"",Sold,Sep  2 2009,"",250001,500000
Franklin Mutual Series Fund,"",Sold,Sep  8 2009,"",1001,15000
Franklin Mutual Series Fund,"",Sold,Dec 14 2009,"",1001,15000
GMS Alpha+ IV Portfolio LP,"",Sold,Jan 15 2009,"",500001,1000000
Gold Bars,"",Sold,Nov  4 2009,"",15001,50000
Gold Bars,"",Purchased,Mar 17 2009,"",1001,15000
Gold Bars,"",Purchased,Sep  8 2009,"",1001,15000
Goldman Sachs Small Cap Value Fund,"",Sold,Apr 21 2009,"",50001,100000
Hbos Treasury Services,"",Sold,Nov 17 2009,"",1001,15000
Intrepid European Fund,"",Sold,Sep  8 2009,"",15001,50000
iShares MSCI Australia Index,"",Sold,Sep  8 2009,"",15001,50000
iShares MSCI Canada Index,"",Purchased,Sep  8 2009,"",1001,15000
iShares MSCI EAFE Index,"",Sold,Apr 21 2009,"",100001,250000
iShares MSCI Emerging Markets Index,"",Purchased,Sep  8 2009,"",15001,50000
iShares MSCI Emerging Markets Index,"",Sold,Dec 14 2009,"",1001,15000
iShares MSCI EMU Index Fund,"",Purchased,Sep  8 2009,"",50001,100000
iShares MSCI EMU Index Fund,"",Purchased,Dec 15 2009,"",50001,100000
iShares MSCI Hong Kong Index,"",Purchased,Sep  8 2009,"",1001,15000
iShares MSCI Japan Index,"",Purchased,Sep  8 2009,"",15001,50000
iShares MSCI Japan Index,"",Sold,Dec 14 2009,"",1001,15000
iShares MSCI Singapore index,"",Purchased,Sep  8 2009,"",1001,15000
iShares MSCI South Korea Index,"",Purchased,Oct 20 2009,"",1001,15000
iShares MSCI Switzerland Index,"",Purchased,Sep  8 2009,"",50001,100000
iShares MSCI Taiwan Index,"",Purchased,Sep  8 2009,"",1001,15000
iShares MSCI United Kingdom Index,"",Purchased,Sep  8 2009,"",15001,50000
iShares MSCI United Kingdom Index,"",Purchased,Dec 15 2009,"",15001,50000
iShares S&P Latin America 40 Index,"",Purchased,Sep  8 2009,"",1001,15000
iShares S&p Latin America Co Index,"",Sold,Dec 14 2009,"",1001,15000
Italy Emtn Bonds,"",Sold,Apr 30 2009,"",15001,50000
JPMorgan Asia Equity Fund,"",Purchased,Sep  8 2009,"",1001,15000
Land/Berlin,"",Purchased,Oct 13 2009,"",15001,50000
Landwirtschaftliche Rentenbank,"",Purchased,Nov 17 2009,"",1001,15000
LVMH Moet Hennessy Louis Vuitton,"",Purchased,Sep 17 2009,"",15001,50000
MFS Emerging Markets Fund,"",Purchased,Sep  8 2009,"",1001,15000
MFS Series Trust X Emerging Markets Eq,"",Sold,Oct 20 2009,"",1001,15000
National Australia Bank,"",Sold,Jun 29 2009,"",15001,50000
New South Wales Treasury Corp,"",Purchased,Oct 13 2009,"",1001,15000
Nordheim-Westfalen EMTN,"",Sold,Aug 13 2009,"",15001,50000
Nordheim-Westfalen EMTN,"",Sold,Dec 14 2009,"",15001,50000
Nordrheim-Westfalen EMTN,"",Purchased,Sep 17 2009,"",1001,15000
Pioneer Emerging Markets Fund,"",Purchased,Sep  8 2009,"",15001,50000
Rabobank,"",Purchased,Mar  9 2009,"",1001,15000
Rabobank,"",Purchased,Sep 17 2009,"",1001,15000
Rabobank,"",Sold,Sep 17 2009,"",1001,15000
RWE Finance BV EMTN,"",Sold,Dec 14 2009,"",1001,15000
RWE Finance BV EMTN,"",Purchased,Oct 13 2009,"",15001,50000
S&P Depository Receipts Series 1,"",Sold,Jul 23 2009,"",500001,1000000
SPDR S&P BRIC 40 ETF,"",Purchased,Sep  8 2009,"",15001,50000
SPDR S&P BRIC 40 ETF,"",Purchased,Dec 15 2009,"",15001,50000
Swiss Helvetia Fund,"",Sold,Sep  8 2009,"",15001,50000
Total Capital,"",Sold,Oct 13 2009,"",15001,50000
Toyota Motor Credit Corp,"",Purchased,Sep 17 2009,"",1001,15000
UBS SA,"",Sold,Mar  2 2009,"",100001,250000
WisdomTree Intl Industiral Sector Fund,"",Purchased,Sep  8 2009,"",1001,15000
Wisdomtree Intl Utilities Sector Fund,"",Purchased,Sep  8 2009,"",1001,15000
