orgname,ultorg,action,date1,transnotes,minvalue,maxvalue
American Funds Growth Fund,"",Sold,Dec 29 2011,"",15001,50000
Charles Schwab Dodge & Cox Stock,"",Sold,Dec 11 2011,"",50001,100000
Maryland College Investment Plans,"",Sold,Oct 13 2011,"",1001,15000
Maryland College Investment Plans,"",Sold,Dec  7 2011,"",1001,15000
PIMCO Total Return Fund,"",Sold,Dec 11 2011,"",50001,100000
Wachovia (now WELLS FARGO) Traditional I,"",Purchased,Mar 29 2011,"",1001,15000
