orgname,ultorg,action,date1,transnotes,minvalue,maxvalue
Arbitrage Funds,"",Sold,Jan 14 2013,"",1001,15000
Arbitrage Funds,"",Sold,Jan 14 2013,"",1001,15000
Arbitrage Funds,"",Purchased,Feb 21 2013,"",1001,15000
DWS RREEF Global Infrastructure Fund,"",Purchased,Jan 14 2013,"",1001,15000
DWS RREEF Global Infrastructure Fund,"",Purchased,Jan 14 2013,"",1001,15000
Invesco Convertible Secs,"",Sold,Jan 14 2013,"",1001,15000
PIMCO Total Return Fund,"",Sold,Apr 11 2013,"",1001,15000
Thornburg International Value Fund,"",Sold,Apr 11 2013,"",1001,15000
Thornburg International Value Fund,"",Sold,Oct 14 2013,"",1001,15000
Wasatch 1st Source Long Short,"",Sold,Oct 14 2013,"",1001,15000
