orgname,ultorg,action,date1,transnotes,minvalue,maxvalue
American Funds Bond Portfolio,"",Purchased,Feb 25 2011,"",15001,50000
American Funds Bond Portfolio,"",Sold,"",disposed of,50001,100000
Franklin California Tax-Free Income Fund,"",Sold,Various,"",15001,50000
Franklin California Tax-Free Income Fund,"",Purchased,Jan 27 2011,"",15001,50000
Franklin Growth Fund,"",Sold,Various,"",15001,50000
Franklin Growth Fund,"",Purchased,Jan 24 2011,"",15001,50000
"Healthcare Trust Care of America, Inc R","",Purchased,Mar 30 2011,"",1001,15000
Met Annuity Fund/Dimensional Intl Small,"",Purchased,Feb 25 2011,"",1001,15000
Met Life Growth Strategy Portfolio Fund ,"",Purchased,Feb 25 2011,"",50001,100000
Met Life Variable Annuity,"",Purchased,Jan 28 2011,"",100001,250000
Met/Dimensional Intl Small Co Portfolio,"",Sold,"",Disposed of,15001,50000
Pioneer Strategic Income Fund,"",Sold,"",Disposed of,15001,50000
Pioneer Strategic Income Portfolio Fund,"",Purchased,Feb 25 2011,"",1001,15000
Putnam Diversified Income Fund,"",Sold,Various,"",15001,50000
Putnam Diversified Income Fund,"",Purchased,Jan 21 2011,"",15001,50000
RCM Technology Portfolio Fund ,"",Purchased,Feb 25 2011,"",1001,15000
RCM Technology Portfolio Fund,"",Sold,"",Disposed of,15001,50000
