orgname,ultorg,action,date1,transnotes,minvalue,maxvalue
Farmers & Merchants State Bank,"",Purchased,monthly,"",1001,15000
Fidelity Asset Manager 50% Fund,"",Purchased,monthly,"",1001,15000
Fidelity Low Priced Stock Fund,"",Purchased,monthly,"",1001,15000
Fidelity Puritan Fund,"",Purchased,monthly,"",1001,15000
Fidelity Puritan Fund,"",Purchased,monthly,"",1001,15000
Fidelity Puritan Fund,"",Purchased,monthly,"",1001,15000
Fidelity Puritan Fund,"",Purchased,monthly,"",1001,15000
Fidelty Equity Income II,"",Purchased,monthly,"",1001,15000
Refcorp Zero,"",Sold,Jul 16 2012,"",1001,15000
Treasury Bonds & Notes,"",Sold,Nov 15 2012,"",1001,15000
Vanguard Index 500 Fund,"",Purchased,monthly,"",1001,15000
