orgname,ultorg,action,date1,transnotes,minvalue,maxvalue
IVY High Income Fund,"",Exchanged,Dec  8 2017 12:00AM,"","",""
IVY High Income Fund,"",Sold,12/8/2017,"",15001,50000
IVY High Income Fund,"",Sold,12/8/2017,"",15001,50000
John Hancock Core High Yield Fund,"",Sold,12/8/2017,"",15001,50000
John Hancock Core High Yield Fund,"",Sold,12/8/2017,"",15001,50000
John Hancock Core High Yield Fund,"",Exchanged,Dec  8 2017 12:00AM,"","",""
Mainstar Trust Cash Account,"",Sold,Dec 28 2017 12:00AM,"","",""
Mainstar Trust Cash Account,"",Purchased,12/28/2017,"",50001,100000
Mainstar Trust Cash Account,"",Purchased,12/28/2017,"",50001,100000
Pershing Government Market Account,"",Sold,12/8/2017,"",1001,15000
Pershing Government Market Account,"",Sold,12/8/2017,"",1001,15000
Pershing Government Market Account,"",Exchanged,Dec  8 2017 12:00AM,"","",""
Pioneer Global High Yield Fund,"",Exchanged,Dec  8 2017 12:00AM,"","",""
Pioneer Global High Yield Fund,"",Sold,12/8/2017,"",15001,50000
Pioneer Global High Yield Fund,"",Sold,12/8/2017,"",15001,50000
