orgname,ultorg,action,date1,transnotes,minvalue,maxvalue
Aggressive Managed Allocation Age 18+,"",Sold,Jun  8 2015,Sale (Full),15001,50000
Aggressive Managed Allocation Age 18+,"",Sold,Jun  8 2015,Sale (Full),15001,50000
Aggressive Managed Allocation Ages 12-14 - Jordan,"",Sold,Jun  8 2015,Sale (Full),15001,50000
Aggressive Managed Allocation Ages 12-14 - Jordan,"",Sold,Jun  8 2015,Sale (Full),15001,50000
Conservative Managed Allocation Age 14-17,"",Purchased,Jun  8 2015,--,15001,50000
Conservative Managed Allocation Age 18+,"",Purchased,Jun  8 2015,--,15001,50000
