orgname,ultorg,action,date1,transnotes,minvalue,maxvalue
DWS Scudder Latin America Fund,"",Purchased,Automatic,Cap Gains/Dividend Reinvest,1001,15000
Janus Venture Fund,"",Purchased,monthly,$100/month,"",""
Ministerial Pension Plan,"",Purchased,Periodic,Dividend Reinvestment,1001,15000
Paddington Partners,"",Purchased,Periodic,Dividend Reinvestment,1001,15000
Vanguard Total Stock Market Index,"",Sold,Jan 17 2008,"",15001,50000
