orgname,ultorg,action,date1,transnotes,minvalue,maxvalue
Citi US Treasury Reserves,"",Purchased,Various,"",100001,250000
Dreyfus Liquid Assets Money Market,"",Purchased,Various,"",1001,15000
Dreyfus U S Treasury Money Market,"",Purchased,Various,"",100001,250000
Eaton Vance Tax Advantaged,"",Sold,Mar 11 2008,"",15001,50000
Eaton Vance Tax Advantaged,"",Sold,Jan 22 2008,"",50001,100000
Eaton Vance Tax Advantaged,"",Sold,Feb  7 2008,"",15001,50000
Eaton Vance Tax Advantaged,"",Sold,Jan 31 2008,"",15001,50000
Eaton Vance Tax Advantaged,"",Sold,Jan 25 2008,"",50001,100000
Eaton Vance Tax Advantaged,"",Sold,Jan 23 2008,"",15001,50000
Eaton Vance Tax Advantaged,"",Sold,Jan 23 2008,"",15001,50000
Eaton Vance Tax Advantaged,"",Sold,Jan 31 2008,"",15001,50000
Eaton Vance Tax Advantaged,"",Sold,Mar 11 2008,"",15001,50000
Eaton Vance Tax Advantaged,"",Sold,Jan 25 2008,"",15001,50000
Evergreen Money Market,"",Purchased,Various,"",100001,250000
iStar Financial,"",Purchased,May 28 2008,"",15001,50000
iStar Financial,"",Purchased,Jun 13 2008,"",15001,50000
iStar Financial,"",Sold,Nov  7 2008,"",1001,15000
iStar Financial,"",Sold,Nov  7 2008,"",1001,15000
iStar Financial,"",Purchased,Jan  2 2008,"",15001,50000
iStar Financial,"",Purchased,Mar 12 2008,"",15001,50000
iStar Financial,"",Purchased,Jun 27 2008,"",1001,15000
Monmouth Real Estate Investment Trust,"",Purchased,Jun 13 2008,"",1001,15000
Morgan Stanley,"",Sold,Mar 14 2008,"",15001,50000
Sears Holdings,"",Sold,Mar 13 2008,"",15001,50000
Smith Barney/City Western Asset Govt Mon,"",Purchased,Various,"",50001,100000
Wachovia Money Market,"",Sold,Various,"",500001,1000000
William Wrigley Jr Co,Mars Inc,Sold,Oct  7 2008,"",15001,50000
