orgname,ultorg,action,date1,transnotes,minvalue,maxvalue
America Funds Capital World Growth & Inc,"",Sold,Jul 23 2010,"",1001,15000
America Funds Capital World Growth & Inc,"",Sold,Jul 26 2010,"",1001,15000
College Choice 529 Investment Plan,"",Sold,Jun 21 2010,"",1001,15000
College Choice 529 Investment Plan,"",Sold,Jul 23 2010,"",1001,15000
College Choice 529 Investment Plan,"",Purchased,Aug 10 2010,"",1001,15000
College Choice 529 Investment Plan,"",Sold,Aug 23 2010,"",1001,15000
College Choice 529 Investment Plan,"",Sold,Nov  8 2010,"",1001,15000
College Choice 529 Investment Plan,"",Sold,Dec  9 2010,"",1001,15000
