orgname,ultorg,action,date1,transnotes,minvalue,maxvalue
Freedom Bank Money Market,"",Sold,May 15 2012,"",50001,100000
Stifel Nicolaus Nuveen NJ Dividend,"",Sold,Sep  4 2012,"",1001,15000
Stifel Nicolaus Passaic County NJ Improv,"",Purchased,Sep 21 2012,"",1001,15000
Wells Fargo/CD,"",Purchased,Jul 24 2012,"",1001,15000
Wells Fargo/Deposit Sweep Account,"",Purchased,Jul 24 2012,"",1001,15000
