orgname,ultorg,action,date1,transnotes,minvalue,maxvalue
Morgan Keegan Money Market,"",Purchased,Dec 11 2010,"",1001,15000
Morgan Keegan Money Market,"",Purchased,Jan 10 2010,"",1001,15000
Morgan Keegan Money Market,"",Purchased,Feb 10 2010,"",1001,15000
