orgname,ultorg,action,date1,transnotes,minvalue,maxvalue
"House Hwy 438 SW 3207/Pleasantville, TN","",Purchased,  0508,"",100001,250000
"House Wimer Mt Rd/Franklin, WV","",Purchased,  0508,"",50001,100000
"Mortgage/3517 Mountain Rd/Knoxville, MD","",Purchased,  1008,"",50001,100000
"Mortgage/3518 Mountain Rd/Knoxville, MD","",Purchased,  1008,"",50001,100000
