orgname,ultorg,action,date1,transnotes,minvalue,maxvalue
TIAA-CREF CREF Bond Market,"",Purchased,Monthly,"",1001,15000
TIAA-CREF CREF Bond Market,"",Purchased,May 24 2011,"",100001,250000
TIAA-CREF CREF Bond Market,"",Sold,Dec  5 2011,"",500001,1000000
TIAA-CREF CREF Bond Market,"",Purchased,Dec  5 2011,"",500001,1000000
TIAA-CREF CREF Inflation-Linked Bond,"",Purchased,Monthly,"",1001,15000
TIAA-CREF CREF Inflation-Linked Bond,"",Sold,May 24 2011,"",100001,250000
TIAA-CREF CREF Inflation-Linked Bond,"",Sold,Dec  5 2011,"",100001,250000
TIAA-CREF CREF Inflation-Linked Bond,"",Purchased,Dec  5 2011,"",100001,250000
TIAA-CREF CREF Social Choice Variable An,"",Purchased,May 24 2011,"",100001,250000
TIAA-CREF CREF Social Choice Variable An,"",Purchased,Monthly,"",1001,15000
TIAA-CREF CREF Social Choice Variable An,"",Sold,Dec  5 2011,"",100001,250000
TIAA-CREF CREF Social Choice Variable An,"",Purchased,Dec  5 2011,"",100001,250000
TIAA-CREF International Equity Index,"",Purchased,Monthly,"",1001,15000
TIAA-CREF International Equity Index,"",Sold,May 24 2011,"",50001,100000
TIAA-CREF International Equity Index,"",Sold,Dec  2 2011,"",50001,100000
TIAA-CREF International Equity Index,"",Purchased,Dec  2 2011,"",50001,100000
TIAA-CREF Large-Cap Value Index Equity F,"",Purchased,May 24 2011,"",50001,100000
TIAA-CREF Large-Cap Value Index Fund - R,"",Purchased,Monthly,"","",""
TIAA-CREF Large-Cap Value Index Fund - R,"",Sold,Dec  2 2011,"",50001,100000
TIAA-CREF Large-Cap Value Index Index Fu,"",Purchased,Dec  2 2011,"",50001,100000
TIAA-CREF Mid Cap Value Equity Fund,"",Purchased,Monthly,"",1001,15000
TIAA-CREF Mid Cap Value Equity Fund,"",Sold,May 24 2011,"",15001,50000
TIAA-CREF Mid Cap Value Equity Fund,"",Sold,Dec  2 2011,"",100001,250000
TIAA-CREF Mid Cap Value Equity Fund,"",Purchased,Dec  2 2011,"",100001,250000
TIAA-CREF Money Market Fund Retirement,"",Sold,May 24 2011,"",100001,250000
TIAA-CREF PIMCO Total Return Fund - Inst,"",Purchased,Dec 30 2011,"",1001,15000
TIAA-CREF Real Estate Variable Annuity,"",Purchased,Monthly,"",1001,15000
TIAA-CREF Real Estate Variable Annuity,"",Sold,Dec  5 2011,"",100001,250000
TIAA-CREF Real Estate Variable Annuity,"",Purchased,Dec  5 2011,"",100001,250000
TIAA-CREF Social Choice Equity Fund,"",Purchased,Dec  2 2011,"",250001,500000
TIAA-CREF Social Choice Equity Fund,"",Purchased,Monthly,"",1001,15000
TIAA-CREF Social Choice Equity Fund,"",Sold,May 24 2011,"",100001,250000
TIAA-CREF Social Choice Equity Fund,"",Sold,Dec  2 2011,"",250001,500000
TIAA-CREF Traditional Retirement Annuity,"",Purchased,Monthly,"",1001,15000
TIAA-CREF Traditional Retirement Annuity,"",Sold,Dec  5 2011,"",250001,500000
TIAA-CREF Traditional Retirement Annuity,"",Purchased,Dec  5 2011,"",250001,500000
Winslow Green Growth Fund,"",Purchased,May  5 2011,"",1001,15000
