orgname,ultorg,action,date1,transnotes,minvalue,maxvalue
Airport Farms Aviation LLC,"",Purchased,Feb 20 2011,"",100001,250000
AOL LLC,"",Sold,Feb 10 2011,"",60,60
Time Warner,"",Sold,Feb 10 2011,"",1001,15000
Time Warner Cable,"",Sold,Feb 10 2011,"",786,786
