orgname,ultorg,action,date1,transnotes,minvalue,maxvalue
AC Alternatives Income Fund,"",Exchanged,Jul 10 2018 12:00AM,"","",""
AC Alternatives Income Fund,"",Sold,Apr  5 2017 12:00AM,"","",""
AC Alternatives Income Fund,"",Sold,7/10/2018,"",1001,15000
AC Alternatives Income Fund,"",Purchased,4/5/2017,"",1001,15000
AC Alternatives Income Fund,"",Purchased,4/5/2017,"",1001,15000
AC Alternatives Income Fund,"",Sold,7/10/2018,"",1001,15000
Accenture PLC,"",Sold,10/10/2017,"",1001,15000
Accenture PLC,"",Sold,10/10/2017,"",1001,15000
Accenture PLC,"",Exchanged,Oct 10 2017 12:00AM,"","",""
Adobe Inc,"",Exchanged,Oct 10 2017 12:00AM,"","",""
Adobe Inc,"",Sold,10/10/2017,"",1001,15000
Adobe Inc,"",Sold,10/10/2017,"",1001,15000
Adobe Inc,"",Sold,4/5/2017,"",1001,15000
Adobe Inc,"",Sold,4/5/2017,"",1001,15000
American Tower Corp,"",Purchased,4/5/2017,"",1001,15000
American Tower Corp,"",Sold,10/10/2017,"",1001,15000
American Tower Corp,"",Sold,10/10/2017,"",1001,15000
American Tower Corp,"",Purchased,4/5/2017,"",1001,15000
American Tower Corp,"",Exchanged,Oct 10 2017 12:00AM,"","",""
American Tower Corp,"",Sold,Apr  5 2017 12:00AM,"","",""
Ameriprise Financial,"",Exchanged,Oct 10 2017 12:00AM,"","",""
Ameriprise Financial,"",Sold,10/10/2017,"",1001,15000
Ameriprise Financial,"",Sold,10/10/2017,"",1001,15000
Ameriprise Financial,"",Sold,4/5/2017,"",1001,15000
Ameriprise Financial,"",Sold,4/5/2017,"",1001,15000
Amerisourcebergen Corp,"",Sold,8/3/2017,"",1001,15000
Amerisourcebergen Corp,"",Sold,8/3/2017,"",1001,15000
Amerisourcebergen Corp,"",Exchanged,Aug  3 2017 12:00AM,"","",""
Bank of America,"",Sold,3/24/2017,"",15001,50000
Bank of America,"",Sold,1/30/2017,"",50001,100000
Bank of America,"",Sold,3/24/2017,"",1001,15000
Bank of America,"",Sold,3/24/2017,"",15001,50000
Bank of America,"",Sold,1/30/2017,"",50001,100000
Bank of America,"",Sold,3/24/2017,"",1001,15000
"Becton, Dickinson & Co","",Sold,4/5/2017,"",1001,15000
"Becton, Dickinson & Co","",Exchanged,Apr  5 2017 12:00AM,"","",""
"Becton, Dickinson & Co","",Sold,4/5/2017,"",1001,15000
Blackrock High Yield Bond Fund,"",Purchased,10/10/2017,"",1001,15000
Blackrock High Yield Bond Fund,"",Sold,Oct 10 2017 12:00AM,"","",""
Blackrock High Yield Bond Fund,"",Purchased,10/10/2017,"",1001,15000
Blackrock Inc,"",Sold,10/10/2017,"",1001,15000
Blackrock Inc,"",Exchanged,Oct 10 2017 12:00AM,"","",""
Blackrock Inc,"",Sold,10/10/2017,"",1001,15000
Catalyst Millburn Hedge Strategy Fund,"",Sold,7/10/2018,"",1001,15000
Catalyst Millburn Hedge Strategy Fund,"",Purchased,4/5/2017,"",1001,15000
Catalyst Millburn Hedge Strategy Fund,"",Exchanged,Jul 10 2018 12:00AM,"","",""
Catalyst Millburn Hedge Strategy Fund,"",Sold,Apr  5 2017 12:00AM,"","",""
Catalyst Millburn Hedge Strategy Fund,"",Sold,7/10/2018,"",1001,15000
Catalyst Millburn Hedge Strategy Fund,"",Purchased,4/5/2017,"",1001,15000
Cohen & Steers Real Estate Securities Fund,"",Sold,4/5/2017,"",1001,15000
Cohen & Steers Real Estate Securities Fund,"",Exchanged,Apr  5 2017 12:00AM,"","",""
Cohen & Steers Real Estate Securities Fund,"",Sold,4/5/2017,"",1001,15000
Colgate-Palmolive Co,"",Sold,10/10/2017,"",1001,15000
Colgate-Palmolive Co,"",Exchanged,Oct 10 2017 12:00AM,"","",""
Colgate-Palmolive Co,"",Sold,10/10/2017,"",1001,15000
Collins Aerospace,"",Sold,10/10/2017,"",1001,15000
Collins Aerospace,"",Exchanged,Oct 10 2017 12:00AM,"","",""
Collins Aerospace,"",Sold,10/10/2017,"",1001,15000
Comcast - Cl A,"",Sold,10/10/2017,"",1001,15000
Comcast - Cl A,"",Exchanged,Oct 10 2017 12:00AM,"","",""
Comcast - Cl A,"",Sold,10/10/2017,"",1001,15000
Cosecha Somi LLC,"",Purchased,6/23/2017,"",1001,15000
Cosecha Somi LLC,"",Sold,Jun 23 2017 12:00AM,"","",""
Cosecha Somi LLC,"",Purchased,6/23/2017,"",1001,15000
CSX Corp,"",Exchanged,Jan 30 2017 12:00AM,"","",""
CSX Corp,"",Purchased,4/5/2017,"",1001,15000
CSX Corp,"",Sold,10/10/2017,"",1001,15000
CSX Corp,"",Sold,Apr  5 2017 12:00AM,"","",""
CSX Corp,"",Exchanged,Oct 10 2017 12:00AM,"","",""
CSX Corp,"",Sold,1/30/2017,"",15001,50000
CSX Corp,"",Sold,1/30/2017,"",15001,50000
CSX Corp,"",Sold,10/10/2017,"",1001,15000
CSX Corp,"",Purchased,4/5/2017,"",1001,15000
CVS Health,"",Sold,10/10/2017,"",1001,15000
CVS Health,"",Exchanged,Oct 10 2017 12:00AM,"","",""
CVS Health,"",Sold,10/10/2017,"",1001,15000
Danaher Corp,"",Sold,10/10/2017,"",1001,15000
Danaher Corp,"",Exchanged,Oct 10 2017 12:00AM,"","",""
Danaher Corp,"",Sold,10/10/2017,"",1001,15000
Delaware Value Fund,"",Sold,10/10/2017,"",15001,50000
Delaware Value Fund,"",Sold,10/10/2017,"",15001,50000
Delaware Value Fund,"",Exchanged,Oct 10 2017 12:00AM,"","",""
Ecolab Inc,"",Sold,10/10/2017,"",1001,15000
Ecolab Inc,"",Exchanged,Oct 10 2017 12:00AM,"","",""
Ecolab Inc,"",Sold,10/10/2017,"",1001,15000
Energy Transfer Partners,"",Sold,7/10/2017,"",1001,15000
Energy Transfer Partners,"",Exchanged,Jul 10 2017 12:00AM,"","",""
Energy Transfer Partners,"",Sold,7/10/2017,"",1001,15000
Ensco plc,"",Exchanged,Dec 20 2017 12:00AM,"","",""
Ensco plc,"",Sold,12/20/2017,"",1001,15000
Ensco plc,"",Sold,12/20/2017,"",1001,15000
Facebook Inc,"",Sold,4/5/2017,"",1001,15000
Facebook Inc,"",Sold,4/5/2017,"",1001,15000
Facebook Inc,"",Purchased,7/10/2017,"",1001,15000
Facebook Inc,"",Purchased,7/10/2017,"",1001,15000
Facebook Inc,"",Purchased,7/10/2017,"",1001,15000
Facebook Inc,"",Purchased,7/10/2017,"",1001,15000
Facebook Inc,"",Sold,Jul 10 2017 12:00AM,"","",""
Facebook Inc,"",Sold,Jul 10 2017 12:00AM,"","",""
Fidelity Advisor Emerging Mkt Discovery Fund,"",Sold,Jul 10 2018 12:00AM,"","",""
Fidelity Advisor Emerging Mkt Discovery Fund,"",Purchased,7/10/2018,"",1001,15000
Fidelity Advisor Emerging Mkt Discovery Fund,"",Purchased,7/10/2018,"",1001,15000
First Solar,"",Purchased,4/6/2017,"",1001,15000
First Solar,"",Purchased,4/6/2017,"",1001,15000
First Solar,"",Sold,Apr  6 2017 12:00AM,"","",""
Gogo Inc,"",Sold,Nov 27 2017 12:00AM,"","",""
Gogo Inc,"",Sold,Nov 29 2017 12:00AM,"","",""
Gogo Inc,"",Purchased,11/27/2017,"",1001,15000
Gogo Inc,"",Purchased,11/27/2017,"",1001,15000
Gogo Inc,"",Purchased,11/29/2017,"",15001,50000
Gogo Inc,"",Purchased,11/29/2017,"",15001,50000
Hertz Global Holdings,"",Sold,12/29/2017,"",1001,15000
Hertz Global Holdings,"",Sold,12/29/2017,"",1001,15000
Home Depot,"",Sold,10/10/2017,"",1001,15000
Home Depot,"",Sold,10/10/2017,"",1001,15000
Home Depot,"",Exchanged,Oct 10 2017 12:00AM,"","",""
Honeywell International,"",Exchanged,Oct 10 2017 12:00AM,"","",""
Honeywell International,"",Sold,10/10/2017,"",1001,15000
Honeywell International,"",Sold,10/10/2017,"",1001,15000
IntercontinentalExchange Inc,"",Sold,10/10/2017,"",1001,15000
IntercontinentalExchange Inc,"",Sold,10/10/2017,"",1001,15000
IntercontinentalExchange Inc,"",Exchanged,Oct 10 2017 12:00AM,"","",""
Invesco European Small Co Fund,"",Sold,Apr  5 2017 12:00AM,"","",""
Invesco European Small Co Fund,"",Purchased,4/5/2017,"",1001,15000
Invesco European Small Co Fund,"",Purchased,4/5/2017,"",1001,15000
Invesco Ltd (IVZ),"",Sold,10/10/2017,"",1001,15000
Invesco Ltd (IVZ),"",Sold,10/10/2017,"",1001,15000
Invesco Ltd (IVZ),"",Exchanged,Oct 10 2017 12:00AM,"","",""
iShares CMBS Bond ETF,"",Exchanged,Apr  5 2017 12:00AM,"","",""
iShares CMBS Bond ETF,"",Sold,4/5/2017,"",1001,15000
iShares CMBS Bond ETF,"",Sold,4/5/2017,"",1001,15000
iShares Core S&P Small Cap ETF,"",Purchased,10/10/2017,"",1001,15000
iShares Core S&P Small Cap ETF,"",Purchased,10/10/2017,"",1001,15000
iShares Core S&P Small Cap ETF,"",Purchased,10/10/2017,"",1001,15000
iShares Core S&P Small Cap ETF,"",Purchased,10/10/2017,"",1001,15000
iShares Core S&P Small Cap ETF,"",Sold,Oct 10 2017 12:00AM,"","",""
iShares Core S&P Small Cap ETF,"",Sold,Oct 10 2017 12:00AM,"","",""
iShares Russell 1000 Growth Index Fund,"",Sold,Oct 10 2017 12:00AM,"","",""
iShares Russell 1000 Growth Index Fund,"",Purchased,10/10/2017,"",15001,50000
iShares Russell 1000 Growth Index Fund,"",Purchased,10/10/2017,"",15001,50000
iShares US Real Estate ETF,"",Purchased,7/10/2017,"",1001,15000
iShares US Real Estate ETF,"",Purchased,7/10/2017,"",1001,15000
iShares US Real Estate ETF,"",Sold,Jul 10 2017 12:00AM,"","",""
JOHCM International Fund,"",Sold,10/10/2017,"",1001,15000
JOHCM International Fund,"",Sold,10/10/2017,"",1001,15000
JOHCM INTERNATIONAL FUND CLASS SELECT I,"",Purchased,4/5/2017,"",1001,15000
JOHCM INTERNATIONAL FUND CLASS SELECT I,"",Sold,Apr  5 2017 12:00AM,"","",""
JOHCM INTERNATIONAL FUND CLASS SELECT I,"",Purchased,4/5/2017,"",1001,15000
John Hancock Disciplines Value Mid Cap Fund Class,"",Sold,10/10/2018,"",1001,15000
John Hancock Disciplines Value Mid Cap Fund Class,"",Exchanged,Oct 10 2018 12:00AM,"","",""
John Hancock Disciplines Value Mid Cap Fund Class,"",Sold,10/10/2018,"",1001,15000
Kinder Morgan Inc,"",Sold,7/10/2017,"",1001,15000
Kinder Morgan Inc,"",Exchanged,Jul 10 2017 12:00AM,"","",""
Kinder Morgan Inc,"",Sold,7/10/2017,"",1001,15000
Lowe's Cos,"",Sold,10/10/2017,"",1001,15000
Lowe's Cos,"",Exchanged,Oct 10 2017 12:00AM,"","",""
Lowe's Cos,"",Sold,10/10/2017,"",1001,15000
Medtronic PLC,"",Sold,10/10/2017,"",1001,15000
Medtronic PLC,"",Sold,10/10/2017,"",1001,15000
Medtronic PLC,"",Exchanged,Oct 10 2017 12:00AM,"","",""
Mondelez International,"",Sold,May 16 2017 12:00AM,"","",""
Mondelez International,"",Exchanged,Aug 24 2017 12:00AM,"","",""
Mondelez International,"",Sold,8/24/2017,"",1001,15000
Mondelez International,"",Purchased,5/16/2017,"",1001,15000
Mondelez International,"",Purchased,5/16/2017,"",1001,15000
Mondelez International,"",Sold,8/24/2017,"",1001,15000
Morgan Stanley Inst Frontier Emerging Market Fund,"",Purchased,4/5/2017,"",1001,15000
Morgan Stanley Inst Frontier Emerging Market Fund,"",Sold,7/10/2017,"",1001,15000
Morgan Stanley Inst Frontier Emerging Market Fund,"",Sold,7/10/2017,"",1001,15000
Morgan Stanley Inst Frontier Emerging Market Fund,"",Purchased,4/5/2017,"",1001,15000
Morgan Stanley Inst Frontier Emerging Market Fund,"",Sold,Apr  5 2017 12:00AM,"","",""
Morgan Stanley Inst'al Frontier Mkts Portfolio Inc,"",Sold,Apr  5 2017 12:00AM,"","",""
Morgan Stanley Inst'al Frontier Mkts Portfolio Inc,"",Purchased,4/5/2017,"",1001,15000
Morgan Stanley Inst'al Frontier Mkts Portfolio Inc,"",Purchased,4/5/2017,"",1001,15000
Mylan NV,"",Sold,8/3/2017,"",1001,15000
Mylan NV,"",Sold,8/3/2017,"",1001,15000
Mylan NV,"",Exchanged,Aug  3 2017 12:00AM,"","",""
Navigator Holdings,"",Exchanged,Nov  8 2017 12:00AM,"","",""
Navigator Holdings,"",Sold,11/8/2017,"",1001,15000
Navigator Holdings,"",Sold,11/8/2017,"",1001,15000
O'Reilly Automotive,"",Purchased,7/10/2017,"",1001,15000
O'Reilly Automotive,"",Sold,10/10/2017,"",1001,15000
O'Reilly Automotive,"",Purchased,7/10/2017,"",1001,15000
O'Reilly Automotive,"",Sold,10/10/2017,"",1001,15000
O'Reilly Automotive,"",Exchanged,Oct 10 2017 12:00AM,"","",""
O'Reilly Automotive,"",Sold,Jul 10 2017 12:00AM,"","",""
Opko Health,"",Sold,Feb  7 2017 12:00AM,"","",""
Opko Health,"",Sold,Mar  2 2017 12:00AM,"","",""
Opko Health,"",Sold,Sep 26 2017 12:00AM,"","",""
Opko Health,"",Purchased,2/7/2017,"",1001,15000
Opko Health,"",Purchased,3/2/2017,"",1001,15000
Opko Health,"",Purchased,9/26/2017,"",1001,15000
Opko Health,"",Purchased,2/7/2017,"",1001,15000
Opko Health,"",Purchased,3/2/2017,"",1001,15000
Opko Health,"",Purchased,9/26/2017,"",1001,15000
Parexel International,"",Sold,4/5/2017,"",1001,15000
Parexel International,"",Sold,4/5/2017,"",1001,15000
Parexel International,"",Exchanged,Apr  5 2017 12:00AM,"","",""
PIMCO Investment Grade Corp Bond,"",Exchanged,Apr  5 2017 12:00AM,"","",""
PIMCO Investment Grade Corp Bond,"",Sold,4/5/2017,"",1001,15000
PIMCO Investment Grade Corp Bond,"",Sold,4/5/2017,"",1001,15000
PowerShares Emerging Markets Sovereign Debt ETF,"",Sold,4/5/2017,"",1001,15000
PowerShares Emerging Markets Sovereign Debt ETF,"",Sold,4/5/2017,"",1001,15000
PowerShares Emerging Markets Sovereign Debt ETF,"",Exchanged,Apr  5 2017 12:00AM,"","",""
Red Hat Inc,"",Exchanged,Oct 10 2017 12:00AM,"","",""
Red Hat Inc,"",Sold,10/10/2017,"",1001,15000
Red Hat Inc,"",Sold,10/10/2017,"",1001,15000
Red Hat Inc,"",Sold,4/5/2017,"",1001,15000
Red Hat Inc,"",Sold,4/5/2017,"",1001,15000
ROBO Global Robotics & Automation Index ETF,"",Purchased,7/10/2017,"",1001,15000
ROBO Global Robotics & Automation Index ETF,"",Purchased,7/10/2017,"",1001,15000
ROBO Global Robotics & Automation Index ETF,"",Sold,Jul 10 2017 12:00AM,"","",""
Rockwell Automation,"",Exchanged,Oct 10 2017 12:00AM,"","",""
Rockwell Automation,"",Sold,10/10/2017,"",1001,15000
Rockwell Automation,"",Sold,4/5/2017,"",1001,15000
Rockwell Automation,"",Sold,10/10/2017,"",1001,15000
Rockwell Automation,"",Sold,4/5/2017,"",1001,15000
SPDR Dow Jones Industrial Average ETF (DIA),"",Purchased,10/10/2017,"",15001,50000
SPDR Dow Jones Industrial Average ETF (DIA),"",Purchased,10/10/2017,"",15001,50000
SPDR Dow Jones Industrial Average ETF (DIA),"",Sold,Oct 10 2017 12:00AM,"","",""
Starbucks Corp,"",Exchanged,Aug  9 2017 12:00AM,"","",""
Starbucks Corp,"",Sold,8/9/2017,"",1001,15000
Starbucks Corp,"",Sold,8/9/2017,"",1001,15000
T Rowe Price Group,"",Sold,7/10/2017,"",1001,15000
T Rowe Price Group,"",Purchased,4/5/2017,"",1001,15000
T Rowe Price Group,"",Sold,7/10/2017,"",1001,15000
T Rowe Price Group,"",Purchased,4/5/2017,"",1001,15000
T Rowe Price Group,"",Exchanged,Jul 10 2017 12:00AM,"","",""
T Rowe Price Group,"",Sold,Apr  5 2017 12:00AM,"","",""
Thermo Fisher Scientific Inc (TMO),"",Exchanged,Oct 10 2017 12:00AM,"","",""
Thermo Fisher Scientific Inc (TMO),"",Sold,10/10/2017,"",1001,15000
Thermo Fisher Scientific Inc (TMO),"",Sold,10/10/2017,"",1001,15000
TJX Companies,"",Sold,10/10/2017,"",1001,15000
TJX Companies,"",Sold,10/10/2017,"",1001,15000
TJX Companies,"",Exchanged,Oct 10 2017 12:00AM,"","",""
UBS Brokerage Account,"",Exchanged,Aug  9 2017 12:00AM,"","",""
UBS Brokerage Account,"",Sold,8/9/2017,"",1001,15000
UBS Brokerage Account,"",Sold,8/9/2017,"",1001,15000
"UM Cafe LLC, 10% Interest","",Purchased,11/28/2017,"",1001,15000
"UM Cafe LLC, 10% Interest","",Purchased,11/28/2017,"",1001,15000
"UM Cafe LLC, 10% Interest","",Sold,Nov 28 2017 12:00AM,"","",""
Undiscovered MG BH VL SL,"",Exchanged,Oct 10 2017 12:00AM,"","",""
Undiscovered MG BH VL SL,"",Sold,10/10/2017,"",1001,15000
Undiscovered MG BH VL SL,"",Sold,10/10/2017,"",1001,15000
United Technologies,"",Sold,10/10/2017,"",1001,15000
United Technologies,"",Sold,10/10/2017,"",1001,15000
United Technologies,"",Exchanged,Oct 10 2017 12:00AM,"","",""
Visa Inc,"",Sold,Oct 10 2017 12:00AM,"","",""
Visa Inc,"",Purchased,10/10/2017,"",1001,15000
Visa Inc,"",Purchased,10/10/2017,"",1001,15000
Walt Disney Co,"",Purchased,10/10/2017,"",1001,15000
Walt Disney Co,"",Sold,none given,"","",""
Walt Disney Co,"",Purchased,10/10/2017,"",1001,15000
Walt Disney Co,"",Sold,none given,"","",""
Walt Disney Co,"",Sold,Oct 10 2017 12:00AM,"","",""
WarnerMedia Group,"",Exchanged,May 16 2017 12:00AM,"","",""
WarnerMedia Group,"",Sold,5/16/2017,"",1001,15000
WarnerMedia Group,"",Sold,5/16/2017,"",1001,15000
Whole Foods Market,"",Exchanged,8/29/2017,"",1001,15000
Whole Foods Market,"",Exchanged,8/29/2017,"",15001,50000
Whole Foods Market,"",Exchanged,8/29/2017,"",1001,15000
Whole Foods Market,"",Exchanged,8/29/2017,"",15001,50000
