orgname,ultorg,action,date1,transnotes,minvalue,maxvalue
Adams-Weld CO SD27 J Bond,"",Purchased,Sep  8 2008,"",250001,500000
AIP Japan Recovery Fund IV LP,"",Purchased,Jul 17 2008,"",500001,1000000
AIP Japan Recovery Fund IV LP,"",Purchased,Nov 14 2008,"",500001,1000000
AllianceBernstein International Fund,"",Sold,Mar 20 2008,"",500001,1000000
AllianceBernstein International Fund,"",Sold,Jun  9 2008,"",500001,1000000
American Eagle Outfitters,"",Sold,Jan 22 2008,"",15001,50000
Appian Ventures I LP,"",Purchased,Jul 31 2008,"",15001,50000
AQ Kafe LLC,"",Purchased,Mar 11 2008,"",100001,250000
AQ Kafe LLC,"",Purchased,May  1 2008,"",100001,250000
AQ Kafe LLC,"",Purchased,Sep 26 2008,"",100001,250000
Aquacopia Ventures I LP,"",Purchased,Jan 25 2008,"",5000001,25000000
Aquacopia Ventures I LP,"",Purchased,Sep 24 2008,"",5000001,25000000
Aquacopia Ventures I LP,"",Purchased,Nov 11 2008,"",5000001,25000000
Baird Capital Partners IV LP,"",Purchased,Feb 19 2008,"",250001,500000
Baird Capital Partners IV LP,"",Purchased,Apr 22 2008,"",250001,500000
Baird Capital Partners IV LP,"",Purchased,Oct 21 2008,"",250001,500000
Blackrock Aurora PTFL,"",Sold,May 27 2008,"",100001,250000
Blackrock Global Allocation Fund,"",Purchased,Various,Div Reinv.,1001,15000
Boulder Interactive Learning Group,"",Sold,Dec 30 2008,"",15001,50000
Bow River Capital Fund IV LP,"",Purchased,Jun 11 2008,"",100001,250000
BridgeHealth International,"",Purchased,Mar  6 2008,"",1000001,5000000
BridgeHealth International,"",Purchased,May  1 2008,"",1000001,5000000
BridgeHealth International,"",Purchased,Nov 14 2008,"",1000001,5000000
Charles & Colvard,"",Sold,Feb 19 2008,"",1001,15000
Charles & Colvard,"",Sold,Feb 20 2008,"",1001,15000
Cleburne TX CTF Oblig Rv FSA Bond,"",Sold,Aug 15 2008,"",50001,100000
Co Dept Tran Bond,"",Purchased,Jun 17 2008,"",50001,100000
Co Dept Tran Bond,"",Purchased,Jun 17 2008,"",100001,250000
Cohen & Steers International Realty Fund,"",Sold,Feb 21 2008,"",100001,250000
Colorado Water Bond,"",Purchased,Oct  6 2008,"",15001,50000
Confluence Commons,"",Purchased,Jun 27 2008,"",1000001,5000000
Confluence Commons,"",Purchased,Sep 19 2008,"",1000001,5000000
Confluence Commons,"",Purchased,Dec  1 2008,"",1000001,5000000
Delaware Investments,"",Sold,Mar 20 2008,"",1000001,5000000
Delaware Investments,"",Sold,May 23 2008,"",1000001,5000000
Denver Co Sch Bond,"",Purchased,Jul  9 2008,"",15001,50000
Denver Colo City & County Bond,"",Purchased,Sep  9 2008,"",500001,1000000
Earnest Partners,"",Sold,Mar 20 2008,"",500001,1000000
Earnest Partners,"",Sold,Apr  1 2008,"",500001,1000000
Euro,"",Purchased,Oct 24 2008,Interest Reinv.,1000001,5000000
Euro,"",Purchased,Oct 31 2008,Interest Reinv.,1000001,5000000
Euro,"",Purchased,Nov 30 2008,Interest Reinv.,1000001,5000000
Euro,"",Purchased,Dec 17 2008,Interest Reinv.,1000001,5000000
Euro,"",Purchased,Dec 31 2008,Interest Reinv.,1000001,5000000
Euro,"",Sold,Oct 29 2008,"",1000001,5000000
Euro,"",Sold,Oct 30 2008,"",1000001,5000000
Euro,"",Sold,Dec 22 2008,"",1000001,5000000
EventVue Inc,"",Purchased,Dec  5 2008,"",15001,50000
Evergreen Precious Metals Fund,"",Purchased,Apr 23 2008,"",15001,50000
Fiduciary Management Account,"",Sold,Mar 20 2008,"",1000001,5000000
Fiduciary Management Account,"",Sold,Apr 28 2008,"",1000001,5000000
Foodzie Inc,"",Purchased,Oct 28 2008,"",15001,50000
Franklin Total Return Fund,"",Purchased/Sold,"Various, Assets Ech to Pi",Div Reinv.,15001,50000
Frmnt Co SD Bond,"",Purchased,Sep  8 2008,"",50001,100000
Frmnt Co SD Bond,"",Purchased,Sep  8 2008,"",50001,100000
Gateway Managed Account,"",Sold,Feb  4 2008,"",1000001,5000000
Gateway Managed Account,"",Sold,Apr 14 2008,"",1000001,5000000
Goldman Sachs Direct Stategies 2006 Fund,"",Sold,Jan 17 2008,"",1000001,5000000
Goldman Sachs Direct Stategies 2006 Fund,"",Sold,Feb 19 2008,"",1000001,5000000
Goldman Sachs Foreign Currencys Australi,"",Purchased,Oct 24 2008,Interest Reinv.,1000001,5000000
Goldman Sachs Foreign Currencys Australi,"",Purchased,Oct 31 2008,Interest Reinv.,1000001,5000000
Goldman Sachs Foreign Currencys Australi,"",Purchased,Nov 30 2008,Interest Reinv.,1000001,5000000
Goldman Sachs Foreign Currencys Australi,"",Purchased,Dec 31 2008,Interest Reinv.,1000001,5000000
Goldman Sachs Foreign Currencys Australi,"",Sold,Dec 22 2008,"",1000001,5000000
Goldman Sachs Global Opportunities Fund ,"",Sold,Jun 30 2008,"",1000001,5000000
Gratry & Co,"",Sold,Feb  4 2008,"",500001,1000000
Gratry & Co,"",Sold,Apr 14 2008,"",500001,1000000
Great Wolf Resorts,"",Sold,Feb 19 2008,"",100001,250000
Great Wolf Resorts,"",Sold,Feb 20 2008,"",100001,250000
Greenmont Capital Partners I LP,"",Purchased,Mar 17 2008,"",15001,50000
Greenmont Capital Partners I LP,"",Purchased,Jul  1 2008,"",15001,50000
GS Mezzanine Partners 2006 LP,"",Purchased,Feb 20 2008,"",100001,250000
GS Mezzanine Partners 2006 LP,"",Purchased,Mar 31 2008,"",100001,250000
GS Mezzanine Partners 2006 LP,"",Purchased,Apr 25 2008,"",100001,250000
GS Mezzanine Partners 2006 LP,"",Purchased,Jun  3 2008,"",100001,250000
H&R Block,"",Sold,Jan 22 2008,"",15001,50000
iShares MCSI Chile Index,"",Purchased,Jan  2 2008,"",50001,100000
iShares MCSI Chile Index,"",Sold,Oct 13 2008,"",15001,50000
iShares MCSI Chile Index,"",Sold,Nov 24 2008,"",15001,50000
iShares MSCI Brazil Free Index,"",Purchased,Dec  1 2008,"",1001,15000
iShares MSCI Brazil Free Index,"",Sold,Dec  8 2008,"",15001,50000
iShares Msci Eafe Index,"",Purchased,Mar 25 2008,"",250001,500000
iShares Msci Eafe Index,"",Purchased,Apr 23 2008,"",250001,500000
iShares MSCI Emerging Markets Index,"",Sold,Mar 25 2008,"",100001,250000
iShares MSCI Emerging Markets Index,"",Purchased,Apr 23 2008,"",15001,50000
iShares MSCI Japan Index,"",Purchased,May 20 2008,"",15001,50000
iShares MSCI Japan Index,"",Purchased,Oct 15 2008,"",15001,50000
iShares MSCI Japan Index,"",Purchased,Nov 25 2008,"",15001,50000
iShares MSCI Japan Index,"",Sold,Oct 10 2008,"",15001,50000
iShares MSCI Japan Index,"",Sold,Nov  3 2008,"",15001,50000
iShares MSCI Japan Index,"",Sold,Nov 25 2008,"",15001,50000
iShares Russell 1000 Growth Index,"",Purchased,Feb 21 2008,"",250001,500000
iShares Russell 1000 Growth Index,"",Purchased,Mar 25 2008,"",250001,500000
iShares Russell 1000 Growth Index,"",Purchased,Apr 23 2008,"",250001,500000
iShares Russell 1000 Growth Index,"",Sold,Mar 27 2008,"",250001,500000
iShares Russell 1000 Growth Index,"",Sold,Mar 28 2008,"",250001,500000
iShares Russell 1000 Index,"",Sold,Nov 24 2008,"",1000001,5000000
iShares Russell 1000 Index,"",Sold,Dec 16 2008,"",1000001,5000000
iShares Russell 1000 Index,"",Purchased,Nov 11 2008,"",1000001,5000000
iShares Russell 1000 Index,"",Purchased,Nov 21 2008,"",1000001,5000000
iShares Russell 1000 Value Index,"",Purchased,Feb 21 2008,"",500001,1000000
iShares Russell 1000 Value Index,"",Purchased,Mar 25 2008,"",500001,1000000
iShares Russell 1000 Value Index,"",Purchased,Apr 23 2008,"",500001,1000000
iShares Russell 2000 Growth Index,"",Purchased,Mar 25 2008,"",100001,250000
iShares Russell 2000 Growth Index,"",Purchased,Apr 23 2008,"",100001,250000
iShares Russell 2000 Index,"",Sold,May 27 2008,"",1000001,5000000
iShares Russell 2000 Value Index,"",Purchased,Mar 25 2008,"",100001,250000
iShares Russell 2000 Value Index,"",Purchased,Apr 23 2008,"",100001,250000
iShares S&P Europe 350 Index,"",Purchased,Mar 25 2008,"",250001,500000
iShares S&P Europe 350 Index,"",Purchased,Apr 23 2008,"",250001,500000
iShares S&p Latin America Co Index,"",Purchased,Jan  2 2008,"",50001,100000
iShares S&p Latin America Co Index,"",Sold,Feb 28 2008,"",50001,100000
Japan Equity Fund,"",Sold,Oct 10 2008,"",15001,50000
Japanese Yen,"",Purchased,Oct 24 2008,"",1000001,5000000
Japanese Yen,"",Sold,Dec 22 2008,"",500001,1000000
Jove Capital Assoc,"",Sold,Oct 22 2008,Distribution,50001,100000
Jove Capital Fund LP,"",Sold,Oct 20 2008,"",50000001,50000001
Jove Capital Fund LP,"",Sold,Nov  6 2008,"",50000001,50000001
Jove Capital Fund LP,"",Sold,Dec 31 2008,"",50000001,50000001
Jove Partners,"",Purchased,Oct 23 2008,"",1000001,5000000
Jove Partners,"",Purchased,Oct 24 2008,"",1000001,5000000
Jove Partners,"",Purchased,Nov 25 2008,"",1000001,5000000
Jove Partners,"",Purchased,Dec 10 2008,"",1000001,5000000
Jovian Cap,"",Purchased,Jul  8 2008,"",1001,15000
KCM Investment Advisors,"",Sold,Mar 20 2008,"",1000001,5000000
KCM Investment Advisors,"",Sold,Apr 28 2008,"",1000001,5000000
Laffer Investments-Union Bank of Calif,"",Purchased/Sold,Various,Div's Reinv,5000001,25000000
Laffer Partners,"",Sold,Nov 19 2008,"",500001,1000000
Landesbank Baden-Wuerttemberg,"",Purchased,Oct 30 2008,"",500001,1000000
Liberty Media,"",Sold,Feb 19 2008,"",100001,250000
Liberty Media,"",Sold,Feb 19 2008,"",250001,500000
Life Pics Inc,"",Purchased,May  1 2008,"","",""
Life Pics Inc,"",Purchased,Nov 14 2008,"","",""
Life Pics Inc,"",Purchased,Aug 15 2008,"",250001,500000
Life Pics Inc,"",Purchased,Oct 16 2008,"",250001,500000
Life Pics Inc,"",Sold,Nov 17 2008,Loan Pymt,250001,500000
Lifetime Brands,"",Sold,Dec 10 2008,"",1001,15000
Lifetime Brands,"",Sold,Dec 11 2008,"",1001,15000
Lifetime Brands,"",Sold,Dec 15 2008,"",1001,15000
Lifetime Brands,"",Sold,Dec 22 2008,"",1001,15000
Management Advisory Group LLC,"",Sold,Dec 29 2008,"",15001,50000
Munder Mid Cap Core Growth Fund,"",Purchased,Various,Div Reinv.,1001,15000
Netherlands Bond,"",Sold,Dec 17 2008,"",1000001,5000000
Network Rail Ltd,"",Purchased,Oct 30 2008,"",1000001,5000000
NGTB 0% 12/17/2008 - NOK,"",Sold,Dec 17 2008,"",1000001,5000000
Norwegian Krone,"",Purchased,Oct 24 2008,Interest Reinv.,5000001,25000000
Norwegian Krone,"",Purchased,Oct 31 2008,Interest Reinv.,5000001,25000000
Norwegian Krone,"",Purchased,Nov 30 2008,Interest Reinv.,5000001,25000000
Norwegian Krone,"",Purchased,Dec 17 2008,Interest Reinv.,5000001,25000000
Norwegian Krone,"",Purchased,Dec 31 2008,Interest Reinv.,5000001,25000000
Norwegian Krone,"",Sold,Oct 30 2008,"",1000001,5000000
Norwegian Krone,"",Sold,Dec 22 2008,"",1000001,5000000
Oppenheimer International Bond Fund,"",Purchased,Apr 23 2008,"",500001,1000000
Pancil LLC,"",Sold,Dec 30 2008,"",1000001,5000000
PIMCO Commodity RealReturn Strategy Fund,"",Purchased,Mar 25 2008,"",1000001,5000000
PIMCO Commodity RealReturn Strategy Fund,"",Purchased,Apr 23 2008,"",1000001,5000000
Pioneer Bond Fund,"",Purchased,"various, Assets Exch from",Div Reinv.,15001,50000
Powershares QQQ Trust,"",Sold,Nov 24 2008,"",1000001,5000000
Powershares QQQ Trust,"",Sold,Dec 16 2008,"",1000001,5000000
Powershares QQQ Trust,"",Purchased,Nov 11 2008,"",1000001,5000000
Powershares QQQ Trust,"",Purchased,Nov 21 2008,"",1000001,5000000
PRN Medical Services,"",Purchased,Sep  8 2008,"",1000001,5000000
"Restaurant, New York, New York","",Sold,Oct 23 2008,"",250001,500000
"Retail/Boulder, CO","",Sold,Nov 12 2008,"",15001,50000
S&P Depository Receipts,"",Sold,Mar 27 2008,"",500001,1000000
S&P Depository Receipts,"",Sold,Mar 28 2008,"",500001,1000000
Short Term Tax Free Cash Reserve Port Re,"",Sold,Oct 17 2008,"",15001,50000
Short Term Tax Free Cash Reserve Port Re,"",Sold,Oct 22 2008,"",15001,50000
Short Term Tax Free Cash Reserve Port Re,"",Purchased,Mar 20 2008,"",15001,50000
Sonora Holdings,"",Sold,Jul  8 2008,"",250001,500000
Sonora Holdings,"",Purchased,Jan  8 2008,"",250001,500000
Sonora Holdings,"",Purchased,Apr  1 2008,"",250001,500000
Standard & Poors Depository Receipts,"",Sold,Nov 24 2008,"",1000001,5000000
Standard & Poors Depository Receipts,"",Sold,Dec 16 2008,"",1000001,5000000
Standard & Poors Depository Receipts,"",Purchased,Nov 11 2008,"",1000001,5000000
Standard & Poors Depository Receipts,"",Purchased,Nov 21 2008,"",1000001,5000000
Swiss Franc,"",Purchased,Oct 24 2008,Interest Reinvested,1000001,5000000
Swiss Franc,"",Purchased,Oct 31 2008,Interest Reinvested,1000001,5000000
Swiss Franc,"",Purchased,Nov 30 2008,Interest Reinvested,1000001,5000000
Swiss Franc,"",Purchased,Dec 31 2008,Interest Reinvested,1000001,5000000
Swiss Franc,"",Sold,Dec 22 2008,"",1000001,5000000
Tax Free Investment Co Reserve,"",Sold,Feb 11 2008,"",5000001,25000000
Tax Free Investment Co Reserve,"",Sold,Feb 19 2008,"",5000001,25000000
Tax Free Investment Co Reserve,"",Sold,Feb 26 2008,"",5000001,25000000
Tax Free Investment Co Reserve,"",Sold,Mar 13 2008,"",5000001,25000000
Tax Free Investment Co Reserve,"",Sold,Mar 27 2008,"",5000001,25000000
Tax Free Investment Co Reserve,"",Purchased,Feb  4 2008,"",5000001,25000000
Tax Free Investment Co Reserve,"",Purchased,Mar  4 2008,"",5000001,25000000
Tax Free Investment Co Reserve,"",Purchased,Mar 20 2008,"",5000001,25000000
Techstars 2009 LLC Invest in & incubat,"",Purchased,Dec 18 2008,"",15001,50000
Techstars LLC,"",Purchased,May 27 2008,"",15001,50000
Templeton Global Bond Fund,"",Purchased,Apr 23 2008,"",500001,1000000
Tempur-Pedic International,"",Exchanged,Jan 21 2008,"",15001,50000
Tempur-Pedic International,"",Sold,Jan 22 2008,"",100001,250000
UK Pound Sterling,"",Purchased,Oct 24 2008,Interest Reinv.,1000001,5000000
UK Pound Sterling,"",Purchased,Oct 31 2008,Interest Reinv.,1000001,5000000
UK Pound Sterling,"",Purchased,Nov 30 2008,Interest Reinv.,1000001,5000000
UK Pound Sterling,"",Purchased,Dec 31 2008,Interest Reinv.,1000001,5000000
UK Pound Sterling,"",Sold,Oct 28 2008,"",1000001,5000000
UK Pound Sterling,"",Sold,Oct 30 2008,"",1000001,5000000
UK Pound Sterling,"",Sold,Dec 22 2008,"",1000001,5000000
UKTB 0% 1/05/2009,"",Purchased,Oct 28 2008,"",500001,1000000
University Co Bond,"",Purchased,Jun  9 2008,"",50001,100000
Vanguard Total Stock Market Index,"",Sold,Nov 24 2008,"",1000001,5000000
Vanguard Total Stock Market Index,"",Sold,Dec 16 2008,"",1000001,5000000
Vanguard Total Stock Market Index,"",Purchased,Nov 11 2008,"",1000001,5000000
Vanguard Total Stock Market Index,"",Purchased,Nov 21 2008,"",1000001,5000000
Wells Fargo Bank Collateral Account Adam,"",Sold,Aug 15 2008,"",1001,15000
Wells Fargo Bank Collateral Account Eagl,"",Sold,Aug 15 2008,"",100001,250000
William Blair New World Ventures,"",Purchased,Jan 18 2008,"",15001,50000
WisdomTree Investments,"",Sold,Sep 17 2008,"",1001,15000
Zemble Inc,"",Purchased,Oct  7 2008,"",15001,50000
