orgname,ultorg,action,date1,transnotes,minvalue,maxvalue
BlackRock Latin America Fund,"",Sold,Jan 28 2010,"",1001,15000
BlackRock Latin America Fund,"",Sold,Aug 19 2010,"",1001,15000
Columbia Portfolio Builder Moderate Aggr,"",Purchased,Apr 12 2010,"",50001,100000
DFA Global Fixed Income 1 yr,"",Purchased,Nov  9 2010,"",1001,15000
DFA Global Fixed Income 1 yr,"",Purchased,Jan 28 2010,"",1001,15000
Fidelity Canada Fund,"",Sold,Nov 24 2010,"",1001,15000
Fidelity Canada Fund,"",Sold,Aug 19 2010,"",1001,15000
Fidelity Canada Fund,"",Purchased,Jan 28 2010,"",1001,15000
iShares MSCI Australia Index (EWA),"",Purchased,Aug 27 2010,"",1001,15000
iShares MSCI Japan Index Fund (EWJ),"",Purchased,Jan 28 2010,"",1001,15000
iShares MSCI Japan Index Fund (EWJ),"",Sold,Aug 27 2010,"",1001,15000
iShares S&P Small Cap Index,"",Sold,Nov  1 2010,"",1001,15000
JPMorgan Small Cap Value Fund,"",Sold,Aug 19 2010,"",1001,15000
JPMorgan US Real Estate Fund,"",Purchased,Nov 24 2010,"",1001,15000
JPMorgan US Real Estate Fund,"",Sold,Aug 19 2010,"",1001,15000
Mathews Pacific Tiger Fund,"",Sold,Jan 28 2010,"",1001,15000
Matthews Pacific Tiger Fund,"",Sold,Aug 19 2010,"",1001,15000
Matthews Pacific Tiger Fund,"",Sold,Nov 24 2010,"",1001,15000
Morgan Stanley International Real Estate,"",Purchased,Aug 19 2010,"",1001,15000
Morgan Stanley US Real Estate,"",Purchased,Nov 24 2010,"",1001,15000
Morgan Stanley US Real Estate,"",Sold,Aug 19 2010,"",1001,15000
Oakmark International Small Cap Fund,"",Sold,Nov 24 2010,"",1001,15000
Oakmark International Small Cap Fund,"",Sold,Jan 28 2010,"",1001,15000
Riversource Dividend Opportunity Fund,"",Sold,Apr 12 2010,"",15001,50000
RiverSource Mid Cap Value,"",Sold,Apr 12 2010,"",1001,15000
Royce Premier Fund,"",Sold,Jan 28 2010,"",1001,15000
RVS Portfolio Builder Moderate Aggr,"",Purchased,Apr 12 2010,"",50001,100000
Seligman Global Technology Fund,"",Sold,Apr 12 2010,"",15001,50000
SPDR S&P 500 ETF,"",Sold,Aug 29 2010,"",1001,15000
SPDR S&P 500 ETF,"",Sold,Jan 28 2010,"",1001,15000
SPDR S&P 500 ETF,"",Purchased,Various,"",1001,15000
SPDR S&P 500 ETF,"",Sold,Nov 24 2010,"",1001,15000
T Rowe Price International Fund,"",Sold,Nov 24 2010,"",1001,15000
T Rowe Price Japan Fund,"",Sold,Jan 28 2010,"",15001,50000
T Rowe Price New Asia Fund,"",Sold,Aug 19 2010,"",1001,15000
T Rowe Price New Asia Fund,"",Sold,Jan 28 2010,"",1001,15000
T Rowe Price New Era Fund,"",Sold,Nov 24 2010,"",1001,15000
T Rowe Price New Era Fund,"",Purchased,Aug 19 2010,"",1001,15000
T Rowe Price New Era Fund,"",Purchased,Jan 28 2010,"",1001,15000
Threadneedle Global Equity Fund,"",Sold,Apr 12 2010,"",15001,50000
US Global Global Resources Fund,"",Sold,Nov 24 2010,"",1001,15000
Vanguard Energy Fund,"",Sold,Jan 28 2010,"",1001,15000
Vanguard European Stock Index,"",Sold,Nov 29 2010,"",1001,15000
Vanguard European Stock Index,"",Purchased,Various,"",1001,15000
Vanguard European Stock Index,"",Purchased,Aug 19 2010,"",1001,15000
Vanguard European Stock Index,"",Purchased,Jan 28 2010,"",1001,15000
Vanguard Short Term Tax-Exempt Fund,"",Purchased,Aug 19 2010,"",1001,15000
Vanguard Short Term Tax-Exempt Fund,"",Purchased,Jan 28 2010,"",1001,15000
