orgname,ultorg,action,date1,transnotes,minvalue,maxvalue
ADT Corp,"",Sold,Apr  3 2013,"",1001,15000
Agrium Inc,"",Sold,Mar 22 2013,"",1001,15000
Agrium Inc,"",Purchased,Jan 17 2013,"",1001,15000
Amazon.com,"",Purchased,May  3 2013,"",1001,15000
Amazon.com,"",Purchased,Mar 19 2013,"",1001,15000
American International Group,"",Sold,Dec 16 2013,"",15001,50000
American International Group,"",Purchased,Feb  7 2013,"",1001,15000
American Tower Corp,"",Sold,Jan 30 2013,"",1001,15000
Boeing Co,"",Sold,Nov 21 2013,"",1001,15000
Borg Warner Inc,"",Sold,Apr 24 2013,"",1001,15000
Calpine Corp,"",Purchased,Feb 12 2013,"",1001,15000
Capital One Financial,"",Sold,Mar  1 2013,"",15001,50000
CR Bard Inc,"",Purchased,Sep  4 2013,"",1001,15000
Delphi Automotive,"",Purchased,Apr 24 2013,"",15001,50000
eBay Inc,"",Sold,Nov 21 2013,"",1001,15000
eBay Inc,"",Sold,Nov 25 2013,"",1001,15000
eBay Inc,"",Purchased,Apr 25 2013,"",1001,15000
Equinix Inc,"",Sold,Apr  5 2013,This was a bond redemption,1001,15000
Express Scripts,"",Purchased,May 14 2013,"",1001,15000
Express Scripts,"",Purchased,Mar 18 2013,"",1001,15000
General Electric,"",Sold,Apr 23 2013,"",15001,50000
Google Inc,"",Sold,Jan 17 2013,"",1001,15000
IBM Corp,"",Sold,Apr 23 2013,"",1001,15000
IHS Inc,"",Purchased,Oct  9 2013,"",1001,15000
IHS Inc,"",Purchased,May  7 2013,"",1001,15000
Intuit Inc,"",Purchased,Sep 26 2013,"",15001,50000
Johnson & Johnson,"",Purchased,Apr 11 2013,"",15001,50000
JPMorgan Chase & Co,"",Purchased,Dec 18 2013,"",1001,15000
JPMorgan Chase & Co,"",Purchased,Oct  3 2013,"",15001,50000
Kansas City Southern,"",Sold,May 20 2013,"",1001,15000
Kansas City Southern,"",Purchased,Jun  6 2012,"",1001,15000
Motorola Solutions,"",Sold,Jul 26 2013,"",1001,15000
Pall Corp,"",Sold,May  9 2013,"",15001,50000
Praxair Inc,"",Sold,Feb  4 2013,"",15001,50000
Sallie Mae Bond,"",Sold,Oct  1 2013,This was a bond redemption,1001,15000
SPDR Gold Trust ETF,"",Sold,Feb 14 2013,"",1001,15000
Suncor Energy,"",Sold,Feb 21 2013,"",15001,50000
Suncor Energy,"",Sold,Feb 14 2013,"",1001,15000
United Parcel Service,"",Sold,Oct  3 2013,"",15001,50000
Visa Inc,"",Sold,Aug  6 2013,"",15001,50000
