orgname,ultorg,action,date1,transnotes,minvalue,maxvalue
Eaton Vance LARGE CAP Core Research Fund,"",Purchased,Dec 29 2011,"",1001,15000
Nuveen Tradewinds Intl Value Fund,"",Purchased,Dec 30 2011,"",15001,50000
