orgname,ultorg,action,date1,transnotes,minvalue,maxvalue
American Century Tax Free Bond Fund,"",Purchased,Monthly,"",1001,15000
AT&T Inc,"",Purchased,Quarterly,"",1001,15000
Baron Asset Fund,"",Purchased,Nov 29 2011,"",1001,15000
Duke Energy,"",Purchased,Quarterly,"",1001,15000
Exxon Mobil,"",Purchased,Quarterly,"",1001,15000
F Fund (Federal Thrift Savings Plan),"",Purchased,Quarterly,"",1001,15000
Federal Thrift Savings Plan/C Fund,"",Purchased,Monthly,"",1001,15000
Fidelity Contrafund,"",Purchased,Jan 10 2011,"",1001,15000
Fidelity Contrafund,"",Purchased,Jan 11 2011,"",1001,15000
Fidelity Diversified International Fund,"",Purchased,Jan 10 2011,"",1001,15000
Fidelity Diversified International Fund,"",Purchased,Jan 11 2011,"",1001,15000
Fidelity Money Market,"",Sold,Oct 24 2011,"",50001,100000
Fidelity Municipal Income Fund,"",Purchased,Monthly,"",15001,50000
Fidelity Spartan 500 Index,"",Purchased,Quarterly,"",1001,15000
Fidelity Spartan Index,"",Purchased,Jan 10 2011,"",1001,15000
Fidelity Spartan Index,"",Purchased,Jan 11 2011,"",1001,15000
Fidelity Total Bond Fund,"",Purchased,Monthly,"",1001,15000
Fidelity Total Bond Fund,"",Purchased,Jan 10 2011,"",1001,15000
Fidelity Total Bond Fund,"",Purchased,Jan 11 2011,"",1001,15000
Fidelity VIP Individual Freedom 2020 Fnd,"",Purchased,Monthly,"",1001,15000
G Fund (Federal Thrift Savings Plan),"",Purchased,Monthly,"",1001,15000
I Fund (Federal Thrift Savings Plan),"",Purchased,Monthly,"",1001,15000
Johnson Controls,"",Purchased,Quarterly,"",1001,15000
Midfirst Money Market,"",Purchased,Nov  7 2011,"",50001,100000
Pfizer Inc,"",Sold,Aug 18 2011,"",1001,15000
Regions Financial,"",Sold,Aug 18 2011,"",1001,15000
S Fund (Federal Thrift Savings Plan),"",Sold,Nov 14 2011,"",15001,50000
T Rowe Price Equity Income Fund,"",Purchased,Quarterly,"",1001,15000
Vanguard High Yield Tax Exempt Fund,"",Purchased,Monthly,"",15001,50000
Vanguard Inflation Protected Securities,"",Purchased,Sep  8 2011,"",1001,15000
Vanguard Total International Stock Index,"",Purchased,Quarterly,"",1001,15000
Vanguard Total Stock Market Index,"",Purchased,Quarterly,"",1001,15000
