orgname,ultorg,action,date1,transnotes,minvalue,maxvalue
"32 Martin Lane/Dallas County, TX","",Purchased,Jun 11 2010,"",100001,250000
"32 Martin Lane/Dallas County, TX","",Purchased,Jun 11 2010,"",100001,250000
Sale of Tractor & Brush Hog Equipment,"",Sold,May 10 2010,"",15001,50000
Sale of Tractor & Brush Hog Equipment,"",Sold,May 10 2010,"",15001,50000
"Sod Farm/270 acres/Polk County, MO","",Sold,Nov 30 2010,"",500001,1000000
"Sod Farm/270 acres/Polk County, MO","",Sold,Nov 30 2010,"",500001,1000000
Workcare Resources,"",Sold,Jul  1 2010,"",50001,100000
Workcare Resources,"",Sold,Jul  1 2010,"",50001,100000
