orgname,ultorg,action,date1,transnotes,minvalue,maxvalue
American Capital Agency Corp,"",Purchased,Apr 30 2013,"",15001,50000
American Capital Agency Corp,"",Sold,Dec 20 2013,"",15001,50000
Blackrock Muni Enhanced Fund,"",Sold,Dec 20 2013,"",1001,15000
Blackrock Munivest Fund,"",Sold,Dec 20 2013,"",15001,50000
Blackrock Nat Res Invs Fund,"",Sold,Sep 23 2013,"",15001,50000
Citigroup Cap XV,"",Sold,Apr 16 2013,"",50001,100000
Columbia Large Cap Growth Fund,"",Purchased,Dec 23 2013,"",1001,15000
First Eagle US VAL Fund,"",Sold,Apr 30 2013,"",15001,50000
Franklin Income Fund,"",Purchased,Dec 23 2013,"",15001,50000
Goldman Sachs Emerging Markets Domestic Debt,"",Sold,Apr 30 2013,"",15001,50000
Invesco Floating Rate,"",Purchased,Dec 23 2013,"",15001,50000
MFS International Value Fund,"",Purchased,Sep 24 2013,"",15001,50000
Oppenheimer Global Value Fund,"",Purchased,Dec 23 2013,"",15001,50000
Sector Financial Select Sector SPDR ETF,"",Purchased,May  1 2013,"",15001,50000
Technology Sector SPDR Trust,"",Purchased,May  1 2013,"",15001,50000
Western Asset Managed Municipals Fund,"",Sold,Dec 20 2013,"",15001,50000
