orgname,ultorg,action,date1,transnotes,minvalue,maxvalue
American Beacon Small Cap Value Fund,"",Sold,Mar 19 2010,"",1001,15000
American Funds Growth Fund of America,"",Purchased,Apr 30 2010,"",1001,15000
Arbitrage Funds,"",Purchased,May  3 2010,"",1001,15000
Baron Growth Fund,"",Sold,Mar 19 2010,"",1001,15000
Gateway Fund,"",Purchased,Apr 30 2010,"",1001,15000
Harbor Capital Appreciation Fund,"",Sold,Mar 19 2010,"",1001,15000
JPMorgan Chase Structured Note,"",Sold,Jun 30 2010,"",1001,15000
JPMorgan Chase Structured Note,"",Sold,Jun 30 2010,"",1001,15000
Loomis Sayles Bond Fund,"",Purchased,Apr 30 2010,"",1001,15000
Optimum Fixed Income Fund,"",Sold,Dec 23 2010,"",1001,15000
Optimum International Fund,"",Sold,Dec 23 2010,"",1001,15000
Optimum Large Cap Growth Fund,"",Sold,Dec 23 2010,"",1001,15000
Optimum Large Cap Growth Fund,"",Purchased,Apr 16 2010,"",1001,15000
Optimum Large Cap Value Fund,"",Purchased,Apr 16 2010,"",1001,15000
Optimum Large Cap Value Fund,"",Sold,Dec 23 2010,"",1001,15000
Optimum Small Cap Growth Fund,"",Sold,Dec 23 2010,"",1001,15000
Optimum Small Cap Value Fund,"",Sold,Dec 23 2010,"",1001,15000
Pimco Emerging Local Bond Fund,"",Purchased,Apr 30 2010,"",1001,15000
Pimco Low Duration Fund,"",Purchased,Apr 30 2010,"",1001,15000
Pimco Low Duration Fund,"",Sold,Mar 19 2010,"",1001,15000
Thornburg International Value Fund,"",Purchased,Apr 30 2010,"",1001,15000
Vanguard Growth ETF,"",Sold,Apr 30 2010,"",1001,15000
Vanguard Health Care Fund,"",Purchased,Apr 30 2010,"",1001,15000
