orgname,ultorg,action,date1,transnotes,minvalue,maxvalue
AT&T Inc,"",Purchased,Jul  6 2010,"",1001,15000
Idacorp Inc,"",Sold,Sep  1 2010,"",1001,15000
Union Pacific Corp,"",Sold,Oct  6 2010,"",15001,50000
Union Pacific Corp,"",Sold,Oct 13 2010,"",15001,50000
Verizon Communications,"",Purchased,Jul  6 2010,"",1001,15000
Vodafone Group,"",Purchased,Jul  6 2010,"",1001,15000
