orgname,ultorg,action,date1,transnotes,minvalue,maxvalue
BCE Inc,"",Sold,Jan  9 2014,"",1001,15000
Blackrock Global Allocation Fd Institutional,"",Purchased,Feb 21 2014,"",1001,15000
Chevron Corp,"",Sold,Sep 19 2014,"",1001,15000
Chevron Corp,"",Purchased,Feb 21 2014,"",1001,15000
Conagra Foods,"",Sold,Jun  4 2014,"",1001,15000
Covidien PLC,"",Sold,Aug  7 2014,"",1001,15000
Covidien PLC,"",Purchased,Mar 20 2014,"",1001,15000
Eli Lilly & Co,"",Purchased,Aug  7 2014,"",1001,15000
Franklin Floating Rate Daily Access Fund,"",Sold,Feb 21 2014,"",1001,15000
Goldman Sachs Rising Dividend Growth Fd,"",Sold,Feb 21 2014,"",15001,50000
Honeywell International,"",Purchased,Oct 15 2014,"",1001,15000
Intel Corp,"",Purchased,Jan  9 2014,"",1001,15000
Ishares S&P 500 Growth Index,"",Sold,Feb 21 2014,"",15001,50000
Kimberly-Clark Corp,"",Purchased,Jun  4 2014,"",1001,15000
Mainstay Large Cap Growth Fund,"",Purchased,Feb 21 2014,"",15001,50000
Medtronic PLC,"",Exchanged,Jan 27 2014,"",1001,15000
Pentair Plc,"",Purchased,Jun  4 2014,"",1001,15000
Pentair Plc,"",Sold,Oct 15 2014,"",1001,15000
Pepsico Inc,"",Purchased,Jan  9 2014,"",1001,15000
Philip Morris International,"",Sold,Jan  9 2014,"",1001,15000
Phillips 66,"",Purchased,Sep 19 2014,"",1001,15000
Toronto Dominion Bank,"",Purchased,Feb 21 2014,"",1001,15000
Utilities Select Sector SPDR ETF,"",Purchased,Feb 21 2014,"",1001,15000
Utilities Select Sector SPDR ETF,"",Sold,Jun  4 2014,"",1001,15000
Vodafone Group,"",Sold,Mar 20 2014,"",1001,15000
Wells Fargo,"",Purchased,Feb 21 2014,"",1001,15000
