orgname,ultorg,action,date1,transnotes,minvalue,maxvalue
American Capital World Growth & Income Fund,"",Purchased,Dec 22 2016,(UBS IRA) (Dividend Reinvestment),1001,15000
American Funds Growth Fund of America,"",Purchased,Dec 22 2016,(UBS IRA) (Dividend Reinvestment),1001,15000
American Funds Growth Fund of America,"",Purchased,Dec 22 2016,(UBS PS) (Dividend Reinvestment),1001,15000
Electron Global Fund L.P.,"",Purchased,Mar  1 2016,--,500001,1000000
Electron Global Fund LP,"",Sold,Dec 31 2016,Sale (Full),1000001,5000000
Principal Equity Income P,"",Purchased,Dec 21 2016,(UBS IRA) (Dividend Reinvestment),1001,15000
T Rowe Price Blue Chip Growth Fund,"",Purchased,Dec 14 2016,Dividend Reinvestment,1001,15000
T Rowe Price International Stock Fund,"",Purchased,Dec 16 2016,Dividend Reinvestment,1001,15000
T Rowe Price Mid-Cap Growth,"",Purchased,Dec 14 2016,Dividend Reinvestment,1001,15000
T Rowe Price Small-Cap Stock Fund,"",Purchased,Dec 14 2016,Dividend Reinvestment,1001,15000
T. Rowe Price Science & Tech,"",Purchased,Dec 15 2016,Dividend Reinvestment,1001,15000
Vanguard 500 Index,"",Purchased,Mar 18 2016,Dividend Reinvestment,1001,15000
Vanguard 500 Index,"",Purchased,Jun 20 2016,Dividend Reinvestment,1001,15000
Vanguard 500 Index,"",Purchased,Sep 12 2016,Dividend Reinvestment,1001,15000
Vanguard 500 Index,"",Purchased,Dec 21 2016,Dividend Reinvestment,15001,50000
Vanguard 500 Index,"",Sold,Nov  9 2016,Sale (Partial); To Vanguard Tax-Exempt Money Market,15001,50000
Vanguard 500 Index,"",Sold,Mar 18 2016,Sale (Partial); Dividend Transfer to Vanguard Tax-Exempt MM,1001,15000
Vanguard 500 Index,"",Sold,Jun 20 2016,Sale (Partial); Dividend Transfer to Vanguard Tax-Exempt MM,1001,15000
Vanguard 500 Index,"",Sold,Sep 12 2016,Sale (Partial); Dividend Transfer to Vanguard Tax-Exempt MM,1001,15000
Vanguard 500 Index,"",Sold,Dec 21 2016,Sale (Partial); Dividend Transfer to Vanguard Tax-Exempt MM,1001,15000
Vanguard 500 Index,"",Purchased,Jan 12 2016,Transfer from Vanguard Tax Exempt MM,15001,50000
Vanguard 500 Index,"",Purchased,Nov  9 2016,Transfer from Vanguard Tax Exempt MM,1001,15000
Vanguard 500 Index,"",Purchased,Dec 21 2016,(IRA) (Dividend Reinvestment),1001,15000
Vanguard 500 Index,"",Purchased,Mar 18 2016,(Pension Trust) (Dividend Reinvestment),1001,15000
Vanguard 500 Index,"",Purchased,Jun 20 2016,(Pension Trust) (Dividend Reinvestment),1001,15000
Vanguard 500 Index,"",Purchased,Sep 12 2016,(Pension Trust) (Dividend Reinvestment),1001,15000
Vanguard 500 Index,"",Purchased,Dec 21 2016,(Pension Trust) (Dividend Reinvestment),1001,15000
Vanguard 500 Index,"",Purchased,Apr 18 2016,(Pension Trust),250001,500000
Vanguard Growth & Income Adm,"",Purchased,Jun 13 2016,Dividend Reinvestment,1001,15000
Vanguard Growth & Income Adm,"",Purchased,Dec 23 2016,Dividend Reinvestment,1001,15000
Vanguard Municipal Money Market,"",Purchased,Mar 18 2016,Transfer from Vanguard 500 Index,1001,15000
Vanguard Municipal Money Market,"",Purchased,Sep 12 2016,Transfer from Vanguard 500 Index,1001,15000
Vanguard Municipal Money Market,"",Purchased,Jun 20 2016,Transfer from Vanguard 500 Index,1001,15000
Vanguard Municipal Money Market,"",Sold,Nov  9 2016,Sale (Partial); Transfer to Vanguard 500 Index,1001,15000
Vanguard Municipal Money Market,"",Purchased,Dec 21 2016,Transfer from Vanguard 500 Index,1001,15000
Vanguard Municipal Money Market,"",Sold,Jan 12 2016,Sale (Partial); Transfer to Vanguard 500 Index,15001,50000
Vanguard Municipal Money Market,"",Purchased,Nov  9 2016,From Vanguard 500 Index Adm,15001,50000
Vanguard Municipal Money Market,"",Purchased,May 31 2016,Dividend Reinvestment,1001,15000
Vanguard Municipal Money Market,"",Purchased,Jun 30 2016,Dividend Reinvestment,1001,15000
Vanguard Municipal Money Market,"",Purchased,Jul 29 2016,Dividend Reinvestment,1001,15000
Vanguard Municipal Money Market,"",Purchased,Aug 31 2016,Dividend Reinvestment,1001,15000
Vanguard Municipal Money Market,"",Purchased,Sep 30 2016,Dividend Reinvestment,1001,15000
Vanguard Municipal Money Market,"",Purchased,Oct 31 2016,Dividend Reinvestment,1001,15000
Vanguard Municipal Money Market,"",Purchased,Nov 30 2016,Dividend Reinvestment,1001,15000
Victory RS Partners Y,"",Purchased,Dec 29 2016,(UBS IRA) (Dividend Reinvestment),1001,15000
