orgname,ultorg,action,date1,transnotes,minvalue,maxvalue
Cion INVT Corp,"",Purchased,Monthly,"",1001,15000
Cion INVT Corp,"",Purchased,Monthly,"",1001,15000
Lord Abbett Short Duration,"",Sold,10/12/2017,"",1001,15000
Lord Abbett Short Duration,"",Sold,10/12/2017,"",1001,15000
Lord Abbett Short Duration,"",Exchanged,Oct 12 2017 12:00AM,"","",""
