orgname,ultorg,action,date1,transnotes,minvalue,maxvalue
Dole Food Co,"",Exchanged,Nov  4 2013,"",100001,250000
Vanguard 500 Index Fund Adm (Traditional IRA),"",Sold,Mar 26 2013,"",1001,15000
Vanguard 500 Index Signal,"",Purchased,Apr  4 2013,"",100001,250000
Vanguard 500 Index Signal,"",Purchased,Jul  8 2013,"",100001,250000
Vanguard 500 Index Signal,"",Purchased,Aug  1 2013,"",1001,15000
Vanguard 500 Index Signal,"",Sold,Apr  2 2013,"",100001,250000
Vanguard Tax Exempt Money Market Fund,"",Sold,Mar 26 2013,"",1001,15000
Vanguard Tax Exempt Money Market Fund,"",Sold,Apr  2 2013,"",100001,250000
