orgname,ultorg,action,date1,transnotes,minvalue,maxvalue
AQR Diversified Arbitrage Fund,"",Purchased,12/17/2010,"",131,131
AQR Diversified Arbitrage Fund,"",Purchased,12/17/2010,"",14,14
AQR Diversified Arbitrage Fund,"",Purchased,6/3/2010,"",10726,10726
Arbitrage Funds,"",Purchased,12/16/2010,"",232,232
Arbitrage Funds,"",Purchased,6/3/2010,"",10726,10726
Clipper (crmx),"",Purchased,12/1/2010,"",242,242
Clipper (crmx),"",Sold,3/4/2010,"",1506,1506
FMI Large Cap Fund,"",Purchased,12/30/2010,"",54,54
FMI Large Cap Fund,"",Purchased,11/3/2010,"",1047,1047
FMI Large Cap Fund,"",Purchased,10/29/2010,"",194,194
FMI Large Cap Fund,"",Purchased,3/4/2010,"",7948,7948
Harbor Capital Appreciation Fund,"",Sold,11/3/2010,"",986,986
Harbor Capital Appreciation Fund,"",Purchased,8/5/2010,"",905,905
Harbor Capital Appreciation Fund,"",Purchased,3/4/2010,"",3657,3657
Harbor International Fund,"",Sold,12/17/2010,"",986,986
Harbor International Fund,"",Purchased,12/17/2010,"",206,206
Harbor International Fund,"",Purchased,11/3/2010,"",905,905
Harbor International Fund,"",Purchased,3/4/2010,"",3657,3657
Loomis Sayles Bond Retail,"",Purchased,12/9/2010,"",295,295
Loomis Sayles Bond Retail,"",Purchased,11/23/2010,"",199,199
Loomis Sayles Bond Retail,"",Sold,11/3/2010,"",1173,1173
Loomis Sayles Bond Retail,"",Purchased,10/26/2010,"",199,199
Loomis Sayles Bond Retail,"",Purchased,9/21/2010,"",204,204
Loomis Sayles Bond Retail,"",Purchased,8/24/2010,"",201,201
Loomis Sayles Bond Retail,"",Purchased,7/27/2010,"",224,224
Loomis Sayles Bond Retail,"",Purchased,6/22/2010,"",197,197
Loomis Sayles Bond Retail,"",Purchased,5/26/2010,"",199,199
Loomis Sayles Bond Retail,"",Purchased,4/27/2010,"",219,219
Loomis Sayles Bond Retail,"",Purchased,3/23/2010,"",199,199
Loomis Sayles Bond Retail,"",Sold,3/4/2010,"",8323,8323
Loomis Sayles Bond Retail,"",Purchased,2/23/2010,"",234,234
Loomis Sayles Bond Retail,"",Sold,2/10/2010,"",1234,1234
Loomis Sayles Bond Retail,"",Purchased,1/26/2010,"",259,259
Oakmark Fund,"",Purchased,12/16/2010,"",175,175
Oakmark Fund,"",Purchased,3/4/2010,"",3416,3416
Oakmark Global Select Fund,"",Purchased,12/16/2010,"",65,65
Oakmark Global Select Fund,"",Sold,3/4/2010,"",890,890
Oakmark Global Select Fund,"",Purchased,2/10/2010,"",1057,1057
Pimco Emerging Local Bond Fund,"",Purchased,12/31/2010,"",941,941
Pimco Emerging Local Bond Fund,"",Purchased,12/31/2010,"",185,185
Pimco Emerging Local Bond Fund,"",Purchased,11/30/2010,"",180,180
Pimco Emerging Local Bond Fund,"",Sold,11/3/2010,"",948,948
Pimco Emerging Local Bond Fund,"",Purchased,10/29/2010,"",204,204
Pimco Emerging Local Bond Fund,"",Purchased,9/30/2010,"",173,173
Pimco Emerging Local Bond Fund,"",Purchased,8/31/2010,"",178,178
Pimco Emerging Local Bond Fund,"",Sold,8/5/2010,"",1910,1910
Pimco Emerging Local Bond Fund,"",Purchased,7/30/2010,"",190,190
Pimco Emerging Local Bond Fund,"",Purchased,6/30/2010,"",156,156
Pimco Emerging Local Bond Fund,"",Purchased,5/28/2010,"",185,185
Pimco Emerging Local Bond Fund,"",Purchased,4/30/2010,"",238,238
Pimco Emerging Local Bond Fund,"",Purchased,3/31/2010,"",184,184
Pimco Emerging Local Bond Fund,"",Purchased,3/4/2010,"",12933,12933
Pimco Emerging Local Bond Fund,"",Purchased,2/26/2010,"",120,120
Pimco Emerging Local Bond Fund,"",Purchased,1/29/2010,"",112,112
PIMCO RealReturn Fund,"",Purchased,12/31/2010,"",214,214
PIMCO RealReturn Fund,"",Purchased,12/8/2010,"",1079,1079
PIMCO RealReturn Fund,"",Purchased,12/6/2010,"",2360,2360
PIMCO RealReturn Fund,"",Purchased,11/30/2010,"",193,193
PIMCO RealReturn Fund,"",Purchased,11/3/2010,"",1098,1098
PIMCO RealReturn Fund,"",Purchased,10/29/2010,"",184,184
PIMCO RealReturn Fund,"",Purchased,9/30/2010,"",166,166
PIMCO RealReturn Fund,"",Purchased,8/31/2010,"",161,161
PIMCO RealReturn Fund,"",Sold,8/5/2010,"",1432,1432
PIMCO RealReturn Fund,"",Purchased,7/30/2010,"",177,177
PIMCO RealReturn Fund,"",Purchased,6/30/2010,"",165,165
PIMCO RealReturn Fund,"",Purchased,5/28/2010,"",146,146
PIMCO RealReturn Fund,"",Purchased,4/30/2010,"",160,160
PIMCO RealReturn Fund,"",Purchased,3/31/2010,"",155,155
PIMCO RealReturn Fund,"",Sold,3/4/2010,"",2520,2520
PIMCO RealReturn Fund,"",Purchased,2/26/2010,"",152,152
PIMCO RealReturn Fund,"",Purchased,2/10/2010,"",1640,1640
PIMCO RealReturn Fund,"",Purchased,1/29/2010,"",152,152
PIMCO Unconstrained Bond Fund,"",Purchased,12/31/2010,"",118,118
PIMCO Unconstrained Bond Fund,"",Purchased,12/8/2010,"",136,136
PIMCO Unconstrained Bond Fund,"",Purchased,12/8/2010,"",20,20
PIMCO Unconstrained Bond Fund,"",Purchased,11/30/2010,"",131,131
PIMCO Unconstrained Bond Fund,"",Purchased,11/3/2010,"",1921,1921
PIMCO Unconstrained Bond Fund,"",Purchased,10/29/2010,"",124,124
PIMCO Unconstrained Bond Fund,"",Purchased,9/30/2010,"",120,120
PIMCO Unconstrained Bond Fund,"",Purchased,8/31/2010,"",120,120
PIMCO Unconstrained Bond Fund,"",Purchased,7/30/2010,"",101,101
PIMCO Unconstrained Bond Fund,"",Purchased,6/30/2010,"",104,104
PIMCO Unconstrained Bond Fund,"",Purchased,5/28/2010,"",127,127
PIMCO Unconstrained Bond Fund,"",Purchased,4/30/2010,"",149,149
PIMCO Unconstrained Bond Fund,"",Purchased,3/31/2010,"",135,135
PIMCO Unconstrained Bond Fund,"",Purchased,3/4/2010,"",1855,1855
PIMCO Unconstrained Bond Fund,"",Purchased,2/26/2010,"",108,108
PIMCO Unconstrained Bond Fund,"",Purchased,2/10/2010,"",22372,22372
PIMCO Unconstrained Bond Fund,"",Purchased,1/29/2010,"",95,95
Prime Fund Capital Reserves Money Market,"",Purchased,12/31/2010,"",0,0
Prime Fund Capital Reserves Money Market,"",Purchased,12/31/2010,"",0,0
Prime Fund Capital Reserves Money Market,"",Purchased,12/15/2010,"",4000,4000
Prime Fund Capital Reserves Money Market,"",Purchased,11/30/2010,"",0,0
Prime Fund Capital Reserves Money Market,"",Purchased,11/30/2010,"",0,0
Prime Fund Capital Reserves Money Market,"",Purchased,11/15/2010,"",4000,4000
Prime Fund Capital Reserves Money Market,"",Purchased,11/4/2010,"",2881,2881
Prime Fund Capital Reserves Money Market,"",Purchased,10/29/2010,"",0,0
Prime Fund Capital Reserves Money Market,"",Purchased,10/29/2010,"",0,0
Prime Fund Capital Reserves Money Market,"",Sold,10/21/2010,"",1133,1133
Prime Fund Capital Reserves Money Market,"",Purchased,10/15/2010,"",4000,4000
Prime Fund Capital Reserves Money Market,"",Purchased,9/30/2010,"",0,0
Prime Fund Capital Reserves Money Market,"",Purchased,9/30/2010,"",0,0
Prime Fund Capital Reserves Money Market,"",Purchased,9/15/2010,"",4000,4000
Prime Fund Capital Reserves Money Market,"",Purchased,8/31/2010,"",0,0
Prime Fund Capital Reserves Money Market,"",Purchased,8/31/2010,"",0,0
Prime Fund Capital Reserves Money Market,"",Purchased,8/16/2010,"",4000,4000
Prime Fund Capital Reserves Money Market,"",Purchased,8/6/2010,"",2438,2438
Prime Fund Capital Reserves Money Market,"",Purchased,7/30/2010,"",0,0
Prime Fund Capital Reserves Money Market,"",Purchased,7/30/2010,"",0,0
Prime Fund Capital Reserves Money Market,"",Sold,7/21/2010,"",1054,1054
Prime Fund Capital Reserves Money Market,"",Purchased,7/15/2010,"",4000,4000
Prime Fund Capital Reserves Money Market,"",Purchased,7/1/2010,"",13,13
Prime Fund Capital Reserves Money Market,"",Purchased,6/30/2010,"",0,0
Prime Fund Capital Reserves Money Market,"",Purchased,6/30/2010,"",0,0
Prime Fund Capital Reserves Money Market,"",Purchased,6/15/2010,"",4000,4000
Prime Fund Capital Reserves Money Market,"",Purchased,6/4/2010,"",320,320
Prime Fund Capital Reserves Money Market,"",Purchased,5/28/2010,"",0,0
Prime Fund Capital Reserves Money Market,"",Purchased,5/28/2010,"",0,0
Prime Fund Capital Reserves Money Market,"",Purchased,5/17/2010,"",4000,4000
Prime Fund Capital Reserves Money Market,"",Purchased,4/30/2010,"",0,0
Prime Fund Capital Reserves Money Market,"",Purchased,4/30/2010,"",0,0
Prime Fund Capital Reserves Money Market,"",Sold,4/21/2010,"",1094,1094
Prime Fund Capital Reserves Money Market,"",Purchased,4/15/2010,"",4000,4000
Prime Fund Capital Reserves Money Market,"",Purchased,3/31/2010,"",0,0
Prime Fund Capital Reserves Money Market,"",Purchased,3/31/2010,"",0,0
Prime Fund Capital Reserves Money Market,"",Purchased,3/15/2010,"",4000,4000
Prime Fund Capital Reserves Money Market,"",Purchased,3/5/2010,"",410,410
Prime Fund Capital Reserves Money Market,"",Purchased,2/26/2010,"",0,0
Prime Fund Capital Reserves Money Market,"",Purchased,2/26/2010,"",0,0
Prime Fund Capital Reserves Money Market,"",Purchased,2/16/2010,"",4000,4000
Prime Fund Capital Reserves Money Market,"",Sold,2/11/2010,"",21068,21068
Prime Fund Capital Reserves Money Market,"",Purchased,1/29/2010,"",0,0
Prime Fund Capital Reserves Money Market,"",Purchased,1/29/2010,"",0,0
Prime Fund Capital Reserves Money Market,"",Sold,1/22/2010,"",1043,1043
Prime Fund Capital Reserves Money Market,"",Purchased,1/15/2010,"",4000,4000
Prime Fund Capital Reserves Money Market,"",Sold,1/4/2010,"",35,35
T Rowe Price High Yield Fund,"",Purchased,6/30/2010,"",13,13
T Rowe Price High Yield Fund,"",Sold,6/3/2010,"",21773,21773
T Rowe Price High Yield Fund,"",Purchased,5/28/2010,"",127,127
T Rowe Price High Yield Fund,"",Purchased,4/30/2010,"",142,142
T Rowe Price High Yield Fund,"",Purchased,3/31/2010,"",148,148
T Rowe Price High Yield Fund,"",Sold,3/4/2010,"",21031,21031
T Rowe Price High Yield Fund,"",Purchased,2/26/2010,"",258,258
T Rowe Price High Yield Fund,"",Sold,2/10/2010,"",1544,1544
T Rowe Price High Yield Fund,"",Purchased,1/29/2010,"",235,235
Thornburg International Value Fund,"",Purchased,12/27/2010,"",1,1
Thornburg International Value Fund,"",Purchased,9/24/2010,"",42,42
Thornburg International Value Fund,"",Purchased,6/25/2010,"",62,62
Thornburg International Value Fund,"",Purchased,3/26/2010,"",3,3
Touchstone Sands Cap Select Growth Fund,"",Sold,11/3/2010,"",3021,3021
Touchstone Sands Cap Select Growth Fund,"",Sold,2/10/2010,"",1222,1222
