orgname,ultorg,action,date1,transnotes,minvalue,maxvalue
Air Products & Chemicals Inc,"",Purchased,Feb  5 2010,"",1001,15000
American Century Small Cap Value Fund,"",Purchased,Oct 25 2010,"",1001,15000
American Europacific Growth Fund,"",Purchased,Nov 26 2010,"",1001,15000
Apple Inc,"",Sold,Oct 27 2010,"",1001,15000
Apple Inc,"",Sold,Dec 15 2010,"",1001,15000
Bank of New York Mellon,"",Sold,Jun 11 2010,"",1001,15000
Baxter International,"",Sold,Jun 11 2010,"",1001,15000
Conocophillips,"",Sold,May 19 2010,"",1001,15000
Duke Realty,"",Sold,Jun 11 2010,"",1001,15000
Dunn & Bradstreet,"",Sold,Mar 17 2010,"",1001,15000
Edwards Lifesciences Corp,"",Sold,Jun 11 2010,"",1001,15000
Exxon Mobil,"",Sold,May 19 2010,"",1001,15000
Fidelity Contrafund,"",Sold,Jun 16 2010,"",1001,15000
First American Intermediate Bond Fund,"",Sold,Nov 26 2010,"",1001,15000
First American Real Estate Securities Fd,"",Purchased,Oct 25 2010,"",1001,15000
First American Short Term Bond Fund,"",Sold,May 17 2010,"",1001,15000
Google Inc,"",Purchased,May  5 2010,"",1001,15000
Google Inc,"",Purchased,Dec 15 2010,"",1001,15000
Hewlett-Packard,"",Sold,Dec 15 2010,"",1001,15000
Home Depot,"",Sold,Dec  1 2010,"",15001,50000
Intel Corp,"",Sold,Jun 11 2010,"",1001,15000
IPath Dow Jones UBS Commodity Fund,"",Purchased,Mar 17 2010,"",1001,15000
IPath Dow Jones UBS Commodity Fund,"",Purchased,Nov 30 2010,"",1001,15000
Janus Worldwide Fund,"",Sold,Jun 22 2010,"",1001,15000
JPMorgan Chase & Co,"",Sold,Jun 11 2010,"",1001,15000
JPMorgan Chase & Co,"",Sold,Jun 22 2010,"",1001,15000
Old Mutual Focused Fund,"",Sold,Sep 24 2010,"",15001,50000
PIMCO RealReturn Fund,"",Purchased,May 20 2010,"",1001,15000
Rhip-Bank of America,"",Sold,Dec  8 2010,"",1001,15000
Southern Co,"",Sold,Jun 11 2010,"",1001,15000
T Rowe Price Mid Cap Value Fund,"",Purchased,Oct 25 2010,"",1001,15000
T Rowe Price Mid Cap Value Fund,"",Purchased,Nov 26 2010,"",1001,15000
T Rowe Price Small Cap Value Fund,"",Purchased,Oct 25 2010,"",1001,15000
Tenet Healthcare,"",Sold,Jun 11 2010,"",1001,15000
Verizon Communications,"",Sold,Jun 11 2010,"",1001,15000
