orgname,ultorg,action,date1,transnotes,minvalue,maxvalue
Aim Fund,"",Sold,Nov 18 2010,"",100001,250000
Evergreen International Bank Income Fund,"",Sold,Aug 26 2010,"",100001,250000
Harp 2 Loss Insurance,"",Purchased,05/2010,"",100001,250000
Nameco 987,"",Purchased,09/2010,"",500001,1000000
Vanguard Emerging Markets ETF,"",Purchased,Nov 18 2010,"",100001,250000
Washington Post,"",Sold,Nov 12 2010,"",100001,250000
