orgname,ultorg,action,date1,transnotes,minvalue,maxvalue
Appalachian State University Bonds,"",Purchased,Jul 26 2012,"",1001,15000
Citigroup Inc,"",Sold,Oct  1 2012,"",0,1000
Corning Inc,"",Purchased,Mar  7 2012,"",1001,15000
Duke University Capital Facilities Bonds,"",Purchased,Oct  1 2012,"",1001,15000
Exxon Mobil,"",Sold,Oct 11 2012,"",15001,50000
Lincoln National Corp,"",Purchased,Mar  7 2012,"",1001,15000
Motorola Mobility,"",Sold,May 22 2012,"",1001,15000
Plains All American Pipeline,"",Purchased,Jul 26 2012,"",1001,15000
Qualcomm,"",Purchased,Mar  7 2012,"",1001,15000
Qualcomm,"",Purchased,Oct 10 2012,"",1001,15000
Raleigh NC Muni Bonds,"",Purchased,Jul 26 2012,"",1001,15000
Regions Financial,"",Sold,Oct  1 2012,"",1001,15000
University of North Carolina/Chapel Hill,University of North Carolina,Purchased,Mar  7 2012,"",1001,15000
Wells Fargo,"",Sold,Oct  1 2012,"",1001,15000
