orgname,ultorg,action,date1,transnotes,minvalue,maxvalue
Kraft Foods,"",Purchased,Mar 31 2013,--,1001,15000
Kraft Foods,"",Purchased,Jun 30 2013,--,1001,15000
Kraft Foods,"",Purchased,Sep 30 2013,--,1001,15000
Kraft Foods,"",Purchased,Dec 31 2013,--,1001,15000
Mondelez Int Inc stock options included as part of,"",Sold,Jul 31 2013,Sale (Partial),50001,100000
Mondelez Int Inc stock options included as part of,"",Sold,Apr 12 2013,Sale (Partial),15001,50000
