orgname,ultorg,action,date1,transnotes,minvalue,maxvalue
Fidelity MA AMT Tax-Free Money Market Fund,"",Sold,"","",0,1000
Fidelity Municipal Money Market Fund,"",Sold,"","",0,1000
Spartan 500 Advantage Class,"",Purchased,"","",0,1000
