orgname,ultorg,action,date1,transnotes,minvalue,maxvalue
Farmers & Merchants Bancorp,"",Purchased,Quarterly,"",1001,15000
Fidelity Asset Manager 50% Fund,"",Purchased,Monthly,"",1001,15000
Fidelity Contrafund,"",Purchased,Monthly,"",1001,15000
Fidelity Equity Income Fund,"",Purchased,Monthly,"",1001,15000
Fidelity Equity Income Fund,"",Purchased,Monthly,"",1001,15000
Fidelity Funds,"",Purchased,Monthly,"",1001,15000
Fidelity Low Priced Stock Fund,"",Purchased,Monthly,"",15001,50000
Fidelity Nasdaq Composite Index,"",Purchased,Monthly,"",15001,50000
Fidelity Puritan Fund,"",Purchased,Monthly,"",1001,15000
Fidelity Puritan Fund,"",Purchased,Monthly,"",1001,15000
Fidelity Puritan Fund,"",Purchased,Monthly,"",1001,15000
Fidelity Puritan Fund,"",Purchased,Monthly,"",1001,15000
Fidelity Spartan 500 Index,"",Purchased,Monthly,"",15001,50000
Fidelity VIP Growth Portfolio,"",Purchased,Monthly,"",1001,15000
T-C Lifecycle 2020 Rtmt,"",Purchased,Monthly,"",1001,15000
US Treasury Bond & Notes,"",Sold,Dec  2 2014,"",1001,15000
Vanguard 500 Index Signal,"",Purchased,Monthly,"",1001,15000
Vanguard Total stock Market Indx Inv,"",Purchased,Monthly,"",15001,50000
Voya Index Plus MidCap Portfolio,"",Purchased,Monthly,"",1001,15000
Voya Invesco Eqty & Inc Port I,"",Purchased,Monthly,"",1001,15000
Voya TRowe Price Divr MdCp Gr Pt I,"",Purchased,Monthly,"",1001,15000
