orgname,ultorg,action,date1,transnotes,minvalue,maxvalue
Fidelity New Insights Fund,"",Purchased,Dec 12 2014,capital gain reinvested,1001,15000
Fidelity New Insights Fund,"",Purchased,Dec 12 2014,capital gain reinvested,1001,15000
Virtus Premium Alpha Sector Fund,"",Purchased,Nov 25 2014,capital gain reinvested,1001,15000
Virtus Premium Alpha Sector Fund,"",Purchased,Nov 25 2014,capital gain reinvested,1001,15000
Virtus Premium Alphasector,"",Purchased,Nov 25 2014,capital gain reinvested,1001,15000
Virtus Premium Alphasector,"",Purchased,Nov 25 2014,capital gain reinvested,1001,15000
