orgname,ultorg,action,date1,transnotes,minvalue,maxvalue
American Funds IRA Rollover,"",Exchanged,Feb 29 2012,"",250001,500000
AQR Managed Futures Strategy Fund,"",Purchased,Sep  4 2012,"",1001,15000
AQR Managed Futures Strategy Fund,"",Purchased,Oct  4 2012,"",1001,15000
AQR Managed Futures Strategy Fund,"",Purchased,Nov  6 2012,"",1001,15000
AQR Managed Futures Strategy Fund,"",Purchased,Dec  6 2012,"",1001,15000
AQR Managed Futures Strategy Fund,"",Purchased,Aug 31 2012,"",1001,15000
Comm Strat,"",Sold,Mar  8 2012,"",1001,15000
Doubleline Total Return Bond Fund,"",Purchased,Sep  4 2012,"",1001,15000
Doubleline Total Return Bond Fund,"",Purchased,Jun  6 2012,"",1001,15000
Doubleline Total Return Bond Fund,"",Purchased,Jul  5 2012,"",1001,15000
Doubleline Total Return Bond Fund,"",Purchased,May  7 2012,"",1001,15000
Doubleline Total Return Bond Fund,"",Purchased,Dec  4 2012,"",1001,15000
Doubleline Total Return Bond Fund,"",Purchased,Nov  5 2012,"",1001,15000
Doubleline Total Return Bond Fund,"",Purchased,Oct  4 2012,"",1001,15000
Doubleline Total Return Bond Fund,"",Purchased,Mar  8 2012,"",1001,15000
Doubleline Total Return Bond Fund,"",Purchased,Apr  9 2012,"",1001,15000
Doubleline Total Return Bond Fund,"",Purchased,May  9 2012,"",1001,15000
Doubleline Total Return Bond Fund,"",Purchased,Jun 11 2012,"",1001,15000
Doubleline Total Return Bond Fund,"",Purchased,Jul 10 2012,"",1001,15000
Doubleline Total Return Bond Fund,"",Purchased,Mar 28 2012,"",1001,15000
Doubleline Total Return Bond Fund,"",Purchased,Apr  5 2012,"",1001,15000
Dreyfus Cash Management,"",Sold,Mar  8 2012,"",1001,15000
Global Infrastructure,"",Sold,Mar  8 2012,"",1001,15000
Global Strat,"",Sold,Mar  8 2012,"",1001,15000
ING Select Europacific Growth Fund,"",Sold,Mar 29 2012,"",1001,15000
ING Select Fidelity Advisor New Insights,"",Sold,Mar 29 2012,"",1001,15000
ING Select ING Emr Small Diversified Mid,"",Sold,Mar 29 2012,"",1001,15000
ING Select ING Morgan Stanley Global,"",Sold,Mar 29 2012,"",1001,15000
ING Select ING Pimco Total Return Bond,"",Sold,Mar 29 2012,"",1001,15000
ING Select Ivy Asset Strategy Fund,"",Sold,Mar 29 2012,"",1001,15000
ING Select PIMCO All Asset Fund,"",Sold,Mar 29 2012,"",1001,15000
ING Select Templeton Global Bond Fund,"",Sold,Mar 29 2012,"",1001,15000
iShares Gold Trust,"",Purchased,Mar 28 2012,"",15001,50000
iShares Gold Trust,"",Purchased,Mar 13 2012,"",1001,15000
JPMorgan Money Market,"",Purchased,Mar 28 2012,"",15001,50000
JPMorgan Money Market,"",Purchased,Mar  8 2012,"",1001,15000
Lights Fund Altegris Macro,"",Purchased,Jul 10 2012,"",1001,15000
Lights Fund Altegris Macro,"",Purchased,Mar 28 2012,"",1001,15000
Lights Fund Altegris Macro,"",Purchased,Apr  5 2012,"",1001,15000
Lights Fund Altegris Macro,"",Purchased,Jun 11 2012,"",1001,15000
Lights Fund Altegris Macro,"",Purchased,May  9 2012,"",1001,15000
Lights Fund Altegris Macro,"",Purchased,Apr  9 2012,"",1001,15000
Lights Fund Altegris Macro,"",Purchased,Mar  8 2012,"",1001,15000
Lights Fund Altegris Macro,"",Purchased,May  8 2012,"",1001,15000
Lights Fund Altegris Macro,"",Purchased,Jun  6 2012,"",1001,15000
Lights Fund Altegris Macro,"",Purchased,Jul  6 2012,"",1001,15000
Loomis Sayles Fund II,"",Purchased,Jun  5 2012,"",1001,15000
Loomis Sayles Fund II,"",Purchased,May  7 2012,"",1001,15000
Loomis Sayles Fund II,"",Purchased,Jul  6 2012,"",1001,15000
Loomis Sayles Fund II,"",Purchased,Mar  8 2012,"",1001,15000
Loomis Sayles Fund II,"",Purchased,Apr  9 2012,"",1001,15000
Loomis Sayles Fund II,"",Purchased,May  9 2012,"",1001,15000
Loomis Sayles Fund II,"",Purchased,Jun 11 2012,"",1001,15000
Loomis Sayles Fund II,"",Purchased,Apr  5 2012,"",1001,15000
Loomis Sayles Fund II,"",Purchased,Mar 28 2012,"",1001,15000
Loomis Sayles Fund II,"",Purchased,Jul  9 2012,"",1001,15000
Natixis ASG Mngd Futures Strategy Fund,"",Purchased,Jul  9 2012,"",1001,15000
Natixis ASG Mngd Futures Strategy Fund,"",Purchased,Jun 11 2012,"",1001,15000
Natixis ASG Mngd Futures Strategy Fund,"",Purchased,May  9 2012,"",1001,15000
Natixis ASG Mngd Futures Strategy Fund,"",Purchased,Apr  9 2012,"",1001,15000
Natixis Funds Trust II,"",Purchased,Mar  8 2012,"",1001,15000
Pimco All Asset All Authority Fund,"",Purchased,Mar  8 2012,"",1001,15000
Pimco All Asset All Authority Fund,"",Purchased,Apr  9 2012,"",1001,15000
Pimco All Asset All Authority Fund,"",Purchased,May  9 2012,"",1001,15000
Pimco All Asset All Authority Fund,"",Purchased,Jun 11 2012,"",1001,15000
Pimco All Asset All Authority Fund,"",Purchased,Oct  4 2012,"",1001,15000
Pimco All Asset All Authority Fund,"",Purchased,Oct  5 2012,"",1001,15000
Pimco All Asset All Authority Fund,"",Purchased,Nov  5 2012,"",1001,15000
Pimco All Asset All Authority Fund,"",Purchased,Dec  4 2012,"",1001,15000
Pimco All Asset All Authority Fund,"",Purchased,Mar 28 2012,"",1001,15000
Pimco All Asset All Authority Fund,"",Purchased,Apr  5 2012,"",15001,50000
Pimco All Asset All Authority Fund,"",Purchased,May  7 2012,"",15001,50000
Pimco All Asset All Authority Fund,"",Purchased,Jun  5 2012,"",15001,50000
Pimco All Asset All Authority Fund,"",Purchased,Aug  6 2012,"",15001,50000
Pimco All Asset All Authority Fund,"",Purchased,Jul  5 2012,"",15001,50000
Russell Developing Markets,"",Sold,Mar  8 2012,"",1001,15000
Russell Emerging Markets,"",Sold,Mar  8 2012,"",1001,15000
Russell Global Equity Fund,"",Sold,Mar  8 2012,"",1001,15000
Russell Quan Equity,"",Sold,Mar  8 2012,"",1001,15000
Russell Real Estate,"",Sold,Mar  8 2012,"",1001,15000
Russell US Small,"",Sold,Mar  8 2012,"",1001,15000
Select Fidelity Advisor Small Cap,"",Sold,Mar 29 2012,"",1001,15000
Select Oppenheimer Developing Markets,"",Sold,Mar 29 2012,"",1001,15000
Strat Bond,"",Sold,Mar  8 2012,"",1001,15000
US Core Equity,"",Sold,Mar  8 2012,"",1001,15000
Wasatch Funds Long Short,"",Purchased,Jul  5 2012,"",1001,15000
Wasatch Funds Long Short,"",Purchased,Jun  5 2012,"",1001,15000
Wasatch Funds Long Short,"",Purchased,May  7 2012,"",1001,15000
Wasatch Funds Long Short,"",Purchased,Apr  5 2012,"",1001,15000
Wasatch Funds Long Short,"",Purchased,Mar 28 2012,"",1001,15000
Wasatch Funds Long Short,"",Purchased,Jul  9 2012,"",1001,15000
Wasatch Funds Long Short,"",Purchased,Jun 11 2012,"",1001,15000
Wasatch Funds Long Short,"",Purchased,May  9 2012,"",1001,15000
Wasatch Funds Long Short,"",Purchased,Apr  9 2012,"",1001,15000
Wasatch Funds Long Short,"",Purchased,Mar  8 2012,"",1001,15000
Washington Mutual Investors Fund,"",Sold,Mar 27 2012,"",250001,500000
Winton Futures Fund,"",Purchased,Jun 14 2012,"",15001,50000
