orgname,ultorg,action,date1,transnotes,minvalue,maxvalue
3M Co,"",Purchased,May  4 2010,"",1001,15000
3M Co,"",Purchased,May  4 2010,"",1001,15000
3M Co,"",Purchased,Aug 18 2010,"",1001,15000
3M Co,"",Purchased,Dec 16 2010,"",1001,15000
3M Co,"",Purchased,Dec 28 2010,"",1001,15000
3M Co,"",Purchased,May  4 2010,"",1001,15000
ABB Ltd,"",Exchanged,Apr 15 2010,"",1001,15000
Abbott Laboratories,"",Purchased,Jun  8 2010,"",1001,15000
Abbott Laboratories,"",Purchased,Nov 18 2010,"",1001,15000
Abbott Laboratories,"",Purchased,Nov 18 2010,"",1001,15000
Abbott Laboratories,"",Purchased,Dec 16 2010,"",1001,15000
Abbott Laboratories,"",Purchased,Jun  8 2010,"",1001,15000
Abbott Laboratories,"",Purchased,Dec 13 2010,"",1001,15000
Ace Ltd,"",Purchased,Dec 16 2010,"",1001,15000
Ace Ltd,"",Purchased,Dec 28 2010,"",1001,15000
Ace Ltd,"",Purchased,Sep 27 2010,"",1001,15000
Adobe Systems,"",Exchanged,Nov  4 2010,"",1001,15000
Adobe Systems,"",Exchanged,Nov  4 2010,"",1001,15000
Adobe Systems,"",Exchanged,Nov  4 2010,"",1001,15000
Adobe Systems,"",Purchased,Jul  9 2010,"",1001,15000
Adobe Systems,"",Purchased,Oct 15 2010,"",1001,15000
Adobe Systems,"",Purchased,Apr 16 2010,"",1001,15000
Adobe Systems,"",Purchased,Apr 13 2010,"",1001,15000
Adobe Systems,"",Purchased,Apr 13 2010,"",1001,15000
Adobe Systems,"",Purchased,Apr 13 2010,"",1001,15000
Adobe Systems,"",Exchanged,Nov  4 2010,"",1001,15000
Adobe Systems,"",Purchased,Apr 13 2010,"",1001,15000
Air Products & Chemicals Inc,"",Exchanged,Jun  8 2010,"",1001,15000
Air Products & Chemicals Inc,"",Purchased,May  4 2010,"",1001,15000
Air Products & Chemicals Inc,"",Purchased,Apr 16 2010,"",1001,15000
Air Products & Chemicals Inc,"",Purchased,Apr 29 2010,"",1001,15000
Air Products & Chemicals Inc,"",Exchanged,Jun  8 2010,"",1001,15000
Air Products & Chemicals Inc,"",Exchanged,Jun  8 2010,"",1001,15000
American Century Equity Income Fund,"",Purchased,Feb  8 2010,"",1001,15000
American Funds AMCAP Fund,"",Purchased,Feb  8 2010,"",1001,15000
American Funds Capital Income Builder Fd,"",Purchased,Feb  8 2010,"",1001,15000
American Funds EuroPacific Fund,"",Purchased,Feb  8 2010,"",1001,15000
American Funds EuroPacific Fund,"",Exchanged,Dec 22 2010,"",15001,50000
American Funds Fundamental Investors Fd,"",Purchased,Feb  8 2010,"",1001,15000
American Funds Growth Fund of America,"",Purchased,Feb  8 2010,"",1001,15000
American Funds New Perspective Fund,"",Exchanged,Dec 22 2010,"",1001,15000
American Funds New Perspective Fund,"",Exchanged,Oct 25 2010,"",1001,15000
American Funds World Growth/Income Fund,"",Purchased,Feb  8 2010,"",1001,15000
American Funds World Growth/Income Fund,"",Exchanged,Oct 25 2010,"",1001,15000
American Funds World Growth/Income Fund,"",Exchanged,Dec 13 2010,"",1001,15000
American Tower Systems,"",Exchanged,Oct 15 2010,"",1001,15000
American Tower Systems,"",Exchanged,Mar 22 2010,"",1001,15000
American Tower Systems,"",Exchanged,Mar 22 2010,"",1001,15000
Analog Devices Inc,"",Purchased,Apr 13 2010,"",1001,15000
Analog Devices Inc,"",Purchased,Apr 13 2010,"",1001,15000
Analog Devices Inc,"",Purchased,Apr 13 2010,"",1001,15000
Analog Devices Inc,"",Purchased,Apr 13 2010,"",1001,15000
Analog Devices Inc,"",Purchased,Apr 16 2010,"",1001,15000
Analog Devices Inc,"",Exchanged,Jun 17 2010,"",1001,15000
Analog Devices Inc,"",Exchanged,Jun 17 2010,"",1001,15000
Analog Devices Inc,"",Exchanged,Jun 17 2010,"",1001,15000
Analog Devices Inc,"",Exchanged,Jun 17 2010,"",1001,15000
Analog Devices Inc,"",Exchanged,Jun 17 2010,"",1001,15000
Analog Devices Inc,"",Purchased,Apr 13 2010,"",1001,15000
Apache Corp,"",Purchased,Jul  9 2010,"",1001,15000
Apache Corp,"",Purchased,Dec 22 2010,"",1001,15000
Apollo Group,"",Exchanged,May  4 2010,"",1001,15000
Apollo Group,"",Exchanged,May  4 2010,"",1001,15000
Applied Materials Inc,"",Exchanged,Oct 15 2010,"",1001,15000
Applied Materials Inc,"",Exchanged,Oct 15 2010,"",1001,15000
AstraZeneca Plc,"",Purchased,Dec 22 2010,"",1001,15000
AstraZeneca Plc,"",Purchased,Jun  8 2010,"",1001,15000
AstraZeneca Plc,"",Purchased,Jun 21 2010,"",1001,15000
AstraZeneca Plc,"",Purchased,Jun 30 2010,"",1001,15000
AstraZeneca Plc,"",Purchased,Jun 30 2010,"",1001,15000
AstraZeneca Plc,"",Purchased,Jun 30 2010,"",1001,15000
AstraZeneca Plc,"",Purchased,Jun 30 2010,"",1001,15000
AstraZeneca Plc,"",Purchased,Jun  8 2010,"",1001,15000
AT&T Inc,"",Purchased,Jun 21 2010,"",1001,15000
Avon Products,"",Purchased,Jan 11 2010,"",1001,15000
Avon Products,"",Purchased,Dec 22 2010,"",1001,15000
Avon Products,"",Purchased,Dec 28 2010,"",1001,15000
Avon Products,"",Purchased,Dec 20 2010,"",1001,15000
Ball Corp,"",Exchanged,Nov  3 2010,"",1001,15000
Bank of America,"",Exchanged,Jul 29 2010,"",1001,15000
Baxter International,"",Purchased,Jun 17 2010,"",1001,15000
Baxter International,"",Purchased,Jun  8 2010,"",1001,15000
Baxter International,"",Purchased,Jun  8 2010,"",1001,15000
Baxter International,"",Purchased,Jun  8 2010,"",1001,15000
Baxter International,"",Purchased,Jun  8 2010,"",1001,15000
Baxter International,"",Purchased,May  4 2010,"",1001,15000
Baxter International,"",Purchased,Dec 22 2010,"",1001,15000
Baxter International,"",Purchased,Jun  8 2010,"",1001,15000
Baxter International,"",Purchased,Dec 13 2010,"",1001,15000
Bed Bath & Beyond,"",Purchased,May  4 2010,"",1001,15000
Bed Bath & Beyond,"",Exchanged,Oct 15 2010,"",1001,15000
Best Buy,"",Purchased,May  4 2010,"",1001,15000
Best Buy,"",Purchased,Mar 29 2010,"",1001,15000
Best Buy,"",Exchanged,Dec 10 2010,"",1001,15000
Best Buy,"",Exchanged,Dec 28 2010,"",1001,15000
Best Buy,"",Exchanged,Dec 20 2010,"",1001,15000
Best Buy,"",Purchased,Aug 18 2010,"",1001,15000
Best Buy,"",Purchased,Mar 22 2010,"",1001,15000
Best Buy,"",Purchased,Mar 22 2010,"",1001,15000
Best Buy,"",Purchased,Apr 13 2010,"",1001,15000
Blackrock Energy & Resources Fund,"",Purchased,Mar 22 2010,"",1001,15000
Blackrock Equity Dividend Fund,"",Purchased,Dec 10 2010,"",1001,15000
Blackrock Equity Dividend Fund,"",Purchased,Dec 13 2010,"",1001,15000
Blackrock Equity Dividend Fund,"",Purchased,Dec 15 2010,"",1001,15000
BlackRock Mid-Cap Value Equity Fund,"",Exchanged,Aug 18 2010,"",1001,15000
Blackrock Strategic Bond Trust,"",Exchanged,Dec 20 2010,"",1001,15000
BP,"",Exchanged,Jun  3 2010,"",1001,15000
Bristol-Myers Squibb,"",Exchanged,Mar 22 2010,"",1001,15000
Bristol-Myers Squibb,"",Exchanged,Mar 17 2010,"",1001,15000
Carnival Corp,Carnival plc,Exchanged,Apr 22 2010,"",1001,15000
Carnival Corp,Carnival plc,Exchanged,Apr 22 2010,"",1001,15000
Celgene Corp,"",Purchased,Dec 16 2010,"",1001,15000
Celgene Corp,"",Purchased,Dec 22 2010,"",1001,15000
Centurylink Inc,"",Exchanged,Nov  4 2010,"",1001,15000
Centurylink Inc,"",Exchanged,Nov  4 2010,"",1001,15000
Centurylink Inc,"",Exchanged,Nov  4 2010,"",1001,15000
Centurylink Inc,"",Exchanged,Nov  4 2010,"",1001,15000
Chevron Corp,"",Purchased,Dec 13 2010,"",1001,15000
Chevron Corp,"",Purchased,Oct 15 2010,"",1001,15000
Chevron Corp,"",Purchased,Jun 17 2010,"",1001,15000
Chubb Corp,"",Purchased,Dec 28 2010,"",1001,15000
Church & Dwight,"",Exchanged,May  4 2010,"",1001,15000
Church & Dwight,"",Exchanged,May  4 2010,"",1001,15000
Church & Dwight,"",Exchanged,Apr 13 2010,"",1001,15000
Church & Dwight,"",Exchanged,Apr 13 2010,"",1001,15000
Church & Dwight,"",Exchanged,Apr 15 2010,"",1001,15000
Church & Dwight,"",Exchanged,Apr 15 2010,"",1001,15000
Church & Dwight,"",Exchanged,May  4 2010,"",1001,15000
Clorox Co,"",Purchased,Dec 16 2010,"",1001,15000
Coca-Cola Co,"",Purchased,Apr 15 2010,"",1001,15000
Coca-Cola Co,"",Purchased,Oct 15 2010,"",1001,15000
Coca-Cola Co,"",Purchased,Jul 19 2010,"",1001,15000
Cohen & Steers Infrastructure Fund,"",Exchanged,Apr 29 2010,"",1001,15000
Colgate-Palmolive Co,"",Purchased,Jun  8 2010,"",1001,15000
Colgate-Palmolive Co,"",Purchased,Jul  6 2010,"",1001,15000
Colgate-Palmolive Co,"",Purchased,Jan 11 2010,"",1001,15000
Cooper Industries,"",Purchased,Dec 20 2010,"",1001,15000
Cooper Industries,"",Purchased,Sep 27 2010,"",1001,15000
Cooper Industries,"",Purchased,Jul  9 2010,"",1001,15000
Cooper Industries,"",Purchased,Dec 20 2010,"",1001,15000
Corinthian Colleges,"",Exchanged,May  4 2010,"",1001,15000
Corning Inc,"",Purchased,Jul 13 2010,"",1001,15000
Corning Inc,"",Purchased,Dec 20 2010,"",1001,15000
Corning Inc,"",Purchased,Mar 22 2010,"",1001,15000
CR Bard Inc,"",Exchanged,Mar 22 2010,"",1001,15000
CR Bard Inc,"",Exchanged,Mar 22 2010,"",1001,15000
CR Bard Inc,"",Exchanged,Mar 22 2010,"",1001,15000
CR Bard Inc,"",Exchanged,Mar 22 2010,"",1001,15000
CSX Corp,"",Purchased,Dec 13 2010,"",1001,15000
CSX Corp,"",Purchased,Dec 28 2010,"",1001,15000
CVS/Caremark Corp,"",Purchased,Dec 28 2010,"",1001,15000
CVS/Caremark Corp,"",Purchased,Jun 21 2010,"",1001,15000
CVS/Caremark Corp,"",Purchased,Jun  8 2010,"",1001,15000
CVS/Caremark Corp,"",Purchased,Apr 29 2010,"",1001,15000
CVS/Caremark Corp,"",Purchased,Jun  8 2010,"",1001,15000
Danaher Corp,"",Purchased,Dec 21 2010,"",1001,15000
Danaher Corp,"",Purchased,Dec 20 2010,"",1001,15000
Danaher Corp,"",Purchased,Dec 20 2010,"",1001,15000
Danaher Corp,"",Purchased,Dec 16 2010,"",1001,15000
Davis New York Venture Fund,"",Exchanged,Dec 20 2010,"",1001,15000
Davis New York Venture Fund,"",Exchanged,Dec 10 2010,"",1001,15000
Davis Opportunity Fund,"",Exchanged,Dec 20 2010,"",1001,15000
Delaware Diversified Income Fund,"",Purchased,Dec 10 2010,"",1001,15000
Delaware Diversified Income Fund,"",Purchased,Dec 13 2010,"",1001,15000
Delaware Diversified Income Fund,"",Purchased,Dec 15 2010,"",1001,15000
Devon Energy,"",Purchased,Oct 25 2010,"",1001,15000
Devon Energy,"",Purchased,Jul  9 2010,"",1001,15000
DIRECTV Group,DirecTV,Exchanged,Apr 15 2010,"",1001,15000
DIRECTV Group,DirecTV,Exchanged,Apr 15 2010,"",1001,15000
DIRECTV Group,DirecTV,Exchanged,Apr 15 2010,"",1001,15000
DIRECTV Group,DirecTV,Exchanged,Apr 15 2010,"",1001,15000
DIRECTV Group,DirecTV,Exchanged,Apr 15 2010,"",1001,15000
DJ Euro Stoxx 50 ETF,"",Exchanged,Mar 17 2010,"",1001,15000
Dow Chemical,"",Purchased,Mar 22 2010,"",1001,15000
Dow Chemical,"",Exchanged,Jul 29 2010,"",1001,15000
Dow Chemical,"",Exchanged,Jun 17 2010,"",1001,15000
Dow Chemical,"",Exchanged,Dec 20 2010,"",1001,15000
Dow Chemical,"",Exchanged,Dec 16 2010,"",1001,15000
Dow Chemical,"",Exchanged,Oct 25 2010,"",1001,15000
Enerplus Resources,"",Purchased,May  4 2010,"",1001,15000
Enerplus Resources Fund Tr Unit,"",Exchanged,Oct 25 2010,"",1001,15000
Enerplus Resources Fund Tr Unit,"",Exchanged,Oct 25 2010,"",1001,15000
Enerplus Resources Fund Tr Unit,"",Exchanged,Oct 25 2010,"",1001,15000
Enerplus Resources Fund Tr Unit,"",Exchanged,Oct 25 2010,"",1001,15000
Entergy Corp,"",Exchanged,Dec 10 2010,"",1001,15000
Exxon Mobil,"",Exchanged,Sep 27 2010,"",1001,15000
Exxon Mobil,"",Purchased,Aug 18 2010,"",1001,15000
FBR Focus Fund,"",Purchased,Oct 15 2010,"",1001,15000
FBR Focus Fund,"",Purchased,Sep 27 2010,"",1001,15000
FBR Focus Fund,"",Purchased,Nov  8 2010,"",1001,15000
FBR Focus Fund,"",Purchased,Nov  8 2010,"",1001,15000
Fedex Corp,"",Purchased,Dec 20 2010,"",1001,15000
Fedex Corp,"",Purchased,Dec 22 2010,"",1001,15000
First Eagle Fund of America,"",Purchased,Sep 27 2010,"",1001,15000
First Eagle Fund of America,"",Purchased,Oct 15 2010,"",1001,15000
First Eagle Global Fund,"",Purchased,Dec 10 2010,"",1001,15000
First Eagle Global Fund,"",Purchased,Dec 13 2010,"",1001,15000
First Eagle Global Fund,"",Purchased,Dec 15 2010,"",1001,15000
Fiserv Inc,"",Exchanged,Sep 27 2010,"",1001,15000
Fiserv Inc,"",Exchanged,Oct 25 2010,"",1001,15000
Fluor Corp,"",Purchased,Sep 27 2010,"",1001,15000
Fluor Corp,"",Purchased,Oct 15 2010,"",1001,15000
Franklin Income Fund,"",Purchased,Feb  8 2010,"",1001,15000
Freeport-McMoRan Copper & Gold,"",Purchased,May  4 2010,"",1001,15000
Freeport-McMoRan Copper & Gold,"",Purchased,Mar 22 2010,"",1001,15000
Freeport-McMoRan Copper & Gold,"",Purchased,Mar 22 2010,"",1001,15000
Ft Franklin VA Tax Free Income Fund,"",Exchanged,Jan 11 2010,"",1001,15000
Ft Templeton Global Bond Fund,"",Purchased,Dec 15 2010,"",1001,15000
Ft Templeton Global Bond Fund,"",Purchased,Dec 13 2010,"",1001,15000
Ft Templeton Global Bond Fund,"",Purchased,Dec 10 2010,"",1001,15000
General Electric,"",Exchanged,Apr 29 2010,"",1001,15000
General Electric,"",Exchanged,Apr 15 2010,"",1001,15000
General Electric,"",Exchanged,Dec 16 2010,"",15001,50000
General Mills,"",Purchased,Mar 22 2010,"",1001,15000
Gilead Sciences,"",Purchased,May  4 2010,"",1001,15000
Gilead Sciences,"",Exchanged,Aug  2 2010,"",1001,15000
Goldman Sachs Mid Cap Value Fund,"",Purchased,Dec 10 2010,"",1001,15000
Goldman Sachs Mid Cap Value Fund,"",Purchased,Dec 13 2010,"",1001,15000
Goldman Sachs Mid Cap Value Fund,"",Purchased,Dec 15 2010,"",1001,15000
Google Inc,"",Purchased,Dec 16 2010,"",1001,15000
Google Inc,"",Purchased,Jun 21 2010,"",1001,15000
H&R Block,"",Purchased,Mar 17 2010,"",1001,15000
H&R Block,"",Purchased,Mar 17 2010,"",1001,15000
H&R Block,"",Purchased,Mar 17 2010,"",1001,15000
H&R Block,"",Exchanged,Apr 13 2010,"",1001,15000
H&R Block,"",Exchanged,Apr 13 2010,"",1001,15000
H&R Block,"",Exchanged,Apr 13 2010,"",1001,15000
H&R Block,"",Purchased,Mar 17 2010,"",1001,15000
H&R Block,"",Exchanged,Apr 13 2010,"",1001,15000
Hartford Capital Appreciation Fund,"",Exchanged,Jul 29 2010,"",1001,15000
Hartford Capital Appreciation Fund,"",Exchanged,Dec 10 2010,"",15001,50000
Hartford Capital Appreciation Fund,"",Exchanged,Oct 25 2010,"",1001,15000
Hartford Capital Appreciation Fund,"",Exchanged,Jun  8 2010,"",1001,15000
Hartford Financial Services,"",Purchased,Nov 18 2010,"",1001,15000
Hartford Financial Services,"",Purchased,Oct 25 2010,"",1001,15000
Hartford Financial Services,"",Purchased,Oct 25 2010,"",1001,15000
Hartford Financial Services,"",Purchased,Oct 25 2010,"",1001,15000
Hewlett-Packard,"",Exchanged,Oct 15 2010,"",1001,15000
Hewlett-Packard,"",Purchased,Mar 29 2010,"",1001,15000
Hewlett-Packard,"",Exchanged,Oct 25 2010,"",1001,15000
Hewlett-Packard,"",Purchased,Nov 18 2010,"",1001,15000
Hewlett-Packard,"",Purchased,Apr 13 2010,"",1001,15000
Home Depot,"",Purchased,Oct 18 2010,"",1001,15000
Home Depot,"",Purchased,Oct 25 2010,"",1001,15000
Home Depot,"",Purchased,Oct 15 2010,"",1001,15000
Home Depot,"",Purchased,Oct 15 2010,"",1001,15000
HSBC Holdings,"",Exchanged,Dec 10 2010,"",1001,15000
Illinois Tool Works,"",Purchased,Apr 13 2010,"",1001,15000
Illinois Tool Works,"",Purchased,Aug 18 2010,"",1001,15000
Illinois Tool Works,"",Purchased,Dec 16 2010,"",1001,15000
Illinois Tool Works,"",Purchased,Apr 13 2010,"",1001,15000
Illinois Tool Works,"",Purchased,Apr 13 2010,"",1001,15000
Illinois Tool Works,"",Purchased,Apr 13 2010,"",1001,15000
Illinois Tool Works,"",Purchased,Apr 13 2010,"",1001,15000
Illinois Tool Works,"",Purchased,Jun  8 2010,"",1001,15000
Illinois Tool Works,"",Purchased,Jun  8 2010,"",1001,15000
Intel Corp,"",Purchased,Jul 29 2010,"",1001,15000
Intel Corp,"",Purchased,Jul 29 2010,"",1001,15000
Intel Corp,"",Exchanged,Sep  8 2010,"",1001,15000
Intel Corp,"",Exchanged,Sep  8 2010,"",1001,15000
Intel Corp,"",Exchanged,Sep  8 2010,"",1001,15000
Intel Corp,"",Purchased,Aug 18 2010,"",1001,15000
Intel Corp,"",Purchased,Jul 29 2010,"",1001,15000
Intel Corp,"",Exchanged,Sep  8 2010,"",1001,15000
Invesco Van Kampen Small Cap,"",Purchased,Dec 10 2010,"",1001,15000
Invesco Van Kampen Small Cap,"",Purchased,Dec 13 2010,"",1001,15000
Invesco Van Kampen Small Cap,"",Purchased,Dec 15 2010,"",1001,15000
iShares DJ Tech Sector Index,BlackRock,Purchased,Mar 22 2010,"",1001,15000
iShares Dow Jones US Indl Sector,"",Purchased,Mar 22 2010,"",1001,15000
iShares S&P Europe 350 Index,"",Purchased,Mar 17 2010,"",1001,15000
Johnson & Johnson,"",Purchased,Apr 15 2010,"",15001,50000
Johnson & Johnson,"",Purchased/Exchanged,Jun 17 2010,"",1001,15000
Johnson & Johnson,"",Purchased,Jun  8 2010,"",1001,15000
Johnson & Johnson,"",Exchanged,Dec 28 2010,"",1001,15000
Joy Global Inc,"",Purchased,Dec 16 2010,"",1001,15000
Kellogg Co,"",Exchanged,Dec 20 2010,"",1001,15000
Kellogg Co,"",Purchased,Nov 18 2010,"",1001,15000
Kellogg Co,"",Exchanged,Dec 20 2010,"",1001,15000
Kroger Co,"",Exchanged,Mar 17 2010,"",1001,15000
Kroger Co,"",Exchanged,Mar 17 2010,"",1001,15000
Kroger Co,"",Exchanged,Mar 17 2010,"",1001,15000
Kroger Co,"",Exchanged,Mar 17 2010,"",1001,15000
Laboratory Corp of America,"",Exchanged,Oct 15 2010,"",1001,15000
Laboratory Corp of America,"",Exchanged,Oct 15 2010,"",1001,15000
Laboratory Corp of America,"",Exchanged,Oct 15 2010,"",1001,15000
Lincare Holdings,"",Exchanged,Oct 15 2010,"",1001,15000
Martin Marietta Materials,"",Purchased,Sep 27 2010,"",1001,15000
Martin Marietta Materials,"",Purchased,Dec 22 2010,"",1001,15000
Martin Marietta Materials,"",Purchased,Oct 15 2010,"",1001,15000
Medtronic Inc,"",Purchased,Apr 15 2010,"",1001,15000
Medtronic Inc,"",Exchanged,Dec 10 2010,"",1001,15000
Medtronic Inc,"",Purchased,Aug 24 2010,"",1001,15000
Medtronic Inc,"",Purchased,Aug 24 2010,"",1001,15000
Medtronic Inc,"",Purchased,Apr 15 2010,"",1001,15000
Medtronic Inc,"",Purchased,Jun  8 2010,"",1001,15000
Merck & Co,"",Purchased,Jun 21 2010,"",1001,15000
Metlife Inc,"",Exchanged,Apr 13 2010,"",1001,15000
Metlife Inc,"",Exchanged,Apr 13 2010,"",15001,50000
Metlife Inc,"",Exchanged,Apr 13 2010,"",1001,15000
Microsoft Corp,"",Purchased,Aug 18 2010,"",1001,15000
Microsoft Corp,"",Purchased,Apr 13 2010,"",1001,15000
Microsoft Corp,"",Purchased,Jul  9 2010,"",1001,15000
Microsoft Corp,"",Purchased,Dec 28 2010,"",1001,15000
Monsanto Co,"",Purchased,Mar 17 2010,"",1001,15000
Monsanto Co,"",Purchased,Mar 17 2010,"",1001,15000
Monsanto Co,"",Purchased,Mar 17 2010,"",1001,15000
Monsanto Co,"",Exchanged,Jun  8 2010,"",1001,15000
Monsanto Co,"",Exchanged,Jun  8 2010,"",1001,15000
Monsanto Co,"",Exchanged,Jun  8 2010,"",1001,15000
Monsanto Co,"",Exchanged,Jun  8 2010,"",1001,15000
Monster Worldwide,"",Exchanged,May  4 2010,"",1001,15000
Monster Worldwide,"",Exchanged,May  4 2010,"",1001,15000
Monster Worldwide,"",Exchanged,Apr  8 2010,"",1001,15000
Monster Worldwide,"",Exchanged,Apr  8 2010,"",1001,15000
Motorola Inc,"",Exchanged,Mar 22 2010,"",1001,15000
Motorola Inc,"",Exchanged,Mar 22 2010,"",1001,15000
Motorola Inc,"",Exchanged,Mar 22 2010,"",1001,15000
Newmont Mining,"",Exchanged,Mar 22 2010,"",15001,50000
Newmont Mining,"",Exchanged,Mar 17 2010,"",1001,15000
Newmont Mining,"",Exchanged,Jan 11 2010,"",1001,15000
Newmont Mining,"",Exchanged,Jun 21 2010,"",15001,50000
Newmont Mining,"",Purchased,Dec 22 2010,"",1001,15000
Nike Inc,"",Purchased,Dec 22 2010,"",1001,15000
Nike Inc,"",Purchased,Dec 20 2010,"",1001,15000
Nike Inc,"",Purchased,Dec 23 2010,"",1001,15000
Noble Corp,"",Exchanged,Aug 18 2010,"",1001,15000
Norfolk Southern,"",Purchased,Oct 15 2010,"",1001,15000
Norfolk Southern,"",Purchased,Dec 16 2010,"",1001,15000
Norfolk Southern,"",Purchased,Oct 25 2010,"",1001,15000
Novartis AG,"",Purchased,Oct 15 2010,"",1001,15000
Novartis AG,"",Purchased,Dec 22 2010,"",1001,15000
Novartis AG,"",Purchased,Oct 15 2010,"",1001,15000
Nuveen Va Dividend Advantage Muni Fund,"",Purchased,Jan 11 2010,"",1001,15000
Oakmark International Fund,"",Purchased,Dec 10 2010,"",1001,15000
Oakmark International Fund,"",Purchased,Dec 13 2010,"",1001,15000
Oakmark International Fund,"",Purchased,Dec 15 2010,"",1001,15000
Oppenheimer International Bond Fund,"",Purchased,Feb  8 2010,"",1001,15000
Oracle Corp,"",Purchased,Dec 20 2010,"",1001,15000
Parnassus Equity Income Fund,"",Purchased,Feb  8 2010,"",1001,15000
PepsiCo Inc,"",Purchased,May  1 2010,"",1001,15000
Permanent Portfolio Fund,"",Purchased,Dec 15 2010,"",1001,15000
Permanent Portfolio Fund,"",Purchased,Dec 13 2010,"",1001,15000
Permanent Portfolio Fund,"",Purchased,Dec 10 2010,"",1001,15000
Petroleo Brasileiro SA,"",Exchanged,Dec 20 2010,"",1001,15000
Pfizer Inc,"",Purchased,Dec 22 2010,"",1001,15000
Pfizer Inc,"",Purchased,Jun  8 2010,"",1001,15000
PIMCO GNMA Fund,"",Purchased,Feb  8 2010,"",1001,15000
Pimco Low Duration Fund,"",Purchased,Feb  8 2010,"",1001,15000
PIMCO RealReturn Fund,"",Purchased,Feb  8 2010,"",1001,15000
PIMCO RealReturn Fund,"",Purchased,Feb  8 2010,"",1001,15000
Pitney Bowes Inc,"",Exchanged,Apr 29 2010,"",1001,15000
Pitney Bowes Inc,"",Exchanged,Apr 29 2010,"",1001,15000
Praxair Inc,"",Purchased,Mar 22 2010,"",1001,15000
Praxair Inc,"",Purchased,Mar 22 2010,"",1001,15000
Praxair Inc,"",Purchased,Mar 22 2010,"",1001,15000
Procter & Gamble,"",Purchased,Apr 29 2010,"",1001,15000
Procter & Gamble,"",Purchased,Oct 25 2010,"",1001,15000
Prudential Financial,"",Purchased,Oct 25 2010,"",1001,15000
Prudential Financial,"",Purchased,Oct 25 2010,"",1001,15000
Prudential Financial,"",Purchased,Oct 25 2010,"",1001,15000
Prudential Financial,"",Purchased,Dec 22 2010,"",1001,15000
Prudential Financial,"",Purchased,Oct 25 2010,"",1001,15000
QEP Resources,"",Purchased,Oct 15 2010,"",1001,15000
Qualcomm Inc,"",Purchased,Jul  9 2010,"",1001,15000
Qualcomm Inc,"",Exchanged,Oct 25 2010,"",1001,15000
Qualcomm Inc,"",Exchanged,Oct 25 2010,"",1001,15000
Qualcomm Inc,"",Exchanged,Oct 25 2010,"",1001,15000
Qualcomm Inc,"",Purchased,May  4 2010,"",1001,15000
Qualcomm Inc,"",Purchased,Jun  8 2010,"",1001,15000
Qualcomm Inc,"",Purchased,Apr 13 2010,"",1001,15000
Qualcomm Inc,"",Purchased,Apr 13 2010,"",1001,15000
Qualcomm Inc,"",Purchased,Apr 13 2010,"",1001,15000
Questar Corp,"",Exchanged,Oct 15 2010,"",1001,15000
RESMED Inc,"",Purchased,Sep 27 2010,"",1001,15000
Royce Premier Fund,"",Purchased,Sep 27 2010,"",1001,15000
Royce Premier Fund,"",Purchased,Nov  8 2010,"",1001,15000
Royce Premier Fund,"",Purchased,Nov  8 2010,"",1001,15000
Royce Premier Fund,"",Purchased,Oct 15 2010,"",1001,15000
Royce Total Return Fund,"",Purchased,Feb  8 2010,"",1001,15000
Sempra Energy,"",Purchased,Apr  8 2010,"",1001,15000
Sempra Energy,"",Purchased,Apr  8 2010,"",1001,15000
Sempra Energy,"",Purchased,Jun 21 2010,"",1001,15000
Shanda Interactive Entertainment,"",Exchanged,Dec 13 2010,"",1001,15000
Sigma-Aldrich Corp,"",Purchased,Apr 15 2010,"",1001,15000
Sigma-Aldrich Corp,"",Purchased,May  4 2010,"",1001,15000
Sigma-Aldrich Corp,"",Purchased,Jun  8 2010,"",1001,15000
Sigma-Aldrich Corp,"",Purchased,Apr 15 2010,"",1001,15000
Sigma-Aldrich Corp,"",Purchased,Apr 15 2010,"",1001,15000
Sigma-Aldrich Corp,"",Exchanged,Nov  8 2010,"",1001,15000
SPDR Dow Jones Large Cap ETF,"",Purchased,Mar 22 2010,"",1001,15000
Stryker Corp,"",Exchanged,Dec 16 2010,"",1001,15000
Stryker Corp,"",Exchanged,Dec 16 2010,"",1001,15000
T Rowe Price Value Fund,"",Purchased,Feb  8 2010,"",1001,15000
Target Corp,"",Purchased,May  4 2010,"",1001,15000
Target Corp,"",Purchased,Dec 16 2010,"",1001,15000
Target Corp,"",Purchased,Oct 25 2010,"",1001,15000
Target Corp,"",Purchased,Oct 15 2010,"",1001,15000
Target Corp,"",Purchased,May  4 2010,"",1001,15000
Telefonica SA,"",Purchased,Dec 22 2010,"",1001,15000
Teva Pharmaceutical Industries,"",Purchased,Dec 22 2010,"",1001,15000
Teva Pharmaceutical Industries,"",Purchased,Aug 23 2010,"",1001,15000
Thermo Fisher Scientific,"",Purchased,Aug  2 2010,"",1001,15000
Thermo Fisher Scientific,"",Purchased,Dec 22 2010,"",1001,15000
Third Avenue Value Fund,"",Exchanged,Dec 20 2010,"",1001,15000
Third Avenue Value Fund,"",Exchanged,Dec 10 2010,"",1001,15000
Total SA,"",Purchased,Oct 15 2010,"",1001,15000
Travelers Companies,"",Purchased,Dec 16 2010,"",1001,15000
Travelers Companies,"",Purchased,Oct 15 2010,"",1001,15000
Travelers Companies,"",Purchased,Sep 27 2010,"",1001,15000
Travelers Companies,"",Purchased,Jul 29 2010,"",1001,15000
UBS Pace Money Market,"",Purchased,Feb  8 2010,"",1001,15000
Union Pacific Corp,"",Exchanged,Mar 17 2010,"",1001,15000
United Parcel Service,"",Purchased,Jun  8 2010,"",1001,15000
United Parcel Service,"",Purchased,Dec 20 2010,"",1001,15000
Van Kampen Equity Income Fund,"",Purchased,Feb  8 2010,"",1001,15000
Van Kampen Real Estate Sec Fund,"",Exchanged,Apr  8 2010,"",1001,15000
VF Corp,"",Purchased,Oct 15 2010,"",1001,15000
VF Corp,"",Purchased,Dec 20 2010,"",1001,15000
VF Corp,"",Purchased,Oct 25 2010,"",1001,15000
VF Corp,"",Purchased,Oct 15 2010,"",1001,15000
Virtus Emerging Markets Opportunity Fund,"",Purchased,Dec 10 2010,"",1001,15000
Virtus Emerging Markets Opportunity Fund,"",Purchased,Dec 15 2010,"",1001,15000
Virtus Emerging Markets Opportunity Fund,"",Purchased,Dec 13 2010,"",1001,15000
Virtus Mid Cap Value Fund,"",Purchased,Oct 15 2010,"",1001,15000
Virtus Mid Cap Value Fund,"",Purchased,Sep 27 2010,"",1001,15000
Virtus Mid Cap Value Fund,"",Purchased,Nov  8 2010,"",1001,15000
Virtus Mid Cap Value Fund,"",Purchased,Nov 12 2010,"",1001,15000
Virtus Real Estate Securities Fund,"",Purchased,Dec 13 2010,"",1001,15000
Virtus Real Estate Securities Fund,"",Purchased,Dec 15 2010,"",1001,15000
Virtus Real Estate Securities Fund,"",Purchased,Dec 10 2010,"",1001,15000
Wal-Mart Stores,"",Purchased,Oct 15 2010,"",1001,15000
Walgreen Co,"",Exchanged,Jun 16 2010,"",1001,15000
Walgreen Co,"",Exchanged,Jun 16 2010,"",1001,15000
Walgreen Co,"",Exchanged,Jun 16 2010,"",1001,15000
Walgreen Co,"",Purchased,Apr 16 2010,"",1001,15000
Walgreen Co,"",Purchased,Mar 22 2010,"",1001,15000
Walgreen Co,"",Purchased,Mar 22 2010,"",1001,15000
Walgreen Co,"",Purchased,Mar 22 2010,"",1001,15000
Walt Disney Co,"",Exchanged,Jul 29 2010,"",1001,15000
Walt Disney Co,"",Exchanged,Aug 23 2010,"",1001,15000
Walt Disney Co,"",Exchanged,Oct 25 2010,"",1001,15000
Walt Disney Co,"",Exchanged,Oct 25 2010,"",1001,15000
Walt Disney Co,"",Exchanged,Dec 22 2010,"",1001,15000
Walt Disney Co,"",Exchanged,Oct 25 2010,"",1001,15000
Walt Disney Co,"",Exchanged,Dec 22 2010,"",1001,15000
Weatherford International,"",Exchanged,Apr 22 2010,"",1001,15000
Western Digital,"",Purchased,Jul 29 2010,"",1001,15000
Western Digital,"",Purchased,Apr 29 2010,"",1001,15000
Western Digital,"",Purchased,May  4 2010,"",1001,15000
Western Digital,"",Exchanged,Oct 15 2010,"",1001,15000
Western Digital,"",Exchanged,Oct 15 2010,"",1001,15000
Western Digital,"",Purchased,May  4 2010,"",1001,15000
Western Digital,"",Exchanged,Oct 15 2010,"",1001,15000
Xilinx Inc,"",Purchased,Oct 15 2010,"",1001,15000
Xilinx Inc,"",Purchased,Jul 29 2010,"",1001,15000
Xilinx Inc,"",Purchased,Oct 15 2010,"",1001,15000
Xilinx Inc,"",Purchased,Oct 15 2010,"",1001,15000
Xilinx Inc,"",Purchased,Sep 27 2010,"",1001,15000
Xilinx Inc,"",Exchanged,Dec 28 2010,"",1001,15000
Xilinx Inc,"",Purchased,Oct 18 2010,"",1001,15000
Xilinx Inc,"",Exchanged,Dec 20 2010,"",1001,15000
Xilinx Inc,"",Exchanged,Dec 16 2010,"",1001,15000
Xilinx Inc,"",Purchased,Jul 29 2010,"",1001,15000
Xilinx Inc,"",Purchased,Jul 29 2010,"",1001,15000
