orgname,ultorg,action,date1,transnotes,minvalue,maxvalue
VIRGINIa STREET PROPERTY,"",Exchanged,Feb  1 2018 12:00AM,"","",""
VIRGINIa STREET PROPERTY,"",Sold,2/1/2018,"",100001,250000
VIRGINIa STREET PROPERTY,"",Sold,2/1/2018,"",100001,250000
