orgname,ultorg,action,date1,transnotes,minvalue,maxvalue
Allianz NFJ Dividend Value Fund,"",Sold,Jun  2 2009,"",1001,15000
Amana Trust Income Fund,"",Purchased,Jun  2 2009,"",1001,15000
American Funds Income Fund of America,"",Sold,Jun  2 2009,"",15001,50000
Calamos Growth & Income Fund,"",Sold,Jun  2 2009,"",1001,15000
Davis New York Venture Fund,"",Sold,Jun  2 2009,"",15001,50000
EuroPacific Growth Fund,"",Purchased,Jun  2 2009,"",15001,50000
Gateway Trust Index Plus Fund,"",Purchased,Jun  2 2009,"",1001,15000
Hartford Mid Cap Fund,"",Sold,Jun  2 2009,"",1001,15000
Ivy Funds Pacific Opportunities,"",Purchased,Jun  2 2009,"",1001,15000
JPMorgan Highbridge Stat Mkt Neut Fund,"",Purchased,Jun  2 2009,"",1001,15000
Lazard Emerging Markets Portfolio,"",Purchased,Jun  2 2009,"",1001,15000
Loomis Sayles II Bond Fund,"",Purchased,Jun  2 2009,"",1001,15000
Neuberger Berman Equity TR Socially Resp,"",Purchased,Jun  2 2009,"",15001,50000
Oppenheimer Global Fund,"",Sold,Jun  2 2009,"",15001,50000
PIMCO Total Return Fund,"",Purchased,Jun  2 2009,"",1001,15000
T Rowe Price Equity Income Fund,"",Sold,Jun  2 2009,"",1001,15000
