orgname,ultorg,action,date1,transnotes,minvalue,maxvalue
AllianceBernstein Intl Value Fund,"",Purchased,Jun 30 2009,"",50001,100000
AllianceBernstein Intl Value Fund,"",Purchased,Dec 31 2009,"",50001,100000
Bank of America,"",Purchased,Feb  6 2009,"",1001,15000
Bank of America,"",Purchased,Mar 27 2009,"",1001,15000
Bank of America,"",Purchased,Apr 16 2009,"",1001,15000
Bank of America,"",Purchased,Jun 11 2009,"",1001,15000
Bank of America,"",Purchased,Jun 26 2009,"",1001,15000
Bank of America,"",Purchased,Sep 25 2009,"",1001,15000
Bank of America,"",Purchased,Dec 24 2009,"",1001,15000
Fidelity International I Sep,"",Purchased,Jun 30 2009,"",50001,100000
Fidelity International I Sep,"",Purchased,Dec 31 2009,"",50001,100000
Franklin Adjustable US Govt Securities,"",Sold,Mar  2 2009,"",1001,15000
Franklin Mutual Discovery Fund,"",Purchased,"","",1001,15000
Franklin Rising Dividends Fund,"",Purchased,"","",1001,15000
Franklin Small Cap Fund,"",Purchased,"","",1001,15000
Hillsborough Fixed Account,"",Sold,Jun 18 2009,"",15001,50000
Prin Global Large Cap Stock Index,"",Purchased,Jun 30 2009,"",50001,100000
Prin Global Large Cap Stock Index,"",Purchased,Dec 31 2009,"",50001,100000
Principal Money Market,"",Purchased,Dec 31 2009,"",15001,50000
Principal Money Market,"",Sold,Jun 30 2009,"",100001,250000
T Rowe Price Capital Appreciation Fund,"",Purchased,"","",15001,50000
T Rowe Price Equity Index,"",Purchased,"","",15001,50000
T Rowe Price GNMA,"",Purchased,"","",15001,50000
T Rowe Price Inflation Protection Bond,"",Purchased,Oct 28 2009,"",1001,15000
T Rowe Price Inflation Protection Bond,"",Purchased,Nov  9 2009,"",1001,15000
T Rowe Price Inflation Protection Bond,"",Purchased,Nov 13 2009,"",1001,15000
T Rowe Price Inflation Protection Bond,"",Purchased,Dec  7 2009,"",1001,15000
T Rowe Price Large Cap Growth,"",Purchased,Jun 30 2009,"",50001,100000
T Rowe Price Large Cap Growth,"",Purchased,Dec 31 2009,"",50001,100000
T Rowe Price Money Market,"",Purchased,"","",50001,100000
T Rowe Price Money Market,"",Sold,"","",100001,250000
T Rowe Price Small Cap Stock Fund,"",Purchased,"","",15001,50000
Templeton Growth Fund,"",Purchased,"","",1001,15000
Vanguard 500 Index,"",Purchased,"","",1001,15000
Vanguard 500 Index 529,"",Purchased,"","",1001,15000
Vanguard Age Based Growth,"",Purchased,"","",1001,15000
Vanguard Inflation Protected Fund,"",Sold,May  5 2009,"",1001,15000
Vanguard Interest Accumulated,"",Sold,May  5 2009,"",1001,15000
Vanguard Total International Stock Fund,"",Purchased,"","",1001,15000
Verizon Communications,"",Purchased,Feb  2 2009,"",1001,15000
Verizon Communications,"",Purchased,May  1 2009,"",1001,15000
Verizon Communications,"",Purchased,Aug  3 2009,"",1001,15000
Verizon Communications,"",Purchased,Nov  2 2009,"",1001,15000
