orgname,ultorg,action,date1,transnotes,minvalue,maxvalue
ABB Ltd,"",Purchased,Aug 15 2008,"",1001,15000
Abercrombie & Fitch,"",Sold,Feb 22 2008,"",1001,15000
Accenture,"",Purchased,Jun 19 2008,"",1001,15000
American Express,"",Purchased,Mar  7 2008,"",1001,15000
American Express,"",Sold,Nov  7 2008,"",0,1000
American Express,"",Sold,Nov  7 2008,"",0,1000
American Express,"",Sold,Nov  7 2008,"",1001,15000
American International Group,"",Purchased,Feb 27 2008,"",1001,15000
American International Group,"",Sold,Aug  4 2008,"",1001,15000
American International Group,"",Sold,Aug  4 2008,"",0,1000
American International Group,"",Sold,Aug  4 2008,"",1001,15000
Apple Inc,"",Sold,Jul  1 2008,"",1001,15000
Apple Inc,"",Sold,Jan 10 2008,"",1001,15000
AT&T Inc,"",Sold,Jan 30 2008,"",15001,50000
AT&T Inc,"",Purchased,Oct 16 2008,"",1001,15000
Autodesk Inc,"",Sold,Jan 10 2008,"",1001,15000
Bank of America,"",Sold,Jun 19 2008,"",1001,15000
Berkshire Hathaway,"",Purchased,Oct 22 2008,"",1001,15000
BNSF Railway,"",Sold,Oct 29 2008,"",1001,15000
Brookfield Infrastructure Partners,"",Purchased,Jan 31 2008,"","",""
Brookfield Infrastructure Partners,"",Sold,Apr 21 2008,"","",""
Brookfield Infrastructure Partners,"",Sold,Apr  7 2008,"","",""
Capital One Financial,"",Sold,Sep 19 2008,"",0,1000
Capital One Financial,"",Sold,Sep 19 2008,"",1001,15000
Capital One Financial,"",Purchased,Mar 11 2008,"",1001,15000
Capital One Financial,"",Purchased,Aug 18 2008,"",1001,15000
CarMax Inc,"",Sold,Nov 11 2008,"",0,1000
Cisco Systems,"",Sold,Oct 23 2008,"",1001,15000
Citadel Broadcasting,"",Sold,Aug  8 2008,"","",""
Citadel Broadcasting,"",Sold,Apr 21 2008,"","",""
Devon Energy,"",Sold,Mar 14 2008,"",1001,15000
eBay Inc,"",Sold,Apr 21 2008,"",0,1000
eBay Inc,"",Sold,Apr 21 2008,"",0,1000
eBay Inc,"",Sold,Apr 21 2008,"",0,1000
EMC Corp,"",Sold,Nov 11 2008,"",1001,15000
Foster Wheeler,"",Purchased,Oct 29 2008,"",1001,15000
Genentech Inc,Roche Holdings,Purchased,Oct 16 2008,"",0,1000
Genentech Inc,Roche Holdings,Purchased,Jan  3 2008,"",1001,15000
General Electric,"",Sold,Sep 10 2008,"",1001,15000
Genworth Financial,"",Purchased,Jan 23 2008,"",1001,15000
Genworth Financial,"",Purchased,Jul 23 2008,"",1001,15000
Genworth Financial,"",Sold,Dec  5 2008,"",0,1000
GlaxoSmithKline,"",Purchased,Nov 19 2008,"",1001,15000
Google Inc,"",Purchased,Mar 11 2008,"",1001,15000
Intel Corp,"",Purchased,Sep 10 2008,"",1001,15000
Intel Corp,"",Purchased,Mar 27 2008,"",1001,15000
ITT Industries,"",Sold,Oct 25 2008,"",1001,15000
JPMorgan Chase & Co,"",Sold,Dec 10 2008,"",1001,15000
JPMorgan Chase & Co,"",Sold,Dec 10 2008,"",1001,15000
Kimberly-Clark Corp,"",Purchased,Dec 31 2008,"",1001,15000
Marathon Oil,"",Purchased,Sep 10 2008,"",1001,15000
Marathon Oil,"",Purchased,Jun  3 2008,"",1001,15000
Merrill Lynch,"",Purchased,Jun 17 2008,"",1001,15000
Merrill Lynch,"",Purchased,Feb 19 2008,"",1001,15000
Merrill Lynch,"",Sold,Sep  2 2008,"",0,1000
Merrill Lynch,"",Sold,Sep  2 2008,"",0,1000
Morgan Stanley,"",Sold,Oct 15 2008,"",0,1000
NASDAQ OMX Group,"",Purchased,Dec  8 2008,"",1001,15000
Northrop Grumman,"",Purchased,Dec 29 2008,"",1001,15000
Occidental Petroleum,"",Sold,Jan  7 2008,"",15001,50000
Occidental Petroleum,"",Purchased,Dec 10 2008,"",1001,15000
Occidental Petroleum,"",Sold,Mar  3 2008,"",1001,15000
Occidental Petroleum,"",Sold,Dec 11 2008,"",1001,15000
PepsiCo Inc,"",Sold,Jan  7 2008,"",1001,15000
Principal Financial,"",Sold,May 19 2008,"",1001,15000
Qualcomm Inc,"",Sold,Oct 23 2008,"",0,1000
Qualcomm Inc,"",Sold,Oct 23 2008,"",1001,15000
Sanofi,"",Purchased,Oct  6 2008,"",1001,15000
Schlumberger Ltd,"",Sold,Dec  9 2008,"",0,1000
Suncor Energy,"",Purchased,Nov 12 2008,"",1001,15000
Suncor Energy,"",Sold,Jun 25 2008,"",1001,15000
Time Warner,"",Sold,Jun 19 2008,"",1001,15000
Total SA,"",Purchased,Nov 25 2008,"",1001,15000
UnitedHealth Group,"",Purchased,Mar 27 2008,"",1001,15000
UnitedHealth Group,"",Sold,Jan 28 2008,"",1001,15000
US Bancorp,"",Sold,Oct  9 2008,"",1001,15000
US Bancorp,"",Purchased,May 19 2008,"",1001,15000
Wal-Mart Stores,"",Purchased,Oct 16 2008,"",1001,15000
Walt Disney Co,"",Sold,Jul  7 2008,"",1001,15000
Whole Foods Market,"",Sold,Jun 20 2008,"",1001,15000
Wyeth,"",Purchased,Oct 29 2008,"",1001,15000
Wynn Resorts,"",Sold,Sep 19 2008,"",1001,15000
