orgname,ultorg,action,date1,transnotes,minvalue,maxvalue
California Statewide CDA Water & Waste W,"",Sold,Oct  1 2010,"",1001,15000
Chino Calif Cmnty Facs Dist,"",Sold,Sep  1 2010,"",15001,50000
Gran Tierra Energy,"",Sold,Aug 27 2010,"",500001,1000000
Gran Tierra Energy,"",Sold,Aug 26 2010,"",50001,100000
"Lands Bend LLC/Lot 12 Gannon Point, De",Lands Bend LLC,Purchased,Jun 30 2010,"",50001,100000
"Lands Bend LLC/Lot 18, 61166 SE Geary",Lands Bend LLC,Sold,Jul 28 2010,"",100001,250000
"Lands Bend LLC/Lot 18, South Deerfield",Lands Bend LLC,Purchased,Jun 30 2010,"",50001,100000
Lands Bend LLC/Lot 19 South Deerfield P,Lands Bend LLC,Purchased,Jun 30 2010,"",100001,250000
"Lands Bend LLC/Lot 47, 60960 SE Miles",Lands Bend LLC,Sold,Oct 12 2010,"",100001,250000
"Lands Bend LLC/Lot47, South Deerfield",Lands Bend LLC,Purchased,Jun 30 2010,"",100001,250000
"LTB Improved Lot/12 Gannon Point, Deschu","",Sold,Jun 30 2010,"",50001,100000
LTB Improved Lots,"",Purchased,Mar 12 2010,"",1000001,5000000
"LTB Improved Lots 33-35, 37-38, 40-45, 4","",Purchased,Mar 27 2010,"",1000001,5000000
"LTB Improved Lots/18-19, 47, South De","",Sold,Jun 30 2010,"",250001,500000
"LTB Mirada II, NE 1/4 SW 1/4 of Section ","",Purchased,Apr 14 2010,"",500001,1000000
"LTB River Rim, Improved Lots, 371-371, 3","",Purchased,Mar 25 2010,"",500001,1000000
PFF Bancorp,"",Sold,Apr 22 2010,"",1001,15000
