orgname,ultorg,action,date1,transnotes,minvalue,maxvalue
$FZC: BHP BILLITON FIN USA LTD S,"",Exchanged,Jan  2 2018 12:00AM,"","",""
$FZC: BHP BILLITON FIN USA LTD S,"",Exchanged,Jan  2 2018 12:00AM,"","",""
$FZC: BHP BILLITON FIN USA LTD S,"",Sold,1/2/2018,"",100001,250000
$FZC: BHP BILLITON FIN USA LTD S,"",Sold,1/2/2018,"",100001,250000
$FZC: BHP BILLITON FIN USA LTD S,"",Sold,1/2/2018,"",100001,250000
$FZC: BHP BILLITON FIN USA LTD S,"",Sold,1/2/2018,"",100001,250000
BLOCK FINANCIAL CORP SR NOTE CLB,"",Sold,9/14/2018,"",15001,50000
BLOCK FINANCIAL CORP SR NOTE CLB,"",Sold,9/14/2018,"",15001,50000
BLOCK FINANCIAL CORP SR NOTE CLB,"",Sold,9/14/2018,"",15001,50000
BLOCK FINANCIAL CORP SR NOTE CLB,"",Sold,9/14/2018,"",15001,50000
BLOCK FINANCIAL CORP SR NOTE CLB,"",Exchanged,Sep 14 2018 12:00AM,"","",""
BLOCK FINANCIAL CORP SR NOTE CLB,"",Exchanged,Sep 14 2018 12:00AM,"","",""
CARLISLE COS INC SENIOR NOTE CALLABLE,"",Sold,Mar  6 2018 12:00AM,"","",""
CARLISLE COS INC SENIOR NOTE CALLABLE,"",Sold,Mar  6 2018 12:00AM,"","",""
CARLISLE COS INC SENIOR NOTE CALLABLE,"",Sold,Mar  6 2018 12:00AM,"","",""
CARLISLE COS INC SENIOR NOTE CALLABLE,"",Sold,Mar  6 2018 12:00AM,"","",""
CARLISLE COS INC SENIOR NOTE CALLABLE,"",Purchased,3/6/2018,"",1001,15000
CARLISLE COS INC SENIOR NOTE CALLABLE,"",Purchased,3/6/2018,"",1001,15000
CARLISLE COS INC SENIOR NOTE CALLABLE,"",Purchased,3/6/2018,"",1001,15000
CARLISLE COS INC SENIOR NOTE CALLABLE,"",Purchased,3/6/2018,"",1001,15000
CARLISLE COS INC SENIOR NOTE CALLABLE,"",Purchased,3/6/2018,"",1001,15000
CARLISLE COS INC SENIOR NOTE CALLABLE,"",Purchased,3/6/2018,"",1001,15000
CARLISLE COS INC SENIOR NOTE CALLABLE,"",Purchased,3/6/2018,"",1001,15000
CARLISLE COS INC SENIOR NOTE CALLABLE,"",Purchased,3/6/2018,"",1001,15000
Charles Rochester Jr Estate - Holdings,"",Sold,7/23/2018,"",250001,500000
Charles Rochester Jr Estate - Holdings,"",Exchanged,Jul 23 2018 12:00AM,"","",""
Charles Rochester Jr Estate - Holdings,"",Sold,7/23/2018,"",250001,500000
CHEVRON CORP SENIOR NOTE CALLABL,"",Sold,1/2/2018,"",100001,250000
CHEVRON CORP SENIOR NOTE CALLABL,"",Sold,1/2/2018,"",100001,250000
CHEVRON CORP SENIOR NOTE CALLABL,"",Exchanged,Jan  2 2018 12:00AM,"","",""
CHEVRON CORP SENIOR NOTE CALLABL,"",Exchanged,Jan  2 2018 12:00AM,"","",""
CHEVRON CORP SENIOR NOTE CALLABL,"",Sold,1/2/2018,"",100001,250000
CHEVRON CORP SENIOR NOTE CALLABL,"",Sold,1/2/2018,"",100001,250000
CINCINNATI FINANCIAL CORP Note,"",Purchased,3/2/2018,"",15001,50000
CINCINNATI FINANCIAL CORP Note,"",Purchased,3/2/2018,"",15001,50000
CINCINNATI FINANCIAL CORP Note,"",Purchased,3/2/2018,"",15001,50000
CINCINNATI FINANCIAL CORP Note,"",Purchased,3/2/2018,"",15001,50000
CINCINNATI FINANCIAL CORP Note,"",Sold,Mar  2 2018 12:00AM,"","",""
CINCINNATI FINANCIAL CORP Note,"",Sold,Mar  2 2018 12:00AM,"","",""
CINCINNATI FINANCIAL CORP SENIOR,"",Sold,Nov 30 2018 12:00AM,"","",""
CINCINNATI FINANCIAL CORP SENIOR,"",Sold,Nov 30 2018 12:00AM,"","",""
CINCINNATI FINANCIAL CORP SENIOR,"",Purchased,11/30/2018,"",50001,100000
CINCINNATI FINANCIAL CORP SENIOR,"",Purchased,11/30/2018,"",50001,100000
CINCINNATI FINANCIAL CORP SENIOR,"",Purchased,11/30/2018,"",50001,100000
CINCINNATI FINANCIAL CORP SENIOR,"",Purchased,11/30/2018,"",50001,100000
Cincinnatti Financial Corp,"",Purchased,3/2/2018,"",15001,50000
Cincinnatti Financial Corp,"",Purchased,3/2/2018,"",15001,50000
Cincinnatti Financial Corp,"",Purchased,3/2/2018,"",15001,50000
Cincinnatti Financial Corp,"",Purchased,3/2/2018,"",15001,50000
Cincinnatti Financial Corp,"",Sold,Mar  2 2018 12:00AM,"","",""
Cincinnatti Financial Corp,"",Sold,Mar  2 2018 12:00AM,"","",""
CVS Health Corp,"",Exchanged,Jan  2 2018 12:00AM,"","",""
CVS Health Corp,"",Exchanged,Jan  2 2018 12:00AM,"","",""
CVS Health Corp,"",Sold,1/2/2018,"",100001,250000
CVS Health Corp,"",Sold,1/2/2018,"",100001,250000
CVS Health Corp,"",Sold,1/2/2018,"",100001,250000
CVS Health Corp,"",Sold,1/2/2018,"",100001,250000
GOLDMAN SACHS Bank USA NY CD 3%,"",Purchased,5/30/2018,"",100001,250000
GOLDMAN SACHS Bank USA NY CD 3%,"",Purchased,5/30/2018,"",15001,50000
GOLDMAN SACHS Bank USA NY CD 3%,"",Purchased,5/30/2018,"",100001,250000
GOLDMAN SACHS Bank USA NY CD 3%,"",Purchased,5/30/2018,"",15001,50000
GOLDMAN SACHS Bank USA NY CD 3%,"",Purchased,5/30/2018,"",15001,50000
GOLDMAN SACHS Bank USA NY CD 3%,"",Purchased,5/30/2018,"",100001,250000
GOLDMAN SACHS Bank USA NY CD 3%,"",Purchased,5/30/2018,"",15001,50000
GOLDMAN SACHS Bank USA NY CD 3%,"",Purchased,5/30/2018,"",15001,50000
GOLDMAN SACHS Bank USA NY CD 3%,"",Purchased,5/30/2018,"",15001,50000
GOLDMAN SACHS Bank USA NY CD 3%,"",Purchased,5/30/2018,"",15001,50000
GOLDMAN SACHS Bank USA NY CD 3%,"",Purchased,5/30/2018,"",15001,50000
GOLDMAN SACHS Bank USA NY CD 3%,"",Purchased,5/30/2018,"",100001,250000
GOLDMAN SACHS Bank USA NY CD 3%,"",Sold,May 30 2018 12:00AM,"","",""
GOLDMAN SACHS Bank USA NY CD 3%,"",Sold,May 30 2018 12:00AM,"","",""
GOLDMAN SACHS Bank USA NY CD 3%,"",Sold,May 30 2018 12:00AM,"","",""
GOLDMAN SACHS Bank USA NY CD 3%,"",Sold,May 30 2018 12:00AM,"","",""
GOLDMAN SACHS Bank USA NY CD 3%,"",Sold,May 30 2018 12:00AM,"","",""
GOLDMAN SACHS Bank USA NY CD 3%,"",Sold,May 30 2018 12:00AM,"","",""
GOLDMAN SACHS BK USA NY CD 3% 06/07/2021,"",Sold,May 30 2018 12:00AM,"","",""
GOLDMAN SACHS BK USA NY CD 3% 06/07/2021,"",Sold,May 30 2018 12:00AM,"","",""
GOLDMAN SACHS BK USA NY CD 3% 06/07/2021,"",Purchased,5/30/2018,"",15001,50000
GOLDMAN SACHS BK USA NY CD 3% 06/07/2021,"",Purchased,5/30/2018,"",15001,50000
GOLDMAN SACHS BK USA NY CD 3% 06/07/2021,"",Purchased,5/30/2018,"",15001,50000
GOLDMAN SACHS BK USA NY CD 3% 06/07/2021,"",Purchased,5/30/2018,"",15001,50000
HCP INC SENIOR NOTE CALLABLE M/W,"",Sold,1/2/2018,"",50001,100000
HCP INC SENIOR NOTE CALLABLE M/W,"",Sold,1/2/2018,"",50001,100000
HCP INC SENIOR NOTE CALLABLE M/W,"",Exchanged,Jan  2 2018 12:00AM,"","",""
HCP INC SENIOR NOTE CALLABLE M/W,"",Exchanged,Jan  2 2018 12:00AM,"","",""
HCP INC SENIOR NOTE CALLABLE M/W,"",Sold,1/2/2018,"",50001,100000
HCP INC SENIOR NOTE CALLABLE M/W,"",Sold,1/2/2018,"",50001,100000
Hess Corp,"",Sold,2/15/2018,"",15001,50000
Hess Corp,"",Sold,2/15/2018,"",15001,50000
Hess Corp,"",Exchanged,Feb 15 2018 12:00AM,"","",""
Hess Corp,"",Exchanged,Feb 15 2018 12:00AM,"","",""
Hess Corp,"",Sold,2/15/2018,"",15001,50000
Hess Corp,"",Sold,2/15/2018,"",15001,50000
iShares 1-3 Year Credit Bond ETF,"",Purchased,5/10/2018,"",50001,100000
iShares 1-3 Year Credit Bond ETF,"",Purchased,5/16/2018,"",1001,15000
iShares 1-3 Year Credit Bond ETF,"",Purchased,5/10/2018,"",15001,50000
iShares 1-3 Year Credit Bond ETF,"",Purchased,5/10/2018,"",50001,100000
iShares 1-3 Year Credit Bond ETF,"",Purchased,5/10/2018,"",15001,50000
iShares 1-3 Year Credit Bond ETF,"",Purchased,5/10/2018,"",50001,100000
iShares 1-3 Year Credit Bond ETF,"",Purchased,5/16/2018,"",1001,15000
iShares 1-3 Year Credit Bond ETF,"",Purchased,5/16/2018,"",1001,15000
iShares 1-3 Year Credit Bond ETF,"",Sold,May 10 2018 12:00AM,"","",""
iShares 1-3 Year Credit Bond ETF,"",Sold,May 10 2018 12:00AM,"","",""
iShares 1-3 Year Credit Bond ETF,"",Sold,May 16 2018 12:00AM,"","",""
iShares 1-3 Year Credit Bond ETF,"",Sold,May 16 2018 12:00AM,"","",""
iShares 1-3 Year Credit Bond ETF,"",Sold,May 10 2018 12:00AM,"","",""
iShares 1-3 Year Credit Bond ETF,"",Sold,May 10 2018 12:00AM,"","",""
iShares 1-3 Year Credit Bond ETF,"",Purchased,5/16/2018,"",1001,15000
iShares 1-3 Year Credit Bond ETF,"",Purchased,5/10/2018,"",15001,50000
iShares 1-3 Year Credit Bond ETF,"",Purchased,5/10/2018,"",15001,50000
iShares 1-3 Year Credit Bond ETF,"",Purchased,5/10/2018,"",50001,100000
iShares 1-3 Year Treasury Bond ETF,"",Purchased,12/13/2018,"",15001,50000
iShares 1-3 Year Treasury Bond ETF,"",Purchased,12/13/2018,"",15001,50000
iShares 1-3 Year Treasury Bond ETF,"",Sold,Dec 13 2018 12:00AM,"","",""
iShares 1-3 Year Treasury Bond ETF,"",Sold,Dec 13 2018 12:00AM,"","",""
iShares 1-3 Year Treasury Bond ETF,"",Purchased,12/13/2018,"",15001,50000
iShares 1-3 Year Treasury Bond ETF,"",Purchased,12/13/2018,"",15001,50000
iShares Cohen & Steers Reit ETF,"",Purchased,1/3/2018,"",15001,50000
iShares Cohen & Steers Reit ETF,"",Purchased,1/3/2018,"",15001,50000
iShares Cohen & Steers Reit ETF,"",Sold,4/6/2018,"",15001,50000
iShares Cohen & Steers Reit ETF,"",Sold,10/12/2018,"",15001,50000
iShares Cohen & Steers Reit ETF,"",Sold,10/12/2018,"",100001,250000
iShares Cohen & Steers Reit ETF,"",Sold,4/6/2018,"",15001,50000
iShares Cohen & Steers Reit ETF,"",Sold,10/12/2018,"",15001,50000
iShares Cohen & Steers Reit ETF,"",Sold,10/12/2018,"",100001,250000
iShares Cohen & Steers Reit ETF,"",Sold,Jan  3 2018 12:00AM,"","",""
iShares Cohen & Steers Reit ETF,"",Exchanged,Apr  6 2018 12:00AM,"","",""
iShares Cohen & Steers Reit ETF,"",Exchanged,Oct 12 2018 12:00AM,"","",""
iShares Cohen & Steers Reit ETF,"",Sold,Jan  3 2018 12:00AM,"","",""
iShares Cohen & Steers Reit ETF,"",Purchased,1/3/2018,"",15001,50000
iShares Cohen & Steers Reit ETF,"",Exchanged,Apr  6 2018 12:00AM,"","",""
iShares Cohen & Steers Reit ETF,"",Exchanged,Oct 12 2018 12:00AM,"","",""
iShares Cohen & Steers Reit ETF,"",Exchanged,Oct 12 2018 12:00AM,"","",""
iShares Cohen & Steers Reit ETF,"",Exchanged,Oct 12 2018 12:00AM,"","",""
iShares Cohen & Steers Reit ETF,"",Sold,4/6/2018,"",15001,50000
iShares Cohen & Steers Reit ETF,"",Purchased,1/3/2018,"",15001,50000
iShares Cohen & Steers Reit ETF,"",Sold,10/12/2018,"",15001,50000
iShares Cohen & Steers Reit ETF,"",Sold,10/12/2018,"",100001,250000
iShares Cohen & Steers Reit ETF,"",Sold,10/12/2018,"",15001,50000
iShares Cohen & Steers Reit ETF,"",Sold,4/6/2018,"",15001,50000
iShares Cohen & Steers Reit ETF,"",Sold,10/12/2018,"",100001,250000
iShares Core S&P Mid Cap ETF,"",Sold,4/26/2018,"",15001,50000
iShares Core S&P Mid Cap ETF,"",Sold,4/26/2018,"",15001,50000
iShares Core S&P Mid Cap ETF,"",Purchased,8/16/2018,"",15001,50000
iShares Core S&P Mid Cap ETF,"",Purchased,8/28/2018,"",1001,15000
iShares Core S&P Mid Cap ETF,"",Purchased,8/28/2018,"",1001,15000
iShares Core S&P Mid Cap ETF,"",Purchased,8/16/2018,"",15001,50000
iShares Core S&P Mid Cap ETF,"",Purchased,1/3/2018,"",100001,250000
iShares Core S&P Mid Cap ETF,"",Purchased,8/3/2018,"",100001,250000
iShares Core S&P Mid Cap ETF,"",Sold,Aug 16 2018 12:00AM,"","",""
iShares Core S&P Mid Cap ETF,"",Sold,Aug 28 2018 12:00AM,"","",""
iShares Core S&P Mid Cap ETF,"",Sold,Aug 28 2018 12:00AM,"","",""
iShares Core S&P Mid Cap ETF,"",Sold,Jan  3 2018 12:00AM,"","",""
iShares Core S&P Mid Cap ETF,"",Sold,Aug  3 2018 12:00AM,"","",""
iShares Core S&P Mid Cap ETF,"",Sold,Jan  3 2018 12:00AM,"","",""
iShares Core S&P Mid Cap ETF,"",Sold,Aug  3 2018 12:00AM,"","",""
iShares Core S&P Mid Cap ETF,"",Sold,Aug 16 2018 12:00AM,"","",""
iShares Core S&P Mid Cap ETF,"",Sold,4/26/2018,"",15001,50000
iShares Core S&P Mid Cap ETF,"",Sold,4/26/2018,"",15001,50000
iShares Core S&P Mid Cap ETF,"",Purchased,1/3/2018,"",100001,250000
iShares Core S&P Mid Cap ETF,"",Purchased,8/3/2018,"",100001,250000
iShares Core S&P Mid Cap ETF,"",Purchased,8/16/2018,"",15001,50000
iShares Core S&P Mid Cap ETF,"",Purchased,8/28/2018,"",1001,15000
iShares Core S&P Mid Cap ETF,"",Purchased,1/3/2018,"",100001,250000
iShares Core S&P Mid Cap ETF,"",Purchased,8/3/2018,"",100001,250000
iShares Core S&P Mid Cap ETF,"",Purchased,1/3/2018,"",100001,250000
iShares Core S&P Mid Cap ETF,"",Purchased,8/3/2018,"",100001,250000
iShares Core S&P Mid Cap ETF,"",Purchased,8/28/2018,"",1001,15000
iShares Core S&P Mid Cap ETF,"",Purchased,8/16/2018,"",15001,50000
iShares Core S&P Small Cap ETF,"",Purchased,1/3/2018,"",15001,50000
iShares Core S&P Small Cap ETF,"",Purchased,1/3/2018,"",15001,50000
iShares Core S&P Small Cap ETF,"",Sold,12/19/2018,"",15001,50000
iShares Core S&P Small Cap ETF,"",Sold,12/19/2018,"",100001,250000
iShares Core S&P Small Cap ETF,"",Sold,12/19/2018,"",15001,50000
iShares Core S&P Small Cap ETF,"",Sold,4/6/2018,"",15001,50000
iShares Core S&P Small Cap ETF,"",Sold,10/4/2018,"",1001,15000
iShares Core S&P Small Cap ETF,"",Sold,8/28/2018,"",1001,15000
iShares Core S&P Small Cap ETF,"",Sold,3/1/2018,"",1001,15000
iShares Core S&P Small Cap ETF,"",Sold,4/6/2018,"",15001,50000
iShares Core S&P Small Cap ETF,"",Sold,10/4/2018,"",1001,15000
iShares Core S&P Small Cap ETF,"",Sold,12/19/2018,"",100001,250000
iShares Core S&P Small Cap ETF,"",Sold,8/28/2018,"",1001,15000
iShares Core S&P Small Cap ETF,"",Sold,3/1/2018,"",1001,15000
iShares Core S&P Small Cap ETF,"",Sold,Jan  3 2018 12:00AM,"","",""
iShares Core S&P Small Cap ETF,"",Exchanged,Dec 19 2018 12:00AM,"","",""
iShares Core S&P Small Cap ETF,"",Sold,Jan  3 2018 12:00AM,"","",""
iShares Core S&P Small Cap ETF,"",Purchased,1/3/2018,"",15001,50000
iShares Core S&P Small Cap ETF,"",Purchased,1/3/2018,"",15001,50000
iShares Core S&P Small Cap ETF,"",Exchanged,Dec 19 2018 12:00AM,"","",""
iShares Core S&P Small Cap ETF,"",Exchanged,Dec 19 2018 12:00AM,"","",""
iShares Core S&P Small Cap ETF,"",Exchanged,Dec 19 2018 12:00AM,"","",""
iShares Core S&P Small Cap ETF,"",Sold,4/6/2018,"",15001,50000
iShares Core S&P Small Cap ETF,"",Sold,4/6/2018,"",15001,50000
iShares Core S&P Small Cap ETF,"",Sold,10/4/2018,"",1001,15000
iShares Core S&P Small Cap ETF,"",Sold,8/28/2018,"",1001,15000
iShares Core S&P Small Cap ETF,"",Sold,3/1/2018,"",1001,15000
iShares Core S&P Small Cap ETF,"",Sold,12/19/2018,"",100001,250000
iShares Core S&P Small Cap ETF,"",Sold,10/4/2018,"",1001,15000
iShares Core S&P Small Cap ETF,"",Sold,8/28/2018,"",1001,15000
iShares Core S&P Small Cap ETF,"",Sold,3/1/2018,"",1001,15000
iShares Core S&P Small Cap ETF,"",Sold,12/19/2018,"",15001,50000
iShares Core S&P Small Cap ETF,"",Sold,12/19/2018,"",100001,250000
iShares Core S&P Small Cap ETF,"",Sold,12/19/2018,"",15001,50000
Ishares Core US Aggregate Bond ETF,"",Sold,5/10/2018,"",15001,50000
Ishares Core US Aggregate Bond ETF,"",Sold,5/10/2018,"",15001,50000
Ishares Core US Aggregate Bond ETF,"",Sold,3/1/2018,"",1001,15000
Ishares Core US Aggregate Bond ETF,"",Sold,5/16/2018,"",1001,15000
Ishares Core US Aggregate Bond ETF,"",Sold,3/1/2018,"",1001,15000
Ishares Core US Aggregate Bond ETF,"",Sold,5/16/2018,"",1001,15000
Ishares Core US Aggregate Bond ETF,"",Sold,5/10/2018,"",50001,100000
Ishares Core US Aggregate Bond ETF,"",Sold,4/6/2018,"",50001,100000
Ishares Core US Aggregate Bond ETF,"",Sold,5/10/2018,"",50001,100000
Ishares Core US Aggregate Bond ETF,"",Sold,4/6/2018,"",50001,100000
Ishares Core US Aggregate Bond ETF,"",Exchanged,May 10 2018 12:00AM,"","",""
Ishares Core US Aggregate Bond ETF,"",Purchased,1/3/2018,"",50001,100000
Ishares Core US Aggregate Bond ETF,"",Sold,Jan  3 2018 12:00AM,"","",""
Ishares Core US Aggregate Bond ETF,"",Exchanged,May 10 2018 12:00AM,"","",""
Ishares Core US Aggregate Bond ETF,"",Sold,Jan  3 2018 12:00AM,"","",""
Ishares Core US Aggregate Bond ETF,"",Sold,3/1/2018,"",1001,15000
Ishares Core US Aggregate Bond ETF,"",Sold,3/1/2018,"",1001,15000
Ishares Core US Aggregate Bond ETF,"",Sold,5/16/2018,"",1001,15000
Ishares Core US Aggregate Bond ETF,"",Sold,5/10/2018,"",50001,100000
Ishares Core US Aggregate Bond ETF,"",Sold,4/6/2018,"",50001,100000
Ishares Core US Aggregate Bond ETF,"",Sold,5/10/2018,"",15001,50000
Ishares Core US Aggregate Bond ETF,"",Sold,5/10/2018,"",15001,50000
Ishares Core US Aggregate Bond ETF,"",Purchased,1/3/2018,"",50001,100000
Ishares Core US Aggregate Bond ETF,"",Sold,5/10/2018,"",50001,100000
Ishares Core US Aggregate Bond ETF,"",Sold,4/6/2018,"",50001,100000
Ishares Core US Aggregate Bond ETF,"",Purchased,1/3/2018,"",50001,100000
Ishares Core US Aggregate Bond ETF,"",Sold,5/16/2018,"",1001,15000
Ishares Core US Aggregate Bond ETF,"",Purchased,1/3/2018,"",50001,100000
iShares Gold Trust ETF,"",Purchased,8/16/2018,"",1001,15000
iShares Gold Trust ETF,"",Purchased,8/3/2018,"",15001,50000
iShares Gold Trust ETF,"",Purchased,1/3/2018,"",15001,50000
iShares Gold Trust ETF,"",Purchased,8/16/2018,"",1001,15000
iShares Gold Trust ETF,"",Purchased,8/3/2018,"",15001,50000
iShares Gold Trust ETF,"",Purchased,1/3/2018,"",15001,50000
iShares Gold Trust ETF,"",Sold,4/6/2018,"",1001,15000
iShares Gold Trust ETF,"",Sold,4/6/2018,"",1001,15000
iShares Gold Trust ETF,"",Sold,Aug  3 2018 12:00AM,"","",""
iShares Gold Trust ETF,"",Sold,Jan  3 2018 12:00AM,"","",""
iShares Gold Trust ETF,"",Sold,Aug 16 2018 12:00AM,"","",""
iShares Gold Trust ETF,"",Sold,Aug  3 2018 12:00AM,"","",""
iShares Gold Trust ETF,"",Sold,Jan  3 2018 12:00AM,"","",""
iShares Gold Trust ETF,"",Sold,Aug 16 2018 12:00AM,"","",""
iShares Gold Trust ETF,"",Purchased,8/3/2018,"",15001,50000
iShares Gold Trust ETF,"",Purchased,1/3/2018,"",15001,50000
iShares Gold Trust ETF,"",Purchased,8/16/2018,"",1001,15000
iShares Gold Trust ETF,"",Purchased,8/3/2018,"",15001,50000
iShares Gold Trust ETF,"",Purchased,1/3/2018,"",15001,50000
iShares Gold Trust ETF,"",Purchased,8/16/2018,"",1001,15000
iShares Gold Trust ETF,"",Sold,4/6/2018,"",1001,15000
iShares Gold Trust ETF,"",Sold,4/6/2018,"",1001,15000
ISHARES INTRM TR CRP ETF (IGIB),"",Sold,12/13/2018,"",15001,50000
ISHARES INTRM TR CRP ETF (IGIB),"",Sold,12/13/2018,"",15001,50000
ISHARES INTRM TR CRP ETF (IGIB),"",Sold,12/13/2018,"",15001,50000
ISHARES INTRM TR CRP ETF (IGIB),"",Sold,12/13/2018,"",15001,50000
ISHARES INTRMD CR BD ETF (CIU),"",Sold,3/1/2018,"",1001,15000
ISHARES INTRMD CR BD ETF (CIU),"",Sold,3/1/2018,"",1001,15000
ISHARES INTRMD CR BD ETF (CIU),"",Exchanged,Mar  1 2018 12:00AM,"","",""
ISHARES INTRMD CR BD ETF (CIU),"",Exchanged,Mar  1 2018 12:00AM,"","",""
ISHARES INTRMD CR BD ETF (CIU),"",Sold,3/1/2018,"",1001,15000
ISHARES INTRMD CR BD ETF (CIU),"",Sold,3/1/2018,"",1001,15000
iShares MBS ETF,"",Sold,4/26/2018,"",1001,15000
iShares MBS ETF,"",Sold,1/2/2018,"",100001,250000
iShares MBS ETF,"",Sold,4/26/2018,"",1001,15000
iShares MBS ETF,"",Sold,1/2/2018,"",100001,250000
iShares MBS ETF,"",Purchased,8/16/2018,"",50001,100000
iShares MBS ETF,"",Purchased,8/3/2018,"",100001,250000
iShares MBS ETF,"",Sold,Aug 16 2018 12:00AM,"","",""
iShares MBS ETF,"",Sold,Aug  3 2018 12:00AM,"","",""
iShares MBS ETF,"",Sold,Aug 16 2018 12:00AM,"","",""
iShares MBS ETF,"",Sold,Aug  3 2018 12:00AM,"","",""
iShares MBS ETF,"",Purchased,8/16/2018,"",50001,100000
iShares MBS ETF,"",Purchased,8/3/2018,"",100001,250000
iShares MBS ETF,"",Sold,1/2/2018,"",100001,250000
iShares MBS ETF,"",Sold,4/26/2018,"",1001,15000
iShares MBS ETF,"",Sold,4/26/2018,"",1001,15000
iShares MBS ETF,"",Purchased,8/16/2018,"",50001,100000
iShares MBS ETF,"",Purchased,8/3/2018,"",100001,250000
iShares MBS ETF,"",Sold,1/2/2018,"",100001,250000
iShares MBS ETF,"",Purchased,8/16/2018,"",50001,100000
iShares MBS ETF,"",Purchased,8/3/2018,"",100001,250000
ISHARES RUS 1000 ETF (IWB),"",Purchased,1/3/2018,"",100001,250000
ISHARES RUS 1000 ETF (IWB),"",Purchased,1/3/2018,"",100001,250000
ISHARES RUS 1000 ETF (IWB),"",Sold,4/26/2018,"",1001,15000
ISHARES RUS 1000 ETF (IWB),"",Sold,4/26/2018,"",1001,15000
ISHARES RUS 1000 ETF (IWB),"",Purchased,1/3/2018,"",100001,250000
ISHARES RUS 1000 ETF (IWB),"",Sold,Jan  3 2018 12:00AM,"","",""
ISHARES RUS 1000 ETF (IWB),"",Sold,Jan  3 2018 12:00AM,"","",""
ISHARES RUS 1000 ETF (IWB),"",Purchased,1/3/2018,"",100001,250000
ISHARES RUS 1000 ETF (IWB),"",Sold,4/26/2018,"",1001,15000
ISHARES RUS 1000 ETF (IWB),"",Sold,4/26/2018,"",1001,15000
ISHARES SH TR CRPORT ETF (IGSB),"",Sold,11/30/2018,"",50001,100000
ISHARES SH TR CRPORT ETF (IGSB),"",Sold,11/30/2018,"",50001,100000
ISHARES SH TR CRPORT ETF (IGSB),"",Exchanged,Nov 30 2018 12:00AM,"","",""
ISHARES SH TR CRPORT ETF (IGSB),"",Exchanged,Nov 30 2018 12:00AM,"","",""
ISHARES SH TR CRPORT ETF (IGSB),"",Sold,11/30/2018,"",50001,100000
ISHARES SH TR CRPORT ETF (IGSB),"",Sold,11/30/2018,"",50001,100000
LYB International FINANCE BV SENIOR NOTE,"",Purchased,2/22/2018,"",15001,50000
LYB International FINANCE BV SENIOR NOTE,"",Purchased,2/22/2018,"",15001,50000
LYB International FINANCE BV SENIOR NOTE,"",Purchased,2/22/2018,"",15001,50000
LYB International FINANCE BV SENIOR NOTE,"",Purchased,2/22/2018,"",15001,50000
LYB International FINANCE BV SENIOR NOTE,"",Sold,Feb 22 2018 12:00AM,"","",""
LYB International FINANCE BV SENIOR NOTE,"",Sold,Feb 22 2018 12:00AM,"","",""
MOODY'S CORP SENIOR MED TERM NOT,"",Exchanged,Jan  2 2018 12:00AM,"","",""
MOODY'S CORP SENIOR MED TERM NOT,"",Exchanged,Jan  2 2018 12:00AM,"","",""
MOODY'S CORP SENIOR MED TERM NOT,"",Sold,1/2/2018,"",100001,250000
MOODY'S CORP SENIOR MED TERM NOT,"",Sold,1/2/2018,"",100001,250000
MOODY'S CORP SENIOR MED TERM NOT,"",Sold,1/2/2018,"",100001,250000
MOODY'S CORP SENIOR MED TERM NOT,"",Sold,1/2/2018,"",100001,250000
NVR INC SENIOR NOTE CALLABLE M/W,"",Sold,1/2/2018,"",100001,250000
NVR INC SENIOR NOTE CALLABLE M/W,"",Sold,1/2/2018,"",100001,250000
NVR INC SENIOR NOTE CALLABLE M/W,"",Sold,1/2/2018,"",100001,250000
NVR INC SENIOR NOTE CALLABLE M/W,"",Sold,1/2/2018,"",100001,250000
NVR INC SENIOR NOTE CALLABLE M/W,"",Exchanged,Jan  2 2018 12:00AM,"","",""
NVR INC SENIOR NOTE CALLABLE M/W,"",Exchanged,Jan  2 2018 12:00AM,"","",""
SPDR DoubleLine Total Return Tac,"",Sold,1/2/2018,"",100001,250000
SPDR DoubleLine Total Return Tac,"",Sold,1/2/2018,"",100001,250000
SPDR DoubleLine Total Return Tac,"",Sold,1/2/2018,"",100001,250000
SPDR DoubleLine Total Return Tac,"",Sold,1/2/2018,"",100001,250000
SPDR FTSE BLOOMBERG BRCLYS HI YL,"",Purchased,8/3/2018,"",1001,15000
SPDR FTSE BLOOMBERG BRCLYS HI YL,"",Purchased,1/3/2018,"",15001,50000
SPDR FTSE BLOOMBERG BRCLYS HI YL,"",Purchased,1/3/2018,"",15001,50000
SPDR FTSE BLOOMBERG BRCLYS HI YL,"",Purchased,8/3/2018,"",1001,15000
SPDR FTSE BLOOMBERG BRCLYS HI YL,"",Purchased,1/3/2018,"",15001,50000
SPDR FTSE BLOOMBERG BRCLYS HI YL,"",Purchased,8/3/2018,"",1001,15000
SPDR FTSE BLOOMBERG BRCLYS HI YL,"",Purchased,1/3/2018,"",15001,50000
SPDR FTSE BLOOMBERG BRCLYS HI YL,"",Purchased,8/3/2018,"",1001,15000
SPDR FTSE BLOOMBERG BRCLYS HI YL,"",Sold,Jan  3 2018 12:00AM,"","",""
SPDR FTSE BLOOMBERG BRCLYS HI YL,"",Sold,Jan  3 2018 12:00AM,"","",""
SPDR FTSE BLOOMBERG BRCLYS HI YL,"",Sold,Aug  3 2018 12:00AM,"","",""
SPDR FTSE BLOOMBERG BRCLYS HI YL,"",Sold,Aug  3 2018 12:00AM,"","",""
SPDR SERIES TRUST BLOOMBERG BRCL,"",Sold,4/26/2018,"",1001,15000
SPDR SERIES TRUST BLOOMBERG BRCL,"",Sold,4/26/2018,"",1001,15000
SPDR SERIES TRUST BLOOMBERG BRCL,"",Sold,4/26/2018,"",1001,15000
SPDR SERIES TRUST BLOOMBERG BRCL,"",Sold,4/26/2018,"",1001,15000
SPDR TR S&P 500 ETF TR (SPY),"",Sold,4/26/2018,"",1001,15000
SPDR TR S&P 500 ETF TR (SPY),"",Sold,4/26/2018,"",1001,15000
SPDR TR S&P 500 ETF TR (SPY),"",Sold,10/4/2018,"",15001,50000
SPDR TR S&P 500 ETF TR (SPY),"",Sold,10/4/2018,"",15001,50000
SPDR TR S&P 500 ETF TR (SPY),"",Sold,4/26/2018,"",1001,15000
SPDR TR S&P 500 ETF TR (SPY),"",Sold,10/4/2018,"",15001,50000
SPDR TR S&P 500 ETF TR (SPY),"",Sold,4/26/2018,"",1001,15000
SPDR TR S&P 500 ETF TR (SPY),"",Sold,10/4/2018,"",15001,50000
SPDR TR S&P 500 ETF TR (SPY),"",Purchased,1/3/2018,"",100001,250000
SPDR TR S&P 500 ETF TR (SPY),"",Purchased,8/16/2018,"",1001,15000
SPDR TR S&P 500 ETF TR (SPY),"",Purchased,4/6/2018,"",15001,50000
SPDR TR S&P 500 ETF TR (SPY),"",Purchased,1/3/2018,"",100001,250000
SPDR TR S&P 500 ETF TR (SPY),"",Purchased,4/6/2018,"",15001,50000
SPDR TR S&P 500 ETF TR (SPY),"",Purchased,8/16/2018,"",1001,15000
SPDR TR S&P 500 ETF TR (SPY),"",Purchased,1/3/2018,"",100001,250000
SPDR TR S&P 500 ETF TR (SPY),"",Sold,Aug 16 2018 12:00AM,"","",""
SPDR TR S&P 500 ETF TR (SPY),"",Sold,Jan  3 2018 12:00AM,"","",""
SPDR TR S&P 500 ETF TR (SPY),"",Sold,Aug 16 2018 12:00AM,"","",""
SPDR TR S&P 500 ETF TR (SPY),"",Sold,Apr  6 2018 12:00AM,"","",""
SPDR TR S&P 500 ETF TR (SPY),"",Sold,Apr  6 2018 12:00AM,"","",""
SPDR TR S&P 500 ETF TR (SPY),"",Sold,Jan  3 2018 12:00AM,"","",""
SPDR TR S&P 500 ETF TR (SPY),"",Purchased,8/16/2018,"",1001,15000
SPDR TR S&P 500 ETF TR (SPY),"",Purchased,4/6/2018,"",15001,50000
SPDR TR S&P 500 ETF TR (SPY),"",Purchased,1/3/2018,"",100001,250000
SPDR TR S&P 500 ETF TR (SPY),"",Purchased,8/16/2018,"",1001,15000
SPDR TR S&P 500 ETF TR (SPY),"",Purchased,4/6/2018,"",15001,50000
STARBUCKS CORP SENIOR NOTE CALLA,"",Purchased,9/6/2018,"",15001,50000
STARBUCKS CORP SENIOR NOTE CALLA,"",Purchased,9/6/2018,"",15001,50000
STARBUCKS CORP SENIOR NOTE CALLA,"",Sold,Sep  6 2018 12:00AM,"","",""
STARBUCKS CORP SENIOR NOTE CALLA,"",Sold,Sep  6 2018 12:00AM,"","",""
STARBUCKS CORP SENIOR NOTE CALLA,"",Purchased,9/6/2018,"",15001,50000
STARBUCKS CORP SENIOR NOTE CALLA,"",Purchased,9/6/2018,"",15001,50000
Thermo Fisher Scientific,"",Purchased,9/17/2018,"",15001,50000
Thermo Fisher Scientific,"",Purchased,9/17/2018,"",15001,50000
Thermo Fisher Scientific,"",Sold,Sep 17 2018 12:00AM,"","",""
Thermo Fisher Scientific,"",Sold,Sep 17 2018 12:00AM,"","",""
Thermo Fisher Scientific,"",Purchased,9/17/2018,"",15001,50000
Thermo Fisher Scientific,"",Purchased,9/17/2018,"",15001,50000
VANGUARD FTSE DEV Market ETF (VEA),"",Sold,5/29/2018,"",15001,50000
VANGUARD FTSE DEV Market ETF (VEA),"",Sold,4/26/2018,"",15001,50000
VANGUARD FTSE DEV Market ETF (VEA),"",Sold,4/6/2018,"",15001,50000
VANGUARD FTSE DEV Market ETF (VEA),"",Sold,5/29/2018,"",250001,500000
VANGUARD FTSE DEV Market ETF (VEA),"",Sold,4/26/2018,"",15001,50000
VANGUARD FTSE DEV Market ETF (VEA),"",Sold,4/6/2018,"",15001,50000
VANGUARD FTSE DEV Market ETF (VEA),"",Sold,5/29/2018,"",250001,500000
VANGUARD FTSE DEV Market ETF (VEA),"",Sold,5/29/2018,"",15001,50000
VANGUARD FTSE DEV Market ETF (VEA),"",Purchased,8/16/2018,"",15001,50000
VANGUARD FTSE DEV Market ETF (VEA),"",Purchased,8/16/2018,"",15001,50000
VANGUARD FTSE DEV Market ETF (VEA),"",Purchased,12/28/2018,"",15001,50000
VANGUARD FTSE DEV Market ETF (VEA),"",Purchased,12/28/2018,"",100001,250000
VANGUARD FTSE DEV Market ETF (VEA),"",Purchased,1/3/2018,"",100001,250000
VANGUARD FTSE DEV Market ETF (VEA),"",Purchased,12/28/2018,"",15001,50000
VANGUARD FTSE DEV Market ETF (VEA),"",Sold,Dec 28 2018 12:00AM,"","",""
VANGUARD FTSE DEV Market ETF (VEA),"",Sold,Aug 16 2018 12:00AM,"","",""
VANGUARD FTSE DEV Market ETF (VEA),"",Sold,Dec 28 2018 12:00AM,"","",""
VANGUARD FTSE DEV Market ETF (VEA),"",Sold,Jan  3 2018 12:00AM,"","",""
VANGUARD FTSE DEV Market ETF (VEA),"",Sold,Aug 16 2018 12:00AM,"","",""
VANGUARD FTSE DEV Market ETF (VEA),"",Sold,Dec 28 2018 12:00AM,"","",""
VANGUARD FTSE DEV Market ETF (VEA),"",Sold,Dec 28 2018 12:00AM,"","",""
VANGUARD FTSE DEV Market ETF (VEA),"",Sold,Jan  3 2018 12:00AM,"","",""
VANGUARD FTSE DEV Market ETF (VEA),"",Purchased,12/28/2018,"",100001,250000
VANGUARD FTSE DEV Market ETF (VEA),"",Purchased,1/3/2018,"",100001,250000
VANGUARD FTSE DEV Market ETF (VEA),"",Sold,4/26/2018,"",15001,50000
VANGUARD FTSE DEV Market ETF (VEA),"",Sold,4/6/2018,"",15001,50000
VANGUARD FTSE DEV Market ETF (VEA),"",Sold,5/29/2018,"",250001,500000
VANGUARD FTSE DEV Market ETF (VEA),"",Sold,5/29/2018,"",15001,50000
VANGUARD FTSE DEV Market ETF (VEA),"",Sold,4/26/2018,"",15001,50000
VANGUARD FTSE DEV Market ETF (VEA),"",Sold,4/6/2018,"",15001,50000
VANGUARD FTSE DEV Market ETF (VEA),"",Purchased,8/16/2018,"",15001,50000
VANGUARD FTSE DEV Market ETF (VEA),"",Sold,5/29/2018,"",250001,500000
VANGUARD FTSE DEV Market ETF (VEA),"",Purchased,12/28/2018,"",100001,250000
VANGUARD FTSE DEV Market ETF (VEA),"",Purchased,1/3/2018,"",100001,250000
VANGUARD FTSE DEV Market ETF (VEA),"",Purchased,12/28/2018,"",15001,50000
VANGUARD FTSE DEV Market ETF (VEA),"",Purchased,8/16/2018,"",15001,50000
VANGUARD FTSE DEV Market ETF (VEA),"",Sold,5/29/2018,"",15001,50000
VANGUARD FTSE DEV Market ETF (VEA),"",Purchased,12/28/2018,"",100001,250000
VANGUARD FTSE DEV Market ETF (VEA),"",Purchased,1/3/2018,"",100001,250000
VANGUARD FTSE DEV Market ETF (VEA),"",Purchased,12/28/2018,"",15001,50000
VANGUARD FTSE EMR Market ETF (VWO),"",Purchased,1/3/2018,"",50001,100000
VANGUARD FTSE EMR Market ETF (VWO),"",Purchased,8/16/2018,"",15001,50000
VANGUARD FTSE EMR Market ETF (VWO),"",Purchased,1/3/2018,"",50001,100000
VANGUARD FTSE EMR Market ETF (VWO),"",Purchased,8/16/2018,"",15001,50000
VANGUARD FTSE EMR Market ETF (VWO),"",Purchased,1/3/2018,"",50001,100000
VANGUARD FTSE EMR Market ETF (VWO),"",Sold,Jan  3 2018 12:00AM,"","",""
VANGUARD FTSE EMR Market ETF (VWO),"",Sold,Aug 16 2018 12:00AM,"","",""
VANGUARD FTSE EMR Market ETF (VWO),"",Sold,Jan  3 2018 12:00AM,"","",""
VANGUARD FTSE EMR Market ETF (VWO),"",Sold,Aug 16 2018 12:00AM,"","",""
VANGUARD FTSE EMR Market ETF (VWO),"",Purchased,1/3/2018,"",50001,100000
VANGUARD FTSE EMR Market ETF (VWO),"",Purchased,8/16/2018,"",15001,50000
VANGUARD FTSE EMR Market ETF (VWO),"",Purchased,8/16/2018,"",15001,50000
