orgname,ultorg,action,date1,transnotes,minvalue,maxvalue
3M Co,"",Exchanged,Nov  2 2018 12:00AM,"","",""
3M Co,"",Sold,11/2/2018,"",1001,15000
3M Co,"",Sold,11/2/2018,"",1001,15000
Alibaba Group,"",Sold,12/19/2018,"",1001,15000
Alibaba Group,"",Purchased,11/2/2018,"",1001,15000
Alibaba Group,"",Purchased,11/2/2018,"",1001,15000
Alibaba Group,"",Sold,12/19/2018,"",1001,15000
Alibaba Group,"",Sold,Nov  2 2018 12:00AM,"","",""
Alibaba Group,"",Exchanged,Dec 19 2018 12:00AM,"","",""
Celgene Corp,"",Exchanged,Aug 30 2018 12:00AM,"","",""
Celgene Corp,"",Sold,8/30/2018,"",1001,15000
Celgene Corp,"",Sold,8/30/2018,"",1001,15000
Chubb Ltd,"",Purchased,11/2/2018,"",1001,15000
Chubb Ltd,"",Sold,Nov  2 2018 12:00AM,"","",""
Chubb Ltd,"",Purchased,11/2/2018,"",1001,15000
City National Rochdale Corporate Bond Fund,"",Sold,8/29/2018,"",1001,15000
City National Rochdale Corporate Bond Fund,"",Sold,8/29/2018,"",1001,15000
City National Rochdale Fixed Income Opportunities,"",Sold,8/29/2018,"",1001,15000
City National Rochdale Fixed Income Opportunities,"",Sold,8/29/2018,"",1001,15000
City National Rochdale Government Bond Fund Serv,"",Sold,8/29/2018,"",1001,15000
City National Rochdale Government Bond Fund Serv,"",Sold,8/29/2018,"",1001,15000
Comerica Inc,"",Purchased,11/2/2018,"",1001,15000
Comerica Inc,"",Purchased,11/2/2018,"",1001,15000
Comerica Inc,"",Sold,Nov  2 2018 12:00AM,"","",""
Ecolab Inc,"",Sold,11/2/2018,"",1001,15000
Ecolab Inc,"",Exchanged,Nov  2 2018 12:00AM,"","",""
Ecolab Inc,"",Sold,11/2/2018,"",1001,15000
Eli Lilly & Co,"",Sold,8/30/2018,"",1001,15000
Eli Lilly & Co,"",Exchanged,Aug 30 2018 12:00AM,"","",""
Eli Lilly & Co,"",Sold,8/30/2018,"",1001,15000
General Mills,"",Sold,8/30/2018,"",1001,15000
General Mills,"",Exchanged,Aug 30 2018 12:00AM,"","",""
General Mills,"",Sold,8/30/2018,"",1001,15000
GlaxoSmithKline plc,"",Sold,8/30/2018,"",1001,15000
GlaxoSmithKline plc,"",Exchanged,Aug 30 2018 12:00AM,"","",""
GlaxoSmithKline plc,"",Sold,8/30/2018,"",1001,15000
Gramercy Property Trust (GPT),"",Sold,8/30/2018,"",1001,15000
Gramercy Property Trust (GPT),"",Exchanged,Aug 30 2018 12:00AM,"","",""
Gramercy Property Trust (GPT),"",Sold,8/30/2018,"",1001,15000
Lennox International,"",Sold,8/30/2018,"",1001,15000
Lennox International,"",Exchanged,Aug 30 2018 12:00AM,"","",""
Lennox International,"",Sold,8/30/2018,"",1001,15000
Lofgren Family Trust/Tesla Inc (TSLA),"",Exchanged,Sep 21 2018 12:00AM,"","",""
LTC Properties Inc,"",Sold,6/13/2018,"",1001,15000
LTC Properties Inc,"",Sold,6/13/2018,"",1001,15000
LTC Properties Inc,"",Exchanged,Jun 13 2018 12:00AM,"","",""
PPL Corp,"",Exchanged,Aug 30 2018 12:00AM,"","",""
PPL Corp,"",Sold,8/30/2018,"",1001,15000
PPL Corp,"",Sold,8/30/2018,"",1001,15000
Prudential Financial,"",Purchased,3/16/2018,"",1001,15000
Prudential Financial,"",Sold,Mar 16 2018 12:00AM,"","",""
Prudential Financial,"",Purchased,3/16/2018,"",1001,15000
Starbucks Corp,"",Sold,8/7/2018,"",1001,15000
Starbucks Corp,"",Exchanged,Aug  7 2018 12:00AM,"","",""
Starbucks Corp,"",Sold,8/7/2018,"",1001,15000
Tesla Inc,"",Sold,9/21/2018,"",15001,50000
Tesla Inc,"",Sold,9/21/2018,"",15001,50000
Texas Instruments,"",Sold,11/2/2018,"",1001,15000
Texas Instruments,"",Exchanged,Nov  2 2018 12:00AM,"","",""
Texas Instruments,"",Sold,11/2/2018,"",1001,15000
Truist Financial,"",Purchased,3/16/2018,"",1001,15000
Truist Financial,"",Purchased,3/16/2018,"",1001,15000
Truist Financial,"",Sold,Mar 16 2018 12:00AM,"","",""
US Bancorp (USB),"",Sold,8/30/2018,"",1001,15000
US Bancorp (USB),"",Exchanged,Aug 30 2018 12:00AM,"","",""
US Bancorp (USB),"",Sold,8/30/2018,"",1001,15000
Vulcan Materials,"",Sold,8/30/2018,"",1001,15000
Vulcan Materials,"",Exchanged,Aug 30 2018 12:00AM,"","",""
Vulcan Materials,"",Sold,8/30/2018,"",1001,15000
WarnerMedia Group,"",Exchanged,6/15/2018,"",1001,15000
WarnerMedia Group,"",Exchanged,6/15/2018,"",1001,15000
