orgname,ultorg,action,date1,transnotes,minvalue,maxvalue
MA Aggressive Growth,"",Sold,01/09/2018,Sale (Partial); Institution: Fidelity Investments,1001,15000
MA Aggressive Growth,"",Sold,07/02/2018,Sale (Partial); Institution: Fidelity Investments,1001,15000
MA Aggressive Growth,"",Sold,11/01/2018,Sale (Full); Institution: Fidelity Investments,15001,50000
MA Aggressive Growth,"",Sold,01/09/2018,Sale (Partial); Institution: Fidelity Investments,1001,15000
MA Aggressive Growth,"",Sold,07/02/2018,Sale (Partial); Institution: Fidelity Investments,1001,15000
MA Aggressive Growth,"",Sold,11/01/2018,Sale (Full); Institution: Fidelity Investments,15001,50000
MA College Portfolio,"",Sold,11/01/2018,Sale (Partial); Institution: Fidelity Investments,1001,15000
MA College Portfolio,"",Purchased,11/01/2018,Institution: Fidelity Investments,50001,100000
MA College Portfolio,"",Sold,07/02/2018,Sale (Partial); Institution: Fidelity Investments,1001,15000
MA College Portfolio,"",Sold,01/09/2018,Sale (Partial); Institution: Fidelity Investments,1001,15000
MA College Portfolio,"",Sold,11/01/2018,Sale (Partial); Institution: Fidelity Investments,1001,15000
MA College Portfolio,"",Purchased,11/01/2018,Institution: Fidelity Investments,50001,100000
MA College Portfolio,"",Sold,07/02/2018,Sale (Partial); Institution: Fidelity Investments,1001,15000
MA College Portfolio,"",Sold,01/09/2018,Sale (Partial); Institution: Fidelity Investments,1001,15000
MA Moderate Growth,"",Sold,07/02/2018,Sale (Partial); Institution: Fidelity Investments,1001,15000
MA Moderate Growth,"",Sold,01/09/2018,Sale (Partial); Institution: Fidelity Investments,1001,15000
MA Moderate Growth,"",Sold,07/02/2018,Sale (Partial); Institution: Fidelity Investments,1001,15000
MA Moderate Growth,"",Sold,01/09/2018,Sale (Partial); Institution: Fidelity Investments,1001,15000
MA Moderate Growth,"",Sold,11/01/2018,Sale (Full); Institution: Fidelity Investments,15001,50000
MA Moderate Growth,"",Sold,11/01/2018,Sale (Full); Institution: Fidelity Investments,15001,50000
Pennsylvania 529 Guaranteed Savings Plan,"",Sold,12/26/2018,Sale (Partial); Institution: Pennsylvania 529,1001,15000
Pennsylvania 529 Guaranteed Savings Plan,"",Sold,12/26/2018,Sale (Partial); Institution: Pennsylvania 529,1001,15000
