orgname,ultorg,action,date1,transnotes,minvalue,maxvalue
Anheuser-Busch Inbev,"",Sold,May  3 2013,"",1001,15000
Anheuser-Busch Inbev,"",Sold,Jul 24 2013,"",1001,15000
Apple Inc,"",Sold,Feb  4 2013,"",1001,15000
Bank of America,"",Sold,Aug 15 2013,"",1001,15000
Coca-Cola Co,"",Sold,Jun 27 2013,"",1001,15000
Danone,"",Purchased,Jul 25 2013,"",1001,15000
Hancock Holding Co,"",Sold,Feb  7 2013,"",1001,15000
HCP Inc,"",Purchased,Aug 16 2013,"",1001,15000
HCP Inc,"",Sold,Oct  3 2013,"",1001,15000
HSBC Holdings,"",Purchased,Oct 17 2013,"",1001,15000
JPMorgan Chase & Co,"",Sold,Jun  5 2013,"",1001,15000
LVMH Moet Hennessy,"",Purchased,May  3 2013,"",1001,15000
M&T Bank,"",Purchased,Jan 28 2013,"",1001,15000
M&T Bank,"",Purchased,Oct  4 2013,"",1001,15000
Nextera Energy,"",Sold,Jan 28 2013,"",1001,15000
Nextera Energy,"",Sold,Jan 28 2013,"",1001,15000
Nextera Energy,"",Sold,Feb  7 2013,"",1001,15000
Nielson Holdings NV,"",Purchased,Jun  5 2013,"",1001,15000
Nielson Holdings NV,"",Purchased,Aug 20 2013,"",1001,15000
PepsiCo Inc,"",Sold,Jun 27 2013,"",1001,15000
Potash Corp,"",Sold,Jun  5 2013,"",1001,15000
Procter & Gamble,"",Sold,May  3 2013,"",1001,15000
Procter & Gamble,"",Sold,Jun 27 2013,"",1001,15000
SAP AG,"",Purchased,Jun 27 2013,"",1001,15000
Sirona Dental Systems,"",Purchased,Aug  2 2013,"",1001,15000
Spectra Energy,"",Sold,Jun  5 2013,"",1001,15000
Spectra Energy,"",Sold,Jul 31 2013,"",1001,15000
Wells Fargo,"",Purchased,Jun  5 2013,"",1001,15000
WP Carey & Co,"",Purchased,Feb  7 2013,"",1001,15000
WP Carey & Co,"",Sold,Jun  5 2013,"",1001,15000
Zoetis Inc,Pfizer Inc,Purchased,Feb  4 2013,"",1001,15000
Zoetis Inc,Pfizer Inc,Purchased,Feb  7 2013,"",1001,15000
Zoetis Inc,Pfizer Inc,Purchased,Jul 31 2013,"",1001,15000
