orgname,ultorg,action,date1,transnotes,minvalue,maxvalue
"Farm Buildings, Alexander, Iowa","",Sold,Sep  1 2011,"",100001,250000
"Modderman Farm, Alexander, Iowa","",Sold,Sep  1 2011,"",500001,1000000
