orgname,ultorg,action,date1,transnotes,minvalue,maxvalue
Brokerage 11,"",Sold,various,"",250001,500000
Brokerage 11,"",Purchased,various,"",50001,100000
Fidelity IRA,"",Purchased,various,"",15001,50000
Fidelity IRA,"",Sold,various,"",50001,100000
Fidelity IRA,"",Purchased,various,"",1001,15000
Fidelity IRA,"",Sold,various,"",1001,15000
Mellon Paul for John Warner,"",Sold,various,"",1001,15000
Painting,"",Sold,May  8 2008,"",1001,15000
Painting,"",Sold,Dec 19 2008,"",15001,50000
Painting,"",Sold,Jan 14 2008,"",1001,15000
