orgname,ultorg,action,date1,transnotes,minvalue,maxvalue
Absolute Strategies Fund,"",Purchased,Qtrly Purchase,"",1001,15000
Antares Pharm,"",Purchased,Jun 29 2010,"",15001,50000
Aquila Three Peaks,"",Purchased,Qtrly Purchase,"",1001,15000
Aquila Three Peaks,"",Sold,Mar  8 2010,"",1001,15000
Aquila Three Peaks,"",Sold,Aug 16 2010,"",1001,15000
Artio International Equity Fund,"",Sold,Dec 23 2010,"",1001,15000
Artio International Equity Fund,"",Purchased,Qtrly Purchase,"",1001,15000
Artio Total Return Bond Fund,"",Sold,Jan 28 2010,"",15001,50000
Artio Total Return Bond Fund,"",Purchased,Jan 28 2010,"",15001,50000
Artio Total Return Bond Fund,"",Sold,Mar  8 2010,"",15001,50000
Artio Total Return Bond Fund,"",Sold,Aug 16 2010,"",15001,50000
Aston River Rd Select Val,"",Sold,Mar  8 2010,"",1001,15000
Aston River Rd Select Val,"",Sold,Dec 23 2010,"",1001,15000
Basin Water,"",Sold,Dec  3 2010,"","",""
Blackboard Inc,"",Sold,Jun 29 2010,"",1001,15000
Blackboard Inc,"",Sold,Jun 29 2010,"",100001,250000
Blackrock Inflation Protected Bond Fund,"",Purchased,Qtrly Purchase,"",1001,15000
Cabela's Inc,"",Sold,Mar  1 2010,"",15001,50000
Calamos Market Neutral Fund,"",Purchased,Qtrly Purchase,"",1001,15000
Cepheid Inc (Partial Sale),"",Sold,Jun 29 2010,"",50001,100000
Champlain Small Co (Partial),"",Sold,Mar  8 2010,"",1001,15000
Champlain Small Co (Partial),"",Sold,Dec 23 2010,"",1001,15000
Cohen & Steers Quality,"",Purchased,Mar  1 2010,"",1001,15000
Compuware Corp,"",Sold,Dec  3 2010,"",1001,15000
Danaher Corp,"",Purchased,Mar  1 2010,"",1001,15000
Diamond Large Cap,"",Sold,Mar  8 2010,"",1001,15000
Diamond Large Cap,"",Sold,Dec 23 2010,"",1001,15000
Dodge & Cox Global,"",Purchased,Qtrly Purchase,"",1001,15000
Dodge & Cox Global (Partial),"",Sold,Dec 23 2010,"",1001,15000
Doubleline Total Rtn,"",Purchased,Aug 16 2010,"",15001,50000
Doubleline Total Rtn,"",Purchased,Dec 23 2010,"",15001,50000
Federated Capital,"",Sold,Monthly,"",100001,250000
Hartford Financial Services,"",Purchased,Jul 19 2010,"",100001,250000
Hartford Financial Services,"",Purchased,May 24 2010,"",100001,250000
Hartford Financial Services,"",Sold,Aug 23 2010,"",100001,250000
Hartford Financial Services,"",Sold,Jun 21 2010,"",100001,250000
Hartford Puts,"",Purchased,Monthly,"",1001,15000
Hartford Puts,"",Sold,Monthly,"",15001,50000
Janus Money Market,"",Purchased,Qtrly Purchase,"",1001,15000
John Hancock Reg Bank,"",Purchased,Div Reinv,"",15001,50000
Marsico Global Fund,"",Sold,Aug 16 2010,"",1001,15000
Marsico Global Fund,"",Sold,Dec 23 2010,"",1001,15000
Martek Bioscience,"",Purchased,Jun 29 2010,"",50001,100000
Martek Bioscience,"",Purchased,Sep 27 2010,"",50001,100000
Martek Bioscience,"",Sold,Dec 22 2010,"",50001,100000
Martek Bioscience,"",Sold,Dec 28 2010,"",50001,100000
Mead Johnson,"",Purchased,Jun 29 2010,"",100001,250000
Mead Johnson,"",Purchased,Aug  6 2010,"",100001,250000
Mead Johnson,"",Sold,Dec  8 2010,"",50001,100000
Mead Johnson,"",Sold,Dec 15 2010,"",50001,100000
Mead Johnson,"",Purchased,Jun 28 2010,"",15001,50000
Mead Johnson,"",Purchased,Sep 22 2010,"",15001,50000
Met West Total Return Fund,"",Purchased,Qtrly Purchase,"",1001,15000
Met West Total Return Fund,"",Sold,Mar  8 2010,"",15001,50000
Met West Total Return Fund,"",Sold,Aug 16 2010,"",15001,50000
Nuance Communications,"",Sold,Sep 27 2010,"",50001,100000
Nuance Communications,"",Purchased,Sep 27 2010,"",1001,15000
Oakmark International Fund,"",Sold,Aug 16 2010,"",1001,15000
Oakmark International Fund,"",Sold,Dec 23 2010,"",1001,15000
Pimco Commodity Real Return Strategy Fnd,"",Purchased,Qtrly Purchase,"",1001,15000
Pimco Developing Local Markets Fund,"",Sold,Aug 16 2010,"","",""
Pimco Pac Invt,"",Purchased,Dec  8 2010,"",100001,250000
Pimco Pac Invt,"",Purchased,Dec 15 2010,"",100001,250000
PIMCO RealReturn Fund,"",Purchased,Qtrly Purchase,"",1001,15000
PIMCO RealReturn Fund,"",Sold,Mar  8 2010,"",15001,50000
PIMCO RealReturn Fund,"",Sold,Aug 16 2010,"",15001,50000
PIMCO RealReturn Fund,"",Sold,Dec 23 2010,"",15001,50000
Primecap Odyssey,"",Purchased,Mar  8 2010,"",1001,15000
Primecap Odyssey,"",Purchased,Aug 16 2010,"",1001,15000
Primecap Odyssey,"",Sold,Dec 23 2010,"",1001,15000
Templeton Global Bond Fund,"",Purchased,Mar  8 2010,"",15001,50000
Templeton Global Bond Fund,"",Purchased,Dec 23 2010,"",15001,50000
Templeton Global Bond Fund,"",Sold,Aug 16 2010,"",1001,15000
Third Ave Real Estate,"",Purchased,Qtrly Purchase,"",1001,15000
Trinity Industries,"",Sold,Jun 29 2010,"",15001,50000
Union Bank of California,"",Purchased,Oct 22 2010,"",100001,250000
Universal Display Corp,"",Sold,Aug  6 2010,"",100001,250000
Universal Display Corp,"",Sold,Jun 29 2010,"",100001,250000
Universal Display Corp,"",Sold,Dec  8 2010,"",100001,250000
US Treasury Notes,"",Sold,Mar 15 2010,"",15001,50000
Wi-Lan Inc,"",Purchased,Dec 15 2010,"",50001,100000
Wisdomtree Mid cap,"",Purchased,Mar  1 2010,"",15001,50000
Xerox Corp,"",Purchased,Jun 29 2010,"",100001,250000
Xerox Corp,"",Purchased,Aug  6 2010,"",100001,250000
Xerox Corp,"",Purchased,Jun 28 2010,"",1001,15000
Xerox Corp,"",Purchased,Dec  3 2010,"",1001,15000
