orgname,ultorg,action,date1,transnotes,minvalue,maxvalue
CREF Money Market,"",Purchased,Var,"",1001,15000
CREF Money Market,"",Purchased,Var,"",1001,15000
Lifecycle 2015,"",Purchased,Var,"",15001,50000
Lifecycle 2015,"",Sold,Var,"",500001,1000000
PIMCO Total Return Fund,"",Purchased,Var,"",1001,15000
TIAA-CREF CREF Stock Retirement,"",Sold,Var,"",1001,15000
TIAA-CREF TIAA Traditional Retirement,"",Sold,Var,"",1001,15000
