orgname,ultorg,action,date1,transnotes,minvalue,maxvalue
Alliance Bank/CD,"",Purchased,Nov 14 2008,"",50001,100000
Banco Stander/CD,"",Purchased,Nov 14 2008,"",50001,100000
Bloomfield State Bank/CD,"",Purchased,Nov 14 2008,"",50001,100000
First Federal Bank of California/CD,"",Purchased,Nov 14 2008,"",50001,100000
PIMCO Commodity RealReturn Strategy Fund,"",Purchased,Nov  6 2008,"",1001,15000
PIMCO Commodity RealReturn Strategy Fund,"",Purchased,Oct  6 2008,"",1001,15000
Vanguard 500 Index,"",Purchased,Dec 16 2008,"",50001,100000
Vanguard Emerging Markets ETF,"",Purchased,Nov  6 2008,"",1001,15000
Vanguard Emerging Markets ETF,"",Purchased,Oct  6 2008,"",1001,15000
Vanguard European Stock Index Fund,"",Purchased,Nov  6 2008,"",1001,15000
Vanguard European Stock Index Fund,"",Purchased,Oct  6 2008,"",1001,15000
Vanguard Inflation Protected Fund,"",Purchased,Oct  6 2008,"",15001,50000
Vanguard Inflation Protected Fund,"",Purchased,Nov  6 2008,"",15001,50000
Vanguard Intermediate Term,"",Purchased,Nov  6 2008,"",15001,50000
Vanguard Intermediate Term,"",Purchased,Oct  6 2008,"",15001,50000
Vanguard Large Cap Index,"",Sold,Dec 16 2008,"",50001,100000
Vanguard Large Cap Index,"",Purchased,Oct  6 2008,"",15001,50000
Vanguard Large Cap Index,"",Purchased,Nov  6 2008,"",15001,50000
Vanguard Limited Term Fund,"",Purchased,Oct  6 2008,"",1001,15000
Vanguard Limited Term Fund,"",Purchased,Nov  6 2008,"",1001,15000
Vanguard Mid Cap Index,"",Purchased,Oct  6 2008,"",1001,15000
Vanguard Mid Cap Index,"",Purchased,Nov  6 2008,"",1001,15000
Vanguard Pacific Stock Index,"",Purchased,Nov  6 2008,"",1001,15000
Vanguard Pacific Stock Index,"",Purchased,Oct  6 2008,"",1001,15000
Vanguard REIT Index,"",Purchased,Oct  6 2008,"",1001,15000
Vanguard REIT Index,"",Purchased,Nov  6 2008,"",1001,15000
Vanguard Small Cap Stock Fund,"",Purchased,Oct  6 2008,"",1001,15000
Vanguard Small Cap Stock Fund,"",Purchased,Nov  6 2008,"",1001,15000
