orgname,ultorg,action,date1,transnotes,minvalue,maxvalue
Beam Inc,"",Sold,Jan  3 2012,"",1001,15000
Constellation Brands,"",Sold,Jan  3 2012,"",1001,15000
Fidelity Cash Reserves Fund,"",Purchased,Nov 28 2012,"",15001,50000
Fidelity Grade Bond Fund,"",Sold,Apr 12 2012,"",1001,15000
Fidelity Grade Bond Fund,"",Sold,Sep 17 2012,"",0,1000
Fidelity Grade Bond Fund,"",Sold,Sep 11 2012,"",1001,15000
Fidelity Select Money Market,"",Sold,Sep 17 2012,"",0,1000
Fidelity Total Bond Index,"",Sold,Sep 17 2012,"",0,1000
Fidelity Total Bond Index,"",Sold,Sep 11 2012,"",1001,15000
Fidelity Total Bond Index,"",Sold,Apr 12 2012,"",1001,15000
Fortune Brands,"",Sold,Jan  3 2012,"",1001,15000
Hewlett-Packard Co,"",Sold,Oct  9 2012,"",1001,15000
iShares Dow Jones Select Dividend Index,"",Sold,May 14 2012,"",50001,100000
iShares MSCI EAFE Index,"",Sold,May 14 2012,"",1001,15000
iShares S&P 500 Growth ETF,"",Purchased,Jun 18 2012,"",50001,100000
Marsico Flexible Capital Fund,"",Purchased,Nov 28 2012,"",15001,50000
PepsiCo Inc,"",Sold,Oct  9 2012,"",1001,15000
Pfizer Inc,"",Sold,Oct  9 2012,"",50001,100000
Powershares QQQ Trust,"",Sold,Jan  3 2012,"",1001,15000
Powershares QQQ Trust,"",Purchased,Jun 18 2012,"",50001,100000
