orgname,ultorg,action,date1,transnotes,minvalue,maxvalue
Alcoa Inc,"",Sold,Oct 23 2014,"",15001,50000
BlucoraInc,"",Sold,Oct 23 2014,"",1001,15000
Broadcom Corp,"",Sold,Oct 23 2014,"",1001,15000
Dow Chemical,"",Sold,Oct 23 2014,"",15001,50000
Emulex Corp,"",Sold,Oct 23 2014,"",1001,15000
Entropic Communications Inc,"",Sold,Oct 23 2014,"",1001,15000
Hertz Global Holdings,"",Purchased,Nov  5 2014,"",15001,50000
Hertz Global Holdings,"",Purchased,Nov  6 2014,"",50001,100000
Hertz Global Holdings,"",Purchased,Nov 25 2014,"",100001,250000
Hertz Global Holdings,"",Purchased,Nov 28 2014,"",50001,100000
McGrath RentCorp (MGRC),"",Sold,Sep 22 2014,"",50001,100000
Robert Half International,"",Sold,Sep 22 2014,"",100001,250000
Shutterfly Inc,"",Sold,Oct 23 2014,"",15001,50000
SunEdison Inc,"",Purchased,Oct 24 2014,"",100001,250000
Visa Inc,"",Sold,Dec 29 2014,"",250001,500000
Visa Inc,"",Sold,Dec 30 2014,"",100001,250000
Walt Disney Co,"",Purchased,Nov 28 2014,"",1001,15000
Walt Disney Co,"",Purchased,Dec 10 2014,"",50001,100000
