orgname,ultorg,action,date1,transnotes,minvalue,maxvalue
American GR FD of America F1 Share Class Exchange,"",Exchanged,Dec  4 2014,"",1001,15000
Blackrock Equity Dividend A Share Class Exchange f,"",Exchanged,Nov  6 2014,"",1001,15000
Blackrock US Opportunities SVC Share Class Exchang,"",Exchanged,Dec  2 2014,"",1001,15000
CAMPR Partners Ltd,"",Sold,Dec 19 2014,"",1000001,5000000
DCP Midstream Partners,"",Purchased,Feb 28 2014,"",1001,15000
Delaware Small Cap Value A Share Class Exchange of,"",Exchanged,Aug  8 2014,"",1001,15000
DWS Small Cap Value Fund,"",Exchanged,Aug  4 2014,"",1001,15000
Enterprise Products Partners,"",Purchased,Oct 14 2014,"",1001,15000
EV Income Fund of Boston A Share Class Exc,"",Exchanged,Sep  5 2014,"",1001,15000
Invesco Developing Markets A Share Class Exchange,"",Exchanged,Nov 20 2014,"",1001,15000
Invesco INTL Growth A Share Class Exchange of AIIE,"",Exchanged,Nov 20 2014,"",1001,15000
JP Morgan Mid Cap Value A Share Class Exchange of,"",Exchanged,Jul 25 2014,"",1001,15000
Kinder Morgan,"",Sold,Feb 24 2014,"",1001,15000
Metropolitan West Total Return Bond Fund,"",Exchanged,Oct 29 2014,"",1001,15000
Morgan Stanley Mutual Fund,"",Sold,Jun  3 2014,"",1001,15000
Morgan Stanley Mutual Fund,"",Purchased,Jun  3 2014,"",1001,15000
Prudential GLB Real Estate A Share Class Exchange,"",Exchanged,Nov 24 2014,"",1001,15000
Thornburg INTL Value A Share Class Exchange of TGV,"",Exchanged,Nov  4 2014,"",1001,15000
Transocean Partners LLC Com,"",Purchased,Jul 31 2014,"",1001,15000
Virtus Multi Sect SHT TRM Bond,"",Exchanged,Aug  1 2014,"",15001,50000
Williams Cos,"",Purchased,Oct 15 2014,"",1001,15000
