orgname,ultorg,action,date1,transnotes,minvalue,maxvalue
Baron Partners Fund,"",Sold,Jan 18 2008,"",1001,15000
Baron Partners Fund,"",Sold,Jan 18 2008,"",1001,15000
Columbia Acorn Fund,"",Sold,Sep 18 2008,"",1001,15000
Dodge & Cox International Stock Fund,"",Sold,Sep 16 2008,"",15001,50000
Fairholme Funds,"",Sold,Oct  3 2008,"",15001,50000
Fairholme Funds,"",Purchased,Apr 23 2008,"",1001,15000
Fairholme Funds,"",Purchased,May  2 2008,"",1001,15000
Fidelity Cash Reserves,"",Sold,May  5 2008,"",1001,15000
Fidelity Cash Reserves,"",Sold,Jul 21 2008,"",1001,15000
Fidelity Cash Reserves,"",Purchased,Jan  8 2008,"",15001,50000
Fidelity Cash Reserves,"",Sold,Jan 10 2008,"",1001,15000
Fidelity Cash Reserves,"",Sold,Jan 11 2008,"",1001,15000
Fidelity Cash Reserves,"",Sold,Feb 19 2008,"",1001,15000
Fidelity Cash Reserves,"",Sold,Apr 24 2008,"",1001,15000
Fidelity Cash Reserves,"",Purchased,Sep 17 2008,"",1001,15000
Fidelity Cash Reserves,"",Purchased,Sep 19 2008,"",1001,15000
Fidelity Cash Reserves,"",Purchased,Sep 22 2008,"",1001,15000
Fidelity Cash Reserves,"",Purchased,Oct  6 2008,"",15001,50000
Fidelity Cash Reserves,"",Sold,Dec  3 2008,"",1001,15000
Fidelity Cash Reserves,"",Purchased,Oct  1 2008,"",1001,15000
Fidelity Cash Reserves,"",Purchased,Jul 10 2008,"",1001,15000
Fidelity Cash Reserves,"",Purchased,Aug 15 2008,"",1001,15000
Fidelity Diversified International Fund,"",Sold,Aug 15 2008,"",1001,15000
Fidelity Diversified International Fund,"",Sold,Sep 16 2008,"",1001,15000
Fidelity Diversified International Fund,"",Sold,Aug 14 2008,"",1001,15000
Fidelity Diversified International Fund,"",Sold,Sep  8 2008,"",15001,50000
Fidelity Diversified International Fund,"",Sold,Sep 16 2008,"",1001,15000
Fidelity Diversified International Fund,"",Sold,Jan 22 2008,"",15001,50000
Fidelity Independence Fund,"",Purchased,May 20 2008,"",1001,15000
Fidelity Independence Fund,"",Sold,Jul 16 2008,"",1001,15000
Fidelity Latin America Fund,"",Purchased,May  8 2008,"",1001,15000
Fidelity Latin America Fund,"",Sold,Jul 25 2008,"",1001,15000
Fidelity Low Priced Stock Fund,"",Sold,Jan  7 2008,"",1001,15000
Fidelity Select Energy Service,"",Sold,Mar  5 2008,"",1001,15000
Fidelity Select Energy Service,"",Purchased,May 15 2008,"",1001,15000
Fidelity Select Energy Service,"",Purchased,May 15 2008,"",1001,15000
Fidelity Select Energy Service,"",Sold,Jul  8 2008,"",1001,15000
Fidelity Select Energy Service,"",Sold,Jul 18 2008,"",1001,15000
Fidelity Select Energy Service,"",Sold,Jul 18 2008,"",1001,15000
Fidelity Select Energy Service,"",Sold,Jul 10 2008,"",1001,15000
Janus Contrarian Fund,"",Sold,Sep 10 2008,"",1001,15000
Janus Contrarian Fund,"",Sold,Jul  8 2008,"",15001,50000
Janus Contrarian Fund,"",Purchased,May  2 2008,"",1001,15000
T Rowe Price Capital Appreciation Fund,"",Sold,Jan  7 2008,"",15001,50000
Vanguard Total Stock Market Index Fund,"",Sold,Sep 30 2008,"",1001,15000
Vanguard Total Stock Market Index Fund,"",Sold,Sep 19 2008,"",1001,15000
