orgname,ultorg,action,date1,transnotes,minvalue,maxvalue
Aim Fund,"",Purchased,IRA Dividend Reinvestment,"",1001,15000
American Express,"",Purchased,Dividend Reinvestment,"",1001,15000
Associated Bank,Associated Bancorp,Purchased,Dividend Reinvestment,"",1001,15000
Corning Corp,"",Purchased,Dividend Reinvestment,"",1001,15000
Danaher Corp,"",Purchased,Nov 10 2008,"",50001,100000
Eaton Vance Enhanced Income II Fund,"",Sold,Dec 22 2008,"",100001,250000
Eaton Vance Enhanced Income II Fund,"",Sold,Dec 17 2008,"",50001,100000
Emerson Electric,"",Purchased,Nov 11 2008,"",15001,50000
Heritage Underwriting,"",Sold,May 28 2008,"",50001,100000
Integrys Energy,"",Purchased,Jun  6 2008,"",1001,15000
Manitowoc Co,"",Purchased,Jul 10 2009,"",15001,50000
Marshall & Ilsley Bank,Marshall & Ilsley Corp,Purchased,Dividend Reinvestment,"",1001,15000
Marshall & Ilsley Corp,"",Purchased,Jul 10 2008,"",1001,15000
Marshall & Ilsley Corp,"",Purchased,Nov 10 2008,"",1001,15000
McGraw-Hill Companies,"",Purchased,Jul 10 2008,"",15001,50000
Oshkosh Co,"",Purchased,Jul 10 2008,"",15001,50000
US Treasury Bonds,"",Purchased,Jan  2 2009,"",1001,15000
Walgreen Co,"",Purchased,Dividend Reinvestment,"",1001,15000
Wells Fargo Advantage Funds,"",Purchased,IRA Dividend Reinvestment,"",1001,15000
William Wrigley Jr Co,Mars Inc,Sold,Feb  1 2008,"",1001,15000
William Wrigley Jr Co,Mars Inc,Sold,Oct 27 2008,"",500001,1000000
Wyeth,"",Purchased,Dividend Reinvestment,"",1001,15000
