orgname,ultorg,action,date1,transnotes,minvalue,maxvalue
Arbitrage Funds,"",Exchanged,Apr 25 2011,"",1001,15000
Artio International Equity Fund,"",Exchanged,Oct 26 2011,"",1001,15000
ASTON/Fairpointe Mid Cap I Fund,"",Purchased,various,"",1001,15000
Blackrock High Yield Bond Fund,"",Purchased,Oct 26 2011,"",1001,15000
Delaware Emerging Markets Fund,"",Purchased,Jan 28 2011,"",1001,15000
Dodge & Cox International Stock Fund,"",Purchased,Feb 16 2011,"",1001,15000
Dreyfus Emerging Markets Fund,"",Purchased,Jan 20 2011,"",1001,15000
Eagle Mid Cap Stock Fund,"",Exchanged,various,"",1001,15000
Edgewood Growth Fund,"",Purchased,Jan 20 2011,"",15001,50000
Goldman Sachs High Yield Fund,"",Exchanged,Jan 20 2011,"",1001,15000
Hartford Capital Appreciation Fund,"",Purchased,Aug 15 2011,"",1001,15000
iShares Barclays TIPS Bond Fund,"",Exchanged,various,"",1001,15000
IShares MSCI All Country Asia ex-Japan,"",Exchanged,Feb 16 2011,"",1001,15000
iShares MSCI EAFE Index,"",Purchased,Apr 25 2011,"",1001,15000
iShares S&P Mid Cap 400 Index,"",Exchanged,various,"",1001,15000
iShares S&P Mid Cap 400 Index,"",Purchased,Jun 10 2011,"",1001,15000
John Hancock II Emerging Markets Fund,"",Purchased,Jul 18 2011,"",1001,15000
John Hancock II Emerging Markets Fund,"",Exchanged,Nov 28 2011,"",1001,15000
JP Morgan Asia Equity Fund,"",Exchanged,various,"",1001,15000
JP Morgan Asia Equity Fund,"",Purchased,May 20 2011,"",1001,15000
JP Morgan High Yield Fund,"",Exchanged,various,"",1001,15000
JP Morgan International Currency Income ,"",Purchased,various,"",1001,15000
JP Morgan International Value Fund Sel,"",Purchased,Feb 16 2011,"",1001,15000
JP Morgan Research Market Neutral Select,"",Exchanged,Jan 20 2011,"",1001,15000
JP Morgan Short Duration Bond Fund,"",Purchased,Jul 18 2011,"",1001,15000
JP Morgan Short Duration Bond Fund,"",Exchanged,Various,"",1001,15000
JP Morgan TRI Growth Advantage Fund,"",Exchanged,Jan 20 2011,"",1001,15000
JP Morgan US Dynamic Plus Fund,"",Exchanged,Jan 20 2011,"",1001,15000
JP Morgan US Real Estate Fund,"",Exchanged,Jul 18 2011,"",1001,15000
JPMorgan Intrepid America Fund,"",Purchased,Apr 25 2011,"",1001,15000
Manning & Napler Equity Series Fund,"",Exchanged,Jan 20 2011,"",1001,15000
Manning & Napler World Opp Fund,"",Purchased,Jul 18 2011,"",1001,15000
MFS International Value Fund,"",Purchased,Oct 26 2011,"",1001,15000
PIMCO Commodities Plus Strategy Fund,"",Purchased,Dec  7 2011,"",1001,15000
Powershares DB Commodity Index,"",Purchased,Jan 20 2011,"",1001,15000
SPDR Gold Trust ETF,"",Purchased,various,"",1001,15000
SPDR S & P 500 ETF Trust (partial),"",Exchanged,Apr 25 2011,"",1001,15000
T Rowe Price New Asia Fund (partial),"",Exchanged,Feb 16 2011,"",1001,15000
Thornburg Value Fund (partial),"",Exchanged,Apr 25 2011,"",1001,15000
Threadneedle Asia Pacific Fund,"",Exchanged,Feb 16 2011,"",1001,15000
Vanguard MSCI Emerging Markets ETF,"",Exchanged,various,"",1001,15000
Vanguard MSCI Europe ETF,"",Purchased,Apr 25 2011,"",1001,15000
Vanguard MSCI Europe ETF,"",Exchanged,Jul 18 2011,"",1001,15000
Victory Diversified Stock Fund,"",Purchased,various,"",1001,15000
