orgname,ultorg,action,date1,transnotes,minvalue,maxvalue
BlackRock Low Duration Bond K,"",Purchased,Jan 23 2015,--,15001,50000
BlackRock Low Duration Bond K,"",Purchased,Jan 23 2015,--,15001,50000
BlackRock Low Duration Bond K,"",Sold,Jul 28 2015,Sale (Full),50001,100000
BlackRock Low Duration Bond K,"",Sold,Jul 28 2015,Sale (Full),50001,100000
Fidelity Balanced K,"",Purchased,Jul 28 2015,--,100001,250000
Fidelity Balanced K,"",Purchased,Jul 28 2015,--,50001,100000
Fidelity Blue Chip Growth Fund,"",Purchased,Jul 28 2015,--,50001,100000
Fidelity Blue Chip Growth Fund,"",Purchased,Jul 28 2015,--,100001,250000
Fidelity Freedom 2020 Fund,"",Sold,Jul 28 2015,Sale (Partial),50001,100000
Fidelity Freedom 2020 Fund,"",Purchased,Jul 28 2015,--,50001,100000
Fidelity Freedom K 2015 Fund,"",Sold,Jul 28 2015,Sale (Full),500001,1000000
Fidelity Freedom K 2025,"",Purchased,Jul 28 2015,--,100001,250000
Fidelity Freedom K 2025,"",Purchased,Jul 28 2015,--,50001,100000
Fidelity Freedom K 2030,"",Purchased,Jul 28 2015,--,100001,250000
Fidelity Low Priced Stock Fund,"",Sold,Jul 28 2015,Sale (Full),100001,250000
Pimco Low Duration Fund,"",Sold,Jan 23 2015,Sale (Full),15001,50000
Pimco Low Duration Fund,"",Sold,Jan 23 2015,Sale (Full),15001,50000
