orgname,ultorg,action,date1,transnotes,minvalue,maxvalue
AbbVie Inc,"",Exchanged,Jan  1 2013,"","",""
Aston/Fairpoint Mid Cap Fund,"",Sold,2013-09-27 00:00:00.000,"",7279,7279
Aston/Fairpoint Mid Cap Fund,"",Sold,2013-09-13 00:00:00.000,"",11568,11568
Aston/Fairpoint Mid Cap Fund,"",Sold,2013-11-05 00:00:00.000,"",13339,13339
Aston/Fairpoint Mid Cap Fund,"",Sold,2013-11-01 00:00:00.000,"",4573,4573
ASTON/Fairpointe Mid Cap Fund,"",Sold,2013-09-13 00:00:00.000,"",4108,4108
ASTON/Fairpointe Mid Cap Fund,"",Sold,2013-11-01 00:00:00.000,"",1977,1977
ASTON/Fairpointe Mid Cap Fund,"",Sold,2013-09-13 00:00:00.000,"",4020,4020
ASTON/Fairpointe Mid Cap Fund,"",Sold,2013-11-01 00:00:00.000,"",4458,4458
ASTON/Fairpointe Mid Cap Fund,"",Sold,2013-09-13 00:00:00.000,"",1794,1794
ASTON/Fairpointe Mid Cap Fund,"",Sold,2013-11-01 00:00:00.000,"",1932,1932
ASTON/Fairpointe Mid Cap Fund,"",Sold,2013-09-13 00:00:00.000,"",1856,1856
ASTON/Fairpointe Mid Cap Fund,"",Sold,2013-11-05 00:00:00.000,"",9632,9632
ASTON/Fairpointe Mid Cap Fund,"",Sold,2013-07-08 00:00:00.000,"",3071,3071
ATT,"",Purchased,Feb  1 2013, - Dividend reinvestment,1001,15000
ATT,"",Purchased,May  1 2013, - Dividend reinvestment,1001,15000
ATT,"",Purchased,Aug  1 2013, - Dividend reinvestment,1001,15000
Columbia Funds Ser II Mass Asia Pc Jp R5,"",Purchased,2013-02-05 00:00:00.000,"",7606,7606
Columbia Funds Ser II Mass Asia Pc Jp R5,"",Purchased,2013-02-04 00:00:00.000,"",3346,3346
Columbia Funds Ser II Mass Asia Pc Jp R5,"",Purchased,2013-02-04 00:00:00.000,"",1604,1604
Columbia Funds Ser II Mass Asia Pc Jp R5,"",Purchased,2013-02-05 00:00:00.000,"",5822,5822
Columbia Funds Ser II Mass Asia Pc Jp R5,"",Purchased,2013-02-04 00:00:00.000,"",3697,3697
Columbia Funds Ser II Mass Asia Pc Jp R5,"",Purchased,2013-02-04 00:00:00.000,"",1628,1628
Columbia Funds Ser II Mass Asia Pc Jp R5,"",Purchased,2013-02-04 00:00:00.000,"",3791,3791
Columbia Funds SER TR II,"",Purchased,2013-02-04 00:00:00.000,"",7926,7926
Deleware Emerging Markets Fund,"",Purchased,2013-02-04 00:00:00.000,"",20039,20039
Deleware Emerging Markets Fund,"",Sold,2013-07-31 00:00:00.000,"",12004,12004
Deleware Emerging Markets Fund,"",Purchased,2013-02-04 00:00:00.000,"",8649,8649
Deleware Emerging Markets Fund,"",Purchased,2013-02-05 00:00:00.000,"",19301,19301
Deleware Emerging Markets Fund,"",Sold,2013-07-31 00:00:00.000,"",26161,26161
Deleware Emerging Markets Fund,"",Purchased,2013-02-05 00:00:00.000,"",14668,14668
Deleware Emerging Markets Fund,"",Sold,2013-07-31 00:00:00.000,"",20072,20072
Deleware Emerging Markets Fund,"",Purchased,2013-02-04 00:00:00.000,"",4048,4048
Deleware Emerging Markets Fund,"",Sold,2013-07-31 00:00:00.000,"",5250,5250
Deleware Emerging Markets Fund,"",Sold,2013-07-31 00:00:00.000,"",5307,5307
Deleware Emerging Markets Fund,"",Purchased,2013-02-04 00:00:00.000,"",9633,9633
Deleware Emerging Markets Fund,"",Sold,2013-07-31 00:00:00.000,"",12426,12426
Deleware Emerging Markets Fund,"",Purchased,2013-02-04 00:00:00.000,"",4068,4068
Deleware Emerging Markets Fund,"",Purchased,2013-02-04 00:00:00.000,"",9390,9390
Deleware Emerging Markets Fund,"",Sold,2013-07-31 00:00:00.000,"",12119,12119
Dodge & Cox International Fund,"",Purchased,2013-11-15 00:00:00.000,"",5455,5455
Dodge & Cox International Fund,"",Sold,2013-10-09 00:00:00.000,"",6200,6200
Dodge & Cox International Fund,"",Sold,2013-05-03 00:00:00.000,"",2238,2238
Doubleline Total Return Bond Fund,"",Purchased,2013-06-24 00:00:00.000,"",10586,10586
Doubleline Total Return Bond Fund,"",Purchased,2013-08-22 00:00:00.000,"",19200,19200
Doubleline Total Return Bond Fund,"",Purchased,2013-06-25 00:00:00.000,"",4502,4502
Doubleline Total Return Bond Fund,"",Purchased,2013-10-09 00:00:00.000,"",11250,11250
Doubleline Total Return Bond Fund,"",Purchased,2013-11-20 00:00:00.000,"",9256,9256
Doubleline Total Return Bond Fund,"",Purchased,2013-06-25 00:00:00.000,"",2080,2080
Doubleline Total Return Bond Fund,"",Purchased,2013-06-25 00:00:00.000,"",4795,4795
Doubleline Total Return Bond Fund,"",Purchased,2013-06-25 00:00:00.000,"",2143,2143
Doubleline Total Return Bond Fund,"",Purchased,2013-06-25 00:00:00.000,"",4921,4921
Dreyfus Emerging Markets Debt Local Currency Fund,"",Purchased,2013-12-17 00:00:00.000,"",1223,1223
Eaton Vance Floating Rate Fund,"",Sold,2013-11-05 00:00:00.000,"",5103,5103
Eaton Vance Floating Rate Fund,"",Sold,2013-11-01 00:00:00.000,"",1243,1243
Eaton Vance Floating Rate Fund,"",Sold,2013-10-29 00:00:00.000,"",3197,3197
Eaton Vance Floating Rate Fund,"",Sold,2013-11-05 00:00:00.000,"",6639,6639
Eaton Vance Floating Rate Fund,"",Sold,2013-10-29 00:00:00.000,"",6917,6917
Eaton Vance Floating Rate Fund,"",Sold,2013-11-01 00:00:00.000,"",1241,1241
Eaton Vance Floating Rate Fund,"",Sold,2013-11-01 00:00:00.000,"",2949,2949
Eaton Vance Floating Rate Fund,"",Sold,2013-11-01 00:00:00.000,"",2877,2877
Edgewood Growth Fund,"",Sold,2013-12-17 00:00:00.000,"",2581,2581
Equinox Funds Tr Eqnx Cb Stgy,"",Purchased,2013-11-20 00:00:00.000,"",11383,11383
Equinox Funds Tr Eqnx Cb Stgy,"",Purchased,2013-09-16 00:00:00.000,"",14350,14350
Equinox Funds Tr Eqnx Cb Stgy,"",Purchased,2013-06-25 00:00:00.000,"",2701,2701
Equinox Funds Tr Eqnx Cb Stgy,"",Purchased,2013-06-24 00:00:00.000,"",14120,14120
Equinox Funds Tr Eqnx Cb Stgy,"",Purchased,2013-06-25 00:00:00.000,"",6044,6044
Equinox Funds Tr Eqnx Cb Stgy,"",Purchased,2013-06-25 00:00:00.000,"",6230,6230
Equinox Funds Tr Eqnx Cb Stgy,"",Purchased,2013-06-25 00:00:00.000,"",2762,2762
Equinox Funds Tr Eqnx Cb Stgy,"",Purchased,2013-06-25 00:00:00.000,"",6391,6391
Gateway Fund,"",Purchased,2013-02-04 00:00:00.000,"",8496,8496
Gateway Fund,"",Purchased,2013-02-04 00:00:00.000,"",3640,3640
Gateway Fund,"",Purchased,2013-02-04 00:00:00.000,"",8284,8284
Gateway Fund,"",Purchased,2013-02-04 00:00:00.000,"",8138,8138
Gateway Fund,"",Purchased,2013-02-05 00:00:00.000,"",18003,18003
Gateway Fund,"",Purchased,2013-02-04 00:00:00.000,"",18815,18815
Gateway Fund,"",Purchased,2013-02-04 00:00:00.000,"",3590,3590
Gateway Fund,"",Purchased,2013-02-05 00:00:00.000,"",13811,13811
Hartford Capital Apprec,"",Sold,2013-09-13 00:00:00.000,"",8569,8569
Hartford Capital Apprec,"",Sold,2013-09-13 00:00:00.000,"",1963,1963
Hartford Capital Apprec,"",Sold,2013-09-13 00:00:00.000,"",2065,2065
Hartford Capital Apprec,"",Sold,2013-10-29 00:00:00.000,"",12523,12523
Hartford Capital Apprec,"",Sold,2013-09-13 00:00:00.000,"",10725,10725
Hartford Capital Apprec,"",Sold,2013-10-29 00:00:00.000,"",4999,4999
Hartford Capital Apprec,"",Sold,2013-09-13 00:00:00.000,"",4445,4445
Hartford Capital Apprec,"",Sold,2013-09-13 00:00:00.000,"",4541,4541
Highbridge Dynamic Commodities Strategic Fund,"",Sold,2013-04-16 00:00:00.000,"",5325,5325
Highbridge Dynamic Commodities Strategic Fund,"",Sold,2013-04-16 00:00:00.000,"",5458,5458
Highbridge Dynamic Commodities Strategic Fund,"",Sold,2013-11-19 00:00:00.000,"",49857,49857
Highbridge Dynamic Commodities Strategic Fund,"",Sold,2013-05-01 00:00:00.000,"",10786,10786
Highbridge Dynamic Commodities Strategic Fund,"",Sold,2013-04-16 00:00:00.000,"",12195,12195
Highbridge Dynamic Commodities Strategic Fund,"",Sold,2013-04-16 00:00:00.000,"",4595,4595
Highbridge Dynamic Commodities Strategic Fund,"",Sold,2013-04-16 00:00:00.000,"",2382,2382
Highbridge Dynamic Commodities Strategic Fund,"",Sold,2013-04-16 00:00:00.000,"",2323,2323
Highbridge Dynamic Commodities Strategic Fund,"",Sold,2013-04-16 00:00:00.000,"",9456,9456
Highbridge Dynamic Commodities Strategic Fund,"",Sold,2013-04-16 00:00:00.000,"",5458,5458
HSBC Funds Total Return,"",Sold,2013-02-04 00:00:00.000,"",3928,3928
HSBC Funds Total Return,"",Sold,2013-02-05 00:00:00.000,"",6455,6455
HSBC Funds Total Return,"",Sold,2013-02-04 00:00:00.000,"",1659,1659
HSBC Funds Total Return,"",Sold,2013-02-04 00:00:00.000,"",1681,1681
HSBC Funds Total Return,"",Sold,2013-02-04 00:00:00.000,"",3879,3879
HSBC Funds Total Return,"",Sold,2013-02-05 00:00:00.000,"",8410,8410
HSBC Funds Total Return,"",Sold,2013-02-04 00:00:00.000,"",3928,3928
HSBC Funds Total Return,"",Sold,2013-02-04 00:00:00.000,"",3829,3829
Invesco Balanced Risk Commodity Strategy Fund,"",Purchased,2013-12-17 00:00:00.000,"",18565,18565
Invesco Balanced Risk Commodity Strategy Fund,"",Purchased,2013-12-17 00:00:00.000,"",8035,8035
Invesco Balanced Risk Commodity Strategy Fund,"",Purchased,2013-12-17 00:00:00.000,"",18128,18128
Invesco Balanced Risk Commodity Strategy Fund,"",Purchased,2013-12-17 00:00:00.000,"",17162,17162
Invesco Balanced Risk Commodity Strategy Fund,"",Purchased,2013-12-17 00:00:00.000,"",7862,7862
iShares Core S&P Small Cap ETF,"",Sold,2013-02-04 00:00:00.000,"",5772,5772
iShares Core S&P Small Cap ETF,"",Sold,2013-02-04 00:00:00.000,"",5663,5663
iShares Core S&P Small Cap ETF,"",Sold,2013-02-05 00:00:00.000,"",22380,22380
iShares Core S&P Small Cap ETF,"",Purchased,2013-10-09 00:00:00.000,"",7935,7935
iShares Core S&P Small Cap ETF,"",Sold,2013-02-04 00:00:00.000,"",13286,13286
iShares Core S&P Small Cap ETF,"",Purchased,2013-11-20 00:00:00.000,"",6316,6316
iShares Core S&P Small Cap ETF,"",Sold,2013-02-05 00:00:00.000,"",29182,29182
iShares Core S&P Small Cap ETF,"",Sold,2013-02-04 00:00:00.000,"",8821,8821
iShares Core S&P Small Cap ETF,"",Sold,2013-02-04 00:00:00.000,"",11108,11108
iShares Core S&P Small Cap ETF,"",Sold,2013-02-04 00:00:00.000,"",13286,13286
iShares Core S&P Small Cap ETF,"",Sold,2013-02-04 00:00:00.000,"",12959,12959
iShares MSCI China Index Fund,"",Purchased,2013-02-04 00:00:00.000,"",1123,1123
iShares MSCI China Index Fund,"",Purchased,2013-02-04 00:00:00.000,"",2303,2303
iShares MSCI China Index Fund,"",Purchased,2013-02-06 00:00:00.000,"",488,488
iShares MSCI China Index Fund,"",Purchased,2013-02-07 00:00:00.000,"",145,145
iShares MSCI China Index Fund,"",Sold,2013-07-10 00:00:00.000,"",3478,3478
iShares MSCI China Index Fund,"",Purchased,2013-02-04 00:00:00.000,"",488,488
iShares MSCI China Index Fund,"",Purchased,2013-02-04 00:00:00.000,"",980,980
iShares MSCI China Index Fund,"",Purchased,2013-02-06 00:00:00.000,"",195,195
iShares MSCI China Index Fund,"",Sold,2013-07-10 00:00:00.000,"",3397,3397
iShares MSCI China Index Fund,"",Purchased,2013-02-04 00:00:00.000,"",1123,1123
iShares MSCI China Index Fund,"",Purchased,2013-02-04 00:00:00.000,"",2254,2254
iShares MSCI China Index Fund,"",Purchased,2013-02-06 00:00:00.000,"",390,390
iShares MSCI China Index Fund,"",Purchased,2013-02-07 00:00:00.000,"",194,194
iShares MSCI China Index Fund,"",Purchased,2013-02-04 00:00:00.000,"",2539,2539
iShares MSCI China Index Fund,"",Purchased,2013-02-04 00:00:00.000,"",5096,5096
iShares MSCI China Index Fund,"",Purchased,2013-02-05 00:00:00.000,"",195,195
iShares MSCI China Index Fund,"",Purchased,2013-02-06 00:00:00.000,"",146,146
iShares MSCI China Index Fund,"",Purchased,2013-02-06 00:00:00.000,"",975,975
iShares MSCI China Index Fund,"",Purchased,2013-02-07 00:00:00.000,"",339,339
iShares MSCI China Index Fund,"",Sold,2013-07-10 00:00:00.000,"",3316,3316
iShares MSCI China Index Fund,"",Sold,2013-07-10 00:00:00.000,"",7280,7280
iShares MSCI China Index Fund,"",Purchased,2013-02-05 00:00:00.000,"",1075,1075
iShares MSCI China Index Fund,"",Purchased,2013-02-06 00:00:00.000,"",778,778
iShares MSCI China Index Fund,"",Purchased,2013-02-06 00:00:00.000,"",5119,5119
iShares MSCI China Index Fund,"",Purchased,2013-02-07 00:00:00.000,"",1790,1790
iShares MSCI China Index Fund,"",Purchased,2013-02-04 00:00:00.000,"",1074,1074
iShares MSCI China Index Fund,"",Purchased,2013-02-03 00:00:00.000,"",2205,2205
iShares MSCI China Index Fund,"",Purchased,2013-02-05 00:00:00.000,"",439,439
iShares MSCI China Index Fund,"",Purchased,2014-02-07 00:00:00.000,"",145,145
iShares MSCI China Index Fund,"",Purchased,2013-02-05 00:00:00.000,"",831,831
iShares MSCI China Index Fund,"",Purchased,2013-02-06 00:00:00.000,"",583,583
iShares MSCI China Index Fund,"",Purchased,2013-02-06 00:00:00.000,"",3900,3900
iShares MSCI China Index Fund,"",Purchased,2013-02-07 00:00:00.000,"",1403,1403
iShares MSCI China Index Fund,"",Sold,2013-07-10 00:00:00.000,"",5581,5581
iShares MSCI China Index Fund,"",Sold,2013-07-10 00:00:00.000,"",1456,1456
iShares MSCI China Index Fund,"",Purchased,2013-02-04 00:00:00.000,"",488,488
iShares MSCI China Index Fund,"",Sold,2013-07-10 00:00:00.000,"",3478,3478
iShares MSCI China Index Fund,"",Purchased,2013-02-06 00:00:00.000,"",146,146
iShares MSCI EAFE Fund,"",Purchased,2013-07-31 00:00:00.000,"",2357,2357
iShares MSCI EAFE Fund,"",Purchased,2013-11-01 00:00:00.000,"",7601,7601
iShares MSCI EAFE Fund,"",Purchased,2013-07-31 00:00:00.000,"",7857,7857
iShares MSCI EAFE Fund,"",Purchased,2013-11-05 00:00:00.000,"",37507,37507
iShares MSCI EAFE Fund,"",Purchased,2013-07-31 00:00:00.000,"",5862,5862
iShares MSCI EAFE Fund,"",Purchased,2013-11-05 00:00:00.000,"",28751,28751
iShares MSCI EAFE Fund,"",Purchased,2013-07-31 00:00:00.000,"",3989,3989
iShares MSCI EAFE Fund,"",Purchased,2013-10-29 00:00:00.000,"",16484,16484
iShares MSCI EAFE Fund,"",Purchased,2013-10-29 00:00:00.000,"",39548,39548
iShares MSCI EAFE Fund,"",Purchased,2013-07-30 00:00:00.000,"",10177,10177
iShares MSCI EAFE Fund,"",Purchased,2013-07-31 00:00:00.000,"",5500,5500
iShares MSCI EAFE Fund,"",Purchased,2013-11-01 00:00:00.000,"",17497,17497
iShares MSCI EAFE Fund,"",Purchased,2013-07-31 00:00:00.000,"",2417,2417
iShares MSCI EAFE Fund,"",Purchased,2013-11-01 00:00:00.000,"",7733,7733
iShares MSCI EAFE Fund,"",Purchased,2013-11-01 00:00:00.000,"",17890,17890
iShares MSCI EAFE Fund,"",Purchased,2013-07-31 00:00:00.000,"",5681,5681
iShares MSCI Index Fund,"",Sold,2013-07-10 00:00:00.000,"",1496,1496
Israres MSCI China Index Fund,"",Purchased,2013-02-04 00:00:00.000,"",980,980
JP Morgan Strategic Income Opportunities Fund,"",Sold,Sep  5 2013,"",1001,15000
JPM China Region Fund,"",Purchased,2013-07-09 00:00:00.000,"",7598,7598
JPM China Region Fund,"",Purchased,2013-07-09 00:00:00.000,"",3279,3279
JPM China Region Fund,"",Purchased,2013-07-09 00:00:00.000,"",1439,1439
JPM China Region Fund,"",Purchased,2013-07-09 00:00:00.000,"",5518,5518
JPM China Region Fund,"",Purchased,2013-07-09 00:00:00.000,"",7198,7198
JPM China Region Fund,"",Purchased,2013-07-09 00:00:00.000,"",3439,3439
JPM China Region Fund,"",Purchased,2013-07-09 00:00:00.000,"",1479,1479
JPM China Region Fund,"",Purchased,2013-07-09 00:00:00.000,"",3359,3359
JPM Curr Income Fund,"",Sold,2013-07-22 00:00:00.000,"",3723,3723
JPM Global Research Enhanced Index Fund,"",Purchased,2013-04-19 00:00:00.000,"",12048,12048
JPM Global Research Enhanced Index Fund,"",Purchased,2013-06-18 00:00:00.000,"",17700,17700
JPM Global Research Enhanced Index Fund,"",Purchased,2013-08-22 00:00:00.000,"",17000,17000
JPM Global Research Enhanced Index Fund,"",Purchased,2013-04-19 00:00:00.000,"",26749,26749
JPM Global Research Enhanced Index Fund,"",Purchased,2013-04-19 00:00:00.000,"",20510,20510
JPM Global Research Enhanced Index Fund,"",Purchased,2013-04-19 00:00:00.000,"",5380,5380
JPM Global Research Enhanced Index Fund,"",Purchased,2013-04-19 00:00:00.000,"",12413,12413
JPM Global Research Enhanced Index Fund,"",Purchased,2013-04-19 00:00:00.000,"",5458,5458
JPM Global Research Enhanced Index Fund,"",Purchased,2013-04-19 00:00:00.000,"",12733,12733
JPM Growth Advantage Fund,"",Sold,2013-02-04 00:00:00.000,"",3078,3078
JPM Growth Advantage Fund,"",Sold,2013-11-01 00:00:00.000,"",6890,6890
JPM Growth Advantage Fund,"",Sold,2013-02-04 00:00:00.000,"",3157,3157
JPM Growth Advantage Fund,"",Sold,2013-11-01 00:00:00.000,"",6722,6722
JPM Growth Advantage Fund,"",Sold,2013-02-04 00:00:00.000,"",1544,1544
JPM Growth Advantage Fund,"",Sold,2013-11-01 00:00:00.000,"",2916,2916
JPM Growth Advantage Fund,"",Sold,2013-11-01 00:00:00.000,"",2909,2909
JPM Growth Advantage Fund,"",Sold,2013-02-04 00:00:00.000,"",1460,1460
JPM Growth Advantage Fund,"",Sold,2013-11-05 00:00:00.000,"",11144,11144
JPM Growth Advantage Fund,"",Sold,2013-02-04 00:00:00.000,"",3157,3157
JPM Growth Advantage Fund,"",Sold,2013-02-05 00:00:00.000,"",7041,7041
JPM Growth Advantage Fund,"",Sold,2013-11-05 00:00:00.000,"",14517,14517
JPM Growth Advantage Fund,"",Sold,2013-02-05 00:00:00.000,"",10135,10135
JPM Growth Advantage Fund,"",Sold,2013-02-04 00:00:00.000,"",8821,8821
JPM Growth Advantage Fund,"",Sold,2013-02-04 00:00:00.000,"",20131,20131
JPM High Yield Fund,"",Sold,2013-10-29 00:00:00.000,"",18998,18998
JPM High Yield Fund,"",Sold,2013-10-29 00:00:00.000,"",8272,8272
JPM High Yield Fund,"",Sold,2013-11-05 00:00:00.000,"",17920,17920
JPM High Yield Fund,"",Sold,2013-11-05 00:00:00.000,"",13645,13645
JPM High Yield Fund,"",Sold,2013-11-01 00:00:00.000,"",3498,3498
JPM High Yield Fund,"",Sold,2013-11-01 00:00:00.000,"",3583,3583
JPM High Yield Fund,"",Sold,2013-11-01 00:00:00.000,"",8022,8022
JPM High Yield Fund,"",Sold,2013-11-01 00:00:00.000,"",8223,8223
JPM International Currency Income Fund,"",Sold,2013-07-22 00:00:00.000,"",3850,3850
JPM International Currency Income Fund,"",Sold,2013-07-22 00:00:00.000,"",3754,3754
JPM International Currency Income Fund,"",Sold,2013-07-22 00:00:00.000,"",1647,1647
JPM International Currency Income Fund,"",Sold,2013-07-22 00:00:00.000,"",3850,3850
JPM International Currency Income Fund,"",Sold,2013-07-22 00:00:00.000,"",1826,1826
JPM International Currency Income Fund,"",Sold,2013-07-22 00:00:00.000,"",6336,6336
JPM International Currency Income Fund,"",Sold,2013-07-22 00:00:00.000,"",8253,8253
JPM International Currency Income Fund,"",Sold,2013-07-22 00:00:00.000,"",8697,8697
JPM Intrepid America Fund,"",Sold,2013-09-27 00:00:00.000,"",3032,3032
JPM Intrepid America Fund,"",Sold,2013-10-29 00:00:00.000,"",21278,21278
JPM Intrepid America Fund,"",Sold,2013-10-29 00:00:00.000,"",11683,11683
JPM Intrepid America Fund,"",Sold,2013-11-05 00:00:00.000,"",23058,23058
JPM Intrepid America Fund,"",Sold,2013-11-05 00:00:00.000,"",17815,17815
JPM Intrepid America Fund,"",Sold,2013-11-01 00:00:00.000,"",4759,4759
JPM Intrepid America Fund,"",Sold,2013-11-01 00:00:00.000,"",10920,10920
JPM Intrepid America Fund,"",Sold,2013-11-01 00:00:00.000,"",4877,4877
JPM Intrepid America Fund,"",Sold,2013-11-01 00:00:00.000,"",11194,11194
JPM Real Estate Fund,"",Sold,2013-11-19 00:00:00.000,"",66994,66994
JPM Realty income,"",Sold,2013-09-24 00:00:00.000,"",3999,3999
JPM Realty income,"",Sold,2013-09-23 00:00:00.000,"",9322,9322
JPM Realty Income Fund,"",Sold,2013-09-24 00:00:00.000,"",8757,8757
JPM Realty Income Fund,"",Sold,2013-09-24 00:00:00.000,"",1725,1725
JPM Realty Income Fund,"",Sold,2013-09-24 00:00:00.000,"",1749,1749
JPM Realty Income Fund,"",Sold,2013-09-24 00:00:00.000,"",6723,6723
JPM Realty Income Fund,"",Sold,2013-09-24 00:00:00.000,"",4083,4083
JPM Realty Income Fund,"",Sold,2013-09-24 00:00:00.000,"",3981,3981
JPM Sh Int Muni Bond Fund,"",Sold,2013-11-20 00:00:00.000,"",5984,5984
JPM Short Duration Bond Fund,"",Sold,2013-06-25 00:00:00.000,"",340,340
JPM Short Duration Bond Fund,"",Sold,2013-06-25 00:00:00.000,"",408,408
JPM Short Duration Bond Fund,"",Sold,2013-06-25 00:00:00.000,"",977,977
JPM Short Duration Bond Fund,"",Sold,2013-06-25 00:00:00.000,"",1679,1679
JPM Short Duration Bond Fund,"",Sold,2013-07-08 00:00:00.000,"",3936,3936
JPM Short Duration Bond Fund,"",Sold,2013-06-25 00:00:00.000,"",957,957
JPM Short Duration Bond Fund,"",Sold,2013-06-25 00:00:00.000,"",977,977
JPM Short-Intermediate Municipal Bond Fund,"",Sold,2013-10-09 00:00:00.000,"",7762,7762
JPM Short-Intermediate Municipal Bond Fund,"",Purchased,2013-08-22 00:00:00.000,"",17600,17600
JPM Stratigic Income Opportunities Fund,"",Purchased,2013-08-22 00:00:00.000,"",19500,19500
JPM Stratigic Income Opportunities Fund,"",Purchased,2013-12-17 00:00:00.000,"",2063,2063
JPM Tax Aware Equity Fund,"",Purchased,2013-04-19 00:00:00.000,"",7476,7476
JPM Tax Aware Equity Fund,"",Sold,2013-12-17 00:00:00.000,"",3679,3679
JPM Tax Aware Equity Fund,"",Purchased,2013-04-19 00:00:00.000,"",5699,5699
JPM Tax Aware Equity Fund,"",Sold,2013-12-17 00:00:00.000,"",4811,4811
JPM Tax Aware Equity Fund,"",Purchased,2013-04-19 00:00:00.000,"",8324,8324
JPN GlobalRes Enh Index Fund,"",Purchased,2013-04-19 00:00:00.000,"",28128,28128
Kern County Calif Wtr Agy Impt Dist No 4 Wtr Rev,"",Sold,2013-05-01 00:00:00.000,bond redemption,50000,50000
Mallinckrodt Pub Ltd Co,"",Sold,2013-11-19 00:00:00.000,"",2954,2954
Manning & Napier Fd Inc World Opportunities,"",Sold,2013-07-31 00:00:00.000,"",17421,17421
Manning & Napier Fd Inc World Opportunities,"",Sold,2013-07-31 00:00:00.000,"",8031,8031
Manning & Napier Fd Inc World Opportunities,"",Sold,2013-07-31 00:00:00.000,"",13482,13482
Manning & Napier Fd Inc World Opportunities,"",Sold,2013-07-31 00:00:00.000,"",3329,3329
Manning & Napier Fd Inc World Opportunities,"",Sold,2013-07-31 00:00:00.000,"",7828,7828
Manning & Napier Fd Inc World Opportunities,"",Sold,2013-07-31 00:00:00.000,"",3411,3411
Manning & Napier Fd Inc World Opportunities,"",Sold,2013-07-31 00:00:00.000,"",7828,7828
Manning & Napier Fd Inc World Opportunities,"",Sold,2013-07-31 00:00:00.000,"",7636,7636
Merck & Co,"",Sold,Jun 14 2013,"",15001,50000
Merck & Co,"",Sold,Aug 23 2013,"",15001,50000
Merck & Co,"",Sold,Sep 13 2013,"",15001,50000
MFS International Value Fund,"",Sold,2013-07-08 00:00:00.000,"",1957,1957
MFS International Value Fund,"",Purchased,2013-07-30 00:00:00.000,"",6177,6177
MFS International Value Fund,"",Purchased,2013-07-31 00:00:00.000,"",4261,4261
MFS International Value Fund,"",Purchased,2013-07-31 00:00:00.000,"",1388,1388
MFS International Value Fund,"",Purchased,2013-07-31 00:00:00.000,"",5909,5909
MFS International Value Fund,"",Purchased,2013-07-31 00:00:00.000,"",4483,4483
MFS International Value Fund,"",Purchased,2013-07-31 00:00:00.000,"",3186,3186
MFS International Value Fund,"",Purchased,2013-07-31 00:00:00.000,"",1477,1477
MFS International Value Fund,"",Purchased,2013-07-31 00:00:00.000,"",3271,3271
Neuberger Berman Multi Cap Opportunities Fund,"",Purchased,2013-04-19 00:00:00.000,"",3501,3501
Neuberger Berman Multi Cap Opportunities Fund,"",Purchased,2013-04-19 00:00:00.000,"",1507,1507
Neuberger Berman Multi Cap Opportunities Fund,"",Purchased,2013-04-19 00:00:00.000,"",3410,3410
Neuberger Berman Multi Cap Opportunities Fund,"",Purchased,2013-04-19 00:00:00.000,"",1481,1481
Neuberger Berman Multi Cap Opportunities Fund,"",Purchased,2013-04-19 00:00:00.000,"",3023,3023
Oakmark International Fund,"",Purchased,2013-07-31 00:00:00.000,"",16702,16702
Oakmark International Fund,"",Purchased,2013-07-30 00:00:00.000,"",39454,39454
Oakmark International Fund,"",Purchased,2013-07-31 00:00:00.000,"",7550,7550
Oakmark International Fund,"",Purchased,2013-07-31 00:00:00.000,"",28739,28739
Oakmark International Fund,"",Purchased,2013-07-31 00:00:00.000,"",37486,37486
Oakmark International Fund,"",Purchased,2013-07-31 00:00:00.000,"",17416,17416
Oakmark International Fund,"",Purchased,2013-07-31 00:00:00.000,"",7720,7720
Oakmark International Fund,"",Purchased,2013-07-31 00:00:00.000,"",17565,17565
Orange Cnty Calif Pub Fing Auth Lease Rev Ref Dtd,"",Sold,2013-05-01 00:00:00.000,bond redemption,50000,50000
PIMCO Commodities Plus Strategy Fund,"",Purchased,2013-06-18 00:00:00.000,"",17700,17700
PIMCO Commodities Plus Strategy Fund,"",Purchased,2013-04-16 00:00:00.000,"",18230,18230
PIMCO Commodities Plus Strategy Fund,"",Purchased,2013-10-29 00:00:00.000,"",21632,21632
PIMCO Commodities Plus Strategy Fund,"",Purchased,2013-04-16 00:00:00.000,"",19165,19165
PIMCO Commodities Plus Strategy Fund,"",Purchased,2013-06-06 00:00:00.000,"",8802,8802
PIMCO Commodities Plus Strategy Fund,"",Purchased,2013-11-05 00:00:00.000,"",12096,12096
PIMCO Commodities Plus Strategy Fund,"",Purchased,2013-11-05 00:00:00.000,"",9272,9272
PIMCO Commodities Plus Strategy Fund,"",Purchased,2013-06-06 00:00:00.000,"",6761,6761
PIMCO Commodities Plus Strategy Fund,"",Purchased,2013-04-16 00:00:00.000,"",13978,13978
PIMCO Unconstrained Bond Fund,"",Sold,2013-06-18 00:00:00.000,"",53200,53200
PIMCO Unconstrained Bond Fund,"",Purchased,2013-08-22 00:00:00.000,"",18000,18000
Powershares DB Commodity Tracking Fund,"",Purchased,2013-10-29 00:00:00.000,"",5155,5155
Powershares DB Commodity Tracking Fund,"",Purchased,2013-04-16 00:00:00.000,"",8756,8756
Powershares DB Commodity Tracking Fund,"",Sold,2013-12-17 00:00:00.000,"",17037,17037
Powershares DB Commodity Tracking Fund,"",Sold,2013-06-06 00:00:00.000,"",3907,3907
Powershares DB Commodity Tracking Fund,"",Purchased,2013-04-16 00:00:00.000,"",4093,4093
Powershares DB Commodity Tracking Fund,"",Purchased,2013-11-01 00:00:00.000,"",2468,2468
Powershares DB Commodity Tracking Fund,"",Sold,2013-06-06 00:00:00.000,"",1757,1757
Powershares DB Commodity Tracking Fund,"",Sold,2013-12-17 00:00:00.000,"",7820,7820
Powershares DB Commodity Tracking Fund,"",Sold,2013-06-06 00:00:00.000,"",1757,1757
Powershares DB Commodity Tracking Fund,"",Sold,2013-06-06 00:00:00.000,"",4143,4143
Powershares DB Commodity Tracking Fund,"",Sold,2013-12-17 00:00:00.000,"",18510,18510
Powershares DB Commodity Tracking Fund,"",Sold,2013-12-17 00:00:00.000,"",7998,7998
Powershares DB Commodity Tracking Fund,"",Purchased,2013-04-16 00:00:00.000,"",4093,4093
Powershares DB Commodity Tracking Fund,"",Purchased,2013-11-01 00:00:00.000,"",2570,2570
Powershares DB Commodity Tracking Fund,"",Sold,2013-06-06 00:00:00.000,"",4143,4143
Powershares DB Commodity Tracking Fund,"",Purchased,2013-04-16 00:00:00.000,"",9352,9352
Powershares DB Commodity Tracking Fund,"",Purchased,2013-12-17 00:00:00.000,"",18052,18052
Powershares DB Commodity Tracking Fund,"",Purchased,2013-11-01 00:00:00.000,"",5699,5699
Powershares DB Community Index Tracking Fund,"",Sold,2013-06-06 00:00:00.000,"",4012,4012
Powershares DB Community Index Tracking Fund,"",Purchased,2013-04-16 00:00:00.000,"",9611,9611
Powershares DB Community Index Tracking Fund,"",Purchased,2013-11-01 00:00:00.000,"",5851,5851
RS International Growth Fund,"",Sold,2013-04-19 00:00:00.000,"",8387,8387
RS International Growth Fund,"",Sold,2013-04-19 00:00:00.000,"",8178,8178
RS International Growth Fund,"",Sold,2013-04-19 00:00:00.000,"",8387,8387
RS International Growth Fund,"",Sold,2013-04-19 00:00:00.000,"",3543,3543
RS International Growth Fund,"",Sold,2013-04-19 00:00:00.000,"",3590,3590
RS International Growth Fund,"",Sold,2013-04-19 00:00:00.000,"",13798,13798
RS International Growth Fund,"",Sold,2013-04-19 00:00:00.000,"",8306,8306
RS International Growth Fund,"",Sold,2013-04-19 00:00:00.000,"",19407,19407
RS International Growth Fund,"",Sold,2013-04-19 00:00:00.000,"",17976,17976
San Lorenzo  Calif Uni Sch Dist Alameda Cnty Elect,"",Sold,2013-08-01 00:00:00.000,bond redemption,50000,50000
Sensient Tech,"",Purchased,Mar  1 2013,"",1001,15000
Sensient Tech,"",Purchased,Jun  3 2013,"",1001,15000
SPDR Gold Trust ETF,"",Sold,2013-10-25 00:00:00.000,"",9352,9352
SPDR Gold Trust ETF,"",Sold,2013-10-25 00:00:00.000,"",2858,2858
SPDR Gold Trust ETF,"",Sold,2013-05-23 00:00:00.000,"",5195,5195
SPDR Gold Trust ETF,"",Sold,2013-06-06 00:00:00.000,"",5067,5067
SPDR Gold Trust ETF,"",Sold,2013-06-06 00:00:00.000,"",2325,2325
SPDR Gold Trust ETF,"",Sold,2013-10-25 00:00:00.000,"",8702,8702
SPDR Gold Trust ETF,"",Sold,2013-06-06 00:00:00.000,"",3965,3965
SPDR Gold Trust ETF,"",Sold,2013-06-06 00:00:00.000,"",3835,3835
SPDR Gold Trust ETF,"",Sold,2013-06-06 00:00:00.000,"",1779,1779
SPDR Gold Trust ETF,"",Sold,2013-10-25 00:00:00.000,"",6754,6754
SPDR Gold Trust ETF,"",Sold,2013-10-25 00:00:00.000,"",1299,1299
SPDR Gold Trust ETF,"",Sold,2013-10-25 00:00:00.000,"",1689,1689
SPDR Gold Trust ETF,"",Sold,2013-10-25 00:00:00.000,"",3767,3767
SPDR Gold Trust ETF,"",Sold,2013-10-25 00:00:00.000,"",3897,3897
SPDR S&P 500 ETF,"",Purchased,2013-07-31 00:00:00.000,"",8076,8076
SPDR S&P 500 ETF,"",Purchased,2013-11-01 00:00:00.000,"",3511,3511
SPDR S&P 500 ETF,"",Purchased,2013-11-01 00:00:00.000,"",7724,7724
SPDR S&P 500 ETF,"",Purchased,2013-11-01 00:00:00.000,"",3336,3336
SPDR S&P 500 ETF,"",Purchased,2013-11-05 00:00:00.000,"",14963,14963
SPDR S&P 500 ETF,"",Sold,2013-12-17 00:00:00.000,"",1790,1790
SPDR S&P 500 ETF,"",Purchased,2013-11-05 00:00:00.000,"",11442,11442
Vanguard Emerging Markets Fund,"",Sold,2013-07-31 00:00:00.000,"",6144,6144
Vanguard Emerging Markets Fund,"",Sold,2013-07-31 00:00:00.000,"",1565,1565
Vanguard Emerging Markets Fund,"",Sold,2013-07-31 00:00:00.000,"",1526,1526
Vanguard Emerging Markets Fund,"",Sold,2013-07-31 00:00:00.000,"",3561,3561
Vanguard Emerging Markets Fund,"",Sold,2013-07-31 00:00:00.000,"",7944,7944
Vanguard Emerging Markets Fund,"",Sold,2013-07-31 00:00:00.000,"",3600,3600
Vanguard Emerging Markets Fund,"",Sold,2013-07-31 00:00:00.000,"",3483,3483
Vanguard Emerging Markets Fund,"",Sold,2013-07-31 00:00:00.000,"",3561,3561
Vanguard FTSE Europe ETF,"",Purchased,2013-11-01 00:00:00.000,"",1973,1973
Vanguard FTSE Europe ETF,"",Purchased,2013-11-01 00:00:00.000,"",4566,4566
Vanguard FTSE Europe ETF,"",Purchased,2013-11-01 00:00:00.000,"",4453,4453
Vanguard FTSE Europe ETF,"",Purchased,2013-10-29 00:00:00.000,"",9507,9507
Vanguard FTSE Europe ETF,"",Purchased,2013-10-30 00:00:00.000,"",401,401
Vanguard FTSE Europe ETF,"",Purchased,2013-10-30 00:00:00.000,"",172,172
Vanguard FTSE Europe ETF,"",Purchased,2013-10-29 00:00:00.000,"",3780,3780
Vanguard FTSE Europe ETF,"",Purchased,2013-11-01 00:00:00.000,"",1917,1917
Vanguard FTSE Europe ETF,"",Purchased,2013-11-05 00:00:00.000,"",9343,9343
Vanguard FTSE Europe ETF,"",Purchased,2013-11-05 00:00:00.000,"",7148,7148
Victory Portfolios Diversified Stock Fund,"",Sold,2013-04-19 00:00:00.000,"",9306,9306
Victory Portfolios Diversified Stock Fund,"",Sold,2013-04-19 00:00:00.000,"",14427,14427
Victory Portfolios Diversified Stock Fund,"",Sold,2013-04-19 00:00:00.000,"",4056,4056
Victory Portfolios Diversified Stock Fund,"",Sold,2013-04-19 00:00:00.000,"",3961,3961
Victory Portfolios Diversified Stock Fund,"",Sold,2013-04-19 00:00:00.000,"",18794,18794
Victory Portfolios Diversified Stock Fund,"",Sold,2013-04-19 00:00:00.000,"",8491,8491
Victory Portfolios Diversified Stock Fund,"",Sold,2013-02-04 00:00:00.000,"",13517,13517
Victory Portfolios Diversified Stock Fund,"",Sold,2013-04-19 00:00:00.000,"",19165,19165
Victory Portfolios Diversified Stock Fund,"",Sold,2013-04-19 00:00:00.000,"",9079,9079
Victory Portfolios Diversified Stock Fund,"",Sold,2013-04-19 00:00:00.000,"",9306,9306
