orgname,ultorg,action,date1,transnotes,minvalue,maxvalue
Fidelity Contrafund,"",Exchanged,Apr  8 2011,"",1001,15000
Fidelity Growth Fund,"",Exchanged,Apr  8 2011,"",1001,15000
MetLife (life insurance),"",Exchanged,Oct  1 2011,"",1001,15000
Schwab S&P 500 Fund,"",Purchased,Monthly,"",1001,15000
Schwab S&P Index Fund,"",Exchanged,Apr  8 2011,"",1001,15000
