orgname,ultorg,action,date1,transnotes,minvalue,maxvalue
Ford Motor Co,"",Purchased,Feb 11 2009,"",1001,15000
General Electric,"",Purchased,Feb 11 2009,"",15001,50000
General Electric,"",Purchased,Mar  9 2009,"",1001,15000
