orgname,ultorg,action,date1,transnotes,minvalue,maxvalue
CREF Bond Market Fund,"",Purchased,Various,"",1001,15000
CREF Growth Fund,"",Purchased,Various,"",15001,50000
TC Lifecycle Fund 2020,"",Purchased,Various,"",100001,250000
TIAA Real Estate Fund,"",Sold,Various,"",100001,250000
