orgname,ultorg,action,date1,transnotes,minvalue,maxvalue
Baron Asset Fund,"",Sold,Feb 19 2010,"",1001,15000
Baron Asset Fund,"",Sold,Feb 19 2010,"",1001,15000
Columbia Mid Cap Value Fund,"",Sold,Feb 19 2010,"",15001,50000
Davis New York Venture Fund,"",Sold,Feb 19 2010,"",15001,50000
Equity Compass Managed Account,"",Purchased,Feb 19 2010,"",100001,250000
Gateway Trust Index Plus Fund,"",Sold,Feb 19 2010,"",1001,15000
Growth Fund of America,"",Sold,Feb 19 2010,"",50001,100000
Hartford Mid Cap Fund,"",Sold,Feb 19 2010,"",1001,15000
JPMorgan Trust I Highbridge Statistical,"",Sold,Feb 19 2010,"",1001,15000
T Rowe Price Growth Stock Fund,"",Sold,Feb 19 2010,"",1001,15000
