orgname,ultorg,action,date1,transnotes,minvalue,maxvalue
Bank of America,"",Sold,Mar 13 2014,"",1001,15000
Bank of America,"",Sold,Mar 13 2013,"",1001,15000
Bank of America,"",Sold,Mar 13 2013,"",1001,15000
Bank of America,"",Sold,Mar 13 2013,"",1001,15000
