orgname,ultorg,action,date1,transnotes,minvalue,maxvalue
Apple Inc,"",Purchased,Apr 27 2010,"",1001,15000
Apple Inc,"",Purchased,Aug 13 2010,"",1001,15000
Apple Inc,"",Purchased,Oct  7 2010,"",1001,15000
Apple Inc,"",Purchased,Sep 28 2010,"",1001,15000
Apple Inc,"",Purchased,Jan  6 2010,"",15001,50000
Apple Inc,"",Sold,Nov  1 2010,"",1001,15000
Apple Inc,"",Sold,Jul  8 2010,"",1001,15000
Apple Inc,"",Sold,Feb  3 2010,"",1001,15000
Research In Motion,"",Purchased,Apr 16 2010,"",1001,15000
Research In Motion,"",Sold,Apr 21 2010,"",1001,15000
Research In Motion,"",Sold,Jan  5 2010,"",1001,15000
