orgname,ultorg,action,date1,transnotes,minvalue,maxvalue
18 Lots in Cooper Creek,Investment in LLI-II Development,Purchased,Jun 24 2009,"",15001,50000
"6 Lots in Cooper Ridge, Various Lots bet",Investment in LLI-II Development,Purchased,Jun 24 2009,"",1001,15000
"Farm Land/Crosby County, TX","",Purchased,Jul 15 2009,"",15001,50000
"Gold, Silver & Bullion",Investment in LLI-II Development,Purchased,Mar 20 2009,"",50001,100000
"Gold, Silver & Bullion",Investment in LLI-II Development,Purchased,Apr 19 2009,"",50001,100000
Goldman Sachs,"",Purchased,Mar  9 2009,"",100001,250000
Goldman Sachs Financial Square Treasury ,"",Purchased,Apr 15 2009,"",15001,50000
Goldman Sachs Financial Square Treasury ,"",Sold,Jun 15 2009,"",15001,50000
Goldman Sachs High Yield Fund,"",Purchased,Various,"",1001,15000
Goldman Sachs linked to MSCI EAFE,"",Sold,Jun 26 2009,"",50001,100000
Goldman Sachs linked to S&P 500,"",Sold,Jun 26 2009,"",50001,100000
Goldman Sachs Liquid Assets Trust,"",Purchased,Mar 10 2009,"",15001,50000
Goldman Sachs Liquid Assets Trust,"",Sold,Apr 15 2009,"",15001,50000
Goldman Sachs UltraShort Duration Govt,"",Purchased,Jun 10 2009,"",250001,500000
Goldman Sachs UltraShort Duration Govt,"",Purchased,Jun 30 2009,"",250001,500000
Goldman Sachs UltraShort Duration Govt,"",Purchased,Jul 31 2009,"",250001,500000
Goldman Sachs UltraShort Duration Govt,"",Purchased,Aug 31 2009,"",250001,500000
Goldman Sachs UltraShort Duration Govt,"",Purchased,Sep 16 2009,"",250001,500000
Goldman Sachs UltraShort Duration Govt,"",Purchased,Sep 30 2009,"",250001,500000
Goldman Sachs UltraShort Duration Govt,"",Purchased,Oct 30 2009,"",250001,500000
Goldman Sachs UltraShort Duration Govt,"",Purchased,Nov 30 2009,"",250001,500000
Goldman Sachs UltraShort Duration Govt,"",Purchased,Dec 31 2009,"",250001,500000
Goldman Sachs UltraShort Duration Govt,"",Purchased,Jun 12 2009,"",50001,100000
Goldman Sachs UltraShort Duration Govt,"",Purchased,Jun 30 2009,"",50001,100000
Goldman Sachs UltraShort Duration Govt,"",Purchased,Jul 31 2009,"",50001,100000
Goldman Sachs UltraShort Duration Govt,"",Purchased,Aug 31 2009,"",50001,100000
Goldman Sachs UltraShort Duration Govt,"",Purchased,Sep 30 2009,"",50001,100000
Goldman Sachs UltraShort Duration Govt,"",Purchased,Oct 30 2009,"",50001,100000
Goldman Sachs UltraShort Duration Govt,"",Purchased,Nov 30 2009,"",50001,100000
Goldman Sachs UltraShort Duration Govt,"",Purchased,Dec 31 2009,"",50001,100000
Goldman Sachs UltraShort Duration Govt,"",Purchased,Jun 12 2009,"",100001,250000
Goldman Sachs UltraShort Duration Govt,"",Purchased,Jun 30 2009,"",100001,250000
Goldman Sachs UltraShort Duration Govt,"",Purchased,Jul 31 2009,"",100001,250000
Goldman Sachs UltraShort Duration Govt,"",Purchased,Aug 31 2009,"",100001,250000
Goldman Sachs UltraShort Duration Govt,"",Purchased,Sep 30 2009,"",100001,250000
Goldman Sachs UltraShort Duration Govt,"",Purchased,Oct 30 2009,"",100001,250000
Goldman Sachs UltraShort Duration Govt,"",Purchased,Nov 30 2009,"",100001,250000
Goldman Sachs UltraShort Duration Govt,"",Purchased,Dec 31 2009,"",100001,250000
Goldman Sachs UltraShort Duration Govt,"",Purchased,Jun 12 2009,"",50001,100000
Goldman Sachs UltraShort Duration Govt,"",Purchased,Jun 30 2009,"",50001,100000
Goldman Sachs UltraShort Duration Govt,"",Purchased,Jul 15 2009,"",50001,100000
Goldman Sachs UltraShort Duration Govt,"",Purchased,Jul 31 2009,"",50001,100000
Goldman Sachs UltraShort Duration Govt,"",Purchased,Aug 31 2009,"",50001,100000
Goldman Sachs UltraShort Duration Govt,"",Purchased,Sep 30 2009,"",50001,100000
Goldman Sachs UltraShort Duration Govt,"",Purchased,Oct 30 2009,"",50001,100000
Goldman Sachs UltraShort Duration Govt,"",Purchased,Nov 30 2009,"",50001,100000
Goldman Sachs UltraShort Duration Govt,"",Purchased,Dec 31 2009,"",50001,100000
Goldman Sachs UltraShort Duration Govt,"",Sold,Jul 15 2009,"",1001,15000
Land/Blk E2 Sec 19 AB 104 & Blk E2,"",Sold,Jun 24 2009,"",15001,50000
"Lots/2-8 Cooper Stone/Lubbock, TX",Investment in LLI-II Development,Sold,Jun 24 2009,"",1001,15000
"Lots/2-8 Cooper Stone/Lubbock, TX",Investment in LLI-II Development,Purchased,Jun 24 2009,"",1001,15000
Lots/572-623 Regal Park,"",Sold,Jan  6 2009,"",1001,15000
Lots/624-659 Regal Park,"",Sold,Jan 26 2009,"",100001,250000
Lots/624-659 Regal Park,"",Sold,Jan 30 2009,"",100001,250000
Lots/624-659 Regal Park,"",Sold,Feb  4 2009,"",100001,250000
Lots/624-659 Regal Park,"",Sold,Feb 13 2009,"",100001,250000
Lots/624-659 Regal Park,"",Sold,Aug 27 2009,"",100001,250000
Lots/624-659 Regal Park,"",Sold,Sep 10 2009,"",100001,250000
Lots/624-659 Regal Park,"",Sold,Oct  9 2009,"",100001,250000
Lots/Cooper Creek,"",Sold,Sep  9 2009,"",15001,50000
Lots/Cooper Creek,"",Sold,Sep 16 2009,"",15001,50000
Lots/Cooper Creek,"",Sold,Dec 10 2009,"",15001,50000
Lots/Cooper Creek between 67 & 135,"",Sold,Jan 21 2009,"",50001,100000
Lots/Cooper Creek between 67 & 135,"",Sold,Jan 26 2009,"",50001,100000
Lots/Cooper Creek between 67 & 135,"",Sold,Apr 17 2009,"",50001,100000
Lots/Cooper Creek between 67 & 135,"",Sold,Apr 21 2009,"",50001,100000
Lots/Cooper Creek between 67 & 135,"",Sold,May  6 2009,"",50001,100000
Lots/Cooper Creek between 67 & 135,"",Sold,May 27 2009,"",50001,100000
Lots/Cooper Creek between 67 & 135,"",Sold,Jun 24 2009,"",50001,100000
Lots/Cooper Creek between 7 & 95,"",Sold,Jan 26 2009,"",15001,50000
Lots/Cooper Creek between 7 & 95,"",Sold,Mar 31 2009,"",15001,50000
Lots/Cooper Creek between 7 & 95,"",Sold,Apr 23 2009,"",15001,50000
Lots/Cooper Creek between 7 & 95,"",Sold,Jun 24 2009,"",15001,50000
Massachusetts G/O Bond,"",Purchased,Jun 18 2009,"",100001,250000
Pennsylvania Intergovnmntal Rev Bond,"",Sold,Jun 15 2009,"",100001,250000
SPDR Gold Trust ETF,"",Purchased,Mar  9 2009,"",15001,50000
SPDR Gold Trust ETF,"",Purchased,Mar 17 2009,"",15001,50000
SPDR Gold Trust ETF,"",Sold,Jun 19 2009,"",15001,50000
SPDR Gold Trust ETF,"",Sold,Dec 18 2009,"",15001,50000
