orgname,ultorg,action,date1,transnotes,minvalue,maxvalue
Artio International Equity Fund,"",Sold,Oct 26 2012,"",1001,15000
Fidelity New Insights Fund,"",Sold,Jan 12 2012,"",1001,15000
Fidelity New Insights Fund,"",Sold,Sep 17 2012,"",1001,15000
First Eagle Overseas Fund,"",Purchased,Oct 26 2012,"",1001,15000
T Rowe Price Capital Appreciation Fund,T Rowe Price Assoc,Sold,Jan 12 2012,"",1001,15000
T Rowe Price Capital Appreciation Fund,T Rowe Price Assoc,Sold,Jul 13 2012,"",1001,15000
