orgname,ultorg,action,date1,transnotes,minvalue,maxvalue
Ascendas Real Estate Trust,"",Sold,2013-02-22 00:00:00.000,"",3838,3838
Astrazeneca LLC,"",Purchased,2013-10-29 00:00:00.000,"",9424,9424
Barrick Gold Corp,"",Purchased,2013-09-16 00:00:00.000,"",1523,1523
Barrick Gold Corp,"",Purchased,2013-02-22 00:00:00.000,"",9150,9150
Callon Pete Co,"",Purchased,2013-05-30 00:00:00.000,"",22427,22427
China Bluchemical Ltd,"",Sold,2013-06-25 00:00:00.000,"",1718,1718
CIA Energetica Minas,"",Purchased,2013-11-07 00:00:00.000,"",197,197
CIA Energetica Minas,"",Purchased,2013-12-27 00:00:00.000,"",106,106
CIA Energetica Minas,"",Purchased,2013-12-27 00:00:00.000,"",145,145
CIA Energetica Minas,"",Purchased,2013-01-03 00:00:00.000,"",190,190
CIA Energetica Minas,"",Purchased,2013-01-23 00:00:00.000,"",361,361
CIA Energetica Minas,"",Purchased,2013-03-12 00:00:00.000,"",125,125
CIA Energetica Minas,"",Purchased,2013-03-12 00:00:00.000,"",182,182
CIA Energetica Minas,"",Purchased,2013-07-05 00:00:00.000,"",180,180
Crescent Point Energy Corp,"",Sold,2013-10-25 00:00:00.000,"",4968,4968
Electricity Generating Public Co,"",Sold,2013-07-16 00:00:00.000,"",2570,2570
Electricity Generating Public Co,"",Sold,2013-08-02 00:00:00.000,"",10030,10030
Fortum OYJ Eur,"",Sold,2013-10-25 00:00:00.000,"",2769,2769
Goldcorp Inc,"",Purchased,2013-03-05 00:00:00.000,"",5794,5794
Golden Agri-Resources,"",Purchased,2013-08-13 00:00:00.000,"",1019,1019
Golden Agri-Resources,"",Purchased,2013-02-19 00:00:00.000,"",5534,5534
International Fin Corp,"",Sold,2013-09-16 00:00:00.000,"",32797,32797
Keppel Corp,"",Sold,2013-10-28 00:00:00.000,"",2255,2255
Leroy Seafood Group,"",Sold,2013-02-21 00:00:00.000,"",3164,3164
Marine Harvest Asa,"",Sold,2013-10-25 00:00:00.000,"",8110,8110
Metro AG,"",Sold,2013-10-24 00:00:00.000,"",2757,2757
Metro AG,"",Purchased,2013-03-22 00:00:00.000,"",6439,6439
Nestle SA,"",Sold,2013-02-22 00:00:00.000,"",7919,7919
Newcrest Mining,"",Purchased,2013-02-22 00:00:00.000,"",4970,4970
Php,"",Sold,2013-03-13 00:00:00.000,"",1001,15000
Potash Corp of Saskatchewan,"",Sold,2013-08-09 00:00:00.000,"",7326,7326
Precision Drilling Corp,"",Sold,2013-10-25 00:00:00.000,"",2568,2568
Prime Fund Daily Money Market,"",Purchased,2013-05-16 00:00:00.000,"",1018,1018
Prime Fund Daily Money Market,"",Sold,2013-05-30 00:00:00.000,"",22427,22427
Prime Fund Daily Money Market,"",Purchased,2013-12-02 00:00:00.000,"",307,307
Prime Fund Daily Money Market,"",Purchased,2013-12-10 00:00:00.000,"",1255,1255
Prime Fund Daily Money Market,"",Purchased,2013-12-16 00:00:00.000,"",1244,1244
Prime Fund Daily Money Market,"",Purchased,2013-12-31 00:00:00.000,"",590,590
Simpson Properties,"",Sold,2013-10-01 00:00:00.000,"",213500,213500
Simpson Properties,"",Sold,2013-10-01 00:00:00.000,"",100001,250000
Singapore Telecommunications,"",Purchased,2013-08-23 00:00:00.000,"",116,116
Skyworth Digital Holdings,"",Sold,2013-02-22 00:00:00.000,"",3834,3834
Statoil Asa,"",Purchased,2013-10-30 00:00:00.000,"",5609,5609
STX OSV Holdings,"",Sold,2013-03-06 00:00:00.000,"",3740,3740
Syngenta AG,"",Sold,2013-06-26 00:00:00.000,"",2500,2500
Telecom Corp of New Zealand,"",Purchased,2013-10-31 00:00:00.000,"",7842,7842
Telefonica Brasil SA,"",Purchased,2013-02-26 00:00:00.000,"",321,321
Telefonica Brasil SA,"",Purchased,2013-12-04 00:00:00.000,"",131,131
Telefonica Brasil SA,"",Purchased,2013-12-04 00:00:00.000,"",255,255
Telenor ASA,"",Sold,2013-10-25 00:00:00.000,"",2859,2859
Telenor ASA,"",Purchased,2013-05-30 00:00:00.000,"",432,432
Tesco Ord,"",Purchased,2013-11-04 00:00:00.000,"",5319,5319
Thai Beverage Public Co,"",Sold,2013-07-23 00:00:00.000,"",2163,2163
Venture Corp,"",Sold,2013-11-01 00:00:00.000,"",2469,2469
Venture Corp,"",Purchased,2013-05-15 00:00:00.000,"",149,149
Westmark CU IRA,"",Sold,2013-03-07 00:00:00.000,"",15001,50000
Yamana Gold,"",Purchased,2013-08-16 00:00:00.000,"",2355,2355
