orgname,ultorg,action,date1,transnotes,minvalue,maxvalue
Anglo American Plc,"",Purchased,Feb  8 2008,"",1001,15000
Anglo American Plc,"",Sold,Mar  5 2008,"",1001,15000
Bellsouth Corp,"",Purchased,Jun 18 2008,"",15001,50000
Blackrock World Investment Trust ETF,"",Purchased,Sep 23 2008,"",1001,15000
Citibank,Citigroup Inc,Sold,Aug 15 2008,"",50001,100000
Citibank,Citigroup Inc,Sold,Aug 15 2008,"",50001,100000
Citibank Bank Deposit,"",Sold,Aug 13 2008,"",100001,250000
Citibank IRA,"",Sold,Aug 15 2008,"",15001,50000
Citibank South Dakota Bank Deposit Prog,"",Purchased,Oct 27 2008,"",1001,15000
Citibank South Dakota Bank Deposit Prog,"",Purchased,Aug 18 2008,"",1001,15000
Citibank South Dakota Bank Deposit Prog,"",Purchased,Aug 18 2008,"",1001,15000
Citibank South Dakota Bank Deposit Prog,"",Purchased,Aug 18 2008,"",1001,15000
Citibank South Dakota Bank Deposit Prog,"",Purchased,Feb 19 2008,"",50001,100000
Citibank South Dakota Bank Deposit Prog,"",Purchased,Feb 15 2008,"",15001,50000
Citibank/CD,"",Purchased,Oct  7 2008,"",15001,50000
Citicorp Trust Bank Deposit,"",Sold,Feb 15 2008,"",15001,50000
Citizens Communications,"",Exchanged,Aug  1 2008,"",1001,15000
Clearwater Paper Corp,"",Exchanged,Dec 17 2008,"",1001,15000
Dominion Resources,"",Sold,Feb 15 2008,"",1001,15000
Duncan Energy Partners,"",Purchased,Sep  2 2008,"",1001,15000
Fairpoint Communications,"",Exchanged,Apr  1 2008,"",1001,15000
Fairpoint Communications,"",Exchanged,Apr  1 2008,"",1001,15000
Federal Home Loan Bank Bond,Federal Home Loan Bank System,Sold,Jan 25 2008,"",15001,50000
Fidelity New Insights Fund,"",Purchased,Oct 24 2008,"",1001,15000
Financing Corp FICO STRIP,"",Sold,Oct  5 2008,"",1001,15000
First Trust Bank for Savings,"",Sold,Feb 11 2008,"",15001,50000
Frontier Communications,"",Exchanged,Aug  1 2008,"",1001,15000
Geauga Savings Bank/CD,"",Sold,Mar 31 2008,"",15001,50000
GMAC Bank/CD,"",Sold,Apr 21 2008,"",15001,50000
Health Care Properties,"",Purchased,Aug  8 2008,"",15001,50000
Health Care Properties,"",Purchased,Aug 12 2008,"",1001,15000
Home Depot,"",Purchased,Mar 11 2008,"",15001,50000
Home Depot,"",Purchased,Feb 21 2008,"",15001,50000
Honeywell International,"",Purchased,Oct 23 2008,"",15001,50000
International Lease Finance Corp,American International Group,Purchased,Apr 18 2008,"",15001,50000
Ivy Asset Strategy Fund ,"",Purchased,Oct 24 2008,"",1001,15000
Lincoln National Corp,"",Purchased,Nov 26 2008,"",15001,50000
Lincoln National Corp,"",Sold,Dec 29 2008,"",15001,50000
Morgan Stanley Global Infrastructure Fnd,"",Exchanged,Oct 31 2008,"",1001,15000
Morgan Stanley Utilities Fund,"",Exchanged,Oct 31 2008,"",1001,15000
Philip Morris International,"",Exchanged,Mar 31 2008,"",1001,15000
Reed Elsevier Inc,Reed Elsevier Group,Purchased,Mar 28 2008,"",15001,50000
Starbucks Corp,"",Sold,Mar  6 2008,"",1001,15000
Teck Cominco Ltd,"",Purchased,Mar  5 2008,"",1001,15000
Transcontinental Gas,Willaims Companies,Purchased,Dec  5 2008,"",1001,15000
Verizon Communications,"",Purchased,Jan 24 2008,"",1001,15000
Verizon VA,"",Purchased,Mar  6 2008,"",15001,50000
Western Asset Money Market,"",Purchased,Aug 18 2008,"",250001,500000
Western Asset Money Market,"",Purchased,Aug 18 2008,"",50001,100000
Western Asset Money Market,"",Purchased,Aug 18 2008,"",15001,50000
Western Asset Money Market,"",Purchased,Aug 18 2008,"",50001,100000
Western Asset Money Market,"",Purchased,Aug 18 2008,"",50001,100000
Western Asset Money Market,"",Purchased,Aug 18 2008,"",50001,100000
Western Asset Muni Money Market,"",Sold,Feb 15 2008,"",15001,50000
Western Asset Muni Money Market,"",Sold,Feb 15 2008,"",50001,100000
"Wilmington, DE Fsa Bond","",Sold,Aug 12 2008,"",1001,15000
