orgname,ultorg,action,date1,transnotes,minvalue,maxvalue
IShares Russell 2000 Index,"",Purchased,"","",0,1000
iShares S&P 500 Value ETF,"",Purchased,"","",0,1000
iShares S&P 500 Value ETF,"",Purchased,"","",0,1000
iShares S&P Growth ETF,"",Purchased,"","",0,1000
MFS Moderate Allocation,"",Purchased,"","",0,1000
MN College Savings Plan Equity Option,"",Purchased,"","",0,1000
MN College Savings Plan Guranteed Option,"",Purchased,"","",0,1000
MN College Savings Plan Guranteed Option,"",Purchased,"","",0,1000
Riversource Annuity VP Moderate Aggressive,"",Purchased,"","",0,1000
Vanguard Growth ETF,"",Purchased,"","",1001,15000
Vanguard Growth ETF,"",Purchased,"","",0,1000
Vanguard High Dividend Yield ETF,"",Purchased,"","",0,1000
Vanguard S&P 500 Index ETF,"",Purchased,"","",0,1000
Vanguard S&P 500 Index ETF,"",Purchased,"","",0,1000
Vanguard S&P 500 Value ETF,"",Purchased,"","",0,1000
Vanguard Total Stock Market ETF,"",Purchased,"","",0,1000
Western Asset Municpal High Income,"",Purchased,"",Monthly,0,1000
Western Asset Municpal High Income,"",Purchased,"","",0,1000
