orgname,ultorg,action,date1,transnotes,minvalue,maxvalue
American Cap World Growth Income Fund,"",Sold,Aug  8 2017 12:00AM,"","",""
American Cap World Growth Income Fund,"",Purchased,8/8/2017,"",15001,50000
American Cap World Growth Income Fund,"",Purchased,8/8/2017,"",15001,50000
Biogen Inc,"",Sold,1/30/2017,"",15001,50000
Biogen Inc,"",Sold,1/30/2017,"",15001,50000
Biogen Inc,"",Exchanged,Jan 30 2017 12:00AM,"","",""
Cerner Corp,"",Exchanged,Jan 30 2017 12:00AM,"","",""
Cerner Corp,"",Sold,1/30/2017,"",15001,50000
Cerner Corp,"",Sold,1/30/2017,"",15001,50000
Dodge & Cox Balanced Fund (DODBX),"",Purchased,1/31/2017,"",15001,50000
Dodge & Cox Balanced Fund (DODBX),"",Sold,Jan 31 2017 12:00AM,"","",""
Dodge & Cox Balanced Fund (DODBX),"",Purchased,1/31/2017,"",15001,50000
Dodge & Cox Global Stock Fund (DODWX),"",Purchased,8/9/2017,"",15001,50000
Dodge & Cox Global Stock Fund (DODWX),"",Sold,Aug  9 2017 12:00AM,"","",""
Dodge & Cox Global Stock Fund (DODWX),"",Purchased,8/9/2017,"",15001,50000
Guggenheim Mid Cap Value Fund,"",Sold,8/1/2017,"",15001,50000
Guggenheim Mid Cap Value Fund,"",Sold,8/1/2017,"",15001,50000
Guggenheim Mid Cap Value Fund,"",Exchanged,Aug  1 2017 12:00AM,"","",""
Guggenheim World Equity Income Fund,"",Purchased,8/1/2017,"",15001,50000
Guggenheim World Equity Income Fund,"",Sold,Aug  1 2017 12:00AM,"","",""
Guggenheim World Equity Income Fund,"",Purchased,8/1/2017,"",15001,50000
Intermediate Bond Fund of America,"",Sold,1/30/2017,"",1001,15000
Intermediate Bond Fund of America,"",Sold,1/30/2017,"",1001,15000
Intermediate Bond Fund of America,"",Exchanged,Jan 30 2017 12:00AM,"","",""
McDonald's Corp,"",Exchanged,Jan 30 2017 12:00AM,"","",""
McDonald's Corp,"",Sold,1/30/2017,"",15001,50000
McDonald's Corp,"",Sold,1/30/2017,"",15001,50000
New Perspective Fund (ANWFX),"",Sold,1/30/2017,"",15001,50000
New Perspective Fund (ANWFX),"",Sold,1/30/2017,"",15001,50000
New Perspective Fund (ANWFX),"",Exchanged,Jan 30 2017 12:00AM,"","",""
Rydex Inverse S&P 500 Strategy Fund Investor Class,"",Purchased,1/30/2017,"",50001,100000
Rydex Inverse S&P 500 Strategy Fund Investor Class,"",Sold,Jan 30 2017 12:00AM,"","",""
Rydex Inverse S&P 500 Strategy Fund Investor Class,"",Purchased,1/30/2017,"",50001,100000
Rydex Inverse S&P 500 Strategy Fund Investors Clas,"",Sold,8/3/2017,"",15001,50000
Rydex Inverse S&P 500 Strategy Fund Investors Clas,"",Sold,8/3/2017,"",15001,50000
Rydex Inverse S&P 500 Strategy Fund Investors Clas,"",Sold,8/1/2017,"",15001,50000
Rydex Inverse S&P 500 Strategy Fund Investors Clas,"",Exchanged,Aug  3 2017 12:00AM,"","",""
Rydex Inverse S&P 500 Strategy Fund Investors Clas,"",Sold,8/1/2017,"",15001,50000
Rydex Ser FundS Inverse S&P 500,"",Purchased,1/30/2017,"",15001,50000
Rydex Ser FundS Inverse S&P 500,"",Exchanged,Aug  1 2017 12:00AM,"","",""
Rydex Ser FundS Inverse S&P 500,"",Sold,Jan 30 2017 12:00AM,"","",""
Rydex Ser FundS Inverse S&P 500,"",Sold,8/1/2017,"",15001,50000
Rydex Ser FundS Inverse S&P 500,"",Sold,8/1/2017,"",15001,50000
Rydex Ser FundS Inverse S&P 500,"",Purchased,1/30/2017,"",15001,50000
Rydex Series Fund Inverse Nasdaq-100 Strategy,"",Sold,8/3/2017,"",15001,50000
Rydex Series Fund Inverse Nasdaq-100 Strategy,"",Purchased,8/1/2017,"",15001,50000
Rydex Series Fund Inverse Nasdaq-100 Strategy,"",Sold,8/3/2017,"",15001,50000
Rydex Series Fund Inverse Nasdaq-100 Strategy,"",Sold,Aug  1 2017 12:00AM,"","",""
Rydex Series Fund Inverse Nasdaq-100 Strategy,"",Exchanged,Aug  3 2017 12:00AM,"","",""
Rydex Series Fund Inverse Nasdaq-100 Strategy,"",Purchased,8/1/2017,"",15001,50000
Short Term Bond Fund of America Class F-2 (SBFFX),"",Purchased,1/30/2017,"",1001,15000
Short Term Bond Fund of America Class F-2 (SBFFX),"",Sold,Jan 30 2017 12:00AM,"","",""
Short Term Bond Fund of America Class F-2 (SBFFX),"",Purchased,1/30/2017,"",1001,15000
Teva Pharmaceutical Industries,"",Sold,1/30/2017,"",1001,15000
Teva Pharmaceutical Industries,"",Exchanged,Jan 30 2017 12:00AM,"","",""
Teva Pharmaceutical Industries,"",Sold,1/30/2017,"",1001,15000
Trex Co,"",Exchanged,Jan 30 2017 12:00AM,"","",""
Trex Co,"",Sold,1/30/2017,"",15001,50000
Trex Co,"",Sold,1/30/2017,"",15001,50000
Under Armour,"",Sold,1/30/2017,"",1001,15000
Under Armour,"",Sold,1/30/2017,"",1001,15000
Under Armour,"",Exchanged,Jan 30 2017 12:00AM,"","",""
Under Armour,"",Exchanged,Jan 30 2017 12:00AM,"","",""
Under Armour,"",Sold,1/30/2017,"",1001,15000
Under Armour,"",Sold,1/30/2017,"",1001,15000
Verizon Communications,"",Sold,1/30/2017,"",1001,15000
Verizon Communications,"",Exchanged,Jan 30 2017 12:00AM,"","",""
Verizon Communications,"",Sold,1/30/2017,"",1001,15000
Zimmer Biomet,"",Sold,1/30/2017,"",15001,50000
Zimmer Biomet,"",Sold,1/30/2017,"",15001,50000
Zimmer Biomet,"",Exchanged,Jan 30 2017 12:00AM,"","",""
