orgname,ultorg,action,date1,transnotes,minvalue,maxvalue
4-Plex Apartments,"",Purchased,Sep-17,"",250001,500000
Long Island Village Property,"",Sold,Aug-17,"",50001,100000
"Up Mountain (San Antonio, Tx) Land","",Sold,Aug-17,"",100001,250000
Villas Marlin Condo,"",Sold,Jul-17,"",100001,250000
