orgname,ultorg,action,date1,transnotes,minvalue,maxvalue
Myrtle MS Farm,"",Purchased,Sept 2008,"",1000001,5000000
Myrtle MS Farm Lake Home,"",Purchased,Sept 2008,"",1000001,5000000
Nuveen NIO,"",Sold,June 2009,"",500001,1000000
Nuveen NIO,"",Sold,June 2009,"",500001,1000000
