orgname,ultorg,action,date1,transnotes,minvalue,maxvalue
AES Corp,"",Purchased,Apr 27 2012,"",1001,15000
AK Steel Corp,"",Purchased,Apr  3 2012,"",1001,15000
AK Steel Corp,"",Sold,Nov 19 2012,"",1001,15000
Alliance Bernstein High Income Fund,"",Purchased,Oct 17 2012,"",1001,15000
Alliance Bernstein High Income Fund,"",Purchased,Nov 20 2012,"",1001,15000
Alliance Bernstein High Income Fund,"",Purchased,Sep 19 2012,"",1001,15000
Alliance Bernstein High Income Fund,"",Purchased,Nov 20 2012,"",1001,15000
Alps Alerian Mlp Etf,"",Purchased,Dec 12 2012,"",1001,15000
Alps Alerian Mlp Etf,"",Purchased,Dec 12 2012,"",15001,50000
Alps Alerian Mlp Etf,"",Purchased,Dec 12 2012,"",1001,15000
American Tower Corp,"",Purchased,Apr 10 2012,"",1001,15000
American Tower Corp,"",Purchased,May 10 2012,"",1001,15000
Amkor Technology Inc,"",Purchased,Apr 10 2012,"",1001,15000
Arcelormittal SA Luxembourg,"",Purchased,Apr  5 2012,"",1001,15000
Arch Coal Inc,"",Purchased,Apr 23 2012,"",1001,15000
Atwood Oceanics Inc,"",Purchased,Apr  3 2012,"",1001,15000
AutoNation,"",Purchased,Apr  9 2012,"",1001,15000
Avis Budget Group,"",Purchased,Apr 20 2012,"",1001,15000
Bank Of America,"",Purchased,Apr 16 2012,"",1001,15000
"Bay Area Rapid Transit/San Francisco, CA","",Purchased,Sep 21 2012,"",15001,50000
BE Aerospace,"",Purchased,Apr  9 2012,"",1001,15000
Berwyn Income Fund,"",Purchased,Mar 27 2012,"",100001,250000
Berwyn Income Fund,"",Purchased,Mar 29 2012,"",1001,15000
Berwyn Income Fund,"",Purchased,Jun 28 2012,"",1001,15000
Berwyn Income Fund,"",Purchased,Dec 28 2012,"",1001,15000
Berwyn Income Fund,"",Purchased,Dec 28 2012,"",1001,15000
BHP Billiton Ltd,"",Sold,Jul 18 2012,"",15001,50000
Blackrock Credit Alliance Tr IV,"",Sold,Mar 13 2012,"",1001,15000
Blackrock Defined Opportunity Trust Fund,"",Sold,Feb 27 2012,"",1001,15000
Blackrock Defined Opportunity Trust Fund,"",Sold,Feb 23 2012,"",1001,15000
Blackrock Enhanced Equity Dividend Fund,"",Purchased,Sep 17 2012,"",1001,15000
Blackrock Enhanced Equity Dividend Fund,"",Purchased,Oct  9 2012,"",1001,15000
Blackrock Global Opportunities Equity,"",Purchased,Dec 11 2012,"",1001,15000
Blackrock Global Opportunities Equity,"",Purchased,Dec 11 2012,"",1001,15000
Blackrock Global Opportunities Equity,"",Purchased,Dec 18 2012,"",1001,15000
Blackrock Global Opportunities Equity,"",Purchased,Dec 11 2012,"",1001,15000
Blackrock Global Opportunities Equity,"",Purchased,Dec 31 2012,"",1001,15000
Blackrock Res & Commodity Strategy Fund,"",Purchased,Jan  3 2012,"",1001,15000
Blackrock Res & Commodity Strategy Fund,"",Sold,Sep 17 2012,"",1001,15000
Blackrock Res & Commodity Strategy Fund,"",Sold,Oct  9 2012,"",1001,15000
Blackrock Res & Commodity Strategy Fund,"",Sold,Feb  8 2012,"",1001,15000
Blackrock Res & Commodity Strategy Fund,"",Sold,Feb 13 2012,"",1001,15000
Blackrock Res & Commodity Strategy Fund,"",Sold,Mar 16 2012,"",1001,15000
Blackrock Res & Commodity Strategy Fund,"",Sold,Apr 11 2012,"",1001,15000
Blackrock Res & Commodity Strategy Fund,"",Sold,Jul 19 2012,"",1001,15000
Cablevision Systems,"",Purchased,Apr 23 2012,"",1001,15000
Cablevision Systems,"",Sold,Nov 19 2012,"",1001,15000
Calamos Convertible & Hi Income Fund,"",Sold,Jan 10 2012,"",1001,15000
Calamos Convertible & Hi Income Fund,"",Sold,Jan 17 2012,"",1001,15000
California Econ Recovery Rfdg Rev Bond,"",Sold,Aug 24 2012,"",15001,50000
California Various Purpose Bond,"",Purchased,Apr 11 2012,"",1001,15000
Calumet Specialty Prods Partners Finance,"",Purchased,Nov 16 2012,"",1001,15000
Case New Holland Inc,"",Purchased,Apr  9 2012,"",1001,15000
Case New Holland Inc,"",Sold,Aug 30 2012,"",1001,15000
CCO Holdings,"",Purchased,Apr 13 2012,"",1001,15000
CenturyLink Inc,"",Purchased,Apr 13 2012,"",1001,15000
Chesapeake Energy,"",Purchased,Apr  4 2012,"",1001,15000
Chrysler Group,Fiat SPA,Purchased,Sep  5 2012,"",1001,15000
CHS Community Health System Inc,"",Purchased,Jul  9 2012,"",1001,15000
Cinemark USA,Cinemark Holdings,Purchased,May  3 2012,"",1001,15000
CIT Group,"",Purchased,Jul 24 2012,"",1001,15000
Citigroup Inc,"",Purchased,Apr 20 2012,"",1001,15000
Citigroup Inc,"",Purchased,Dec 10 2012,"",1001,15000
Citigroup Inc,"",Sold,Dec 10 2012,"",1001,15000
Columbia Acorn Fund,"",Purchased,Jun  6 2012,"",1001,15000
Columbia Acorn Fund,"",Purchased,Dec  6 2012,"",1001,15000
Columbia Acorn Fund,"",Sold,Mar 27 2012,"",50001,100000
Comcast Corp,"",Purchased,May  3 2012,"",1001,15000
Comstock Resource Inc,"",Purchased,Apr 24 2012,"",1001,15000
CONSOL Energy Inc,"",Purchased,Apr  9 2012,"",1001,15000
Constellation Brands,"",Purchased,Apr  5 2012,"",1001,15000
Constellation Brands,"",Sold,Aug  9 2012,"",1001,15000
CRH American Inc,"",Purchased,Apr 13 2012,"",1001,15000
Cricket Communications,Leap Wireless International,Purchased,Oct 16 2012,"",1001,15000
CSX Corp,"",Sold,Sep 13 2012,"",50001,100000
Denbury Resources,"",Sold,Sep 18 2012,"",1001,15000
Denbury Resources,"",Purchased,May 16 2012,"",1001,15000
DIRECTV Group,DirecTV,Purchased,Apr 17 2012,"",1001,15000
Dish Network,"",Purchased,Nov 29 2012,"",1001,15000
Domstart Corp,"",Purchased,Apr 10 2012,"",1001,15000
DWS High Income Fund,"",Sold,Jan 24 2012,"",1001,15000
DWS High Income Fund,"",Sold,Jan 23 2012,"",15001,50000
DWS High Income Fund,"",Sold,Jan 23 2012,"",1001,15000
Eaton Vance Global Macro Absolute Return,"",Sold,Dec  5 2012,"",15001,50000
Eaton Vance Ltd Duration Income Fund,"",Sold,Feb 28 2012,"",1001,15000
Eaton Vance Ltd Duration Income Fund,"",Sold,Feb 28 2012,"",1001,15000
Eaton Vance Ltd Duration Income Fund,"",Sold,May  4 2012,"",1001,15000
Eaton Vance Ltd Duration Income Fund,"",Sold,Apr 30 2012,"",1001,15000
Eaton Vance Risk Managed Diversified,"",Purchased,Mar  1 2012,"",1001,15000
Eaton Vance Risk Managed Diversified,"",Purchased,Apr  4 2012,"",1001,15000
Eaton Vance Risk Managed Diversified,"",Sold,Feb  3 2012,"",1001,15000
Eaton Vance Risk Managed Diversified,"",Sold,Feb  7 2012,"",1001,15000
Eaton Vance Risk Managed Diversified,"",Sold,Feb  7 2012,"",1001,15000
Eaton Vance Risk Managed Diversified,"",Sold,Feb  9 2012,"",1001,15000
Eaton Vance Risk Managed Diversified,"",Sold,Feb 23 2012,"",1001,15000
Eaton Vance Risk Managed Diversified,"",Purchased,Mar 30 2012,"",15001,50000
Eaton Vance Risk Managed Diversified,"",Purchased,Mar 26 2012,"",1001,15000
Eaton Vance Risk Managed Diversified,"",Sold,Feb 23 2012,"",1001,15000
Eaton Vance Risk Managed Diversified,"",Sold,Mar 12 2012,"",1001,15000
Eaton Vance Senior Income Trust,"",Sold,Mar  6 2012,"",1001,15000
Eaton Vance Short Duration Diversified,"",Sold,Mar 22 2012,"",1001,15000
Eaton Vance Short Duration Diversified,"",Sold,Jul 17 2012,"",1001,15000
Eaton Vance Short Duration Diversified,"",Sold,Jul 20 2012,"",1001,15000
Eaton Vance Short Duration Diversified,"",Sold,Jul 23 2012,"",1001,15000
Eaton Vance Short Duration Diversified,"",Sold,Feb 21 2012,"",1001,15000
El Paso Energy,"",Purchased,Apr  5 2012,"",1001,15000
"Electric & Gas/San Antonio, TX","",Purchased,Apr 16 2012,"",15001,50000
Ellsworth Fund,"",Sold,Mar  1 2012,"",1001,15000
Ellsworth Fund,"",Sold,Apr  4 2012,"",1001,15000
Ellsworth Fund,"",Sold,Mar 26 2012,"",1001,15000
Ellsworth Fund,"",Sold,Mar 30 2012,"",15001,50000
Energy Transfer Equity LP,"",Purchased,Apr 23 2012,"",1001,15000
EuroPacific Growth Fund,"",Purchased,Jan  3 2012,"",100001,250000
EuroPacific Growth Fund,"",Purchased,Dec 26 2012,"",1001,15000
Fairholme Funds,"",Sold,Aug 24 2012,"",15001,50000
Fannie Mae,"",Purchased,Apr 23 2012,"",15001,50000
Fannie Mae,"",Purchased,Dec 27 2012,"",15001,50000
Fannie Mae,"",Purchased,Apr 26 2012,"",15001,50000
Fannie Mae,"",Purchased,Apr 13 2012,"",15001,50000
Fannie Mae,"",Purchased,Apr 27 2012,"",15001,50000
First Eagle Global Fund,"",Purchased,Mar 27 2012,"",50001,100000
First Eagle Global Fund,"",Purchased,Dec 14 2012,"",1001,15000
First Eagle Global Fund,"",Purchased,Dec 14 2012,"",1001,15000
First Eagle Global Fund,"",Purchased,Dec 14 2012,"",1001,15000
Ford Motor Co,"",Purchased,Apr 20 2012,"",1001,15000
Frontier Communications,"",Purchased,May  7 2012,"",1001,15000
"Garland, TX Water & Sewer Rfdg Bond","",Purchased,May 11 2012,"",15001,50000
GDL Fund Cumulative Pfd Ser Bond,"",Sold,Oct  9 2012,"",1001,15000
GDL Fund Cumulative Pfd Ser Bond,"",Purchased,May 25 2012,"",1001,15000
General Electric Capital Corp,"",Purchased,Apr  3 2012,"",1001,15000
GenOn Escrow Corp,"",Purchased,Nov  8 2012,"",1001,15000
Georgia Pacific Corp,"",Purchased,Apr  3 2012,"",1001,15000
Goldman Sachs,"",Purchased,Apr 26 2012,"",1001,15000
Goodyear Tire & Rubber Co,"",Purchased,Apr  2 2012,"",1001,15000
Guggenheim Investments Muni Income,"",Sold,Jan 19 2012,"",1001,15000
Guggenheim Investments Muni Income,"",Sold,Jan 18 2012,"",15001,50000
Guggenheim Investments Muni Income,"",Sold,Jan 19 2012,"",1001,15000
Guggenheim Investments Muni Income,"",Sold,Jan 19 2012,"",1001,15000
Guggenheim Investments Muni Income,"",Sold,Jan 18 2012,"",1001,15000
Guggenheim Investments Muni Income,"",Sold,Jan 18 2012,"",1001,15000
Guggenheim Investments Muni Income,"",Sold,Jan 18 2012,"",1001,15000
Hanesbrands Inc,"",Purchased,Apr  5 2012,"",1001,15000
Host Hotels & Resorts Senior Note,"",Purchased,Jun  4 2012,"",1001,15000
Host Hotels & Resorts Senior Note,"",Sold,Aug 23 2012,"",1001,15000
Huntsman International LLC Senior Subord,"",Purchased,Apr 20 2012,"",1001,15000
Illinois State Taxable B/E Subject IL St,"",Purchased,Dec  7 2012,"",1001,15000
Illinois State Taxable SJ IL State Taxab,"",Purchased,Apr 17 2012,"",1001,15000
Illinois State Taxable SJ IL State Taxab,"",Sold,Dec  7 2012,"",1001,15000
International Lease Finance Corp Senior,"",Purchased,Aug  8 2012,"",1001,15000
International Paper Co,"",Purchased,Apr  3 2012,"",1001,15000
Iron Mountain Inc,"",Purchased,Apr  4 2012,"",1001,15000
iShares Barclays 7-10yr Treasury Bond Fd,"",Purchased,Dec 12 2012,"",1001,15000
iShares Barclays 7-10yr Treasury Bond Fd,"",Purchased,Dec 12 2012,"",1001,15000
iShares Barclays Short Treasury Bond Fd,"",Purchased,Mar 13 2012,"",1001,15000
iShares Barclays Short Treasury Bond Fd,"",Sold,Mar 20 2012,"",1001,15000
iShares Barclays Short Treasury Bond Fd,"",Sold,Mar 15 2012,"",1001,15000
iShares iBoxx Investor Grade Corp Bd Fd,"",Purchased,Feb 22 2012,"",1001,15000
iShares iBoxx Investor Grade Corp Bd Fd,"",Sold,Nov 20 2012,"",1001,15000
iShares iBoxx Investor Grade Corp Bd Fd,"",Purchased,Feb  1 2012,"",15001,50000
iShares iBoxx Investor Grade Corp Bd Fd,"",Sold,Nov 20 2012,"",1001,15000
iShares iBoxx Investor Grade Corp Bd Fd,"",Sold,Dec 12 2012,"",1001,15000
iShares iBoxx Investor Grade Corp Bd Fd,"",Purchased,Feb  1 2012,"",1001,15000
iShares iBoxx Investor Grade Corp Bd Fd,"",Sold,Dec 12 2012,"",1001,15000
iShares iBoxx Investor Grade Corp Bd Fd,"",Sold,Feb 16 2012,"",1001,15000
iShares iBoxx Investor Grade Corp Bd Fd,"",Sold,Feb 16 2012,"",1001,15000
iShares iBoxx Investor Grade Corp Bd Fd,"",Sold,Feb 16 2012,"",1001,15000
iShares MSCI EAFE Growth Index,"",Sold,Jan  3 2012,"",100001,250000
iShares MSCI Emerging Markets Index,"",Sold,Jan  3 2012,"",100001,250000
iShares MSCI Global Gold Miners Fund,"",Purchased,May 22 2012,"",1001,15000
iShares MSCI Global Gold Miners Fund,"",Purchased,May 22 2012,"",15001,50000
iShares MSCI Global Gold Miners Fund,"",Purchased,May 22 2012,"",1001,15000
iShares Russell 1000 Value Index,"",Sold,Jan  3 2012,"",100001,250000
iShares S&P 100 ETF,"",Purchased,Jan 30 2012,"",1001,15000
iShares S&P 100 ETF,"",Purchased,May  9 2012,"",1001,15000
iShares S&P 100 ETF,"",Purchased,May 14 2012,"",1001,15000
iShares S&P 100 ETF,"",Purchased,Jun 26 2012,"",1001,15000
iShares S&P 100 ETF,"",Purchased,Jul 27 2012,"",1001,15000
iShares S&P 100 ETF,"",Sold,Sep 24 2012,"",1001,15000
iShares S&P 100 ETF,"",Sold,Jan  3 2012,"",1001,15000
iShares S&P 100 ETF,"",Purchased,Jan 24 2012,"",1001,15000
iShares S&P 100 ETF,"",Purchased,May 14 2012,"",15001,50000
iShares S&P 100 ETF,"",Purchased,Jun 26 2012,"",15001,50000
iShares S&P 100 ETF,"",Purchased,Jul 27 2012,"",15001,50000
iShares S&P 100 ETF,"",Sold,Sep 24 2012,"",15001,50000
iShares S&P 100 ETF,"",Purchased,Oct 30 2012,"",15001,50000
iShares S&P 100 ETF,"",Purchased,Jan 24 2012,"",1001,15000
iShares S&P 100 ETF,"",Purchased,Jan 30 2012,"",1001,15000
iShares S&P 100 ETF,"",Sold,Feb 22 2012,"",1001,15000
iShares S&P 100 ETF,"",Purchased,May 14 2012,"",1001,15000
iShares S&P 100 ETF,"",Purchased,Jun 26 2012,"",1001,15000
iShares S&P 100 ETF,"",Sold,Dec 14 2012,"",1001,15000
iShares S&P 100 ETF,"",Sold,Dec 14 2012,"",1001,15000
iShares S&P 100 ETF,"",Sold,Dec 14 2012,"",1001,15000
Ivy Asset Strategy Fund,"",Purchased,Mar 27 2012,"",50001,100000
Ivy Asset Strategy Fund,"",Purchased,Dec 13 2012,"",1001,15000
Ivy Asset Strategy Fund,"",Purchased,Dec 13 2012,"",1001,15000
Jabil Circuit,"",Purchased,Mar 30 2012,"",1001,15000
Jabil Circuit,"",Sold,Sep 10 2012,"",1001,15000
"Johnson County, KS Uni Sch District 229","",Sold,Oct  1 2012,"",15001,50000
JPMorgan Chase & Co,"",Purchased,Apr 16 2012,"",1001,15000
Kayne Anderson MLP Investment Co,"",Purchased,Mar 21 2012,"",1001,15000
L-3 Communication Holdings Corp,"",Purchased,Apr 23 2012,"",1001,15000
Lamar Media Corp,"",Purchased,May  4 2012,"",1001,15000
Lamar Media Corp,"",Sold,Sep  6 2012,"",1001,15000
Lear Corp,"",Purchased,May  2 2012,"",1001,15000
Levi Stauss & Co,"",Purchased,Sep 11 2012,"",1001,15000
Liberty All Star Equity Fund,"",Sold,Dec 18 2012,"",1001,15000
Liberty All Star Growth Fund,"",Sold,Jul 30 2012,"",1001,15000
Liberty All Star Growth Fund,"",Sold,Jul 30 2012,"",15001,50000
Liberty All Star Growth Fund,"",Sold,Jul 30 2012,"",1001,15000
Liberty All Star Growth Fund,"",Sold,Jul 30 2012,"",1001,15000
Liberty All Star Growth Fund,"",Sold,Jul 30 2012,"",1001,15000
Liberty Media Corp,"",Purchased,May  8 2012,"",1001,15000
LMP Cap & Income Fund,"",Sold,May  1 2012,"",1001,15000
LMP Cap & Income Fund,"",Sold,Jun 20 2012,"",1001,15000
LMP Cap & Income Fund,"",Sold,Jan  4 2012,"",1001,15000
LMP Cap & Income Fund,"",Sold,Apr  5 2012,"",1001,15000
LMP Cap & Income Fund,"",Sold,Jun 25 2012,"",15001,50000
LMP Cap & Income Fund,"",Sold,Jan  4 2012,"",1001,15000
LMP Cap & Income Fund,"",Sold,Apr  5 2012,"",1001,15000
LMP Cap & Income Fund,"",Sold,Jun 27 2012,"",1001,15000
LMP Cap & Income Fund,"",Sold,Jan  4 2012,"",1001,15000
LMP Cap & Income Fund,"",Sold,Apr  5 2012,"",1001,15000
LMP Cap & Income Fund,"",Sold,Jul  5 2012,"",1001,15000
LMP Cap & Income Fund,"",Sold,Jun 20 2012,"",1001,15000
LMP Cap & Income Fund,"",Sold,Apr  5 2012,"",1001,15000
LMP Cap & Income Fund,"",Sold,Jan  4 2012,"",1001,15000
Lord Abbett Value Opportunities Fund,"",Sold,Mar 27 2012,"",15001,50000
Market Vectors ETF,"",Sold,May 22 2012,"",1001,15000
Market Vectors ETF,"",Sold,May 22 2012,"",1001,15000
Market Vectors ETF,"",Sold,May 22 2012,"",15001,50000
Merger Fund,"",Sold,Jul  5 2012,"",15001,50000
Merger Fund,"",Sold,Dec 10 2012,"",1001,15000
Merger Fund,"",Sold,Dec 10 2012,"",1001,15000
Merger Fund,"",Sold,Nov 15 2012,"",15001,50000
Merger Fund,"",Sold,Dec  7 2012,"",1001,15000
Merger Fund,"",Sold,Dec  7 2012,"",1001,15000
Merger Fund,"",Sold,Dec  7 2012,"",1001,15000
MetroPCS Wireless,"",Purchased,Apr 16 2012,"",1001,15000
MFS Charter Income Trust,"",Sold,Sep 28 2012,"",1001,15000
MFS Charter Income Trust,"",Sold,Sep 28 2012,"",1001,15000
MFS Charter Income Trust,"",Sold,Oct  3 2012,"",1001,15000
Morgan Stanley,"",Purchased,Apr 24 2012,"",1001,15000
Munster IN School Building Corp Rfdg Bds,"",Sold,May  9 2012,"",15001,50000
New Century Alternative Strategies Fund,"",Purchased,Jan  3 2012,"",100001,250000
New Century Alternative Strategies Fund,"",Purchased,Mar 27 2012,"",50001,100000
New Century Alternative Strategies Fund,"",Purchased,Dec 31 2012,"",1001,15000
New Jersey Turnpike Authority Bond,"",Purchased,May  3 2012,"",1001,15000
New York Dorm Authority Pers Income Tax,"",Purchased,Jun 14 2012,"",15001,50000
NFJ Dividend Int & Prem Strategy Fund,"",Purchased,Nov 20 2012,"",1001,15000
"Norfolk, VA Water Revenue MBIA","",Sold,May  4 2012,"",50001,100000
North East Independent School District,"",Purchased,Sep 20 2012,"",15001,50000
Northern High Yield Fixed Income,"",Sold,Mar 27 2012,"",15001,50000
Northern High Yield Muni,"",Sold,Mar 27 2012,"",50001,100000
Northern Multi-Manager Intl Equity,"",Sold,Mar 27 2012,"",250001,500000
Northern Multi-Manager Large Cap,"",Sold,Mar 28 2012,"",100001,250000
Northern Multi-Manager Mid Cap,"",Sold,Mar 27 2012,"",50001,100000
Northern Multi-Manager Small Cap,"",Sold,Mar 27 2012,"",50001,100000
Northern Stock Index,"",Sold,Mar 27 2012,"",100001,250000
NRG Energy,"",Purchased,Apr  3 2012,"",1001,15000
NRG Energy,"",Sold,Nov  8 2012,"",1001,15000
Nuveen CA Divid Advantage Muni Fund,"",Sold,Jul  6 2012,"",1001,15000
Nuveen CA Divid Advantage Muni Fund,"",Sold,Jul 27 2012,"",1001,15000
Nuveen Credit Strategies,"",Sold,Nov  2 2012,"",1001,15000
Nuveen Credit Strategies,"",Sold,Dec  6 2012,"",1001,15000
Nuveen Credit Strategies,"",Purchased,Jan 24 2012,"",1001,15000
Nuveen Credit Strategies,"",Purchased,Feb 15 2012,"",1001,15000
Nuveen Credit Strategies,"",Sold,Dec 14 2012,"",1001,15000
Nuveen Credit Strategies,"",Purchased,Jan 23 2012,"",1001,15000
Nuveen Credit Strategies,"",Purchased,Feb 14 2012,"",1001,15000
Nuveen Credit Strategies,"",Sold,Jul 19 2012,"",1001,15000
Nuveen Credit Strategies,"",Purchased,Jan 23 2012,"",15001,50000
Nuveen Credit Strategies,"",Purchased,Feb 13 2012,"",15001,50000
Nuveen Credit Strategies,"",Sold,Jul 19 2012,"",1001,15000
Nuveen Credit Strategies,"",Sold,Jul 27 2012,"",1001,15000
Nuveen Credit Strategies,"",Sold,Oct  5 2012,"",1001,15000
Nuveen Credit Strategies,"",Sold,Oct 10 2012,"",1001,15000
Nuveen Credit Strategies,"",Sold,Oct 10 2012,"",1001,15000
Nuveen Credit Strategies,"",Sold,Nov  2 2012,"",1001,15000
Nuveen Credit Strategies,"",Sold,Dec  6 2012,"",1001,15000
Nuveen Premium Income Muni Fund,"",Sold,Apr 10 2012,"",1001,15000
Oppenheimer Developing Markets Fund,"",Purchased,Jan  3 2012,"",100001,250000
Oppenheimer Developing Markets Fund,"",Purchased,Dec 10 2012,"",1001,15000
"Orlando, FL Utils Commn Water & Elec Rev","",Sold,Dec 20 2012,"",15001,50000
Pimco All Asset All Authority Fund,"",Purchased,Quarterly,"",1001,15000
Pimco All Asset All Authority Fund,"",Purchased,Dec 27 2012,"",1001,15000
Pimco All Asset All Authority Fund,"",Purchased,Mar 27 2012,"",50001,100000
Pimco All Asset All Authority Fund,"",Purchased,Jun 21 2012,"",1001,15000
Pimco All Asset All Authority Fund,"",Purchased,Sep 20 2012,"",1001,15000
Pimco All Asset All Authority Fund,"",Purchased,Dec 27 2012,"",1001,15000
Pimco All Asset All Authority Fund,"",Purchased,Dec 31 2012,"",1001,15000
Pimco All Asset All Authority Fund,"",Sold,Jan  3 2012,"",100001,250000
PIMCO Commodity RealReturn Strat Fund,"",Sold,Mar 27 2012,"",15001,50000
Pimco High Yield Fund,"",Sold,Mar 27 2012,"",15001,50000
PIMCO Total Return Fund,"",Purchased,Mar 27 2012,"",50001,100000
PIMCO Total Return Fund,"",Purchased,May 31 2012,"",1001,15000
PIMCO Total Return Fund,"",Purchased,Nov 30 2012,"",1001,15000
PIMCO Total Return Fund,"",Purchased,Dec 12 2012,"",1001,15000
PIMCO Total Return Fund,"",Purchased,Dec 12 2012,"",1001,15000
PIMCO Total Return Fund,"",Purchased,Dec 27 2012,"",1001,15000
Pioneer Natural Resources,"",Purchased,Apr 25 2012,"",1001,15000
Plains Exploration & Production,"",Purchased,Sep 18 2012,"",1001,15000
Polyone Corp,"",Purchased,May 21 2012,"",1001,15000
PowerShares ETF Trust II,"",Sold,Apr 17 2012,"",1001,15000
PowerShares ETF Trust II,"",Sold,Jun 22 2012,"",1001,15000
PowerShares ETF Trust II,"",Sold,Jun 28 2012,"",1001,15000
PowerShares ETF Trust II,"",Sold,Jun 28 2012,"",1001,15000
PowerShares ETF Trust II,"",Purchased,Feb 27 2012,"",1001,15000
PowerShares ETF Trust II,"",Purchased,Feb 28 2012,"",1001,15000
PowerShares ETF Trust II,"",Purchased,Dec 14 2012,"",1001,15000
PowerShares ETF Trust II,"",Purchased,Feb 23 2012,"",1001,15000
PowerShares ETF Trust II,"",Purchased,May  4 2012,"",1001,15000
PowerShares ETF Trust II,"",Sold,Jul  3 2012,"",1001,15000
PowerShares ETF Trust II,"",Purchased,Nov 21 2012,"",1001,15000
PowerShares ETF Trust II,"",Purchased,Feb 21 2012,"",1001,15000
PowerShares ETF Trust II,"",Purchased,Feb 28 2012,"",1001,15000
PowerShares ETF Trust II,"",Sold,Jun 29 2012,"",1001,15000
PowerShares ETF Trust II,"",Purchased,Nov 21 2012,"",1001,15000
Principal High Yield Fund,"",Purchased,Dec 19 2012,"",1001,15000
Principal High Yield Fund,"",Purchased,Dec 19 2012,"",1001,15000
Principal High Yield Fund,"",Purchased,Dec 21 2012,"",1001,15000
Puerto Rico Cmwlth Government Dev,"",Purchased,Apr 24 2012,"",1001,15000
Puerto Rico Cmwlth Government Dev,"",Sold,Dec 19 2012,"",1001,15000
Rio Tinto Finance USA,"",Purchased,Apr  4 2012,"",1001,15000
Rowe T Price Summit Municipal Intermedia,"",Purchased,Monthly,"",50001,100000
Royal Caribbean Cruises Ltd,"",Purchased,May 11 2012,"",1001,15000
Scientific Games Intl Inc Gtd Senior Sub,"",Purchased,May 10 2012,"",1001,15000
Seagate HDD Cayman,"",Purchased,Sep 20 2012,"",1001,15000
Sector SPDR Trust,"",Sold,Jan 24 2012,"",1001,15000
Sector SPDR Trust,"",Sold,Jun 26 2012,"",1001,15000
Sector SPDR Trust,"",Sold,Nov 19 2012,"",1001,15000
Sector SPDR Trust,"",Sold,Dec 27 2012,"",1001,15000
Sector SPDR Trust,"",Sold,Jun 26 2012,"",1001,15000
Sector SPDR Trust,"",Sold,Nov 19 2012,"",1001,15000
Sector SPDR Trust,"",Sold,Dec 27 2012,"",1001,15000
Sector SPDR Trust,"",Sold,Jan 24 2012,"",1001,15000
Sector SPDR Trust,"",Sold,Jun 26 2012,"",15001,50000
Sector SPDR Trust,"",Sold,Nov 19 2012,"",15001,50000
Sector SPDR Trust,"",Sold,Dec 27 2012,"",15001,50000
Sector SPDR Trust SHS Ben Int Energy,"",Sold,Nov 14 2012,"",1001,15000
Sector SPDR Trust SHS Ben Int Energy,"",Sold,Nov 14 2012,"",1001,15000
Sector SPDR Trust SHS Ben Int Energy,"",Sold,Nov 14 2012,"",1001,15000
Sector SPDR Utilities,"",Sold,Jun 21 2012,"",1001,15000
Sector SPDR Utilities,"",Sold,Jun 21 2012,"",1001,15000
Sector SPDR Utilities,"",Sold,Jun 21 2012,"",1001,15000
Service Corp International,"",Sold,Sep 20 2012,"",1001,15000
Service Corp International,"",Purchased,Apr 17 2012,"",1001,15000
South Carolina Public Svc Auth Bond,"",Purchased,May 11 2012,"",15001,50000
South Carolina Public Svc Auth Bond,"",Sold,Nov 26 2012,"",15001,50000
SPDR Barclays Capital High Yield ETF,"",Sold,Nov 19 2012,"",1001,15000
SPDR Barclays Capital High Yield ETF,"",Sold,Nov 19 2012,"",15001,50000
SPDR Barclays Capital High Yield ETF,"",Sold,Nov 19 2012,"",1001,15000
SPDR Barclays High Yield Bond,"",Sold,Nov 14 2012,"",1001,15000
SPDR Barclays High Yield Bond,"",Sold,Nov 14 2012,"",1001,15000
SPDR Barclays High Yield Bond,"",Sold,Nov 14 2012,"",1001,15000
SPDR S&P 500 ETF Trust,"",Sold,May  7 2012,"",1001,15000
SPDR S&P 500 ETF Trust,"",Sold,May  7 2012,"",15001,50000
SPDR S&P 500 ETF Trust,"",Sold,May 15 2012,"",1001,15000
SPDR S&P 500 ETF Trust,"",Sold,Jul 25 2012,"",15001,50000
SPDR S&P 500 ETF Trust,"",Sold,Jan 23 2012,"",15001,50000
SPDR S&P 500 ETF Trust,"",Sold,Mar  8 2012,"",100001,250000
SPDR S&P 500 ETF Trust,"",Sold,Mar  8 2012,"",1001,15000
SPDR S&P 500 ETF Trust,"",Sold,Mar  8 2012,"",1001,15000
SPDR S&P 500 ETF Trust,"",Sold,Mar  8 2012,"",1001,15000
SPDR S&P 500 ETF Trust,"",Sold,Mar  8 2012,"",1001,15000
SPDR S&P 500 ETF Trust,"",Sold,Mar  8 2012,"",1001,15000
SPDR S&P 500 ETF Trust,"",Sold,Mar  8 2012,"",15001,50000
Sprint Capital Corp,Sprint Nextel,Purchased,Aug 30 2012,"",1001,15000
Stratasys Ltd,"",Sold,Dec  3 2012,"",500001,1000000
SunAmerica Focused Alpha Growth Fund,"",Sold,Jan 25 2012,"",1001,15000
SunAmerica Focused Alpha Growth Fund,"",Sold,Jan 25 2012,"",1001,15000
SunAmerica Focused Alpha Growth Fund,"",Sold,Jan 25 2012,"",1001,15000
SunAmerica Focused Alpha Large Cap Fund,"",Sold,Jan 25 2012,"",15001,50000
SunAmerica Focused Alpha Large Cap Fund,"",Sold,Jan 26 2012,"",1001,15000
SunAmerica Focused Alpha Large Cap Fund,"",Sold,Jan 31 2012,"",1001,15000
SunAmerica Focused Alpha Large Cap Fund,"",Sold,Jan 31 2012,"",1001,15000
SunAmerica Focused Alpha Large Cap Fund,"",Sold,Jan 26 2012,"",1001,15000
SunAmerica Focused Alpha Large Cap Fund,"",Sold,Jan 31 2012,"",1001,15000
SunAmerica Focused Alpha Large Cap Fund,"",Sold,Jan 26 2012,"",15001,50000
SunAmerica Focused Alpha Large Cap Fund,"",Sold,Jan 25 2012,"",1001,15000
TCW Strategic Income Fund,"",Sold,Feb 13 2012,"",1001,15000
TCW Strategic Income Fund,"",Sold,Feb 14 2012,"",1001,15000
TCW Strategic Income Fund,"",Sold,Feb 15 2012,"",1001,15000
TCW Strategic Income Fund,"",Sold,Jan 17 2012,"",1001,15000
TCW Strategic Income Fund,"",Sold,Jan 26 2012,"",1001,15000
Technology Select Sector SPDR ETF,"",Sold,Dec 21 2012,"",1001,15000
Technology Select Sector SPDR ETF,"",Sold,Dec 21 2012,"",1001,15000
Technology Select Sector SPDR ETF,"",Sold,Dec 21 2012,"",1001,15000
Technology Select Sector SPDR ETF,"",Sold,Dec 21 2012,"",1001,15000
Teck Resources,"",Purchased,Apr 19 2012,"",1001,15000
Teekay Corp,"",Purchased,Apr 19 2012,"",1001,15000
Terex Corp/Senior Note,"",Purchased,Apr 16 2012,"",1001,15000
Tesoro Corp,"",Purchased,Apr 16 2012,"",1001,15000
Thornburg International Value Fund,"",Purchased,Quarterly,"",1001,15000
Tortoise Energy Cap Corp,"",Sold,May  2 2012,"",1001,15000
Treasury Note,"",Purchased,Oct 17 2012,"",1001,15000
Treasury Note,"",Purchased,Nov 30 2012,"",1001,15000
United Rentals,"",Purchased,Apr 12 2012,"",1001,15000
US Steel Corp,"",Purchased,May  1 2012,"",1001,15000
Valero Energy,"",Purchased,Apr 11 2012,"",1001,15000
Vanguard Index Vanguard Total Stock Mkt,"",Purchased,Nov 19 2012,"",1001,15000
Vanguard Index Vanguard Total Stock Mkt,"",Purchased,Nov 19 2012,"",1001,15000
Vanguard Index Vanguard Total Stock Mkt,"",Purchased,Nov 19 2012,"",15001,50000
Vanguard Index Vanguard Total Stock Mkt,"",Sold,Apr 13 2012,"",250001,500000
Vanguard Inflation Protected Securities,"",Purchased,Quarterly,"",1001,15000
Vanguard Inflation Protected Securities,"",Purchased,Dec 20 2012,"",1001,15000
Vanguard Sector Index Fds Vanguard Infor,"",Purchased,Dec 27 2012,"",15001,50000
Vanguard Sector Index Fds Vanguard Infor,"",Purchased,Dec 27 2012,"",1001,15000
Vanguard Sector Index Fds Vanguard Infor,"",Purchased,Dec 27 2012,"",1001,15000
Vanguard Short Term Investment Grade Fd,"",Purchased,Monthly,"",50001,100000
Vanguard Short Term Investment Grade Fd,"",Sold,Aug  6 2012,"",15001,50000
Vanguard Short Term Investment Grade Fd,"",Purchased,Jan  3 2012,"",1001,15000
Walt Disney Co,"",Sold,Nov 26 2012,"",50001,100000
Washington State AGM B/E Bond,"",Purchased,May 24 2012,"",50001,100000
Weatherford International,"",Purchased,Apr  9 2012,"",1001,15000
Wells Fargo Advantage Growth Admin Class,"",Purchased,Mar 27 2012,"",100001,250000
Wells Fargo Intrinsic Value Admin Class,"",Purchased,Jan  3 2012,"",100001,250000
Wells Fargo Intrinsic Value Admin Class,"",Purchased,Mar 27 2012,"",100001,250000
Wells Fargo Intrinsic Value Admin Class,"",Purchased,Dec  7 2012,"",15001,50000
Wells Fargo Intrinsic Value Admin Class,"",Purchased,Dec 13 2012,"",1001,15000
Western Asset Inflation Management Fund,"",Purchased,Aug 29 2012,"",1001,15000
Windstream Corp,"",Purchased,Apr  3 2012,"",1001,15000
Xerox Corp,"",Purchased,Apr 17 2012,"",1001,15000
Xerox Corp,"",Sold,Jul  9 2012,"",1001,15000
Zweig Total Return Fund,"",Purchased,Jul  5 2012,"",1001,15000
Zweig Total Return Fund,"",Purchased,Dec 17 2012,"",1001,15000
Zweig Total Return Fund,"",Purchased,Jun 25 2012,"",15001,50000
Zweig Total Return Fund,"",Purchased,Dec 21 2012,"",1001,15000
Zweig Total Return Fund,"",Purchased,Jun 27 2012,"",1001,15000
