orgname,ultorg,action,date1,transnotes,minvalue,maxvalue
3M Co,"",Purchased,3 Times,"",15001,50000
ABB Ltd,"",Purchased,3 Times,"",15001,50000
ABB Ltd,"",Sold,Sep 15 2008,"",15001,50000
Abbott Laboratories,"",Purchased,4 Times,"",15001,50000
Abbott Laboratories,"",Sold,Nov  6 2008,"",15001,50000
Adobe Systems,"",Purchased,Oct 13 2008,"",1001,15000
AGE Bank Deposit Program,"",Purchased,24 Times,"",100001,250000
Air Products & Chemicals Inc,"",Purchased,3 Times,"",15001,50000
Air Products & Chemicals Inc,"",Sold,2 Times,"",15001,50000
Alcon Inc,"",Purchased,Sep 19 2008,"",1001,15000
Alcon Inc,"",Sold,Oct 23 2008,"",1001,15000
Amazon.com,"",Purchased,Oct 13 2008,"",15001,50000
Amazon.com,"",Sold,Jan 23 2008,"",15001,50000
American Express,"",Purchased,Oct 13 2008,"",15001,50000
American Express,"",Sold,3 Times,"",15001,50000
Anadarko Petroleum,"",Purchased,Oct 14 2008,"",1001,15000
Apple Inc,"",Sold,Jun 12 2008,"",1001,15000
Applied Materials Inc,"",Purchased,3 Times,"",15001,50000
Applied Materials Inc,"",Sold,Oct  8 2008,"",15001,50000
Archer Daniels Midland,"",Purchased,2 Times,"",15001,50000
Archer Daniels Midland,"",Sold,2 Times,"",15001,50000
Barclays Cap High Yield Bond,"",Purchased,6 Times,"",15001,50000
"Becton, Dickinson & Co","",Purchased,4 Times,"",15001,50000
"Becton, Dickinson & Co","",Sold,Sep 12 2008,"",15001,50000
Berkshire Hathaway,"",Sold,Jun 26 2008,"",15001,50000
BHP Billiton,"",Purchased,Oct 13 2008,"",1001,15000
BNSF Railway,"",Purchased,Mar 14 2008,"",15001,50000
BNSF Railway,"",Sold,Jul 11 2008,"",15001,50000
Boeing Co,"",Purchased,3 Times,"",1001,15000
Bombardier Inc,"",Purchased,Aug 13 2008,"",15001,50000
Bombardier Inc,"",Sold,3 Times,"",15001,50000
Boston Properties,"",Purchased,3 Times,"",15001,50000
Boston Properties,"",Sold,Sep 16 2008,"",15001,50000
Caterpillar Inc,"",Purchased,Apr 24 2008,"",1001,15000
Caterpillar Inc,"",Sold,Oct  6 2008,"",1001,15000
Centennial Money Market,"",Sold,24 Times,"",50001,100000
Centennial Tax Exempt Trust Money Market,"",Sold,24 Times,"",1001,15000
Chesapeake Energy,"",Purchased,2 Times,"",15001,50000
Chesapeake Energy,"",Sold,May  2 2008,"",15001,50000
Cisco Systems,"",Purchased,2 Times,"",15001,50000
Cisco Systems,"",Sold,Mar 17 2008,"",15001,50000
Citigroup Inc,"",Purchased,Sep 19 2008,"",1001,15000
Citigroup Inc,"",Sold,Oct 23 2008,"",1001,15000
Coca-Cola Co,"",Sold,Jun 19 2008,"",15001,50000
Costco Wholesale,"",Purchased,Nov 25 2008,"",15001,50000
Costco Wholesale,"",Sold,Oct  8 2008,"",15001,50000
Deere & Co,"",Purchased,Apr 24 2008,"",1001,15000
Deere & Co,"",Sold,2 Times,"",1001,15000
Devon Energy,"",Purchased,2 Times,"",15001,50000
Devon Energy,"",Sold,Jul 25 2008,"",15001,50000
Diageo Plc,"",Purchased,Feb 13 2008,"",15001,50000
Diageo Plc,"",Sold,2 Times,"",15001,50000
Encana Corp,"",Purchased,May 16 2008,"",15001,50000
Encana Corp,"",Sold,Sep 17 2008,"",15001,50000
Exxon Mobil,"",Purchased,Feb 13 2008,"",1001,15000
Federal Farm Credit Bank Note,Federal Farm Credit Bank,Purchased,11 Times,"",1000001,5000000
Federal Farm Credit Bank Note,Federal Farm Credit Bank,Sold,17 Times,"",1000001,5000000
Federal Home Loan Bank Note,Federal Home Loan Bank System,Purchased,3 Times,"",500001,1000000
Federal Home Loan Bank Note,Federal Home Loan Bank System,Sold,3 Times,"",500001,1000000
Federated Govt Obligations Fund,"",Purchased,24 Times,"",500001,1000000
Fedex Corp,"",Purchased,Apr 24 2008,"",1001,15000
Fedex Corp,"",Sold,Jun 27 2008,"",1001,15000
FMC Technologies,"",Purchased,Apr  4 2008,"",15001,50000
FMC Technologies,"",Sold,2 Times,"",15001,50000
Ford Motor Co,"",Purchased,Apr 28 2008,"",1001,15000
Ford Motor Co,"",Sold,Nov 19 2008,"",1001,15000
Genentech Inc,Roche Holdings,Purchased,2 Times,"",1001,15000
Genentech Inc,Roche Holdings,Sold,Jul  7 2008,"",1001,15000
General Dynamics,"",Purchased,2 Times,"",15001,50000
General Electric,"",Purchased,2 Times,"",50001,100000
General Electric,"",Sold,2 Times,"",50001,100000
Georgia State G/O Bond,"",Sold,2 Times,"",50001,100000
Gilead Sciences,"",Purchased,3 Times,"",1001,15000
Goldman Sachs,"",Purchased,3 Times,"",15001,50000
Goldman Sachs,"",Sold,Jun 26 2008,"",15001,50000
Grand Rapids MI Pub Schs Go,"",Sold,Mar 10 2008,"",50001,100000
Harris Corp,"",Sold,2 Times,"",1001,15000
Hewlett-Packard,"",Purchased,Apr  4 2008,"",15001,50000
Hewlett-Packard,"",Sold,2 Times,"",15001,50000
Hologic Inc,"",Sold,Mar 10 2008,"",1001,15000
Honeywell International,"",Purchased,3 Times,"",15001,50000
Honeywell International,"",Sold,2 Times,"",15001,50000
HSBC Holdings,"",Purchased,2 Times,"",15001,50000
HSBC Holdings,"",Sold,Sep 15 2008,"",15001,50000
IBM Corp,"",Purchased,2 Times,"",1001,15000
Illinois G/O Unltd First Ser,"",Sold,Dec  1 2008,"",15001,50000
Intel Corp,"",Purchased,Nov  4 2008,"",1001,15000
iShares Barclays (Lehman) 1-3 Yr Cred,"",Purchased,2 Times,"",1001,15000
iShares Barclays (Lehman) 1-3 Yr Trea,"",Sold,6 Times,"",50001,100000
iShares DJ US Telecom,"",Purchased,2 Times,"",1001,15000
iShares DJ US Utilities Sector Index,"",Sold,4 Times,"",1001,15000
iShares Iboxx High Yield Corp Bond Fund,"",Purchased,6 Times,"",15001,50000
iShares Msci Eafe Index,"",Purchased,2 Times,"",15001,50000
iShares Msci Eafe Index,"",Sold,2 Times,"",15001,50000
iShares MSCI Emerging Markets Index,"",Purchased,2 Times,"",15001,50000
iShares MSCI Emerging Markets Index,"",Sold,2 Times,"",15001,50000
iShares S&P 500 Index,"",Sold,5 Times,"",15001,50000
iShares S&P Small Cap 600 Growth Index,"",Purchased,2 Times,"",15001,50000
iShares S&P Small Cap 600 Value Index,"",Purchased,2 Times,"",15001,50000
iShares TR-Midcap 400 Growth Index,"",Purchased,2 Times,"",50001,100000
iShares TR-Midcap 400 Growth Index,"",Sold,2 Times,"",50001,100000
iShares TR-Midcap 400 Value Index,"",Purchased,2 Times,"",15001,50000
iShares TR-Midcap 400 Value Index,"",Sold,2 Times,"",15001,50000
Jacobs Engineering Group,"",Purchased,3 Times,"",50001,100000
Jacobs Engineering Group,"",Sold,3 Times,"",50001,100000
John Bean Technologies,"",Sold,2 Times,"","",""
Johnson & Johnson,"",Purchased,Oct 13 2008,"",1001,15000
JPMorgan Chase & Co,"",Purchased,3 Times,"",15001,50000
JPMorgan Chase & Co,"",Sold,3 Times,"",15001,50000
Kellogg Co,"",Purchased,Sep 17 2008,"",1001,15000
Kimberly-Clark Corp,"",Purchased,Sep 17 2008,"",1001,15000
"Lansing, MI School Dist","",Sold,Mar 10 2008,"",50001,100000
Las Vegas Sands,"",Purchased,Jul 23 2008,"",1001,15000
Las Vegas Sands,"",Sold,Sep 17 2008,"",1001,15000
Marathon Oil,"",Sold,4 Times,"",15001,50000
Martin Marietta Materials,"",Purchased,Dec 23 2008,"",1001,15000
McDonald's Corp,"",Sold,2 Times,"",1001,15000
MGM Mirage,"",Purchased,4 Times,"",15001,50000
MGM Mirage,"",Sold,Jun 11 2008,"",15001,50000
Michigan G/O ULT,"",Sold,Dec  1 2008,"",15001,50000
Microsoft Corp,"",Purchased,2 Times,"",50001,100000
Microsoft Corp,"",Sold,3 Times,"",50001,100000
Minnesota G/O ULT,"",Purchased,May 15 2008,"",50001,100000
Money Mkt Obligations Trust Cash Balance,"",Sold,24 Times,"",1001,15000
Monsanto Co,"",Sold,2 Times,"",15001,50000
Moody's Corp,"",Purchased,3 Times,"",15001,50000
Moody's Corp,"",Sold,Jul 11 2008,"",15001,50000
Mosaic Co,Cargill Inc,Purchased,Jul 21 2008,"",1001,15000
Mosaic Co,Cargill Inc,Sold,Sep  9 2008,"",1001,15000
Nestle SA,"",Sold,Jun 30 2008,"",15001,50000
Nestle SA,"",Sold,4 Times,"",15001,50000
News Corporation,"",Purchased,3 Times,"",15001,50000
News Corporation,"",Sold,Jan 11 2008,"",15001,50000
Nike Inc,"",Purchased,Sep 24 2008,"",1001,15000
Nucor Corp,"",Purchased,2 Times,"",15001,50000
Nucor Corp,"",Sold,2 Times,"",15001,50000
Oshkosh Truck Corp,"",Purchased,Sep 23 2008,"",1001,15000
Oshkosh Truck Corp,"",Sold,2 Times,"",1001,15000
Peabody Energy,"",Purchased,Oct 21 2008,"",1001,15000
Perrigo Co,"",Purchased,2 Times,"",15001,50000
PotashCorp,"",Sold,4 Times,"",15001,50000
Quanta Services,"",Purchased,Jul 22 2008,"",15001,50000
Quanta Services,"",Sold,Sep 29 2008,"",15001,50000
Ralcorp Holdings,"",Purchased,Oct 24 2008,"",1001,15000
Rayonier Inc,"",Sold,Jan 16 2008,"",15001,50000
Research In Motion,"",Sold,Feb  7 2008,"",1001,15000
Rio Tinto,"",Purchased,2 Times,"",15001,50000
Rio Tinto,"",Sold,2 Times,"",15001,50000
Schlumberger Ltd,"",Purchased,Feb 13 2008,"",1001,15000
Sector SPDR Consumer Staples,"",Sold,8 Times,"",15001,50000
Sector SPDR SBI Energy Fund,"",Purchased,2 Times,"",15001,50000
Sector SPDR SBI Energy Fund,"",Sold,2 Times,"",15001,50000
Sector Spdr SBI Financial Fund,"",Sold,3 Times,"",1001,15000
Sector SPDR SBI Industrial Fund,"",Purchased,2 Times,"",15001,50000
Sector SPDR SBI Industrial Fund,"",Sold,6 Times,"",15001,50000
Sector SPDR SBI Technology,"",Purchased,2 Times,"",1001,15000
Sector SPDR SBI Technology,"",Sold,4 Times,"",1001,15000
Select Sec SPDR Consumer Discretiona,"",Purchased,2 Times,"",1001,15000
Select Sec SPDR Consumer Discretiona,"",Sold,4 Times,"",1001,15000
Select Sec SPDR Health Care,"",Sold,6 Times,"",15001,50000
SemGroup Energy Partners,"",Sold,Jul 17 2008,"",15001,50000
Sherwin-Williams Co,"",Purchased,3 Times,"",1001,15000
SSgA Govt Money Market,"",Sold,24 Times,"",50001,100000
Stryker Corp,"",Purchased,2 Times,"",15001,50000
Stryker Corp,"",Sold,Jun 19 2009,"",15001,50000
Target Corp,"",Purchased,Oct 29 2008,"",1001,15000
Teva Pharmaceutical Industries,"",Purchased,Jul 18 2008,"",1001,15000
Transocean Inc,"",Purchased,Aug  7 2008,"",15001,50000
Transocean Inc,"",Sold,Nov 11 2008,"",15001,50000
US Treasury Bills,"",Purchased,17 Times,"",1000001,5000000
US Treasury Bills,"",Sold,22 Times,"",1000001,5000000
Vanguard REIT Index,"",Purchased,6 Times,"",50001,100000
Vanguard REIT Index,"",Sold,2 Times,"",50001,100000
Vanguard Total Bond Market Index,"",Purchased,2 Times,"",15001,50000
Vanguard Total Bond Market Index,"",Sold,2 Times,"",15001,50000
VCA Antech Inc,"",Sold,2 Times,"",1001,15000
Vermont Ref Bond,"",Purchased,May 19 2008,"",50001,100000
Vodafone Group,"",Sold,Mar 17 2008,"",15001,50000
Wachovia Corp,"",Purchased,2 Times,"",15001,50000
Wachovia Corp,"",Sold,Sep 15 2008,"",15001,50000
Wal-Mart Stores,"",Purchased,2 Times,"",15001,50000
Wal-Mart Stores,"",Sold,Oct 29 2008,"",15001,50000
Walt Disney Co,"",Purchased,Sep 17 2008,"",1001,15000
Wells Fargo,"",Purchased,Oct 13 2008,"",15001,50000
Wells Fargo,"",Sold,2 Times,"",15001,50000
Weyerhaeuser Co,"",Purchased,2 Times,"",1001,15000
Weyerhaeuser Co,"",Sold,Nov 11 2008,"",1001,15000
