orgname,ultorg,action,date1,transnotes,minvalue,maxvalue
American Bond Fund of America,"",Sold,Nov 17 2010,"","",""
American Capital Income Builder Fund,"",Sold,Nov 17 2010,"","",""
American Funds Growth Fund of America,"",Sold,Nov 17 2010,"","",""
