orgname,ultorg,action,date1,transnotes,minvalue,maxvalue
Alliance Resource Partners,"",Sold,Apr  4 2011,"",881,881
Altria Group,"",Sold,Aug  1 2011,"",50001,100000
American Capital Agency Reits,"",Sold,Nov  3 2011,"",1001,15000
American Capital Agency Reits,"",Purchased,Oct 28 2011,"",1001,15000
American Capital Agency Reits,"",Purchased,Sep  1 2011,"",15001,50000
American Capital Agency Reits,"",Sold,Oct 26 2011,"",15001,50000
Annaly Capital Management,"",Sold,Nov  2 2011,"",15001,50000
Annaly Capital Management,"",Sold,Nov  3 2011,"",612,612
Annaly Capital Management,"",Sold,Jul 27 2011,"",15001,50000
Atlantic Power Corp CDA,"",Sold,Aug  4 2011,"",50001,100000
B&G Plc,"",Sold,Jul 27 2011,"",15001,50000
Bell Aliant Regional,"",Sold,Jan 26 2011,"",15001,50000
Collectors Universe,"",Sold,Nov 30 2011,"",50001,100000
Collectors Universe,"",Sold,Aug 11 2011,"",50001,100000
Cys Investments Inc,"",Purchased,Sep  1 2011,"",15001,50000
Duke Energy,"",Sold,Aug  4 2011,"",50001,100000
Earthlink Inc,"",Sold,Aug  8 2011,"",15001,50000
Energy Transfer Partners,Energy Transfer Equity,Sold,Apr  4 2011,"",625,625
Enervest Divers Inc Newf,"",Purchased,Aug 16 2011,"",50001,100000
Enervest Divers Inc Newf,"",Purchased,Sep 19 2011,"",15001,50000
Ferrillgas Partners,"",Purchased,Aug 18 2011,"",50001,100000
Ferrillgas Partners,"",Sold,Sep  9 2011,"",50001,100000
Frontier Communications,"",Sold,Jul 27 2011,"",15001,50000
Frontier Communications,"",Sold,Dec 30 2011,"",15001,50000
Gamco Global Gold & Natural Resources,"",Purchased,Nov 22 2011,"",15001,50000
Ingles Markets Inc,"",Sold,Oct 31 2011,"",15001,50000
Ingles Markets Inc,"",Purchased,Nov 29 2011,"",1001,15000
Ingles Markets Inc,"",Purchased,Aug 26 2011,"",15001,50000
Ingles Markets Inc,"",Purchased,Sep 22 2011,"",1001,15000
Linn Energy,"",Sold,Nov  1 2011,"",50001,100000
Linn Energy,"",Sold,Aug  3 2011,"",50001,100000
Pembina Pipeline Tr,"",Sold,Aug  5 2011,"",50001,100000
Peyto Energy Trust ,"",Sold,Aug  5 2011,"",50001,100000
PIMCO,Allianz,Purchased,Oct  7 2011,"",1001,15000
PIMCO,Allianz,Purchased,Aug 22 2011,"",15001,50000
Progress Energy,"",Sold,Jul 19 2011,"",50001,100000
"Rental Bermuda Run, Advance, NC","",Purchased,Aug  5 2005,"",1001,15000
SPDR Gold Trust ETF,"",Purchased,Aug 17 2011,"",15001,50000
SPDR Gold Trust ETF,"",Sold,Aug 24 2011,"",15001,50000
Stonemor Partners,"",Purchased,Apr  4 2011,"",15001,50000
Stonemor Partners,"",Sold,Jul 27 2011,"",50001,100000
Stonemor Partners,"",Purchased,Apr 28 2011,"",1001,15000
Stonemor Partners,"",Purchased,May  4 2011,"",1001,15000
Stonemor Partners,"",Purchased,May 20 2011,"",1001,15000
Stonemor Partners,"",Purchased,Mar  8 2011,"",1001,15000
Student Transportation Inc,"",Purchased,Sep  2 2011,"",15001,50000
Windstream Corp,"",Sold,Jul 29 2011,"",50001,100000
Windstream Corp,"",Sold,Nov  4 2011,"",50001,100000
World Wrestling Entmt,"",Sold,Apr 29 2011,"",15001,50000
Yellow Media Inc,"",Sold,Jul 19 2011,"",1001,15000
