orgname,ultorg,action,date1,transnotes,minvalue,maxvalue
Claymore Guggenheim Ultra Short Duration ETF,"",Sold,170710,"",1001,15000
First Trust Senior Loan Fund ETF,"",Purchased,170308,"",1001,15000
iShares Edge MSCI Min Volatility EAFE ETF,"",Purchased,170706,"",1001,15000
iShares Edge MSCI Min Volatility Emerging Markets,"",Purchased,170706,"",1001,15000
iShares Edge MSCI Min Volatility ETF,"",Purchased,170628,"",1001,15000
PowerShares Exchange Traded Fund TR II S&P 600 Low,"",Purchased,170711,"",1001,15000
PowerShares High Yield Equity Dividend Achievers E,"",Purchased,170706,"",1001,15000
Publix Super Markets,"",Sold,170925,"",1001,15000
Sector Materials Select Sector SPDR ETF,"",Purchased,170706,"",1001,15000
SPDR Blackstone 650 SR LN ETF,"",Sold,170308,"","",""
