orgname,ultorg,action,date1,transnotes,minvalue,maxvalue
DFA US Large Cap Value Port Inst,"",Sold,181126,"",1001,15000
DFA US Targeted Value Port Inst,"",Sold,181126,"",1001,15000
JPMorgan Lrg Cp Growth Fund R6 (JLGMX),"",Sold,181126,"",1001,15000
JPMRGN Div Rtn US Eqy ETF (JPUS),"",Purchased,180702,"",1001,15000
JPMRGN Dvrs Rtn US Sml CP EQ ETF (JPSE),"",Purchased,180702,"",1001,15000
"Residential Real Estate Lawrence, KS","",Sold,180320,"",100001,250000
Schwab Fund US Small Com ETF,"",Sold,180702,"",1001,15000
Schwab Govt Money Fund SWGXX,"",Purchased,180201,"",1001,15000
Schwab Govt Money Fund SWGXX,"",Purchased,180507,"",1001,15000
Vanguard Developed Markets Index (VTMGX),"",Purchased,181126,"",1001,15000
Vanguard Emg Markets Stock Index (VEMAX),"",Purchased,181126,"",1001,15000
Vanguard Total Stock Market Index (VTSAX),"",Purchased,181126,"",1001,15000
