orgname,ultorg,action,date1,transnotes,minvalue,maxvalue
AM Funds EuroPacific Growth,"",Sold,Feb  7 2018 12:00AM,"","",""
AM Funds EuroPacific Growth,"",Purchased,2/7/2018,"",1001,15000
AM Funds EuroPacific Growth,"",Purchased,2/7/2018,"",1001,15000
Artisan Mid Cap Value Investor,"",Purchased,2/7/2018,"",1001,15000
Artisan Mid Cap Value Investor,"",Sold,2/21/2018,"",100001,250000
Artisan Mid Cap Value Investor,"",Purchased,2/7/2018,"",1001,15000
Artisan Mid Cap Value Investor,"",Sold,2/21/2018,"",100001,250000
Artisan Mid Cap Value Investor,"",Sold,Feb  7 2018 12:00AM,"","",""
Artisan Mid Cap Value Investor,"",Exchanged,Feb 21 2018 12:00AM,"","",""
Balance Account/Dentons US LLP Cash Balance Plan,"",Sold,Jan 31 2018 12:00AM,"","",""
Balance Account/Dentons US LLP Cash Balance Plan,"",Purchased,1/31/2018,"",15001,50000
Dentons US LLP Cash Balance Plan,"",Purchased,1/31/2018,"",15001,50000
DFA Emerging Markets Core Equity Portfolio,"",Purchased,6/5/2018,"",1001,15000
DFA Emerging Markets Core Equity Portfolio,"",Sold,Jun  5 2018 12:00AM,"","",""
DFA Emerging Markets Core Equity Portfolio,"",Sold,6/4/2018,"",1001,15000
DFA Emerging Markets Core Equity Portfolio,"",Purchased,6/5/2018,"",1001,15000
DFA Emerging Markets Core Equity Portfolio,"",Sold,6/4/2018,"",1001,15000
DFA Emerging Markets Core Equity Portfolio,"",Sold,6/4/2018,"",1001,15000
DFA Emerging Markets Core Equity Portfolio,"",Sold,6/4/2018,"",1001,15000
DFA Global Real Estate Securities,"",Purchased,6/5/2018,"",1001,15000
DFA Global Real Estate Securities,"",Sold,Jun  5 2018 12:00AM,"","",""
DFA Global Real Estate Securities,"",Purchased,6/5/2018,"",1001,15000
DFA International Core Equity Fund,"",Sold,6/4/2018,"",1001,15000
DFA International Core Equity Fund,"",Sold,6/4/2018,"",1001,15000
DFA International Core Equity Fund,"",Sold,6/4/2018,"",1001,15000
DFA International Core Equity Fund,"",Sold,6/4/2018,"",1001,15000
DFA International Small Cap Fund,"",Sold,6/4/2018,"",1001,15000
DFA International Small Cap Fund,"",Sold,6/4/2018,"",1001,15000
DFA International Small Cap Fund,"",Sold,6/4/2018,"",1001,15000
DFA International Small Cap Fund,"",Sold,6/4/2018,"",1001,15000
DFA International Small Cap Fund,"",Sold,6/4/2018,"",1001,15000
DFA International Small Cap Fund,"",Sold,6/4/2018,"",1001,15000
DFA International Small Cap Fund,"",Exchanged,Jun  4 2018 12:00AM,"","",""
DFA Two Year Global Fund,"",Sold,Jun  5 2018 12:00AM,"","",""
DFA Two Year Global Fund,"",Sold,Jun  5 2018 12:00AM,"","",""
DFA Two Year Global Fund,"",Purchased,6/5/2018,"",15001,50000
DFA Two Year Global Fund,"",Purchased,6/5/2018,"",15001,50000
DFA Two Year Global Fund,"",Purchased,6/5/2018,"",15001,50000
DFA Two Year Global Fund,"",Purchased,6/5/2018,"",15001,50000
DFA US Core Equity Fund,"",Purchased,6/5/2018,"",1001,15000
DFA US Core Equity Fund,"",Purchased,6/5/2018,"",1001,15000
DFA US Core Equity Fund,"",Sold,Jun  5 2018 12:00AM,"","",""
DFA US Large Cap Value Fund,"",Sold,6/4/2018,"",15001,50000
DFA US Large Cap Value Fund,"",Sold,6/4/2018,"",15001,50000
DFA US Large Cap Value Fund,"",Sold,6/4/2018,"",15001,50000
DFA US Large Cap Value Fund,"",Sold,6/4/2018,"",15001,50000
DFA US Small Cap Fund,"",Sold,6/4/2018,"",15001,50000
DFA US Small Cap Fund,"",Sold,6/4/2018,"",1001,15000
DFA US Small Cap Fund,"",Sold,6/4/2018,"",15001,50000
DFA US Small Cap Fund,"",Sold,6/4/2018,"",1001,15000
DFA US Targeted Value Fund,"",Sold,6/4/2018,"",1001,15000
DFA US Targeted Value Fund,"",Exchanged,Jun  4 2018 12:00AM,"","",""
DFA US Targeted Value Fund,"",Sold,6/4/2018,"",1001,15000
iShares Core S&P 500 ETF,"",Purchased,6/5/2018,"",15001,50000
iShares Core S&P 500 ETF,"",Purchased,6/5/2018,"",15001,50000
iShares Core S&P 500 ETF,"",Sold,Jun  5 2018 12:00AM,"","",""
iShares Core S&P 500 ETF,"",Sold,Jun  5 2018 12:00AM,"","",""
iShares Core S&P 500 ETF,"",Purchased,6/5/2018,"",15001,50000
iShares Core S&P 500 ETF,"",Purchased,6/5/2018,"",15001,50000
iShares Core US Aggregate Bond ETF,"",Purchased,6/5/2018,"",1001,15000
Ishares Core US Aggregate Bond ETF,"",Sold,6/4/2018,"",1001,15000
Ishares Core US Aggregate Bond ETF,"",Sold,6/4/2018,"",1001,15000
iShares Core US Aggregate Bond ETF,"",Sold,Jun  5 2018 12:00AM,"","",""
iShares Core US Aggregate Bond ETF,"",Purchased,6/5/2018,"",1001,15000
Metropolitan West Total Return Bond Fund,"",Purchased,2/7/2018,"",1001,15000
Metropolitan West Total Return Bond Fund,"",Sold,Feb  7 2018 12:00AM,"","",""
Metropolitan West Total Return Bond Fund,"",Purchased,2/7/2018,"",1001,15000
Vanguard 500 Index,"",Purchased,2/7/2018,"",1001,15000
Vanguard 500 Index,"",Sold,Feb  7 2018 12:00AM,"","",""
Vanguard 500 Index,"",Purchased,2/7/2018,"",1001,15000
Vanguard Short Term Investment Grade Fund,"",Purchased,6/5/2018,"",15001,50000
Vanguard Short Term Investment Grade Fund,"",Purchased,6/5/2018,"",15001,50000
Vanguard Short Term Investment Grade Fund,"",Sold,Jun  5 2018 12:00AM,"","",""
Vanguard Short Term Investment Grade Fund,"",Sold,Jun  5 2018 12:00AM,"","",""
Vanguard Short Term Investment Grade Fund,"",Purchased,6/5/2018,"",15001,50000
Vanguard Short Term Investment Grade Fund,"",Purchased,6/5/2018,"",15001,50000
Vanguard Small Cap Fund,"",Sold,6/4/2018,"",15001,50000
Vanguard Small Cap Fund,"",Sold,6/4/2018,"",15001,50000
Vanguard Small Cap Fund,"",Sold,6/4/2018,"",15001,50000
Vanguard Small Cap Fund,"",Sold,6/4/2018,"",15001,50000
Wedge Mid Cap Value,"",Purchased,2/22/2018,"",100001,250000
Wedge Mid Cap Value,"",Sold,Feb 22 2018 12:00AM,"","",""
Wedge Mid Cap Value,"",Purchased,2/22/2018,"",100001,250000
Wells Fargo Stable Return Fund,"",Purchased,2/7/2018,"",1001,15000
Wells Fargo Stable Return Fund,"",Sold,Feb  7 2018 12:00AM,"","",""
Wells Fargo Stable Return Fund,"",Purchased,2/7/2018,"",1001,15000
