orgname,ultorg,action,date1,transnotes,minvalue,maxvalue
American National Bank Cheyenne,"",Sold,Jun  1 2010,"",1001,15000
Intel Corp,"",Sold,Sep 10 2010,"",1001,15000
Microsoft Corp,"",Sold,Nov 10 2010,"",1001,15000
SPDR Trust Unit Series,"",Sold,Dec  5 2010,"",1001,15000
