orgname,ultorg,action,date1,transnotes,minvalue,maxvalue
Cba,"",Exchanged,1/12/2017,"",1001,15000
Cba,"",Exchanged,1/12/2017,"",1001,15000
Cba,"",Exchanged,1/12/2017,"",1001,15000
Cba,"",Exchanged,1/12/2017,"",1001,15000
Cba,"",Exchanged,1/12/2017,"",1001,15000
Cba,"",Exchanged,1/12/2017,"",1001,15000
Davis New York Venture Fund,"",Sold,12/19/2017,"",1001,15000
Davis New York Venture Fund,"",Sold,12/19/2017,"",1001,15000
Davis New York Venture Fund,"",Sold,12/19/2017,"",1001,15000
Davis New York Venture Fund,"",Sold,12/19/2017,"",1001,15000
Davis New York Venture Fund,"",Sold,12/19/2017,"",1001,15000
Davis New York Venture Fund,"",Sold,12/19/2017,"",1001,15000
Facebook Inc,"",Purchased,2/3/2017,"",1001,15000
Facebook Inc,"",Purchased,9/20/2017,"",1001,15000
Facebook Inc,"",Purchased,2/3/2017,"",1001,15000
Facebook Inc,"",Purchased,9/20/2017,"",1001,15000
Facebook Inc,"",Purchased,2/3/2017,"",1001,15000
Facebook Inc,"",Purchased,9/20/2017,"",1001,15000
Facebook Inc,"",Purchased,2/3/2017,"",1001,15000
Facebook Inc,"",Purchased,9/20/2017,"",1001,15000
Facebook Inc,"",Purchased,2/3/2017,"",1001,15000
Facebook Inc,"",Purchased,9/20/2017,"",1001,15000
Facebook Inc,"",Purchased,2/3/2017,"",1001,15000
Facebook Inc,"",Purchased,9/20/2017,"",1001,15000
Facebook Inc,"",Sold,Feb  3 2017 12:00AM,"","",""
Facebook Inc,"",Sold,Sep 20 2017 12:00AM,"","",""
Facebook Inc,"",Sold,Feb  3 2017 12:00AM,"","",""
Facebook Inc,"",Sold,Sep 20 2017 12:00AM,"","",""
Facebook Inc,"",Sold,Feb  3 2017 12:00AM,"","",""
Facebook Inc,"",Sold,Sep 20 2017 12:00AM,"","",""
Franklin Mutual Global Discovery Fund,"",Exchanged,Mar 14 2017 12:00AM,"","",""
Franklin Mutual Global Discovery Fund,"",Exchanged,Mar 14 2017 12:00AM,"","",""
Franklin Mutual Global Discovery Fund,"",Exchanged,Mar 14 2017 12:00AM,"","",""
Franklin Mutual Global Discovery Fund,"",Sold,3/14/2017,"",1001,15000
Franklin Mutual Global Discovery Fund,"",Sold,3/14/2017,"",1001,15000
Franklin Mutual Global Discovery Fund,"",Sold,3/14/2017,"",1001,15000
Franklin Mutual Global Discovery Fund,"",Sold,3/14/2017,"",1001,15000
Franklin Mutual Global Discovery Fund,"",Sold,3/14/2017,"",1001,15000
Franklin Mutual Global Discovery Fund,"",Sold,3/14/2017,"",1001,15000
Invesco Diversified Diversified Fund,"",Sold,12/19/2017,"",1001,15000
Invesco Diversified Diversified Fund,"",Sold,12/19/2017,"",1001,15000
Invesco Diversified Diversified Fund,"",Sold,12/19/2017,"",1001,15000
Invesco Diversified Diversified Fund,"",Sold,12/19/2017,"",1001,15000
Invesco Diversified Diversified Fund,"",Sold,12/19/2017,"",1001,15000
Invesco Diversified Diversified Fund,"",Sold,12/19/2017,"",1001,15000
Invesco Growth & Income Fund,"",Sold,12/19/2017,"",1001,15000
Invesco Growth & Income Fund,"",Sold,12/19/2017,"",1001,15000
Invesco Growth & Income Fund,"",Sold,12/19/2017,"",1001,15000
Invesco Growth & Income Fund,"",Sold,12/19/2017,"",1001,15000
Invesco Growth & Income Fund,"",Sold,12/19/2017,"",1001,15000
Invesco Growth & Income Fund,"",Sold,12/19/2017,"",1001,15000
Invesco International Growth,"",Sold,12/19/2017,"",1001,15000
Invesco International Growth,"",Sold,12/19/2017,"",1001,15000
Invesco International Growth,"",Sold,12/19/2017,"",1001,15000
Invesco International Growth,"",Sold,12/19/2017,"",1001,15000
Invesco International Growth,"",Sold,12/19/2017,"",1001,15000
Invesco International Growth,"",Sold,12/19/2017,"",1001,15000
JP Morgan Fed Money Market,"",Purchased,5/23/2017,"",1001,15000
JP Morgan Fed Money Market,"",Purchased,5/23/2017,"",1001,15000
JP Morgan Fed Money Market,"",Purchased,5/23/2017,"",1001,15000
JP Morgan Fed Money Market,"",Sold,May 23 2017 12:00AM,"","",""
JP Morgan Fed Money Market,"",Sold,May 23 2017 12:00AM,"","",""
JP Morgan Fed Money Market,"",Sold,May 23 2017 12:00AM,"","",""
JP Morgan Fed Money Market,"",Purchased,5/23/2017,"",1001,15000
JP Morgan Fed Money Market,"",Purchased,5/23/2017,"",1001,15000
JP Morgan Fed Money Market,"",Purchased,5/23/2017,"",1001,15000
Nvidia Corp,"",Purchased,9/20/2017,"",1001,15000
Nvidia Corp,"",Purchased,9/20/2017,"",1001,15000
Nvidia Corp,"",Sold,Sep 20 2017 12:00AM,"","",""
Nvidia Corp,"",Sold,Sep 20 2017 12:00AM,"","",""
Nvidia Corp,"",Sold,Sep 20 2017 12:00AM,"","",""
Nvidia Corp,"",Purchased,9/20/2017,"",1001,15000
Nvidia Corp,"",Purchased,9/20/2017,"",1001,15000
Nvidia Corp,"",Purchased,9/20/2017,"",1001,15000
Nvidia Corp,"",Purchased,9/20/2017,"",1001,15000
Palo Pinto Ranch,"",Sold,3/3/2017,"",1000001,5000000
Palo Pinto Ranch,"",Sold,3/3/2017,"",1000001,5000000
Palo Pinto Ranch,"",Sold,3/3/2017,"",1000001,5000000
Palo Pinto Ranch,"",Exchanged,Mar  3 2017 12:00AM,"","",""
Palo Pinto Ranch,"",Exchanged,Mar  3 2017 12:00AM,"","",""
Palo Pinto Ranch,"",Exchanged,Mar  3 2017 12:00AM,"","",""
Palo Pinto Ranch,"",Sold,3/3/2017,"",1000001,5000000
Palo Pinto Ranch,"",Sold,3/3/2017,"",1000001,5000000
Palo Pinto Ranch,"",Sold,3/3/2017,"",1000001,5000000
Pershing House,"",Sold,11/15/2017,"",250001,500000
Pershing House,"",Sold,11/15/2017,"",250001,500000
Pershing House,"",Exchanged,Nov 15 2017 12:00AM,"","",""
Pershing House,"",Exchanged,Nov 15 2017 12:00AM,"","",""
Pershing House,"",Sold,11/15/2017,"",250001,500000
Pershing House,"",Sold,11/15/2017,"",250001,500000
Target Corp,"",Sold,1/13/2017,"",1001,15000
Target Corp,"",Sold,1/13/2017,"",1001,15000
Target Corp,"",Exchanged,Jan 13 2017 12:00AM,"","",""
Target Corp,"",Exchanged,Jan 13 2017 12:00AM,"","",""
Target Corp,"",Exchanged,Jan 13 2017 12:00AM,"","",""
Target Corp,"",Sold,1/13/2017,"",1001,15000
Target Corp,"",Sold,1/13/2017,"",1001,15000
Target Corp,"",Sold,1/13/2017,"",1001,15000
Target Corp,"",Sold,1/13/2017,"",1001,15000
Vanguard FTSE Developed Markets ETF,"",Purchased,3/14/2017,"",1001,15000
Vanguard FTSE Developed Markets ETF,"",Purchased,3/14/2017,"",1001,15000
Vanguard FTSE Developed Markets ETF,"",Purchased,3/14/2017,"",1001,15000
Vanguard FTSE Developed Markets ETF,"",Sold,Mar 14 2017 12:00AM,"","",""
Vanguard FTSE Developed Markets ETF,"",Sold,Mar 14 2017 12:00AM,"","",""
Vanguard FTSE Developed Markets ETF,"",Sold,Mar 14 2017 12:00AM,"","",""
Vanguard FTSE Developed Markets ETF,"",Purchased,3/14/2017,"",1001,15000
Vanguard FTSE Developed Markets ETF,"",Purchased,3/14/2017,"",1001,15000
Vanguard FTSE Developed Markets ETF,"",Purchased,3/14/2017,"",1001,15000
Vanguard Small-Cap Value ETF (VBR),"",Purchased,3/14/2017,"",1001,15000
Vanguard Small-Cap Value ETF (VBR),"",Purchased,3/14/2017,"",1001,15000
Vanguard Small-Cap Value ETF (VBR),"",Purchased,3/14/2017,"",1001,15000
Vanguard Small-Cap Value ETF (VBR),"",Sold,Mar 14 2017 12:00AM,"","",""
Vanguard Small-Cap Value ETF (VBR),"",Sold,Mar 14 2017 12:00AM,"","",""
Vanguard Small-Cap Value ETF (VBR),"",Sold,Mar 14 2017 12:00AM,"","",""
Vanguard Small-Cap Value ETF (VBR),"",Purchased,3/14/2017,"",1001,15000
Vanguard Small-Cap Value ETF (VBR),"",Purchased,3/14/2017,"",1001,15000
Vanguard Small-Cap Value ETF (VBR),"",Purchased,3/14/2017,"",1001,15000
