orgname,ultorg,action,date1,transnotes,minvalue,maxvalue
AMG Yacktman Focused Fund,"",Sold,180705,"",1001,15000
DWS Enhanced Cmdy Strat Inst,"",Purchased,180705,"",1001,15000
Hennessy Focus Fund Inv Cl,"",Sold,180705,"",1001,15000
Loomis Sayles Core Plus Bond Fund,"",Sold,180705,"",1001,15000
MFS International Value Fund,"",Sold,180705,"",1001,15000
Parnassus Core Eqty Fund Inv,"",Sold,180705,"",1001,15000
PGIM Short Term Corp Bd Fund Cl Z,"",Purchased,180705,"",1001,15000
Pimco Low Duration Fund,"",Purchased,180705,"",1001,15000
Principal Midcap Fund,"",Purchased,180705,"",1001,15000
TCW Total Return Bond Fund N Class,"",Sold,180705,"",1001,15000
Victory Sycamore Established Value Fund,"",Purchased,180705,"",1001,15000
Wasatch International Oppty Fund Inv,"",Sold,180705,"",1001,15000
