orgname,ultorg,action,date1,transnotes,minvalue,maxvalue
Bristol-Myers Squibb,"",Sold,9/1/2017,"",1001,15000
Bristol-Myers Squibb,"",Sold,9/1/2017,"",1001,15000
Exxon Mobil,"",Sold,9/1/2017,"",1001,15000
Exxon Mobil,"",Sold,9/1/2017,"",1001,15000
First Eagle Global Fund,"",Purchased,12/14/2017,"",1001,15000
First Eagle Global Fund,"",Sold,Dec 14 2017 12:00AM,"","",""
First Eagle Global Fund,"",Purchased,12/14/2017,"",1001,15000
General Electric,"",Sold,9/1/2017,"",1001,15000
General Electric,"",Sold,9/1/2017,"",1001,15000
JPMorgan Chase & Co,"",Sold,9/1/2017,"",1001,15000
JPMorgan Chase & Co,"",Sold,9/1/2017,"",1001,15000
PNC Govt Money Market Fund,"",Sold,6/30/2017,"",1001,15000
PNC Govt Money Market Fund,"",Sold,9/30/2017,"",1001,15000
PNC Govt Money Market Fund,"",Sold,12/29/2017,"",1001,15000
PNC Govt Money Market Fund,"",Sold,6/30/2017,"",1001,15000
PNC Govt Money Market Fund,"",Sold,9/30/2017,"",1001,15000
PNC Govt Money Market Fund,"",Sold,12/29/2017,"",1001,15000
Procter & Gamble,"",Sold,1/5/2017,"",1001,15000
Procter & Gamble,"",Sold,4/10/2017,"",1001,15000
Procter & Gamble,"",Sold,9/1/2017,"",1001,15000
Procter & Gamble,"",Sold,1/5/2017,"",1001,15000
Procter & Gamble,"",Sold,4/10/2017,"",1001,15000
Procter & Gamble,"",Sold,9/1/2017,"",1001,15000
Vanguard 500 Index Admiral Fund,"",Purchased,9/1/2017,"",1001,15000
Vanguard 500 Index Admiral Fund,"",Purchased,9/1/2017,"",1001,15000
Vanguard 500 Index Admiral Fund,"",Sold,Sep  1 2017 12:00AM,"","",""
Vanguard Equity Income Adm #565 VEIRX,"",Exchanged,Sep  1 2017 12:00AM,"","",""
Vanguard Equity Income Adm #565 VEIRX,"",Sold,9/1/2017,"",1001,15000
Vanguard Equity Income Adm #565 VEIRX,"",Sold,9/1/2017,"",1001,15000
Vanguard Total Stock Market Index,"",Purchased,9/1/2017,"",1001,15000
Vanguard Total Stock Market Index,"",Sold,Sep  1 2017 12:00AM,"","",""
Vanguard Total Stock Market Index,"",Purchased,9/1/2017,"",1001,15000
