orgname,ultorg,action,date1,transnotes,minvalue,maxvalue
Ace Ltd,"",Purchased,2013-08-06 00:00:00.000,"",2431,2431
Affiliated Managers Group,"",Purchased,2013-04-30 00:00:00.000,"",2006,2006
Alliance Data Systems,"",Purchased,2013-04-30 00:00:00.000,"",2037,2037
Am Cent Vp Infl Pro,"",Purchased,2013-12-23 00:00:00.000,"",6247,6247
Am Cent Vp Infl Pro,"",Purchased,2013-06-24 00:00:00.000,"",6511,6511
Am Century Vp Val,"",Sold,2013-06-24 00:00:00.000,"",4369,4369
Am Century Vp Val,"",Sold,2013-12-23 00:00:00.000,"",788,788
Amazon.com,"",Sold,2013-04-30 00:00:00.000,"",4561,4561
American Century Vp Infl Pro,"",Purchased,2013-01-02 00:00:00.000,"",2963,2963
American Century Vp Infl Pro,"",Purchased,2013-07-01 00:00:00.000,"",5932,5932
American Century Vp Val,"",Sold,2013-07-01 00:00:00.000,"",4367,4367
American Century Vp Val,"",Sold,2013-01-02 00:00:00.000,"",348,348
American Tower Corp,"",Sold,2013-04-30 00:00:00.000,"",2921,2921
B/E Aerospace,"",Purchased,2013-08-06 00:00:00.000,"",2415,2415
Blackrock Strategic Income Opportunities,"",Purchased,2013-12-12 00:00:00.000,"",5206,5206
Blackrock Strategic Income Opportunities,"",Purchased,2013-12-12 00:00:00.000,"",87640,87640
BlackRopck Strategic Income Opportunities Fund,"",Purchased,2013-12-12 00:00:00.000,"",20437,20437
Calamos,"",Purchased,2013-12-12 00:00:00.000,"",52969,52969
Calpine Corp,"",Purchased,2013-04-30 00:00:00.000,"",2094,2094
Canadian Pacific Railway,"",Purchased,2013-04-30 00:00:00.000,"",1987,1987
Cbre Group,"",Purchased,2013-04-30 00:00:00.000,"",2098,2098
Chevron Corp,"",Purchased,2013-04-30 00:00:00.000,"",2072,2072
Consumer Discretionary Select Sector SPDR,"",Sold,2013-01-09 00:00:00.000,"",3581,3581
Crown Castle International,"",Sold,2013-04-30 00:00:00.000,"",3006,3006
Danaher Corp,"",Sold,2013-04-30 00:00:00.000,"",1581,1581
DWS High Income Fund,"",Sold,2013-12-12 00:00:00.000,"",32346,32346
DWS High Income Fund,"",Sold,2013-12-12 00:00:00.000,"",175789,175789
DWS High Income Fund,"",Purchased,2013-12-10 00:00:00.000,"",868,868
DWS High Income Fund,"",Purchased,2013-11-22 00:00:00.000,"",853,853
DWS High Income Fund,"",Purchased,2013-10-25 00:00:00.000,"",859,859
DWS High Income Fund,"",Purchased,2013-09-24 00:00:00.000,"",924,924
DWS High Income Fund,"",Purchased,2013-08-26 00:00:00.000,"",919,919
DWS High Income Fund,"",Purchased,2013-07-25 00:00:00.000,"",965,965
DWS High Income Fund,"",Purchased,2013-06-24 00:00:00.000,"",956,956
DWS High Income Fund,"",Purchased,2013-05-24 00:00:00.000,"",941,941
DWS High Income Fund,"",Purchased,2013-04-24 00:00:00.000,"",936,936
DWS High Income Fund,"",Sold,2013-12-12 00:00:00.000,"",10443,10443
DWS High Income Fund,"",Purchased,2013-03-22 00:00:00.000,"",927,927
DWS High Income Fund,"",Purchased,2013-02-22 00:00:00.000,"",925,925
DWS High Income Fund,"",Purchased,2013-01-25 00:00:00.000,"",920,920
Eagle Materials Inc,"",Purchased,2013-04-30 00:00:00.000,"",2040,2040
Eagle Materials Inc,"",Sold,2013-08-06 00:00:00.000,"",2017,2017
EMC Corp,"",Sold,2013-04-30 00:00:00.000,"",3199,3199
Energy Select Sector SPDR Fund,"",Sold,2013-05-08 00:00:00.000,"",3056,3056
Energy Select Sector SPDR Fund,"",Sold,2013-04-11 00:00:00.000,"",3168,3168
Enersys,"",Purchased,2013-04-30 00:00:00.000,"",2061,2061
Express Scripts,"",Sold,2013-04-30 00:00:00.000,"",5168,5168
FEI Co,"",Purchased,2013-04-30 00:00:00.000,"",2083,2083
Fidelity IRA Account 4,"",Sold,"","","",""
"Fidelity IRA Accounts 5, 6, 7","",Sold,"","","",""
Fidelity Total Bond Fund,"",Purchased,2013-12-31 00:00:00.000,"",283,283
Fidelity Total Bond Fund,"",Purchased,2013-10-11 00:00:00.000,"",1154,1154
Fidelity Total Bond Fund,"",Purchased,2013-09-30 00:00:00.000,"",292,292
Fidelity Total Bond Fund,"",Purchased,2013-11-29 00:00:00.000,"",274,274
Fidelity Total Bond Fund,"",Purchased,2013-03-28 00:00:00.000,"",249,249
Fidelity Total Bond Fund,"",Purchased,2013-04-30 00:00:00.000,"",240,240
Fidelity Total Bond Fund,"",Purchased,2013-05-31 00:00:00.000,"",243,243
Fidelity Total Bond Fund,"",Purchased,2013-06-28 00:00:00.000,"",244,244
Fidelity Total Bond Fund,"",Purchased,2013-07-31 00:00:00.000,"",267,267
Fidelity Total Bond Fund,"",Purchased,2013-11-29 00:00:00.000,"",106,106
Fidelity Total Bond Fund,"",Purchased,2013-10-31 00:00:00.000,"",120,120
Fidelity Total Bond Fund,"",Purchased,2013-10-11 00:00:00.000,"",446,446
Fidelity Total Bond Fund,"",Purchased,2013-09-30 00:00:00.000,"",113,113
Fidelity Total Bond Fund,"",Purchased,2013-08-30 00:00:00.000,"",108,108
Fidelity Total Bond Fund,"",Purchased,2013-07-31 00:00:00.000,"",103,103
Fidelity Total Bond Fund,"",Purchased,2013-01-31 00:00:00.000,"",242,242
Fidelity Total Bond Fund,"",Purchased,2013-12-31 00:00:00.000,"",110,110
Fidelity VIP High Income Fund,"",Purchased,2013-07-01 00:00:00.000,"",1286,1286
Fidelity VIP High Income Fund,"",Purchased,2013-01-02 00:00:00.000,"",383,383
Fidelity VIP High Income Fund,"",Purchased,2013-12-23 00:00:00.000,"",1803,1803
Fideliyt Vip Hi Inc,"",Purchased,2013-06-24 00:00:00.000,"",1065,1065
Fideltiy Total Return,"",Purchased,2013-08-30 00:00:00.000,"",280,280
First Trust Technology Alphadex Fund,"",Sold,2013-11-26 00:00:00.000,"",1039,1039
Frk Smcapval Sec C2,"",Sold,2013-12-23 00:00:00.000,"",1512,1512
Frk Smcapval Sec C2,"",Sold,2013-06-24 00:00:00.000,"",662,662
Frk Smcapval Sec C2,"",Sold,2013-01-02 00:00:00.000,"",1282,1282
Frk Smcapval Sec C2,"",Sold,2013-07-01 00:00:00.000,"",796,796
Gartner Group,"",Purchased,2013-04-30 00:00:00.000,"",2072,2072
General Electric,"",Purchased,2013-04-30 00:00:00.000,"",2095,2095
Goldman Sachs Strategic Income Fund,"",Purchased,2013-12-12 00:00:00.000,"",5206,5206
Goldman Sachs Strategic Income Fund,"",Purchased,2013-12-31 00:00:00.000,"",151,151
Goldman Sachs Strategic Income Fund,"",Purchased,2013-12-12 00:00:00.000,"",87640,87640
Goldman Sachs Strategic Income Fund,"",Purchased,2013-12-12 00:00:00.000,"",20437,20437
Guggenheim Enhanced Short Duration Bond,"",Sold,2013-06-13 00:00:00.000,"",4756,4756
Guggenheim Enhanced Short Duration Bond,"",Purchased,2013-05-08 00:00:00.000,"",5176,5176
Guggenheim S&P 500 Equal Weighted Index Fund,"",Purchased,2013-03-13 00:00:00.000,"",2908,2908
Heartland Payment Systems,"",Purchased,2013-04-30 00:00:00.000,"",2080,2080
Helmerich & Payne,"",Purchased,2013-04-30 00:00:00.000,"",2044,2044
Hertz Global Holdings,"",Purchased,2013-04-30 00:00:00.000,"",2085,2085
Hertz Global Holdings,"",Sold,2013-10-24 00:00:00.000,"",2081,2081
Honeywell International,"",Purchased,2013-04-30 00:00:00.000,"",2058,2058
Incyte Corp,"",Purchased,2013-04-30 00:00:00.000,"",2093,2093
Interxion Holding NV,"",Purchased,2013-04-30 00:00:00.000,"",2097,2097
Invesco VI Small Cap Equity Fund,"",Sold,2013-12-23 00:00:00.000,"",1178,1178
Invesco VI Small Cap Equity Fund,"",Sold,2013-07-01 00:00:00.000,"",1059,1059
Invesco VI Small Cap Equity Fund,"",Sold,2013-01-02 00:00:00.000,"",337,337
Invesco VI Small Cap Equity Fund,"",Sold,2013-06-24 00:00:00.000,"",1025,1025
iShares 1-3 Year Treasury Bond ETF,"",Sold,2013-11-26 00:00:00.000,"",936,936
iShares Barclays Intermediate Credit Bond Fund,"",Purchased,2013-06-13 00:00:00.000,"",5759,5759
iShares Barclays Intermediate Credit Bond Fund,"",Purchased,2013-05-08 00:00:00.000,"",7356,7356
iShares Core S&P 500 Index Fund,"",Purchased,2013-09-11 00:00:00.000,"",10884,10884
iShares Core S&P 500 Index Fund,"",Sold,2013-01-09 00:00:00.000,"",6284,6284
iShares Core S&P Total US Stock Market ETF,"",Sold,2013-11-26 00:00:00.000,"",1654,1654
iShares Dow Jones US Financial Sector Index,BlackRock,Sold,2013-04-11 00:00:00.000,"",4224,4224
iShares Dow Jones US Financial Sector Index,BlackRock,Sold,2013-05-08 00:00:00.000,"",3832,3832
iShares Dow Jones US Real Estate Index,"",Purchased,2013-03-13 00:00:00.000,"",2758,2758
iShares Dow Jones US Real Estate Index,"",Sold,2013-06-13 00:00:00.000,"",3230,3230
iShares High Dividend Equity Fund,"",Purchased,2013-05-08 00:00:00.000,"",3417,3417
iShares High Dividend Equity Fund,"",Purchased,2013-03-13 00:00:00.000,"",3422,3422
iShares iBoxx High Yield Corp Bond Fund,"",Sold,2013-06-13 00:00:00.000,"",7127,7127
iShares iBoxx Inv Grade Corp Bond Fund,"",Sold,2013-07-11 00:00:00.000,"",6899,6899
iShares iBoxx Inv Grade Corp Bond Fund,"",Purchased,2013-05-08 00:00:00.000,"",3632,3632
iShares iBoxx Inv Grade Corp Bond Fund,"",Sold,2013-01-09 00:00:00.000,"",3262,3262
iShares iBoxx Inv Grade Crop Bond Fund,"",Sold,2013-03-13 00:00:00.000,"",3331,3331
iShares International Treasury Bond,"",Sold,2013-07-11 00:00:00.000,"",5466,5466
iShares MSCI EAFE Fund,"",Purchased,2013-05-08 00:00:00.000,"",2814,2814
iShares MSCI EAFE Fund,"",Purchased,2013-01-09 00:00:00.000,"",2786,2786
iShares MSCI Emerging Markets Index,"",Purchased,2013-11-26 00:00:00.000,"",3074,3074
iShares MSCI Emerging Markets Index,"",Sold,2013-06-13 00:00:00.000,"",2716,2716
iShares MSCI Emerging Markets Index,"",Purchased,2013-02-07 00:00:00.000,"",3637,3637
iShares MSCI Emerging Markets Index,"",Purchased,2013-01-09 00:00:00.000,"",2797,2797
iShares MSCI USA Minimum Volatility,"",Sold,2013-11-15 00:00:00.000,"",7589,7589
iShares MSCI USA Minimum Volatility,"",Purchased,2013-11-15 00:00:00.000,"",7568,7568
iShares MSCI USA Minimum Volatility,"",Purchased,2013-11-15 00:00:00.000,"",7589,7589
iShares Russell 200 Index,"",Purchased,2013-07-11 00:00:00.000,"",2827,2827
iShares S&P 500 Growth Index,"",Sold,2013-04-30 00:00:00.000,"",7892,7892
iShares S&P Mid Cap 400 Index,"",Sold,2013-04-30 00:00:00.000,"",8063,8063
iShares S&P Small Cap 600 Index,"",Sold,2013-04-30 00:00:00.000,"",5292,5292
iShares S&P/Citigroup Intl Treasury Bond Fund,"",Purchased,2013-06-13 00:00:00.000,"",4025,4025
iShares S&P/Citigroup Intl Treasury Bond Fund,"",Purchased,2013-01-09 00:00:00.000,"",5512,5512
iShares S&P/Citigroup Intl Treasury Bond Fund,"",Sold,2013-02-07 00:00:00.000,"",1223,1223
iShares S&P/Citigroup Intl Treasury Bond Fund,"",Sold,2013-05-08 00:00:00.000,"",1212,1212
iShares Trust Core Total US Bond Market ETF,"",Sold,2013-01-09 00:00:00.000,"",6534,6534
iShares Trust Core Total US Bond Market ETF,"",Sold,2013-09-11 00:00:00.000,"",6752,6752
iShares US,"",Purchased,2013-07-11 00:00:00.000,"",7306,7306
iShares US Real Estate,"",Sold,2013-07-11 00:00:00.000,"",4412,4412
iShares US Real Estate,"",Purchased,2013-11-26 00:00:00.000,"",4611,4611
Ivy VIP Growth Fund,"",Sold,2013-06-24 00:00:00.000,"",1333,1333
Ivy VIP Growth Fund,"",Purchased,2013-01-02 00:00:00.000,"",134,134
Ivy VIP Growth Fund,"",Sold,2013-07-01 00:00:00.000,"",1290,1290
Ivy VIP Growth Fund,"",Sold,2013-12-23 00:00:00.000,"",6220,6220
Ivy Vip Int Core Eq,"",Sold,2013-12-23 00:00:00.000,"",4257,4257
Ivy Vip Int Core Eq,"",Purchased,2013-07-01 00:00:00.000,"",312,312
Ivy Vip Int Core Eq,"",Sold,2013-01-02 00:00:00.000,"",2377,2377
Ivy Vip Int Core Eq,"",Purchased,2013-06-24 00:00:00.000,"",465,465
Janus Aspen Perkins Mid Cap Value Port,"",Sold,2013-06-24 00:00:00.000,"",750,750
Janus Aspen Perkins Mid Cap Value Port,"",Sold,2013-01-02 00:00:00.000,"",55,55
Janus Aspen Perkins Mid Cap Value Port,"",Sold,2013-07-01 00:00:00.000,"",818,818
Janus Aspen Perkins Mid Cap Value Port,"",Sold,2013-12-23 00:00:00.000,"",174,174
Janus Aspen Perkins Overseas Portfolio,"",Sold,2013-12-23 00:00:00.000,"",2859,2859
Janus Aspen Perkins Overseas Portfolio,"",Purchased,2013-07-01 00:00:00.000,"",2702,2702
Janus Aspen Perkins Overseas Portfolio,"",Sold,2013-01-02 00:00:00.000,"",2195,2195
Janus Aspen Perkins Overseas Portfolio,"",Purchased,2013-06-24 00:00:00.000,"",2302,2302
Jarden Corp,"",Sold,2013-10-24 00:00:00.000,"",2391,2391
Jarden Corp,"",Purchased,2013-04-30 00:00:00.000,"",2058,2058
Jazz Pharmaceuticals,"",Purchased,2013-08-06 00:00:00.000,"",2429,2429
JPMorgan Chase & Co,"",Purchased,2013-04-30 00:00:00.000,"",2055,2055
Kapstone Paper & Packaging Corp,"",Purchased,2013-04-30 00:00:00.000,"",2071,2071
L Brands,"",Sold,2013-04-30 00:00:00.000,"",2306,2306
MFS Investors Growth Fund,"",Sold,2013-06-24 00:00:00.000,"",1571,1571
MFS Investors Growth Fund,"",Sold,2013-01-02 00:00:00.000,"",676,676
MFS Investors Growth Fund,"",Sold,2013-07-01 00:00:00.000,"",1335,1335
MFS Investors Growth Fund,"",Sold,2013-12-23 00:00:00.000,"",1741,1741
MFS Value Series Fund,"",Sold,2013-12-23 00:00:00.000,"",4167,4167
MFS Value Series Fund,"",Sold,2013-07-01 00:00:00.000,"",8385,8385
MFS Value Series Fund,"",Sold,2013-01-02 00:00:00.000,"",1221,1221
MFS Value Series Fund,"",Sold,2013-06-24 00:00:00.000,"",8646,8646
Miller Convertible Bond,"",Purchased,2013-12-12 00:00:00.000,"",53696,53696
Mobile Mini Inc,"",Purchased,2013-04-30 00:00:00.000,"",2082,2082
Mobile Mini Inc,"",Sold,2013-08-06 00:00:00.000,"",2546,2546
Monsanto Co,"",Sold,2013-04-30 00:00:00.000,"",1813,1813
Morgan Stanley Securities,"",Sold,"","","",""
Morgan Stanley Uif Emerging Markets Eq,"",Purchased,2013-12-23 00:00:00.000,"",204,204
Morgan Stanley Uif Emerging Markets Eq,"",Purchased,2013-06-24 00:00:00.000,"",1574,1574
Morgan Stanley Uif Emerging Markets Eq,"",Sold,2013-01-02 00:00:00.000,"",834,834
Morgan Stanley Uif Emerging Markets Eq,"",Purchased,2013-07-01 00:00:00.000,"",1394,1394
Nordstrom Inc,"",Purchased,2013-04-30 00:00:00.000,"",2074,2074
Oceaneering International,"",Purchased,2013-04-30 00:00:00.000,"",2035,2035
ONEOK Inc,"",Sold,2013-04-30 00:00:00.000,"",1889,1889
Onyx Pharmaceuticals,"",Purchased,2013-04-30 00:00:00.000,"",2076,2076
Oppenheimer International Bond Fund,"",Sold,2013-12-12 00:00:00.000,"",113675,113675
Panera Bread,"",Purchased,2013-04-30 00:00:00.000,"",1943,1943
Panera Bread,"",Sold,2013-10-24 00:00:00.000,"",1688,1688
Parexel International,"",Purchased,2013-04-30 00:00:00.000,"",2097,2097
Penn National Gaming,"",Sold,2013-04-30 00:00:00.000,"",4326,4326
Petsmart Inc,"",Sold,2013-04-30 00:00:00.000,"",3388,3388
Pimco Total Retun,"",Purchased,2013-12-11 00:00:00.000,"",219,219
Pimco Total Retun,"",Purchased,2013-12-11 00:00:00.000,"",42,42
PIMCO Total Return Fund,"",Purchased,2013-01-31 00:00:00.000,"",162,162
PIMCO Total Return Fund,"",Purchased,2013-02-28 00:00:00.000,"",188,188
PIMCO Total Return Fund,"",Purchased,2013-04-30 00:00:00.000,"",106,106
PIMCO Total Return Fund,"",Purchased,2013-12-11 00:00:00.000,"",117,117
PIMCO Total Return Fund,"",Purchased,2013-12-11 00:00:00.000,"",611,611
PIMCO Total Return Fund,"",Purchased,2013-12-31 00:00:00.000,"",121,121
PIMCO Total Return Fund,"",Purchased,2013-08-30 00:00:00.000,"",215,215
PIMCO Total Return Fund,"",Purchased,2013-09-30 00:00:00.000,"",165,165
PIMCO Total Return Fund,"",Purchased,2013-11-29 00:00:00.000,"",177,177
PIMCO Total Return Fund,"",Purchased,2013-10-31 00:00:00.000,"",187,187
PIMCO Total Return Fund,"",Purchased,2013-07-31 00:00:00.000,"",202,202
PIMCO Total Return Fund,"",Purchased,2013-06-28 00:00:00.000,"",160,160
PIMCO Total Return Fund,"",Purchased,2013-05-31 00:00:00.000,"",239,239
PIMCO Total Return Fund,"",Purchased,2013-04-30 00:00:00.000,"",296,296
PIMCO Total Return Fund,"",Purchased,2013-03-28 00:00:00.000,"",245,245
PNC Financial Services,"",Sold,2013-04-30 00:00:00.000,"",3256,3256
Polaris Industries,"",Purchased,2013-04-30 00:00:00.000,"",2063,2063
Powershares DB Base Metals Fund,"",Purchased,2013-01-09 00:00:00.000,"",2816,2816
Powershares DB Base Metals Fund,"",Purchased,2013-02-07 00:00:00.000,"",1368,1368
Powershares DB Base Metals Fund,"",Sold,2013-03-13 00:00:00.000,"",3951,3951
Powershares DB Base US Dollar Index Bullish Fund,"",Sold,2013-01-09 00:00:00.000,"",3445,3445
Powershares DB Commodity Tracking Fund,"",Sold,2013-02-07 00:00:00.000,"",4304,4304
Powershares DB Energy Fund,"",Purchased,2013-02-07 00:00:00.000,"",4294,4294
Powershares DB Energy Fund,"",Purchased,2013-07-11 00:00:00.000,"",4459,4459
Powershares DB Energy Fund,"",Sold,2013-05-08 00:00:00.000,"",4080,4080
PowerShares DB Precious Metals Fund,"",Sold,2013-01-09 00:00:00.000,"",2606,2606
Powershares EM Mar Sov De Pt,"",Purchased,2013-01-09 00:00:00.000,"",3609,3609
Powershares EM Mar Sov De Pt,"",Sold,2013-02-07 00:00:00.000,"",1125,1125
Powershares EM Mar Sov De Pt,"",Sold,2013-05-08 00:00:00.000,"",4398,4398
Powershares QQQ ETF,"",Purchased,2013-06-13 00:00:00.000,"",3594,3594
Powershares QQQ ETF,"",Purchased,2013-07-11 00:00:00.000,"",2419,2419
Powershares QQQ ETF,"",Sold,2013-11-15 00:00:00.000,"",8504,8504
Qualcomm Inc,"",Sold,2013-04-30 00:00:00.000,"",1228,1228
Rackspace Hosting Inc,"",Sold,2013-04-30 00:00:00.000,"",1728,1728
Robert Half International,"",Purchased,2013-04-30 00:00:00.000,"",2067,2067
Rock-Tenn Co,"",Purchased,2013-04-30 00:00:00.000,"",2085,2085
Sandisk Corp,"",Sold,2013-04-30 00:00:00.000,"",5840,5840
Sector SPDR Industrial Select Fund,"",Sold,2013-05-08 00:00:00.000,"",3030,3030
Sector SPDR Industrial Select Fund,"",Sold,2013-04-11 00:00:00.000,"",3345,3345
Sfadv Mortg Sec C2,"",Purchased,2013-01-02 00:00:00.000,"",1141,1141
Sftadv Bond C2,"",Purchased,2013-01-02 00:00:00.000,"",4427,4427
Sftadv Bond C2,"",Purchased,2013-07-01 00:00:00.000,"",5195,5195
Sftadv Bond C2,"",Purchased,2013-12-23 00:00:00.000,"",9419,9419
Sftadv Idx 400 Mc C2,"",Sold,2013-12-23 00:00:00.000,"",2047,2047
Sftadv Idx 400 Mc C2,"",Sold,2013-07-01 00:00:00.000,"",2464,2464
Sftadv Idx 400 Mc C2,"",Sold,2013-01-02 00:00:00.000,"",786,786
Sftadv Idx 400 Mc C2,"",Sold,2013-06-24 00:00:00.000,"",2119,2119
Sftadv International Bond,"",Purchased,2013-06-24 00:00:00.000,"",1751,1751
Sftadv International Bond,"",Sold,2013-01-02 00:00:00.000,"",661,661
Sftadv International Bond,"",Purchased,2013-07-01 00:00:00.000,"",1775,1775
Sftadv International Bond,"",Purchased,2013-12-23 00:00:00.000,"",1824,1824
Sftadv Money Market,"",Purchased,2013-07-01 00:00:00.000,"",528,528
Sftadv Money Market,"",Purchased,2013-01-02 00:00:00.000,"",916,916
Sftadv Money Market,"",Purchased,2013-06-24 00:00:00.000,"",419,419
Sftadv Mortg Sec C2,"",Purchased,2013-06-24 00:00:00.000,"",1047,1047
Sftadv Mortg Sec C2,"",Purchased,2013-07-01 00:00:00.000,"",1095,1095
Sftadv Mortg Sec C2,"",Purchased,2013-12-23 00:00:00.000,"",2041,2041
Sftadv Ri Est Sec C2,"",Purchased,2013-12-23 00:00:00.000,"",1961,1961
Sftadv Ri Est Sec C2,"",Purchased,2013-07-01 00:00:00.000,"",293,293
Sftadv Ri Est Sec C2,"",Purchased,2013-01-02 00:00:00.000,"",806,806
Sftadv Ri Est Sec C2,"",Purchased,2013-06-24 00:00:00.000,"",595,595
Signet Jewelers Ltd,"",Purchased,2013-04-30 00:00:00.000,"",2053,2053
SPDR Blackstone/GSO Senior Loan,"",Purchased,2013-07-11 00:00:00.000,"",5823,5823
Starbucks Corp,"",Sold,2013-04-30 00:00:00.000,"",1697,1697
Stfadv Bond C2,"",Purchased,2013-06-24 00:00:00.000,"",4747,4747
Stfadv Money Market,"",Purchased,2013-12-23 00:00:00.000,"",1443,1443
Towers Watson & Co,"",Purchased,2013-04-30 00:00:00.000,"",2040,2040
Union Pacific Corp,"",Sold,2013-04-30 00:00:00.000,"",2065,2065
United Rentals,"",Sold,2013-04-30 00:00:00.000,"",5113,5113
Valmont Industries,"",Purchased,2013-04-30 00:00:00.000,"",2030,2030
Vanguard Materials Fund,"",Sold,2013-04-11 00:00:00.000,"",2896,2896
Vanguard Materials Fund,"",Sold,2013-05-08 00:00:00.000,"",3058,3058
Visa Inc,"",Sold,2013-04-30 00:00:00.000,"",3029,3029
VMware Inc,EMC Corp,Sold,2013-04-30 00:00:00.000,"",2676,2676
Wabtec,"",Purchased,2013-04-30 00:00:00.000,"",2087,2087
Wells Fargo Securities Account #1,"",Sold,"","","",""
Westcore Plus Bond Fund,"",Purchased,2013-12-20 00:00:00.000,"",396,396
Westcore Plus Bond Fund,"",Purchased,2013-12-20 00:00:00.000,"",180,180
Westcore Plus Bond Fund,"",Purchased,2013-10-23 00:00:00.000,"",369,369
Westcore Plus Bond Fund,"",Purchased,2013-11-26 00:00:00.000,"",361,361
Westcore Plus Bond Fund,"",Purchased,2013-09-25 00:00:00.000,"",363,363
Westcore Plus Bond Fund,"",Purchased,2013-08-26 00:00:00.000,"",361,361
Westcore Plus Bond Fund,"",Purchased,2013-03-26 00:00:00.000,"",348,348
Westcore Plus Bond Fund,"",Purchased,2013-04-24 00:00:00.000,"",389,389
Westcore Plus Bond Fund,"",Purchased,2013-05-22 00:00:00.000,"",387,387
Westcore Plus Bond Fund,"",Purchased,2013-06-26 00:00:00.000,"",375,375
Westcore Plus Bond Fund,"",Purchased,2013-07-24 00:00:00.000,"",369,369
Westcore Plus Bond Fund,"",Purchased,2013-01-23 00:00:00.000,"",358,358
Westcore Plus Bond Fund,"",Purchased,2013-02-26 00:00:00.000,"",377,377
WF Advantage Ultra Short Term Income Fund,"",Purchased,2013-12-02 00:00:00.000,"",550,550
WF Advantage Ultra Short Term Income Fund,"",Purchased,2013-11-01 00:00:00.000,"",523,523
WF Advantage Ultra Short Term Income Fund,"",Purchased,2013-10-01 00:00:00.000,"",451,451
WF Advantage Ultra Short Term Income Fund,"",Purchased,2013-09-03 00:00:00.000,"",473,473
WF Advantage Ultra Short Term Income Fund,"",Purchased,2013-08-01 00:00:00.000,"",409,409
WF Advantage Ultra Short Term Income Fund,"",Purchased,2013-07-01 00:00:00.000,"",475,475
WF Advantage Ultra Short Term Income Fund,"",Purchased,2013-06-03 00:00:00.000,"",467,467
WF Advantage Ultra Short Term Income Fund,"",Purchased,2013-05-01 00:00:00.000,"",102,102
WF Advantage Ultra Short Term Income Fund,"",Purchased,2013-04-22 00:00:00.000,"",830006,830006
Whole Foods Market,"",Sold,2013-04-30 00:00:00.000,"",3432,3432
Williams-Sonoma Inc,"",Purchased,2013-04-30 00:00:00.000,"",1925,1925
Wisdomtree Dreyfus Emerging Currency Fund,"",Purchased,2013-01-09 00:00:00.000,"",3513,3513
Wisdomtree Emerging Currency Fund,"",Sold,2013-06-13 00:00:00.000,"",7718,7718
Wyndham Worldwide,"",Purchased,2013-04-30 00:00:00.000,"",2097,2097
XL Group PLC,"",Purchased,2013-04-30 00:00:00.000,"",2088,2088
