orgname,ultorg,action,date1,transnotes,minvalue,maxvalue
Chevron Corp,"",Purchased,Quarterly,"",1001,15000
Exxon Mobil,"",Purchased,Quarterly,"",1001,15000
HCP Inc,"",Purchased,Quarterly,"",1001,15000
Schering-Plough Corp,Merck & Co,Exchanged,Nov  5 2009,"",1001,15000
Tennessee Hsg Dev Agy Hsg Fin Prog Bond,"",Purchased,Dec  4 2009,"",15001,50000
Tennessee Hsg Dev Agy Hsg Fin Prog Bond,"",Purchased,Dec  4 2009,"",50001,100000
Tennessee Hsg Dev Agy Hsg Fin Prog Bond,"",Purchased,Dec  4 2009,"",15001,50000
Tennessee Hsg Dev Agy Hsg Fin Prog Bond,"",Purchased,Dec  4 2009,"",15001,50000
Tim Hortons Inc,"",Purchased,Sep 28 2009,"",15001,50000
