orgname,ultorg,action,date1,transnotes,minvalue,maxvalue
3M's Partners LLC - DC Capital Partners,"",Exchanged,Dec 31 2014,"",15001,50000
3M's Partners LLC - DC Capital Partners,"",Exchanged,Dec 31 2014,"",1001,15000
3M's Partners LLC - DC Capital Partners,"",Exchanged,Dec 31 2014,"",15001,50000
3M's Partners LLC - Trellus Partners,"",Exchanged,Dec  1 2014,"",100001,250000
3M's Partners LLC - Trellus Partners,"",Exchanged,Dec  1 2014,"",250001,500000
Claire Blumenthal 2012 Trust-RCB Investment Partne,"",Purchased,Dec 31 2014,"",1000001,1000001
CMB 2009 GRAT-Peter L Malkin Family,"",Purchased,Jun 16 2014,"",50001,100000
Conticoffee,"",Purchased,Jul 29 2014,"",250001,500000
EOAGT LLC,"",Purchased,May 25 2014,"",500001,1000000
Kinrose Fund,"",Purchased,May 15 2014,"",1000001,1000001
Peter L Malkin Family 2000 LLC: U.S. Shanghai,"",Purchased,Aug  7 2014,"",15001,50000
Peter L Malkin Family 9 LLC,"",Purchased,Jun 16 2014,"",100001,250000
RCB Investment Partners,"",Purchased,Dec 31 2014,"",500001,1000000
Rockefeller Intermediate Tax Exempt Nation Bond,"",Purchased,Jan 23 2014,"",250001,500000
Rockefeller Libra Fund LP,"",Purchased,Jan 23 2014,"",500001,1000000
RRE Ventures VI,"",Purchased,May 30 2014,"",15001,50000
RRE Ventures VI,"",Purchased,Apr 30 2014,"",1001,15000
Trellus Partners,"",Exchanged,Dec  1 2014,"",100001,250000
Vanguard GNMA Fund,"",Exchanged,Jan 23 2014,"",1000001,1000001
ZM Capital Niagara Investment,"",Purchased,May 21 2014,"",15001,50000
