orgname,ultorg,action,date1,transnotes,minvalue,maxvalue
3M Co,"",Sold,Jul 22 2013,Sale (Partial),1001,15000
Ace Ltd,"",Purchased,Aug 14 2013,--,1001,15000
Agree Realty Corp,"",Purchased,Jun 13 2013,--,1001,15000
Alliant Energy,"",Purchased,Jun 13 2013,--,1001,15000
AllianzGI Short Duration High Inc Fund,"",Purchased,Mar 26 2013,--,15001,50000
Allstate Corp,"",Purchased,Jun  6 2013,--,1001,15000
Allstate Corp,"",Purchased,Jun 21 2013,--,1001,15000
Allstate Corp,"",Purchased,Jun 26 2013,--,1001,15000
Allstate Corp,"",Purchased,Jul  8 2013,--,1001,15000
Alps EFT Trust Alerian MLP,"",Purchased,Aug 14 2013,--,1001,15000
Alps EFT Trust Alerian MLP,"",Purchased,Jun 13 2013,--,1001,15000
Amazon.com,"",Purchased,Sep 24 2013,--,1001,15000
Amazon.com,"",Sold,May  6 2013,Sale (Partial),1001,15000
Amazon.com,"",Purchased,Jan 31 2013,--,1001,15000
American International Group,"",Purchased,Jan 25 2013,--,1001,15000
American International Group,"",Purchased,Jun 21 2013,--,1001,15000
American International Group,"",Sold,Nov  1 2013,Sale (Partial),1001,15000
American Tower Corp,"",Sold,Aug 13 2013,Sale (Partial),1001,15000
American Tower Corp,"",Purchased,May  8 2013,--,1001,15000
American Tower Corp,"",Sold,Jun 11 2013,Sale (Full),1001,15000
AmerisourceBergen Corp,"",Purchased,Apr 23 2013,--,1001,15000
AmerisourceBergen Corp,"",Purchased,Apr 12 2013,--,1001,15000
AmerisourceBergen Corp,"",Sold,Oct 21 2013,Sale (Partial),1001,15000
AmerisourceBergen Corp,"",Sold,Oct 22 2013,Sale (Full),1001,15000
Amgen Inc,"",Purchased,Apr 19 2013,--,1001,15000
Amgen Inc,"",Sold,May  3 2013,Sale (Full),1001,15000
Anadarko Petroleum,"",Purchased,Apr 30 2013,--,1001,15000
Anadarko Petroleum,"",Purchased,Apr 16 2013,--,1001,15000
Anadarko Petroleum,"",Sold,Nov  7 2013,Sale (Partial),1001,15000
Anadarko Petroleum,"",Sold,Dec 13 2013,Sale (Full),1001,15000
Apple Inc,"",Purchased,Oct 24 2013,--,1001,15000
Apple Inc,"",Sold,Jan  7 2013,Sale (Partial),1001,15000
Apple Inc,"",Sold,Apr 23 2013,Sale (Partial),1001,15000
Apple Inc,"",Purchased,Oct 21 2013,--,1001,15000
Applied Industrial Technologies,"",Purchased,Jun 13 2013,--,1001,15000
Ares Capital Corp,"",Purchased,Jun 13 2013,--,1001,15000
AT&T Inc,"",Sold,Jun 11 2013,Sale (Full),1001,15000
Autoliv Inc,"",Purchased,Jun 13 2013,--,1001,15000
Automatic Data Processing Inc,"",Sold,Sep 23 2013,Sale (Partial),1001,15000
B&G Foods Inc,"",Purchased,Jun 13 2013,--,1001,15000
Bank of America Corp,"",Purchased,Jul 18 2013,--,1001,15000
Bank of America Corp,"",Purchased,Feb 15 2013,--,1001,15000
"Becton, Dickinson & Co","",Sold,Jun 11 2013,Sale (Full),1001,15000
Berkshire Hathaway,"",Sold,Jun 11 2013,Sale (Full),1001,15000
BHP Billiton Ltd,"",Sold,Jul 19 2013,Sale (Partial),1001,15000
Biogen Idec Inc,"",Sold,Aug 13 2013,Sale (Partial),1001,15000
Biogen Idec Inc,"",Sold,Jun  5 2013,Sale (Partial),1001,15000
Biogen Idec Inc,"",Sold,Jun  4 2013,Sale (Partial),1001,15000
Biogen Idec Inc,"",Purchased,Dec 27 2013,--,1001,15000
Blackrock Inc,"",Sold,Jun 24 2013,Sale (Full),1001,15000
Boeing Co,"",Purchased,Sep 23 2013,--,1001,15000
Boeing Co,"",Purchased,Sep 24 2013,--,1001,15000
Boeing Co,"",Purchased,Sep 24 2013,--,1001,15000
Boeing Co,"",Purchased,May  6 2013,--,1001,15000
Boeing Co,"",Purchased,May 16 2013,--,1001,15000
Boeing Co,"",Purchased,May 21 2013,--,1001,15000
Bristol-Myers Squibb,"",Sold,Jan 14 2013,Sale (Full),1001,15000
Bristol-Myers Squibb,"",Purchased,Oct 28 2013,--,1001,15000
Cabot Corp,"",Purchased,Jun 13 2013,--,1001,15000
Canadian Pacific Railway,"",Purchased,May 21 2013,--,1001,15000
Canadian Pacific Railway,"",Purchased,Jun  4 2013,--,1001,15000
Capital One Financial,"",Sold,Jan 25 2013,Sale (Partial),1001,15000
Capital One Financial,"",Sold,Feb 25 2013,Sale (Full),1001,15000
Caplease Inc Reits Sbi,"",Purchased,Jun 13 2013,--,1001,15000
Capstead Mortgage Corp,"",Purchased,Jun 13 2013,--,1001,15000
Carroll County MD BE/R,"",Sold,Nov  1 2013,Sale (Full); No gain or loss on sale; basis = proceeds,15001,50000
Caterpillar Inc,"",Purchased,Apr 22 2013,--,1001,15000
Caterpillar Inc,"",Purchased,Jan  7 2013,--,1001,15000
Celgene Corp,"",Purchased,Feb 14 2013,--,1001,15000
Celgene Corp,"",Purchased,Apr 17 2013,--,1001,15000
Celgene Corp,"",Purchased,Feb 25 2013,--,1001,15000
Celgene Corp,"",Purchased,Mar  8 2013,--,1001,15000
Celgene Corp,"",Purchased,Mar 15 2013,--,1001,15000
Chevron Corp,"",Purchased,Apr 16 2013,--,1001,15000
Chevron Corp,"",Purchased,Apr 30 2013,--,1001,15000
Chevron Corp,"",Purchased,Oct 11 2013,--,1001,15000
Cisco Systems,"",Purchased,May  2 2013,--,1001,15000
Cisco Systems,"",Purchased,May 16 2013,--,1001,15000
Cisco Systems,"",Purchased,Jun  5 2013,--,1001,15000
Cisco Systems,"",Sold,Oct 22 2013,Sale (Partial),1001,15000
Cisco Systems,"",Sold,Nov 19 2013,Sale (Partial),1001,15000
Cisco Systems,"",Sold,Nov 21 2013,Sale (Full),1001,15000
Citigroup Inc,"",Sold,Jun 11 2013,Sale (Partial),1001,15000
Citigroup Inc,"",Purchased,Sep 19 2013,--,1001,15000
Citigroup Inc,"",Purchased,Sep 19 2013,--,1001,15000
Citigroup Inc,"",Sold,Jun 21 2013,Sale (Partial),1001,15000
City Holding Co,"",Purchased,Jun 13 2013,--,1001,15000
CME Group,"",Purchased,Jun 24 2013,--,1001,15000
Colony Financial Inc,"",Purchased,Jun 13 2013,--,1001,15000
Community Trust Bancorp,"",Purchased,Jun 13 2013,--,1001,15000
Computer Programs & Systems Inc,"",Purchased,Jun 13 2013,--,1001,15000
ConocoPhillips,"",Sold,May 22 2013,Sale (Partial),1001,15000
Consolidated Communications Holdings,"",Purchased,Jun 13 2013,--,1001,15000
CONTINENTAL AIRL FIN (OTC Markets),"",Purchased,Mar 19 2013,--,1001,15000
Contl 2012-2 A,"",Sold,Jun 11 2013,Sale (Full),1001,15000
Crane Co,"",Purchased,Jun 13 2013,--,1001,15000
Crosstex Energy,"",Purchased,Jun 13 2013,--,1001,15000
Crosstex Energy,"",Sold,Oct 22 2013,Sale (Partial),1001,15000
CVS Caremark,"",Sold,Sep 11 2013,Sale (Partial),1001,15000
CVS Caremark,"",Sold,May 14 2013,Sale (Partial),1001,15000
Cypress Semiconductor,"",Purchased,Jun 13 2013,--,1001,15000
CYS Investments Inc,"",Purchased,Jun 13 2013,--,1001,15000
Digital Realty Trust,"",Purchased,Jun 13 2013,--,1001,15000
DWS Ultra Short Duration Svc Fund,"",Purchased,Mar 26 2013,--,15001,50000
eBay Inc,"",Sold,Oct 17 2013,Sale (Partial),1001,15000
eBay Inc,"",Sold,Jul 18 2013,Sale (Partial),1001,15000
Eli Lilly & Co,"",Purchased,Jan 14 2013,--,1001,15000
Eli Lilly & Co,"",Sold,May 21 2013,Sale (Full),1001,15000
EMC Corp,"",Sold,Oct 23 2013,Sale (Partial),1001,15000
Ensco plc,"",Sold,Aug 29 2013,Sale (Full),1001,15000
Eog Resources,"",Sold,Jun 11 2013,Sale (Partial),1001,15000
EPR Properties,"",Purchased,Jun 13 2013,--,1001,15000
Express Scripts,"",Sold,Oct 25 2013,Sale (Partial),1001,15000
Exxon Mobil,"",Sold,Apr 30 2013,Sale (Full),1001,15000
Exxon Mobil,"",Sold,Apr 16 2013,Sale (Partial),1001,15000
Exxon Mobil,"",Sold,Apr 19 2013,Sale (Partial),1001,15000
FedEx Corp,"",Purchased,Mar  1 2013,--,1001,15000
FedEx Corp,"",Purchased,Feb 13 2013,--,1001,15000
FedEx Corp,"",Sold,Mar 25 2013,Sale (Full),1001,15000
Fidelity National Financial Inc,"",Purchased,Jun 13 2013,--,1001,15000
Firstmerit Corp,"",Purchased,Jun 13 2013,--,1001,15000
Fly Leasing,"",Purchased,Jun 13 2013,--,1001,15000
Freeport-McMoran Copper & Gold,"",Sold,Jun 20 2013,Sale (Full),1001,15000
Freeport-McMoran Copper & Gold,"",Sold,Mar 19 2013,Sale (Partial),1001,15000
Garmin Ltd,"",Purchased,Jun 13 2013,--,1001,15000
General Electric,"",Purchased,Jun 18 2013,--,1001,15000
General Electric,"",Purchased,Apr 11 2013,--,1001,15000
General Electric,"",Purchased,May  3 2013,--,1001,15000
General Electric,"",Sold,Jun 11 2013,Sale (Full),1001,15000
General Mills,"",Sold,Aug 15 2013,Sale (Partial),1001,15000
General Motors,"",Purchased,Jul 15 2013,--,1001,15000
General Motors,"",Purchased,Sep  4 2013,--,1001,15000
General Motors,"",Sold,Apr 11 2013,Sale (Partial),1001,15000
General Motors,"",Sold,Jan 22 2013,Sale (Partial),1001,15000
Gilead Sciences,"",Sold,Jun  5 2013,Sale (Partial),1001,15000
Gilead Sciences,"",Sold,Jun  4 2013,Sale (Partial),1001,15000
Gilead Sciences,"",Sold,Jun  3 2013,Sale (Partial),1001,15000
Goldman Sachs,"",Purchased,Jan 25 2013,--,1001,15000
Goldman Sachs,"",Purchased,Jan 24 2013,--,1001,15000
Goldman Sachs,"",Sold,Mar  1 2013,Sale (Partial),1001,15000
Goldman Sachs,"",Sold,Oct 23 2013,Sale (Partial),1001,15000
Google Inc,"",Purchased,Mar  1 2013,--,1001,15000
Google Inc,"",Purchased,Mar 13 2013,--,1001,15000
Google Inc,"",Sold,Oct 10 2013,Sale (Partial),1001,15000
GUESS? (Berlin),"",Purchased,Jun 13 2013,This holding is actually for GUESS ? INC; unable to enter as GES,1001,15000
Halliburton Co,"",Sold,Mar 22 2013,Sale (Partial),1001,15000
Halliburton Co,"",Sold,Jun 11 2013,Sale (Full),1001,15000
Halliburton Co,"",Purchased,May  2 2013,--,1001,15000
Halliburton Co,"",Purchased,Nov  7 2013,--,1001,15000
Harris Corp,"",Purchased,Jun 13 2013,--,1001,15000
Hasbro Inc,"",Purchased,Jun 13 2013,--,1001,15000
Hatteras Financial Corp,"",Purchased,Jun 13 2013,--,1001,15000
Hcc Insurance Holdings,"",Purchased,Jun 13 2013,--,1001,15000
Hercules Technology Growth Capital Inc,"",Purchased,Jun 13 2013,--,1001,15000
Hewlett-Packard,"",Sold,Jun 11 2013,Sale (Full),1001,15000
HJ Heinz Co,"",Sold,Feb 28 2013,Sale (Full),1001,15000
HNI Corp,"",Purchased,Jun 13 2013,--,1001,15000
HollyFrontier Corp,"",Purchased,Jun 13 2013,--,1001,15000
Home Depot,"",Sold,Oct 21 2013,Sale (Partial),1001,15000
Honeywell International,"",Purchased,Oct  7 2013,--,1001,15000
Honeywell International,"",Purchased,Nov 20 2013,--,1001,15000
Hubbell Inc,"",Purchased,Jun 13 2013,--,1001,15000
Huntsman Corp,"",Purchased,Jun 13 2013,--,1001,15000
IBM Corp,"",Sold,Aug  7 2013,Sale (Full),1001,15000
IBM Corp,"",Sold,Jan 14 2013,Sale (Full),1001,15000
Idex Corp,"",Purchased,Jun 13 2013,--,1001,15000
Intel Corp,"",Purchased,Sep  4 2013,--,1001,15000
Intel Corp,"",Sold,Jun 11 2013,Sale (Partial),1001,15000
Invesco Balanced-Risk Allc Fund,"",Sold,Jun  3 2013,Sale (Full),50001,100000
Johnson & Johnson,"",Purchased,Jan 17 2013,--,1001,15000
Johnson & Johnson,"",Purchased,Apr  1 2013,--,1001,15000
Johnson & Johnson,"",Purchased,Oct 23 2013,--,1001,15000
Johnson Controls,"",Sold,May 15 2013,Sale (Partial),1001,15000
JPMorgan Chase & Co,"",Sold,Jun 11 2013,Sale (Full),1001,15000
JPMorgan Chase & Co,"",Sold,Sep 19 2013,Sale (Partial),1001,15000
JPMorgan Chase & Co,"",Sold,Oct 23 2013,Sale (Partial),1001,15000
Kimberly-Clark Corp,"",Purchased,Aug 22 2013,--,1001,15000
Kimberly-Clark Corp,"",Sold,Apr 24 2013,Sale (Full),1001,15000
Kraft Foods,"",Sold,May  2 2013,Sale (Full),1001,15000
L-3 Communications Holdings,"",Sold,Jun 11 2013,Sale (Full),1001,15000
Lancaster Colony Corp,"",Purchased,Jun 13 2013,--,1001,15000
Landauer Inc,"",Purchased,Jun 13 2013,--,1001,15000
Las Vegas Sands,"",Purchased,Aug 30 2013,--,1001,15000
Las Vegas Sands,"",Purchased,May  3 2013,--,1001,15000
Legg Mason BW Global Income Opp Fund,"",Purchased,Mar 26 2013,--,15001,50000
Liberty Global,"",Purchased,Feb 11 2013,--,1001,15000
Liberty Global,"",Purchased,Apr  3 2013,--,1001,15000
Liberty Global,"",Purchased,Mar  1 2013,--,1001,15000
Liberty Global,"",Sold,Jun 18 2013,Sale (Partial),1001,15000
Lincoln Electric Holdings,"",Purchased,Jun 13 2013,--,1001,15000
LinkedIn Corp,"",Purchased,Oct 10 2013,--,1001,15000
Lockheed Martin,"",Sold,Jun 11 2013,Sale (Full),1001,15000
Lowe's Cos,"",Purchased,May  8 2013,--,1001,15000
Lowe's Cos,"",Sold,Jun 21 2013,Sale (Partial),1001,15000
Macy's Inc,"",Sold,Sep 12 2013,Sale (Full),1001,15000
Macy's Inc,"",Purchased,Aug 13 2013,--,1001,15000
MainStay Marketfield Fund,"",Purchased,Jun  3 2013,--,50001,100000
Mansfield Rex Indpt Dist,"",Sold,May  1 2013,Sale (Full),15001,50000
Maxim Integrated Products Inc,"",Purchased,Jun 13 2013,--,1001,15000
McGrath Rentcorp Fund,"",Purchased,Jun 13 2013,--,1001,15000
Medtronic Inc,"",Sold,Jun 11 2013,Sale (Full),1001,15000
Merck & Co,"",Purchased,May 22 2013,--,1001,15000
Miami Dade County FL Trans Sys Bond,"",Sold,Aug 15 2013,Sale (Full),15001,50000
Microchip Technology Inc,"",Purchased,Jun 13 2013,--,1001,15000
Microsoft Corp,"",Sold,Jul 19 2013,Sale (Full),1001,15000
Microsoft Corp,"",Purchased,Jun 27 2013,--,1001,15000
Microsoft Corp,"",Purchased,May 21 2013,--,1001,15000
Microsoft Corp,"",Purchased,Jun  5 2013,--,1001,15000
MINNESOTA Bond,"",Purchased,Aug 23 2013,--,15001,50000
Molex Inc,"",Sold,Oct 11 2013,Sale (Full),1001,15000
Molex Inc,"",Purchased,Jun 13 2013,--,1001,15000
Molex Inc,"",Sold,Sep 10 2013,Sale (Partial),1001,15000
MTS Systems Corp,"",Purchased,Jun 13 2013,--,1001,15000
Nestle SA,"",Purchased,May 22 2013,--,1001,15000
NetApp Inc,"",Sold,May 22 2013,Sale (Full),1001,15000
Newell Rubbermaid,"",Purchased,Jun 13 2013,--,1001,15000
Newell Rubbermaid,"",Purchased,Jul 30 2013,--,1001,15000
News Corp,"",Purchased,Jul 10 2013,--,1001,15000
News Corp,"",Sold,Feb 13 2013,Sale (Partial),1001,15000
North Carolina Med Care Commn,"",Sold,May  6 2013,Sale (Full),15001,50000
Occidental Petroleum,"",Purchased,Sep  4 2013,--,1001,15000
Omega Healthcare Investors Inc,"",Purchased,Jun 13 2013,--,1001,15000
OneBeacon Insurance Group Ltd,"",Purchased,Jun 13 2013,--,1001,15000
Oppenheimer SteelPath MLP Alpha Fund,"",Purchased,Mar 22 2013,--,15001,50000
Oracle Corp,"",Purchased,Feb  5 2013,--,1001,15000
Oracle Corp,"",Purchased,Jan 14 2013,--,1001,15000
Oracle Corp,"",Sold,Jun 21 2013,Sale (Full),1001,15000
Packaging Corp of America,"",Purchased,Jun 13 2013,--,1001,15000
PacWest Bancorp Fund,"",Purchased,Jun 13 2013,--,1001,15000
PartnerRe Ltd,"",Purchased,Jun 13 2013,--,1001,15000
Pengrowth Energy Corp,"",Purchased,Jun 13 2013,--,1001,15000
Penn West Petroleum,"",Purchased,Jun 13 2013,--,1001,15000
People's United Financial Inc,"",Sold,Jul 18 2013,Sale (Partial),1001,15000
PEPCO Holdings,"",Purchased,Jun 13 2013,--,1001,15000
PepsiCo Inc,"",Sold,Jan  7 2013,Sale (Full),1001,15000
PerkinElmer Inc,"",Sold,Jun 11 2013,Sale (Full),1001,15000
Pfizer Inc,"",Sold,May 21 2013,Sale (Partial),1001,15000
Philip Morris International,"",Sold,Aug 27 2013,Sale (Full),1001,15000
Pioneer Natural Resources Co,"",Sold,Jun 11 2013,Sale (Full),1001,15000
PNC Bank NTS B/E,"",Sold,Jun 11 2013,Sale (Partial),1001,15000
PNC Funding Corp Nts B/E,"",Purchased,Jan 18 2013,--,1001,15000
PNC NA NTS B/E,"",Sold,Jan 18 2013,Sale (Full),1001,15000
PNM Resources,"",Purchased,Jun 13 2013,--,1001,15000
PPG Industries,"",Sold,Jan  7 2013,Sale (Full),1001,15000
Precision Castparts,"",Purchased,May 24 2013,--,1001,15000
Procter & Gamble,"",Sold,Apr 29 2013,Sale (Partial),1001,15000
Protective Life Corp,"",Purchased,Jun 13 2013,--,1001,15000
Qualcomm Inc,"",Sold,Jul  8 2013,Sale (Partial),1001,15000
Qualcomm Inc,"",Sold,Jul 15 2013,Sale (Full),1001,15000
Qualcomm Inc,"",Sold,Apr 30 2013,Sale (Partial),1001,15000
Qualcomm Inc,"",Purchased,Jan  7 2013,--,1001,15000
Qwest Corp,"",Sold,Jun 11 2013,Sale (Full),1001,15000
"Real estate/Bangor, ME","",Sold,Jul 23 2013,Sale (Full); No gain on sale of principal residence,250001,500000
"Real estate/Shady Side, MD","",Sold,Oct  4 2013,Sale (Full); No gain on sale of principal residence,500001,1000000
Regeneron Pharmaceuticals,"",Purchased,Nov 29 2013,--,1001,15000
Rio Tinto Plc,"",Sold,Feb 25 2013,Sale (Full),1001,15000
Rockwood Holdings,"",Purchased,Jun 13 2013,--,1001,15000
RPM Inc,"",Purchased,Jun 13 2013,--,1001,15000
Salesforce.Com Inc,"",Purchased,Oct 10 2013,--,1001,15000
SCANA Corp,"",Sold,Aug 13 2013,Sale (Full),1001,15000
SCANA Corp,"",Purchased,Jun 13 2013,--,1001,15000
Schlumberger Ltd,"",Purchased,Jul 19 2013,--,1001,15000
Schlumberger Ltd,"",Purchased,Apr 22 2013,--,1001,15000
Schlumberger Ltd,"",Sold,Dec 24 2013,Sale (Partial),1001,15000
Schlumberger Ltd,"",Sold,Dec 24 2013,Sale (Partial),1001,15000
Sinclair Broadcast Group,"",Purchased,Jun 13 2013,--,1001,15000
Snap-On Inc,"",Purchased,Jun 13 2013,--,1001,15000
Stanley Black & Decker,"",Sold,Jun 11 2013,Sale (Full),1001,15000
Starwood Hotels & Resorts Worldwide,"",Purchased,Dec 23 2013,--,1001,15000
Starwood Hotels & Resorts Worldwide,"",Purchased,Nov 21 2013,--,1001,15000
TAL International Group,"",Purchased,Jun 13 2013,--,1001,15000
Target Corp,"",Sold,Jan  8 2013,Sale (Full),1001,15000
Te Connectivity,"",Purchased,Aug 20 2013,--,1001,15000
Te Connectivity,"",Purchased,Oct 21 2013,--,1001,15000
Te Connectivity,"",Purchased,Sep 11 2013,--,1001,15000
Teleflex Inc,"",Purchased,Jun 13 2013,--,1001,15000
Texas Instruments,"",Purchased,Sep 10 2013,--,1001,15000
Texas Instruments,"",Purchased,Aug 15 2013,--,1001,15000
Texas Instruments,"",Purchased,Jan 23 2013,--,1001,15000
Thermo Fisher Scientific,"",Sold,Apr 18 2013,Sale (Full),1001,15000
Thermo Fisher Scientific,"",Sold,Mar 19 2013,Sale (Full),1001,15000
Time Warner,"",Sold,Feb  7 2013,Sale (Full),1001,15000
Total SA,"",Sold,Aug 28 2013,Sale (Partial),1001,15000
Tupperware Brands Corp,"",Purchased,Jun 13 2013,--,1001,15000
Union Pacific Corp,"",Sold,Oct 17 2013,Sale (Partial),1001,15000
Union Pacific Corp,"",Purchased,May  8 2013,--,1001,15000
United Technologies,"",Purchased,Jan  7 2013,--,1001,15000
United Technologies,"",Purchased,Jun 18 2013,--,1001,15000
United Technologies,"",Sold,Jun 11 2013,Sale (Full),1001,15000
UnitedHealth Group,"",Purchased,Apr 10 2013,--,1001,15000
University III Univ Res,"",Purchased,May  2 2013,--,15001,50000
US Airways,"",Sold,Jun 11 2013,Sale (Full),1001,15000
US BANCORP MED TERM,"",Sold,Jun 11 2013,Sale (Full),1001,15000
Validus Holdings,"",Purchased,Jun 13 2013,--,1001,15000
Vectren Corp,"",Purchased,Jun 13 2013,--,1001,15000
Verizon Communications,"",Sold,Jun 11 2013,Sale (Full),1001,15000
Verizon Communications,"",Purchased,Oct 22 2013,--,1001,15000
Verizon Communications,"",Purchased,Oct 23 2013,--,1001,15000
Wal-Mart Stores,"",Purchased,Sep 10 2013,--,1001,15000
Walt Disney Co,"",Sold,May 16 2013,Sale (Partial),1001,15000
Washington Trust Bancorp,"",Purchased,Jun 13 2013,--,1001,15000
Wells Fargo,"",Purchased,Jun 21 2013,--,1001,15000
Wells Fargo,"",Sold,Sep 24 2013,Sale (Full),1001,15000
Wells Fargo,"",Purchased,Jul  8 2013,--,1001,15000
Wells Fargo,"",Sold,Jun 11 2013,Sale (Full),1001,15000
Weyerhaeuser Co,"",Purchased,Jun 27 2013,--,1001,15000
Williams Cos,"",Sold,Jun 24 2013,Sale (Full),1001,15000
Williams Cos,"",Purchased,Jan  8 2013,--,1001,15000
Williams Cos,"",Purchased,Jan  9 2013,--,1001,15000
Windstream Holdings,"",Purchased,Jun 13 2013,--,1001,15000
Yahoo! Inc,"",Purchased,Nov 29 2013,--,1001,15000
Yahoo! Inc,"",Purchased,Dec 10 2013,--,1001,15000
