orgname,ultorg,action,date1,transnotes,minvalue,maxvalue
American Funds,"",Purchased,Jul  7 2014,"",400,400
American Funds 529C,"",Purchased,Jan  7 2014,"",15001,50000
American Funds 529C,"",Purchased,Jan  7 2014,"",15001,50000
Atlanta GA Airport Revenue Ser A Bond,"",Sold,Jul  1 2014,"",50001,100000
Atlanta GA Airport Revenue Ser A Bond,"",Sold,Jul  1 2014,"",50001,100000
Dallas/Ft Worth TX Intl Airport Bond,"",Sold,Mar 20 2014,"",15001,50000
Dallas/Ft Worth TX Intl Airport Bond,"",Sold,Mar 20 2014,"",15001,50000
First Eagle Global A (SGENX),"",Purchased,Dec 16 2014,"",1001,15000
First Eagle Global A (SGENX),"",Purchased,Dec 16 2014,"",1001,15000
Halyard Health,"",Exchanged,Oct 31 2014,"",1001,15000
Halyard Health,"",Exchanged,Oct 31 2014,"",1001,15000
King Co HSG-I BE 6700 (494759LM3),"",Sold,Jan  1 2014,"",1001,15000
King Co Hsg-I BE 6700 (494759LM3),"",Sold,Jan  1 2014,"",1001,15000
King Trans Tax BE 5000 (49474ESU8),"",Sold,Jun  2 2014,"",15001,50000
King Trans Tax BE 5000 (49474ESU8),"",Sold,Jun  2 2014,"",15001,50000
Ok Dev Fin BE 5000 (678908ZM9),"",Sold,Feb 18 2014,"",1001,15000
OK Dev Fin BE 5000 (678908ZM9),"",Sold,Feb 18 2014,"",1001,15000
Vancouver Hsg BE 6650 (921626HA8),"",Sold,Feb  3 2014,"",1001,15000
Vancouver HSG BE 6650 (921626HAS),"",Sold,Feb  3 2014,"",1001,15000
Verizon Communications,"",Purchased,Feb 21 2014,"",1001,15000
Vodafone Group,"",Sold,Jan  2 2014,"",15001,50000
Vodafone Group,"",Sold,Jan  2 2014,"",15001,50000
