orgname,ultorg,action,date1,transnotes,minvalue,maxvalue
Patrick J Rooney 2008 GRAT,"",Exchanged,Jan  1 2011,"",1000001,5000000
Patrick J Rooney 2008 GRAT,"",Exchanged,Jan  1 2011,"",1000001,5000000
Patrick Rooney Sr Family Crummey Tr 2003,"",Purchased,"","",1000001,5000000
Patrick Rooney Sr Family Crummey Tr 2003,"",Sold,"","",1000001,5000000
Rooney Family Trust,"",Exchanged,Jan  1 2011,"",1000001,5000000
