orgname,ultorg,action,date1,transnotes,minvalue,maxvalue
Abbott Laboratories,"",Sold,Aug 16 2013 12:00AM,"",11129,11129
Accenture,"",Sold,Jun 27 2013 12:00AM,"",1527,1527
Ace Ltd,"",Sold,Jul 12 2013 12:00AM,"",1388,1388
Adtran Inc,"",Sold,Multiple,"",7825,7825
Aercap Holdings NV,"",Sold,Dec 23 2013 12:00AM,"",2459,2459
Affiliated Managers Group,"",Sold,Jan 22 2013 12:00AM,"",1707,1707
Alcatel-Lucent,"",Sold,Jan  2 2013 12:00AM,"",516,516
Alexion Pharmaceuticals,"",Sold,Mar 15 2013 12:00AM,"",1772,1772
Alexion Pharmaceuticals,"",Sold,Mar 15 2013 12:00AM,"",2798,2798
Alexion Pharmaceuticals,"",Sold,Multiple,"",3144,3144
Allergan Inc,"",Sold,Mulitple,"",5633,5633
Allergan Inc,"",Sold,Multiple,"",1367,1367
American Campus Cmmtys Inc,"",Sold,Multiple,"",4094,4094
American Electric Power,"",Sold,Multiple,"",3817,3817
American Tower Corp,"",Sold,Jul 17 2013 12:00AM,"",8584,8584
American Tower Corp,"",Sold,Mulitple,"",5806,5806
Ameriprise Financial,"",Sold,Jul 12 2013 12:00AM,"",2508,2508
Ameriprise Financial,"",Sold,Jul 12 2013 12:00AM,"",3114,3114
AmerisourceBergen Corp,"",Sold,Multiple,"",6528,6528
Anheuser-Busch Inbev,"",Sold,Feb  7 2013 12:00AM,"",1131,1131
Anheuser-Busch Inbev,"",Sold,Feb  7 2013 12:00AM,"",4698,4698
Apple Inc,"",Sold,Multiple,"",11574,11574
Aruba Networks,"",Sold,Multiple,"",4750,4750
ASML Holding NV,"",Sold,Multiple,"",6322,6322
ASML Holding NV,"",Sold,Mar 25 2013 12:00AM,"",1,1
Assurant Inc,"",Sold,Multiple,"",5073,5073
Assurant Inc,"",Sold,Multiple,"",627,627
Autoliv Inc,"",Sold,Jun 24 2013 12:00AM,"",3697,3697
Autozone Inc,"",Sold,Multiple,"",4136,4136
BG Group,"",Sold,Jul  5 2013 12:00AM,"",2546,2546
BG Group,"",Sold,Jul  5 2013 12:00AM,"",1358,1358
BHP Billiton Ltd,"",Sold,Jun 18 2013 12:00AM,"",1648,1648
BHP Billiton Ltd,"",Sold,Jun 18 2013 12:00AM,"",2899,2899
Biogen Idec Inc,"",Sold,Multiple,"",1671,1671
Boston Properties Inc,"",Sold,Oct 16 2013 12:00AM,"",433,433
Boston Properties Inc,"",Sold,Oct 16 2013 12:00AM,"",4328,4328
Broadcom Corp,"",Sold,Mar  8 2013 12:00AM,"",569,569
Broadcom Corp,"",Sold,Multiple,"",2444,2444
Broadcom Corp,"",Sold,Multiple,"",3669,3669
CA Inc,"",Sold,Multiple,"",5375,5375
CA Technologies,"",Sold,Jun  4 2013 12:00AM,"",1764,1764
Cabot Oil & Gas Corp,"",Sold,Mar  6 2013 12:00AM,"",6582,6582
Cabot Oil & Gas Corp,"",Sold,Mar  6 2013 12:00AM,"",3974,3974
Cairn Energy Plc,"",Sold,Mar 26 2013 12:00AM,"",2639,2639
Cameron International,"",Sold,Mar 26 2013 12:00AM,"",2975,2975
Capital One Financial,"",Sold,Mar 25 2013 12:00AM,"",5405,5405
Catamaran Corp,"",Sold,Sep 24 2013 12:00AM,"",6766,6766
Caterpillar Inc,"",Sold,Multiple,"","",""
Caterpillar Inc,"",Sold,Multiple,"",6881,6881
Caterpillar Inc,"",Sold,Jun 20 2013 12:00AM,"",749,749
Caterpillar Inc,"",Sold,Multiple,"",4145,4145
Cbre Group,"",Sold,Multiple,"",8782,8782
Cbre Group,"",Sold,Jul 30 2013 12:00AM,"",2380,2380
Celgene Corp,"",Sold,Jan 28 2013 12:00AM,"",4043,4043
CenturyLink,"",Sold,Mar 25 2013 12:00AM,"",386,386
CenturyLink,"",Sold,Mar 25 2013 12:00AM,"",2770,2770
Cerner Corp,"",Sold,Jan 16 2013 12:00AM,"",1914,1914
Cisco Systems,"",Sold,Multiple,"",15663,15663
Coach Inc,"",Sold,Dec  4 2013 12:00AM,"",1543,1543
Cobalt International Energy,"",Sold,Dec  3 2013 12:00AM,"",2276,2276
Coca-Cola Co,"",Sold,Mar  8 2013 12:00AM,"",4436,4436
Coca-Cola Co,"",Sold,Multiple,"",15104,15104
Cognizant Technology Solutions,"",Sold,May 13 2013 12:00AM,"",1713,1713
Cognizant Technology Solutions,"",Sold,May 13 2013 12:00AM,"",1776,1776
Colbalt International Energy,"",Sold,Oct 29 2013 12:00AM,"",1818,1818
Comcast Corp,"",Sold,Jun 18 2013 12:00AM,"",4054,4054
Computer Sciences Corp,"",Sold,Multiple,"",3967,3967
Concho Resources,"",Sold,Oct  1 2013 12:00AM,"",1018,1018
ConocoPhillips,"",Sold,Jan 28 2013 12:00AM,"",1392,1392
Credit Suisse Group,"",Sold,Multiple,"",2938,2938
Crimson Wine Group Ltd,"",Sold,Mar  7 2013 12:00AM,"",223,223
Crimson Wine Group Ltd,"",Sold,Mar  7 2013 12:00AM,"",197,197
CSL Ltd,"",Sold,Multiple,"",5330,5330
CSL Ltd,"",Sold,Multiple,"",377,377
Cummins Inc,"",Sold,May 10 2013 12:00AM,"",10291,10291
CVS Health,"",Sold,May 15 2013 12:00AM,"",2645,2645
Deere & Co,"",Sold,Multiple,"",252,252
Deere & Co,"",Sold,Sep  9 2013 12:00AM,"",3109,3109
Deutsche Telekom,"",Sold,Multiple,"",3706,3706
Deutsche Telekom,"",Sold,Multiple,"",2770,2770
Dst Systems,"",Sold,Multiple,"",5322,5322
DuPont Co,"",Sold,Sep  9 2013 12:00AM,"",4489,4489
eBay Inc,"",Sold,Multiple,"",7969,7969
Ecopetrol SA,"",Sold,Mar  2 2013 12:00AM,"",4324,4324
Eog Resources,"",Sold,Multiple,"",12059,12059
Equifax Inc,"",Sold,Jan 22 2013 12:00AM,"",7194,7194
Ericsson Lm Tel,"",Sold,Nov 14 2013 12:00AM,"",905,905
Ericsson Lm Tel,"",Sold,Multiple,"",7501,7501
Estee Lauder Cos,"",Sold,Aug 14 2013 12:00AM,"",590,590
Estee Lauder Cos,"",Sold,Multiple,"",3227,3227
Experian GP Ltd,"",Sold,Dec  5 2013 12:00AM,"",1150,1150
Experian Group,"",Sold,Multiple,"",4849,4849
Experian Group,"",Sold,Dec  5 2013 12:00AM,"",1026,1026
Exxon Mobil,"",Sold,Multiple,"",8084,8084
Exxon Mobil,"",Sold,Multiple,"",4825,4825
Exxon Mobil,"",Sold,May 15 2013 12:00AM,"",1455,1455
F5 Networks,"",Sold,Multiple,"",1807,1807
Facebook Inc,"",Sold,Multiple,"",5053,5053
Facebook Inc,"",Sold,Multiple,"",2160,2160
Fair Isaac & Co,"",Sold,Feb 20 2013 12:00AM,"",272,272
Fair Isaac & Co,"",Sold,Multiple,"",3526,3526
Fifth Third Bancorp,"",Sold,Jan 28 2013 12:00AM,"",97,97
Fifth Third Bancorp,"",Sold,Jan 28 2013 12:00AM,"",2981,2981
First Cash Financial Services,"",Sold,Multiple,"",5834,5834
Freeport-McMoran Copper & Gold,"",Sold,Jun 18 2013 12:00AM,"",1594,1594
Fresenius Medical Care,"",Sold,Jun 11 2013 12:00AM,"",281,281
Fresenius Medical Care,"",Sold,Jun 11 2013 12:00AM,"",1546,1546
Fresenius Medical Care,"",Sold,Multiple,"",1876,1876
Fusion-Io Inc,"",Sold,Multiple,"",2143,2143
General Dynamics,"",Sold,Jan 25 2013 12:00AM,"",2050,2050
General Electric,"",Sold,Aug 13 2013 12:00AM,"",1587,1587
GNC Holdings,"",Sold,Multiple,"",8690,8690
Google Inc,"",Sold,Mar 25 2013 12:00AM,"",807,807
Google Inc,"",Sold,Mar 25 2013 12:00AM,"",7267,7267
Graco Inc,"",Sold,Multiple,"",4687,4687
Granite Real Estate Investment,"",Sold,Multiple,"",2283,2283
Granite Real Estate Investment,"",Sold,Sep 30 2013 12:00AM,"",325,325
HCA Holdings,"",Sold,Multiple,"",7350,7350
Hillenbrand Inc,"",Sold,Aug 20 2013 12:00AM,"",728,728
Hillenbrand Inc,"",Sold,Multiple,"",834,834
Hillenbrand Inc,"",Sold,May 22 2013 12:00AM,"",420,420
Humana Inc,"",Sold,Apr 19 2013 12:00AM,"",2544,2544
IBM Corp,"",Sold,Oct 16 2013 12:00AM,"",928,928
IBM Corp,"",Sold,Multiple,"",5595,5595
Icap Plc,"",Sold,Multiple,"",2459,2459
Industrial & Coml Bank China,"",Sold,Oct 23 2013 12:00AM,"",1100,1100
Informa PLC,"",Sold,Apr 29 2013 12:00AM,"",1129,1129
Informa PLC,"",Sold,Multiple,"",4725,4725
IntercontinentalExchange Inc,"",Sold,Jul  2 2013 12:00AM,"",698,698
Interpublic Group of Companies,"",Sold,Aug 29 2013 12:00AM,"",64,64
Interpublic Group of Companies,"",Sold,Multiple,"",6421,6421
Intuitive Surgical,"",Sold,Apr 29 2013 12:00AM,"",4400,4400
Intuitive Surgical,"",Sold,Apr 29 2013 12:00AM,"",2933,2933
iShares Russell 1000 Growth Index Fund,"",Sold,Jan 28 2013 12:00AM,"",59362,59362
iShares Russell 1000 Value Fund,"",Sold,Jan 28 2013 12:00AM,"",39660,39660
iShares Russell 1000 Value Fund,"",Sold,Jan 28 2013 12:00AM,"",33587,33587
iShares Russell Mid Cap Value Fund,"",Sold,Jan 28 2013 12:00AM,"",50968,50968
John Wiley & Sons,"",Sold,Aug 30 2013 12:00AM,"",10633,10633
John Wiley & Sons,"",Sold,Aug  5 2013 12:00AM,"",594,594
Johnson & Johnson,"",Sold,Mar 25 2013 12:00AM,"",6319,6319
Johnson & Johnson,"",Sold,Mar 25 2013 12:00AM,"",1434,1434
JPMorgan Chase & Co,"",Sold,Mar 25 2013 12:00AM,"",741,741
Jupiter Telecom,"",Sold,Apr  2 2013 12:00AM,"",4295,4295
Jupiter Telecom,"",Sold,Apr  2 2013 12:00AM,"",2567,2567
Jupiter Telecom,"",Sold,Apr  2 2013 12:00AM,"",3870,3870
Keycorp,"",Sold,Nov 20 2013 12:00AM,"",726,726
Keycorp,"",Sold,Nov 20 2013 12:00AM,"",4370,4370
Kraft Foods,"",Sold,Dec 26 2013 12:00AM,"",2675,2675
Kraft Foods,"",Sold,Dec 26 2013 12:00AM,"",535,535
L'Oreal Co,"",Sold,Oct 11 2013 12:00AM,"",1831,1831
Las Vegas Sands,"",Sold,Multiple,"",3952,3952
Leidos Holdings,"",Sold,Multiple,"",2056,2056
Lender Processing Services,"",Sold,Multiple,"",4526,4526
Lender Processing Services,"",Sold,Multiple,"",5549,5549
Leucadia Nat Cp,"",Sold,May  7 2013 12:00AM,"",2408,2408
Level 3 Communications,"",Sold,Feb 21 2013 12:00AM,"",4450,4450
Lexmark International,"",Sold,Multiple,"",7198,7198
Lexmark International,"",Sold,Jul 23 2013 12:00AM,"",530,530
Lexmark International,"",Sold,Jul 23 2013 12:00AM,"",2195,2195
Li & Fund Ltd,"",Sold,Multiple,"",2829,2829
Life Technologies Corp,"",Sold,Multiple,"",3089,3089
Life Technologies Corp,"",Sold,Multiple,"",10407,10407
Lincoln Electric,"",Sold,Multiple,"",5168,5168
Lincoln International,"",Sold,Jul  9 2013 12:00AM,"",2445,2445
Lowes Companies,"",Sold,Nov 20 2013 12:00AM,"",820,820
Lowes Companies,"",Sold,Nov 20 2013 12:00AM,"",3523,3523
Lululemon Athletica,"",Sold,Multiple,"",2327,2327
Lululemon Athletica,"",Sold,Mar 19 2013 12:00AM,"",1271,1271
Mallinckrodt Public LTD,"",Sold,Multiple,"",378,378
Mead Johnson Nutrition,"",Sold,Mar 25 2013 12:00AM,"",3723,3723
Merck & Co,"",Sold,Multiple,"",5291,5291
Methanex Corp,"",Sold,Nov 25 2013 12:00AM,"",1486,1486
Michael Kors Holdings,"",Sold,Oct 22 2013 12:00AM,"",4298,4298
Microsoft Corp,"",Sold,Multiple,"",10018,10018
Mindray Medical International,"",Sold,Nov 20 2013 12:00AM,"",4424,4424
Mondelez International,"",Sold,Dec  4 2013 12:00AM,"",682,682
Mondelez International,"",Sold,Multiple,"",4927,4927
Monsanto Co,"",Sold,Jan 22 2013 12:00AM,"",1641,1641
National Oilwell Varco,"",Sold,Multiple,"",7346,7346
Natl Grid Transco Plc,"",Sold,Apr 19 2013 12:00AM,"",1087,1087
Natl Grid Transco Plc,"",Sold,Jan 27 2013 12:00AM,"",5557,5557
Nestle SA,"",Sold,Multiple,"",6417,6417
Novo Nordisk,"",Sold,Multiple,"",4210,4210
Novo Nordisk,"",Sold,Mar 21 2013 12:00AM,"",648,648
Occidental Petroleum,"",Sold,Apr 19 2013 12:00AM,"",3172,3172
Omnicare Inc,"",Sold,Multiple,"",4286,4286
Oracle Corp,"",Sold,Oct 28 2013 12:00AM,"",66,66
Oracle Corp,"",Sold,Oct 16 2013 12:00AM,"",4945,4945
Oracle Corp,"",Sold,Oct 16 2013 12:00AM,"",2835,2835
Paccar Inc,"",Sold,Mar 25 2013 12:00AM,"",394,394
Paccar Inc,"",Sold,Mar 25 2013 12:00AM,"",2315,2315
Palo Alto Networks,"",Sold,Jun 25 2013 12:00AM,"",2894,2894
Petrofac Ltd,"",Sold,Jul 12 2013 12:00AM,"",3703,3703
Petrofac Ltd London,"",Sold,Jul 12 2013 12:00AM,"",2632,2632
Pfizer Inc,"",Sold,Multiple,"",4394,4394
Pharmacyclics Inc,"",Sold,Oct  1 2013 12:00AM,"",969,969
Philip Morris International,"",Sold,May 15 2013 12:00AM,"",6144,6144
Phillips 66,"",Sold,Dec 26 2013 12:00AM,"",5400,5400
PNC Financial Services,"",Sold,Multiple,"",3151,3151
PNC Financial Services,"",Sold,Nov 20 2013 12:00AM,"",2792,2792
Publicis Groupe SA,"",Sold,Jul 30 2013 12:00AM,"",1130,1130
Qualcomm Inc,"",Sold,Jul  2 2013 12:00AM,"",5463,5463
Qualcomm Inc,"",Sold,Multiple,"",3238,3238
Qualcomm Inc,"",Sold,Multiple,"",8592,8592
Quintiles Transnational Holdings,"",Sold,Jul  3 2013 12:00AM,"",6742,6742
Ralph Lauren Corp,"",Sold,Oct 15 2013 12:00AM,"",1904,1904
Rayonier Inc,"",Sold,Nov 20 2013 12:00AM,"",2333,2333
Rayonier Inc,"",Sold,Nov 20 2013 12:00AM,"",528,528
Rchlumberger Ltd,"",Sold,Dec 26 2013 12:00AM,"",3206,3206
Regions Financial,"",Sold,Nov 20 2013 12:00AM,"",1629,1629
Rex Energy,"",Sold,Multiple,"",2094,2094
Rex Energy,"",Sold,Jun 11 2013 12:00AM,"",439,439
Rio Tinto Plc,"",Sold,Jun  4 2013 12:00AM,"",3081,3081
Rogers Comm Inc,"",Sold,Mar 25 2013 12:00AM,"",5927,5927
Salesforce.com,"",Sold,Oct 11 2013 12:00AM,"",1128,1128
Schlumberger Ltd,"",Sold,Multiple,"",4379,4379
Schlumberger Ltd,"",Sold,Dec 26 2013 12:00AM,"",1781,1781
Science Applications International,"",Sold,Multiple,"",927,927
Shinhan Financial Group,"",Sold,May  1 2013 12:00AM,"",270,270
Shinhan Financial Group,"",Sold,May  1 2013 12:00AM,"",3440,3440
Simon Property Group,"",Sold,Multiple,"",8969,8969
Simon Property Group,"",Sold,Jun 20 2013 12:00AM,"",2532,2532
Sociedad Quimica Y Minera,"",Sold,May  1 2013 12:00AM,"",2673,2673
Sociedad Quimica Y Minera,"",Sold,May  1 2013 12:00AM,"",389,389
Sociedad Quimica Y Minera,"",Sold,May  1 2013 12:00AM,"",583,583
Softbank Corp,"",Sold,Mar 11 2013 12:00AM,"",1411,1411
Stancorp Financial Group,"",Sold,Multiple,"",2513,2513
Stancorp Financial Group,"",Sold,Multiple,"",2141,2141
Starbucks Corp,"",Sold,May 16 2013 12:00AM,"",382,382
Starwood Hotels & Resorts Worldwide,"",Sold,Jun  6 2013 12:00AM,"",460,460
Starwood Hotels & Resorts Worldwide,"",Sold,Multiple,"",6171,6171
Starwood Hotels & Resorts Worldwide,"",Sold,Jun 27 2013 12:00AM,"",1790,1790
State Street Corp,"",Sold,Jul 12 2013 12:00AM,"",2967,2967
State Street Corp,"",Sold,Multiple,"",2857,2857
STMicroelectronics,"",Sold,Apr 22 2013 12:00AM,"",3861,3861
Stratasys Ltd,"",Sold,Multiple,"",2234,2234
Stratasys Ltd,"",Sold,Nov 25 2013 12:00AM,"",1178,1178
Subsea 7 SA,"",Sold,Jul 11 2013 12:00AM,"",3432,3432
Subsea 7 SA,"",Sold,Jul 11 2013 12:00AM,"",584,584
Suntrust Bank,"",Sold,Nov 20 2013 12:00AM,"",1358,1358
Symantec Corp,"",Sold,Jan 10 2013 12:00AM,"",1386,1386
Target Corp,"",Sold,Jun 18 2013 12:00AM,"",631,631
Target Corp,"",Sold,Multiple,"",4995,4995
Tesco Plc,"",Sold,Mar 13 2013 12:00AM,"",771,771
Tesco Plc,"",Sold,Mar 13 2013 12:00AM,"",1742,1742
Time Warner,"",Sold,Jan 28 2013 12:00AM,"",50,50
Time Warner,"",Sold,Jan 28 2013 12:00AM,"",2358,2358
Travelers Companies,"",Sold,Aug 13 2013 12:00AM,"",2605,2605
Trimble Navigation,"",Sold,Jul 12 2013 12:00AM,"",4076,4076
Unilever,"",Sold,Mar 25 2013 12:00AM,"",4077,4077
Union Pacific Corp,"",Sold,Nov  4 2013 12:00AM,"",1841,1841
UnitedHealth Group,"",Sold,Jan 28 2013 12:00AM,"",7432,7432
UnitedHealth Group,"",Sold,Jan 28 2013 12:00AM,"",676,676
US Bancorp,"",Sold,Jun  3 2013 12:00AM,"",598,598
US Bancorp,"",Sold,Jun  3 2013 12:00AM,"",3976,3976
UTD Overseas Bank,"",Sold,Apr 22 2013 12:00AM,"",1132,1132
Vanguard MSCI ETF,"",Sold,Jan 28 2013 12:00AM,"",42348,42348
Vanguard REIT Index,"",Sold,Jan 28 2013 12:00AM,"",6231,6231
Verizon Communications,"",Sold,Aug 13 2013 12:00AM,"",2660,2660
Viacom Inc,National Amusements Inc,Sold,Multiple,"",6006,6006
VMware Inc,EMC Corp,Sold,Multiple,"",3777,3777
VMware Inc,EMC Corp,Sold,Jan 31 2013 12:00AM,"",1333,1333
Vodafone Group,"",Sold,Feb 14 2013 12:00AM,"",3805,3805
Vodafone Group,"",Sold,Feb 14 2013 12:00AM,"",886,886
Walt Disney Co,"",Sold,Multiple,"",2300,2300
WD40 Co,"",Sold,Multiple,"",7642,7642
Wells Fargo,"",Sold,Jul 12 2013 12:00AM,"",1918,1918
Wells Fargo,"",Sold,Jan  4 2013 12:00AM,"",345,345
Whole Foods Market,"",Sold,Multiple,"",2283,2283
Whole Foods Market,"",Sold,Multiple,"",2279,2279
Willis Group Holdings,"",Sold,Multiple,"",6779,6779
Willis Group Holdings,"",Sold,Jun 11 2013 12:00AM,"",586,586
World Fuel Services Corp,"",Sold,Jul 11 2013 12:00AM,"",5853,5853
Young Innovations Inc,"",Sold,Multiple,"",3831,3831
Yum! Brands,"",Sold,Feb 12 2013 12:00AM,"",5135,5135
