orgname,ultorg,action,date1,transnotes,minvalue,maxvalue
Aberdeen Emerging Markets Instutional Fund,"",Sold,Jun 15 2017 12:00AM,"","",""
Aberdeen Emerging Markets Instutional Fund,"",Purchased,6/15/2017,"",1001,15000
Aberdeen Emerging Markets Instutional Fund,"",Purchased,6/15/2017,"",1001,15000
Hartford Core Equity Fund,"",Sold,6/15/2017,"",1001,15000
Hartford Core Equity Fund,"",Sold,6/15/2017,"",1001,15000
Hartford Core Equity Fund,"",Exchanged,Jun 15 2017 12:00AM,"","",""
MFS Value R6 Fund,"",Sold,Jun 15 2017 12:00AM,"","",""
MFS Value R6 Fund,"",Purchased,6/15/2017,"",1001,15000
MFS Value R6 Fund,"",Purchased,6/15/2017,"",1001,15000
Nuveen Large Cap Value Fund,"",Sold,6/15/2017,"",1001,15000
Nuveen Large Cap Value Fund,"",Sold,6/15/2017,"",1001,15000
Nuveen Large Cap Value Fund,"",Exchanged,Jun 15 2017 12:00AM,"","",""
Oppenheimer Main Street I Fund,"",Sold,Jun 15 2017 12:00AM,"","",""
Oppenheimer Main Street I Fund,"",Purchased,6/15/2017,"",1001,15000
Oppenheimer Main Street I Fund,"",Purchased,6/15/2017,"",1001,15000
