orgname,ultorg,action,date1,transnotes,minvalue,maxvalue
American Funds Europacific Growth Fund,"",Purchased,Oct 18 2008,"",1001,15000
Dodge & Cox Stock Fund,"",Sold,Oct 18 2008,"",15001,50000
SSgA Bond Market Index,"",Purchased,Oct 18 2008,"",1001,15000
SSgA Stable Value,"",Sold,Oct 18 2008,"",15001,50000
SSgA Yield Enhanced STIF,"",Purchased,Oct 18 2008,"",15001,50000
