orgname,ultorg,action,date1,transnotes,minvalue,maxvalue
395 Marlborough LLC,"",Purchased,Jul  5 2009,"",100001,250000
395 Marlborough LLC,"",Purchased,Sep 21 2009,"",100001,250000
395 Marlborough LLC,"",Sold,Sep 21 2009,"",50001,100000
AEA Mezzanine Fund,"",Purchased,Apr  1 2009,"",1001,15000
AEA Mezzanine Fund,"",Purchased,Jul 24 2009,"",1001,15000
AEA Middle Market Fund,"",Purchased,Mar 18 2009,"",1001,15000
AEA Middle Market Fund,"",Purchased,Sep 26 2009,"",1001,15000
AEA Middle Market Fund,"",Purchased,Dec 11 2009,"",1001,15000
Meade Johnson,"",Purchased,Dec 20 2009,"",15001,50000
MotorLiquid,"",Purchased,Jul 15 2009,"",1001,15000
Temple West LLC,"",Sold,Feb 23 2009,"",1001,15000
