orgname,ultorg,action,date1,transnotes,minvalue,maxvalue
Adient plc,"",Exchanged,Jul 30 2018 12:00AM,"","",""
Adient plc,"",Sold,7/30/2018,"",1001,15000
Adient plc,"",Sold,7/30/2018,"",1001,15000
Gentex Corp,"",Sold,6/13/2018,"",15001,50000
Gentex Corp,"",Sold,6/13/2018,"",15001,50000
Gentex Corp,"",Exchanged,Jun 13 2018 12:00AM,"","",""
Johnson Controls International plc Ordinary Share,"",Exchanged,Jul 30 2018 12:00AM,"","",""
Johnson Controls International plc Ordinary Share,"",Sold,7/30/2018,"",15001,50000
Johnson Controls International plc Ordinary Share,"",Sold,7/30/2018,"",15001,50000
