orgname,ultorg,action,date1,transnotes,minvalue,maxvalue
A123 Systems,"",Purchased,Mar 29 2010,"",1001,15000
A123 Systems,"",Sold,Sep 28 2010,"",15001,50000
A123 Systems,"",Purchased,Mar 15 2010,"",1001,15000
A123 Systems,"",Purchased,Mar 11 2010,"",1001,15000
A123 Systems,"",Purchased,Mar 18 2010,"",1001,15000
A123 Systems,"",Purchased,Nov 10 2010,"",15001,50000
American Funds Investment Co of America,"",Sold,Jun 22 2010,"",1001,15000
General Electric,"",Sold,Mar 16 2010,"",15001,50000
Goldman Sachs,"",Sold,Apr 29 2010,"",15001,50000
Invesco Value Fund,"",Sold,Nov 17 2010,"",1001,15000
Invesco Value Fund,"",Sold,Sep  9 2010,"",1001,15000
Invesco Value Fund,"",Sold,Aug  3 2010,"",1001,15000
Invesco Value Fund,"",Sold,Jun 22 2010,"",1001,15000
Van Kampen Dividend Index,"",Sold,Jul  1 2010,"",1001,15000
Van Kampen Dividend Index,"",Purchased,Jul  1 2010,"",1001,15000
Van Kampen EAFE Select,"",Sold,Jul  2 2010,"",15001,50000
Van Kampen EAFE Select,"",Purchased,Jul  2 2010,"",15001,50000
Washington Mutual,"",Sold,Dec 28 2010,"",1001,15000
Washington Mutual,"",Sold,Oct 20 2010,"",1001,15000
Washington Mutual,"",Sold,Jun 22 2010,"",1001,15000
