orgname,ultorg,action,date1,transnotes,minvalue,maxvalue
620 Jackson Property - CO,"",Purchased,Jan  7 2008,"",250001,500000
620 Jackson Property - CO,"",Sold,Dec 31 2008,"",250001,500000
AllianceBernstein Value Fund,"",Purchased,Jan 11 2008,"",1001,15000
AllianceBernstein Value Fund,"",Sold,Jan 14 2008,"",50001,100000
American Europacific Fund,"",Purchased,Bi-monthly until 103108,"",1001,15000
American Funds Growth Fund of America,"",Purchased,Bi-monthly until 103108,"",1001,15000
Blackrock TL Trn II Inst,"",Purchased,Jan 14 2008,"",100001,250000
Blackrock TL Trn II Inst,"",Purchased,Bi-monthly until 103108,"",1001,15000
BMW Bank of North America/CD,"",Purchased,Nov 17 2008,"",15001,50000
Cisco Systems,"",Sold,Jan  7 2008,"",1001,15000
Dell Inc,"",Sold,Jan  7 2008,"",1001,15000
Discover Bank/CD,"",Purchased,Jun 18 2008,"",15001,50000
Fundamental Investors Fund,"",Purchased,Jun  2 2008,"",1001,15000
Growth Fund of America,"",Purchased,Jun  2 2008,"",1001,15000
iShares NASDAQ Biotechnology Index,"",Sold,Jan  7 2008,"",1001,15000
JPMorgan Chase & Co,"",Sold,Jan  7 2008,"",1001,15000
Materials Select Sector SPDR Fund,"",Sold,Jan  7 2008,"",1001,15000
Microsoft Corp,"",Sold,Jan  7 2008,"",1001,15000
ML Ret Preservation Trust - ALLTEL 401k,"",Purchased/Sold,Jan 14 2008,"",50001,100000
ML Ret Preservation Trust - ALLTEL 401k,"",Purchased,Bi-monthly until 103108,"",1001,15000
Mutual of Omaha Bank,"",Sold,Sep 22 2008,"",15001,50000
New Perspective Fund,"",Purchased,Jun  2 2008,"",1001,15000
Oakmark Fund,"",Purchased,Bi-monthly until 103108,"","",""
Royal Dutch Shell,"",Sold,Jan  7 2008,"",1001,15000
"SAJ LLC/Property 1/Lincoln, NE",SAJ LLC,Sold,May 30 2008,"",50001,100000
"SAJ LLC/Property 2/Lincoln, NE",SAJ LLC,Sold,May 30 2008,"",50001,100000
"SAJ LLC/Property 4/Lincoln, NE",SAJ LLC,Sold,May 30 2008,"",50001,100000
"SAJ LLC/Property 5/Lincoln, NE",SAJ LLC,Sold,May 30 2008,"",50001,100000
"SAJ LLC/Property 6/Lincoln, NE",SAJ LLC,Sold,May 30 2008,"",50001,100000
"SAJ LLC/Property 7/Lincoln, NE",SAJ LLC,Sold,May 30 2008,"",50001,100000
"SAJ LLC/Property 8/Lincoln, NE",SAJ LLC,Sold,May 30 2008,"",50001,100000
"SAJ LLC/Property 9/Lincoln, NE",SAJ LLC,Purchased,May 30 2008,"",250001,500000
Sallie Mae Bank/CD,"",Purchased,Oct 20 2008,"",15001,50000
Standard & Poors Mid Cap 400,"",Sold,Jan  7 2008,"",1001,15000
Union Bank/CD,"",Sold,May 21 2008,"",50001,100000
Union Bank/CD,"",Sold,Aug 21 2008,"",50001,100000
Union Bank/CD,"",Sold,Nov 21 2008,"",50001,100000
Union Bank/CD,"",Sold,Dec  4 2008,"",50001,100000
US Bank/CD,"",Purchased,Dec 31 2008,"",100001,250000
Vanguard Explorer Fund,"",Sold,Jan 14 2008,"",50001,100000
Vanguard Explorer Fund,"",Purchased,Jan 11 2008,"",1001,15000
Vanguard Institutional Index,"",Sold,Jan 14 2008,"",50001,100000
Vanguard Institutional Index,"",Purchased,Jan 11 2008,"",1001,15000
Windstream Corp,"",Sold,Mar 10 2008,"",15001,50000
