orgname,ultorg,action,date1,transnotes,minvalue,maxvalue
Agilent Technologies,"",Purchased,May 23 2012,"",1001,15000
Agilent Technologies,"",Exchanged,Jun 20 2012,"",1001,15000
Apple Inc,"",Exchanged,Jun 20 2012,"",1001,15000
Apple Inc,"",Exchanged,Jun 20 2012,"",1001,15000
Barclays PLC,"",Exchanged,Jun 20 2012,"",1001,15000
Barclays PLC,"",Purchased,Apr 24 2012,"",1001,15000
Barclays PLC,"",Purchased,May 23 2012,"",1001,15000
Celegne Corp,"",Exchanged,May 23 2012,"",1001,15000
CF Industries,"",Exchanged,Jun 20 2012,"",1001,15000
CF Industries,"",Purchased,May 23 2012,"",1001,15000
Citigroup Inc,"",Exchanged,Jun 20 2012,"",1001,15000
Concho Resources,"",Exchanged,Feb 28 2012,"",1001,15000
Davita Inc,"",Exchanged,Jun 20 2012,"",1001,15000
Deere & Co,"",Exchanged,Jun 20 2012,"",1001,15000
Delaware Diversified Income Fund,"",Purchased,Aug 24 2012,"",1001,15000
Diamond Foods,"",Exchanged,Mar  1 2012,"",1001,15000
Dollar Tree Stores,"",Exchanged,Jun 20 2012,"",1001,15000
Eastman Chemical,"",Exchanged,Jun 20 2012,"",1001,15000
Eastman Chemical,"",Purchased,May 23 2012,"",1001,15000
Eli Lilly & Co,"",Purchased,May 23 2012,"",1001,15000
Eli Lilly & Co,"",Exchanged,Jun 20 2012,"",1001,15000
Ensco PLC,"",Exchanged,May 23 2012,"",1001,15000
FIA Card Services NA RASP Merrill Lynch,"",Exchanged,May 23 2012,"",1001,15000
FIA Card Services NA RASP Merrill Lynch,"",Purchased,Mar 20 2012,"",1001,15000
FIA Card Services NA RASP Merrill Lynch,"",Purchased,Feb 29 2012,"",1001,15000
FIA Card Services NA RASP Merrill Lynch,"",Exchanged,Apr 24 2012,"",1001,15000
FIA Card Services NA RASP Merrill Lynch,"",Purchased,Jun 21 2012,"",50001,100000
FIA Card Services NA RASP Merrill Lynch,"",Exchanged,Aug 24 2012,"",50001,100000
FIA Card Services NA RASP Merrill Lynch,"",Purchased,Sep 19 2012,"",1001,15000
FIA Card Services NA RASP Merrill Lynch,"",Exchanged,Sep 27 2012,"",15001,50000
FIA Card Services NA RASP Merrill Lynch,"",Exchanged,Mar 22 2012,"",1001,15000
Fiduciary/Claymore MLP Opportunity Fund,"",Purchased,Mar 19 2012,"",1001,15000
Fiduciary/Claymore MLP Opportunity Fund,"",Purchased,Mar 22 2012,"",1001,15000
First Trust Consumer Staples Alpha,"",Purchased,Mar  1 2012,"",1001,15000
First Trust Consumer Staples Alpha,"",Exchanged,Jun 20 2012,"",1001,15000
Hexcel Corp,"",Exchanged,Jun 20 2012,"",1001,15000
HMS Holdings Corp,"",Exchanged,May 23 2012,"",1001,15000
Intel Corp,"",Exchanged,Jun 20 2012,"",1001,15000
Intel Corp,"",Purchased,Feb 29 2012,"",1001,15000
Intuit Inc,"",Purchased,Feb 29 2012,"",1001,15000
Intuit Inc,"",Exchanged,Jun 20 2012,"",1001,15000
Loomis Sayles Strategic Income Fund,"",Purchased,Aug 24 2012,"",1001,15000
Lord Abbett Short Duration Income Fund,"",Purchased,Aug 24 2012,"",15001,50000
McDonald's Corp,"",Purchased,May 23 2012,"",1001,15000
McDonald's Corp,"",Exchanged,Jun 20 2012,"",1001,15000
Mylan Inc,"",Exchanged,Jun 20 2012,"",1001,15000
National Oilwell Varco,"",Exchanged,Jun 20 2012,"",1001,15000
Netgear Inc,"",Exchanged,Feb 29 2012,"",1001,15000
Oracle Corp,"",Exchanged,Jun 20 2012,"",1001,15000
Oracle Corp,"",Purchased,May 23 2012,"",1001,15000
PowerShares Exch Traded Bond Trust I,"",Purchased,Sep 27 2012,"",1001,15000
PowerShares Exch Traded Bond Trust I,"",Purchased,Sep 27 2012,"",1001,15000
Sinopec Corp,Sinopec Group,Exchanged,Mar  1 2012,"",1001,15000
SPDR Gold Trust ETF,"",Purchased,May 23 2012,"",1001,15000
TAL International Group,"",Exchanged,Jun 20 2012,"",1001,15000
Templenon Global Bond Fund,"",Purchased,Aug 24 2012,"",1001,15000
Tortoise Energy Infrastructure,"",Exchanged,Mar 19 2012,"",1001,15000
Tortoise Energy Infrastructure,"",Purchased,Mar  1 2012,"",1001,15000
VF Corp,"",Purchased,May 23 2012,"",1001,15000
VF Corp,"",Exchanged,Jun 20 2012,"",1001,15000
Virtus Premium Alpha Sector Fund,"",Purchased,Aug 24 2012,"",15001,50000
Virtus Premium Alpha Sector Fund,"",Exchanged,Sep 18 2012,"",1001,15000
Yum! Brands,"",Exchanged,Jun 20 2012,"",1001,15000
