orgname,ultorg,action,date1,transnotes,minvalue,maxvalue
BlackRock Latin America Fund,"",Purchased,Jun 13 2014,"",1001,15000
Columbia Capital Allocation Moderate Aggressive Po,"",Sold,May 14 2014,"",1001,15000
DFA Global Fixed Income 1 yr,"",Purchased,Dec 12 2014,"",1001,15000
DFA Global Fixed Income 1 yr,"",Sold,Jun 13 2014,"",15001,50000
DFA International Small Co Fund,"",Purchased,Dec 16 2014,"",1001,15000
DFA International Small Co Fund,"",Sold,Jun 13 2014,"",1001,15000
Fidelity Canada Fund,"",Purchased,Dec  5 2014,"",1001,15000
Fidelity Floating Rate High Income Fund,"",Sold,Jun 13 2014,"",1001,15000
Forward International Small Co,"",Sold,Jun 13 2014,"",1001,15000
Global Resources Fund (PIPFX),"",Purchased,Dec 11 2014,"",1001,15000
Global Resources Fund (PIPFX),"",Purchased,Jun 13 2014,"",1001,15000
iShares MSCI Japan,"",Purchased,Jun 18 2014,"",1001,15000
JP Morgan Tax Aware Real Return (TXRIX),"",Sold,Jun 16 2014,"",1001,15000
JPMorgan Small Cap Value Fund,"",Sold,Dec 11 2014,"",1001,15000
Matthews Pacific Tiger (MAPTX),"",Purchased,Dec 11 2014,"",1001,15000
Morgan Stanley US Real Estate (MSUSX),"",Sold,Jun 13 2014,"",1001,15000
Morgan Stanley US Real Estate (MSUSX),"",Sold,Dec 11 2014,"",1001,15000
Oakmark International Small Cap Fund,"",Purchased,Dec 18 2014,"",1001,15000
Royce Premier Fund,"",Sold,Dec 11 2014,"",1001,15000
Royce Premier Fund,"",Purchased,Jun 13 2014,"",1001,15000
Royce Total Return Fund,"",Purchased,Dec 17 2014,"",1001,15000
Schwab S&P 500 Index (SWPPX),"",Sold,Dec 11 2014,"",15001,50000
SPDR S&P 500 ETF,"",Sold,Jun 13 2014,"",15001,50000
SPDR S&P 500 ETF,"",Sold,Jan  3 2014,"",1001,15000
T Rowe Price International Discovery Fund (PRIDX),"",Purchased,Dec 16 2014,"",1001,15000
T Rowe Price Latin America Fund,"",Sold,Jun 16 2014,"",1001,15000
T Rowe Price New Asia Fund,"",Purchased,Jun 13 2014,"",1001,15000
T Rowe Price New Asia Fund,"",Purchased,Dec 16 2014,"",1001,15000
T Rowe Price New Era Fund,"",Purchased,Dec 15 2014,"",1001,15000
T Rowe Price New Era Fund,"",Sold,Jun 13 2014,"",1001,15000
T Rowe Price New Era Fund,"",Purchased,Dec 11 2014,"",1001,15000
T Rowe Price New Era Fund,"",Purchased,Dec 15 2014,"",1001,15000
Vanguard Energy Fund (VGELX),"",Purchased,Dec 11 2014,"",1001,15000
Vanguard Energy Fund (VGELX),"",Purchased,Dec 11 2014,"",1001,15000
Vanguard Energy Fund (VGELX),"",Purchased,Dec 22 2014,"",1001,15000
Vanguard Energy Fund (VGELX),"",Sold,Jun 13 2014,"",1001,15000
Vanguard Euro Stock Index,"",Purchased,Mar 24 2014,"",1001,15000
Vanguard Euro Stock Index,"",Sold,Jun 13 2014,"",1001,15000
Vanguard Euro Stock Index,"",Purchased,Jun 23 2014,"",1001,15000
Vanguard REIT Index,"",Sold,Dec 11 2014,"",1001,15000
Vanguard Short Term Tax Exempt (VWSUX),"",Purchased,Jun 30 2014,"",1001,15000
