orgname,ultorg,action,date1,transnotes,minvalue,maxvalue
American Funds Washington Mutual,"",Purchased,"","",1001,15000
Davis New York Venture Fund,"",Sold,"","",1001,15000
Harris Assoc Invt Tr Oakmark Eq & Inc Fd,"",Sold,"","",1001,15000
iShares 7-10 Year Treasury Bond ETF (IEF),"",Sold,"","",1001,15000
iShares Core S&P Mid-Cap ETF (IJH),"",Purchased,"","",1001,15000
iShares Core S&P Small-Cap ETF (IJR),"",Purchased,"","",1001,15000
iShares Core U.S. Aggregate Bond ETF (AGG),"",Purchased,"","",1001,15000
iShares iBoxx $ Investment Grade Corporate Bond ET,"",Sold,"","",1001,15000
iShares Intermediate Credit Bond ETF (CIU),"",Sold,"","",1001,15000
iShares S&P Small-Cap 600 Growth ETF (IJT),"",Sold,"","",1001,15000
iShares S&P SmallCap 600 Value ETF (IJS),"",Sold,"","",1001,15000
MFS Emerging Markets Debt Fund,"",Purchased,"","",1001,15000
MFS Value Fund,"",Purchased,"","",1001,15000
RS Invt Tr Value Fund,"",Sold,"","",1001,15000
T Rowe Price Blue Chip Growth Fund,"",Sold,"","",1001,15000
Touchstone Cap Value Fund,"",Purchased,"","",1001,15000
Wells Fargo Fds Tr Emerging Markets Equity Fd,"",Sold,"","",1001,15000
