orgname,ultorg,action,date1,transnotes,minvalue,maxvalue
Altra Industrial Motion Corp,"",Exchanged,10/2/2018,"",1001,15000
Altra Industrial Motion Corp,"",Exchanged,10/2/2018,"",1001,15000
American Cap World Growth Income Fund,"",Purchased,1/25/2018,"",1001,15000
American Cap World Growth Income Fund,"",Purchased,12/19/2018,"",1001,15000
American Cap World Growth Income Fund,"",Purchased,1/25/2018,"",1001,15000
American Cap World Growth Income Fund,"",Purchased,12/19/2018,"",1001,15000
American Cap World Growth Income Fund,"",Sold,Jan 25 2018 12:00AM,"","",""
American Cap World Growth Income Fund,"",Sold,Dec 19 2018 12:00AM,"","",""
American Funds Capital Income Builder Fund,"",Exchanged,Sep 27 2018 12:00AM,"","",""
American Funds Capital Income Builder Fund,"",Sold,9/27/2018,"",1001,15000
American Funds Capital Income Builder Fund,"",Sold,9/27/2018,"",1001,15000
American Funds Mutual Fund,"",Purchased,12/20/2018,"",1001,15000
American Funds Mutual Fund,"",Purchased,12/20/2018,"",1001,15000
American Funds Mutual Fund,"",Sold,Dec 20 2018 12:00AM,"","",""
Berkshire Hathaway,"",Sold,Oct  1 2018 12:00AM,"","",""
Berkshire Hathaway,"",Purchased,10/1/2018,"",15001,50000
Berkshire Hathaway,"",Purchased,10/1/2018,"",15001,50000
Dodge & Cox Balanced Fund (DODBX),"",Sold,9/27/2018,"",15001,50000
Dodge & Cox Balanced Fund (DODBX),"",Sold,9/27/2018,"",15001,50000
Dodge & Cox Balanced Fund (DODBX),"",Exchanged,Sep 27 2018 12:00AM,"","",""
Dodge & Cox Global Stock Fund (DODWX),"",Sold,Dec 21 2018 12:00AM,"","",""
Dodge & Cox Global Stock Fund (DODWX),"",Purchased,12/21/2018,"",1001,15000
Dodge & Cox Global Stock Fund (DODWX),"",Purchased,12/21/2018,"",1001,15000
Growth Fund of America,"",Purchased,12/24/2018,"",1001,15000
Growth Fund of America,"",Purchased,12/24/2018,"",1001,15000
Growth Fund of America,"",Sold,Dec 24 2018 12:00AM,"","",""
Invesco American Franchise Fund,"",Sold,Dec 17 2018 12:00AM,"","",""
Invesco American Franchise Fund,"",Sold,Sep 28 2018 12:00AM,"","",""
Invesco American Franchise Fund,"",Purchased,12/17/2018,"",1001,15000
Invesco American Franchise Fund,"",Purchased,9/28/2018,"",15001,50000
Invesco American Franchise Fund,"",Purchased,12/17/2018,"",1001,15000
Invesco American Franchise Fund,"",Purchased,9/28/2018,"",15001,50000
Invesco American Value Fund,"",Sold,12/20/2018,"",15001,50000
Invesco American Value Fund,"",Purchased,12/17/2018,"",1001,15000
Invesco American Value Fund,"",Sold,12/20/2018,"",15001,50000
Invesco American Value Fund,"",Purchased,12/17/2018,"",1001,15000
Invesco American Value Fund,"",Exchanged,Dec 20 2018 12:00AM,"","",""
Invesco American Value Fund,"",Sold,Dec 17 2018 12:00AM,"","",""
Invesco Balanced Risk Allocation Fund,"",Exchanged,Sep 28 2018 12:00AM,"","",""
Invesco Balanced Risk Allocation Fund,"",Sold,9/28/2018,"",15001,50000
Invesco Balanced Risk Allocation Fund,"",Sold,9/28/2018,"",15001,50000
Invesco Diversified Dividend Fund,"",Purchased,12/17/2018,"",1001,15000
Invesco Diversified Dividend Fund,"",Purchased,12/17/2018,"",1001,15000
Invesco Diversified Dividend Fund,"",Sold,Dec 17 2018 12:00AM,"","",""
Invesco Equally-Weighted S&P 500,"",Sold,Dec 17 2018 12:00AM,"","",""
Invesco Equally-Weighted S&P 500,"",Purchased,12/17/2018,"",1001,15000
Invesco Equally-Weighted S&P 500,"",Purchased,12/17/2018,"",1001,15000
Oppenheimer Global Opportunities Fund (OGIYX),"",Purchased,1/26/2018,"",15001,50000
Oppenheimer Global Opportunities Fund (OGIYX),"",Purchased,12/10/2018,"",1001,15000
Oppenheimer Global Opportunities Fund (OGIYX),"",Sold,12/17/2018,"",15001,50000
Oppenheimer Global Opportunities Fund (OGIYX),"",Purchased,1/26/2018,"",15001,50000
Oppenheimer Global Opportunities Fund (OGIYX),"",Purchased,12/10/2018,"",1001,15000
Oppenheimer Global Opportunities Fund (OGIYX),"",Sold,12/17/2018,"",15001,50000
Oppenheimer Global Opportunities Fund (OGIYX),"",Sold,Jan 26 2018 12:00AM,"","",""
Oppenheimer Global Opportunities Fund (OGIYX),"",Sold,Dec 10 2018 12:00AM,"","",""
Oppenheimer Global Opportunities Fund (OGIYX),"",Exchanged,Dec 17 2018 12:00AM,"","",""
PRIMECAP Odyssey Growth Fund (POGRX),"",Exchanged,Dec 17 2018 12:00AM,"","",""
PRIMECAP Odyssey Growth Fund (POGRX),"",Sold,Jan 25 2018 12:00AM,"","",""
PRIMECAP Odyssey Growth Fund (POGRX),"",Sold,Sep 27 2018 12:00AM,"","",""
PRIMECAP Odyssey Growth Fund (POGRX),"",Sold,12/17/2018,"",15001,50000
PRIMECAP Odyssey Growth Fund (POGRX),"",Purchased,1/25/2018,"",15001,50000
PRIMECAP Odyssey Growth Fund (POGRX),"",Purchased,9/27/2018,"",15001,50000
PRIMECAP Odyssey Growth Fund (POGRX),"",Sold,12/17/2018,"",15001,50000
PRIMECAP Odyssey Growth Fund (POGRX),"",Purchased,1/25/2018,"",15001,50000
PRIMECAP Odyssey Growth Fund (POGRX),"",Purchased,9/27/2018,"",15001,50000
Short Term Bond Fund of America Class F-2 (SBFFX),"",Sold,1/25/2018,"",1001,15000
Short Term Bond Fund of America Class F-2 (SBFFX),"",Sold,1/25/2018,"",1001,15000
Short Term Bond Fund of America Class F-2 (SBFFX),"",Exchanged,Jan 25 2018 12:00AM,"","",""
