orgname,ultorg,action,date1,transnotes,minvalue,maxvalue
Drey Soc Resp GR,"",Purchased,Mar  2 2012,"",100001,250000
Fidelity High Income Fund,"",Sold,Apr  2 2012,"",50001,100000
iShares Barclays TIPS SPDR,"",Sold,Nov 28 2012,"",15001,50000
iShares Barclays US TIPS Bond Fund,"",Sold,Nov 28 2012,"",1001,15000
iShares Dow Jones US Real Estate Index,"",Sold,Nov 28 2012,"",15001,50000
iShares MSCI Emerging Markets Index,"",Sold,Nov 15 2012,"",15001,50000
iShares MSCI Emerging Markets Index,"",Sold,Nov 28 2012,"",1001,15000
Ishares Russel 2000,"",Sold,Feb 14 2012,"",15001,50000
iShares Russel Mid Cap Fund,"",Sold,May 18 2012,"",50001,100000
Nuveen Quality Preferred Income Fund,"",Sold,Apr 20 2012,"",15001,50000
NW NVIT GOV Bond,"",Sold,Mar 12 2012,"",50001,100000
PowerShares Dividend Achievers Fund,"",Sold,Nov 28 2012,"",1001,15000
SPDR DJ Wilshire REIT,"",Purchased,Jul 17 2012,"",1001,15000
SPDR Global Real Estate,"",Purchased,Jan  5 2012,"",15001,50000
TDAM Ins Dep,"",Sold,Nov 28 2012,"",1001,15000
Vanguard High Dividend Yield Index,"",Purchased,Aug  7 2012,"",15001,50000
Vanguard MSCI Emerging Markets ETF,"",Purchased,May 14 2012,"",15001,50000
Vanguard Short Term Bond,"",Purchased,May 14 2012,"",15001,50000
