orgname,ultorg,action,date1,transnotes,minvalue,maxvalue
Aegis Sciences,"",Sold,Oct 21 2010,"",25000001,50000000
Aegis Sciences,"",Purchased,Oct 21 2010,"",5000001,25000000
American Balanced Fund,"",Purchased,Jun 16 2010,"",1001,15000
American Funds Asset Allocation,"",Purchased,1/20/2010,"",14813,14813
American Funds Asset Allocation,"",Sold,2/8/2010,"",14054,14054
American Funds Asset Allocation,"",Purchased,6/18/2010,"",20210,20210
American Funds Asset Allocation,"",Sold,8/26/2010,"",19561,19561
American Funds Asset Allocation,"",Purchased,9/16/2010,"",14480,14480
American Funds Asset Allocation,"",Purchased,1/20/2010,"",25147,25147
American Funds Asset Allocation,"",Sold,2/8/2010,"",23875,23875
American Funds Asset Allocation,"",Purchased,6/16/2010,"",34312,34312
American Funds Asset Allocation,"",Sold,8/25/2010,"",29693,29693
American Funds Asset Allocation,"",Purchased,9/16/2010,"",21983,21983
American Funds Global Bond,"",Purchased,9/16/2010,"",7576,7576
American Funds Global Bond,"",Purchased,8/25/2010,"",15086,15086
American Funds Global Bond,"",Purchased,9/16/2010,"",5069,5069
American Funds Global Bond,"",Purchased,8/26/2010,"",9925,9925
American Funds Global Discovery,"",Purchased,8/26/2010,"",4253,4253
American Funds Global Discovery,"",Sold,9/16/2010,"",914,914
American Funds Global Discovery,"",Sold,1/20/2010,"",12872,12872
American Funds Global Discovery,"",Purchased,8/25/2010,"",6457,6457
American Funds Global Discovery,"",Sold,9/16/2010,"",1296,1296
American Funds Global Discovery,"",Sold,1/20/2010,"",7592,7592
American Funds Global Growth,"",Sold,2/8/2010,"",1057,1057
American Funds Global Growth,"",Purchased,1/20/2010,"",7233,7233
American Funds Global Growth,"",Sold,8/25/2010,"",10517,10517
American Funds Global Growth,"",Purchased,6/16/2010,"",9107,9107
American Funds Global Growth,"",Sold,2/8/2010,"",1795,1795
American Funds Global Growth,"",Purchased,1/20/2010,"",12280,12280
American Funds Global Growth,"",Purchased,9/16/2010,"",3877,3877
American Funds Global Growth,"",Sold,8/26/2010,"",6994,6994
American Funds Global Growth,"",Purchased,6/18/2010,"",5346,5346
American Funds Global Growth,"",Purchased,9/16/2010,"",6105,6105
American Funds Global Growth-income,"",Purchased,1/20/2010,"",22632,22632
American Funds Global Growth-income,"",Sold,2/8/2010,"",1715,1715
American Funds Global Growth-income,"",Sold,6/16/2010,"",16095,16095
American Funds Global Growth-income,"",Purchased,1/20/2010,"",13332,13332
American Funds Global Growth-income,"",Sold,2/8/2010,"",1010,1010
American Funds Global Growth-income,"",Sold,6/18/2010,"",9490,9490
American Funds Global Small Cap,"",Purchased,1/20/2010,"",6983,6983
American Funds Global Small Cap,"",Sold,2/8/2010,"",931,931
American Funds Global Small Cap,"",Purchased,6/16/2010,"",18106,18106
American Funds Global Small Cap,"",Sold,2/8/2010,"",1581,1581
American Funds Global Small Cap,"",Sold,8/25/2010,"",13174,13174
American Funds Global Small Cap,"",Purchased,1/20/2010,"",11855,11855
American Funds Global Small Cap,"",Purchased,9/16/2010,"",9671,9671
American Funds Global Small Cap,"",Purchased,6/18/2010,"",10644,10644
American Funds Global Small Cap,"",Sold,8/26/2010,"",8879,8879
American Funds Global Small Cap,"",Purchased,9/16/2010,"",13600,13600
American Funds Growth Fund of America,"",Sold,8/26/2010,"",23231,23231
American Funds Growth Fund of America,"",Purchased,9/16/2010,"",21690,21690
American Funds Growth Fund of America,"",Purchased,1/20/2010,"",37720,37720
American Funds Growth Fund of America,"",Sold,8/25/2010,"",35264,35264
American Funds Growth Fund of America,"",Purchased,9/16/2010,"",32975,32975
American Funds Growth Fund of America,"",Sold,2/8/2010,"",11121,11121
American Funds Growth Fund of America,"",Purchased,6/16/2010,"",13682,13682
American Funds Growth Fund of America,"",Sold,2/8/2010,"",6651,6651
American Funds Growth Fund of America,"",Purchased,6/18/2010,"",6077,6077
American Funds Growth Fund of America,"",Purchased,1/20/2010,"",22220,22220
American Funds Growth Income,"",Purchased,1/20/2010,"",22220,22220
American Funds Growth Income,"",Purchased,6/18/2010,"",12278,12278
American Funds Growth Income,"",Sold,2/8/2010,"",13642,13642
American Funds Growth Income,"",Purchased,6/16/2010,"",20835,20835
American Funds Growth Income,"",Purchased,9/16/2010,"",10735,10735
American Funds Growth Income,"",Sold,8/25/2010,"",11841,11841
American Funds Growth Income,"",Purchased,1/20/2010,"",37720,37720
American Funds Growth Income,"",Sold,2/8/2010,"",23158,23158
American Funds Growth Income,"",Purchased,9/16/2010,"",7165,7165
American Funds Growth Income,"",Sold,8/26/2010,"",7801,7801
American Funds High Income Bond,"",Purchased,8/26/2010,"",11343,11343
American Funds High Income Bond,"",Sold,9/16/2010,"",3956,3956
American Funds High Income Bond,"",Sold,1/20/2010,"",13037,13037
American Funds High Income Bond,"",Purchased,8/25/2010,"",17218,17218
American Funds High Income Bond,"",Sold,9/16/2010,"",5747,5747
American Funds High Income Bond,"",Sold,1/20/2010,"",7680,7680
American Funds International,"",Purchased,1/20/2010,"",1470,1470
American Funds International,"",Sold,2/8/2010,"",8018,8018
American Funds International,"",Purchased,9/16/2010,"",6595,6595
American Funds International,"",Sold,2/8/2010,"",13612,13612
American Funds International,"",Purchased,9/16/2010,"",4338,4338
American Funds International,"",Purchased,1/20/2010,"",2496,2496
American Funds Money Market,"",Sold,Jan 15 2010,"",1001,15000
American Funds New World,"",Sold,1/20/2010,"",7681,7681
American Funds New World,"",Purchased,2/8/2010,"",12583,12583
American Funds New World,"",Sold,9/16/2010,"",5688,5688
American Funds New World,"",Sold,8/26/2010,"",502,502
American Funds New World,"",Purchased,6/18/2010,"",2112,2112
American Funds New World,"",Purchased,2/8/2010,"",21381,21381
American Funds New World,"",Sold,1/20/2010,"",13005,13005
American Funds New World,"",Purchased,6/16/2010,"",3620,3620
American Funds New World,"",Sold,9/16/2010,"",8333,8333
American Funds New World,"",Sold,8/25/2010,"",762,762
American Funds US Govt/AAA Rated Sec,"",Purchased,8/25/2010,"",62811,62811
American Funds US Govt/AAA Rated Sec,"",Sold,9/16/2010,"",84104,84104
American Funds US Govt/AAA Rated Sec,"",Sold,6/16/2010,"",83578,83578
American Funds US Govt/AAA Rated Sec,"",Purchased,2/8/2010,"",55498,55498
American Funds US Govt/AAA Rated Sec,"",Sold,9/16/2010,"",54715,54715
American Funds US Govt/AAA Rated Sec,"",Purchased,8/26/2010,"",41247,41247
American Funds US Govt/AAA Rated Sec,"",Sold,1/20/2010,"",110938,110938
American Funds US Govt/AAA Rated Sec,"",Sold,6/18/2010,"",49168,49168
American Funds US Govt/AAA Rated Sec,"",Purchased,2/8/2010,"",32692,32692
American Funds US Govt/AAA Rated Sec,"",Sold,1/20/2010,"",85350,85350
Amylin Pharmaceuticals,"",Purchased,Apr 22 2010,"",1001,15000
Amylin Pharmaceuticals,"",Purchased,Oct 20 2010,"",1001,15000
Baxter International,"",Purchased,Oct 21 2010,"",15001,50000
BBH Broad Market Fund,"",Purchased,Oct 21 2010,"",1000001,5000000
BBH International Equity Fund,"",Purchased,Oct 21 2010,"",50001,100000
BBH Money Market Fund,"",Purchased,Oct 21 2010,"",100001,250000
Berkshire Hathaway,"",Purchased,Oct 21 2010,"",100001,250000
Brown Brothers Harriman & Co,"",Purchased,Oct 21 2010,"",5000001,25000000
Capital World Growth & Income Fund,"",Sold,Jan 15 2010,"",1001,15000
Capital World Growth & Income Fund,"",Sold,Jun 16 2010,"",1001,15000
Caterpillar Inc,"",Purchased,Aug 26 2010,"",1001,15000
Caterpillar Inc,"",Purchased,May 28 2010,"",1001,15000
Caterpillar Inc,"",Sold,Oct 20 2010,"",15001,50000
Comcast Corp,"",Purchased,Oct 21 2010,"",50001,100000
Dell Inc,"",Purchased,Oct 21 2010,"",50001,100000
Dendredon Corp,"",Purchased,May 28 2010,"",1001,15000
Dendredon Corp,"",Purchased,Aug 26 2010,"",1001,15000
Dentsply International,"",Purchased,Oct 21 2010,"",15001,50000
El Dorado Gold,"",Purchased,Oct 28 2010,"",1001,15000
El Dorado Gold,"",Sold,Apr 16 2010,"",1001,15000
El Dorado Gold,"",Purchased,Aug 26 2010,"",1001,15000
Empirical Capital Partners,"",Purchased,Oct 21 2010,"",1000001,5000000
Empirical Capital Partners,"",Purchased,Dec  1 2010,"",500001,1000000
EOG Resources,"",Purchased,Oct 21 2010,"",50001,100000
Europacific Growth Fund,"",Purchased,Jan 15 2010,"",1001,15000
Europacific Growth Fund,"",Sold,Jun 16 2010,"",1001,15000
Holly Corp,"",Purchased,Oct 28 2010,"",1001,15000
Intermune Inc,"",Purchased,Aug 26 2010,"",1001,15000
Intermune Inc,"",Sold,Oct 15 2010,"",1001,15000
ION Geophysical,"",Sold,May 21 2010,"",1001,15000
James River Coal,"",Sold,Dec 17 2010,"",1001,15000
Johnson & Johnson,"",Purchased,Oct 21 2010,"",15001,50000
Microsoft Corp,"",Purchased,Oct 21 2010,"",50001,100000
PE&TS Ply International,"",Purchased,Oct 21 2010,"",15001,50000
Regions Financial,"",Purchased,Oct 28 2010,"","",""
Regions Financial,"",Purchased,Dec 23 2010,"","",""
Regions Financial,"",Purchased,Feb 25 2010,"",1001,15000
Seabridge Resources Inc,"",Sold,May 21 2010,"",1001,15000
Small Cap World Fund,"",Purchased,Jun 16 2010,"",1001,15000
Small Cap World Fund,"",Purchased,Jan 15 2010,"",1001,15000
Southwestern Energy,"",Purchased,Oct 21 2010,"",50001,100000
T Rowe Price New Asia Fund,"",Purchased,Oct 21 2010,"",100001,250000
Textron Inc,"",Sold,Jan  5 2010,"",1001,15000
US Bancorp,"",Purchased,Oct 21 2010,"",50001,100000
US Government Securities,"",Purchased,Jun 16 2010,"",1001,15000
US Government Securities Fund,"",Purchased,Jun 16 2010,"",1001,15000
VISA Inc,"",Purchased,Oct 21 2010,"",50001,100000
Waste Management Inc,"",Purchased,Oct 21 2010,"",50001,100000
