orgname,ultorg,action,date1,transnotes,minvalue,maxvalue
America Funds College America,"",Exchanged,Jul 21 2011,"",1001,15000
America Funds Euro Pacific Growth Fund,"",Sold,Aug  2 2011,"",1001,15000
America Funds Fundamental Investors,"",Sold,Jun 20 2011,"",1001,15000
America Funds Washington Mutual Fund,"",Sold,Jun 20 2011,"",1001,15000
American Funds UTMA,"",Exchanged,Jul 21 2011,"",1001,15000
American Funds UTMA,"",Sold,Jun 20 2011,"",1001,15000
American Funds UTMA,"",Exchanged,Jun 20 2011,"",1001,15000
College Choice 529 Investment Plan,"",Exchanged,Jul  6 2011,"",1001,15000
College Choice 529 Investment Plan,"",Sold,Oct 21 2011,"",1001,15000
College Choice 529 Investment Plan,"",Sold,Jul 19 2011,"",1001,15000
College Choice 529 Investment Plan,"",Purchased,Jul  5 2011,"",1001,15000
