orgname,ultorg,action,date1,transnotes,minvalue,maxvalue
Aspiration Redwood Fund,"",Sold,Mar  1 2018 12:00AM,"","",""
Aspiration Redwood Fund,"",Purchased,3/1/2018,"",15001,50000
Aspiration Redwood Fund,"",Sold,5/18/2018,"",1001,15000
Aspiration Redwood Fund,"",Sold,6/17/2018,"",1001,15000
Aspiration Redwood Fund,"",Sold,7/24/2018,"",1001,15000
Aspiration Redwood Fund,"",Sold,9/20/2018,"",1001,15000
Aspiration Redwood Fund,"",Purchased,3/1/2018,"",15001,50000
Aspiration Redwood Fund,"",Sold,5/18/2018,"",1001,15000
Aspiration Redwood Fund,"",Sold,6/17/2018,"",1001,15000
Aspiration Redwood Fund,"",Sold,7/24/2018,"",1001,15000
Aspiration Redwood Fund,"",Sold,9/20/2018,"",1001,15000
