orgname,ultorg,action,date1,transnotes,minvalue,maxvalue
AFLAC Inc,"",Purchased,Apr 23 2012,"",15001,50000
Altegris Managed Futures Strategy Fund,"",Sold,Dec 13 2012,"",15001,50000
Altegris Managed Futures Strategy Fund,"",Sold,Dec 13 2012,"",15001,50000
American Waterworks Co,"",Purchased,Jan 25 2012,"",15001,50000
Artio FundS International Equity Fund,"",Sold,Jan 25 2012,"",1001,15000
Cisco Systems,"",Sold,Apr 23 2012,"",15001,50000
Cohen & Steers Realty Fund,"",Purchased,Jan 25 2012,"",15001,50000
Cohen & Steers Realty Fund,"",Purchased,Apr 23 2012,"",1001,15000
Costco Wholesale,"",Purchased,Aug 21 2012,"",15001,50000
Emerson Equity Money Market,"",Sold,Dec 18 2012,"",50001,100000
Emerson Equity Money Market,"",Sold,Dec 19 2012,"",1001,15000
Emerson Equity Money Market,"",Sold,Dec 10 2012,"",15001,50000
Fidelity Canada Fund,"",Sold,Jan 25 2012,"",15001,50000
Fidelity Contrafund,"",Sold,Apr 23 2012,"",15001,50000
Fidelity Emerging Asia Fund,"",Sold,Dec 13 2012,"",1001,15000
Indexiq ETF TR IQ Global Agribusiness,"",Purchased,Dec 14 2012,"",1001,15000
Indexiq ETF TR IQ Hedge Multi-Strategy,"",Purchased,Dec 13 2012,"",15001,50000
InterContinental Hotels & Resorts,"",Purchased,Apr 23 2012,"",15001,50000
iShares MSCI EAFE Index,"",Purchased,Dec 13 2012,"",15001,50000
Janus Overseas Fund,"",Sold,Jan 25 2012,"",1001,15000
Lord Abbett Short Duration Income Fund,"",Purchased,Aug 21 2012,"",15001,50000
NTT Docomo,"",Purchased,Apr 23 2012,"",1001,15000
NTT Docomo,"",Purchased,Jan 25 2012,"",1001,15000
Nuveen High Yield Muni Bond Fund,"",Purchased,Jan 25 2012,"",50001,100000
Nuveen Tradewinds Emerging Markets,"",Sold,Aug 21 2012,"",1001,15000
Nuveen Tradewinds Emerging Markets,"",Purchased,Apr 23 2012,"",15001,50000
Nuveen Tradewinds Intl Value Fund,"",Sold,Aug 21 2012,"",15001,50000
Oppenheimer Developing Markets Fund,"",Purchased,Aug 21 2012,"",15001,50000
Oppenheimer Developing Markets Fund,"",Purchased,Dec 13 2012,"",1001,15000
PIMCO Real Return Fund,"",Purchased,Dec 13 2012,"",1001,15000
PowerShares Exch Traded Fd - TR Dyna,"",Purchased,Dec 13 2012,"",15001,50000
PowerShares Exch Traded Fund,"",Purchased,Feb  6 2012,"",15001,50000
PowerShares Exch Traded Fund,"",Sold,Aug 21 2012,"",15001,50000
Procter & Gamble,"",Sold,Aug 21 2012,"",15001,50000
Qualcomm,"",Purchased,Apr 23 2012,"",15001,50000
RidgeWorth Total Return Fund,"",Purchased,Apr 23 2012,"",15001,50000
RidgeWorth Total Return Fund,"",Purchased,Aug 21 2012,"",15001,50000
Select Sector SPDR Trust Utilities,"",Purchased,Jan 25 2012,"",15001,50000
SPDR Index SHS,"",Purchased,Dec 13 2012,"",15001,50000
SPDR Index SHS S&P Intl Dividend,"",Sold,Aug 21 2012,"",1001,15000
SPDR Index SHS S&P Intl Dividend,"",Purchased,Jan 25 2012,"",1001,15000
SPDR Index SHS S&P Intl Dividend,"",Sold,Aug 21 2012,"",15001,50000
SPDR Index SHS S&P Intl Dividend,"",Purchased,Jan 25 2012,"",15001,50000
Vanguard Index 500 Fund,"",Sold,Aug 21 2012,"",15001,50000
Weyerhaeuser Co,"",Purchased,Dec 13 2012,"",15001,50000
