orgname,ultorg,action,date1,transnotes,minvalue,maxvalue
FIA Card Services RASP,Bank of America,Purchased,Feb 18 2011,"",1001,15000
Merrill Lynch American Small Cap Fund,"",Sold,May 13 2011,"",1001,15000
Merrill Lynch Blackrock Balanced Fund,"",Sold,Nov  9 2011,"",1001,15000
Merrill Lynch Blackrock Balanced Fund,"",Sold,Aug 11 2011,"",1001,15000
Merrill Lynch Global Allocation Fund,"",Sold,Nov  9 2011,"",1001,15000
Merrill Lynch Global Allocation Fund,"",Sold,Aug 11 2011,"",1001,15000
