orgname,ultorg,action,date1,transnotes,minvalue,maxvalue
Hartford MidCap HLS IA,"",Purchased,12/21/2017,--,15001,50000
Hartford MidCap HLS IA,"",Purchased,12/21/2017,--,15001,50000
Hartford MidCap HLS IA,"",Purchased,12/21/2017,--,15001,50000
Hartford MidCap HLS IA,"",Purchased,12/21/2017,--,15001,50000
Hartford MidCap HLS IB,"",Sold,12/21/2017,Sale (Full),15001,50000
Hartford MidCap HLS IB,"",Sold,12/21/2017,Sale (Full),15001,50000
Hartford MidCap HLS IB,"",Sold,12/21/2017,Sale (Full),15001,50000
Hartford MidCap HLS IB,"",Sold,12/21/2017,Sale (Full),15001,50000
Schwab Total Bond Market Fund,"",Sold,08/18/2017,Sale (Full),1001,15000
Schwab Total Bond Market Fund,"",Sold,08/18/2017,Sale (Full),1001,15000
SWLBX - Schwab Total Bond Market,"",Sold,08/18/2017,Sale (Full),1001,15000
SWLBX - Schwab Total Bond Market,"",Sold,08/18/2017,Sale (Full),1001,15000
T Rowe Price Growth Stock Fund,"",Sold,12/21/2017,Sale (Full),50001,100000
T Rowe Price Growth Stock Fund,"",Sold,12/21/2017,Sale (Full),50001,100000
T Rowe Price Growth Stock I,"",Purchased,12/21/2017,--,50001,100000
T Rowe Price Growth Stock I,"",Purchased,12/21/2017,--,50001,100000
T. Rowe Price Growth Stock,"",Sold,12/21/2017,Sale (Full),50001,100000
T. Rowe Price Growth Stock,"",Sold,12/21/2017,Sale (Full),50001,100000
T. Rowe Price Growth Stock I,"",Purchased,12/21/2017,--,50001,100000
T. Rowe Price Growth Stock I,"",Purchased,12/21/2017,--,50001,100000
