orgname,ultorg,action,date1,transnotes,minvalue,maxvalue
AXA Retirement,"",Sold,Jan 15 2010,"",15001,50000
AXA Retirement,"",Sold,Jul  1 2010,"",50001,100000
AXA Retirement,"",Sold,Dec 29 2010,"",50001,100000
