orgname,ultorg,action,date1,transnotes,minvalue,maxvalue
American Funds Developing World Growth & Income,"",Sold,Dec 28 2015,Sale (Partial),1001,15000
American Funds New Perspective Fund,"",Sold,Dec 28 2015,Sale (Partial); From Jill Cooper American Funds IRA,1001,15000
Davis New York Venture Fund,"",Sold,Jul  2 2015,Sale (Partial); From Joint Revocable Trust,50001,100000
Davis New York Venture Fund,"",Sold,Nov 18 2015,Sale (Partial); From Jill Cooper SEP,1001,15000
Franklin High Yield Tax-Free Income Fund,"",Sold,Apr 13 2015,Sale (Partial),1001,15000
Liberty Composite Fund,"",Sold,Sep 17 2015,Sale (Full),15001,50000
Prudential Jennison Natural Resources Fund,"",Sold,Dec 31 2015,Sale (Full),15001,50000
Prudential Muni High Income Fund,"",Purchased,Dec 31 2015,--,15001,50000
Wells Fargo Precious Metals Fund,"",Sold,Dec 31 2015,Sale (Full),15001,50000
Wells Fargo Strategic Municipal Bond Fund,"",Purchased,Dec 31 2015,--,15001,50000
