orgname,ultorg,action,date1,transnotes,minvalue,maxvalue
Bank of America,"",Sold,Jun 20 2008,"",1001,15000
General Electric,"",Purchased,Oct  3 2008,"",1001,15000
General Electric,"",Sold,Dec 19 2008,"",1001,15000
iShares MSCI Emerging Markets Index,"",Purchased,Oct 30 2008,"",1001,15000
iShares Russell 1000 Value Index,"",Sold,Dec 19 2008,"",15001,50000
iShares S&P Small Cap 600,"",Purchased,Dec 24 2008,"",1001,15000
Mexico Fund Inc,"",Sold,Jun 20 2008,"",15001,50000
Powershares ETF Dynamic,"",Purchased,Oct  3 2008,"",15001,50000
Powershares ETF International Fund,"",Purchased,Oct  3 2008,"",1001,15000
Powershares QQQ Trust,"",Purchased,Dec 24 2008,"",1001,15000
S&P 500 Depository Receipts,"",Purchased,Oct  3 2008,"",1001,15000
S&P Mid Cap 400 Depository Receipts,"",Purchased,Dec 24 2008,"",1001,15000
Smith Barney Aggressive Growth Fund,"",Sold,Oct  3 2008,"",1001,15000
Verizon Communications,"",Purchased,Oct  3 2008,"",1001,15000
