orgname,ultorg,action,date1,transnotes,minvalue,maxvalue
Altria Group,"",Purchased,Oct 11 2012,"",1001,15000
Atlantic Power Corp,"",Purchased,Nov  8 2012,"",1001,15000
Atlantic Power Corp,"",Sold,Dec 31 2012,"",50001,100000
B&G Foods Inc,"",Sold,Nov 21 2012,"",50001,100000
Cys Investments Inc,"",Purchased,Oct 18 2012,"",1001,15000
Cys Investments Inc,"",Purchased,Nov  2 2012,"",1001,15000
Cys Investments Inc,"",Purchased,Dec 31 2012,"",1001,15000
Duke Energy Corp,"",Sold,Nov 21 2012,"",50001,100000
Gamco Global Gold Nat Res & Income Trust,"",Purchased,Oct 11 2012,"",1001,15000
Gamco Global Gold Nat Res & Income Trust,"",Sold,Dec 31 2012,"",15001,50000
Gamco Global Gold Nat Res & Income Trust,"",Purchased,Oct  1 2012,"",1001,15000
Gamco Global Gold Nat Res & Income Trust,"",Purchased,Nov  2 2012,"",1001,15000
Ingersoll-Rand Inc,"",Sold,Jan 19 2012,"",1001,15000
iShares Silver Trust,"",Purchased,Dec 14 2012,"",15001,50000
Kimberly-Clark Corp,"",Purchased,Nov 27 2012,"",15001,50000
Linn Energy,"",Purchased,Nov 15 2012,"",1001,15000
Memorial Production Partners,"",Purchased,Jun 18 2012,"",50001,100000
Merck & Co,"",Purchased,Nov 28 2012,"",15001,50000
Pike Electric Corp,"",Purchased,Dec  5 2012,"",15001,50000
Pike Electric Corp,"",Purchased,Nov 28 2012,"",15001,50000
Pimco Strategic Global,"",Purchased,Dec 17 2012,"",1001,15000
Student Transportation Inc,"",Sold,Nov 19 2012,"",15001,50000
Student Transportation Inc,"",Sold,Nov 16 2012,"",50001,100000
Windstream Corp,"",Purchased,Oct 16 2012,"",1001,15000
Windstream Corp,"",Sold,Nov 16 2012,"",50001,100000
