orgname,ultorg,action,date1,transnotes,minvalue,maxvalue
Alerian MLP ETF,"",Purchased,Nov 19 2015,--,1001,15000
Alerian MLP ETF,"",Purchased,Dec  2 2015,--,1001,15000
American Funds Capital Income Builder Fund,"",Purchased,Apr 10 2015,--,1001,15000
American Funds Capital Income Builder Fund,"",Sold,Apr 10 2015,Sale (Partial),1001,15000
Baron Partners Institutional,"",Sold,Dec  2 2015,Sale (Partial),1001,15000
Baron Partners Institutional,"",Purchased,Jan 15 2015,--,1001,15000
Baron Partners Institutional,"",Sold,Aug 27 2015,Sale (Partial),1001,15000
BlackRock Strategic Income Oppurtunities Fund,"",Sold,Aug  7 2015,Sale (Partial),1001,15000
BlackRock Strategic Income Oppurtunities Fund,"",Purchased,Aug 27 2015,--,1001,15000
BlackRock Strategic Income Oppurtunities Fund,"",Sold,Dec  4 2015,Sale (Partial),1001,15000
Boston Partners Long Short Equity Inv,"",Sold,Dec  2 2015,Sale (Full),15001,50000
Cambiar International Equity Fund,"",Purchased,Dec  2 2015,--,1001,15000
Doubleline Total Return Bond Fund,"",Sold,Dec  4 2015,Sale (Partial),1001,15000
Doubleline Total Return Bond Fund,"",Purchased,Dec  2 2015,--,15001,50000
Doubleline Total Return Bond Fund,"",Purchased,Aug 27 2015,--,15001,50000
Goldman Sachs Strategic Income Fund,"",Purchased,Aug 28 2015,--,1001,15000
Goldman Sachs Strategic Income Fund,"",Sold,Nov 20 2015,Sale (Full),15001,50000
Goldman Sachs Strategic Income Fund,"",Sold,Aug  7 2015,Sale (Partial),1001,15000
Gotham Absolute Return Institutional,"",Sold,Aug 25 2015,Sale (Full),15001,50000
iShares Canada Index,"",Sold,Jan 15 2015,Sale (Full),1001,15000
iShares MSCI Mexico Capped ETF,"",Sold,Jan 15 2015,Sale (Full),1001,15000
iShares Russell 2000 Index,"",Sold,Aug 27 2015,Sale (Full),15001,50000
Kayne Anderson MLP,"",Purchased,Aug  7 2015,--,1001,15000
Kayne Anderson MLP,"",Sold,Nov 19 2015,Sale (Full),1001,15000
Kayne Anderson MLP,"",Sold,Nov 12 2015,Sale (Partial),1001,15000
Kayne Anderson MLP,"",Purchased,Aug 27 2015,--,1001,15000
MFS Growth,"",Purchased,Dec 17 2015,--,1001,15000
Neuberger Berman Long Short Instl,"",Purchased,Aug 27 2015,--,15001,50000
Neuberger Berman Long Short Instl,"",Sold,Dec  2 2015,Sale (Full),15001,50000
Oakmark Equity & Income I,"",Purchased,Dec 18 2015,--,1001,15000
Oakmark Equity & Income I,"",Sold,Dec  4 2015,Sale (Partial),1001,15000
Oakmark Equity & Income I,"",Purchased,Dec  2 2015,--,15001,50000
Oakmark International Fund,"",Purchased,Dec  2 2015,--,1001,15000
Oakmark International Fund,"",Sold,Aug 27 2015,Sale (Partial),1001,15000
Oakmark Select I,"",Sold,Aug 27 2015,Sale (Partial),15001,50000
Oakmark Select I,"",Purchased,Jan 15 2015,--,1001,15000
Oakmark Select I,"",Purchased,Dec  2 2015,--,1001,15000
Powershares QQQ Trust,"",Sold,Dec  2 2015,Sale (Partial),1001,15000
Powershares QQQ Trust,"",Sold,Dec  4 2015,Sale (Partial),1001,15000
Powershares QQQ Trust,"",Sold,Aug 27 2015,Sale (Partial),1001,15000
Primecap Odyssey Growth,"",Purchased,Dec  2 2015,--,15001,50000
Primecap Odyssey Growth,"",Sold,Dec  4 2015,Sale (Partial),1001,15000
Putnam Capital Spectrum Fund,"",Sold,Aug 27 2015,Sale (Partial),1001,15000
Putnam Diversified Income Y,"",Sold,Aug  7 2015,Sale (Partial),1001,15000
Putnam Diversified Income Y,"",Sold,Nov 19 2015,Sale (Full),15001,50000
Putnam Diversified Income Y,"",Purchased,Aug 27 2015,--,1001,15000
SPDR S&P 500 Fund,"",Sold,Aug 27 2015,Sale (Partial),15001,50000
SPDR S&P 500 Fund,"",Sold,Dec  2 2015,Sale (Full),1001,15000
SPDR S&P 500 Fund,"",Sold,Dec  4 2015,Sale (Partial),1001,15000
SPDR S&P Mid Cap 400 ETF,"",Sold,Dec  2 2015,Sale (Partial),1001,15000
SPDR S&P Mid Cap 400 ETF,"",Sold,Aug 27 2015,Sale (Partial),1001,15000
T. Rowe Price Capital Appreciation,"",Purchased,Aug 27 2015,--,1001,15000
T. Rowe Price Capital Appreciation,"",Sold,Dec  4 2015,Sale (Partial),1001,15000
T. Rowe Price Capital Appreciation,"",Purchased,Dec 15 2015,--,1001,15000
Vanguard FTSE All World Ex-US Index,"",Sold,Aug 27 2015,Sale (Full),15001,50000
Vanguard FTSE All-World ex-US Sm-Cp ETF,"",Purchased,Aug 27 2015,--,1001,15000
Vanguard FTSE All-World ex-US Sm-Cp ETF,"",Sold,Dec  2 2015,Sale (Full),1001,15000
Vanguard FTSE Developed Markets ETF,"",Sold,Dec  4 2015,Sale (Partial),1001,15000
Vanguard FTSE Developed Markets ETF,"",Purchased,Aug 27 2015,--,15001,50000
Vanguard FTSE Developed Markets ETF,"",Sold,Dec  2 2015,Sale (Partial),1001,15000
Vanguard Health Care ETF,"",Sold,Dec  2 2015,Sale (Partial),1001,15000
Vanguard Health Care ETF,"",Purchased,Aug 27 2015,--,15001,50000
Vanguard Small Cap Fund,"",Purchased,Aug 27 2015,--,15001,50000
Vanguard Small Cap Fund,"",Sold,Dec  2 2015,Sale (Partial),1001,15000
Wasatch International Growth Investor,"",Purchased,Dec  2 2015,--,1001,15000
Wisdomtree Europe Hedged Equity Fund,"",Purchased,Dec  2 2015,--,1001,15000
Wisdomtree Japan Hedged Equity Fund,"",Purchased,Dec  2 2015,--,1001,15000
