orgname,ultorg,action,date1,transnotes,minvalue,maxvalue
Hayward Wisconsin Cabin,"",Purchased,"","",250001,500000
Hayward Wisconsin Cabin,"",Purchased,"","",250001,500000
The Oakmark Global Select Fund Class I,"",Purchased,"","",1001,15000
The Oakmark Select Fund Class I,"",Purchased,"","",1001,15000
