orgname,ultorg,action,date1,transnotes,minvalue,maxvalue
Aged Based Portfolio 13-14,"",Exchanged,Dec 20 2018 12:00AM,"","",""
Aged Based Portfolio 13-14,"",Sold,12/20/2018,"",1001,15000
Aged Based Portfolio 13-14,"",Sold,12/20/2018,"",1001,15000
Aged Based Portfolio 15,"",Sold,Dec 20 2018 12:00AM,"","",""
Aged Based Portfolio 15,"",Purchased,12/20/2018,"",1001,15000
Aged Based Portfolio 15,"",Purchased,12/20/2018,"",1001,15000
Vanguard Target Retirement 2035 Investor Class,"",Purchased,12/28/2018,"",1001,15000
Vanguard Target Retirement 2035 Investor Class,"",Purchased,12/28/2018,"",15001,50000
Vanguard Target Retirement 2035 Investor Class,"",Purchased,12/28/2018,"",1001,15000
Vanguard Target Retirement 2035 Investor Class,"",Purchased,12/28/2018,"",15001,50000
Vanguard Target Retirement 2035 Investor Class,"",Sold,Dec 28 2018 12:00AM,"","",""
Vanguard Target Retirement 2035 Investor Class,"",Sold,Dec 28 2018 12:00AM,"","",""
