orgname,ultorg,action,date1,transnotes,minvalue,maxvalue
Align Technology,"",Purchased,Apr  4 2014,"",1001,15000
American Airlines,American Airlines Group,Purchased,Aug  1 2014,"",100001,250000
American Airlines,American Airlines Group,Sold,Aug  6 2014,"",100001,250000
American Century High Yield,"",Sold,Jul 10 2014,"",1001,15000
american Century Real Estate,"",Sold,Mar  6 2014,"",1001,15000
Banco Santander,"",Purchased,Jan 24 2014,"",100001,250000
Banco Santander,"",Sold,Jan 29 2014,"",100001,250000
Costco Wholesale,"",Sold,Dec  1 2014,"",1001,15000
CREF Global Equities Fund,"",Sold,Dec 24 2014,"",1001,15000
CREF Social Choice Fund,"",Sold,Dec 24 2014,"",1001,15000
EMC Corp,"",Sold,Jul 30 2014,"",1001,15000
Fidelity Capital & Income Fund,"",Sold,Dec 24 2014,"",15001,50000
Fidelity Contrafund,"",Sold,Apr 11 2014,"",100001,250000
Fidelity Convertible Securities Fund,"",Sold,Dec 24 2014,"",1001,15000
Fidelity Intermediate Municipal Income Fund,"",Purchased,Apr 14 2014,"",50001,100000
Fidelity Low Priced Stock Fund,"",Sold,Apr 11 2014,"",100001,250000
Fidelity Municipal Income Fund,"",Purchased,Feb 19 2014,"",15001,50000
Fidelity Municipal Income Fund,"",Sold,Oct  6 2014,"",15001,50000
Fidelity New Markets Income Fund,"",Purchased,Apr  9 2014,"",100001,250000
Fidelity New Markets Income Fund,"",Sold,Dec 24 2014,"",15001,50000
Fidelity Select Biotechnology Fund,"",Sold,Mar 24 2014,"",50001,100000
Fidelity Select IT Services Fund,"",Sold,Dec 24 2014,"",1001,15000
Fidelity Short-Term Municipal Income,"",Sold,May 14 2014,"",1001,15000
Fidelity Short-Term Municipal Income,"",Sold,Oct  8 2014,"",1001,15000
Fidelity Telecom & Utilities,"",Sold,Dec 24 2014,"",1001,15000
Foundation Medicine,"",Sold,Dec  2 2014,"",1001,15000
Global X Uranium ETF,"",Sold,Oct 17 2014,"",1001,15000
Global X Uranium ETF,"",Purchased,Mar 14 2014,"",1001,15000
Global X Uranium ETF,"",Purchased,Apr 23 2014,"",1001,15000
Google Inc,"",Purchased,Oct 15 2014,"",1001,15000
Google Inc,"",Sold,Oct 30 2014,"",1001,15000
Guggenheim Bullet Shares 2015,"",Sold,May 14 2014,"",1001,15000
Guggenheim Bullet Shares 2015,"",Sold,Oct  8 2014,"",1001,15000
Honda Motor Co,"",Purchased,Apr  8 2014,"",1001,15000
Intel Corp,"",Sold,Jul 31 2014,"",1001,15000
InvenSense Inc,"",Purchased,Sep 19 2014,"",1001,15000
InvenSense Inc,"",Sold,Oct 29 2014,"",1001,15000
iShares Barclays 1-3 Year Credit Bond Fund,"",Sold,May 14 2014,"",1001,15000
iShares Barclays 1-3 Year Credit Bond Fund,"",Sold,Sep  9 2014,"",1001,15000
iShares Barclays 1-3 Year Credit Bond Fund,"",Sold,Sep 10 2014,"",1001,15000
iShares Barclays 1-3 Year Credit Bond Fund,"",Sold,Sep 10 2014,"",1001,15000
iShares Barclays 1-3 Year Credit Bond Fund,"",Sold,Sep 11 2014,"",1001,15000
iShares Inc MSCI Brazil Capped Index Fund,"",Sold,Nov 20 2014,"",100001,250000
iShares Inc MSCI Brazil Capped Index Fund,"",Purchased,Oct 23 2014,"",100001,250000
iShares MSCI Emerging Market Fund,"",Purchased,Oct  3 2014,"",50001,100000
iShares MSCI Emerging Market Fund,"",Sold,Oct  8 2014,"",50001,100000
iShares MSCI Europe Financials Sector Index Fund,"",Sold,Apr  2 2014,"",1001,15000
iShares MSCI Taiwan Index,"",Sold,Dec 15 2014,"",1001,15000
iShares MSCI Taiwan Index,"",Purchased,Oct 17 2014,"",50001,100000
iShares North American Tech-Multimedia Networking,"",Sold,Dec  8 2014,"",1001,15000
iShares Transportation Average ETF,BlackRock,Purchased,Oct 16 2014,"",100001,250000
iShares Transportation Average ETF,BlackRock,Sold,Oct 27 2014,"",100001,250000
iShares Transportation Average ETF,BlackRock,Purchased,Dec  1 2014,"",100001,250000
iShares Transportation Average ETF,BlackRock,Sold,Dec  4 2014,"",100001,250000
iShares US Home Construction ETF,"",Sold,Apr 11 2014,"",1001,15000
iShares US Medical Devices ETF,"",Sold,Apr  1 2014,"",1001,15000
iShares US Oil Equipment & Services,"",Sold,Dec  5 2014,"",1001,15000
iShares US Oil Equipment & Services,"",Purchased,May 30 2014,"",1001,15000
iShares US Oil Equipment & Services,"",Purchased,Aug 22 2014,"",1001,15000
iShares US Pharmaceutical ETF,BlackRock,Sold,Apr  1 2014,"",1001,15000
Kadant Inc,"",Purchased,Sep 11 2014,"",1001,15000
Kubota Corp,"",Purchased,Mar 27 2014,"",1001,15000
LSI Corp,"",Sold,May  6 2014,"",1001,15000
Market Vectors Gold Miners ETF,"",Sold,Oct 17 2014,"",1001,15000
Market Vectors Gold Miners ETF,"",Purchased,Jan 27 2014,"",1001,15000
Market Vectors Gold Miners ETF,"",Purchased,Apr 23 2014,"",1001,15000
Market Vectors Vietnam (VNM),"",Sold,Aug  5 2014,"",15001,50000
Northern Global Real Estate Index Fund,"",Sold,Jan  9 2014,"",1001,15000
Orbotech Ltd,"",Purchased,Apr 30 2014,"",1001,15000
PIMCO Total Return Active Exchange,"",Sold,Jan  8 2014,"",1001,15000
PIMCO Total Return Active Exchange,"",Sold,May 14 2014,"",1001,15000
PIMCO Total Return Active Exchange,"",Exchanged,Oct  6 2014,"",1001,15000
PowerShares S&P SmallCap Information Tech,"",Sold,Jan 24 2014,"",1001,15000
Rite Aid Corp,"",Purchased,Apr 10 2014,"",100001,250000
Rite Aid Corp,"",Sold,Apr 15 2014,"",100001,250000
Rite Aid Corp,"",Sold,Apr 10 2014,"",15001,50000
SAPIENT CORP,"",Sold,Nov  3 2014,"",1001,15000
Select Sector SPDR Fund Consumer Discretionary,"",Sold,Jan 22 2014,"",1001,15000
Select Sector SPDR Fund Consumer Discretionary,"",Sold,Apr 17 2014,"",1001,15000
Select Sector SPDR Fund Consumer Discretionary,"",Sold,May 27 2014,"",1001,15000
Select Sector SPDR Fund Consumer Discretionary,"",Sold,Aug 19 2014,"",1001,15000
Silver Spring Network,"",Sold,Feb 10 2014,"",1001,15000
SPDR barclays high yield bond etf,"",Purchased,Sep 24 2014,"",100001,250000
SPDR barclays high yield bond etf,"",Sold,Dec 31 2014,"",100001,250000
SPDR S&P 500 Growth ETF (SPYG),"",Purchased,Jun 19 2014,"",100001,250000
SPDR S&P 500 Growth ETF (SPYG),"",Sold,Jun 24 2014,"",100001,250000
SPDR S&P 500 Growth ETF (SPYG),"",Purchased,Sep 12 2014,"",100001,250000
SPDR S&P 500 Growth ETF (SPYG),"",Sold,Sep 17 2014,"",100001,250000
SPDR S&P Insurance,"",Sold,Jan  1 2014,"",1001,15000
SPDR S&P International Energy Sector ETF,"",Purchased,Dec 31 2014,"",15001,50000
SPDR S&P International Financial Sector ETF,"",Purchased,Dec 31 2014,"",15001,50000
SPDR S&P International Health Care Sector ETF,"",Sold,Apr  1 2014,"",1001,15000
SPDR S&P International Materials Sector ETF,"",Purchased,Dec 31 2015,"",15001,50000
SPDR S&P MidCap 400,"",Sold,Sep 16 2014,"",1001,15000
SPDR Series Trust SPDR S&P Biotech ETF,"",Sold,Feb 13 2014,"",1001,15000
SPDR Short Term High Yield Bond (SJNK),"",Sold,May 14 2014,"",1001,15000
SPDR Short Term High Yield Bond (SJNK),"",Purchased,Apr 11 2014,"",100001,250000
SPDR Short Term High Yield Bond (SJNK),"",Sold,Jul 23 2014,"",100001,250000
SPDR Utilities (XLU),"",Sold,Jan 10 2014,"",100001,250000
SPDR Utilities (XLU),"",Purchased,Jun 19 2014,"",100001,250000
SPDR Utilities (XLU),"",Sold,Jun 24 2014,"",100001,250000
SPDR Utilities (XLU),"",Purchased,Sep 12 2014,"",100001,250000
SPDR Utilities (XLU),"",Sold,Sep 17 2014,"",100001,250000
SPDR Utilities (XLU),"",Purchased,Oct 15 2014,"",100001,250000
SPDR Utilities (XLU),"",Sold,Oct 20 2014,"",100001,250000
TIAA Real Estate Fund,"",Sold,Dec 24 2014,"",15001,50000
United Parcel Service,"",Purchased,Aug  6 2014,"",1001,15000
Vanguard Europe ETF,"",Sold,Apr  2 2014,"",1001,15000
Vanguard Europe ETF,"",Sold,Sep 17 2014,"",1001,15000
Vanguard Ftse Etf Devloped Markets,"",Sold,Sep 18 2014,"",15001,50000
Vanguard Total Stock Market Index,"",Sold,Dec 24 2014,"",1001,15000
WisdomTree International MidCap,"",Sold,Sep 17 2014,"",1001,15000
WisdomTree SmallCap,"",Sold,Dec  5 2014,"",1001,15000
Ww Grainger Inc,"",Purchased,Dec 12 2014,"",1001,15000
