orgname,ultorg,action,date1,transnotes,minvalue,maxvalue
Amedisys Inc,"",Sold,Jan 11 2011,"",1001,15000
Arbitrage Funds,"",Purchased,Nov 18 2011,"",15001,50000
Arbitrage Funds,"",Purchased,Nov 21 2011,"",1001,15000
Blackrock Global Allocation Fund,"",Purchased,May 20 2011,"",1001,15000
Blackrock Global Allocation Fund,"",Sold,Aug  4 2011,"",1001,15000
Blackrock Global Allocation Fund,"",Sold,Nov 17 2011,"",15001,50000
Cohen & Steers Rlty,"",Sold,May 20 2011,"",1001,15000
Cohen & Steers Rlty,"",Sold,Aug  3 2011,"",1001,15000
ConocoPhillips,"",Purchased,Jul 15 2011,"",1001,15000
CREF Inflation Linked Bond,"",Purchased,Jun 17 2011,"",50001,100000
Eaton Vance Global Allocation,"",Purchased,Nov 18 2011,"",15001,50000
Eaton Vance Global Macro Fund,"",Purchased,Nov 21 2011,"",1001,15000
Fid Adv FLTG RT,"",Purchased,Jan 12 2011,"",15001,50000
First Eagle FundS,"",Purchased,Dec 14 2011,"",1001,15000
First Eagle Global Fund,"",Sold,Jan 11 2011,"",1001,15000
First Eagle Global Fund,"",Sold,Aug  4 2011,"",1001,15000
Fld Adv Fltg RT,"",Sold,Nov 17 2011,"",15001,50000
Ford Motor Co,"",Purchased,Aug  3 2011,"",1001,15000
Goldman Sachs Financial Square Money Mkt,"",Sold,Jul 18 2011,"",1001,15000
Goldman Sachs Financial Square Money Mkt,"",Sold,Aug  3 2011,"",1001,15000
Goldman Sch Sht Term Duration Gov,"",Sold,Jan 11 2011,"",15001,50000
Harris Assoc Invt TR Oakmark,"",Purchased,Dec 16 2011,"",1001,15000
Harris Assoc Oakmark,"",Sold,Jan 11 2011,"",1001,15000
IVA Worldwide Fund,"",Sold,Aug  4 2011,"",1001,15000
IVA Worldwide Fund,"",Purchased,Dec 15 2011,"",1001,15000
Ivy Asset Strategy Fund ,"",Sold,Nov 18 2011,"",1001,15000
John Hancock Life Insurance - lifestyle ,"",Sold,May 11 2011,"",50001,100000
Mainstay Hi Yld,"",Sold,Aug  4 2011,"",1001,15000
Mainstay High Yield Corporate Bond,"",Purchased,Jan 12 2011,"",1001,15000
Natixis FDS TR II,"",Purchased,Nov 17 2011,"",15001,50000
Natixis FDS TR II,"",Purchased,Nov 21 2011,"",1001,15000
Oppenheimer International BD Fund,"",Purchased,Jan 12 2011,"",1001,15000
Oppenheimer International BD Fund,"",Sold,Aug  4 2011,"",1001,15000
Petrohawk Energy,"",Sold,Jul 15 2011,"",1001,15000
Petrohawk Energy,"",Purchased,May 10 2011,"",1001,15000
Pimco Global Multi-Asset Fund ,"",Sold,Aug  3 2011,"",1001,15000
Pimco Global Multi-Asset Fund ,"",Sold,Nov 17 2011,"",15001,50000
Pimco Global Multi-Asset Fund ,"",Purchased,Jan  4 2011,"",1001,15000
Pimco Global Multi-Asset Fund ,"",Sold,Nov 18 2011,"",1001,15000
Pimco Low Duration Fund,"",Sold,Nov 17 2011,"",15001,50000
Pimco Low Duration Fund,"",Purchased,Jan 12 2011,"",1001,15000
PIMCO Total Return Fund,"",Sold,Jan 11 2011,"",15001,50000
Pimco Unconstrained Bond Fund,"",Purchased,Nov 17 2011,"",50001,100000
Pimco Unconstrained Bond Fund,"",Purchased,Nov 18 2011,"",1001,15000
Prudential ST Corp,"",Sold,Aug  4 2011,"",1001,15000
Prudential ST Corp BD Fund,"",Purchased,Jan 12 2011,"",1001,15000
Prudential ST Corp BD Fund,"",Purchased,Nov 18 2011,"",1001,15000
Qualcomm Inc,"",Sold,May 10 2011,"",1001,15000
Rio Tinto Group,"",Purchased,May 10 2011,"",1001,15000
T Rowe Price Capital Appreciation Fund,"",Purchased,Dec  1 2011,"",15001,50000
T Rowe Price Capital Appreciation Fund,"",Sold,Nov 17 2011,"",15001,50000
T Rowe Price Capital Appreciation Fund,"",Sold,Nov 18 2011,"",1001,15000
TIAA-CREF Real Estate Fund,"",Sold,Jun 17 2011,"",100001,250000
TIAA-CREF Traditional,"",Purchased,Jun 17 2011,"",50001,100000
US Natural,"",Sold,May 10 2011,"",1001,15000
Virtus Opportunities ,"",Purchased,Aug  4 2011,"",15001,50000
Virtus Opportunities ,"",Purchased,Nov 18 2011,"",1001,15000
Virtus Opportunity Prem,"",Sold,Nov 17 2011,"",1001,15000
