orgname,ultorg,action,date1,transnotes,minvalue,maxvalue
Alerian Opportunity Partners III LP,"",Exchanged,Jan  5 2009,"",50001,100000
Alerian Opportunity Partners V LP,"",Exchanged,Aug 28 2009,"",50001,100000
Alerian Opportunity Partners VII,"",Exchanged,Dec  1 2009,"",50001,100000
Automatic Data Processing Inc,"",Sold,May 11 2009,"",100001,250000
Constellation Energy Partners LLC,"",Exchanged,Dec  1 2009,"",50001,100000
Constellation Energy Partners LLC,"",Exchanged,May 15 2009,"",1001,15000
Constellation Energy Partners LLC,"",Exchanged,Sep 11 2009,"",1001,15000
Enterprise Wexford Assoc,"",Purchased,May 31 2009,"",1001,15000
Enterprise Wexford Assoc,"",Purchased,Sep 30 2009,"",1001,15000
Fire Capital Fund,"",Purchased,Oct 31 2009,"",15001,50000
Fire Capital Fund,"",Purchased,Mar 31 2009,"",15001,50000
Genentech Inc,Roche Holdings,Sold,Mar 26 2009,"",50001,100000
Genentech Inc,Roche Holdings,Sold,Apr 22 2009,"",500001,1000000
Ginnie Mae bond,"",Sold,Sep 20 2009,"",50001,100000
Ginnie Mae bond,"",Sold,Oct 20 2009,"",1001,15000
Ginnie Mae bond,"",Sold,Nov 20 2009,"",15001,50000
Ginnie Mae bond,"",Sold,Dec 20 2009,"",15001,50000
Ginnie Mae Securities,Ginnie Mae,Purchased,Jun 12 2009,"",1000001,1000001
Ginnie Mae Securities,Ginnie Mae,Sold,Jul 20 2009,"",1001,15000
Ginnie Mae Securities,Ginnie Mae,Sold,Aug 20 2009,"",50001,100000
Linn Energy,"",Purchased,Jan  5 2009,"",50001,100000
Linn Energy,"",Purchased,Aug 26 2009,"",15001,50000
Linn Energy,"",Exchanged,Aug 28 2009,"",50001,100000
Linn Energy,"",Exchanged,Jan  5 2009,"",50001,100000
"Long Island, NY Elec Pwr Rev Bond","",Purchased,Jan  2 2009,"",50001,100000
New Jersey Economic Dev Auth Healthcare ,"",Purchased,Sep  1 2009,"",1000001,1000001
New Jersey Trans TR FD Auth Bond,"",Purchased,Jul  2 2009,"",100001,250000
New York MTA Bond,"",Purchased,Jan 20 2009,"",100001,250000
New York MTA Bond,"",Purchased,Jan  2 2009,"",15001,50000
New York MTA Dedicated Tax Bond,"",Purchased,Jan  2 2009,"",100001,250000
New York MTA Facilities Bond,"",Purchased,Jan  2 2009,"",500001,1000000
New York MTA Transportation Rev Bond,"",Purchased,Jan  2 2009,"",50001,100000
New York MTA Transportation Rev Bond,"",Purchased,Jan  2 2009,"",100001,250000
New York State Dorm Authority Bond,"",Purchased,Jan  2 2009,"",100001,250000
New York State Environmental Quality,"",Purchased,Jan  2 2009,"",15001,50000
New York State G/O Bond,"",Purchased,Nov 10 2009,"",250001,500000
New York State Higher Education Bond,"",Purchased,Oct 21 2009,"",500001,1000000
New York State Medical Facilities,"",Purchased,Jan  2 2009,"",100001,250000
New York State Power Auth Power Revenue,"",Purchased,Jan 31 2009,"",15001,50000
New York State Revenue Bond,"",Purchased,Jan  2 2009,"",100001,250000
New York State Revenue Bond,"",Sold,Apr  1 2009,"",15001,50000
New York State Transportation Revenue,"",Purchased,Jan 15 2009,"",15001,50000
New York State Twy Auth Hwy/Bridge Bond,"",Purchased,Nov 10 2009,"",100001,250000
New York State Twy Auth Transp Bond,"",Purchased,Aug  4 2009,"",500001,1000000
New York State Twy Auth Transp Bond,"",Purchased,Jan  2 2009,"",250001,500000
New York State Twy Auth Transp Bond,"",Purchased,Jan 31 2009,"",100001,250000
"New York, NY G/O Bond","",Purchased,Jan  2 2009,"",100001,250000
"New York, NY G/O Bond","",Purchased,Jan  2 2009,"",100001,250000
"New York, NY G/O Bond","",Purchased,Oct 26 2009,"",250001,500000
"New York, NY G/O Bond","",Purchased,Sep  1 2009,"",100001,250000
"New York, NY G/O Bond","",Purchased,Dec 10 2009,"",500001,1000000
"New York, NY G/O Bond","",Purchased,Oct 19 2009,"",1000001,1000001
"New York, NY G/O Bond","",Purchased,Jan  2 2009,"",15001,50000
"New York, NY G/O Bond","",Purchased,Jan  2 2009,"",15001,50000
"New York, NY G/O Bond","",Purchased,Jan 20 2009,"",15001,50000
"New York, NY G/O Bond","",Purchased,Jan 20 2009,"",50001,100000
"New York, NY G/O Bond","",Purchased,Jan  2 2009,"",50001,100000
"New York, NY OID Bond","",Purchased,Jan  2 2009,"",100001,250000
NY St Dorm Auth Higher Education,"",Purchased,Jan 20 2009,"",100001,250000
NYS Dorm Auth Revs Education Rev,"",Purchased,Jan  2 2009,"",15001,50000
NYS Dorm Auth Revs ST Personal Inc,"",Purchased,Jan 20 2009,"",50001,100000
NYS Environmental FACS G/O Bond,"",Purchased,Jan 31 2009,"",100001,250000
NYS Twy Auth Hwy & Bridge Transp Bond,"",Purchased,Jan 15 2009,"",100001,250000
NYS Twy Auth Hwy & Bridge Transp Bond,"",Purchased,Jan  2 2009,"",50001,100000
Odyssey Partners,"",Sold,Jan  1 2009,"",1001,15000
Patchogue Medford NY USD Bond,"",Purchased,Sep 29 2009,"",500001,1000000
"Philadelphia, PA Facilities Revenue","",Purchased,Jul 10 2009,"",50001,100000
Proshares UltraShort,"",Purchased,May 13 2009,"",1001,15000
Telesoft Partners II QP LP,"",Purchased,Jun 30 2009,"",15001,50000
"Tompkins County, NY Educational Rev","",Purchased,Jan  2 2009,"",15001,50000
Triborough Bridge & Tunnel Auth NY Bond,"",Purchased,Jan 20 2009,"",100001,250000
Triborough Bridge & Tunnel Auth NY Bond,"",Purchased,Jan  2 2009,"",100001,250000
Triborough Bridge & Tunnel Auth NY Bond,"",Purchased,Jan 15 2009,"",50001,100000
University Arkansas Higher Education,"",Purchased,Oct  7 2009,"",100001,250000
Vermillion Inc,"",Purchased,Dec 14 2009,"",50001,100000
Vermillion Inc,"",Purchased,Dec 15 2009,"",50001,100000
Vermillion Inc,"",Purchased,Nov 25 2009,"",100001,250000
