orgname,ultorg,action,date1,transnotes,minvalue,maxvalue
Columbia ETF TR II Emrg Markets,"",Sold,Nov  2 2017 12:00AM,"","",""
Columbia ETF TR II Emrg Markets,"",Purchased,11/2/2017,"",1001,15000
Columbia ETF TR II Emrg Markets,"",Purchased,11/2/2017,"",1001,15000
Columbia ETFTR II Emr Markets,"",Purchased,11/16/2017,"",1001,15000
Columbia ETFTR II Emr Markets,"",Purchased,11/16/2017,"",1001,15000
Columbia ETFTR II Emr Markets,"",Sold,Nov 16 2017 12:00AM,"","",""
Commodity Strategies Fund CL S,"",Exchanged,Nov  2 2017 12:00AM,"","",""
Commodity Strategies Fund CL S,"",Sold,11/2/2017,"",15001,50000
Commodity Strategies Fund CL S,"",Sold,11/2/2017,"",15001,50000
Commodity Strategies Fund CLS,"",Sold,11/2/2017,"",15001,50000
Commodity Strategies Fund CLS,"",Sold,11/2/2017,"",15001,50000
Commodity Strategies Fund CLS,"",Exchanged,Nov  2 2017 12:00AM,"","",""
DFA Commodity Strategy Port,"",Sold,Nov  2 2017 12:00AM,"","",""
DFA Commodity Strategy Port,"",Sold,Nov  2 2017 12:00AM,"","",""
DFA Commodity Strategy Port,"",Purchased,11/2/2017,"",15001,50000
DFA Commodity Strategy Port,"",Purchased,11/2/2017,"",15001,50000
DFA Commodity Strategy Port,"",Purchased,11/2/2017,"",15001,50000
DFA Commodity Strategy Port,"",Purchased,11/2/2017,"",15001,50000
DFA Global Real Estate SEC Portfolio,"",Purchased,11/2/2017,"",15001,50000
DFA Global Real Estate SEC Portfolio,"",Purchased,11/2/2017,"",15001,50000
DFA Global Real Estate SEC Portfolio,"",Sold,Nov  2 2017 12:00AM,"","",""
DFA Global Real Estate Securities,"",Sold,Nov  2 2017 12:00AM,"","",""
DFA Global Real Estate Securities,"",Purchased,11/2/2017,"",15001,50000
DFA Global Real Estate Securities,"",Purchased,11/2/2017,"",15001,50000
Emergings Markets,"",Sold,11/2/2017,"",1001,15000
Emergings Markets,"",Sold,11/2/2017,"",1001,15000
Emergings Markets,"",Sold,11/2/2017,"",1001,15000
Emergings Markets,"",Sold,11/2/2017,"",1001,15000
Global Real Estate,"",Sold,11/2/2017,"",15001,50000
Global Real Estate,"",Sold,11/2/2017,"",15001,50000
Global Real Estate,"",Exchanged,Nov  2 2017 12:00AM,"","",""
Global Real Estate Securities S,"",Exchanged,Nov  2 2017 12:00AM,"","",""
Global Real Estate Securities S,"",Sold,11/2/2017,"",15001,50000
Global Real Estate Securities S,"",Sold,11/2/2017,"",15001,50000
Russell Lifepoints Balanced Strategy S,"",Purchased,1/12/2017,"",1001,15000
Russell Lifepoints Balanced Strategy S,"",Purchased,1/12/2017,"",1001,15000
Russell Lifepoints Balanced Strategy S,"",Purchased,1/12/2017,"",1001,15000
Russell Lifepoints Balanced Strategy S,"",Purchased,1/12/2017,"",1001,15000
Russell Lifepoints Balanced Strategy S,"",Sold,Jan 12 2017 12:00AM,"","",""
Russell Lifepoints Balanced Strategy S,"",Sold,Jan 12 2017 12:00AM,"","",""
Tax Emempt Bond Fund Class S,"",Sold,Sep 21 2017 12:00AM,"","",""
Tax Emempt Bond Fund Class S,"",Sold,Nov 21 2017 12:00AM,"","",""
Tax Emempt Bond Fund Class S,"",Sold,Dec 21 2017 12:00AM,"","",""
Tax Emempt Bond Fund Class S,"",Sold,Sep 21 2017 12:00AM,"","",""
Tax Emempt Bond Fund Class S,"",Purchased,9/21/2017,"",1001,15000
Tax Emempt Bond Fund Class S,"",Purchased,11/21/2017,"",1001,15000
Tax Emempt Bond Fund Class S,"",Purchased,12/21/2017,"",1001,15000
Tax Emempt Bond Fund Class S,"",Purchased,9/21/2017,"",1001,15000
Tax Emempt Bond Fund Class S,"",Purchased,9/21/2017,"",1001,15000
Tax Emempt Bond Fund Class S,"",Purchased,11/21/2017,"",1001,15000
Tax Emempt Bond Fund Class S,"",Purchased,12/21/2017,"",1001,15000
Tax Emempt Bond Fund Class S,"",Purchased,9/21/2017,"",1001,15000
Tax Exempt Bond Fund Class S,"",Purchased,10/23/2017,"",1001,15000
Tax Exempt Bond Fund Class S,"",Purchased,11/21/2017,"",1001,15000
Tax Exempt Bond Fund Class S,"",Purchased,12/21/2017,"",1001,15000
Tax Exempt Bond Fund Class S,"",Purchased,9/21/2017,"",1001,15000
Tax Exempt Bond Fund Class S,"",Purchased,10/23/2017,"",1001,15000
Tax Exempt Bond Fund Class S,"",Purchased,11/21/2017,"",1001,15000
Tax Exempt Bond Fund Class S,"",Purchased,12/21/2017,"",1001,15000
Tax Exempt Bond Fund Class S,"",Purchased,10/23/2017,"",1001,15000
Tax Exempt Bond Fund Class S,"",Purchased,10/23/2017,"",1001,15000
Tax Exempt Bond Fund Class S,"",Purchased,11/21/2017,"",1001,15000
Tax Exempt Bond Fund Class S,"",Purchased,12/21/2017,"",1001,15000
Tax Exempt Bond Fund Class S,"",Purchased,10/23/2017,"",1001,15000
Tax Exempt Bond Fund Class S,"",Purchased,9/21/2017,"",1001,15000
Tax Exempt Bond Fund Class S,"",Purchased,10/23/2017,"",1001,15000
Tax Exempt Bond Fund Class S,"",Purchased,11/21/2017,"",1001,15000
Tax Exempt Bond Fund Class S,"",Purchased,12/21/2017,"",1001,15000
Tax Exempt Bond Fund Class S,"",Sold,Oct 23 2017 12:00AM,"","",""
Tax Exempt Bond Fund Class S,"",Sold,Nov 21 2017 12:00AM,"","",""
Tax Exempt Bond Fund Class S,"",Sold,Dec 21 2017 12:00AM,"","",""
Tax Exempt Bond Fund Class S,"",Sold,Oct 23 2017 12:00AM,"","",""
Tax Exempt Bond Fund Class S,"",Sold,Sep 21 2017 12:00AM,"","",""
Tax Exempt Bond Fund Class S,"",Sold,Oct 23 2017 12:00AM,"","",""
Tax Exempt Bond Fund Class S,"",Sold,Nov 21 2017 12:00AM,"","",""
Tax Exempt Bond Fund Class S,"",Sold,Dec 21 2017 12:00AM,"","",""
Tax Managed Large CAP Fund,"",Sold,Dec 22 2017 12:00AM,"","",""
Tax Managed Large CAP Fund,"",Purchased,12/22/2017,"",1001,15000
Tax Managed Large CAP Fund,"",Purchased,12/22/2017,"",1001,15000
Tax Managed US Large CAP Fund CL,"",Purchased,10/23/2017,"",1001,15000
Tax Managed US Large CAp Fund CL,"",Purchased,9/21/2017,"",1001,15000
Tax Managed US Large CAP Fund CL,"",Purchased,10/23/2017,"",1001,15000
Tax Managed US Large CAp Fund CL,"",Purchased,9/21/2017,"",1001,15000
Tax Managed US Large CAP Fund CL,"",Purchased,10/23/2017,"",1001,15000
Tax Managed US Large CAP Fund CL,"",Purchased,10/23/2017,"",1001,15000
Tax Managed US Large CAp Fund CL,"",Sold,Sep 21 2017 12:00AM,"","",""
Tax Managed US Large CAP Fund CL,"",Sold,Oct 23 2017 12:00AM,"","",""
Tax Managed US Large CAP Fund CL,"",Sold,Oct 23 2017 12:00AM,"","",""
Tax Managed US Large CAP Fund CL S,"",Sold,Sep 21 2017 12:00AM,"","",""
Tax Managed US Large CAP Fund CL S,"",Sold,Nov 21 2017 12:00AM,"","",""
Tax Managed US Large CAP Fund CL S,"",Sold,Dec 21 2017 12:00AM,"","",""
Tax Managed US Large Cap Fund CL S,"",Sold,Sep 21 2017 12:00AM,"","",""
Tax Managed US Large CAP Fund CL S,"",Sold,Nov 21 2017 12:00AM,"","",""
Tax Managed US Large CAP Fund CL S,"",Sold,Dec 21 2017 12:00AM,"","",""
Tax Managed US Large CAP Fund CL S,"",Sold,Oct 23 2017 12:00AM,"","",""
Tax Managed US Large CAP Fund CL S,"",Sold,Nov 21 2017 12:00AM,"","",""
Tax Managed US Large CAP Fund CL S,"",Sold,Dec 21 2017 12:00AM,"","",""
Tax Managed US Large CAP Fund CL S,"",Purchased,9/21/2017,"",1001,15000
Tax Managed US Large CAP Fund CL S,"",Purchased,11/21/2017,"",1001,15000
Tax Managed US Large CAP Fund CL S,"",Purchased,12/21/2017,"",1001,15000
Tax Managed US Large Cap Fund CL S,"",Purchased,9/21/2017,"",1001,15000
Tax Managed US Large CAP Fund CL S,"",Purchased,11/21/2017,"",1001,15000
Tax Managed US Large CAP Fund CL S,"",Purchased,12/21/2017,"",1001,15000
Tax Managed US Large CAP Fund CL S,"",Purchased,10/23/2017,"",1001,15000
Tax Managed US Large CAP Fund CL S,"",Purchased,11/21/2017,"",1001,15000
Tax Managed US Large CAP Fund CL S,"",Purchased,12/21/2017,"",1001,15000
Tax Managed US Large CAP Fund CL S,"",Purchased,9/21/2017,"",1001,15000
Tax Managed US Large CAP Fund CL S,"",Purchased,11/21/2017,"",1001,15000
Tax Managed US Large CAP Fund CL S,"",Purchased,12/21/2017,"",1001,15000
Tax Managed US Large CAP Fund CL S,"",Purchased,10/23/2017,"",1001,15000
Tax Managed US Large CAP Fund CL S,"",Purchased,11/21/2017,"",1001,15000
Tax Managed US Large CAP Fund CL S,"",Purchased,12/21/2017,"",1001,15000
Tax Managed US Large Cap Fund CL S,"",Purchased,9/21/2017,"",1001,15000
Tax Managed US Large CAP Fund CL S,"",Purchased,11/21/2017,"",1001,15000
Tax Managed US Large CAP Fund CL S,"",Purchased,12/21/2017,"",1001,15000
Tax Managed US Mid & Small CP S,"",Purchased,9/21/2017,"",1001,15000
Tax Managed US Mid & Small CP S,"",Purchased,11/21/2017,"",1001,15000
Tax Managed US Mid & Small CP S,"",Purchased,9/21/2017,"",1001,15000
Tax Managed US Mid & Small CP S,"",Purchased,11/21/2017,"",1001,15000
Tax Managed US Mid & Small CP S,"",Purchased,9/21/2017,"",1001,15000
Tax Managed US Mid & Small CP S,"",Purchased,11/21/2017,"",1001,15000
Tax Managed US Mid & Small CP S,"",Purchased,12/22/2017,"",1001,15000
Tax Managed US Mid & Small CP S,"",Purchased,12/22/2017,"",1001,15000
Tax Managed US Mid & Small CP S,"",Purchased,9/21/2017,"",1001,15000
Tax Managed US Mid & Small CP S,"",Purchased,11/21/2017,"",1001,15000
Tax Managed US Mid & Small CP S,"",Purchased,12/22/2017,"",1001,15000
Tax Managed US Mid & Small CP S,"",Purchased,12/22/2017,"",1001,15000
Tax Managed US Mid & Small CP S,"",Purchased,9/21/2017,"",1001,15000
Tax Managed US Mid & Small CP S,"",Purchased,11/21/2017,"",1001,15000
Tax Managed US Mid & Small CP S,"",Purchased,9/21/2017,"",1001,15000
Tax Managed US Mid & Small CP S,"",Purchased,11/21/2017,"",1001,15000
Tax Managed US Mid & Small CP S,"",Sold,Sep 21 2017 12:00AM,"","",""
Tax Managed US Mid & Small CP S,"",Sold,Nov 21 2017 12:00AM,"","",""
Tax Managed US Mid & Small CP S,"",Sold,Dec 22 2017 12:00AM,"","",""
Tax Managed US Mid & Small CP S,"",Sold,Dec 22 2017 12:00AM,"","",""
Tax Managed US Mid & Small CP S,"",Sold,Sep 21 2017 12:00AM,"","",""
Tax Managed US Mid & Small CP S,"",Sold,Nov 21 2017 12:00AM,"","",""
Tax Managed US Mid & Small CP S,"",Sold,Sep 21 2017 12:00AM,"","",""
Tax Managed US Mid & Small CP S,"",Sold,Nov 21 2017 12:00AM,"","",""
Tax-Managed Internatl Equity S,"",Sold,Sep 21 2017 12:00AM,"","",""
Tax-Managed Internatl Equity S,"",Sold,Oct 23 2017 12:00AM,"","",""
Tax-Managed Internatl Equity S,"",Sold,Nov 21 2017 12:00AM,"","",""
Tax-Managed Internatl Equity S,"",Sold,Dec 21 2017 12:00AM,"","",""
Tax-Managed Internatl Equity S,"",Sold,Sep 21 2017 12:00AM,"","",""
Tax-Managed Internatl Equity S,"",Sold,Oct 23 2017 12:00AM,"","",""
Tax-Managed Internatl Equity S,"",Sold,Nov 21 2017 12:00AM,"","",""
Tax-Managed Internatl Equity S,"",Sold,Dec 21 2017 12:00AM,"","",""
Tax-Managed Internatl Equity S,"",Sold,Nov 21 2017 12:00AM,"","",""
Tax-Managed Internatl Equity S,"",Sold,Sep 21 2017 12:00AM,"","",""
Tax-Managed Internatl Equity S,"",Sold,Oct 23 2017 12:00AM,"","",""
Tax-Managed Internatl Equity S,"",Sold,Dec 21 2017 12:00AM,"","",""
Tax-Managed Internatl Equity S,"",Purchased,9/21/2017,"",1001,15000
Tax-Managed Internatl Equity S,"",Purchased,10/23/2017,"",1001,15000
Tax-Managed Internatl Equity S,"",Purchased,11/21/2017,"",1001,15000
Tax-Managed Internatl Equity S,"",Purchased,12/21/2017,"",1001,15000
Tax-Managed Internatl Equity S,"",Purchased,9/21/2017,"",1001,15000
Tax-Managed Internatl Equity S,"",Purchased,10/23/2017,"",1001,15000
Tax-Managed Internatl Equity S,"",Purchased,11/21/2017,"",1001,15000
Tax-Managed Internatl Equity S,"",Purchased,12/21/2017,"",1001,15000
Tax-Managed Internatl Equity S,"",Purchased,9/21/2017,"",1001,15000
Tax-Managed Internatl Equity S,"",Purchased,10/23/2017,"",1001,15000
Tax-Managed Internatl Equity S,"",Purchased,12/21/2017,"",1001,15000
Tax-Managed Internatl Equity S,"",Purchased,11/21/2017,"",1001,15000
Tax-Managed Internatl Equity S,"",Purchased,9/21/2017,"",1001,15000
Tax-Managed Internatl Equity S,"",Purchased,10/23/2017,"",1001,15000
Tax-Managed Internatl Equity S,"",Purchased,11/21/2017,"",1001,15000
Tax-Managed Internatl Equity S,"",Purchased,12/21/2017,"",1001,15000
Tax-Managed Internatl Equity S,"",Purchased,9/21/2017,"",1001,15000
Tax-Managed Internatl Equity S,"",Purchased,10/23/2017,"",1001,15000
Tax-Managed Internatl Equity S,"",Purchased,12/21/2017,"",1001,15000
Tax-Managed Internatl Equity S,"",Purchased,9/21/2017,"",1001,15000
Tax-Managed Internatl Equity S,"",Purchased,10/23/2017,"",1001,15000
Tax-Managed Internatl Equity S,"",Purchased,11/21/2017,"",1001,15000
Tax-Managed Internatl Equity S,"",Purchased,12/21/2017,"",1001,15000
Tax-Managed Internatl Equity S,"",Purchased,11/21/2017,"",1001,15000
US Defensive Equity Class S,"",Sold,9/21/2017,"",1001,15000
US Defensive Equity Class S,"",Sold,9/21/2017,"",1001,15000
